,0
import_elec,-142824817.83158678
import_th,0.0
consum_elec,841569464.0
consum_th,2694297419.9898734
consum_cold,231323418.9045488
pow_elec_hp,0.0
pow_th_hp,0.0
pow_th_gb,2993661238.099329
pow_th_chp,0.0
pow_gas_gb,3117422928.3550243
pow_elec_eh,83369205.06552686
pow_elec_ac,116418037.63747002
pow_elec_chp,0.0
pow_th_eh_in,333476820.26210743
pow_th_eh_out,416846025.32763433
consum_dhw,301956785.88
gen_pv,1162927412.7139301
trans_to_hub,765508041.2042036
trans_to_bul,618855683.1665958
dh_to_bul_1,0.0
dh_to_bul_2,0.0
temp_zone_1,200037.12351991734
temp_zone_2,0.0
temp_amb,86002.3
pow_elec_bat,-19450667.08048975
pow_th_tes,-17676357.01992825
soc_bat_avg,4514.604140303671
soc_tes_avg,2934.3251953260888
soc_ev_1,6298.085801512098
soc_ev_2,0.0
consum_ev_drive,51993300.0
consum_ev_charge,-49517304.07854784
soc_ev_1_driving,1099.7833333333333
soc_ev_2_driving,0.0
obj_cost,279941.4080622941
obj_co2,619797455.5656693
obj_peak,-142824817.83158678
emi_factor_elec,2095054.0
emi_factor_dh,1656539.0
price_elec,578160.0
price_dh,692825.63
slack_ext,0.0
restload_avg,0.0
renovation_cost_construction,3938723.8633599994
renovation_cost_hp,0.0
renovation_cost_pv,1659816.2348383616
renovation_cost_total,5598540.098198362
