,load_elec,grid,hp_elec,ev,pv,bat_pow,cool,load_th_sh,load_th_dhw,tes_pow,dh,hp_th,bat_soc,tes_soc,ev_soc,eh_th_in,eh_elec_in,eh_th_out,temp_slack,temp_zone_1,temp_zone_2,temp_update,Qsolar_1,QconvInt_1,QradInt_1,Qvent_1,Qconduc_1,Qheating_1,Qsolar_2,QconvInt_2,QradInt_2,Qvent_2,Qconduc_2,Qheating_2,temp_amb,temp_aggregate_1,temp_aggregate_2,temp_wall_1,temp_wall_2,_Tamb,_Tz_1,_TEW_1,_TIW_1,_T1_1,_T2_1,_Taeq_1,_Tvent_1,_Qheating_1,_Qinfvent_1,_Qenvelope_1,_Qsolar_1,_Qint_people_1,_Qint_lighting_1,_Qint_appliances_1,_Tz_2,_TEW_2,_TIW_2,_T1_2,_T2_2,_Taeq_2,_Tvent_2,_Qheating_2,_Qinfvent_2,_Qenvelope_2,_Qsolar_2,_Qint_people_2,_Qint_lighting_2,_Qint_appliances_2
390.0,991.0,11789.469570043002,22499.522222192783,-0.0,0.0,11760.0,0.0,44288.25010750642,0.0,0.0,0.0,44288.25010750642,0.0,0.5,0.8,0.0,0.0,0.0,"[2.0, 2.0, 2.0, 2.0, 2.0, 2.0, 2.0, 2.0]",20.0,0.0,0.0,0.0,320.871383293024,107.5238939764681,-1334.225514226645,-1391.9426156778686,2307.521455601089,0.0,0.0,0.0,0.0,0.0,0.0,-6.2,19.413486090077168,0.0,19.0,0.0,-6.2,20.0,18.0,20.0,20.0,20.0,-6.68,-6.2,11612.76,-931.21,-3754.64,0.0,268.0,35.0,91.0,0.0,0.0,0.0,0.0,0.0,0.0,0.0,0.0,0.0,0.0,0.0,0.0,0.0,0.0
391.0,1535.0,156501.47486984616,0.0,-0.0,0.0,-16000.0,0.0,44365.57074594719,0.0,-80000.0,0.0,0.0,0.6533333333333333,0.8266666666666667,0.8,552735.8699819878,138183.96749549694,690919.8374774846,"[2.0, 2.0, 2.0, 2.0, 2.0, 2.0, 2.0, 2.0]",20.0,0.0,0.0,0.0,284.0489026025542,108.59881676247221,-1339.3179780214034,-1542.3542638523918,2498.8705828405746,0.0,0.0,0.0,0.0,0.0,0.0,-6.3,19.341418290622205,0.0,18.871839200461707,0.0,-6.3,20.0,17.72,20.03,19.31,20.11,-6.77,-6.3,6979.95,-934.77,-3768.97,0.0,214.0,67.0,89.0,0.0,0.0,0.0,0.0,0.0,0.0,0.0,0.0,0.0,0.0,0.0,0.0,0.0,0.0
392.0,3006.0,0.0,12092.408309132261,-0.0,0.0,15098.408309132261,0.0,23802.798935378632,0.0,0.0,0.0,23802.798935378636,0.01139420454369644,0.8266666666666667,0.8,0.0,0.0,0.0,"[2.0, 2.0, 2.0, 2.0, 2.0, 2.0, 2.0, 2.0]",20.0,0.0,0.0,1.8458078227249513,287.4875778421311,108.34589375400064,-1334.225514226645,-1681.5611093100113,2627.8764556921788,0.0,0.0,0.0,0.0,0.0,0.0,-6.2,19.274143227313576,0.0,18.75231876096273,0.0,-6.2,20.0,17.46,20.05,19.22,20.13,-6.67,-6.2,9307.2,-931.21,-3754.64,2.92,228.0,59.0,85.0,0.0,0.0,0.0,0.0,0.0,0.0,0.0,0.0,0.0,0.0,0.0,0.0,0.0,0.0
393.0,3406.0,3413.567096480935,0.0,-0.0,9.500739001469993,0.0,0.0,49555.46025382878,0.0,49555.46025382879,0.0,0.0,0.01139420454369644,0.6159716825942654,0.8,0.0,0.0,0.0,"[2.0, 2.0, 2.0, 2.0, 2.0, 2.0, 2.0, 2.0]",20.0,0.0,0.0,29.876075187543677,330.04118393189594,90.19866789616687,-1298.5782676633376,-1806.6578365335868,10976.65589645173,0.0,0.0,0.0,0.0,0.0,0.0,-5.5,19.211665371424996,0.0,18.641615565327598,0.0,-5.5,20.0,17.21,20.07,19.13,20.14,-5.94,-5.5,8284.42,-906.33,-3654.33,47.25,166.0,58.0,149.0,0.0,0.0,0.0,0.0,0.0,0.0,0.0,0.0,0.0,0.0,0.0,0.0,0.0,0.0
394.0,4799.0,6150.080134540615,0.0,-0.0,47.89172931761986,-1368.2214631855322,0.0,34849.97696913711,0.0,34849.97696913711,0.0,0.0,0.06726324762377234,0.46780001180711783,0.8,0.0,0.0,0.0,"[2.0, 2.0, 2.0, 2.0, 2.0, 2.0, 2.0, 2.0]",24.0,0.0,0.0,42.413861745262466,448.7471187647917,80.80890120666055,-1476.8145004798744,-7396.745995781385,8161.61631450018,0.0,0.0,0.0,0.0,0.0,0.0,-5.0,20.533040683858527,0.0,18.82334794940192,0.0,-5.0,24.0,17.19,20.45,21.93,22.41,-5.4,-5.0,0.0,-1030.73,-4155.9,67.08,184.0,27.0,230.0,0.0,0.0,0.0,0.0,0.0,0.0,0.0,0.0,0.0,0.0,0.0,0.0,0.0,0.0
395.0,3357.0,19058.16679960276,0.0,-0.0,394.1240343952511,-16000.0,0.0,21119.02818075292,0.0,21119.02818075292,0.0,0.0,0.7205965809571057,0.3780082253243248,0.8,0.0,0.0,0.0,"[2.0, 2.0, 2.0, 2.0, 2.0, 2.0, 2.0, 2.0]",23.93,0.0,0.0,74.43831677613873,127.94737453925894,2.971845349540721,-1442.6812609568492,-6932.757939701813,0.0,0.0,0.0,0.0,0.0,0.0,0.0,-4.4,20.68397056808063,0.0,19.032637296186653,0.0,-4.4,23.93,17.21,20.86,21.6,22.38,-4.82,-4.4,9969.26,-1006.91,-4059.85,117.72,0.0,0.0,94.0,0.0,0.0,0.0,0.0,0.0,0.0,0.0,0.0,0.0,0.0,0.0,0.0,0.0,0.0
396.0,2048.0,7367.6702879350505,5892.840231951409,-0.0,610.008295456034,0.0,0.0,43476.39143629526,0.0,30640.95321663044,0.0,12835.438219664815,0.7205965809571057,0.2477320636889913,0.8,0.0,0.0,0.0,"[2.0, 2.0, 2.0, 2.0, 2.0, 2.0, 2.0, 2.0]",20.0,0.0,0.0,84.4218946855181,126.5862322569264,2.940229973481778,-1222.1913107419648,-1221.1424536562165,10541.41359698479,0.0,0.0,0.0,0.0,0.0,0.0,-4.0,19.48856528322283,0.0,18.95142301156005,0.0,-4.0,20.0,17.05,20.85,18.8,20.36,-4.4,-4.0,0.0,-853.02,-3439.37,133.51,0.0,0.0,93.0,0.0,0.0,0.0,0.0,0.0,0.0,0.0,0.0,0.0,0.0,0.0,0.0,0.0,0.0
397.0,3060.0,8208.397812428882,21478.474667490034,-0.0,371.11884412329744,16000.0,0.0,47192.67282458465,0.0,0.0,0.0,47192.67282458465,0.040324472113568266,0.2477320636889913,0.8,0.0,0.0,0.0,"[2.0, 2.0, 2.0, 2.0, 2.0, 2.0, 2.0, 2.0]",24.0,0.0,0.0,74.22877936574564,248.5159251269257,44.60929561916981,-1415.7049349427762,-6863.5757252208405,7913.798833626824,0.0,0.0,0.0,0.0,0.0,0.0,-3.8,20.785929126979234,0.0,19.10980295857828,0.0,-3.8,24.0,17.07,21.15,21.89,22.79,-4.24,-3.8,844.08,-988.08,-3983.93,117.39,124.0,3.0,117.0,0.0,0.0,0.0,0.0,0.0,0.0,0.0,0.0,0.0,0.0,0.0,0.0,0.0,0.0
398.0,1653.0,64318.82347479359,0.0,-0.0,76.84747163879439,-16000.0,0.0,41778.96914615256,0.0,0.0,0.0,0.0,0.6936578054469016,0.2477320636889913,0.8,185684.30731623367,46421.07682905842,232105.38414529208,"[2.0, 2.0, 2.0, 2.0, 2.0, 2.0, 2.0, 2.0]",24.0,0.0,0.0,49.50490576186798,364.4995753951565,108.50397063429537,-1420.7973987375342,-6545.868565537034,7452.5462113183885,0.0,0.0,0.0,0.0,0.0,0.0,-3.9,20.939244584244676,0.0,19.302156292150734,0.0,-3.9,24.0,17.12,21.49,21.63,22.76,-4.39,-3.9,1277.38,-991.64,-3998.26,78.29,334.0,0.0,92.0,0.0,0.0,0.0,0.0,0.0,0.0,0.0,0.0,0.0,0.0,0.0,0.0,0.0,0.0
399.0,2423.0,0.0,0.0,-0.0,0.4524158888741968,8161.231584111126,0.0,35311.84537965076,28693.42,58266.58137965076,0.0,0.0,0.3466666666666667,0.0,0.8,22954.736,5738.684,28693.42,"[2.0, 2.0, 2.0, 2.0, 2.0, 2.0, 2.0, 2.0]",24.0,0.0,0.0,17.54514901916454,319.725158213165,51.75437060849111,-1436.0747901218087,-6264.779153967297,0.0,0.0,0.0,0.0,0.0,0.0,0.0,-4.2,21.075478874640616,0.0,19.473062355348134,0.0,-4.2,24.0,17.16,21.78,21.65,22.92,-4.71,-4.2,2001.53,-1002.3,-4041.26,27.75,148.0,0.0,157.0,0.0,0.0,0.0,0.0,0.0,0.0,0.0,0.0,0.0,0.0,0.0,0.0,0.0,0.0
400.0,2500.0,166575.67708269,0.0,-0.0,0.0,-16000.0,0.0,52518.51882754886,0.0,-80000.0,0.0,0.0,1.0,0.3266666666666667,0.8,588971.1947891063,147242.79869727656,736213.9934863828,"[2.0, 2.0, 2.0, 2.0, 2.0, 2.0, 2.0, 2.0]",20.48,0.0,0.0,0.0,334.9842795887877,117.73566044350699,-1282.295031989969,-1200.991715144068,3743.980786734736,0.0,0.0,0.0,0.0,0.0,0.0,-4.7,19.982663561565314,0.0,19.37524186957986,0.0,-4.7,20.48,17.03,21.72,19.1,21.04,-5.25,-4.7,10935.2,-894.97,-3608.51,0.0,284.0,44.0,92.0,0.0,0.0,0.0,0.0,0.0,0.0,0.0,0.0,0.0,0.0,0.0,0.0,0.0,0.0
401.0,5583.0,15487.146535850552,9826.7108031713,-0.0,0.0,0.0,0.0,27334.674219461314,0.0,6961.201897064318,0.0,20373.472322396996,1.0,0.29706971982540686,0.8,0.0,0.0,0.0,"[2.0, 2.0, 2.0, 2.0, 2.0, 2.0, 2.0, 2.0]",21.3,0.0,0.0,0.0,372.6664290891518,194.0551782497975,-1344.3819774961232,-2520.475748647958,5375.870364397579,0.0,0.0,0.0,0.0,0.0,0.0,-5.1,20.17078494892002,0.0,19.29599006538341,0.0,-5.1,21.3,16.91,21.68,19.89,21.63,-5.63,-5.1,0.0,-938.3,-3783.22,0.0,296.0,171.0,100.0,0.0,0.0,0.0,0.0,0.0,0.0,0.0,0.0,0.0,0.0,0.0,0.0,0.0,0.0
402.0,3407.0,14770.212992292963,11289.361927331498,-0.0,0.0,0.0,0.0,22975.45029859725,0.0,0.0,0.0,22975.45029859725,1.0,0.1993849821613029,0.8,0.0,0.0,0.0,"[2.0, 2.0, 1.762395317697635, 1.5211136210839946, 2.0, 1.442812135200775, 2.0, 2.0]",22.29,0.0,0.0,0.0,425.5360608976474,209.29378951020843,-1415.2252365116253,-3961.733079171314,0.0,0.0,0.0,0.0,0.0,0.0,0.0,-5.5,20.472844759044552,0.0,19.30216232390528,0.0,-5.5,22.29,16.85,21.76,20.53,22.16,-6.03,-5.5,10147.57,-987.75,-3982.58,0.0,220.0,236.0,172.0,0.0,0.0,0.0,0.0,0.0,0.0,0.0,0.0,0.0,0.0,0.0,0.0,0.0,0.0
403.0,3780.0,0.0,0.0,-0.0,0.0,16000.0,0.0,44007.308595776056,0.0,33009.30859577607,0.0,0.0,0.3197278911564626,0.059039282349329814,0.8,48880.0,12220.0,61100.0,"[2.0, 2.0, 1.762395317697635, 1.5211136210839946, 2.0, 1.442812135200775, 2.0, 2.0]",20.0,0.0,0.0,0.0,526.4038679252378,151.50088207445904,-1313.855659047612,-789.2858966074457,9753.20478526033,0.0,0.0,0.0,0.0,0.0,0.0,-5.8,19.702367889695243,0.0,19.15550024645605,0.0,-5.8,20.0,16.68,21.63,18.79,20.85,-6.34,-5.8,1576.14,-917.0,-3697.32,0.0,176.0,153.0,278.0,0.0,0.0,0.0,0.0,0.0,0.0,0.0,0.0,0.0,0.0,0.0,0.0,0.0,0.0
404.0,3974.0,150029.83849111001,0.0,-0.0,0.0,0.0,0.0,50775.120368788994,0.0,-80000.0,0.0,0.0,0.3197278911564626,0.38570594901599653,0.8,581222.7571946179,145305.68929865447,726528.4464932723,"[2.0, 2.0, 1.762395317697635, 1.5211136210839946, 2.0, 1.442812135200775, 2.0, 2.0]",24.0,0.0,0.0,0.0,627.0567577503548,163.356648096563,-1537.9240660169723,-6515.438924378016,7277.760237745861,0.0,0.0,0.0,0.0,0.0,0.0,-6.2,20.961192612028125,0.0,19.266603584010593,0.0,-6.2,24.0,16.69,21.84,21.74,23.13,-6.73,-6.2,5100.02,-1073.38,-4327.87,0.0,170.0,173.0,353.0,0.0,0.0,0.0,0.0,0.0,0.0,0.0,0.0,0.0,0.0,0.0,0.0,0.0,0.0
405.0,3411.0,0.0,0.0,-0.0,0.0,3411.0,0.0,20451.65837346979,0.0,20451.65837346979,0.0,0.0,0.174702380952381,0.29875161919682225,0.7183673469387756,0.0,0.0,0.0,"[2.0, 2.0, 1.762395317697635, 1.5211136210839946, 2.0, 1.442812135200775, 2.0, 2.0]",24.0,0.0,0.0,0.0,609.075351810067,158.01364954260148,-1558.293921196005,-6276.347347446234,0.0,0.0,0.0,0.0,0.0,0.0,0.0,-6.6,21.07748683402468,0.0,19.41219226979365,0.0,-6.6,24.0,16.73,22.09,21.48,23.07,-7.14,-6.6,0.0,-1087.6,-4385.19,0.0,180.0,159.0,336.0,0.0,0.0,0.0,0.0,0.0,0.0,0.0,0.0,0.0,0.0,0.0,0.0,0.0,0.0
406.0,3069.0,7316.955037578562,0.0,-0.0,0.0,-4211.370262390669,0.0,23517.967020999742,0.0,23517.967020999742,0.0,0.0,0.3466666666666667,0.19876026281502063,0.7183673469387756,0.0,0.0,0.0,"[2.0, 2.0, 1.762395317697635, 1.5211136210839946, 2.0, 1.442812135200775, 2.0, 2.0]",20.59,0.0,0.0,0.0,515.1565343291217,120.42296740851722,-1405.157870407903,-1399.8152817942887,9262.190241871196,0.0,0.0,0.0,0.0,0.0,0.0,-7.0,20.007008981652792,0.0,19.301313670483445,0.0,-7.0,20.59,16.6,22.01,19.03,21.25,-7.5,-7.0,10111.16,-980.72,-3954.25,0.0,194.0,89.0,267.0,0.0,0.0,0.0,0.0,0.0,0.0,0.0,0.0,0.0,0.0,0.0,0.0,0.0,0.0
407.0,3100.0,13620.679618331787,10452.57622024013,-0.0,0.0,0.0,0.0,19478.815776984095,0.0,0.0,0.0,19478.815776984095,0.3466666666666667,0.19876026281502063,0.7183673469387756,0.0,0.0,0.0,"[2.0, 2.0, 1.762395317697635, 1.5211136210839946, 2.0, 1.442812135200775, 2.0, 2.0]",24.0,0.0,0.0,0.0,2133.8412642924786,128.16873454295845,-1593.9411677593123,-6280.781345547934,0.0,0.0,0.0,0.0,0.0,0.0,0.0,-7.3,21.077465414029735,0.0,19.392904561235486,0.0,-7.3,24.0,16.6,22.19,21.66,23.29,-7.81,-7.3,7877.47,-1112.48,-4485.51,0.0,202.0,32.0,1458.0,0.0,0.0,0.0,0.0,0.0,0.0,0.0,0.0,0.0,0.0,0.0,0.0,0.0,0.0
408.0,1088.0,114715.08755349822,0.0,-0.0,0.0,-16000.0,0.0,47391.075189101255,0.0,-39957.08571505638,0.0,0.0,1.0,0.3619183628181675,0.7183673469387756,388214.0484629229,97053.51211573073,485267.56057865365,"[2.0, 2.0, 1.762395317697635, 1.5211136210839946, 2.0, 1.442812135200775, 2.0, 2.0]",21.29,0.0,0.0,0.0,227.95551275695522,60.00598375987547,-1471.4224969216798,-2413.863459298145,9227.097745963698,0.0,0.0,0.0,0.0,0.0,0.0,-7.6,20.224336554551424,0.0,19.299239375516283,0.0,-7.6,21.29,16.48,22.12,19.28,21.53,-8.07,-7.6,7942.24,-1026.97,-4140.73,0.0,160.0,12.0,82.0,0.0,0.0,0.0,0.0,0.0,0.0,0.0,0.0,0.0,0.0,0.0,0.0,0.0,0.0
409.0,945.0,0.0,0.0,-0.0,0.0,945.0,0.0,28467.324042241995,0.0,28467.324042241995,0.0,0.0,0.9598214285714286,0.2408838218222407,0.7183673469387756,0.0,0.0,0.0,"[2.0, 2.0, 1.762395317697635, 1.5211136210839946, 2.0, 1.442812135200775, 2.0, 2.0]",24.0,0.0,0.0,0.0,280.68186643046846,54.441677573501345,-1619.4034867331034,-6250.294584901892,0.0,0.0,0.0,0.0,0.0,0.0,0.0,-7.8,21.093568789954368,0.0,19.396120834175065,0.0,-7.8,24.0,16.49,22.3,21.6,23.33,-8.27,-7.8,0.0,-1130.25,-4557.16,0.0,160.0,0.0,122.0,0.0,0.0,0.0,0.0,0.0,0.0,0.0,0.0,0.0,0.0,0.0,0.0,0.0,0.0
410.0,972.0,19136.633056403185,25340.87991234019,-0.0,0.0,7271.930021219019,0.0,45291.13733509417,0.0,0.0,0.0,45291.13733509416,0.6506407303903479,0.2408838218222407,0.7183673469387756,0.0,0.0,0.0,"[2.0, 2.0, 1.762395317697635, 1.5211136210839946, 2.0, 1.442812135200775, 2.0, 2.0]",20.37,0.0,0.0,0.0,328.3218463121074,55.548215735564376,-1449.9629967945643,-1088.0895488082751,1384.4969689915001,0.0,0.0,0.0,0.0,0.0,0.0,-8.1,19.93942111007987,0.0,19.260405136332633,0.0,-8.1,20.37,16.34,22.18,18.8,21.25,-8.56,-8.1,1003.16,-1011.99,-4080.34,0.0,160.0,0.0,157.0,0.0,0.0,0.0,0.0,0.0,0.0,0.0,0.0,0.0,0.0,0.0,0.0,0.0,0.0
411.0,2055.0,0.0,0.0,-0.0,0.0,2055.0,0.0,18465.482544400063,0.0,18465.482544400063,0.0,0.0,0.563268281410756,0.1623741171266622,0.7183673469387756,0.0,0.0,0.0,"[2.0, 2.0, 1.762395317697635, 1.5211136210839946, 2.0, 1.442812135200775, 2.0, 2.0]",20.0,0.0,0.0,0.0,235.7641711134945,53.39837016355621,-1430.9823263270505,-831.8556512709756,10292.748998106568,0.0,0.0,0.0,0.0,0.0,0.0,-8.1,19.68881337332686,0.0,19.062012574950522,0.0,-8.1,20.0,16.16,21.97,18.71,21.11,-8.56,-8.1,1914.42,-998.74,-4026.93,0.0,160.0,0.0,89.0,0.0,0.0,0.0,0.0,0.0,0.0,0.0,0.0,0.0,0.0,0.0,0.0,0.0,0.0
412.0,779.0,0.0,0.0,-0.0,0.0,779.0,0.0,15944.152852009958,0.0,15944.152852009956,0.0,0.0,0.5301475331114363,0.09458435159940898,0.7183673469387756,0.0,0.0,0.0,"[2.0, 2.0, 1.762395317697635, 1.5211136210839946, 2.0, 1.442812135200775, 2.0, 2.0]",24.0,0.0,0.0,0.0,189.3420553792057,28.358992324872652,-1639.7733419121364,-6582.465176819711,0.0,0.0,0.0,0.0,0.0,0.0,0.0,-8.2,20.93494323758961,0.0,19.158359858597464,0.0,-8.2,24.0,16.17,22.15,21.57,23.31,-8.65,-8.2,10758.47,-1144.47,-4614.48,0.0,80.0,0.0,97.0,0.0,0.0,0.0,0.0,0.0,0.0,0.0,0.0,0.0,0.0,0.0,0.0,0.0,0.0
413.0,903.0,13659.00478630588,12687.709762374352,-0.0,0.0,0.0,0.0,22434.522909723957,0.0,0.0,0.0,22434.522909723957,0.5301475331114363,0.09458435159940898,0.7183673469387756,0.0,0.0,0.0,"[2.0, 2.0, 1.762395317697635, 1.5211136210839946, 2.0, 1.442812135200775, 2.0, 2.0]",20.15,0.0,0.0,0.0,136.11422823325418,3.161537605894385,-1448.691776985559,-1084.7974609747246,5397.510296189439,0.0,0.0,0.0,0.0,0.0,0.0,-8.3,19.71593226929466,0.0,19.024599082024473,0.0,-8.3,20.15,16.03,22.02,18.53,21.05,-8.75,-8.3,0.0,-1011.1,-4076.76,0.0,0.0,0.0,100.0,0.0,0.0,0.0,0.0,0.0,0.0,0.0,0.0,0.0,0.0,0.0,0.0,0.0,0.0
414.0,982.0,0.0,11487.06997878098,-0.0,0.0,12469.06997878098,0.0,26632.943976474173,0.0,6321.403167998313,0.0,20311.54080847586,0.0,0.394374304116423,0.7183673469387756,0.0,0.0,0.0,"[2.0, 2.0, 1.762395317697635, 1.5211136210839946, 2.0, 1.442812135200775, 2.0, 2.0]",21.59,0.0,0.0,0.0,89.83539063394777,2.0866148198902943,-1522.2654767787767,-3317.5383002741723,1437.9371706108457,0.0,0.0,0.0,0.0,0.0,0.0,-8.3,20.091014374907033,0.0,18.95453975273628,0.0,-8.3,21.59,15.94,21.97,19.77,21.96,-8.75,-8.3,0.0,-1062.45,-4283.81,0.0,0.0,0.0,66.0,0.0,0.0,0.0,0.0,0.0,0.0,0.0,0.0,0.0,0.0,0.0,0.0,0.0,0.0
415.0,670.0,673.3668341708543,0.0,-0.0,0.0,0.0,0.0,27890.455956359307,0.0,27890.455956359314,0.0,0.0,0.0,0.2757924335536708,0.7183673469387756,0.0,0.0,0.0,"[2.0, 2.0, 1.762395317697635, 1.5211136210839946, 2.0, 1.442812135200775, 2.0, 2.0]",20.0,0.0,0.0,0.0,110.25252486893594,2.560845460774453,-1441.1672539165668,-1195.8959328031276,8883.916275226746,0.0,0.0,0.0,0.0,0.0,0.0,-8.3,19.51426390889994,0.0,18.7978840054255,0.0,-8.3,20.0,15.79,21.81,18.51,20.98,-8.75,-8.3,2734.1,-1005.85,-4055.59,0.0,0.0,0.0,81.0,0.0,0.0,0.0,0.0,0.0,0.0,0.0,0.0,0.0,0.0,0.0,0.0,0.0,0.0
416.0,1220.0,102656.21025202006,80924.59517327142,-3998.3340274885445,0.0,-16000.0,0.0,64634.55753936608,0.0,-80000.0,0.0,144634.5575393661,0.6533333333333333,0.6024591002203374,0.9795918367346939,0.0,0.0,0.0,"[2.0, 2.0, 1.762395317697635, 1.5211136210839946, 2.0, 1.442812135200775, 2.0, 2.0]",23.06,0.0,0.0,1.8450202510789901,104.80795573960573,2.4343839565386753,-1586.7883608918062,-5626.835341887791,9059.501003366022,0.0,0.0,0.0,0.0,0.0,0.0,-8.1,20.450964923129785,0.0,18.8491361252681,0.0,-8.1,23.06,15.78,21.91,20.76,22.7,-8.54,-8.1,6168.88,-1107.49,-4465.38,2.92,0.0,0.0,77.0,0.0,0.0,0.0,0.0,0.0,0.0,0.0,0.0,0.0,0.0,0.0,0.0,0.0,0.0
417.0,1223.0,0.0,0.0,-0.0,0.0,1223.0,0.0,29614.986653692562,0.0,29614.986653692566,0.0,0.0,0.6013350340136054,0.47654504131858333,0.9795918367346939,0.0,0.0,0.0,"[2.0, 2.0, 1.762395317697635, 1.5211136210839946, 2.0, 1.442812135200775, 2.0, 2.0]",24.0,0.0,0.0,11.116087872700437,121.14166312759623,2.8137684692460034,-1614.311022938345,-6770.125968774967,0.0,0.0,0.0,0.0,0.0,0.0,0.0,-7.7,20.843141023375985,0.0,19.00080880036807,0.0,-7.7,24.0,15.85,22.15,21.24,23.17,-8.17,-7.7,8631.82,-1126.7,-4542.83,17.58,0.0,0.0,89.0,0.0,0.0,0.0,0.0,0.0,0.0,0.0,0.0,0.0,0.0,0.0,0.0,0.0,0.0
418.0,1171.0,0.0,0.0,-0.0,0.4806052419472738,6741.949394758053,0.0,35203.875824957126,27857.15,57489.59582495713,0.0,0.0,0.314687525733076,0.23211648764104453,0.9795918367346939,22285.72,5571.43,27857.15,"[2.0, 2.0, 1.762395317697635, 1.5211136210839946, 2.0, 1.442812135200775, 2.0, 2.0]",20.03,0.0,0.0,16.54461691632238,121.14166312759623,2.8137684692460034,-1396.9260340903468,-1091.919312010511,2283.1792727574743,0.0,0.0,0.0,0.0,0.0,0.0,-7.4,19.59290591639841,0.0,18.874210459454865,0.0,-7.4,20.03,15.74,22.01,18.34,20.98,-7.88,-7.4,0.0,-974.98,-3931.09,26.17,0.0,0.0,89.0,0.0,0.0,0.0,0.0,0.0,0.0,0.0,0.0,0.0,0.0,0.0,0.0,0.0,0.0
419.0,2236.0,0.0,5167.380628051755,-0.0,1.930022809807167,7401.450605241948,0.0,9678.893541341164,0.0,0.0,0.0,9678.893541341165,0.0,0.23211648764104453,0.9795918367346939,0.0,0.0,0.0,"[2.0, 2.0, 1.762395317697635, 1.5211136210839946, 2.0, 1.442812135200775, 2.0, 2.0]",20.0,0.0,0.0,20.145038629326624,121.14166312759623,2.8137684692460034,-1385.1501521742268,-1294.9024163629006,2535.617662233484,0.0,0.0,0.0,0.0,0.0,0.0,-7.2,19.463307249809827,0.0,18.709298371626737,0.0,-7.2,20.0,15.61,21.81,18.54,21.06,-7.68,-7.2,7639.29,-966.76,-3897.95,31.86,0.0,0.0,89.0,0.0,0.0,0.0,0.0,0.0,0.0,0.0,0.0,0.0,0.0,0.0,0.0,0.0,0.0
420.0,2190.0,60114.97625340326,57629.113770571814,-0.0,4.712398435563388,0.0,0.0,29591.863459421602,0.0,-80000.0,0.0,109591.86345942158,0.0,0.5587831543077113,0.9795918367346939,0.0,0.0,0.0,"[2.0, 2.0, 1.762395317697635, 1.5211136210839946, 2.0, 1.442812135200775, 2.0, 2.0]",20.0,0.0,0.0,23.924258975890705,121.14166312759623,2.8137684692460034,-1369.8727607899523,-1517.9727485287272,11053.753007512907,0.0,0.0,0.0,0.0,0.0,0.0,-6.9,19.35504494256866,0.0,18.56094747959472,0.0,-6.9,20.0,15.48,21.64,18.49,20.96,-7.38,-6.9,179.09,-956.09,-3854.96,37.84,0.0,0.0,89.0,0.0,0.0,0.0,0.0,0.0,0.0,0.0,0.0,0.0,0.0,0.0,0.0,0.0,0.0
421.0,1258.0,0.0,3102.160153325669,-0.0,12849.956071693015,-8489.795918367347,0.0,57581.15226036306,0.0,51031.22626867506,0.0,6549.925991688005,0.3466666666666667,0.34181365486606563,0.9795918367346939,0.0,0.0,0.0,"[2.0, 2.0, 1.762395317697635, 1.5211136210839946, 2.0, 1.442812135200775, 2.0, 2.0]",24.0,0.0,0.0,975.7092916042977,214.9888415410505,38.53914341585259,-1461.5371090955996,-7178.883907984333,7386.123716659811,0.0,0.0,0.0,0.0,0.0,0.0,-4.7,20.635563264380668,0.0,18.70872526281598,0.0,-4.7,24.0,15.57,21.85,21.34,23.15,-4.66,-4.7,5492.81,-1020.07,-4112.91,1543.09,112.0,0.0,99.0,0.0,0.0,0.0,0.0,0.0,0.0,0.0,0.0,0.0,0.0,0.0,0.0,0.0,0.0
422.0,3188.0,0.0,0.0,-0.0,11182.866091052758,0.0,0.0,32099.999014753044,0.0,24904.619532805566,0.0,0.0,0.3466666666666667,0.23592666705651816,0.9795918367346939,31979.46436421103,7994.866091052758,39974.330455263786,"[2.0, 2.0, 1.762395317697635, 1.5211136210839946, 2.0, 1.442812135200775, 2.0, 2.0]",24.0,0.0,0.0,936.8693865541743,229.45993317427013,47.32821796023898,-1410.6124711480177,-6814.265625141637,0.0,0.0,0.0,0.0,0.0,0.0,0.0,-3.7,20.80810250332137,0.0,18.94207550723242,0.0,-3.7,24.0,15.74,22.15,21.34,23.28,-3.74,-3.7,0.0,-984.53,-3969.6,1481.67,127.0,7.0,101.0,0.0,0.0,0.0,0.0,0.0,0.0,0.0,0.0,0.0,0.0,0.0,0.0,0.0,0.0
423.0,3189.0,69738.86335809769,54836.511807143615,-0.0,4635.342765836413,-16000.0,0.0,41532.759981556585,0.0,-80000.0,0.0,121532.7599815566,1.0,0.5625933337231849,0.9795918367346939,0.0,0.0,0.0,"[2.0, 2.0, 1.762395317697635, 1.5211136210839946, 2.0, 1.442812135200775, 2.0, 2.0]",20.64,0.0,0.0,530.9415045245288,1254.9731843106035,72.7785956876888,-1234.3118190349117,-1881.7602371675064,8236.533234908356,0.0,0.0,0.0,0.0,0.0,0.0,-3.6,19.8094253913628,0.0,18.923697735012126,0.0,-3.6,20.64,15.75,22.09,18.96,21.49,-3.98,-3.6,6471.3,-861.48,-3473.48,839.69,123.0,12.0,856.0,0.0,0.0,0.0,0.0,0.0,0.0,0.0,0.0,0.0,0.0,0.0,0.0,0.0,0.0
424.0,1783.0,47510.364307296055,61489.812485759576,-0.0,0.0,16000.0,0.0,51588.690252723354,0.0,-80000.0,0.0,131588.69025272338,0.3197278911564626,0.8892600003898516,0.9795918367346939,0.0,0.0,0.0,"[2.0, 2.0, 1.762395317697635, 1.5211136210839946, 2.0, 1.442812135200775, 2.0, 2.0]",24.0,0.0,0.0,0.9242333901042801,445.5949997951796,50.584601694310194,-1446.259717711325,-6638.757726652675,7592.47279074642,0.0,0.0,0.0,0.0,0.0,0.0,-4.4,20.89735787660055,0.0,19.069681377884592,0.0,-4.4,24.0,15.88,22.26,21.38,23.33,-5.28,-4.4,0.0,-1009.41,-4069.92,1.46,123.0,6.0,262.0,0.0,0.0,0.0,0.0,0.0,0.0,0.0,0.0,0.0,0.0,0.0,0.0,0.0,0.0
425.0,1576.0,17654.172986321253,16951.373454885448,-0.0,0.0,961.4713334957984,0.0,35306.45882631725,0.0,0.0,0.0,35306.45882631725,0.27884900792960043,0.8892600003898516,0.9795918367346939,0.0,0.0,0.0,"[2.0, 2.0, 1.762395317697635, 1.5211136210839946, 2.0, 1.442812135200775, 2.0, 2.0]",24.0,0.0,0.0,0.0,118.41937856293116,2.7505377171281133,-1476.8145004798744,-6394.615456774265,0.0,0.0,0.0,0.0,0.0,0.0,0.0,-5.0,21.016592653550397,0.0,19.23081874438968,0.0,-5.0,24.0,15.99,22.47,21.18,23.25,-5.85,-5.0,5854.87,-1030.73,-4155.9,0.0,0.0,0.0,87.0,0.0,0.0,0.0,0.0,0.0,0.0,0.0,0.0,0.0,0.0,0.0,0.0,0.0,0.0
426.0,1784.0,0.0,11487.06997878098,-0.0,0.0,12469.06997878098,0.0,44358.606221287686,0.0,6321.403167998313,0.0,20311.54080847586,0.0,0.394374304116423,0.7183673469387756,0.0,0.0,0.0,"[2.0, 2.0, 1.762395317697635, 1.5211136210839946, 2.0, 1.442812135200775, 2.0, 2.0]",20.27,0.0,0.0,0.0,295.29623619867044,49.25675589983456,-1312.389467090326,-1066.7886181534345,9789.600350784789,0.0,0.0,0.0,0.0,0.0,0.0,-5.5,19.840933327432886,0.0,19.115205052339935,0.0,-5.5,20.27,15.92,22.31,18.56,21.26,-6.34,-5.5,0.0,-915.97,-3693.19,0.0,117.0,13.0,154.0,0.0,0.0,0.0,0.0,0.0,0.0,0.0,0.0,0.0,0.0,0.0,0.0,0.0,0.0
427.0,2128.0,673.3668341708543,0.0,-0.0,0.0,0.0,0.0,27890.455956359307,0.0,27890.455956359314,0.0,0.0,0.0,0.2757924335536708,0.7183673469387756,0.0,0.0,0.0,"[2.0, 2.0, 1.762395317697635, 1.5211136210839946, 2.0, 1.442812135200775, 2.0, 2.0]",20.0,0.0,0.0,0.0,512.7208060344212,98.73481943208174,-1329.1330504318869,-1184.1833134709818,8883.916275226746,0.0,0.0,0.0,0.0,0.0,0.0,-6.1,19.51426390889994,0.0,18.7978840054255,0.0,-6.1,20.0,15.79,21.81,18.51,20.98,-6.94,-6.1,2734.1,-927.66,-3740.31,0.0,220.0,37.0,257.0,0.0,0.0,0.0,0.0,0.0,0.0,0.0,0.0,0.0,0.0,0.0,0.0,0.0,0.0
428.0,3101.0,102656.21025202006,80924.59517327142,-3998.3340274885445,0.0,-16000.0,0.0,64634.55753936608,0.0,-80000.0,0.0,144634.5575393661,0.6533333333333333,0.6024591002203374,0.9795918367346939,0.0,0.0,0.0,"[2.0, 2.0, 1.762395317697635, 1.5211136210839946, 2.0, 1.442812135200775, 2.0, 2.0]",23.06,0.0,0.0,0.0,661.5867882811067,162.02880230208734,-1515.4938677651917,-5620.140202363387,9059.501003366022,0.0,0.0,0.0,0.0,0.0,0.0,-6.7,20.450964923129785,0.0,18.8491361252681,0.0,-6.7,23.06,15.78,21.91,20.76,22.7,-7.51,-6.7,6168.88,-1057.73,-4264.75,0.0,314.0,93.0,311.0,0.0,0.0,0.0,0.0,0.0,0.0,0.0,0.0,0.0,0.0,0.0,0.0,0.0,0.0
429.0,3765.0,0.0,0.0,-0.0,0.0,1223.0,0.0,29614.986653692562,0.0,29614.986653692566,0.0,0.0,0.6013350340136054,0.47654504131858333,0.9795918367346939,0.0,0.0,0.0,"[2.0, 2.0, 1.762395317697635, 1.5211136210839946, 2.0, 1.442812135200775, 2.0, 2.0]",24.0,0.0,0.0,0.0,1018.2777053197239,144.35580708513774,-1588.8487039645545,-6769.036800709454,0.0,0.0,0.0,0.0,0.0,0.0,0.0,-7.2,20.843141023375985,0.0,19.00080880036807,0.0,-7.2,24.0,15.85,22.15,21.24,23.17,-8.0,-7.2,8631.82,-1108.93,-4471.18,0.0,284.0,63.0,592.0,0.0,0.0,0.0,0.0,0.0,0.0,0.0,0.0,0.0,0.0,0.0,0.0,0.0,0.0
430.0,2260.0,0.0,0.0,-0.0,0.0,6741.949394758053,0.0,35203.875824957126,0.0,57489.59582495713,0.0,0.0,0.314687525733076,0.23211648764104453,0.9795918367346939,22285.72,5571.43,27857.15,"[2.0, 2.0, 1.762395317697635, 1.5211136210839946, 2.0, 1.442812135200775, 2.0, 2.0]",20.03,0.0,0.0,0.0,555.3460511916771,81.18828571936785,-1417.2958892693794,-1096.40142986112,2283.1792727574743,0.0,0.0,0.0,0.0,0.0,0.0,-7.8,19.59290591639841,0.0,18.874210459454865,0.0,-7.8,20.03,15.74,22.01,18.34,20.98,-8.57,-7.8,0.0,-989.19,-3988.41,0.0,194.0,18.0,304.0,0.0,0.0,0.0,0.0,0.0,0.0,0.0,0.0,0.0,0.0,0.0,0.0,0.0,0.0
431.0,1315.0,0.0,5167.380628051755,-0.0,0.0,7401.450605241948,0.0,9678.893541341164,0.0,0.0,0.0,9678.893541341165,0.0,0.23211648764104453,0.9795918367346939,0.0,0.0,0.0,"[2.0, 2.0, 1.762395317697635, 1.5211136210839946, 2.0, 1.442812135200775, 2.0, 2.0]",20.0,0.0,0.0,0.0,461.49887277822296,118.81058322951108,-1446.259717711325,-1304.1409954164556,2535.617662233484,0.0,0.0,0.0,0.0,0.0,0.0,-8.4,19.463307249809827,0.0,18.709298371626737,0.0,-8.4,20.0,15.61,21.81,18.54,21.06,-9.11,-8.4,7639.29,-1009.41,-4069.92,0.0,308.0,28.0,174.0,0.0,0.0,0.0,0.0,0.0,0.0,0.0,0.0,0.0,0.0,0.0,0.0,0.0,0.0
432.0,1584.0,60114.97625340326,57629.113770571814,-0.0,0.0,0.0,0.0,29591.863459421602,0.0,-80000.0,0.0,109591.86345942158,0.0,0.5587831543077113,0.9795918367346939,0.0,0.0,0.0,"[2.0, 2.0, 1.762395317697635, 1.5211136210839946, 2.0, 1.442812135200775, 2.0, 2.0]",20.0,0.0,0.0,0.0,301.0990006654566,54.915908214385496,-1481.9069642746322,-1533.7527744566187,11053.753007512907,0.0,0.0,0.0,0.0,0.0,0.0,-9.1,19.35504494256866,0.0,18.56094747959472,0.0,-9.1,20.0,15.48,21.64,18.49,20.96,-9.82,-9.1,179.09,-1034.29,-4170.23,0.0,160.0,0.0,137.0,0.0,0.0,0.0,0.0,0.0,0.0,0.0,0.0,0.0,0.0,0.0,0.0,0.0,0.0
433.0,927.0,0.0,3102.160153325669,-0.0,0.0,-8489.795918367347,0.0,57581.15226036306,0.0,51031.22626867506,0.0,6549.925991688005,0.3466666666666667,0.34181365486606563,0.9795918367346939,0.0,0.0,0.0,"[2.0, 2.0, 1.762395317697635, 1.5211136210839946, 2.0, 1.442812135200775, 2.0, 2.0]",24.0,0.0,0.0,0.0,264.3481590424779,54.06229306079401,-1726.3452264230255,-7217.374270296427,7386.123716659811,0.0,0.0,0.0,0.0,0.0,0.0,-9.9,20.635563264380668,0.0,18.70872526281598,0.0,-9.9,24.0,15.57,21.85,21.34,23.15,-10.6,-9.9,5492.81,-1204.89,-4858.11,0.0,160.0,0.0,110.0,0.0,0.0,0.0,0.0,0.0,0.0,0.0,0.0,0.0,0.0,0.0,0.0,0.0,0.0
434.0,1360.0,0.0,0.0,-0.0,0.0,0.0,0.0,32099.999014753044,0.0,24904.619532805566,0.0,0.0,0.3466666666666667,0.23592666705651816,0.9795918367346939,31979.46436421103,7994.866091052758,39974.330455263786,"[2.0, 2.0, 1.762395317697635, 1.5211136210839946, 2.0, 1.442812135200775, 2.0, 2.0]",24.0,0.0,0.0,0.0,874.1399015274568,68.22598153520087,-1767.0849367810906,-6863.657789566971,0.0,0.0,0.0,0.0,0.0,0.0,0.0,-10.7,20.80810250332137,0.0,18.94207550723242,0.0,-10.7,24.0,15.74,22.15,21.34,23.28,-11.36,-10.7,0.0,-1233.32,-4972.75,0.0,160.0,0.0,558.0,0.0,0.0,0.0,0.0,0.0,0.0,0.0,0.0,0.0,0.0,0.0,0.0,0.0,0.0
435.0,1290.0,69738.86335809769,54836.511807143615,-0.0,0.0,-16000.0,0.0,41532.759981556585,0.0,-80000.0,0.0,121532.7599815566,1.0,0.5625933337231849,0.9795918367346939,0.0,0.0,0.0,"[2.0, 2.0, 1.762395317697635, 1.5211136210839946, 2.0, 1.442812135200775, 2.0, 2.0]",20.64,0.0,0.0,0.0,879.584470656787,68.35244303943665,-1621.3390674365335,-1932.8523189391824,8236.533234908356,0.0,0.0,0.0,0.0,0.0,0.0,-11.2,19.8094253913628,0.0,18.923697735012126,0.0,-11.2,20.64,15.75,22.09,18.96,21.49,-11.87,-11.2,6471.3,-1131.6,-4562.61,0.0,160.0,0.0,562.0,0.0,0.0,0.0,0.0,0.0,0.0,0.0,0.0,0.0,0.0,0.0,0.0,0.0,0.0
436.0,954.0,47510.364307296055,61489.812485759576,-0.0,0.0,16000.0,0.0,51588.690252723354,0.0,-80000.0,0.0,131588.69025272338,0.3197278911564626,0.8892600003898516,0.9795918367346939,0.0,0.0,0.0,"[2.0, 2.0, 1.762395317697635, 1.5211136210839946, 2.0, 1.442812135200775, 2.0, 2.0]",24.0,0.0,0.0,0.0,407.26809868739485,57.38190754698313,-1812.9171109339143,-6683.951488990718,7592.47279074642,0.0,0.0,0.0,0.0,0.0,0.0,-11.6,20.89735787660055,0.0,19.069681377884592,0.0,-11.6,24.0,15.88,22.26,21.38,23.33,-12.26,-11.6,0.0,-1265.31,-5101.73,0.0,160.0,0.0,215.0,0.0,0.0,0.0,0.0,0.0,0.0,0.0,0.0,0.0,0.0,0.0,0.0,0.0,0.0
437.0,758.0,17654.172986321253,16951.373454885448,-0.0,0.0,961.4713334957984,0.0,35306.45882631725,0.0,0.0,0.0,35306.45882631725,0.27884900792960043,0.8892600003898516,0.9795918367346939,0.0,0.0,0.0,"[2.0, 2.0, 1.762395317697635, 1.5211136210839946, 2.0, 1.442812135200775, 2.0, 2.0]",24.0,0.0,0.0,0.0,267.21372174212536,54.6946005819729,-1833.2869661129473,-6438.477832390042,0.0,0.0,0.0,0.0,0.0,0.0,0.0,-12.0,21.016592653550397,0.0,19.23081874438968,0.0,-12.0,24.0,15.99,22.47,21.18,23.25,-12.62,-12.0,5854.87,-1279.53,-5159.05,0.0,160.0,1.0,112.0,0.0,0.0,0.0,0.0,0.0,0.0,0.0,0.0,0.0,0.0,0.0,0.0,0.0,0.0
438.0,1840.0,1849.246231155779,0.0,-0.0,0.0,0.0,0.0,44358.606221287686,0.0,44358.606221287686,0.0,0.0,0.9321823412629338,0.8114004837530285,0.5,0.0,0.0,0.0,"[1.8586369337677802, 2.4915271990388774, 1.762395317697635, 1.5211136210839946, 1.847583857448587, 1.442812135200775, 1.866969689520289, 2.0]",20.27,0.0,0.0,0.0,340.57212685310026,110.21120094147834,-1663.769468928641,-1109.9438862273023,9789.600350784789,0.0,0.0,0.0,0.0,0.0,0.0,-12.4,19.840933327432886,0.0,19.115205052339935,0.0,-12.4,20.27,15.92,22.31,18.56,21.26,-13.0,-12.4,0.0,-1161.22,-4682.01,0.0,300.0,22.0,90.0,0.0,0.0,0.0,0.0,0.0,0.0,0.0,0.0,0.0,0.0,0.0,0.0,0.0,0.0
439.0,1198.0,0.0,0.0,-0.0,0.0,1198.0,0.0,14035.896394652958,0.0,14035.896394652958,0.0,0.0,0.8812469671132739,0.7517240535036537,0.5,0.0,0.0,0.0,"[1.8586369337677802, 2.4915271990388774, 1.762395317697635, 1.5211136210839946, 1.847583857448587, 1.442812135200775, 1.866969689520289, 2.0]",23.86,0.0,0.0,0.0,193.78367756365932,45.36806464458446,-1861.7353497092188,-6322.671176109496,222.79851416275423,0.0,0.0,0.0,0.0,0.0,0.0,-12.7,20.932619366532155,0.0,19.16215315921045,0.0,-12.7,23.86,15.88,22.45,21.37,23.4,-13.3,-12.7,2080.94,-1299.39,-5239.11,0.0,93.0,23.0,91.0,0.0,0.0,0.0,0.0,0.0,0.0,0.0,0.0,0.0,0.0,0.0,0.0,0.0,0.0
440.0,1022.0,1027.1356783919598,0.0,-0.0,0.0,0.0,0.0,58000.82196260798,0.0,58000.82196260799,0.0,0.0,0.8812469671132739,0.5051219193088918,0.5,0.0,0.0,0.0,"[1.8586369337677802, 2.4915271990388774, 1.762395317697635, 1.5211136210839946, 1.847583857448587, 1.442812135200775, 1.866969689520289, 2.0]",20.14,0.0,0.0,1.8441026217300276,252.52771290643219,46.63267968694221,-1672.4345238529631,-1082.8967078020569,10185.07024212704,0.0,0.0,0.0,0.0,0.0,0.0,-12.7,19.72457590747646,0.0,18.986228093394303,0.0,-12.7,20.14,15.69,22.29,18.44,21.22,-13.29,-12.7,11492.48,-1167.26,-4706.4,2.92,121.0,8.0,121.0,0.0,0.0,0.0,0.0,0.0,0.0,0.0,0.0,0.0,0.0,0.0,0.0,0.0,0.0
441.0,993.0,0.0,15007.0,-0.0,0.0,16000.0,0.0,20669.79304455554,0.0,0.0,0.0,20669.79304455554,0.2009748582697365,0.5051219193088918,0.5,0.0,0.0,0.0,"[1.8586369337677802, 2.4915271990388774, 1.762395317697635, 1.5211136210839946, 1.847583857448587, 1.442812135200775, 1.866969689520289, 2.0]",23.86,0.0,0.0,11.10838737286849,210.6188584240881,30.35076101658612,-1846.4579583249442,-6477.554162149484,8074.360763809191,0.0,0.0,0.0,0.0,0.0,0.0,-12.4,20.857132081130892,0.0,19.038311710483654,0.0,-12.4,23.86,15.65,22.42,21.29,23.39,-12.99,-12.4,9219.83,-1288.72,-5196.12,17.57,85.0,0.0,110.0,0.0,0.0,0.0,0.0,0.0,0.0,0.0,0.0,0.0,0.0,0.0,0.0,0.0,0.0
442.0,3357.0,0.0,0.0,-0.0,0.5276992622610523,3356.472300737739,0.0,22332.281685570088,0.0,22332.281685570088,0.0,0.0,0.058267702626125156,0.41017174207432516,0.5,0.0,0.0,0.0,"[1.8586369337677802, 2.4915271990388774, 1.762395317697635, 1.5211136210839946, 1.847583857448587, 1.442812135200775, 1.866969689520289, 2.0]",23.86,0.0,0.0,16.535140767573047,112.974809433601,2.6240762128923403,-1841.3654945301862,-6314.039667098688,8023.025144530755,0.0,0.0,0.0,0.0,0.0,0.0,-12.3,20.935438516381453,0.0,19.133646439327002,0.0,-12.3,23.86,15.66,22.61,21.04,23.31,-12.88,-12.3,8710.44,-1285.17,-5181.79,26.15,0.0,0.0,83.0,0.0,0.0,0.0,0.0,0.0,0.0,0.0,0.0,0.0,0.0,0.0,0.0,0.0,0.0
443.0,7131.0,37726.751979089146,31782.56747930897,-0.0,4.992894348811388,1370.4563657664637,0.0,44684.489818109985,0.0,0.0,0.0,44684.489818109985,0.0,0.41017174207432516,0.5,0.0,0.0,0.0,"[1.8586369337677802, 2.4915271990388774, 1.762395317697635, 1.5211136210839946, 1.847583857448587, 1.442812135200775, 1.866969689520289, 2.0]",23.86,0.0,0.0,23.98246521705534,155.17022018590978,3.6041528707196,-1831.1805669406697,-6165.278862010848,86.75796848198449,0.0,0.0,0.0,0.0,0.0,0.0,-12.1,21.006389768565988,0.0,19.2204054788078,0.0,-12.1,23.86,15.67,22.77,21.05,23.41,-12.68,-12.1,0.0,-1278.06,-5153.12,37.93,0.0,0.0,114.0,0.0,0.0,0.0,0.0,0.0,0.0,0.0,0.0,0.0,0.0,0.0,0.0,0.0,0.0
444.0,2870.0,2875.8770596807067,0.0,-0.0,8.502325617696783,0.0,0.0,14936.393735881287,0.0,14936.39373588129,0.0,0.0,0.0,0.3466666666666666,0.5,0.0,0.0,0.0,"[1.8586369337677802, 2.4915271990388774, 1.762395317697635, 1.5211136210839946, 1.847583857448587, 1.442812135200775, 1.866969689520289, 2.0]",20.14,0.0,0.0,26.832047553412586,145.64222420958203,3.3828452383069925,-1636.7872772896555,-941.3696365511491,2401.8212603529573,0.0,0.0,0.0,0.0,0.0,0.0,-12.0,19.790551805782314,0.0,19.038793975201187,0.0,-12.0,20.14,15.5,22.58,18.37,21.37,-12.61,-12.0,7347.68,-1142.38,-4606.08,42.44,0.0,0.0,107.0,0.0,0.0,0.0,0.0,0.0,0.0,0.0,0.0,0.0,0.0,0.0,0.0,0.0,0.0
445.0,4136.0,87890.1252893467,81576.89338125249,-0.0,14262.21871835253,-16000.0,0.0,47913.35036566646,0.0,-80000.0,0.0,127913.35036566647,0.6533333333333333,0.6733333333333333,0.5,0.0,0.0,0.0,"[1.8586369337677802, 2.4915271990388774, 1.762395317697635, 1.5211136210839946, 1.847583857448587, 1.442812135200775, 1.866969689520289, 2.0]",20.14,0.0,0.0,1026.7278406648838,122.50280540992878,2.8453838453049474,-1555.3078565735245,-1244.4364552279437,9344.448584634998,0.0,0.0,0.0,0.0,0.0,0.0,-10.4,19.637797288489057,0.0,18.827601577228997,0.0,-10.4,20.14,15.32,22.34,18.55,21.42,-10.38,-10.4,0.0,-1085.52,-4376.79,1623.78,0.0,0.0,90.0,0.0,0.0,0.0,0.0,0.0,0.0,0.0,0.0,0.0,0.0,0.0,0.0,0.0,0.0
446.0,2690.0,0.0,10285.41747348814,-0.0,12975.41747348814,0.0,0.0,16814.011426140616,0.0,0.0,0.0,16814.011426140616,0.6533333333333333,0.6733333333333333,0.5,0.0,0.0,0.0,"[1.8586369337677802, 2.4915271990388774, 1.762395317697635, 1.5211136210839946, 1.847583857448587, 1.442812135200775, 1.866969689520289, 2.0]",23.86,0.0,0.0,1065.2200339874373,102.08567117494066,2.371153204420789,-1708.9614358664733,-6548.7663533384575,7057.092219125328,0.0,0.0,0.0,0.0,0.0,0.0,-9.7,20.812421994661193,0.0,18.94421695459819,0.0,-9.7,23.86,15.38,22.51,21.41,23.62,-9.64,-9.7,9956.96,-1192.76,-4809.19,1684.66,0.0,0.0,75.0,0.0,0.0,0.0,0.0,0.0,0.0,0.0,0.0,0.0,0.0,0.0,0.0,0.0,0.0
447.0,1134.0,36039.78345993062,0.0,-0.0,5890.080558388221,0.0,0.0,36554.09859091725,0.0,0.0,0.0,0.0,0.6533333333333333,0.6733333333333333,0.5,162462.66040407674,40615.665101019185,203078.3255050959,"[1.8586369337677802, 2.4915271990388774, 1.762395317697635, 1.5211136210839946, 1.847583857448587, 1.442812135200775, 1.866969689520289, 2.0]",23.86,0.0,0.0,625.0227743399117,89.83539063394777,2.0866148198902943,-1714.0538996612313,-6303.370915593745,7282.377910130915,0.0,0.0,0.0,0.0,0.0,0.0,-9.8,20.932001450327935,0.0,19.103283837739806,0.0,-9.8,23.86,15.48,22.73,21.2,23.56,-10.13,-9.8,0.0,-1196.31,-4823.52,988.48,0.0,0.0,66.0,0.0,0.0,0.0,0.0,0.0,0.0,0.0,0.0,0.0,0.0,0.0,0.0,0.0,0.0
448.0,1818.0,85501.22342392316,83255.71730680355,-0.0,0.0,0.0,0.0,49752.0600615739,0.0,-80000.0,0.0,129752.06006157391,0.6533333333333333,1.0,0.5,0.0,0.0,0.0,"[1.8586369337677802, 2.4915271990388774, 1.762395317697635, 1.5211136210839946, 1.847583857448587, 1.442812135200775, 1.866969689520289, 2.0]",23.86,0.0,0.0,0.9242279710333215,125.2250899745939,2.908614597422834,-1749.701146224539,-6113.647737605178,7.958068337733496,0.0,0.0,0.0,0.0,0.0,0.0,-10.5,21.027381773350715,0.0,19.229687736631533,0.0,-10.5,23.86,15.56,22.9,21.14,23.57,-11.44,-10.5,10597.06,-1221.19,-4923.83,1.46,0.0,0.0,92.0,0.0,0.0,0.0,0.0,0.0,0.0,0.0,0.0,0.0,0.0,0.0,0.0,0.0,0.0
449.0,2783.0,11329.443134037534,0.0,-0.0,0.0,-8489.795918367347,0.0,11011.040815762623,0.0,11011.040815762623,0.0,0.0,1.0,0.9531843502731181,0.5,0.0,0.0,0.0,"[1.8586369337677802, 2.4915271990388774, 1.762395317697635, 1.5211136210839946, 1.847583857448587, 1.442812135200775, 1.866969689520289, 2.0]",20.14,0.0,0.0,0.0,295.58279246863515,54.1887545650298,-1580.7701755473156,-889.8943705260953,2125.8059968297566,0.0,0.0,0.0,0.0,0.0,0.0,-10.9,19.812820535760647,0.0,19.053646188662526,0.0,-10.9,20.14,15.42,22.69,18.33,21.42,-11.81,-10.9,0.0,-1103.29,-4448.44,0.0,158.0,0.0,134.0,0.0,0.0,0.0,0.0,0.0,0.0,0.0,0.0,0.0,0.0,0.0,0.0,0.0,0.0
450.0,2321.0,24779.435971990828,0.0,-0.0,0.0,-16000.0,0.0,20144.74200185857,0.0,14443.657088940785,0.0,0.0,0.9730612244897959,0.8917742436024515,0.5,25338.155168523495,6334.538792130874,31672.693960654367,"[1.8586369337677802, 2.4915271990388774, 1.7623953176976386, 1.5211136210839946, 1.847583857448587, 1.1314589855213697, 1.8669696895202854, 2.0]",20.14,0.0,0.0,0.0,259.97817592551553,6.038536827258279,-1606.2324945211067,-1213.351813619875,2554.115076472158,0.0,0.0,0.0,0.0,0.0,0.0,-11.4,19.65877961301454,0.0,18.843531123179012,0.0,-11.4,20.14,15.25,22.43,18.51,21.46,-12.31,-11.4,1663.6,-1121.06,-4520.1,0.0,0.0,0.0,191.0,0.0,0.0,0.0,0.0,0.0,0.0,0.0,0.0,0.0,0.0,0.0,0.0,0.0,0.0
451.0,2927.0,0.0,13073.0,-0.0,0.0,16000.0,0.0,35999.749084434836,0.0,17245.96473237699,0.0,18753.784352057857,0.29278911564625854,0.8184495636178555,0.3877551020408163,0.0,0.0,0.0,"[1.8586369337677802, 2.4915271990388774, 1.7623953176976386, 1.5211136210839946, 1.847583857448587, 1.1314589855213697, 1.8669696895202854, 2.0]",20.14,0.0,0.0,0.0,251.8113222315203,5.848844570904616,-1626.6023497001395,-1511.0814654173594,2880.5539310403624,0.0,0.0,0.0,0.0,0.0,0.0,-11.8,19.516675075924798,0.0,18.648224738828365,0.0,-11.8,20.14,15.09,22.21,18.44,21.33,-12.68,-11.8,0.0,-1135.28,-4577.42,0.0,0.0,0.0,185.0,0.0,0.0,0.0,0.0,0.0,0.0,0.0,0.0,0.0,0.0,0.0,0.0,0.0,0.0
452.0,6345.0,0.0,0.0,-0.0,0.0,6886.4000000000015,0.0,34618.597362919616,0.0,34131.337362919614,0.0,0.0,0.0,0.6733333333333333,0.3877551020408163,2165.600000000002,541.4000000000005,2707.0000000000027,"[1.8586369337677802, 2.4915271990388774, 1.7623953176976386, 1.5211136210839946, 1.847583857448587, 1.1314589855213697, 1.8669696895202854, 2.0]",20.14,0.0,0.0,0.0,251.1665706240996,63.67336738271297,-1652.0646686739303,-1784.5137989790587,10854.080988929221,0.0,0.0,0.0,0.0,0.0,0.0,-12.3,19.386799879606098,0.0,18.468546609820116,0.0,-12.3,20.14,14.93,22.01,18.39,21.23,-13.21,-12.3,6893.61,-1153.05,-4649.07,0.0,178.0,8.0,90.0,0.0,0.0,0.0,0.0,0.0,0.0,0.0,0.0,0.0,0.0,0.0,0.0,0.0,0.0
453.0,5220.0,251114.28817919732,244638.71673830133,-0.0,0.0,0.0,0.0,249954.88443931352,0.0,-80000.0,0.0,329954.88443931355,0.0,1.0,0.3877551020408163,0.0,0.0,0.0,"[1.8586369337677802, 2.4915271990388774, 1.7623953176976386, 1.5211136210839946, 1.847583857448587, 1.1314589855213697, 1.8669696895202854, 2.0]",23.86,0.0,0.0,0.0,474.6804611966013,122.47796685234857,-1861.7353497092188,-7123.511798752553,672.6235837596502,0.0,0.0,0.0,0.0,0.0,0.0,-12.7,20.54823674750833,0.0,18.5636890652779,0.0,-12.7,23.86,14.95,22.17,21.04,23.26,-13.59,-12.7,804.57,-1299.39,-5239.11,0.0,306.0,35.0,184.0,0.0,0.0,0.0,0.0,0.0,0.0,0.0,0.0,0.0,0.0,0.0,0.0,0.0,0.0
454.0,3903.0,63122.43168812589,0.0,-0.0,0.0,0.0,0.0,53013.437576716715,0.0,0.0,0.0,0.0,0.0,1.0,0.3877551020408163,235615.27811874106,58903.819529685265,294519.0976484263,"[1.8586369337677802, 2.4915271990388774, 1.7623953176976386, 1.5211136210839946, 1.847583857448587, 1.1314589855213697, 1.8669696895202854, 2.0]",20.14,0.0,0.0,0.0,555.4893293266596,114.6373535897305,-1697.8968428267538,-1827.332274673793,10592.065519560025,0.0,0.0,0.0,0.0,0.0,0.0,-13.2,19.36891007066919,0.0,18.431360216269784,0.0,-13.2,20.14,14.82,22.04,18.11,21.07,-14.08,-13.2,12178.37,-1185.04,-4778.05,0.0,300.0,21.0,248.0,0.0,0.0,0.0,0.0,0.0,0.0,0.0,0.0,0.0,0.0,0.0,0.0,0.0,0.0
455.0,1534.0,1541.7085427135678,0.0,-0.0,0.0,0.0,0.0,11574.395315029928,0.0,11574.395315029928,0.0,0.0,0.0,0.9507891355653489,0.3877551020408163,0.0,0.0,0.0,"[1.8586369337677802, 2.4915271990388774, 1.7623953176976386, 1.5211136210839946, 1.847583857448587, 1.1314589855213697, 1.8669696895202854, 2.0]",23.86,0.0,0.0,0.0,356.1178044986877,78.05836348953243,-1907.5675238620424,-7177.6612005059305,931.560137407336,0.0,0.0,0.0,0.0,0.0,0.0,-13.6,20.525044792320042,0.0,18.51892307587887,0.0,-13.6,23.86,14.84,22.2,20.98,23.26,-14.51,-13.6,435.35,-1331.37,-5368.08,0.0,216.0,9.0,147.0,0.0,0.0,0.0,0.0,0.0,0.0,0.0,0.0,0.0,0.0,0.0,0.0,0.0,0.0
456.0,1146.0,79909.5904292356,0.0,-0.0,0.0,-16000.0,0.0,56127.63822938046,0.0,0.0,0.0,0.0,0.6533333333333333,0.9507891355653489,0.3877551020408163,249456.1699083577,62364.042477089424,311820.2123854471,"[1.8586369337677802, 2.4915271990388774, 1.7623953176976386, 1.5211136210839946, 1.847583857448587, 1.1314589855213697, 1.8669696895202854, 2.0]",20.14,0.0,0.0,0.0,516.6609547464365,88.77597597351438,-1728.4516255953001,-1884.3889306837998,3015.452457411285,0.0,0.0,0.0,0.0,0.0,0.0,-13.8,19.343383100012925,0.0,18.382868452550138,0.0,-13.8,20.14,14.7,22.06,18.08,21.09,-14.7,-13.8,11836.07,-1206.36,-4864.03,0.0,160.0,51.0,290.0,0.0,0.0,0.0,0.0,0.0,0.0,0.0,0.0,0.0,0.0,0.0,0.0,0.0,0.0
457.0,912.0,916.5829145728643,0.0,-0.0,0.0,0.0,0.0,15697.545841595076,0.0,15697.54584159508,0.0,0.0,0.6533333333333333,0.8840478692320365,0.3877551020408163,0.0,0.0,0.0,"[1.8586369337677802, 2.4915271990388774, 1.7623953176976386, 1.5211136210839946, 1.847583857448587, 1.1314589855213697, 1.8669696895202854, 2.0]",20.14,0.0,0.0,0.0,339.78409711069725,68.8266736803208,-1743.7290169795774,-2145.875242500067,3487.233626488429,0.0,0.0,0.0,0.0,0.0,0.0,-14.1,19.218468290948554,0.0,18.208432978815775,0.0,-14.1,20.14,14.54,21.88,18.25,21.16,-14.99,-14.1,9308.25,-1217.02,-4907.03,0.0,160.0,23.0,163.0,0.0,0.0,0.0,0.0,0.0,0.0,0.0,0.0,0.0,0.0,0.0,0.0,0.0,0.0
458.0,862.0,0.0,0.0,-0.0,0.0,14631.400000000001,0.0,20827.61650772055,0.0,8435.156507720556,0.0,0.0,0.031249999999999997,0.8481841085699593,0.3877551020408163,55077.600000000006,13769.400000000001,68847.0,"[1.8586369337677802, 2.4915271990388774, 1.7623953176976386, 1.5211136210839946, 1.847583857448587, 1.1314589855213697, 1.8669696895202854, 2.0]",20.14,0.0,0.0,0.0,231.68074426649687,53.303524035379375,-1753.913944569094,-2381.368211497401,11581.700170107688,0.0,0.0,0.0,0.0,0.0,0.0,-14.3,19.105813407883648,0.0,18.05004177680985,0.0,-14.3,20.14,14.39,21.71,18.21,21.08,-15.19,-14.3,8950.48,-1224.13,-4935.69,0.0,160.0,0.0,86.0,0.0,0.0,0.0,0.0,0.0,0.0,0.0,0.0,0.0,0.0,0.0,0.0,0.0,0.0
459.0,735.0,0.0,0.0,-0.0,0.0,735.0,0.0,58086.55627794175,0.0,58086.55627794176,0.0,0.0,0.0,0.6012174577283702,0.3877551020408163,0.0,0.0,0.0,"[1.8586369337677802, 2.4915271990388774, 1.7623953176976386, 1.5211136210839946, 1.847583857448587, 1.1314589855213697, 1.8669696895202854, 2.0]",23.86,0.0,0.0,0.0,241.20874024282472,53.524831667791986,-1948.3072342201078,-7685.00046117867,1616.8573834627402,0.0,0.0,0.0,0.0,0.0,0.0,-14.4,20.28342817114585,0.0,18.16582933191008,0.0,-14.4,23.86,14.42,21.91,20.85,23.13,-15.3,-14.4,0.0,-1359.81,-5482.73,0.0,160.0,0.0,93.0,0.0,0.0,0.0,0.0,0.0,0.0,0.0,0.0,0.0,0.0,0.0,0.0,0.0,0.0
460.0,1233.0,22487.392221433813,0.0,-0.0,0.0,0.0,0.0,50913.62288546634,0.0,31885.86315117238,0.0,0.0,0.0,0.46564831167746723,0.3877551020408163,84567.82104130657,21141.955260326642,105709.7763016332,"[1.8586369337677802, 2.4915271990388774, 1.7623953176976386, 1.5211136210839946, 1.847583857448587, 1.1314589855213697, 1.8669696895202854, 2.0]",20.14,0.0,0.0,0.0,234.76122416861796,60.164060640170185,-1764.0988721586102,-2351.7379767050343,11552.935853702718,0.0,0.0,0.0,0.0,0.0,0.0,-14.5,19.12081143678882,0.0,18.05544620091605,0.0,-14.5,20.14,14.3,21.81,17.94,20.96,-15.43,-14.5,2016.87,-1231.24,-4964.35,0.0,160.0,12.0,87.0,0.0,0.0,0.0,0.0,0.0,0.0,0.0,0.0,0.0,0.0,0.0,0.0,0.0,0.0
461.0,1394.0,19208.074525061795,0.0,-1718.0341524364849,0.0,-16000.0,0.0,30397.887606646393,0.0,30397.887606646393,0.0,0.0,0.6533333333333333,0.33640559226145367,0.5,0.0,0.0,0.0,"[1.8586369337677802, 2.4915271990388774, 1.7623953176976386, 1.5211136210839946, 1.847583857448587, 1.1314589855213697, 1.8669696895202854, 2.0]",23.86,0.0,0.0,0.0,245.65036242727825,71.16621150868265,-1958.4921618096243,-7662.496351101831,9310.624189865404,0.0,0.0,0.0,0.0,0.0,0.0,-14.6,20.294947491116876,0.0,18.167440487016716,0.0,-14.6,23.86,14.33,22.0,20.82,23.18,-15.52,-14.6,11592.66,-1366.92,-5511.39,0.0,160.0,31.0,93.0,0.0,0.0,0.0,0.0,0.0,0.0,0.0,0.0,0.0,0.0,0.0,0.0,0.0,0.0
462.0,996.0,180450.83099362958,0.0,-0.0,0.0,-15428.363182007497,0.0,39039.57229098848,28339.0,-80000.0,0.0,0.0,1.0,0.4006965263984074,0.5,652496.8546266158,163124.21365665394,815621.0682832696,"[1.8586369337677802, 2.0, 1.7623953176976386, 1.5211136210839982, 1.0402044773145143, 1.1314589855213697, 1.8669696895202854, 2.0]",23.86,0.0,0.0,0.0,346.58980852236,145.49396062325968,-1963.5846256043824,-7425.260686302497,1183.383140291945,0.0,0.0,0.0,0.0,0.0,0.0,-14.7,20.409276666574616,0.0,18.3143656786087,0.0,-14.7,23.86,14.4,22.23,20.6,23.12,-15.59,-14.7,0.0,-1370.47,-5525.72,0.0,304.0,82.0,86.0,0.0,0.0,0.0,0.0,0.0,0.0,0.0,0.0,0.0,0.0,0.0,0.0,0.0,0.0
463.0,2269.0,21605.53726206412,35228.5095757538,-0.0,0.0,16000.0,0.0,32738.159948774985,0.0,-8059.180272583837,0.0,40797.34022135883,0.3197278911564626,0.4336048458447914,0.5,0.0,0.0,0.0,"[1.8586369337677802, 2.0, 1.7623953176976386, 1.5211136210839982, 1.0402044773145143, 1.1314589855213697, 1.8669696895202854, 2.0]",20.14,0.0,0.0,0.0,272.65829087145556,122.47796685234857,-1774.2837997481263,-2120.4457746609446,3510.6977235922227,0.0,0.0,0.0,0.0,0.0,0.0,-14.7,19.23267806830418,0.0,18.186949014098232,0.0,-14.7,20.14,14.28,22.1,17.95,21.12,-15.62,-14.7,11448.43,-1238.35,-4993.01,0.0,180.0,110.0,94.0,0.0,0.0,0.0,0.0,0.0,0.0,0.0,0.0,0.0,0.0,0.0,0.0,0.0,0.0
464.0,1176.0,0.0,0.0,-0.0,0.0,1176.0,0.0,32743.36852723251,0.0,32743.36852723251,0.0,0.0,0.2697278911564626,0.2943898436031566,0.5,0.0,0.0,0.0,"[1.8586369337677802, 2.0, 1.7623953176976386, 1.5211136210839982, 1.0402044773145143, 1.1314589855213697, 1.8669696895202854, 2.0]",20.14,0.0,0.0,7.718810872715326,293.2903423089172,126.01888897095027,-1743.7290169795774,-2360.7436184932117,11260.504561857957,0.0,0.0,0.0,0.0,0.0,0.0,-14.1,19.115117003853094,0.0,18.024344885382718,0.0,-14.1,20.14,14.13,21.91,18.15,21.21,-14.99,-14.1,169.67,-1217.02,-4907.03,12.21,228.0,90.0,86.0,0.0,0.0,0.0,0.0,0.0,0.0,0.0,0.0,0.0,0.0,0.0,0.0,0.0,0.0
465.0,2507.0,0.0,0.0,-0.0,7895.668357339116,-5388.668357339116,0.0,20306.40109744677,0.0,20306.40109744677,0.0,0.0,0.48976518241447653,0.2080531042432639,0.5,0.0,0.0,0.0,"[1.8586369337677802, 2.0, 1.7623953176976386, 1.5211136210839982, 1.0402044773145143, 1.1314589855213697, 1.8669696895202854, 2.0]",23.78,0.0,0.0,841.8345768868145,423.8167232778589,100.0310498504984,-1735.7258475915041,-7535.268253281665,317.8842917069111,0.0,0.0,0.0,0.0,0.0,0.0,-10.3,20.265473812463668,0.0,18.13636790378943,0.0,-10.3,23.78,14.19,22.09,20.73,23.19,-10.38,-10.3,0.0,-1211.44,-4884.5,1331.37,252.0,26.0,176.0,0.0,0.0,0.0,0.0,0.0,0.0,0.0,0.0,0.0,0.0,0.0,0.0,0.0,0.0
466.0,7217.0,0.0,0.0,-0.0,14497.253107203855,-7280.253107203855,0.0,23327.72960036532,0.0,23327.72960036533,0.0,0.0,0.7870421842919673,0.10887058043218681,0.5,0.0,0.0,0.0,"[1.8586369337677802, 2.0, 1.7623953176976386, 1.5211136210839982, 1.0402044773145143, 1.1314589855213697, 1.8669696895202854, 2.0]",20.14,0.0,0.0,1286.8374653830094,1411.71946398132,102.87643369580334,-1377.0716237569882,-2212.1443397414314,759.4505126946203,0.0,0.0,0.0,0.0,0.0,0.0,-6.9,19.16050298584542,0.0,18.085618524483323,0.0,-6.9,20.14,14.18,21.99,18.05,21.19,-6.62,-6.9,771.75,-961.12,-3875.22,2035.14,234.0,0.0,914.0,0.0,0.0,0.0,0.0,0.0,0.0,0.0,0.0,0.0,0.0,0.0,0.0,0.0,0.0
467.0,4388.0,0.0,13457.999425961338,-0.0,17845.999425961338,0.0,0.0,29056.824828475463,0.0,0.0,0.0,29056.824828475463,0.7870421842919673,0.10887058043218681,0.5,0.0,0.0,0.0,"[1.8586369337677802, 2.0, 1.7623953176976386, 1.5211136210839982, 1.0402044773145143, 1.1314589855213697, 1.8669696895202854, 2.0]",20.14,0.0,0.0,1573.7477921746088,2662.3943042424526,152.89195862105257,-1239.5751012985172,-2311.9057325254416,6856.822430542574,0.0,0.0,0.0,0.0,0.0,0.0,-4.2,19.103369435011718,0.0,18.01981952968307,0.0,-4.2,20.14,14.2,21.84,18.26,21.26,-3.69,-4.2,6451.45,-865.15,-3488.29,2488.9,304.0,0.0,1796.0,0.0,0.0,0.0,0.0,0.0,0.0,0.0,0.0,0.0,0.0,0.0,0.0,0.0,0.0
468.0,5514.0,0.0,23668.25386813139,-0.0,18824.62169358432,10357.63217454707,0.0,27987.792846176646,0.0,-26949.557454263948,0.0,54937.35030044059,0.3466666666666667,0.2189146067037646,0.5,0.0,0.0,0.0,"[1.8586369337677802, 2.0, 1.7623953176976386, 1.5211136210839982, 1.0402044773145143, 1.1314589855213697, 1.8669696895202854, 2.0]",23.86,0.0,0.0,1647.8920432612167,3657.102756357576,173.60002993966083,-1342.3040426438838,-7486.615614447159,3317.8385898355227,0.0,0.0,0.0,0.0,0.0,0.0,-2.5,20.337246099369803,0.0,18.233412384534233,0.0,-2.5,23.86,14.44,22.03,20.86,23.22,-1.95,-2.5,3233.44,-936.85,-3777.38,2606.16,296.0,0.0,2531.0,0.0,0.0,0.0,0.0,0.0,0.0,0.0,0.0,0.0,0.0,0.0,0.0,0.0,0.0
469.0,1321.0,0.0,0.0,-0.0,17223.126981470312,0.0,0.0,34097.58068119821,0.0,19785.666397874935,0.0,0.0,0.3466666666666667,0.13479187542028276,0.5,63608.50792588125,15902.126981470312,79510.63490735156,"[1.8586369337677802, 2.0, 1.7623953176976386, 1.5211136210839982, 1.0402044773145143, 1.1314589855213697, 1.8669696895202854, 2.0]",23.86,0.0,0.0,1489.3020218536942,293.29034230891716,34.96660592119191,-1306.6567960805764,-7135.20964359028,6583.89323908556,0.0,0.0,0.0,0.0,0.0,0.0,-1.8,20.504535417467963,0.0,18.474497764302257,0.0,-1.8,23.86,14.71,22.24,20.6,23.07,-1.38,-1.8,1338.17,-911.97,-3677.06,2355.34,94.0,0.0,166.0,0.0,0.0,0.0,0.0,0.0,0.0,0.0,0.0,0.0,0.0,0.0,0.0,0.0,0.0
470.0,1005.0,56121.93774258161,52662.07428574083,-0.0,13825.746231872132,-16000.0,0.0,44746.309110637,0.0,-80000.0,0.0,124746.30911063698,1.0,0.4614585420869495,0.5,0.0,0.0,0.0,"[1.8586369337677802, 2.0, 1.7623953176976386, 1.5211136210839982, 1.0402044773145143, 1.1314589855213697, 1.8669696895202854, 2.0]",23.86,0.0,0.0,1203.8009861845642,467.2299981775179,93.51828238235599,-1316.8417236700927,-6745.565231457692,6271.10721293999,0.0,0.0,0.0,0.0,0.0,0.0,-2.0,20.693378015163063,0.0,18.744665823592815,0.0,-2.0,23.86,15.0,22.49,21.06,23.46,-1.82,-2.0,5438.49,-919.08,-3705.72,1903.82,276.0,0.0,198.0,0.0,0.0,0.0,0.0,0.0,0.0,0.0,0.0,0.0,0.0,0.0,0.0,0.0,0.0
471.0,2000.0,0.0,4343.401422159777,-0.0,6343.401422159777,0.0,0.0,39999.024974726766,0.0,30414.262360443983,0.0,9584.762614282783,1.0,0.3321462021190754,0.40816326530612246,0.0,0.0,0.0,"[1.8586369337677802, 2.0, 1.7623953176976386, 1.5211136210839982, 1.0402044773145143, 1.1314589855213697, 1.8669696895202854, 2.0]",23.86,0.0,0.0,671.3217518019295,389.3583318145983,77.93190198529663,-1403.413608180982,-6421.835885658139,6674.056919232441,0.0,0.0,0.0,0.0,0.0,0.0,-3.7,20.855686313733248,0.0,18.97784276702985,0.0,-3.7,23.86,15.25,22.7,21.09,23.52,-3.93,-3.7,5823.71,-979.5,-3949.35,1061.7,230.0,0.0,165.0,0.0,0.0,0.0,0.0,0.0,0.0,0.0,0.0,0.0,0.0,0.0,0.0,0.0,0.0
472.0,1668.0,1676.3819095477388,0.0,-0.0,0.0,0.0,0.0,23073.182693471128,0.0,23073.182693471124,0.0,0.0,1.0,0.2340459355652016,0.40816326530612246,0.0,0.0,0.0,"[1.8586369337677802, 2.0, 1.7623953176976386, 1.5211136210839982, 1.0402044773145143, 1.1314589855213697, 1.8669696895202854, 2.0]",23.86,0.0,0.0,0.9242189392483907,117.05823628059863,2.718922341069174,-1515.4478116656624,-6176.894520176102,0.0,0.0,0.0,0.0,0.0,0.0,0.0,-5.9,20.982326751205072,0.0,19.158864140183905,0.0,-5.9,23.86,15.45,22.87,21.05,23.53,-6.75,-5.9,0.0,-1057.7,-4264.62,1.46,0.0,0.0,86.0,0.0,0.0,0.0,0.0,0.0,0.0,0.0,0.0,0.0,0.0,0.0,0.0,0.0,0.0
473.0,817.0,821.105527638191,0.0,-0.0,0.0,0.0,0.0,37812.659996556606,0.0,37812.659996556606,0.0,0.0,1.0,0.07327782333494394,0.40816326530612246,0.0,0.0,0.0,"[1.8586369337677802, 2.0, 1.7623953176976386, 1.5211136210839982, 1.0402044773145143, 1.1314589855213697, 1.8669696895202854, 2.0]",20.22,0.0,0.0,0.0,190.989753931503,38.38106653555786,-1335.0298206476814,-1004.3173463381411,9685.31656455161,0.0,0.0,0.0,0.0,0.0,0.0,-6.0,19.81692412953243,0.0,19.02862935390278,0.0,-6.0,20.22,15.39,22.66,18.34,21.42,-6.83,-6.0,0.0,-931.77,-3756.91,0.0,85.0,15.0,94.0,0.0,0.0,0.0,0.0,0.0,0.0,0.0,0.0,0.0,0.0,0.0,0.0,0.0,0.0
474.0,1459.0,1574.422934179493,107.55081950859554,-0.0,0.0,0.0,0.0,3446.362598354218,0.0,3232.608024368025,0.0,213.754573986193,0.8642414686918192,0.05953374159868533,0.40816326530612246,0.0,0.0,0.0,"[1.8586369337677802, 2.0, 1.7623953176976386, 1.5211136210839982, 1.0402044773145143, 1.1314589855213697, 1.8669696895202854, 2.0]",23.86,0.0,0.0,0.0,305.9704572548572,107.77681698493966,-1520.5402754604202,-6254.814782761452,0.0,0.0,0.0,0.0,0.0,0.0,0.0,-6.0,20.945004021458978,0.0,19.11995464347076,0.0,-6.0,23.86,15.49,22.75,21.19,23.54,-6.8,-6.0,770.44,-1061.25,-4278.95,0.0,117.0,116.0,151.0,0.0,0.0,0.0,0.0,0.0,0.0,0.0,0.0,0.0,0.0,0.0,0.0,0.0,0.0
475.0,3233.0,0.0,2682.572537026451,-0.0,0.0,5915.572537026451,0.0,19308.308313858655,0.0,14002.33602401079,0.0,5305.972289847868,0.6127290308930755,0.0,0.40816326530612246,0.0,0.0,0.0,"[1.8586369337677802, 2.0, 1.7623953176976386, 1.5211136210839982, 1.0402044773145143, 1.1314589855213697, 1.8669696895202854, 2.0]",20.31,0.0,0.0,0.0,414.2887273015311,133.9543483617452,-1345.034068040504,-1204.2334039121215,1657.9790784280235,0.0,0.0,0.0,0.0,0.0,0.0,-6.1,19.81757034184934,0.0,19.001760480773363,0.0,-6.1,20.31,15.44,22.57,18.44,21.42,-6.86,-6.1,3040.15,-938.76,-3785.06,0.0,162.0,134.0,205.0,0.0,0.0,0.0,0.0,0.0,0.0,0.0,0.0,0.0,0.0,0.0,0.0,0.0,0.0
476.0,3432.0,0.0,10979.386806605138,-0.0,0.0,14411.386806605138,0.0,21716.58784665837,0.0,0.0,0.0,21716.58784665837,0.0,0.0,0.40816326530612246,0.0,0.0,0.0,"[1.8586369337677802, 2.0, 1.7623953176976386, 1.5211136210839982, 1.0402044773145143, 1.1314589855213697, 1.8669696895202854, 2.0]",20.14,0.0,0.0,0.0,756.5085527069288,152.38611260410946,-1336.3319133989226,-1213.0170651872586,9380.839871623988,0.0,0.0,0.0,0.0,0.0,0.0,-6.1,19.641928849534537,0.0,18.837530656471024,0.0,-6.1,20.14,15.35,22.32,18.52,21.37,-6.86,-6.1,0.0,-932.68,-3760.57,0.0,316.0,71.0,382.0,0.0,0.0,0.0,0.0,0.0,0.0,0.0,0.0,0.0,0.0,0.0,0.0,0.0,0.0
477.0,3120.0,62739.61129913245,0.0,-0.0,0.0,-16000.0,0.0,38975.32191837309,0.0,0.0,0.0,0.0,0.6533333333333333,0.0,0.40816326530612246,173223.65297054715,43305.91324263679,216529.56621318392,"[1.8586369337677802, 2.0, 1.7623953176976386, 1.5211136210839982, 1.0402044773145143, 1.1314589855213697, 1.8669696895202854, 2.0]",23.86,0.0,0.0,0.0,580.0615294761365,141.73173087224538,-1530.7252030499365,-6550.521049187111,0.0,0.0,0.0,0.0,0.0,0.0,0.0,-6.2,20.803197517490386,0.0,18.942474352631557,0.0,-6.2,23.86,15.44,22.44,21.14,23.35,-6.95,-6.2,10245.82,-1068.36,-4307.61,0.0,330.0,52.0,247.0,0.0,0.0,0.0,0.0,0.0,0.0,0.0,0.0,0.0,0.0,0.0,0.0,0.0,0.0
478.0,2324.0,21943.580642095734,19509.862738885255,-0.0,0.0,0.0,0.0,38217.385550062434,0.0,0.0,0.0,38217.385550062434,0.6533333333333333,0.0,0.40816326530612246,0.0,0.0,0.0,"[1.8586369337677802, 2.0, 1.7623953176976386, 1.5211136210839982, 1.0402044773145143, 1.1314589855213697, 1.8669696895202854, 2.0]",20.31,0.0,0.0,0.0,406.12187360753586,101.51697252526878,-1355.1963646497115,-1474.8841074986044,1977.3791029300246,0.0,0.0,0.0,0.0,0.0,0.0,-6.3,19.68746112154996,0.0,18.838312468051054,0.0,-6.3,20.31,15.39,22.29,18.39,21.26,-7.03,-6.3,0.0,-945.85,-3813.66,0.0,162.0,77.0,205.0,0.0,0.0,0.0,0.0,0.0,0.0,0.0,0.0,0.0,0.0,0.0,0.0,0.0,0.0
479.0,1598.0,89761.45676180406,0.0,-0.0,0.0,0.0,0.0,54663.316373413625,0.0,-24279.868156781875,0.0,0.0,0.6533333333333333,0.099142794973526,0.40816326530612246,350858.5979119802,87714.64947799504,438573.2473899752,"[1.8586369337677802, 2.0, 1.7623953176976386, 1.5211136210839982, 1.0402044773145143, 1.1314589855213697, 1.8669696895202854, 2.0]",20.14,0.0,0.0,0.0,522.1055238757667,119.25319849433627,-1346.516840988439,-1458.815918015085,9901.355615003307,0.0,0.0,0.0,0.0,0.0,0.0,-6.3,19.524090703706136,0.0,18.68864102645138,0.0,-6.3,20.14,15.3,22.07,18.49,21.24,-6.99,-6.3,6256.39,-939.79,-3789.23,0.0,182.0,93.0,278.0,0.0,0.0,0.0,0.0,0.0,0.0,0.0,0.0,0.0,0.0,0.0,0.0,0.0,0.0
480.0,1513.0,41233.83907309352,0.0,-0.0,0.0,0.0,0.0,35563.20288995524,0.0,0.0,0.0,0.0,0.6533333333333333,0.099142794973526,0.40816326530612246,158058.67951091222,39514.669877728054,197573.34938864026,"[1.8586369337677802, 2.0, 1.7623953176976386, 1.5211136210839982, 1.0402044773145143, 1.1314589855213697, 1.8669696895202854, 2.0]",23.86,0.0,0.0,0.0,466.08377309765893,70.62875011568062,-1540.910130639453,-6767.876561414759,7778.477691047929,0.0,0.0,0.0,0.0,0.0,0.0,-6.4,20.69917454702631,0.0,18.810652136215587,0.0,-6.4,23.86,15.4,22.22,21.15,23.25,-7.13,-6.4,10087.93,-1075.47,-4336.27,0.0,160.0,21.0,256.0,0.0,0.0,0.0,0.0,0.0,0.0,0.0,0.0,0.0,0.0,0.0,0.0,0.0,0.0
481.0,809.0,0.0,10260.040448630183,-0.0,0.0,11069.040448630183,0.0,20000.326290508194,0.0,0.0,0.0,20000.326290508197,0.18271086527932895,0.099142794973526,0.40816326530612246,0.0,0.0,0.0,"[1.8586369337677802, 2.0, 1.7623953176976386, 1.5211136210839982, 1.0402044773145143, 1.1314589855213697, 1.8669696895202854, 2.0]",23.86,0.0,0.0,0.0,209.90246774917625,52.797678018436265,-1540.910130639453,-6528.805283191325,85.23260099623091,0.0,0.0,0.0,0.0,0.0,0.0,-6.4,20.81406139086086,0.0,18.96622726619625,0.0,-6.4,23.86,15.52,22.42,20.93,23.17,-7.08,-6.4,0.0,-1075.47,-4336.27,0.0,160.0,0.0,70.0,0.0,0.0,0.0,0.0,0.0,0.0,0.0,0.0,0.0,0.0,0.0,0.0,0.0,0.0
482.0,1102.0,1107.537688442211,0.0,-0.0,0.0,0.0,0.0,23318.385377773313,0.0,23318.385377773317,0.0,0.0,0.18271086527932895,0.0,0.40816326530612246,0.0,0.0,0.0,"[1.8586369337677802, 2.0, 1.7623953176976386, 1.5211136210839982, 1.0402044773145143, 1.1314589855213697, 1.8669696895202854, 2.0]",20.14,0.0,0.0,0.0,243.9310248074898,53.58806241990987,-1351.6093047831973,-1216.359666578042,2275.30842045477,0.0,0.0,0.0,0.0,0.0,0.0,-6.4,19.640989343089494,0.0,18.850907478646512,0.0,-6.4,20.14,15.45,22.25,18.32,21.17,-7.07,-6.4,10900.24,-943.35,-3803.56,0.0,160.0,0.0,95.0,0.0,0.0,0.0,0.0,0.0,0.0,0.0,0.0,0.0,0.0,0.0,0.0,0.0,0.0
483.0,940.0,73983.95018730305,56674.03043636654,-0.0,0.0,-16000.0,0.0,64297.260959173174,0.0,-46720.08964194894,0.0,111017.35060112213,0.8360441986126623,0.19077369937129154,0.40816326530612246,0.0,0.0,0.0,"[1.8586369337677802, 2.0, 1.7623953176976386, 1.5211136210839982, 1.0402044773145143, 1.1314589855213697, 1.8669696895202854, 2.0]",20.14,0.0,0.0,0.0,284.76529327746607,54.53652370167818,-1346.516840988439,-1453.4221940768991,9470.458931297955,0.0,0.0,0.0,0.0,0.0,0.0,-6.3,19.52668563913396,0.0,18.6995309050741,0.0,-6.3,20.14,15.36,22.04,18.53,21.23,-6.99,-6.3,8360.45,-939.79,-3789.23,0.0,160.0,0.0,125.0,0.0,0.0,0.0,0.0,0.0,0.0,0.0,0.0,0.0,0.0,0.0,0.0,0.0,0.0
484.0,523.0,13632.742587215918,18871.387684232617,-0.0,0.0,5829.808809952779,0.0,36966.692623396,0.0,0.0,0.0,36966.69262339599,0.5881781777813367,0.19077369937129154,0.40816326530612246,0.0,0.0,0.0,"[1.8586369337677802, 2.0, 1.7623953176976386, 1.5211136210839982, 1.0402044773145143, 1.1314589855213697, 1.8669696895202854, 2.0]",23.51,0.0,0.0,0.0,156.81791873820708,51.56467835213744,-1518.1362160144254,-6282.821179754303,8318.942244302878,0.0,0.0,0.0,0.0,0.0,0.0,-6.3,20.583775521925254,0.0,18.798645179753116,0.0,-6.3,23.51,15.43,22.17,20.92,23.05,-6.98,-6.3,0.0,-1059.57,-4272.19,0.0,160.0,0.0,31.0,0.0,0.0,0.0,0.0,0.0,0.0,0.0,0.0,0.0,0.0,0.0,0.0,0.0,0.0
485.0,991.0,0.0,7708.317980352241,-0.0,0.0,8699.31798035224,0.0,15099.632639159838,0.0,0.0,0.0,15099.632639159838,0.2183092160316667,0.19077369937129154,0.40816326530612246,0.0,0.0,0.0,"[1.8586369337677802, 2.0, 1.7623953176976386, 1.5211136210839982, 1.0402044773145143, 1.1314589855213697, 1.8669696895202854, 2.0]",23.86,0.0,0.0,0.0,322.87727718277716,55.4217542313286,-1535.817666844695,-6551.790499373366,0.0,0.0,0.0,0.0,0.0,0.0,0.0,-6.3,20.802664093096933,0.0,18.95738301058186,0.0,-6.3,23.86,15.55,22.37,21.0,23.18,-6.98,-6.3,10294.19,-1071.91,-4321.94,0.0,160.0,0.0,153.0,0.0,0.0,0.0,0.0,0.0,0.0,0.0,0.0,0.0,0.0,0.0,0.0,0.0,0.0
486.0,856.0,14129.11214101184,4278.632761064801,-0.0,0.0,-8923.833819241981,0.0,8422.096965832408,0.0,0.0,0.0,8422.096965832408,0.36438988095238095,0.19077369937129154,0.40816326530612246,0.0,0.0,0.0,"[1.8586369337677837, 2.0, 1.7399885461956792, 1.5211136210839982, 1.0402044773145143, 1.1314589855213697, 1.8669696895202854, 2.0]",20.15,0.0,0.0,0.0,198.0103825456393,44.13506497828564,-1341.7241497210991,-1245.2507689529434,2336.595334296373,0.0,0.0,0.0,0.0,0.0,0.0,-6.2,19.63236012727391,0.0,18.843081328662468,0.0,-6.2,20.15,15.48,22.21,18.32,21.14,-6.87,-6.2,0.0,-936.45,-3775.74,0.0,132.0,0.0,76.0,0.0,0.0,0.0,0.0,0.0,0.0,0.0,0.0,0.0,0.0,0.0,0.0,0.0,0.0
487.0,1430.0,8585.240772204295,7112.314568343274,-0.0,0.0,0.0,0.0,13999.940235857577,0.0,0.0,0.0,13999.940235857579,0.36438988095238095,0.19077369937129154,0.40816326530612246,0.0,0.0,0.0,"[1.8586369337677837, 2.0, 1.7399885461956792, 1.5211136210839982, 1.0402044773145143, 1.1314589855213697, 1.8669696895202854, 2.0]",20.14,0.0,0.0,0.0,182.82290023750778,36.92675923684645,-1341.4243771936806,-1468.4982127176409,2593.5208775890833,0.0,0.0,0.0,0.0,0.0,0.0,-6.2,19.519050227659225,0.0,18.695151355853355,0.0,-6.2,20.14,15.39,22.0,18.54,21.21,-6.87,-6.2,1161.55,-936.24,-3774.9,0.0,94.0,8.0,84.0,0.0,0.0,0.0,0.0,0.0,0.0,0.0,0.0,0.0,0.0,0.0,0.0,0.0,0.0
488.0,2711.0,0.0,0.0,-0.0,0.0,8570.45,0.0,21432.174092127767,29297.25,44869.97409212777,0.0,0.0,0.0,0.0,0.40816326530612246,23437.800000000003,5859.450000000001,29297.25,"[1.8586369337677837, 2.0, 1.7399885461956792, 1.5211136210839982, 1.0402044773145143, 1.1314589855213697, 1.8669696895202854, 2.0]",20.14,0.0,0.0,7.696160962466022,330.1844620668782,59.152368606284,-1305.7771306303732,-1672.8185843646158,2586.700516522672,0.0,0.0,0.0,0.0,0.0,0.0,-5.5,19.418525039653233,0.0,18.56150116619098,0.0,-5.5,20.14,15.3,21.82,18.51,21.12,-6.15,-5.5,10524.48,-911.36,-3674.59,12.17,85.0,46.0,193.0,0.0,0.0,0.0,0.0,0.0,0.0,0.0,0.0,0.0,0.0,0.0,0.0,0.0,0.0
489.0,1642.0,26474.859175065223,30690.319420579384,-0.0,5989.834541389484,0.0,0.0,65022.57574471881,0.0,-8554.61945076924,0.0,73577.19519548804,0.0,0.03493136275730773,0.40816326530612246,0.0,0.0,0.0,"[1.8586369337677837, 2.0, 1.7399885461956792, 1.5211136210839982, 1.0402044773145143, 1.1314589855213697, 1.8669696895202854, 2.0]",20.14,0.0,0.0,667.6985646158796,199.87299830041013,57.85613818786728,-1112.263506429562,-1828.0738707914347,9727.184503711973,0.0,0.0,0.0,0.0,0.0,0.0,-1.7,19.32994322813655,0.0,18.44467918910375,0.0,-1.7,20.14,15.24,21.65,18.47,21.02,-1.7,-1.7,7341.1,-776.3,-3130.02,1055.97,104.0,39.0,88.0,0.0,0.0,0.0,0.0,0.0,0.0,0.0,0.0,0.0,0.0,0.0,0.0,0.0,0.0
490.0,2513.0,0.0,1684.312291833554,-9058.725531028736,13256.03782286229,0.0,0.0,12864.00757724583,0.0,8215.856520518779,0.0,4648.151056727051,0.0,0.0,1.0,0.0,0.0,0.0,"[1.8586369337677837, 2.0, 1.7399885461956792, 1.5211136210839982, 1.0402044773145143, 1.1314589855213697, 1.8669696895202854, 2.0]",23.86,0.0,0.0,1183.4395072988577,179.9573375378603,38.82368180038308,-1108.0507080850073,-6982.852097314125,2066.545499460592,0.0,0.0,0.0,0.0,0.0,0.0,2.1,20.565889962859472,0.0,18.655412706963254,0.0,2.1,23.86,15.44,21.88,21.3,23.18,2.45,2.1,0.0,-773.36,-3118.16,1871.62,110.0,3.0,74.0,0.0,0.0,0.0,0.0,0.0,0.0,0.0,0.0,0.0,0.0,0.0,0.0,0.0,0.0
491.0,3652.0,0.0,13430.822915689741,-0.0,17224.78574661528,-141.96283092553722,0.0,30695.36425278482,0.0,-10338.559184075828,0.0,41033.92343686065,0.005796815596126104,0.0422157833349763,1.0,0.0,0.0,0.0,"[1.8586369337677837, 2.0, 1.7399885461956792, 1.5211136210839982, 1.0402044773145143, 1.1314589855213697, 1.8669696895202854, 2.0]",21.65,0.0,0.0,1547.0996571734845,190.5599195265559,4.42615264825214,-837.7043350673661,-3519.1588040220354,7160.926117210491,0.0,0.0,0.0,0.0,0.0,0.0,5.2,20.00635169788304,0.0,18.785897495022642,0.0,5.2,21.65,15.62,21.95,19.66,21.97,5.75,5.2,0.0,-584.67,-2357.38,2446.75,0.0,0.0,140.0,0.0,0.0,0.0,0.0,0.0,0.0,0.0,0.0,0.0,0.0,0.0,0.0,0.0,0.0
492.0,2890.0,112230.22856493313,0.0,-0.0,19183.48190700497,-16000.0,0.0,20766.30339620206,0.0,-80000.0,0.0,0.0,0.6591301489294594,0.368882450001643,1.0,447850.2373164538,111962.55932911344,559812.7966455672,"[1.8586369337677837, 2.0, 1.7399885461956792, 1.5211136210839982, 1.0402044773145143, 1.1314589855213697, 1.8669696895202854, 2.0]",23.86,0.0,0.0,1706.175998134917,200.0879155028837,44.48283411493403,-843.2425907575818,-6366.198794195523,0.0,0.0,0.0,0.0,0.0,0.0,0.0,7.3,20.84541168312111,0.0,19.066787434169374,0.0,7.3,23.86,15.94,22.19,21.53,23.4,7.96,7.3,7018.49,-588.54,-2372.97,2698.33,133.0,0.0,77.0,0.0,0.0,0.0,0.0,0.0,0.0,0.0,0.0,0.0,0.0,0.0,0.0,0.0,0.0
493.0,1904.0,6179.420059681375,20926.467420741898,-0.0,16681.94446135893,0.0,0.0,23300.350480241657,0.0,-46619.26001711594,0.0,69919.6104973576,0.6591301489294594,0.5592444284048664,1.0,0.0,0.0,0.0,"[1.8586369337677837, 2.0, 1.7399885461956792, 1.5211136210839982, 1.0402044773145143, 1.1314589855213697, 1.8669696895202854, 2.0]",21.35,0.0,0.0,1463.8624463046701,365.64580047501556,38.444297287675745,-669.6969919032366,-2487.82646463888,6463.012843668259,0.0,0.0,0.0,0.0,0.0,0.0,8.2,20.19344519723973,0.0,19.19809422387812,0.0,8.2,21.35,16.18,22.22,19.74,22.03,8.65,8.2,4764.53,-467.41,-1884.59,2315.11,100.0,0.0,216.0,0.0,0.0,0.0,0.0,0.0,0.0,0.0,0.0,0.0,0.0,0.0,0.0,0.0,0.0
494.0,2708.0,0.0,3286.5166290813445,-0.0,14342.349716523157,-8347.833087441812,0.0,10980.924681568142,0.0,0.0,0.0,10980.92468156814,1.0,0.5592444284048664,1.0,0.0,0.0,0.0,"[1.8586369337677837, 2.0, 1.7399885461956792, 1.5211136210839982, 1.0402044773145143, 1.1314589855213697, 1.8669696895202854, 2.0]",23.86,0.0,0.0,1291.54490206055,1702.7173561305192,95.85782021071782,-797.410416604758,-5828.779196664838,0.0,0.0,0.0,0.0,0.0,0.0,0.0,8.2,21.102248237142028,0.0,19.457868539811763,0.0,8.2,23.86,16.5,22.42,21.71,23.49,8.51,8.2,1475.06,-556.55,-2243.99,2042.59,188.0,0.0,1152.0,0.0,0.0,0.0,0.0,0.0,0.0,0.0,0.0,0.0,0.0,0.0,0.0,0.0,0.0
495.0,1359.0,0.0,6651.4107842349395,-0.0,8010.4107842349395,0.0,0.0,21272.575614954745,0.0,0.0,0.0,21272.57561495475,1.0,0.5592444284048664,1.0,0.0,0.0,0.0,"[1.8586369337677837, 2.0, 1.7399885461956792, 1.5211136210839982, 1.0402044773145143, 1.1314589855213697, 1.8669696895202854, 2.0]",22.17,0.0,0.0,824.3887995460303,446.59794674005616,51.40660147184274,-787.8768296628042,-3187.660529854906,3998.2863016027923,0.0,0.0,0.0,0.0,0.0,0.0,6.7,20.686255737238604,0.0,19.582323188924946,0.0,6.7,22.17,16.72,22.45,20.23,22.37,6.64,6.7,0.0,-549.89,-2217.16,1303.78,137.0,0.0,256.0,0.0,0.0,0.0,0.0,0.0,0.0,0.0,0.0,0.0,0.0,0.0,0.0,0.0,0.0
496.0,1619.0,13621.653564111179,11934.545296290622,-0.0,0.0,0.0,0.0,35552.2824288884,0.0,0.0,0.0,35552.28242888841,1.0,0.5592444284048664,1.0,0.0,0.0,0.0,"[1.8586369337677837, 2.0, 1.7399885461956792, 1.5211136210839982, 1.0402044773145143, 1.1314589855213697, 1.8669696895202854, 2.0]",22.83,0.0,0.0,1.8689562875024308,436.926672628746,10.148535714920984,-938.4363530380374,-4001.770985271172,6634.484641729077,0.0,0.0,0.0,0.0,0.0,0.0,4.4,20.962616651964737,0.0,19.71275377603463,0.0,4.4,22.83,16.91,22.51,20.94,22.86,3.6,4.4,0.0,-654.98,-2640.85,2.96,0.0,0.0,321.0,0.0,0.0,0.0,0.0,0.0,0.0,0.0,0.0,0.0,0.0,0.0,0.0,0.0,0.0
497.0,2232.0,10824.62093168246,8538.497827024048,-0.0,0.0,0.0,0.0,25272.86393697135,0.0,0.0,0.0,25272.863936971342,1.0,0.5592444284048664,1.0,0.0,0.0,0.0,"[1.8586369337677837, 2.0, 1.7399885461956792, 1.5211136210839982, 1.0402044773145143, 1.1314589855213697, 1.8669696895202854, 2.0]",23.86,0.0,0.0,0.0,316.7163173785352,77.74220972894298,-1001.1089683950854,-5309.317788223699,5923.0166901680395,0.0,0.0,0.0,0.0,0.0,0.0,4.2,21.368017118813427,0.0,19.86325522730321,0.0,4.2,23.86,17.08,22.65,21.5,23.29,3.42,4.2,0.0,-698.72,-2817.22,0.0,167.0,36.0,141.0,0.0,0.0,0.0,0.0,0.0,0.0,0.0,0.0,0.0,0.0,0.0,0.0,0.0,0.0
498.0,4170.0,14129.11214101184,4278.632761064801,-0.0,0.0,-8923.833819241981,0.0,0.0,0.0,0.0,0.0,8422.096965832408,0.36438988095238095,0.19077369937129154,0.40816326530612246,0.0,0.0,0.0,"[1.8586369337677837, 2.0, 1.7399885461956792, 1.5211136210839982, 1.0402044773145143, 1.1314589855213697, 1.8669696895202854, 2.0]",23.86,0.0,0.0,0.0,431.55374256690703,136.45196307040175,-1016.38635977936,-5088.0944196237715,0.0,0.0,0.0,0.0,0.0,0.0,0.0,3.9,21.475217994882374,0.0,20.016640880823427,0.0,3.9,23.86,17.24,22.79,21.53,23.34,3.17,3.9,0.0,-709.38,-2860.21,0.0,220.0,107.0,190.0,0.0,0.0,0.0,0.0,0.0,0.0,0.0,0.0,0.0,0.0,0.0,0.0,0.0,0.0
499.0,2494.0,8585.240772204295,7112.314568343274,-0.0,0.0,0.0,0.0,13999.940235857577,0.0,0.0,0.0,13999.940235857579,0.36438988095238095,0.19077369937129154,0.40816326530612246,0.0,0.0,0.0,"[1.8586369337677837, 2.0, 1.7399885461956792, 1.5211136210839982, 1.0402044773145143, 1.1314589855213697, 1.8669696895202854, 2.0]",20.14,0.0,0.0,0.0,474.3939049266365,152.95518937317047,-837.2704615126202,-1404.597189952143,2593.5208775890833,0.0,0.0,0.0,0.0,0.0,0.0,3.7,19.519050227659225,0.0,18.695151355853355,0.0,3.7,20.14,15.39,22.0,18.54,21.21,3.0,3.7,1161.55,-584.37,-2356.16,0.0,200.0,145.0,228.0,0.0,0.0,0.0,0.0,0.0,0.0,0.0,0.0,0.0,0.0,0.0,0.0,0.0,0.0
500.0,4181.0,0.0,0.0,-0.0,0.0,8570.45,0.0,21432.174092127767,0.0,44869.97409212777,0.0,0.0,0.0,0.0,0.40816326530612246,23437.800000000003,5859.450000000001,29297.25,"[1.8586369337677837, 2.0, 1.7399885461956792, 1.5211136210839982, 1.0402044773145143, 1.1314589855213697, 1.8669696895202854, 2.0]",20.14,0.0,0.0,0.0,419.01690575594944,124.28004328770835,-847.4553891021365,-1614.854516646331,2586.700516522672,0.0,0.0,0.0,0.0,0.0,0.0,3.5,19.418525039653233,0.0,18.56150116619098,0.0,3.5,20.14,15.3,21.82,18.51,21.12,2.79,3.5,10524.48,-591.48,-2384.82,0.0,186.0,104.0,199.0,0.0,0.0,0.0,0.0,0.0,0.0,0.0,0.0,0.0,0.0,0.0,0.0,0.0,0.0
501.0,5282.0,26474.859175065223,30690.319420579384,-0.0,0.0,0.0,0.0,65022.57574471881,0.0,-8554.61945076924,0.0,73577.19519548804,0.0,0.03493136275730773,0.40816326530612246,0.0,0.0,0.0,"[1.8586369337677837, 2.0, 1.7399885461956792, 1.5211136210839982, 1.0402044773145143, 1.1314589855213697, 1.8669696895202854, 2.0]",20.14,0.0,0.0,0.0,674.1236250920641,134.99765577169032,-862.732780486411,-1800.578846003388,9727.184503711973,0.0,0.0,0.0,0.0,0.0,0.0,3.2,19.32994322813655,0.0,18.44467918910375,0.0,3.2,20.14,15.24,21.65,18.47,21.02,2.55,3.2,7341.1,-602.14,-2427.82,0.0,270.0,68.0,346.0,0.0,0.0,0.0,0.0,0.0,0.0,0.0,0.0,0.0,0.0,0.0,0.0,0.0,0.0
502.0,3674.0,0.0,1684.312291833554,-9058.725531028736,0.0,0.0,0.0,12864.00757724583,0.0,8215.856520518779,0.0,4648.151056727051,0.0,0.0,1.0,0.0,0.0,0.0,"[1.8586369337677837, 2.0, 1.7399885461956792, 1.5211136210839982, 1.0402044773145143, 1.1314589855213697, 1.8669696895202854, 2.0]",23.86,0.0,0.0,0.0,375.4603527213081,107.46066322435024,-1062.2185339321836,-6983.314617949968,2066.545499460592,0.0,0.0,0.0,0.0,0.0,0.0,3.0,20.565889962859472,0.0,18.655412706963254,0.0,3.0,23.86,15.44,21.88,21.3,23.18,2.38,3.0,0.0,-741.37,-2989.19,0.0,256.0,39.0,137.0,0.0,0.0,0.0,0.0,0.0,0.0,0.0,0.0,0.0,0.0,0.0,0.0,0.0,0.0
503.0,1458.0,0.0,13430.822915689741,-0.0,0.0,-141.96283092553722,0.0,30695.36425278482,0.0,-10338.559184075828,0.0,41033.92343686065,0.005796815596126104,0.0422157833349763,1.0,0.0,0.0,0.0,"[1.8586369337677837, 2.0, 1.7399885461956792, 1.5211136210839982, 1.0402044773145143, 1.1314589855213697, 1.8669696895202854, 2.0]",21.65,0.0,0.0,0.0,378.469193555938,109.92666255694785,-959.9234661415627,-3542.0834273928426,7160.926117210491,0.0,0.0,0.0,0.0,0.0,0.0,2.8,20.00635169788304,0.0,18.785897495022642,0.0,2.8,21.65,15.62,21.95,19.66,21.97,2.22,2.8,0.0,-669.97,-2701.32,0.0,298.0,21.0,119.0,0.0,0.0,0.0,0.0,0.0,0.0,0.0,0.0,0.0,0.0,0.0,0.0,0.0,0.0
504.0,2204.0,112230.22856493313,0.0,-0.0,0.0,-16000.0,0.0,20766.30339620206,0.0,-80000.0,0.0,0.0,0.6591301489294594,0.368882450001643,1.0,447850.2373164538,111962.55932911344,559812.7966455672,"[1.8586369337677837, 2.0, 1.7399885461956792, 1.5211136210839982, 1.0402044773145143, 1.1314589855213697, 1.8669696895202854, 2.0]",23.86,0.0,0.0,0.0,200.23119363786606,28.611915333344207,-1097.865780495491,-6406.534592885183,0.0,0.0,0.0,0.0,0.0,0.0,0.0,2.3,20.84541168312111,0.0,19.066787434169374,0.0,2.3,23.86,15.94,22.19,21.53,23.4,1.73,2.3,7018.49,-766.25,-3089.5,0.0,80.0,0.0,105.0,0.0,0.0,0.0,0.0,0.0,0.0,0.0,0.0,0.0,0.0,0.0,0.0,0.0,0.0
505.0,1630.0,6179.420059681375,20926.467420741898,-0.0,0.0,0.0,0.0,23300.350480241657,0.0,-46619.26001711594,0.0,69919.6104973576,0.6591301489294594,0.5592444284048664,1.0,0.0,0.0,0.0,"[1.8586369337677837, 2.0, 1.7399885461956792, 1.5211136210839982, 1.0402044773145143, 1.1314589855213697, 1.8669696895202854, 2.0]",21.35,0.0,0.0,0.0,283.4041509951335,54.50490832561924,-990.5222109730023,-2535.09794736179,6463.012843668259,0.0,0.0,0.0,0.0,0.0,0.0,1.9,20.19344519723973,0.0,19.19809422387812,0.0,1.9,21.35,16.18,22.22,19.74,22.03,1.35,1.9,4764.53,-691.33,-2787.43,0.0,160.0,0.0,124.0,0.0,0.0,0.0,0.0,0.0,0.0,0.0,0.0,0.0,0.0,0.0,0.0,0.0,0.0
506.0,1030.0,0.0,3286.5166290813445,-0.0,0.0,-8347.833087441812,0.0,10980.924681568142,0.0,0.0,0.0,10980.92468156814,1.0,0.5592444284048664,1.0,0.0,0.0,0.0,"[1.8586369337677837, 2.0, 1.7399885461956792, 1.5211136210839982, 1.0402044773145143, 1.1314589855213697, 1.8669696895202854, 2.0]",23.86,0.0,0.0,0.0,374.60068391141374,56.623138521568464,-1143.6979546483146,-5878.295494739844,0.0,0.0,0.0,0.0,0.0,0.0,0.0,1.4,21.102248237142028,0.0,19.457868539811763,0.0,1.4,23.86,16.5,22.42,21.71,23.49,0.86,1.4,1475.06,-798.24,-3218.48,0.0,160.0,0.0,191.0,0.0,0.0,0.0,0.0,0.0,0.0,0.0,0.0,0.0,0.0,0.0,0.0,0.0,0.0
507.0,841.0,0.0,6651.4107842349395,-0.0,0.0,0.0,0.0,21272.575614954745,0.0,0.0,0.0,21272.57561495475,1.0,0.5592444284048664,1.0,0.0,0.0,0.0,"[1.8586369337677837, 2.0, 1.7399885461956792, 1.5211136210839982, 1.0402044773145143, 1.1314589855213697, 1.8669696895202854, 2.0]",22.17,0.0,0.0,0.0,189.48533351418808,52.32344737755211,-1067.9623383745045,-3226.055891550173,3998.2863016027923,0.0,0.0,0.0,0.0,0.0,0.0,1.2,20.686255737238604,0.0,19.582323188924946,0.0,1.2,22.17,16.72,22.45,20.23,22.37,0.71,1.2,0.0,-745.38,-3005.35,0.0,160.0,0.0,55.0,0.0,0.0,0.0,0.0,0.0,0.0,0.0,0.0,0.0,0.0,0.0,0.0,0.0,0.0
508.0,1125.0,13621.653564111179,11934.545296290622,-0.0,0.0,0.0,0.0,35552.2824288884,0.0,0.0,0.0,35552.28242888841,1.0,0.5592444284048664,1.0,0.0,0.0,0.0,"[1.8586369337677837, 2.0, 1.7399885461956792, 1.5211136210839982, 1.0402044773145143, 1.1314589855213697, 1.8669696895202854, 2.0]",22.83,0.0,0.0,0.0,235.7641711134945,53.39837016355621,-1111.5801220598157,-4021.713639327149,6634.484641729077,0.0,0.0,0.0,0.0,0.0,0.0,1.0,20.962616651964737,0.0,19.71275377603463,0.0,1.0,22.83,16.91,22.51,20.94,22.86,0.52,1.0,0.0,-775.82,-3128.1,0.0,160.0,0.0,89.0,0.0,0.0,0.0,0.0,0.0,0.0,0.0,0.0,0.0,0.0,0.0,0.0,0.0,0.0
509.0,875.0,10824.62093168246,8538.497827024048,-0.0,0.0,0.0,0.0,25272.86393697135,0.0,0.0,0.0,25272.863936971342,1.0,0.5592444284048664,1.0,0.0,0.0,0.0,"[1.8586369337677837, 2.0, 1.7399885461956792, 1.5211136210839982, 1.0402044773145143, 1.1314589855213697, 1.8669696895202854, 2.0]",23.86,0.0,0.0,0.0,262.7720995576718,58.55167646116405,-1179.345201211622,-5329.549582196344,5923.0166901680395,0.0,0.0,0.0,0.0,0.0,0.0,0.7,21.368017118813427,0.0,19.86325522730321,0.0,0.7,23.86,17.08,22.65,21.5,23.29,0.3,0.7,0.0,-823.12,-3318.79,0.0,160.0,8.0,108.0,0.0,0.0,0.0,0.0,0.0,0.0,0.0,0.0,0.0,0.0,0.0,0.0,0.0,0.0
510.0,1007.0,5375.8199577646665,0.0,-0.0,0.0,-4341.940857975843,0.0,0.0,0.0,0.0,0.0,0.0,1.0,0.5592444284048664,1.0,0.0,0.0,0.0,"[1.8586369337677837, 1.755847461739954, 1.0240399020876296, 1.033356801571177, 0.6614129271313409, 1.1314589855213697, 1.8669696895202854, 1.2040621965146556]",23.86,0.0,0.0,0.0,228.67190343186707,101.42212639709196,-1184.43766500638,-5107.419102991927,0.0,0.0,0.0,0.0,0.0,0.0,0.0,0.6,21.475217994882374,0.0,20.016640880823427,0.0,0.6,23.86,17.24,22.79,21.53,23.34,0.19,0.6,0.0,-826.67,-3333.13,0.0,234.0,46.0,40.0,0.0,0.0,0.0,0.0,0.0,0.0,0.0,0.0,0.0,0.0,0.0,0.0,0.0,0.0
511.0,1057.0,1062.3115577889448,0.0,-0.0,0.0,0.0,0.0,32548.904800176562,0.0,32548.904800176562,0.0,0.0,1.0,0.4208562277238437,1.0,0.0,0.0,0.0,"[1.8586369337677837, 1.755847461739954, 1.0240399020876296, 1.033356801571177, 0.6614129271313409, 1.1314589855213697, 1.8669696895202854, 1.2040621965146556]",20.99,0.0,0.0,0.0,438.3594539785698,117.00850679415127,-1048.3342173639007,-996.2568155087918,0.0,0.0,0.0,0.0,0.0,0.0,0.0,0.4,20.572064554999578,0.0,19.934103381345004,0.0,0.4,20.99,17.21,22.66,19.53,21.81,0.01,0.4,508.08,-731.68,-2950.12,0.0,300.0,30.0,161.0,0.0,0.0,0.0,0.0,0.0,0.0,0.0,0.0,0.0,0.0,0.0,0.0,0.0,0.0
512.0,4074.0,4094.472361809045,0.0,-0.0,0.0,0.0,0.0,2553.971174769239,0.0,2553.971174769239,0.0,0.0,1.0,0.4099975067426819,1.0,0.0,0.0,0.0,"[1.8586369337677837, 1.755847461739954, 1.0240399020876296, 1.033356801571177, 0.6614129271313409, 1.1314589855213697, 1.8669696895202854, 1.2040621965146556]",20.26,0.0,0.0,1.84165862072777,172.14867918132103,40.37283522727133,-1001.4034405848635,-189.31405726443904,724.1809893390804,0.0,0.0,0.0,0.0,0.0,0.0,0.6,20.23586672725225,0.0,19.768910318610086,0.0,0.6,20.26,17.12,22.42,19.16,21.43,0.2,0.6,9482.55,-698.92,-2818.05,2.91,112.0,5.0,67.0,0.0,0.0,0.0,0.0,0.0,0.0,0.0,0.0,0.0,0.0,0.0,0.0,0.0,0.0
513.0,2455.0,2457.0104967734414,0.0,-0.0,10.27455571042594,0.0,0.0,22649.568505880015,0.0,22649.56850588001,0.0,0.0,1.0,0.31369832091836214,1.0,0.0,0.0,0.0,"[1.8586369337677837, 1.755847461739954, 1.0240399020876296, 1.033356801571177, 0.6614129271313409, 1.1314589855213697, 1.8669696895202854, 1.2040621965146556]",20.14,0.0,0.0,30.597637130159193,208.6129645343349,74.23290298640022,-949.3046649973003,-259.1159863100237,4105.054138106819,0.0,0.0,0.0,0.0,0.0,0.0,1.5,20.07589430649109,0.0,19.605290480124335,0.0,1.5,20.14,17.02,22.19,19.1,21.29,1.15,1.5,6855.06,-662.56,-2671.44,48.39,141.0,48.0,74.0,0.0,0.0,0.0,0.0,0.0,0.0,0.0,0.0,0.0,0.0,0.0,0.0,0.0,0.0
514.0,3969.0,0.0,451.7190332841632,-0.0,522.935695579778,3897.7833377043853,0.0,1276.7414264929082,0.0,0.0,0.0,1276.7414264929082,0.8342779193152897,0.31369832091836214,1.0,0.0,0.0,0.0,"[1.8586369337677837, 1.755847461739954, 1.0240399020876296, 1.033356801571177, 0.6614129271313409, 1.1314589855213697, 1.8669696895202854, 1.2040621965146556]",21.68,0.0,0.0,84.82122060537479,433.6312755241514,59.02590710204821,-961.60651505525,-2585.732625690446,0.0,0.0,0.0,0.0,0.0,0.0,0.0,2.8,20.498926974401904,0.0,19.57254415729307,0.0,2.8,21.68,17.02,22.13,20.2,22.06,2.43,2.8,0.0,-671.15,-2706.06,134.15,120.0,23.0,253.0,0.0,0.0,0.0,0.0,0.0,0.0,0.0,0.0,0.0,0.0,0.0,0.0,0.0,0.0
515.0,11681.0,0.0,4870.612645694887,-0.0,1166.1669011822673,15385.44574451262,0.0,14230.659693039494,0.0,0.0,0.0,14230.659693039494,0.1801348179329504,0.31369832091836214,1.0,0.0,0.0,0.0,"[1.8586369337677837, 1.755847461739954, 1.0240399020876296, 1.033356801571177, 0.6614129271313409, 1.1314589855213697, 1.8669696895202854, 1.2040621965146556]",20.25,0.0,0.0,104.8987177406324,346.30325225239517,35.598913442370794,-837.850041381504,-633.6626302610028,753.3573404594094,0.0,0.0,0.0,0.0,0.0,0.0,3.8,20.000435415955895,0.0,19.46958367680228,0.0,3.8,20.25,16.98,21.96,19.04,21.14,3.39,3.8,483.36,-584.77,-2357.79,165.9,92.0,0.0,206.0,0.0,0.0,0.0,0.0,0.0,0.0,0.0,0.0,0.0,0.0,0.0,0.0,0.0,0.0
516.0,5674.0,0.0,0.0,-0.0,2978.562291836417,2695.437708163583,0.0,19241.79906794092,0.0,19241.79906794092,0.0,0.0,0.0655328745586484,0.2318879507315385,1.0,0.0,0.0,0.0,"[1.8586369337677837, 1.755847461739954, 1.0240399020876296, 1.033356801571177, 0.6614129271313409, 1.1314589855213697, 1.8669696895202854, 1.2040621965146556]",20.14,0.0,0.0,151.41721583487302,906.5207600334729,21.05584045525662,-791.4382873597966,-644.5602318831884,8081.052035645226,0.0,0.0,0.0,0.0,0.0,0.0,4.6,19.881016802904472,0.0,19.359561434400952,0.0,4.6,20.14,16.95,21.77,19.05,21.05,4.18,4.6,8347.39,-552.38,-2227.19,239.47,0.0,0.0,666.0,0.0,0.0,0.0,0.0,0.0,0.0,0.0,0.0,0.0,0.0,0.0,0.0,0.0,0.0
517.0,4933.0,8793.392834147666,6303.0432717959975,-0.0,2486.6174018190713,0.0,0.0,19197.00334111607,0.0,0.0,0.0,19197.00334111607,0.0655328745586484,0.2318879507315385,1.0,0.0,0.0,0.0,"[1.8586369337677837, 1.755847461739954, 1.0240399020876296, 1.033356801571177, 0.6614129271313409, 1.1314589855213697, 1.8669696895202854, 1.2040621965146556]",23.86,0.0,0.0,152.3370290195507,1829.0886711849719,91.3052060582299,-955.2767942422616,-5902.46936785546,4788.835252134343,0.0,0.0,0.0,0.0,0.0,0.0,5.1,21.078807159271694,0.0,19.51691597127754,0.0,5.1,23.86,17.1,21.94,21.66,23.03,4.65,5.1,0.0,-666.73,-2688.24,240.92,163.0,0.0,1258.0,0.0,0.0,0.0,0.0,0.0,0.0,0.0,0.0,0.0,0.0,0.0,0.0,0.0,0.0
518.0,4181.0,15556.683140350717,12295.419419061565,-0.0,997.5196944126025,0.0,0.0,27790.781044788462,0.0,-9891.467442210982,0.0,37682.24848699944,0.0655328745586484,0.2722781094539,1.0,0.0,0.0,0.0,"[1.8586369337677837, 1.755847461739954, 1.0240399020876296, 1.033356801571177, 0.6614129271313409, 1.1314589855213697, 1.8669696895202854, 1.2040621965146556]",23.86,0.0,0.0,128.6910030517534,223.4422515050105,41.13160425268598,-945.0918666527452,-5632.371048822087,6184.161088646779,0.0,0.0,0.0,0.0,0.0,0.0,5.3,21.208137427792064,0.0,19.69758289249701,0.0,5.3,23.86,17.26,22.13,21.37,22.87,4.85,5.3,0.0,-659.62,-2659.58,203.53,120.0,0.0,101.0,0.0,0.0,0.0,0.0,0.0,0.0,0.0,0.0,0.0,0.0,0.0,0.0,0.0,0.0
519.0,2953.0,19022.206317593365,0.0,-0.0,25.904713994602282,-16000.0,0.0,16924.050884789674,0.0,16924.050884789674,0.0,0.0,0.7188662078919817,0.20032211079408,1.0,0.0,0.0,0.0,"[1.8586369337677837, 1.755847461739954, 1.0240399020876296, 1.033356801571177, 0.6614129271313409, 1.1314589855213697, 1.8669696895202854, 1.2040621965146556]",23.86,0.0,0.0,41.01720097442911,441.6548510831644,61.175752674056405,-970.5541856265364,-5353.211330626499,0.0,0.0,0.0,0.0,0.0,0.0,0.0,4.8,21.344177851573345,0.0,19.88744629280066,0.0,4.8,23.86,17.44,22.33,21.62,23.12,4.29,4.8,8567.96,-677.39,-2731.24,64.87,170.0,0.0,235.0,0.0,0.0,0.0,0.0,0.0,0.0,0.0,0.0,0.0,0.0,0.0,0.0,0.0,0.0
520.0,4153.0,0.0,0.0,-0.0,0.0,4153.0,0.0,14378.372194313048,0.0,14378.372194313048,0.0,0.0,0.5422930786402811,0.13918957595431364,1.0,0.0,0.0,0.0,"[1.8586369337677837, 1.755847461739954, 1.0240399020876296, 1.033356801571177, 0.6614129271313409, 1.1314589855213697, 1.8669696895202854, 1.2040621965146556]",21.08,0.0,0.0,0.9242731299579751,534.4990825517418,37.27452837349483,-869.5795283659564,-1304.953368525449,0.0,0.0,0.0,0.0,0.0,0.0,0.0,4.0,20.50281521684756,0.0,19.855447746731585,0.0,4.0,21.08,17.46,22.25,19.63,21.6,3.49,4.0,0.0,-606.92,-2447.08,1.46,83.0,0.0,349.0,0.0,0.0,0.0,0.0,0.0,0.0,0.0,0.0,0.0,0.0,0.0,0.0,0.0,0.0
521.0,2902.0,2916.5829145728644,0.0,-0.0,0.0,0.0,0.0,25433.2911413051,0.0,25433.291141305097,0.0,0.0,0.5422930786402811,0.031054834707268157,1.0,0.0,0.0,0.0,"[1.8586369337677837, 1.755847461739954, 1.0240399020876296, 1.033356801571177, 0.6614129271313409, 1.1314589855213697, 1.8669696895202854, 1.2040621965146556]",20.3,0.0,0.0,0.0,352.0343776516901,32.43737583647641,-865.8997091978508,-372.217565963685,8246.03769520616,0.0,0.0,0.0,0.0,0.0,0.0,3.3,20.17911176796598,0.0,19.72846801318851,0.0,3.3,20.3,17.4,22.06,19.23,21.21,2.78,3.3,7519.5,-604.35,-2436.73,0.0,81.0,0.0,216.0,0.0,0.0,0.0,0.0,0.0,0.0,0.0,0.0,0.0,0.0,0.0,0.0,0.0,0.0
522.0,4115.0,5375.8199577646665,0.0,-0.0,0.0,-4341.940857975843,0.0,917.8771111942824,0.0,0.0,0.0,0.0,1.0,0.5592444284048664,1.0,0.0,0.0,0.0,"[1.8586369337677837, 1.755847461739954, 1.0240399020876296, 1.033356801571177, 0.6614129271313409, 1.1314589855213697, 1.8669696895202854, 1.2040621965146556]",23.86,0.0,0.0,0.0,436.3535600888165,45.1783723882308,-1082.5883891112164,-5445.481167153902,0.0,0.0,0.0,0.0,0.0,0.0,0.0,2.6,21.306587071955654,0.0,19.850764228544172,0.0,2.6,23.86,17.5,22.2,21.84,23.19,2.11,2.6,0.0,-755.59,-3046.51,0.0,117.0,0.0,259.0,0.0,0.0,0.0,0.0,0.0,0.0,0.0,0.0,0.0,0.0,0.0,0.0,0.0,0.0
523.0,3171.0,1062.3115577889448,0.0,-0.0,0.0,0.0,0.0,32548.904800176562,0.0,32548.904800176562,0.0,0.0,1.0,0.4208562277238437,1.0,0.0,0.0,0.0,"[1.8586369337677837, 1.755847461739954, 1.0240399020876296, 1.033356801571177, 0.6614129271313409, 1.1314589855213697, 1.8669696895202854, 1.2040621965146556]",20.99,0.0,0.0,0.0,315.92828763613215,54.06229306079403,-971.947260442528,-987.3528097630659,0.0,0.0,0.0,0.0,0.0,0.0,0.0,1.9,20.572064554999578,0.0,19.934103381345004,0.0,1.9,20.99,17.21,22.66,19.53,21.81,1.39,1.9,508.08,-678.36,-2735.16,0.0,156.0,0.0,150.0,0.0,0.0,0.0,0.0,0.0,0.0,0.0,0.0,0.0,0.0,0.0,0.0,0.0,0.0
524.0,5455.0,4094.472361809045,0.0,-0.0,0.0,0.0,0.0,2553.971174769239,0.0,2553.971174769239,0.0,0.0,1.0,0.4099975067426819,1.0,0.0,0.0,0.0,"[1.8586369337677837, 1.755847461739954, 1.0240399020876296, 1.033356801571177, 0.6614129271313409, 1.1314589855213697, 1.8669696895202854, 1.2040621965146556]",20.26,0.0,0.0,0.0,232.75533027886473,5.406229306079401,-965.7561940215561,-185.57792231748715,724.1809893390804,0.0,0.0,0.0,0.0,0.0,0.0,1.3,20.23586672725225,0.0,19.768910318610086,0.0,1.3,20.26,17.12,22.42,19.16,21.43,0.78,1.3,9482.55,-674.04,-2717.73,0.0,0.0,0.0,171.0,0.0,0.0,0.0,0.0,0.0,0.0,0.0,0.0,0.0,0.0,0.0,0.0,0.0,0.0
525.0,3058.0,2457.0104967734414,0.0,-0.0,0.0,0.0,0.0,22649.568505880015,0.0,22649.56850588001,0.0,0.0,1.0,0.31369832091836214,1.0,0.0,0.0,0.0,"[1.8586369337677837, 1.755847461739954, 1.0240399020876296, 1.033356801571177, 0.6614129271313409, 1.1314589855213697, 1.8669696895202854, 1.2040621965146556]",20.14,0.0,0.0,0.0,145.64222420958203,3.3828452383069925,-995.1368391501238,-266.13469953768026,4105.054138106819,0.0,0.0,0.0,0.0,0.0,0.0,0.6,20.07589430649109,0.0,19.605290480124335,0.0,0.6,20.14,17.02,22.19,19.1,21.29,0.07,0.6,6855.06,-694.55,-2800.41,0.0,0.0,0.0,107.0,0.0,0.0,0.0,0.0,0.0,0.0,0.0,0.0,0.0,0.0,0.0,0.0,0.0,0.0
526.0,2747.0,0.0,451.7190332841632,-0.0,0.0,3897.7833377043853,0.0,1276.7414264929082,0.0,0.0,0.0,1276.7414264929082,0.8342779193152897,0.31369832091836214,1.0,0.0,0.0,0.0,"[1.8586369337677837, 1.755847461739954, 1.0240399020876296, 1.033356801571177, 0.6614129271313409, 1.1314589855213697, 1.8669696895202854, 1.2040621965146556]",21.68,0.0,0.0,0.0,54.44569129330168,1.2646150423577547,-1109.2879651032376,-2605.7736557409394,0.0,0.0,0.0,0.0,0.0,0.0,0.0,-0.1,20.498926974401904,0.0,19.57254415729307,0.0,-0.1,21.68,17.02,22.13,20.2,22.06,-0.66,-0.1,0.0,-774.22,-3121.65,0.0,0.0,0.0,40.0,0.0,0.0,0.0,0.0,0.0,0.0,0.0,0.0,0.0,0.0,0.0,0.0,0.0,0.0
527.0,1796.0,0.0,4870.612645694887,-0.0,0.0,15385.44574451262,0.0,14230.659693039494,0.0,0.0,0.0,14230.659693039494,0.1801348179329504,0.31369832091836214,1.0,0.0,0.0,0.0,"[1.8586369337677837, 1.755847461739954, 1.0240399020876296, 1.033356801571177, 0.6614129271313409, 1.1314589855213697, 1.8669696895202854, 1.2040621965146556]",20.25,0.0,0.0,0.0,367.7233334322599,44.482834114934036,-1067.0109121456223,-663.7720002753628,753.3573404594094,0.0,0.0,0.0,0.0,0.0,0.0,-0.7,20.000435415955895,0.0,19.46958367680228,0.0,-0.7,20.25,16.98,21.96,19.04,21.14,-1.25,-0.7,483.36,-744.71,-3002.67,0.0,120.0,0.0,207.0,0.0,0.0,0.0,0.0,0.0,0.0,0.0,0.0,0.0,0.0,0.0,0.0,0.0,0.0
528.0,1282.0,0.0,0.0,-0.0,0.0,2695.437708163583,0.0,19241.79906794092,0.0,19241.79906794092,0.0,0.0,0.0655328745586484,0.2318879507315385,1.0,0.0,0.0,0.0,"[1.8586369337677837, 1.755847461739954, 1.0240399020876296, 1.033356801571177, 0.6614129271313409, 1.1314589855213697, 1.8669696895202854, 1.2040621965146556]",20.14,0.0,0.0,0.0,318.578933133306,59.84790687958074,-1102.0785788400458,-684.7552498934027,8081.052035645226,0.0,0.0,0.0,0.0,0.0,0.0,-1.5,19.881016802904472,0.0,19.359561434400952,0.0,-1.5,20.14,16.95,21.77,19.05,21.05,-2.02,-1.5,8347.39,-769.19,-3101.36,0.0,160.0,8.0,149.0,0.0,0.0,0.0,0.0,0.0,0.0,0.0,0.0,0.0,0.0,0.0,0.0,0.0,0.0
529.0,835.0,8793.392834147666,6303.0432717959975,-0.0,0.0,0.0,0.0,19197.00334111607,0.0,0.0,0.0,19197.00334111607,0.0655328745586484,0.2318879507315385,1.0,0.0,0.0,0.0,"[1.8586369337677837, 1.755847461739954, 1.0240399020876296, 1.033356801571177, 0.6614129271313409, 1.1314589855213697, 1.8669696895202854, 1.2040621965146556]",23.86,0.0,0.0,0.0,135.0396422208864,51.05883233519435,-1327.0266512596093,-5950.199076535056,4788.835252134343,0.0,0.0,0.0,0.0,0.0,0.0,-2.2,21.078807159271694,0.0,19.51691597127754,0.0,-2.2,23.86,17.1,21.94,21.66,23.03,-2.71,-2.2,0.0,-926.19,-3734.38,0.0,160.0,0.0,15.0,0.0,0.0,0.0,0.0,0.0,0.0,0.0,0.0,0.0,0.0,0.0,0.0,0.0,0.0
530.0,861.0,15556.683140350717,12295.419419061565,-0.0,0.0,0.0,0.0,27790.781044788462,0.0,-9891.467442210982,0.0,37682.24848699944,0.0655328745586484,0.2722781094539,1.0,0.0,0.0,0.0,"[1.8586369337677837, 1.755847461739954, 1.0240399020876296, 1.033356801571177, 0.6614129271313409, 1.1314589855213697, 1.8669696895202854, 1.2040621965146556]",23.86,0.0,0.0,0.0,329.68298859443996,55.579831111623335,-1367.7663616176749,-5686.627862043509,6184.161088646779,0.0,0.0,0.0,0.0,0.0,0.0,-3.0,21.208137427792064,0.0,19.69758289249701,0.0,-3.0,23.86,17.26,22.13,21.37,22.87,-3.52,-3.0,0.0,-954.62,-3849.03,0.0,160.0,0.0,158.0,0.0,0.0,0.0,0.0,0.0,0.0,0.0,0.0,0.0,0.0,0.0,0.0,0.0,0.0
531.0,573.0,19022.206317593365,0.0,-0.0,0.0,-16000.0,0.0,16924.050884789674,0.0,16924.050884789674,0.0,0.0,0.7188662078919817,0.20032211079408,1.0,0.0,0.0,0.0,"[1.8586369337677837, 1.755847461739954, 1.0240399020876296, 1.033356801571177, 0.6614129271313409, 1.1314589855213697, 1.8669696895202854, 1.2040621965146556]",23.86,0.0,0.0,0.0,193.5687603611857,52.41829350572893,-1393.2286805914657,-5407.184882639859,0.0,0.0,0.0,0.0,0.0,0.0,0.0,-3.5,21.344177851573345,0.0,19.88744629280066,0.0,-3.5,23.86,17.44,22.33,21.62,23.12,-4.04,-3.5,8567.96,-972.39,-3920.68,0.0,160.0,0.0,58.0,0.0,0.0,0.0,0.0,0.0,0.0,0.0,0.0,0.0,0.0,0.0,0.0,0.0,0.0
532.0,815.0,0.0,0.0,-0.0,0.0,4153.0,0.0,14378.372194313048,0.0,14378.372194313048,0.0,0.0,0.5422930786402811,0.13918957595431364,1.0,0.0,0.0,0.0,"[1.8586369337677837, 1.755847461739954, 1.0240399020876296, 1.033356801571177, 0.6614129271313409, 1.1314589855213697, 1.8669696895202854, 1.2040621965146556]",21.08,0.0,0.0,0.0,354.1835496764257,56.14890788068431,-1271.8841681518531,-1356.4248318992527,0.0,0.0,0.0,0.0,0.0,0.0,0.0,-3.9,20.50281521684756,0.0,19.855447746731585,0.0,-3.9,21.08,17.46,22.25,19.63,21.6,-4.46,-3.9,0.0,-887.7,-3579.21,0.0,160.0,0.0,176.0,0.0,0.0,0.0,0.0,0.0,0.0,0.0,0.0,0.0,0.0,0.0,0.0,0.0,0.0
533.0,1521.0,2916.5829145728644,0.0,-0.0,0.0,0.0,0.0,25433.2911413051,0.0,25433.291141305097,0.0,0.0,0.5422930786402811,0.031054834707268157,1.0,0.0,0.0,0.0,"[1.8586369337677837, 1.755847461739954, 1.0240399020876296, 1.033356801571177, 0.6614129271313409, 1.1314589855213697, 1.8669696895202854, 1.2040621965146556]",20.3,0.0,0.0,0.0,233.97319442621486,62.40875234035521,-1252.926957599473,-421.7852196088994,8246.03769520616,0.0,0.0,0.0,0.0,0.0,0.0,-4.3,20.17911176796598,0.0,19.72846801318851,0.0,-4.3,20.3,17.4,22.06,19.23,21.21,-4.87,-4.3,7519.5,-874.47,-3525.86,0.0,160.0,16.0,86.0,0.0,0.0,0.0,0.0,0.0,0.0,0.0,0.0,0.0,0.0,0.0,0.0,0.0,0.0
