,load_elec,grid,hp_elec,ev,pv,bat_pow,cool,load_th_sh,load_th_dhw,tes_pow,dh,hp_th,bat_soc,tes_soc,ev_soc,eh_th_in,eh_elec_in,eh_th_out,temp_slack,temp_zone_1,temp_zone_2,temp_update,Qsolar_1,QconvInt_1,QradInt_1,Qvent_1,Qconduc_1,Qheating_1,Qsolar_2,QconvInt_2,QradInt_2,Qvent_2,Qconduc_2,Qheating_2,temp_amb,temp_aggregate_1,temp_aggregate_2,temp_wall_1,temp_wall_2,_Tamb,_Tz_1,_TEW_1,_TIW_1,_T1_1,_T2_1,_Taeq_1,_Tvent_1,_Qheating_1,_Qinfvent_1,_Qenvelope_1,_Qsolar_1,_Qint_people_1,_Qint_lighting_1,_Qint_appliances_1,_Tz_2,_TEW_2,_TIW_2,_T1_2,_T2_2,_Taeq_2,_Tvent_2,_Qheating_2,_Qinfvent_2,_Qenvelope_2,_Qsolar_2,_Qint_people_2,_Qint_lighting_2,_Qint_appliances_2
390.0,2791.0,54984.67091739913,51918.74756281214,-0.0,0.0,0.0,0.0,102197.30244148345,0.0,0.0,0.0,102197.30244148344,0.5,0.5,0.8,0.0,0.0,0.0,"[2.0, 2.0, 2.0, 2.0, 2.0, 2.0, 2.0, 2.0, 2.0]",20.0,0.0,0.0,0.0,419.2970257313581,134.99300301998915,-2229.145883749203,-1838.7030432959625,3521.2156224536207,0.0,0.0,0.0,0.0,0.0,0.0,-6.2,19.423034582669835,0.0,19.0,0.0,-6.2,20.0,18.0,20.0,20.0,20.0,-6.68,-6.2,11612.76,-1525.54,-3807.74,0.0,402.0,33.0,87.0,0.0,0.0,0.0,0.0,0.0,0.0,0.0,0.0,0.0,0.0,0.0,0.0,0.0,0.0
391.0,2442.0,78152.7690204828,0.0,-0.0,0.0,-13775.510204081633,0.0,55390.04547416886,0.0,0.0,0.0,0.0,1.0,0.5,0.8,246177.97988519503,61544.49497129876,307722.47485649376,"[2.0, 2.0, 2.0, 2.0, 2.0, 2.0, 2.0, 2.0, 2.0]",20.0,0.0,0.0,0.0,593.0360616590754,135.05043463156966,-2237.6540741451927,-1956.1740057599832,14754.803855851644,0.0,0.0,0.0,0.0,0.0,0.0,-6.3,19.38165002573264,0.0,18.920026442500543,0.0,-6.3,20.0,17.81,20.03,19.27,20.13,-6.77,-6.3,6979.95,-1531.36,-3822.27,0.0,321.0,69.0,251.0,0.0,0.0,0.0,0.0,0.0,0.0,0.0,0.0,0.0,0.0,0.0,0.0,0.0,0.0
392.0,4665.0,0.0,0.0,-0.0,0.0,4665.0,0.0,36957.609864145714,0.0,36957.609864145714,0.0,0.0,0.8236961451247166,0.36032649333278266,0.8,0.0,0.0,0.0,"[2.0, 2.0, 2.0, 2.0, 2.0, 2.0, 2.0, 2.0, 2.0]",24.0,0.0,0.0,3.0294054696609054,389.56120250907844,121.9847429970036,-2569.473499588776,-9703.29738317541,483.4252085940609,0.0,0.0,0.0,0.0,0.0,0.0,-6.2,20.645750367937623,0.0,19.162639462816173,0.0,-6.2,24.0,17.88,20.44,21.8,22.42,-6.67,-6.2,9307.2,-1758.44,-4389.07,5.27,228.0,101.0,150.0,0.0,0.0,0.0,0.0,0.0,0.0,0.0,0.0,0.0,0.0,0.0,0.0,0.0,0.0
393.0,5960.0,0.0,0.0,-0.0,21.435774954494086,5938.564225045506,0.0,49315.01351108812,0.0,49315.01351108811,0.0,0.0,0.5992606112983558,0.17395078089480795,0.8,0.0,0.0,0.0,"[2.0, 2.0, 2.0, 2.0, 2.0, 2.0, 2.0, 2.0, 2.0]",20.0,0.0,0.0,47.93393401912549,2006.4009271013338,164.19697750867854,-2169.588550977278,-1418.1502074367895,12655.386655038423,0.0,0.0,0.0,0.0,0.0,0.0,-5.5,19.570008121959848,0.0,19.11977042927785,0.0,-5.5,20.0,17.75,20.49,19.04,20.2,-5.91,-5.5,8284.42,-1484.78,-3706.0,83.46,332.0,63.0,1264.0,0.0,0.0,0.0,0.0,0.0,0.0,0.0,0.0,0.0,0.0,0.0,0.0,0.0,0.0
394.0,6935.0,84697.73855158337,66405.93116337384,-0.0,107.46038102225884,-11040.77907647387,0.0,58310.814795199105,0.0,-80000.0,0.0,138310.8147951991,1.0,0.46432115126517826,0.8,0.0,0.0,0.0,"[2.0, 2.0, 2.0, 2.0, 2.0, 2.0, 2.0, 2.0, 2.0]",24.0,0.0,0.0,68.31930660518356,3581.7420089656907,140.59258514908888,-2467.375214836904,-9254.362332262717,0.0,0.0,0.0,0.0,0.0,0.0,0.0,-5.0,20.80124865304938,0.0,19.326494573348583,0.0,-5.0,24.0,17.83,20.83,21.66,22.53,-5.36,-5.0,0.0,-1688.57,-4214.67,118.96,184.0,32.0,2480.0,0.0,0.0,0.0,0.0,0.0,0.0,0.0,0.0,0.0,0.0,0.0,0.0,0.0,0.0
395.0,10471.0,43608.14096355245,33798.27513077952,-0.0,879.1748720448389,0.0,0.0,72328.57895428546,0.0,0.0,0.0,72328.57895428546,1.0,0.46432115126517826,0.8,0.0,0.0,0.0,"[2.0, 2.0, 2.0, 2.0, 2.0, 2.0, 2.0, 2.0, 2.0]",21.19,0.0,0.0,118.17818039066721,5644.326837929268,187.9449488972195,-2177.022475823324,-3367.8603633464386,0.0,0.0,0.0,0.0,0.0,0.0,0.0,-4.4,20.0661737385556,0.0,19.324580732273382,0.0,-4.4,21.19,17.76,20.89,19.52,20.81,-4.76,-4.4,9969.26,-1489.87,-3718.7,205.77,256.0,3.0,3931.0,0.0,0.0,0.0,0.0,0.0,0.0,0.0,0.0,0.0,0.0,0.0,0.0,0.0,0.0
396.0,9590.0,0.0,7768.981519461308,-0.0,1358.9815194613086,16000.0,0.0,17905.656803517675,0.0,983.7179085713069,0.0,16921.938894946365,0.3953136810279667,0.46060339650867294,0.8,0.0,0.0,0.0,"[2.0, 2.0, 2.0, 2.0, 2.0, 2.0, 2.0, 2.0, 2.0]",21.33,0.0,0.0,134.0459052209422,4852.857125479746,182.00077709863672,-2155.240155539721,-3756.1038655354623,0.0,0.0,0.0,0.0,0.0,0.0,0.0,-4.0,20.07171120210386,0.0,19.270871296752475,0.0,-4.0,21.33,17.66,20.88,19.55,20.86,-4.34,-4.0,0.0,-1474.96,-3681.5,233.4,300.0,0.0,3338.0,0.0,0.0,0.0,0.0,0.0,0.0,0.0,0.0,0.0,0.0,0.0,0.0,0.0,0.0
397.0,9626.0,50305.72846600334,35487.43339550926,-0.0,827.6633927438952,-5768.429820907957,0.0,77973.26670284533,0.0,0.0,0.0,77973.26670284533,0.6046863189720333,0.46060339650867294,0.8,0.0,0.0,0.0,"[2.0, 2.0, 2.0, 2.0, 2.0, 2.0, 2.0, 2.0, 2.0]",21.07,0.0,0.0,118.77795404534113,6048.938604526281,202.36028340392755,-2115.897595997843,-3304.571562232833,7317.219113298999,0.0,0.0,0.0,0.0,0.0,0.0,-3.8,19.968218529765338,0.0,19.21709375921065,0.0,-3.8,21.07,17.57,20.87,19.41,20.76,-4.18,-3.8,844.08,-1448.04,-3614.29,206.82,248.0,19.0,4225.0,0.0,0.0,0.0,0.0,0.0,0.0,0.0,0.0,0.0,0.0,0.0,0.0,0.0,0.0
398.0,11635.0,3980.91163634068,8498.038808518642,-0.0,172.03173035966608,16000.0,0.0,18590.943040828424,0.0,0.0,0.0,18590.943040828428,0.0,0.46060339650867294,0.4173469387755102,0.0,0.0,0.0,"[2.0, 2.0, 2.0, 2.0, 2.0, 2.0, 2.0, 2.0, 2.0]",24.0,0.0,0.0,80.05326687145617,5062.176863887194,250.7751319662976,-2373.7851204810217,-9029.466827408343,0.0,0.0,0.0,0.0,0.0,0.0,0.0,-3.9,20.87812588477224,0.0,19.38268040866417,0.0,-3.9,24.0,17.66,21.11,21.2,22.34,-4.34,-3.9,1277.38,-1624.52,-4054.8,139.39,501.0,19.0,3381.0,0.0,0.0,0.0,0.0,0.0,0.0,0.0,0.0,0.0,0.0,0.0,0.0,0.0,0.0
399.0,5284.0,46732.1403071379,23528.706544316658,-1686.7971678467304,1.0241065611780922,-16000.0,0.0,50800.232847385276,0.0,0.0,0.0,50800.23284738528,0.5807407407407407,0.46060339650867294,0.5,0.0,0.0,0.0,"[2.0, 2.0, 2.0, 2.0, 2.0, 2.0, 2.0, 2.0, 2.0]",21.87,0.0,0.0,28.637197795991877,2615.656528699835,182.6038090202321,-2217.7972914813745,-4502.892478347788,0.0,0.0,0.0,0.0,0.0,0.0,0.0,-4.2,20.34468836855256,0.0,19.415724453728764,0.0,-4.2,21.87,17.65,21.19,19.79,21.22,-4.69,-4.2,2001.53,-1517.77,-3788.35,49.86,444.0,15.0,1649.0,0.0,0.0,0.0,0.0,0.0,0.0,0.0,0.0,0.0,0.0,0.0,0.0,0.0,0.0
400.0,3781.0,52350.8320897927,38435.637149409165,-0.0,0.0,-9872.440779934563,0.0,70299.1483028345,0.0,-10854.166268018682,0.0,81153.31457085318,0.9390737764568841,0.5,0.5,0.0,0.0,0.0,"[2.0, 2.0, 2.0, 2.0, 2.0, 2.0, 2.0, 2.0, 2.0]",20.48,0.0,0.0,0.0,1402.551838815975,160.32034372699414,-2142.6430427714727,-1793.6267121540106,6836.119369157667,0.0,0.0,0.0,0.0,0.0,0.0,-4.7,19.91967516515388,0.0,19.33224278436928,0.0,-4.7,20.48,17.55,21.12,19.19,20.7,-5.25,-4.7,10935.2,-1466.34,-3659.98,0.0,426.0,30.0,783.0,0.0,0.0,0.0,0.0,0.0,0.0,0.0,0.0,0.0,0.0,0.0,0.0,0.0,0.0
401.0,3623.0,27315.516036151068,23555.938455970314,-0.0,0.0,0.0,0.0,48837.93466333806,0.0,0.0,0.0,48837.93466333806,0.9390737764568841,0.5,0.5,0.0,0.0,0.0,"[2.0, 2.0, 2.0, 2.0, 2.0, 2.0, 2.0, 2.0, 2.0]",22.06,0.0,0.0,0.0,1016.0591979170581,156.01297285845584,-2311.0290290018042,-4974.771052331969,11587.277507879231,0.0,0.0,0.0,0.0,0.0,0.0,-5.1,20.376359468549705,0.0,19.37500843772401,0.0,-5.1,22.06,17.54,21.21,20.35,21.71,-5.63,-5.1,0.0,-1581.58,-3947.61,0.0,296.0,106.0,565.0,0.0,0.0,0.0,0.0,0.0,0.0,0.0,0.0,0.0,0.0,0.0,0.0,0.0,0.0
402.0,7276.0,29903.81118095392,6478.292125049148,-0.0,0.0,-16000.0,0.0,13184.241917031253,0.0,0.0,0.0,13184.241917031253,1.0,0.5,0.5,0.0,0.0,0.0,"[2.0, 2.0, 2.0, 1.2659613168382897, 2.0, 1.797663081880728, 1.7575857085672837, 2.0, 2.0]",24.0,0.0,0.0,0.0,1280.7591672888495,228.2906560325279,-2509.916166816851,-8521.768868220186,0.0,0.0,0.0,0.0,0.0,0.0,0.0,-5.5,21.062861109057245,0.0,19.59303603227964,0.0,-5.5,24.0,17.68,21.51,21.58,22.85,-6.02,-5.5,10147.57,-1717.69,-4287.34,0.0,330.0,218.0,726.0,0.0,0.0,0.0,0.0,0.0,0.0,0.0,0.0,0.0,0.0,0.0,0.0,0.0,0.0
403.0,7188.0,7224.120603015075,0.0,-0.0,0.0,0.0,0.0,51987.563450254136,0.0,51987.563450254136,0.0,0.0,1.0,0.3035239476558801,0.5,0.0,0.0,0.0,"[2.0, 2.0, 2.0, 1.2659613168382897, 2.0, 1.797663081880728, 1.7575857085672837, 2.0, 2.0]",20.62,0.0,0.0,0.0,1200.4651384896226,188.63412823618566,-2247.7794711786223,-1581.013867246023,704.574722685494,0.0,0.0,0.0,0.0,0.0,0.0,-5.8,20.13419536067341,0.0,19.542438719756284,0.0,-5.8,20.62,17.6,21.48,19.32,20.98,-6.34,-5.8,1576.14,-1538.29,-3839.57,0.0,264.0,179.0,707.0,0.0,0.0,0.0,0.0,0.0,0.0,0.0,0.0,0.0,0.0,0.0,0.0,0.0,0.0
404.0,7374.0,7411.05527638191,0.0,-0.0,0.0,0.0,0.0,35485.72375111914,0.0,35485.72375111914,0.0,0.0,1.0,0.1694131247113633,0.5,0.0,0.0,0.0,"[2.0, 2.0, 2.0, 1.2659613168382897, 2.0, 1.797663081880728, 1.7575857085672837, 2.0, 2.0]",20.0,0.0,0.0,0.0,1061.430073153018,142.20067027334318,-2229.145883749203,-598.093382510222,1631.674061662963,0.0,0.0,0.0,0.0,0.0,0.0,-6.2,19.86306205492463,0.0,19.39655664609159,0.0,-6.2,20.0,17.46,21.33,19.05,20.72,-6.73,-6.2,5100.02,-1525.54,-3807.74,0.0,170.0,144.0,660.0,0.0,0.0,0.0,0.0,0.0,0.0,0.0,0.0,0.0,0.0,0.0,0.0,0.0,0.0
405.0,5656.0,88583.61244406125,82484.69438184093,-0.0,0.0,0.0,0.0,79218.16342559994,0.0,-80000.0,0.0,159218.16342559992,1.0,0.45978349508173366,0.5,0.0,0.0,0.0,"[2.0, 2.0, 2.0, 1.2659613168382897, 2.0, 1.797663081880728, 1.7575857085672837, 2.0, 2.0]",20.0,0.0,0.0,0.0,1340.449996705563,124.99990260498036,-2263.17864533316,-894.9685891686131,12981.189547131402,0.0,0.0,0.0,0.0,0.0,0.0,-6.6,19.75894229551984,0.0,19.254330662421804,0.0,-6.6,20.0,17.31,21.19,19.02,20.68,-7.14,-6.6,0.0,-1548.83,-3865.87,0.0,180.0,94.0,861.0,0.0,0.0,0.0,0.0,0.0,0.0,0.0,0.0,0.0,0.0,0.0,0.0,0.0,0.0
406.0,3618.0,3636.180904522613,0.0,-0.0,0.0,0.0,0.0,57550.14990127992,0.0,57550.14990127991,0.0,0.0,1.0,0.2422848182061482,0.5,0.0,0.0,0.0,"[2.0, 2.0, 2.0, 1.2659613168382897, 2.0, 1.797663081880728, 1.7575857085672837, 2.0, 2.0]",24.0,0.0,0.0,0.0,968.5695539502726,134.4761185157645,-2637.539022756691,-8808.578830598937,10350.69958766268,0.0,0.0,0.0,0.0,0.0,0.0,-7.0,20.96531771946295,0.0,19.438425240783573,0.0,-7.0,24.0,17.42,21.46,21.55,22.88,-7.5,-7.0,10111.16,-1805.03,-4505.34,0.0,194.0,120.0,583.0,0.0,0.0,0.0,0.0,0.0,0.0,0.0,0.0,0.0,0.0,0.0,0.0,0.0,0.0
407.0,2230.0,20031.508187285737,17701.350646349307,-0.0,0.0,0.0,0.0,32987.21204982663,0.0,0.0,0.0,32987.21204982663,1.0,0.2422848182061482,0.2780612244897959,0.0,0.0,0.0,"[2.0, 2.0, 2.0, 1.2659613168382897, 2.0, 1.797663081880728, 1.7575857085672837, 2.0, 2.0]",24.0,0.0,0.0,0.0,775.1771115193778,132.37986469307592,-2663.0635939446584,-8306.259624691698,0.0,0.0,0.0,0.0,0.0,0.0,0.0,-7.3,21.14429860399642,0.0,19.663640407544634,0.0,-7.3,24.0,17.56,21.77,21.44,22.9,-7.81,-7.3,7877.47,-1822.49,-4548.94,0.0,303.0,66.0,392.0,0.0,0.0,0.0,0.0,0.0,0.0,0.0,0.0,0.0,0.0,0.0,0.0,0.0,0.0
408.0,3849.0,31775.33561291811,27767.45893485352,-0.0,0.0,0.0,0.0,50951.681445472714,0.0,0.0,0.0,50951.681445472714,1.0,0.2422848182061482,0.2780612244897959,0.0,0.0,0.0,"[2.0, 2.0, 2.0, 1.2659613168382897, 2.0, 1.797663081880728, 1.7575857085672837, 2.0, 2.0]",20.43,0.0,0.0,0.0,441.43450591895197,82.64408906435413,-2384.8269676378754,-1041.9978109281533,1695.3061682838793,0.0,0.0,0.0,0.0,0.0,0.0,-7.6,20.140426284398767,0.0,19.58092658514299,0.0,-7.6,20.43,17.47,21.7,19.18,21.02,-8.07,-7.6,7942.24,-1632.08,-4073.67,0.0,240.0,16.0,190.0,0.0,0.0,0.0,0.0,0.0,0.0,0.0,0.0,0.0,0.0,0.0,0.0,0.0,0.0
409.0,5285.0,20260.921593365234,25334.616985398407,-0.0,0.0,10460.0,0.0,46004.51179417447,0.0,0.0,0.0,46004.51179417446,0.6046863189720333,0.2422848182061482,0.2780612244897959,0.0,0.0,0.0,"[2.0, 2.0, 2.0, 1.2659613168382897, 2.0, 1.797663081880728, 1.7575857085672837, 2.0, 2.0]",20.0,0.0,0.0,0.0,388.97671458333343,82.58665745277362,-2365.276930085032,-480.24818569627803,13660.048301232273,0.0,0.0,0.0,0.0,0.0,0.0,-7.8,19.9091876057558,0.0,19.422275481567382,0.0,-7.8,20.0,17.31,21.53,19.05,20.88,-8.27,-7.8,0.0,-1618.7,-4040.27,0.0,240.0,18.0,152.0,0.0,0.0,0.0,0.0,0.0,0.0,0.0,0.0,0.0,0.0,0.0,0.0,0.0,0.0
410.0,3404.0,6694.8072442519315,19257.33320803067,-0.0,0.0,16000.0,0.0,34418.16251249666,0.0,0.0,0.0,34418.16251249665,0.0,0.2422848182061482,0.2780612244897959,0.0,0.0,0.0,"[2.0, 2.0, 2.0, 1.2659613168382897, 2.0, 1.797663081880728, 1.7575857085672837, 2.0, 2.0]",24.0,0.0,0.0,0.0,379.4057247992582,73.13915734777969,-2731.129117112573,-8426.877221402996,0.0,0.0,0.0,0.0,0.0,0.0,0.0,-8.1,21.103626871605833,0.0,19.592081516682875,0.0,-8.1,24.0,17.41,21.77,21.64,23.11,-8.56,-8.1,1003.16,-1869.07,-4665.21,0.0,240.0,0.0,147.0,0.0,0.0,0.0,0.0,0.0,0.0,0.0,0.0,0.0,0.0,0.0,0.0,0.0,0.0
411.0,2282.0,93471.77603066813,74722.41715051478,-0.0,0.0,-16000.0,0.0,53549.555851299956,0.0,-80000.0,0.0,133549.55585129993,0.5807407407407407,0.5326551885765185,0.2780612244897959,0.0,0.0,0.0,"[2.0, 2.0, 2.0, 1.2659613168382897, 2.0, 1.797663081880728, 1.7575857085672837, 2.0, 2.0]",20.2,0.0,0.0,0.0,255.85958949489736,70.58345063244698,-2408.050842037889,-717.0442083556621,9982.526798779121,0.0,0.0,0.0,0.0,0.0,0.0,-8.1,20.029335622224384,0.0,19.496297805402882,0.0,-8.1,20.2,17.31,21.68,19.0,20.91,-8.56,-8.1,1914.42,-1647.97,-4113.34,0.0,240.0,0.0,58.0,0.0,0.0,0.0,0.0,0.0,0.0,0.0,0.0,0.0,0.0,0.0,0.0,0.0,0.0
412.0,2846.0,53595.73883290038,50481.76013873588,-0.0,0.0,0.0,0.0,89743.56199206781,0.0,0.0,0.0,89743.56199206779,0.5807407407407407,0.5326551885765185,0.2780612244897959,0.0,0.0,0.0,"[2.0, 2.0, 2.0, 1.2659613168382897, 2.0, 1.797663081880728, 1.7575857085672837, 2.0, 2.0]",22.75,0.0,0.0,0.0,288.5178523459023,73.82833668674583,-2633.155199385473,-5866.547627649963,11671.282668171667,0.0,0.0,0.0,0.0,0.0,0.0,-8.2,20.756656589968145,0.0,19.560361623461354,0.0,-8.2,22.75,17.33,21.79,20.82,22.47,-8.65,-8.2,10758.47,-1802.03,-4497.85,0.0,240.0,5.0,81.0,0.0,0.0,0.0,0.0,0.0,0.0,0.0,0.0,0.0,0.0,0.0,0.0,0.0,0.0
413.0,1381.0,35033.95982992289,31987.501406136,-0.0,0.0,-1490.2886246372827,0.0,56560.58867684018,0.0,0.0,0.0,56560.588676840176,0.6348326982275754,0.5326551885765185,0.2780612244897959,0.0,0.0,0.0,"[2.0, 2.0, 2.0, 1.2659613168382897, 2.0, 1.797663081880728, 1.7575857085672837, 2.0, 2.0]",24.0,0.0,0.0,0.0,367.13147835861196,88.30110280503438,-2748.1454979045516,-8043.685650003292,10341.406953638763,0.0,0.0,0.0,0.0,0.0,0.0,-8.3,21.24002678668925,0.0,19.752843018934644,0.0,-8.3,24.0,17.46,22.05,21.53,23.14,-8.75,-8.3,0.0,-1880.72,-4694.27,0.0,240.0,30.0,135.0,0.0,0.0,0.0,0.0,0.0,0.0,0.0,0.0,0.0,0.0,0.0,0.0,0.0,0.0
414.0,1464.0,3233.338428738898,8543.422465848425,-0.0,0.0,6790.250729253222,0.0,15106.556709385077,0.0,0.0,0.0,15106.556709385077,0.0,0.5326551885765185,0.2780612244897959,0.0,0.0,0.0,"[2.0, 2.0, 2.0, 1.2659613168382897, 2.0, 1.7976630818807315, 1.7575857085672837, 2.0, 2.0]",24.0,0.0,0.0,0.0,365.30495359065867,127.49817770873254,-2748.1454979045516,-7624.077494164076,0.0,0.0,0.0,0.0,0.0,0.0,0.0,-8.3,21.38880550941567,0.0,19.941837952194746,0.0,-8.3,24.0,17.59,22.3,21.51,23.22,-8.75,-8.3,0.0,-1880.72,-4694.27,0.0,303.0,73.0,96.0,0.0,0.0,0.0,0.0,0.0,0.0,0.0,0.0,0.0,0.0,0.0,0.0,0.0,0.0
415.0,1546.0,23607.480031721694,13921.159517027469,-0.0,0.0,-659.725114535613,0.0,75165.28789791328,36812.79,80000.0,0.0,24615.519897913277,0.02394557823129262,0.23031202909050186,0.2780612244897959,29450.232000000004,7362.558000000001,36812.79,"[2.0, 2.0, 2.0, 1.2659613168382897, 2.0, 1.7976630818807315, 1.7575857085672837, 2.0, 2.0]",20.49,0.0,0.0,0.0,449.1059099443558,202.5325782386691,-2449.893521677081,-556.8093887536414,971.801143834928,0.0,0.0,0.0,0.0,0.0,0.0,-8.3,20.379295757499854,0.0,19.83272579724074,0.0,-8.3,20.49,17.49,22.18,19.28,21.33,-8.75,-8.3,2734.1,-1676.61,-4184.81,0.0,444.0,141.0,75.0,0.0,0.0,0.0,0.0,0.0,0.0,0.0,0.0,0.0,0.0,0.0,0.0,0.0,0.0
416.0,3424.0,19521.608040201005,0.0,-0.0,0.0,-16000.0,0.0,47445.936160276564,0.0,47445.93616027656,0.0,0.0,0.6046863189720333,0.051000101047128626,0.278061224489796,0.0,0.0,0.0,"[2.0, 2.0, 2.0, 1.2659613168382897, 2.0, 1.7976630818807315, 1.7575857085672837, 2.0, 2.0]",20.0,0.0,0.0,3.0284909320028666,439.31573718812615,139.75982678117148,-2390.8015012730007,75.84608415908625,13021.893897463147,0.0,0.0,0.0,0.0,0.0,0.0,-8.1,20.107111459619517,0.0,19.646477703617762,0.0,-8.1,20.0,17.33,21.96,19.09,21.12,-8.54,-8.1,6168.88,-1636.17,-4083.87,5.27,214.0,141.0,189.0,0.0,0.0,0.0,0.0,0.0,0.0,0.0,0.0,0.0,0.0,0.0,0.0,0.0,0.0
417.0,3648.0,0.9633989431046333,12352.95858194839,-0.0,0.0,16000.0,0.0,22549.20012214584,0.0,0.0,0.0,22549.20012214584,0.0,0.051000101047128626,0.278061224489796,0.0,0.0,0.0,"[2.0, 2.0, 2.0, 1.2659613168382897, 2.0, 1.7976630818807315, 1.7575857085672837, 2.0, 2.0]",24.0,0.0,0.0,18.23739955640094,636.5804121270819,90.94295693773785,-2697.096355528616,-7929.019446839867,0.0,0.0,0.0,0.0,0.0,0.0,0.0,-7.7,21.27902182354082,0.0,19.790637660041718,0.0,-7.7,24.0,17.43,22.15,21.66,23.32,-8.16,-7.7,8631.82,-1845.78,-4607.07,31.75,114.0,91.0,389.0,0.0,0.0,0.0,0.0,0.0,0.0,0.0,0.0,0.0,0.0,0.0,0.0,0.0,0.0
418.0,3377.0,166909.77529890332,146699.3127573891,-0.0,1.0863349803049847,-16000.0,0.0,271981.8149130112,0.0,0.0,0.0,271981.8149130112,0.5807407407407407,0.051000101047128626,0.278061224489796,0.0,0.0,0.0,"[2.0, 2.0, 2.0, 1.2659613168382897, 2.0, 1.7976630818807315, 1.7575857085672837, 2.0, 2.0]",20.5,0.0,0.0,27.208985761743378,1120.0249877089598,59.441717985828014,-2373.406253349621,-834.0454569792348,11885.356186272356,0.0,0.0,0.0,0.0,0.0,0.0,-7.4,20.27952416918349,0.0,19.695683806682155,0.0,-7.4,20.5,17.35,22.05,19.18,21.24,-7.86,-7.4,0.0,-1624.26,-4054.16,47.38,122.0,6.0,742.0,0.0,0.0,0.0,0.0,0.0,0.0,0.0,0.0,0.0,0.0,0.0,0.0,0.0,0.0
419.0,8241.0,0.0,7129.765723207627,-0.0,4.3657232076287995,15366.399999999998,0.0,13354.588790113561,0.0,0.0,0.0,13354.588790113557,0.0,0.051000101047128626,0.278061224489796,0.0,0.0,0.0,"[2.0, 2.0, 2.0, 1.2659613168382897, 2.0, 1.7976630818807315, 1.7575857085672837, 2.0, 2.0]",24.0,0.0,0.0,33.15500964596047,590.11362203035,54.64617841885543,-2654.5554035486693,-7825.2840774928045,0.0,0.0,0.0,0.0,0.0,0.0,0.0,-7.2,21.314419057886383,0.0,19.833978834374797,0.0,-7.2,24.0,17.45,22.22,21.56,23.27,-7.66,-7.2,7639.29,-1816.67,-4534.41,57.73,156.0,0.0,343.0,0.0,0.0,0.0,0.0,0.0,0.0,0.0,0.0,0.0,0.0,0.0,0.0,0.0,0.0
420.0,8435.0,30246.332831280128,21670.762912052447,-0.0,10.661744928716306,0.0,0.0,41210.75502868321,0.0,0.0,0.0,41210.755028683205,0.0,0.051000101047128626,0.278061224489796,0.0,0.0,0.0,"[2.0, 2.0, 2.0, 1.2659613168382897, 2.0, 1.7976630818807315, 1.7575857085672837, 2.0, 2.0]",20.52,0.0,0.0,39.31048042202867,2580.002765229386,131.71940115990006,-2333.336059619949,-792.4373825054722,1566.0813313769133,0.0,0.0,0.0,0.0,0.0,0.0,-6.9,20.32198631009179,0.0,19.73949957855884,0.0,-6.9,20.52,17.37,22.11,19.21,21.28,-7.36,-6.9,179.09,-1596.84,-3985.71,68.45,288.0,0.0,1707.0,0.0,0.0,0.0,0.0,0.0,0.0,0.0,0.0,0.0,0.0,0.0,0.0,0.0,0.0
421.0,4586.0,35162.507417291934,29033.822076971843,-14733.44439816743,24917.592003097066,-11551.020408163267,0.0,61197.90031791105,0.0,-104.34600748639394,0.0,61302.24632539745,0.41925925925925933,0.0513788384076348,1.0,0.0,0.0,0.0,"[2.0, 2.0, 2.0, 1.2659613168382897, 2.0, 1.7976630818807315, 1.7575857085672837, 2.0, 2.0]",20.95,0.0,0.0,1247.9426103019655,1379.6837487211997,89.47845084243482,-2181.9821475147014,-1914.8552610475747,0.0,0.0,0.0,0.0,0.0,0.0,0.0,-4.7,20.337655196280366,0.0,19.61534445190741,0.0,-4.7,20.95,17.28,21.95,19.46,21.44,-4.29,-4.7,5492.81,-1493.26,-3727.17,2172.92,224.0,0.0,876.0,0.0,0.0,0.0,0.0,0.0,0.0,0.0,0.0,0.0,0.0,0.0,0.0,0.0,0.0
422.0,4247.0,53103.34096725514,53967.793740581525,-0.0,21376.96947816266,-16000.0,0.0,39092.95078759632,0.0,-80000.0,0.0,119092.95078759632,1.0,0.34174920877800513,1.0,0.0,0.0,0.0,"[2.0, 2.0, 2.0, 1.2659613168382897, 2.0, 1.7976630818807315, 1.7575857085672837, 2.0, 2.0]",20.5,0.0,0.0,1313.4040227457715,2011.2229524887307,76.15431695575646,-2058.652068116262,-1135.2967977869787,9556.005675943336,0.0,0.0,0.0,0.0,0.0,0.0,-3.7,20.16037606841082,0.0,19.544551185488384,0.0,-3.7,20.5,17.25,21.84,19.41,21.39,-3.27,-3.7,0.0,-1408.86,-3516.51,2286.9,127.0,0.0,1382.0,0.0,0.0,0.0,0.0,0.0,0.0,0.0,0.0,0.0,0.0,0.0,0.0,0.0,0.0
423.0,4266.0,7891.5599362486255,11842.128410496105,-0.0,8256.026273928723,0.0,0.0,26245.406616036955,0.0,0.0,0.0,26245.406616036955,1.0,0.34174920877800513,1.0,0.0,0.0,0.0,"[2.0, 2.0, 2.0, 1.2659613168382897, 2.0, 1.7976630818807315, 1.7575857085672837, 2.0, 2.0]",24.0,0.0,0.0,845.7626982368008,3678.255577704342,109.55079908982314,-2348.260549293054,-7991.844664566152,5632.660862720217,0.0,0.0,0.0,0.0,0.0,0.0,-3.6,21.243991063524856,0.0,19.75336655876392,0.0,-3.6,24.0,17.44,22.07,21.66,23.31,-3.62,-3.6,6471.3,-1607.05,-4011.2,1472.64,123.0,0.0,2585.0,0.0,0.0,0.0,0.0,0.0,0.0,0.0,0.0,0.0,0.0,0.0,0.0,0.0,0.0
424.0,2535.0,0.0,12831.399999999998,-0.0,0.0,15366.399999999998,0.0,27459.298570797015,0.0,0.0,0.0,27459.298570797015,0.41925925925925933,0.34174920877800513,1.0,0.0,0.0,0.0,"[2.0, 2.0, 2.0, 1.2659613168382897, 2.0, 1.7976630818807315, 1.7575857085672837, 2.0, 2.0]",24.0,0.0,0.0,1.510805759221312,993.5564127758735,122.932364588082,-2416.326072460968,-7583.750103700435,8888.906174843218,0.0,0.0,0.0,0.0,0.0,0.0,-4.4,21.393361699397705,0.0,19.952671947441758,0.0,-4.4,24.0,17.62,22.29,21.35,23.09,-5.28,-4.4,0.0,-1653.64,-4127.47,2.63,246.0,69.0,579.0,0.0,0.0,0.0,0.0,0.0,0.0,0.0,0.0,0.0,0.0,0.0,0.0,0.0,0.0
425.0,3052.0,26063.124483281164,22880.80886086476,-0.0,0.0,0.0,0.0,47656.335229056844,0.0,0.0,0.0,47656.335229056844,0.41925925925925933,0.34174920877800513,1.0,0.0,0.0,0.0,"[2.0, 2.0, 2.0, 1.2659613168382897, 2.0, 1.7976630818807315, 1.7575857085672837, 2.0, 2.0]",24.0,0.0,0.0,0.0,1135.3677957597672,205.03085334242132,-2467.375214836904,-7199.627496667431,0.0,0.0,0.0,0.0,0.0,0.0,0.0,-5.0,21.53116339284476,0.0,20.13434705303273,0.0,-5.0,24.0,17.77,22.49,21.52,23.26,-5.85,-5.0,5854.87,-1688.57,-4214.67,0.0,282.0,204.0,648.0,0.0,0.0,0.0,0.0,0.0,0.0,0.0,0.0,0.0,0.0,0.0,0.0,0.0,0.0
426.0,6670.0,3233.338428738898,8543.422465848425,-0.0,0.0,6790.250729253222,0.0,22860.651154285806,0.0,0.0,0.0,15106.556709385077,0.0,0.5326551885765185,0.2780612244897959,0.0,0.0,0.0,"[2.0, 2.0, 2.0, 1.2659613168382897, 2.0, 1.7976630818807315, 1.7575857085672837, 2.0, 2.0]",21.04,0.0,0.0,0.0,1325.3994326176278,260.1364846539208,-2258.375535285254,-1217.144070724873,0.0,0.0,0.0,0.0,0.0,0.0,0.0,-5.5,20.688958569485948,0.0,20.05892966349204,0.0,-5.5,21.04,17.73,22.39,19.65,21.67,-6.34,-5.5,0.0,-1545.54,-3857.67,0.0,234.0,329.0,797.0,0.0,0.0,0.0,0.0,0.0,0.0,0.0,0.0,0.0,0.0,0.0,0.0,0.0,0.0
427.0,5426.0,23607.480031721694,13921.159517027469,-0.0,0.0,-659.725114535613,0.0,75165.28789791328,0.0,80000.0,0.0,24615.519897913277,0.02394557823129262,0.23031202909050186,0.2780612244897959,29450.232000000004,7362.558000000001,36812.79,"[2.0, 2.0, 2.0, 1.2659613168382897, 2.0, 1.7976630818807315, 1.7575857085672837, 2.0, 2.0]",20.49,0.0,0.0,0.0,1419.5019886625819,244.40022308086102,-2262.7133329653166,-542.4705269898178,971.801143834928,0.0,0.0,0.0,0.0,0.0,0.0,-6.1,20.379295757499854,0.0,19.83272579724074,0.0,-6.1,20.49,17.49,22.18,19.28,21.33,-6.94,-6.1,2734.1,-1548.51,-3865.08,0.0,220.0,302.0,875.0,0.0,0.0,0.0,0.0,0.0,0.0,0.0,0.0,0.0,0.0,0.0,0.0,0.0,0.0
428.0,5799.0,19521.608040201005,0.0,-0.0,0.0,-16000.0,0.0,47445.936160276564,0.0,47445.93616027656,0.0,0.0,0.6046863189720333,0.051000101047128626,0.278061224489796,0.0,0.0,0.0,"[2.0, 2.0, 2.0, 1.2659613168382897, 2.0, 1.7976630818807315, 1.7575857085672837, 2.0, 2.0]",20.0,0.0,0.0,0.0,1564.0166283030462,227.22817121828842,-2271.6868357291496,84.03329097085232,13021.893897463147,0.0,0.0,0.0,0.0,0.0,0.0,-6.7,20.107111459619517,0.0,19.646477703617762,0.0,-6.7,20.0,17.33,21.96,19.09,21.12,-7.51,-6.7,6168.88,-1554.65,-3880.4,0.0,314.0,213.0,939.0,0.0,0.0,0.0,0.0,0.0,0.0,0.0,0.0,0.0,0.0,0.0,0.0,0.0,0.0
429.0,4736.0,0.9633989431046333,12352.95858194839,-0.0,0.0,16000.0,0.0,22549.20012214584,0.0,0.0,0.0,22549.20012214584,0.0,0.051000101047128626,0.278061224489796,0.0,0.0,0.0,"[2.0, 2.0, 2.0, 1.2659613168382897, 2.0, 1.7976630818807315, 1.7575857085672837, 2.0, 2.0]",24.0,0.0,0.0,0.0,1498.1156146752915,189.95505530253737,-2654.5554035486693,-7927.7532314457485,0.0,0.0,0.0,0.0,0.0,0.0,0.0,-7.2,21.27902182354082,0.0,19.790637660041718,0.0,-7.2,24.0,17.43,22.15,21.66,23.32,-8.0,-7.2,8631.82,-1816.67,-4534.41,0.0,284.0,159.0,913.0,0.0,0.0,0.0,0.0,0.0,0.0,0.0,0.0,0.0,0.0,0.0,0.0,0.0,0.0
430.0,3708.0,166909.77529890332,146699.3127573891,-0.0,0.0,-16000.0,0.0,271981.8149130112,0.0,0.0,0.0,271981.8149130112,0.5807407407407407,0.051000101047128626,0.278061224489796,0.0,0.0,0.0,"[2.0, 2.0, 2.0, 1.2659613168382897, 2.0, 1.7976630818807315, 1.7575857085672837, 2.0, 2.0]",20.5,0.0,0.0,0.0,1320.2121022766405,154.7781932094749,-2407.4390149335777,-839.6331198781427,11885.356186272356,0.0,0.0,0.0,0.0,0.0,0.0,-7.8,20.27952416918349,0.0,19.695683806682155,0.0,-7.8,20.5,17.35,22.05,19.18,21.24,-8.57,-7.8,0.0,-1647.55,-4112.29,0.0,291.0,94.0,788.0,0.0,0.0,0.0,0.0,0.0,0.0,0.0,0.0,0.0,0.0,0.0,0.0,0.0,0.0
431.0,3593.0,0.0,7129.765723207627,-0.0,0.0,15366.399999999998,0.0,13354.588790113561,0.0,0.0,0.0,13354.588790113557,0.0,0.051000101047128626,0.278061224489796,0.0,0.0,0.0,"[2.0, 2.0, 2.0, 1.2659613168382897, 2.0, 1.7976630818807315, 1.7575857085672837, 2.0, 2.0]",24.0,0.0,0.0,0.0,954.9071486859818,168.56177998879733,-2756.6536883005415,-7836.716889820684,0.0,0.0,0.0,0.0,0.0,0.0,0.0,-8.4,21.314419057886383,0.0,19.833978834374797,0.0,-8.4,24.0,17.45,22.22,21.56,23.27,-9.11,-8.4,7639.29,-1886.54,-4708.81,0.0,462.0,45.0,440.0,0.0,0.0,0.0,0.0,0.0,0.0,0.0,0.0,0.0,0.0,0.0,0.0,0.0,0.0
432.0,2114.0,30246.332831280128,21670.762912052447,-0.0,0.0,0.0,0.0,41210.75502868321,0.0,0.0,0.0,41210.755028683205,0.0,0.051000101047128626,0.278061224489796,0.0,0.0,0.0,"[2.0, 2.0, 2.0, 1.2659613168382897, 2.0, 1.7976630818807315, 1.7575857085672837, 2.0, 2.0]",20.52,0.0,0.0,0.0,758.0077787006169,94.33142202098794,-2520.5162483317145,-811.8980150414727,1566.0813313769133,0.0,0.0,0.0,0.0,0.0,0.0,-9.1,20.32198631009179,0.0,19.73949957855884,0.0,-9.1,20.52,17.37,22.11,19.21,21.28,-9.81,-9.1,179.09,-1724.94,-4305.45,0.0,240.0,26.0,417.0,0.0,0.0,0.0,0.0,0.0,0.0,0.0,0.0,0.0,0.0,0.0,0.0,0.0,0.0
433.0,1622.0,35162.507417291934,29033.822076971843,-14733.44439816743,0.0,-11551.020408163267,0.0,61197.90031791105,0.0,-104.34600748639394,0.0,61302.24632539745,0.41925925925925933,0.0513788384076348,1.0,0.0,0.0,0.0,"[2.0, 2.0, 2.0, 1.2659613168382897, 2.0, 1.7976630818807315, 1.7575857085672837, 2.0, 2.0]",20.95,0.0,0.0,0.0,615.027419865233,91.37369402459167,-2624.4080481061465,-1964.8831404282898,0.0,0.0,0.0,0.0,0.0,0.0,0.0,-9.9,20.337655196280366,0.0,19.61534445190741,0.0,-9.9,20.95,17.28,21.95,19.46,21.44,-10.6,-9.9,5492.81,-1796.04,-4482.91,0.0,240.0,26.0,314.0,0.0,0.0,0.0,0.0,0.0,0.0,0.0,0.0,0.0,0.0,0.0,0.0,0.0,0.0
434.0,1258.0,53103.34096725514,53967.793740581525,-0.0,0.0,-16000.0,0.0,39092.95078759632,0.0,-80000.0,0.0,119092.95078759632,1.0,0.34174920877800513,1.0,0.0,0.0,0.0,"[2.0, 2.0, 2.0, 1.2659613168382897, 2.0, 1.7976630818807315, 1.7575857085672837, 2.0, 2.0]",20.5,0.0,0.0,0.0,513.1073378134391,77.44652821631797,-2654.2253958355145,-1199.4493670924726,9556.005675943336,0.0,0.0,0.0,0.0,0.0,0.0,-10.7,20.16037606841082,0.0,19.544551185488384,0.0,-10.7,20.5,17.25,21.84,19.41,21.39,-11.36,-10.7,0.0,-1816.44,-4533.84,0.0,240.0,3.0,243.0,0.0,0.0,0.0,0.0,0.0,0.0,0.0,0.0,0.0,0.0,0.0,0.0,0.0,0.0
435.0,816.0,7891.5599362486255,11842.128410496105,-0.0,0.0,0.0,0.0,26245.406616036955,0.0,0.0,0.0,26245.406616036955,1.0,0.34174920877800513,1.0,0.0,0.0,0.0,"[2.0, 2.0, 2.0, 1.2659613168382897, 2.0, 1.7976630818807315, 1.7575857085672837, 2.0, 2.0]",24.0,0.0,0.0,0.0,318.3267365589,71.87566189300847,-2994.883019388242,-8057.208616048749,5632.660862720217,0.0,0.0,0.0,0.0,0.0,0.0,-11.2,21.243991063524856,0.0,19.75336655876392,0.0,-11.2,24.0,17.44,22.07,21.66,23.31,-11.86,-11.2,6471.3,-2049.58,-5115.74,0.0,240.0,0.0,103.0,0.0,0.0,0.0,0.0,0.0,0.0,0.0,0.0,0.0,0.0,0.0,0.0,0.0,0.0
436.0,791.0,0.0,12831.399999999998,-0.0,0.0,15366.399999999998,0.0,27459.298570797015,0.0,0.0,0.0,27459.298570797015,0.41925925925925933,0.34174920877800513,1.0,0.0,0.0,0.0,"[2.0, 2.0, 2.0, 1.2659613168382897, 2.0, 1.7976630818807315, 1.7575857085672837, 2.0, 2.0]",24.0,0.0,0.0,0.0,287.93336442015726,71.76079866984745,-3028.915780972199,-7639.055502292808,8888.906174843218,0.0,0.0,0.0,0.0,0.0,0.0,-11.6,21.393361699397705,0.0,19.952671947441758,0.0,-11.6,24.0,17.62,22.29,21.35,23.09,-12.26,-11.6,0.0,-2072.87,-5173.87,0.0,240.0,1.0,81.0,0.0,0.0,0.0,0.0,0.0,0.0,0.0,0.0,0.0,0.0,0.0,0.0,0.0,0.0
437.0,1761.0,26063.124483281164,22880.80886086476,-0.0,0.0,0.0,0.0,47656.335229056844,0.0,0.0,0.0,47656.335229056844,0.41925925925925933,0.34174920877800513,1.0,0.0,0.0,0.0,"[2.0, 2.0, 2.0, 1.2659613168382897, 2.0, 1.7976630818807315, 1.7575857085672837, 2.0, 2.0]",24.0,0.0,0.0,0.0,327.4593603986665,89.53588245401535,-3062.948542556157,-7253.298001462354,0.0,0.0,0.0,0.0,0.0,0.0,0.0,-12.0,21.53116339284476,0.0,20.13434705303273,0.0,-12.0,24.0,17.77,22.49,21.52,23.26,-12.62,-12.0,5854.87,-2096.16,-5232.01,0.0,240.0,34.0,106.0,0.0,0.0,0.0,0.0,0.0,0.0,0.0,0.0,0.0,0.0,0.0,0.0,0.0,0.0
438.0,1624.0,34393.608431339606,16597.640389182914,-0.0,0.0,-15999.999999999998,0.0,22860.651154285806,0.0,0.0,0.0,22860.651154285806,1.0,0.34174920877800513,1.0,0.0,0.0,0.0,"[2.1910095986046016, 1.3683736976070584, 2.167716433866218, 1.49252181160551, 2.0, 2.2453210681019655, 1.6436476678561682, 2.0, 2.0]",21.04,0.0,0.0,0.0,464.37565700444543,179.30149135435272,-2845.4406726085176,-1269.9496289885874,0.0,0.0,0.0,0.0,0.0,0.0,0.0,-12.4,20.688958569485948,0.0,20.05892966349204,0.0,-12.4,21.04,17.73,22.39,19.65,21.67,-13.0,-12.4,0.0,-1947.31,-4860.47,0.0,450.0,92.0,88.0,0.0,0.0,0.0,0.0,0.0,0.0,0.0,0.0,0.0,0.0,0.0,0.0,0.0,0.0
439.0,1840.0,56836.802132242585,0.0,-0.0,0.0,10615.399999999998,0.0,58795.2163094232,0.0,0.0,0.0,0.0,0.5988133030990175,0.34174920877800513,1.0,261312.07248632546,65328.018121581365,326640.0906079068,"[2.1910095986046016, 1.3683736976070584, 2.167716433866218, 1.49252181160551, 2.0, 2.2453210681019655, 1.6436476678561682, 2.0, 2.0]",19.81,0.0,0.0,0.0,613.7123220323067,114.28890704521521,-2765.9267991646147,793.4258587860145,6406.67531348802,0.0,0.0,0.0,0.0,0.0,0.0,-12.7,20.183375501873375,0.0,19.815357973360328,0.0,-12.7,19.81,17.48,22.15,19.03,21.11,-13.3,-12.7,2080.94,-1892.89,-4724.65,0.0,279.0,50.0,290.0,0.0,0.0,0.0,0.0,0.0,0.0,0.0,0.0,0.0,0.0,0.0,0.0,0.0,0.0
440.0,4751.0,0.0,0.0,-0.0,0.0,4751.0,0.0,53739.91424248676,0.0,53739.91424248676,0.0,0.0,0.41925925925925933,0.13865051549574223,1.0,0.0,0.0,0.0,"[2.1910095986046016, 1.3683736976070584, 2.167716433866218, 1.49252181160551, 2.0, 2.2453210681019655, 1.6436476678561682, 2.0, 2.0]",21.64,0.0,0.0,3.0273495890056337,426.60312480317117,108.57446169295449,-2921.4593057025486,-3198.2710995354128,12790.534154602792,0.0,0.0,0.0,0.0,0.0,0.0,-12.7,20.60117524821657,0.0,19.718092016804498,0.0,-12.7,21.64,17.35,22.09,20.16,22.06,-13.28,-12.7,11492.48,-1999.33,-4990.32,5.27,242.0,66.0,173.0,0.0,0.0,0.0,0.0,0.0,0.0,0.0,0.0,0.0,0.0,0.0,0.0,0.0,0.0
441.0,5249.0,196000.84671977072,0.0,-0.0,0.0,-16000.0,0.0,76394.65823755466,0.0,-80000.0,0.0,0.0,1.0,0.42902088586611253,1.0,695087.3699446875,173771.84248617187,868859.2124308593,"[2.1910095986046016, 1.3683736976070584, 2.167716433866218, 1.49252181160551, 2.0, 2.2453210681019655, 1.6436476678561682, 2.0, 2.0]",24.19,0.0,0.0,18.22891473730613,372.31880869959934,77.07322274104463,-3113.232764464009,-8175.223293566692,10823.480122054429,0.0,0.0,0.0,0.0,0.0,0.0,-12.4,21.39683132305241,0.0,19.862718240545682,0.0,-12.4,24.19,17.41,22.32,21.71,23.45,-12.98,-12.4,9219.83,-2130.57,-5317.9,31.74,170.0,45.0,174.0,0.0,0.0,0.0,0.0,0.0,0.0,0.0,0.0,0.0,0.0,0.0,0.0,0.0,0.0
442.0,8686.0,22152.696369582474,0.0,-0.0,1.192861195128886,0.0,0.0,12021.413174036717,0.0,0.0,0.0,0.0,1.0,0.42902088586611253,1.0,53428.502995718765,13357.125748929691,66785.62874464845,"[2.1910095986046016, 1.3683736976070584, 2.167716433866218, 1.49252181160551, 2.0, 2.2453210681019655, 1.6436476678561682, 2.0, 2.0]",24.19,0.0,0.0,27.197977863898277,1830.8353664056633,124.08099681969219,-3104.724574068019,-7791.310362364024,0.0,0.0,0.0,0.0,0.0,0.0,0.0,-12.3,21.53261553345058,0.0,20.030202689868627,0.0,-12.3,24.19,17.5,22.56,21.62,23.47,-12.86,-12.3,8710.44,-2124.75,-5303.37,47.36,264.0,28.0,1177.0,0.0,0.0,0.0,0.0,0.0,0.0,0.0,0.0,0.0,0.0,0.0,0.0,0.0,0.0
443.0,6078.0,10516.89334604753,20397.60440735169,-0.0,11.295528034397316,16000.0,0.0,28677.876544980732,0.0,0.0,0.0,28677.87654498073,0.3953136810279667,0.42902088586611253,1.0,0.0,0.0,0.0,"[2.1910095986046016, 1.3683736976070584, 2.167716433866218, 1.49252181160551, 2.0, 2.2453210681019655, 1.6436476678561682, 2.0, 2.0]",21.03,0.0,0.0,39.392095853003845,1299.755024875564,78.39414980739637,-2818.6661312394085,-1453.2397770201674,0.0,0.0,0.0,0.0,0.0,0.0,0.0,-12.1,20.60826278366864,0.0,19.90961257684421,0.0,-12.1,21.03,17.37,22.45,19.46,21.67,-12.66,-12.1,0.0,-1928.98,-4814.73,68.59,178.0,6.0,842.0,0.0,0.0,0.0,0.0,0.0,0.0,0.0,0.0,0.0,0.0,0.0,0.0,0.0,0.0
444.0,3777.0,17276.876454725993,23892.741531363143,-0.0,19.249458910782415,10460.0,0.0,33819.61822593269,0.0,0.0,0.0,33819.61822593269,0.0,0.42902088586611253,1.0,0.0,0.0,0.0,"[2.1910095986046016, 1.3683736976070584, 2.167716433866218, 1.49252181160551, 2.0, 2.2453210681019655, 1.6436476678561682, 2.0, 2.0]",20.02,0.0,0.0,44.02906203054891,821.4247186439552,86.63558606919958,-2724.0283478699366,174.55114261407536,1012.7635352085124,0.0,0.0,0.0,0.0,0.0,0.0,-12.0,20.170062752434973,0.0,19.682386832125932,0.0,-12.0,20.02,17.16,22.2,18.94,21.17,-12.58,-12.0,7347.68,-1864.22,-4653.08,76.66,256.0,0.0,457.0,0.0,0.0,0.0,0.0,0.0,0.0,0.0,0.0,0.0,0.0,0.0,0.0,0.0,0.0
445.0,7772.0,25470.96083371422,33558.17497711572,-0.0,27713.768947570075,-11727.200000000004,0.0,52619.539866746505,0.0,0.0,0.0,52619.539866746505,0.41925925925925933,0.42902088586611253,1.0,0.0,0.0,0.0,"[2.1910095986046016, 1.3683736976070584, 2.167716433866218, 1.49252181160551, 2.0, 2.2453210681019655, 1.6436476678561682, 2.0, 2.0]",19.81,0.0,0.0,1315.1704119789392,1538.299159570264,85.14236416810631,-2570.2384200568604,145.69055176807282,0.0,0.0,0.0,0.0,0.0,0.0,0.0,-10.4,19.944389616336387,0.0,19.454732000195392,0.0,-10.4,19.81,16.95,21.95,18.82,21.01,-9.99,-10.4,0.0,-1758.97,-4390.38,2289.98,196.0,0.0,1005.0,0.0,0.0,0.0,0.0,0.0,0.0,0.0,0.0,0.0,0.0,0.0,0.0,0.0,0.0
446.0,5940.0,94408.76413846378,96760.75561591405,-0.0,24764.03529814258,-16000.0,0.0,78178.94166392337,0.0,-80000.0,0.0,158178.94166392338,1.0,0.7193912562364828,1.0,0.0,0.0,0.0,"[2.1910095986046016, 1.3683736976070584, 2.167716433866218, 1.49252181160551, 2.0, 2.2453210681019655, 1.6436476678561682, 2.0, 2.0]",20.03,0.0,0.0,1489.2443600840763,3063.8857067555728,116.12671861579156,-2529.761050555074,-626.7179892322381,10079.981371749209,0.0,0.0,0.0,0.0,0.0,0.0,-9.7,19.89294306810921,0.0,19.308991196238892,0.0,-9.7,20.03,16.83,21.79,19.04,21.19,-9.11,-9.7,9956.96,-1731.27,-4321.24,2593.07,192.0,1.0,2106.0,0.0,0.0,0.0,0.0,0.0,0.0,0.0,0.0,0.0,0.0,0.0,0.0,0.0,0.0
447.0,6633.0,21385.331940284217,25260.57509192092,-0.0,10615.169811338124,0.0,0.0,41053.72463907515,0.0,0.0,0.0,41053.72463907515,1.0,0.7193912562364828,1.0,0.0,0.0,0.0,"[2.1910095986046016, 1.3683736976070584, 2.167716433866218, 1.49252181160551, 2.0, 2.2453210681019655, 1.6436476678561682, 2.0, 2.0]",24.19,0.0,0.0,995.3414887841859,3926.4437631738356,163.04834527706836,-2892.0198141682868,-8863.305182812002,6585.487431209367,0.0,0.0,0.0,0.0,0.0,0.0,-9.8,21.14364855383083,0.0,19.503370929564028,0.0,-9.8,24.19,16.98,22.03,21.6,23.4,-9.7,-9.8,0.0,-1979.18,-4940.03,1733.09,246.0,29.0,2696.0,0.0,0.0,0.0,0.0,0.0,0.0,0.0,0.0,0.0,0.0,0.0,0.0,0.0,0.0
448.0,6542.0,29202.943009630857,29130.328294582705,-0.0,0.0,6615.400000000001,0.0,45398.92548836628,0.0,0.0,0.0,45398.92548836628,0.7499848828420257,0.7193912562364828,1.0,0.0,0.0,0.0,"[2.1910095986046016, 1.3683736976070584, 2.167716433866218, 1.49252181160551, 2.0, 2.2453210681019655, 1.6436476678561682, 2.0, 2.0]",24.19,0.0,0.0,1.5107984429200474,1464.7998029078235,107.13867140344172,-2951.577146940211,-8429.922997627935,0.0,0.0,0.0,0.0,0.0,0.0,0.0,-10.5,21.30219250852819,0.0,19.708144921285566,0.0,-10.5,24.19,17.13,22.28,21.31,23.22,-11.44,-10.5,10597.06,-2019.94,-5041.77,2.63,188.0,50.0,951.0,0.0,0.0,0.0,0.0,0.0,0.0,0.0,0.0,0.0,0.0,0.0,0.0,0.0,0.0
449.0,8751.0,0.0,0.0,-0.0,0.0,8751.0,0.0,58614.359536810676,0.0,58614.35953681067,0.0,0.0,0.41925925925925933,0.4978706230663744,1.0,0.0,0.0,0.0,"[2.1910095986046016, 1.3683736976070584, 2.167716433866218, 1.49252181160551, 2.0, 2.2453210681019655, 1.6436476678561682, 2.0, 2.0]",20.71,0.0,0.0,0.0,2976.5778228474055,220.5086726633688,-2689.550082788115,-1403.9963862767897,10722.951741737432,0.0,0.0,0.0,0.0,0.0,0.0,-10.9,20.304890180725955,0.0,19.606051532409502,0.0,-10.9,20.71,17.04,22.17,19.13,21.36,-11.81,-10.9,0.0,-1840.62,-4594.18,0.0,316.0,142.0,1963.0,0.0,0.0,0.0,0.0,0.0,0.0,0.0,0.0,0.0,0.0,0.0,0.0,0.0,0.0
450.0,4969.0,0.0,4658.013744273218,-832.9862557267815,0.0,10460.0,0.0,28380.041129424582,0.0,21520.293697631674,0.0,6859.747431792908,0.02394557823129262,0.41653920319626225,0.0,0.0,0.0,0.0,"[2.1910095986046016, 1.3683736976070584, 2.167716433866218, 1.49252181160551, 2.0, 2.2453210681019655, 1.6436476678561647, 2.0, 2.0]",24.19,0.0,0.0,0.0,1374.2041744173403,194.43472100581715,-3028.1508605041154,-8391.152560444218,0.0,0.0,0.0,0.0,0.0,0.0,0.0,-11.4,21.318387737518012,0.0,19.722558226828752,0.0,-11.4,24.19,17.11,22.33,21.43,23.32,-12.31,-11.4,1663.6,-2072.34,-5172.57,0.0,155.0,241.0,883.0,0.0,0.0,0.0,0.0,0.0,0.0,0.0,0.0,0.0,0.0,0.0,0.0,0.0,0.0
451.0,9847.0,42240.4319310738,32182.22977141843,-0.0,0.0,0.0,0.0,46166.801583535336,0.0,0.0,0.0,46166.801583535336,0.02394557823129262,0.41653920319626225,0.0,0.0,0.0,0.0,"[2.1910095986046016, 1.3683736976070584, 2.167716433866218, 1.49252181160551, 2.0, 2.2453210681019655, 1.6436476678561647, 2.0, 2.0]",20.69,0.0,0.0,0.0,953.2998068901828,206.52407524351457,-2764.6845794148066,-1337.548493508892,456.9855124745847,0.0,0.0,0.0,0.0,0.0,0.0,-11.8,20.31393039393777,0.0,19.616169032654632,0.0,-11.8,20.69,17.01,22.22,19.15,21.4,-12.67,-11.8,0.0,-1892.04,-4722.52,0.0,256.0,228.0,528.0,0.0,0.0,0.0,0.0,0.0,0.0,0.0,0.0,0.0,0.0,0.0,0.0,0.0,0.0
452.0,10813.0,38994.34287477314,11986.371160399272,-0.0,0.0,-16000.0,0.0,38602.91516529262,0.0,21979.295691037496,0.0,16623.619474255112,0.6046863189720333,0.3334730819149414,0.0,0.0,0.0,0.0,"[2.1910095986046016, 1.3683736976070584, 2.167716433866218, 1.49252181160551, 2.0, 2.2453210681019655, 1.6436476678561647, 2.0, 2.0]",19.81,0.0,0.0,0.0,1204.3373709976834,200.32146119281947,-2731.8940375806574,49.46212998740379,13109.251512888244,0.0,0.0,0.0,0.0,0.0,0.0,-12.3,19.91933774682663,0.0,19.403919197221267,0.0,-12.3,19.81,16.83,21.98,18.74,21.0,-13.21,-12.3,6893.61,-1869.6,-4666.51,0.0,267.0,200.0,706.0,0.0,0.0,0.0,0.0,0.0,0.0,0.0,0.0,0.0,0.0,0.0,0.0,0.0,0.0
453.0,5691.0,0.0,10309.0,-0.0,0.0,16000.0,0.0,38251.4335866103,0.0,24347.236617969415,0.0,13904.196968640877,0.0,0.24145782636705998,0.0,0.0,0.0,0.0,"[2.1910095986046016, 1.3683736976070584, 2.167716433866218, 1.49252181160551, 2.0, 2.2453210681019655, 1.6436476678561647, 2.0, 2.0]",24.0,0.0,0.0,0.0,1391.3735072361007,206.06462235087048,-3122.505875328082,-8397.11344713639,4787.779824183764,0.0,0.0,0.0,0.0,0.0,0.0,-12.7,21.1283261386311,0.0,19.52792291880833,0.0,-12.7,24.0,16.9,22.16,21.42,23.3,-13.59,-12.7,804.57,-2136.92,-5333.74,0.0,459.0,102.0,750.0,0.0,0.0,0.0,0.0,0.0,0.0,0.0,0.0,0.0,0.0,0.0,0.0,0.0,0.0
454.0,3472.0,79023.96700493542,75156.84716991075,-0.0,0.0,0.0,0.0,97784.84431284749,0.0,0.0,0.0,97784.84431284749,0.0,0.24145782636705998,0.0,0.0,0.0,0.0,"[2.1910095986046016, 1.3683736976070584, 2.167716433866218, 1.49252181160551, 2.0, 2.2453210681019655, 1.6436476678561647, 2.0, 2.0]",22.18,0.0,0.0,0.0,876.8780105990173,164.19697750867857,-3009.8040450163244,-4546.126543957301,12208.97202170472,0.0,0.0,0.0,0.0,0.0,0.0,-13.2,20.66537622253489,0.0,19.548461022000808,0.0,-13.2,22.18,16.89,22.21,20.04,22.19,-14.08,-13.2,12178.37,-2059.79,-5141.23,0.0,450.0,46.0,390.0,0.0,0.0,0.0,0.0,0.0,0.0,0.0,0.0,0.0,0.0,0.0,0.0,0.0,0.0
455.0,2440.0,51048.33904124375,48353.09734603753,-0.0,0.0,0.0,0.0,61067.242571867355,0.0,0.0,0.0,61067.24257186736,0.0,0.24145782636705998,0.0,0.0,0.0,0.0,"[2.1910095986046016, 1.3683736976070584, 2.167716433866218, 1.49252181160551, 2.0, 2.2453210681019655, 1.6436476678561647, 2.0, 2.0]",24.19,0.0,0.0,0.0,843.1238328872402,129.22112605614785,-3215.3310492158807,-8395.6239068518,0.0,0.0,0.0,0.0,0.0,0.0,0.0,-13.6,21.322978993401964,0.0,19.70392541223464,0.0,-13.6,24.19,16.98,22.43,21.49,23.46,-14.51,-13.6,435.35,-2200.44,-5492.3,0.0,324.0,46.0,432.0,0.0,0.0,0.0,0.0,0.0,0.0,0.0,0.0,0.0,0.0,0.0,0.0,0.0,0.0
456.0,3483.0,61199.25319828478,57410.256932293356,-0.0,0.0,0.0,0.0,71411.30655931696,0.0,0.0,0.0,71411.30655931696,0.0,0.24145782636705998,0.0,0.0,0.0,0.0,"[2.1910095986046016, 1.3683736976070584, 2.167716433866218, 1.49252181160551, 2.0, 2.2453210681019655, 1.6436476678561647, 2.0, 2.0]",20.42,0.0,0.0,0.0,1428.56155151163,51.315144947185836,-2911.189912358654,-824.2028270729239,12904.365951773854,0.0,0.0,0.0,0.0,0.0,0.0,-13.8,20.22278371361543,0.0,19.56720106722038,0.0,-13.8,20.42,16.85,22.29,18.95,21.33,-14.7,-13.8,11836.07,-1992.3,-4972.78,0.0,80.0,0.0,987.0,0.0,0.0,0.0,0.0,0.0,0.0,0.0,0.0,0.0,0.0,0.0,0.0,0.0,0.0
457.0,2042.0,77170.84306209639,58742.98884678591,-0.0,0.0,-16000.0,0.0,71389.0165092842,0.0,0.0,0.0,71389.0165092842,0.5807407407407407,0.24145782636705998,0.0,0.0,0.0,0.0,"[2.1910095986046016, 1.3683736976070584, 2.167716433866218, 1.49252181160551, 2.0, 2.2453210681019655, 1.6436476678561647, 2.0, 2.0]",24.19,0.0,0.0,0.0,860.9507146224645,61.33696116798486,-3257.8720011958276,-8429.20523461447,10768.268556574894,0.0,0.0,0.0,0.0,0.0,0.0,-14.1,21.312405375350824,0.0,19.679148054841946,0.0,-14.1,24.19,16.91,22.45,21.48,23.49,-14.98,-14.1,9308.25,-2229.56,-5564.97,0.0,160.0,0.0,536.0,0.0,0.0,0.0,0.0,0.0,0.0,0.0,0.0,0.0,0.0,0.0,0.0,0.0,0.0
458.0,1077.0,33643.16678616645,36670.75095223561,-0.0,0.0,4272.7999999999965,0.0,43865.94143268912,0.0,0.0,0.0,43865.94143268913,0.41925925925925933,0.24145782636705998,0.0,0.0,0.0,0.0,"[2.1910095986046016, 1.3683736976070584, 2.167716433866218, 1.49252181160551, 2.0, 2.2453210681019655, 1.6436476678561647, 2.0, 2.0]",24.19,0.0,0.0,0.0,430.6214792926684,52.43506137300578,-3274.888381987806,-8070.033093617885,10864.839020946354,0.0,0.0,0.0,0.0,0.0,0.0,-14.3,21.44033388640301,0.0,19.839841576958765,0.0,-14.3,24.19,17.01,22.67,21.38,23.49,-15.19,-14.3,8950.48,-2241.2,-5594.03,0.0,160.0,0.0,226.0,0.0,0.0,0.0,0.0,0.0,0.0,0.0,0.0,0.0,0.0,0.0,0.0,0.0,0.0
459.0,1209.0,91218.85012989544,63349.6742465929,-10204.081632653062,0.0,-16000.0,0.0,75175.62070364179,0.0,0.0,0.0,75175.62070364178,1.0,0.24145782636705998,0.5,0.0,0.0,0.0,"[2.1910095986046016, 1.3683736976070584, 2.167716433866218, 1.49252181160551, 2.0, 2.2453210681019655, 1.6436476678561647, 2.0, 2.0]",24.19,0.0,0.0,0.0,623.5755557792546,56.42655837785125,-3283.3965723837955,-7738.746728904672,0.0,0.0,0.0,0.0,0.0,0.0,0.0,-14.4,21.558108594134428,0.0,19.9880141887076,0.0,-14.4,24.19,17.1,22.88,21.45,23.63,-15.3,-14.4,0.0,-2247.02,-5608.57,0.0,160.0,0.0,365.0,0.0,0.0,0.0,0.0,0.0,0.0,0.0,0.0,0.0,0.0,0.0,0.0,0.0,0.0
460.0,2241.0,32992.530555764315,30586.56790298549,-0.0,0.0,0.0,0.0,36004.794827945945,0.0,0.0,0.0,36004.794827945945,1.0,0.24145782636705998,0.5,0.0,0.0,0.0,"[2.1910095986046016, 1.3683736976070584, 2.167716433866218, 1.49252181160551, 2.0, 2.2453210681019655, 1.6436476678561647, 2.0, 2.0]",20.52,0.0,0.0,0.0,665.3664424700257,79.05461334057225,-2979.815416579665,-450.01024450906607,676.3998530110867,0.0,0.0,0.0,0.0,0.0,0.0,-14.5,20.46438862620469,0.0,19.82459418375683,0.0,-14.5,20.52,16.95,22.7,19.07,21.6,-15.43,-14.5,2016.87,-2039.27,-5090.0,0.0,240.0,0.0,353.0,0.0,0.0,0.0,0.0,0.0,0.0,0.0,0.0,0.0,0.0,0.0,0.0,0.0,0.0
461.0,1182.0,0.0,14818.0,-0.0,0.0,16000.0,0.0,41947.647116963955,0.0,24645.991895324645,0.0,17301.65522163931,0.3953136810279667,0.14831348813831982,0.5,0.0,0.0,0.0,"[2.1910095986046016, 1.3683736976070584, 2.167716433866218, 1.49252181160551, 2.0, 2.2453210681019655, 1.6436476678561647, 2.0, 2.0]",19.81,0.0,0.0,0.0,537.6558306947314,76.41275920786877,-2927.5824166884117,486.0231436799806,1831.8247701063044,0.0,0.0,0.0,0.0,0.0,0.0,-14.6,20.080619836157545,0.0,19.567672009813833,0.0,-14.6,19.81,16.73,22.4,18.72,21.24,-15.52,-14.6,11592.66,-2003.52,-5000.78,0.0,240.0,0.0,261.0,0.0,0.0,0.0,0.0,0.0,0.0,0.0,0.0,0.0,0.0,0.0,0.0,0.0,0.0
462.0,1120.0,50513.655639359684,49141.087361162885,-0.0,0.0,0.0,0.0,56909.18191159327,0.0,0.0,0.0,56909.18191159327,0.02394557823129262,0.14831348813831982,0.5,0.0,0.0,0.0,"[2.1910095986046016, 1.3683736976070584, 2.167716433866218, 1.4925218116055134, 2.0, 2.2286907145633954, 1.6436476678561647, 2.0, 2.0]",19.81,0.0,0.0,0.0,411.9909266595449,141.31048029384525,-2936.0906070844007,-25.54292745679608,2416.347175362829,0.0,0.0,0.0,0.0,0.0,0.0,-14.7,19.89941159650937,0.0,19.327937483785014,0.0,-14.7,19.81,16.52,22.13,18.68,21.13,-15.58,-14.7,0.0,-2009.34,-5015.31,0.0,456.0,17.0,55.0,0.0,0.0,0.0,0.0,0.0,0.0,0.0,0.0,0.0,0.0,0.0,0.0,0.0,0.0
463.0,1203.0,31086.516932234405,29728.084347573233,-0.0,0.0,0.0,0.0,34427.42216071302,0.0,0.0,0.0,34427.42216071302,0.02394557823129262,0.14831348813831982,0.5,0.0,0.0,0.0,"[2.1910095986046016, 1.3683736976070584, 2.167716433866218, 1.4925218116055134, 2.0, 2.2286907145633954, 1.6436476678561647, 2.0, 2.0]",19.81,0.0,0.0,0.0,436.3202365686828,103.03231117543524,-2936.0906070844007,-474.9093265011553,9232.33320855883,0.0,0.0,0.0,0.0,0.0,0.0,-14.7,19.740172632222762,0.0,19.116421662135092,0.0,-14.7,19.81,16.33,21.9,18.63,21.03,-15.62,-14.7,11448.43,-2009.34,-5015.31,0.0,270.0,40.0,168.0,0.0,0.0,0.0,0.0,0.0,0.0,0.0,0.0,0.0,0.0,0.0,0.0,0.0,0.0
464.0,2074.0,71762.93882150447,69963.72412739696,-0.0,0.0,633.6000000000028,0.0,85025.32055031834,0.0,0.0,0.0,85025.32055031834,0.0,0.14831348813831982,0.5,0.0,0.0,0.0,"[2.1910095986046016, 1.3683736976070584, 2.167716433866218, 1.4925218116055134, 2.0, 2.2286907145633954, 1.6436476678561647, 2.0, 2.0]",22.06,0.0,0.0,12.496909388044466,358.4372204631543,119.28545725271961,-3076.748854787788,-5176.001868068752,13772.102449450726,0.0,0.0,0.0,0.0,0.0,0.0,-14.1,20.331090223308895,0.0,19.10428676632598,0.0,-14.1,22.06,16.3,21.91,20.02,22.2,-14.98,-14.1,169.67,-2105.6,-5255.58,21.76,228.0,97.0,128.0,0.0,0.0,0.0,0.0,0.0,0.0,0.0,0.0,0.0,0.0,0.0,0.0,0.0,0.0
465.0,2191.0,15356.343869210239,27271.92344047942,-0.0,14183.36129061523,0.0,0.0,43022.62884772642,0.0,0.0,0.0,43022.62884772642,0.0,0.14831348813831982,0.5,0.0,0.0,0.0,"[2.1910095986046016, 1.3683736976070584, 2.167716433866218, 1.4925218116055134, 2.0, 2.2286907145633954, 1.6436476678561647, 2.0, 2.0]",24.19,0.0,0.0,995.7410542959715,550.1492601075321,107.68427171345655,-2934.5607661482327,-9134.21219051054,0.0,0.0,0.0,0.0,0.0,0.0,0.0,-10.3,21.048929623588066,0.0,19.30117654706105,0.0,-10.3,24.19,16.44,22.16,21.3,23.36,-10.18,-10.3,0.0,-2008.3,-5012.7,1733.79,252.0,54.0,258.0,0.0,0.0,0.0,0.0,0.0,0.0,0.0,0.0,0.0,0.0,0.0,0.0,0.0,0.0
466.0,3378.0,129765.57176827356,0.0,-0.0,27453.888650520694,-16000.0,0.0,43473.36930395756,0.0,-80000.0,0.0,0.0,0.5807407407407407,0.4386838585086902,0.5,548770.5302398115,137192.63255995288,685963.1627997644,"[2.1910095986046016, 1.3683736976070584, 2.167716433866218, 1.4925218116055134, 2.0, 2.2286907145633954, 1.6436476678561647, 2.0, 2.0]",20.53,0.0,0.0,1513.8625540757362,266.81873810261715,6.547203720178157,-2333.703281337752,-1555.717863057992,0.0,0.0,0.0,0.0,0.0,0.0,0.0,-6.9,20.052750286361267,0.0,19.271972770627723,0.0,-6.9,20.53,16.44,22.1,19.0,21.44,-6.32,-6.9,771.75,-1597.09,-3986.34,2635.94,0.0,2.0,192.0,0.0,0.0,0.0,0.0,0.0,0.0,0.0,0.0,0.0,0.0,0.0,0.0,0.0,0.0
467.0,4936.0,0.0,0.0,-0.0,34136.36862125162,5726.426734602922,0.0,31434.115820269075,0.0,0.0,0.0,0.0,0.3643224968026106,0.4386838585086902,0.5,139707.18142341817,34926.79535585454,174633.9767792727,"[2.1910095986046016, 1.3683736976070584, 2.167716433866218, 1.4925218116055134, 2.0, 2.2286907145633954, 1.6436476678561647, 2.0, 2.0]",19.83,0.0,0.0,1848.5348645530607,220.717252959476,4.565813120650555,-2044.812730656805,-314.6266530309809,44.48430095671715,0.0,0.0,0.0,0.0,0.0,0.0,-4.2,19.78699222668219,0.0,19.177976742705106,0.0,-4.2,19.83,16.43,21.93,18.81,21.21,-3.32,-4.2,6451.45,-1399.39,-3492.87,3218.67,0.0,0.0,159.0,0.0,0.0,0.0,0.0,0.0,0.0,0.0,0.0,0.0,0.0,0.0,0.0,0.0,0.0
468.0,6166.0,0.0,0.0,-0.0,36147.76790354973,9377.73143002611,0.0,35423.54940021824,0.0,0.0,0.0,0.0,0.0,0.4386838585086902,0.5,157437.99733430333,39359.49933357583,196797.49666787917,"[2.1910095986046016, 1.3683736976070584, 2.167716433866218, 1.4925218116055134, 2.0, 2.2286907145633954, 1.6436476678561647, 2.0, 2.0]",19.81,0.0,0.0,1940.7985190041136,1120.6094756347047,70.1239977398029,-1898.0913787737036,-428.34557157467435,0.0,0.0,0.0,0.0,0.0,0.0,0.0,-2.5,19.717183086248493,0.0,19.111683956284114,0.0,-2.5,19.81,16.45,21.77,18.87,21.19,-1.56,-2.5,3233.44,-1298.98,-3242.24,3379.32,148.0,13.0,728.0,0.0,0.0,0.0,0.0,0.0,0.0,0.0,0.0,0.0,0.0,0.0,0.0,0.0,0.0
469.0,12053.0,40787.645795086144,0.0,-0.0,33041.188470918234,-11727.200000000004,0.0,44860.22643332603,0.0,0.0,0.0,0.0,0.41925925925925933,0.4386838585086902,0.5,199378.78414811578,49844.696037028945,249223.4801851447,"[2.1910095986046016, 1.3683736976070584, 2.167716433866218, 1.4925218116055134, 2.0, 2.2286907145633954, 1.6436476678561647, 2.0, 2.0]",20.16,0.0,0.0,1853.0580905302686,2454.9954101106637,91.25883080143068,-1868.1620492637235,-1245.5264986662066,9922.880320252121,0.0,0.0,0.0,0.0,0.0,0.0,-1.8,19.774725926331513,0.0,19.084028284062256,0.0,-1.8,20.16,16.52,21.65,19.06,21.26,-0.88,-1.8,1338.17,-1278.49,-3191.12,3226.55,94.0,29.0,1716.0,0.0,0.0,0.0,0.0,0.0,0.0,0.0,0.0,0.0,0.0,0.0,0.0,0.0,0.0
470.0,6863.0,0.0,0.0,-0.0,26359.0727196397,-16000.0,0.0,41771.301746799654,0.0,38624.83629912393,0.0,0.0,1.0,0.2927094204923488,0.5,13984.290878558793,3496.0727196396983,17480.36359819849,"[2.1910095986046016, 1.3683736976070584, 2.167716433866218, 1.4925218116055134, 2.0, 2.2286907145633954, 1.6436476678561647, 2.0, 2.0]",24.19,0.0,0.0,1678.1165298996934,635.7036802384644,52.234050732473996,-2228.380963281119,-9058.921809629754,8766.272435235976,0.0,0.0,0.0,0.0,0.0,0.0,-2.0,21.050482724649335,0.0,19.370841604187795,0.0,-2.0,24.19,16.82,21.92,21.57,23.39,-1.23,-2.0,5438.49,-1525.01,-3806.43,2921.94,138.0,3.0,385.0,0.0,0.0,0.0,0.0,0.0,0.0,0.0,0.0,0.0,0.0,0.0,0.0,0.0,0.0
471.0,5157.0,1091.876312592988,7453.318400204044,-0.0,11523.901469174021,0.0,0.0,16447.544357780924,0.0,0.0,0.0,16447.544357780924,1.0,0.2927094204923488,0.5,0.0,0.0,0.0,"[2.1910095986046016, 1.3683736976070584, 2.167716433866218, 1.4925218116055134, 2.0, 2.2286907145633954, 1.6436476678561647, 2.0, 2.0]",24.19,0.0,0.0,1069.1733617041953,1273.6722511891908,57.63262222104197,-2373.0202000129375,-8386.440753007475,8261.007867805667,0.0,0.0,0.0,0.0,0.0,0.0,-3.7,21.295220122586493,0.0,19.703709597205,0.0,-3.7,24.19,17.15,22.25,21.63,23.49,-3.47,-3.7,5823.71,-1624.0,-4053.5,1861.65,115.0,0.0,857.0,0.0,0.0,0.0,0.0,0.0,0.0,0.0,0.0,0.0,0.0,0.0,0.0,0.0,0.0
472.0,3787.0,110825.68772403264,98878.52928541249,-0.0,0.0,0.0,0.0,87037.13261481668,38030.15,-80000.0,0.0,197461.25261481665,1.0,0.5830797908627192,0.5,30424.120000000003,7606.030000000001,38030.15,"[2.1910095986046016, 1.3683736976070584, 2.167716433866218, 1.4925218116055134, 2.0, 2.2286907145633954, 1.6436476678561647, 2.0, 2.0]",24.19,0.0,0.0,1.5107859006893087,438.658188271663,9.074194629720603,-2560.200388724703,-7873.905199599553,9985.234034402349,0.0,0.0,0.0,0.0,0.0,0.0,-5.9,21.486149132445238,0.0,19.96229940396293,0.0,-5.9,24.19,17.41,22.52,21.61,23.49,-6.75,-5.9,0.0,-1752.1,-4373.23,2.63,0.0,0.0,316.0,0.0,0.0,0.0,0.0,0.0,0.0,0.0,0.0,0.0,0.0,0.0,0.0,0.0,0.0
473.0,3750.0,19018.04619810597,15172.955967115444,-0.0,0.0,0.0,0.0,30155.871928087174,0.0,0.0,0.0,30155.871928087174,1.0,0.5830797908627192,0.5,0.0,0.0,0.0,"[2.1910095986046016, 1.3683736976070584, 2.167716433866218, 1.4925218116055134, 2.0, 2.2286907145633954, 1.6436476678561647, 2.0, 2.0]",24.19,0.0,0.0,0.0,122.15797648071629,2.5269909095424468,-2568.708579120692,-7471.345325867309,479.1170448529887,0.0,0.0,0.0,0.0,0.0,0.0,-6.0,21.629114564008685,0.0,20.152611589453628,0.0,-6.0,24.19,17.58,22.73,21.58,23.5,-6.83,-6.0,0.0,-1757.92,-4387.77,0.0,0.0,0.0,88.0,0.0,0.0,0.0,0.0,0.0,0.0,0.0,0.0,0.0,0.0,0.0,0.0,0.0,0.0
474.0,6908.0,34653.01448756207,11571.749415124257,-0.0,0.0,-15999.999999999998,0.0,22998.563635372193,0.0,0.0,0.0,22998.563635372193,0.9834846562313416,0.5629770481001168,0.3928571428571428,0.0,0.0,0.0,"[2.1910095986046016, 1.3683736976070549, 2.167716433866218, 1.4925218116055134, 2.0, 2.2286907145633954, 1.6436476678561647, 1.3609792554273525, 2.0]",20.85,0.0,0.0,0.0,74.30302756033998,4.106360228006475,-2284.0395454876207,-716.5720619612161,0.0,0.0,0.0,0.0,0.0,0.0,0.0,-6.0,20.668818791756657,0.0,20.06030628674734,0.0,-6.0,20.85,17.53,22.59,19.49,21.7,-6.8,-6.0,770.44,-1563.1,-3901.51,0.0,0.0,5.0,53.0,0.0,0.0,0.0,0.0,0.0,0.0,0.0,0.0,0.0,0.0,0.0,0.0,0.0,0.0
475.0,4440.0,4462.311557788945,0.0,-0.0,0.0,0.0,0.0,16599.622858761235,0.0,16599.622858761235,0.0,0.0,0.9834846562313416,0.5002422678326897,0.3928571428571428,0.0,0.0,0.0,"[2.1910095986046016, 1.3683736976070549, 2.167716433866218, 1.4925218116055134, 2.0, 2.2286907145633954, 1.6436476678561647, 1.3609792554273525, 2.0]",19.81,0.0,0.0,0.0,1079.9875647954234,109.0626303913888,-2204.3862330293196,970.1980552699379,51.32395116625864,0.0,0.0,0.0,0.0,0.0,0.0,-6.1,20.227929066319643,0.0,19.848186854295662,0.0,-6.1,19.81,17.38,22.31,18.95,21.16,-6.85,-6.1,3040.15,-1508.59,-3765.44,0.0,162.0,83.0,684.0,0.0,0.0,0.0,0.0,0.0,0.0,0.0,0.0,0.0,0.0,0.0,0.0,0.0,0.0
476.0,5283.0,5309.547738693467,0.0,-0.0,0.0,0.0,0.0,59164.13293076232,0.0,59164.13293076231,0.0,0.0,0.9834846562313416,0.27664388185097266,0.3928571428571428,0.0,0.0,0.0,"[2.1910095986046016, 1.3683736976070549, 2.167716433866218, 1.4925218116055134, 2.0, 2.2286907145633954, 1.6436476678561647, 1.3609792554273525, 2.0]",19.81,0.0,0.0,0.0,1613.332797037785,206.69637007825608,-2204.3862330293196,495.3432197095561,11720.85386479184,0.0,0.0,0.0,0.0,0.0,0.0,-6.1,20.059561757600772,0.0,19.632745272145,0.0,-6.1,19.81,17.23,22.03,18.88,21.01,-6.85,-6.1,0.0,-1508.59,-3765.44,0.0,316.0,170.0,978.0,0.0,0.0,0.0,0.0,0.0,0.0,0.0,0.0,0.0,0.0,0.0,0.0,0.0,0.0
477.0,6301.0,21130.418800799405,30723.76670679541,-0.0,0.0,16000.0,0.0,60476.922608297995,0.0,0.0,0.0,60476.922608297995,0.37879833725930834,0.27664388185097266,0.3928571428571428,0.0,0.0,0.0,"[2.1910095986046016, 1.3683736976070549, 2.167716433866218, 1.4925218116055134, 2.0, 2.2286907145633954, 1.6436476678561647, 1.3609792554273525, 2.0]",24.0,0.0,0.0,0.0,2595.4916952616304,195.69821646058836,-2569.473499588776,-7936.347175649236,8264.44468267479,0.0,0.0,0.0,0.0,0.0,0.0,-6.2,21.273028022143887,0.0,19.770150921369506,0.0,-6.2,24.0,17.35,22.19,21.54,23.26,-6.95,-6.2,10245.82,-1758.44,-4389.07,0.0,165.0,189.0,1763.0,0.0,0.0,0.0,0.0,0.0,0.0,0.0,0.0,0.0,0.0,0.0,0.0,0.0,0.0
478.0,3940.0,42925.57383988492,22770.945970685494,-0.0,0.0,-16000.0,0.0,44605.440496863885,0.0,0.0,0.0,44605.440496863885,0.959539078000049,0.27664388185097266,0.3928571428571428,0.0,0.0,0.0,"[2.1910095986046016, 1.3683736976070549, 2.167716433866218, 1.4925218116055134, 2.0, 2.2286907145633954, 1.6436476678561647, 1.3609792554273525, 2.0]",24.19,0.0,0.0,0.0,1070.854940955657,82.2133519775003,-2594.23315030866,-7939.289534310094,0.0,0.0,0.0,0.0,0.0,0.0,0.0,-6.3,21.46375833558631,0.0,19.95399481370349,0.0,-6.3,24.19,17.5,22.41,21.41,23.22,-7.03,-6.3,0.0,-1775.39,-4431.37,0.0,81.0,74.0,721.0,0.0,0.0,0.0,0.0,0.0,0.0,0.0,0.0,0.0,0.0,0.0,0.0,0.0,0.0
479.0,2855.0,19366.48005609118,32414.647655810724,-0.0,0.0,16000.0,0.0,63496.248205912685,0.0,0.0,0.0,63496.24820591269,0.3548527590280157,0.27664388185097266,0.3928571428571428,0.0,0.0,0.0,"[2.1910095986046016, 1.3683736976070549, 2.167716433866218, 1.4925218116055134, 2.0, 2.2286907145633954, 1.6436476678561647, 1.3609792554273525, 2.0]",20.86,0.0,0.0,0.0,1454.3520812351303,63.57679401962475,-2311.1110192346287,-1191.7061683850256,11373.611835843578,0.0,0.0,0.0,0.0,0.0,0.0,-6.3,20.519108126435853,0.0,19.873150753872466,0.0,-6.3,20.86,17.45,22.3,19.4,21.51,-6.99,-6.3,6256.39,-1581.63,-3947.75,0.0,91.0,17.0,998.0,0.0,0.0,0.0,0.0,0.0,0.0,0.0,0.0,0.0,0.0,0.0,0.0,0.0,0.0
480.0,1922.0,27465.92793079071,25406.598291136754,-0.0,0.0,0.0,0.0,49526.145466848015,0.0,0.0,0.0,49526.14546684802,0.3548527590280157,0.27664388185097266,0.3928571428571428,0.0,0.0,0.0,"[2.1910095986046016, 1.3683736976070549, 2.167716433866218, 1.4925218116055134, 2.0, 2.2286907145633954, 1.6436476678561647, 1.3609792554273525, 2.0]",24.19,0.0,0.0,0.0,745.8796542414068,80.72013007640702,-2602.7413407046492,-7820.620556178651,9601.340511121802,0.0,0.0,0.0,0.0,0.0,0.0,-6.4,21.506100937565318,0.0,20.012874756669852,0.0,-6.4,24.19,17.57,22.46,21.68,23.44,-7.12,-6.4,10087.93,-1781.21,-4445.9,0.0,240.0,0.0,411.0,0.0,0.0,0.0,0.0,0.0,0.0,0.0,0.0,0.0,0.0,0.0,0.0,0.0,0.0
481.0,1108.0,24895.870728092155,23663.391374451694,-0.0,0.0,0.0,0.0,46128.03926052924,0.0,0.0,0.0,46128.039260529236,0.3548527590280157,0.27664388185097266,0.3928571428571428,0.0,0.0,0.0,"[2.1910095986046016, 1.3683736976070549, 2.167716433866218, 1.4925218116055134, 2.0, 2.2286907145633954, 1.6436476678561647, 1.3609792554273525, 2.0]",24.19,0.0,0.0,0.0,602.8992954060232,77.76240208001076,-2602.7413407046492,-7426.744349932999,0.0,0.0,0.0,0.0,0.0,0.0,0.0,-6.4,21.645638184452928,0.0,20.195662505840765,0.0,-6.4,24.19,17.72,22.67,21.63,23.47,-7.08,-6.4,0.0,-1781.21,-4445.9,0.0,240.0,0.0,308.0,0.0,0.0,0.0,0.0,0.0,0.0,0.0,0.0,0.0,0.0,0.0,0.0,0.0,0.0
482.0,1740.0,0.0,0.0,-0.0,0.0,1740.0,0.0,55164.67051389737,0.0,55164.67051389737,0.0,0.0,0.2890931218398071,0.06816062216126229,0.3928571428571428,0.0,0.0,0.0,"[2.1910095986046016, 1.3683736976070549, 2.167716433866218, 1.4925218116055134, 2.0, 2.2286907145633954, 1.6436476678561647, 1.3609792554273525, 2.0]",20.87,0.0,0.0,0.0,562.6426895203325,76.92964371209337,-2320.581024070282,-741.1433438618677,0.0,0.0,0.0,0.0,0.0,0.0,0.0,-6.4,20.690426280254865,0.0,20.09727354491563,0.0,-6.4,20.87,17.65,22.54,19.53,21.68,-7.07,-6.4,10900.24,-1588.11,-3963.92,0.0,240.0,0.0,279.0,0.0,0.0,0.0,0.0,0.0,0.0,0.0,0.0,0.0,0.0,0.0,0.0,0.0,0.0
483.0,2052.0,40718.14228901584,22462.55157757076,-0.0,0.0,-16000.0,0.0,44001.334379825326,0.0,0.0,0.0,44001.334379825326,0.8698338625805477,0.06816062216126229,0.3928571428571428,0.0,0.0,0.0,"[2.1910095986046016, 1.3683736976070549, 2.167716433866218, 1.4925218116055134, 2.0, 2.2286907145633954, 1.6436476678561647, 1.3609792554273525, 2.0]",20.01,0.0,0.0,0.0,716.7283189448725,80.11709815481167,-2238.8718084018237,604.2231020564578,5868.107752035468,0.0,0.0,0.0,0.0,0.0,0.0,-6.3,20.304441970378935,0.0,19.89367489940067,0.0,-6.3,20.01,17.5,22.29,19.11,21.24,-6.99,-6.3,8360.45,-1532.19,-3824.35,0.0,240.0,0.0,390.0,0.0,0.0,0.0,0.0,0.0,0.0,0.0,0.0,0.0,0.0,0.0,0.0,0.0,0.0
484.0,1490.0,5795.947043732468,20276.967308513806,-0.0,0.0,16000.0,0.0,39720.04763882627,0.0,0.0,0.0,39720.04763882627,0.26514754360851445,0.06816062216126229,0.3928571428571428,0.0,0.0,0.0,"[2.1910095986046016, 1.3683736976070549, 2.167716433866218, 1.4925218116055134, 2.0, 2.2286907145633954, 1.6436476678561647, 1.3609792554273525, 2.0]",21.8,0.0,0.0,0.0,670.9190777646038,79.16947656373326,-2390.484610222195,-3225.639084811495,0.0,0.0,0.0,0.0,0.0,0.0,0.0,-6.3,20.73343606862671,0.0,19.839529058744706,0.0,-6.3,21.8,17.47,22.21,20.24,22.16,-6.97,-6.3,0.0,-1635.95,-4083.33,0.0,240.0,0.0,357.0,0.0,0.0,0.0,0.0,0.0,0.0,0.0,0.0,0.0,0.0,0.0,0.0,0.0,0.0
485.0,2743.0,53556.49508422689,34545.712608805756,-0.0,0.0,-16000.0,0.0,67670.7384127818,0.0,0.0,0.0,67670.7384127818,0.8458882843492551,0.06816062216126229,0.3928571428571428,0.0,0.0,0.0,"[2.1910095986046016, 1.3683736976070549, 2.167716433866218, 1.4925218116055134, 2.0, 2.2286907145633954, 1.6436476678561647, 1.3609792554273525, 2.0]",20.07,0.0,0.0,0.0,240.58984243480788,70.26757676875418,-2243.554794384803,19.883939339861495,13541.314361132278,0.0,0.0,0.0,0.0,0.0,0.0,-6.3,20.152411859434675,0.0,19.67953110027438,0.0,-6.3,20.07,17.34,22.01,19.01,21.08,-6.97,-6.3,10294.19,-1535.4,-3832.35,0.0,240.0,0.0,47.0,0.0,0.0,0.0,0.0,0.0,0.0,0.0,0.0,0.0,0.0,0.0,0.0,0.0,0.0
486.0,1636.0,5800.758487377382,12440.979349410893,-0.0,0.0,8305.224654470398,0.0,24488.929123372876,0.0,0.0,0.0,24488.929123372876,0.0,0.06816062216126229,0.3928571428571428,0.0,0.0,0.0,"[2.1910095986046016, 1.3683736976070406, 2.167716433866218, 1.4925218116055134, 2.0, 1.9131219009776537, 1.6436476678561647, 1.3609792554273525, 2.0]",24.19,0.0,0.0,0.0,1000.7163898662503,145.3881247160615,-2585.724959912671,-8198.826336127378,0.0,0.0,0.0,0.0,0.0,0.0,0.0,-6.2,21.371273099661124,0.0,19.845996096693327,0.0,-6.2,24.19,17.48,22.22,21.79,23.44,-6.86,-6.2,0.0,-1769.57,-4416.83,0.0,396.0,33.0,509.0,0.0,0.0,0.0,0.0,0.0,0.0,0.0,0.0,0.0,0.0,0.0,0.0,0.0,0.0
487.0,1245.0,11349.124461648002,10047.37883933976,-0.0,0.0,0.0,0.0,19777.345606149473,0.0,0.0,0.0,19777.345606149473,0.0,0.06816062216126229,0.3928571428571428,0.0,0.0,0.0,"[2.1910095986046016, 1.3683736976070406, 2.167716433866218, 1.4925218116055134, 2.0, 1.9131219009776537, 1.6436476678561647, 1.3609792554273525, 2.0]",20.77,0.0,0.0,0.0,328.4822142687203,143.1195760586313,-2294.711840924235,-1236.4650780241857,355.55554588727296,0.0,0.0,0.0,0.0,0.0,0.0,-6.2,20.409887140482592,0.0,19.774078106705062,0.0,-6.2,20.77,17.42,22.12,19.35,21.39,-6.86,-6.2,1161.55,-1570.41,-3919.74,0.0,282.0,116.0,76.0,0.0,0.0,0.0,0.0,0.0,0.0,0.0,0.0,0.0,0.0,0.0,0.0,0.0,0.0
488.0,2386.0,37042.92515894034,28860.61634494145,-0.0,0.0,-5611.094188204189,0.0,53917.55151123539,0.0,-4817.889932515128,0.0,58735.44144375052,0.20366193720148537,0.08564777821261349,0.3928571428571428,0.0,0.0,0.0,"[2.1910095986046016, 1.3683736976070406, 2.167716433866218, 1.4925218116055134, 2.0, 1.9131219009776537, 1.6436476678561647, 1.3609792554273525, 2.0]",19.81,0.0,0.0,12.472572234481682,551.245174968304,138.84092099588335,-2153.3370906533833,376.6584335275472,12900.930588749121,0.0,0.0,0.0,0.0,0.0,0.0,-5.5,20.015486883055473,0.0,19.593301199331997,0.0,-5.5,19.81,17.29,21.9,18.92,20.96,-6.14,-5.5,10524.48,-1473.66,-3678.24,21.72,255.0,113.0,251.0,0.0,0.0,0.0,0.0,0.0,0.0,0.0,0.0,0.0,0.0,0.0,0.0,0.0,0.0
489.0,6195.0,0.0,9906.904165740218,-0.0,10713.009307388915,5388.894858351303,0.0,23750.88416632389,0.0,0.0,0.0,23750.88416632389,0.0,0.08564777821261349,0.3928571428571428,0.0,0.0,0.0,"[2.1910095986046016, 1.3683736976070406, 2.167716433866218, 1.4925218116055134, 2.0, 1.9131219009776537, 1.6436476678561647, 1.3609792554273525, 2.0]",24.0,0.0,0.0,795.9632223930918,348.1356207718978,69.92298709927111,-2186.6049317692564,-7966.886606267786,2655.8671870182193,0.0,0.0,0.0,0.0,0.0,0.0,-1.7,21.24695527115083,0.0,19.753421005414495,0.0,-1.7,24.0,17.42,22.09,21.64,23.27,-1.52,-1.7,7341.1,-1496.42,-3735.07,1385.93,104.0,67.0,189.0,0.0,0.0,0.0,0.0,0.0,0.0,0.0,0.0,0.0,0.0,0.0,0.0,0.0,0.0
490.0,6148.0,31717.28666440623,25326.12248556814,-12390.67055393586,25176.563445654294,-12870.470637234494,0.0,69891.81493530623,0.0,0.0,0.0,69891.81493530623,0.46715041572184457,0.08564777821261349,1.0,0.0,0.0,0.0,"[2.1910095986046016, 1.3683736976070406, 2.167716433866218, 1.4925218116055134, 2.0, 1.9131219009776537, 1.6436476678561647, 1.3609792554273525, 2.0]",21.8,0.0,0.0,1398.5446036675864,396.13669167371023,55.07691550570924,-1675.8564678931623,-3193.043304553434,9643.815470294327,0.0,0.0,0.0,0.0,0.0,0.0,2.1,20.718399047572436,0.0,19.83393330773679,0.0,2.1,21.8,17.53,22.14,20.18,22.07,2.74,2.1,0.0,-1146.89,-2862.63,2435.15,110.0,33.0,224.0,0.0,0.0,0.0,0.0,0.0,0.0,0.0,0.0,0.0,0.0,0.0,0.0,0.0,0.0
491.0,10506.0,0.0,0.0,-0.0,32952.08998311159,0.0,0.0,20201.480984800422,0.0,0.0,0.0,0.0,0.44320483749055195,0.08564777821261349,1.0,89784.35993244636,22446.08998311159,112230.44991555794,"[2.1910095986046016, 1.3683736976070406, 2.167716433866218, 1.4925218116055134, 2.0, 1.9131219009776537, 1.6436476678561647, 1.3609792554273525, 2.0]",24.19,0.0,0.0,1819.1748393275434,4238.852559484567,129.85287378353348,-1615.7912547698877,-7587.8689744936755,0.0,0.0,0.0,0.0,0.0,0.0,0.0,5.2,21.55141912126003,0.0,20.10932323110969,0.0,5.2,24.19,17.83,22.39,21.99,23.62,6.11,5.2,0.0,-1105.78,-2760.03,3167.55,155.0,0.0,2972.0,0.0,0.0,0.0,0.0,0.0,0.0,0.0,0.0,0.0,0.0,0.0,0.0,0.0,0.0
492.0,9590.0,6788.0101592220735,0.0,-0.0,36795.08746823976,0.0,0.0,30563.241818999144,0.0,0.0,0.0,0.0,0.41925925925925933,0.08564777821261349,1.0,135836.6303066629,33959.157576665726,169795.78788332862,"[2.1910095986046016, 1.3683736976070406, 2.167716433866218, 1.4925218116055134, 2.0, 1.9131219009776537, 1.6436476678561647, 1.3609792554273525, 2.0]",23.18,0.0,0.0,2007.647883153931,678.809664762162,50.22394432715613,-1351.0374538737085,-5111.865276443855,0.0,0.0,0.0,0.0,0.0,0.0,0.0,7.3,21.408440624350394,0.0,20.292812552336752,0.0,7.3,23.18,18.07,22.51,21.05,22.85,8.35,7.3,7018.49,-924.6,-2307.79,3495.72,133.0,0.0,419.0,0.0,0.0,0.0,0.0,0.0,0.0,0.0,0.0,0.0,0.0,0.0,0.0,0.0,0.0
493.0,10537.0,313.3305061674055,5777.790511360925,-0.0,32003.026657724356,-16000.0,0.0,19304.780590405175,0.0,0.0,0.0,19304.780590405175,1.0,0.08564777821261349,1.0,0.0,0.0,0.0,"[2.1910095986046016, 1.3683736976070406, 2.167716433866218, 1.4925218116055134, 2.0, 1.9131219009776537, 1.6436476678561647, 1.3609792554273525, 2.0]",21.92,0.0,0.0,1825.7126392004375,1505.6408967192592,58.350517365798325,-1167.616741635234,-2286.9555477681056,0.0,0.0,0.0,0.0,0.0,0.0,0.0,8.2,21.148488646713442,0.0,20.41083062834631,0.0,8.2,21.92,18.28,22.54,20.72,22.51,9.14,8.2,4764.53,-799.07,-1994.48,3178.93,100.0,0.0,1032.0,0.0,0.0,0.0,0.0,0.0,0.0,0.0,0.0,0.0,0.0,0.0,0.0,0.0,0.0
494.0,8006.0,4330.805255787,15854.770666637638,-0.0,27365.573437129573,0.0,0.0,21718.217660237002,39069.77,0.0,0.0,52974.033660237,1.0,0.08564777821261349,1.0,31255.816,7813.954,39069.77,"[2.1910095986046016, 1.3683736976070406, 2.167716433866218, 1.4925218116055134, 2.0, 1.9131219009776537, 1.6436476678561647, 1.3609792554273525, 2.0]",21.96,0.0,0.0,1800.3780951593185,2239.0271215478656,97.46144485212574,-1170.7137155293947,-2239.0292142583353,0.0,0.0,0.0,0.0,0.0,0.0,0.0,8.2,21.201994285479447,0.0,20.491296645466555,0.0,8.2,21.96,18.46,22.52,20.77,22.48,9.14,8.2,1475.06,-801.19,-1999.77,3134.82,188.0,0.0,1514.0,0.0,0.0,0.0,0.0,0.0,0.0,0.0,0.0,0.0,0.0,0.0,0.0,0.0,0.0
495.0,8692.0,0.0,6134.281802349325,-0.0,14826.281802349326,0.0,0.0,19618.691089295942,0.0,0.0,0.0,19618.69108929594,1.0,0.08564777821261349,1.0,0.0,0.0,0.0,"[2.1910095986046016, 1.3683736976070406, 2.167716433866218, 1.4925218116055134, 2.0, 1.9131219009776537, 1.6436476678561647, 1.3609792554273525, 2.0]",22.28,0.0,0.0,1312.6101338521307,1545.3130146792046,106.50692367605609,-1325.2167270581594,-2763.736776734823,0.0,0.0,0.0,0.0,0.0,0.0,0.0,6.7,21.338246439705888,0.0,20.58103939885775,0.0,6.7,22.28,18.63,22.53,20.99,22.6,7.19,6.7,0.0,-906.92,-2263.68,2285.52,274.0,0.0,969.0,0.0,0.0,0.0,0.0,0.0,0.0,0.0,0.0,0.0,0.0,0.0,0.0,0.0,0.0
496.0,3142.0,0.0,12858.0,-0.0,0.0,16000.0,0.0,4144.9324740649945,0.0,-34158.26518632079,0.0,38303.197660385784,0.3953136810279667,0.20962962962962967,1.0,0.0,0.0,0.0,"[2.1910095986046016, 1.3683736976070406, 2.167716433866218, 1.4925218116055134, 2.0, 1.9131219009776537, 1.6436476678561647, 1.3609792554273525, 2.0]",21.92,0.0,0.0,3.055761922372639,1460.6353264368897,113.94431737573215,-1490.548811242396,-1994.6304989782222,0.0,0.0,0.0,0.0,0.0,0.0,0.0,4.4,21.263238807125372,0.0,20.622439141169465,0.0,4.4,21.92,18.74,22.5,20.79,22.36,3.6,4.4,0.0,-1020.07,-2546.1,5.32,202.0,56.0,940.0,0.0,0.0,0.0,0.0,0.0,0.0,0.0,0.0,0.0,0.0,0.0,0.0,0.0,0.0
497.0,4273.0,21383.70068364333,0.0,-0.0,0.0,-16000.0,0.0,903.4039622026029,0.0,0.0,0.0,0.0,0.9760544217687074,0.20962962962962967,1.0,4015.1287209004586,1003.7821802251146,5018.910901125573,"[2.1910095986046016, 1.3683736976070406, 2.167716433866218, 1.4925218116055134, 2.0, 1.9131219009776537, 1.6436476678561647, 1.3609792554273525, 2.0]",21.24,0.0,0.0,0.0,1239.2605245609504,133.7582233710082,-1449.8338164824168,-778.0817878330087,0.0,0.0,0.0,0.0,0.0,0.0,0.0,4.2,21.014647752051832,0.0,20.541384757582854,0.0,4.2,21.24,18.72,22.36,20.19,21.77,3.42,4.2,0.0,-992.21,-2476.55,0.0,167.0,122.0,792.0,0.0,0.0,0.0,0.0,0.0,0.0,0.0,0.0,0.0,0.0,0.0,0.0,0.0,0.0
498.0,6465.0,5800.758487377382,12440.979349410893,-0.0,0.0,8305.224654470398,0.0,18488.86502821977,0.0,0.0,0.0,24488.929123372876,0.0,0.06816062216126229,0.3928571428571428,0.0,0.0,0.0,"[2.1910095986046016, 1.3683736976070406, 2.167716433866218, 1.4925218116055134, 2.0, 1.9131219009776537, 1.6436476678561647, 1.3609792554273525, 2.0]",20.93,0.0,0.0,0.0,1089.4124325980629,149.58063236143872,-1449.3397278565114,-383.89051863872965,8003.451566343387,0.0,0.0,0.0,0.0,0.0,0.0,3.9,20.848442233265537,0.0,20.437819079611288,0.0,3.9,20.93,18.68,22.2,20.03,21.57,3.18,3.9,0.0,-991.87,-2475.7,0.0,110.0,189.0,707.0,0.0,0.0,0.0,0.0,0.0,0.0,0.0,0.0,0.0,0.0,0.0,0.0,0.0,0.0
499.0,6252.0,11349.124461648002,10047.37883933976,-0.0,0.0,0.0,0.0,19777.345606149473,0.0,0.0,0.0,19777.345606149473,0.0,0.06816062216126229,0.3928571428571428,0.0,0.0,0.0,"[2.1910095986046016, 1.3683736976070406, 2.167716433866218, 1.4925218116055134, 2.0, 1.9131219009776537, 1.6436476678561647, 1.3609792554273525, 2.0]",20.77,0.0,0.0,0.0,1456.7630939288288,231.47811047524618,-1452.4009917212918,-1158.2815110212232,355.55554588727296,0.0,0.0,0.0,0.0,0.0,0.0,3.7,20.409887140482592,0.0,19.774078106705062,0.0,3.7,20.77,17.42,22.12,19.35,21.39,3.0,3.7,1161.55,-993.96,-2480.93,0.0,300.0,233.0,867.0,0.0,0.0,0.0,0.0,0.0,0.0,0.0,0.0,0.0,0.0,0.0,0.0,0.0,0.0
500.0,6748.0,37042.92515894034,28860.61634494145,-0.0,0.0,-5611.094188204189,0.0,53917.55151123539,0.0,-4817.889932515128,0.0,58735.44144375052,0.20366193720148537,0.08564777821261349,0.3928571428571428,0.0,0.0,0.0,"[2.1910095986046016, 1.3683736976070406, 2.167716433866218, 1.4925218116055134, 2.0, 1.9131219009776537, 1.6436476678561647, 1.3609792554273525, 2.0]",19.81,0.0,0.0,0.0,1450.1145437734788,231.79398433893903,-1387.599955014344,447.5290406859135,12900.930588749121,0.0,0.0,0.0,0.0,0.0,0.0,3.5,20.015486883055473,0.0,19.593301199331997,0.0,3.5,19.81,17.29,21.9,18.92,20.96,2.8,3.5,10524.48,-949.62,-2370.24,0.0,279.0,245.0,872.0,0.0,0.0,0.0,0.0,0.0,0.0,0.0,0.0,0.0,0.0,0.0,0.0,0.0,0.0
501.0,6777.0,0.0,9906.904165740218,-0.0,0.0,5388.894858351303,0.0,23750.88416632389,0.0,0.0,0.0,23750.88416632389,0.0,0.08564777821261349,0.3928571428571428,0.0,0.0,0.0,"[2.1910095986046016, 1.3683736976070406, 2.167716433866218, 1.4925218116055134, 2.0, 1.9131219009776537, 1.6436476678561647, 1.3609792554273525, 2.0]",24.0,0.0,0.0,0.0,1713.64553729378,235.03887039323783,-1769.7036023657797,-7934.598105239049,2655.8671870182193,0.0,0.0,0.0,0.0,0.0,0.0,3.2,21.24695527115083,0.0,19.753421005414495,0.0,3.2,24.0,17.42,22.09,21.64,23.27,2.55,3.2,7341.1,-1211.11,-3022.94,0.0,405.0,174.0,1003.0,0.0,0.0,0.0,0.0,0.0,0.0,0.0,0.0,0.0,0.0,0.0,0.0,0.0,0.0
502.0,4892.0,31717.28666440623,25326.12248556814,-12390.67055393586,0.0,-12870.470637234494,0.0,69891.81493530623,0.0,0.0,0.0,69891.81493530623,0.46715041572184457,0.08564777821261349,1.0,0.0,0.0,0.0,"[2.1910095986046016, 1.3683736976070406, 2.167716433866218, 1.4925218116055134, 2.0, 1.9131219009776537, 1.6436476678561647, 1.3609792554273525, 2.0]",21.8,0.0,0.0,0.0,1467.6491815458303,189.29459176936146,-1599.2827543292583,-3195.865412220559,9643.815470294327,0.0,0.0,0.0,0.0,0.0,0.0,3.0,20.718399047572436,0.0,19.83393330773679,0.0,3.0,21.8,17.53,22.14,20.18,22.07,2.38,3.0,0.0,-1094.48,-2731.83,0.0,384.0,106.0,844.0,0.0,0.0,0.0,0.0,0.0,0.0,0.0,0.0,0.0,0.0,0.0,0.0,0.0,0.0
503.0,3064.0,0.0,0.0,-0.0,0.0,0.0,0.0,20201.480984800422,0.0,0.0,0.0,0.0,0.44320483749055195,0.08564777821261349,1.0,89784.35993244636,22446.08998311159,112230.44991555794,"[2.1910095986046016, 1.3683736976070406, 2.167716433866218, 1.4925218116055134, 2.0, 1.9131219009776537, 1.6436476678561647, 1.3609792554273525, 2.0]",24.19,0.0,0.0,0.0,1086.0516270250284,154.34745612262105,-1819.9878242736318,-7618.749967417706,0.0,0.0,0.0,0.0,0.0,0.0,0.0,2.8,21.55141912126003,0.0,20.10932323110969,0.0,2.8,24.19,17.83,22.39,21.99,23.62,2.22,2.8,0.0,-1245.53,-3108.83,0.0,447.0,20.0,545.0,0.0,0.0,0.0,0.0,0.0,0.0,0.0,0.0,0.0,0.0,0.0,0.0,0.0,0.0
504.0,1343.0,6788.0101592220735,0.0,-0.0,0.0,0.0,0.0,30563.241818999144,0.0,0.0,0.0,0.0,0.41925925925925933,0.08564777821261349,1.0,135836.6303066629,33959.157576665726,169795.78788332862,"[2.1910095986046016, 1.3683736976070406, 2.167716433866218, 1.4925218116055134, 2.0, 1.9131219009776537, 1.6436476678561647, 1.3609792554273525, 2.0]",23.18,0.0,0.0,0.0,360.70211117541646,75.32155858783906,-1776.4469736731744,-5164.340381518747,0.0,0.0,0.0,0.0,0.0,0.0,0.0,2.3,21.408440624350394,0.0,20.292812552336752,0.0,2.3,23.18,18.07,22.51,21.05,22.85,1.73,2.3,7018.49,-1215.73,-3034.46,0.0,240.0,5.0,133.0,0.0,0.0,0.0,0.0,0.0,0.0,0.0,0.0,0.0,0.0,0.0,0.0,0.0,0.0
505.0,1965.0,313.3305061674055,5777.790511360925,-0.0,0.0,-16000.0,0.0,19304.780590405175,0.0,0.0,0.0,19304.780590405175,1.0,0.08564777821261349,1.0,0.0,0.0,0.0,"[2.1910095986046016, 1.3683736976070406, 2.167716433866218, 1.4925218116055134, 2.0, 1.9131219009776537, 1.6436476678561647, 1.3609792554273525, 2.0]",21.92,0.0,0.0,0.0,426.6031248031713,74.11549474464837,-1703.6327365825614,-2348.715047808475,0.0,0.0,0.0,0.0,0.0,0.0,0.0,1.9,21.148488646713442,0.0,20.41083062834631,0.0,1.9,21.92,18.28,22.54,20.72,22.51,1.35,1.9,4764.53,-1165.9,-2910.08,0.0,240.0,0.0,181.0,0.0,0.0,0.0,0.0,0.0,0.0,0.0,0.0,0.0,0.0,0.0,0.0,0.0,0.0
506.0,1334.0,4330.805255787,15854.770666637638,-0.0,0.0,0.0,0.0,21718.217660237002,0.0,0.0,0.0,52974.033660237,1.0,0.08564777821261349,1.0,31255.816,7813.954,39069.77,"[2.1910095986046016, 1.3683736976070406, 2.167716433866218, 1.4925218116055134, 2.0, 1.9131219009776537, 1.6436476678561647, 1.3609792554273525, 2.0]",21.96,0.0,0.0,0.0,265.576701260409,70.78446127297877,-1749.2706624566686,-2304.616715862,0.0,0.0,0.0,0.0,0.0,0.0,0.0,1.4,21.201994285479447,0.0,20.491296645466555,0.0,1.4,21.96,18.46,22.52,20.77,22.48,0.87,1.4,1475.06,-1197.13,-2988.03,0.0,240.0,0.0,65.0,0.0,0.0,0.0,0.0,0.0,0.0,0.0,0.0,0.0,0.0,0.0,0.0,0.0,0.0
507.0,1428.0,0.0,6134.281802349325,-0.0,0.0,0.0,0.0,19618.691089295942,0.0,0.0,0.0,19618.69108929594,1.0,0.08564777821261349,1.0,0.0,0.0,0.0,"[2.1910095986046016, 1.3683736976070406, 2.167716433866218, 1.4925218116055134, 2.0, 1.9131219009776537, 1.6436476678561647, 1.3609792554273525, 2.0]",22.28,0.0,0.0,0.0,425.21496597952677,74.08677893885812,-1793.1671988375724,-2815.096303860807,0.0,0.0,0.0,0.0,0.0,0.0,0.0,1.2,21.338246439705888,0.0,20.58103939885775,0.0,1.2,22.28,18.63,22.53,20.99,22.6,0.71,1.2,0.0,-1227.17,-3063.02,0.0,240.0,0.0,180.0,0.0,0.0,0.0,0.0,0.0,0.0,0.0,0.0,0.0,0.0,0.0,0.0,0.0,0.0
508.0,874.0,0.0,12858.0,-0.0,0.0,16000.0,0.0,4144.9324740649945,0.0,-34158.26518632079,0.0,38303.197660385784,0.3953136810279667,0.20962962962962967,1.0,0.0,0.0,0.0,"[2.1910095986046016, 1.3683736976070406, 2.167716433866218, 1.4925218116055134, 2.0, 1.9131219009776537, 1.6436476678561647, 1.3609792554273525, 2.0]",21.92,0.0,0.0,0.0,246.14247772938586,70.3824399919152,-1779.8272847060327,-2019.0495366827197,0.0,0.0,0.0,0.0,0.0,0.0,0.0,1.0,21.263238807125372,0.0,20.622439141169465,0.0,1.0,21.92,18.74,22.5,20.79,22.36,0.52,1.0,0.0,-1218.04,-3040.23,0.0,240.0,0.0,51.0,0.0,0.0,0.0,0.0,0.0,0.0,0.0,0.0,0.0,0.0,0.0,0.0,0.0,0.0
509.0,846.0,21383.70068364333,0.0,-0.0,0.0,-16000.0,0.0,903.4039622026029,0.0,0.0,0.0,0.0,0.9760544217687074,0.20962962962962967,1.0,4015.1287209004586,1003.7821802251146,5018.910901125573,"[2.1910095986046016, 1.3683736976070406, 2.167716433866218, 1.4925218116055134, 2.0, 1.9131219009776537, 1.6436476678561647, 1.3609792554273525, 2.0]",21.24,0.0,0.0,0.0,394.3832278964751,82.18463617171004,-1747.620480342043,-802.843518422363,0.0,0.0,0.0,0.0,0.0,0.0,0.0,0.7,21.014647752051832,0.0,20.541384757582854,0.0,0.7,21.24,18.72,22.36,20.19,21.77,0.3,0.7,0.0,-1196.0,-2985.22,0.0,240.0,17.0,156.0,0.0,0.0,0.0,0.0,0.0,0.0,0.0,0.0,0.0,0.0,0.0,0.0,0.0,0.0
510.0,1509.0,9280.919990556575,7065.79027606818,-0.0,0.0,-659.725114535613,0.0,18488.86502821977,0.0,0.0,0.0,18488.86502821977,1.0,0.20962962962962967,0.8622448979591837,0.0,0.0,0.0,"[1.1391644348683556, 1.4707911644635274, 2.372512721592045, 0.8829090773442232, 1.6391556049180558, 1.188682834028885, 1.4767780540274416, 1.5402103359360453, 1.836594749317669]",20.93,0.0,0.0,0.0,262.8003836131199,94.2739904094074,-1730.110010924159,-407.5411016118924,8003.451566343387,0.0,0.0,0.0,0.0,0.0,0.0,0.6,20.848442233265537,0.0,20.437819079611288,0.0,0.6,20.93,18.68,22.2,20.03,21.57,0.19,0.6,0.0,-1184.02,-2955.3,0.0,234.0,49.0,61.0,0.0,0.0,0.0,0.0,0.0,0.0,0.0,0.0,0.0,0.0,0.0,0.0,0.0,0.0
511.0,1230.0,49937.66237982179,48457.97406792268,-0.0,0.0,0.0,0.0,45874.75928750729,0.0,-80000.0,0.0,125874.75928750729,1.0,0.5,0.8622448979591836,0.0,0.0,0.0,"[1.1391644348683556, 1.4707911644635274, 2.372512721592045, 0.8829090773442232, 1.6391556049180558, 1.188682834028885, 1.4767780540274416, 1.5402103359360453, 1.836594749317669]",23.14,0.0,0.0,0.0,372.83023563462626,80.89242491114855,-1934.69140457569,-4841.982490886794,0.0,0.0,0.0,0.0,0.0,0.0,0.0,0.4,21.48735933076712,0.0,20.509850949526257,0.0,0.4,23.14,18.73,22.29,21.56,22.87,0.01,0.4,508.08,-1324.02,-3304.76,0.0,150.0,63.0,183.0,0.0,0.0,0.0,0.0,0.0,0.0,0.0,0.0,0.0,0.0,0.0,0.0,0.0,0.0
512.0,3545.0,0.0,0.0,-0.0,0.0,3545.0,0.0,35847.97746654518,0.0,35847.977466545184,0.0,0.0,0.8660241874527589,0.364520115394765,0.8622448979591837,0.0,0.0,0.0,"[1.1391644348683556, 1.4707911644635274, 2.372512721592045, 0.8829090773442232, 1.6391556049180558, 1.188682834028885, 1.4767780540274416, 1.5402103359360453, 1.836594749317669]",20.9,0.0,0.0,3.0243938032948523,1900.097185606452,103.1758902043865,-1726.791271508595,-356.2548284967065,6409.853643332151,0.0,0.0,0.0,0.0,0.0,0.0,0.6,20.82746645122069,0.0,20.42393203745665,0.0,0.6,20.9,18.66,22.18,19.99,21.54,0.21,0.6,9482.55,-1181.75,-2949.64,5.27,112.0,65.0,1303.0,0.0,0.0,0.0,0.0,0.0,0.0,0.0,0.0,0.0,0.0,0.0,0.0,0.0,0.0
513.0,4403.0,1710.6764221938008,13322.300988365401,-0.0,23.17794828256885,16000.0,0.0,36003.1600528077,0.0,0.0,0.0,36003.1600528077,0.2613378684807256,0.364520115394765,0.8622448979591837,0.0,0.0,0.0,"[1.1391644348683556, 1.4707911644635274, 2.372512721592045, 0.8829090773442232, 1.6391556049180558, 1.188682834028885, 1.4767780540274416, 1.5402103359360453, 1.836594749317669]",23.14,0.0,0.0,49.20801457982464,1285.3620097040916,68.54462842133887,-1841.1013102198071,-4909.735192534492,5346.95293290895,0.0,0.0,0.0,0.0,0.0,0.0,1.5,21.460068728429775,0.0,20.474297583557792,0.0,1.5,23.14,18.7,22.25,21.41,22.73,1.18,1.5,6855.06,-1259.98,-3144.9,85.68,141.0,7.0,851.0,0.0,0.0,0.0,0.0,0.0,0.0,0.0,0.0,0.0,0.0,0.0,0.0,0.0,0.0
514.0,3090.0,155001.68978295036,0.0,-0.0,1162.510708311605,-16000.0,0.0,51973.46800049749,0.0,-70695.80483761495,0.0,0.0,0.8420786092214663,0.6211197033238859,0.8622448979591837,545196.7681693889,136299.19204234722,681495.960211736,"[1.1391644348683556, 1.4707911644635274, 2.372512721592045, 0.8829090773442232, 1.6391556049180558, 1.188682834028885, 1.4767780540274416, 1.5402103359360453, 1.836594749317669]",23.14,0.0,0.0,132.38143205070887,59.69082941671363,1.234779648980968,-1730.494835071946,-4703.0609482606715,6227.806158301949,0.0,0.0,0.0,0.0,0.0,0.0,2.8,21.529633322002216,0.0,20.566424681159397,0.0,2.8,23.14,18.78,22.35,21.37,22.73,2.5,2.8,0.0,-1184.28,-2955.96,230.5,0.0,0.0,43.0,0.0,0.0,0.0,0.0,0.0,0.0,0.0,0.0,0.0,0.0,0.0,0.0,0.0,0.0
515.0,5582.0,7380.7146373187425,0.0,-0.0,2589.08439609276,-4350.895460224909,0.0,10133.611728566208,0.0,10133.611728566208,0.0,0.0,1.0,0.5828218509861451,0.8622448979591837,0.0,0.0,0.0,"[1.1391644348683556, 1.4707911644635274, 2.372512721592045, 0.8829090773442232, 1.6391556049180558, 1.188682834028885, 1.4767780540274416, 1.5402103359360453, 1.836594749317669]",23.14,0.0,0.0,163.87526295237672,194.34223531023045,4.0202128106357105,-1645.4129311120525,-4469.715612909657,0.0,0.0,0.0,0.0,0.0,0.0,0.0,3.8,21.60962989905717,0.0,20.674594733224218,0.0,3.8,23.14,18.89,22.46,21.51,22.87,3.47,3.8,483.36,-1126.05,-2810.63,285.34,0.0,0.0,140.0,0.0,0.0,0.0,0.0,0.0,0.0,0.0,0.0,0.0,0.0,0.0,0.0,0.0,0.0
516.0,8865.0,14827.316300194298,12419.826484583427,-0.0,6531.646765890101,0.0,0.0,37234.70952134475,0.0,0.0,0.0,37234.70952134475,1.0,0.5828218509861451,0.8622448979591837,0.0,0.0,0.0,"[1.1391644348683556, 1.4707911644635274, 2.372512721592045, 0.8829090773442232, 1.6391556049180558, 1.188682834028885, 1.4767780540274416, 1.5402103359360453, 1.836594749317669]",21.1,0.0,0.0,229.12964331586096,367.56984430292084,36.4403575478337,-1404.2596064754532,-371.47923575008025,434.97416157959105,0.0,0.0,0.0,0.0,0.0,0.0,4.6,21.020363149605448,0.0,20.61464779317351,0.0,4.6,21.1,18.87,22.36,20.21,21.75,4.28,4.6,8347.39,-961.02,-2398.7,398.96,106.0,0.0,209.0,0.0,0.0,0.0,0.0,0.0,0.0,0.0,0.0,0.0,0.0,0.0,0.0,0.0,0.0
517.0,9050.0,0.0,9510.52048084119,-0.0,5422.900670382849,13137.619810458342,0.0,28965.927342338942,0.0,0.0,0.0,28965.92734233894,0.5034913147974928,0.5828218509861451,0.8622448979591837,0.0,0.0,0.0,"[1.1391644348683556, 1.4707911644635274, 2.372512721592045, 0.8829090773442232, 1.6391556049180558, 1.188682834028885, 1.4767780540274416, 1.5402103359360453, 1.836594749317669]",20.86,0.0,0.0,230.8502125657345,3754.6773739955083,122.01345880279383,-1340.9618978802005,-83.96778650306798,3728.1960183396995,0.0,0.0,0.0,0.0,0.0,0.0,5.1,20.87632277014199,0.0,20.51829982560993,0.0,5.1,20.86,18.83,22.21,20.15,21.63,4.76,5.1,0.0,-917.7,-2290.58,401.96,163.0,0.0,2619.0,0.0,0.0,0.0,0.0,0.0,0.0,0.0,0.0,0.0,0.0,0.0,0.0,0.0,0.0
518.0,5799.0,28210.8942699665,0.0,-0.0,2160.323777140733,0.0,0.0,21988.04721818165,0.0,0.0,0.0,0.0,0.5034913147974928,0.5828218509861451,0.8622448979591837,97724.6543030296,24431.1635757574,122155.817878787,"[1.1391644348683556, 1.4707911644635274, 2.372512721592045, 0.8829090773442232, 1.6391556049180558, 1.188682834028885, 1.4767780540274416, 1.5402103359360453, 1.836594749317669]",23.14,0.0,0.0,198.6972359308593,895.5816242228591,51.17156591823456,-1517.7900751722127,-4729.785447874512,0.0,0.0,0.0,0.0,0.0,0.0,0.0,5.3,21.513288374653165,0.0,20.568957861706455,0.0,5.3,23.14,18.9,22.24,21.34,22.61,4.94,5.3,0.0,-1038.71,-2592.63,345.97,120.0,0.0,582.0,0.0,0.0,0.0,0.0,0.0,0.0,0.0,0.0,0.0,0.0,0.0,0.0,0.0,0.0
519.0,3728.0,19435.076729691424,9728.386518569572,-0.0,58.0399598498134,-5939.554787323209,0.0,29351.244782844657,0.0,0.0,0.0,29351.244782844653,0.7190751552262611,0.5828218509861451,0.8622448979591837,0.0,0.0,0.0,"[1.1391644348683556, 1.4707911644635274, 2.372512721592045, 0.8829090773442232, 1.6391556049180558, 1.188682834028885, 1.4767780540274416, 1.5402103359360453, 1.836594749317669]",21.34,0.0,0.0,66.58056357044441,370.27310095949167,30.783343807153447,-1406.8935026561128,-1053.8255409855863,649.0842959765151,0.0,0.0,0.0,0.0,0.0,0.0,4.8,21.00990632720502,0.0,20.54152896825956,0.0,4.8,21.34,18.91,22.17,20.32,21.73,4.33,4.8,8567.96,-962.82,-2403.2,115.93,85.0,0.0,222.0,0.0,0.0,0.0,0.0,0.0,0.0,0.0,0.0,0.0,0.0,0.0,0.0,0.0,0.0
520.0,4114.0,0.0,8273.87959980354,-0.0,0.0,12387.87959980354,0.0,24331.872886604844,0.0,0.0,0.0,24331.872886604848,0.25090132303413937,0.5828218509861451,0.5637755102040816,0.0,0.0,0.0,"[1.1391644348683556, 1.4707911644635274, 2.372512721592045, 0.8829090773442232, 1.6391556049180558, 1.188682834028885, 1.4767780540274416, 1.5402103359360453, 1.836594749317669]",20.86,0.0,0.0,1.5108444310994233,1762.5964010749283,98.06447677372111,-1434.551992236083,-275.2137074553176,4145.852807326535,0.0,0.0,0.0,0.0,0.0,0.0,4.0,20.8120752533093,0.0,20.45257282036826,0.0,4.0,20.86,18.86,22.04,20.12,21.5,3.49,4.0,0.0,-981.75,-2450.44,2.63,166.0,32.0,1179.0,0.0,0.0,0.0,0.0,0.0,0.0,0.0,0.0,0.0,0.0,0.0,0.0,0.0,0.0
521.0,6418.0,0.0,220.84900748332777,-0.0,0.0,6638.849007483328,0.0,634.7360864690188,0.0,0.0,0.0,634.7360864690188,0.0,0.5828218509861451,0.5637755102040816,0.0,0.0,0.0,"[1.1391644348683556, 1.4707911644635274, 2.372512721592045, 0.8829090773442232, 1.6391556049180558, 1.188682834028885, 1.4767780540274416, 1.5402103359360453, 1.836594749317669]",22.38,0.0,0.0,0.0,652.2154641407622,123.85127037337017,-1623.6120124897182,-3431.067334084224,0.0,0.0,0.0,0.0,0.0,0.0,0.0,3.3,21.22149548950723,0.0,20.463475138197595,0.0,3.3,22.38,18.88,22.04,21.0,22.23,2.78,3.3,7519.5,-1111.13,-2773.39,0.0,162.0,129.0,371.0,0.0,0.0,0.0,0.0,0.0,0.0,0.0,0.0,0.0,0.0,0.0,0.0,0.0,0.0
522.0,5024.0,9280.919990556575,7065.79027606818,-0.0,0.0,-659.725114535613,0.0,28525.26734580926,0.0,0.0,0.0,18488.86502821977,1.0,0.20962962962962967,0.8622448979591837,0.0,0.0,0.0,"[1.1391644348683556, 1.4707911644635274, 2.372512721592045, 0.8829090773442232, 1.6391556049180558, 1.188682834028885, 1.4767780540274416, 1.5402103359360453, 1.836594749317669]",20.86,0.0,0.0,0.0,833.2605991402926,203.1643259660547,-1553.8839323700947,-442.98178511010633,2452.2603968400394,0.0,0.0,0.0,0.0,0.0,0.0,2.6,20.759023448773284,0.0,20.38608452612099,0.0,2.6,20.86,18.83,21.94,20.05,21.4,2.11,2.6,0.0,-1063.42,-2654.28,0.0,351.0,176.0,397.0,0.0,0.0,0.0,0.0,0.0,0.0,0.0,0.0,0.0,0.0,0.0,0.0,0.0,0.0
523.0,7207.0,49937.66237982179,48457.97406792268,-0.0,0.0,0.0,0.0,45874.75928750729,0.0,-80000.0,0.0,125874.75928750729,1.0,0.5,0.8622448979591836,0.0,0.0,0.0,"[1.1391644348683556, 1.4707911644635274, 2.372512721592045, 0.8829090773442232, 1.6391556049180558, 1.188682834028885, 1.4767780540274416, 1.5402103359360453, 1.836594749317669]",23.14,0.0,0.0,0.0,1577.605972576619,263.23779167926824,-1807.0685486358498,-4831.085735749174,0.0,0.0,0.0,0.0,0.0,0.0,0.0,1.9,21.48735933076712,0.0,20.509850949526257,0.0,1.9,23.14,18.73,22.29,21.56,22.87,1.39,1.9,508.08,-1236.68,-3086.76,0.0,468.0,201.0,869.0,0.0,0.0,0.0,0.0,0.0,0.0,0.0,0.0,0.0,0.0,0.0,0.0,0.0,0.0
524.0,8379.0,0.0,0.0,-0.0,0.0,3545.0,0.0,35847.97746654518,0.0,35847.977466545184,0.0,0.0,0.8660241874527589,0.364520115394765,0.8622448979591837,0.0,0.0,0.0,"[1.1391644348683556, 1.4707911644635274, 2.372512721592045, 0.8829090773442232, 1.6391556049180558, 1.188682834028885, 1.4767780540274416, 1.5402103359360453, 1.836594749317669]",20.9,0.0,0.0,0.0,1430.1688933074288,185.07336831819399,-1667.23393873667,-351.69321976752684,6409.853643332151,0.0,0.0,0.0,0.0,0.0,0.0,1.3,20.82746645122069,0.0,20.42393203745665,0.0,1.3,20.9,18.66,22.18,19.99,21.54,0.78,1.3,9482.55,-1140.99,-2847.9,0.0,360.0,112.0,829.0,0.0,0.0,0.0,0.0,0.0,0.0,0.0,0.0,0.0,0.0,0.0,0.0,0.0,0.0
525.0,4838.0,1710.6764221938008,13322.300988365401,-0.0,0.0,16000.0,0.0,36003.1600528077,0.0,0.0,0.0,36003.1600528077,0.2613378684807256,0.364520115394765,0.8622448979591837,0.0,0.0,0.0,"[1.1391644348683556, 1.4707911644635274, 2.372512721592045, 0.8829090773442232, 1.6391556049180558, 1.188682834028885, 1.4767780540274416, 1.5402103359360453, 1.836594749317669]",23.14,0.0,0.0,0.0,1145.0118465345606,177.11909011429333,-1917.675023783711,-4918.511620488845,5346.95293290895,0.0,0.0,0.0,0.0,0.0,0.0,0.6,21.460068728429775,0.0,20.474297583557792,0.0,0.6,23.14,18.7,22.25,21.41,22.73,0.07,0.6,6855.06,-1312.38,-3275.7,0.0,411.0,81.0,600.0,0.0,0.0,0.0,0.0,0.0,0.0,0.0,0.0,0.0,0.0,0.0,0.0,0.0,0.0
526.0,5319.0,155001.68978295036,0.0,-0.0,0.0,-16000.0,0.0,51973.46800049749,0.0,-70695.80483761495,0.0,0.0,0.8420786092214663,0.6211197033238859,0.8622448979591837,545196.7681693889,136299.19204234722,681495.960211736,"[1.1391644348683556, 1.4707911644635274, 2.372512721592045, 0.8829090773442232, 1.6391556049180558, 1.188682834028885, 1.4767780540274416, 1.5402103359360453, 1.836594749317669]",23.14,0.0,0.0,0.0,1022.1963211373812,176.5734898042785,-1977.2323565556364,-4728.073429206941,6227.806158301949,0.0,0.0,0.0,0.0,0.0,0.0,-0.1,21.529633322002216,0.0,20.566424681159397,0.0,-0.1,23.14,18.78,22.35,21.37,22.73,-0.66,-0.1,0.0,-1353.14,-3377.43,0.0,390.0,96.0,521.0,0.0,0.0,0.0,0.0,0.0,0.0,0.0,0.0,0.0,0.0,0.0,0.0,0.0,0.0
527.0,2269.0,7380.7146373187425,0.0,-0.0,0.0,-4350.895460224909,0.0,10133.611728566208,0.0,10133.611728566208,0.0,0.0,1.0,0.5828218509861451,0.8622448979591837,0.0,0.0,0.0,"[1.1391644348683556, 1.4707911644635274, 2.372512721592045, 0.8829090773442232, 1.6391556049180558, 1.188682834028885, 1.4767780540274416, 1.5402103359360453, 1.836594749317669]",23.14,0.0,0.0,0.0,853.5715545599331,146.93877822873526,-2028.281498931572,-4507.166726545948,0.0,0.0,0.0,0.0,0.0,0.0,0.0,-0.7,21.60962989905717,0.0,20.674594733224218,0.0,-0.7,23.14,18.89,22.46,21.51,22.87,-1.25,-0.7,483.36,-1388.07,-3464.63,0.0,360.0,61.0,419.0,0.0,0.0,0.0,0.0,0.0,0.0,0.0,0.0,0.0,0.0,0.0,0.0,0.0,0.0
528.0,1472.0,14827.316300194298,12419.826484583427,-0.0,0.0,0.0,0.0,37234.70952134475,0.0,0.0,0.0,37234.70952134475,1.0,0.5828218509861451,0.8622448979591837,0.0,0.0,0.0,"[1.1391644348683556, 1.4707911644635274, 2.372512721592045, 0.8829090773442232, 1.6391556049180558, 1.188682834028885, 1.4767780540274416, 1.5402103359360453, 1.836594749317669]",21.1,0.0,0.0,0.0,484.0290635076228,81.98362553117826,-1923.2592206308018,-421.46770272652964,434.97416157959105,0.0,0.0,0.0,0.0,0.0,0.0,-1.5,21.020363149605448,0.0,20.61464779317351,0.0,-1.5,21.1,18.87,22.36,20.21,21.75,-2.02,-1.5,8347.39,-1316.2,-3285.23,0.0,240.0,13.0,221.0,0.0,0.0,0.0,0.0,0.0,0.0,0.0,0.0,0.0,0.0,0.0,0.0,0.0,0.0
529.0,2074.0,0.0,9510.52048084119,-0.0,0.0,13137.619810458342,0.0,28965.927342338942,0.0,0.0,0.0,28965.92734233894,0.5034913147974928,0.5828218509861451,0.8622448979591837,0.0,0.0,0.0,"[1.1391644348683556, 1.4707911644635274, 2.372512721592045, 0.8829090773442232, 1.6391556049180558, 1.188682834028885, 1.4767780540274416, 1.5402103359360453, 1.836594749317669]",20.86,0.0,0.0,0.0,345.3593031246088,79.62892945637735,-1962.0597967874212,-143.18502454724438,3728.1960183396995,0.0,0.0,0.0,0.0,0.0,0.0,-2.2,20.87632277014199,0.0,20.51829982560993,0.0,-2.2,20.86,18.83,22.21,20.15,21.63,-2.71,-2.2,0.0,-1342.75,-3351.51,0.0,240.0,14.0,121.0,0.0,0.0,0.0,0.0,0.0,0.0,0.0,0.0,0.0,0.0,0.0,0.0,0.0,0.0
530.0,2049.0,28210.8942699665,0.0,-0.0,0.0,0.0,0.0,21988.04721818165,0.0,0.0,0.0,0.0,0.5034913147974928,0.5828218509861451,0.8622448979591837,97724.6543030296,24431.1635757574,122155.817878787,"[1.1391644348683556, 1.4707911644635274, 2.372512721592045, 0.8829090773442232, 1.6391556049180558, 1.188682834028885, 1.4767780540274416, 1.5402103359360453, 1.836594749317669]",23.14,0.0,0.0,0.0,261.41222478947543,70.69831385560802,-2223.969878039327,-4796.887510924401,0.0,0.0,0.0,0.0,0.0,0.0,0.0,-3.0,21.513288374653165,0.0,20.568957861706455,0.0,-3.0,23.14,18.9,22.24,21.34,22.61,-3.52,-3.0,0.0,-1522.0,-3798.9,0.0,240.0,0.0,62.0,0.0,0.0,0.0,0.0,0.0,0.0,0.0,0.0,0.0,0.0,0.0,0.0,0.0,0.0
531.0,929.0,19435.076729691424,9728.386518569572,-0.0,0.0,-5939.554787323209,0.0,29351.244782844657,0.0,0.0,0.0,29351.244782844653,0.7190751552262611,0.5828218509861451,0.8622448979591837,0.0,0.0,0.0,"[1.1391644348683556, 1.4707911644635274, 2.372512721592045, 0.8829090773442232, 1.6391556049180558, 1.188682834028885, 1.4767780540274416, 1.5402103359360453, 1.836594749317669]",21.34,0.0,0.0,0.0,353.0307071500125,72.59355703776484,-2113.0733055232267,-1120.1260400003437,649.0842959765151,0.0,0.0,0.0,0.0,0.0,0.0,-3.5,21.00990632720502,0.0,20.54152896825956,0.0,-3.5,21.34,18.91,22.17,20.32,21.73,-4.04,-3.5,8567.96,-1446.1,-3609.47,0.0,240.0,0.0,128.0,0.0,0.0,0.0,0.0,0.0,0.0,0.0,0.0,0.0,0.0,0.0,0.0,0.0,0.0
532.0,903.0,0.0,8273.87959980354,-0.0,0.0,12387.87959980354,0.0,24331.872886604844,0.0,0.0,0.0,24331.872886604848,0.25090132303413937,0.5828218509861451,0.5637755102040816,0.0,0.0,0.0,"[1.1391644348683556, 1.4707911644635274, 2.372512721592045, 0.8829090773442232, 1.6391556049180558, 1.188682834028885, 1.4767780540274416, 1.5402103359360453, 1.836594749317669]",20.86,0.0,0.0,0.0,260.4624319101396,60.73392924638951,-2106.6990335192395,-338.1940328400357,4145.852807326535,0.0,0.0,0.0,0.0,0.0,0.0,-3.9,20.8120752533093,0.0,20.45257282036826,0.0,-3.9,20.86,18.86,22.04,20.12,21.5,-4.45,-3.9,0.0,-1441.74,-3598.58,0.0,160.0,23.0,101.0,0.0,0.0,0.0,0.0,0.0,0.0,0.0,0.0,0.0,0.0,0.0,0.0,0.0,0.0
533.0,853.0,0.0,220.84900748332777,-0.0,0.0,6638.849007483328,0.0,634.7360864690188,0.0,0.0,0.0,634.7360864690188,0.0,0.5828218509861451,0.5637755102040816,0.0,0.0,0.0,"[1.1391644348683556, 1.4707911644635274, 2.372512721592045, 0.8829090773442232, 1.6391556049180558, 1.188682834028885, 1.4767780540274416, 1.5402103359360453, 1.836594749317669]",22.38,0.0,0.0,0.0,200.9907854655804,74.91953730677551,-2270.234482584907,-3491.7121549760027,0.0,0.0,0.0,0.0,0.0,0.0,0.0,-4.3,21.22149548950723,0.0,20.463475138197595,0.0,-4.3,22.38,18.88,22.04,21.0,22.23,-4.87,-4.3,7519.5,-1553.66,-3877.92,0.0,160.0,53.0,55.0,0.0,0.0,0.0,0.0,0.0,0.0,0.0,0.0,0.0,0.0,0.0,0.0,0.0,0.0
