,load_elec,grid,hp_elec,ev,pv,bat_pow,cool,load_th_sh,load_th_dhw,tes_pow,dh,hp_th,bat_soc,tes_soc,ev_soc,eh_th_in,eh_elec_in,eh_th_out,temp_slack,temp_zone_1,temp_zone_2,temp_update,Qsolar_1,QconvInt_1,QradInt_1,Qvent_1,Qconduc_1,Qheating_1,Qsolar_2,QconvInt_2,QradInt_2,Qvent_2,Qconduc_2,Qheating_2,temp_amb,temp_aggregate_1,temp_aggregate_2,temp_wall_1,temp_wall_2,_Tamb,_Tz_1,_TEW_1,_TIW_1,_T1_1,_T2_1,_Taeq_1,_Tvent_1,_Qheating_1,_Qinfvent_1,_Qenvelope_1,_Qsolar_1,_Qint_people_1,_Qint_lighting_1,_Qint_appliances_1,_Tz_2,_TEW_2,_TIW_2,_T1_2,_T2_2,_Taeq_2,_Tvent_2,_Qheating_2,_Qinfvent_2,_Qenvelope_2,_Qsolar_2,_Qint_people_2,_Qint_lighting_2,_Qint_appliances_2
390.0,1067.0,52666.30084952173,39091.07138609044,-0.0,0.0,-12244.897959183672,0.0,76947.19600800626,0.0,0.0,0.0,76947.19600800627,1.0,0.5,0.8,0.0,0.0,0.0,"[2.0, 2.0, 2.0, 2.0, 2.0, 2.0, 2.0, 2.0]",20.0,0.0,0.0,0.0,248.94575953187285,112.07650812895602,-1334.225514226645,-1391.9426156778686,10689.539449640863,0.0,0.0,0.0,0.0,0.0,0.0,-6.2,19.413486090077168,0.0,19.0,0.0,-6.2,20.0,18.0,20.0,20.0,20.0,-6.68,-6.2,11612.76,-931.21,-3754.64,0.0,268.0,46.0,37.0,0.0,0.0,0.0,0.0,0.0,0.0,0.0,0.0,0.0,0.0,0.0,0.0,0.0,0.0
391.0,974.0,4959.068975989197,0.0,-0.0,0.0,0.0,0.0,10006.01696797526,0.0,6441.770699976936,0.0,0.0,1.0,0.4726115191327511,0.8,15841.094524437001,3960.2736311092503,19801.36815554625,"[2.0, 2.0, 2.0, 2.0, 2.0, 2.0, 2.0, 2.0]",24.0,0.0,0.0,0.0,153.95235603855963,77.48928672047143,-1543.0165298117308,-7018.227891231846,22.596083973087588,0.0,0.0,0.0,0.0,0.0,0.0,-6.3,20.719428693098177,0.0,19.153125161242677,0.0,-6.3,24.0,17.91,20.4,22.21,22.39,-6.77,-6.3,6979.95,-1076.94,-4342.2,0.0,107.0,74.0,49.0,0.0,0.0,0.0,0.0,0.0,0.0,0.0,0.0,0.0,0.0,0.0,0.0,0.0,0.0
392.0,2137.0,25919.467347113463,23652.870010377894,-0.0,0.0,0.0,0.0,46558.509662338125,0.0,0.0,0.0,46558.509662338125,1.0,0.4726115191327511,0.8,0.0,0.0,0.0,"[2.0, 2.0, 2.0, 2.0, 2.0, 2.0, 2.0, 2.0]",20.0,0.0,0.0,1.880507940428844,181.31847982019286,103.98297185786639,-1334.225514226645,-1207.8688222182325,2264.2849106518015,0.0,0.0,0.0,0.0,0.0,0.0,-6.2,19.502037765789375,0.0,19.05815829088889,0.0,-6.2,20.0,17.67,20.45,19.04,20.15,-6.67,-6.2,9307.2,-931.21,-3754.64,2.97,114.0,116.0,61.0,0.0,0.0,0.0,0.0,0.0,0.0,0.0,0.0,0.0,0.0,0.0,0.0,0.0,0.0
393.0,2533.0,2536.137073420789,0.0,-0.0,9.54361194631514,0.0,0.0,43153.31919332961,0.0,43153.31919332961,0.0,0.0,1.0,0.2891365225624722,0.8,0.0,0.0,0.0,"[2.0, 2.0, 2.0, 2.0, 2.0, 2.0, 2.0, 2.0]",20.0,0.0,0.0,30.46416902516673,240.85054490536876,106.79674032711243,-1298.5782676633376,-1377.0921574731235,10620.582335950809,0.0,0.0,0.0,0.0,0.0,0.0,-5.5,19.41832849603581,0.0,18.919801866367322,0.0,-5.5,20.0,17.41,20.43,19.22,20.33,-5.94,-5.5,8284.42,-906.33,-3654.33,48.18,166.0,91.0,80.0,0.0,0.0,0.0,0.0,0.0,0.0,0.0,0.0,0.0,0.0,0.0,0.0,0.0,0.0
394.0,2498.0,0.0,8888.838028848222,-0.0,48.114691665943816,11338.723337182279,0.0,18513.744311903218,0.0,0.0,0.0,18513.74431190322,0.5179114227388487,0.2891365225624722,0.8,0.0,0.0,0.0,"[2.0, 2.0, 2.0, 2.0, 2.0, 2.0, 2.0, 2.0]",24.0,0.0,0.0,43.22092398310329,267.14208267463414,59.78467612746287,-1476.8145004798744,-7006.075405502705,0.0,0.0,0.0,0.0,0.0,0.0,0.0,-5.0,20.720990490258277,0.0,19.07712531169973,0.0,-5.0,24.0,17.38,20.78,22.02,22.59,-5.4,-5.0,0.0,-1030.73,-4155.9,68.35,92.0,46.0,143.0,0.0,0.0,0.0,0.0,0.0,0.0,0.0,0.0,0.0,0.0,0.0,0.0,0.0,0.0
395.0,1804.0,10673.316364183895,21393.513250329837,-0.0,396.2868051491406,12181.276662817723,0.0,45782.28936975772,0.0,0.0,0.0,45782.28936975772,0.0,0.2891365225624722,0.8,0.0,0.0,0.0,"[2.0, 2.0, 2.0, 2.0, 2.0, 2.0, 2.0, 2.0]",20.09,0.0,0.0,75.73615175625996,1456.9237155682583,72.17790354256887,-1247.3958582137498,-1324.99206807228,4137.281084122055,0.0,0.0,0.0,0.0,0.0,0.0,-4.4,19.53513203692847,0.0,18.99624134956288,0.0,-4.4,20.09,17.2,20.79,18.92,20.37,-4.82,-4.4,9969.26,-870.61,-3510.3,119.78,128.0,0.0,1003.0,0.0,0.0,0.0,0.0,0.0,0.0,0.0,0.0,0.0,0.0,0.0,0.0,0.0,0.0
396.0,6692.0,19462.368817949347,13286.662513960786,-0.0,613.6055401011822,0.0,0.0,28940.227314970973,0.0,0.0,0.0,28940.227314970973,0.0,0.2891365225624722,0.8,0.0,0.0,0.0,"[2.0, 2.0, 2.0, 2.0, 2.0, 2.0, 2.0, 2.0]",21.62,0.0,0.0,85.78500779440476,1380.1266352177065,76.98344070352833,-1304.5783332658336,-3596.5854699621264,0.0,0.0,0.0,0.0,0.0,0.0,0.0,-4.0,19.968593543922704,0.0,18.96402828109536,0.0,-4.0,21.62,17.07,20.85,20.06,21.27,-4.4,-4.0,0.0,-910.52,-3671.21,135.67,150.0,0.0,935.0,0.0,0.0,0.0,0.0,0.0,0.0,0.0,0.0,0.0,0.0,0.0,0.0,0.0,0.0
397.0,4296.0,20876.128378720605,16849.08878783861,-0.0,373.3410510116082,0.0,0.0,37020.94989829025,0.0,0.0,0.0,37020.94989829026,0.0,0.2891365225624722,0.8,0.0,0.0,0.0,"[2.0, 2.0, 2.0, 2.0, 2.0, 2.0, 2.0, 2.0]",20.0,0.0,0.0,75.39240563451007,1365.5122654495044,73.94836460186971,-1212.0063831524485,-1367.3318590548217,9383.215563173395,0.0,0.0,0.0,0.0,0.0,0.0,-3.8,19.417714736284392,0.0,18.84382619773899,0.0,-3.8,20.0,16.9,20.79,18.76,20.33,-4.23,-3.8,844.08,-845.91,-3410.71,119.23,124.0,9.0,937.0,0.0,0.0,0.0,0.0,0.0,0.0,0.0,0.0,0.0,0.0,0.0,0.0,0.0,0.0
398.0,3312.0,17610.633516675767,14287.889591421186,-0.0,77.30924232879562,0.0,0.0,31257.2521205113,0.0,0.0,0.0,31257.2521205113,0.0,0.2891365225624722,0.8,0.0,0.0,0.0,"[2.0, 2.0, 2.0, 2.0, 2.0, 2.0, 2.0, 2.0]",24.0,0.0,0.0,50.29978231548026,792.6146427224867,81.44120872783941,-1420.7973987375342,-7026.383496613929,0.0,0.0,0.0,0.0,0.0,0.0,0.0,-3.9,20.708064682828592,0.0,18.993934957998675,0.0,-3.9,24.0,16.92,21.07,21.69,22.64,-4.38,-3.9,1277.38,-991.64,-3998.26,79.55,167.0,23.0,492.0,0.0,0.0,0.0,0.0,0.0,0.0,0.0,0.0,0.0,0.0,0.0,0.0,0.0,0.0
399.0,9330.0,28830.57994489644,19356.88241326184,-0.0,0.45536808988087385,0.0,0.0,41792.95329902792,0.0,0.0,0.0,41792.95329902792,0.0,0.2891365225624722,0.8,0.0,0.0,0.0,"[2.0, 2.0, 2.0, 2.0, 2.0, 2.0, 2.0, 2.0]",20.38,0.0,0.0,17.85444249411764,981.4552246292537,84.0969003167907,-1251.6208566934467,-1749.7389394163997,9453.792389467442,0.0,0.0,0.0,0.0,0.0,0.0,-4.2,19.614289600017354,0.0,18.93299874869181,0.0,-4.2,20.38,16.8,21.07,18.9,20.61,-4.71,-4.2,2001.53,-873.56,-3522.19,28.24,148.0,30.0,640.0,0.0,0.0,0.0,0.0,0.0,0.0,0.0,0.0,0.0,0.0,0.0,0.0,0.0,0.0
400.0,8205.0,117729.21778648427,92935.57169755184,-0.0,0.0,-16000.0,0.0,196224.91635759032,0.0,0.0,0.0,196224.9163575903,0.6533333333333333,0.2891365225624722,0.8,0.0,0.0,0.0,"[2.0, 2.0, 2.0, 2.0, 2.0, 2.0, 2.0, 2.0]",24.0,0.0,0.0,0.0,4103.342507760176,180.27087428809799,-1461.5371090955996,-6863.700250521164,0.0,0.0,0.0,0.0,0.0,0.0,0.0,-4.7,20.789041832657897,0.0,19.077771364552056,0.0,-4.7,24.0,16.82,21.33,21.67,22.79,-5.25,-4.7,10935.2,-1020.07,-4112.91,0.0,142.0,75.0,2932.0,0.0,0.0,0.0,0.0,0.0,0.0,0.0,0.0,0.0,0.0,0.0,0.0,0.0,0.0
401.0,5414.0,0.0,3503.325847912983,-0.0,0.0,8917.325847912984,0.0,7263.357356131704,0.0,0.0,0.0,7263.357356131704,0.27419532959553644,0.2891365225624722,0.8,0.0,0.0,0.0,"[2.0, 2.0, 2.0, 2.0, 2.0, 2.0, 2.0, 2.0]",22.05,0.0,0.0,0.0,3282.5020724461606,228.2630151455748,-1382.4868117778396,-3984.8741783981786,5647.660006007076,0.0,0.0,0.0,0.0,0.0,0.0,-5.1,20.216850516733384,0.0,19.063188989793886,0.0,-5.1,22.05,16.74,21.39,19.65,21.35,-5.63,-5.1,0.0,-964.9,-3890.46,0.0,296.0,112.0,2244.0,0.0,0.0,0.0,0.0,0.0,0.0,0.0,0.0,0.0,0.0,0.0,0.0,0.0,0.0
402.0,8037.0,22983.96327024336,14832.043453892144,-0.0,0.0,0.0,0.0,30185.308912501416,0.0,0.0,0.0,30185.308912501416,0.8155304088451656,0.2891365225624722,0.8,0.0,0.0,0.0,"[1.8616351344697435, 2.0, 2.0, 2.0, 0.9132785693338548, 1.7255612915367635, 2.0, 2.0]",23.86,0.0,0.0,0.0,3034.272703589202,181.63033545863257,-1495.230638771871,-6495.20568710637,0.0,0.0,0.0,0.0,0.0,0.0,0.0,-5.5,20.829936106796627,0.0,19.16359805931535,0.0,-5.5,23.86,16.74,21.59,21.18,22.58,-6.03,-5.5,10147.57,-1043.59,-4207.73,0.0,220.0,80.0,2105.0,0.0,0.0,0.0,0.0,0.0,0.0,0.0,0.0,0.0,0.0,0.0,0.0,0.0,0.0
403.0,5758.0,0.0,6997.743477003056,-0.0,0.0,12755.743477003056,0.0,14041.264073633272,0.0,0.0,0.0,14041.264073633276,0.2731943766596615,0.2891365225624722,0.8,0.0,0.0,0.0,"[1.8616351344697435, 2.0, 2.0, 2.0, 0.9132785693338548, 1.7255612915367635, 2.0, 2.0]",21.56,0.0,0.0,0.0,689.3111074001959,121.33981331422657,-1393.1285919771656,-3150.0438002614183,795.4899915197566,0.0,0.0,0.0,0.0,0.0,0.0,-5.8,20.128124524979867,0.0,19.11421874582321,0.0,-5.8,21.56,16.64,21.59,19.42,21.31,-6.34,-5.8,1576.14,-972.32,-3920.4,0.0,176.0,93.0,404.0,0.0,0.0,0.0,0.0,0.0,0.0,0.0,0.0,0.0,0.0,0.0,0.0,0.0,0.0
404.0,8189.0,8230.150753768845,0.0,-0.0,0.0,0.0,0.0,33688.243564583696,0.0,33688.2435645837,0.0,0.0,0.2731943766596615,0.14590419448175918,0.8,0.0,0.0,0.0,"[1.8616351344697435, 2.0, 2.0, 2.0, 0.9132785693338548, 1.7255612915367635, 2.0, 2.0]",20.14,0.0,0.0,0.0,1051.9480670405817,136.45196307040175,-1341.271694908439,-1256.60921147497,1421.8522289338682,0.0,0.0,0.0,0.0,0.0,0.0,-6.2,19.61755794330628,0.0,18.97457058010381,0.0,-6.2,20.14,16.48,21.47,18.8,20.83,-6.73,-6.2,5100.02,-936.13,-3774.47,0.0,170.0,108.0,672.0,0.0,0.0,0.0,0.0,0.0,0.0,0.0,0.0,0.0,0.0,0.0,0.0,0.0,0.0
405.0,7791.0,3315.1491002362973,0.0,-0.0,0.0,4492.426645264884,0.0,16953.297569590522,0.0,16953.297569590522,0.0,0.0,0.08218984242220895,0.07382384767227566,0.8,0.0,0.0,0.0,"[1.8616351344697435, 2.0, 2.0, 2.0, 0.9132785693338548, 1.7255612915367635, 2.0, 2.0]",20.14,0.0,0.0,0.0,1234.1262156706684,152.16480497169687,-1361.6415500874718,-1481.3744047099428,1470.5208841920132,0.0,0.0,0.0,0.0,0.0,0.0,-6.6,19.51068939684533,0.0,18.82081219579777,0.0,-6.6,20.14,16.31,21.33,18.8,20.8,-7.14,-6.6,0.0,-950.35,-3831.79,0.0,180.0,123.0,799.0,0.0,0.0,0.0,0.0,0.0,0.0,0.0,0.0,0.0,0.0,0.0,0.0,0.0,0.0
406.0,7212.0,77341.90178185097,53743.19227294171,-0.0,0.0,-16000.0,0.0,32833.02467661767,0.0,-68856.7274242639,0.0,101689.75210088157,0.7355231757555423,0.35498881798801996,0.8,0.0,0.0,0.0,"[1.8616351344697435, 2.0, 2.0, 2.0, 0.9132785693338548, 1.7255612915367635, 2.0, 2.0]",20.14,0.0,0.0,0.0,933.8152447476149,106.38574043834613,-1382.0114052665047,-1693.0405047719014,2044.496337666564,0.0,0.0,0.0,0.0,0.0,0.0,-7.0,19.409996836290134,0.0,18.67510739909183,0.0,-7.0,20.14,16.14,21.21,18.72,20.72,-7.5,-7.0,10111.16,-964.57,-3889.12,0.0,194.0,47.0,579.0,0.0,0.0,0.0,0.0,0.0,0.0,0.0,0.0,0.0,0.0,0.0,0.0,0.0,0.0
407.0,2821.0,0.0,6324.905093770355,-0.0,0.0,9145.905093770354,0.0,11786.72688268909,0.0,0.0,0.0,11786.72688268909,0.3466666666666667,0.35498881798801996,0.8,0.0,0.0,0.0,"[1.8616351344697435, 2.0, 2.0, 2.0, 0.9132785693338548, 1.7255612915367635, 2.0, 2.0]",20.14,0.0,0.0,0.0,403.7577843803267,82.32643925748984,-1397.2887966507792,-1883.3551950706537,2802.023855741248,0.0,0.0,0.0,0.0,0.0,0.0,-7.3,19.319407121220255,0.0,18.54279785803166,0.0,-7.3,20.14,15.99,21.1,18.69,20.68,-7.81,-7.3,7877.47,-975.23,-3932.11,0.0,202.0,22.0,188.0,0.0,0.0,0.0,0.0,0.0,0.0,0.0,0.0,0.0,0.0,0.0,0.0,0.0,0.0
408.0,1111.0,43143.87739349909,25817.158006531594,-0.0,0.0,-16000.0,0.0,47372.99202143116,0.0,0.0,0.0,47372.99202143116,1.0,0.35498881798801996,0.7081632653061225,0.0,0.0,0.0,"[1.8616351344697435, 2.0, 2.0, 2.0, 0.9132785693338548, 1.7255612915367635, 2.0, 2.0]",20.14,0.0,0.0,0.0,19.055991952655585,0.44261526482521135,-1412.566188035054,-2046.8581149204026,11178.999237246511,0.0,0.0,0.0,0.0,0.0,0.0,-7.6,19.241548160588806,0.0,18.427568921273327,0.0,-7.6,20.14,15.84,21.02,18.7,20.69,-8.07,-7.6,7942.24,-985.89,-3975.1,0.0,0.0,0.0,14.0,0.0,0.0,0.0,0.0,0.0,0.0,0.0,0.0,0.0,0.0,0.0,0.0,0.0,0.0
409.0,1045.0,3492.5057022639594,17796.44317375264,-0.0,0.0,15366.400000000001,0.0,32316.126206017867,0.0,0.0,0.0,32316.126206017867,0.3466666666666667,0.35498881798801996,0.7081632653061225,0.0,0.0,0.0,"[1.8616351344697435, 2.0, 2.0, 2.0, 0.9132785693338548, 1.7255612915367635, 2.0, 2.0]",23.86,0.0,0.0,0.0,62.61254498729695,1.4543072987114152,-1612.3573060513093,-7291.5759124690985,8839.998220317444,0.0,0.0,0.0,0.0,0.0,0.0,-7.8,20.453809319894173,0.0,18.58425809977216,0.0,-7.8,23.86,15.88,21.29,21.36,22.79,-8.27,-7.8,0.0,-1125.33,-4537.33,0.0,0.0,0.0,46.0,0.0,0.0,0.0,0.0,0.0,0.0,0.0,0.0,0.0,0.0,0.0,0.0,0.0,0.0
410.0,1922.0,37120.66623846256,19013.06290727024,-0.0,0.0,-16000.0,0.0,33981.58415464579,0.0,0.0,0.0,33981.58415464579,1.0,0.35498881798801996,0.7081632653061225,0.0,0.0,0.0,"[1.8616351344697435, 2.0, 2.0, 2.0, 0.9132785693338548, 1.7255612915367635, 2.0, 2.0]",23.86,0.0,0.0,0.0,80.30739465761998,1.865307187477687,-1627.6346974355838,-6990.507068548179,8536.138181332135,0.0,0.0,0.0,0.0,0.0,0.0,-8.1,20.599541344159828,0.0,18.76948937363533,0.0,-8.1,23.86,15.94,21.59,21.13,22.77,-8.56,-8.1,1003.16,-1136.0,-4580.33,0.0,0.0,0.0,59.0,0.0,0.0,0.0,0.0,0.0,0.0,0.0,0.0,0.0,0.0,0.0,0.0,0.0,0.0
411.0,1071.0,19872.4497824855,18702.08753357307,-0.0,0.0,0.0,0.0,33425.78544494542,0.0,0.0,0.0,33425.78544494542,1.0,0.35498881798801996,0.7081632653061225,0.0,0.0,0.0,"[1.8616351344697435, 2.0, 2.0, 2.0, 0.9132785693338548, 1.7255612915367635, 2.0, 2.0]",23.86,0.0,0.0,0.0,77.58511009295489,1.8020764353598,-1627.6346974355838,-6721.9533954106855,5627.7017579369885,0.0,0.0,0.0,0.0,0.0,0.0,-8.1,20.728743255248137,0.0,18.933442161874122,0.0,-8.1,23.86,16.0,21.87,21.15,22.91,-8.56,-8.1,1914.42,-1136.0,-4580.33,0.0,0.0,0.0,57.0,0.0,0.0,0.0,0.0,0.0,0.0,0.0,0.0,0.0,0.0,0.0,0.0,0.0,0.0
412.0,1315.0,27329.161126195184,25877.51532056421,-0.0,0.0,0.0,0.0,46003.55443212349,0.0,0.0,0.0,46003.55443212349,1.0,0.35498881798801996,0.7081632653061225,0.0,0.0,0.0,"[1.8616351344697435, 2.0, 2.0, 2.0, 0.9132785693338548, 1.7255612915367635, 2.0, 2.0]",22.59,0.0,0.0,0.0,76.36724594560472,25.734916111980308,-1567.9819729425922,-4740.712411526444,8851.587999190962,0.0,0.0,0.0,0.0,0.0,0.0,-8.2,20.406864170545923,0.0,18.991703094379712,0.0,-8.2,22.59,15.99,21.99,20.25,22.32,-8.65,-8.2,10758.47,-1094.36,-4412.46,0.0,80.0,0.0,14.0,0.0,0.0,0.0,0.0,0.0,0.0,0.0,0.0,0.0,0.0,0.0,0.0,0.0,0.0
413.0,2356.0,0.0,8136.6018976511805,-0.0,0.0,10492.60189765118,0.0,14387.212909100981,0.0,0.0,0.0,14387.212909100981,0.5538859737393206,0.35498881798801996,0.7081632653061225,0.0,0.0,0.0,"[1.8616351344697435, 2.0, 2.0, 2.0, 0.9132785693338548, 1.7255612915367635, 2.0, 2.0]",23.86,0.0,0.0,0.0,119.92379898024609,26.746608145866514,-1637.8196250251003,-6415.692906109629,7603.896928608348,0.0,0.0,0.0,0.0,0.0,0.0,-8.3,20.876677336042654,0.0,19.116594919232597,0.0,-8.3,23.86,16.03,22.2,21.26,23.15,-8.75,-8.3,0.0,-1143.11,-4608.99,0.0,80.0,0.0,46.0,0.0,0.0,0.0,0.0,0.0,0.0,0.0,0.0,0.0,0.0,0.0,0.0,0.0,0.0
414.0,6888.0,34960.205550485756,15104.79458199518,-0.0,0.0,-12792.609940738153,0.0,26708.43410221814,0.0,0.0,0.0,26708.43410221814,0.7833937367956524,0.24143255054661628,0.7081632653061225,0.0,0.0,0.0,"[1.8616351344697435, 2.0, 2.0, 2.0, 0.9132785693338548, 1.7255612915367635, 1.8392139056317056, 1.4880337817511808]",23.71,0.0,0.0,0.0,157.2477531431542,52.00729361696267,-1630.3380610650936,-6007.865017063513,0.0,0.0,0.0,0.0,0.0,0.0,0.0,-8.3,20.925512087245526,0.0,19.233076300149428,0.0,-8.3,23.71,16.07,22.39,21.08,23.11,-8.75,-8.3,0.0,-1137.88,-4587.93,0.0,101.0,32.0,59.0,0.0,0.0,0.0,0.0,0.0,0.0,0.0,0.0,0.0,0.0,0.0,0.0,0.0,0.0
415.0,1324.0,0.0,0.0,-0.0,0.0,1324.0,0.0,10447.602299930462,0.0,10447.602299930462,0.0,0.0,0.7271012197888497,0.19701247274078948,0.7081632653061225,0.0,0.0,0.0,"[1.8616351344697435, 2.0, 2.0, 2.0, 0.9132785693338548, 1.7255612915367635, 1.8392139056317056, 1.4880337817511808]",20.14,0.0,0.0,0.0,189.91516791913529,73.63221084128027,-1448.213434598361,-941.6558659102096,2132.99775130063,0.0,0.0,0.0,0.0,0.0,0.0,-8.3,19.77537566285756,0.0,19.085826315342693,0.0,-8.3,20.14,15.94,22.23,18.52,21.18,-8.75,-8.3,2734.1,-1010.77,-4075.42,0.0,148.0,44.0,57.0,0.0,0.0,0.0,0.0,0.0,0.0,0.0,0.0,0.0,0.0,0.0,0.0,0.0,0.0
416.0,2390.0,13684.008708604428,27225.588665061405,-0.0,0.0,16000.0,0.0,48659.63137521558,0.0,0.0,0.0,48659.631375215584,0.04682911094531228,0.19701247274078948,0.7081632653061225,0.0,0.0,0.0,"[1.8616351344697435, 2.0, 2.0, 2.0, 0.9132785693338548, 1.7255612915367635, 1.8392139056317056, 1.4880337817511808]",20.14,0.0,0.0,1.8796788225722028,165.1280505671847,57.38190754698313,-1438.0285070088448,-1209.4061749121947,2428.192539630182,0.0,0.0,0.0,0.0,0.0,0.0,-8.1,19.64592015512724,0.0,18.907168367212073,0.0,-8.1,20.14,15.79,22.03,18.71,21.24,-8.54,-8.1,6168.88,-1003.66,-4046.75,2.97,107.0,38.0,61.0,0.0,0.0,0.0,0.0,0.0,0.0,0.0,0.0,0.0,0.0,0.0,0.0,0.0,0.0
417.0,2275.0,92305.93811612266,73569.40842554205,-0.0,0.0,-16000.0,0.0,54294.25043808189,0.0,-80000.0,0.0,134294.2504380819,0.7001624442786456,0.5236791394074563,0.7081632653061225,0.0,0.0,0.0,"[1.8616351344697435, 2.0, 2.0, 2.0, 0.9132785693338548, 1.7255612915367635, 1.8392139056317056, 1.4880337817511808]",20.14,0.0,0.0,11.33051328509806,321.08630049549765,62.535213844590984,-1417.658651829812,-1448.7029632119354,10215.781137235104,0.0,0.0,0.0,0.0,0.0,0.0,-7.7,19.52961939227153,0.0,18.746452135884837,0.0,-7.7,20.14,15.65,21.85,18.65,21.15,-8.17,-7.7,8631.82,-989.45,-3989.43,17.92,114.0,37.0,172.0,0.0,0.0,0.0,0.0,0.0,0.0,0.0,0.0,0.0,0.0,0.0,0.0,0.0,0.0
418.0,3833.0,0.0,0.0,-0.0,0.48234722288521037,3832.5176527771146,0.0,1809.9300075929257,0.0,1809.9300075929257,0.0,0.0,0.5372152651639723,0.5159838587629285,0.7081632653061225,0.0,0.0,0.0,"[1.8616351344697435, 2.0, 2.0, 2.0, 0.9132785693338548, 1.7255612915367635, 1.8392139056317056, 1.4880337817511808]",23.86,0.0,0.0,16.8687207122049,427.8285110573653,57.79290743574939,-1591.9874508722767,-6764.5224150060085,119.73241773484573,0.0,0.0,0.0,0.0,0.0,0.0,-7.4,20.706133179008543,0.0,18.861794264891245,0.0,-7.4,23.86,15.7,22.03,21.28,23.16,-7.88,-7.4,0.0,-1111.12,-4480.01,26.68,122.0,20.0,248.0,0.0,0.0,0.0,0.0,0.0,0.0,0.0,0.0,0.0,0.0,0.0,0.0,0.0,0.0
419.0,6440.0,0.0,0.0,-0.0,1.9349633433681903,12635.30303665663,0.0,33281.67568327909,30986.19,58070.62768327909,0.0,0.0,0.0,0.2690849315381024,0.7081632653061225,24788.952,6197.238,30986.19,"[1.8616351344697435, 2.0, 2.0, 2.0, 0.9132785693338548, 1.7255612915367635, 1.8392139056317056, 1.4880337817511808]",20.14,0.0,0.0,20.544875748210366,471.0985078220419,57.66644593151363,-1392.196332856021,-1424.663498843408,2272.177056922125,0.0,0.0,0.0,0.0,0.0,0.0,-7.2,19.539673562658244,0.0,18.75239931931175,0.0,-7.2,20.14,15.6,21.9,18.35,20.97,-7.68,-7.2,7639.29,-971.67,-3917.78,32.49,156.0,0.0,264.0,0.0,0.0,0.0,0.0,0.0,0.0,0.0,0.0,0.0,0.0,0.0,0.0,0.0,0.0
420.0,10329.0,42270.98235335195,18282.881164906183,-0.0,4.723753000698585,-13452.47002967971,0.0,34768.10391785673,0.0,0.0,0.0,34768.10391785673,0.5493091928785881,0.2690849315381024,0.7081632653061225,0.0,0.0,0.0,"[1.8616351344697435, 2.0, 2.0, 2.0, 0.9132785693338548, 1.7255612915367635, 1.8392139056317056, 1.4880337817511808]",20.14,0.0,0.0,24.39923151361326,1786.8932604326628,84.63436170979276,-1376.9189414717464,-1644.1402647471048,8871.125054795993,0.0,0.0,0.0,0.0,0.0,0.0,-6.9,19.43313986102521,0.0,18.606945224724708,0.0,-6.9,20.14,15.49,21.73,18.56,21.05,-7.38,-6.9,179.09,-961.01,-3874.79,38.59,144.0,0.0,1237.0,0.0,0.0,0.0,0.0,0.0,0.0,0.0,0.0,0.0,0.0,0.0,0.0,0.0,0.0
421.0,11023.0,0.0,0.0,-0.0,12850.298265268788,-1827.2982652687879,0.0,21608.00103561352,0.0,21608.00103561352,0.0,0.0,0.6239238720437303,0.17721417883566398,0.7081632653061225,0.0,0.0,0.0,"[1.8616351344697435, 2.0, 2.0, 2.0, 0.9132785693338548, 1.7255612915367635, 1.8392139056317056, 1.4880337817511808]",23.86,0.0,0.0,975.6727598406097,4600.589275216501,140.40388507776976,-1454.4909284138055,-6955.241483619619,1460.351792780715,0.0,0.0,0.0,0.0,0.0,0.0,-4.7,20.604362222685243,0.0,18.71708976554796,0.0,-4.7,23.86,15.55,21.89,21.04,22.95,-4.66,-4.7,5492.81,-1015.15,-4093.08,1543.04,112.0,0.0,3321.0,0.0,0.0,0.0,0.0,0.0,0.0,0.0,0.0,0.0,0.0,0.0,0.0,0.0,0.0
422.0,4563.0,0.0,12930.816513377977,-0.0,11182.61907840057,6311.197434977406,0.0,28534.96479907365,0.0,0.0,0.0,28534.96479907365,0.3555906477674802,0.17721417883566398,0.6653061224489797,0.0,0.0,0.0,"[1.8616351344697435, 2.0, 2.0, 2.0, 0.9132785693338548, 1.7255612915367635, 1.8392139056317056, 1.4880337817511808]",23.28,0.0,0.0,937.2701774295471,1502.4861624926527,72.93667256798352,-1373.7524746768042,-5916.774384701748,5973.908643341188,0.0,0.0,0.0,0.0,0.0,0.0,-3.7,20.513815793854953,0.0,18.82737473757342,0.0,-3.7,23.28,15.64,22.02,20.26,22.44,-3.74,-3.7,0.0,-958.8,-3865.88,1482.3,127.0,0.0,1037.0,0.0,0.0,0.0,0.0,0.0,0.0,0.0,0.0,0.0,0.0,0.0,0.0,0.0,0.0
423.0,3188.0,0.0,9810.22426354105,-0.0,4634.732228049916,8363.492035491134,0.0,21742.1493726532,0.0,0.0,0.0,21742.1493726532,0.0,0.17721417883566398,0.6653061224489797,0.0,0.0,0.0,"[1.8616351344697435, 2.0, 2.0, 2.0, 0.9132785693338548, 1.7255612915367635, 1.8392139056317056, 1.4880337817511808]",23.86,0.0,0.0,530.8668821110741,1654.8624590464058,80.93536271089631,-1398.4738266714655,-6498.123837676194,5621.7350941284585,0.0,0.0,0.0,0.0,0.0,0.0,-3.6,20.82215509732847,0.0,19.015761870376323,0.0,-3.6,23.86,15.79,22.24,21.14,23.16,-3.98,-3.6,6471.3,-976.06,-3935.44,839.57,123.0,10.0,1150.0,0.0,0.0,0.0,0.0,0.0,0.0,0.0,0.0,0.0,0.0,0.0,0.0,0.0,0.0
424.0,4542.0,59974.833440890136,54473.23415915008,-0.0,0.0,-659.7251145356099,0.0,36573.1565451191,0.0,-80000.0,0.0,116573.1565451191,0.02693877551020407,0.5038808455023307,0.6653061224489797,0.0,0.0,0.0,"[1.8616351344697435, 2.0, 2.0, 2.0, 0.9132785693338548, 1.7255612915367635, 1.8392139056317056, 1.4880337817511808]",23.86,0.0,0.0,0.9420531017726248,1084.1856474116155,103.88812572968955,-1439.213537029531,-6262.553039706609,0.0,0.0,0.0,0.0,0.0,0.0,0.0,-4.4,20.93955476462199,0.0,19.17714338568206,0.0,-4.4,23.86,15.93,22.42,21.04,23.15,-5.28,-4.4,0.0,-1004.49,-4050.09,1.49,123.0,74.0,724.0,0.0,0.0,0.0,0.0,0.0,0.0,0.0,0.0,0.0,0.0,0.0,0.0,0.0,0.0
425.0,8350.0,21995.681501489584,13535.703093982132,-0.0,0.0,0.0,0.0,28192.272752695637,0.0,0.0,0.0,28192.272752695637,0.02693877551020407,0.5038808455023307,0.6653061224489797,0.0,0.0,0.0,"[1.8616351344697435, 2.0, 2.0, 2.0, 0.9132785693338548, 1.7255612915367635, 1.8392139056317056, 1.4880337817511808]",20.72,0.0,0.0,0.0,1983.6141397634608,196.9954082232793,-1309.97594516076,-1769.9044580123036,7439.273499696525,0.0,0.0,0.0,0.0,0.0,0.0,-5.0,19.955156348206852,0.0,19.087892104217506,0.0,-5.0,20.72,15.88,22.29,18.78,21.41,-5.85,-5.0,5854.87,-914.29,-3686.4,0.0,94.0,217.0,1385.0,0.0,0.0,0.0,0.0,0.0,0.0,0.0,0.0,0.0,0.0,0.0,0.0,0.0,0.0
426.0,10457.0,34960.205550485756,15104.79458199518,-0.0,0.0,-12792.609940738153,0.0,1773.6785847596566,0.0,0.0,0.0,26708.43410221814,0.7833937367956524,0.24143255054661628,0.7081632653061225,0.0,0.0,0.0,"[1.8616351344697435, 2.0, 2.0, 2.0, 0.9132785693338548, 1.7255612915367635, 1.8392139056317056, 1.4880337817511808]",23.86,0.0,0.0,0.0,6600.608761435443,321.3070668870466,-1495.230638771871,-6282.393162922974,0.0,0.0,0.0,0.0,0.0,0.0,0.0,-5.5,20.933309774469098,0.0,19.17156991071042,0.0,-5.5,23.86,15.94,22.4,21.14,23.19,-6.34,-5.5,0.0,-1043.59,-4207.73,0.0,117.0,235.0,4763.0,0.0,0.0,0.0,0.0,0.0,0.0,0.0,0.0,0.0,0.0,0.0,0.0,0.0,0.0
427.0,6335.0,0.0,0.0,-0.0,0.0,1324.0,0.0,10447.602299930462,0.0,10447.602299930462,0.0,0.0,0.7271012197888497,0.19701247274078948,0.7081632653061225,0.0,0.0,0.0,"[1.8616351344697435, 2.0, 2.0, 2.0, 0.9132785693338548, 1.7255612915367635, 1.8392139056317056, 1.4880337817511808]",20.14,0.0,0.0,0.0,1814.1877451468051,210.43194304833042,-1336.1792311136812,-929.9432465780637,2132.99775130063,0.0,0.0,0.0,0.0,0.0,0.0,-6.1,19.77537566285756,0.0,19.085826315342693,0.0,-6.1,20.14,15.94,22.23,18.52,21.18,-6.94,-6.1,2734.1,-932.58,-3760.14,0.0,220.0,181.0,1198.0,0.0,0.0,0.0,0.0,0.0,0.0,0.0,0.0,0.0,0.0,0.0,0.0,0.0,0.0
428.0,8823.0,13684.008708604428,27225.588665061405,-0.0,0.0,16000.0,0.0,48659.63137521558,0.0,0.0,0.0,48659.631375215584,0.04682911094531228,0.19701247274078948,0.7081632653061225,0.0,0.0,0.0,"[1.8616351344697435, 2.0, 2.0, 2.0, 0.9132785693338548, 1.7255612915367635, 1.8392139056317056, 1.4880337817511808]",20.14,0.0,0.0,0.0,878.3666065094369,108.72527826670799,-1366.73401388223,-1202.711293313189,2428.192539630182,0.0,0.0,0.0,0.0,0.0,0.0,-6.7,19.64592015512724,0.0,18.907168367212073,0.0,-6.7,20.14,15.79,22.03,18.71,21.24,-7.51,-6.7,6168.88,-953.9,-3846.13,0.0,157.0,73.0,555.0,0.0,0.0,0.0,0.0,0.0,0.0,0.0,0.0,0.0,0.0,0.0,0.0,0.0,0.0
429.0,6937.0,92305.93811612266,73569.40842554205,-0.0,0.0,-16000.0,0.0,54294.25043808189,0.0,-80000.0,0.0,134294.2504380819,0.7001624442786456,0.5236791394074563,0.7081632653061225,0.0,0.0,0.0,"[1.8616351344697435, 2.0, 2.0, 2.0, 0.9132785693338548, 1.7255612915367635, 1.8392139056317056, 1.4880337817511808]",20.14,0.0,0.0,0.0,631.5700190022995,14.669534491349957,-1392.196332856021,-1447.6153908774802,10215.781137235104,0.0,0.0,0.0,0.0,0.0,0.0,-7.2,19.52961939227153,0.0,18.746452135884837,0.0,-7.2,20.14,15.65,21.85,18.65,21.15,-8.0,-7.2,8631.82,-971.67,-3917.78,0.0,0.0,0.0,464.0,0.0,0.0,0.0,0.0,0.0,0.0,0.0,0.0,0.0,0.0,0.0,0.0,0.0,0.0
430.0,4126.0,0.0,0.0,-0.0,0.0,3832.5176527771146,0.0,1809.9300075929257,0.0,1809.9300075929257,0.0,0.0,0.5372152651639723,0.5159838587629285,0.7081632653061225,0.0,0.0,0.0,"[1.8616351344697435, 2.0, 2.0, 2.0, 0.9132785693338548, 1.7255612915367635, 1.8392139056317056, 1.4880337817511808]",23.86,0.0,0.0,0.0,274.9507410311735,6.38630596390666,-1612.3573060513093,-6769.006944802522,119.73241773484573,0.0,0.0,0.0,0.0,0.0,0.0,-7.8,20.706133179008543,0.0,18.861794264891245,0.0,-7.8,23.86,15.7,22.03,21.28,23.16,-8.57,-7.8,0.0,-1125.33,-4537.33,0.0,0.0,0.0,202.0,0.0,0.0,0.0,0.0,0.0,0.0,0.0,0.0,0.0,0.0,0.0,0.0,0.0,0.0
431.0,2256.0,0.0,0.0,-0.0,0.0,12635.30303665663,0.0,33281.67568327909,0.0,58070.62768327909,0.0,0.0,0.0,0.2690849315381024,0.7081632653061225,24788.952,6197.238,30986.19,"[1.8616351344697435, 2.0, 2.0, 2.0, 0.9132785693338548, 1.7255612915367635, 1.8392139056317056, 1.4880337817511808]",20.14,0.0,0.0,0.0,166.05935844457014,3.8570758791911506,-1453.3058983931194,-1433.9050534421788,2272.177056922125,0.0,0.0,0.0,0.0,0.0,0.0,-8.4,19.539673562658244,0.0,18.75239931931175,0.0,-8.4,20.14,15.6,21.9,18.35,20.97,-9.11,-8.4,7639.29,-1014.32,-4089.75,0.0,0.0,0.0,122.0,0.0,0.0,0.0,0.0,0.0,0.0,0.0,0.0,0.0,0.0,0.0,0.0,0.0,0.0
432.0,1762.0,42270.98235335195,18282.881164906183,-0.0,0.0,-13452.47002967971,0.0,34768.10391785673,0.0,0.0,0.0,34768.10391785673,0.5493091928785881,0.2690849315381024,0.7081632653061225,0.0,0.0,0.0,"[1.8616351344697435, 2.0, 2.0, 2.0, 0.9132785693338548, 1.7255612915367635, 1.8392139056317056, 1.4880337817511808]",20.14,0.0,0.0,0.0,520.3861862559781,60.57506052893646,-1488.9531449564263,-1659.9238253699878,8871.125054795993,0.0,0.0,0.0,0.0,0.0,0.0,-9.1,19.43313986102521,0.0,18.606945224724708,0.0,-9.1,20.14,15.49,21.73,18.56,21.05,-9.82,-9.1,179.09,-1039.2,-4190.06,0.0,160.0,1.0,298.0,0.0,0.0,0.0,0.0,0.0,0.0,0.0,0.0,0.0,0.0,0.0,0.0,0.0,0.0
433.0,2210.0,0.0,0.0,-0.0,0.0,-1827.2982652687879,0.0,21608.00103561352,0.0,21608.00103561352,0.0,0.0,0.6239238720437303,0.17721417883566398,0.7081632653061225,0.0,0.0,0.0,"[1.8616351344697435, 2.0, 2.0, 2.0, 0.9132785693338548, 1.7255612915367635, 1.8392139056317056, 1.4880337817511808]",23.86,0.0,0.0,0.0,208.54132546684372,52.76606264237733,-1719.299045741231,-6993.7315740662225,1460.351792780715,0.0,0.0,0.0,0.0,0.0,0.0,-9.9,20.604362222685243,0.0,18.71708976554796,0.0,-9.9,23.86,15.55,21.89,21.04,22.95,-10.6,-9.9,5492.81,-1199.97,-4838.28,0.0,160.0,0.0,69.0,0.0,0.0,0.0,0.0,0.0,0.0,0.0,0.0,0.0,0.0,0.0,0.0,0.0,0.0
434.0,1709.0,0.0,12930.816513377977,-0.0,0.0,6311.197434977406,0.0,28534.96479907365,0.0,0.0,0.0,28534.96479907365,0.3555906477674802,0.17721417883566398,0.6653061224489797,0.0,0.0,0.0,"[1.8616351344697435, 2.0, 2.0, 2.0, 0.9132785693338548, 1.7255612915367635, 1.8392139056317056, 1.4880337817511808]",23.28,0.0,0.0,0.0,179.9573375378603,52.102139745139496,-1730.2249403098772,-5966.169531770056,5973.908643341188,0.0,0.0,0.0,0.0,0.0,0.0,-10.7,20.513815793854953,0.0,18.82737473757342,0.0,-10.7,23.28,15.64,22.02,20.26,22.44,-11.36,-10.7,0.0,-1207.6,-4869.02,0.0,160.0,0.0,48.0,0.0,0.0,0.0,0.0,0.0,0.0,0.0,0.0,0.0,0.0,0.0,0.0,0.0,0.0
435.0,1360.0,0.0,9810.22426354105,-0.0,0.0,8363.492035491134,0.0,21742.1493726532,0.0,0.0,0.0,21742.1493726532,0.0,0.17721417883566398,0.6653061224489797,0.0,0.0,0.0,"[1.8616351344697435, 2.0, 2.0, 2.0, 0.9132785693338548, 1.7255612915367635, 1.8392139056317056, 1.4880337817511808]",23.86,0.0,0.0,0.0,279.32072414813587,54.4100621974424,-1785.5010750730876,-6549.215364115826,5621.7350941284585,0.0,0.0,0.0,0.0,0.0,0.0,-11.2,20.82215509732847,0.0,19.015761870376323,0.0,-11.2,23.86,15.79,22.24,21.14,23.16,-11.87,-11.2,6471.3,-1246.18,-5024.58,0.0,160.0,0.0,121.0,0.0,0.0,0.0,0.0,0.0,0.0,0.0,0.0,0.0,0.0,0.0,0.0,0.0,0.0
436.0,1994.0,59974.833440890136,54473.23415915008,-0.0,0.0,-659.7251145356099,0.0,36573.1565451191,0.0,-80000.0,0.0,116573.1565451191,0.02693877551020407,0.5038808455023307,0.6653061224489797,0.0,0.0,0.0,"[1.8616351344697435, 2.0, 2.0, 2.0, 0.9132785693338548, 1.7255612915367635, 1.8392139056317056, 1.4880337817511808]",23.86,0.0,0.0,0.0,118.56265669791354,26.714992769807566,-1805.8709302521202,-6307.746934657043,0.0,0.0,0.0,0.0,0.0,0.0,0.0,-11.6,20.93955476462199,0.0,19.17714338568206,0.0,-11.6,23.86,15.93,22.42,21.04,23.15,-12.26,-11.6,0.0,-1260.4,-5081.9,0.0,80.0,0.0,45.0,0.0,0.0,0.0,0.0,0.0,0.0,0.0,0.0,0.0,0.0,0.0,0.0,0.0,0.0
437.0,2252.0,21995.681501489584,13535.703093982132,-0.0,0.0,0.0,0.0,28192.272752695637,32586.6,0.0,0.0,28192.272752695637,0.02693877551020407,0.5038808455023307,0.6653061224489797,0.0,0.0,0.0,"[1.8616351344697435, 2.0, 2.0, 2.0, 0.9132785693338548, 1.7255612915367635, 1.8392139056317056, 1.4880337817511808]",20.72,0.0,0.0,0.0,388.64194113968637,46.00037216576333,-1666.448410793833,-1813.76683362808,7439.273499696525,0.0,0.0,0.0,0.0,0.0,0.0,-12.0,19.955156348206852,0.0,19.087892104217506,0.0,-12.0,20.72,15.88,22.29,18.78,21.41,-12.62,-12.0,5854.87,-1163.09,-4689.55,0.0,80.0,23.0,241.0,0.0,0.0,0.0,0.0,0.0,0.0,0.0,0.0,0.0,0.0,0.0,0.0,0.0,0.0
438.0,3832.0,79600.58257354453,59370.57966067681,-0.0,0.0,-16000.0,0.0,1773.6785847596566,0.0,-80000.0,0.0,81773.67858475966,0.6802721088435374,0.8305475121689974,0.6653061224489797,0.0,0.0,0.0,"[1.8616351344697435, 2.0, 2.2609312395271175, 1.8797451387723, 1.042386571979815, 1.7255612915367635, 1.8392139056317056, 2.1464653622022]",23.86,0.0,0.0,0.0,922.3529939490253,118.39958334074483,-1846.6106406101858,-6325.5484309968415,0.0,0.0,0.0,0.0,0.0,0.0,0.0,-12.4,20.933309774469098,0.0,19.17156991071042,0.0,-12.4,23.86,15.94,22.4,21.14,23.19,-13.0,-12.4,0.0,-1288.83,-5196.55,0.0,150.0,92.0,589.0,0.0,0.0,0.0,0.0,0.0,0.0,0.0,0.0,0.0,0.0,0.0,0.0,0.0,0.0
439.0,1241.0,0.0,0.0,-0.0,0.0,1241.0,0.0,23696.553527317083,0.0,23696.553527317083,0.0,0.0,0.6275085034013606,0.7297968594167988,0.6653061224489797,0.0,0.0,0.0,"[1.8616351344697435, 2.0, 2.2609312395271175, 1.8797451387723, 1.042386571979815, 1.7255612915367635, 1.8392139056317056, 2.1464653622022]",20.43,0.0,0.0,0.0,131.815884183783,41.09998887662704,-1686.9056924320444,-1483.091902404198,2403.9157573264943,0.0,0.0,0.0,0.0,0.0,0.0,-12.7,19.817147496103853,0.0,19.00849825645514,0.0,-12.7,20.43,15.76,22.26,18.6,21.29,-13.3,-12.7,2080.94,-1177.36,-4747.12,0.0,93.0,18.0,46.0,0.0,0.0,0.0,0.0,0.0,0.0,0.0,0.0,0.0,0.0,0.0,0.0,0.0,0.0
440.0,2493.0,98242.6058285031,95258.39279936059,-0.0,0.0,0.0,0.0,62306.94251359218,0.0,-66172.19769384517,0.0,128479.14020743735,0.6275085034013606,1.0,0.6653061224489797,0.0,0.0,0.0,"[1.8616351344697435, 2.0, 2.2609312395271175, 1.8797451387723, 1.042386571979815, 1.7255612915367635, 1.8392139056317056, 2.1464653622022]",20.14,0.0,0.0,1.8787106152276272,525.4725600478524,55.80113874403593,-1672.2818415677211,-1356.9650680510767,10190.132115541697,0.0,0.0,0.0,0.0,0.0,0.0,-12.7,19.589713195039977,0.0,18.804376744475064,0.0,-12.7,20.14,15.55,22.06,18.63,21.27,-13.29,-12.7,11492.48,-1167.16,-4705.97,2.97,121.0,13.0,321.0,0.0,0.0,0.0,0.0,0.0,0.0,0.0,0.0,0.0,0.0,0.0,0.0,0.0,0.0
441.0,3145.0,12328.885158822013,0.0,-0.0,0.0,-9122.240733027904,0.0,40718.125237709224,0.0,40718.12523770923,0.0,0.0,1.0,0.8268787192274267,0.6653061224489797,0.0,0.0,0.0,"[1.8616351344697435, 2.0, 2.2609312395271175, 1.8797451387723, 1.042386571979815, 1.7255612915367635, 1.8392139056317056, 2.1464653622022]",23.86,0.0,0.0,11.322767626341463,171.8621229113562,43.02852681622261,-1846.6106406101858,-6739.664050204818,624.5976613978472,0.0,0.0,0.0,0.0,0.0,0.0,-12.4,20.73403707152444,0.0,18.86958645246184,0.0,-12.4,23.86,15.52,22.22,21.21,23.26,-12.99,-12.4,9219.83,-1288.83,-5196.55,17.91,85.0,24.0,79.0,0.0,0.0,0.0,0.0,0.0,0.0,0.0,0.0,0.0,0.0,0.0,0.0,0.0,0.0
442.0,5159.0,0.0,0.0,-0.0,0.529542850790363,5158.470457149209,0.0,34839.62467143676,0.0,34839.62467143676,0.0,0.0,0.7806772764817513,0.6787510633114542,0.6653061224489797,0.0,0.0,0.0,"[1.8616351344697435, 2.0, 2.2609312395271175, 1.8797451387723, 1.042386571979815, 1.7255612915367635, 1.8392139056317056, 2.1464653622022]",20.14,0.0,0.0,16.85931139866406,308.26290741457524,46.6959104390601,-1651.9119863886883,-1450.0471962021202,2733.8813277876716,0.0,0.0,0.0,0.0,0.0,0.0,-12.3,19.543649107993986,0.0,18.721607572556415,0.0,-12.3,20.14,15.36,22.08,18.32,21.11,-12.88,-12.3,8710.44,-1152.94,-4648.64,26.66,132.0,0.0,157.0,0.0,0.0,0.0,0.0,0.0,0.0,0.0,0.0,0.0,0.0,0.0,0.0,0.0,0.0
443.0,5585.0,0.0,0.0,-0.0,5.004004938237423,5579.995995061762,0.0,16336.074787281601,0.0,16336.074787281603,0.0,0.0,0.543432548800554,0.609294963025393,0.6653061224489797,0.0,0.0,0.0,"[1.8616351344697435, 2.0, 2.2609312395271175, 1.8797451387723, 1.042386571979815, 1.7255612915367635, 1.8392139056317056, 2.1464653622022]",20.14,0.0,0.0,24.45512200512165,598.6876870238449,40.56252748362499,-1641.7270587991723,-1718.8215663115527,10172.882833738702,0.0,0.0,0.0,0.0,0.0,0.0,-12.1,19.41372250689026,0.0,18.538608011942028,0.0,-12.1,20.14,15.18,21.9,18.49,21.18,-12.68,-12.1,0.0,-1145.83,-4619.98,38.68,89.0,0.0,393.0,0.0,0.0,0.0,0.0,0.0,0.0,0.0,0.0,0.0,0.0,0.0,0.0,0.0,0.0
444.0,3460.0,14477.375646222552,10953.526231093056,-0.0,8.53746310161559,0.0,0.0,60956.25910914628,0.0,45451.798272074164,0.0,15504.460837072125,0.543432548800554,0.4160475213924246,0.653061224489796,0.0,0.0,0.0,"[1.8616351344697435, 2.0, 2.2609312395271175, 1.8797451387723, 1.042386571979815, 1.7255612915367635, 1.8392139056317056, 2.1464653622022]",23.73,0.0,0.0,27.360690569907554,1152.027844325769,65.09605930536543,-1819.7248734838927,-6892.736171148694,0.0,0.0,0.0,0.0,0.0,0.0,0.0,-12.0,20.530848619081617,0.0,18.6203762807728,0.0,-12.0,23.73,15.18,22.06,20.98,23.1,-12.61,-12.0,7347.68,-1270.06,-5120.89,43.27,128.0,0.0,779.0,0.0,0.0,0.0,0.0,0.0,0.0,0.0,0.0,0.0,0.0,0.0,0.0,0.0,0.0
445.0,6139.0,12105.511542936461,20169.783323598193,-0.0,14263.799338376413,0.0,0.0,31626.41348712978,0.0,0.0,0.0,31626.413487129783,0.543432548800554,0.4160475213924246,0.653061224489796,0.0,0.0,0.0,"[1.8616351344697435, 2.0, 2.2609312395271175, 1.8797451387723, 1.042386571979815, 1.7255612915367635, 1.8392139056317056, 2.1464653622022]",20.14,0.0,0.0,1026.7591177360991,787.5282689306123,47.64437172082841,-1555.155174288283,-1771.3615939122055,6165.918890387674,0.0,0.0,0.0,0.0,0.0,0.0,-10.4,19.381284496122237,0.0,18.479375664309018,0.0,-10.4,20.14,15.04,21.92,18.09,20.94,-10.38,-10.4,0.0,-1085.41,-4376.36,1623.83,98.0,0.0,527.0,0.0,0.0,0.0,0.0,0.0,0.0,0.0,0.0,0.0,0.0,0.0,0.0,0.0,0.0
446.0,3549.0,16183.22762087777,25528.47680915934,-0.0,12975.165326385959,0.0,0.0,41732.49183784488,0.0,0.0,0.0,41732.49183784488,0.543432548800554,0.4160475213924246,0.653061224489796,0.0,0.0,0.0,"[1.8616351344697435, 2.0, 2.2609312395271175, 1.8797451387723, 1.042386571979815, 1.7255612915367635, 1.8392139056317056, 2.1464653622022]",22.41,0.0,0.0,1065.6019646895172,1643.6151254502902,66.92975111678417,-1635.3208772022235,-5062.9940204681125,6909.022396555262,0.0,0.0,0.0,0.0,0.0,0.0,-9.7,20.076652927141932,0.0,18.51803718567061,0.0,-9.7,22.41,15.05,21.99,20.2,22.53,-9.64,-9.7,9956.96,-1141.36,-4601.96,1685.26,96.0,0.0,1157.0,0.0,0.0,0.0,0.0,0.0,0.0,0.0,0.0,0.0,0.0,0.0,0.0,0.0,0.0
447.0,5667.0,16652.241418129022,16791.783314033735,-0.0,5889.803102995355,0.0,0.0,27290.164450525,0.0,0.0,0.0,27290.164450525008,0.543432548800554,0.4160475213924246,0.653061224489796,0.0,0.0,0.0,"[1.8616351344697435, 2.0, 2.2609312395271175, 1.8797451387723, 1.042386571979815, 1.7255612915367635, 1.8392139056317056, 2.1464653622022]",23.86,0.0,0.0,624.9446475939038,2869.0730139545244,114.79543047002518,-1714.2065819464733,-6960.486521284812,0.0,0.0,0.0,0.0,0.0,0.0,0.0,-9.8,20.61886915035185,0.0,18.67588640332531,0.0,-9.8,23.86,15.15,22.21,21.0,23.22,-10.13,-9.8,0.0,-1196.42,-4823.95,988.36,123.0,20.0,2041.0,0.0,0.0,0.0,0.0,0.0,0.0,0.0,0.0,0.0,0.0,0.0,0.0,0.0,0.0
448.0,4595.0,0.0,0.0,-0.0,0.0,4595.0,0.0,37026.13755009567,0.0,37026.137550095664,0.0,0.0,0.34806690254205064,0.25862346718283424,0.653061224489796,0.0,0.0,0.0,"[1.8616351344697435, 2.0, 2.2609312395271175, 1.8797451387723, 1.042386571979815, 1.7255612915367635, 1.8392139056317056, 2.1464653622022]",21.43,0.0,0.0,0.9420458763446803,565.3755206404434,93.20212862176653,-1625.9329401154728,-3440.078744041512,9472.913410609213,0.0,0.0,0.0,0.0,0.0,0.0,-10.5,19.875648357749526,0.0,18.630226728327706,0.0,-10.5,21.43,15.1,22.16,18.93,21.67,-11.44,-10.5,10597.06,-1134.81,-4575.54,1.49,188.0,42.0,312.0,0.0,0.0,0.0,0.0,0.0,0.0,0.0,0.0,0.0,0.0,0.0,0.0,0.0,0.0
449.0,5663.0,13867.977593309077,0.0,-0.0,0.0,-8135.637705342532,0.0,14532.204650725997,0.0,14532.204650725997,0.0,0.0,0.6802721088435374,0.19683688278348901,0.6530612244897959,0.0,0.0,0.0,"[1.8616351344697435, 2.0, 2.2609312395271175, 1.8797451387723, 1.042386571979815, 1.7255612915367635, 1.8392139056317056, 2.1464653622022]",23.86,0.0,0.0,0.0,598.6876870238449,186.62556487594574,-1770.223683688813,-6868.269525769589,7870.100276085136,0.0,0.0,0.0,0.0,0.0,0.0,-10.9,20.668476207783574,0.0,18.736454354028517,0.0,-10.9,23.86,15.15,22.32,20.98,23.25,-11.81,-10.9,0.0,-1235.52,-4981.59,0.0,316.0,138.0,259.0,0.0,0.0,0.0,0.0,0.0,0.0,0.0,0.0,0.0,0.0,0.0,0.0,0.0,0.0
450.0,4823.0,20269.52803188718,7515.109587896011,-0.0,0.0,-7830.070803831737,0.0,11067.325372019797,0.0,0.0,0.0,11067.325372019797,1.0,0.19683688278348901,0.6530612244897959,0.0,0.0,0.0,"[1.8616351344697435, 2.0, 2.2609312395271175, 1.8797451387723, 1.042386571979815, 1.3856555416104115, 1.8392139056317056, 2.1464653622022]",23.86,0.0,0.0,0.0,544.5285520005081,201.67448388000298,-1795.686002662604,-6669.090644700067,0.0,0.0,0.0,0.0,0.0,0.0,0.0,-11.4,20.76587705865825,0.0,18.862903316361084,0.0,-11.4,23.86,15.21,22.51,20.87,23.25,-12.31,-11.4,1663.6,-1253.29,-5053.24,0.0,310.0,170.0,219.0,0.0,0.0,0.0,0.0,0.0,0.0,0.0,0.0,0.0,0.0,0.0,0.0,0.0,0.0
451.0,8556.0,71412.74302443222,0.0,-0.0,0.0,0.0,0.0,42216.68459905749,0.0,-14033.026779321539,0.0,0.0,1.0,0.254138408799052,0.6530612244897959,249998.71723724023,62499.67930931006,312498.39654655027,"[1.8616351344697435, 2.0, 2.2609312395271175, 1.8797451387723, 1.042386571979815, 1.3856555416104115, 1.8392139056317056, 2.1464653622022]",20.14,0.0,0.0,0.0,857.5196378695016,210.87455831315563,-1626.5029568113405,-1394.2200880120886,1969.2726118063317,0.0,0.0,0.0,0.0,0.0,0.0,-11.8,19.570939558094036,0.0,18.71398431383378,0.0,-11.8,20.14,15.09,22.34,18.22,21.23,-12.68,-11.8,0.0,-1135.21,-4577.14,0.0,256.0,202.0,474.0,0.0,0.0,0.0,0.0,0.0,0.0,0.0,0.0,0.0,0.0,0.0,0.0,0.0,0.0
452.0,7342.0,40015.395953130064,32473.31897336441,-0.0,0.0,0.0,0.0,45036.491066019764,0.0,0.0,0.0,45036.49106601976,1.0,0.254138408799052,0.6530612244897959,0.0,0.0,0.0,"[1.8616351344697435, 2.0, 2.2609312395271175, 1.8797451387723, 1.042386571979815, 1.3856555416104115, 1.8392139056317056, 2.1464653622022]",20.14,0.0,0.0,0.0,861.3165084465346,213.62509603028377,-1651.9119863886883,-1683.2098648578908,10018.581877016959,0.0,0.0,0.0,0.0,0.0,0.0,-12.3,19.432529934758477,0.0,18.52425655888193,0.0,-12.3,20.14,14.93,22.12,18.37,21.27,-13.21,-12.3,6893.61,-1152.94,-4648.64,0.0,178.0,248.0,513.0,0.0,0.0,0.0,0.0,0.0,0.0,0.0,0.0,0.0,0.0,0.0,0.0,0.0,0.0
453.0,5189.0,14142.304419270333,24882.59289717398,-0.0,0.0,16000.0,0.0,33560.235981454214,0.0,0.0,0.0,33560.235981454214,0.3197278911564626,0.254138408799052,0.6530612244897959,0.0,0.0,0.0,"[1.8616351344697435, 2.0, 2.2609312395271175, 1.8797451387723, 1.042386571979815, 1.3856555416104115, 1.8392139056317056, 2.1464653622022]",23.86,0.0,0.0,0.0,1263.9997068144933,215.4904032177614,-1861.8880319944603,-7048.872328062124,7450.807585459994,0.0,0.0,0.0,0.0,0.0,0.0,-12.7,20.587153548529848,0.0,18.608750662844052,0.0,-12.7,23.86,14.95,22.27,21.01,23.28,-13.59,-12.7,804.57,-1299.49,-5239.54,0.0,306.0,167.0,750.0,0.0,0.0,0.0,0.0,0.0,0.0,0.0,0.0,0.0,0.0,0.0,0.0,0.0,0.0
454.0,4151.0,35544.28563742236,31215.564209235254,-0.0,0.0,0.0,0.0,40613.85224738118,0.0,0.0,0.0,40613.85224738118,0.3197278911564626,0.254138408799052,0.6530612244897959,0.0,0.0,0.0,"[1.8616351344697435, 2.0, 2.2609312395271175, 1.8797451387723, 1.042386571979815, 1.3856555416104115, 1.8392139056317056, 2.1464653622022]",23.86,0.0,0.0,0.0,1137.2701964225846,173.41033768330715,-1887.3503509682514,-6867.068824742803,7459.46080781183,0.0,0.0,0.0,0.0,0.0,0.0,-13.2,20.676147358363107,0.0,18.722038941684872,0.0,-13.2,23.86,14.99,22.45,20.72,23.17,-14.08,-13.2,12178.37,-1317.26,-5311.19,0.0,300.0,101.0,667.0,0.0,0.0,0.0,0.0,0.0,0.0,0.0,0.0,0.0,0.0,0.0,0.0,0.0,0.0
455.0,2417.0,51121.34526628543,32448.738539954007,-0.0,0.0,-16000.0,0.0,40980.93186025978,0.0,0.0,0.0,40980.931860259785,0.9730612244897959,0.254138408799052,0.6530612244897959,0.0,0.0,0.0,"[1.8616351344697435, 2.0, 2.2609312395271175, 1.8797451387723, 1.042386571979815, 1.3856555416104115, 1.8392139056317056, 2.1464653622022]",23.86,0.0,0.0,0.0,743.3269642885504,116.47104540114921,-1907.7202061472842,-6707.370757423993,7765.852746097688,0.0,0.0,0.0,0.0,0.0,0.0,-13.6,20.75431036481697,0.0,18.820742765781212,0.0,-13.6,23.86,15.02,22.62,20.74,23.26,-14.51,-13.6,435.35,-1331.48,-5368.51,0.0,216.0,61.0,426.0,0.0,0.0,0.0,0.0,0.0,0.0,0.0,0.0,0.0,0.0,0.0,0.0,0.0,0.0
456.0,1878.0,20934.982940893417,32712.108026188944,-0.0,0.0,13759.8,0.0,40689.84357994852,0.0,0.0,0.0,40689.843579948516,0.3880357142857143,0.254138408799052,0.6530612244897959,0.0,0.0,0.0,"[1.8616351344697435, 2.0, 2.2609312395271175, 1.8797451387723, 1.042386571979815, 1.3856555416104115, 1.8392139056317056, 2.1464653622022]",23.86,0.0,0.0,0.0,282.04300871280094,54.47329294956029,-1917.9051337368007,-6559.857075937778,8146.184703340223,0.0,0.0,0.0,0.0,0.0,0.0,-13.8,20.825870919570214,0.0,18.91060038191755,0.0,-13.8,23.86,15.05,22.78,20.78,23.37,-14.7,-13.8,11836.07,-1338.59,-5397.18,0.0,160.0,0.0,123.0,0.0,0.0,0.0,0.0,0.0,0.0,0.0,0.0,0.0,0.0,0.0,0.0,0.0,0.0
457.0,1160.0,27820.7996468575,26521.695648623212,-0.0,0.0,0.0,0.0,32231.212706116286,0.0,0.0,0.0,32231.21270611629,0.3880357142857143,0.254138408799052,0.6530612244897959,0.0,0.0,0.0,"[1.8616351344697435, 2.0, 2.2609312395271175, 1.8797451387723, 1.042386571979815, 1.3856555416104115, 1.8392139056317056, 2.1464653622022]",23.86,0.0,0.0,0.0,178.59619525552782,52.07052436908055,-1933.182525121075,-6421.742745395121,389.9460883382629,0.0,0.0,0.0,0.0,0.0,0.0,-14.1,20.893205079070274,0.0,18.995191753688946,0.0,-14.1,23.86,15.07,22.92,20.83,23.48,-14.99,-14.1,9308.25,-1349.25,-5440.17,0.0,160.0,0.0,47.0,0.0,0.0,0.0,0.0,0.0,0.0,0.0,0.0,0.0,0.0,0.0,0.0,0.0,0.0
458.0,1130.0,46892.91019627835,45528.44564529696,-0.0,0.0,0.0,0.0,54461.60982084312,0.0,0.0,0.0,54461.609820843114,0.3880357142857143,0.254138408799052,0.6530612244897959,0.0,0.0,0.0,"[1.8616351344697435, 2.0, 2.2609312395271175, 1.8797451387723, 1.042386571979815, 1.3856555416104115, 1.8392139056317056, 2.1464653622022]",20.14,0.0,0.0,0.0,181.31847982019286,52.13375512119845,-1753.7612622838526,-1198.7329881218243,2723.768697702174,0.0,0.0,0.0,0.0,0.0,0.0,-14.3,19.671774921645518,0.0,18.81001702804869,0.0,-14.3,20.14,14.91,22.71,18.17,21.44,-15.19,-14.3,8950.48,-1224.03,-4935.26,0.0,160.0,0.0,49.0,0.0,0.0,0.0,0.0,0.0,0.0,0.0,0.0,0.0,0.0,0.0,0.0,0.0,0.0
459.0,973.0,0.0,0.0,-0.0,0.0,973.0,0.0,42036.36974764362,0.0,42036.36974764362,0.0,0.0,0.3466666666666667,0.07541234694682569,0.6530612244897959,0.0,0.0,0.0,"[1.8616351344697435, 2.0, 2.2609312395271175, 1.8797451387723, 1.042386571979815, 1.3856555416104115, 1.8392139056317056, 2.1464653622022]",20.14,0.0,0.0,0.0,192.20761807885316,52.386678129669995,-1758.8537260786106,-1526.828928430782,3045.837971683639,0.0,0.0,0.0,0.0,0.0,0.0,-14.4,19.514273031061016,0.0,18.59341271161848,0.0,-14.4,20.14,14.73,22.46,18.35,21.49,-15.3,-14.4,0.0,-1227.58,-4949.59,0.0,160.0,0.0,57.0,0.0,0.0,0.0,0.0,0.0,0.0,0.0,0.0,0.0,0.0,0.0,0.0,0.0,0.0
460.0,1324.0,20745.56185792361,19317.83404863399,-0.0,0.0,0.0,0.0,22739.872405674043,0.0,0.0,0.0,22739.872405674047,0.3466666666666667,0.07541234694682569,0.6530612244897959,0.0,0.0,0.0,"[1.8616351344697435, 2.0, 2.2609312395271175, 1.8797451387723, 1.042386571979815, 1.3856555416104115, 1.8392139056317056, 2.1464653622022]",20.14,0.0,0.0,0.0,184.61387692478743,65.22252080960119,-1763.9461898733687,-1824.8808930553396,3344.9040541796285,0.0,0.0,0.0,0.0,0.0,0.0,-14.5,19.3712762831149,0.0,18.395935302778454,0.0,-14.5,20.14,14.56,22.24,18.29,21.37,-15.43,-14.5,2016.87,-1231.13,-4963.92,0.0,160.0,23.0,49.0,0.0,0.0,0.0,0.0,0.0,0.0,0.0,0.0,0.0,0.0,0.0,0.0,0.0,0.0
461.0,913.0,139528.63947765646,121917.99628026817,-0.0,0.0,-16000.0,0.0,62352.75590189659,0.0,-80000.0,0.0,142352.7559018966,1.0,0.4020790136134924,0.6530612244897959,0.0,0.0,0.0,"[1.8616351344697435, 2.0, 2.2609312395271175, 1.8797451387723, 1.042386571979815, 1.3856555416104115, 1.8392139056317056, 2.1464653622022]",20.14,0.0,0.0,0.0,252.74263010890573,83.21166978714027,-1769.038653668127,-2094.583468515919,11272.07050208159,0.0,0.0,0.0,0.0,0.0,0.0,-14.6,19.24181729030633,0.0,18.21634741977057,0.0,-14.6,20.14,14.4,22.04,18.23,21.27,-15.52,-14.6,11592.66,-1234.69,-4978.25,0.0,160.0,52.0,96.0,0.0,0.0,0.0,0.0,0.0,0.0,0.0,0.0,0.0,0.0,0.0,0.0,0.0,0.0
462.0,1755.0,0.0,7200.564129915658,-0.0,0.0,8955.564129915658,0.0,8338.810472869569,0.0,0.0,0.0,8338.810472869569,0.29950832780970843,0.4020790136134924,0.6530612244897959,0.0,0.0,0.0,"[1.8616351344697364, 2.0, 2.0, 1.8797451387722965, 1.042386571979815, 1.3856555416104115, 1.8392139056317056, 2.1091314991585577]",23.86,0.0,0.0,0.0,759.9472279465057,153.39780463799568,-1963.6840184931812,-7437.666182796542,765.0545749445877,0.0,0.0,0.0,0.0,0.0,0.0,-14.7,20.4052661961285,0.0,18.31258112674884,0.0,-14.7,23.86,14.42,22.2,20.86,23.29,-15.59,-14.7,0.0,-1370.54,-5526.0,0.0,304.0,79.0,390.0,0.0,0.0,0.0,0.0,0.0,0.0,0.0,0.0,0.0,0.0,0.0,0.0,0.0,0.0
463.0,1090.0,0.0,4136.784410549305,-0.0,0.0,5226.784410549305,0.0,52392.813631515266,0.0,47602.09716204107,0.0,4790.7164694742005,0.07728109947002712,0.19968914472726337,0.6530612244897959,0.0,0.0,0.0,"[1.8616351344697364, 2.0, 2.0, 1.8797451387722965, 1.042386571979815, 1.3856555416104115, 1.8392139056317056, 2.1091314991585577]",20.14,0.0,0.0,0.0,119.49396457529897,64.24244415177395,-1774.1311174628852,-2134.4365490654445,3730.655768600151,0.0,0.0,0.0,0.0,0.0,0.0,-14.7,19.222939521944426,0.0,18.179042396138644,0.0,-14.7,20.14,14.3,22.06,17.9,21.07,-15.62,-14.7,11448.43,-1238.24,-4992.58,0.0,90.0,61.0,34.0,0.0,0.0,0.0,0.0,0.0,0.0,0.0,0.0,0.0,0.0,0.0,0.0,0.0,0.0
464.0,1309.0,21824.625308108243,20406.502181567703,-0.0,0.0,0.0,0.0,24799.557355454326,0.0,0.0,0.0,24799.557355454326,0.07728109947002712,0.19968914472726337,0.6530612244897959,0.0,0.0,0.0,"[1.8616351344697364, 2.0, 2.0, 1.8797451387722965, 1.042386571979815, 1.3856555416104115, 1.8392139056317056, 2.1091314991585577]",20.14,0.0,0.0,7.871767763231338,63.47221379719118,4.868767913077354,-1743.5763346943363,-2371.945184323444,5262.470179826949,0.0,0.0,0.0,0.0,0.0,0.0,-14.1,19.106719805779186,0.0,18.01783364318372,0.0,-14.1,20.14,14.15,21.88,18.15,21.19,-14.99,-14.1,169.67,-1216.92,-4906.6,12.45,0.0,6.0,46.0,0.0,0.0,0.0,0.0,0.0,0.0,0.0,0.0,0.0,0.0,0.0,0.0,0.0,0.0
465.0,3383.0,26743.12815719414,31133.859124846742,-0.0,7907.446608438573,0.0,0.0,49114.9980179812,0.0,0.0,0.0,49114.998017981205,0.07728109947002712,0.19968914472726337,0.6530612244897959,0.0,0.0,0.0,"[1.8616351344697364, 2.0, 2.0, 1.8797451387722965, 1.042386571979815, 1.3856555416104115, 1.8392139056317056, 2.1091314991585577]",20.73,0.0,0.0,843.8449203483366,76.22396781062236,1.7704610593008567,-1580.0249738940875,-3362.4096075084644,10512.143666072545,0.0,0.0,0.0,0.0,0.0,0.0,-10.3,19.206033728061538,0.0,17.916312196422233,0.0,-10.3,20.73,14.06,21.78,18.52,21.44,-10.38,-10.3,0.0,-1102.77,-4446.35,1334.55,0.0,0.0,56.0,0.0,0.0,0.0,0.0,0.0,0.0,0.0,0.0,0.0,0.0,0.0,0.0,0.0,0.0
466.0,5249.0,0.0,11074.335733624634,-0.0,14505.684274089595,1817.6514595350382,0.0,21059.790967025692,0.0,0.0,0.0,21059.790967025692,0.0,0.19968914472726337,0.6530612244897959,0.0,0.0,0.0,"[1.8616351344697364, 2.0, 2.0, 1.8797451387722965, 1.042386571979815, 1.3856555416104115, 1.8392139056317056, 2.1091314991585577]",23.86,0.0,0.0,1288.2940412087164,46.27883759930643,1.0749227860040906,-1566.5251318984851,-7675.191630538443,5585.92129564202,0.0,0.0,0.0,0.0,0.0,0.0,-6.9,20.26407909640884,0.0,18.11107477341173,0.0,-6.9,23.86,14.21,22.01,20.91,23.29,-6.62,-6.9,771.75,-1093.35,-4408.36,2037.45,0.0,0.0,34.0,0.0,0.0,0.0,0.0,0.0,0.0,0.0,0.0,0.0,0.0,0.0,0.0,0.0,0.0
467.0,7994.0,32461.94243155743,0.0,-0.0,17849.793726608917,-8489.795918367347,0.0,30299.06747487708,0.0,0.0,0.0,0.0,0.3466666666666667,0.19968914472726337,0.6530612244897959,134662.52211056484,33665.63052764121,168328.15263820605,"[1.8616351344697364, 2.0, 2.0, 1.8797451387722965, 1.042386571979815, 1.3856555416104115, 1.8392139056317056, 2.1091314991585577]",22.76,0.0,0.0,1573.9997916186749,62.61254498729695,1.4543072987114152,-1373.1063397011465,-5767.381840861756,0.0,0.0,0.0,0.0,0.0,0.0,0.0,-4.2,20.07123711084224,0.0,18.292681003986573,0.0,-4.2,22.76,14.4,22.19,20.07,22.73,-3.69,-4.2,6451.45,-958.35,-3864.06,2489.29,0.0,0.0,46.0,0.0,0.0,0.0,0.0,0.0,0.0,0.0,0.0,0.0,0.0,0.0,0.0,0.0,0.0
468.0,9396.0,21534.186111890973,14857.05076511104,-0.0,18826.53558377952,-16000.0,0.0,34485.30706413171,0.0,0.0,0.0,34485.30706413171,1.0,0.19968914472726337,0.6530612244897959,0.0,0.0,0.0,"[1.8616351344697364, 2.0, 2.0, 1.8797451387722965, 1.042386571979815, 1.3856555416104115, 1.8392139056317056, 2.1091314991585577]",20.14,0.0,0.0,1647.700533293545,76.22396781062236,1.7704610593008567,-1152.8505345023866,-1902.2514505473152,9020.380955187007,0.0,0.0,0.0,0.0,0.0,0.0,-2.5,19.292031340932187,0.0,18.29093153059531,0.0,-2.5,20.14,14.49,22.09,18.38,21.41,-1.95,-2.5,3233.44,-804.62,-3244.24,2605.85,0.0,0.0,56.0,0.0,0.0,0.0,0.0,0.0,0.0,0.0,0.0,0.0,0.0,0.0,0.0,0.0,0.0
469.0,8796.0,1665.090234190924,10081.560399808413,-0.0,17220.795616788444,0.0,0.0,24073.4956841245,0.0,0.0,0.0,24073.495684124504,1.0,0.19968914472726337,0.6530612244897959,0.0,0.0,0.0,"[1.8616351344697364, 2.0, 2.0, 1.8797451387722965, 1.042386571979815, 1.3856555416104115, 1.8392139056317056, 2.1091314991585577]",23.86,0.0,0.0,1489.111900974545,46.27883759930643,1.0749227860040906,-1306.8094783658178,-7052.037792469248,6778.900169452451,0.0,0.0,0.0,0.0,0.0,0.0,-1.8,20.54755785088472,0.0,18.533463140690138,0.0,-1.8,23.86,14.76,22.31,21.28,23.59,-1.38,-1.8,1338.17,-912.08,-3677.49,2355.04,0.0,0.0,34.0,0.0,0.0,0.0,0.0,0.0,0.0,0.0,0.0,0.0,0.0,0.0,0.0,0.0,0.0
470.0,4455.0,0.0,9370.471013328755,-0.0,13825.471013328755,0.0,0.0,22196.84069409095,0.0,0.0,0.0,22196.84069409095,1.0,0.19968914472726337,0.6530612244897959,0.0,0.0,0.0,"[1.8616351344697364, 2.0, 2.0, 1.8797451387722965, 1.042386571979815, 1.3856555416104115, 1.8392139056317056, 2.1091314991585577]",23.86,0.0,0.0,1204.13756648815,62.61254498729695,1.4543072987114152,-1316.994405955334,-6665.757875343821,0.0,0.0,0.0,0.0,0.0,0.0,0.0,-2.0,20.734779895017905,0.0,18.801386299693053,0.0,-2.0,23.86,15.05,22.55,21.1,23.51,-1.82,-2.0,5438.49,-919.19,-3706.15,1904.35,0.0,0.0,46.0,0.0,0.0,0.0,0.0,0.0,0.0,0.0,0.0,0.0,0.0,0.0,0.0,0.0,0.0
471.0,3645.0,13894.080560398475,16523.04418908666,-0.0,6343.434031490177,0.0,0.0,36462.08140231032,0.0,0.0,0.0,36462.081402310316,1.0,0.19968914472726337,0.6530612244897959,0.0,0.0,0.0,"[1.8616351344697364, 2.0, 2.0, 1.8797451387722965, 1.042386571979815, 1.3856555416104115, 1.8392139056317056, 2.1091314991585577]",20.65,0.0,0.0,671.23748886124,303.89292429761286,45.46291077276128,-1239.9201063777934,-1943.3297086849484,1087.5417706700782,0.0,0.0,0.0,0.0,0.0,0.0,-3.7,19.789801865344486,0.0,18.80817415763748,0.0,-3.7,20.65,15.15,22.47,18.81,21.75,-3.93,-3.7,5823.71,-865.39,-3489.26,1061.57,115.0,7.0,162.0,0.0,0.0,0.0,0.0,0.0,0.0,0.0,0.0,0.0,0.0,0.0,0.0,0.0,0.0
472.0,3815.0,18060.65399050894,14155.350720556396,-0.0,0.0,0.0,0.0,28268.354158211358,0.0,0.0,0.0,28268.354158211358,1.0,0.19968914472726337,0.6530612244897959,0.0,0.0,0.0,"[1.8616351344697364, 2.0, 2.0, 1.8797451387722965, 1.042386571979815, 1.3856555416104115, 1.8392139056317056, 2.1091314991585577]",20.14,0.0,0.0,0.9420440699876942,2024.6633254359108,132.7213486954464,-1325.9943035241647,-1384.90357711136,8303.61012377014,0.0,0.0,0.0,0.0,0.0,0.0,-5.9,19.55589830647462,0.0,18.70509880187175,0.0,-5.9,20.14,15.15,22.26,18.54,21.43,-6.75,-5.9,0.0,-925.47,-3731.48,1.49,186.0,53.0,1384.0,0.0,0.0,0.0,0.0,0.0,0.0,0.0,0.0,0.0,0.0,0.0,0.0,0.0,0.0
473.0,5002.0,0.0,10077.952023319072,-0.0,0.0,15079.952023319072,0.0,20029.678539322467,0.0,0.0,0.0,20029.678539322467,0.35884557723983546,0.19968914472726337,0.6530612244897959,0.0,0.0,0.0,"[1.8616351344697364, 2.0, 2.0, 1.8797451387722965, 1.042386571979815, 1.3856555416104115, 1.8392139056317056, 2.1091314991585577]",23.86,0.0,0.0,0.0,1468.0277710293924,176.66672141737837,-1520.6929577456615,-6749.380452935822,6641.396322931674,0.0,0.0,0.0,0.0,0.0,0.0,-6.0,20.71016387711127,0.0,18.799690168867222,0.0,-6.0,23.86,15.24,22.36,20.9,23.18,-6.83,-6.0,0.0,-1061.36,-4279.38,0.0,170.0,162.0,972.0,0.0,0.0,0.0,0.0,0.0,0.0,0.0,0.0,0.0,0.0,0.0,0.0,0.0,0.0
474.0,6098.0,17646.762346002954,9342.991561574654,-0.0,0.0,-2117.5369726982867,0.0,18568.96293422828,0.0,0.0,0.0,18568.96293422828,0.9622448979591836,0.19968914472726337,0.6530612244897959,0.0,0.0,0.0,"[1.8616351344697364, 2.0, 2.0, 0.9557878402295756, 1.042386571979815, 1.3856555416104115, 1.8392139056317056, 2.1091314991585577]",23.86,0.0,0.0,0.0,1017.6329537123032,230.6341683499956,-1520.6929577456615,-6533.538495438173,6826.874668856753,0.0,0.0,0.0,0.0,0.0,0.0,-6.0,20.81391682266214,0.0,18.94301775579933,0.0,-6.0,23.86,15.37,22.52,20.78,23.15,-6.8,-6.0,770.44,-1061.36,-4279.38,0.0,234.0,242.0,599.0,0.0,0.0,0.0,0.0,0.0,0.0,0.0,0.0,0.0,0.0,0.0,0.0,0.0,0.0
475.0,7482.0,0.0,8518.0,-0.0,0.0,16000.0,0.0,16848.10805340713,0.0,0.0,0.0,16848.108053407126,0.2819727891156462,0.19968914472726337,0.17551020408163254,0.0,0.0,0.0,"[1.8616351344697364, 2.0, 2.0, 0.9557878402295756, 1.042386571979815, 1.3856555416104115, 1.8392139056317056, 2.1091314991585577]",23.86,0.0,0.0,0.0,1112.053244665687,207.30202081849498,-1525.78542154042,-6323.887252956336,0.0,0.0,0.0,0.0,0.0,0.0,0.0,-6.1,20.91494354840239,0.0,19.08280688203371,0.0,-6.1,23.86,15.49,22.68,20.9,23.28,-6.86,-6.1,3040.15,-1064.91,-4293.71,0.0,162.0,235.0,707.0,0.0,0.0,0.0,0.0,0.0,0.0,0.0,0.0,0.0,0.0,0.0,0.0,0.0,0.0
476.0,6632.0,0.0,0.0,-0.0,0.0,6632.0,0.0,30918.90565912045,0.0,30918.905659120453,0.0,0.0,0.0,0.06823121250311179,0.17551020408163254,0.0,0.0,0.0,"[1.8616351344697364, 2.0, 2.0, 0.9557878402295756, 1.042386571979815, 1.3856555416104115, 1.8392139056317056, 2.1091314991585577]",20.71,0.0,0.0,0.0,1230.8308185660742,225.06986216362142,-1365.3322774598237,-1823.029312884374,8301.979110795239,0.0,0.0,0.0,0.0,0.0,0.0,-6.1,19.919701471400106,0.0,18.98643392725556,0.0,-6.1,20.71,15.45,22.52,18.65,21.55,-6.86,-6.1,0.0,-952.92,-3842.18,0.0,316.0,180.0,719.0,0.0,0.0,0.0,0.0,0.0,0.0,0.0,0.0,0.0,0.0,0.0,0.0,0.0,0.0
477.0,5835.0,121385.78634230212,0.0,-0.0,0.0,-8489.795918367347,0.0,37829.29921285393,0.0,-57979.35613014695,0.0,0.0,0.3466666666666667,0.3049802500345452,0.17551020408163254,425816.245968893,106454.06149222325,532270.3074611162,"[1.8616351344697364, 2.0, 2.0, 0.9557878402295756, 1.042386571979815, 1.3856555416104115, 1.8392139056317056, 2.1091314991585577]",23.86,0.0,0.0,0.0,1059.2552519246826,223.01486271979007,-1530.8778853351778,-6342.858677047048,6611.685984733525,0.0,0.0,0.0,0.0,0.0,0.0,-6.2,20.90611200241997,0.0,19.079185735313228,0.0,-6.2,23.86,15.54,22.62,21.1,23.39,-6.95,-6.2,10245.82,-1068.47,-4308.04,0.0,330.0,176.0,586.0,0.0,0.0,0.0,0.0,0.0,0.0,0.0,0.0,0.0,0.0,0.0,0.0,0.0,0.0
478.0,3359.0,19456.281407035174,0.0,-0.0,0.0,-16000.0,0.0,30963.35480812505,0.0,30963.35480812505,0.0,0.0,1.0,0.17333333333333328,0.17551020408163254,0.0,0.0,0.0,"[1.8616351344697364, 2.0, 2.0, 0.9557878402295756, 1.042386571979815, 1.3856555416104115, 1.8392139056317056, 2.1091314991585577]",23.86,0.0,0.0,0.0,684.439650810795,126.65119649212916,-1535.9703491299363,-6153.004428205774,6889.366700830209,0.0,0.0,0.0,0.0,0.0,0.0,-6.3,20.99770311012007,0.0,19.205342893607707,0.0,-6.3,23.86,15.64,22.77,20.95,23.33,-7.03,-6.3,0.0,-1072.02,-4322.37,0.0,162.0,110.0,406.0,0.0,0.0,0.0,0.0,0.0,0.0,0.0,0.0,0.0,0.0,0.0,0.0,0.0,0.0
479.0,2518.0,2600.118225665062,16069.117634536737,-0.0,0.0,16000.0,0.0,31477.39542341275,0.0,0.0,0.0,31477.39542341275,0.3197278911564626,0.17333333333333328,0.17551020408163254,0.0,0.0,0.0,"[1.8616351344697364, 2.0, 2.0, 0.9557878402295756, 1.042386571979815, 1.3856555416104115, 1.8392139056317056, 2.1091314991585577]",23.86,0.0,0.0,0.0,352.60749019161955,69.49059657755863,-1535.9703491299363,-5976.924189861325,5386.0053495860675,0.0,0.0,0.0,0.0,0.0,0.0,-6.3,21.082284791345142,0.0,19.321953950497615,0.0,-6.3,23.86,15.74,22.9,21.01,23.41,-6.99,-6.3,6256.39,-1072.02,-4322.37,0.0,182.0,12.0,162.0,0.0,0.0,0.0,0.0,0.0,0.0,0.0,0.0,0.0,0.0,0.0,0.0,0.0,0.0
480.0,4663.0,23879.820072291455,19097.420971929998,-0.0,0.0,0.0,0.0,37227.402041752066,0.0,0.0,0.0,37227.40204175207,0.3197278911564626,0.17333333333333328,0.17551020408163254,0.0,0.0,0.0,"[1.8616351344697364, 2.0, 2.0, 0.9557878402295756, 1.042386571979815, 1.3856555416104115, 1.8392139056317056, 2.1091314991585577]",23.04,0.0,0.0,0.0,615.7377850867473,68.44728916761346,-1499.141101112424,-4685.609838054367,0.0,0.0,0.0,0.0,0.0,0.0,0.0,-6.4,20.87818954201926,0.0,19.37394884162335,0.0,-6.4,23.04,15.8,22.95,20.47,23.03,-7.13,-6.4,10087.93,-1046.32,-4218.73,0.0,160.0,11.0,367.0,0.0,0.0,0.0,0.0,0.0,0.0,0.0,0.0,0.0,0.0,0.0,0.0,0.0,0.0
481.0,5917.0,76367.26799253763,54068.431652574945,-0.0,0.0,-16000.0,0.0,25397.856907271358,0.0,-80000.0,0.0,105397.85690727136,0.9730612244897959,0.5,0.17551020408163254,0.0,0.0,0.0,"[1.8616351344697364, 2.0, 2.0, 0.9557878402295756, 1.042386571979815, 1.3856555416104115, 1.8392139056317056, 2.1091314991585577]",20.39,0.0,0.0,0.0,305.1824275124542,55.01075434256235,-1364.225287964083,-1012.8644141014015,1500.713672902411,0.0,0.0,0.0,0.0,0.0,0.0,-6.4,19.98744537373455,0.0,19.220080223974854,0.0,-6.4,20.39,15.71,22.73,18.6,21.55,-7.08,-6.4,0.0,-952.15,-3839.07,0.0,160.0,0.0,140.0,0.0,0.0,0.0,0.0,0.0,0.0,0.0,0.0,0.0,0.0,0.0,0.0,0.0,0.0
482.0,3043.0,1256.8624756142435,14207.578163236172,-0.0,0.0,16000.0,0.0,27695.426785628348,0.0,0.0,0.0,27695.42678562834,0.29278911564625854,0.5,0.17551020408163254,0.0,0.0,0.0,"[1.8616351344697364, 2.0, 2.0, 0.9557878402295756, 1.042386571979815, 1.3856555416104115, 1.8392139056317056, 2.1091314991585577]",20.14,0.0,0.0,0.0,239.84759796049218,53.49321629173303,-1351.4566224979558,-932.7356924540344,1995.7014378413694,0.0,0.0,0.0,0.0,0.0,0.0,-6.4,19.77443407115199,0.0,19.035358825580015,0.0,-6.4,20.14,15.6,22.47,18.59,21.44,-7.07,-6.4,10900.24,-943.24,-3803.13,0.0,160.0,0.0,92.0,0.0,0.0,0.0,0.0,0.0,0.0,0.0,0.0,0.0,0.0,0.0,0.0,0.0,0.0
483.0,1536.0,22533.73892752052,20885.070232882917,-0.0,0.0,0.0,0.0,40911.24535383709,0.0,0.0,0.0,40911.24535383708,0.29278911564625854,0.5,0.17551020408163254,0.0,0.0,0.0,"[1.8616351344697364, 2.0, 2.0, 0.9557878402295756, 1.042386571979815, 1.3856555416104115, 1.8392139056317056, 2.1091314991585577]",20.14,0.0,0.0,0.0,117.34479255056335,50.64783244642808,-1346.3641587031977,-1196.905557057377,2379.8690525253232,0.0,0.0,0.0,0.0,0.0,0.0,-6.3,19.64708895272799,0.0,18.866625817042447,0.0,-6.3,20.14,15.5,22.23,18.58,21.34,-6.99,-6.3,8360.45,-939.69,-3788.8,0.0,160.0,0.0,2.0,0.0,0.0,0.0,0.0,0.0,0.0,0.0,0.0,0.0,0.0,0.0,0.0,0.0,0.0
484.0,2006.0,8586.065155827248,13423.534830048113,-0.0,0.0,6886.4000000000015,0.0,26295.02897640338,0.0,0.0,0.0,26295.028976403384,0.0,0.5,0.17551020408163254,0.0,0.0,0.0,"[1.8616351344697364, 2.0, 2.0, 0.9557878402295756, 1.042386571979815, 1.3856555416104115, 1.8392139056317056, 2.1091314991585577]",20.14,0.0,0.0,0.0,235.7641711134945,53.39837016355621,-1346.3641587031977,-1431.418459871898,2493.461415260327,0.0,0.0,0.0,0.0,0.0,0.0,-6.3,19.53422076124246,0.0,18.71680817080712,0.0,-6.3,20.14,15.41,22.03,18.56,21.24,-6.98,-6.3,0.0,-939.69,-3788.8,0.0,160.0,0.0,89.0,0.0,0.0,0.0,0.0,0.0,0.0,0.0,0.0,0.0,0.0,0.0,0.0,0.0,0.0
485.0,3720.0,32955.30613295434,20978.85941985261,-0.0,0.0,-8091.670182436961,0.0,41094.966662737104,0.0,0.0,0.0,41094.966662737104,0.3304098657828426,0.5,0.17551020408163254,0.0,0.0,0.0,"[1.8616351344697364, 2.0, 2.0, 0.9557878402295756, 1.042386571979815, 1.3856555416104115, 1.8392139056317056, 2.1091314991585577]",20.14,0.0,0.0,0.0,60.03353855761423,25.355531599272986,-1346.3641587031977,-1645.4308712369177,10647.738219062172,0.0,0.0,0.0,0.0,0.0,0.0,-6.3,19.431258801266505,0.0,18.579755602469653,0.0,-6.3,20.14,15.32,21.84,18.51,21.13,-6.98,-6.3,10294.19,-939.69,-3788.8,0.0,80.0,0.0,2.0,0.0,0.0,0.0,0.0,0.0,0.0,0.0,0.0,0.0,0.0,0.0,0.0,0.0,0.0
486.0,1780.0,64736.89554953203,46633.211071784375,-0.0,0.0,-16000.0,0.0,11793.207645368437,0.0,-80000.0,0.0,91793.20764536844,0.6533333333333333,0.8266666666666667,0.17551020408163254,0.0,0.0,0.0,"[1.8616351344697364, 2.0, 1.0196747588430313, 0.9557878402295756, 1.0423865719798187, 1.3856555416104115, 1.8392139056317056, 2.1091314991585577]",23.86,0.0,0.0,0.0,215.7052322159623,44.54606486705192,-1530.8778853351778,-6933.510579771709,469.1425039104638,0.0,0.0,0.0,0.0,0.0,0.0,-6.2,20.621686149629202,0.0,18.718409532511068,0.0,-6.2,23.86,15.41,22.02,21.18,23.17,-6.87,-6.2,0.0,-1068.47,-4308.04,0.0,132.0,0.0,89.0,0.0,0.0,0.0,0.0,0.0,0.0,0.0,0.0,0.0,0.0,0.0,0.0,0.0,0.0
487.0,1160.0,0.0,13100.399999999998,-0.0,0.0,14260.4,0.0,25786.938317120934,0.0,0.0,0.0,25786.93831712093,0.04702380952380952,0.8266666666666667,0.17551020408163254,0.0,0.0,0.0,"[1.8616351344697364, 2.0, 1.0196747588430313, 0.9557878402295756, 1.0423865719798187, 1.3856555416104115, 1.8392139056317056, 2.1091314991585577]",20.14,0.0,0.0,0.0,2.7222845646650775,0.06323075211788681,-1341.2716949084397,-1569.8733330026942,10357.729539359036,0.0,0.0,0.0,0.0,0.0,0.0,-6.2,19.467270832052968,0.0,18.62917343128871,0.0,-6.2,20.14,15.36,21.9,18.28,20.98,-6.87,-6.2,1161.55,-936.13,-3774.47,0.0,0.0,0.0,2.0,0.0,0.0,0.0,0.0,0.0,0.0,0.0,0.0,0.0,0.0,0.0,0.0,0.0,0.0
488.0,1106.0,0.0,0.0,-0.0,0.0,1106.0,0.0,45845.530339157805,0.0,45845.53033915782,0.0,0.0,0.0,0.6317451941362338,0.1755102040816325,0.0,0.0,0.0,"[1.8616351344697364, 2.0, 1.0196747588430313, 0.9557878402295756, 1.0423865719798187, 1.3856555416104115, 1.8392139056317056, 2.1091314991585577]",23.72,0.0,0.0,7.848129775710611,187.6943568269085,36.04152870719602,-1488.1337501774785,-6669.332190951752,479.55564426990804,0.0,0.0,0.0,0.0,0.0,0.0,-5.5,20.606761454075322,0.0,18.754317888025604,0.0,-5.5,23.72,15.45,22.06,21.1,23.12,-6.15,-5.5,10524.48,-1038.63,-4187.76,12.41,85.0,11.0,92.0,0.0,0.0,0.0,0.0,0.0,0.0,0.0,0.0,0.0,0.0,0.0,0.0,0.0,0.0
489.0,2879.0,9047.859600719197,10701.930292006542,-1424.4458668999723,6002.755856190914,0.0,0.0,25656.885588993526,0.0,0.0,0.0,25656.885588993533,0.0,0.6317451941362338,0.20342934307287197,0.0,0.0,0.0,"[1.8616351344697364, 2.0, 1.0196747588430313, 0.9557878402295756, 1.0423865719798187, 1.3856555416104115, 1.8392139056317056, 2.1091314991585577]",20.14,0.0,0.0,669.8630698080276,167.85033513184982,43.534372833165705,-1112.110824144321,-1483.711146026274,1698.9176560547385,0.0,0.0,0.0,0.0,0.0,0.0,-1.7,19.492601786647636,0.0,18.665744369551735,0.0,-1.7,20.14,15.4,21.93,18.3,21.0,-1.69,-1.7,7341.1,-776.19,-3129.59,1059.39,104.0,15.0,67.0,0.0,0.0,0.0,0.0,0.0,0.0,0.0,0.0,0.0,0.0,0.0,0.0,0.0,0.0
490.0,3596.0,0.0,6149.777806868876,-3519.8474008405146,13265.62520770939,0.0,0.0,16971.375409554363,0.0,0.0,0.0,16971.375409554363,0.0,0.6317451941362338,0.27241835212934606,0.0,0.0,0.0,"[1.8616351344697364, 2.0, 1.0196747588430313, 0.9557878402295756, 1.0423865719798187, 1.3856555416104115, 1.8392139056317056, 2.1091314991585577]",20.14,0.0,0.0,1185.1939839060062,292.93214697146135,41.44775801327541,-918.59719994351,-1581.1336814745634,949.2301020239003,0.0,0.0,0.0,0.0,0.0,0.0,2.1,19.432796865223413,0.0,18.595222036177756,0.0,2.1,20.14,15.41,21.78,18.67,21.2,2.46,2.1,0.0,-641.13,-2585.02,1874.39,110.0,3.0,157.0,0.0,0.0,0.0,0.0,0.0,0.0,0.0,0.0,0.0,0.0,0.0,0.0,0.0,0.0
491.0,4459.0,0.0,6436.9601037667235,-6332.910699916418,17228.87080368314,0.0,0.0,19666.235622504722,0.0,0.0,0.0,19666.235622504722,0.0,0.6317451941362338,0.39654340184770787,0.0,0.0,0.0,"[1.8616351344697364, 2.0, 1.0196747588430313, 0.9557878402295756, 1.0423865719798187, 1.3856555416104115, 1.8392139056317056, 2.1091314991585577]",20.14,0.0,0.0,1547.3685496680855,1111.4801321257573,72.24113429468674,-760.7308223060062,-1612.1520239116774,7342.092370706043,0.0,0.0,0.0,0.0,0.0,0.0,5.2,19.407587324569985,0.0,18.57730087313969,0.0,5.2,20.14,15.5,21.66,18.78,21.2,5.76,5.2,0.0,-530.95,-2140.77,2447.18,155.0,0.0,735.0,0.0,0.0,0.0,0.0,0.0,0.0,0.0,0.0,0.0,0.0,0.0,0.0,0.0,0.0
492.0,5646.0,0.0,8261.119466234639,-5278.397864912862,19185.5173311475,0.0,0.0,26893.288786769874,0.0,0.0,0.0,26893.288786769874,0.0,0.6317451941362338,0.5,0.0,0.0,0.0,"[1.8616351344697364, 2.0, 1.0196747588430313, 0.9557878402295756, 1.0423865719798187, 1.3856555416104115, 1.8392139056317056, 2.1091314991585577]",23.86,0.0,0.0,1705.9934693741811,1113.414386948019,65.69675145048538,-843.3952730428229,-6714.565788655749,4628.886876842928,0.0,0.0,0.0,0.0,0.0,0.0,7.3,20.680819563341007,0.0,18.846706158356923,0.0,7.3,23.86,15.8,21.89,21.48,23.24,7.96,7.3,7018.49,-588.64,-2373.4,2698.04,133.0,0.0,748.0,0.0,0.0,0.0,0.0,0.0,0.0,0.0,0.0,0.0,0.0,0.0,0.0,0.0,0.0
493.0,5841.0,7707.894614170694,2507.464521253823,-0.0,16679.109380153983,-16000.0,0.0,8377.952147252332,0.0,0.0,0.0,8377.952147252332,0.6533333333333333,0.6317451941362338,0.5,0.0,0.0,0.0,"[1.8616351344697364, 2.0, 1.0196747588430313, 0.9557878402295756, 1.0423865719798187, 1.3856555416104115, 1.8392139056317056, 2.1091314991585577]",23.86,0.0,0.0,1463.5529342605216,628.8477344376345,14.606303739232068,-797.5630988899991,-6258.616290634948,0.0,0.0,0.0,0.0,0.0,0.0,0.0,8.2,20.898024432774214,0.0,19.160585785232204,0.0,8.2,23.86,16.16,22.16,21.38,23.22,8.65,8.2,4764.53,-556.65,-2244.42,2314.62,0.0,0.0,462.0,0.0,0.0,0.0,0.0,0.0,0.0,0.0,0.0,0.0,0.0,0.0,0.0,0.0,0.0
494.0,5792.0,4824.102085196414,4860.349689959711,-0.0,14342.164033556626,-8489.795918367347,0.0,16239.423041181775,0.0,0.0,0.0,16239.423041181777,1.0,0.6317451941362338,0.5,0.0,0.0,0.0,"[1.8616351344697364, 2.0, 1.0196747588430313, 0.9557878402295756, 1.0423865719798187, 1.3856555416104115, 1.8392139056317056, 2.1091314991585577]",21.5,0.0,0.0,1291.9040744709623,349.0971758845514,36.26283633960862,-677.3253686271536,-2611.636222526875,6484.84342911232,0.0,0.0,0.0,0.0,0.0,0.0,8.2,20.28457964272051,0.0,19.285457714454143,0.0,8.2,21.5,16.39,22.19,19.79,22.0,8.51,8.2,1475.06,-472.73,-1906.06,2043.16,94.0,0.0,207.0,0.0,0.0,0.0,0.0,0.0,0.0,0.0,0.0,0.0,0.0,0.0,0.0,0.0,0.0
495.0,7025.0,0.0,986.1185926777835,-0.0,8011.118592677783,0.0,0.0,15573.91710048719,0.0,12420.107629303886,0.0,3153.809471183303,1.0,0.5789386140796696,0.5,0.0,0.0,0.0,"[1.8616351344697364, 2.0, 1.0196747588430313, 0.9557878402295756, 1.0423865719798187, 1.3856555416104115, 1.8392139056317056, 2.1091314991585577]",23.86,0.0,0.0,824.2988285172643,355.5446919587582,90.32512940040264,-873.950055811372,-5758.838582902401,5346.686147918094,0.0,0.0,0.0,0.0,0.0,0.0,6.7,21.14473163162786,0.0,19.535432161022737,0.0,6.7,23.86,16.69,22.38,21.73,23.44,6.64,6.7,0.0,-609.97,-2459.38,1303.64,274.0,0.0,117.0,0.0,0.0,0.0,0.0,0.0,0.0,0.0,0.0,0.0,0.0,0.0,0.0,0.0,0.0
496.0,4717.0,3541.61104300002,4701.353552001425,-0.0,0.0,5894.450564216405,0.0,14005.045448255356,0.0,0.0,0.0,14005.045448255358,0.749385605262908,0.5789386140796696,0.5,0.0,0.0,0.0,"[1.8616351344697364, 2.0, 1.0196747588430313, 0.9557878402295756, 1.0423865719798187, 1.3856555416104115, 1.8392139056317056, 2.1091314991585577]",23.86,0.0,0.0,1.9043374017901016,513.723752979298,83.74913118014231,-991.0767230908102,-5445.372547517358,0.0,0.0,0.0,0.0,0.0,0.0,0.0,4.4,21.305009520088692,0.0,19.766976127369784,0.0,4.4,23.86,16.95,22.59,21.59,23.37,3.6,4.4,0.0,-691.72,-2788.99,3.01,202.0,20.0,269.0,0.0,0.0,0.0,0.0,0.0,0.0,0.0,0.0,0.0,0.0,0.0,0.0,0.0,0.0
497.0,8032.0,0.0,2308.549435783598,-0.0,0.0,10340.549435783598,0.0,6833.011726919365,0.0,0.0,0.0,6833.011726919365,0.3097363945578231,0.5789386140796696,0.4510204081632653,0.0,0.0,0.0,"[1.8616351344697364, 2.0, 1.0196747588430313, 0.9557878402295756, 1.0423865719798187, 1.3856555416104115, 1.8392139056317056, 2.1091314991585577]",21.05,0.0,0.0,0.0,1113.4860260155106,135.85127092528182,-858.0688173229947,-1364.2199399854494,2393.7552105234377,0.0,0.0,0.0,0.0,0.0,0.0,4.2,20.448399682462256,0.0,19.730152298565777,0.0,4.2,21.05,16.99,22.47,19.43,21.69,3.42,4.2,0.0,-598.88,-2414.69,0.0,167.0,106.0,719.0,0.0,0.0,0.0,0.0,0.0,0.0,0.0,0.0,0.0,0.0,0.0,0.0,0.0,0.0
498.0,7285.0,64736.89554953203,46633.211071784375,-0.0,0.0,-16000.0,0.0,0.0,0.0,-80000.0,0.0,91793.20764536844,0.6533333333333333,0.8266666666666667,0.17551020408163254,0.0,0.0,0.0,"[1.8616351344697364, 2.0, 1.0196747588430313, 0.9557878402295756, 1.0423865719798187, 1.3856555416104115, 1.8392139056317056, 2.1091314991585577]",21.73,0.0,0.0,0.0,483.85026183547313,192.41117869473234,-907.854113425695,-2428.2098473463875,0.0,0.0,0.0,0.0,0.0,0.0,0.0,3.9,20.617020027612753,0.0,19.70054091989789,0.0,3.9,21.73,17.03,22.37,20.05,22.08,3.17,3.9,0.0,-633.63,-2554.79,0.0,110.0,262.0,270.0,0.0,0.0,0.0,0.0,0.0,0.0,0.0,0.0,0.0,0.0,0.0,0.0,0.0,0.0
499.0,9568.0,0.0,13100.399999999998,-0.0,0.0,14260.4,0.0,25786.938317120934,30846.6,0.0,0.0,25786.93831712093,0.04702380952380952,0.8266666666666667,0.17551020408163254,0.0,0.0,0.0,"[1.8616351344697364, 2.0, 1.0196747588430313, 0.9557878402295756, 1.0423865719798187, 1.3856555416104115, 1.8392139056317056, 2.1091314991585577]",20.14,0.0,0.0,0.0,389.5732490170717,219.4739406011884,-837.1177792273792,-1505.972310237196,10357.729539359036,0.0,0.0,0.0,0.0,0.0,0.0,3.7,19.467270832052968,0.0,18.62917343128871,0.0,3.7,20.14,15.36,21.9,18.28,20.98,3.0,3.7,1161.55,-584.26,-2355.73,0.0,100.0,319.0,200.0,0.0,0.0,0.0,0.0,0.0,0.0,0.0,0.0,0.0,0.0,0.0,0.0,0.0,0.0
500.0,6397.0,0.0,0.0,-0.0,0.0,1106.0,0.0,45845.530339157805,0.0,45845.53033915782,0.0,0.0,0.0,0.6317451941362338,0.1755102040816325,0.0,0.0,0.0,"[1.8616351344697364, 2.0, 1.0196747588430313, 0.9557878402295756, 1.0423865719798187, 1.3856555416104115, 1.8392139056317056, 2.1091314991585577]",23.72,0.0,0.0,0.0,733.4407729747666,162.56626369508942,-1029.8120086492418,-6611.369254169175,479.55564426990804,0.0,0.0,0.0,0.0,0.0,0.0,3.5,20.606761454075322,0.0,18.754317888025604,0.0,3.5,23.72,15.45,22.06,21.1,23.12,2.79,3.5,10524.48,-718.75,-2897.99,0.0,93.0,208.0,468.0,0.0,0.0,0.0,0.0,0.0,0.0,0.0,0.0,0.0,0.0,0.0,0.0,0.0,0.0
501.0,4958.0,9047.859600719197,10701.930292006542,-1424.4458668999723,0.0,0.0,0.0,25656.885588993526,0.0,0.0,0.0,25656.885588993533,0.0,0.6317451941362338,0.20342934307287197,0.0,0.0,0.0,"[1.8616351344697364, 2.0, 1.0196747588430313, 0.9557878402295756, 1.0423865719798187, 1.3856555416104115, 1.8392139056317056, 2.1091314991585577]",20.14,0.0,0.0,0.0,1028.7370091734372,111.28612372748242,-862.5800982011699,-1456.2322292551428,1698.9176560547385,0.0,0.0,0.0,0.0,0.0,0.0,3.2,19.492601786647636,0.0,18.665744369551735,0.0,3.2,20.14,15.4,21.93,18.3,21.0,2.55,3.2,7341.1,-602.03,-2427.39,0.0,135.0,83.0,676.0,0.0,0.0,0.0,0.0,0.0,0.0,0.0,0.0,0.0,0.0,0.0,0.0,0.0,0.0
502.0,3629.0,0.0,6149.777806868876,-3519.8474008405146,0.0,0.0,0.0,16971.375409554363,0.0,0.0,0.0,16971.375409554363,0.0,0.6317451941362338,0.27241835212934606,0.0,0.0,0.0,"[1.8616351344697364, 2.0, 1.0196747588430313, 0.9557878402295756, 1.0423865719798187, 1.3856555416104115, 1.8392139056317056, 2.1091314991585577]",20.14,0.0,0.0,0.0,1335.5671352381887,147.86511382768052,-872.7650257906863,-1581.6092587382989,949.2301020239003,0.0,0.0,0.0,0.0,0.0,0.0,3.0,19.432796865223413,0.0,18.595222036177756,0.0,3.0,20.14,15.41,21.78,18.67,21.2,2.38,3.0,0.0,-609.14,-2456.05,0.0,256.0,71.0,839.0,0.0,0.0,0.0,0.0,0.0,0.0,0.0,0.0,0.0,0.0,0.0,0.0,0.0,0.0
503.0,2601.0,0.0,6436.9601037667235,-6332.910699916418,0.0,0.0,0.0,19666.235622504722,0.0,0.0,0.0,19666.235622504722,0.0,0.6317451941362338,0.39654340184770787,0.0,0.0,0.0,"[1.8616351344697364, 2.0, 1.0196747588430313, 0.9557878402295756, 1.0423865719798187, 1.3856555416104115, 1.8392139056317056, 2.1091314991585577]",20.14,0.0,0.0,0.0,897.995711002022,141.79496162436325,-882.9499533802029,-1635.0786483517666,7342.092370706043,0.0,0.0,0.0,0.0,0.0,0.0,2.8,19.407587324569985,0.0,18.57730087313969,0.0,2.8,20.14,15.5,21.66,18.78,21.2,2.22,2.8,0.0,-616.25,-2484.71,0.0,298.0,56.0,497.0,0.0,0.0,0.0,0.0,0.0,0.0,0.0,0.0,0.0,0.0,0.0,0.0,0.0,0.0
504.0,4079.0,0.0,8261.119466234639,-5278.397864912862,0.0,0.0,0.0,26893.288786769874,0.0,0.0,0.0,26893.288786769874,0.0,0.6317451941362338,0.5,0.0,0.0,0.0,"[1.8616351344697364, 2.0, 1.0196747588430313, 0.9557878402295756, 1.0423865719798187, 1.3856555416104115, 1.8392139056317056, 2.1091314991585577]",23.86,0.0,0.0,0.0,323.16383345274204,56.55990776945059,-1098.018462780732,-6754.900228985825,4628.886876842928,0.0,0.0,0.0,0.0,0.0,0.0,2.3,20.680819563341007,0.0,18.846706158356923,0.0,2.3,23.86,15.8,21.89,21.48,23.24,1.73,2.3,7018.49,-766.35,-3089.93,0.0,160.0,2.0,153.0,0.0,0.0,0.0,0.0,0.0,0.0,0.0,0.0,0.0,0.0,0.0,0.0,0.0,0.0
505.0,2224.0,7707.894614170694,2507.464521253823,-0.0,0.0,-16000.0,0.0,8377.952147252332,0.0,0.0,0.0,8377.952147252332,0.6533333333333333,0.6317451941362338,0.5,0.0,0.0,0.0,"[1.8616351344697364, 2.0, 1.0196747588430313, 0.9557878402295756, 1.0423865719798187, 1.3856555416104115, 1.8392139056317056, 2.1091314991585577]",23.86,0.0,0.0,0.0,228.95845970183183,53.24029328326147,-1118.388317959765,-6305.885470002215,0.0,0.0,0.0,0.0,0.0,0.0,0.0,1.9,20.898024432774214,0.0,19.160585785232204,0.0,1.9,23.86,16.16,22.16,21.38,23.22,1.35,1.9,4764.53,-780.57,-3147.26,0.0,160.0,0.0,84.0,0.0,0.0,0.0,0.0,0.0,0.0,0.0,0.0,0.0,0.0,0.0,0.0,0.0,0.0
506.0,1319.0,4824.102085196414,4860.349689959711,-0.0,0.0,-8489.795918367347,0.0,16239.423041181775,0.0,0.0,0.0,16239.423041181777,1.0,0.6317451941362338,0.5,0.0,0.0,0.0,"[1.8616351344697364, 2.0, 1.0196747588430313, 0.9557878402295756, 1.0423865719798187, 1.3856555416104115, 1.8392139056317056, 2.1091314991585577]",21.5,0.0,0.0,0.0,369.1561147820836,56.4966770173327,-1023.6129066707102,-2661.1551935246744,6484.84342911232,0.0,0.0,0.0,0.0,0.0,0.0,1.4,20.28457964272051,0.0,19.285457714454143,0.0,1.4,21.5,16.39,22.19,19.79,22.0,0.86,1.4,1475.06,-714.42,-2880.55,0.0,160.0,0.0,187.0,0.0,0.0,0.0,0.0,0.0,0.0,0.0,0.0,0.0,0.0,0.0,0.0,0.0,0.0
507.0,2570.0,0.0,986.1185926777835,-0.0,0.0,0.0,0.0,15573.91710048719,0.0,12420.107629303886,0.0,3153.809471183303,1.0,0.5789386140796696,0.5,0.0,0.0,0.0,"[1.8616351344697364, 2.0, 1.0196747588430313, 0.9557878402295756, 1.0423865719798187, 1.3856555416104115, 1.8392139056317056, 2.1091314991585577]",23.86,0.0,0.0,0.0,242.5698825251573,53.55644704385091,-1154.0355645230723,-5797.233275042862,5346.686147918094,0.0,0.0,0.0,0.0,0.0,0.0,1.2,21.14473163162786,0.0,19.535432161022737,0.0,1.2,23.86,16.69,22.38,21.73,23.44,0.71,1.2,0.0,-805.45,-3247.57,0.0,160.0,0.0,94.0,0.0,0.0,0.0,0.0,0.0,0.0,0.0,0.0,0.0,0.0,0.0,0.0,0.0,0.0
508.0,2270.0,3541.61104300002,4701.353552001425,-0.0,0.0,5894.450564216405,0.0,14005.045448255356,0.0,0.0,0.0,14005.045448255358,0.749385605262908,0.5789386140796696,0.5,0.0,0.0,0.0,"[1.8616351344697364, 2.0, 1.0196747588430313, 0.9557878402295756, 1.0423865719798187, 1.3856555416104115, 1.8392139056317056, 2.1091314991585577]",23.86,0.0,0.0,0.0,171.5039275739003,61.52352181070478,-1164.2204921125885,-5465.315464875816,0.0,0.0,0.0,0.0,0.0,0.0,0.0,1.0,21.305009520088692,0.0,19.766976127369784,0.0,1.0,23.86,16.95,22.59,21.59,23.37,0.52,1.0,0.0,-812.56,-3276.23,0.0,160.0,17.0,40.0,0.0,0.0,0.0,0.0,0.0,0.0,0.0,0.0,0.0,0.0,0.0,0.0,0.0,0.0
509.0,1205.0,0.0,2308.549435783598,-0.0,0.0,10340.549435783598,0.0,6833.011726919365,0.0,0.0,0.0,6833.011726919365,0.3097363945578231,0.5789386140796696,0.4510204081632653,0.0,0.0,0.0,"[1.8616351344697364, 2.0, 1.0196747588430313, 0.9557878402295756, 1.0423865719798187, 1.3856555416104115, 1.8392139056317056, 2.1091314991585577]",21.05,0.0,0.0,0.0,170.64425876400605,79.60751691642065,-1036.3050501395312,-1384.4517339580943,2393.7552105234377,0.0,0.0,0.0,0.0,0.0,0.0,0.7,20.448399682462256,0.0,19.730152298565777,0.0,0.7,21.05,16.99,22.47,19.43,21.69,0.3,0.7,0.0,-723.28,-2916.27,0.0,160.0,49.0,36.0,0.0,0.0,0.0,0.0,0.0,0.0,0.0,0.0,0.0,0.0,0.0,0.0,0.0,0.0
510.0,3770.0,19869.34673366834,0.0,-0.0,0.0,-16000.0,0.0,0.0,0.0,0.0,0.0,0.0,0.6533333333333333,0.5789386140796696,0.4510204081632653,0.0,0.0,0.0,"[1.1333414621108986, 2.247775230991234, 1.1894742443445132, 0.9669797921694148, 1.2236612914743468, 1.3856555416104115, 1.4982782452569943, 1.9837511786030326]",21.73,0.0,0.0,0.0,1622.4099614728989,123.07865899746851,-1075.9054186527148,-2447.534530714543,0.0,0.0,0.0,0.0,0.0,0.0,0.0,0.6,20.617020027612753,0.0,19.70054091989789,0.0,0.6,21.73,17.03,22.37,20.05,22.08,0.19,0.6,0.0,-750.92,-3027.7,0.0,117.0,89.0,1121.0,0.0,0.0,0.0,0.0,0.0,0.0,0.0,0.0,0.0,0.0,0.0,0.0,0.0,0.0
511.0,1445.0,0.0,9317.4,-0.0,0.0,10762.400000000001,0.0,24202.9408935151,0.0,0.0,0.0,24202.940893515104,0.19574829931972787,0.5789386140796696,0.4510204081632653,0.0,0.0,0.0,"[1.1333414621108986, 2.247775230991234, 1.1894742443445132, 0.9669797921694148, 1.2236612914743468, 1.3856555416104115, 1.4982782452569943, 1.9837511786030326]",20.87,0.0,0.0,0.0,212.05163977391183,118.87381398162897,-1042.257176038788,-1351.4641316077782,5789.0780890168335,0.0,0.0,0.0,0.0,0.0,0.0,0.4,20.281467354232344,0.0,19.59059775597595,0.0,0.4,20.87,16.97,22.21,19.33,21.48,0.01,0.4,508.08,-727.44,-2933.02,0.0,150.0,122.0,64.0,0.0,0.0,0.0,0.0,0.0,0.0,0.0,0.0,0.0,0.0,0.0,0.0,0.0,0.0
512.0,4604.0,0.0,0.0,-0.0,0.0,4604.0,0.0,15943.82059490848,0.0,15943.820594908484,0.0,0.0,0.0,0.5111502612101607,0.4510204081632653,0.0,0.0,0.0,"[1.1333414621108986, 2.247775230991234, 1.1894742443445132, 0.9669797921694148, 1.2236612914743468, 1.3856555416104115, 1.4982782452569943, 1.9837511786030326]",22.65,0.0,0.0,1.8761383628793533,2369.032322866044,155.89541934665223,-1123.1020495435164,-3937.8052058665976,0.0,0.0,0.0,0.0,0.0,0.0,0.0,0.6,20.82968488017984,0.0,19.62781475387024,0.0,0.6,22.65,17.01,22.25,20.84,22.6,0.2,0.6,9482.55,-783.86,-3160.52,2.97,112.0,119.0,1669.0,0.0,0.0,0.0,0.0,0.0,0.0,0.0,0.0,0.0,0.0,0.0,0.0,0.0,0.0
513.0,5149.0,30166.92919764657,8877.414285209412,-0.0,10.319733551078306,-16000.0,0.0,23990.973304431514,0.0,0.0,0.0,23990.973304431518,0.6533333333333333,0.5111502612101607,0.4510204081632653,0.0,0.0,0.0,"[1.1333414621108986, 2.247775230991234, 1.1894742443445132, 0.9669797921694148, 1.2236612914743468, 1.3856555416104115, 1.4982782452569943, 1.9837511786030326]",21.43,0.0,0.0,31.200078861323217,1102.955083094306,132.91104095180006,-1014.8394425680216,-2220.033243310182,4188.094209147659,0.0,0.0,0.0,0.0,0.0,0.0,1.5,20.423398078270118,0.0,19.565329156134787,0.0,1.5,21.43,16.98,22.15,19.58,21.63,1.15,1.5,6855.06,-708.3,-2855.86,49.34,141.0,115.0,724.0,0.0,0.0,0.0,0.0,0.0,0.0,0.0,0.0,0.0,0.0,0.0,0.0,0.0,0.0
514.0,3636.0,4100.302417364333,8182.657371119477,-0.0,526.056465841966,7212.8,0.0,23127.51262339173,0.0,0.0,0.0,23127.51262339173,0.3466666666666667,0.5111502612101607,0.4510204081632653,0.0,0.0,0.0,"[1.1333414621108986, 2.247775230991234, 1.1894742443445132, 0.9669797921694148, 1.2236612914743468, 1.3856555416104115, 1.4982782452569943, 1.9837511786030326]",22.49,0.0,0.0,86.36291016591197,1548.9799172944327,108.69366289064902,-1002.7615634257359,-3740.314584997221,0.0,0.0,0.0,0.0,0.0,0.0,0.0,2.8,20.754123908623015,0.0,19.596227686209957,0.0,2.8,22.49,17.02,22.17,20.58,22.37,2.44,2.8,0.0,-699.87,-2821.87,136.58,120.0,65.0,1068.0,0.0,0.0,0.0,0.0,0.0,0.0,0.0,0.0,0.0,0.0,0.0,0.0,0.0,0.0
515.0,10305.0,86934.90455309222,0.0,-0.0,1173.4113399510247,-16000.0,0.0,18488.735233249983,37492.9,0.0,0.0,0.0,1.0,0.5111502612101607,0.4510204081632653,245474.56548111115,61368.641370277786,306843.2068513889,"[1.1333414621108986, 2.247775230991234, 1.1894742443445132, 0.9669797921694148, 1.2236612914743468, 1.3856555416104115, 1.4982782452569943, 1.9837511786030326]",21.04,0.0,0.0,106.61019943879644,2115.501663014735,97.05920450095769,-878.1809860985992,-1692.6704336350595,4598.686763070735,0.0,0.0,0.0,0.0,0.0,0.0,3.8,20.285379480456996,0.0,19.539661176252807,0.0,3.8,21.04,17.02,22.06,19.43,21.47,3.4,3.8,483.36,-612.92,-2471.29,168.6,92.0,36.0,1502.0,0.0,0.0,0.0,0.0,0.0,0.0,0.0,0.0,0.0,0.0,0.0,0.0,0.0,0.0
516.0,9519.0,14297.49324108477,7708.164260920804,-0.0,3001.1584860414578,0.0,0.0,23109.11972517978,0.0,0.0,0.0,23109.119725179782,1.0,0.5111502612101607,0.4510204081632653,0.0,0.0,0.0,"[1.1333414621108986, 2.247775230991234, 1.1894742443445132, 0.9669797921694148, 1.2236612914743468, 1.3856555416104115, 1.4982782452569943, 1.9837511786030326]",23.13,0.0,0.0,153.2801388900417,3328.1361584380475,121.49789019452128,-943.8037039169053,-4668.393693673705,2015.8130116529455,0.0,0.0,0.0,0.0,0.0,0.0,4.6,20.94643737861171,0.0,19.61489572486243,0.0,4.6,23.13,17.11,22.12,20.95,22.6,4.18,4.6,8347.39,-658.72,-2655.96,242.41,106.0,22.0,2387.0,0.0,0.0,0.0,0.0,0.0,0.0,0.0,0.0,0.0,0.0,0.0,0.0,0.0,0.0
517.0,6511.0,0.0,5997.503888277468,-0.0,2505.9108781121336,10002.593010165334,0.0,18266.430550589048,0.0,0.0,0.0,18266.43055058905,0.5747196849419501,0.5111502612101607,0.4510204081632653,0.0,0.0,0.0,"[1.1333414621108986, 2.247775230991234, 1.1894742443445132, 0.9669797921694148, 1.2236612914743468, 1.3856555416104115, 1.4982782452569943, 1.9837511786030326]",23.13,0.0,0.0,153.93272684761672,688.0216041853545,73.8535184736929,-918.3413849431141,-4548.2337341232815,4552.958318725323,0.0,0.0,0.0,0.0,0.0,0.0,5.1,21.00277166889335,0.0,19.697960598835135,0.0,5.1,23.13,17.21,22.18,20.71,22.43,4.66,5.1,0.0,-640.95,-2584.3,243.45,163.0,16.0,418.0,0.0,0.0,0.0,0.0,0.0,0.0,0.0,0.0,0.0,0.0,0.0,0.0,0.0,0.0
518.0,4355.0,7550.426588278549,4163.540970981875,-0.0,1005.8665156447189,0.0,0.0,12760.165400385871,0.0,0.0,0.0,12760.165400385871,0.5747196849419501,0.5111502612101607,0.4510204081632653,0.0,0.0,0.0,"[1.1333414621108986, 2.247775230991234, 1.1894742443445132, 0.9669797921694148, 1.2236612914743468, 1.3856555416104115, 1.4982782452569943, 1.9837511786030326]",23.13,0.0,0.0,129.88885978540534,1162.057313774535,71.4191345171542,-908.1564573535977,-4370.507299522758,0.0,0.0,0.0,0.0,0.0,0.0,0.0,5.3,21.087662994042777,0.0,19.8197149296341,0.0,5.3,23.13,17.35,22.29,21.08,22.72,4.85,5.3,0.0,-633.84,-2555.64,205.42,120.0,15.0,789.0,0.0,0.0,0.0,0.0,0.0,0.0,0.0,0.0,0.0,0.0,0.0,0.0,0.0,0.0
519.0,3759.0,0.0,7051.7091709914985,-0.0,26.090918292301744,10784.618252699196,0.0,21275.515895685763,0.0,0.0,0.0,21275.515895685763,0.11618999732718843,0.5111502612101607,0.4510204081632653,0.0,0.0,0.0,"[1.1333414621108986, 2.247775230991234, 1.1894742443445132, 0.9669797921694148, 1.2236612914743468, 1.3856555416104115, 1.4982782452569943, 1.9837511786030326]",21.25,0.0,0.0,41.59152495274677,1231.7621264434592,65.94967445895693,-837.6285166767951,-1644.1953388904674,353.82302634426577,0.0,0.0,0.0,0.0,0.0,0.0,4.8,20.51021450207218,0.0,19.791524980039156,0.0,4.8,21.25,17.38,22.21,19.69,21.65,4.29,4.8,8567.96,-584.62,-2357.17,65.78,85.0,21.0,858.0,0.0,0.0,0.0,0.0,0.0,0.0,0.0,0.0,0.0,0.0,0.0,0.0,0.0,0.0
520.0,4548.0,7865.929077214758,3278.599431828684,-0.0,0.0,0.0,0.0,9641.724134255544,0.0,0.0,0.0,9641.724134255546,0.11618999732718843,0.5111502612101607,0.4510204081632653,0.0,0.0,0.0,"[1.1333414621108986, 2.247775230991234, 1.1894742443445132, 0.9669797921694148, 1.2236612914743468, 1.3856555416104115, 1.4982782452569943, 1.9837511786030326]",20.87,0.0,0.0,0.9420838098413895,860.4568396366406,111.57066211201294,-858.9284794274931,-1224.358098846196,1120.4049238928121,0.0,0.0,0.0,0.0,0.0,0.0,4.0,20.331784654672568,0.0,19.70818541433347,0.0,4.0,20.87,17.36,22.06,19.52,21.44,3.49,4.0,0.0,-599.48,-2417.11,1.49,166.0,74.0,537.0,0.0,0.0,0.0,0.0,0.0,0.0,0.0,0.0,0.0,0.0,0.0,0.0,0.0,0.0
521.0,4299.0,37617.40516058774,17130.318134784804,-0.0,0.0,-16000.0,0.0,32283.952895413764,0.0,-16949.825498013724,0.0,49233.77839342749,0.7695233306605218,0.5803620486603834,0.4510204081632653,0.0,0.0,0.0,"[1.1333414621108986, 2.247775230991234, 1.1894742443445132, 0.9669797921694148, 1.2236612914743468, 1.3856555416104115, 1.4982782452569943, 1.9837511786030326]",20.87,0.0,0.0,0.0,1646.194131879973,157.47618814959944,-894.5757259908003,-1357.8062508029425,5174.4212132822895,0.0,0.0,0.0,0.0,0.0,0.0,3.3,20.26980451740845,0.0,19.629369700592243,0.0,3.3,20.87,17.33,21.93,19.59,21.43,2.78,3.3,7519.5,-624.36,-2517.42,0.0,162.0,125.0,1111.0,0.0,0.0,0.0,0.0,0.0,0.0,0.0,0.0,0.0,0.0,0.0,0.0,0.0,0.0
522.0,6016.0,19869.34673366834,0.0,-0.0,0.0,-16000.0,0.0,6113.079164517503,0.0,0.0,0.0,0.0,0.6533333333333333,0.5789386140796696,0.4510204081632653,0.0,0.0,0.0,"[1.1333414621108986, 2.247775230991234, 1.1894742443445132, 0.9669797921694148, 1.2236612914743468, 1.3856555416104115, 1.4982782452569943, 1.9837511786030326]",23.13,0.0,0.0,0.0,821.7717431913994,172.90449166636407,-1045.652979812069,-4605.827349909305,0.0,0.0,0.0,0.0,0.0,0.0,0.0,2.6,20.982990566863283,0.0,19.700461144709898,0.0,2.6,23.13,17.39,22.01,21.13,22.59,2.11,2.6,0.0,-729.81,-2942.57,0.0,234.0,148.0,465.0,0.0,0.0,0.0,0.0,0.0,0.0,0.0,0.0,0.0,0.0,0.0,0.0,0.0,0.0
523.0,10238.0,0.0,9317.4,-0.0,0.0,10762.400000000001,0.0,24202.9408935151,0.0,0.0,0.0,24202.940893515104,0.19574829931972787,0.5789386140796696,0.4510204081632653,0.0,0.0,0.0,"[1.1333414621108986, 2.247775230991234, 1.1894742443445132, 0.9669797921694148, 1.2236612914743468, 1.3856555416104115, 1.4982782452569943, 1.9837511786030326]",20.87,0.0,0.0,0.0,2929.2498306471216,230.50770684575983,-965.8702191174151,-1342.5601258620525,5789.0780890168335,0.0,0.0,0.0,0.0,0.0,0.0,1.9,20.281467354232344,0.0,19.59059775597595,0.0,1.9,20.87,16.97,22.21,19.33,21.48,1.39,1.9,508.08,-674.12,-2718.05,0.0,312.0,122.0,1975.0,0.0,0.0,0.0,0.0,0.0,0.0,0.0,0.0,0.0,0.0,0.0,0.0,0.0,0.0
524.0,7887.0,0.0,0.0,-0.0,0.0,4604.0,0.0,15943.82059490848,0.0,15943.820594908484,0.0,0.0,0.0,0.5111502612101607,0.4510204081632653,0.0,0.0,0.0,"[1.1333414621108986, 2.247775230991234, 1.1894742443445132, 0.9669797921694148, 1.2236612914743468, 1.3856555416104115, 1.4982782452569943, 1.9837511786030326]",22.65,0.0,0.0,0.0,2824.2985967725335,205.37348287889944,-1087.4548029802093,-3934.069327514212,0.0,0.0,0.0,0.0,0.0,0.0,0.0,1.3,20.82968488017984,0.0,19.62781475387024,0.0,1.3,22.65,17.01,22.25,20.84,22.6,0.78,1.3,9482.55,-758.98,-3060.21,0.0,240.0,120.0,1936.0,0.0,0.0,0.0,0.0,0.0,0.0,0.0,0.0,0.0,0.0,0.0,0.0,0.0,0.0
525.0,7001.0,30166.92919764657,8877.414285209412,-0.0,0.0,-16000.0,0.0,23990.973304431514,0.0,0.0,0.0,23990.973304431518,0.6533333333333333,0.5111502612101607,0.4510204081632653,0.0,0.0,0.0,"[1.1333414621108986, 2.247775230991234, 1.1894742443445132, 0.9669797921694148, 1.2236612914743468, 1.3856555416104115, 1.4982782452569943, 1.9837511786030326]",21.43,0.0,0.0,0.0,1490.8806335590807,203.25525268295019,-1060.6716167208451,-2227.056439844987,4188.094209147659,0.0,0.0,0.0,0.0,0.0,0.0,0.6,20.423398078270118,0.0,19.565329156134787,0.0,0.6,21.43,16.98,22.15,19.58,21.63,0.07,0.6,6855.06,-740.29,-2984.84,0.0,274.0,153.0,935.0,0.0,0.0,0.0,0.0,0.0,0.0,0.0,0.0,0.0,0.0,0.0,0.0,0.0,0.0
526.0,4529.0,4100.302417364333,8182.657371119477,-0.0,0.0,7212.8,0.0,23127.51262339173,0.0,0.0,0.0,23127.51262339173,0.3466666666666667,0.5111502612101607,0.4510204081632653,0.0,0.0,0.0,"[1.1333414621108986, 2.247775230991234, 1.1894742443445132, 0.9669797921694148, 1.2236612914743468, 1.3856555416104115, 1.4982782452569943, 1.9837511786030326]",22.49,0.0,0.0,0.0,1101.8804970819385,155.5160348339449,-1150.4430134737233,-3760.3670881370876,0.0,0.0,0.0,0.0,0.0,0.0,0.0,-0.1,20.754123908623015,0.0,19.596227686209957,0.0,-0.1,22.49,17.02,22.17,20.58,22.37,-0.66,-0.1,0.0,-802.94,-3237.46,0.0,260.0,92.0,663.0,0.0,0.0,0.0,0.0,0.0,0.0,0.0,0.0,0.0,0.0,0.0,0.0,0.0,0.0
527.0,3604.0,86934.90455309222,0.0,-0.0,0.0,-16000.0,0.0,18488.735233249983,0.0,0.0,0.0,0.0,1.0,0.5111502612101607,0.4510204081632653,245474.56548111115,61368.641370277786,306843.2068513889,"[1.1333414621108986, 2.247775230991234, 1.1894742443445132, 0.9669797921694148, 1.2236612914743468, 1.3856555416104115, 1.4982782452569943, 1.9837511786030326]",21.04,0.0,0.0,0.0,699.770411253909,108.50397063429537,-1107.3418568627176,-1722.7925403137792,4598.686763070735,0.0,0.0,0.0,0.0,0.0,0.0,-0.7,20.285379480456996,0.0,19.539661176252807,0.0,-0.7,21.04,17.02,22.06,19.43,21.47,-1.25,-0.7,483.36,-772.86,-3116.17,0.0,240.0,36.0,384.0,0.0,0.0,0.0,0.0,0.0,0.0,0.0,0.0,0.0,0.0,0.0,0.0,0.0,0.0
528.0,4298.0,14297.49324108477,7708.164260920804,-0.0,0.0,0.0,0.0,23109.11972517978,0.0,0.0,0.0,23109.119725179782,1.0,0.5111502612101607,0.4510204081632653,0.0,0.0,0.0,"[1.1333414621108986, 2.247775230991234, 1.1894742443445132, 0.9669797921694148, 1.2236612914743468, 1.3856555416104115, 1.4982782452569943, 1.9837511786030326]",23.13,0.0,0.0,0.0,478.047497368687,59.02590710204821,-1254.4439953971544,-4708.6025753587155,2015.8130116529455,0.0,0.0,0.0,0.0,0.0,0.0,-1.5,20.94643737861171,0.0,19.61489572486243,0.0,-1.5,23.13,17.11,22.12,20.95,22.6,-2.02,-1.5,8347.39,-875.53,-3530.13,0.0,160.0,0.0,267.0,0.0,0.0,0.0,0.0,0.0,0.0,0.0,0.0,0.0,0.0,0.0,0.0,0.0,0.0
529.0,5219.0,0.0,5997.503888277468,-0.0,0.0,10002.593010165334,0.0,18266.430550589048,0.0,0.0,0.0,18266.43055058905,0.5747196849419501,0.5111502612101607,0.4510204081632653,0.0,0.0,0.0,"[1.1333414621108986, 2.247775230991234, 1.1894742443445132, 0.9669797921694148, 1.2236612914743468, 1.3856555416104115, 1.4982782452569943, 1.9837511786030326]",23.13,0.0,0.0,0.0,1218.5088989575897,76.22467167811365,-1290.0912419604617,-4595.975317816019,4552.958318725323,0.0,0.0,0.0,0.0,0.0,0.0,-2.2,21.00277166889335,0.0,19.697960598835135,0.0,-2.2,23.13,17.21,22.18,20.71,22.43,-2.71,-2.2,0.0,-900.41,-3630.44,0.0,160.0,0.0,811.0,0.0,0.0,0.0,0.0,0.0,0.0,0.0,0.0,0.0,0.0,0.0,0.0,0.0,0.0
530.0,2876.0,7550.426588278549,4163.540970981875,-0.0,0.0,0.0,0.0,12760.165400385871,0.0,0.0,0.0,12760.165400385871,0.5747196849419501,0.5111502612101607,0.4510204081632653,0.0,0.0,0.0,"[1.1333414621108986, 2.247775230991234, 1.1894742443445132, 0.9669797921694148, 1.2236612914743468, 1.3856555416104115, 1.4982782452569943, 1.9837511786030326]",23.13,0.0,0.0,0.0,596.4668759316181,61.77644481917632,-1330.8309523185274,-4424.773027066308,0.0,0.0,0.0,0.0,0.0,0.0,0.0,-3.0,21.087662994042777,0.0,19.8197149296341,0.0,-3.0,23.13,17.35,22.29,21.08,22.72,-3.52,-3.0,0.0,-928.84,-3745.09,0.0,160.0,0.0,354.0,0.0,0.0,0.0,0.0,0.0,0.0,0.0,0.0,0.0,0.0,0.0,0.0,0.0,0.0
531.0,3610.0,0.0,7051.7091709914985,-0.0,0.0,10784.618252699196,0.0,21275.515895685763,0.0,0.0,0.0,21275.515895685763,0.11618999732718843,0.5111502612101607,0.4510204081632653,0.0,0.0,0.0,"[1.1333414621108986, 2.247775230991234, 1.1894742443445132, 0.9669797921694148, 1.2236612914743468, 1.3856555416104115, 1.4982782452569943, 1.9837511786030326]",21.25,0.0,0.0,0.0,351.46126511176055,56.085677128566424,-1260.3030116417244,-1698.1731649616568,353.82302634426577,0.0,0.0,0.0,0.0,0.0,0.0,-3.5,20.51021450207218,0.0,19.791524980039156,0.0,-3.5,21.25,17.38,22.21,19.69,21.65,-4.04,-3.5,8567.96,-879.62,-3546.62,0.0,160.0,0.0,174.0,0.0,0.0,0.0,0.0,0.0,0.0,0.0,0.0,0.0,0.0,0.0,0.0,0.0,0.0
532.0,1215.0,7865.929077214758,3278.599431828684,-0.0,0.0,0.0,0.0,9641.724134255544,0.0,0.0,0.0,9641.724134255546,0.11618999732718843,0.5111502612101607,0.4510204081632653,0.0,0.0,0.0,"[1.1333414621108986, 2.247775230991234, 1.1894742443445132, 0.9669797921694148, 1.2236612914743468, 1.3856555416104115, 1.4982782452569943, 1.9837511786030326]",20.87,0.0,0.0,0.0,320.3699098205857,61.58675256282265,-1261.2331192133897,-1275.8296947651775,1120.4049238928121,0.0,0.0,0.0,0.0,0.0,0.0,-3.9,20.331784654672568,0.0,19.70818541433347,0.0,-3.9,20.87,17.36,22.06,19.52,21.44,-4.46,-3.9,0.0,-880.27,-3549.24,0.0,160.0,11.0,150.0,0.0,0.0,0.0,0.0,0.0,0.0,0.0,0.0,0.0,0.0,0.0,0.0,0.0,0.0
533.0,2649.0,37617.40516058774,17130.318134784804,-0.0,0.0,-16000.0,0.0,32283.952895413764,0.0,-16949.825498013724,0.0,49233.77839342749,0.7695233306605218,0.5803620486603834,0.4510204081632653,0.0,0.0,0.0,"[1.1333414621108986, 2.247775230991234, 1.1894742443445132, 0.9669797921694148, 1.2236612914743468, 1.3856555416104115, 1.4982782452569943, 1.9837511786030326]",20.87,0.0,0.0,0.0,136.6157017056925,57.31867679486524,-1281.6029743924225,-1407.373904448157,5174.4212132822895,0.0,0.0,0.0,0.0,0.0,0.0,-4.3,20.26980451740845,0.0,19.629369700592243,0.0,-4.3,20.87,17.33,21.93,19.59,21.43,-4.87,-4.3,7519.5,-894.49,-3606.56,0.0,160.0,11.0,15.0,0.0,0.0,0.0,0.0,0.0,0.0,0.0,0.0,0.0,0.0,0.0,0.0,0.0,0.0
