,0
import_elec,2534267.182243553
import_th,0.0
consum_elec,2304480.0
consum_th,22342088.873184234
consum_cold,40307.54932356556
pow_elec_hp,0.0
pow_th_hp,0.0
pow_th_gb,21385674.866336722
pow_th_chp,0.0
pow_gas_gb,22269785.34451393
pow_elec_eh,139499.83829531955
pow_elec_ac,20153.77466178278
pow_elec_chp,0.0
pow_th_eh_in,557999.3531812782
pow_th_eh_out,697499.1914765978
consum_dhw,877185.21
gen_pv,0.0
trans_to_hub,7293.0
trans_to_bul,2541523.717243553
dh_to_bul_1,0.0
dh_to_bul_2,0.0
temp_zone_1,531.8550194559883
temp_zone_2,0.0
temp_amb,42.3
pow_elec_bat,-74739.26036201575
pow_th_tes,2118219.155508455
soc_bat_avg,12.638734635928445
soc_tes_avg,6.700218445937566
soc_ev_1,18.555102040816323
soc_ev_2,0.0
consum_ev_drive,150750.0
consum_ev_charge,-2804.0
soc_ev_1_driving,3.333333333333334
soc_ev_2_driving,0.0
obj_cost,2026.4262035362917
obj_co2,4575728.08312051
obj_peak,2534267.182243553
emi_factor_elec,1359.0
emi_factor_dh,4316.0
price_elec,1584.0
price_dh,2030.05
slack_ext,0.0
restload_avg,0.0
renovation_cost_construction,9186726.659520004
renovation_cost_hp,0.0
renovation_cost_pv,0.0
renovation_cost_total,9186726.659520004
