,0
import_elec,1578436545.5787086
import_th,0.0
consum_elec,841569464.0
consum_th,4145389571.599723
consum_cold,123238773.738359
pow_elec_hp,1505834108.816545
pow_th_hp,4191831539.9191337
pow_th_gb,0.0
pow_th_chp,0.0
pow_gas_gb,0.0
pow_elec_eh,288809286.5085364
pow_elec_ac,62245020.80496552
pow_elec_chp,0.0
pow_th_eh_in,1155237146.0341456
pow_th_eh_out,1444046432.5426817
consum_dhw,301956785.88
gen_pv,1162927412.7139301
trans_to_hub,611520421.1136171
trans_to_bul,2186899364.5867577
dh_to_bul_1,0.0
dh_to_bul_2,0.0
temp_zone_1,196608.4047362554
temp_zone_2,0.0
temp_amb,86002.3
pow_elec_bat,-25711966.76919675
pow_th_tes,-10273056.232755989
soc_bat_avg,4403.178023970431
soc_tes_avg,4030.5201794683057
soc_ev_1,5376.649860647275
soc_ev_2,0.0
consum_ev_drive,52596600.0
consum_ev_charge,-50584630.13271339
soc_ev_1_driving,1099.7833333333333
soc_ev_2_driving,0.0
obj_cost,479606.6306125122
obj_co2,418050858.3952847
obj_peak,1578436545.5787086
emi_factor_elec,2095054.0
emi_factor_dh,1656539.0
price_elec,578160.0
price_dh,692825.63
slack_ext,0.0
restload_avg,0.0
renovation_cost_construction,0.0
renovation_cost_hp,1465464.040073076
renovation_cost_pv,1659816.2348383616
renovation_cost_total,3125280.2749114363
