,import_elec,import_th,consum_elec,consum_th,consum_cold,pow_elec_hp,pow_th_hp,pow_th_gb,pow_th_chp,pow_gas_gb,pow_elec_eh,pow_elec_ac,pow_elec_chp,pow_th_eh_in,pow_th_eh_out,consum_dhw,gen_pv,trans_to_hub,trans_to_bul,dh_to_bul_1,dh_to_bul_2,temp_zone_1,temp_zone_2,temp_amb,pow_elec_bat,pow_th_tes,soc_bat_avg,soc_tes_avg,soc_ev_1,soc_ev_2,consum_ev_drive,consum_ev_charge,soc_ev_1_driving,soc_ev_2_driving,obj_cost,obj_co2,obj_peak,emi_factor_elec,emi_factor_dh,price_elec,price_dh,slack_ext,restload_avg,renovation_cost_construction,renovation_cost_hp,renovation_cost_pv,renovation_cost_total
390.0,1879695.7359984429,0.0,55528.0,3375358.048451519,237336.6427918058,1876448.3851960015,3693616.894469671,0.0,0.0,0.0,4948.166000000001,118668.3213959029,0.0,19792.664000000004,24740.83,24740.83,0.0,0.0,1879695.7359984429,0.0,,20.0,,-6.2,66627.29387755103,-298466.18201815116,0.42022414786020224,0.5420718184850655,0.8,,0.0,0.0,0.0,,506.8223612972601,687968.6393754301,1879695.7359984429,366.0,217.0,89.63,73.89,,,0.0,1465464.040073076,1659816.2348383616,3125280.2749114363
391.0,1013784.6528369837,0.0,49458.0,1853307.5990783419,37012.81413592861,808458.1284554512,1583668.5480458317,0.0,0.0,0.0,116796.18534054061,18506.407067964305,0.0,467184.74136216246,583980.9267027031,0.0,0.0,0.0,1013784.6528369834,0.0,,20.0,,-6.3,-34003.41577680676,164522.48422602384,0.5046171439478295,0.5202642368052184,0.8,,0.0,0.0,0.0,,273.36703163749263,387265.7373837278,1013784.6528369837,382.0,207.0,89.65,73.9,,,,,,
392.0,839154.5736399455,0.0,65557.0,1853170.9818340004,55303.11725481419,820831.169923884,1615731.0271134782,0.0,0.0,0.0,7763.202067920782,27651.558627407096,0.0,31052.808271683127,38816.010339603905,0.0,0.0,0.0,839154.5736399454,0.0,,20.0,,-6.2,60879.368387905764,230453.0728593931,0.4078988471547022,0.48760138191327246,0.8,,0.0,-1686.7971678467304,0.0,,227.6206780998352,292864.946200341,839154.5736399455,349.0,210.0,91.25,73.92,,,,,,
393.0,830303.8083946443,0.0,83640.0,1720169.843592765,0.0,597793.771715504,1216594.9837793035,0.0,0.0,0.0,118978.07005997692,0.0,0.0,475912.2802399077,594890.3502998846,0.0,417.5042230036649,0.0,830303.8083946441,0.0,,23.083046831968662,,-5.5,-26157.95180019383,396494.596759483,0.49975619918175923,0.44879810962238276,0.8,,0.0,0.0,0.0,,228.1259713564285,278151.77581220586,830303.8083946443,335.0,211.0,94.75,73.92,,,,,,
394.0,1243088.9356723824,0.0,109766.0,2329602.5611496507,321288.34490207396,1026943.9698946002,2138927.272560848,0.0,0.0,0.0,71309.068,160644.17245103698,0.0,285236.272,356545.33999999997,356545.33999999997,2075.7909397852954,0.0,1243088.9356723824,0.0,,20.0,,-5.0,-317.9991412464806,475911.56058880314,0.5012791621219519,0.37050044581583585,1.0,,0.0,-30612.24489795918,0.0,,335.1989315040579,406490.08196486905,1243088.9356723824,327.0,210.0,89.65,73.92,,,,,,
395.0,1389501.7054421857,0.0,157116.0,2390221.0194467935,176576.81389627795,1185032.0544116204,2535978.0692717596,0.0,0.0,0.0,70847.81976603692,88288.40694813897,0.0,283391.2790641477,354239.0988301846,0.0,16746.644619703755,0.0,1389501.7054421857,0.0,,24.0,,-4.4,13695.03264297823,-209520.08761439894,0.4453422004340244,0.40554823065536155,1.0,,0.0,-1.4551915228366852e-11,0.0,,374.67913487248535,448809.050857826,1389501.7054421857,323.0,210.0,89.65,73.92,,,,,,
396.0,1145288.510382044,0.0,147699.0,1491432.4975467997,0.0,742143.8578707182,1616494.1289522906,0.0,0.0,0.0,260833.0734118673,0.0,0.0,1043332.2936474693,1304165.3670593367,48688.24,25786.55724953795,0.0,1145288.5103820437,0.0,,20.150375704581265,,-4.0,-14672.693797086044,-312096.92227617226,0.4579797855978822,0.46119926018283347,1.0,,0.0,0.0,0.31666666666666665,,308.81559393941427,368782.9003430181,1145288.510382044,322.0,209.0,89.64,73.92,,,,,,
397.0,852100.7333606838,0.0,128191.0,1310009.0655448632,182.22845408247628,617999.4409847743,1357873.2137955343,0.0,0.0,0.0,86464.29042463069,91.11422704123814,0.0,345857.16169852274,432321.4521231534,172844.47,15728.936504232597,0.0,852100.7333606839,0.0,,20.0,,-3.8,-30914.43478870798,43705.57096716108,0.5057274017776758,0.4660828992845934,1.0,,0.0,0.0,0.31666666666666665,,229.75192073604117,270968.03320869745,852100.7333606838,318.0,205.0,89.63,73.91,,,,,,
398.0,785202.4683958701,0.0,102534.0,1341699.245138038,72745.49232920838,594337.7099471813,1300217.4691845803,0.0,0.0,0.0,18193.610000608584,36372.74616460419,0.0,72774.44000243433,90968.05000304291,0.0,3293.6831349817476,0.0,785202.4683958701,0.0,,24.0,,-3.9,-69504.81924108259,25107.52695290954,0.6302562178685006,0.49734347482534097,1.0,,8700.0,0.0,0.31666666666666665,,211.72199357826238,266968.8392545958,785202.4683958701,340.0,204.0,89.64,73.91,,,,,,
399.0,581194.7940533889,0.0,98491.0,1239333.2893312534,0.0,527016.1636406548,1137867.2166638016,0.0,0.0,0.0,42860.920307879955,0.0,0.0,171443.68123151982,214304.60153939977,28693.42,19.856061219163134,0.0,581194.7940533889,0.0,,24.0,,-4.2,90059.4078041936,91010.7959903598,0.5044621968929937,0.4792788577763595,1.0,,10800.0,0.0,0.31666666666666665,,156.71917621649632,206905.34668300647,581194.7940533889,356.0,209.0,89.65,73.91,,,,,,
400.0,806583.8629784342,0.0,94333.0,1573058.95744791,0.0,705063.0987310844,1488675.9186845887,0.0,0.0,0.0,16665.186,0.0,0.0,66660.744,83325.93,83325.93,0.0,0.0,806583.8629784345,0.0,,24.0,,-4.7,13510.341067542287,151043.7827633217,0.4980469269984697,0.44896959527894814,1.0,,2400.0,0.0,0.31666666666666665,,221.63311386921413,279884.6004535167,806583.8629784342,347.0,210.0,94.78,73.91,,,,,,
401.0,846214.9781253443,0.0,116456.0,1577170.1441062265,50940.56798388148,710831.5491404044,1473749.1702335344,0.0,0.0,0.0,0.0,25470.28399194074,0.0,0.0,0.0,0.0,0.0,0.0,846214.9781253443,0.0,,24.0,,-5.1,-14696.354094312885,103420.97387269189,0.48136906431251586,0.41586792466260264,1.0,,0.0,0.0,0.31666666666666665,,242.82985012284877,279250.9427813636,846214.9781253443,330.0,208.0,106.96,73.93,,,,,,
402.0,1154112.3267412232,0.0,140032.0,1255144.1579084694,118218.03315869428,736711.1193834777,1499311.4594758989,0.0,0.0,0.0,111022.51949162921,59109.01657934714,0.0,444090.07796651684,555112.597458146,0.0,0.0,0.0,1154112.3267412237,0.0,,20.76657746345004,,-5.5,-129913.9021591076,-344087.56910989597,0.6323063120235478,0.4490541916231758,1.0,,12150.0,-30662.224073302787,0.31666666666666665,,331.507224733149,378548.8431711212,1154112.3267412232,328.0,210.0,107.24,73.93,,,,,,
403.0,1219722.3363416088,0.0,170267.0,2160241.9589164886,125732.88580212135,952117.741284982,1910463.948629799,0.0,0.0,0.0,95912.35206869338,62866.44290106068,0.0,383649.4082747735,479561.7603434669,11533.93,0.0,0.0,1219722.336341609,0.0,,20.0,,-5.8,4673.368693774522,174760.14482486437,0.5440180331578619,0.41410849581179815,1.0,,7500.0,0.0,0.31666666666666665,,335.1553035799472,413485.87201980536,1219722.3363416088,339.0,212.0,94.78,73.93,,,,,,
404.0,1164730.5117700305,0.0,168212.0,1850924.9713002131,200000.0,886354.2855727344,1744707.2829211245,0.0,0.0,0.0,98210.99415600776,100000.0,0.0,392843.976624031,491054.97078003874,36753.99,0.0,0.0,1164730.5117700305,0.0,,24.0,,-6.2,-6129.579482438188,53846.70383868166,0.5224444470554543,0.40026663532184387,0.9775510204081632,,3300.0,0.0,0.0,,314.08122980390635,414644.0621901309,1164730.5117700305,356.0,220.0,89.66,73.92,,,,,,
405.0,1184146.778700167,0.0,153517.0,1601891.7194082513,23126.343356265283,780943.6505515696,1507436.1942120267,0.0,0.0,0.0,214558.306572686,11563.171678132641,0.0,858233.226290744,1072791.53286343,0.0,0.0,0.0,1184146.7787001673,0.0,,20.69488526078238,,-6.6,-29207.087682410776,-98646.95071919233,0.5421291192105058,0.40221149890103913,0.9775510204081632,,2400.0,0.0,0.0,,319.29333740871306,464185.5372504655,1184146.778700167,392.0,230.0,89.64,73.89,,,,,,
406.0,956697.1757129452,0.0,114577.0,1501898.2418630265,200000.0,572439.5207096725,1083136.8679791263,0.0,0.0,0.0,280961.0534509688,100000.0,0.0,1123844.2138038753,1404805.2672548438,0.0,0.0,0.0,956697.1757129448,0.0,,21.718784870746745,,-7.0,16063.884326261074,165896.42577802867,0.48584488250139546,0.3821360460034741,0.9775510204081632,,6300.0,0.0,0.0,,257.9542594874814,355891.34936521563,956697.1757129452,372.0,238.0,89.63,73.76,,,,,,
407.0,779671.0530656961,0.0,81470.0,1234680.1307753497,0.0,427528.48097576416,796717.3206749832,0.0,0.0,0.0,296754.1778458848,0.0,0.0,1187016.7113835393,1483770.889229424,0.0,0.0,0.0,779671.0530656961,0.0,,20.0,,-7.3,29979.961021281353,170884.05003907002,0.4743061427136374,0.38811777456476776,0.9775510204081632,,4350.0,0.0,0.0,,210.09016195908248,272105.1975199279,779671.0530656961,349.0,197.0,89.46,71.69,,,,,,
408.0,1339164.5568577107,0.0,62021.0,1772925.768290123,0.0,823178.0576885949,1510484.1342038168,0.0,0.0,0.0,359489.655514067,0.0,0.0,1437958.622056268,1797448.2775703347,0.0,0.0,0.0,1339164.5568577107,0.0,,24.0,,-7.6,-87780.02087076042,-61099.05587635322,0.634119531926129,0.3747478033496093,0.9775510204081632,,20550.0,0.0,0.0,,342.43776883408515,451298.45566104853,1339164.5568577107,337.0,199.0,75.71,74.75,,,,,,
409.0,745266.0666900496,0.0,52509.0,1242734.2150909416,0.0,639249.0874788375,1160796.7944131512,0.0,0.0,0.0,61828.42126570076,0.0,0.0,247313.68506280304,309142.1063285038,0.0,0.0,0.0,745266.0666900495,0.0,,24.0,,-7.8,12046.772387938825,26291.841538660592,0.5836263144294274,0.3800974206211925,0.9775510204081632,,5550.0,0.0,0.0,,189.416823509943,256371.52694137706,745266.0666900496,344.0,202.0,74.16,75.08,,,,,,
410.0,511564.67192950577,0.0,41795.0,1163634.9684140047,18891.090790178103,561204.1754911906,1003026.5512928088,0.0,0.0,0.0,0.0,9445.545395089051,0.0,0.0,0.0,0.0,0.0,0.0,511564.67192950577,0.0,,20.77387055527923,,-8.1,93992.32692133235,160608.41712119573,0.4304211863256344,0.3685788709602572,0.9775510204081632,,0.0,0.0,0.0,,125.63516777916732,171885.72976831393,511564.67192950577,336.0,199.0,65.59,75.77,,,,,,
411.0,586887.0394418334,0.0,38765.0,1229541.394575673,0.0,535527.4007335537,957135.0772834906,0.0,0.0,0.0,29030.203511070576,0.0,0.0,116120.8140442823,145151.01755535288,0.0,0.0,0.0,586887.0394418334,0.0,,24.0,,-8.1,19370.0,246279.1341322183,0.40901960982201707,0.3215520686159586,0.9775510204081632,,0.0,0.0,0.0,,143.405848087612,184282.5303847357,586887.0394418334,314.0,197.0,64.35,75.78,,,,,,
412.0,948456.1945922058,0.0,33965.0,1496070.8901099577,0.0,814567.682689735,1448091.451789696,0.0,0.0,0.0,168746.16102647266,0.0,0.0,674984.6441058906,843730.8051323632,0.0,0.0,0.0,948456.194592206,0.0,,20.721683613138154,,-8.2,73564.9300969629,-103892.10660356338,0.31243225441114586,0.3522636413460073,0.9775510204081632,,5100.0,0.0,0.0,,232.058777130875,286433.7707668462,948456.1945922058,302.0,194.0,64.67,75.8,,,,,,
413.0,603507.8379509143,0.0,38733.0,1099300.181778753,0.0,524029.71927479067,926594.079044132,0.0,0.0,0.0,42184.97090661065,0.0,0.0,168739.8836264426,210924.85453305327,0.0,0.0,0.0,603507.837950914,0.0,,20.09077570005346,,-8.3,4457.391420241558,134739.6289186714,0.30484416097271233,0.3259775122281723,0.9775510204081632,,0.0,0.0,0.0,,147.88959568987156,168982.194626256,603507.8379509143,280.0,190.0,65.05,75.92,,,,,,
414.0,1208855.6831200267,0.0,54504.0,982709.9794060969,30255.868891299087,719772.5801329977,1272708.37221319,0.0,0.0,0.0,258116.82865306127,15127.934445649544,0.0,1032467.3146122451,1290584.1432653063,270175.98000000004,0.0,0.0,1208855.6831200265,0.0,,24.0,,-8.3,-170417.99591836735,-257531.07819484896,0.5978974426685342,0.3468974003171849,0.9775510204081632,,0.0,0.0,0.0,,309.10439817379086,315511.33329432696,1208855.6831200267,261.0,185.0,75.7,76.03999999999999,,,,,,
415.0,1455756.1983481138,0.0,48458.0,1947945.090313621,32330.951352488923,847004.7799825241,1497681.4962708931,0.0,0.0,0.0,567003.773111082,16165.475676244461,0.0,2268015.092444328,2835018.8655554103,66604.92,0.0,0.0,1455756.1983481138,0.0,,20.59742319634517,,-8.3,13989.135737232962,5233.01984275494,0.612777197397517,0.34088026656913073,0.9775510204081632,,0.0,0.0,0.0,,372.2514174795961,347925.7314051992,1455756.1983481138,239.0,192.0,75.71,75.84,,,,,,
416.0,760634.7290169944,0.0,67192.0,1328562.023426963,45014.576632923825,594002.4700109301,1061646.1440847313,0.0,0.0,0.0,150360.15526952653,22507.288316461912,0.0,601440.6210781061,751800.7763476326,19516.73,0.0,0.0,760634.7290169945,0.0,,21.026049421012004,,-8.1,54723.069908547266,150718.13499965862,0.5139731439193779,0.3328682685079301,0.9775510204081632,,0.0,0.0,0.31666666666666665,,194.5019065569356,168860.90984177275,760634.7290169944,222.0,210.0,75.71,75.24,,,,,,
417.0,873714.9941992717,0.0,79350.0,1362436.9377301647,0.0,722048.9818942326,1318034.6135473459,0.0,0.0,0.0,97867.13946215298,0.0,0.0,391468.5578486119,489335.69731076487,0.0,0.0,0.0,873714.9941992715,0.0,,24.0,,-7.7,29919.702128110333,-43678.10133311762,0.47298681339023463,0.36449910288522214,0.9775510204081632,,0.0,0.0,0.31666666666666665,,223.41766116669575,177364.14382245214,873714.9941992717,203.0,221.0,75.71,75.22,,,,,,
418.0,1175481.2155820786,0.0,112690.0,1703118.5506508397,0.0,843422.0051565851,1563711.8087896754,0.0,0.0,0.0,180070.50726744413,0.0,0.0,720282.0290697765,900352.5363372208,69881.15,21.203539641708293,0.0,1175481.2155820788,0.0,,24.0,,-7.4,-29444.166592292087,45826.812320463745,0.5393659824585559,0.363725550038601,0.9775510204081632,,0.0,-3998.3340274885445,0.31666666666666665,,298.7485509401853,223341.4309605949,1175481.2155820786,190.0,223.0,74.15,75.22,,,,,,
419.0,1002340.3751484372,0.0,175464.0,1178863.684490577,132739.54940550574,370211.2656486089,693433.6148117343,0.0,0.0,0.0,520802.54631806485,66369.77470275287,0.0,2083210.1852722594,2604012.7315903236,76691.16,85.93675149002043,0.0,1002340.3751484373,0.0,,20.761781232816322,,-7.2,69063.2019424887,91865.11479258441,0.4489849852219154,0.3549515775714467,0.9775510204081632,,1800.0,0.0,0.31666666666666665,,242.97733033973267,178416.58677642184,1002340.3751484372,178.0,215.0,62.41,75.23,,,,,,
420.0,1001626.7213482006,0.0,145591.0,1776350.3464650698,117349.91613541426,896684.6491614648,1705203.0685095077,0.0,0.0,0.0,51665.52139347934,58674.95806770713,0.0,206662.08557391737,258327.60696739668,0.0,210.26724157399374,0.0,1001626.7213482001,0.0,,24.0,,-6.9,97112.31557191061,24648.30870142873,0.2335705917117413,0.34819225655812325,0.9775510204081632,,0.0,0.0,0.31666666666666665,,240.89122648424225,176286.3029572833,1001626.7213482006,176.0,212.0,60.5,75.27,,,,,,
421.0,339373.7280908395,0.0,119601.0,1262482.9749115617,0.0,407282.6558969122,859939.887682147,0.0,0.0,0.0,6668.340616271638,0.0,0.0,26673.362465086553,33341.70308135819,0.0,351725.022929688,0.0,339373.7280908396,0.0,,20.813988334782298,,-4.7,-151320.523101375,396541.58067477046,0.46023755384703996,0.30957697922213195,0.9663265306122448,,1650.0,-4529.362765514369,0.0,,81.61938160584691,61426.64478444195,339373.7280908395,181.0,207.0,60.5,75.28,,,,,,
422.0,947991.9020946769,0.0,98586.0,1269814.2941602503,0.0,405338.2987734095,894476.7003111794,0.0,0.0,0.0,606402.75646522,0.0,0.0,2425611.02586088,3032013.7823261,19303.89,268318.782044659,0.0,947991.9020946769,0.0,,20.0,,-3.7,-85885.48530027029,-151507.07476962663,0.5620244005302405,0.3386324230425783,0.9663265306122448,,2100.0,-15358.184089962515,0.05,,228.03945204887452,174430.50998542056,947991.9020946769,184.0,193.0,60.55,77.02,,,,,,
423.0,827523.9405058058,0.0,99265.0,1421142.090596534,0.0,739607.1687310407,1639172.4702357634,0.0,0.0,0.0,11310.229770033851,0.0,0.0,45240.919080135405,56551.14885016925,0.0,81697.97714222522,0.0,827523.9405058059,0.0,,20.0,,-3.6,-54901.899444427705,-228209.58643225936,0.6724118666865729,0.3694183133215734,0.9663265306122448,,4500.0,0.0,0.05,,209.86834655167743,163849.74022014954,827523.9405058058,198.0,196.0,73.61,76.56,,,,,,
424.0,736243.3432553986,0.0,92165.0,1452843.436574988,44676.591569837205,692018.3037591181,1480924.701854679,0.0,0.0,0.0,0.0,22338.295784918602,0.0,0.0,0.0,0.0,0.0,0.0,736243.3432553986,0.0,,24.0,,-4.4,51621.1772199965,-28081.265279691142,0.6188476848888129,0.3600473663866761,0.9663265306122448,,5550.0,0.0,0.05,,188.26478530383795,147984.91199433513,736243.3432553986,201.0,192.0,75.71,77.34,,,,,,
425.0,1126042.4609122616,0.0,137175.0,1455954.8602398192,0.0,617236.7745809262,1285585.7860620534,0.0,0.0,0.0,317589.0498613836,0.0,0.0,1270356.1994455345,1587945.2493069181,0.0,0.0,0.0,1126042.4609122614,0.0,,24.0,,-5.0,-48411.42416539027,-115461.07069747894,0.6726997783036357,0.3544812580110105,0.9663265306122448,,7500.0,0.0,0.05,,287.9403176798744,220704.3223388033,1126042.4609122616,196.0,188.0,75.71,77.38,,,,,,
426.0,1208855.6831200267,0.0,151270.0,864050.8232804311,57504.69559470371,719772.5801329977,1272708.37221319,0.0,0.0,0.0,258116.82865306127,15127.934445649544,0.0,1032467.3146122451,1290584.1432653063,295876.26,0.0,0.0,1208855.6831200265,0.0,,20.8007578150442,,-5.5,-170417.99591836735,-257531.07819484896,0.5978974426685342,0.3468974003171849,0.9775510204081632,,0.0,0.0,0.05,,309.116486730622,235726.8582084052,1208855.6831200267,195.0,190.0,75.71,77.36,,,,,,
427.0,1455756.1983481138,0.0,164090.0,1947945.090313621,32330.951352488923,847004.7799825241,1497681.4962708931,0.0,0.0,0.0,567003.773111082,16165.475676244461,0.0,2268015.092444328,2835018.8655554103,176201.38,0.0,0.0,1455756.1983481138,0.0,,20.59742319634517,,-6.1,13989.135737232962,5233.01984275494,0.612777197397517,0.34088026656913073,0.9775510204081632,,0.0,0.0,0.05,,372.2514174795961,289695.48347127467,1455756.1983481138,199.0,195.0,75.71,76.7,,,,,,
428.0,760634.7290169944,0.0,161378.0,1328562.023426963,45014.576632923825,594002.4700109301,1061646.1440847313,0.0,0.0,0.0,150360.15526952653,22507.288316461912,0.0,601440.6210781061,751800.7763476326,0.0,0.0,0.0,760634.7290169945,0.0,,21.026049421012004,,-6.7,54723.069908547266,150718.13499965862,0.5139731439193779,0.3328682685079301,0.9775510204081632,,0.0,0.0,0.05,,194.49430020964544,155169.48471946685,760634.7290169944,204.0,201.0,75.7,76.52,,,,,,
429.0,873714.9941992717,0.0,151354.0,1362436.9377301647,0.0,722048.9818942326,1318034.6135473459,0.0,0.0,0.0,97867.13946215298,0.0,0.0,391468.5578486119,489335.69731076487,0.0,0.0,0.0,873714.9941992715,0.0,,24.0,,-7.2,29919.702128110333,-43678.10133311762,0.47298681339023463,0.36449910288522214,0.9775510204081632,,0.0,0.0,0.05,,221.5653853789933,179985.28880504996,873714.9941992717,206.0,203.0,73.59,76.52,,,,,,
430.0,1175481.2155820786,0.0,105204.0,1703118.5506508397,0.0,843422.0051565851,1563711.8087896754,0.0,0.0,0.0,180070.50726744413,0.0,0.0,720282.0290697765,900352.5363372208,0.0,0.0,0.0,1175481.2155820788,0.0,,24.0,,-7.8,-29444.166592292087,45826.812320463745,0.5393659824585559,0.363725550038601,0.9775510204081632,,0.0,-3998.3340274885445,0.0,,282.3270783585036,235096.2431164157,1175481.2155820786,200.0,189.0,60.18,77.77,,,,,,
431.0,1002340.3751484372,0.0,72728.0,1178863.684490577,132739.54940550574,370211.2656486089,693433.6148117343,0.0,0.0,0.0,520802.54631806485,66369.77470275287,0.0,2083210.1852722594,2604012.7315903236,0.0,0.0,0.0,1002340.3751484373,0.0,,20.761781232816322,,-8.4,69063.2019424887,91865.11479258441,0.4489849852219154,0.3549515775714467,0.9775510204081632,,1800.0,0.0,0.0,,239.74979433175469,205479.77690542964,1002340.3751484372,205.0,195.0,59.19,77.72,,,,,,
432.0,1001626.7213482006,0.0,60975.0,1776350.3464650698,117349.91613541426,896684.6491614648,1705203.0685095077,0.0,0.0,0.0,51665.52139347934,58674.95806770713,0.0,206662.08557391737,258327.60696739668,0.0,0.0,0.0,1001626.7213482001,0.0,,24.0,,-9.1,97112.31557191061,24648.30870142873,0.2335705917117413,0.34819225655812325,0.9775510204081632,,0.0,0.0,0.0,,238.90800557597282,224364.38558199693,1001626.7213482006,224.0,200.0,58.52,77.09,,,,,,
433.0,339373.7280908395,0.0,51728.0,1262482.9749115617,0.0,407282.6558969122,859939.887682147,0.0,0.0,0.0,6668.340616271638,0.0,0.0,26673.362465086553,33341.70308135819,0.0,0.0,0.0,339373.7280908396,0.0,,20.813988334782298,,-9.9,-151320.523101375,396541.58067477046,0.46023755384703996,0.30957697922213195,0.9663265306122448,,1650.0,-4529.362765514369,0.0,,80.89990930229433,78734.70491707476,339373.7280908395,232.0,202.0,58.38,77.05,,,,,,
434.0,947991.9020946769,0.0,40253.0,1269814.2941602503,0.0,405338.2987734095,894476.7003111794,0.0,0.0,0.0,606402.75646522,0.0,0.0,2425611.02586088,3032013.7823261,0.0,0.0,0.0,947991.9020946769,0.0,,20.0,,-10.7,-85885.48530027029,-151507.07476962663,0.5620244005302405,0.3386324230425783,0.9663265306122448,,2100.0,-15358.184089962515,0.0,,225.99178954035,229414.0403069118,947991.9020946769,242.0,202.0,58.39,77.06,,,,,,
435.0,827523.9405058058,0.0,35225.0,1421142.090596534,0.0,739607.1687310407,1639172.4702357634,0.0,0.0,0.0,11310.229770033851,0.0,0.0,45240.919080135405,56551.14885016925,0.0,0.0,0.0,827523.9405058059,0.0,,20.0,,-11.2,-54901.899444427705,-228209.58643225936,0.6724118666865729,0.3694183133215734,0.9663265306122448,,4500.0,0.0,0.0,,196.7107158976351,201088.3175429108,827523.9405058058,243.0,199.0,57.71,77.13,,,,,,
436.0,736243.3432553986,0.0,33314.0,1452843.436574988,44676.591569837205,692018.3037591181,1480924.701854679,0.0,0.0,0.0,0.0,22338.295784918602,0.0,0.0,0.0,0.0,0.0,0.0,736243.3432553986,0.0,,24.0,,-11.6,51621.1772199965,-28081.265279691142,0.6188476848888129,0.3600473663866761,0.9663265306122448,,5550.0,0.0,0.0,,175.5056881652219,178907.13241106187,736243.3432553986,243.0,196.0,58.38,77.88,,,,,,
437.0,1126042.4609122616,0.0,41459.0,1455954.8602398192,0.0,617236.7745809262,1285585.7860620534,0.0,0.0,0.0,317589.0498613836,0.0,0.0,1270356.1994455345,1587945.2493069181,103216.69,0.0,0.0,1126042.4609122614,0.0,,24.0,,-12.0,-48411.42416539027,-115461.07069747894,0.6726997783036357,0.3544812580110105,0.9663265306122448,,7500.0,0.0,0.0,,269.33809622560386,266872.063236206,1126042.4609122616,237.0,191.0,59.19,77.93,,,,,,
438.0,1220065.5422449273,0.0,52420.0,864050.8232804311,57504.69559470371,810782.8036823506,1116726.3781034644,0.0,0.0,0.0,269426.5991205345,28752.347797351857,0.0,1077706.396482138,1347132.9956026725,0.0,0.0,0.0,1220065.542244927,0.0,,20.8007578150442,,-12.4,-40334.14575830623,-495159.4940315142,0.6459198055806438,0.48155013773952426,0.9663265306122448,,0.0,-41001.66597251145,0.0,,293.55997011955196,284275.27134306805,1220065.5422449273,233.0,183.0,60.61,78.9,,,,,,
439.0,944228.2021647397,0.0,50870.0,1593174.911734576,0.0,712014.0117985553,960324.2860102145,0.0,0.0,0.0,263418.5308734883,0.0,0.0,1053674.1234939531,1317092.6543674415,41598.27,0.0,0.0,944228.2021647397,0.0,,19.865631051562318,,-12.7,100342.64478343373,436540.2525382223,0.5168054734649007,0.4215749028785966,0.9663265306122448,,0.0,-13547.163265306122,0.31666666666666665,,239.93782845208202,210562.88908273698,944228.2021647397,223.0,190.0,74.11,78.6,,,,,,
440.0,1491428.4428796042,0.0,68399.0,1936048.3717489836,111616.20848001895,862982.2763770863,1163941.7548931113,0.0,0.0,0.0,524303.2712685446,55808.104240009474,0.0,2097213.0850741784,2621516.3563427227,46205.16,0.0,0.0,1491428.4428796037,0.0,,24.0,,-12.7,-28286.753019575142,345514.7295141827,0.6154595065066889,0.3837251684437634,0.9663265306122448,,0.0,0.0,0.36666666666666664,,379.06145304228016,308725.68767607806,1491428.4428796042,207.0,188.0,74.16,79.24,,,,,,
441.0,1662743.1416569606,0.0,81336.0,1638372.8441675508,0.0,1039585.3962016876,1431866.1285820724,0.0,0.0,0.0,533864.9144804102,0.0,0.0,2135459.6579216407,2669324.5724020507,173045.94,0.0,0.0,1662743.1416569606,0.0,,21.651779797468517,,-12.4,356.88473342209727,-104386.68624688959,0.6204652860691391,0.4133030613214054,0.9663265306122448,,0.0,0.0,0.36666666666666664,,425.16342132168484,332548.62833139213,1662743.1416569606,200.0,190.0,75.7,78.6,,,,,,
442.0,821105.2330642911,0.0,123871.0,1118814.0436940691,0.0,445668.9854348388,618087.9539107579,0.0,0.0,0.0,374611.3630175298,0.0,0.0,1498445.452070119,1873056.815087649,0.0,23.305551410838614,0.0,821105.233064291,0.0,,19.865631051562318,,-12.3,133449.97740140517,163575.8630675343,0.4143198134414459,0.3790920761924125,0.9663265306122448,,0.0,-6321.641399416908,0.36666666666666664,,208.6921060356202,157652.20474834388,821105.2330642911,192.0,194.0,74.16,78.44,,,,,,
443.0,2038900.9881545051,0.0,155502.0,2275485.3614487397,292834.978017936,1513700.6184248975,2128177.33859004,0.0,0.0,0.0,332760.5487498287,146417.489008968,0.0,1331042.1949993148,1663802.7437491433,0.0,222.7516312470125,0.0,2038900.9881545054,0.0,,20.0,,-12.1,-26966.06767025355,-152176.47101614578,0.40514446937723153,0.3792398265716477,0.9663265306122448,,0.0,0.0,0.5,,518.1255191098229,385352.28676120145,2038900.9881545051,189.0,197.0,74.12,78.26,,,,,,
444.0,1797441.5866635547,0.0,171481.0,1855966.1779644904,85907.22544885804,1095160.9942199504,1550174.8374849847,0.0,0.0,0.0,492715.4785596315,42953.612724429026,0.0,1970861.914238526,2463577.3927981574,0.0,378.83511174635936,0.0,1797441.5866635547,0.0,,24.134368948437682,,-12.0,-29475.74106240159,-137652.59022416113,0.40887536304022426,0.4023856287980961,0.9663265306122448,,600.0,0.0,0.5,,455.84916079374415,352298.55098605674,1797441.5866635547,196.0,196.0,73.61,78.27,,,,,,
445.0,1053162.0927200364,0.0,120284.0,1291018.426180278,0.0,681613.115835931,1068775.8957954133,0.0,0.0,0.0,560167.5249641605,0.0,0.0,2240670.099856642,2800837.6248208024,243135.83,393955.3542186023,0.0,1053162.0927200366,0.0,,24.134368948437682,,-10.4,-57679.675384075825,-43635.12868287947,0.5339481995530347,0.4226656486894827,0.9663265306122448,,5250.0,-22107.320290871306,0.5,,254.02269676407278,200100.7976168069,1053162.0927200364,190.0,188.0,61.2,78.56,,,,,,
446.0,1152763.4800132958,0.0,114711.0,1388324.9483613444,118014.99340894175,810078.4431981329,1324269.844672077,0.0,0.0,0.0,410650.1492819488,59007.496704470876,0.0,1642600.5971277952,2053250.7464097438,27286.38,309702.3205374063,0.0,1152763.4800132955,0.0,,24.134368948437682,,-9.7,-109190.33735943357,-278789.3782644864,0.7096448485830171,0.4718519747534008,0.9663265306122448,,750.0,-12072.053311120384,0.5,,276.45573777678857,213261.2438024597,1152763.4800132958,185.0,187.0,59.82,79.19,,,,,,
447.0,865377.7690850354,0.0,97716.0,1489550.082265796,0.0,789950.9888581506,1283835.7898399485,0.0,0.0,0.0,61052.82257248857,0.0,0.0,244211.29028995428,305264.11286244285,65403.41,107805.78480912352,0.0,865377.7690850354,0.0,,20.73256362488657,,-9.8,-18651.92068114448,214862.0939106074,0.7435805355732839,0.4437185708161972,0.9663265306122448,,6000.0,-1484.9329369504349,0.5,,207.0762463643581,153171.86512805126,865377.7690850354,177.0,184.0,59.29,79.24,,,,,,
448.0,954992.2674471117,0.0,88016.0,1424666.6748406508,0.0,930084.3169775737,1449514.3404276485,0.0,0.0,0.0,48410.94687049144,0.0,0.0,193643.78748196576,242054.7343524572,45181.68,0.0,0.0,954992.2674471118,0.0,,24.134368948437682,,-10.5,116293.9577381892,-24139.4713704399,0.5441548672957796,0.4346483875801826,0.9663265306122448,,6900.0,0.0,0.5,,228.5964990588151,163303.6777334561,954992.2674471117,171.0,183.0,59.37,79.26,,,,,,
449.0,1170265.7896784202,0.0,111512.0,1661761.267234268,78248.59167478165,1054105.2780746873,1602601.6292902364,0.0,0.0,0.0,134156.3526974933,39124.295837390826,0.0,536625.4107899732,670781.7634874664,28945.27,0.0,0.0,1170265.78967842,0.0,,21.359741223080484,,-10.9,135359.17004215252,-33214.71488371236,0.30591157769886496,0.42727910021108223,0.9663265306122448,,0.0,0.0,0.5,,296.7794042624473,198945.18424533142,1170265.7896784202,170.0,189.0,73.6,78.75,,,,,,
450.0,1815254.2324626883,0.0,135804.0,1372444.1586440557,229085.31013223305,1150232.994865749,1693921.1143793857,0.0,0.0,0.0,327340.1953641152,114542.65506611652,0.0,1309360.7814564607,1636700.976820576,48881.08,0.0,0.0,1815254.2324626883,0.0,,19.98717745768905,,-11.4,-168350.54199929078,-568179.673163034,0.7114719084110849,0.47690181904413675,0.9663265306122448,,30600.0,-24450.22907122034,0.5,,460.3484733525378,306777.96528619435,1815254.2324626883,169.0,196.0,73.6,78.3,,,,,,
451.0,2012448.8308730205,0.0,176843.0,2470060.999126425,414098.9670351267,1564332.8437867893,2244103.175033952,0.0,0.0,0.0,306502.21156319784,207049.48351756332,0.0,1226008.8462527914,1532511.057815989,0.0,0.0,0.0,2012448.8308730205,0.0,,24.121546406126736,,-11.8,45291.46863133202,-49894.166314406044,0.5608220693179223,0.4701819133121258,0.8999999999999999,,33750.0,0.0,0.36666666666666664,,494.9617899532194,342116.30124841345,2012448.8308730205,170.0,197.0,65.95,78.22,,,,,,
452.0,2075593.784244252,0.0,171260.0,2468222.7590047354,376787.30047530914,1674368.9485427428,2322143.3649611785,0.0,0.0,0.0,178054.67261119158,188393.65023765457,0.0,712218.6904447663,890273.3630559578,0.0,0.0,0.0,2075593.7842442517,0.0,,20.78128747339614,,-12.3,-35909.53694294046,-14169.811306514159,0.5525962657689896,0.4461231990718968,0.8816326530612241,,2700.0,-5622.657226155768,0.31666666666666665,,503.8711470631346,352850.9433215228,2075593.784244252,170.0,196.0,62.76,78.96000000000001,,,,,,
453.0,1884839.4058192838,0.0,144144.0,2322319.5508602564,334434.0318020322,1550829.4319901224,2091671.150175198,0.0,0.0,0.0,160803.52455179658,167217.01590101607,0.0,643214.0982071863,804017.6227589828,0.0,0.0,0.0,1884839.4058192836,0.0,,24.134368948437686,,-12.7,-19638.25224826823,85925.22858844267,0.5256303309216758,0.43066187498994274,0.881632653061224,,2100.0,0.0,0.31666666666666665,,455.8107135092774,339271.0930474711,1884839.4058192838,180.0,181.0,61.83,79.2,,,,,,
454.0,1508073.9786093687,0.0,106314.0,1730679.7804883288,186893.90381258572,1023318.3893545144,1331416.007370335,0.0,0.0,0.0,382919.10244136147,93446.95190629286,0.0,1531676.4097654459,1914595.5122068073,17165.62,0.0,0.0,1508073.9786093682,0.0,,24.134368948437686,,-13.2,16078.691076222336,71458.88852076829,0.5656851677344416,0.42658921998286253,0.8285714285714281,,11700.0,-4060.807996668055,0.0,,360.27887348977816,274469.4641069051,1508073.9786093687,182.0,156.0,58.9,79.34,,,,,,
455.0,712504.4193670738,0.0,70642.0,1313087.2714056284,87956.72786057241,644948.5521450972,814533.7494795843,0.0,0.0,0.0,92016.01666858685,43978.36393028621,0.0,368064.0666743474,460080.0833429342,0.0,0.0,0.0,712504.4193670737,0.0,,20.827854389940065,,-13.6,98664.67154344545,415739.1069243163,0.4539947405086441,0.38265580021532425,0.8285714285714281,,6150.0,0.0,0.0,,168.8065470364471,131813.31758290864,712504.4193670738,185.0,156.0,56.92,79.48,,,,,,
456.0,1267098.3525407952,0.0,60601.0,1555143.8892830135,0.0,1216572.3493196089,1513266.5420973338,0.0,0.0,0.0,29554.86825717907,0.0,0.0,118219.47302871628,147774.34128589535,0.0,0.0,0.0,1267098.3525407955,0.0,,19.865631051562314,,-13.8,51588.01402485266,15277.965754219447,0.3889219607909046,0.3858034841949279,0.8285714285714281,,4500.0,-5622.657226155768,0.0,,295.15789024085285,238214.4902776695,1267098.3525407952,188.0,147.0,52.94,79.61,,,,,,
457.0,898670.2466048618,0.0,43125.0,1318988.4001160203,0.0,919087.7162551875,1116946.3698953728,0.0,0.0,0.0,14068.104193106874,0.0,0.0,56272.416772427496,70340.52096553436,0.0,0.0,0.0,898670.2466048617,0.0,,24.0,,-14.1,82103.92507645673,189380.73644685085,0.30131099818811213,0.37528921254930675,0.8285714285714281,,19800.0,0.0,0.0,,204.74404228398566,134800.53699072928,898670.2466048618,150.0,147.0,47.83,79.71000000000001,,,,,,
458.0,1437146.7212553187,0.0,39308.0,1869232.5116203302,8546.923782198453,1056415.4087487,1263695.3224415954,0.0,0.0,0.0,326933.7763180847,4273.461891099227,0.0,1307735.1052723387,1634668.8815904234,0.0,0.0,0.0,1437146.7212553187,0.0,,20.80061286871906,,-14.3,-7303.802582257398,311296.7904924585,0.314653113870364,0.3281574333703758,0.8285714285714281,,4200.0,0.0,0.0,,324.924502208615,201200.5409757446,1437146.7212553187,140.0,143.0,46.09,79.78,,,,,,
459.0,1510989.8779355097,0.0,37661.0,1631582.124607716,39399.00802931577,1144053.7475293712,1357622.6178222776,0.0,0.0,0.0,302391.72245752724,19699.504014657887,0.0,1209566.889830109,1511958.6122876361,0.0,0.0,0.0,1510989.87793551,0.0,,24.134368948437686,,-14.4,-12924.876718034153,1806.9565736638033,0.3753355905647454,0.33748200729577943,0.828571428571428,,0.0,-6403.581840899624,0.0,,341.6197015024394,213049.57278890687,1510989.8779355097,141.0,143.0,46.09,79.8,,,,,,
460.0,1639834.722133151,0.0,35721.0,1825189.8273882747,0.0,1316659.6074242846,1549897.9543542718,0.0,0.0,0.0,279471.7793944169,0.0,0.0,1117887.1175776676,1397358.8969720844,296211.12,0.0,0.0,1639834.7221331513,0.0,,20.47955029623341,,-14.5,216.83829621641098,314054.1691790271,0.37562576429523215,0.27835370428115497,0.828571428571428,,0.0,0.0,0.0,,370.7502323270841,226297.19165437482,1639834.722133151,138.0,140.0,46.09,80.27,,,,,,
461.0,1048735.1537138603,0.0,40404.0,1407391.0525939807,0.0,996166.7038190569,1163134.8935587937,0.0,0.0,0.0,44333.86200628389,0.0,0.0,177335.44802513556,221669.31003141945,0.0,0.0,0.0,1048735.15371386,0.0,,20.720410668709203,,-14.6,37413.08788004998,204355.68322953078,0.3562567922619743,0.23890693735528556,0.828571428571428,,0.0,0.0,0.0,,239.03820358600018,153115.33244222362,1048735.1537138603,146.0,138.0,47.93,81.01,,,,,,
462.0,1814361.2218146753,0.0,45359.0,1399342.2941400197,109754.40005036881,1276686.206506216,1478501.4225693534,0.0,0.0,0.0,361400.7412540401,54877.20002518441,0.0,1445602.9650161604,1807003.7062702004,266133.47000000003,0.0,0.0,1814361.2218146753,0.0,,20.0,,-14.7,-99969.24886996063,-143608.9949579681,0.5485814594987621,0.25696086127648665,0.8285714285714276,,0.0,-21874.219075385256,0.0,,429.84031706011467,326585.01992664154,1814361.2218146753,180.0,141.0,56.91,81.18,,,,,,
463.0,1767113.9368859502,0.0,53367.0,2016433.6795818056,0.0,1443583.1803560324,1671781.0334885868,0.0,0.0,0.0,343358.0203853893,0.0,0.0,1373432.081541557,1716790.1019269463,20772.72,0.0,0.0,1767113.9368859502,0.0,,24.13436894843769,,-14.7,82029.8335399013,55987.69334636854,0.4127896551821157,0.24576071683463235,0.8285714285714276,,0.0,0.0,0.0,,424.31939852505434,316313.39470258506,1767113.9368859502,179.0,142.0,60.12,81.55,,,,,,
464.0,1415449.2035003065,0.0,71414.0,1824041.9656521939,32662.106523283448,705437.8061338214,857302.4998729876,0.0,0.0,0.0,727051.4824327129,16331.053261641724,0.0,2908205.9297308517,3635257.412163565,0.0,0.0,0.0,1415449.2035003065,0.0,,24.13436894843769,,-14.1,105735.41271638237,312393.1315897656,0.21250789240284404,0.21200610721611382,0.8285714285714276,,0.0,-10204.081632653062,0.13333333333333333,,344.1523193390645,261858.10264755672,1415449.2035003065,185.0,184.0,63.14,80.86,,,,,,
465.0,519312.3598366412,0.0,87119.0,935035.96125637,0.0,540450.0966156843,852583.2058806089,0.0,0.0,0.0,64046.64634739571,0.0,0.0,256186.58538958285,320233.2317369785,0.0,143162.3570051172,0.0,519312.3598366412,0.0,,20.93492726641112,,-10.3,31737.58792050484,24810.773663105007,0.1895531063906485,0.22076090363581133,0.8285714285714276,,0.0,0.0,0.18333333333333335,,131.68722820737545,94514.84949026868,519312.3598366412,182.0,185.0,73.58,80.38,,,,,,
466.0,934373.5104597354,0.0,116678.0,1326932.8396451129,0.0,701836.3737704272,1334664.9117547425,0.0,0.0,0.0,312858.9298630288,0.0,0.0,1251435.7194521152,1564294.649315144,11094.02,323739.410923585,0.0,934373.5104597354,0.0,,19.86563105156231,,-6.9,-111099.53546571998,-278432.96938635467,0.3394684216985385,0.2840287711020972,0.8285714285714276,,0.0,-10968.214731845599,0.5,,231.061225401588,163515.36433045368,934373.5104597354,175.0,184.0,67.29,80.43,,,,,,
467.0,995060.5658442634,0.0,155186.0,1666407.9515998433,191400.08459724186,555924.0339415702,1200281.4653876964,0.0,0.0,0.0,627009.0623534282,95700.04229862093,0.0,2508036.249413713,3135045.311767141,173228.8,447986.9028386183,0.0,995060.5658442635,0.0,,19.86563105156231,,-4.2,-76373.17933423926,71582.55409406178,0.41043648082034434,0.27343773194674154,0.8285714285714276,,0.0,-23579.890224422837,0.5,,239.50112759305574,172145.47789105758,995060.5658442634,173.0,185.0,60.69,80.4,,,,,,
468.0,733801.8882265701,0.0,143078.0,1154026.400455551,1387.424493363864,293163.8267912537,680474.5266626774,0.0,0.0,0.0,637961.8787501357,693.712246681932,0.0,2551847.5150005426,3189809.3937506783,0.0,508479.3004253946,0.0,733801.88822657,0.0,,24.0,,-2.5,-164408.47366944264,-100613.81708224842,0.664995742413455,0.2979325075612521,0.8285714285714276,,0.0,0.0,0.5,,176.2885656275512,128415.33043964977,733801.8882265701,175.0,185.0,60.24,80.42,,,,,,
469.0,607552.5709054535,0.0,142478.0,1245448.00989566,235.98016972683172,563665.373968295,1345961.8758792586,0.0,0.0,0.0,300851.3410579592,117.99008486341586,0.0,1203405.3642318367,1504256.7052897955,0.0,454236.2148402736,0.0,607552.5709054534,0.0,,24.13436894843769,,-1.8,-51756.30786494554,-371280.07293576055,0.6626667111884634,0.37668883014115784,0.8285714285714276,,0.0,0.0,0.5,,145.9159009543628,110574.56790479254,607552.5709054535,182.0,181.0,60.17,81.14,,,,,,
470.0,813253.5978444711,0.0,105676.0,1528737.5438020362,144294.52799037908,572792.3616273709,1356834.7614276772,0.0,0.0,0.0,369128.74753875256,72147.26399518954,0.0,1476514.9901550103,1845643.7376937629,8357.24,328829.0598918752,0.0,813253.5978444712,0.0,,24.13436894843769,,-2.0,-47970.30098916375,-152122.99521051793,0.7469716314722674,0.3923483333635683,0.9490340136054412,,1500.0,-42448.979591836774,0.18333333333333335,,195.43297209800485,158584.45157967185,813253.5978444711,195.0,180.0,60.31,81.14,,,,,,
471.0,740111.4244198286,0.0,96821.0,1695207.8404254762,80774.43712594686,747381.3589006618,1649277.1934123586,0.0,0.0,0.0,10494.769256506657,40387.21856297343,0.0,41979.07702602663,52473.84628253328,0.0,119747.51745715666,0.0,740111.4244198285,0.0,,22.509309287065257,,-3.7,-1461.256597717651,36485.35468226162,0.7329413672611764,0.3839979187328789,0.9245442176870738,,6300.0,0.0,0.05,,187.6922572328685,156903.62197700367,740111.4244198286,212.0,220.0,73.6,80.34,,,,,,
472.0,974871.9044063335,0.0,105923.0,1219941.382089253,0.0,555267.8985721408,1108874.6523764045,0.0,0.0,0.0,347590.8447746154,0.0,0.0,1390363.3790984617,1737954.223873077,79541.78,0.0,0.0,974871.9044063336,0.0,,20.55576344652366,,-5.9,38784.1984624545,-123814.08618430549,0.7025632201398343,0.3963938245500505,0.9245442176870738,,1050.0,0.0,0.05,,247.30550470979867,207647.715638549,974871.9044063335,213.0,222.0,73.68,80.34,,,,,,
473.0,1057007.0431735436,0.0,132421.0,1398607.8975937925,0.0,748482.0242690893,1487589.3737023168,0.0,0.0,0.0,130633.09404851585,0.0,0.0,522532.3761940634,653165.4702425792,0.0,0.0,0.0,1057007.0431735434,0.0,,19.86563105156231,,-6.0,-40185.8896400708,-206551.26075218891,0.7206866456540206,0.40877723102665253,0.9174013605442167,,3750.0,0.0,0.0,,270.2872710099068,221971.47906644418,1057007.0431735436,210.0,220.0,75.71,80.35,,,,,,
474.0,775061.0621887168,0.0,147535.0,629240.2149326036,88.0623606970077,490333.6414153123,974525.8949277668,0.0,0.0,0.0,9293.96730057649,44.03118034850385,0.0,37175.86920230596,46469.836502882456,0.0,0.0,0.0,775061.0621887167,0.0,,19.86563105156231,,-6.0,-122148.92908649912,-353650.25056568196,0.7483578924678034,0.45319419715613196,0.9174013605442167,,2400.0,-1874.219075385256,0.0,,198.19861482289866,161987.76199744182,775061.0621887168,209.0,223.0,75.72,80.35,,,,,,
475.0,1318081.1124889397,0.0,154540.0,2037593.824784004,73604.14831428473,1156716.535047427,2287917.9583988898,0.0,0.0,0.0,12785.399999999998,36802.074157142364,0.0,51141.59999999999,63926.999999999985,0.0,0.0,0.0,1318081.11248894,0.0,,21.50720017650064,,-6.1,12551.228120931944,-261830.9936148846,0.6658286990770947,0.4736545567927069,0.9174013605442167,,33900.0,0.0,0.0,,337.0465212745467,283387.439185122,1318081.1124889397,215.0,227.0,75.71,80.34,,,,,,
476.0,758292.2978016485,0.0,164800.0,1305826.963811305,213.7143454470224,555828.6004390118,1099396.6094588554,0.0,0.0,0.0,9103.4,106.8571727235112,0.0,36413.6,45516.99999999999,0.0,0.0,0.0,758292.2978016485,0.0,,19.86563105156231,,-6.1,-24768.83587362834,198237.29435245023,0.6571203888835084,0.4090302940009928,0.9174013605442167,,24900.0,0.0,0.0,,193.90292347085952,170615.7670053709,758292.2978016485,225.0,237.0,75.71,78.56,,,,,,
477.0,990053.8532760749,0.0,145572.0,1762157.9987483423,103678.84943376576,741436.5894988836,1459450.0625526109,0.0,0.0,0.0,102936.19383953887,51839.42471688288,0.0,411744.7753581555,514680.9691976943,81550.75,0.0,0.0,990053.853276075,0.0,,19.86563105156231,,-6.2,4841.199328728171,289985.09674014617,0.570107084893984,0.36420269627587143,0.9174013605442167,,10050.0,0.0,0.0,,251.15686149907467,232662.6555198776,990053.8532760749,235.0,246.0,73.68,77.77,,,,,,
478.0,712405.7818656523,0.0,109855.0,1444674.662812445,29573.089405109087,514755.06137012725,1008340.904675798,0.0,0.0,0.0,83631.75299739558,14786.544702554544,0.0,334527.01198958233,418158.76498697785,0.0,0.0,0.0,712405.7818656525,0.0,,24.0,,-6.3,13142.334630690602,361065.1804389903,0.5827113980918048,0.30946258320749637,0.9174013605442167,,22950.0,-13744.273219491872,0.0,,177.7167463442056,191637.15532186048,712405.7818656523,269.0,250.0,69.46,78.78,,,,,,
479.0,591079.2213201671,0.0,74028.0,1327317.5844621083,0.0,496398.14618733764,972381.9994574549,0.0,0.0,0.0,38584.2533919576,0.0,0.0,154337.0135678304,192921.266959788,0.0,0.0,0.0,591079.2213201672,0.0,,24.055031306158146,,-6.3,20886.574365729153,320209.75695189193,0.5403277067359957,0.2665448705367859,0.9174013605442167,,6900.0,0.0,0.0,,144.28243792425278,157818.1520924846,591079.2213201671,267.0,206.0,64.1,79.78999999999999,,,,,,
480.0,935058.6058985466,0.0,62217.0,1604344.8539712997,169838.84054313402,720300.371972065,1404111.663959288,0.0,0.0,0.0,123767.2380638587,84919.42027156701,0.0,495068.9522554348,618836.1903192935,0.0,0.0,0.0,935058.6058985468,0.0,,24.13436894843769,,-6.4,-21131.189297103592,88842.67575453962,0.5494109098307424,0.24847790181601292,0.9174013605442163,,0.0,-2967.5135360266563,0.0,,226.9667754097542,237504.88589823083,935058.6058985466,254.0,211.0,62.73,79.76,,,,,,
481.0,627872.0155488665,0.0,53058.0,1227870.2902768855,54108.103794862516,543640.0173207064,1059740.2403460606,0.0,0.0,0.0,31754.833321074446,27054.051897431258,0.0,127019.33328429778,158774.16660537221,0.0,0.0,0.0,627872.0155488666,0.0,,20.757077516257876,,-6.4,24180.420076947543,139550.69994185815,0.5957262197826232,0.23408608874373066,0.9174013605442163,,0.0,-20460.224906289044,0.0,,150.87136661623714,156968.00388721662,627872.0155488665,250.0,210.0,60.29,79.78,,,,,,
482.0,664280.9897696209,0.0,42869.0,1279077.4751986247,0.0,601002.1571732679,1171558.660508933,0.0,0.0,0.0,51686.30620755994,0.0,0.0,206745.22483023975,258431.53103779966,0.0,0.0,0.0,664280.9897696208,0.0,,24.13436894843769,,-6.4,41938.5699386473,61001.13910288775,0.5673929473120867,0.2357090061931636,0.9174013605442163,,3000.0,-7340.691378592254,0.0,,158.25830300271448,159427.43754470904,664280.9897696209,240.0,209.0,58.24,79.93,,,,,,
483.0,820979.3629077543,0.0,37571.0,1391807.9061199506,76064.3587873336,741393.2333456719,1452296.7907152937,0.0,0.0,0.0,79658.5943043853,38032.1793936668,0.0,318634.3772175412,398292.97152192646,0.0,0.0,0.0,820979.3629077541,0.0,,20.82585556001276,,-6.3,41748.361556841606,-132181.61946929002,0.512169901457211,0.27253865575505287,0.9174013605442163,,0.0,0.0,0.0,,193.91532551881156,146955.305960488,820979.3629077543,179.0,200.0,56.2,80.15,,,,,,
484.0,614789.0486400297,0.0,33431.0,1256104.8674810405,0.0,554540.3644414498,1086275.3467091762,0.0,0.0,0.0,25795.753482027263,0.0,0.0,103183.01392810905,128978.76741013631,0.0,0.0,0.0,614789.0486400297,0.0,,24.13436894843769,,-6.3,2052.014526647341,146613.3426380399,0.5287827229131794,0.24396861379575924,0.9174013605442163,,0.0,0.0,0.0,,143.2519962236133,90373.99015008437,614789.0486400297,147.0,192.0,53.01,80.38,,,,,,
485.0,698964.8719675515,0.0,42470.0,1458485.9995011524,26444.674447302175,709070.2046727929,1388980.0126594917,0.0,0.0,0.0,49567.75156214733,13222.337223651088,0.0,198271.0062485893,247838.75781073663,0.0,0.0,0.0,698964.8719675515,0.0,,20.854750412885757,,-6.3,105637.90862722619,24895.010435726723,0.368972014606059,0.22768365348986597,0.9174013605442163,,0.0,0.0,0.0,,161.81036786048818,68498.55745282005,698964.8719675515,98.0,186.0,51.5,80.88,,,,,,
486.0,782096.9829337455,0.0,44696.0,692931.5666305854,0.0,504886.4107224517,993822.6871280607,0.0,0.0,0.0,87179.61918234138,0.0,0.0,348718.47672936553,435898.0959117069,66124.95999999999,0.0,0.0,782096.9829337456,0.0,,19.865716079747134,,-6.2,-141424.46811428378,-314550.3169615823,0.6476421023176384,0.27199295261969614,0.9174013605442163,,0.0,0.0,0.0,,176.83212784131985,63349.85561763339,782096.9829337455,81.0,175.0,46.1,84.91,,,,,,
487.0,740669.4236051956,0.0,54886.0,1456353.477761992,0.0,450401.91070325125,886574.9358201391,0.0,0.0,0.0,338132.6176117196,0.0,0.0,1352530.4704468783,1690663.0880585979,57637.590000000004,0.0,0.0,740669.4236051955,0.0,,24.000085028184827,,-6.2,117387.39643421525,321944.02429130604,0.4661397313340127,0.23461742291883125,0.9174013605442163,,0.0,-10932.944606413996,0.05,,167.45794998289867,57772.21504120525,740669.4236051956,78.0,174.0,46.09,86.34,,,,,,
488.0,358442.2589772786,0.0,69273.0,1195298.4595760084,0.0,359206.8132807107,731036.7351646458,0.0,0.0,0.0,81667.36628516637,0.0,0.0,326669.4651406655,408336.83142583177,29297.25,0.0,0.0,358442.2589772786,0.0,,24.134368948437693,,-5.5,153497.13188348484,419472.39975471253,0.2442687528950182,0.19006337390789363,0.9174013605442163,,0.0,0.0,0.18333333333333335,,81.98291347328316,29392.265236136845,358442.2589772786,82.0,182.0,48.72,85.56,,,,,,
489.0,781809.1805527802,0.0,92121.0,1369772.284379635,0.0,681031.0525125795,1632708.8030014632,0.0,0.0,0.0,135239.83678109897,0.0,0.0,540959.3471243959,676199.1839054949,243414.53,107177.01969928735,0.0,781809.1805527803,0.0,,24.134368948437693,,-1.7,26906.988172196357,-146106.1323248169,0.21868076250741153,0.2179817710771067,0.9174013605442163,,0.0,-3592.25322782176,0.18333333333333335,,185.80476985017373,62544.73444422241,781809.1805527802,80.0,183.0,57.66,85.22,,,,,,
490.0,380300.91547246696,0.0,124433.0,1008620.3395673172,668.9027756796842,271671.5925121617,749724.7428168235,0.0,0.0,0.0,221812.196115321,334.4513878398421,0.0,887248.784461284,1109060.980576605,0.0,301919.8423905681,0.0,380300.91547246696,0.0,,21.37405768518172,,2.1,-34541.96114678667,59264.62024670517,0.21575708043915412,0.20532818023354363,0.9174013605442163,,0.0,-27860.503511403185,0.5,,90.3823155711865,28902.869575907487,380300.91547246696,76.0,180.0,57.66,87.03999999999999,,,,,,
491.0,254884.46082582485,0.0,163849.0,924130.597265579,0.0,247498.93423478614,756160.0939753936,0.0,0.0,0.0,166215.7202609126,0.0,0.0,664862.8810436504,831078.6013045629,0.0,435024.29751586413,0.0,254884.46082582485,0.0,,20.685923181004576,,5.2,-107679.63213868403,18376.355055363823,0.3394180475014978,0.21321429709990175,0.9174013605442163,,0.0,-3391.0494031770777,0.5,,60.57074327064901,19116.334561936863,254884.46082582485,75.0,180.0,57.64,87.07,,,,,,
492.0,181432.91147337458,0.0,152467.0,721694.0681085909,4837.392083955433,173072.01426082122,563419.4832126907,0.0,0.0,0.0,209766.08072212426,2418.6960419777165,0.0,839064.322888497,1048830.403610621,0.0,516025.08277653035,0.0,181432.9114733746,0.0,,20.335868587058652,,7.3,-145345.68371184572,-30514.88775401149,0.5768018139494822,0.21804251422342644,0.9174013605442163,,0.0,-15900.05099774685,0.5,,41.02379561324473,8708.77975072198,181432.91147337458,48.0,171.0,46.11,87.44,,,,,,
493.0,308216.5211711525,0.0,117354.0,923546.5121991537,129863.11139894961,339289.0905002487,1133634.2908151983,0.0,0.0,0.0,119519.97075051846,64931.555699474804,0.0,478079.88300207385,597599.8537525922,0.0,439684.7347032123,0.0,308216.5211711524,0.0,,20.14771012622867,,8.2,-150197.11201774186,-317655.75229151145,0.8045360131498795,0.2624939632469512,0.9174013605442163,,4200.0,-20000.0,0.5,,68.753859377649,15102.60953738647,308216.5211711525,49.0,169.0,43.07,87.47999999999999,,,,,,
494.0,213970.72498023105,0.0,101868.0,1007212.2583382038,37591.77473305809,379266.26003224193,1267206.196013745,0.0,0.0,0.0,43923.0694716213,18795.887366529045,0.0,175692.2778864852,219615.34735810646,60739.49,342074.766364716,0.0,213970.72498023103,0.0,,20.00380101632595,,8.2,-21484.322376948934,-240000.0,0.842775941457198,0.28323470398769196,0.9010748299319703,,2400.0,-8433.985839233652,0.18333333333333335,,47.72617020684054,11340.448423952246,213970.72498023105,53.0,169.0,43.05,87.49000000000001,,,,,,
495.0,280859.96401342517,0.0,96810.0,815712.3720985155,0.0,336177.77418559755,1075165.4578875748,0.0,0.0,0.0,31925.104,0.0,0.0,127700.416,159625.52,159625.52,159763.96093304825,0.0,280859.9640134251,0.0,,19.907301253553783,,6.7,25693.25305919138,-131752.66978905868,0.8211328686928548,0.30344571041156054,0.8898503401360517,,9300.0,0.0,0.05,,62.64581497319449,15728.157984751808,280859.96401342517,56.0,172.0,43.05,86.44,,,,,,
496.0,473322.27649469813,0.0,92836.0,997808.8900465291,0.0,356180.7355883126,1061040.6842479971,0.0,0.0,0.0,82524.53311044883,0.0,0.0,330098.1324417953,412622.66555224406,16530.48,0.0,0.0,473322.27649469813,0.0,,23.99625097064121,,4.4,60585.603586536905,-121304.00360087262,0.7045099839914699,0.3108565205030379,0.8898503401360519,,11850.0,0.0,0.05,,105.57453377214243,26506.047483703096,473322.27649469813,56.0,172.0,43.05,86.34,,,,,,
497.0,432151.96396916127,0.0,123952.0,895690.1435530831,0.0,347328.20311405644,1028047.15731054,0.0,0.0,0.0,11650.025229003684,0.0,0.0,46600.10091601474,58250.12614501841,29969.68,0.0,0.0,432151.9639691612,0.0,,21.14589530650756,,4.2,52939.02419374467,-113471.75006356012,0.6231727841933482,0.31958446903658455,0.8786258503401335,,12000.0,0.0,0.0,,97.70523753378768,22471.902126396388,432151.96396916127,52.0,172.0,46.09,87.44,,,,,,
498.0,782096.9829337455,0.0,141922.0,424044.4005295733,0.0,504886.4107224517,993822.6871280607,0.0,0.0,0.0,87179.61918234138,0.0,0.0,348718.47672936553,435898.0959117069,0.0,0.0,0.0,782096.9829337456,0.0,,24.134368948437693,,3.9,-141424.46811428378,-314550.3169615823,0.6476421023176384,0.27199295261969614,0.9174013605442163,,0.0,0.0,0.0,,182.97158915734977,36758.558197886035,782096.9829337455,47.0,173.0,53.95,86.47999999999999,,,,,,
499.0,740669.4236051956,0.0,159584.0,1456353.477761992,0.0,450401.91070325125,886574.9358201391,0.0,0.0,0.0,338132.6176117196,0.0,0.0,1352530.4704468783,1690663.0880585979,378179.92,0.0,0.0,740669.4236051955,0.0,,24.000085028184827,,3.7,117387.39643421525,321944.02429130604,0.4661397313340127,0.23461742291883125,0.9174013605442163,,0.0,-10932.944606413996,0.05,,173.2796116524355,35552.13233304939,740669.4236051956,48.0,174.0,53.95,86.24000000000001,,,,,,
500.0,358442.2589772786,0.0,163271.0,1195298.4595760084,0.0,359206.8132807107,731036.7351646458,0.0,0.0,0.0,81667.36628516637,0.0,0.0,326669.4651406655,408336.83142583177,0.0,0.0,0.0,358442.2589772786,0.0,,24.134368948437693,,3.5,153497.13188348484,419472.39975471253,0.2442687528950182,0.19006337390789363,0.9174013605442163,,0.0,0.0,0.05,,83.85398206514455,17922.11294886393,358442.2589772786,50.0,180.0,53.94,86.18,,,,,,
501.0,781809.1805527802,0.0,150507.0,1369772.284379635,0.0,681031.0525125795,1632708.8030014632,0.0,0.0,0.0,135239.83678109897,0.0,0.0,540959.3471243959,676199.1839054949,0.0,0.0,0.0,781809.1805527803,0.0,,24.134368948437693,,3.2,26906.988172196357,-146106.1323248169,0.21868076250741153,0.2179817710771067,0.9174013605442163,,0.0,-3592.25322782176,0.0,,175.09398407660063,32835.98558321677,781809.1805527802,42.0,167.0,43.96,87.45,,,,,,
502.0,380300.91547246696,0.0,115456.0,1008620.3395673172,668.9027756796842,271671.5925121617,749724.7428168235,0.0,0.0,0.0,221812.196115321,334.4513878398421,0.0,887248.784461284,1109060.980576605,0.0,0.0,0.0,380300.91547246696,0.0,,21.37405768518172,,3.0,-34541.96114678667,59264.62024670517,0.21575708043915412,0.20532818023354363,0.9174013605442163,,0.0,-27860.503511403185,0.0,,80.72647532734057,2662.106408307269,380300.91547246696,7.0,78.0,32.27,87.85,,,,,,
503.0,254884.46082582485,0.0,73500.0,924130.597265579,0.0,247498.93423478614,756160.0939753936,0.0,0.0,0.0,166215.7202609126,0.0,0.0,664862.8810436504,831078.6013045629,0.0,0.0,0.0,254884.46082582485,0.0,,20.685923181004576,,2.8,-107679.63213868403,18376.355055363823,0.3394180475014978,0.21321429709990175,0.9174013605442163,,0.0,-3391.0494031770777,0.0,,48.57333169957744,1529.3067649549491,254884.46082582485,6.0,75.0,10.57,85.72,,,,,,
504.0,181432.91147337458,0.0,61337.0,721694.0681085909,4837.392083955433,173072.01426082122,563419.4832126907,0.0,0.0,0.0,209766.08072212426,2418.6960419777165,0.0,839064.322888497,1048830.403610621,0.0,0.0,0.0,181432.9114733746,0.0,,20.335868587058652,,2.3,-145345.68371184572,-30514.88775401149,0.5768018139494822,0.21804251422342644,0.9174013605442163,,0.0,-15900.05099774685,0.0,,34.56296963567786,1088.5974688402475,181432.91147337458,6.0,74.0,10.5,85.7,,,,,,
505.0,308216.5211711525,0.0,48485.0,923546.5121991537,129863.11139894961,339289.0905002487,1133634.2908151983,0.0,0.0,0.0,119519.97075051846,64931.555699474804,0.0,478079.88300207385,597599.8537525922,0.0,0.0,0.0,308216.5211711524,0.0,,20.14771012622867,,1.9,-150197.11201774186,-317655.75229151145,0.8045360131498795,0.2624939632469512,0.9174013605442163,,4200.0,-20000.0,0.0,,58.712165117892845,1849.299127026915,308216.5211711525,6.0,73.0,10.49,85.7,,,,,,
506.0,213970.72498023105,0.0,37159.0,1007212.2583382038,37591.77473305809,379266.26003224193,1267206.196013745,0.0,0.0,0.0,43923.0694716213,18795.887366529045,0.0,175692.2778864852,219615.34735810646,0.0,0.0,0.0,213970.72498023103,0.0,,20.00380101632595,,1.4,-21484.322376948934,-240000.0,0.842775941457198,0.28323470398769196,0.9010748299319703,,2400.0,-8433.985839233652,0.0,,40.75714369423441,1283.8243498813863,213970.72498023105,6.0,73.0,10.48,85.7,,,,,,
507.0,280859.96401342517,0.0,35597.0,815712.3720985155,0.0,336177.77418559755,1075165.4578875748,0.0,0.0,0.0,31925.104,0.0,0.0,127700.416,159625.52,28498.4,0.0,0.0,280859.9640134251,0.0,,19.907301253553783,,1.2,25693.25305919138,-131752.66978905868,0.8211328686928548,0.30344571041156054,0.8898503401360517,,9300.0,0.0,0.0,,53.47011994887588,1685.159784080551,280859.96401342517,6.0,73.0,10.38,85.68,,,,,,
508.0,473322.27649469813,0.0,33938.0,997808.8900465291,0.0,356180.7355883126,1061040.6842479971,0.0,0.0,0.0,82524.53311044883,0.0,0.0,330098.1324417953,412622.66555224406,0.0,0.0,0.0,473322.27649469813,0.0,,23.99625097064121,,1.0,60585.603586536905,-121304.00360087262,0.7045099839914699,0.3108565205030379,0.8898503401360519,,11850.0,0.0,0.0,,90.11109499906064,2839.933658968189,473322.27649469813,6.0,74.0,10.38,85.7,,,,,,
509.0,432151.96396916127,0.0,41701.0,895690.1435530831,0.0,347328.20311405644,1028047.15731054,0.0,0.0,0.0,11650.025229003684,0.0,0.0,46600.10091601474,58250.12614501841,0.0,0.0,0.0,432151.9639691612,0.0,,21.14589530650756,,0.7,52939.02419374467,-113471.75006356012,0.6231727841933482,0.31958446903658455,0.8786258503401335,,12000.0,0.0,0.0,,82.26444786116954,2592.9117838149677,432151.96396916127,6.0,76.0,10.36,85.71000000000001,,,,,,
510.0,192133.11522326944,0.0,47465.0,424044.4005295733,0.0,117197.06260898641,306666.42903631844,0.0,0.0,0.0,27041.179268636777,0.0,0.0,108164.71707454711,135205.89634318388,91153.11,0.0,0.0,192133.11522326944,0.0,,24.134368948437693,,0.6,4716.548165497161,182370.95795148166,0.6582892586932012,0.3070400346182739,0.8786258503401335,,0.0,-4185.755935027113,0.0,,36.57830247620604,1152.7986913396167,192133.11522326944,6.0,76.0,10.38,85.72,,,,,,
511.0,690859.1055595874,0.0,49895.0,1309309.2654912216,43447.591630866445,410207.83416335395,1065558.6284062616,0.0,0.0,0.0,248922.71289555778,21723.795815433223,0.0,995690.8515822311,1244613.5644777888,0.0,0.0,0.0,690859.1055595874,0.0,,21.054579169286225,,0.4,28529.941111463308,19720.19547895871,0.5833939049822279,0.2974369716427109,0.8786258503401335,,0.0,-6909.20408434095,0.13333333333333333,,131.5948424269902,4145.154633357524,690859.1055595874,6.0,77.0,10.48,85.72999999999999,,,,,,
512.0,526086.723336237,0.0,67525.0,908236.4063032286,0.0,325092.14749919873,850659.9547972206,0.0,0.0,0.0,142827.0842537262,0.0,0.0,571308.3370149048,714135.421268631,0.0,0.0,0.0,526086.7233362369,0.0,,24.134368948437693,,0.6,33862.161108754444,-70967.92432234588,0.5670166797811385,0.3001436894308794,0.8786258503401335,,0.0,-21874.219075385256,0.13333333333333333,,100.2142599283198,3156.5203400174223,526086.723336237,6.0,77.0,10.49,85.72,,,,,,
513.0,617401.3493031816,0.0,96959.0,1073426.631128382,0.0,418849.7767683001,1131930.2547091108,0.0,0.0,0.0,96687.3438549423,0.0,0.0,386749.3754197692,483436.7192747115,0.0,451.6660492459473,0.0,617401.3493031816,0.0,,21.164814142727174,,1.5,6632.65262541071,-145522.23305017676,0.5537010356474787,0.33802723244596533,0.8786258503401335,,0.0,-8902.540608079962,0.18333333333333335,,117.65817513670731,3704.40809581909,617401.3493031816,6.0,78.0,10.57,85.74000000000001,,,,,,
514.0,358132.7864823718,0.0,102287.0,968353.2766306555,87871.44769301645,282913.44280948915,799628.2776054338,0.0,0.0,0.0,44097.11779514312,43935.72384650823,0.0,176388.47118057247,220485.58897571557,30502.5,21929.98823702045,0.0,358132.7864823719,0.0,,24.134368948437693,,2.8,51025.44981765188,158930.04300959304,0.49569493946654203,0.3183950683701639,0.8786258503401335,,0.0,0.0,0.18333333333333335,,77.43905242108325,2506.9295053766027,358132.7864823718,7.0,102.0,36.23,88.25,,,,,,
515.0,498617.87457735447,0.0,177330.0,1023064.0069983291,115978.68123678623,272190.1482525325,795268.6147200561,0.0,0.0,0.0,126031.99614311206,57989.340618393115,0.0,504127.98457244824,630159.9807155603,37492.9,48707.88519944588,0.0,498617.87457735447,0.0,,21.33650372662624,,3.8,30719.473991731073,151109.63774947223,0.41018766901901166,0.31288455884008415,0.8786258503401335,,0.0,0.0,0.18333333333333335,,112.34359332102373,23933.657979713014,498617.87457735447,48.0,168.0,45.31,87.84,,,,,,
516.0,556523.216745953,0.0,157681.0,815898.073984524,1688.4352076954326,265287.53385560535,795333.5157305695,0.0,0.0,0.0,210989.16790175636,844.2176038477163,0.0,843956.6716070254,1054945.839508782,112946.59,119579.93819083067,0.0,556523.216745953,0.0,,20.59605713306587,,4.6,-39362.837095692186,-58638.03465762586,0.5244620581890528,0.3223711593419239,0.8786258503401335,,0.0,0.0,0.18333333333333335,,127.5996431355121,27826.160837297648,556523.216745953,50.0,168.0,49.28,87.72,,,,,,
517.0,576304.7765265579,0.0,129550.0,1012174.0745566044,212.6990873219858,434703.83478123567,1323965.3622611903,0.0,0.0,0.0,48733.28,106.3495436609929,0.0,194933.12,243666.4,243666.4,97739.00123192875,0.0,576304.7765265579,0.0,,23.794531671589645,,5.1,-58175.139094618244,-116858.16770458597,0.6059960986533066,0.35443693318135827,0.8786258503401335,,0.0,0.0,0.5,,130.29674692488948,29967.84837938101,576304.7765265579,52.0,165.0,46.09,87.83,,,,,,
518.0,291247.4022623908,0.0,114879.0,662653.4968509068,26417.647934372675,203553.64461677388,623838.7447761485,0.0,0.0,0.0,37817.382937034825,13208.823967186338,0.0,151269.5317481393,189086.91468517412,0.0,37634.23982641176,0.0,291247.40226239077,0.0,,24.134368948437693,,5.3,28824.622476318098,4779.107431427001,0.5736931210349384,0.3594884139050152,0.8786258503401335,,1650.0,0.0,0.5,,65.84812517750395,16018.607124431495,291247.4022623908,55.0,165.0,46.09,87.81,,,,,,
519.0,328368.6766065144,0.0,88264.0,915996.4158028177,79238.84818105793,307389.1306640234,927415.209139138,0.0,0.0,0.0,0.0,39619.42409052896,0.0,0.0,0.0,0.0,1105.6748454513697,0.0,328368.67660651426,0.0,,21.570541364321993,,4.8,70779.80626855958,-11418.793336320523,0.46421158918783156,0.3598794572514275,0.8786258503401335,,3000.0,-2959.183673469386,0.5,,74.24087409396684,18060.27721335829,328368.6766065144,55.0,166.0,46.09,85.96000000000001,,,,,,
520.0,610993.9508883653,0.0,100525.0,1016389.6474993873,9245.73610051224,438008.52766070265,1288098.0064711382,0.0,0.0,0.0,46185.78070324919,4622.86805025612,0.0,184743.12281299676,230928.90351624592,35311.68,0.0,0.0,610993.9508883654,0.0,,20.82415359854861,,4.0,-23219.672769971527,-278670.1152046756,0.42868958865281603,0.399041251274333,0.8786258503401335,,8400.0,0.0,0.5,,142.3615905569891,73319.27410660383,610993.9508883653,120.0,182.0,53.0,84.78999999999999,,,,,,
521.0,657112.3860832369,0.0,117900.0,890391.9464404228,84491.43238997915,302556.05541290605,869568.0761200122,0.0,0.0,0.0,203137.07651096737,42245.716194989574,0.0,812548.3060438695,1015685.3825548368,0.0,0.0,0.0,657112.386083237,0.0,,20.767882038083307,,3.3,-30233.69222894748,-161999.49853945978,0.4536968411677962,0.40270323798357405,0.8255646258503367,,17700.0,0.0,0.31666666666666665,,158.11438233934845,118937.34188106588,657112.3860832369,181.0,190.0,60.62,82.65,,,,,,
522.0,192133.11522326944,0.0,136582.0,541011.6163492921,27290.3453475025,117197.06260898641,306666.42903631844,0.0,0.0,0.0,27041.179268636777,0.0,0.0,108164.71707454711,135205.89634318388,36346.65,0.0,0.0,192133.11522326944,0.0,,20.487830310437833,,2.6,4716.548165497161,182370.95795148166,0.6582892586932012,0.3070400346182739,0.8786258503401335,,0.0,-4185.755935027113,0.13333333333333333,,48.45020766585186,37850.22369898408,192133.11522326944,197.0,189.0,72.17,82.73,,,,,,
523.0,690859.1055595874,0.0,157321.0,1309309.2654912216,43447.591630866445,410207.83416335395,1065558.6284062616,0.0,0.0,0.0,248922.71289555778,21723.795815433223,0.0,995690.8515822311,1244613.5644777888,0.0,0.0,0.0,690859.1055595874,0.0,,21.054579169286225,,1.9,28529.941111463308,19720.19547895871,0.5833939049822279,0.2974369716427109,0.8786258503401335,,0.0,-6909.20408434095,0.13333333333333333,,174.55937020174096,139553.53932303665,690859.1055595874,202.0,190.0,72.67,80.25,,,,,,
524.0,526086.723336237,0.0,164816.0,908236.4063032286,0.0,325092.14749919873,850659.9547972206,0.0,0.0,0.0,142827.0842537262,0.0,0.0,571308.3370149048,714135.421268631,26207.24,0.0,0.0,526086.7233362369,0.0,,24.134368948437693,,1.3,33862.161108754444,-70967.92432234588,0.5670166797811385,0.3001436894308794,0.8786258503401335,,0.0,-21874.219075385256,0.13333333333333333,,132.7211585632659,110478.21190060978,526086.723336237,210.0,197.0,72.28,79.34,,,,,,
525.0,617401.3493031816,0.0,146179.0,1073426.631128382,0.0,418849.7767683001,1131930.2547091108,0.0,0.0,0.0,96687.3438549423,0.0,0.0,386749.3754197692,483436.7192747115,0.0,0.0,0.0,617401.3493031816,0.0,,21.164814142727174,,0.6,6632.65262541071,-145522.23305017676,0.5537010356474787,0.33802723244596533,0.8786258503401335,,0.0,-8902.540608079962,0.13333333333333333,,152.3561309675461,133358.69144948723,617401.3493031816,216.0,201.0,66.77,79.3,,,,,,
526.0,358132.7864823718,0.0,113607.0,968353.2766306555,87871.44769301645,282913.44280948915,799628.2776054338,0.0,0.0,0.0,44097.11779514312,43935.72384650823,0.0,176388.47118057247,220485.58897571557,219710.0,0.0,0.0,358132.7864823719,0.0,,24.134368948437693,,-0.1,51025.44981765188,158930.04300959304,0.49569493946654203,0.3183950683701639,0.8786258503401335,,0.0,0.0,0.13333333333333333,,85.67252518231298,78789.2130261218,358132.7864823718,220.0,192.0,59.22,79.97,,,,,,
527.0,498617.87457735447,0.0,75667.0,1023064.0069983291,115978.68123678623,272190.1482525325,795268.6147200561,0.0,0.0,0.0,126031.99614311206,57989.340618393115,0.0,504127.98457244824,630159.9807155603,0.0,0.0,0.0,498617.87457735447,0.0,,21.33650372662624,,-0.7,30719.473991731073,151109.63774947223,0.41018766901901166,0.31288455884008415,0.8786258503401335,,0.0,0.0,0.0,,118.700971221885,116177.9647765236,498617.87457735447,233.0,203.0,58.06,79.39,,,,,,
528.0,556523.216745953,0.0,65013.0,815898.073984524,1688.4352076954326,265287.53385560535,795333.5157305695,0.0,0.0,0.0,210989.16790175636,844.2176038477163,0.0,843956.6716070254,1054945.839508782,0.0,0.0,0.0,556523.216745953,0.0,,20.59605713306587,,-1.5,-39362.837095692186,-58638.03465762586,0.5244620581890528,0.3223711593419239,0.8786258503401335,,0.0,0.0,0.0,,132.48591697854155,133009.04880228275,556523.216745953,239.0,211.0,58.06,78.89,,,,,,
529.0,576304.7765265579,0.0,52018.0,1012174.0745566044,212.6990873219858,434703.83478123567,1323965.3622611903,0.0,0.0,0.0,48733.28,106.3495436609929,0.0,194933.12,243666.4,0.0,0.0,0.0,576304.7765265579,0.0,,23.794531671589645,,-2.2,-58175.139094618244,-116858.16770458597,0.6059960986533066,0.35443693318135827,0.8786258503401335,,0.0,0.0,0.0,,137.20087814767763,140042.06069595355,576304.7765265579,243.0,209.0,58.07,78.89,,,,,,
530.0,291247.4022623908,0.0,40552.0,662653.4968509068,26417.647934372675,203553.64461677388,623838.7447761485,0.0,0.0,0.0,37817.382937034825,13208.823967186338,0.0,151269.5317481393,189086.91468517412,0.0,0.0,0.0,291247.40226239077,0.0,,24.134368948437693,,-3.0,28824.622476318098,4779.107431427001,0.5736931210349384,0.3594884139050152,0.8786258503401335,,1650.0,0.0,0.0,,69.34600647867525,74268.08757690966,291247.4022623908,255.0,209.0,58.1,78.88,,,,,,
531.0,328368.6766065144,0.0,37197.0,915996.4158028177,79238.84818105793,307389.1306640234,927415.209139138,0.0,0.0,0.0,0.0,39619.42409052896,0.0,0.0,0.0,0.0,0.0,0.0,328368.67660651426,0.0,,21.570541364321993,,-3.5,70779.80626855958,-11418.793336320523,0.46421158918783156,0.3598794572514275,0.8786258503401335,,3000.0,-2959.183673469386,0.0,,78.18786558677714,84719.11856448071,328368.6766065144,258.0,208.0,58.11,78.89,,,,,,
532.0,610993.9508883653,0.0,33854.0,1016389.6474993873,9245.73610051224,438008.52766070265,1288098.0064711382,0.0,0.0,0.0,46185.78070324919,4622.86805025612,0.0,184743.12281299676,230928.90351624592,0.0,0.0,0.0,610993.9508883654,0.0,,20.82415359854861,,-3.9,-23219.672769971527,-278670.1152046756,0.42868958865281603,0.399041251274333,0.8786258503401335,,8400.0,0.0,0.0,,146.1680828710236,161913.3969854168,610993.9508883653,265.0,198.0,59.23,79.83,,,,,,
533.0,657112.3860832369,0.0,40804.0,890391.9464404228,84491.43238997915,302556.05541290605,869568.0761200122,0.0,0.0,0.0,203137.07651096737,42245.716194989574,0.0,812548.3060438695,1015685.3825548368,173583.8,0.0,0.0,657112.386083237,0.0,,20.767882038083307,,-4.3,-30233.69222894748,-161999.49853945978,0.4536968411677962,0.40270323798357405,0.8255646258503367,,17700.0,0.0,0.0,,160.2959954611448,183334.35571722308,657112.3860832369,279.0,183.0,63.94,79.81,,,,,,
