,load_elec,grid,hp_elec,ev,pv,bat_pow,cool,load_th_sh,load_th_dhw,tes_pow,dh,hp_th,bat_soc,tes_soc,ev_soc,eh_th_in,eh_elec_in,eh_th_out,temp_slack,temp_zone_1,temp_zone_2,temp_update,Qsolar_1,QconvInt_1,QradInt_1,Qvent_1,Qconduc_1,Qheating_1,Qsolar_2,QconvInt_2,QradInt_2,Qvent_2,Qconduc_2,Qheating_2,temp_amb,temp_aggregate_1,temp_aggregate_2,temp_wall_1,temp_wall_2,_Tamb,_Tz_1,_TEW_1,_TIW_1,_T1_1,_T2_1,_Taeq_1,_Tvent_1,_Qheating_1,_Qinfvent_1,_Qenvelope_1,_Qsolar_1,_Qint_people_1,_Qint_lighting_1,_Qint_appliances_1,_Tz_2,_TEW_2,_TIW_2,_T1_2,_T2_2,_Taeq_2,_Tvent_2,_Qheating_2,_Qinfvent_2,_Qenvelope_2,_Qsolar_2,_Qint_people_2,_Qint_lighting_2,_Qint_appliances_2
390.0,1350.0,72861.61418525712,71147.30611433083,-0.0,0.0,0.0,0.0,60046.95995538842,0.0,-80000.0,0.0,140046.95995538842,0.5,0.8266666666666667,0.8,0.0,0.0,0.0,"[2.0, 2.0, 2.0, 2.0, 2.0, 2.0, 2.0, 2.0]",20.0,0.0,0.0,0.0,484.9248478478409,210.27386616803568,-1334.225514226645,-1391.9426156778686,10364.266020284522,0.0,0.0,0.0,0.0,0.0,0.0,-6.2,19.413486090077168,0.0,19.0,0.0,-6.2,20.0,18.0,20.0,20.0,20.0,-6.68,-6.2,3008.69,-931.21,-3754.64,0.0,536.0,68.0,67.0,0.0,0.0,0.0,0.0,0.0,0.0,0.0,0.0,0.0,0.0,0.0,0.0,0.0,0.0
391.0,1718.0,1726.6331658291458,0.0,-0.0,0.0,0.0,0.0,56335.630729878496,0.0,56335.630729878496,0.0,0.0,0.5,0.5871444271688839,0.8,0.0,0.0,0.0,"[2.0, 2.0, 2.0, 2.0, 2.0, 2.0, 2.0, 2.0]",24.0,0.0,0.0,0.0,383.69884548279447,172.74641478606932,-1543.0165298117308,-7018.879800916483,8021.113042410722,0.0,0.0,0.0,0.0,0.0,0.0,-6.3,20.71911505755513,0.0,19.15276707814654,0.0,-6.3,24.0,17.91,20.4,22.21,22.39,-6.77,-6.3,7776.28,-1076.94,-4342.2,0.0,428.0,63.0,50.0,0.0,0.0,0.0,0.0,0.0,0.0,0.0,0.0,0.0,0.0,0.0,0.0,0.0,0.0
392.0,3199.0,3215.075376884422,0.0,-0.0,0.0,0.0,0.0,11815.80057042484,0.0,11815.80057042484,0.0,0.0,0.5,0.5369071798456491,0.8,0.0,0.0,0.0,"[2.0, 2.0, 2.0, 2.0, 2.0, 2.0, 2.0, 2.0]",24.0,0.0,0.0,1.876306354079065,347.0912819947982,153.49265076617246,-1537.9240660169723,-6687.085024769925,0.0,0.0,0.0,0.0,0.0,0.0,0.0,-6.2,20.878440061195686,0.0,19.337401315571235,0.0,-6.2,24.0,17.86,20.82,21.93,22.42,-6.67,-6.2,10579.15,-1073.38,-4327.87,2.97,342.0,76.0,67.0,0.0,0.0,0.0,0.0,0.0,0.0,0.0,0.0,0.0,0.0,0.0,0.0,0.0,0.0
393.0,2978.0,49114.88176912352,0.0,-0.0,9.542413538378717,-4414.827155351936,0.0,37337.42035661789,0.0,0.0,0.0,0.0,0.6802721088435374,0.5369071798456491,0.8,165944.0904738574,41486.02261846435,207430.11309232173,"[2.0, 2.0, 2.0, 2.0, 2.0, 2.0, 2.0, 2.0]",20.28,0.0,0.0,30.38098989866862,381.47803439056776,143.3757304273105,-1312.7348957159754,-1290.278914886537,1482.0671044450507,0.0,0.0,0.0,0.0,0.0,0.0,-5.5,19.73895312988089,0.0,19.241263985539465,0.0,-5.5,20.28,17.64,20.85,19.22,20.5,-5.94,-5.5,358.06,-916.21,-3694.17,48.05,332.0,62.0,99.0,0.0,0.0,0.0,0.0,0.0,0.0,0.0,0.0,0.0,0.0,0.0,0.0,0.0,0.0
394.0,3052.0,11344.06353662315,0.0,-0.0,48.11278105996502,0.0,0.0,34040.892752345004,41417.28,67174.716752345,0.0,0.0,0.6802721088435374,0.25130039093261763,0.8,33133.824,8283.456,41417.28,"[2.0, 2.0, 2.0, 2.0, 2.0, 2.0, 2.0, 2.0]",20.0,0.0,0.0,43.1099811497281,379.5437795683057,74.67551825122541,-1273.115948689547,-1075.5073378879852,1856.8028134463086,0.0,0.0,0.0,0.0,0.0,0.0,-5.0,19.56173523130939,0.0,19.09041221543083,0.0,-5.0,20.0,17.4,20.78,19.18,20.5,-5.4,-5.0,2657.27,-888.56,-3582.67,68.18,184.0,19.0,180.0,0.0,0.0,0.0,0.0,0.0,0.0,0.0,0.0,0.0,0.0,0.0,0.0,0.0,0.0
395.0,6943.0,6579.790524831979,0.0,-0.0,396.10842779218086,0.0,0.0,22676.106524260984,0.0,22676.106524260984,0.0,0.0,0.6802721088435374,0.1548883733974944,0.8,0.0,0.0,0.0,"[2.0, 2.0, 2.0, 2.0, 2.0, 2.0, 2.0, 2.0]",20.0,0.0,0.0,75.53044743539147,617.0989273690799,52.67121651420049,-1242.5611659209976,-1259.0275511806076,10073.085360075343,0.0,0.0,0.0,0.0,0.0,0.0,-4.4,19.471634378215835,0.0,18.949956623269333,0.0,-4.4,20.0,17.18,20.72,19.1,20.47,-4.82,-4.4,11336.82,-867.24,-3496.69,119.45,128.0,0.0,386.0,0.0,0.0,0.0,0.0,0.0,0.0,0.0,0.0,0.0,0.0,0.0,0.0,0.0,0.0
396.0,7570.0,70413.45155239235,63104.65105965464,-0.0,613.2667650242458,0.0,0.0,57450.84172789124,0.0,-80000.0,0.0,137450.84172789124,0.6802721088435374,0.4815550400641611,0.8,0.0,0.0,0.0,"[2.0, 2.0, 2.0, 2.0, 2.0, 2.0, 2.0, 2.0]",24.0,0.0,0.0,85.55083890014852,397.38190737361106,54.15713918897085,-1425.8898625322925,-6906.9984463262845,7798.2049073318185,0.0,0.0,0.0,0.0,0.0,0.0,-4.0,20.765548550001814,0.0,19.101159471434805,0.0,-4.0,24.0,17.18,21.03,21.88,22.68,-4.4,-4.0,0.0,-995.19,-4012.6,135.3,150.0,0.0,213.0,0.0,0.0,0.0,0.0,0.0,0.0,0.0,0.0,0.0,0.0,0.0,0.0,0.0,0.0
397.0,2642.0,3628.354640965255,1341.3689596024176,-0.0,373.156091841989,0.0,0.0,2947.2663877470745,0.0,0.0,0.0,2947.2663877470745,0.6802721088435374,0.4815550400641611,0.8,0.0,0.0,0.0,"[2.0, 2.0, 2.0, 2.0, 2.0, 2.0, 2.0, 2.0]",24.0,0.0,0.0,75.19272551419037,485.6412385227527,122.69927448476118,-1415.7049349427762,-6584.282158627931,2657.5601149512445,0.0,0.0,0.0,0.0,0.0,0.0,-3.8,20.92029457912918,0.0,19.293499385705417,0.0,-3.8,24.0,17.21,21.37,21.66,22.69,-4.24,-3.8,10682.0,-988.08,-3983.93,118.92,372.0,0.0,161.0,0.0,0.0,0.0,0.0,0.0,0.0,0.0,0.0,0.0,0.0,0.0,0.0,0.0,0.0
398.0,3062.0,42700.82270476361,55502.60049707497,-0.0,77.28190583517687,16000.0,0.0,41421.625354855896,0.0,-80000.0,0.0,121421.62535485589,0.0,0.8082217067308278,0.8,0.0,0.0,0.0,"[2.0, 2.0, 2.0, 2.0, 2.0, 2.0, 2.0, 2.0]",21.75,0.0,0.0,50.17459816362627,677.419022196659,165.79103205310165,-1306.435942520756,-3219.8002343857484,0.0,0.0,0.0,0.0,0.0,0.0,0.0,-3.9,20.28672287650066,0.0,19.310433406766386,0.0,-3.9,21.75,17.15,21.47,20.06,21.58,-4.38,-3.9,7932.08,-911.82,-3676.44,79.35,501.0,0.0,234.0,0.0,0.0,0.0,0.0,0.0,0.0,0.0,0.0,0.0,0.0,0.0,0.0,0.0,0.0
399.0,2634.0,2646.7789651279,0.0,-0.0,0.4549296977398381,0.0,0.0,46362.81975864369,0.0,46362.81975864369,0.0,0.0,0.0,0.6111008744236693,0.8,0.0,0.0,0.0,"[2.0, 2.0, 2.0, 2.0, 2.0, 2.0, 2.0, 2.0]",20.0,0.0,0.0,17.813140141629386,555.0594949217124,101.5485879013277,-1232.376238331481,-829.1242808217329,9709.997072684095,0.0,0.0,0.0,0.0,0.0,0.0,-4.2,19.678118159345615,0.0,19.169622119024055,0.0,-4.2,20.0,16.98,21.36,18.89,20.71,-4.71,-4.2,0.0,-860.13,-3468.03,28.17,296.0,0.0,252.0,0.0,0.0,0.0,0.0,0.0,0.0,0.0,0.0,0.0,0.0,0.0,0.0,0.0,0.0
400.0,924.0,4449.998430302282,0.0,-0.0,0.0,-3503.74843815077,0.0,36299.943696418544,0.0,36299.943696418544,0.0,0.0,0.14306972789115646,0.45676437911576734,0.8,0.0,0.0,0.0,"[2.0, 2.0, 2.0, 2.0, 2.0, 2.0, 2.0, 2.0]",24.0,0.0,0.0,0.0,523.2517489556257,102.30735692674239,-1461.5371090955996,-6532.294700920161,0.0,0.0,0.0,0.0,0.0,0.0,0.0,-4.7,20.948481954453584,0.0,19.295051703228786,0.0,-4.7,24.0,16.99,21.6,21.82,22.99,-5.25,-4.7,4981.75,-1020.07,-4112.91,0.0,284.0,9.0,234.0,0.0,0.0,0.0,0.0,0.0,0.0,0.0,0.0,0.0,0.0,0.0,0.0,0.0,0.0
401.0,3365.0,0.0,0.0,-0.0,0.0,3365.0,0.0,31673.810554229072,0.0,31673.81055422908,0.0,0.0,0.0,0.3220968172355417,0.8,0.0,0.0,0.0,"[2.0, 2.0, 2.0, 2.0, 2.0, 2.0, 2.0, 2.0]",20.45,0.0,0.0,0.0,368.7979194446277,124.94396618494618,-1301.1571518256126,-1410.227525774024,4445.59878535418,0.0,0.0,0.0,0.0,0.0,0.0,-5.1,19.85348279485116,0.0,19.20514249298912,0.0,-5.1,20.45,16.86,21.55,19.01,20.93,-5.63,-5.1,9581.27,-908.13,-3661.59,0.0,296.0,49.0,110.0,0.0,0.0,0.0,0.0,0.0,0.0,0.0,0.0,0.0,0.0,0.0,0.0,0.0,0.0
402.0,4309.0,4330.653266331658,0.0,-0.0,0.0,0.0,0.0,33243.45704536076,0.0,33243.45704536076,0.0,0.0,0.6533333333333333,0.1807555883011847,0.6075801749271137,0.0,0.0,0.0,"[2.0, 2.0, 2.0, 2.0, 2.0, 2.0, 2.0, 2.0]",21.52,0.0,0.0,0.0,627.2000358853371,135.4718864125745,-1375.8343564861689,-3052.5967222835193,8838.961995368547,0.0,0.0,0.0,0.0,0.0,0.0,-5.5,20.134308461436536,0.0,19.152977825652176,0.0,-5.5,21.52,16.76,21.55,19.99,21.67,-6.03,-5.5,0.0,-960.25,-3871.73,0.0,330.0,39.0,283.0,0.0,0.0,0.0,0.0,0.0,0.0,0.0,0.0,0.0,0.0,0.0,0.0,0.0,0.0
403.0,4378.0,75842.33599665936,71085.12431667605,-0.0,0.0,0.0,0.0,62635.26599934302,0.0,-80000.0,0.0,142635.26599934304,0.6533333333333333,0.5074222549678514,0.6075801749271137,0.0,0.0,0.0,"[2.0, 2.0, 2.0, 2.0, 2.0, 2.0, 2.0, 2.0]",24.0,0.0,0.0,0.0,896.3480124497244,140.62519271018235,-1517.5542108379395,-6502.590230057824,6995.920952287775,0.0,0.0,0.0,0.0,0.0,0.0,-5.8,20.96614972617538,0.0,19.2849263278937,0.0,-5.8,24.0,16.78,21.79,21.65,23.02,-6.34,-5.8,9717.94,-1059.17,-4270.55,0.0,264.0,72.0,512.0,0.0,0.0,0.0,0.0,0.0,0.0,0.0,0.0,0.0,0.0,0.0,0.0,0.0,0.0
404.0,4880.0,489.8348751099904,4688.18570073444,-0.0,0.0,9080.800000000001,0.0,9228.264441089384,0.0,0.0,0.0,9228.264441089386,0.26724489795918366,0.5074222549678514,0.6075801749271137,0.0,0.0,0.0,"[2.0, 2.0, 2.0, 2.0, 2.0, 2.0, 2.0, 2.0]",24.0,0.0,0.0,0.0,913.7563058500829,98.16574266302072,-1537.9240660169723,-6267.373491352997,0.0,0.0,0.0,0.0,0.0,0.0,0.0,-6.2,21.080537574423676,0.0,19.427678088334595,0.0,-6.2,24.0,16.81,22.04,21.46,23.01,-6.73,-6.2,7423.65,-1073.38,-4327.87,0.0,170.0,46.0,577.0,0.0,0.0,0.0,0.0,0.0,0.0,0.0,0.0,0.0,0.0,0.0,0.0,0.0,0.0
405.0,5652.0,0.0,0.0,-0.0,0.0,5652.0,0.0,24320.97404028762,0.0,24320.974040287623,0.0,0.0,0.02693877551020407,0.40401675309588025,0.6075801749271137,0.0,0.0,0.0,"[2.0, 2.0, 2.0, 2.0, 2.0, 2.0, 2.0, 2.0]",20.73,0.0,0.0,0.0,859.2389754892899,130.44504161920239,-1391.6382801927614,-1581.777784866584,483.6022215605964,0.0,0.0,0.0,0.0,0.0,0.0,-6.6,20.053262734897853,0.0,19.321785901482066,0.0,-6.6,20.73,16.68,21.96,19.09,21.26,-7.14,-6.6,0.0,-971.28,-3916.21,0.0,180.0,100.0,526.0,0.0,0.0,0.0,0.0,0.0,0.0,0.0,0.0,0.0,0.0,0.0,0.0,0.0,0.0
406.0,4030.0,4050.251256281407,0.0,-0.0,0.0,0.0,0.0,35937.76847981628,0.0,35937.76847981628,0.0,0.0,0.02693877551020407,0.2512201184027838,0.6075801749271137,0.0,0.0,0.0,"[2.0, 2.0, 2.0, 2.0, 2.0, 2.0, 2.0, 2.0]",20.0,0.0,0.0,0.0,884.1693709762229,118.81058322951108,-1374.9652245847103,-788.4881768949642,9485.477576403482,0.0,0.0,0.0,0.0,0.0,0.0,-7.0,19.70638329194446,0.0,19.131771555341487,0.0,-7.0,20.0,16.49,21.77,18.75,20.95,-7.5,-7.0,8788.98,-959.65,-3869.29,0.0,194.0,71.0,540.0,0.0,0.0,0.0,0.0,0.0,0.0,0.0,0.0,0.0,0.0,0.0,0.0,0.0,0.0
407.0,1924.0,32747.065599373804,14659.330271376934,-0.0,0.0,-16000.0,0.0,27318.2790303114,0.0,0.0,0.0,27318.2790303114,0.6802721088435374,0.2512201184027838,0.6075801749271137,0.0,0.0,0.0,"[2.0, 2.0, 2.0, 2.0, 2.0, 2.0, 2.0, 2.0]",24.0,0.0,0.0,0.0,492.8051452718715,110.68543158236251,-1593.9411677593123,-6540.737026153446,0.0,0.0,0.0,0.0,0.0,0.0,0.0,-7.3,20.952400020806465,0.0,19.226068489226186,0.0,-7.3,24.0,16.49,21.96,21.61,23.16,-7.81,-7.3,0.0,-1112.48,-4485.51,0.0,303.0,15.0,201.0,0.0,0.0,0.0,0.0,0.0,0.0,0.0,0.0,0.0,0.0,0.0,0.0,0.0,0.0
408.0,3286.0,9768.219745476283,6433.378646748902,-0.0,0.0,0.0,0.0,13599.484767794873,0.0,1794.6069719438894,0.0,11804.877795850985,0.6802721088435374,0.2435899867193489,0.6075801749271137,0.0,0.0,0.0,"[2.0, 2.0, 2.0, 2.0, 2.0, 2.0, 2.0, 2.0]",20.37,0.0,0.0,0.0,565.1606034379697,118.58927559709846,-1424.4587239812765,-1343.6590463612345,9636.342591197474,0.0,0.0,0.0,0.0,0.0,0.0,-7.6,19.81411916939622,0.0,19.110668973766778,0.0,-7.6,20.37,16.35,21.87,18.79,21.07,-8.07,-7.6,3931.32,-994.19,-4008.57,0.0,320.0,17.0,245.0,0.0,0.0,0.0,0.0,0.0,0.0,0.0,0.0,0.0,0.0,0.0,0.0,0.0,0.0
409.0,1256.0,76520.57017758428,74881.96732669635,-0.0,0.0,0.0,0.0,55976.33431906471,0.0,-80000.0,0.0,135976.3343190647,0.6802721088435374,0.5702566533860156,0.6075801749271137,0.0,0.0,0.0,"[2.0, 2.0, 2.0, 2.0, 2.0, 2.0, 2.0, 2.0]",24.0,0.0,0.0,0.0,427.1121203824535,113.11981553890118,-1619.4034867331034,-6537.88203401787,0.0,0.0,0.0,0.0,0.0,0.0,0.0,-7.8,20.95520967687021,0.0,19.210527570027047,0.0,-7.8,24.0,16.36,22.06,21.59,23.23,-8.27,-7.8,9373.18,-1130.25,-4557.16,0.0,320.0,13.0,144.0,0.0,0.0,0.0,0.0,0.0,0.0,0.0,0.0,0.0,0.0,0.0,0.0,0.0,0.0
410.0,518.0,0.0,15482.0,-0.0,0.0,16000.0,0.0,27670.601441130988,0.0,0.0,0.0,27670.601441130988,0.0,0.5702566533860156,0.6075801749271137,0.0,0.0,0.0,"[2.0, 2.0, 2.0, 2.0, 2.0, 2.0, 2.0, 2.0]",20.33,0.0,0.0,0.0,259.1901461831125,101.86474166191715,-1447.8119207197697,-1290.0322684255718,1699.1021354525271,0.0,0.0,0.0,0.0,0.0,0.0,-8.1,19.79989386555391,0.0,19.08932098674054,0.0,-8.1,20.33,16.22,21.95,18.73,21.1,-8.56,-8.1,7499.16,-1010.49,-4074.29,0.0,320.0,0.0,22.0,0.0,0.0,0.0,0.0,0.0,0.0,0.0,0.0,0.0,0.0,0.0,0.0,0.0,0.0
411.0,879.0,23362.66973013737,22366.856381486683,-0.0,0.0,0.0,0.0,39975.73752894556,0.0,0.0,0.0,39975.73752894557,0.0,0.5702566533860156,0.6075801749271137,0.0,0.0,0.0,"[2.0, 2.0, 2.0, 2.0, 2.0, 2.0, 2.0, 2.0]",20.0,0.0,0.0,0.0,399.38780126336434,105.12112539598837,-1430.9823263270505,-1066.7431862585477,9167.398031558634,0.0,0.0,0.0,0.0,0.0,0.0,-8.1,19.575808333936916,0.0,18.909561570060426,0.0,-8.1,20.0,16.05,21.77,18.69,21.03,-8.56,-8.1,0.0,-998.74,-4026.93,0.0,320.0,0.0,125.0,0.0,0.0,0.0,0.0,0.0,0.0,0.0,0.0,0.0,0.0,0.0,0.0,0.0,0.0
412.0,1807.0,59458.533222993196,57354.24055687823,-0.0,0.0,0.0,0.0,21961.06135718153,0.0,-80000.0,0.0,101961.06135718153,0.0,0.8969233200526823,0.6075801749271137,0.0,0.0,0.0,"[2.0, 2.0, 2.0, 2.0, 2.0, 2.0, 2.0, 2.0]",23.45,0.0,0.0,0.0,389.85980528703647,104.89981776357577,-1611.6086133361657,-6038.291005919129,0.0,0.0,0.0,0.0,0.0,0.0,0.0,-8.2,20.641956141849192,0.0,18.98085832371536,0.0,-8.2,23.45,16.04,21.92,21.13,22.9,-8.65,-8.2,967.29,-1124.81,-4535.23,0.0,320.0,0.0,118.0,0.0,0.0,0.0,0.0,0.0,0.0,0.0,0.0,0.0,0.0,0.0,0.0,0.0,0.0
413.0,1565.0,17653.26633165829,0.0,-0.0,0.0,-16000.0,0.0,32356.108887054823,0.0,32356.108887054823,0.0,0.0,0.6533333333333333,0.7593548298866328,0.6075801749271137,0.0,0.0,0.0,"[2.0, 2.0, 2.0, 2.0, 2.0, 2.0, 2.0, 2.0]",20.0,0.0,0.0,0.0,452.4723502743334,106.35412506228718,-1441.1672539165668,-1140.8173933441499,8524.725864153304,0.0,0.0,0.0,0.0,0.0,0.0,-8.3,19.540762345785627,0.0,18.846087009688723,0.0,-8.3,20.0,15.9,21.79,18.42,20.87,-8.75,-8.3,912.11,-1005.85,-4055.59,0.0,320.0,0.0,164.0,0.0,0.0,0.0,0.0,0.0,0.0,0.0,0.0,0.0,0.0,0.0,0.0,0.0,0.0
414.0,2398.0,0.0,0.0,-0.0,0.0,2398.0,0.0,11369.248926438047,0.0,11369.248926438047,0.0,0.0,0.17604547264491494,0.7110161864919132,0.6075801749271137,0.0,0.0,0.0,"[1.2707811658144372, 2.0, 2.0, 2.0, 2.0, 2.0, 2.0, 2.0]",23.12,0.0,0.0,0.0,419.231822958423,138.09596262546683,-1600.219312475046,-5666.890351315055,7028.885678973342,0.0,0.0,0.0,0.0,0.0,0.0,-8.3,20.49627472801987,0.0,18.89669990093432,0.0,-8.3,23.12,15.89,21.9,20.84,22.72,-8.75,-8.3,7424.98,-1116.86,-4503.18,0.0,404.0,13.0,94.0,0.0,0.0,0.0,0.0,0.0,0.0,0.0,0.0,0.0,0.0,0.0,0.0,0.0,0.0
415.0,944.0,948.7437185929648,0.0,-0.0,0.0,0.0,0.0,58638.311581728165,0.0,58638.311581728165,0.0,0.0,0.17604547264491494,0.46170363724987173,0.6075801749271137,0.0,0.0,0.0,"[1.2707811658144372, 2.0, 2.0, 2.0, 2.0, 2.0, 2.0, 2.0]",23.27,0.0,0.0,0.0,371.0903696043457,178.94302849362236,-1607.730600591437,-5724.587553977869,6798.508541472198,0.0,0.0,0.0,0.0,0.0,0.0,-8.3,20.616474321946367,0.0,18.993045157441873,0.0,-8.3,23.27,15.91,22.07,20.75,22.74,-8.75,-8.3,0.0,-1122.1,-4524.31,0.0,444.0,66.0,32.0,0.0,0.0,0.0,0.0,0.0,0.0,0.0,0.0,0.0,0.0,0.0,0.0,0.0,0.0
416.0,1533.0,37869.86607352599,20147.51674315836,-0.0,0.0,-16000.0,0.0,36009.16585896192,0.0,0.0,0.0,36009.16585896192,0.8293788059782483,0.46170363724987173,0.6075801749271137,0.0,0.0,0.0,"[1.2707811658144372, 2.0, 2.0, 2.0, 2.0, 2.0, 2.0, 2.0]",23.27,0.0,0.0,1.8754790425794097,365.0010488675949,127.25188863724907,-1597.5456730019205,-5573.446947842996,1405.5616915015003,0.0,0.0,0.0,0.0,0.0,0.0,-8.1,20.688548401128905,0.0,19.083508251716367,0.0,-8.1,23.27,15.94,22.23,20.77,22.83,-8.54,-8.1,1672.55,-1115.0,-4495.65,2.97,321.0,40.0,95.0,0.0,0.0,0.0,0.0,0.0,0.0,0.0,0.0,0.0,0.0,0.0,0.0,0.0,0.0
417.0,4335.0,26692.313927952913,22223.85235831315,-0.0,0.0,0.0,0.0,21379.278025545857,0.0,-19188.339115576666,0.0,40567.61714112252,0.8293788059782483,0.5400560219718098,0.6075801749271137,0.0,0.0,0.0,"[1.2707811658144372, 2.0, 2.0, 2.0, 2.0, 2.0, 2.0, 2.0]",20.73,0.0,0.0,11.304882885821616,540.3018470185281,130.82442613190975,-1447.7476762634785,-1957.0921382467714,8016.723814599699,0.0,0.0,0.0,0.0,0.0,0.0,-7.7,19.877727753688866,0.0,18.986546964302143,0.0,-7.7,20.73,15.84,22.13,18.93,21.45,-8.17,-7.7,10668.7,-1010.45,-4074.11,17.88,342.0,28.0,214.0,0.0,0.0,0.0,0.0,0.0,0.0,0.0,0.0,0.0,0.0,0.0,0.0,0.0,0.0
418.0,3176.0,0.0,0.0,-0.0,0.48255530532968605,3175.5174446946703,0.0,22589.57509678896,0.0,22589.575096788965,0.0,0.0,0.6943653091800055,0.44401191016573427,0.6075801749271137,0.0,0.0,0.0,"[1.2707811658144372, 2.0, 2.0, 2.0, 2.0, 2.0, 2.0, 2.0]",23.27,0.0,0.0,16.831383313301238,336.7752562760674,56.24375400886116,-1561.8984264386131,-5615.890578581196,1489.7604947849252,0.0,0.0,0.0,0.0,0.0,0.0,-7.4,20.666047549097417,0.0,19.04436429868285,0.0,-7.4,23.27,15.85,22.23,20.87,22.93,-7.88,-7.4,6394.71,-1090.12,-4395.34,26.62,122.0,21.0,181.0,0.0,0.0,0.0,0.0,0.0,0.0,0.0,0.0,0.0,0.0,0.0,0.0,0.0,0.0
419.0,4799.0,0.0,11202.935409480217,-0.0,1.9354094802164903,16000.0,0.0,20983.942733044256,0.0,0.0,0.0,20983.94273304426,0.014093200336468104,0.44401191016573427,0.6075801749271137,0.0,0.0,0.0,"[1.2707811658144372, 2.0, 2.0, 2.0, 2.0, 2.0, 2.0, 2.0]",20.73,0.0,0.0,20.499886621113387,336.3454218711203,54.53652370167818,-1422.2853572896843,-1994.227990558784,8292.260973190183,0.0,0.0,0.0,0.0,0.0,0.0,-7.2,19.858350380203234,0.0,18.953397692829906,0.0,-7.2,20.73,15.77,22.13,18.88,21.44,-7.68,-7.2,0.0,-992.67,-4002.45,32.42,156.0,0.0,165.0,0.0,0.0,0.0,0.0,0.0,0.0,0.0,0.0,0.0,0.0,0.0,0.0,0.0,0.0
420.0,2526.0,16048.310687136709,13446.793278687563,-0.0,4.724144986538219,0.0,0.0,25571.43493186106,0.0,0.0,0.0,25571.43493186106,0.014093200336468104,0.44401191016573427,0.6075801749271137,0.0,0.0,0.0,"[1.2707811658144372, 2.0, 2.0, 2.0, 2.0, 2.0, 2.0, 2.0]",23.27,0.0,0.0,24.345262985938128,51.723406728636604,1.2013842902398641,-1536.4361074648223,-5644.417639412698,1820.1952919536877,0.0,0.0,0.0,0.0,0.0,0.0,-6.9,20.650775857037324,0.0,19.018060754598494,0.0,-6.9,23.27,15.8,22.24,20.85,22.93,-7.38,-6.9,8791.94,-1072.35,-4323.68,38.5,0.0,0.0,38.0,0.0,0.0,0.0,0.0,0.0,0.0,0.0,0.0,0.0,0.0,0.0,0.0,0.0,0.0
421.0,1689.0,0.0,0.0,-0.0,12848.127149386688,-11159.127149386688,0.0,34655.32657768905,0.0,34655.32657768905,0.0,0.0,0.4697575589364245,0.29666783458032164,0.6075801749271137,0.0,0.0,0.0,"[1.2707811658144372, 2.0, 2.0, 2.0, 2.0, 2.0, 2.0, 2.0]",20.73,0.0,0.0,974.1107090241251,1506.7128674746325,68.5421352957903,-1294.9737624207296,-1995.2070563722957,718.5220727602244,0.0,0.0,0.0,0.0,0.0,0.0,-4.7,19.848473771359384,0.0,18.935606487952725,0.0,-4.7,20.73,15.73,22.14,18.89,21.46,-4.66,-4.7,0.0,-903.82,-3644.18,1540.56,112.0,0.0,1048.0,0.0,0.0,0.0,0.0,0.0,0.0,0.0,0.0,0.0,0.0,0.0,0.0,0.0,0.0
422.0,1462.0,4317.150113520883,0.0,-14014.993752603083,11181.429389649806,0.0,0.0,33200.001837932985,0.0,33200.00183793298,0.0,0.0,0.4697575589364245,0.15551136418094674,1.0,0.0,0.0,0.0,"[1.2707811658144372, 2.0, 2.0, 2.0, 2.0, 2.0, 2.0, 2.0]",20.73,0.0,0.0,936.1491992492255,632.5013268796849,90.76774466522787,-1244.049124473148,-2116.015995940038,1681.4798342791526,0.0,0.0,0.0,0.0,0.0,0.0,-3.7,19.787469492983597,0.0,18.856722082975683,0.0,-3.7,20.73,15.7,22.02,19.08,21.55,-3.74,-3.7,0.0,-868.28,-3500.88,1480.53,254.0,0.0,331.0,0.0,0.0,0.0,0.0,0.0,0.0,0.0,0.0,0.0,0.0,0.0,0.0,0.0,0.0
423.0,726.0,62266.67735137719,65866.11628616636,-0.0,4636.772321546057,0.0,0.0,65977.39056920003,0.0,-80000.0,0.0,145977.39056920004,0.4697575589364245,0.48217803084761346,1.0,0.0,0.0,0.0,"[1.2707811658144372, 2.0, 2.0, 2.0, 2.0, 2.0, 2.0, 2.0]",20.73,0.0,0.0,530.6700415839366,231.03599265907624,42.20652703869007,-1238.9566606783894,-2201.438630471294,7907.564151621856,0.0,0.0,0.0,0.0,0.0,0.0,-3.6,19.747122623110823,0.0,18.806736957364627,0.0,-3.6,20.73,15.69,21.93,19.18,21.58,-3.98,-3.6,3241.06,-864.72,-3486.55,839.26,123.0,0.0,105.0,0.0,0.0,0.0,0.0,0.0,0.0,0.0,0.0,0.0,0.0,0.0,0.0,0.0,0.0
424.0,1017.0,14072.893637089337,0.0,-0.0,0.0,-12985.529168903891,0.0,45695.62976151913,0.0,45695.62976151913,0.0,0.0,1.0,0.2878938907051002,1.0,0.0,0.0,0.0,"[1.2707811658144372, 2.0, 2.0, 2.0, 2.0, 2.0, 2.0, 2.0]",23.27,0.0,0.0,0.9399216005289706,127.94737453925894,2.971845349540721,-1409.1245125958678,-5779.839681656309,1774.5621277646917,0.0,0.0,0.0,0.0,0.0,0.0,-4.4,20.57909379640124,0.0,18.93025309134785,0.0,-4.4,23.27,15.79,22.07,20.95,22.93,-5.28,-4.4,0.0,-983.49,-3965.42,1.49,0.0,0.0,94.0,0.0,0.0,0.0,0.0,0.0,0.0,0.0,0.0,0.0,0.0,0.0,0.0,0.0,0.0
425.0,4547.0,4569.849246231156,0.0,-0.0,0.0,0.0,0.0,31232.330364164365,0.0,31232.330364164365,0.0,0.0,1.0,0.1551033704492993,1.0,0.0,0.0,0.0,"[1.2707811658144372, 2.0, 2.0, 2.0, 2.0, 2.0, 2.0, 2.0]",20.73,0.0,0.0,0.0,98.00224432794302,2.276307076243959,-1310.2511538050044,-2121.1339856292675,8614.097827455067,0.0,0.0,0.0,0.0,0.0,0.0,-5.0,19.791599935098326,0.0,18.870418795295627,0.0,-5.0,20.73,15.76,21.99,18.87,21.35,-5.85,-5.0,0.0,-914.48,-3687.18,0.0,0.0,0.0,72.0,0.0,0.0,0.0,0.0,0.0,0.0,0.0,0.0,0.0,0.0,0.0,0.0,0.0,0.0
426.0,3172.0,0.0,0.0,-0.0,0.0,2398.0,0.0,16875.02432347026,0.0,11369.248926438047,0.0,0.0,0.17604547264491494,0.7110161864919132,0.6075801749271137,0.0,0.0,0.0,"[1.2707811658144372, 2.0, 2.0, 2.0, 2.0, 2.0, 2.0, 2.0]",23.27,0.0,0.0,0.0,273.3030424788762,53.27190865932044,-1465.1416143382078,-5743.987712804591,1604.5993892733563,0.0,0.0,0.0,0.0,0.0,0.0,-5.5,20.599642417351053,0.0,18.958444791819318,0.0,-5.5,23.27,15.81,22.1,20.85,22.86,-6.34,-5.5,837.83,-1022.59,-4123.05,0.0,117.0,21.0,137.0,0.0,0.0,0.0,0.0,0.0,0.0,0.0,0.0,0.0,0.0,0.0,0.0,0.0,0.0
427.0,4231.0,948.7437185929648,0.0,-0.0,0.0,0.0,0.0,58638.311581728165,0.0,58638.311581728165,0.0,0.0,0.17604547264491494,0.46170363724987173,0.6075801749271137,0.0,0.0,0.0,"[1.2707811658144372, 2.0, 2.0, 2.0, 2.0, 2.0, 2.0, 2.0]",23.27,0.0,0.0,0.0,782.0120607337911,153.777189150703,-1495.6963971067566,-5712.8749346457225,6798.508541472198,0.0,0.0,0.0,0.0,0.0,0.0,-6.1,20.616474321946367,0.0,18.993045157441873,0.0,-6.1,23.27,15.91,22.07,20.75,22.74,-6.94,-6.1,0.0,-1043.91,-4209.04,0.0,330.0,65.0,394.0,0.0,0.0,0.0,0.0,0.0,0.0,0.0,0.0,0.0,0.0,0.0,0.0,0.0,0.0
428.0,4814.0,37869.86607352599,20147.51674315836,-0.0,0.0,-16000.0,0.0,36009.16585896192,0.0,0.0,0.0,36009.16585896192,0.8293788059782483,0.46170363724987173,0.6075801749271137,0.0,0.0,0.0,"[1.2707811658144372, 2.0, 2.0, 2.0, 2.0, 2.0, 2.0, 2.0]",23.27,0.0,0.0,0.0,1335.6387743056796,255.32577705203073,-1526.2511798753058,-5566.752034989675,1405.5616915015003,0.0,0.0,0.0,0.0,0.0,0.0,-6.7,20.688548401128905,0.0,19.083508251716367,0.0,-6.7,23.27,15.94,22.23,20.77,22.83,-7.51,-6.7,1672.55,-1065.24,-4295.02,0.0,628.0,64.0,644.0,0.0,0.0,0.0,0.0,0.0,0.0,0.0,0.0,0.0,0.0,0.0,0.0,0.0,0.0
429.0,4730.0,26692.313927952913,22223.85235831315,-0.0,0.0,0.0,0.0,21379.278025545857,0.0,-19188.339115576666,0.0,40567.61714112252,0.8293788059782483,0.5400560219718098,0.6075801749271137,0.0,0.0,0.0,"[1.2707811658144372, 2.0, 2.0, 2.0, 2.0, 2.0, 2.0, 2.0]",20.73,0.0,0.0,0.0,1059.7567253971208,208.88278962144219,-1422.2853572896875,-1956.0043751736225,8016.723814599699,0.0,0.0,0.0,0.0,0.0,0.0,-7.2,19.877727753688866,0.0,18.986546964302143,0.0,-7.2,20.73,15.84,22.13,18.93,21.45,-8.0,-7.2,10668.7,-992.67,-4002.45,0.0,568.0,25.0,477.0,0.0,0.0,0.0,0.0,0.0,0.0,0.0,0.0,0.0,0.0,0.0,0.0,0.0,0.0
430.0,2911.0,0.0,0.0,-0.0,0.0,3175.5174446946703,0.0,22589.57509678896,0.0,22589.575096788965,0.0,0.0,0.6943653091800055,0.44401191016573427,0.6075801749271137,0.0,0.0,0.0,"[1.2707811658144372, 2.0, 2.0, 2.0, 2.0, 2.0, 2.0, 2.0]",23.27,0.0,0.0,0.0,541.3764330308959,131.61481053338335,-1582.268281617646,-5620.374830516768,1489.7604947849252,0.0,0.0,0.0,0.0,0.0,0.0,-7.8,20.666047549097417,0.0,19.04436429868285,0.0,-7.8,23.27,15.85,22.23,20.87,22.93,-8.57,-7.8,6394.71,-1104.33,-4452.66,0.0,388.0,5.0,193.0,0.0,0.0,0.0,0.0,0.0,0.0,0.0,0.0,0.0,0.0,0.0,0.0,0.0,0.0
431.0,3195.0,0.0,11202.935409480217,-0.0,0.0,16000.0,0.0,20983.942733044256,0.0,0.0,0.0,20983.94273304426,0.014093200336468104,0.44401191016573427,0.6075801749271137,0.0,0.0,0.0,"[1.2707811658144372, 2.0, 2.0, 2.0, 2.0, 2.0, 2.0, 2.0]",20.73,0.0,0.0,0.0,456.41249898634874,195.66756242880365,-1483.394922826783,-2003.4692103532689,8292.260973190183,0.0,0.0,0.0,0.0,0.0,0.0,-8.4,19.858350380203234,0.0,18.953397692829906,0.0,-8.4,20.73,15.77,22.13,18.88,21.44,-9.11,-8.4,0.0,-1035.33,-4174.42,0.0,616.0,1.0,11.0,0.0,0.0,0.0,0.0,0.0,0.0,0.0,0.0,0.0,0.0,0.0,0.0,0.0,0.0
432.0,1134.0,16048.310687136709,13446.793278687563,-0.0,0.0,0.0,0.0,25571.43493186106,0.0,0.0,0.0,25571.43493186106,0.014093200336468104,0.44401191016573427,0.6075801749271137,0.0,0.0,0.0,"[1.2707811658144372, 2.0, 2.0, 2.0, 2.0, 2.0, 2.0, 2.0]",23.27,0.0,0.0,0.0,452.61562840931595,117.6724296913891,-1648.4703109495024,-5660.200798407554,1820.1952919536877,0.0,0.0,0.0,0.0,0.0,0.0,-9.1,20.650775857037324,0.0,19.018060754598494,0.0,-9.1,23.27,15.8,22.24,20.85,22.93,-9.82,-9.1,8791.94,-1150.54,-4638.96,0.0,320.0,20.0,162.0,0.0,0.0,0.0,0.0,0.0,0.0,0.0,0.0,0.0,0.0,0.0,0.0,0.0,0.0
433.0,1588.0,0.0,0.0,-0.0,0.0,-11159.127149386688,0.0,34655.32657768905,0.0,34655.32657768905,0.0,0.0,0.4697575589364245,0.29666783458032164,0.6075801749271137,0.0,0.0,0.0,"[1.2707811658144372, 2.0, 2.0, 2.0, 2.0, 2.0, 2.0, 2.0]",20.73,0.0,0.0,0.0,437.7863414386403,107.14450946376077,-1559.7818797481555,-2033.685522203225,718.5220727602244,0.0,0.0,0.0,0.0,0.0,0.0,-9.9,19.848473771359384,0.0,18.935606487952725,0.0,-9.9,20.73,15.73,22.14,18.89,21.46,-10.6,-9.9,0.0,-1088.64,-4389.38,0.0,320.0,2.0,153.0,0.0,0.0,0.0,0.0,0.0,0.0,0.0,0.0,0.0,0.0,0.0,0.0,0.0,0.0
434.0,677.0,4317.150113520883,0.0,-14014.993752603083,0.0,0.0,0.0,33200.001837932985,0.0,33200.00183793298,0.0,0.0,0.4697575589364245,0.15551136418094674,1.0,0.0,0.0,0.0,"[1.2707811658144372, 2.0, 2.0, 2.0, 2.0, 2.0, 2.0, 2.0]",20.73,0.0,0.0,0.0,229.2450159717966,101.16920338862039,-1600.5215901062209,-2165.4028008082128,1681.4798342791526,0.0,0.0,0.0,0.0,0.0,0.0,-10.7,19.787469492983597,0.0,18.856722082975683,0.0,-10.7,20.73,15.7,22.02,19.08,21.55,-11.36,-10.7,0.0,-1117.07,-4504.03,0.0,320.0,0.0,0.0,0.0,0.0,0.0,0.0,0.0,0.0,0.0,0.0,0.0,0.0,0.0,0.0,0.0,0.0
435.0,510.0,62266.67735137719,65866.11628616636,-0.0,0.0,0.0,0.0,65977.39056920003,0.0,-80000.0,0.0,145977.39056920004,0.4697575589364245,0.48217803084761346,1.0,0.0,0.0,0.0,"[1.2707811658144372, 2.0, 2.0, 2.0, 2.0, 2.0, 2.0, 2.0]",20.73,0.0,0.0,0.0,422.5272200630175,105.65858678899042,-1625.9839090800115,-2252.528692044705,7907.564151621856,0.0,0.0,0.0,0.0,0.0,0.0,-11.2,19.747122623110823,0.0,18.806736957364627,0.0,-11.2,20.73,15.69,21.93,19.18,21.58,-11.87,-11.2,3241.06,-1134.84,-4575.68,0.0,320.0,0.0,142.0,0.0,0.0,0.0,0.0,0.0,0.0,0.0,0.0,0.0,0.0,0.0,0.0,0.0,0.0
436.0,443.0,14072.893637089337,0.0,-0.0,0.0,-12985.529168903891,0.0,45695.62976151913,0.0,45695.62976151913,0.0,0.0,1.0,0.2878938907051002,1.0,0.0,0.0,0.0,"[1.2707811658144372, 2.0, 2.0, 2.0, 2.0, 2.0, 2.0, 2.0]",23.27,0.0,0.0,0.0,229.2450159717966,101.16920338862039,-1775.7819058184568,-5825.03356074434,1774.5621277646917,0.0,0.0,0.0,0.0,0.0,0.0,-11.6,20.57909379640124,0.0,18.93025309134785,0.0,-11.6,23.27,15.79,22.07,20.95,22.93,-12.26,-11.6,0.0,-1239.39,-4997.23,0.0,320.0,0.0,0.0,0.0,0.0,0.0,0.0,0.0,0.0,0.0,0.0,0.0,0.0,0.0,0.0,0.0,0.0
437.0,771.0,4569.849246231156,0.0,-0.0,0.0,0.0,0.0,31232.330364164365,0.0,31232.330364164365,0.0,0.0,1.0,0.1551033704492993,1.0,0.0,0.0,0.0,"[1.2707811658144372, 2.0, 2.0, 2.0, 2.0, 2.0, 2.0, 2.0]",20.73,0.0,0.0,0.0,338.27967669338227,115.01673810243783,-1666.7236194380773,-2164.9963612450438,8614.097827455067,0.0,0.0,0.0,0.0,0.0,0.0,-12.0,19.791599935098326,0.0,18.870418795295627,0.0,-12.0,20.73,15.76,21.99,18.87,21.35,-12.62,-12.0,0.0,-1163.28,-4690.33,0.0,320.0,20.0,78.0,0.0,0.0,0.0,0.0,0.0,0.0,0.0,0.0,0.0,0.0,0.0,0.0,0.0,0.0
438.0,684.0,22602.141192059684,12251.863841908324,-0.0,0.0,-9553.26664419106,0.0,16875.02432347026,0.0,0.0,0.0,16875.02432347026,1.0,0.1551033704492993,1.0,0.0,0.0,0.0,"[1.277721961982941, 2.0, 2.0, 1.756328479008829, 2.0, 1.1092849506595996, 1.9870729241832983, 0.38932912994848223]",23.27,0.0,0.0,0.0,519.2399611761193,200.82086872641148,-1816.5216161765227,-5787.142980878459,1604.5993892733563,0.0,0.0,0.0,0.0,0.0,0.0,-12.4,20.599642417351053,0.0,18.958444791819318,0.0,-12.4,23.27,15.81,22.1,20.85,22.86,-13.0,-12.4,837.83,-1267.83,-5111.87,0.0,600.0,16.0,64.0,0.0,0.0,0.0,0.0,0.0,0.0,0.0,0.0,0.0,0.0,0.0,0.0,0.0,0.0
439.0,766.0,0.0,0.0,-0.0,0.0,16000.0,0.0,18975.203672854077,0.0,5264.603672854083,0.0,0.0,0.3197278911564626,0.13271985143206258,1.0,60936.0,15234.0,76170.0,"[1.277721961982941, 2.0, 2.0, 1.756328479008829, 2.0, 1.1092849506595996, 1.9870729241832983, 0.38932912994848223]",20.72,0.0,0.0,0.0,322.5190818453213,91.62135981881933,-1702.0174084694356,-2187.576131382605,3483.759905419793,0.0,0.0,0.0,0.0,0.0,0.0,-12.7,19.775889830965426,0.0,18.839152972028938,0.0,-12.7,20.72,15.65,22.02,18.89,21.4,-13.3,-12.7,8181.13,-1187.91,-4789.65,0.0,279.0,1.0,90.0,0.0,0.0,0.0,0.0,0.0,0.0,0.0,0.0,0.0,0.0,0.0,0.0,0.0,0.0
440.0,1289.0,0.0,0.0,-0.0,0.0,1289.0,0.0,31215.709056821117,0.0,31215.709056821117,0.0,0.0,0.26492346938775513,0.0,1.0,0.0,0.0,0.0,"[1.277721961982941, 2.0, 2.0, 1.756328479008829, 2.0, 1.1092849506595996, 1.9870729241832983, 0.38932912994848223]",20.72,0.0,0.0,1.874518060662779,554.9162167867302,108.56720138641326,-1702.0174084694356,-2392.251227788743,8750.337590847343,0.0,0.0,0.0,0.0,0.0,0.0,-12.7,19.677367459471377,0.0,18.694767932171654,0.0,-12.7,20.72,15.48,21.91,18.98,21.47,-13.29,-12.7,11601.7,-1187.91,-4789.65,2.96,242.0,41.0,276.0,0.0,0.0,0.0,0.0,0.0,0.0,0.0,0.0,0.0,0.0,0.0,0.0,0.0,0.0
441.0,1568.0,36121.68796453507,34373.0795247124,-0.0,0.0,0.0,0.0,47343.53568866894,0.0,0.0,0.0,47343.53568866894,0.26492346938775513,0.0,1.0,0.0,0.0,0.0,"[1.277721961982941, 2.0, 2.0, 1.756328479008829, 2.0, 1.1092849506595996, 1.9870729241832983, 0.38932912994848223]",23.28,0.0,0.0,11.29722031948638,375.96182619374645,85.1085923506769,-1816.8750737084715,-6081.361421311347,2121.616018266591,0.0,0.0,0.0,0.0,0.0,0.0,-12.4,20.46501509958873,0.0,18.738585106006955,0.0,-12.4,23.28,15.44,22.04,20.74,22.84,-12.99,-12.4,0.0,-1268.08,-5112.87,17.87,170.0,45.0,182.0,0.0,0.0,0.0,0.0,0.0,0.0,0.0,0.0,0.0,0.0,0.0,0.0,0.0,0.0
442.0,4427.0,42441.88230696584,37803.20264566455,-0.0,0.5297502335380369,0.0,0.0,41605.662010358195,0.0,-10822.720798767865,0.0,52428.38280912606,0.26492346938775513,0.044192776594968786,1.0,0.0,0.0,0.0,"[1.277721961982941, 2.0, 2.0, 1.756328479008829, 2.0, 1.1092849506595996, 1.9870729241832983, 0.38932912994848223]",20.72,0.0,0.0,16.82189271369602,623.7613606457602,63.64175200665401,-1681.6475532904026,-2448.5556926865024,3431.2559968255214,0.0,0.0,0.0,0.0,0.0,0.0,-12.3,19.64899732637256,0.0,18.63489944166224,0.0,-12.3,20.72,15.3,21.97,18.74,21.37,-12.88,-12.3,12551.4,-1173.69,-4732.32,26.6,132.0,17.0,387.0,0.0,0.0,0.0,0.0,0.0,0.0,0.0,0.0,0.0,0.0,0.0,0.0,0.0,0.0
443.0,3410.0,22387.843021598153,25101.908477862904,-0.0,5.00467137274203,6231.000000000001,0.0,35291.86163214846,0.0,0.0,0.0,35291.86163214846,0.0,0.044192776594968786,1.0,0.0,0.0,0.0,"[1.277721961982941, 2.0, 2.0, 1.756328479008829, 2.0, 1.1092849506595996, 1.9870729241832983, 0.38932912994848223]",20.72,0.0,0.0,24.40080304419121,493.0200624743449,67.593674014022,-1671.4626257008865,-2636.2085091462545,9039.709408368457,0.0,0.0,0.0,0.0,0.0,0.0,-12.1,19.55809858844893,0.0,18.503869327793023,0.0,-12.1,20.72,15.16,21.85,18.82,21.4,-12.68,-12.1,9692.26,-1166.59,-4703.66,38.59,178.0,5.0,268.0,0.0,0.0,0.0,0.0,0.0,0.0,0.0,0.0,0.0,0.0,0.0,0.0,0.0,0.0
444.0,3466.0,39523.61377412715,0.0,-0.0,8.539840913673345,0.0,0.0,32281.681991553163,0.0,0.0,0.0,0.0,0.0,0.044192776594968786,1.0,143474.14218468076,35868.53554617019,179342.67773085096,"[1.277721961982941, 2.0, 2.0, 1.756328479008829, 2.0, 1.1092849506595996, 1.9870729241832983, 0.38932912994848223]",23.28,0.0,0.0,27.29978924411959,459.70789609094334,87.35328405086192,-1796.5052185294387,-6301.508130101174,7530.773294385106,0.0,0.0,0.0,0.0,0.0,0.0,-12.0,20.357907892675456,0.0,18.567205815652102,0.0,-12.0,23.28,15.15,21.99,20.63,22.81,-12.61,-12.0,0.0,-1253.86,-5055.54,43.17,256.0,0.0,203.0,0.0,0.0,0.0,0.0,0.0,0.0,0.0,0.0,0.0,0.0,0.0,0.0,0.0,0.0
445.0,4738.0,155564.4980488536,0.0,-0.0,14261.778377190607,-16000.0,0.0,53479.40854221989,0.0,-80000.0,0.0,0.0,0.6533333333333333,0.3708594432616355,1.0,593241.8157431998,148310.45393579995,741552.2696789997,"[1.277721961982941, 2.0, 2.0, 1.756328479008829, 2.0, 1.1092849506595996, 1.9870729241832983, 0.38932912994848223]",23.28,0.0,0.0,1025.1810553712887,1460.9355033477648,151.34280519416433,-1715.025797813308,-6135.09591160639,5196.38181984692,0.0,0.0,0.0,0.0,0.0,0.0,-10.4,20.431028244607713,0.0,18.65760858850627,0.0,-10.4,23.28,15.16,22.15,20.48,22.78,-10.38,-10.4,0.0,-1196.99,-4826.25,1621.33,392.0,0.0,867.0,0.0,0.0,0.0,0.0,0.0,0.0,0.0,0.0,0.0,0.0,0.0,0.0,0.0,0.0
446.0,3292.0,72179.86192072672,73011.13797687781,-0.0,12973.97128412207,-8489.795918367347,0.0,39354.426919768746,0.0,-80000.0,0.0,119354.42691976875,1.0,0.6975261099283022,1.0,0.0,0.0,0.0,"[1.277721961982941, 2.0, 2.0, 1.756328479008829, 2.0, 1.1092849506595996, 1.9870729241832983, 0.38932912994848223]",23.28,0.0,0.0,1064.5218824313624,417.29756813616103,95.95266633889464,-1679.3785512500003,-5948.6057448838665,716.1198678396013,0.0,0.0,0.0,0.0,0.0,0.0,-9.7,20.518437691143642,0.0,18.771839064925942,0.0,-9.7,23.28,15.23,22.32,20.61,22.96,-9.64,-9.7,10756.41,-1172.11,-4725.94,1683.55,288.0,0.0,155.0,0.0,0.0,0.0,0.0,0.0,0.0,0.0,0.0,0.0,0.0,0.0,0.0,0.0,0.0
447.0,4125.0,0.0,0.0,-0.0,5891.609540619917,6624.424459380082,0.0,31331.660814539428,41955.17,64895.796814539426,0.0,0.0,0.7183493001964252,0.4216086064651244,1.0,33564.136,8391.034,41955.17,"[1.277721961982941, 2.0, 2.0, 1.756328479008829, 2.0, 1.1092849506595996, 1.9870729241832983, 0.38932912994848223]",20.72,0.0,0.0,624.7502221660568,709.7998807026751,90.1670525201079,-1554.3359584214484,-2256.457443156239,7687.606423011056,0.0,0.0,0.0,0.0,0.0,0.0,-9.8,19.732848493518535,0.0,18.718084408606533,0.0,-9.8,20.72,15.18,22.25,18.91,21.69,-10.13,-9.8,0.0,-1084.84,-4374.06,988.05,246.0,0.0,392.0,0.0,0.0,0.0,0.0,0.0,0.0,0.0,0.0,0.0,0.0,0.0,0.0,0.0,0.0
448.0,1784.0,27108.466613020664,25188.92427995556,-0.0,0.0,0.0,0.0,39256.34084702251,0.0,0.0,0.0,39256.34084702251,0.7183493001964252,0.4216086064651244,1.0,0.0,0.0,0.0,"[1.277721961982941, 2.0, 2.0, 1.756328479008829, 2.0, 1.1092849506595996, 1.9870729241832983, 0.38932912994848223]",23.28,0.0,0.0,0.9399143751010262,209.6159114792115,4.868767913077354,-1720.1182616080664,-5922.601263980609,7427.708849742231,0.0,0.0,0.0,0.0,0.0,0.0,-10.5,20.536568978098845,0.0,18.793398103931764,0.0,-10.5,23.28,15.22,22.36,20.76,23.1,-11.44,-10.5,311.6,-1200.54,-4840.58,1.49,0.0,0.0,154.0,0.0,0.0,0.0,0.0,0.0,0.0,0.0,0.0,0.0,0.0,0.0,0.0,0.0,0.0
449.0,3577.0,0.0,5698.6200767388045,-0.0,0.0,9275.620076738804,0.0,8663.857405560377,0.0,0.0,0.0,8663.857405560379,0.3239776982942652,0.4216086064651244,1.0,0.0,0.0,0.0,"[1.277721961982941, 2.0, 2.0, 1.756328479008829, 2.0, 1.1092849506595996, 1.9870729241832983, 0.38932912994848223]",23.28,0.0,0.0,0.0,141.55879736258436,3.2879991101301624,-1740.4881167870985,-5801.320798534176,2085.621669029308,0.0,0.0,0.0,0.0,0.0,0.0,-10.9,20.596054906707494,0.0,18.86932229676929,0.0,-10.9,23.28,15.25,22.49,20.5,22.96,-11.81,-10.9,11570.37,-1214.76,-4897.91,0.0,0.0,0.0,104.0,0.0,0.0,0.0,0.0,0.0,0.0,0.0,0.0,0.0,0.0,0.0,0.0,0.0,0.0
450.0,4794.0,131662.5289647463,0.0,-0.0,0.0,-555.6482050384021,0.0,51442.239417303725,0.0,-61646.87188609197,0.0,0.0,1.0,1.0,0.8775510204081634,502618.2724595366,125654.56811488415,628272.8405744208,"[1.277721961982941, 2.0, 1.3334132796412597, 1.756328479008829, 1.972524055400104, 1.1092849506595996, 1.9870729241832983, 0.38932912994848223]",20.72,0.0,0.0,0.0,979.3776916720096,122.95219749323273,-1635.8153791375792,-2195.588651491889,8051.86009897049,0.0,0.0,0.0,0.0,0.0,0.0,-11.4,19.76894849085601,0.0,18.7570783257653,0.0,-11.4,20.72,15.15,22.36,18.68,21.57,-12.31,-11.4,0.0,-1141.71,-4603.35,0.0,310.0,13.0,555.0,0.0,0.0,0.0,0.0,0.0,0.0,0.0,0.0,0.0,0.0,0.0,0.0,0.0,0.0
451.0,3532.0,0.0,0.0,-0.0,0.0,16000.0,0.0,23880.97370486537,0.0,12659.773704865378,0.0,0.0,0.3197278911564626,0.9461744315269329,0.8775510204081634,49872.0,12468.0,62340.0,"[1.277721961982941, 2.0, 1.3334132796412597, 1.756328479008829, 1.972524055400104, 1.1092849506595996, 1.9870729241832983, 0.38932912994848223]",23.28,0.0,0.0,0.0,743.7567986934973,135.2505787801619,-1786.3202909399226,-5919.476278443395,1527.4130669302767,0.0,0.0,0.0,0.0,0.0,0.0,-11.8,20.54191934096177,0.0,18.78836733015778,0.0,-11.8,23.28,15.14,22.43,20.58,23.01,-12.68,-11.8,0.0,-1246.75,-5026.88,0.0,256.0,73.0,404.0,0.0,0.0,0.0,0.0,0.0,0.0,0.0,0.0,0.0,0.0,0.0,0.0,0.0,0.0
452.0,6813.0,47582.42779115036,39871.790537659,-0.0,0.0,-659.7251145356099,0.0,55297.25926100641,0.0,0.0,0.0,55297.25926100642,0.3466666666666667,0.9461744315269329,0.8775510204081634,0.0,0.0,0.0,"[1.277721961982941, 2.0, 1.3334132796412597, 1.756328479008829, 1.972524055400104, 1.1092849506595996, 1.9870729241832983, 0.38932912994848223]",20.72,0.0,0.0,0.0,1095.4329810077315,166.58141645457525,-1681.6475532904026,-2319.9836816661095,8066.358417491833,0.0,0.0,0.0,0.0,0.0,0.0,-12.3,19.71190956889366,0.0,18.6712725214666,0.0,-12.3,20.72,15.04,22.31,18.6,21.52,-13.21,-12.3,8874.16,-1173.69,-4732.32,0.0,356.0,61.0,611.0,0.0,0.0,0.0,0.0,0.0,0.0,0.0,0.0,0.0,0.0,0.0,0.0,0.0,0.0
453.0,4957.0,35289.0253351864,30155.580208510466,-0.0,0.0,0.0,0.0,40672.14345938287,0.0,0.0,0.0,40672.143459382874,0.3466666666666667,0.9461744315269329,0.8775510204081634,0.0,0.0,0.0,"[1.277721961982941, 2.0, 1.3334132796412597, 1.756328479008829, 1.972524055400104, 1.1092849506595996, 1.9870729241832983, 0.38932912994848223]",23.28,0.0,0.0,0.0,1160.1946980197642,227.7887845046906,-1832.1524650927458,-6042.219322158126,6507.040667081764,0.0,0.0,0.0,0.0,0.0,0.0,-12.7,20.48572381001386,0.0,18.70269339848774,0.0,-12.7,23.28,15.02,22.38,20.54,22.98,-13.59,-12.7,246.1,-1278.74,-5155.86,0.0,612.0,31.0,527.0,0.0,0.0,0.0,0.0,0.0,0.0,0.0,0.0,0.0,0.0,0.0,0.0,0.0,0.0
454.0,4087.0,27988.769371489656,0.0,-0.0,0.0,-16000.0,0.0,6985.642972168984,0.0,0.0,0.0,0.0,1.0,0.9461744315269329,0.8775510204081634,31047.302098528828,7761.825524632207,38809.12762316103,"[1.277721961982941, 2.0, 1.3334132796412597, 1.756328479008829, 1.972524055400104, 1.1092849506595996, 1.9870729241832983, 0.38932912994848223]",23.28,0.0,0.0,0.0,1060.3298379370503,226.96678472715806,-1857.614784066537,-5945.8770056535595,1225.1344484877297,0.0,0.0,0.0,0.0,0.0,0.0,-13.2,20.533602007718855,0.0,18.761078794082955,0.0,-13.2,23.28,15.03,22.5,20.38,22.93,-14.08,-13.2,3074.06,-1296.51,-5227.51,0.0,600.0,40.0,459.0,0.0,0.0,0.0,0.0,0.0,0.0,0.0,0.0,0.0,0.0,0.0,0.0,0.0,0.0
455.0,1615.0,23562.527169039127,32217.537887817172,-0.0,0.0,10387.823354623242,0.0,40688.93843932599,0.0,0.0,0.0,40688.938439326,0.5583408437660187,0.9461744315269329,0.8775510204081634,0.0,0.0,0.0,"[1.277721961982941, 2.0, 1.3334132796412597, 1.756328479008829, 1.972524055400104, 1.1092849506595996, 1.9870729241832983, 0.38932912994848223]",20.72,0.0,0.0,0.0,507.70607131003817,155.32634257759125,-1747.8495826222593,-2361.918880412317,3460.818638495004,0.0,0.0,0.0,0.0,0.0,0.0,-13.6,19.69577653377486,0.0,18.632388864125794,0.0,-13.6,20.72,14.9,22.36,18.55,21.54,-14.51,-13.6,3205.12,-1219.9,-4918.62,0.0,432.0,25.0,143.0,0.0,0.0,0.0,0.0,0.0,0.0,0.0,0.0,0.0,0.0,0.0,0.0,0.0,0.0
456.0,1227.0,0.0,0.0,-0.0,0.0,1227.0,0.0,20093.863560531216,0.0,20093.863560531216,0.0,0.0,0.5061724764190799,0.8607413381573275,0.8775510204081634,0.0,0.0,0.0,"[1.277721961982941, 2.0, 1.3334132796412597, 1.756328479008829, 1.972524055400104, 1.1092849506595996, 1.9870729241832983, 0.38932912994848223]",20.72,0.0,0.0,0.0,574.9751556842622,109.19950890759213,-1758.034510211779,-2579.4490665287344,3663.2094339494092,0.0,0.0,0.0,0.0,0.0,0.0,-13.8,19.591713479384012,0.0,18.486516581755225,0.0,-13.8,20.72,14.76,22.21,18.72,21.62,-14.7,-13.8,12143.38,-1227.01,-4947.28,0.0,320.0,0.0,254.0,0.0,0.0,0.0,0.0,0.0,0.0,0.0,0.0,0.0,0.0,0.0,0.0,0.0,0.0
457.0,749.0,0.0,8947.17664537676,-0.0,0.0,9696.17664537676,0.0,22558.174944942097,0.0,11684.874934378691,0.0,10873.300010563411,0.09392006802721088,0.8110607474499351,0.8775510204081634,0.0,0.0,0.0,"[1.277721961982941, 2.0, 1.3334132796412597, 1.756328479008829, 1.972524055400104, 1.1092849506595996, 1.9870729241832983, 0.38932912994848223]",20.72,0.0,0.0,0.0,396.66551669869926,105.05789464387048,-1773.3119015960503,-2783.22343115215,4064.3369457091467,0.0,0.0,0.0,0.0,0.0,0.0,-14.1,19.494564046911947,0.0,18.349696186811357,0.0,-14.1,20.72,14.63,22.07,18.65,21.53,-14.99,-14.1,9717.78,-1237.67,-4990.28,0.0,320.0,0.0,123.0,0.0,0.0,0.0,0.0,0.0,0.0,0.0,0.0,0.0,0.0,0.0,0.0,0.0,0.0
458.0,843.0,0.0,0.0,-0.0,0.0,843.0,0.0,61902.77305860189,0.0,61902.77305860189,0.0,0.0,0.058078231292517005,0.5478686851259474,0.8775510204081634,0.0,0.0,0.0,"[1.277721961982941, 2.0, 1.3334132796412597, 1.756328479008829, 1.972524055400104, 1.1092849506595996, 1.9870729241832983, 0.38932912994848223]",20.72,0.0,0.0,0.0,339.4975408407324,103.73004884939485,-1783.4968291855669,-2965.716580548504,9627.029010539518,0.0,0.0,0.0,0.0,0.0,0.0,-14.3,19.40740752288932,0.0,18.225960467276884,0.0,-14.3,20.72,14.5,21.95,18.63,21.49,-15.19,-14.3,572.42,-1244.78,-5018.94,0.0,320.0,0.0,81.0,0.0,0.0,0.0,0.0,0.0,0.0,0.0,0.0,0.0,0.0,0.0,0.0,0.0,0.0
459.0,467.0,27943.131443198155,27336.415785982164,-0.0,0.0,0.0,0.0,32439.504211571624,0.0,0.0,0.0,32439.504211571624,0.058078231292517005,0.5478686851259474,0.8775510204081634,0.0,0.0,0.0,"[1.277721961982941, 2.0, 1.3334132796412597, 1.756328479008829, 1.972524055400104, 1.1092849506595996, 1.9870729241832983, 0.38932912994848223]",23.28,0.0,0.0,0.0,255.10671933611488,101.76989553374034,-1918.7243496036353,-6630.905048522069,8201.979702675953,0.0,0.0,0.0,0.0,0.0,0.0,-14.4,20.207830651356506,0.0,18.291499554492653,0.0,-14.4,23.28,14.5,22.08,20.44,22.89,-15.3,-14.4,11797.94,-1339.16,-5399.48,0.0,320.0,0.0,19.0,0.0,0.0,0.0,0.0,0.0,0.0,0.0,0.0,0.0,0.0,0.0,0.0,0.0,0.0
460.0,1402.0,59006.2664341738,0.0,-0.0,0.0,0.0,0.0,51578.311591802616,0.0,0.0,0.0,0.0,0.058078231292517005,0.5478686851259474,0.8775510204081634,229236.94040801172,57309.23510200293,286546.17551001464,"[1.277721961982941, 2.0, 1.3334132796412597, 1.756328479008829, 1.972524055400104, 1.1092849506595996, 1.9870729241832983, 0.38932912994848223]",23.28,0.0,0.0,0.0,365.3592442050508,104.3307409945148,-1923.8168133983934,-6479.945300067067,2631.8926708252307,0.0,0.0,0.0,0.0,0.0,0.0,-14.5,20.28085467405616,0.0,18.382706822456043,0.0,-14.5,23.28,14.52,22.24,20.28,22.86,-15.43,-14.5,8184.62,-1342.71,-5413.81,0.0,320.0,0.0,100.0,0.0,0.0,0.0,0.0,0.0,0.0,0.0,0.0,0.0,0.0,0.0,0.0,0.0,0.0
461.0,1201.0,47131.10298343314,45694.44746851597,-0.0,0.0,0.0,0.0,53353.325390982085,0.0,0.0,0.0,53353.325390982085,0.058078231292517005,0.5478686851259474,0.8775510204081634,0.0,0.0,0.0,"[1.277721961982941, 2.0, 1.3334132796412597, 1.756328479008829, 1.972524055400104, 1.1092849506595996, 1.9870729241832983, 0.38932912994848223]",20.72,0.0,0.0,0.0,241.49529651278942,101.45374177315088,-1798.7742205698414,-2848.977545201398,9625.639537676967,0.0,0.0,0.0,0.0,0.0,0.0,-14.6,19.46460949377522,0.0,18.282870871443183,0.0,-14.6,20.72,14.42,22.15,18.43,21.47,-15.52,-14.6,9387.48,-1255.44,-5061.93,0.0,320.0,0.0,9.0,0.0,0.0,0.0,0.0,0.0,0.0,0.0,0.0,0.0,0.0,0.0,0.0,0.0,0.0
462.0,679.0,32940.80032611217,0.0,-0.0,0.0,-15944.398167430238,0.0,14537.428341346233,0.0,0.0,0.0,0.0,0.6802721088435374,0.4860598911576386,0.8775510204081634,64610.7926282055,16152.698157051374,80763.49078525687,"[1.277721961982941, 2.0, 1.3334132796412597, 1.7563284790088325, 1.972524055400104, 1.1092849506595996, 1.9870729241832983, 0.38932912994848223]",23.28,0.0,0.0,0.0,559.4294780386748,195.09848565974264,-1934.0017409879097,-6529.247104421473,2414.7708388882324,0.0,0.0,0.0,0.0,0.0,0.0,-14.7,20.257625543027313,0.0,18.339757789129642,0.0,-14.7,23.28,14.42,22.26,20.42,22.99,-15.59,-14.7,0.0,-1349.82,-5442.47,0.0,608.0,0.0,91.0,0.0,0.0,0.0,0.0,0.0,0.0,0.0,0.0,0.0,0.0,0.0,0.0,0.0,0.0
463.0,687.0,115620.2138437522,114355.11277453344,-0.0,0.0,0.0,0.0,52432.069880284456,0.0,-80000.0,0.0,132432.06988028446,0.6802721088435374,0.8127265578243053,0.8775510204081634,0.0,0.0,0.0,"[1.277721961982941, 2.0, 1.3334132796412597, 1.7563284790088325, 1.972524055400104, 1.1092849506595996, 1.9870729241832983, 0.38932912994848223]",20.72,0.0,0.0,0.0,284.1205416700454,101.6118186534456,-1803.8666843645992,-2896.2836170029295,4323.630528498594,0.0,0.0,0.0,0.0,0.0,0.0,-14.7,19.44214607081461,0.0,18.241632554763825,0.0,-14.7,20.72,14.32,22.16,18.4,21.48,-15.62,-14.7,2336.54,-1259.0,-5076.26,0.0,270.0,25.0,64.0,0.0,0.0,0.0,0.0,0.0,0.0,0.0,0.0,0.0,0.0,0.0,0.0,0.0,0.0
464.0,2484.0,0.0,13516.0,-0.0,0.0,16000.0,0.0,50485.55754395002,0.0,34059.870562715005,0.0,16425.68698123502,0.0,0.6679141829828299,0.8775510204081634,0.0,0.0,0.0,"[1.277721961982941, 2.0, 1.3334132796412597, 1.7563284790088325, 1.972524055400104, 1.1092849506595996, 1.9870729241832983, 0.38932912994848223]",20.72,0.0,0.0,7.851325221219107,300.74080532800065,136.00934780557654,-1773.3119015960503,-3071.4906111298656,9723.941043000807,0.0,0.0,0.0,0.0,0.0,0.0,-14.1,19.355899918815048,0.0,18.120969207297815,0.0,-14.1,20.72,14.21,22.03,18.54,21.54,-14.99,-14.1,2870.29,-1237.67,-4990.28,12.42,342.0,47.0,36.0,0.0,0.0,0.0,0.0,0.0,0.0,0.0,0.0,0.0,0.0,0.0,0.0,0.0,0.0
465.0,2078.0,3576.6016155120924,0.0,-0.0,7907.671817138833,0.0,0.0,12482.167593160137,0.0,4032.616211044113,0.0,0.0,0.0,0.6507687058950573,0.8775510204081634,37553.56169829346,9388.390424573365,46941.95212286682,"[1.277721961982941, 2.0, 1.3334132796412597, 1.7563284790088325, 1.972524055400104, 1.1092849506595996, 1.9870729241832983, 0.38932912994848223]",23.28,0.0,0.0,843.0526106280017,899.7866876893014,156.17995773118272,-1709.9333340185494,-6696.327384132159,1185.0909334207229,0.0,0.0,0.0,0.0,0.0,0.0,-10.3,20.161023481857203,0.0,18.196009650811487,0.0,-10.3,23.28,14.24,22.16,20.35,22.94,-10.38,-10.3,8080.7,-1193.44,-4811.92,1333.3,378.0,39.0,458.0,0.0,0.0,0.0,0.0,0.0,0.0,0.0,0.0,0.0,0.0,0.0,0.0,0.0,0.0
466.0,1094.0,34530.379172750625,0.0,-4373.177842565595,14505.143511213759,0.0,0.0,39056.12365098151,0.0,0.0,0.0,0.0,0.0,0.6507687058950573,1.0,173582.77178214016,43395.69294553504,216978.4647276752,"[1.277721961982941, 2.0, 1.3334132796412597, 1.7563284790088325, 1.972524055400104, 1.1092849506595996, 1.9870729241832983, 0.38932912994848223]",20.72,0.0,0.0,1287.3605935916255,445.5233607276884,150.52080541663176,-1406.6545083734609,-2945.1442335887473,7756.004794241335,0.0,0.0,0.0,0.0,0.0,0.0,-6.9,19.39057857028389,0.0,18.168122424294022,0.0,-6.9,20.72,14.24,22.09,18.48,21.53,-6.62,-6.9,6163.3,-981.76,-3958.47,2035.97,468.0,0.0,81.0,0.0,0.0,0.0,0.0,0.0,0.0,0.0,0.0,0.0,0.0,0.0,0.0,0.0,0.0
467.0,4941.0,0.0,0.0,-0.0,17847.80014684826,0.0,0.0,15987.991065590832,0.0,4371.8709334274,0.0,0.0,0.0,0.6321808192733421,1.0,51627.20058739305,12906.800146848262,64534.00073424131,"[1.277721961982941, 2.0, 1.3334132796412597, 1.7563284790088325, 1.972524055400104, 1.1092849506595996, 1.9870729241832983, 0.38932912994848223]",23.28,0.0,0.0,1573.4644470177618,626.1254498729693,196.6476390866309,-1399.2930425383001,-6454.592658108627,117.79109833054406,0.0,0.0,0.0,0.0,0.0,0.0,-4.2,20.25644751027398,0.0,18.339267954059416,0.0,-4.2,23.28,14.43,22.25,20.65,23.18,-3.69,-4.2,0.0,-976.63,-3937.75,2488.45,608.0,0.0,140.0,0.0,0.0,0.0,0.0,0.0,0.0,0.0,0.0,0.0,0.0,0.0,0.0,0.0,0.0
468.0,2729.0,0.0,0.0,-0.0,18824.306165646303,-13789.57806317884,0.0,35235.05784290177,0.0,33159.902550681065,0.0,0.0,0.5593528088086241,0.49119483904085465,1.0,9222.912409869852,2305.728102467463,11528.640512337315,"[1.277721961982941, 2.0, 1.3334132796412597, 1.7563284790088325, 1.972524055400104, 1.1092849506595996, 1.9870729241832983, 0.38932912994848223]",20.72,0.0,0.0,1646.9117152612644,511.35966375208875,144.86165310208082,-1182.5861014041016,-2629.9665255052605,1474.3564950837958,0.0,0.0,0.0,0.0,0.0,0.0,-2.5,19.52766170975846,0.0,18.378054328568734,0.0,-2.5,20.72,14.55,22.21,18.77,21.73,-1.95,-2.5,0.0,-825.38,-3327.91,2604.61,444.0,0.0,142.0,0.0,0.0,0.0,0.0,0.0,0.0,0.0,0.0,0.0,0.0,0.0,0.0,0.0,0.0
469.0,5334.0,35702.894044217486,47409.067038202855,-0.0,17218.687464206458,0.0,0.0,33206.877256246444,0.0,-80000.0,0.0,113206.87725624643,0.5593528088086241,0.8178615057075214,1.0,0.0,0.0,0.0,"[1.277721961982941, 2.0, 1.3334132796412597, 1.7563284790088325, 1.972524055400104, 1.1092849506595996, 1.9870729241832983, 0.38932912994848223]",20.72,0.0,0.0,1487.9287226977626,543.6688831906139,97.09081987701663,-1146.9388548407935,-2622.590342706805,6917.737748078398,0.0,0.0,0.0,0.0,0.0,0.0,-1.8,19.529438757163362,0.0,18.397820449528595,0.0,-1.8,20.72,14.67,22.13,18.99,21.82,-1.38,-1.8,0.0,-800.5,-3227.6,2353.17,282.0,0.0,251.0,0.0,0.0,0.0,0.0,0.0,0.0,0.0,0.0,0.0,0.0,0.0,0.0,0.0,0.0
470.0,3033.0,0.0,0.0,-0.0,13824.359784278593,-10791.359784278593,0.0,33993.026142409035,0.0,33993.026142409035,0.0,0.0,1.0,0.6733333333333333,1.0,0.0,0.0,0.0,"[1.277721961982941, 2.0, 1.3334132796412597, 1.7563284790088325, 1.972524055400104, 1.1092849506595996, 1.9870729241832983, 0.38932912994848223]",23.28,0.0,0.0,1203.1544458602973,1169.5794158611095,109.831816428771,-1287.25883905362,-6125.374876442881,4904.815541766486,0.0,0.0,0.0,0.0,0.0,0.0,-2.0,20.40902989304422,0.0,18.593439471330814,0.0,-2.0,23.28,14.91,22.28,20.81,23.19,-1.82,-2.0,888.99,-898.43,-3622.47,1902.8,276.0,0.0,714.0,0.0,0.0,0.0,0.0,0.0,0.0,0.0,0.0,0.0,0.0,0.0,0.0,0.0,0.0
471.0,3734.0,54764.98821849129,57102.16595880179,-0.0,6345.002681402944,0.0,0.0,46009.698915727095,0.0,-80000.0,0.0,126009.69891572709,1.0,1.0,1.0,0.0,0.0,0.0,"[1.277721961982941, 2.0, 1.3334132796412597, 1.7563284790088325, 1.972524055400104, 1.1092849506595996, 1.9870729241832983, 0.38932912994848223]",23.28,0.0,0.0,671.043032725324,1704.2217765478338,108.47235525823643,-1373.8307235645093,-5869.519600738514,4749.8096632315655,0.0,0.0,0.0,0.0,0.0,0.0,-3.7,20.538682472815875,0.0,18.782269912688268,0.0,-3.7,23.28,15.13,22.43,20.58,23.04,-3.93,-3.7,0.0,-958.86,-3866.1,1061.26,230.0,0.0,1131.0,0.0,0.0,0.0,0.0,0.0,0.0,0.0,0.0,0.0,0.0,0.0,0.0,0.0,0.0
472.0,4465.0,12831.483417085426,0.0,-0.0,0.0,0.0,0.0,33473.61311397636,41511.63,66682.91711397636,0.0,0.0,1.0,0.716484195943978,1.0,33209.304,8302.326,41511.63,"[1.277721961982941, 2.0, 1.3334132796412597, 1.7563284790088325, 1.972524055400104, 1.1092849506595996, 1.9870729241832983, 0.38932912994848223]",23.28,0.0,0.0,0.9399035369591092,1682.3002218955307,88.42820683686602,-1485.8649270491894,-5700.868100109355,5423.054490116252,0.0,0.0,0.0,0.0,0.0,0.0,-5.9,20.628618592332746,0.0,18.91344951212263,0.0,-5.9,23.28,15.29,22.54,20.46,22.96,-6.75,-5.9,9170.7,-1037.05,-4181.37,1.49,93.0,38.0,1183.0,0.0,0.0,0.0,0.0,0.0,0.0,0.0,0.0,0.0,0.0,0.0,0.0,0.0,0.0
473.0,2562.0,0.0,5959.635873628337,-0.0,0.0,8521.635873628336,0.0,11844.627805727201,0.0,0.0,0.0,11844.627805727203,0.637685549590632,0.716484195943978,1.0,0.0,0.0,0.0,"[1.277721961982941, 2.0, 1.3334132796412597, 1.7563284790088325, 1.972524055400104, 1.1092849506595996, 1.9870729241832983, 0.38932912994848223]",23.28,0.0,0.0,0.0,849.8542576479446,113.08820016284224,-1490.9573908439475,-5589.416236933525,816.0457034173919,0.0,0.0,0.0,0.0,0.0,0.0,-6.0,20.68249258361875,0.0,18.99084948550384,0.0,-6.0,23.28,15.37,22.61,20.35,22.88,-6.83,-6.0,7829.5,-1040.6,-4195.7,0.0,170.0,75.0,527.0,0.0,0.0,0.0,0.0,0.0,0.0,0.0,0.0,0.0,0.0,0.0,0.0,0.0,0.0
474.0,4862.0,4886.43216080402,0.0,-0.0,0.0,0.0,0.0,12207.505164390928,0.0,12207.505164390928,0.0,0.0,0.430967862515802,0.6126788799202456,0.9212827988338192,0.0,0.0,0.0,"[1.277721961982941, 1.9486996152475484, 1.333413279641256, 1.429859702435646, 1.9725240554001076, 1.1092849506595996, 1.9870729241832947, 0.38932912994848223]",20.72,0.0,0.0,0.0,3013.998847489195,162.75595595144304,-1360.8223342206372,-1965.6553916115674,164.47911412027173,0.0,0.0,0.0,0.0,0.0,0.0,-6.0,19.862395266873826,0.0,18.896752231629886,0.0,-6.0,20.72,15.34,22.46,18.66,21.56,-6.8,-6.0,0.0,-949.78,-3829.49,0.0,117.0,102.0,2142.0,0.0,0.0,0.0,0.0,0.0,0.0,0.0,0.0,0.0,0.0,0.0,0.0,0.0,0.0
475.0,3409.0,28917.93542854877,25364.34575140603,-0.0,0.0,0.0,0.0,50169.19909881038,0.0,0.0,0.0,50169.19909881038,0.430967862515802,0.6126788799202456,0.9212827988338192,0.0,0.0,0.0,"[1.277721961982941, 1.9486996152475484, 1.333413279641256, 1.429859702435646, 1.9725240554001076, 1.1092849506595996, 1.9870729241832947, 0.38932912994848223]",20.72,0.0,0.0,0.0,436.4251991563077,98.89289631237641,-1365.9147980153953,-2206.7748093477994,8357.976144244296,0.0,0.0,0.0,0.0,0.0,0.0,-6.1,19.746554987660115,0.0,18.745940643098095,0.0,-6.1,20.72,15.26,22.23,18.53,21.37,-6.86,-6.1,0.0,-953.33,-3843.82,0.0,81.0,114.0,266.0,0.0,0.0,0.0,0.0,0.0,0.0,0.0,0.0,0.0,0.0,0.0,0.0,0.0,0.0
476.0,4635.0,1076.0159533953135,0.0,-0.0,0.0,3564.3641263716636,0.0,20148.302667427382,0.0,20148.302667427386,0.0,0.0,0.279421768707483,0.5270143277628162,0.9212827988338192,0.0,0.0,0.0,"[1.277721961982941, 1.9486996152475484, 1.333413279641256, 1.429859702435646, 1.9725240554001076, 1.1092849506595996, 1.9870729241832947, 0.38932912994848223]",23.28,0.0,0.0,0.0,1025.656529271316,235.94555152789812,-1496.049854638706,-5860.1234920903225,6115.96315770746,0.0,0.0,0.0,0.0,0.0,0.0,-6.1,20.55232830030566,0.0,18.82922234462816,0.0,-6.1,23.28,15.34,22.32,20.68,22.97,-6.86,-6.1,4276.62,-1044.16,-4210.03,0.0,474.0,124.0,491.0,0.0,0.0,0.0,0.0,0.0,0.0,0.0,0.0,0.0,0.0,0.0,0.0,0.0,0.0
477.0,3848.0,39705.423444528795,0.0,-0.0,0.0,0.0,0.0,32093.006694575524,0.0,0.0,0.0,0.0,0.279421768707483,0.5270143277628162,0.9212827988338192,142635.5853092246,35658.89632730615,178294.48163653075,"[1.277721961982941, 1.9486996152475484, 1.333413279641256, 1.429859702435646, 1.9725240554001076, 1.1092849506595996, 1.9870729241832947, 0.38932912994848223]",23.28,0.0,0.0,0.0,1001.2992463243127,148.68711360521303,-1501.1423184334637,-5705.968322110142,6070.604927408967,0.0,0.0,0.0,0.0,0.0,0.0,-6.2,20.62678843509916,0.0,18.932340113685513,0.0,-6.2,23.28,15.43,22.44,20.51,22.88,-6.95,-6.2,8841.27,-1047.71,-4224.36,0.0,330.0,47.0,557.0,0.0,0.0,0.0,0.0,0.0,0.0,0.0,0.0,0.0,0.0,0.0,0.0,0.0,0.0
478.0,2610.0,0.0,0.0,-0.0,0.0,2610.0,0.0,29066.924699228945,0.0,29066.924699228945,0.0,0.0,0.16845238095238094,0.40343046424568635,0.9212827988338192,0.0,0.0,0.0,"[1.277721961982941, 1.9486996152475484, 1.333413279641256, 1.429859702435646, 1.9725240554001076, 1.1092849506595996, 1.9870729241832947, 0.38932912994848223]",23.28,0.0,0.0,0.0,498.9661050761135,135.78804017316392,-1506.2347822282222,-5571.4854769904,6455.277272375476,0.0,0.0,0.0,0.0,0.0,0.0,-6.3,20.691740208111028,0.0,19.02248277114549,0.0,-6.3,23.28,15.51,22.54,20.51,22.92,-7.03,-6.3,7730.88,-1051.27,-4238.69,0.0,324.0,48.0,191.0,0.0,0.0,0.0,0.0,0.0,0.0,0.0,0.0,0.0,0.0,0.0,0.0,0.0,0.0
479.0,1734.0,0.0,0.0,-0.0,0.0,1734.0,0.0,41010.08088709486,0.0,41010.08088709487,0.0,0.0,0.09472789115646257,0.2290678754400109,0.9212827988338192,0.0,0.0,0.0,"[1.277721961982941, 1.9486996152475484, 1.333413279641256, 1.429859702435646, 1.9725240554001076, 1.1092849506595996, 1.9870729241832947, 0.38932912994848223]",23.28,0.0,0.0,0.0,503.04953192311115,120.7075057930477,-1506.2347822282222,-5437.444192120011,1019.2272708222337,0.0,0.0,0.0,0.0,0.0,0.0,-6.3,20.756096833146977,0.0,19.111661422322797,0.0,-6.3,23.28,15.59,22.63,20.61,23.02,-6.99,-6.3,7638.82,-1051.27,-4238.69,0.0,364.0,0.0,178.0,0.0,0.0,0.0,0.0,0.0,0.0,0.0,0.0,0.0,0.0,0.0,0.0,0.0,0.0
480.0,2228.0,0.0,0.0,-0.0,0.0,2228.0,0.0,37817.87802101004,0.0,37817.87802101004,0.0,0.0,0.0,0.0682775777316349,0.9212827988338192,0.0,0.0,0.0,"[1.277721961982941, 1.9486996152475484, 1.333413279641256, 1.429859702435646, 1.9725240554001076, 1.1092849506595996, 1.9870729241832947, 0.38932912994848223]",20.72,0.0,0.0,0.0,402.39664209799423,127.82096540631007,-1381.1921893996698,-1818.1353040725107,2680.698713310574,0.0,0.0,0.0,0.0,0.0,0.0,-6.4,19.93437354589772,0.0,19.013525736830985,0.0,-6.4,20.72,15.54,22.49,18.78,21.61,-7.13,-6.4,7554.6,-963.99,-3886.81,0.0,320.0,40.0,123.0,0.0,0.0,0.0,0.0,0.0,0.0,0.0,0.0,0.0,0.0,0.0,0.0,0.0,0.0
481.0,4912.0,12881.314329655514,7904.907758007235,-0.0,0.0,0.0,0.0,31468.253842783113,0.0,16058.88628248053,0.0,15409.367560302584,0.0,0.0,0.9212827988338192,0.0,0.0,0.0,"[1.277721961982941, 1.9486996152475484, 1.333413279641256, 1.429859702435646, 1.9725240554001076, 1.1092849506595996, 1.9870729241832947, 0.38932912994848223]",20.72,0.0,0.0,0.0,1836.395856069073,153.20811238164202,-1381.192189399675,-2007.3599713988901,1412.8387333572075,0.0,0.0,0.0,0.0,0.0,0.0,-6.4,19.843206031845867,0.0,18.89377910468552,0.0,-6.4,20.72,15.47,22.31,18.95,21.65,-7.08,-6.4,0.0,-963.99,-3886.81,0.0,320.0,26.0,1178.0,0.0,0.0,0.0,0.0,0.0,0.0,0.0,0.0,0.0,0.0,0.0,0.0,0.0,0.0
482.0,1611.0,34744.35878947709,16959.636995529705,-0.0,0.0,-16000.0,0.0,33060.13025752297,0.0,0.0,0.0,33060.130257522964,0.6533333333333333,0.0,0.9212827988338192,0.0,0.0,0.0,"[1.277721961982941, 1.9486996152475484, 1.333413279641256, 1.429859702435646, 1.9725240554001076, 1.1092849506595996, 1.9870729241832947, 0.38932912994848223]",20.72,0.0,0.0,0.0,516.4460375439629,107.84004773705755,-1381.1921893996698,-2212.9201968145844,8291.242122533062,0.0,0.0,0.0,0.0,0.0,0.0,-6.4,19.74426705312187,0.0,18.763150140162942,0.0,-6.4,20.72,15.4,22.13,18.74,21.42,-7.07,-6.4,9433.0,-963.99,-3886.81,0.0,320.0,0.0,211.0,0.0,0.0,0.0,0.0,0.0,0.0,0.0,0.0,0.0,0.0,0.0,0.0,0.0,0.0
483.0,1165.0,63501.76791796094,62019.259078371135,-0.0,0.0,0.0,0.0,41487.98622776712,0.0,-80000.0,0.0,121487.98622776715,0.6533333333333333,0.3266666666666667,0.9212827988338192,0.0,0.0,0.0,"[1.277721961982941, 1.9486996152475484, 1.333413279641256, 1.429859702435646, 1.9725240554001076, 1.1092849506595996, 1.9870729241832947, 0.38932912994848223]",23.28,0.0,0.0,0.0,491.4440029895389,110.65381620630356,-1506.2347822282222,-5865.40232528509,6779.5716642013995,0.0,0.0,0.0,0.0,0.0,0.0,-6.3,20.550204997728272,0.0,18.844566273053157,0.0,-6.3,23.28,15.46,22.23,20.72,22.92,-6.99,-6.3,0.0,-1051.27,-4238.69,0.0,320.0,6.0,192.0,0.0,0.0,0.0,0.0,0.0,0.0,0.0,0.0,0.0,0.0,0.0,0.0,0.0,0.0
484.0,702.0,7911.219024043136,9450.614597612412,-0.0,0.0,2280.9516686894917,0.0,18512.574209050454,0.0,0.0,0.0,18512.574209050457,0.5563540957189842,0.3266666666666667,0.9212827988338192,0.0,0.0,0.0,"[1.277721961982941, 1.9486996152475484, 1.333413279641256, 1.429859702435646, 1.9725240554001076, 1.1092849506595996, 1.9870729241832947, 0.38932912994848223]",23.28,0.0,0.0,0.0,250.45017994918774,86.75259190574198,-1506.2347822282222,-5701.455093231549,1566.713931595193,0.0,0.0,0.0,0.0,0.0,0.0,-6.3,20.629037073515203,0.0,18.951695488200613,0.0,-6.3,23.28,15.54,22.36,20.58,22.87,-6.98,-6.3,635.85,-1051.27,-4238.69,0.0,240.0,16.0,56.0,0.0,0.0,0.0,0.0,0.0,0.0,0.0,0.0,0.0,0.0,0.0,0.0,0.0,0.0
485.0,1514.0,0.0,10093.448331310508,-0.0,0.0,11607.448331310508,0.0,19771.80524384194,0.0,0.0,0.0,19771.80524384194,0.06284013605442176,0.3266666666666667,0.9212827988338192,0.0,0.0,0.0,"[1.277721961982941, 1.9486996152475484, 1.333413279641256, 1.429859702435646, 1.9725240554001076, 1.1092849506595996, 1.9870729241832947, 0.38932912994848223]",20.72,0.0,0.0,0.0,269.7210891043169,93.42343625417914,-1376.0997256049118,-2048.806435688219,3070.2318275737875,0.0,0.0,0.0,0.0,0.0,0.0,-6.3,19.822926976820163,0.0,18.87315737211896,0.0,-6.3,20.72,15.5,22.25,18.79,21.5,-6.98,-6.3,1615.95,-960.44,-3872.48,0.0,240.0,27.0,69.0,0.0,0.0,0.0,0.0,0.0,0.0,0.0,0.0,0.0,0.0,0.0,0.0,0.0,0.0
486.0,771.0,32222.156643072405,0.0,-0.0,0.0,-16000.000000000002,0.0,13761.041273871331,0.0,0.0,0.0,0.0,0.6833928571428572,0.26815883812129543,0.9212827988338192,61160.18343942816,15290.04585985704,76450.2292992852,"[1.277721961982941, 1.9486996152475484, 1.333413279641256, 1.429859702435646, 1.9725240554001076, 1.1092849506595996, 1.9870729241832947, 0.38932912994848223]",20.72,0.0,0.0,0.0,390.0747224895101,155.38957332970915,-1371.0072618101535,-2210.4334997451892,3050.0647878702584,0.0,0.0,0.0,0.0,0.0,0.0,-6.2,19.744828842816386,0.0,18.77000936386237,0.0,-6.2,20.72,15.44,22.1,18.94,21.54,-6.87,-6.2,10544.87,-956.89,-3858.15,0.0,396.0,49.0,73.0,0.0,0.0,0.0,0.0,0.0,0.0,0.0,0.0,0.0,0.0,0.0,0.0,0.0,0.0
487.0,420.0,0.0,9619.035389952285,-0.0,0.0,10039.035389952285,0.0,34080.133631919045,0.0,15145.942899506073,0.0,18934.19073241297,0.25656312117549823,0.20376282239210294,0.9212827988338192,0.0,0.0,0.0,"[1.277721961982941, 1.9486996152475484, 1.333413279641256, 1.429859702435646, 1.9725240554001076, 1.1092849506595996, 1.9870729241832947, 0.38932912994848223]",20.72,0.0,0.0,0.0,131.3144107113447,31.2043761701776,-1371.0072618101533,-2355.2326399682856,5745.856379762174,0.0,0.0,0.0,0.0,0.0,0.0,-6.2,19.675165578031358,0.0,18.677984372344532,0.0,-6.2,20.72,15.38,21.97,18.92,21.48,-6.87,-6.2,0.0,-956.89,-3858.15,0.0,94.0,0.0,47.0,0.0,0.0,0.0,0.0,0.0,0.0,0.0,0.0,0.0,0.0,0.0,0.0,0.0,0.0
488.0,707.0,0.0,0.0,-0.0,0.0,707.0,0.0,34914.756058257975,0.0,34914.756058257975,0.0,0.0,0.22650359736597442,0.05531573030767281,0.9212827988338192,0.0,0.0,0.0,"[1.277721961982941, 1.9486996152475484, 1.333413279641256, 1.429859702435646, 1.9725240554001076, 1.1092849506595996, 1.9870729241832947, 0.38932912994848223]",21.77,0.0,0.0,7.828081019521361,135.75603289579826,28.611915333344207,-1388.7529794592215,-3916.993245826258,8268.247612649033,0.0,0.0,0.0,0.0,0.0,0.0,-5.5,19.97331001672018,0.0,18.668095538049506,0.0,-5.5,21.77,15.38,21.95,19.65,22.01,-6.15,-5.5,1476.77,-969.27,-3908.09,12.38,85.0,0.0,55.0,0.0,0.0,0.0,0.0,0.0,0.0,0.0,0.0,0.0,0.0,0.0,0.0,0.0,0.0
489.0,2230.0,12950.868670802955,16659.01105789016,-0.0,6002.896730441219,0.0,0.0,39938.43438293671,0.0,0.0,0.0,39938.434382936706,0.22650359736597442,0.05531573030767281,0.9212827988338192,0.0,0.0,0.0,"[1.277721961982941, 1.9486996152475484, 1.333413279641256, 1.429859702435646, 1.9725240554001076, 1.1092849506595996, 1.9870729241832947, 0.38932912994848223]",23.28,0.0,0.0,669.0112279805003,168.42344767177931,35.06145204936876,-1271.9814476693457,-5939.801901097071,6322.887420541173,0.0,0.0,0.0,0.0,0.0,0.0,-1.7,20.497909998888257,0.0,18.78332568815057,0.0,-1.7,23.28,15.47,22.09,20.67,22.82,-1.7,-1.7,1109.38,-887.77,-3579.48,1058.05,104.0,0.0,69.0,0.0,0.0,0.0,0.0,0.0,0.0,0.0,0.0,0.0,0.0,0.0,0.0,0.0,0.0
490.0,6914.0,0.0,0.0,-0.0,13264.383486959494,5327.364610047717,0.0,10509.973287306486,0.0,0.0,0.0,0.0,0.0,0.05531573030767281,0.9212827988338192,46710.99238802884,11677.74809700721,58388.74048503605,"[1.277721961982941, 1.9486996152475484, 1.333413279641256, 1.429859702435646, 1.9725240554001076, 1.1092849506595996, 1.9870729241832947, 0.38932912994848223]",23.28,0.0,0.0,1184.080545459745,213.55606019122675,37.906835894673705,-1078.4678234685343,-5653.479912332912,0.0,0.0,0.0,0.0,0.0,0.0,0.0,2.1,20.62272656055758,0.0,18.960371480501767,0.0,2.1,23.28,15.65,22.27,20.76,22.94,2.45,2.1,9305.84,-752.71,-3034.92,1872.63,110.0,0.0,99.0,0.0,0.0,0.0,0.0,0.0,0.0,0.0,0.0,0.0,0.0,0.0,0.0,0.0,0.0
491.0,3883.0,0.0,8211.342697085092,-0.0,17226.93832545279,-5132.595628367697,0.0,25087.33900082925,0.0,0.0,0.0,25087.339000829255,0.20958098815834764,0.05531573030767281,0.9212827988338192,0.0,0.0,0.0,"[1.277721961982941, 1.9486996152475484, 1.333413279641256, 1.429859702435646, 1.9725240554001076, 1.1092849506595996, 1.9870729241832947, 0.38932912994848223]",20.74,0.0,0.0,1546.8141931598932,599.1175214287921,106.76512495105347,-791.6044036917318,-1867.1680347262582,324.03824980882615,0.0,0.0,0.0,0.0,0.0,0.0,5.2,19.893050363000246,0.0,18.99054140993928,0.0,5.2,20.74,15.78,22.2,19.11,21.66,5.75,5.2,6013.35,-552.49,-2227.65,2446.3,310.0,0.0,277.0,0.0,0.0,0.0,0.0,0.0,0.0,0.0,0.0,0.0,0.0,0.0,0.0,0.0,0.0
492.0,6084.0,0.0,13099.416076364429,-0.0,19183.41607636443,0.0,0.0,23198.698420842797,0.0,-19445.204856383887,0.0,42643.90327722669,0.20958098815834764,0.13471698347124036,0.9212827988338192,0.0,0.0,0.0,"[1.277721961982941, 1.9486996152475484, 1.333413279641256, 1.429859702435646, 1.9725240554001076, 1.1092849506595996, 1.9870729241832947, 0.38932912994848223]",20.72,0.0,0.0,1705.2265624521417,3688.6955851211887,205.18379062254576,-683.5246495177984,-1810.3250961280633,2175.0817550201205,0.0,0.0,0.0,0.0,0.0,0.0,7.3,19.891123314753923,0.0,19.018063736380192,0.0,7.3,20.72,15.93,22.11,19.36,21.75,7.95,7.3,0.0,-477.06,-1923.51,2696.83,399.0,0.0,2500.0,0.0,0.0,0.0,0.0,0.0,0.0,0.0,0.0,0.0,0.0,0.0,0.0,0.0,0.0
493.0,3998.0,0.0,2663.473318231761,-0.0,16676.760777478325,-10015.287459246563,0.0,8899.209466968266,0.0,0.0,0.0,8899.209466968266,0.6185385594109156,0.13471698347124036,0.9212827988338192,0.0,0.0,0.0,"[1.277721961982941, 1.9486996152475484, 1.333413279641256, 1.429859702435646, 1.9725240554001076, 1.1092849506595996, 1.9870729241832947, 0.38932912994848223]",23.28,0.0,0.0,1462.2662968873578,661.371871078633,105.21597152416521,-767.827531988285,-5341.368455271731,0.0,0.0,0.0,0.0,0.0,0.0,0.0,8.2,20.753586227274855,0.0,19.197269242922246,0.0,8.2,23.28,16.19,22.2,20.91,22.87,8.64,8.2,0.0,-535.9,-2160.74,2312.59,300.0,0.0,328.0,0.0,0.0,0.0,0.0,0.0,0.0,0.0,0.0,0.0,0.0,0.0,0.0,0.0,0.0
494.0,2662.0,30661.895094053587,32845.82744954273,-0.0,14341.1546617125,-9341.912830753086,0.0,29744.63178907744,0.0,-80000.0,0.0,109744.63178907744,1.0,0.46138365013790705,0.9212827988338192,0.0,0.0,0.0,"[1.277721961982941, 1.9486996152475484, 1.333413279641256, 1.429859702435646, 1.9725240554001076, 1.1092849506595996, 1.9870729241832947, 0.38932912994848223]",21.43,0.0,0.0,1290.8787555375557,1264.4295412194404,85.67766911973791,-673.573941074196,-2469.0119239409346,4318.678169016642,0.0,0.0,0.0,0.0,0.0,0.0,8.2,20.279304374746452,0.0,19.309004217116588,0.0,8.2,21.43,16.41,22.21,19.81,22.01,8.51,8.2,0.0,-470.12,-1895.5,2041.54,188.0,0.0,830.0,0.0,0.0,0.0,0.0,0.0,0.0,0.0,0.0,0.0,0.0,0.0,0.0,0.0,0.0
495.0,3385.0,669.5219482558466,5293.1866938735875,-0.0,8012.01235535902,0.0,0.0,16928.696458859544,0.0,0.0,0.0,16928.696458859547,1.0,0.46138365013790705,0.9212827988338192,0.0,0.0,0.0,"[1.277721961982941, 1.9486996152475484, 1.333413279641256, 1.429859702435646, 1.9725240554001076, 1.1092849506595996, 1.9870729241832947, 0.38932912994848223]",23.28,0.0,0.0,824.113317461144,816.97192566949,101.04274188438463,-844.2144889096579,-4950.889690227114,0.0,0.0,0.0,0.0,0.0,0.0,0.0,6.7,20.947705461679107,0.0,19.501630419230416,0.0,6.7,23.28,16.67,22.33,21.21,23.04,6.64,6.7,5758.08,-589.21,-2375.7,1303.34,274.0,0.0,456.0,0.0,0.0,0.0,0.0,0.0,0.0,0.0,0.0,0.0,0.0,0.0,0.0,0.0,0.0
496.0,2276.0,2287.4371859296484,0.0,-0.0,0.0,0.0,0.0,20965.473247535105,0.0,20965.473247535105,0.0,0.0,1.0,0.3722447332691354,0.9212827988338192,0.0,0.0,0.0,"[1.277721961982941, 1.9486996152475484, 1.333413279641256, 1.429859702435646, 1.9725240554001076, 1.1092849506595996, 1.9870729241832947, 0.38932912994848223]",21.34,0.0,0.0,1.9000184022362234,611.7976363747322,91.68459057093723,-862.409745571805,-2057.4146197750542,6260.71854538297,0.0,0.0,0.0,0.0,0.0,0.0,4.4,20.400474324964904,0.0,19.545117909562926,0.0,4.4,21.34,16.81,22.28,19.74,21.88,3.6,4.4,0.0,-601.91,-2426.91,3.0,202.0,30.0,340.0,0.0,0.0,0.0,0.0,0.0,0.0,0.0,0.0,0.0,0.0,0.0,0.0,0.0,0.0
497.0,2051.0,2061.3065326633164,0.0,-0.0,0.0,0.0,0.0,1443.0227780886585,0.0,1443.0227780886585,0.0,0.0,1.0,0.3661094323418877,0.9212827988338192,0.0,0.0,0.0,"[1.277721961982941, 1.9486996152475484, 1.333413279641256, 1.429859702435646, 1.9725240554001076, 1.1092849506595996, 1.9870729241832947, 0.38932912994848223]",23.28,0.0,0.0,0.0,639.2353992238565,162.4081868147947,-971.5260837786125,-4779.3182539167465,0.0,0.0,0.0,0.0,0.0,0.0,0.0,4.2,21.04027562986819,0.0,19.652414016921647,0.0,4.2,23.28,16.94,22.36,21.14,22.91,3.42,4.2,8459.27,-678.07,-2733.97,0.0,334.0,84.0,285.0,0.0,0.0,0.0,0.0,0.0,0.0,0.0,0.0,0.0,0.0,0.0,0.0,0.0,0.0
498.0,5610.0,32222.156643072405,0.0,-0.0,0.0,-16000.000000000002,0.0,1626.2712737562986,0.0,0.0,0.0,0.0,0.6833928571428572,0.26815883812129543,0.9212827988338192,61160.18343942816,15290.04585985704,76450.2292992852,"[1.277721961982941, 1.9486996152475484, 1.333413279641256, 1.429859702435646, 1.9725240554001076, 1.1092849506595996, 1.9870729241832947, 0.38932912994848223]",20.89,0.0,0.0,0.0,1622.3383224054078,223.647170240969,-865.187384751259,-1333.0943688447944,24.859984166196483,0.0,0.0,0.0,0.0,0.0,0.0,3.9,20.303430902118077,0.0,19.608725130621586,0.0,3.9,20.89,16.97,22.25,19.36,21.52,3.17,3.9,0.0,-603.85,-2434.72,0.0,330.0,154.0,1002.0,0.0,0.0,0.0,0.0,0.0,0.0,0.0,0.0,0.0,0.0,0.0,0.0,0.0,0.0
499.0,3905.0,0.0,9619.035389952285,-0.0,0.0,10039.035389952285,0.0,34080.133631919045,0.0,15145.942899506073,0.0,18934.19073241297,0.25656312117549823,0.20376282239210294,0.9212827988338192,0.0,0.0,0.0,"[1.277721961982941, 1.9486996152475484, 1.333413279641256, 1.429859702435646, 1.9725240554001076, 1.1092849506595996, 1.9870729241832947, 0.38932912994848223]",20.72,0.0,0.0,0.0,975.7957382974503,246.56831788370323,-866.8533461290929,-2291.3316172027876,5745.856379762174,0.0,0.0,0.0,0.0,0.0,0.0,3.7,19.675165578031358,0.0,18.677984372344532,0.0,3.7,20.72,15.38,21.97,18.92,21.48,3.0,3.7,0.0,-605.01,-2439.41,0.0,400.0,184.0,487.0,0.0,0.0,0.0,0.0,0.0,0.0,0.0,0.0,0.0,0.0,0.0,0.0,0.0,0.0
500.0,5278.0,0.0,0.0,-0.0,0.0,707.0,0.0,34914.756058257975,0.0,34914.756058257975,0.0,0.0,0.22650359736597442,0.05531573030767281,0.9212827988338192,0.0,0.0,0.0,"[1.277721961982941, 1.9486996152475484, 1.333413279641256, 1.429859702435646, 1.9725240554001076, 1.1092849506595996, 1.9870729241832947, 0.38932912994848223]",21.77,0.0,0.0,0.0,1360.1393353876651,204.67794460560265,-930.4312379309848,-3859.0301598429733,8268.247612649033,0.0,0.0,0.0,0.0,0.0,0.0,3.5,19.97331001672018,0.0,18.668095538049506,0.0,3.5,21.77,15.38,21.95,19.65,22.01,2.79,3.5,1476.77,-649.39,-2618.33,0.0,372.0,109.0,792.0,0.0,0.0,0.0,0.0,0.0,0.0,0.0,0.0,0.0,0.0,0.0,0.0,0.0,0.0
501.0,5040.0,12950.868670802955,16659.01105789016,-0.0,0.0,0.0,0.0,39938.43438293671,0.0,0.0,0.0,39938.434382936706,0.22650359736597442,0.05531573030767281,0.9212827988338192,0.0,0.0,0.0,"[1.277721961982941, 1.9486996152475484, 1.333413279641256, 1.429859702435646, 1.9725240554001076, 1.1092849506595996, 1.9870729241832947, 0.38932912994848223]",23.28,0.0,0.0,0.0,1420.3877911477532,228.67401503434104,-1022.4507217261944,-5912.316645009863,6322.887420541173,0.0,0.0,0.0,0.0,0.0,0.0,3.2,20.497909998888257,0.0,18.78332568815057,0.0,3.2,23.28,15.47,22.09,20.67,22.82,2.55,3.2,1109.38,-713.61,-2877.28,0.0,540.0,60.0,753.0,0.0,0.0,0.0,0.0,0.0,0.0,0.0,0.0,0.0,0.0,0.0,0.0,0.0,0.0
502.0,3524.0,0.0,0.0,-0.0,0.0,5327.364610047717,0.0,10509.973287306486,0.0,0.0,0.0,0.0,0.0,0.05531573030767281,0.9212827988338192,46710.99238802884,11677.74809700721,58388.74048503605,"[1.277721961982941, 1.9486996152475484, 1.333413279641256, 1.429859702435646, 1.9725240554001076, 1.1092849506595996, 1.9870729241832947, 0.38932912994848223]",23.28,0.0,0.0,0.0,961.1813685292484,195.47787017245,-1032.635649315711,-5653.947203506414,0.0,0.0,0.0,0.0,0.0,0.0,0.0,3.0,20.62272656055758,0.0,18.960371480501767,0.0,3.0,23.28,15.65,22.27,20.76,22.94,2.38,3.0,9305.84,-720.72,-2905.94,0.0,512.0,35.0,433.0,0.0,0.0,0.0,0.0,0.0,0.0,0.0,0.0,0.0,0.0,0.0,0.0,0.0,0.0
503.0,2561.0,0.0,8211.342697085092,-0.0,0.0,-5132.595628367697,0.0,25087.33900082925,0.0,0.0,0.0,25087.339000829255,0.20958098815834764,0.05531573030767281,0.9212827988338192,0.0,0.0,0.0,"[1.277721961982941, 1.9486996152475484, 1.333413279641256, 1.429859702435646, 1.9725240554001076, 1.1092849506595996, 1.9870729241832947, 0.38932912994848223]",20.74,0.0,0.0,0.0,879.656109724278,228.9269380428126,-913.8235347659283,-1890.0905337043082,324.03824980882615,0.0,0.0,0.0,0.0,0.0,0.0,2.8,19.893050363000246,0.0,18.99054140993928,0.0,2.8,20.74,15.78,22.2,19.11,21.66,2.22,2.8,6013.35,-637.8,-2571.59,0.0,596.0,53.0,327.0,0.0,0.0,0.0,0.0,0.0,0.0,0.0,0.0,0.0,0.0,0.0,0.0,0.0,0.0
504.0,1149.0,0.0,13099.416076364429,-0.0,0.0,0.0,0.0,23198.698420842797,0.0,-19445.204856383887,0.0,42643.90327722669,0.20958098815834764,0.13471698347124036,0.9212827988338192,0.0,0.0,0.0,"[1.277721961982941, 1.9486996152475484, 1.333413279641256, 1.429859702435646, 1.9725240554001076, 1.1092849506595996, 1.9870729241832947, 0.38932912994848223]",20.72,0.0,0.0,0.0,410.13366138704225,81.40959335178047,-938.1478392557076,-1850.6538292185764,2175.0817550201205,0.0,0.0,0.0,0.0,0.0,0.0,2.3,19.891123314753923,0.0,19.018063736380192,0.0,2.3,20.72,15.93,22.11,19.36,21.75,1.73,2.3,0.0,-654.77,-2640.04,0.0,240.0,0.0,175.0,0.0,0.0,0.0,0.0,0.0,0.0,0.0,0.0,0.0,0.0,0.0,0.0,0.0,0.0
505.0,1205.0,0.0,2663.473318231761,-0.0,0.0,-10015.287459246563,0.0,8899.209466968266,0.0,0.0,0.0,8899.209466968266,0.6185385594109156,0.13471698347124036,0.9212827988338192,0.0,0.0,0.0,"[1.277721961982941, 1.9486996152475484, 1.333413279641256, 1.429859702435646, 1.9725240554001076, 1.1092849506595996, 1.9870729241832947, 0.38932912994848223]",23.28,0.0,0.0,0.0,324.38169760009214,79.417824660067,-1088.6527510580509,-5388.628059620817,0.0,0.0,0.0,0.0,0.0,0.0,0.0,1.9,20.753586227274855,0.0,19.197269242922246,0.0,1.9,23.28,16.19,22.2,20.91,22.87,1.35,1.9,0.0,-759.82,-3063.58,0.0,240.0,0.0,112.0,0.0,0.0,0.0,0.0,0.0,0.0,0.0,0.0,0.0,0.0,0.0,0.0,0.0,0.0
506.0,805.0,30661.895094053587,32845.82744954273,-0.0,0.0,-9341.912830753086,0.0,29744.63178907744,0.0,-80000.0,0.0,109744.63178907744,1.0,0.46138365013790705,0.9212827988338192,0.0,0.0,0.0,"[1.277721961982941, 1.9486996152475484, 1.333413279641256, 1.429859702435646, 1.9725240554001076, 1.1092849506595996, 1.9870729241832947, 0.38932912994848223]",21.43,0.0,0.0,0.0,225.01831098981654,77.1099022077641,-1019.8614791177528,-2518.5232646245195,4318.678169016642,0.0,0.0,0.0,0.0,0.0,0.0,1.4,20.279304374746452,0.0,19.309004217116588,0.0,1.4,21.43,16.41,22.21,19.81,22.01,0.86,1.4,0.0,-711.81,-2869.99,0.0,240.0,0.0,39.0,0.0,0.0,0.0,0.0,0.0,0.0,0.0,0.0,0.0,0.0,0.0,0.0,0.0,0.0
507.0,765.0,669.5219482558466,5293.1866938735875,-0.0,0.0,0.0,0.0,16928.696458859544,0.0,0.0,0.0,16928.696458859547,1.0,0.46138365013790705,0.9212827988338192,0.0,0.0,0.0,"[1.277721961982941, 1.9486996152475484, 1.333413279641256, 1.429859702435646, 1.9725240554001076, 1.1092849506595996, 1.9870729241832947, 0.38932912994848223]",23.28,0.0,0.0,0.0,291.71428282411114,78.65905563465236,-1124.2999976213582,-4989.283001814071,0.0,0.0,0.0,0.0,0.0,0.0,0.0,1.2,20.947705461679107,0.0,19.501630419230416,0.0,1.2,23.28,16.67,22.33,21.21,23.04,0.71,1.2,5758.08,-784.7,-3163.89,0.0,240.0,0.0,88.0,0.0,0.0,0.0,0.0,0.0,0.0,0.0,0.0,0.0,0.0,0.0,0.0,0.0,0.0
508.0,789.0,2287.4371859296484,0.0,-0.0,0.0,0.0,0.0,20965.473247535105,0.0,20965.473247535105,0.0,0.0,1.0,0.3722447332691354,0.9212827988338192,0.0,0.0,0.0,"[1.277721961982941, 1.9486996152475484, 1.333413279641256, 1.429859702435646, 1.9725240554001076, 1.1092849506595996, 1.9870729241832947, 0.38932912994848223]",21.34,0.0,0.0,0.0,238.62973381314197,77.42605596835352,-1035.5535145935833,-2077.357504991976,6260.71854538297,0.0,0.0,0.0,0.0,0.0,0.0,1.0,20.400474324964904,0.0,19.545117909562926,0.0,1.0,21.34,16.81,22.28,19.74,21.88,0.52,1.0,0.0,-722.76,-2914.15,0.0,240.0,0.0,49.0,0.0,0.0,0.0,0.0,0.0,0.0,0.0,0.0,0.0,0.0,0.0,0.0,0.0,0.0
509.0,674.0,2061.3065326633164,0.0,-0.0,0.0,0.0,0.0,1443.0227780886585,0.0,1443.0227780886585,0.0,0.0,1.0,0.3661094323418877,0.9212827988338192,0.0,0.0,0.0,"[1.277721961982941, 1.9486996152475484, 1.333413279641256, 1.429859702435646, 1.9725240554001076, 1.1092849506595996, 1.9870729241832947, 0.38932912994848223]",23.28,0.0,0.0,0.0,226.95256581207863,79.417824660067,-1149.762316595149,-4799.550047889392,0.0,0.0,0.0,0.0,0.0,0.0,0.0,0.7,21.04027562986819,0.0,19.652414016921647,0.0,0.7,23.28,16.94,22.36,21.14,22.91,0.3,0.7,8459.27,-802.47,-3235.55,0.0,240.0,4.0,40.0,0.0,0.0,0.0,0.0,0.0,0.0,0.0,0.0,0.0,0.0,0.0,0.0,0.0,0.0
510.0,845.0,1053.7347249451054,0.0,-0.0,0.0,8337.70994867962,0.0,1626.2712737562986,42705.88,35790.9752737563,0.0,0.0,0.6455055293928733,0.20702249974191875,0.8950437317784257,34164.704,8541.176,42705.88,"[2.014008655569235, 2.2283959882663282, 1.0770215364329268, 1.0948620327133796, 0.7599588349055431, 1.3039561017221963, 2.0369521042961303, 1.174928737779588]",20.89,0.0,0.0,0.0,374.0275713714844,119.47450612674888,-1033.2386899782791,-1352.4190522129497,24.859984166196483,0.0,0.0,0.0,0.0,0.0,0.0,0.6,20.303430902118077,0.0,19.608725130621586,0.0,0.6,20.89,16.97,22.25,19.36,21.52,0.19,0.6,0.0,-721.14,-2907.64,0.0,351.0,10.0,89.0,0.0,0.0,0.0,0.0,0.0,0.0,0.0,0.0,0.0,0.0,0.0,0.0,0.0,0.0
511.0,1200.0,8438.787691954922,7196.593753495146,-0.0,0.0,0.0,0.0,18693.920326537773,0.0,0.0,0.0,18693.920326537773,0.6455055293928733,0.20702249974191875,0.8950437317784257,0.0,0.0,0.0,"[2.014008655569235, 2.2283959882663282, 1.0770215364329268, 1.0948620327133796, 0.7599588349055431, 1.3039561017221963, 2.0369521042961303, 1.174928737779588]",19.99,0.0,0.0,0.0,393.72831493156065,156.9387267565974,-997.409518059609,-258.8786161319034,719.849867899873,0.0,0.0,0.0,0.0,0.0,0.0,0.4,19.9237009590999,0.0,19.456124316339388,0.0,0.4,19.99,16.88,22.03,18.89,21.09,0.01,0.4,0.0,-696.14,-2806.81,0.0,450.0,23.0,50.0,0.0,0.0,0.0,0.0,0.0,0.0,0.0,0.0,0.0,0.0,0.0,0.0,0.0,0.0
512.0,1041.0,11559.193231482566,10460.397265325153,-0.0,0.0,0.0,0.0,27371.442630444948,0.0,0.0,0.0,27371.442630444944,0.6455055293928733,0.20702249974191875,0.8950437317784257,0.0,0.0,0.0,"[2.014008655569235, 2.2283959882663282, 1.0770215364329268, 1.0948620327133796, 0.7599588349055431, 1.3039561017221963, 2.0369521042961303, 1.174928737779588]",19.99,0.0,0.0,1.8719638718843663,355.97452636370537,111.00158534295196,-987.2245904700925,-492.0466638431305,1049.5501057593688,0.0,0.0,0.0,0.0,0.0,0.0,0.6,19.810925150851507,0.0,19.30678946710315,0.0,0.6,19.99,16.79,21.82,18.93,21.03,0.2,0.6,9197.53,-689.03,-2778.15,2.96,224.0,63.0,137.0,0.0,0.0,0.0,0.0,0.0,0.0,0.0,0.0,0.0,0.0,0.0,0.0,0.0,0.0
513.0,2696.0,34696.85292758472,31837.687812189706,-0.0,10.31914924291336,0.0,0.0,45441.78039014938,0.0,-40598.71449242665,0.0,86040.49488257605,0.6455055293928733,0.3728005839193276,0.8950437317784257,0.0,0.0,0.0,"[2.014008655569235, 2.2283959882663282, 1.0770215364329268, 1.0948620327133796, 0.7599588349055431, 1.3039561017221963, 2.0369521042961303, 1.174928737779588]",20.0,0.0,0.0,31.11708759595166,1688.8193770372288,105.78504829322623,-942.1058020302646,-715.9259318651336,8184.340557669549,0.0,0.0,0.0,0.0,0.0,0.0,1.5,19.714316220431897,0.0,19.173383364240863,0.0,1.5,20.0,16.71,21.64,18.9,20.93,1.15,1.5,6663.68,-657.54,-2651.18,49.21,141.0,43.0,1162.0,0.0,0.0,0.0,0.0,0.0,0.0,0.0,0.0,0.0,0.0,0.0,0.0,0.0,0.0
514.0,3769.0,0.0,7050.2868505315555,-0.0,525.7205817916408,10293.566268739914,0.0,19926.973688242484,0.0,0.0,0.0,19926.973688242488,0.20785390232059806,0.3728005839193276,0.8950437317784257,0.0,0.0,0.0,"[2.014008655569235, 2.2283959882663282, 1.0770215364329268, 1.0948620327133796, 0.7599588349055431, 1.3039561017221963, 2.0369521042961303, 1.174928737779588]",24.01,0.0,0.0,86.09700899848009,580.634642016066,92.15882121182139,-1080.3157102017315,-6417.909384886108,5561.366920803713,0.0,0.0,0.0,0.0,0.0,0.0,2.8,20.993593623883566,0.0,19.31956765937648,0.0,2.8,24.01,16.82,21.82,21.59,22.98,2.44,2.8,0.0,-754.0,-3040.12,136.16,240.0,12.0,299.0,0.0,0.0,0.0,0.0,0.0,0.0,0.0,0.0,0.0,0.0,0.0,0.0,0.0,0.0
515.0,5261.0,4109.10857987595,0.0,-0.0,1172.4369630234296,0.0,0.0,9856.885621339708,0.0,9856.885621339708,0.0,0.0,0.20785390232059806,0.33089205661771315,0.8950437317784257,0.0,0.0,0.0,"[2.014008655569235, 2.2283959882663282, 1.0770215364329268, 1.0948620327133796, 0.7599588349055431, 1.3039561017221963, 2.0369521042961303, 1.174928737779588]",23.44,0.0,0.0,106.29895871101228,1167.6451610388476,82.23159312931303,-1000.387903491981,-5309.893220272676,0.0,0.0,0.0,0.0,0.0,0.0,0.0,3.8,20.95236513628549,0.0,19.492026612987196,0.0,3.8,23.44,16.97,22.01,21.12,22.7,3.4,3.8,4137.84,-698.21,-2815.19,168.11,184.0,0.0,761.0,0.0,0.0,0.0,0.0,0.0,0.0,0.0,0.0,0.0,0.0,0.0,0.0,0.0,0.0
516.0,7887.0,0.0,0.0,-0.0,2998.276217419533,4888.723782580467,0.0,15511.13061865181,0.0,15511.130618651812,0.0,0.0,0.0,0.2649433720146017,0.8950437317784257,0.0,0.0,0.0,"[2.014008655569235, 2.2283959882663282, 1.0770215364329268, 1.0948620327133796, 0.7599588349055431, 1.3039561017221963, 2.0369521042961303, 1.174928737779588]",21.06,0.0,0.0,152.86044087609525,2704.0166024548316,126.30342735548079,-838.1662488391195,-1820.3324590788918,0.0,0.0,0.0,0.0,0.0,0.0,0.0,4.6,20.23579502434523,0.0,19.471931857909798,0.0,4.6,21.06,17.0,21.95,19.41,21.4,4.18,4.6,0.0,-584.99,-2358.68,241.75,212.0,0.0,1875.0,0.0,0.0,0.0,0.0,0.0,0.0,0.0,0.0,0.0,0.0,0.0,0.0,0.0,0.0
517.0,4829.0,2336.560580673883,0.0,-0.0,2504.1222222294864,0.0,0.0,13778.207469166866,0.0,13778.207469166866,0.0,0.0,0.0,0.20636255794501468,0.8950437317784257,0.0,0.0,0.0,"[2.014008655569235, 2.2283959882663282, 1.0770215364329268, 1.0948620327133796, 0.7599588349055431, 1.3039561017221963, 2.0369521042961303, 1.174928737779588]",21.21,0.0,0.0,153.5387387126541,1936.332355219278,142.6169614018958,-820.4876722842474,-2138.0452110219735,0.0,0.0,0.0,0.0,0.0,0.0,0.0,5.1,20.23479215697168,0.0,19.418338274925613,0.0,5.1,21.21,17.01,21.83,19.5,21.4,4.65,5.1,0.0,-572.65,-2308.93,242.82,326.0,0.0,1251.0,0.0,0.0,0.0,0.0,0.0,0.0,0.0,0.0,0.0,0.0,0.0,0.0,0.0,0.0
518.0,3883.0,29150.024376737172,0.0,-0.0,1005.4876825886154,-6233.493497824981,0.0,17903.941595655408,0.0,0.0,0.0,0.0,0.2545343178278534,0.20636255794501468,0.8950437317784257,79573.0737584685,19893.268439617124,99466.34219808561,"[2.014008655569235, 2.2283959882663282, 1.0770215364329268, 1.0948620327133796, 0.7599588349055431, 1.3039561017221963, 2.0369521042961303, 1.174928737779588]",20.86,0.0,0.0,129.60581629017494,2175.391923437367,132.5948871912106,-792.307952459108,-1709.271587409206,6631.247137913739,0.0,0.0,0.0,0.0,0.0,0.0,5.3,20.085999906539982,0.0,19.36484507713181,0.0,5.3,20.86,17.02,21.71,19.35,21.22,4.85,5.3,8582.64,-552.99,-2229.63,204.97,240.0,18.0,1470.0,0.0,0.0,0.0,0.0,0.0,0.0,0.0,0.0,0.0,0.0,0.0,0.0,0.0,0.0
519.0,2801.0,18869.266668119595,0.0,-0.0,26.079665221003033,-16000.0,0.0,28505.85953375313,0.0,28505.85953375313,0.0,0.0,0.9078676511611867,0.08516417557361532,0.8950437317784257,0.0,0.0,0.0,"[2.014008655569235, 2.2283959882663282, 1.0770215364329268, 1.0948620327133796, 0.7599588349055431, 1.3039561017221963, 2.0369521042961303, 1.174928737779588]",24.01,0.0,0.0,41.49153586813556,820.2673227740845,76.19305630205473,-978.4664343065677,-6131.779970185048,6177.98824609669,0.0,0.0,0.0,0.0,0.0,0.0,4.8,21.125460664550143,0.0,19.53008587948151,0.0,4.8,24.01,17.18,21.88,21.61,22.94,4.29,4.8,6315.34,-682.91,-2753.5,65.62,170.0,11.0,512.0,0.0,0.0,0.0,0.0,0.0,0.0,0.0,0.0,0.0,0.0,0.0,0.0,0.0,0.0
520.0,2216.0,0.0,0.0,-0.0,0.0,2216.0,0.0,20030.614094914326,0.0,20030.614094914323,0.0,0.0,0.8136499640863568,0.0,0.8950437317784257,0.0,0.0,0.0,"[2.014008655569235, 2.2283959882663282, 1.0770215364329268, 1.0948620327133796, 0.7599588349055431, 1.3039561017221963, 2.0369521042961303, 1.174928737779588]",24.01,0.0,0.0,0.939950502240749,1328.8330628940173,90.76774466522787,-1019.206144664633,-5830.015566543816,0.0,0.0,0.0,0.0,0.0,0.0,0.0,4.0,21.273150803719737,0.0,19.733778052364272,0.0,4.0,24.01,17.35,22.12,21.6,23.01,3.49,4.0,0.0,-711.35,-2868.15,1.49,166.0,18.0,887.0,0.0,0.0,0.0,0.0,0.0,0.0,0.0,0.0,0.0,0.0,0.0,0.0,0.0,0.0
521.0,1573.0,19736.583099249347,18064.9001837531,-0.0,0.0,0.0,0.0,20794.08560077814,0.0,-31125.749474570894,0.0,51919.83507534902,0.8136499640863568,0.12709681035449782,0.8950437317784257,0.0,0.0,0.0,"[2.014008655569235, 2.2283959882663282, 1.0770215364329268, 1.0948620327133796, 0.7599588349055431, 1.3039561017221963, 2.0369521042961303, 1.174928737779588]",21.4,0.0,0.0,0.0,291.8575609590935,93.77120539082752,-921.6498511968381,-1996.1416383108312,7977.547305210817,0.0,0.0,0.0,0.0,0.0,0.0,3.3,20.496007611548176,0.0,19.720384962304067,0.0,3.3,21.4,17.37,22.07,19.7,21.58,2.78,3.3,0.0,-643.26,-2593.61,0.0,162.0,68.0,122.0,0.0,0.0,0.0,0.0,0.0,0.0,0.0,0.0,0.0,0.0,0.0,0.0,0.0,0.0
522.0,1844.0,1053.7347249451054,0.0,-0.0,0.0,8337.70994867962,0.0,6652.8738999898305,0.0,35790.9752737563,0.0,0.0,0.6455055293928733,0.20702249974191875,0.8950437317784257,34164.704,8541.176,42705.88,"[2.014008655569235, 2.2283959882663282, 1.0770215364329268, 1.0948620327133796, 0.7599588349055431, 1.3039561017221963, 2.0369521042961303, 1.174928737779588]",24.01,0.0,0.0,0.0,671.7595358648551,194.84556265127108,-1090.5006377912478,-5637.6816036545615,0.0,0.0,0.0,0.0,0.0,0.0,0.0,2.6,21.36997493912011,0.0,19.870888934152667,0.0,2.6,24.01,17.49,22.25,21.9,23.26,2.11,2.6,0.0,-761.11,-3068.78,0.0,351.0,131.0,295.0,0.0,0.0,0.0,0.0,0.0,0.0,0.0,0.0,0.0,0.0,0.0,0.0,0.0,0.0
523.0,3889.0,8438.787691954922,7196.593753495146,-0.0,0.0,0.0,0.0,18693.920326537773,0.0,0.0,0.0,18693.920326537773,0.6455055293928733,0.20702249974191875,0.8950437317784257,0.0,0.0,0.0,"[2.014008655569235, 2.2283959882663282, 1.0770215364329268, 1.0948620327133796, 0.7599588349055431, 1.3039561017221963, 2.0369521042961303, 1.174928737779588]",19.99,0.0,0.0,0.0,716.9637874517937,223.58393948885103,-921.0225611382363,-249.9746103861776,719.849867899873,0.0,0.0,0.0,0.0,0.0,0.0,1.9,19.9237009590999,0.0,19.456124316339388,0.0,1.9,19.99,16.88,22.03,18.89,21.09,1.39,1.9,0.0,-642.82,-2591.85,0.0,468.0,118.0,268.0,0.0,0.0,0.0,0.0,0.0,0.0,0.0,0.0,0.0,0.0,0.0,0.0,0.0,0.0
524.0,5124.0,11559.193231482566,10460.397265325153,-0.0,0.0,0.0,0.0,27371.442630444948,0.0,0.0,0.0,27371.442630444944,0.6455055293928733,0.20702249974191875,0.8950437317784257,0.0,0.0,0.0,"[2.014008655569235, 2.2283959882663282, 1.0770215364329268, 1.0948620327133796, 0.7599588349055431, 1.3039561017221963, 2.0369521042961303, 1.174928737779588]",19.99,0.0,0.0,0.0,670.6133107849961,159.30987996101817,-951.5773439067854,-488.3107544246238,1049.5501057593688,0.0,0.0,0.0,0.0,0.0,0.0,1.3,19.810925150851507,0.0,19.30678946710315,0.0,1.3,19.99,16.79,21.82,18.93,21.03,0.78,1.3,9197.53,-664.15,-2677.83,0.0,240.0,127.0,353.0,0.0,0.0,0.0,0.0,0.0,0.0,0.0,0.0,0.0,0.0,0.0,0.0,0.0,0.0
525.0,4436.0,34696.85292758472,31837.687812189706,-0.0,0.0,0.0,0.0,45441.78039014938,0.0,-40598.71449242665,0.0,86040.49488257605,0.6455055293928733,0.3728005839193276,0.8950437317784257,0.0,0.0,0.0,"[2.014008655569235, 2.2283959882663282, 1.0770215364329268, 1.0948620327133796, 0.7599588349055431, 1.3039561017221963, 2.0369521042961303, 1.174928737779588]",20.0,0.0,0.0,0.0,1004.1648090239601,183.4640272700513,-987.9379761830883,-722.9485107877838,8184.340557669549,0.0,0.0,0.0,0.0,0.0,0.0,0.6,19.714316220431897,0.0,19.173383364240863,0.0,0.6,20.0,16.71,21.64,18.9,20.93,0.07,0.6,6663.68,-689.52,-2780.16,0.0,274.0,138.0,579.0,0.0,0.0,0.0,0.0,0.0,0.0,0.0,0.0,0.0,0.0,0.0,0.0,0.0,0.0
526.0,4038.0,0.0,7050.2868505315555,-0.0,0.0,10293.566268739914,0.0,19926.973688242484,0.0,0.0,0.0,19926.973688242488,0.20785390232059806,0.3728005839193276,0.8950437317784257,0.0,0.0,0.0,"[2.014008655569235, 2.2283959882663282, 1.0770215364329268, 1.0948620327133796, 0.7599588349055431, 1.3039561017221963, 2.0369521042961303, 1.174928737779588]",24.01,0.0,0.0,0.0,507.8493494450206,128.70619593596055,-1227.997160249719,-6437.959909217828,5561.366920803713,0.0,0.0,0.0,0.0,0.0,0.0,-0.1,20.993593623883566,0.0,19.31956765937648,0.0,-0.1,24.01,16.82,21.82,21.59,22.98,-0.66,-0.1,0.0,-857.07,-3455.71,0.0,260.0,69.0,229.0,0.0,0.0,0.0,0.0,0.0,0.0,0.0,0.0,0.0,0.0,0.0,0.0,0.0,0.0
527.0,2251.0,4109.10857987595,0.0,-0.0,0.0,0.0,0.0,9856.885621339708,0.0,9856.885621339708,0.0,0.0,0.20785390232059806,0.33089205661771315,0.8950437317784257,0.0,0.0,0.0,"[2.014008655569235, 2.2283959882663282, 1.0770215364329268, 1.0948620327133796, 0.7599588349055431, 1.3039561017221963, 2.0369521042961303, 1.174928737779588]",23.44,0.0,0.0,0.0,434.06110992909856,120.17004440004567,-1229.5487742560995,-5340.013010731082,0.0,0.0,0.0,0.0,0.0,0.0,0.0,-0.7,20.95236513628549,0.0,19.492026612987196,0.0,-0.7,23.44,16.97,22.01,21.12,22.7,-1.25,-0.7,4137.84,-858.16,-3460.07,0.0,360.0,4.0,129.0,0.0,0.0,0.0,0.0,0.0,0.0,0.0,0.0,0.0,0.0,0.0,0.0,0.0,0.0
528.0,3125.0,0.0,0.0,-0.0,0.0,4888.723782580467,0.0,15511.13061865181,0.0,15511.130618651812,0.0,0.0,0.0,0.2649433720146017,0.8950437317784257,0.0,0.0,0.0,"[2.014008655569235, 2.2283959882663282, 1.0770215364329268, 1.0948620327133796, 0.7599588349055431, 1.3039561017221963, 2.0369521042961303, 1.174928737779588]",21.06,0.0,0.0,0.0,479.69519592098436,106.98643258346605,-1148.8065403193687,-1860.5382174160234,0.0,0.0,0.0,0.0,0.0,0.0,0.0,-1.5,20.23579502434523,0.0,19.471931857909798,0.0,-1.5,21.06,17.0,21.95,19.41,21.4,-2.02,-1.5,0.0,-801.8,-3232.86,0.0,320.0,0.0,184.0,0.0,0.0,0.0,0.0,0.0,0.0,0.0,0.0,0.0,0.0,0.0,0.0,0.0,0.0
529.0,3564.0,2336.560580673883,0.0,-0.0,0.0,0.0,0.0,13778.207469166866,0.0,13778.207469166866,0.0,0.0,0.0,0.20636255794501468,0.8950437317784257,0.0,0.0,0.0,"[2.014008655569235, 2.2283959882663282, 1.0770215364329268, 1.0948620327133796, 0.7599588349055431, 1.3039561017221963, 2.0369521042961303, 1.174928737779588]",21.21,0.0,0.0,0.0,308.19126834708396,103.00289520003912,-1192.237529301595,-2185.783862697012,0.0,0.0,0.0,0.0,0.0,0.0,0.0,-2.2,20.23479215697168,0.0,19.418338274925613,0.0,-2.2,21.21,17.01,21.83,19.5,21.4,-2.71,-2.2,0.0,-832.11,-3355.07,0.0,320.0,0.0,58.0,0.0,0.0,0.0,0.0,0.0,0.0,0.0,0.0,0.0,0.0,0.0,0.0,0.0,0.0
530.0,1472.0,29150.024376737172,0.0,-0.0,0.0,-6233.493497824981,0.0,17903.941595655408,0.0,0.0,0.0,0.0,0.2545343178278534,0.20636255794501468,0.8950437317784257,79573.0737584685,19893.268439617124,99466.34219808561,"[2.014008655569235, 2.2283959882663282, 1.0770215364329268, 1.0948620327133796, 0.7599588349055431, 1.3039561017221963, 2.0369521042961303, 1.174928737779588]",20.86,0.0,0.0,0.0,447.09942021249446,111.88681587260236,-1214.9824474240374,-1763.5352085732395,6631.247137913739,0.0,0.0,0.0,0.0,0.0,0.0,-3.0,20.085999906539982,0.0,19.36484507713181,0.0,-3.0,20.86,17.02,21.71,19.35,21.22,-3.52,-3.0,8582.64,-847.99,-3419.08,0.0,320.0,10.0,159.0,0.0,0.0,0.0,0.0,0.0,0.0,0.0,0.0,0.0,0.0,0.0,0.0,0.0,0.0
531.0,752.0,18869.266668119595,0.0,-0.0,0.0,-16000.0,0.0,28505.85953375313,0.0,28505.85953375313,0.0,0.0,0.9078676511611867,0.08516417557361532,0.8950437317784257,0.0,0.0,0.0,"[2.014008655569235, 2.2283959882663282, 1.0770215364329268, 1.0948620327133796, 0.7599588349055431, 1.3039561017221963, 2.0369521042961303, 1.174928737779588]",24.01,0.0,0.0,0.0,444.592052850303,118.05181420409642,-1401.140929271497,-6185.757052148128,6177.98824609669,0.0,0.0,0.0,0.0,0.0,0.0,-3.5,21.125460664550143,0.0,19.53008587948151,0.0,-3.5,24.01,17.18,21.88,21.61,22.94,-4.04,-3.5,6315.34,-977.92,-3942.95,0.0,320.0,21.0,156.0,0.0,0.0,0.0,0.0,0.0,0.0,0.0,0.0,0.0,0.0,0.0,0.0,0.0,0.0
532.0,621.0,0.0,0.0,-0.0,0.0,2216.0,0.0,20030.614094914326,0.0,20030.614094914323,0.0,0.0,0.8136499640863568,0.0,0.8950437317784257,0.0,0.0,0.0,"[2.014008655569235, 2.2283959882663282, 1.0770215364329268, 1.0948620327133796, 0.7599588349055431, 1.3039561017221963, 2.0369521042961303, 1.174928737779588]",24.01,0.0,0.0,0.0,329.10987605451044,87.44813017903874,-1421.5107844505299,-5881.487146586955,0.0,0.0,0.0,0.0,0.0,0.0,0.0,-3.9,21.273150803719737,0.0,19.733778052364272,0.0,-3.9,24.01,17.35,22.12,21.6,23.01,-4.46,-3.9,0.0,-992.13,-4000.27,0.0,240.0,14.0,114.0,0.0,0.0,0.0,0.0,0.0,0.0,0.0,0.0,0.0,0.0,0.0,0.0,0.0,0.0
533.0,1112.0,19736.583099249347,18064.9001837531,-0.0,0.0,0.0,0.0,20794.08560077814,0.0,-31125.749474570894,0.0,51919.83507534902,0.8136499640863568,0.12709681035449782,0.8950437317784257,0.0,0.0,0.0,"[2.014008655569235, 2.2283959882663282, 1.0770215364329268, 1.0948620327133796, 0.7599588349055431, 1.3039561017221963, 2.0369521042961303, 1.174928737779588]",21.4,0.0,0.0,0.0,208.684603601826,87.47974555509768,-1308.6770995984605,-2045.7092919560455,7977.547305210817,0.0,0.0,0.0,0.0,0.0,0.0,-4.3,20.496007611548176,0.0,19.720384962304067,0.0,-4.3,21.4,17.37,22.07,19.7,21.58,-4.87,-4.3,0.0,-913.38,-3682.75,0.0,240.0,19.0,25.0,0.0,0.0,0.0,0.0,0.0,0.0,0.0,0.0,0.0,0.0,0.0,0.0,0.0,0.0
