,load_elec,grid,hp_elec,ev,pv,bat_pow,cool,load_th_sh,load_th_dhw,tes_pow,dh,hp_th,bat_soc,tes_soc,ev_soc,eh_th_in,eh_elec_in,eh_th_out,temp_slack,temp_zone_1,temp_zone_2,temp_update,Qsolar_1,QconvInt_1,QradInt_1,Qvent_1,Qconduc_1,Qheating_1,Qsolar_2,QconvInt_2,QradInt_2,Qvent_2,Qconduc_2,Qheating_2,temp_amb,temp_aggregate_1,temp_aggregate_2,temp_wall_1,temp_wall_2,_Tamb,_Tz_1,_TEW_1,_TIW_1,_T1_1,_T2_1,_Taeq_1,_Tvent_1,_Qheating_1,_Qinfvent_1,_Qenvelope_1,_Qsolar_1,_Qint_people_1,_Qint_lighting_1,_Qint_appliances_1,_Tz_2,_TEW_2,_TIW_2,_T1_2,_T2_2,_Taeq_2,_Tvent_2,_Qheating_2,_Qinfvent_2,_Qenvelope_2,_Qsolar_2,_Qint_people_2,_Qint_lighting_2,_Qint_appliances_2
390.0,3028.0,21786.54150599936,20387.008798469367,-0.0,0.0,1737.3999999999999,0.0,40129.96079178738,0.0,0.0,0.0,40129.96079178738,0.4261309523809524,0.5,0.8,0.0,0.0,0.0,"[2.0, 2.0, 2.0, 2.0, 2.0, 2.0, 2.0, 2.0]",20.0,0.0,0.0,0.0,3091.870513852115,133.44850234480208,-1334.225514226645,-1391.9426156778686,0.0,0.0,0.0,0.0,0.0,0.0,0.0,-6.2,19.413486090077168,0.0,19.0,0.0,-6.2,20.0,18.0,20.0,20.0,20.0,-6.68,-6.2,3008.69,-931.21,-3754.64,0.0,134.0,38.0,2197.0,0.0,0.0,0.0,0.0,0.0,0.0,0.0,0.0,0.0,0.0,0.0,0.0,0.0,0.0
391.0,1716.0,73887.4670327541,71802.02969759032,-0.0,0.0,0.0,0.0,60651.212617738405,0.0,-80000.0,0.0,140651.21261773838,0.4261309523809524,0.8266666666666667,0.8,0.0,0.0,0.0,"[2.0, 2.0, 2.0, 2.0, 2.0, 2.0, 2.0, 2.0]",20.23,0.0,0.0,0.0,1297.0253169279301,92.15882121182139,-1351.2507400591805,-1933.415684204337,9731.018204885453,0.0,0.0,0.0,0.0,0.0,0.0,-6.3,19.38832994364517,0.0,18.84298075962871,0.0,-6.3,20.23,17.7,19.99,19.12,19.96,-6.77,-6.3,7776.28,-943.1,-3802.55,0.0,107.0,53.0,891.0,0.0,0.0,0.0,0.0,0.0,0.0,0.0,0.0,0.0,0.0,0.0,0.0,0.0,0.0
392.0,1869.0,0.0,0.0,-0.0,0.0,1869.0,0.0,41996.60657954839,0.0,41996.60657954839,0.0,0.0,0.3466666666666667,0.6481096659032807,0.8,0.0,0.0,0.0,"[2.0, 2.0, 2.0, 2.0, 2.0, 2.0, 2.0, 2.0]",24.0,0.0,0.0,2.691315822854042,144.92583353467012,66.92975111678417,-1537.9240660169723,-7222.326855788877,237.45339617719827,0.0,0.0,0.0,0.0,0.0,0.0,-6.2,20.62093082555088,0.0,18.991613889038,0.0,-6.2,24.0,17.62,20.37,21.95,22.26,-6.67,-6.2,10579.15,-1073.38,-4327.87,4.26,114.0,52.0,41.0,0.0,0.0,0.0,0.0,0.0,0.0,0.0,0.0,0.0,0.0,0.0,0.0,0.0,0.0
393.0,999.0,41915.65252794249,24716.661810354544,-0.0,9.58754505176707,-16000.0,0.0,50301.90710745229,0.0,0.0,0.0,50301.907107452294,1.0,0.6481096659032807,0.8,0.0,0.0,0.0,"[2.0, 2.0, 2.0, 2.0, 2.0, 2.0, 2.0, 2.0]",20.0,0.0,0.0,43.488094495467955,174.08293400358303,56.591523145509534,-1298.5782676633376,-1391.5889322371218,7215.620958939216,0.0,0.0,0.0,0.0,0.0,0.0,-5.5,19.411307428047238,0.0,18.90933784700097,0.0,-5.5,20.0,17.4,20.42,18.94,20.13,-5.92,-5.5,358.06,-906.33,-3654.33,68.78,166.0,5.0,40.0,0.0,0.0,0.0,0.0,0.0,0.0,0.0,0.0,0.0,0.0,0.0,0.0,0.0,0.0
394.0,744.0,0.0,15304.307992188735,-0.0,48.30799218873422,16000.0,0.0,33396.3601048647,0.0,1520.42265179884,0.0,31875.937453065864,0.3197278911564626,0.6416452838803264,0.8,0.0,0.0,0.0,"[2.0, 2.0, 2.0, 2.0, 2.0, 2.0, 2.0, 2.0]",22.31,0.0,0.0,61.398378579989505,123.07591794985828,30.413991768704008,-1390.615017136113,-4701.447929725112,1082.0767365582387,0.0,0.0,0.0,0.0,0.0,0.0,-5.0,20.131724597786818,0.0,18.948884270327042,0.0,-5.0,22.31,17.28,20.61,20.79,21.63,-5.38,-5.0,2657.27,-970.57,-3913.33,97.1,92.0,0.0,42.0,0.0,0.0,0.0,0.0,0.0,0.0,0.0,0.0,0.0,0.0,0.0,0.0,0.0,0.0
395.0,3390.0,35086.776585155945,31919.138568531234,-0.0,397.7958663010751,0.0,0.0,58268.79574438721,0.0,-10038.4159453693,0.0,68307.21168975651,0.3197278911564626,0.6826354823239177,0.8,0.0,0.0,0.0,"[2.0, 2.0, 2.0, 2.0, 2.0, 2.0, 2.0, 2.0]",20.0,0.0,0.0,105.63087070566502,1651.5670619418124,76.69890231899784,-1242.5611659209976,-1403.0242021443162,9129.495628161836,0.0,0.0,0.0,0.0,0.0,0.0,-4.4,19.402249424212805,0.0,18.85421841446025,0.0,-4.4,20.0,17.1,20.61,18.94,20.32,-4.78,-4.4,11336.82,-867.24,-3496.69,167.06,128.0,0.0,1146.0,0.0,0.0,0.0,0.0,0.0,0.0,0.0,0.0,0.0,0.0,0.0,0.0,0.0,0.0
396.0,6936.0,0.0,1199.776871912226,-0.0,615.7768719122255,7520.000000000001,0.0,15479.056532451383,0.0,12865.773071394015,0.0,2613.283461057368,0.0,0.6279340662040451,0.8,0.0,0.0,0.0,"[2.0, 2.0, 2.0, 2.0, 2.0, 2.0, 2.0, 2.0]",24.0,0.0,0.0,118.1448841135062,2577.931843670344,104.80497163539894,-1425.8898625322925,-7060.868295002239,0.0,0.0,0.0,0.0,0.0,0.0,0.0,-4.0,20.69140464545968,0.0,18.99909088510367,0.0,-4.0,24.0,17.09,20.91,21.73,22.53,-4.36,-4.0,0.0,-995.19,-4012.6,186.85,150.0,0.0,1815.0,0.0,0.0,0.0,0.0,0.0,0.0,0.0,0.0,0.0,0.0,0.0,0.0,0.0,0.0
397.0,5075.0,7542.327159817061,2804.2607997956716,-0.0,374.6452757776957,0.0,0.0,6161.543800867609,0.0,0.0,0.0,6161.543800867609,0.0,0.6279340662040451,0.8,0.0,0.0,0.0,"[2.0, 2.0, 2.0, 2.0, 2.0, 2.0, 2.0, 2.0]",21.26,0.0,0.0,103.3813809979442,742.1807392086912,54.37844682138346,-1276.2605895498534,-3025.065534518537,780.3985888554786,0.0,0.0,0.0,0.0,0.0,0.0,-3.8,19.885758130707657,0.0,18.976048005464172,0.0,-3.8,21.26,16.98,20.97,19.38,20.87,-4.2,-3.8,10682.0,-890.76,-3591.52,163.5,124.0,0.0,480.0,0.0,0.0,0.0,0.0,0.0,0.0,0.0,0.0,0.0,0.0,0.0,0.0,0.0,0.0
398.0,1803.0,36354.22802095278,18447.036679814086,-0.0,77.57979896606619,-16000.0,0.0,40356.11226471656,0.0,0.0,0.0,40356.112264716554,0.6533333333333333,0.6279340662040451,0.8,0.0,0.0,0.0,"[2.0, 2.0, 2.0, 2.0, 2.0, 2.0, 2.0, 2.0]",20.0,0.0,0.0,69.29029140351413,133.39194366858914,3.0983068537764984,-1217.0988469472068,-1320.4099924502657,10644.030893567166,0.0,0.0,0.0,0.0,0.0,0.0,-3.9,19.440687972195363,0.0,18.86012222187118,0.0,-3.9,20.0,16.82,20.9,18.84,20.47,-4.36,-3.9,7932.08,-849.47,-3425.04,109.58,0.0,0.0,98.0,0.0,0.0,0.0,0.0,0.0,0.0,0.0,0.0,0.0,0.0,0.0,0.0,0.0,0.0
399.0,1574.0,17506.286451671862,10712.963161053804,-0.0,0.4581115359947322,-5132.249969895695,0.0,23130.086732219883,0.0,0.0,0.0,23130.086732219883,0.8629002071040742,0.6279340662040451,0.8,0.0,0.0,0.0,"[2.0, 2.0, 2.0, 2.0, 2.0, 2.0, 2.0, 2.0]",24.0,0.0,0.0,25.046622064836804,65.33482955196202,1.5175380508293057,-1436.0747901218087,-6961.2525851251385,8304.763762716679,0.0,0.0,0.0,0.0,0.0,0.0,-4.2,20.740376732881902,0.0,19.0237998741925,0.0,-4.2,24.0,16.85,21.19,21.81,22.8,-4.7,-4.2,0.0,-1002.3,-4041.26,39.61,0.0,0.0,48.0,0.0,0.0,0.0,0.0,0.0,0.0,0.0,0.0,0.0,0.0,0.0,0.0,0.0,0.0
400.0,1646.0,0.0,12919.82195157813,-0.0,0.0,14565.82195157813,0.0,27279.016371189555,0.0,0.0,0.0,27279.016371189555,0.24360505610160277,0.6279340662040451,0.8,0.0,0.0,0.0,"[2.0, 2.0, 2.0, 2.0, 2.0, 2.0, 2.0, 2.0]",24.0,0.0,0.0,0.0,158.89545169545153,46.22167979817596,-1461.5371090955996,-6644.94722534399,0.0,0.0,0.0,0.0,0.0,0.0,0.0,-4.7,20.894284514982967,0.0,19.218039853881063,0.0,-4.7,24.0,16.91,21.52,21.56,22.78,-5.25,-4.7,4981.75,-1020.07,-4112.91,0.0,142.0,0.0,42.0,0.0,0.0,0.0,0.0,0.0,0.0,0.0,0.0,0.0,0.0,0.0,0.0,0.0,0.0
401.0,1826.0,40078.95591454896,22052.561134976215,-0.0,0.0,-16000.0,0.0,45721.02028039846,0.0,0.0,0.0,45721.02028039846,0.8969383894349361,0.6279340662040451,0.8,0.0,0.0,0.0,"[2.0, 2.0, 2.0, 2.0, 2.0, 2.0, 2.0, 2.0]",20.2,0.0,0.0,0.0,182.39306583256067,59.879522255639685,-1288.220927392882,-1158.2734744487445,10115.20863197551,0.0,0.0,0.0,0.0,0.0,0.0,-5.1,19.7198799316257,0.0,19.121268585332796,0.0,-5.1,20.2,16.78,21.46,18.83,20.77,-5.63,-5.1,9581.27,-899.11,-3625.18,0.0,148.0,20.0,54.0,0.0,0.0,0.0,0.0,0.0,0.0,0.0,0.0,0.0,0.0,0.0,0.0,0.0,0.0
402.0,3003.0,13386.60027508574,10316.667273710313,-0.0,0.0,0.0,0.0,20995.878927439404,0.0,0.0,0.0,20995.878927439404,0.8969383894349361,0.6279340662040451,0.8,0.0,0.0,0.0,"[2.0, 2.0, 2.0, 2.0, 2.0, 1.8110065499295516, 2.0, 2.0]",24.0,0.0,0.0,0.0,424.31819675029726,58.0774458202799,-1502.2768194536652,-6568.760968623088,0.0,0.0,0.0,0.0,0.0,0.0,0.0,-5.5,20.933344616685414,0.0,19.247948511828774,0.0,-5.5,24.0,16.8,21.7,21.77,23.06,-6.03,-5.5,0.0,-1048.5,-4227.56,0.0,110.0,27.0,251.0,0.0,0.0,0.0,0.0,0.0,0.0,0.0,0.0,0.0,0.0,0.0,0.0,0.0,0.0
403.0,6332.0,16253.0704486859,9839.80509644247,-0.0,0.0,0.0,0.0,19743.979219341556,0.0,0.0,0.0,19743.979219341556,0.8969383894349361,0.6279340662040451,0.8,0.0,0.0,0.0,"[2.0, 2.0, 2.0, 2.0, 2.0, 1.8110065499295516, 2.0, 2.0]",20.35,0.0,0.0,0.0,1692.1864132093144,86.59451502544727,-1331.5035977154798,-1311.4485143173708,8465.929944174219,0.0,0.0,0.0,0.0,0.0,0.0,-5.8,19.798784343567636,0.0,19.14655216687789,0.0,-5.8,20.35,16.66,21.63,18.87,20.92,-6.34,-5.8,9717.94,-929.31,-3746.98,0.0,88.0,37.0,1193.0,0.0,0.0,0.0,0.0,0.0,0.0,0.0,0.0,0.0,0.0,0.0,0.0,0.0,0.0
404.0,4391.0,0.0,8551.390919509697,-0.0,0.0,12942.390919509697,0.0,46381.64260120596,0.0,29549.012287094592,0.0,16832.63031411137,0.3466666666666667,0.5023005105616362,0.8,0.0,0.0,0.0,"[2.0, 2.0, 2.0, 2.0, 2.0, 1.8110065499295516, 2.0, 2.0]",24.0,0.0,0.0,0.0,845.6991917334558,64.33729027995078,-1537.9240660169723,-6551.701234671433,0.0,0.0,0.0,0.0,0.0,0.0,0.0,-6.2,20.943746714767997,0.0,19.2407970013384,0.0,-6.2,24.0,16.66,21.82,21.53,22.98,-6.73,-6.2,7423.65,-1073.38,-4327.87,0.0,85.0,34.0,573.0,0.0,0.0,0.0,0.0,0.0,0.0,0.0,0.0,0.0,0.0,0.0,0.0,0.0,0.0
405.0,4746.0,45712.00009430108,24737.440093829577,-0.0,0.0,-16000.0,0.0,47750.06816849457,0.0,0.0,0.0,47750.06816849457,1.0,0.5023005105616362,0.8,0.0,0.0,0.0,"[2.0, 2.0, 2.0, 2.0, 2.0, 1.8110065499295516, 2.0, 2.0]",20.54,0.0,0.0,0.0,780.6509184514586,51.31175534366591,-1382.251202942935,-1586.3112573305075,9326.67387114859,0.0,0.0,0.0,0.0,0.0,0.0,-6.6,19.866174366835583,0.0,19.13941454417457,0.0,-6.6,20.54,16.53,21.75,18.91,21.05,-7.14,-6.6,0.0,-964.73,-3889.79,0.0,90.0,11.0,525.0,0.0,0.0,0.0,0.0,0.0,0.0,0.0,0.0,0.0,0.0,0.0,0.0,0.0,0.0
406.0,4361.0,16485.591138713444,12042.163183019875,-0.0,0.0,0.0,0.0,22785.482905826386,0.0,0.0,0.0,22785.482905826386,1.0,0.5023005105616362,0.8,0.0,0.0,0.0,"[2.0, 2.0, 2.0, 2.0, 2.0, 1.8110065499295516, 2.0, 2.0]",24.0,0.0,0.0,0.0,1619.8309550432161,66.67682810831263,-1578.663776375038,-6522.736219189574,6420.937435481427,0.0,0.0,0.0,0.0,0.0,0.0,-7.0,20.96008905247174,0.0,19.24247196549579,0.0,-7.0,24.0,16.54,21.95,21.58,23.12,-7.5,-7.0,8788.98,-1101.82,-4442.52,0.0,97.0,0.0,1139.0,0.0,0.0,0.0,0.0,0.0,0.0,0.0,0.0,0.0,0.0,0.0,0.0,0.0,0.0
407.0,3447.0,0.0,12553.0,-0.0,0.0,16000.0,0.0,33641.773267481876,0.0,10248.729361712205,0.0,23393.04390576967,0.3197278911564626,0.45872598096251965,0.8,0.0,0.0,0.0,"[2.0, 2.0, 2.0, 2.0, 2.0, 1.8110065499295516, 2.0, 2.0]",24.0,0.0,0.0,0.0,923.0693846239369,51.691139856373226,-1593.9411677593123,-6324.113613060312,6947.980809073665,0.0,0.0,0.0,0.0,0.0,0.0,-7.3,21.056618140898145,0.0,19.362016985403436,0.0,-7.3,24.0,16.56,22.16,21.26,23.0,-7.81,-7.3,0.0,-1112.48,-4485.51,0.0,101.0,0.0,625.0,0.0,0.0,0.0,0.0,0.0,0.0,0.0,0.0,0.0,0.0,0.0,0.0,0.0,0.0
408.0,2137.0,22464.065917407905,20214.745587820864,-0.0,0.0,0.0,0.0,37092.88920201142,0.0,0.0,0.0,37092.88920201142,0.3197278911564626,0.45872598096251965,0.8,0.0,0.0,0.0,"[2.0, 2.0, 2.0, 2.0, 2.0, 1.8110065499295516, 2.0, 2.0]",24.0,0.0,0.0,0.0,318.8654894032708,48.33990999412518,-1609.2185591435873,-6132.042349087754,0.0,0.0,0.0,0.0,0.0,0.0,0.0,-7.6,21.149826898487728,0.0,19.47773632047138,0.0,-7.6,24.0,16.58,22.37,21.36,23.17,-8.07,-7.6,3931.32,-1123.14,-4528.5,0.0,80.0,30.0,189.0,0.0,0.0,0.0,0.0,0.0,0.0,0.0,0.0,0.0,0.0,0.0,0.0,0.0,0.0
409.0,1415.0,0.0,0.0,-0.0,0.0,1415.0,0.0,44114.231222397306,0.0,44114.231222397306,0.0,0.0,0.2595663265306123,0.2711654740645719,0.8,0.0,0.0,0.0,"[2.0, 2.0, 2.0, 2.0, 2.0, 1.8110065499295516, 2.0, 2.0]",20.45,0.0,0.0,0.0,306.3286525923131,46.91721807147271,-1438.6318724430942,-1085.5248069203033,1239.37053614974,0.0,0.0,0.0,0.0,0.0,0.0,-7.8,20.017501882496806,0.0,19.340979965567012,0.0,-7.8,20.45,16.44,22.24,18.88,21.32,-8.27,-7.8,9373.18,-1004.08,-4048.45,0.0,80.0,28.0,180.0,0.0,0.0,0.0,0.0,0.0,0.0,0.0,0.0,0.0,0.0,0.0,0.0,0.0,0.0
410.0,1862.0,26928.506918487015,23089.53897569119,-0.0,0.0,-1842.3254082033893,0.0,41267.37052420946,0.0,0.0,0.0,41267.37052420946,0.3347946140322507,0.2711654740645719,0.8,0.0,0.0,0.0,"[2.0, 2.0, 2.0, 2.0, 2.0, 1.8110065499295516, 2.0, 2.0]",20.0,0.0,0.0,0.0,1606.291171287382,61.27059880223321,-1430.9823263270505,-722.8876178899042,491.86324397392553,0.0,0.0,0.0,0.0,0.0,0.0,-8.1,19.741238194018703,0.0,19.138704826634093,0.0,-8.1,20.0,16.25,22.03,18.73,21.14,-8.56,-8.1,7499.16,-998.74,-4026.93,0.0,80.0,0.0,1138.0,0.0,0.0,0.0,0.0,0.0,0.0,0.0,0.0,0.0,0.0,0.0,0.0,0.0,0.0
411.0,1088.0,0.0,0.0,-0.0,0.0,1088.0,0.0,33104.42690464207,0.0,33104.42690464207,0.0,0.0,0.28853611063089013,0.13041535967408693,0.8,0.0,0.0,0.0,"[2.0, 2.0, 2.0, 2.0, 2.0, 1.8110065499295516, 2.0, 2.0]",20.0,0.0,0.0,0.0,454.76480043405155,34.5239906563667,-1430.9823263270505,-1039.5980045857782,10298.653864921513,0.0,0.0,0.0,0.0,0.0,0.0,-8.1,19.588867955531313,0.0,18.9259495326084,0.0,-8.1,20.0,16.05,21.8,18.53,20.92,-8.56,-8.1,0.0,-998.74,-4026.93,0.0,80.0,0.0,292.0,0.0,0.0,0.0,0.0,0.0,0.0,0.0,0.0,0.0,0.0,0.0,0.0,0.0,0.0
412.0,785.0,0.0,0.0,-0.0,0.0,785.0,0.0,12385.708994592665,0.0,12385.708994592665,0.0,0.0,0.25516026029075406,0.07775503231612492,0.8,0.0,0.0,0.0,"[2.0, 2.0, 2.0, 2.0, 2.0, 1.8110065499295516, 2.0, 2.0]",24.0,0.0,0.0,0.0,396.4505994962256,50.14198642948498,-1639.7733419121364,-6776.766700927927,0.0,0.0,0.0,0.0,0.0,0.0,0.0,-8.2,20.841464239708618,0.0,19.030757891218165,0.0,-8.2,24.0,16.07,21.99,21.49,23.21,-8.65,-8.2,967.29,-1144.47,-4614.48,0.0,80.0,30.0,246.0,0.0,0.0,0.0,0.0,0.0,0.0,0.0,0.0,0.0,0.0,0.0,0.0,0.0,0.0
413.0,574.0,17725.145402586943,17062.519675574007,-0.0,0.0,0.0,0.0,30170.101281355786,0.0,0.0,0.0,30170.10128135579,0.25516026029075406,0.07775503231612492,0.8,0.0,0.0,0.0,"[2.0, 2.0, 2.0, 2.0, 2.0, 1.8110065499295516, 2.0, 2.0]",20.16,0.0,0.0,0.0,116.48512374066914,56.085677128566424,-1449.490845642306,-1285.942964143824,7417.7740699735305,0.0,0.0,0.0,0.0,0.0,0.0,-8.3,19.634900724354893,0.0,18.907400959269793,0.0,-8.3,20.16,15.94,21.88,18.49,20.97,-8.75,-8.3,912.11,-1011.66,-4079.01,0.0,80.0,52.0,38.0,0.0,0.0,0.0,0.0,0.0,0.0,0.0,0.0,0.0,0.0,0.0,0.0,0.0,0.0
414.0,702.0,62634.93266419545,40152.84600087447,-0.0,0.0,-16000.0,0.0,49130.97668233672,27334.56,0.0,0.0,70998.62468233673,0.9084935936240874,0.4044216989827916,0.8,21867.648,5466.912,27334.56,"[2.0, 2.0, 2.0, 2.0, 2.0, 1.8110065499295516, 2.0, 2.0]",22.5,0.0,0.0,0.0,147.64811809933522,56.876061530040026,-1568.3115042757138,-4712.8832619237,9206.494704480652,0.0,0.0,0.0,0.0,0.0,0.0,-8.3,20.326727933716374,0.0,18.914023273913774,0.0,-8.3,22.5,15.9,21.93,20.41,22.42,-8.75,-8.3,7424.98,-1094.59,-4413.38,0.0,101.0,41.0,51.0,0.0,0.0,0.0,0.0,0.0,0.0,0.0,0.0,0.0,0.0,0.0,0.0,0.0,0.0
415.0,738.0,40801.68026331791,0.0,-0.0,0.0,-2240.9732173692873,0.0,33856.82878016881,0.0,0.0,0.0,0.0,1.0,0.4044216989827916,0.8,150474.79457852812,37618.69864463203,188093.49322316013,"[2.0, 2.0, 2.0, 2.0, 2.0, 1.8110065499295516, 2.0, 2.0]",24.0,0.0,0.0,0.0,194.3567901035888,69.77513496208911,-1644.8658057068942,-6708.023298118034,0.0,0.0,0.0,0.0,0.0,0.0,0.0,-8.3,20.87483253830079,0.0,19.053325075137234,0.0,-8.3,24.0,15.95,22.16,21.33,23.21,-8.75,-8.3,0.0,-1148.02,-4628.82,0.0,148.0,37.0,61.0,0.0,0.0,0.0,0.0,0.0,0.0,0.0,0.0,0.0,0.0,0.0,0.0,0.0,0.0
416.0,1129.0,10804.79920909236,25621.775213046898,-0.0,0.0,16000.0,0.0,45793.17466312297,0.0,0.0,0.0,45793.17466312297,0.3197278911564626,0.4044216989827916,0.8,0.0,0.0,0.0,"[2.0, 2.0, 2.0, 2.0, 2.0, 1.8110065499295516, 2.0, 2.0]",20.11,0.0,0.0,2.689984278823534,20.417134234988126,0.4742306408841548,-1436.3514711267287,-1140.6497584665342,10648.45967303141,0.0,0.0,0.0,0.0,0.0,0.0,-8.1,19.645961785415277,0.0,18.92460696266348,0.0,-8.1,20.11,15.83,22.02,18.44,21.04,-8.54,-8.1,1672.55,-1002.49,-4042.04,4.25,0.0,0.0,15.0,0.0,0.0,0.0,0.0,0.0,0.0,0.0,0.0,0.0,0.0,0.0,0.0,0.0,0.0
417.0,2273.0,0.0,5247.000000000001,-0.0,0.0,7520.000000000001,0.0,10424.426811823458,0.0,846.5064896590061,0.0,9577.920322164451,0.0,0.40082260676485365,0.8,0.0,0.0,0.0,"[2.0, 2.0, 2.0, 2.0, 2.0, 1.8110065499295516, 2.0, 2.0]",24.0,0.0,0.0,16.25002530689904,243.64446853752503,39.80375845821033,-1614.311022938345,-6718.371959905383,1427.3606162552296,0.0,0.0,0.0,0.0,0.0,0.0,-7.7,20.868021638332237,0.0,19.032925780193533,0.0,-7.7,24.0,15.87,22.2,21.46,23.34,-8.16,-7.7,10668.7,-1126.7,-4542.83,25.7,114.0,0.0,119.0,0.0,0.0,0.0,0.0,0.0,0.0,0.0,0.0,0.0,0.0,0.0,0.0,0.0,0.0
418.0,3958.0,20057.803492460458,0.0,-0.0,0.48552500184399805,-16000.0,0.0,32852.466086059394,0.0,32852.466086059394,0.0,0.0,0.6533333333333333,0.2611437543581386,0.8,0.0,0.0,0.0,"[2.0, 2.0, 2.0, 2.0, 2.0, 1.8110065499295516, 2.0, 2.0]",20.82,0.0,0.0,24.23408971566385,194.9299026435183,41.06837350056809,-1437.1203451524377,-2127.1888466468235,1601.4980289777877,0.0,0.0,0.0,0.0,0.0,0.0,-7.4,19.886557704952764,0.0,18.957850021720333,0.0,-7.4,20.82,15.79,22.13,18.91,21.45,-7.87,-7.4,6394.71,-1003.03,-4044.2,38.33,122.0,0.0,79.0,0.0,0.0,0.0,0.0,0.0,0.0,0.0,0.0,0.0,0.0,0.0,0.0,0.0,0.0
419.0,9110.0,21480.612366160927,11605.427346948625,-0.0,1.9431571541155876,-659.7251145356099,0.0,21737.84048016525,0.0,0.0,0.0,21737.84048016525,0.6802721088435374,0.2611437543581386,0.8,0.0,0.0,0.0,"[2.0, 2.0, 2.0, 2.0, 2.0, 1.8110065499295516, 2.0, 2.0]",20.0,0.0,0.0,29.546921261410827,439.7922353283935,56.93929228215792,-1385.1501521742268,-1160.456717859961,10337.771733198042,0.0,0.0,0.0,0.0,0.0,0.0,-7.2,19.527955783590038,0.0,18.795232458395667,0.0,-7.2,20.0,15.66,21.93,18.51,21.08,-7.67,-7.2,0.0,-966.76,-3897.95,46.73,156.0,0.0,241.0,0.0,0.0,0.0,0.0,0.0,0.0,0.0,0.0,0.0,0.0,0.0,0.0,0.0,0.0
420.0,8425.0,1349.4900382226792,8922.483230608055,-0.0,4.740642576490096,16000.0,0.0,16967.66616645603,0.0,0.0,0.0,16967.66616645603,0.0,0.2611437543581386,0.8,0.0,0.0,0.0,"[2.0, 2.0, 2.0, 2.0, 2.0, 1.8110065499295516, 2.0, 2.0]",24.0,0.0,0.0,35.03698976187508,737.452560754273,60.258906768347025,-1573.5713125802797,-6879.551975091993,0.0,0.0,0.0,0.0,0.0,0.0,0.0,-6.9,20.788002908684238,0.0,18.915512642764256,0.0,-6.9,24.0,15.72,22.11,21.38,23.27,-7.37,-6.9,8791.94,-1098.26,-4428.19,55.41,144.0,0.0,466.0,0.0,0.0,0.0,0.0,0.0,0.0,0.0,0.0,0.0,0.0,0.0,0.0,0.0,0.0
421.0,3593.0,5288.212453328903,14532.89092998215,-0.0,12864.119538919891,0.0,0.0,30684.863234610635,0.0,0.0,0.0,30684.863234610642,0.0,0.2611437543581386,0.8,0.0,0.0,0.0,"[2.0, 2.0, 2.0, 2.0, 2.0, 1.8110065499295516, 2.0, 2.0]",20.33,0.0,0.0,1018.606065165314,803.0739465761999,18.653071874776888,-1274.7318288591905,-1592.0361496902485,4140.961967840427,0.0,0.0,0.0,0.0,0.0,0.0,-4.7,19.64355407826209,0.0,18.81528921523307,0.0,-4.7,20.33,15.64,21.99,18.46,21.08,-4.61,-4.7,0.0,-889.69,-3587.22,1610.93,0.0,0.0,590.0,0.0,0.0,0.0,0.0,0.0,0.0,0.0,0.0,0.0,0.0,0.0,0.0,0.0,0.0
422.0,2029.0,51634.03229128567,52044.95376322576,-0.0,11187.887551763872,-8489.795918367347,0.0,34849.74070017973,0.0,-80000.0,0.0,114849.74070017974,0.3466666666666667,0.5878104210248053,0.8,0.0,0.0,0.0,"[2.0, 2.0, 2.0, 2.0, 2.0, 1.8110065499295516, 2.0, 2.0]",21.84,0.0,0.0,962.100396392348,270.8673141841759,6.291459835729831,-1300.811806676779,-3798.8410552753808,0.0,0.0,0.0,0.0,0.0,0.0,0.0,-3.7,20.095880083714853,0.0,18.83244104617823,0.0,-3.7,21.84,15.67,21.99,19.97,22.2,-3.71,-3.7,0.0,-907.89,-3660.61,1521.57,0.0,0.0,199.0,0.0,0.0,0.0,0.0,0.0,0.0,0.0,0.0,0.0,0.0,0.0,0.0,0.0,0.0
423.0,2479.0,35909.12493506951,21886.209742633964,-0.0,4635.630432239801,-16000.0,0.0,48505.84743450134,0.0,0.0,0.0,48505.84743450134,1.0,0.5878104210248053,0.8,0.0,0.0,0.0,"[2.0, 2.0, 2.0, 2.0, 2.0, 1.8110065499295516, 2.0, 2.0]",20.0,0.0,0.0,545.6419470765402,20.417134234988126,0.4742306408841548,-1201.8214555629322,-1206.8134384587963,10140.266703100247,0.0,0.0,0.0,0.0,0.0,0.0,-3.6,19.494094076772516,0.0,18.75163340175313,0.0,-3.6,20.0,15.64,21.86,18.6,21.13,-3.96,-3.6,3241.06,-838.8,-3382.04,862.94,0.0,0.0,15.0,0.0,0.0,0.0,0.0,0.0,0.0,0.0,0.0,0.0,0.0,0.0,0.0,0.0,0.0
424.0,1825.0,13074.948086788658,11184.573346354715,-0.0,0.0,0.0,0.0,23935.076367702077,0.0,0.0,0.0,23935.07636770208,1.0,0.5878104210248053,0.8,0.0,0.0,0.0,"[2.0, 2.0, 2.0, 2.0, 2.0, 1.8110065499295516, 2.0, 2.0]",24.0,0.0,0.0,1.343543770938565,365.78907860999783,45.336449268525506,-1446.259717711325,-6864.186854984974,7902.044725284013,0.0,0.0,0.0,0.0,0.0,0.0,-4.4,20.788901801414433,0.0,18.924678814851816,0.0,-4.4,24.0,15.78,22.07,21.53,23.36,-5.28,-4.4,0.0,-1009.41,-4069.92,2.12,123.0,0.0,204.0,0.0,0.0,0.0,0.0,0.0,0.0,0.0,0.0,0.0,0.0,0.0,0.0,0.0,0.0
425.0,4426.0,16303.448895757727,11795.931651278937,-0.0,0.0,0.0,0.0,24568.662608509945,0.0,0.0,0.0,24568.66260850995,1.0,0.5878104210248053,0.7421768707482994,0.0,0.0,0.0,"[2.0, 2.0, 2.0, 2.0, 2.0, 1.8110065499295516, 2.0, 2.0]",24.0,0.0,0.0,0.0,1567.3195185721765,64.5585979123634,-1476.8145004798744,-6595.9727199380695,0.0,0.0,0.0,0.0,0.0,0.0,0.0,-5.0,20.919719120195463,0.0,19.100909754617735,0.0,-5.0,24.0,15.9,22.3,21.16,23.17,-5.85,-5.0,0.0,-1030.73,-4155.9,0.0,94.0,0.0,1102.0,0.0,0.0,0.0,0.0,0.0,0.0,0.0,0.0,0.0,0.0,0.0,0.0,0.0,0.0
426.0,5545.0,62634.93266419545,40152.84600087447,-0.0,0.0,-16000.0,0.0,6971.853121349664,0.0,0.0,0.0,70998.62468233673,0.9084935936240874,0.4044216989827916,0.8,21867.648,5466.912,27334.56,"[2.0, 2.0, 2.0, 2.0, 2.0, 1.8110065499295516, 2.0, 2.0]",20.9,0.0,0.0,0.0,915.4756434698714,56.306984760979034,-1344.331250392284,-2141.313692164126,651.4974152940018,0.0,0.0,0.0,0.0,0.0,0.0,-5.5,19.953167831663137,0.0,19.019726049141106,0.0,-5.5,20.9,15.85,22.19,18.81,21.39,-6.34,-5.5,837.83,-938.27,-3783.08,0.0,117.0,0.0,611.0,0.0,0.0,0.0,0.0,0.0,0.0,0.0,0.0,0.0,0.0,0.0,0.0,0.0,0.0
427.0,5819.0,40801.68026331791,0.0,-0.0,0.0,-2240.9732173692873,0.0,33856.82878016881,0.0,0.0,0.0,0.0,1.0,0.4044216989827916,0.8,150474.79457852812,37618.69864463203,188093.49322316013,"[2.0, 2.0, 2.0, 2.0, 2.0, 1.8110065499295516, 2.0, 2.0]",24.0,0.0,0.0,0.0,104.80795573960573,2.4343839565386753,-1532.8316022222143,-6696.310678785889,0.0,0.0,0.0,0.0,0.0,0.0,0.0,-6.1,20.87483253830079,0.0,19.053325075137234,0.0,-6.1,24.0,15.95,22.16,21.33,23.21,-6.94,-6.1,0.0,-1069.83,-4313.54,0.0,0.0,0.0,77.0,0.0,0.0,0.0,0.0,0.0,0.0,0.0,0.0,0.0,0.0,0.0,0.0,0.0,0.0
428.0,3387.0,10804.79920909236,25621.775213046898,-0.0,0.0,16000.0,0.0,45793.17466312297,0.0,0.0,0.0,45793.17466312297,0.3197278911564626,0.4044216989827916,0.8,0.0,0.0,0.0,"[2.0, 2.0, 2.0, 2.0, 2.0, 1.8110065499295516, 2.0, 2.0]",20.11,0.0,0.0,0.0,28.583987928983383,0.6639228972378188,-1365.0569780001142,-1133.960907074359,10648.45967303141,0.0,0.0,0.0,0.0,0.0,0.0,-6.7,19.645961785415277,0.0,18.92460696266348,0.0,-6.7,20.11,15.83,22.02,18.44,21.04,-7.51,-6.7,1672.55,-952.73,-3841.41,0.0,0.0,0.0,21.0,0.0,0.0,0.0,0.0,0.0,0.0,0.0,0.0,0.0,0.0,0.0,0.0,0.0,0.0
429.0,3479.0,0.0,5247.000000000001,-0.0,0.0,7520.000000000001,0.0,10424.426811823458,0.0,846.5064896590061,0.0,9577.920322164451,0.0,0.40082260676485365,0.8,0.0,0.0,0.0,"[2.0, 2.0, 2.0, 2.0, 2.0, 1.8110065499295516, 2.0, 2.0]",24.0,0.0,0.0,0.0,118.41937856293116,2.7505377171281133,-1588.8487039645545,-6717.320998055,1427.3606162552296,0.0,0.0,0.0,0.0,0.0,0.0,-7.2,20.868021638332237,0.0,19.032925780193533,0.0,-7.2,24.0,15.87,22.2,21.46,23.34,-8.0,-7.2,10668.7,-1108.93,-4471.18,0.0,0.0,0.0,87.0,0.0,0.0,0.0,0.0,0.0,0.0,0.0,0.0,0.0,0.0,0.0,0.0,0.0,0.0
430.0,3271.0,20057.803492460458,0.0,-0.0,0.0,-16000.0,0.0,32852.466086059394,0.0,32852.466086059394,0.0,0.0,0.6533333333333333,0.2611437543581386,0.8,0.0,0.0,0.0,"[2.0, 2.0, 2.0, 2.0, 2.0, 1.8110065499295516, 2.0, 2.0]",20.82,0.0,0.0,0.0,80.02083838765525,34.87175979301509,-1457.4902003314703,-2131.728188734346,1601.4980289777877,0.0,0.0,0.0,0.0,0.0,0.0,-7.8,19.886557704952764,0.0,18.957850021720333,0.0,-7.8,20.82,15.79,22.13,18.91,21.45,-8.57,-7.8,6394.71,-1017.25,-4101.52,0.0,97.0,7.0,7.0,0.0,0.0,0.0,0.0,0.0,0.0,0.0,0.0,0.0,0.0,0.0,0.0,0.0,0.0
431.0,2289.0,21480.612366160927,11605.427346948625,-0.0,0.0,-659.7251145356099,0.0,21737.84048016525,0.0,0.0,0.0,21737.84048016525,0.6802721088435374,0.2611437543581386,0.8,0.0,0.0,0.0,"[2.0, 2.0, 2.0, 2.0, 2.0, 1.8110065499295516, 2.0, 2.0]",20.0,0.0,0.0,0.0,335.4857530612261,66.92975111678417,-1446.259717711325,-1169.765264721865,10337.771733198042,0.0,0.0,0.0,0.0,0.0,0.0,-8.4,19.527955783590038,0.0,18.795232458395667,0.0,-8.4,20.0,15.66,21.93,18.51,21.08,-9.11,-8.4,0.0,-1009.41,-4069.92,0.0,154.0,23.0,163.0,0.0,0.0,0.0,0.0,0.0,0.0,0.0,0.0,0.0,0.0,0.0,0.0,0.0,0.0
432.0,1024.0,1349.4900382226792,8922.483230608055,-0.0,0.0,16000.0,0.0,16967.66616645603,0.0,0.0,0.0,16967.66616645603,0.0,0.2611437543581386,0.8,0.0,0.0,0.0,"[2.0, 2.0, 2.0, 2.0, 2.0, 1.8110065499295516, 2.0, 2.0]",24.0,0.0,0.0,0.0,253.31574264883523,29.84491499964302,-1685.6055160649596,-6895.414700777827,0.0,0.0,0.0,0.0,0.0,0.0,0.0,-9.1,20.788002908684238,0.0,18.915512642764256,0.0,-9.1,24.0,15.72,22.11,21.38,23.27,-9.82,-9.1,8791.94,-1176.46,-4743.46,0.0,80.0,0.0,144.0,0.0,0.0,0.0,0.0,0.0,0.0,0.0,0.0,0.0,0.0,0.0,0.0,0.0,0.0
433.0,1133.0,5288.212453328903,14532.89092998215,-0.0,0.0,0.0,0.0,30684.863234610635,0.0,0.0,0.0,30684.863234610642,0.0,0.2611437543581386,0.8,0.0,0.0,0.0,"[2.0, 2.0, 2.0, 2.0, 2.0, 1.8110065499295516, 2.0, 2.0]",20.33,0.0,0.0,0.0,265.56602318982806,30.12945338417351,-1539.5399461866161,-1630.845745218597,4140.961967840427,0.0,0.0,0.0,0.0,0.0,0.0,-9.9,19.64355407826209,0.0,18.81528921523307,0.0,-9.9,20.33,15.64,21.99,18.46,21.08,-10.6,-9.9,0.0,-1074.51,-4332.42,0.0,80.0,0.0,153.0,0.0,0.0,0.0,0.0,0.0,0.0,0.0,0.0,0.0,0.0,0.0,0.0,0.0,0.0
434.0,824.0,51634.03229128567,52044.95376322576,-0.0,0.0,-8489.795918367347,0.0,34849.74070017973,0.0,-80000.0,0.0,114849.74070017974,0.3466666666666667,0.5878104210248053,0.8,0.0,0.0,0.0,"[2.0, 2.0, 2.0, 2.0, 2.0, 1.8110065499295516, 2.0, 2.0]",21.84,0.0,0.0,0.0,315.92828763613215,31.29922229835443,-1657.2842723098522,-3848.420986186428,0.0,0.0,0.0,0.0,0.0,0.0,0.0,-10.7,20.095880083714853,0.0,18.83244104617823,0.0,-10.7,21.84,15.67,21.99,19.97,22.2,-11.36,-10.7,0.0,-1156.69,-4663.76,0.0,80.0,0.0,190.0,0.0,0.0,0.0,0.0,0.0,0.0,0.0,0.0,0.0,0.0,0.0,0.0,0.0,0.0
435.0,711.0,35909.12493506951,21886.209742633964,-0.0,0.0,-16000.0,0.0,48505.84743450134,0.0,0.0,0.0,48505.84743450134,1.0,0.5878104210248053,0.8,0.0,0.0,0.0,"[2.0, 2.0, 2.0, 2.0, 2.0, 1.8110065499295516, 2.0, 2.0]",20.0,0.0,0.0,0.0,279.1774460131535,30.44560714476295,-1588.8487039645543,-1258.0149193569457,10140.266703100247,0.0,0.0,0.0,0.0,0.0,0.0,-11.2,19.494094076772516,0.0,18.75163340175313,0.0,-11.2,20.0,15.64,21.86,18.6,21.13,-11.87,-11.2,3241.06,-1108.93,-4471.18,0.0,80.0,0.0,163.0,0.0,0.0,0.0,0.0,0.0,0.0,0.0,0.0,0.0,0.0,0.0,0.0,0.0,0.0
436.0,722.0,13074.948086788658,11184.573346354715,-0.0,0.0,0.0,0.0,23935.076367702077,0.0,0.0,0.0,23935.07636770208,1.0,0.5878104210248053,0.8,0.0,0.0,0.0,"[2.0, 2.0, 2.0, 2.0, 2.0, 1.8110065499295516, 2.0, 2.0]",24.0,0.0,0.0,0.0,109.03466072158574,26.493685137394966,-1812.9171109339143,-6909.383737786176,7902.044725284013,0.0,0.0,0.0,0.0,0.0,0.0,-11.6,20.788901801414433,0.0,18.924678814851816,0.0,-11.6,24.0,15.78,22.07,21.53,23.36,-12.26,-11.6,0.0,-1265.31,-5101.73,0.0,80.0,0.0,38.0,0.0,0.0,0.0,0.0,0.0,0.0,0.0,0.0,0.0,0.0,0.0,0.0,0.0,0.0
437.0,550.0,16303.448895757727,11795.931651278937,-0.0,0.0,0.0,0.0,24568.662608509945,0.0,0.0,0.0,24568.66260850995,1.0,0.5878104210248053,0.7421768707482994,0.0,0.0,0.0,"[2.0, 2.0, 2.0, 2.0, 2.0, 1.8110065499295516, 2.0, 2.0]",24.0,0.0,0.0,0.0,132.17407952123892,27.031146530397006,-1833.2869661129473,-6639.835095553845,0.0,0.0,0.0,0.0,0.0,0.0,0.0,-12.0,20.919719120195463,0.0,19.100909754617735,0.0,-12.0,24.0,15.9,22.3,21.16,23.17,-12.62,-12.0,0.0,-1279.53,-5159.05,0.0,80.0,0.0,55.0,0.0,0.0,0.0,0.0,0.0,0.0,0.0,0.0,0.0,0.0,0.0,0.0,0.0,0.0
438.0,1201.0,6294.28309236457,5061.8116769027465,-0.0,0.0,0.0,0.0,6971.853121349664,0.0,0.0,0.0,6971.853121349664,0.618591256415848,0.5878104210248053,0.7421768707482994,0.0,0.0,0.0,"[2.5543532161204503, 2.052476090243516, 2.1749822558782164, 1.86385192293951, 2.3781936811854365, 1.8110065499295516, 2.194133004339914, 2.0]",20.9,0.0,0.0,0.0,164.6265770947464,48.75090988289145,-1695.711252230599,-2184.468960237994,651.4974152940018,0.0,0.0,0.0,0.0,0.0,0.0,-12.4,19.953167831663137,0.0,19.019726049141106,0.0,-12.4,20.9,15.85,22.19,18.81,21.39,-13.0,-12.4,837.83,-1183.51,-4771.9,0.0,150.0,0.0,42.0,0.0,0.0,0.0,0.0,0.0,0.0,0.0,0.0,0.0,0.0,0.0,0.0,0.0,0.0
439.0,893.0,897.4874371859297,0.0,-0.0,0.0,0.0,0.0,42039.04704170055,0.0,42039.04704170055,0.0,0.0,0.618591256415848,0.4090729761196159,0.7421768707482994,0.0,0.0,0.0,"[2.5543532161204503, 2.052476090243516, 2.1749822558782164, 1.86385192293951, 2.3781936811854365, 1.8110065499295516, 2.194133004339914, 2.0]",19.45,0.0,0.0,0.0,51.723406728636604,1.2013842902398641,-1637.0054240599156,-398.57976608889305,2232.774092092711,0.0,0.0,0.0,0.0,0.0,0.0,-12.7,19.35597030433439,0.0,18.77556725322347,0.0,-12.7,19.45,15.61,21.94,18.13,20.82,-13.3,-12.7,8181.13,-1142.54,-4606.7,0.0,0.0,0.0,38.0,0.0,0.0,0.0,0.0,0.0,0.0,0.0,0.0,0.0,0.0,0.0,0.0,0.0,0.0
440.0,3731.0,45341.74683954634,41384.038105348605,-0.0,0.0,0.0,0.0,55816.453310166515,0.0,0.0,0.0,55816.45331016652,0.618591256415848,0.4090729761196159,0.7421768707482994,0.0,0.0,0.0,"[2.5543532161204503, 2.052476090243516, 2.1749822558782164, 1.86385192293951, 2.3781936811854365, 1.8110065499295516, 2.194133004339914, 2.0]",19.57,0.0,0.0,2.6883718493641986,74.8628255282898,1.7388456832419132,-1643.1305367851492,-920.1198713652477,11950.519125571953,0.0,0.0,0.0,0.0,0.0,0.0,-12.7,19.225653288753886,0.0,18.541414050565503,0.0,-12.7,19.57,15.37,21.71,18.22,20.83,-13.29,-12.7,11601.7,-1146.81,-4623.93,4.25,0.0,0.0,55.0,0.0,0.0,0.0,0.0,0.0,0.0,0.0,0.0,0.0,0.0,0.0,0.0,0.0,0.0
441.0,1863.0,0.0,10310.799238199226,-0.0,0.0,12173.799238199226,0.0,21446.283231884234,0.0,7244.771512184165,0.0,14201.511719700069,0.10099775139037072,0.3782703761528465,0.7421768707482994,0.0,0.0,0.0,"[2.5543532161204503, 2.052476090243516, 2.1749822558782164, 1.86385192293951, 2.3781936811854365, 1.8110065499295516, 2.194133004339914, 2.0]",24.12,0.0,0.0,16.239739577307706,62.61254498729695,1.4543072987114152,-1859.781934017214,-7465.181056080716,680.0287153991719,0.0,0.0,0.0,0.0,0.0,0.0,-12.4,20.6444202950088,0.0,18.648382676455135,0.0,-12.4,24.12,15.37,21.93,21.42,23.3,-12.99,-12.4,0.0,-1298.02,-5233.61,25.68,0.0,0.0,46.0,0.0,0.0,0.0,0.0,0.0,0.0,0.0,0.0,0.0,0.0,0.0,0.0,0.0,0.0
442.0,2376.0,0.0,0.0,-0.0,0.5328872984806012,2375.4671127015195,0.0,61406.42963055423,0.0,61406.42963055423,0.0,0.0,0.0,0.11718861751953769,0.7421768707482994,0.0,0.0,0.0,"[2.5543532161204503, 2.052476090243516, 2.1749822558782164, 1.86385192293951, 2.3781936811854365, 1.8110065499295516, 2.194133004339914, 2.0]",20.0,0.0,0.0,24.222421919531772,58.52911814029932,1.359461170534585,-1644.8658057068942,-1564.0168688318884,12590.602805529694,0.0,0.0,0.0,0.0,0.0,0.0,-12.3,19.349995464420996,0.0,18.515700755671656,0.0,-12.3,20.0,15.22,21.82,18.16,20.88,-12.87,-12.3,12551.4,-1148.02,-4628.82,38.31,0.0,0.0,43.0,0.0,0.0,0.0,0.0,0.0,0.0,0.0,0.0,0.0,0.0,0.0,0.0,0.0,0.0
443.0,1616.0,35447.26519429468,17659.0511011034,-0.0,5.022232780188122,-16000.0,0.0,24827.625698850403,0.0,0.0,0.0,24827.62569885041,0.6533333333333333,0.11718861751953769,0.7421768707482994,0.0,0.0,0.0,"[2.5543532161204503, 2.052476090243516, 2.1749822558782164, 1.86385192293951, 2.3781936811854365, 1.8110065499295516, 2.194133004339914, 2.0]",24.55,0.0,0.0,35.11014413112856,80.30739465761998,1.865307187477687,-1866.609666733717,-8052.000280564871,333.8786532954825,0.0,0.0,0.0,0.0,0.0,0.0,-12.1,20.79652793935046,0.0,18.66246330712798,0.0,-12.1,24.55,15.26,22.07,21.66,23.58,-12.66,-12.1,9692.26,-1302.79,-5252.82,55.53,0.0,0.0,59.0,0.0,0.0,0.0,0.0,0.0,0.0,0.0,0.0,0.0,0.0,0.0,0.0,0.0,0.0
444.0,3847.0,32917.20914296298,28914.194890908722,-0.0,8.571793660558281,0.0,0.0,40927.368307112665,0.0,0.0,0.0,40927.368307112665,0.6533333333333333,0.11718861751953769,0.7421768707482994,0.0,0.0,0.0,"[2.5543532161204503, 2.052476090243516, 2.1749822558782164, 1.86385192293951, 2.3781936811854365, 1.8110065499295516, 2.194133004339914, 2.0]",20.0,0.0,0.0,39.22658026136524,62.61254498729695,1.4543072987114152,-1629.5884143226199,-1506.0695545222618,12497.721827198338,0.0,0.0,0.0,0.0,0.0,0.0,-12.0,19.377025040588162,0.0,18.534335065307022,0.0,-12.0,20.0,15.12,21.95,18.09,20.93,-12.59,-12.0,0.0,-1137.36,-4585.82,62.04,0.0,0.0,46.0,0.0,0.0,0.0,0.0,0.0,0.0,0.0,0.0,0.0,0.0,0.0,0.0,0.0,0.0
445.0,1660.0,19542.684478322077,31404.089293488938,-0.0,14278.843352094083,-659.7251145356099,0.0,49241.91287769594,0.0,0.0,0.0,49241.91287769594,0.6802721088435374,0.11718861751953769,0.7421768707482994,0.0,0.0,0.0,"[2.5543532161204503, 2.052476090243516, 2.1749822558782164, 1.86385192293951, 2.3781936811854365, 1.8110065499295516, 2.194133004339914, 2.0]",24.55,0.0,0.0,1073.6421941409478,51.723406728636604,1.2013842902398641,-1780.0377822228281,-7986.031395095826,8607.75133512605,0.0,0.0,0.0,0.0,0.0,0.0,-10.4,20.820975184884368,0.0,18.679695437814793,0.0,-10.4,24.55,15.17,22.19,21.63,23.65,-10.33,-10.4,0.0,-1242.37,-5009.2,1697.97,0.0,0.0,38.0,0.0,0.0,0.0,0.0,0.0,0.0,0.0,0.0,0.0,0.0,0.0,0.0,0.0,0.0
446.0,3256.0,80738.76625107853,84602.453102447,-0.0,12980.65668262387,0.0,0.0,36474.14103703871,27286.38,-80000.0,0.0,138303.2450370387,0.6802721088435374,0.4438552841862044,0.7421768707482994,21829.104000000003,5457.276000000001,27286.38,"[2.5543532161204503, 2.052476090243516, 2.1749822558782164, 1.86385192293951, 2.3781936811854365, 1.8110065499295516, 2.194133004339914, 2.0]",24.55,0.0,0.0,1089.5139917803629,74.8628255282898,1.7388456832419132,-1744.3905356595205,-7608.789689405468,8155.1076958964095,0.0,0.0,0.0,0.0,0.0,0.0,-9.7,21.00023974820957,0.0,18.917087526426307,0.0,-9.7,24.55,15.32,22.51,21.6,23.78,-9.61,-9.7,10756.41,-1217.49,-4908.89,1723.08,0.0,0.0,55.0,0.0,0.0,0.0,0.0,0.0,0.0,0.0,0.0,0.0,0.0,0.0,0.0,0.0,0.0
447.0,1847.0,15791.684985470598,19756.00212567408,-0.0,5890.275565130835,0.0,0.0,32107.640791432626,0.0,0.0,0.0,32107.640791432626,0.6802721088435374,0.4438552841862044,0.6843537414965983,0.0,0.0,0.0,"[2.5543532161204503, 2.052476090243516, 2.1749822558782164, 1.86385192293951, 2.3781936811854365, 1.8110065499295516, 2.194133004339914, 2.0]",24.55,0.0,0.0,639.8080780080371,57.16797585796678,1.3278457944756417,-1749.4829994542788,-7270.080181240762,0.0,0.0,0.0,0.0,0.0,0.0,0.0,-9.8,21.164746903895484,0.0,19.13685678355754,0.0,-9.8,24.55,15.47,22.81,21.65,23.94,-10.11,-9.8,0.0,-1221.04,-4923.22,1011.86,0.0,0.0,42.0,0.0,0.0,0.0,0.0,0.0,0.0,0.0,0.0,0.0,0.0,0.0,0.0,0.0,0.0
448.0,1531.0,13844.770636690135,12244.546783506685,-0.0,0.0,0.0,0.0,19082.835642693815,0.0,0.0,0.0,19082.835642693815,0.6802721088435374,0.4438552841862044,0.6843537414965983,0.0,0.0,0.0,"[2.5543532161204503, 2.052476090243516, 2.1749822558782164, 1.86385192293951, 2.3781936811854365, 1.8110065499295516, 2.194133004339914, 2.0]",20.56,0.0,0.0,1.3435342336202794,51.723406728636604,1.2013842902398641,-1581.7188153160873,-1526.3558122472837,737.6421196067926,0.0,0.0,0.0,0.0,0.0,0.0,-10.5,19.92541137629822,0.0,19.038387768934857,0.0,-10.5,20.56,15.39,22.68,18.71,21.72,-11.44,-10.5,311.6,-1103.95,-4451.11,2.12,0.0,0.0,38.0,0.0,0.0,0.0,0.0,0.0,0.0,0.0,0.0,0.0,0.0,0.0,0.0,0.0,0.0
449.0,5289.0,7194.661174090749,17869.687868220295,-0.0,0.0,16000.0,0.0,27168.055684935785,0.0,0.0,0.0,27168.05568493578,0.0,0.4438552841862044,0.6843537414965983,0.0,0.0,0.0,"[2.5543532161204503, 2.052476090243516, 2.1749822558782164, 1.86385192293951, 2.3781936811854365, 1.8110065499295516, 2.194133004339914, 2.0]",19.45,0.0,0.0,0.0,74.8628255282898,1.7388456832419132,-1545.3410757542683,-260.9423187295852,8380.087479418095,0.0,0.0,0.0,0.0,0.0,0.0,-10.9,19.417526221199658,0.0,18.79092525106466,0.0,-10.9,19.45,15.21,22.37,17.99,21.05,-11.81,-10.9,11570.37,-1078.56,-4348.74,0.0,0.0,0.0,55.0,0.0,0.0,0.0,0.0,0.0,0.0,0.0,0.0,0.0,0.0,0.0,0.0,0.0,0.0
450.0,2592.0,85081.36366412915,66063.95684580851,-0.0,0.0,-16000.0,0.0,17290.83750864321,0.0,-80000.0,0.0,97290.8375086432,0.6533333333333333,0.7705219508528711,0.6843537414965983,0.0,0.0,0.0,"[2.5543532161204467, 2.0524760902435126, 2.1749822558782164, 1.86385192293951, 2.279649890275877, 1.8110065499295516, 2.194133004339914, 0.5585132296297566]",22.65,0.0,0.0,0.0,86.82654979931797,11.634458389691344,-1733.7343631530816,-5013.919916896291,0.0,0.0,0.0,0.0,0.0,0.0,0.0,-11.4,20.34185653676041,0.0,18.77359634202444,0.0,-11.4,22.65,15.17,22.38,20.3,22.77,-12.31,-11.4,0.0,-1210.05,-4878.9,0.0,0.0,17.0,62.0,0.0,0.0,0.0,0.0,0.0,0.0,0.0,0.0,0.0,0.0,0.0,0.0,0.0,0.0
451.0,4416.0,4438.19095477387,0.0,-0.0,0.0,0.0,0.0,34064.641402576446,0.0,34064.64140257645,0.0,0.0,0.6533333333333333,0.6256892918283113,0.6843537414965983,0.0,0.0,0.0,"[2.5543532161204467, 2.0524760902435126, 2.1749822558782164, 1.86385192293951, 2.279649890275877, 1.8110065499295516, 2.194133004339914, 0.5585132296297566]",19.45,0.0,0.0,0.0,576.1930198316124,110.55897007812672,-1591.1732499070922,-595.1637548708705,1509.6087915728149,0.0,0.0,0.0,0.0,0.0,0.0,-11.8,19.259440729391994,0.0,18.570368370559404,0.0,-11.8,19.45,15.0,22.14,17.78,20.83,-12.68,-11.8,0.0,-1110.55,-4477.72,0.0,128.0,104.0,345.0,0.0,0.0,0.0,0.0,0.0,0.0,0.0,0.0,0.0,0.0,0.0,0.0,0.0,0.0
452.0,4395.0,52232.75578267337,0.0,-0.0,0.0,0.0,0.0,42818.932803383985,0.0,0.0,0.0,0.0,0.6533333333333333,0.6256892918283113,0.6843537414965983,190306.36801504,47576.59200376,237882.9600188,"[2.5543532161204467, 2.0524760902435126, 2.1749822558782164, 1.86385192293951, 2.279649890275877, 1.8110065499295516, 2.194133004339914, 0.5585132296297566]",19.45,0.0,0.0,0.0,814.8943927122457,146.8534217937943,-1616.6355688808828,-950.1643622771749,9397.351576159153,0.0,0.0,0.0,0.0,0.0,0.0,-12.3,19.09032281208656,0.0,18.338476367585155,0.0,-12.3,19.45,14.81,21.87,17.89,20.81,-13.21,-12.3,8874.16,-1128.32,-4549.37,0.0,89.0,179.0,533.0,0.0,0.0,0.0,0.0,0.0,0.0,0.0,0.0,0.0,0.0,0.0,0.0,0.0,0.0
453.0,3720.0,0.0,0.0,-0.0,0.0,3720.0,0.0,57447.91357808242,0.0,57447.91357808243,0.0,0.0,0.49517006802721086,0.381437958588165,0.6843537414965983,0.0,0.0,0.0,"[2.5543532161204467, 2.0524760902435126, 2.1749822558782164, 1.86385192293951, 2.279649890275877, 1.8110065499295516, 2.194133004339914, 0.5585132296297566]",23.19,0.0,0.0,0.0,688.1648823203368,142.71180753007266,-1827.590429286946,-6404.542056296205,10253.95254096494,0.0,0.0,0.0,0.0,0.0,0.0,-12.7,20.221546046371177,0.0,18.383442586202275,0.0,-12.7,23.19,14.8,21.97,20.51,22.8,-13.59,-12.7,246.1,-1275.55,-5143.02,0.0,153.0,143.0,410.0,0.0,0.0,0.0,0.0,0.0,0.0,0.0,0.0,0.0,0.0,0.0,0.0,0.0,0.0
454.0,2576.0,0.0,916.7999999999993,-0.0,0.0,3492.7999999999993,0.0,26441.656466940185,0.0,25248.82908471453,0.0,1192.8273822256583,0.3466666666666667,0.27408749479261,0.6843537414965983,0.0,0.0,0.0,"[2.5543532161204467, 2.0524760902435126, 2.1749822558782164, 1.86385192293951, 2.279649890275877, 1.8110065499295516, 2.194133004339914, 0.5585132296297566]",24.55,0.0,0.0,0.0,329.6113495269487,96.71143536430928,-1922.6267684760567,-8134.50344761711,9639.575727724457,0.0,0.0,0.0,0.0,0.0,0.0,-13.2,20.761258404857426,0.0,18.56537683894402,0.0,-13.2,24.55,14.88,22.25,21.27,23.49,-14.08,-13.2,3074.06,-1341.88,-5410.46,0.0,150.0,78.0,155.0,0.0,0.0,0.0,0.0,0.0,0.0,0.0,0.0,0.0,0.0,0.0,0.0,0.0,0.0
455.0,2015.0,55514.32447884857,37221.752856454325,-0.0,0.0,-16000.0,0.0,47008.980507873595,0.0,0.0,0.0,47008.980507873595,1.0,0.27408749479261,0.6843537414965983,0.0,0.0,0.0,"[2.5543532161204467, 2.0524760902435126, 2.1749822558782164, 1.86385192293951, 2.279649890275877, 1.8110065499295516, 2.194133004339914, 0.5585132296297566]",24.55,0.0,0.0,0.0,272.44337366898196,51.12206308731224,-1942.9966236550895,-7845.28268496116,9469.348829518325,0.0,0.0,0.0,0.0,0.0,0.0,-13.6,20.901735136427607,0.0,18.747031045779867,0.0,-13.6,24.55,14.97,22.53,21.24,23.6,-14.51,-13.6,3205.12,-1356.1,-5467.79,0.0,108.0,22.0,141.0,0.0,0.0,0.0,0.0,0.0,0.0,0.0,0.0,0.0,0.0,0.0,0.0,0.0,0.0
456.0,1001.0,0.0,11673.814024852576,-0.0,0.0,12674.814024852576,0.0,14520.790475269165,0.0,0.0,0.0,14520.790475269168,0.4611048458821184,0.27408749479261,0.6843537414965983,0.0,0.0,0.0,"[2.5543532161204467, 2.0524760902435126, 2.1749822558782164, 1.86385192293951, 2.279649890275877, 1.8110065499295516, 2.194133004339914, 0.5585132296297566]",24.55,0.0,0.0,0.0,360.8459829531061,32.34252970829958,-1953.181551244606,-7589.176577686748,0.0,0.0,0.0,0.0,0.0,0.0,0.0,-13.8,21.025539806026256,0.0,18.906622939028374,0.0,-13.8,24.55,15.04,22.77,21.26,23.73,-14.7,-13.8,12143.38,-1363.21,-5496.45,0.0,80.0,0.0,223.0,0.0,0.0,0.0,0.0,0.0,0.0,0.0,0.0,0.0,0.0,0.0,0.0,0.0,0.0
457.0,1034.0,74756.35315805496,67981.20985035239,-0.0,0.0,-5367.361541912302,0.0,82616.01609999548,0.0,0.0,0.0,82616.0160999955,0.6802721088435374,0.27408749479261,0.5925170068027208,0.0,0.0,0.0,"[2.5543532161204467, 2.0524760902435126, 2.1749822558782164, 1.86385192293951, 2.279649890275877, 1.8110065499295516, 2.194133004339914, 0.5585132296297566]",20.15,0.0,0.0,0.0,364.9294098001037,32.43737583647641,-1744.2325967560016,-1334.9961471253023,11836.90481399643,0.0,0.0,0.0,0.0,0.0,0.0,-14.1,19.618504004454415,0.0,18.738511713578596,0.0,-14.1,20.15,14.89,22.59,18.09,21.33,-14.99,-14.1,9717.78,-1217.38,-4908.44,0.0,80.0,0.0,226.0,0.0,0.0,0.0,0.0,0.0,0.0,0.0,0.0,0.0,0.0,0.0,0.0,0.0,0.0
458.0,817.0,35988.46393193677,34991.52161227709,-0.0,0.0,0.0,0.0,41857.22947654133,0.0,0.0,0.0,41857.22947654133,0.6802721088435374,0.27408749479261,0.5925170068027208,0.0,0.0,0.0,"[2.5543532161204467, 2.0524760902435126, 2.1749822558782164, 1.86385192293951, 2.279649890275877, 1.8110065499295516, 2.194133004339914, 0.5585132296297566]",24.55,0.0,0.0,0.0,386.7076863174243,32.943221853419516,-1978.6438702183968,-7683.64629367141,0.0,0.0,0.0,0.0,0.0,0.0,0.0,-14.3,20.981618573065813,0.0,18.836269228178182,0.0,-14.3,24.55,14.92,22.75,21.5,23.92,-15.19,-14.3,572.42,-1380.98,-5568.1,0.0,80.0,0.0,242.0,0.0,0.0,0.0,0.0,0.0,0.0,0.0,0.0,0.0,0.0,0.0,0.0,0.0,0.0
459.0,754.0,68731.98037763828,67634.32047575008,-0.0,0.0,0.0,0.0,50048.970794571826,0.0,-30211.142348898604,0.0,80260.11314347043,0.6802721088435374,0.397449659383946,0.5925170068027208,0.0,0.0,0.0,"[2.5543532161204467, 2.0524760902435126, 2.1749822558782164, 1.86385192293951, 2.279649890275877, 1.8110065499295516, 2.194133004339914, 0.5585132296297566]",20.11,0.0,0.0,0.0,163.1221566774315,31.71022218712071,-1757.2186492166504,-1364.446882933901,1556.5912726666206,0.0,0.0,0.0,0.0,0.0,0.0,-14.4,19.56018762195509,0.0,18.66640659841199,0.0,-14.4,20.11,14.77,22.56,18.01,21.29,-15.3,-14.4,11797.94,-1226.44,-4944.99,0.0,80.0,7.0,77.0,0.0,0.0,0.0,0.0,0.0,0.0,0.0,0.0,0.0,0.0,0.0,0.0,0.0,0.0
460.0,617.0,0.0,15383.0,-0.0,0.0,16000.0,0.0,24738.326125077743,0.0,6630.320003075699,0.0,18108.006122002043,0.0,0.3692595233164473,0.5925170068027208,0.0,0.0,0.0,"[2.5543532161204467, 2.0524760902435126, 2.1749822558782164, 1.86385192293951, 2.279649890275877, 1.8110065499295516, 2.194133004339914, 0.5585132296297566]",19.45,0.0,0.0,0.0,113.69120010851286,28.864838341815755,-1728.6697723655632,-773.8133593121926,11829.031677172063,0.0,0.0,0.0,0.0,0.0,0.0,-14.5,19.1820704346923,0.0,18.4126570830945,0.0,-14.5,19.45,14.56,22.26,17.8,21.03,-15.43,-14.5,8184.62,-1206.51,-4864.65,0.0,80.0,4.0,41.0,0.0,0.0,0.0,0.0,0.0,0.0,0.0,0.0,0.0,0.0,0.0,0.0,0.0,0.0
461.0,511.0,37124.35981205788,36427.73801299759,-0.0,0.0,0.0,0.0,42533.416358826325,0.0,0.0,0.0,42533.41635882633,0.0,0.3692595233164473,0.5925170068027208,0.0,0.0,0.0,"[2.5543532161204467, 2.0524760902435126, 2.1749822558782164, 1.86385192293951, 2.279649890275877, 1.8110065499295516, 2.194133004339914, 0.5585132296297566]",24.0,0.0,0.0,0.0,125.5832853120498,33.10129873371424,-1965.69102477666,-7372.513935157197,868.2892656506226,0.0,0.0,0.0,0.0,0.0,0.0,-14.6,20.576262533847817,0.0,18.492727776879164,0.0,-14.6,24.0,14.58,22.41,21.06,23.51,-15.52,-14.6,9387.48,-1371.94,-5531.65,0.0,80.0,11.0,49.0,0.0,0.0,0.0,0.0,0.0,0.0,0.0,0.0,0.0,0.0,0.0,0.0,0.0,0.0
462.0,787.0,0.0,0.0,-0.0,0.0,787.0,0.0,73904.53286517202,0.0,73904.53286517202,0.0,0.0,0.594258724489796,0.05503957065840298,0.5925170068027208,0.0,0.0,0.0,"[2.5543532161204467, 2.0524760902435126, 2.1749822558782164, 1.86385192293951, 2.2796498902758735, 1.8110065499295516, 2.1941330043399034, 0.5585132296297566]",20.0,0.0,0.0,0.0,188.9122209742586,91.77943669911406,-1767.0849367810906,-1686.7924043125136,12647.994389653166,0.0,0.0,0.0,0.0,0.0,0.0,-14.7,19.299404979492646,0.0,18.341256593835976,0.0,-14.7,20.0,14.44,22.24,17.89,21.12,-15.59,-14.7,0.0,-1233.32,-4972.75,0.0,152.0,74.0,51.0,0.0,0.0,0.0,0.0,0.0,0.0,0.0,0.0,0.0,0.0,0.0,0.0,0.0,0.0
463.0,911.0,27828.407016525573,16841.743948539992,-0.0,0.0,-9936.521032902954,0.0,19504.04277853685,0.0,0.0,0.0,19504.042778536852,1.0,0.05503957065840298,0.5925170068027208,0.0,0.0,0.0,"[2.5543532161204467, 2.0524760902435126, 2.1749822558782164, 1.86385192293951, 2.2796498902758735, 1.8110065499295516, 2.1941330043399034, 0.5585132296297566]",24.55,0.0,0.0,0.0,146.64517115445858,102.21251079856556,-1999.0137253974294,-8206.49134069048,1511.3684312642406,0.0,0.0,0.0,0.0,0.0,0.0,-14.7,20.731410540419272,0.0,18.472536024212147,0.0,-14.7,24.55,14.5,22.45,21.4,23.79,-15.62,-14.7,2336.54,-1395.2,-5625.42,0.0,90.0,127.0,47.0,0.0,0.0,0.0,0.0,0.0,0.0,0.0,0.0,0.0,0.0,0.0,0.0,0.0,0.0
464.0,1844.0,0.0,14156.0,-0.0,0.0,16000.0,0.0,17203.464405620223,0.0,0.0,0.0,17203.464405620223,0.3197278911564626,0.05503957065840298,0.5925170068027208,0.0,0.0,0.0,"[2.5543532161204467, 2.0524760902435126, 2.1749822558782164, 1.86385192293951, 2.2796498902758735, 1.8110065499295516, 2.1941330043399034, 0.5585132296297566]",20.49,0.0,0.0,11.29934896631609,164.6982161622376,80.96697808695528,-1761.3227056020235,-2350.659503721585,1697.797925375142,0.0,0.0,0.0,0.0,0.0,0.0,-14.1,19.466517384599975,0.0,18.364261196966613,0.0,-14.1,20.49,14.39,22.34,18.2,21.41,-14.99,-14.1,2870.29,-1229.3,-4956.54,17.87,114.0,76.0,53.0,0.0,0.0,0.0,0.0,0.0,0.0,0.0,0.0,0.0,0.0,0.0,0.0,0.0,0.0
465.0,1181.0,19056.153244420428,25691.31233050673,-0.0,7911.439852308405,0.0,0.0,40529.14703353163,0.0,0.0,0.0,40529.14703353163,0.3197278911564626,0.05503957065840298,0.5925170068027208,0.0,0.0,0.0,"[2.5543532161204467, 2.0524760902435126, 2.1749822558782164, 1.86385192293951, 2.2796498902758735, 1.8110065499295516, 2.1941330043399034, 0.5585132296297566]",19.45,0.0,0.0,1201.8420859076764,157.60594848061015,49.319986651952426,-1514.7862929857192,-1113.4465647875506,10651.76838560194,0.0,0.0,0.0,0.0,0.0,0.0,-10.3,19.001830048638357,0.0,18.14557181723071,0.0,-10.3,19.45,14.22,22.07,17.67,20.91,-10.03,-10.3,8080.7,-1057.23,-4262.76,1900.72,126.0,14.0,48.0,0.0,0.0,0.0,0.0,0.0,0.0,0.0,0.0,0.0,0.0,0.0,0.0,0.0,0.0
466.0,3678.0,246.02819032116352,18602.06865441574,-0.0,14515.270605046182,7520.000000000001,0.0,35375.09488959971,0.0,0.0,0.0,35375.09488959972,0.0,0.05503957065840298,0.5925170068027208,0.0,0.0,0.0,"[2.5543532161204467, 2.0524760902435126, 2.1749822558782164, 1.86385192293951, 2.2796498902758735, 1.8110065499295516, 2.1941330043399034, 0.5585132296297566]",24.0,0.0,0.0,1603.6838866392454,65.33482955196202,1.5175380508293057,-1573.5713125802797,-7548.64115590893,0.0,0.0,0.0,0.0,0.0,0.0,0.0,-6.9,20.462674716290273,0.0,18.325990369356873,0.0,-6.9,24.0,14.38,22.28,21.25,23.63,-6.27,-6.9,6163.3,-1098.26,-4428.19,2536.24,0.0,0.0,48.0,0.0,0.0,0.0,0.0,0.0,0.0,0.0,0.0,0.0,0.0,0.0,0.0,0.0,0.0
467.0,3730.0,19007.651642163066,17516.49932297887,-0.0,17863.960063439175,-15530.074124412557,0.0,37819.428900707426,0.0,0.0,0.0,37819.42890070742,0.6341446934135128,0.05503957065840298,0.5925170068027208,0.0,0.0,0.0,"[2.5543532161204467, 2.0524760902435126, 2.1749822558782164, 1.86385192293951, 2.2796498902758735, 1.8110065499295516, 2.1941330043399034, 0.5585132296297566]",20.44,0.0,0.0,1678.310855665831,55.80683357563422,1.2962304184166982,-1254.7304047345979,-2265.419045457798,10288.806525840895,0.0,0.0,0.0,0.0,0.0,0.0,-4.2,19.42351886111195,0.0,18.33833391673901,0.0,-4.2,20.44,14.45,22.22,18.53,21.59,-3.45,-4.2,0.0,-875.73,-3530.94,2654.26,0.0,0.0,41.0,0.0,0.0,0.0,0.0,0.0,0.0,0.0,0.0,0.0,0.0,0.0,0.0,0.0,0.0
468.0,2901.0,35895.55965275501,51653.575475021265,-0.0,18838.493620530033,0.0,0.0,39895.22277189971,0.0,-80000.0,0.0,119895.22277189972,0.6341446934135128,0.3817062373250697,0.5925170068027208,0.0,0.0,0.0,"[2.5543532161204467, 2.0524760902435126, 2.1749822558782164, 1.86385192293951, 2.2796498902758735, 1.8110065499295516, 2.1941330043399034, 0.5585132296297566]",24.55,0.0,0.0,1678.2888865872414,61.25140270496439,1.4226919226524717,-1377.733142436931,-7928.932153995743,7516.435614958204,0.0,0.0,0.0,0.0,0.0,0.0,-2.5,20.82207157373151,0.0,18.617534328687128,0.0,-2.5,24.55,14.74,22.49,21.76,24.05,-1.86,-2.5,0.0,-961.58,-3877.08,2654.23,0.0,0.0,45.0,0.0,0.0,0.0,0.0,0.0,0.0,0.0,0.0,0.0,0.0,0.0,0.0,0.0,0.0
469.0,2186.0,0.0,6087.002880803773,-0.0,17232.724674758563,-8959.72179395479,0.0,14534.995751557242,0.0,0.0,0.0,14534.995751557246,1.0,0.3817062373250697,0.5925170068027208,0.0,0.0,0.0,"[2.5543532161204467, 2.0524760902435126, 2.1749822558782164, 1.86385192293951, 2.2796498902758735, 1.8110065499295516, 2.1941330043399034, 0.5585132296297566]",24.55,0.0,0.0,1517.3593345316676,125.86984158201454,31.077914665941826,-1342.0858958736237,-7459.716576733352,0.0,0.0,0.0,0.0,0.0,0.0,0.0,-1.8,21.046198662283995,0.0,18.93530127959439,0.0,-1.8,24.55,15.07,22.81,21.59,24.01,-1.35,-1.8,0.0,-936.7,-3776.76,2399.72,94.0,0.0,43.0,0.0,0.0,0.0,0.0,0.0,0.0,0.0,0.0,0.0,0.0,0.0,0.0,0.0,0.0
470.0,2976.0,9193.910687252572,20002.498768478003,-0.0,13830.557634661694,0.0,0.0,39664.92910461522,0.0,-7717.1371774438985,0.0,47382.06628205911,1.0,0.4132178807996323,0.5925170068027208,0.0,0.0,0.0,"[2.5543532161204467, 2.0524760902435126, 2.1749822558782164, 1.86385192293951, 2.2796498902758735, 1.8110065499295516, 2.1941330043399034, 0.5585132296297566]",21.15,0.0,0.0,1226.0476619027352,53.08454901096915,1.2329996662988074,-1178.6726717054366,-2374.9076860524624,0.0,0.0,0.0,0.0,0.0,0.0,0.0,-2.0,20.074370119711215,0.0,18.984777048889946,0.0,-2.0,21.15,15.21,22.76,19.21,22.18,-1.8,-2.0,888.99,-822.65,-3316.9,1939.01,0.0,0.0,39.0,0.0,0.0,0.0,0.0,0.0,0.0,0.0,0.0,0.0,0.0,0.0,0.0,0.0,0.0
471.0,1789.0,8081.685445312717,12595.857061363025,-0.0,6343.580043276872,0.0,0.0,27795.795995427332,0.0,0.0,0.0,27795.795995427332,1.0,0.4132178807996323,0.5925170068027208,0.0,0.0,0.0,"[2.5543532161204467, 2.0524760902435126, 2.1749822558782164, 1.86385192293951, 2.2796498902758735, 1.8110065499295516, 2.1941330043399034, 0.5585132296297566]",20.07,0.0,0.0,686.5166796468661,61.25140270496439,1.4226919226524717,-1210.4323060286952,-952.5529636494357,1250.0782165105547,0.0,0.0,0.0,0.0,0.0,0.0,-3.7,19.685559832541994,0.0,18.90081363806626,0.0,-3.7,20.07,15.25,22.55,18.63,21.63,-3.91,-3.7,0.0,-844.81,-3406.28,1085.73,0.0,0.0,45.0,0.0,0.0,0.0,0.0,0.0,0.0,0.0,0.0,0.0,0.0,0.0,0.0,0.0,0.0
472.0,1508.0,0.0,11442.225852107855,-0.0,0.0,12950.225852107855,0.0,22850.221031677327,0.0,0.0,0.0,22850.221031677327,0.44939515934915586,0.4132178807996323,0.5925170068027208,0.0,0.0,0.0,"[2.5543532161204467, 2.0524760902435126, 2.1749822558782164, 1.86385192293951, 2.2796498902758735, 1.8110065499295516, 2.1941330043399034, 0.5585132296297566]",20.0,0.0,0.0,1.3435193018911995,66.69597183429457,1.5491534268882492,-1318.9481228423706,-1079.6933776042715,11795.637693512463,0.0,0.0,0.0,0.0,0.0,0.0,-5.9,19.56393817763572,0.0,18.775560612527094,0.0,-5.9,20.0,15.23,22.32,18.53,21.43,-6.75,-5.9,9170.7,-920.55,-3711.65,2.12,0.0,0.0,49.0,0.0,0.0,0.0,0.0,0.0,0.0,0.0,0.0,0.0,0.0,0.0,0.0,0.0,0.0
473.0,3565.0,3582.9145728643216,0.0,-0.0,0.0,0.0,0.0,37116.93057617264,0.0,37116.93057617264,0.0,0.0,0.44939515934915586,0.25540780181930645,0.5925170068027208,0.0,0.0,0.0,"[2.5543532161204467, 2.0524760902435126, 2.1749822558782164, 1.86385192293951, 2.2796498902758735, 1.8110065499295516, 2.1941330043399034, 0.5585132296297566]",24.55,0.0,0.0,0.0,62.61254498729695,1.4543072987114152,-1555.9693752534674,-7565.795779458286,0.0,0.0,0.0,0.0,0.0,0.0,0.0,-6.0,21.01226154808765,0.0,18.938642852288073,0.0,-6.0,24.55,15.37,22.51,21.65,23.79,-6.83,-6.0,7829.5,-1085.98,-4378.65,0.0,0.0,0.0,46.0,0.0,0.0,0.0,0.0,0.0,0.0,0.0,0.0,0.0,0.0,0.0,0.0,0.0,0.0
474.0,2097.0,24969.845659374256,6747.996431077384,-0.0,0.0,-16000.0,0.0,13411.47477049227,0.0,0.0,0.0,13411.47477049227,1.0,0.20108329457334212,0.5925170068027208,0.0,0.0,0.0,"[2.554353216120443, 2.0524760902435126, 1.9077718070049876, 1.86385192293951, 2.2796498902758735, 1.8110065499295516, 2.1941330043399034, 0.5585132296297566]",20.2,0.0,0.0,0.0,55.80683357563422,1.2962304184166982,-1334.0526864271915,-1286.235444950633,1002.3898357623992,0.0,0.0,0.0,0.0,0.0,0.0,-6.0,19.661955684485896,0.0,18.83855783464104,0.0,-6.0,20.2,15.33,22.35,18.26,21.22,-6.8,-6.0,0.0,-931.09,-3754.16,0.0,0.0,0.0,41.0,0.0,0.0,0.0,0.0,0.0,0.0,0.0,0.0,0.0,0.0,0.0,0.0,0.0,0.0
475.0,3045.0,47370.981052616335,44089.12614735325,-0.0,0.0,0.0,0.0,49416.89949201753,0.0,-37788.825010319284,0.0,87205.72450233682,1.0,0.3553876633654792,0.5925170068027208,0.0,0.0,0.0,"[2.554353216120443, 2.0524760902435126, 1.9077718070049876, 1.86385192293951, 2.2796498902758735, 1.8110065499295516, 2.1941330043399034, 0.5585132296297566]",19.45,0.0,0.0,0.0,69.41825639895964,1.6123841790061357,-1300.9028136058757,-488.4917748387041,11184.997700950697,0.0,0.0,0.0,0.0,0.0,0.0,-6.1,19.292615083016557,0.0,18.64132758292071,0.0,-6.1,19.45,15.21,22.07,17.99,20.89,-6.86,-6.1,0.0,-907.96,-3660.87,0.0,0.0,0.0,51.0,0.0,0.0,0.0,0.0,0.0,0.0,0.0,0.0,0.0,0.0,0.0,0.0,0.0,0.0
476.0,3421.0,0.0,0.0,-0.0,0.0,3421.0,0.0,29598.00546306165,0.0,29598.005463061654,0.0,0.0,0.8545493197278912,0.22954580340348243,0.5925170068027208,0.0,0.0,0.0,"[2.554353216120443, 2.0524760902435126, 1.9077718070049876, 1.86385192293951, 2.2796498902758735, 1.8110065499295516, 2.1941330043399034, 0.5585132296297566]",24.0,0.0,0.0,0.0,71.20923308623931,3.3512298622480494,-1532.8316022222143,-7021.690604549758,166.0333576698065,0.0,0.0,0.0,0.0,0.0,0.0,-6.1,20.718024594120525,0.0,18.772115002648768,0.0,-6.1,24.0,15.32,22.22,21.28,23.37,-6.86,-6.1,4276.62,-1069.83,-4313.54,0.0,0.0,3.0,52.0,0.0,0.0,0.0,0.0,0.0,0.0,0.0,0.0,0.0,0.0,0.0,0.0,0.0,0.0
477.0,4417.0,14122.754029459757,14880.983078268418,-0.0,0.0,5245.842818955961,0.0,29291.853129479106,0.0,0.0,0.0,29291.85312947911,0.631511784908335,0.22954580340348243,0.5925170068027208,0.0,0.0,0.0,"[2.554353216120443, 2.0524760902435126, 1.9077718070049876, 1.86385192293951, 2.2796498902758735, 1.8110065499295516, 2.1941330043399034, 0.5585132296297566]",20.0,0.0,0.0,0.0,443.1592715004792,74.42259524275387,-1334.225514226645,-1275.3399081290606,11565.218612028182,0.0,0.0,0.0,0.0,0.0,0.0,-6.2,19.470437112143152,0.0,18.66828754305362,0.0,-6.2,20.0,15.27,22.07,18.14,20.99,-6.95,-6.2,8841.27,-931.21,-3754.64,0.0,165.0,26.0,236.0,0.0,0.0,0.0,0.0,0.0,0.0,0.0,0.0,0.0,0.0,0.0,0.0,0.0,0.0
478.0,3244.0,0.0,11609.157181044042,-0.0,0.0,14853.157181044042,0.0,22740.889663716123,0.0,0.0,0.0,22740.889663716123,0.0,0.22954580340348243,0.5925170068027208,0.0,0.0,0.0,"[2.554353216120443, 2.0524760902435126, 1.9077718070049876, 1.86385192293951, 2.2796498902758735, 1.8110065499295516, 2.1941330043399034, 0.5585132296297566]",24.55,0.0,0.0,0.0,251.1665706240996,51.02721695913541,-1571.246766637742,-7746.792160069443,3170.557389760624,0.0,0.0,0.0,0.0,0.0,0.0,-6.3,20.925804777899064,0.0,18.838640558942874,0.0,-6.3,24.55,15.4,22.28,21.64,23.64,-7.03,-6.3,7730.88,-1096.64,-4421.64,0.0,81.0,37.0,138.0,0.0,0.0,0.0,0.0,0.0,0.0,0.0,0.0,0.0,0.0,0.0,0.0,0.0,0.0
479.0,1584.0,1591.9597989949748,0.0,-0.0,0.0,0.0,0.0,35246.78093308048,0.0,35246.78093308048,0.0,0.0,0.0,0.07968704093290216,0.5925170068027208,0.0,0.0,0.0,"[2.554353216120443, 2.0524760902435126, 1.9077718070049876, 1.86385192293951, 2.2796498902758735, 1.8110065499295516, 2.1941330043399034, 0.5585132296297566]",21.74,0.0,0.0,0.0,311.4866654516786,50.33167868583865,-1427.9239678769768,-3564.2448383884457,0.0,0.0,0.0,0.0,0.0,0.0,0.0,-6.3,20.114726316766728,0.0,18.855221018273074,0.0,-6.3,21.74,15.42,22.29,19.38,21.98,-6.99,-6.3,7638.82,-996.61,-4018.32,0.0,91.0,28.0,178.0,0.0,0.0,0.0,0.0,0.0,0.0,0.0,0.0,0.0,0.0,0.0,0.0,0.0,0.0
480.0,2415.0,45244.10857893832,0.0,-0.0,0.0,-6674.012807071591,0.0,32335.987706074815,0.0,0.0,0.0,0.0,0.27252218962208996,0.07968704093290216,0.5925170068027208,143715.50091588814,35928.875228972036,179644.37614486017,"[2.554353216120443, 2.0524760902435126, 1.9077718070049876, 1.86385192293951, 2.2796498902758735, 1.8110065499295516, 2.1941330043399034, 0.5585132296297566]",19.51,0.0,0.0,0.0,446.8128639425297,51.311755343665894,-1319.4611213123071,-547.3595325622721,10839.835757640913,0.0,0.0,0.0,0.0,0.0,0.0,-6.4,19.329764384089277,0.0,18.678202936279146,0.0,-6.4,19.51,15.31,22.04,17.95,20.82,-7.13,-6.4,7554.6,-920.91,-3713.09,0.0,80.0,30.0,283.0,0.0,0.0,0.0,0.0,0.0,0.0,0.0,0.0,0.0,0.0,0.0,0.0,0.0,0.0
481.0,1078.0,1083.4170854271356,0.0,-0.0,0.0,0.0,0.0,18742.392027418588,0.0,18742.392027418588,0.0,0.0,0.27252218962208996,0.0,0.5925170068027208,0.0,0.0,0.0,"[2.554353216120443, 2.0524760902435126, 1.9077718070049876, 1.86385192293951, 2.2796498902758735, 1.8110065499295516, 2.1941330043399034, 0.5585132296297566]",24.06,0.0,0.0,0.0,157.6775875481013,31.583760682884932,-1551.3899099286457,-7083.155177855816,0.0,0.0,0.0,0.0,0.0,0.0,0.0,-6.4,20.75379355413322,0.0,18.80571704313855,0.0,-6.4,24.06,15.41,22.2,21.33,23.37,-7.08,-6.4,0.0,-1082.78,-4365.77,0.0,80.0,7.0,73.0,0.0,0.0,0.0,0.0,0.0,0.0,0.0,0.0,0.0,0.0,0.0,0.0,0.0,0.0
482.0,993.0,40773.445419530624,23576.57819243297,-0.0,0.0,-16000.0,0.0,45958.8106911698,0.0,0.0,0.0,45958.81069116979,0.9258555229554233,0.0,0.5244897959183671,0.0,0.0,0.0,"[2.554353216120443, 2.0524760902435126, 1.9077718070049876, 1.86385192293951, 2.2796498902758735, 1.8110065499295516, 2.1941330043399034, 0.5585132296297566]",20.0,0.0,0.0,0.0,144.42436006223184,27.31568491492751,-1344.4104418161612,-1243.9296617652683,11885.564189286535,0.0,0.0,0.0,0.0,0.0,0.0,-6.4,19.485921638028767,0.0,18.698675278618886,0.0,-6.4,20.0,15.35,22.05,18.17,20.98,-7.07,-6.4,9433.0,-938.32,-3783.3,0.0,80.0,0.0,64.0,0.0,0.0,0.0,0.0,0.0,0.0,0.0,0.0,0.0,0.0,0.0,0.0,0.0,0.0
483.0,634.0,0.0,7759.551594356149,-0.0,0.0,8393.551594356148,0.0,15199.992893135786,0.0,0.0,0.0,15199.992893135786,0.5689868327191926,0.0,0.5244897959183671,0.0,0.0,0.0,"[2.554353216120443, 2.0524760902435126, 1.9077718070049876, 1.86385192293951, 2.2796498902758735, 1.8110065499295516, 2.1941330043399034, 0.5585132296297566]",24.55,0.0,0.0,0.0,99.50666474525795,26.272377504982355,-1571.246766637742,-7711.817032551146,2384.2661487477444,0.0,0.0,0.0,0.0,0.0,0.0,-6.3,20.942500402046328,0.0,18.869659730192584,0.0,-6.3,24.55,15.47,22.27,21.69,23.66,-6.99,-6.3,0.0,-1096.64,-4421.64,0.0,80.0,0.0,31.0,0.0,0.0,0.0,0.0,0.0,0.0,0.0,0.0,0.0,0.0,0.0,0.0,0.0,0.0
484.0,733.0,31338.013213172173,30448.32314710631,-0.0,0.0,0.0,0.0,59644.463963683454,0.0,0.0,0.0,59644.463963683454,0.5689868327191926,0.0,0.5244897959183671,0.0,0.0,0.0,"[2.554353216120443, 2.0524760902435126, 1.9077718070049876, 1.86385192293951, 2.2796498902758735, 1.8110065499295516, 2.1941330043399034, 0.5585132296297566]",21.29,0.0,0.0,0.0,119.92379898024609,26.746608145866514,-1405.2495646150521,-2918.7635303466222,10955.168237271422,0.0,0.0,0.0,0.0,0.0,0.0,-6.3,19.97858378552766,0.0,18.85506727704063,0.0,-6.3,21.29,15.47,22.24,19.1,21.73,-6.98,-6.3,635.85,-980.78,-3954.51,0.0,80.0,0.0,46.0,0.0,0.0,0.0,0.0,0.0,0.0,0.0,0.0,0.0,0.0,0.0,0.0,0.0,0.0
485.0,2018.0,0.0,11364.570305555411,-0.0,0.0,13382.570305555411,0.0,22261.77450815926,0.0,0.0,0.0,22261.77450815926,0.0,0.0,0.5244897959183671,0.0,0.0,0.0,"[2.554353216120443, 2.0524760902435126, 1.9077718070049876, 1.86385192293951, 2.2796498902758735, 1.8110065499295516, 2.1941330043399034, 0.5585132296297566]",24.55,0.0,0.0,0.0,136.25750636823656,27.125992658573843,-1571.246766637742,-7469.678583782638,0.0,0.0,0.0,0.0,0.0,0.0,0.0,-6.3,21.058950487342745,0.0,19.028811007870047,0.0,-6.3,24.55,15.6,22.46,21.66,23.7,-6.98,-6.3,1615.95,-1096.64,-4421.64,0.0,80.0,0.0,58.0,0.0,0.0,0.0,0.0,0.0,0.0,0.0,0.0,0.0,0.0,0.0,0.0,0.0,0.0
486.0,527.0,60291.7702809365,43463.31142953182,-0.0,0.0,-16000.0,0.0,5553.550341299084,0.0,-80000.0,0.0,85553.55034129908,0.6533333333333333,0.3266666666666667,0.5244897959183671,0.0,0.0,0.0,"[2.5543532161204467, 2.052476090243516, 1.9077718070049876, 1.86385192293951, 1.9434869830691284, 1.8110065499295551, 2.1941330043399034, 0.5585132296297566]",20.28,0.0,0.0,0.0,134.6814468834305,50.584601694310194,-1348.5944200974177,-1313.4930613346721,742.6659682638845,0.0,0.0,0.0,0.0,0.0,0.0,-6.2,19.734859637395612,0.0,18.927992505407243,0.0,-6.2,20.28,15.54,22.31,18.4,21.24,-6.87,-6.2,10544.87,-941.24,-3795.08,0.0,132.0,14.0,28.0,0.0,0.0,0.0,0.0,0.0,0.0,0.0,0.0,0.0,0.0,0.0,0.0,0.0,0.0
487.0,896.0,9498.703659954075,10654.319207727816,-0.0,0.0,2099.1090660735113,0.0,20972.05216791808,0.0,0.0,0.0,20972.05216791808,0.5640854988914323,0.3266666666666667,0.5244897959183671,0.0,0.0,0.0,"[2.5543532161204467, 2.052476090243516, 1.9077718070049876, 1.86385192293951, 1.9434869830691284, 1.8110065499295551, 2.1941330043399034, 0.5585132296297566]",19.45,0.0,0.0,0.0,188.19583029934674,63.64175200665402,-1305.9952774006335,-392.782067630701,1452.709812055149,0.0,0.0,0.0,0.0,0.0,0.0,-6.2,19.338695347679003,0.0,18.726270132665817,0.0,-6.2,19.45,15.41,22.04,18.06,20.87,-6.87,-6.2,0.0,-911.51,-3675.2,0.0,94.0,55.0,83.0,0.0,0.0,0.0,0.0,0.0,0.0,0.0,0.0,0.0,0.0,0.0,0.0,0.0,0.0
488.0,818.0,0.0,12449.29093392649,-0.0,0.0,13267.29093392649,0.0,25336.070093805094,0.0,0.0,0.0,25336.070093805094,0.0,0.3266666666666667,0.5244897959183671,0.0,0.0,0.0,"[2.5543532161204467, 2.052476090243516, 1.9077718070049876, 1.86385192293951, 1.9434869830691284, 1.8110065499295551, 2.1941330043399034, 0.5585132296297566]",19.45,0.0,0.0,11.26352695912786,209.40099427673795,52.38667812967,-1270.3480308373262,-689.5409164960652,3640.351358330337,0.0,0.0,0.0,0.0,0.0,0.0,-5.5,19.193684981637723,0.0,18.53311644084348,0.0,-5.5,19.45,15.29,21.78,18.07,20.77,-6.15,-5.5,1476.77,-886.63,-3574.89,17.81,85.0,39.0,105.0,0.0,0.0,0.0,0.0,0.0,0.0,0.0,0.0,0.0,0.0,0.0,0.0,0.0,0.0
489.0,1703.0,21238.64114123567,25434.223166802407,-0.0,6004.775231272915,0.0,0.0,60976.1917738325,0.0,0.0,0.0,60976.1917738325,0.0,0.3266666666666667,0.5244897959183671,0.0,0.0,0.0,"[2.5543532161204467, 2.052476090243516, 1.9077718070049876, 1.86385192293951, 1.9434869830691284, 1.8110065499295551, 2.1941330043399034, 0.5585132296297566]",20.38,0.0,0.0,953.5829219182071,304.0362024325952,52.35506275361105,-1124.5879734379587,-2208.907054397459,10667.212481030687,0.0,0.0,0.0,0.0,0.0,0.0,-1.7,19.388598065129756,0.0,18.429153718899478,0.0,-1.7,20.38,15.23,21.63,18.7,21.18,-1.41,-1.7,1109.38,-784.9,-3164.7,1508.1,104.0,25.0,166.0,0.0,0.0,0.0,0.0,0.0,0.0,0.0,0.0,0.0,0.0,0.0,0.0,0.0,0.0
490.0,3469.0,0.0,9048.812738781487,-757.6390572549935,13275.451796036481,0.0,0.0,24971.76366747599,0.0,0.0,0.0,24971.763667475992,0.0,0.3266666666666667,0.5409894909430314,0.0,0.0,0.0,"[2.5543532161204467, 2.052476090243516, 1.9077718070049876, 1.86385192293951, 1.9434869830691284, 1.8110065499295551, 2.1941330043399034, 0.5585132296297566]",24.55,0.0,0.0,1478.077291021396,1886.399925177921,76.76213307111573,-1143.479807878054,-7938.2681383615445,5601.363937936037,0.0,0.0,0.0,0.0,0.0,0.0,2.1,20.803106573520967,0.0,18.702096608049125,0.0,2.1,24.55,15.47,21.93,21.85,23.6,2.78,2.1,9305.84,-798.08,-3217.87,2337.59,110.0,0.0,1328.0,0.0,0.0,0.0,0.0,0.0,0.0,0.0,0.0,0.0,0.0,0.0,0.0,0.0,0.0
491.0,1772.0,0.0,12080.354870573849,-3391.0494031770777,17243.404273750926,0.0,0.0,36907.96609864892,0.0,0.0,0.0,36907.96609864892,0.0,0.3266666666666667,0.6148390112788877,0.0,0.0,0.0,"[2.5543532161204467, 2.052476090243516, 1.9077718070049876, 1.86385192293951, 1.9434869830691284, 1.8110065499295551, 2.1941330043399034, 0.5585132296297566]",24.55,0.0,0.0,1652.3479289913284,602.4129185333867,60.41698364864174,-985.6134302405507,-7442.896870010098,6069.445525278101,0.0,0.0,0.0,0.0,0.0,0.0,5.2,21.031412623082474,0.0,19.02462599604787,0.0,5.2,24.55,15.8,22.25,21.58,23.5,5.99,5.2,6013.35,-687.9,-2773.61,2613.2,155.0,0.0,361.0,0.0,0.0,0.0,0.0,0.0,0.0,0.0,0.0,0.0,0.0,0.0,0.0,0.0,0.0
492.0,1402.0,0.0,0.0,-0.0,19197.46322704797,-16000.0,0.0,5822.015854515267,0.0,4206.098950172094,0.0,0.0,0.6533333333333333,0.3087835928989282,0.6148390112788877,7181.852908191882,1795.4632270479706,8977.316135239853,"[2.5543532161204467, 2.052476090243516, 1.9077718070049876, 1.86385192293951, 1.9434869830691284, 1.8110065499295551, 2.1941330043399034, 0.5585132296297566]",24.55,0.0,0.0,1736.0826891560482,521.460772268346,52.51313963390577,-878.6716905506287,-6929.897306344939,0.0,0.0,0.0,0.0,0.0,0.0,0.0,7.3,21.271832751904498,0.0,19.36842934135891,0.0,7.3,24.55,16.17,22.57,21.9,23.81,8.04,7.3,0.0,-613.26,-2472.67,2745.63,133.0,1.0,313.0,0.0,0.0,0.0,0.0,0.0,0.0,0.0,0.0,0.0,0.0,0.0,0.0,0.0,0.0
493.0,2917.0,0.0,2765.2688718281606,-0.0,16691.00521596532,-3405.2038205091594,0.0,16082.50851644163,0.0,0.0,0.0,9239.329245176434,0.792379156004124,0.3087835928989282,0.6148390112788877,30414.130094512002,7603.5325236280005,38017.66261814,"[2.5543532161204467, 2.052476090243516, 1.9077718070049876, 1.86385192293951, 1.9434869830691284, 1.8110065499295551, 2.1941330043399034, 0.5585132296297566]",21.93,0.0,0.0,1493.2901945757146,2179.761906554329,90.19866789616687,-699.2609267825625,-2855.9057513555326,0.0,0.0,0.0,0.0,0.0,0.0,0.0,8.2,20.598608328970784,0.0,19.517040215917635,0.0,8.2,21.93,16.42,22.62,20.15,22.49,8.68,8.2,0.0,-488.04,-1967.79,2361.65,100.0,17.0,1547.0,0.0,0.0,0.0,0.0,0.0,0.0,0.0,0.0,0.0,0.0,0.0,0.0,0.0,0.0
494.0,2846.0,0.0,6416.838804109209,-0.0,14347.430901967396,-5084.592097858187,0.0,21439.971725134084,0.0,0.0,0.0,21439.971725134084,1.0,0.3087835928989282,0.6148390112788877,0.0,0.0,0.0,"[2.5543532161204467, 2.052476090243516, 1.9077718070049876, 1.86385192293951, 1.9434869830691284, 1.8110065499295551, 2.1941330043399034, 0.5585132296297566]",22.05,0.0,0.0,1315.261305708139,1292.297138473512,63.26236749394669,-705.2360954029936,-2938.698004937451,0.0,0.0,0.0,0.0,0.0,0.0,0.0,8.2,20.67693313454297,0.0,19.600057672619634,0.0,8.2,22.05,16.62,22.58,20.22,22.46,8.53,8.2,0.0,-492.21,-1984.6,2080.1,94.0,9.0,899.0,0.0,0.0,0.0,0.0,0.0,0.0,0.0,0.0,0.0,0.0,0.0,0.0,0.0,0.0
495.0,1856.0,24911.59065534802,30941.51837706465,-0.0,8010.485674993373,0.0,0.0,18957.320584933324,0.0,-80000.0,0.0,98957.32058493333,1.0,0.6354502595655949,0.6148390112788877,0.0,0.0,0.0,"[2.5543532161204467, 2.052476090243516, 1.9077718070049876, 1.86385192293951, 1.9434869830691284, 1.8110065499295551, 2.1941330043399034, 0.5585132296297566]",21.6,0.0,0.0,839.3432267962513,375.81854805876407,49.76260191677765,-758.589795915007,-2231.3692566734703,0.0,0.0,0.0,0.0,0.0,0.0,0.0,6.7,20.569378526300813,0.0,19.65481410415338,0.0,6.7,21.6,16.79,22.52,20.03,22.23,6.65,6.7,5758.08,-529.45,-2134.75,1327.43,137.0,0.0,204.0,0.0,0.0,0.0,0.0,0.0,0.0,0.0,0.0,0.0,0.0,0.0,0.0,0.0,0.0
496.0,1842.0,5920.647706578419,4049.044468045527,-0.0,0.0,0.0,0.0,12061.856478086751,0.0,0.0,0.0,12061.856478086751,1.0,0.6354502595655949,0.6148390112788877,0.0,0.0,0.0,"[2.5543532161204467, 2.052476090243516, 1.9077718070049876, 1.86385192293951, 1.9434869830691284, 1.8110065499295551, 2.1941330043399034, 0.5585132296297566]",20.78,0.0,0.0,2.7085351643436084,604.7053686931046,44.86221862764136,-833.9479438720587,-1104.2083039570698,0.0,0.0,0.0,0.0,0.0,0.0,0.0,4.4,20.298419057776826,0.0,19.629618919252867,0.0,4.4,20.78,16.88,22.38,19.53,21.76,3.6,4.4,0.0,-582.05,-2346.81,4.28,101.0,1.0,391.0,0.0,0.0,0.0,0.0,0.0,0.0,0.0,0.0,0.0,0.0,0.0,0.0,0.0,0.0
497.0,2878.0,0.0,6749.177201115573,-0.0,0.0,9627.177201115574,0.0,19976.70322646819,0.0,0.0,0.0,19976.70322646819,0.5906812414491678,0.6354502595655949,0.6148390112788877,0.0,0.0,0.0,"[2.5543532161204467, 2.052476090243516, 1.9077718070049876, 1.86385192293951, 1.9434869830691284, 1.8110065499295551, 2.1941330043399034, 0.5585132296297566]",20.16,0.0,0.0,0.0,771.6243959475689,121.68758245087498,-812.5313098004331,-401.91838257911905,9475.309636925838,0.0,0.0,0.0,0.0,0.0,0.0,4.2,20.014364612227308,0.0,19.50200688941649,0.0,4.2,20.16,16.86,22.15,18.93,21.19,3.42,4.2,8459.27,-567.1,-2286.54,0.0,167.0,95.0,469.0,0.0,0.0,0.0,0.0,0.0,0.0,0.0,0.0,0.0,0.0,0.0,0.0,0.0,0.0
498.0,4728.0,60291.7702809365,43463.31142953182,-0.0,0.0,-16000.0,0.0,7028.469340471989,0.0,-80000.0,0.0,85553.55034129908,0.6533333333333333,0.3266666666666667,0.5244897959183671,0.0,0.0,0.0,"[2.5543532161204467, 2.052476090243516, 1.9077718070049876, 1.86385192293951, 1.9434869830691284, 1.8110065499295551, 2.1941330043399034, 0.5585132296297566]",24.55,0.0,0.0,0.0,1747.276856110037,147.6438061952679,-1051.815459572407,-6632.656669968693,0.0,0.0,0.0,0.0,0.0,0.0,0.0,3.9,21.43000972356424,0.0,19.686398998564158,0.0,3.9,24.55,17.03,22.34,22.14,23.61,3.17,3.9,0.0,-734.11,-2959.91,0.0,110.0,131.0,1212.0,0.0,0.0,0.0,0.0,0.0,0.0,0.0,0.0,0.0,0.0,0.0,0.0,0.0,0.0
499.0,3562.0,9498.703659954075,10654.319207727816,-0.0,0.0,2099.1090660735113,0.0,20972.05216791808,26604.31,0.0,0.0,20972.05216791808,0.5640854988914323,0.3266666666666667,0.5244897959183671,0.0,0.0,0.0,"[2.5543532161204467, 2.052476090243516, 1.9077718070049876, 1.86385192293951, 1.9434869830691284, 1.8110065499295551, 2.1941330043399034, 0.5585132296297566]",19.45,0.0,0.0,0.0,876.7905470246308,106.89158645528924,-801.8413617195731,-328.88104486520314,1452.709812055149,0.0,0.0,0.0,0.0,0.0,0.0,3.7,19.338695347679003,0.0,18.726270132665817,0.0,3.7,19.45,15.41,22.04,18.06,20.87,3.0,3.7,0.0,-559.64,-2256.46,0.0,100.0,100.0,581.0,0.0,0.0,0.0,0.0,0.0,0.0,0.0,0.0,0.0,0.0,0.0,0.0,0.0,0.0
500.0,5516.0,0.0,12449.29093392649,-0.0,0.0,13267.29093392649,0.0,25336.070093805094,0.0,0.0,0.0,25336.070093805094,0.0,0.3266666666666667,0.5244897959183671,0.0,0.0,0.0,"[2.5543532161204467, 2.052476090243516, 1.9077718070049876, 1.86385192293951, 1.9434869830691284, 1.8110065499295551, 2.1941330043399034, 0.5585132296297566]",19.45,0.0,0.0,0.0,749.9893975652305,83.18005441108131,-812.0262893090895,-631.6033967352678,3640.351358330337,0.0,0.0,0.0,0.0,0.0,0.0,3.5,19.193684981637723,0.0,18.53311644084348,0.0,3.5,19.45,15.29,21.78,18.07,20.77,2.79,3.5,1476.77,-566.75,-2285.12,0.0,93.0,67.0,495.0,0.0,0.0,0.0,0.0,0.0,0.0,0.0,0.0,0.0,0.0,0.0,0.0,0.0,0.0
501.0,4082.0,21238.64114123567,25434.223166802407,-0.0,0.0,0.0,0.0,60976.1917738325,0.0,0.0,0.0,60976.1917738325,0.0,0.3266666666666667,0.5244897959183671,0.0,0.0,0.0,"[2.5543532161204467, 2.052476090243516, 1.9077718070049876, 1.86385192293951, 1.9434869830691284, 1.8110065499295551, 2.1941330043399034, 0.5585132296297566]",20.38,0.0,0.0,0.0,808.0170422330916,110.6854315823625,-875.0572474948077,-2183.269181088347,10667.212481030687,0.0,0.0,0.0,0.0,0.0,0.0,3.2,19.388598065129756,0.0,18.429153718899478,0.0,3.2,20.38,15.23,21.63,18.7,21.18,2.55,3.2,1109.38,-610.74,-2462.5,0.0,135.0,91.0,513.0,0.0,0.0,0.0,0.0,0.0,0.0,0.0,0.0,0.0,0.0,0.0,0.0,0.0,0.0
502.0,3011.0,0.0,9048.812738781487,-757.6390572549935,0.0,0.0,0.0,24971.76366747599,0.0,0.0,0.0,24971.763667475992,0.0,0.3266666666666667,0.5409894909430314,0.0,0.0,0.0,"[2.5543532161204467, 2.052476090243516, 1.9077718070049876, 1.86385192293951, 1.9434869830691284, 1.8110065499295551, 2.1941330043399034, 0.5585132296297566]",24.55,0.0,0.0,0.0,954.6622133875501,103.50874121698226,-1097.6476337252304,-7940.840354653757,5601.363937936037,0.0,0.0,0.0,0.0,0.0,0.0,3.0,20.803106573520967,0.0,18.702096608049125,0.0,3.0,24.55,15.47,21.93,21.85,23.6,2.38,3.0,9305.84,-766.1,-3088.89,0.0,128.0,76.0,626.0,0.0,0.0,0.0,0.0,0.0,0.0,0.0,0.0,0.0,0.0,0.0,0.0,0.0,0.0
503.0,2278.0,0.0,12080.354870573849,-3391.0494031770777,0.0,0.0,0.0,36907.96609864892,0.0,0.0,0.0,36907.96609864892,0.0,0.3266666666666667,0.6148390112788877,0.0,0.0,0.0,"[2.5543532161204467, 2.052476090243516, 1.9077718070049876, 1.86385192293951, 1.9434869830691284, 1.8110065499295551, 2.1941330043399034, 0.5585132296297566]",24.55,0.0,0.0,0.0,627.4149530878108,83.52782354772971,-1107.8325613147472,-7467.362871915575,6069.445525278101,0.0,0.0,0.0,0.0,0.0,0.0,2.8,21.031412623082474,0.0,19.02462599604787,0.0,2.8,24.55,15.8,22.25,21.58,23.5,2.22,2.8,6013.35,-773.2,-3117.55,0.0,149.0,43.0,378.0,0.0,0.0,0.0,0.0,0.0,0.0,0.0,0.0,0.0,0.0,0.0,0.0,0.0,0.0
504.0,1757.0,0.0,0.0,-0.0,0.0,-16000.0,0.0,5822.015854515267,0.0,4206.098950172094,0.0,0.0,0.6533333333333333,0.3087835928989282,0.6148390112788877,7181.852908191882,1795.4632270479706,8977.316135239853,"[2.5543532161204467, 2.052476090243516, 1.9077718070049876, 1.86385192293951, 1.9434869830691284, 1.8110065499295551, 2.1941330043399034, 0.5585132296297566]",24.55,0.0,0.0,0.0,247.87117351950502,29.718453495407243,-1133.2948802885378,-6970.787878936954,0.0,0.0,0.0,0.0,0.0,0.0,0.0,2.3,21.271832751904498,0.0,19.36842934135891,0.0,2.3,24.55,16.17,22.57,21.9,23.81,1.73,2.3,0.0,-790.98,-3189.2,0.0,80.0,0.0,140.0,0.0,0.0,0.0,0.0,0.0,0.0,0.0,0.0,0.0,0.0,0.0,0.0,0.0,0.0
505.0,802.0,0.0,2765.2688718281606,-0.0,0.0,-3405.2038205091594,0.0,16082.50851644163,0.0,0.0,0.0,9239.329245176434,0.792379156004124,0.3087835928989282,0.6148390112788877,30414.130094512002,7603.5325236280005,38017.66261814,"[2.5543532161204467, 2.052476090243516, 1.9077718070049876, 1.86385192293951, 1.9434869830691284, 1.8110065499295551, 2.1941330043399034, 0.5585132296297566]",21.93,0.0,0.0,0.0,219.2871855905217,29.054530598169414,-1020.0861458523283,-2903.396232244221,0.0,0.0,0.0,0.0,0.0,0.0,0.0,1.9,20.598608328970784,0.0,19.517040215917635,0.0,1.9,21.93,16.42,22.62,20.15,22.49,1.35,1.9,0.0,-711.96,-2870.62,0.0,80.0,0.0,119.0,0.0,0.0,0.0,0.0,0.0,0.0,0.0,0.0,0.0,0.0,0.0,0.0,0.0,0.0
506.0,610.0,0.0,6416.838804109209,-0.0,0.0,-5084.592097858187,0.0,21439.971725134084,0.0,0.0,0.0,21439.971725134084,1.0,0.3087835928989282,0.6148390112788877,0.0,0.0,0.0,"[2.5543532161204467, 2.052476090243516, 1.9077718070049876, 1.86385192293951, 1.9434869830691284, 1.8110065499295551, 2.1941330043399034, 0.5585132296297566]",22.05,0.0,0.0,0.0,115.84037213324844,26.651762017689684,-1051.5236334465503,-2988.3907979603428,0.0,0.0,0.0,0.0,0.0,0.0,0.0,1.4,20.67693313454297,0.0,19.600057672619634,0.0,1.4,22.05,16.62,22.58,20.22,22.46,0.86,1.4,0.0,-733.9,-2959.09,0.0,80.0,0.0,43.0,0.0,0.0,0.0,0.0,0.0,0.0,0.0,0.0,0.0,0.0,0.0,0.0,0.0,0.0
507.0,760.0,24911.59065534802,30941.51837706465,-0.0,0.0,0.0,0.0,18957.320584933324,0.0,-80000.0,0.0,98957.32058493333,1.0,0.6354502595655949,0.6148390112788877,0.0,0.0,0.0,"[2.5543532161204467, 2.052476090243516, 1.9077718070049876, 1.86385192293951, 1.9434869830691284, 1.8110065499295551, 2.1941330043399034, 0.5585132296297566]",21.6,0.0,0.0,0.0,183.89748624987556,28.232530820636878,-1038.6753046267072,-2269.8759076222677,0.0,0.0,0.0,0.0,0.0,0.0,0.0,1.2,20.569378526300813,0.0,19.65481410415338,0.0,1.2,21.6,16.79,22.52,20.03,22.23,0.71,1.2,5758.08,-724.94,-2922.94,0.0,80.0,0.0,93.0,0.0,0.0,0.0,0.0,0.0,0.0,0.0,0.0,0.0,0.0,0.0,0.0,0.0,0.0
508.0,1511.0,5920.647706578419,4049.044468045527,-0.0,0.0,0.0,0.0,12061.856478086751,0.0,0.0,0.0,12061.856478086751,1.0,0.6354502595655949,0.6148390112788877,0.0,0.0,0.0,"[2.5543532161204467, 2.052476090243516, 1.9077718070049876, 1.86385192293951, 1.9434869830691284, 1.8110065499295551, 2.1941330043399034, 0.5585132296297566]",20.78,0.0,0.0,0.0,145.78550234456438,27.34730029098645,-1007.0917128938369,-1124.1572060695498,0.0,0.0,0.0,0.0,0.0,0.0,0.0,1.0,20.298419057776826,0.0,19.629618919252867,0.0,1.0,20.78,16.88,22.38,19.53,21.76,0.52,1.0,0.0,-702.89,-2834.06,0.0,80.0,0.0,65.0,0.0,0.0,0.0,0.0,0.0,0.0,0.0,0.0,0.0,0.0,0.0,0.0,0.0,0.0
509.0,2429.0,0.0,6749.177201115573,-0.0,0.0,9627.177201115574,0.0,19976.70322646819,0.0,0.0,0.0,19976.70322646819,0.5906812414491678,0.6354502595655949,0.6148390112788877,0.0,0.0,0.0,"[2.5543532161204467, 2.052476090243516, 1.9077718070049876, 1.86385192293951, 1.9434869830691284, 1.8110065499295551, 2.1941330043399034, 0.5585132296297566]",20.16,0.0,0.0,0.0,121.28494126257863,26.778223521925455,-990.7675426169695,-422.1501765517641,9475.309636925838,0.0,0.0,0.0,0.0,0.0,0.0,0.7,20.014364612227308,0.0,19.50200688941649,0.0,0.7,20.16,16.86,22.15,18.93,21.19,0.3,0.7,8459.27,-691.5,-2788.12,0.0,80.0,0.0,47.0,0.0,0.0,0.0,0.0,0.0,0.0,0.0,0.0,0.0,0.0,0.0,0.0,0.0,0.0
510.0,672.0,0.0,2686.0323900764647,-0.0,0.0,3358.0323900764647,0.0,7028.469340471989,0.0,0.0,0.0,7028.469340471989,0.44790775547652895,0.6354502595655949,0.6148390112788877,0.0,0.0,0.0,"[2.5543532161204467, 1.4106810793844176, 1.1446741054920047, 0.9131528143652261, 0.970412344451514, 1.09652732168907, 2.1941330043399034, 0.6296279156082178]",24.55,0.0,0.0,0.0,69.41825639895964,1.6123841790061357,-1219.866764799427,-6651.981353336848,0.0,0.0,0.0,0.0,0.0,0.0,0.0,0.6,21.43000972356424,0.0,19.686398998564158,0.0,0.6,24.55,17.03,22.34,22.14,23.61,0.19,0.6,0.0,-851.4,-3432.83,0.0,0.0,0.0,51.0,0.0,0.0,0.0,0.0,0.0,0.0,0.0,0.0,0.0,0.0,0.0,0.0,0.0,0.0
511.0,479.0,14052.570473543385,15769.626776517392,-2223.65639587781,0.0,4489.975551219538,0.0,40963.28855526687,0.0,0.0,0.0,40963.288555266874,0.2570074344212765,0.6354502595655949,0.6632653061224489,0.0,0.0,0.0,"[2.5543532161204467, 1.4106810793844176, 1.1446741054920047, 0.9131528143652261, 0.970412344451514, 1.09652732168907, 2.1941330043399034, 0.6296279156082178]",20.8,0.0,0.0,0.0,73.50168324595727,1.707230307182966,-1038.9282118235947,-1195.9741856996534,9960.811932804942,0.0,0.0,0.0,0.0,0.0,0.0,0.4,20.290699825895192,0.0,19.630687819696707,0.0,0.4,20.8,17.01,22.25,19.27,21.46,0.01,0.4,0.0,-725.11,-2923.65,0.0,0.0,0.0,54.0,0.0,0.0,0.0,0.0,0.0,0.0,0.0,0.0,0.0,0.0,0.0,0.0,0.0,0.0
512.0,783.0,0.0,5261.814857588423,-0.0,0.0,6044.814857588423,0.0,13768.45064803832,0.0,0.0,0.0,13768.45064803832,0.0,0.6354502595655949,0.6632653061224489,0.0,0.0,0.0,"[2.5543532161204467, 1.4106810793844176, 1.1446741054920047, 0.9131528143652261, 0.970412344451514, 1.09652732168907, 2.1941330043399034, 0.6296279156082178]",24.55,0.0,0.0,2.6840970839788376,54.44569129330168,1.2646150423577547,-1219.866764799427,-6490.855811922821,2848.4275944435167,0.0,0.0,0.0,0.0,0.0,0.0,0.6,21.507480422001755,0.0,19.794496457768474,0.0,0.6,24.55,17.13,22.45,22.21,23.7,0.21,0.6,9197.53,-851.4,-3432.83,4.24,0.0,0.0,40.0,0.0,0.0,0.0,0.0,0.0,0.0,0.0,0.0,0.0,0.0,0.0,0.0,0.0,0.0
513.0,2062.0,16242.01511162216,5619.375348994106,-0.0,10.366231297402013,-8489.795918367347,0.0,15186.210720154306,0.0,0.0,0.0,15186.210720154306,0.3466666666666667,0.6354502595655949,0.6632653061224489,0.0,0.0,0.0,"[2.5543532161204467, 1.4106810793844176, 1.1446741054920047, 0.9131528143652261, 0.970412344451514, 1.09652732168907, 2.1941330043399034, 0.6296279156082178]",22.24,0.0,0.0,44.57538671964505,44.917695316973884,1.0433074099451471,-1056.3384117106718,-3016.671030466469,0.0,0.0,0.0,0.0,0.0,0.0,0.0,1.5,20.857535145875172,0.0,19.830258393184117,0.0,1.5,22.24,17.17,22.49,20.35,22.33,1.17,1.5,6663.68,-737.26,-2972.64,70.5,0.0,0.0,33.0,0.0,0.0,0.0,0.0,0.0,0.0,0.0,0.0,0.0,0.0,0.0,0.0,0.0,0.0
514.0,1680.0,10558.568351373868,9354.0488292889,-0.0,528.2733196719025,0.0,0.0,26438.340574145845,0.0,0.0,0.0,26438.34057414585,0.3466666666666667,0.6354502595655949,0.6632653061224489,0.0,0.0,0.0,"[2.5543532161204467, 1.4106810793844176, 1.1446741054920047, 0.9131528143652261, 0.970412344451514, 1.09652732168907, 2.1941330043399034, 0.6296279156082178]",20.33,0.0,0.0,120.6864156498762,73.50168324595727,1.707230307182966,-892.5986569846316,-372.795656938213,9850.854221637566,0.0,0.0,0.0,0.0,0.0,0.0,2.8,20.20412703197787,0.0,19.708257444712835,0.0,2.8,20.33,17.12,22.3,19.14,21.35,2.48,2.8,0.0,-622.98,-2511.86,190.87,0.0,0.0,54.0,0.0,0.0,0.0,0.0,0.0,0.0,0.0,0.0,0.0,0.0,0.0,0.0,0.0,0.0
515.0,3064.0,9543.913327685726,7610.134416682396,-0.0,1177.9406556350978,0.0,0.0,22234.827727024902,0.0,0.0,0.0,22234.827727024902,0.3466666666666667,0.6354502595655949,0.6632653061224489,0.0,0.0,0.0,"[2.5543532161204467, 1.4106810793844176, 1.1446741054920047, 0.9131528143652261, 0.970412344451514, 1.09652732168907, 2.1941330043399034, 0.6296279156082178]",24.55,0.0,0.0,146.71549322712724,84.39082150461762,1.960153315654517,-1056.907923367165,-6353.7276539360755,0.0,0.0,0.0,0.0,0.0,0.0,0.0,3.8,21.563364105318914,0.0,19.881590592373044,0.0,3.8,24.55,17.27,22.49,22.31,23.75,3.44,3.8,4137.84,-737.66,-2974.24,232.03,0.0,0.0,62.0,0.0,0.0,0.0,0.0,0.0,0.0,0.0,0.0,0.0,0.0,0.0,0.0,0.0,0.0
516.0,1987.0,14927.794892791338,10551.717812840228,-0.0,3011.9958945128474,0.0,0.0,10328.37323654969,26632.17,0.0,0.0,31634.109236549688,0.3466666666666667,0.6354502595655949,0.6632653061224489,21305.736,5326.434,26632.17,"[2.5543532161204467, 1.4106810793844176, 1.1446741054920047, 0.9131528143652261, 0.970412344451514, 1.09652732168907, 2.1941330043399034, 0.6296279156082178]",21.1,0.0,0.0,200.36516305288737,50.362264446304046,1.1697689141809209,-840.428185080059,-1294.7754876354861,0.0,0.0,0.0,0.0,0.0,0.0,0.0,4.6,20.53302609182302,0.0,19.858572777608373,0.0,4.6,21.1,17.3,22.42,19.6,21.71,4.24,4.6,0.0,-586.57,-2365.05,316.88,0.0,0.0,37.0,0.0,0.0,0.0,0.0,0.0,0.0,0.0,0.0,0.0,0.0,0.0,0.0,0.0,0.0
517.0,1801.0,23477.107953275965,8074.171070205289,-0.0,2515.448656695703,-16000.0,0.0,24591.277947439474,0.0,0.0,0.0,24591.27794743947,1.0,0.6354502595655949,0.6632653061224489,0.0,0.0,0.0,"[2.5543532161204467, 1.4106810793844176, 1.1446741054920047, 0.9131528143652261, 0.970412344451514, 1.09652732168907, 2.1941330043399034, 0.6296279156082178]",20.2,0.0,0.0,196.20725334792007,59.890260422631854,1.3910765465935282,-768.9770350306238,-153.75315461677977,0.0,0.0,0.0,0.0,0.0,0.0,0.0,5.1,20.17462763534003,0.0,19.73989521524965,0.0,5.1,20.2,17.27,22.21,19.2,21.31,4.7,5.1,0.0,-536.7,-2163.98,310.3,0.0,0.0,44.0,0.0,0.0,0.0,0.0,0.0,0.0,0.0,0.0,0.0,0.0,0.0,0.0,0.0,0.0
518.0,2506.0,7751.629948705763,6216.569938497299,-0.0,1009.6981395350643,0.0,0.0,19052.16285636437,0.0,0.0,0.0,19052.162856364375,1.0,0.6354502595655949,0.6632653061224489,0.0,0.0,0.0,"[2.5543532161204467, 1.4106810793844176, 1.1446741054920047, 0.9131528143652261, 0.970412344451514, 1.09652732168907, 2.1941330043399034, 0.6296279156082178]",19.88,0.0,0.0,161.83791798121317,65.33482955196202,1.5175380508293057,-742.6412425787596,91.52639421841516,9884.006218940107,0.0,0.0,0.0,0.0,0.0,0.0,5.3,19.973915056215837,0.0,19.60309853020848,0.0,5.3,19.88,17.22,21.98,19.01,21.06,4.89,5.3,8582.64,-518.32,-2089.87,255.95,0.0,0.0,48.0,0.0,0.0,0.0,0.0,0.0,0.0,0.0,0.0,0.0,0.0,0.0,0.0,0.0,0.0
519.0,2842.0,9215.872009017601,9438.990001365111,-0.0,26.18505740459964,3085.0122949879983,0.0,28478.114588073175,0.0,0.0,0.0,28478.11458807318,0.8688345112675171,0.6354502595655949,0.6632653061224489,0.0,0.0,0.0,"[2.5543532161204467, 1.4106810793844176, 1.1446741054920047, 0.9131528143652261, 0.970412344451514, 1.09652732168907, 2.1941330043399034, 0.6296279156082178]",24.44,0.0,0.0,56.20417436300348,49.001122163971516,1.1381535381219776,-1000.0323501688896,-6357.048414291089,7491.9505464046815,0.0,0.0,0.0,0.0,0.0,0.0,4.8,21.44183763425556,0.0,19.795271470029135,0.0,4.8,24.44,17.4,22.19,22.3,23.55,4.31,4.8,6315.34,-697.97,-2814.19,88.89,0.0,0.0,36.0,0.0,0.0,0.0,0.0,0.0,0.0,0.0,0.0,0.0,0.0,0.0,0.0,0.0,0.0
520.0,1643.0,7776.94918064596,6095.064434742731,-0.0,0.0,0.0,0.0,17924.4006723699,0.0,0.0,0.0,17924.4006723699,0.8688345112675171,0.6354502595655949,0.6632653061224489,0.0,0.0,0.0,"[2.5543532161204467, 1.4106810793844176, 1.1446741054920047, 0.9131528143652261, 0.970412344451514, 1.09652732168907, 2.1941330043399034, 0.6296279156082178]",24.55,0.0,0.0,1.343555983884604,89.83539063394777,2.0866148198902943,-1046.7229957776487,-6182.906560229501,0.0,0.0,0.0,0.0,0.0,0.0,0.0,4.0,21.645401381885627,0.0,20.028195209883574,0.0,4.0,24.55,17.6,22.46,22.13,23.52,3.49,4.0,0.0,-730.55,-2945.58,2.12,0.0,0.0,66.0,0.0,0.0,0.0,0.0,0.0,0.0,0.0,0.0,0.0,0.0,0.0,0.0,0.0,0.0
521.0,2371.0,0.0,2914.0676316622425,-0.0,0.0,5285.067631662243,0.0,22136.916263580082,0.0,13761.674258623518,0.0,8375.242004956568,0.6441292548192925,0.5769397397585221,0.5,0.0,0.0,0.0,"[2.5543532161204467, 1.4106810793844176, 1.1446741054920047, 0.9131528143652261, 0.970412344451514, 1.09652732168907, 2.1941330043399034, 0.6296279156082178]",21.12,0.0,0.0,0.0,183.2527346424549,28.517069205167374,-907.5258657049208,-1175.6307182654052,0.0,0.0,0.0,0.0,0.0,0.0,0.0,3.3,20.612542422147193,0.0,19.992235484563842,0.0,3.3,21.12,17.6,22.39,19.69,21.68,2.78,3.3,0.0,-633.4,-2553.87,0.0,81.0,0.0,92.0,0.0,0.0,0.0,0.0,0.0,0.0,0.0,0.0,0.0,0.0,0.0,0.0,0.0,0.0
522.0,4666.0,0.0,2686.0323900764647,-0.0,0.0,3358.0323900764647,0.0,6541.999533376489,0.0,0.0,0.0,7028.469340471989,0.44790775547652895,0.6354502595655949,0.6148390112788877,0.0,0.0,0.0,"[2.5543532161204467, 1.4106810793844176, 1.1446741054920047, 0.9131528143652261, 0.970412344451514, 1.09652732168907, 2.1941330043399034, 0.6296279156082178]",20.22,0.0,0.0,0.0,703.3523646284684,68.35244303943665,-897.2608227690483,-76.0101397745901,0.0,0.0,0.0,0.0,0.0,0.0,0.0,2.6,20.239259037738947,0.0,19.847880801392844,0.0,2.6,20.22,17.52,22.18,19.25,21.26,2.11,2.6,0.0,-626.24,-2524.98,0.0,117.0,30.0,452.0,0.0,0.0,0.0,0.0,0.0,0.0,0.0,0.0,0.0,0.0,0.0,0.0,0.0,0.0
523.0,4158.0,14052.570473543385,15769.626776517392,-2223.65639587781,0.0,4489.975551219538,0.0,40963.28855526687,0.0,0.0,0.0,40963.288555266874,0.2570074344212765,0.6354502595655949,0.6632653061224489,0.0,0.0,0.0,"[2.5543532161204467, 1.4106810793844176, 1.1446741054920047, 0.9131528143652261, 0.970412344451514, 1.09652732168907, 2.1941330043399034, 0.6296279156082178]",20.8,0.0,0.0,0.0,667.1746355454193,89.37666811863433,-962.5412549022218,-1187.0701799539277,9960.811932804942,0.0,0.0,0.0,0.0,0.0,0.0,1.9,20.290699825895192,0.0,19.630687819696707,0.0,1.9,20.8,17.01,22.25,19.27,21.46,1.39,1.9,0.0,-671.8,-2708.69,0.0,156.0,48.0,403.0,0.0,0.0,0.0,0.0,0.0,0.0,0.0,0.0,0.0,0.0,0.0,0.0,0.0,0.0
524.0,2932.0,0.0,5261.814857588423,-0.0,0.0,6044.814857588423,0.0,13768.45064803832,0.0,0.0,0.0,13768.45064803832,0.0,0.6354502595655949,0.6632653061224489,0.0,0.0,0.0,"[2.5543532161204467, 1.4106810793844176, 1.1446741054920047, 0.9131528143652261, 0.970412344451514, 1.09652732168907, 2.1941330043399034, 0.6296279156082178]",24.55,0.0,0.0,0.0,508.49410105244135,93.01243636541287,-1184.21951823612,-6487.125946313109,2848.4275944435167,0.0,0.0,0.0,0.0,0.0,0.0,1.3,21.507480422001755,0.0,19.794496457768474,0.0,1.3,24.55,17.13,22.45,22.21,23.7,0.78,1.3,9197.53,-826.52,-3332.51,0.0,120.0,80.0,302.0,0.0,0.0,0.0,0.0,0.0,0.0,0.0,0.0,0.0,0.0,0.0,0.0,0.0,0.0
525.0,3576.0,16242.01511162216,5619.375348994106,-0.0,0.0,-8489.795918367347,0.0,15186.210720154306,0.0,0.0,0.0,15186.210720154306,0.3466666666666667,0.6354502595655949,0.6632653061224489,0.0,0.0,0.0,"[2.5543532161204467, 1.4106810793844176, 1.1446741054920047, 0.9131528143652261, 0.970412344451514, 1.09652732168907, 2.1941330043399034, 0.6296279156082178]",22.24,0.0,0.0,0.0,795.4802054221338,93.45505163023809,-1102.1705858634955,-3023.7937646166147,0.0,0.0,0.0,0.0,0.0,0.0,0.0,0.6,20.857535145875172,0.0,19.830258393184117,0.0,0.6,22.24,17.17,22.49,20.35,22.33,0.07,0.6,6663.68,-769.25,-3101.62,0.0,137.0,60.0,506.0,0.0,0.0,0.0,0.0,0.0,0.0,0.0,0.0,0.0,0.0,0.0,0.0,0.0,0.0
526.0,2838.0,10558.568351373868,9354.0488292889,-0.0,0.0,0.0,0.0,26438.340574145845,0.0,0.0,0.0,26438.34057414585,0.3466666666666667,0.6354502595655949,0.6632653061224489,0.0,0.0,0.0,"[2.5543532161204467, 1.4106810793844176, 1.1446741054920047, 0.9131528143652261, 0.970412344451514, 1.09652732168907, 2.1941330043399034, 0.6296279156082178]",20.33,0.0,0.0,0.0,1014.910669147638,74.39097986669493,-1040.2801070326188,-393.1035919471713,9850.854221637566,0.0,0.0,0.0,0.0,0.0,0.0,-0.1,20.20412703197787,0.0,19.708257444712835,0.0,-0.1,20.33,17.12,22.3,19.14,21.35,-0.66,-0.1,0.0,-726.06,-2927.45,0.0,130.0,21.0,675.0,0.0,0.0,0.0,0.0,0.0,0.0,0.0,0.0,0.0,0.0,0.0,0.0,0.0,0.0
527.0,3426.0,9543.913327685726,7610.134416682396,-0.0,0.0,0.0,0.0,22234.827727024902,0.0,0.0,0.0,22234.827727024902,0.3466666666666667,0.6354502595655949,0.6632653061224489,0.0,0.0,0.0,"[2.5543532161204467, 1.4106810793844176, 1.1446741054920047, 0.9131528143652261, 0.970412344451514, 1.09652732168907, 2.1941330043399034, 0.6296279156082178]",24.55,0.0,0.0,0.0,396.66551669869926,51.944062864844774,-1286.0687941312835,-6384.148219936142,0.0,0.0,0.0,0.0,0.0,0.0,0.0,-0.7,21.563364105318914,0.0,19.881590592373044,0.0,-0.7,24.55,17.27,22.49,22.31,23.75,-1.25,-0.7,4137.84,-897.6,-3619.13,0.0,120.0,12.0,227.0,0.0,0.0,0.0,0.0,0.0,0.0,0.0,0.0,0.0,0.0,0.0,0.0,0.0,0.0
528.0,1667.0,14927.794892791338,10551.717812840228,-0.0,0.0,0.0,0.0,10328.37323654969,0.0,0.0,0.0,31634.109236549688,0.3466666666666667,0.6354502595655949,0.6632653061224489,21305.736,5326.434,26632.17,"[2.5543532161204467, 1.4106810793844176, 1.1446741054920047, 0.9131528143652261, 0.970412344451514, 1.09652732168907, 2.1941330043399034, 0.6296279156082178]",21.1,0.0,0.0,0.0,61.25140270496439,1.4226919226524717,-1151.0684765603082,-1335.3379583915391,0.0,0.0,0.0,0.0,0.0,0.0,0.0,-1.5,20.53302609182302,0.0,19.858572777608373,0.0,-1.5,21.1,17.3,22.42,19.6,21.71,-2.02,-1.5,0.0,-803.38,-3239.22,0.0,0.0,0.0,45.0,0.0,0.0,0.0,0.0,0.0,0.0,0.0,0.0,0.0,0.0,0.0,0.0,0.0,0.0
529.0,2017.0,23477.107953275965,8074.171070205289,-0.0,0.0,-16000.0,0.0,24591.277947439474,0.0,0.0,0.0,24591.27794743947,1.0,0.6354502595655949,0.6632653061224489,0.0,0.0,0.0,"[2.5543532161204467, 1.4106810793844176, 1.1446741054920047, 0.9131528143652261, 0.970412344451514, 1.09652732168907, 2.1941330043399034, 0.6296279156082178]",20.2,0.0,0.0,0.0,66.69597183429457,1.5491534268882492,-1140.7268920479714,-201.80934082947195,0.0,0.0,0.0,0.0,0.0,0.0,0.0,-2.2,20.17462763534003,0.0,19.73989521524965,0.0,-2.2,20.2,17.27,22.21,19.2,21.31,-2.71,-2.2,0.0,-796.16,-3210.12,0.0,0.0,0.0,49.0,0.0,0.0,0.0,0.0,0.0,0.0,0.0,0.0,0.0,0.0,0.0,0.0,0.0,0.0
530.0,622.0,7751.629948705763,6216.569938497299,-0.0,0.0,0.0,0.0,19052.16285636437,0.0,0.0,0.0,19052.162856364375,1.0,0.6354502595655949,0.6632653061224489,0.0,0.0,0.0,"[2.5543532161204467, 1.4106810793844176, 1.1446741054920047, 0.9131528143652261, 0.970412344451514, 1.09652732168907, 2.1941330043399034, 0.6296279156082178]",19.88,0.0,0.0,0.0,35.38969934064609,0.8219997775325397,-1165.3157375436892,37.02290518938498,9884.006218940107,0.0,0.0,0.0,0.0,0.0,0.0,-3.0,19.973915056215837,0.0,19.60309853020848,0.0,-3.0,19.88,17.22,21.98,19.01,21.06,-3.52,-3.0,8582.64,-813.32,-3279.31,0.0,0.0,0.0,26.0,0.0,0.0,0.0,0.0,0.0,0.0,0.0,0.0,0.0,0.0,0.0,0.0,0.0,0.0
531.0,700.0,9215.872009017601,9438.990001365111,-0.0,0.0,3085.0122949879983,0.0,28478.114588073175,0.0,0.0,0.0,28478.11458807318,0.8688345112675171,0.6354502595655949,0.6632653061224489,0.0,0.0,0.0,"[2.5543532161204467, 1.4106810793844176, 1.1446741054920047, 0.9131528143652261, 0.970412344451514, 1.09652732168907, 2.1941330043399034, 0.6296279156082178]",24.44,0.0,0.0,0.0,93.91881748094539,2.1814609480671248,-1422.706845133819,-6411.134986141553,7491.9505464046815,0.0,0.0,0.0,0.0,0.0,0.0,-3.5,21.44183763425556,0.0,19.795271470029135,0.0,-3.5,24.44,17.4,22.19,22.3,23.55,-4.04,-3.5,6315.34,-992.97,-4003.64,0.0,0.0,0.0,69.0,0.0,0.0,0.0,0.0,0.0,0.0,0.0,0.0,0.0,0.0,0.0,0.0,0.0,0.0
532.0,632.0,7776.94918064596,6095.064434742731,-0.0,0.0,0.0,0.0,17924.4006723699,0.0,0.0,0.0,17924.4006723699,0.8688345112675171,0.6354502595655949,0.6632653061224489,0.0,0.0,0.0,"[2.5543532161204467, 1.4106810793844176, 1.1446741054920047, 0.9131528143652261, 0.970412344451514, 1.09652732168907, 2.1941330043399034, 0.6296279156082178]",24.55,0.0,0.0,0.0,35.38969934064609,0.8219997775325397,-1449.0276355635453,-6234.381143861611,0.0,0.0,0.0,0.0,0.0,0.0,0.0,-3.9,21.645401381885627,0.0,20.028195209883574,0.0,-3.9,24.55,17.6,22.46,22.13,23.52,-4.46,-3.9,0.0,-1011.34,-4077.71,0.0,0.0,0.0,26.0,0.0,0.0,0.0,0.0,0.0,0.0,0.0,0.0,0.0,0.0,0.0,0.0,0.0,0.0
533.0,2870.0,0.0,2914.0676316622425,-0.0,0.0,5285.067631662243,0.0,22136.916263580082,0.0,13761.674258623518,0.0,8375.242004956568,0.6441292548192925,0.5769397397585221,0.5,0.0,0.0,0.0,"[2.5543532161204467, 1.4106810793844176, 1.1446741054920047, 0.9131528143652261, 0.970412344451514, 1.09652732168907, 2.1941330043399034, 0.6296279156082178]",21.12,0.0,0.0,0.0,93.91881748094539,2.1814609480671248,-1294.553114106543,-1225.1983719106197,0.0,0.0,0.0,0.0,0.0,0.0,0.0,-4.3,20.612542422147193,0.0,19.992235484563842,0.0,-4.3,21.12,17.6,22.39,19.69,21.68,-4.87,-4.3,0.0,-903.52,-3643.0,0.0,0.0,0.0,69.0,0.0,0.0,0.0,0.0,0.0,0.0,0.0,0.0,0.0,0.0,0.0,0.0,0.0,0.0
