bid_gh,footprint_area,size_class_gh,energy_standard,floors,generator_1,generator_2,heatlevel_sh,heatlevel_dhw,heat_transmission,WWR_N,WWR_E,WWR_S,WWR_W
MFH1,500,MFH,AB1,5,GSHP_500,Cooling_10,Heat70,Heat70,LT-RADIATOR,0.14,0.14,0.14,0.14
MFH2,500,MFH,AB1,5,GSHP_100,Cooling_10,Heat70,Heat70,LT-RADIATOR,0.14,0.14,0.14,0.14
