,load_elec,grid,hp_elec,ev,pv,bat_pow,cool,load_th_sh,load_th_dhw,tes_pow,dh,hp_th,bat_soc,tes_soc,ev_soc,eh_th_in,eh_elec_in,eh_th_out,temp_slack,temp_zone_1,temp_zone_2,temp_update,Qsolar_1,QconvInt_1,QradInt_1,Qvent_1,Qconduc_1,Qheating_1,Qsolar_2,QconvInt_2,QradInt_2,Qvent_2,Qconduc_2,Qheating_2,temp_amb,temp_aggregate_1,temp_aggregate_2,temp_wall_1,temp_wall_2,_Tamb,_Tz_1,_TEW_1,_TIW_1,_T1_1,_T2_1,_Taeq_1,_Tvent_1,_Qheating_1,_Qinfvent_1,_Qenvelope_1,_Qsolar_1,_Qint_people_1,_Qint_lighting_1,_Qint_appliances_1,_Tz_2,_TEW_2,_TIW_2,_T1_2,_T2_2,_Taeq_2,_Tvent_2,_Qheating_2,_Qinfvent_2,_Qenvelope_2,_Qsolar_2,_Qint_people_2,_Qint_lighting_2,_Qint_appliances_2
8.0,1692.0,54291.05442494445,46626.195152819724,-0.0,0.0,0.0,0.0,54749.72297394661,28507.02,0.0,0.0,77555.33897394662,0.5,0.5,0.8,22805.616,5701.404,28507.02,"[2.0, 2.0, 2.0, 2.0, 2.0, 2.0, 2.0, 2.0]",20.0,0.0,0.0,1.4557788995247372,1236.037097388138,126.78103709359803,-1472.9959741227121,-1115.157248034883,9261.012029354008,0.0,0.0,0.0,0.0,0.0,0.0,-9.4,19.465865585142524,0.0,19.0,0.0,-9.4,20.0,18.0,20.0,20.0,20.0,-9.85,-9.4,2258.3,-1044.95,-1627.53,2.15,88.0,111.0,865.0,0.0,0.0,0.0,0.0,0.0,0.0,0.0,0.0,0.0,0.0,0.0,0.0,0.0,0.0
9.0,1381.0,0.0,0.0,-0.0,7.089558609517433,1373.9104413904827,0.0,45300.80264049927,0.0,45300.80264049927,0.0,0.0,0.4415854404170713,0.3073945465965167,0.8,0.0,0.0,0.0,"[2.0, 2.0, 2.0, 2.0, 2.0, 2.0, 2.0, 2.0]",24.0,0.0,0.0,44.80026966704143,142.3729792281484,93.48534928622243,-1633.3220665442318,-6339.323152651211,0.0,0.0,0.0,0.0,0.0,0.0,0.0,-8.6,20.863511360270618,0.0,19.235372960893354,0.0,-8.6,24.0,18.09,20.38,22.52,22.32,-9.01,-8.6,7034.13,-1158.69,-1804.67,66.13,112.0,89.0,38.0,0.0,0.0,0.0,0.0,0.0,0.0,0.0,0.0,0.0,0.0,0.0,0.0,0.0,0.0
10.0,1337.0,17135.85916267522,16088.925095769244,-0.0,375.74522890740207,0.0,0.0,29522.24718160119,0.0,0.0,0.0,29522.24718160119,0.4415854404170713,0.3073945465965167,0.7999999999999996,0.0,0.0,0.0,"[2.0, 2.0, 2.0, 2.0, 2.0, 2.0, 2.0, 2.0]",20.16,0.0,0.0,120.84034513807742,666.2632537840034,61.88323664707549,-1390.8000449893743,-896.0373599672247,5776.95487562786,0.0,0.0,0.0,0.0,0.0,0.0,-7.6,19.733318357839675,0.0,19.272365017999817,0.0,-7.6,20.16,18.09,20.45,19.44,20.26,-8.02,-7.6,427.71,-986.64,-1536.71,178.38,95.0,24.0,445.0,0.0,0.0,0.0,0.0,0.0,0.0,0.0,0.0,0.0,0.0,0.0,0.0,0.0,0.0
11.0,1070.0,34894.36302875652,21142.943844123693,-0.0,1067.0474782141487,-13573.994847703192,0.0,40408.5767051503,0.0,0.0,0.0,40408.5767051503,0.9958568966982849,0.3073945465965167,0.7999999999999996,0.0,0.0,0.0,"[2.0, 2.0, 2.0, 2.0, 2.0, 2.0, 2.0, 2.0]",22.32,0.0,0.0,161.96118551959174,126.23267613743256,49.07980837526677,-1458.9033793508065,-3730.6685332669854,208.89074036031462,0.0,0.0,0.0,0.0,0.0,0.0,-6.8,20.480298148723335,0.0,19.39010644917311,0.0,-6.8,22.32,18.14,20.64,21.31,21.63,-7.2,-6.8,8525.95,-1034.95,-1611.96,239.08,143.0,0.0,19.0,0.0,0.0,0.0,0.0,0.0,0.0,0.0,0.0,0.0,0.0,0.0,0.0,0.0,0.0
12.0,2998.0,0.0,14777.1774943774,-0.0,2506.2232840337383,15268.954210343662,0.0,29087.52133894062,0.0,0.0,0.0,29087.52133894062,0.3466666666666667,0.3073945465965167,0.7999999999999996,0.0,0.0,0.0,"[2.0, 2.0, 2.0, 2.0, 2.0, 2.0, 2.0, 2.0]",20.0,0.0,0.0,226.16079036150424,854.5198020604312,65.57523051381399,-1312.6698817011923,-485.5589509899817,8684.660405129198,0.0,0.0,0.0,0.0,0.0,0.0,-6.2,19.777362195410834,0.0,19.38666929068576,0.0,-6.2,20.0,18.13,20.64,19.46,20.37,-6.56,-6.2,1753.92,-931.21,-1450.38,333.85,137.0,0.0,566.0,0.0,0.0,0.0,0.0,0.0,0.0,0.0,0.0,0.0,0.0,0.0,0.0,0.0,0.0
13.0,981.0,33013.11325881383,16305.353604813045,-0.0,438.30591229328786,-16000.0,0.0,32251.040077823618,0.0,0.0,0.0,32251.040077823618,1.0,0.3073945465965167,0.7999999999999996,0.0,0.0,0.0,"[2.0, 2.0, 2.0, 2.0, 2.0, 2.0, 2.0, 2.0]",24.0,0.0,0.0,120.4352788145294,149.9849998997524,3.7936083768322137,-1508.0673068399196,-5755.172265590357,0.0,0.0,0.0,0.0,0.0,0.0,0.0,-6.1,21.152923745235448,0.0,19.598809763445495,0.0,-6.1,24.0,18.24,20.96,22.63,22.68,-6.51,-6.1,3513.43,-1069.83,-1666.28,177.78,0.0,0.0,112.0,0.0,0.0,0.0,0.0,0.0,0.0,0.0,0.0,0.0,0.0,0.0,0.0,0.0,0.0
14.0,1717.0,0.0,14287.727582829826,-0.0,4.7275828298251685,16000.0,0.0,27579.24682041695,0.0,0.0,0.0,27579.246820416956,0.3197278911564626,0.3073945465965167,0.7999999999999996,0.0,0.0,0.0,"[2.0, 2.0, 2.0, 2.0, 2.0, 2.0, 2.0, 2.0]",20.51,0.0,0.0,39.34308297654587,406.8202158935012,62.59453821773153,-1358.4915561965502,-833.294196937286,8681.204498400053,0.0,0.0,0.0,0.0,0.0,0.0,-6.6,20.11926399026604,0.0,19.625965928485982,0.0,-6.6,20.51,18.25,21.0,19.73,20.72,-7.01,-6.6,0.0,-963.72,-1501.01,58.08,163.0,0.0,218.0,0.0,0.0,0.0,0.0,0.0,0.0,0.0,0.0,0.0,0.0,0.0,0.0,0.0,0.0
15.0,1135.0,37341.79299749139,20020.08403250394,-0.0,0.0,-16000.0,0.0,37308.26931964971,0.0,0.0,0.0,37308.26931964972,0.9730612244897959,0.3073945465965167,0.7999999999999996,0.0,0.0,0.0,"[2.0, 2.0, 2.0, 2.0, 2.0, 2.0, 2.0, 2.0]",24.0,0.0,0.0,4.367942750758792,816.0368086651,61.713879130252636,-1568.189591497989,-5408.159576258006,0.0,0.0,0.0,0.0,0.0,0.0,0.0,-7.3,21.326814964548607,0.0,19.823319885520075,0.0,-7.3,24.0,18.36,21.29,22.65,22.84,-7.71,-7.3,9010.0,-1112.48,-1732.71,6.45,128.0,0.0,542.0,0.0,0.0,0.0,0.0,0.0,0.0,0.0,0.0,0.0,0.0,0.0,0.0,0.0,0.0
16.0,1370.0,51076.6376269003,49451.2544387658,-0.0,0.0,0.0,0.0,12625.928231465869,0.0,-80000.0,0.0,92625.92823146588,0.9730612244897959,0.6340612132631834,0.7865735767991403,0.0,0.0,0.0,"[2.0, 2.0, 2.0, 2.0, 2.0, 2.0, 2.0, 2.0]",20.96,0.0,0.0,0.0,592.3279789274055,63.54294031193958,-1410.7707949307644,-1116.0675418995584,0.0,0.0,0.0,0.0,0.0,0.0,0.0,-7.2,20.42248879107979,0.0,19.84465000613637,0.0,-7.2,20.96,18.37,21.32,20.01,21.05,-7.59,-7.2,0.0,-1000.81,-1558.77,0.0,106.0,24.0,384.0,0.0,0.0,0.0,0.0,0.0,0.0,0.0,0.0,0.0,0.0,0.0,0.0,0.0,0.0
17.0,1845.0,9158.617116169107,7267.824030588262,-0.0,0.0,0.0,0.0,13751.755203336688,0.0,0.0,0.0,13751.755203336688,0.9730612244897959,0.6340612132631834,0.7747583243823841,0.0,0.0,0.0,"[2.0, 2.0, 2.0, 2.0, 2.0, 2.0, 2.0, 2.0]",20.02,0.0,0.0,0.0,1212.7076636631293,78.37865878562272,-1353.8342323862896,83.71719552458724,0.0,0.0,0.0,0.0,0.0,0.0,0.0,-7.0,20.083429605371443,0.0,19.773334363756504,0.0,-7.0,20.02,18.33,21.21,19.54,20.68,-7.39,-7.0,0.0,-960.42,-1495.86,0.0,92.0,30.0,854.0,0.0,0.0,0.0,0.0,0.0,0.0,0.0,0.0,0.0,0.0,0.0,0.0,0.0,0.0
18.0,4976.0,9699.05622926458,4674.560948118259,-0.0,0.0,0.0,0.0,8889.497194047122,0.0,0.0,0.0,8889.497194047122,0.9730612244897959,0.6340612132631834,0.7747583243823841,0.0,0.0,0.0,"[2.0, 2.0, 2.0, 2.0, 2.0, 2.0, 2.0, 2.0]",20.03,0.0,0.0,0.0,2435.0713165115344,145.3426209373842,-1349.126226900721,-55.537699074043914,6808.024364883813,0.0,0.0,0.0,0.0,0.0,0.0,-6.9,20.01996492575181,0.0,19.689338512918734,0.0,-6.9,20.03,18.29,21.09,19.52,20.61,-7.3,-6.9,0.0,-957.08,-1490.66,0.0,142.0,63.0,1737.0,0.0,0.0,0.0,0.0,0.0,0.0,0.0,0.0,0.0,0.0,0.0,0.0,0.0,0.0
19.0,2792.0,1510.1495967171657,7861.936693778645,-0.0,0.0,9151.337845045065,0.0,15025.80124526445,0.0,0.0,0.0,15025.80124526445,0.583973731078016,0.6340612132631834,0.7425349087003218,0.0,0.0,0.0,"[2.0, 2.0, 2.0, 2.0, 2.0, 2.0, 2.0, 2.0]",24.0,0.0,0.0,0.0,559.2720743442363,103.8161578124173,-1543.1386395571267,-5374.941417348196,6266.743390591026,0.0,0.0,0.0,0.0,0.0,0.0,-6.8,21.34299874067454,0.0,19.845604462772442,0.0,-6.8,24.0,18.37,21.32,22.42,22.69,-7.19,-6.8,0.0,-1094.71,-1705.03,0.0,83.0,104.0,363.0,0.0,0.0,0.0,0.0,0.0,0.0,0.0,0.0,0.0,0.0,0.0,0.0,0.0,0.0
20.0,3569.0,17682.79122769106,59.189189223659035,-0.0,0.0,-13966.188082328948,0.0,114.25142656424755,0.0,0.0,0.0,114.25142656424755,1.0,0.6340612132631834,0.7425349087003218,0.0,0.0,0.0,"[2.0, 1.85891034284316, 1.2003329518773462, 1.6757255909676516, 1.7428593740521308, 1.4881871370107724, 2.0, 2.0]",24.0,0.0,0.0,0.0,596.1339892632076,109.81141390794677,-1533.1182587807818,-5040.707604134364,0.0,0.0,0.0,0.0,0.0,0.0,0.0,-6.6,21.50949324849675,0.0,20.061561649962307,0.0,-6.6,24.0,18.49,21.63,22.42,22.83,-6.99,-6.6,0.0,-1087.6,-1693.96,0.0,129.0,88.0,368.0,0.0,0.0,0.0,0.0,0.0,0.0,0.0,0.0,0.0,0.0,0.0,0.0,0.0,0.0
21.0,3431.0,537.9647103873524,4624.2748868354165,-0.0,0.0,7520.000000000001,0.0,8970.207958810563,0.0,0.0,0.0,8970.207958810563,0.6802721088435374,0.6340612132631834,0.7425349087003218,0.0,0.0,0.0,"[2.0, 1.85891034284316, 1.2003329518773462, 1.6757255909676516, 1.7428593740521308, 1.4881871370107724, 2.0, 2.0]",21.07,0.0,0.0,0.0,738.859376855782,117.7712171986215,-1381.2187236374684,-919.1583503502515,0.0,0.0,0.0,0.0,0.0,0.0,0.0,-6.5,20.630397080878616,0.0,20.074118472619443,0.0,-6.5,21.07,18.51,21.64,20.18,21.31,-6.9,-6.5,709.06,-979.84,-1526.12,0.0,135.0,92.0,471.0,0.0,0.0,0.0,0.0,0.0,0.0,0.0,0.0,0.0,0.0,0.0,0.0,0.0,0.0
22.0,2512.0,2524.6231155778896,0.0,-0.0,0.0,0.0,0.0,35260.12020315021,0.0,35260.12020315022,0.0,0.0,0.6802721088435374,0.48414573620897333,0.7425349087003218,0.0,0.0,0.0,"[2.0, 1.85891034284316, 1.2003329518773462, 1.6757255909676516, 1.7428593740521308, 1.4881871370107724, 2.0, 2.0]",20.34,0.0,0.0,0.0,458.9766538285656,97.14347164959634,-1334.8007439805167,-13.568991084072396,6487.37952009197,0.0,0.0,0.0,0.0,0.0,0.0,-6.3,20.354775849484348,0.0,20.0042035848077,0.0,-6.3,20.34,18.48,21.53,19.82,21.0,-6.73,-6.3,4216.51,-946.91,-1474.83,0.0,157.0,58.0,254.0,0.0,0.0,0.0,0.0,0.0,0.0,0.0,0.0,0.0,0.0,0.0,0.0,0.0,0.0
23.0,1529.0,9090.535765912207,7516.083087082646,-0.0,0.0,0.0,0.0,14794.721607962816,0.0,0.0,0.0,14794.721607962816,0.6802721088435374,0.48414573620897333,0.7425349087003218,0.0,0.0,0.0,"[2.0, 1.85891034284316, 1.2003329518773462, 1.6757255909676516, 1.7428593740521308, 1.4881871370107724, 2.0, 2.0]",23.18,0.0,0.0,0.0,349.23668914627495,67.23493417867809,-1471.7794241333743,-3813.9958319547814,0.0,0.0,0.0,0.0,0.0,0.0,0.0,-6.2,21.295947590343427,0.0,20.113979609792814,0.0,-6.2,23.18,18.55,21.68,22.09,22.62,-6.61,-6.2,5959.04,-1044.09,-1626.18,0.0,80.0,54.0,213.0,0.0,0.0,0.0,0.0,0.0,0.0,0.0,0.0,0.0,0.0,0.0,0.0,0.0,0.0
24.0,1529.0,3882.1970982937833,18333.786112802314,-0.0,0.0,16000.0,0.0,36263.16147646729,0.0,0.0,0.0,36263.16147646729,0.0,0.48414573620897333,0.7425349087003218,0.0,0.0,0.0,"[2.0, 1.85891034284316, 1.2003329518773462, 1.6757255909676516, 1.7428593740521308, 1.4881871370107724, 2.0, 2.0]",20.74,0.0,0.0,0.0,190.30051679009932,30.484353028116,-1344.9445896595714,-440.9873226730206,8098.766800431658,0.0,0.0,0.0,0.0,0.0,0.0,-6.1,20.54428400047302,0.0,20.095750961164416,0.0,-6.1,20.74,18.55,21.64,20.03,21.19,-6.52,-6.1,5293.38,-954.11,-1486.04,0.0,80.0,0.0,100.0,0.0,0.0,0.0,0.0,0.0,0.0,0.0,0.0,0.0,0.0,0.0,0.0,0.0,0.0
25.0,1046.0,16800.279661653396,15670.278263345128,-0.0,0.0,0.0,0.0,31144.287600325875,0.0,0.0,0.0,31144.28760032587,0.0,0.48414573620897333,0.7425349087003218,0.0,0.0,0.0,"[2.0, 1.85891034284316, 1.2003329518773462, 1.6757255909676516, 1.7428593740521308, 1.4881871370107724, 2.0, 2.0]",24.0,0.0,0.0,0.0,218.4227042713029,31.195654598772048,-1503.057116451747,-4753.355857367199,0.0,0.0,0.0,0.0,0.0,0.0,0.0,-6.0,21.6523238673124,0.0,20.256551822965307,0.0,-6.0,24.0,18.65,21.87,22.73,23.14,-6.39,-6.0,0.0,-1066.28,-1660.74,0.0,80.0,0.0,121.0,0.0,0.0,0.0,0.0,0.0,0.0,0.0,0.0,0.0,0.0,0.0,0.0,0.0,0.0
26.0,966.0,6028.913404626274,5032.768837603143,-0.0,0.0,0.0,0.0,10146.439455360276,0.0,0.0,0.0,10146.439455360276,0.0,0.48414573620897333,0.7425349087003218,0.0,0.0,0.0,"[2.0, 1.85891034284316, 1.2003329518773462, 1.6757255909676516, 1.7428593740521308, 1.4881871370107724, 2.0, 2.0]",21.0,0.0,0.0,0.0,170.21324001781107,29.976280477647407,-1337.8894395759232,-566.744749799293,0.0,0.0,0.0,0.0,0.0,0.0,0.0,-5.7,20.740634021497865,0.0,20.253128041881613,0.0,-5.7,21.0,18.66,21.85,20.2,21.4,-6.08,-5.7,6734.98,-949.1,-1478.25,0.0,80.0,0.0,85.0,0.0,0.0,0.0,0.0,0.0,0.0,0.0,0.0,0.0,0.0,0.0,0.0,0.0,0.0
27.0,1862.0,5508.761433882112,3619.2176267127015,-0.0,0.0,0.0,0.0,7365.620416600457,0.0,0.0,0.0,7365.620416600457,0.0,0.48414573620897333,0.7425349087003218,0.0,0.0,0.0,"[2.0, 1.85891034284316, 1.2003329518773462, 1.6757255909676516, 1.7428593740521308, 1.4881871370107724, 2.0, 2.0]",20.15,0.0,0.0,0.0,1600.4273462047358,66.15104607101173,-1285.2075059036674,481.6269704149959,0.0,0.0,0.0,0.0,0.0,0.0,0.0,-5.5,20.41105828775085,0.0,20.16318532141647,0.0,-5.5,20.15,18.62,21.7,19.77,21.04,-5.87,-5.5,0.0,-911.73,-1420.04,0.0,80.0,0.0,1153.0,0.0,0.0,0.0,0.0,0.0,0.0,0.0,0.0,0.0,0.0,0.0,0.0,0.0,0.0
28.0,1667.0,35403.465460072635,17559.44813277227,-0.0,0.0,-16000.0,0.0,35903.36329135897,0.0,0.0,0.0,35903.36329135897,0.6533333333333333,0.48414573620897333,0.7425349087003218,0.0,0.0,0.0,"[2.0, 1.85891034284316, 1.2003329518773462, 1.6757255909676516, 1.7428593740521308, 1.4881871370107724, 2.0, 2.0]",20.58,0.0,0.0,0.0,1131.7242215180092,54.29601989341107,-1301.5678323556606,-251.01956482257376,7235.367113329322,0.0,0.0,0.0,0.0,0.0,0.0,-5.4,20.472550637602343,0.0,20.07829967554581,0.0,-5.4,20.58,18.59,21.57,19.95,21.1,-5.77,-5.4,6469.37,-923.34,-1438.11,0.0,80.0,0.0,803.0,0.0,0.0,0.0,0.0,0.0,0.0,0.0,0.0,0.0,0.0,0.0,0.0,0.0,0.0
29.0,740.0,10586.184883519083,9793.253959101488,-0.0,0.0,0.0,0.0,20210.74499375251,0.0,0.0,0.0,20210.74499375251,0.6533333333333333,0.48414573620897333,0.7425349087003218,0.0,0.0,0.0,"[2.0, 1.85891034284316, 1.2003329518773462, 1.6757255909676516, 1.7428593740521308, 1.4881871370107724, 2.0, 2.0]",24.0,0.0,0.0,0.0,105.93395434648862,28.350448316147883,-1462.975593346367,-4812.437551140478,0.0,0.0,0.0,0.0,0.0,0.0,0.0,-5.2,21.62226124341883,0.0,20.22789385566969,0.0,-5.2,24.0,18.68,21.78,22.62,23.01,-5.56,-5.2,0.0,-1037.84,-1616.46,0.0,80.0,0.0,37.0,0.0,0.0,0.0,0.0,0.0,0.0,0.0,0.0,0.0,0.0,0.0,0.0,0.0,0.0
30.0,768.0,24984.817780277568,15602.09777300883,-0.0,0.0,-8489.795918367347,0.0,32347.436850094724,0.0,0.0,0.0,32347.436850094724,1.0,0.48414573620897333,0.7425349087003218,0.0,0.0,0.0,"[2.0, 1.85891034284316, 1.2003329518773462, 1.6757255909676516, 1.7428593740521308, 1.4881871370107724, 2.0, 2.0]",20.94,0.0,0.0,0.0,207.4275633012083,76.44798309384204,-1304.4806945483251,-527.7973942489967,7701.3940394357,0.0,0.0,0.0,0.0,0.0,0.0,-5.1,20.69273686772216,0.0,20.227325335835204,0.0,-5.1,20.94,18.69,21.76,20.17,21.33,-5.47,-5.1,6183.85,-925.4,-1441.33,0.0,169.0,28.0,63.0,0.0,0.0,0.0,0.0,0.0,0.0,0.0,0.0,0.0,0.0,0.0,0.0,0.0,0.0
31.0,1481.0,4765.38661218232,9350.547729282003,-0.0,0.0,6089.988050160595,0.0,19475.397040011718,0.0,0.0,0.0,19475.397040011718,0.7410719366428319,0.48414573620897333,0.7425349087003218,0.0,0.0,0.0,"[2.0, 1.85891034284316, 1.2003329518773462, 1.6757255909676516, 1.7428593740521308, 1.4881871370107724, 2.0, 2.0]",24.0,0.0,0.0,0.0,144.62839276047546,81.56258010189259,-1452.9552125700222,-4579.03936731599,5815.036158589191,0.0,0.0,0.0,0.0,0.0,0.0,-5.0,21.738481199864736,0.0,20.383387658458837,0.0,-5.0,24.0,18.79,21.98,22.77,23.19,-5.36,-5.0,0.0,-1030.73,-1605.38,0.0,137.0,56.0,30.0,0.0,0.0,0.0,0.0,0.0,0.0,0.0,0.0,0.0,0.0,0.0,0.0,0.0,0.0
32.0,3717.0,0.0,0.0,-0.0,0.0,3717.0,0.0,0.0,0.0,0.0,0.0,0.0,0.4250005080714033,0.48414573620897333,0.7425349087003218,0.0,0.0,0.0,"[2.0, 1.6075239718679875, 1.2003329518773462, 0.5063373997585714, 1.0025755731552835, 1.4881871370107724, 2.0, 1.5603948305605932]",24.0,0.0,0.0,1.4556515577163573,303.0007117335693,74.55117890542593,-1442.934831793677,-4305.574391247468,0.0,0.0,0.0,0.0,0.0,0.0,0.0,-4.8,21.87468347086106,0.0,20.562736342615807,0.0,-4.8,24.0,18.9,22.23,22.59,23.18,-5.17,-4.8,279.13,-1023.62,-1594.31,2.15,114.0,50.0,161.0,0.0,0.0,0.0,0.0,0.0,0.0,0.0,0.0,0.0,0.0,0.0,0.0,0.0,0.0
33.0,1716.0,46648.96797094399,0.0,-0.0,6.730546185707031,-14081.620210496245,0.0,23679.67327331881,0.0,-3882.6768467820407,0.0,0.0,1.0,0.5,0.7425349087003218,122499.33386711492,30624.83346677873,153124.16733389365,"[2.0, 1.6075239718679875, 1.2003329518773462, 0.5063373997585714, 1.0025755731552835, 1.4881871370107724, 2.0, 1.5603948305605932]",21.32,0.0,0.0,44.766173710344034,348.17946405299654,58.93641585435763,-1258.4923617960978,-566.7656026538453,0.0,0.0,0.0,0.0,0.0,0.0,0.0,-3.8,21.054699701715634,0.0,20.55589691097778,0.0,-3.8,21.32,18.91,22.2,20.52,21.75,-4.11,-3.8,160.32,-892.78,-1390.52,66.08,109.0,25.0,200.0,0.0,0.0,0.0,0.0,0.0,0.0,0.0,0.0,0.0,0.0,0.0,0.0,0.0,0.0
34.0,2352.0,0.0,5446.283493494532,-0.0,117.11688078583849,7681.166612708694,0.0,12537.74877523901,0.0,0.0,0.0,12537.74877523901,0.6734197868746303,0.5,0.7425349087003218,0.0,0.0,0.0,"[2.0, 1.6075239718679875, 1.2003329518773462, 0.5063373997585714, 1.0025755731552835, 1.4881871370107724, 2.0, 1.5603948305605932]",20.63,0.0,0.0,86.8143370429034,555.8889540457458,66.82847613830322,-1168.895869891411,269.3580885025887,0.0,0.0,0.0,0.0,0.0,0.0,0.0,-2.7,20.78196979033466,0.0,20.47734309712275,0.0,-2.7,20.63,18.9,22.06,20.18,21.45,-3.0,-2.7,2289.95,-829.22,-1291.52,128.15,155.0,5.0,333.0,0.0,0.0,0.0,0.0,0.0,0.0,0.0,0.0,0.0,0.0,0.0,0.0,0.0,0.0
35.0,2675.0,0.0,6280.116558405201,-0.0,581.6715248029304,8373.445033602271,0.0,15055.997154540948,0.0,0.0,0.0,15055.997154540948,0.3174059674187515,0.5,0.7425349087003218,0.0,0.0,0.0,"[2.0, 1.6075239718679875, 1.2003329518773462, 0.5063373997585714, 1.0025755731552835, 1.4881871370107724, 2.0, 1.5603948305605932]",20.53,0.0,0.0,132.51062947818346,313.2910359748118,37.76672625149927,-1113.8370731180592,269.83812125693925,3278.134085479934,0.0,0.0,0.0,0.0,0.0,0.0,-1.7,20.682446363115094,0.0,20.39220230682282,0.0,-1.7,20.53,18.87,21.91,20.12,21.33,-1.97,-1.7,0.0,-790.16,-1230.69,195.61,93.0,0.0,185.0,0.0,0.0,0.0,0.0,0.0,0.0,0.0,0.0,0.0,0.0,0.0,0.0,0.0,0.0
36.0,1550.0,4079.2104594108414,3335.696232519772,-0.0,826.8818254059847,0.0,0.0,8219.623941827762,0.0,0.0,0.0,8219.623941827762,0.3174059674187515,0.5,0.7425349087003218,0.0,0.0,0.0,"[2.0, 1.6075239718679875, 1.2003329518773462, 0.5063373997585714, 1.0025755731552835, 1.4881871370107724, 2.0, 1.5603948305605932]",21.98,0.0,0.0,145.02846355483942,494.1470085982914,12.498584741527566,-1151.5091667609431,-1740.5470490848877,6288.0856354097705,0.0,0.0,0.0,0.0,0.0,0.0,-1.0,21.1326423007299,0.0,20.410901545527103,0.0,-1.0,21.98,18.9,21.92,21.28,22.12,-1.37,-1.0,6129.44,-816.89,-1272.31,214.09,0.0,0.0,369.0,0.0,0.0,0.0,0.0,0.0,0.0,0.0,0.0,0.0,0.0,0.0,0.0,0.0,0.0
37.0,1124.0,7010.018517469708,6088.379960525658,-0.0,237.41153564329807,0.0,0.0,15176.750385139869,0.0,0.0,0.0,15176.750385139869,0.3174059674187515,0.5,0.7425349087003218,0.0,0.0,0.0,"[2.0, 1.6075239718679875, 1.2003329518773462, 0.5063373997585714, 1.0025755731552835, 1.4881871370107724, 2.0, 1.5603948305605932]",24.0,0.0,0.0,102.26667041326284,139.27178562119863,3.522636349915627,-1237.517025878605,-4325.160075915912,5319.0595950955185,0.0,0.0,0.0,0.0,0.0,0.0,-0.7,21.86194642815105,0.0,20.569583954906616,0.0,-0.7,24.0,19.01,22.13,22.71,23.19,-1.11,-0.7,4697.36,-877.9,-1367.34,150.96,0.0,0.0,104.0,0.0,0.0,0.0,0.0,0.0,0.0,0.0,0.0,0.0,0.0,0.0,0.0,0.0,0.0
38.0,2532.0,8182.330225798066,5609.650684581909,-0.0,0.23210991283392307,0.0,0.0,13662.53147388202,0.0,0.0,0.0,13662.53147388202,0.3174059674187515,0.5,0.7425349087003213,0.0,0.0,0.0,"[2.0, 1.6075239718679875, 1.2003329518773462, 0.5063373997585714, 1.0025755731552835, 1.4881871370107724, 2.0, 1.5603948305605932]",24.0,0.0,0.0,25.121173088252494,92.40147315252602,2.3371337321555576,-1267.5781682076401,-4066.204676319626,5214.434876769341,0.0,0.0,0.0,0.0,0.0,0.0,-1.3,21.991482306914303,0.0,20.742526762966463,0.0,-1.3,24.0,19.13,22.35,22.63,23.23,-1.69,-1.3,4460.12,-899.23,-1400.56,37.08,0.0,0.0,69.0,0.0,0.0,0.0,0.0,0.0,0.0,0.0,0.0,0.0,0.0,0.0,0.0,0.0,0.0
39.0,829.0,0.0,4593.835562282915,-0.0,0.0,5422.835562282915,0.0,10925.705930386495,0.0,0.0,0.0,10925.705930386495,0.08684323092713098,0.5,0.7425349087003213,0.0,0.0,0.0,"[2.0, 1.6075239718679875, 1.2003329518773462, 0.5063373997585714, 1.0025755731552835, 1.4881871370107724, 2.0, 1.5603948305605932]",24.0,0.0,0.0,2.9013017141780533,40.174553544576526,1.0161451009371973,-1297.6393105366749,-3834.068643565919,0.0,0.0,0.0,0.0,0.0,0.0,0.0,-1.9,22.107671536151315,0.0,20.898436425693525,0.0,-1.9,24.0,19.24,22.56,22.66,23.33,-2.31,-1.9,0.0,-920.55,-1433.77,4.28,0.0,0.0,30.0,0.0,0.0,0.0,0.0,0.0,0.0,0.0,0.0,0.0,0.0,0.0,0.0,0.0,0.0
40.0,914.0,25707.149449215358,8664.61370196928,-0.0,0.0,-16000.0,0.0,20442.198279020293,0.0,0.0,0.0,20442.198279020293,0.7401765642604643,0.5,0.7425349087003213,0.0,0.0,0.0,"[2.0, 1.6075239718679875, 1.2003329518773462, 0.5063373997585714, 1.0025755731552835, 1.4881871370107724, 2.0, 1.5603948305605932]",21.46,0.0,0.0,0.0,194.74086218186832,60.8670915461383,-1180.5681677265973,-318.1071106653274,0.0,0.0,0.0,0.0,0.0,0.0,0.0,-2.1,21.32230122584816,0.0,20.88134808217212,0.0,-2.1,21.46,19.26,22.5,20.73,21.99,-2.52,-2.1,0.0,-837.5,-1304.42,0.0,163.0,6.0,59.0,0.0,0.0,0.0,0.0,0.0,0.0,0.0,0.0,0.0,0.0,0.0,0.0,0.0,0.0
41.0,2267.0,14094.55807675946,11757.085286375663,-0.0,0.0,0.0,0.0,27514.018440857642,0.0,0.0,0.0,27514.018440857642,0.7401765642604643,0.5,0.7425349087003213,0.0,0.0,0.0,"[2.0, 1.6075239718679875, 1.2003329518773462, 0.5063373997585714, 1.0025755731552835, 1.4881871370107724, 2.0, 1.5603948305605932]",20.84,0.0,0.0,0.0,218.98655765438474,100.02254943558506,-1159.3647902419339,415.0847154590449,0.0,0.0,0.0,0.0,0.0,0.0,0.0,-2.3,21.06433664084848,0.0,20.79704935720472,0.0,-2.3,20.84,19.24,22.35,20.44,21.7,-2.71,-2.3,0.0,-822.46,-1280.99,0.0,149.0,77.0,77.0,0.0,0.0,0.0,0.0,0.0,0.0,0.0,0.0,0.0,0.0,0.0,0.0,0.0,0.0
42.0,5143.0,0.0,3335.6330705877253,-0.0,0.0,8478.633070587726,0.0,7742.4740960444915,0.0,0.0,0.0,7742.474096044492,0.37969046432050996,0.5,0.7425349087003213,0.0,0.0,0.0,"[2.0, 1.6075239718679875, 1.2003329518773462, 0.5063373997585714, 1.0025755731552835, 1.4881871370107724, 2.0, 1.5603948305605932]",20.62,0.0,0.0,0.0,502.53432767163275,76.88831263758149,-1158.479135625353,563.3227953269542,0.0,0.0,0.0,0.0,0.0,0.0,0.0,-2.5,20.92058986070194,0.0,20.700882189988803,0.0,-2.5,20.62,19.21,22.19,20.32,21.54,-2.96,-2.5,5461.69,-821.83,-1280.01,0.0,81.0,63.0,326.0,0.0,0.0,0.0,0.0,0.0,0.0,0.0,0.0,0.0,0.0,0.0,0.0,0.0,0.0
43.0,5819.0,7064.539599657798,4566.039438962942,-0.0,0.0,3355.8225373034334,0.0,10511.361638066026,0.0,0.0,0.0,10511.361638066026,0.23701093467325515,0.5,0.7425349087003213,0.0,0.0,0.0,"[2.0, 1.6075239718679875, 1.2003329518773462, 0.5063373997585714, 1.0025755731552835, 1.4881871370107724, 2.0, 1.5603948305605932]",20.61,0.0,0.0,0.0,858.8896657793149,108.86301181373872,-1167.8890799458165,426.60026030985074,6584.605857633748,0.0,0.0,0.0,0.0,0.0,0.0,-2.7,20.84038446115129,0.0,20.60547688270994,0.0,-2.7,20.61,19.18,22.04,20.27,21.43,-3.17,-2.7,3547.29,-828.51,-1290.41,0.0,128.0,76.0,566.0,0.0,0.0,0.0,0.0,0.0,0.0,0.0,0.0,0.0,0.0,0.0,0.0,0.0,0.0
44.0,4947.0,21682.91174222609,627.4971835149615,-0.0,0.0,-16000.0,0.0,1432.5808370942675,0.0,0.0,0.0,1432.5808370942675,0.6533333333333333,0.5,0.7274973147153588,0.0,0.0,0.0,"[2.0, 0.8691050415657209, 1.2003329518773462, 0.22681773485371082, 0.708662410894398, 0.3346856758672203, 1.013765745611444, 0.7517333270881075]",24.0,0.0,0.0,0.0,1480.3970572812025,146.18940852149854,-1347.7412144183997,-4135.694210963155,0.0,0.0,0.0,0.0,0.0,0.0,0.0,-2.9,21.95804778919676,0.0,20.726825824140327,0.0,-2.9,24.0,19.25,22.2,22.84,23.26,-3.34,-2.9,0.0,-956.09,-1489.13,0.0,167.0,91.0,1008.0,0.0,0.0,0.0,0.0,0.0,0.0,0.0,0.0,0.0,0.0,0.0,0.0,0.0,0.0
45.0,5295.0,5321.608040201005,0.0,-0.0,0.0,0.0,0.0,6346.423527605704,0.0,6346.423527605705,0.0,0.0,0.6533333333333333,0.4730169067703839,0.6925886143931247,0.0,0.0,0.0,"[2.0, 0.8691050415657209, 1.2003329518773462, 0.22681773485371082, 0.708662410894398, 0.3346856758672203, 1.013765745611444, 0.7517333270881075]",22.07,0.0,0.0,0.0,2776.76646665909,186.39488301524713,-1261.0046752821233,-1404.186401321725,0.0,0.0,0.0,0.0,0.0,0.0,0.0,-3.1,21.38745704192638,0.0,20.74757383666595,0.0,-3.1,22.07,19.28,22.22,21.05,22.04,-3.55,-3.1,0.0,-894.56,-1393.3,0.0,107.0,135.0,2003.0,0.0,0.0,0.0,0.0,0.0,0.0,0.0,0.0,0.0,0.0,0.0,0.0,0.0,0.0
46.0,3306.0,3322.613065326633,0.0,-0.0,0.0,0.0,0.0,11864.023093607539,0.0,11864.02309360754,0.0,0.0,0.6533333333333333,0.4225746317125287,0.6925886143931245,0.0,0.0,0.0,"[2.0, 0.8691050415657209, 1.2003329518773462, 0.22681773485371082, 0.708662410894398, 0.3346856758672203, 1.013765745611444, 0.7517333270881075]",22.21,0.0,0.0,0.0,678.2451381744911,123.19065773695324,-1277.9412585366,-1622.9677120157257,0.0,0.0,0.0,0.0,0.0,0.0,0.0,-3.3,21.416688877433423,0.0,20.734108702203383,0.0,-3.3,22.21,19.28,22.19,21.13,22.08,-3.78,-3.3,0.0,-906.58,-1412.01,0.0,134.0,104.0,425.0,0.0,0.0,0.0,0.0,0.0,0.0,0.0,0.0,0.0,0.0,0.0,0.0,0.0,0.0
47.0,2131.0,7806.456695609585,5636.424412131537,-0.0,0.0,0.0,0.0,12599.330934755344,0.0,0.0,0.0,12599.330934755344,0.6533333333333333,0.4225746317125287,0.6925886143931245,0.0,0.0,0.0,"[2.0, 0.8691050415657209, 1.2003329518773462, 0.22681773485371082, 0.708662410894398, 0.3346856758672203, 1.013765745611444, 0.7517333270881075]",21.15,0.0,0.0,0.0,242.52743639804882,58.22511428370158,-1230.1585640535316,-223.5354152220249,0.0,0.0,0.0,0.0,0.0,0.0,0.0,-3.4,21.06000811370552,0.0,20.687591775111,0.0,-3.4,21.15,19.27,22.11,20.59,21.67,-3.87,-3.4,5402.46,-872.68,-1359.21,0.0,83.0,42.0,133.0,0.0,0.0,0.0,0.0,0.0,0.0,0.0,0.0,0.0,0.0,0.0,0.0,0.0,0.0
48.0,1359.0,8250.183083605149,6849.9321681871215,-0.0,0.0,0.0,0.0,14528.304585413278,0.0,0.0,0.0,14528.304585413278,0.6533333333333333,0.4225746317125287,0.6829215896885058,0.0,0.0,0.0,"[2.0, 0.8691050415657209, 1.2003329518773462, 0.22681773485371082, 0.708662410894398, 0.3346856758672203, 1.013765745611444, 0.7517333270881075]",20.58,0.0,0.0,0.0,262.6147131703371,32.31341420980297,-1261.3158933371024,447.9491303823048,7391.572383872791,0.0,0.0,0.0,0.0,0.0,0.0,-4.6,20.81712154098995,0.0,20.60167848456972,0.0,-4.6,20.58,19.23,21.97,20.26,21.38,-5.06,-4.6,4206.92,-894.78,-1393.64,0.0,80.0,0.0,154.0,0.0,0.0,0.0,0.0,0.0,0.0,0.0,0.0,0.0,0.0,0.0,0.0,0.0,0.0
49.0,770.0,13665.390638013243,12827.063684823177,-0.0,0.0,0.0,0.0,25738.038137552474,0.0,0.0,0.0,25738.038137552478,0.6533333333333333,0.4225746317125287,0.6603651987110621,0.0,0.0,0.0,"[2.0, 0.8691050415657209, 1.2003329518773462, 0.22681773485371082, 0.708662410894398, 0.3346856758672203, 1.013765745611444, 0.7517333270881075]",24.0,0.0,0.0,0.0,115.30801684022316,28.5875488396999,-1493.0367356754018,-4152.665051788301,5505.042215771043,0.0,0.0,0.0,0.0,0.0,0.0,-5.8,21.951716830163367,0.0,20.728999000322517,0.0,-5.8,24.0,19.3,22.16,22.93,23.29,-6.25,-5.8,0.0,-1059.17,-1649.67,0.0,80.0,0.0,44.0,0.0,0.0,0.0,0.0,0.0,0.0,0.0,0.0,0.0,0.0,0.0,0.0,0.0,0.0
50.0,2276.0,1986.4880236851614,0.0,-0.0,0.0,299.44441643326445,0.0,9058.358104811696,0.0,9058.358104811696,0.0,0.0,0.6406018530428034,0.38406120439615243,0.6603651987110621,0.0,0.0,0.0,"[2.0, 0.8691050415657209, 1.2003329518773462, 0.22681773485371082, 0.708662410894398, 0.3346856758672203, 1.013765745611444, 0.7517333270881075]",24.0,0.0,0.0,0.0,202.35288285347232,30.789196558397165,-1553.159020333472,-3912.2774853538012,2475.026850109895,0.0,0.0,0.0,0.0,0.0,0.0,-7.0,22.072466332728656,0.0,20.885275821806964,0.0,-7.0,24.0,19.39,22.38,22.73,23.26,-7.48,-7.0,2055.38,-1101.82,-1716.1,0.0,80.0,0.0,109.0,0.0,0.0,0.0,0.0,0.0,0.0,0.0,0.0,0.0,0.0,0.0,0.0,0.0,0.0
51.0,1486.0,0.0,13580.955583566736,-0.0,0.0,15066.955583566736,0.0,24920.268154261932,0.0,0.0,0.0,24920.26815426194,0.0,0.38406120439615243,0.6603651987110621,0.0,0.0,0.0,"[2.0, 0.8691050415657209, 1.2003329518773462, 0.22681773485371082, 0.708662410894398, 0.3346856758672203, 1.013765745611444, 0.7517333270881075]",22.62,0.0,0.0,0.0,192.97882035973777,30.552096034845153,-1514.2569409590394,-1904.324907273157,0.0,0.0,0.0,0.0,0.0,0.0,0.0,-7.6,21.696571538484154,0.0,20.93803688078476,0.0,-7.6,22.62,19.42,22.46,21.69,22.58,-8.09,-7.6,0.0,-1074.22,-1673.12,0.0,80.0,0.0,102.0,0.0,0.0,0.0,0.0,0.0,0.0,0.0,0.0,0.0,0.0,0.0,0.0,0.0,0.0
52.0,749.0,27629.16195230892,10742.01614254738,-0.0,0.0,-16000.0,0.0,18994.12989105963,0.0,0.0,0.0,18994.129891059627,0.6533333333333333,0.38406120439615243,0.6603651987110621,0.0,0.0,0.0,"[2.0, 0.8691050415657209, 1.2003329518773462, 0.22681773485371082, 0.708662410894398, 0.3346856758672203, 1.013765745611444, 0.7517333270881075]",21.03,0.0,0.0,0.0,167.53493644817266,29.90853747091826,-1469.4299549011316,220.5582689674409,7014.075828787478,0.0,0.0,0.0,0.0,0.0,0.0,-8.3,21.160637261465805,0.0,20.869237288313208,0.0,-8.3,21.03,19.38,22.36,20.57,21.77,-8.8,-8.3,4113.31,-1042.42,-1623.59,0.0,80.0,0.0,83.0,0.0,0.0,0.0,0.0,0.0,0.0,0.0,0.0,0.0,0.0,0.0,0.0,0.0,0.0
53.0,581.0,6793.732689460447,7578.113596798845,-0.0,0.0,1399.3495707857005,0.0,12966.22195981898,0.0,0.0,0.0,12966.22195981898,0.5938371781128529,0.38406120439615243,0.6603651987110621,0.0,0.0,0.0,"[2.0, 0.8691050415657209, 1.2003329518773462, 0.22681773485371082, 0.708662410894398, 0.3346856758672203, 1.013765745611444, 0.7517333270881075]",24.0,0.0,0.0,0.0,140.46997406024738,39.52804442645709,-1648.3526377087492,-3777.5839470197916,0.0,0.0,0.0,0.0,0.0,0.0,0.0,-8.9,22.141043650437325,0.0,20.973607521389116,0.0,-8.9,24.0,19.43,22.51,22.98,23.49,-9.42,-8.9,0.0,-1169.35,-1821.28,0.0,80.0,17.0,61.0,0.0,0.0,0.0,0.0,0.0,0.0,0.0,0.0,0.0,0.0,0.0,0.0,0.0,0.0
54.0,1126.0,0.0,0.0,-0.0,0.0,1126.0,0.0,18838.60733586002,0.0,18838.60733586002,0.0,0.0,0.5459630284529889,0.30396508477089723,0.660365198711062,0.0,0.0,0.0,"[2.0, 0.8691050415657209, 1.2003329518773462, 0.22681773485371082, 0.708662410894398, 0.3346856758672203, 1.013765745611444, 0.7517333270881075]",21.38,0.0,0.0,0.0,156.46931380519277,59.61384592164907,-1542.2490016803013,-165.94346205525255,0.0,0.0,0.0,0.0,0.0,0.0,0.0,-9.4,21.322433473066557,0.0,20.938866010380842,0.0,-9.4,21.38,19.41,22.47,20.77,21.95,-9.92,-9.4,5401.42,-1094.08,-1704.05,0.0,147.0,14.0,38.0,0.0,0.0,0.0,0.0,0.0,0.0,0.0,0.0,0.0,0.0,0.0,0.0,0.0,0.0
55.0,803.0,0.0,12038.050429214301,-0.0,0.0,12841.050429214301,0.0,19449.590548396674,0.0,0.0,0.0,19449.590548396678,0.0,0.30396508477089723,0.660365198711062,0.0,0.0,0.0,"[2.0, 0.8691050415657209, 1.2003329518773462, 0.22681773485371082, 0.708662410894398, 0.3346856758672203, 1.013765745611444, 0.7517333270881075]",20.63,0.0,0.0,0.0,165.84337629892735,38.85061435916562,-1529.858704960233,711.2694839987739,0.0,0.0,0.0,0.0,0.0,0.0,0.0,-9.9,21.012321575677213,0.0,20.829381082434544,0.0,-9.9,20.63,19.35,22.31,20.38,21.62,-10.43,-9.9,0.0,-1085.29,-1690.36,0.0,108.0,0.0,67.0,0.0,0.0,0.0,0.0,0.0,0.0,0.0,0.0,0.0,0.0,0.0,0.0,0.0,0.0
56.0,822.0,37307.94972132094,20457.025678206614,-0.0,0.0,-10378.76029450772,0.0,11587.477977704551,27318.12,0.0,0.0,33441.97397770455,0.4237993786923986,0.30396508477089723,0.660365198711062,21854.496,5463.624,27318.12,"[1.8002846622578765, 0.8691050415657209, 1.2003329518773498, 0.22681773485371082, 0.708662410894398, 0.3346856758672203, 1.013765745611444, 0.7517333270881075]",20.33,0.0,0.0,6.03386503871045,253.87498573256963,50.0620819728394,-1504.393451767406,945.5118023385165,0.0,0.0,0.0,0.0,0.0,0.0,0.0,-9.7,20.82047789491521,0.0,20.70016178763847,0.0,-9.7,20.33,19.27,22.13,20.17,21.4,-10.25,-9.7,419.78,-1067.22,-1662.22,8.91,136.0,0.0,118.0,0.0,0.0,0.0,0.0,0.0,0.0,0.0,0.0,0.0,0.0,0.0,0.0,0.0,0.0
57.0,1275.0,0.0,6925.13818520335,-0.0,8200.13818520335,0.0,0.0,4233.096385047969,0.0,-8672.190129728106,0.0,12905.286514776075,0.4237993786923986,0.33937652780062033,0.660365198711062,0.0,0.0,0.0,"[1.8002846622578765, 0.8691050415657209, 1.2003329518773498, 0.22681773485371082, 0.708662410894398, 0.3346856758672203, 1.013765745611444, 0.7517333270881075]",20.2,0.0,0.0,1526.5121003978384,33.478794620480436,0.846787584114333,-1377.788094626352,930.4057234873832,0.0,0.0,0.0,0.0,0.0,0.0,0.0,-7.3,20.68334750998524,0.0,20.570290972042102,0.0,-7.3,20.2,19.19,21.95,20.06,21.24,-6.77,-7.3,0.0,-977.41,-1522.33,2253.39,0.0,0.0,25.0,0.0,0.0,0.0,0.0,0.0,0.0,0.0,0.0,0.0,0.0,0.0,0.0,0.0,0.0
58.0,5676.0,0.0,8456.72773253693,-0.0,14132.72773253693,0.0,0.0,17452.50030252254,0.0,0.0,0.0,17452.500302522538,0.4237993786923986,0.33937652780062033,0.660365198711062,0.0,0.0,0.0,"[1.8002846622578765, 0.8691050415657209, 1.2003329518773498, 0.22681773485371082, 0.708662410894398, 0.3346856758672203, 1.013765745611444, 0.7517333270881075]",20.75,0.0,0.0,1767.8990859597031,88.38401779806836,2.235519222061839,-1300.0039344389456,107.68958121066949,5478.186639929414,0.0,0.0,0.0,0.0,0.0,0.0,-5.2,20.819373312662506,0.0,20.531371914786423,0.0,-5.2,20.75,19.17,21.9,20.84,21.75,-4.49,-5.2,0.0,-922.23,-1436.39,2609.71,0.0,0.0,66.0,0.0,0.0,0.0,0.0,0.0,0.0,0.0,0.0,0.0,0.0,0.0,0.0,0.0,0.0
59.0,7364.0,0.0,5538.397429846155,-0.0,17740.178813490907,-4837.781383644752,0.0,12380.207196008734,0.0,0.0,0.0,12380.207196008734,0.6213421185245593,0.33937652780062033,0.660365198711062,0.0,0.0,0.0,"[1.8002846622578765, 0.8691050415657209, 1.2003329518773498, 0.22681773485371082, 0.708662410894398, 0.3346856758672203, 1.013765745611444, 0.7517333270881075]",23.8,0.0,0.0,1970.237832211188,62.94013388650323,1.5919606581349435,-1362.786047704,-3899.4898574668387,2875.5645021432297,0.0,0.0,0.0,0.0,0.0,0.0,-3.4,21.875401034337294,0.0,20.702739728881276,0.0,-3.4,23.8,19.26,22.14,23.18,23.48,-2.59,-3.4,4258.82,-966.77,-1505.75,2908.4,0.0,0.0,47.0,0.0,0.0,0.0,0.0,0.0,0.0,0.0,0.0,0.0,0.0,0.0,0.0,0.0,0.0
60.0,4157.0,0.0,3049.855540605839,-11093.361057984,18300.21659858984,0.0,0.0,7108.219413281142,0.0,0.0,0.0,7108.219413281142,0.6213421185245593,0.33937652780062033,0.6985107911209719,0.0,0.0,0.0,"[1.8002846622578765, 0.8691050415657209, 1.2003329518773498, 0.22681773485371082, 0.708662410894398, 0.3346856758672203, 1.013765745611444, 0.7517333270881075]",23.61,0.0,0.0,1943.1274131149225,80.77199712646438,3.861351383561359,-1303.2605199701727,-3346.4895063472914,0.0,0.0,0.0,0.0,0.0,0.0,0.0,-2.4,21.962236426273794,0.0,20.89113406978689,0.0,-2.4,23.61,19.37,22.41,22.88,23.4,-1.7,-2.4,0.0,-924.54,-1439.98,2868.38,0.0,3.0,60.0,0.0,0.0,0.0,0.0,0.0,0.0,0.0,0.0,0.0,0.0,0.0,0.0,0.0,0.0
61.0,7070.0,0.0,4262.001884933942,-0.0,16169.368200748184,-4837.366315814242,0.0,10055.230457368954,0.0,0.0,0.0,10055.230457368954,0.8188679097536409,0.33937652780062033,0.6770285139995971,0.0,0.0,0.0,"[1.8002846622578765, 0.8691050415657209, 1.2003329518773498, 0.22681773485371082, 0.708662410894398, 0.3346856758672203, 1.013765745611444, 0.7517333270881075]",22.29,0.0,0.0,1675.739548279345,325.9072554212665,54.73634943715053,-1222.0785375833889,-1368.7585917919864,3588.2546145755327,0.0,0.0,0.0,0.0,0.0,0.0,-2.1,21.626904206546705,0.0,20.978201151195726,0.0,-2.1,22.29,19.44,22.52,21.89,22.77,-1.58,-2.1,0.0,-866.95,-1350.29,2473.67,109.0,19.0,184.0,0.0,0.0,0.0,0.0,0.0,0.0,0.0,0.0,0.0,0.0,0.0,0.0,0.0,0.0
62.0,2173.0,0.0,3768.750298339891,-0.0,9032.74997808189,-3090.999679742,0.0,8640.014215685289,0.0,0.0,0.0,8640.014215685289,0.9450837300097725,0.33937652780062033,0.6770285139995971,0.0,0.0,0.0,"[1.8002846622578765, 0.8691050415657209, 1.2003329518773498, 0.22681773485371082, 0.708662410894398, 0.3346856758672203, 1.013765745611444, 0.7517333270881075]",23.8,0.0,0.0,875.2651979168559,317.3084913292694,70.38498399158341,-1332.7249053749651,-3257.253677126916,0.0,0.0,0.0,0.0,0.0,0.0,0.0,-2.8,22.195744459546248,0.0,21.127916796650915,0.0,-2.8,23.8,19.54,22.72,23.09,23.67,-2.78,-2.8,0.0,-945.44,-1472.54,1292.04,166.0,15.0,148.0,0.0,0.0,0.0,0.0,0.0,0.0,0.0,0.0,0.0,0.0,0.0,0.0,0.0,0.0
63.0,1209.0,2043.0551314661323,823.8398558088015,-0.0,0.0,0.0,0.0,1763.0238769874095,0.0,0.0,0.0,1763.0238769874095,0.9450837300097725,0.33937652780062033,0.6770285139995971,0.0,0.0,0.0,"[1.8002846622578765, 0.8691050415657209, 1.2003329518773498, 0.22681773485371082, 0.708662410894398, 0.3346856758672203, 1.013765745611444, 0.7517333270881075]",22.13,0.0,0.0,19.789314456422478,397.5166350726519,44.710384441236805,-1329.2948302753737,-888.2756305615644,0.0,0.0,0.0,0.0,0.0,0.0,0.0,-4.4,21.70881040929193,0.0,21.155470018347216,0.0,-4.4,22.13,19.58,22.74,21.55,22.6,-4.99,-4.4,5079.96,-943.01,-1468.75,29.21,108.0,0.0,240.0,0.0,0.0,0.0,0.0,0.0,0.0,0.0,0.0,0.0,0.0,0.0,0.0,0.0,0.0
64.0,1362.0,32309.788874805905,30786.239930431875,-0.0,0.0,0.0,0.0,14249.561941411586,0.0,-49578.77489444077,0.0,63828.33683585236,0.9450837300097725,0.5418231919529202,0.6770285139995971,0.0,0.0,0.0,"[1.8002846622578765, 0.8691050415657209, 1.2003329518773498, 0.22681773485371082, 0.708662410894398, 0.3346856758672203, 1.013765745611444, 0.7517333270881075]",21.25,0.0,0.0,0.0,390.6094311299002,83.25615527012128,-1320.381291819356,216.4679356013094,0.0,0.0,0.0,0.0,0.0,0.0,0.0,-5.1,21.381584646787104,0.0,21.07880805171815,0.0,-5.1,21.25,19.55,22.61,20.79,22.01,-5.7,-5.1,2359.19,-936.68,-1458.9,0.0,138.0,48.0,214.0,0.0,0.0,0.0,0.0,0.0,0.0,0.0,0.0,0.0,0.0,0.0,0.0,0.0,0.0
65.0,1603.0,0.0,3031.2244320508316,-0.0,0.0,4634.224432050832,0.0,6053.380624035001,0.0,0.0,0.0,6053.380624035001,0.748050378306931,0.5418231919529202,0.6770285139995971,0.0,0.0,0.0,"[1.8002846622578765, 0.8691050415657209, 1.2003329518773498, 0.22681773485371082, 0.708662410894398, 0.3346856758672203, 1.013765745611444, 0.7517333270881075]",20.94,0.0,0.0,0.0,413.8683831820234,79.5302899000182,-1344.4888923842395,504.063605008671,0.0,0.0,0.0,0.0,0.0,0.0,0.0,-5.9,21.206484662091167,0.0,20.97906811989342,0.0,-5.9,20.94,19.5,22.45,20.61,21.82,-6.49,-5.9,0.0,-953.79,-1485.54,0.0,117.0,52.0,242.0,0.0,0.0,0.0,0.0,0.0,0.0,0.0,0.0,0.0,0.0,0.0,0.0,0.0,0.0
66.0,2429.0,0.0,5947.676115722283,-0.0,0.0,8376.676115722283,0.0,11423.950933114496,0.0,0.0,0.0,11423.950933114496,0.39189918291057546,0.5418231919529202,0.6770285139995971,0.0,0.0,0.0,"[1.8002846622578765, 0.8691050415657209, 1.2003329518773498, 0.22681773485371082, 0.708662410894398, 0.3346856758672203, 1.013765745611444, 0.7517333270881075]",20.76,0.0,0.0,0.0,549.1227134487644,74.14472086505104,-1375.6768574830796,584.7117729309555,0.0,0.0,0.0,0.0,0.0,0.0,0.0,-6.7,21.069627364146047,0.0,20.87229396090262,0.0,-6.7,20.76,19.45,22.29,20.48,21.66,-7.27,-6.7,3549.14,-975.91,-1520.0,0.0,82.0,56.0,361.0,0.0,0.0,0.0,0.0,0.0,0.0,0.0,0.0,0.0,0.0,0.0,0.0,0.0,0.0
67.0,4822.0,0.0,4395.468782056736,-0.0,0.0,9217.468782056736,0.0,8149.237745335373,0.0,0.0,0.0,8149.237745335373,0.0,0.5418231919529202,0.6770285139995971,0.0,0.0,0.0,"[1.8002846622578765, 0.8691050415657209, 1.2003329518773498, 0.22681773485371082, 0.708662410894398, 0.3346856758672203, 1.013765745611444, 0.7517333270881075]",20.67,0.0,0.0,0.0,1908.6437017318115,121.25998204517258,-1406.3494731762642,540.0164198162644,5128.9810042572635,0.0,0.0,0.0,0.0,0.0,0.0,-7.4,20.9599998666523,0.0,20.764461629646995,0.0,-7.4,20.67,19.39,22.14,20.4,21.53,-7.97,-7.4,0.0,-997.67,-1553.89,0.0,133.0,50.0,1350.0,0.0,0.0,0.0,0.0,0.0,0.0,0.0,0.0,0.0,0.0,0.0,0.0,0.0,0.0
68.0,4751.0,71707.5696789263,50598.031830531676,-0.0,0.0,-16000.0,0.0,9950.263100585442,0.0,-80000.0,0.0,89950.26310058543,0.6533333333333333,0.8684898586195868,0.6770285139995971,0.0,0.0,0.0,"[1.8002846622578765, 0.8356473141557323, 1.2003329518773498, 0.22681773485371082, 0.708662410894398, 0.3346856758672203, 1.0137657456114404, 0.5404623267260078]",23.8,0.0,0.0,0.0,1494.8458002226732,131.11658952426342,-1603.2751863362796,-3722.957608890265,0.0,0.0,0.0,0.0,0.0,0.0,0.0,-8.2,21.967937924927302,0.0,20.841241010961184,0.0,-8.2,23.8,19.42,22.26,22.63,23.11,-8.76,-8.2,0.0,-1137.37,-1771.47,0.0,151.0,74.0,1029.0,0.0,0.0,0.0,0.0,0.0,0.0,0.0,0.0,0.0,0.0,0.0,0.0,0.0,0.0
69.0,4338.0,0.0,0.0,-0.0,0.0,4338.0,0.0,9092.905291113873,0.0,9092.905291113871,0.0,0.0,0.4688945578231293,0.8298295470077082,0.6501756675978785,0.0,0.0,0.0,"[1.8002846622578765, 0.8356473141557323, 1.2003329518773498, 0.22681773485371082, 0.708662410894398, 0.3346856758672203, 1.0137657456114404, 0.5404623267260078]",21.95,0.0,0.0,0.0,1381.793196914777,130.57464547043023,-1545.5435298851698,-1134.723027099829,0.0,0.0,0.0,0.0,0.0,0.0,0.0,-8.9,21.405243389347962,0.0,20.836794577264147,0.0,-8.9,21.95,19.41,22.26,21.04,22.03,-9.45,-8.9,254.73,-1096.42,-1707.69,0.0,162.0,72.0,939.0,0.0,0.0,0.0,0.0,0.0,0.0,0.0,0.0,0.0,0.0,0.0,0.0,0.0,0.0
70.0,2966.0,16858.553941391063,13808.261171684104,-0.0,0.0,0.0,0.0,22572.954546014425,0.0,0.0,0.0,22572.95454601443,0.4688945578231293,0.8298295470077082,0.6501756675978779,0.0,0.0,0.0,"[1.8002846622578765, 0.8356473141557323, 1.2003329518773498, 0.22681773485371082, 0.708662410894398, 0.3346856758672203, 1.0137657456114404, 0.5404623267260078]",21.36,0.0,0.0,0.0,630.8109723227367,72.14630216654122,-1556.0818898160178,-403.7097852501016,6162.792568924501,0.0,0.0,0.0,0.0,0.0,0.0,-9.7,21.18020698372228,0.0,20.7746051142391,0.0,-9.7,21.36,19.37,22.18,20.74,21.79,-10.25,-9.7,756.9,-1103.89,-1719.33,0.0,92.0,44.0,418.0,0.0,0.0,0.0,0.0,0.0,0.0,0.0,0.0,0.0,0.0,0.0,0.0,0.0,0.0
71.0,2166.0,0.0,0.0,-0.0,0.0,2166.0,0.0,13012.988026279318,0.0,13012.98802627932,0.0,0.0,0.3768027210884354,0.7745022169640036,0.6383604151811217,0.0,0.0,0.0,"[1.8002846622578765, 0.8356473141557323, 1.2003329518773498, 0.22681773485371082, 0.708662410894398, 0.3346856758672203, 1.0137657456114404, 0.5404623267260078]",23.8,0.0,0.0,0.0,556.1003990644014,53.17826028238015,-1713.4993748760744,-3667.8705172833816,0.0,0.0,0.0,0.0,0.0,0.0,0.0,-10.4,21.997002407362626,0.0,20.872443846538726,0.0,-10.4,23.8,19.41,22.33,22.75,23.24,-10.95,-10.4,3870.68,-1215.56,-1893.26,0.0,103.0,10.0,360.0,0.0,0.0,0.0,0.0,0.0,0.0,0.0,0.0,0.0,0.0,0.0,0.0,0.0,0.0
72.0,1223.0,14452.797092154777,13157.533106694003,-0.0,0.0,0.0,0.0,20003.963961495312,0.0,0.0,0.0,20003.963961495312,0.3768027210884354,0.7745022169640036,0.6383604151811217,0.0,0.0,0.0,"[1.8002846622578765, 0.8356473141557323, 1.2003329518773498, 0.22681773485371082, 0.708662410894398, 0.3346856758672203, 1.0137657456114404, 0.5404623267260078]",21.42,0.0,0.0,0.0,175.56984715708796,30.111766491105698,-1619.1937819087739,-379.61625602388256,0.0,0.0,0.0,0.0,0.0,0.0,0.0,-10.9,21.252827067078197,0.0,20.839783250250214,0.0,-10.9,21.42,19.38,22.3,20.75,21.86,-11.47,-10.9,3587.6,-1148.66,-1789.06,0.0,80.0,0.0,89.0,0.0,0.0,0.0,0.0,0.0,0.0,0.0,0.0,0.0,0.0,0.0,0.0,0.0,0.0
73.0,1398.0,0.0,0.0,-0.0,0.0,1398.0,0.0,21624.19904413455,0.0,21624.199044134548,0.0,0.0,0.3173639455782313,0.6825625951777172,0.6319157320447093,0.0,0.0,0.0,"[1.8002846622578765, 0.8356473141557323, 1.2003329518773498, 0.22681773485371082, 0.708662410894398, 0.3346856758672203, 1.0137657456114404, 0.5404623267260078]",20.52,0.0,0.0,0.0,171.5523918026303,30.01015198101198,-1604.377680330113,707.8307215157477,7273.029190477843,0.0,0.0,0.0,0.0,0.0,0.0,-11.5,20.899079215308884,0.0,20.730023768630943,0.0,-11.5,20.52,19.31,22.15,20.28,21.47,-12.08,-11.5,3571.61,-1138.15,-1772.69,0.0,80.0,0.0,86.0,0.0,0.0,0.0,0.0,0.0,0.0,0.0,0.0,0.0,0.0,0.0,0.0,0.0,0.0
74.0,966.0,17857.719468145824,8880.043995820197,-0.0,0.0,-7922.386874984901,0.0,12400.18273768577,0.0,0.0,0.0,12400.182737685771,0.6408614096401147,0.6825625951777172,0.6319157320447093,0.0,0.0,0.0,"[1.8002846622578765, 0.8356473141557323, 1.2003329518773498, 0.22681773485371082, 0.708662410894398, 0.3346856758672203, 1.0137657456114404, 0.5404623267260078]",23.8,0.0,0.0,0.0,119.32547219468083,28.689163349793617,-1803.6828018631793,-3731.58220821972,0.0,0.0,0.0,0.0,0.0,0.0,0.0,-12.2,21.96659340388216,0.0,20.823944574422743,0.0,-12.2,23.8,19.34,22.31,22.86,23.31,-12.8,-12.2,3523.61,-1279.54,-1992.91,0.0,80.0,0.0,47.0,0.0,0.0,0.0,0.0,0.0,0.0,0.0,0.0,0.0,0.0,0.0,0.0,0.0,0.0
75.0,631.0,4953.182279927078,4297.4163685274425,-0.0,0.0,0.0,0.0,16141.020311213852,0.0,10303.93923361613,0.0,5837.081077597721,0.6408614096401147,0.638753329728669,0.603988771786922,0.0,0.0,0.0,"[1.8002846622578765, 0.8356473141557323, 1.2003329518773498, 0.22681773485371082, 0.708662410894398, 0.3346856758672203, 1.0137657456114404, 0.5404623267260078]",21.11,0.0,0.0,0.0,108.61225791612706,28.418191322877032,-1689.0696742963858,-34.1884066348625,0.0,0.0,0.0,0.0,0.0,0.0,0.0,-12.6,21.12076586164128,0.0,20.778359323824528,0.0,-12.6,21.11,19.3,22.26,20.56,21.73,-13.2,-12.6,749.82,-1198.23,-1866.27,0.0,80.0,0.0,39.0,0.0,0.0,0.0,0.0,0.0,0.0,0.0,0.0,0.0,0.0,0.0,0.0,0.0,0.0
76.0,737.0,0.0,0.0,-0.0,0.0,737.0,0.0,28839.84987527752,0.0,28839.849875277516,0.0,0.0,0.6095263756265092,0.5161349203950062,0.603988771786922,0.0,0.0,0.0,"[1.8002846622578765, 0.8356473141557323, 1.2003329518773498, 0.22681773485371082, 0.708662410894398, 0.3346856758672203, 1.0137657456114404, 0.5404623267260078]",20.32,0.0,0.0,0.0,119.32547219468083,28.689163349793617,-1669.4063338263475,889.0212203424062,7615.560300248006,0.0,0.0,0.0,0.0,0.0,0.0,-13.0,20.788303889012052,0.0,20.654857622592147,0.0,-13.0,20.32,19.22,22.09,20.14,21.36,-13.59,-13.0,1522.34,-1184.28,-1844.54,0.0,80.0,0.0,47.0,0.0,0.0,0.0,0.0,0.0,0.0,0.0,0.0,0.0,0.0,0.0,0.0,0.0,0.0
77.0,706.0,0.0,5648.798099186167,-0.0,0.0,6354.798099186167,0.0,7241.817762757639,0.0,0.0,0.0,7241.817762757639,0.3393393816134919,0.5161349203950062,0.603988771786922,0.0,0.0,0.0,"[1.8002846622578765, 0.8356473141557323, 1.2003329518773498, 0.22681773485371082, 0.708662410894398, 0.3346856758672203, 1.0137657456114404, 0.5404623267260078]",23.8,0.0,0.0,0.0,135.39529361251144,29.095621390168496,-1863.8050865212492,-3829.6191758427535,0.0,0.0,0.0,0.0,0.0,0.0,0.0,-13.4,21.918593487850114,0.0,20.75012885539249,0.0,-13.4,23.8,19.25,22.25,22.86,23.31,-14.0,-13.4,403.29,-1322.19,-2059.34,0.0,80.0,0.0,59.0,0.0,0.0,0.0,0.0,0.0,0.0,0.0,0.0,0.0,0.0,0.0,0.0,0.0,0.0
78.0,617.0,24184.988635595124,23447.06369241715,-0.0,0.0,0.0,0.0,29165.26667403202,0.0,0.0,0.0,29165.26667403202,0.3393393816134919,0.5161349203950062,0.603988771786922,0.0,0.0,0.0,"[1.8002846622578765, 0.8356473141557323, 1.2003329518773498, 0.22681773485371082, 0.708662410894398, 0.3346856758672203, 1.0137657456114404, 0.5404623267260078]",21.04,0.0,0.0,0.0,173.03250693321993,55.71862303472314,-1745.6515886373725,-34.8311944188218,7090.265627160584,0.0,0.0,0.0,0.0,0.0,0.0,-13.8,21.05060981925177,0.0,20.70305383230143,0.0,-13.8,21.04,19.2,22.2,20.48,21.67,-14.4,-13.8,4658.28,-1238.37,-1928.79,0.0,160.0,0.0,45.0,0.0,0.0,0.0,0.0,0.0,0.0,0.0,0.0,0.0,0.0,0.0,0.0,0.0,0.0
79.0,1796.0,13650.532834101083,11786.280169930576,-0.0,0.0,0.0,0.0,14323.597865079697,0.0,0.0,0.0,14323.597865079695,0.3393393816134919,0.5161349203950062,0.603988771786922,0.0,0.0,0.0,"[1.8002846622578765, 0.8356473141557323, 1.2003329518773498, 0.22681773485371082, 0.708662410894398, 0.3346856758672203, 1.0137657456114404, 0.5404623267260078]",23.8,0.0,0.0,0.0,52.2269196079495,1.3209886312183565,-1898.8764192384567,-3740.611168853477,124.62356172531685,0.0,0.0,0.0,0.0,0.0,0.0,-14.1,21.96348981626378,0.0,20.799879548277218,0.0,-14.1,23.8,19.23,22.37,22.81,23.33,-14.71,-14.1,4032.17,-1347.07,-2098.09,0.0,0.0,0.0,39.0,0.0,0.0,0.0,0.0,0.0,0.0,0.0,0.0,0.0,0.0,0.0,0.0,0.0,0.0
80.0,1583.0,24101.771111104852,6398.26225554933,-0.0,0.0,-16000.0,0.0,7714.66580496451,0.0,0.0,0.0,7714.66580496451,0.6533333333333333,0.5161349203950062,0.603988771786922,0.0,0.0,0.0,"[1.7711947982205984, 0.8356473141557323, 1.0978246436853745, 0.22681773485369305, 0.708662410894398, 0.3346856758672203, 1.0137657456114404, 0.5404623267260078]",21.08,0.0,0.0,4.458905617482626,61.60098210168402,1.5580891547703706,-1767.4599552618322,-1.7595072228829671,0.0,0.0,0.0,0.0,0.0,0.0,0.0,-14.2,21.102700701978915,0.0,20.74859415226878,0.0,-14.2,21.08,19.19,22.31,20.51,21.75,-14.8,-14.2,1130.32,-1253.84,-1952.88,6.58,0.0,0.0,46.0,0.0,0.0,0.0,0.0,0.0,0.0,0.0,0.0,0.0,0.0,0.0,0.0,0.0,0.0
81.0,4888.0,5509.347586064031,8582.695829758402,-0.0,7988.894981624691,0.0,0.0,12230.42718813731,0.0,0.0,0.0,12230.427188137312,0.6533333333333333,0.5161349203950062,0.603988771786922,0.0,0.0,0.0,"[1.7711947982205984, 0.8356473141557323, 1.0978246436853745, 0.22681773485369305, 0.708662410894398, 0.3346856758672203, 1.0137657456114404, 0.5404623267260078]",20.23,0.0,0.0,1437.5694666040538,70.97504459541854,1.7951896783223844,-1609.7143100542146,991.6528103119551,2636.845980188003,0.0,0.0,0.0,0.0,0.0,0.0,-11.9,20.746426124498768,0.0,20.616217426506125,0.0,-11.9,20.23,19.1,22.13,20.04,21.35,-11.45,-11.9,2048.42,-1141.94,-1778.59,2122.09,0.0,0.0,53.0,0.0,0.0,0.0,0.0,0.0,0.0,0.0,0.0,0.0,0.0,0.0,0.0,0.0,0.0
82.0,2104.0,0.0,0.0,-4674.62299797702,14290.819338387333,-3705.151199918216,0.0,3426.3406264428854,0.0,0.0,0.0,0.0,0.8046270073299938,0.5161349203950062,0.6200629140255798,15228.180561968386,3807.0451404920964,19035.22570246048,"[1.7711947982205984, 0.8356473141557323, 1.0978246436853745, 0.22681773485369305, 0.708662410894398, 0.3346856758672203, 1.0137657456114404, 0.5404623267260078]",21.98,0.0,0.0,1732.6048115866236,65.61843745614168,1.6597036648640933,-1602.313536270597,-1422.7160459234099,0.0,0.0,0.0,0.0,0.0,0.0,0.0,-10.0,21.29464761772874,0.0,20.63738598588874,0.0,-10.0,21.98,19.1,22.17,21.76,22.55,-9.28,-10.0,0.0,-1136.69,-1770.41,2557.61,0.0,0.0,49.0,0.0,0.0,0.0,0.0,0.0,0.0,0.0,0.0,0.0,0.0,0.0,0.0,0.0,0.0
83.0,1335.0,0.0,15915.462685592589,-0.0,17250.46268559259,0.0,0.0,27838.410779270453,0.0,0.0,0.0,27838.410779270456,0.8046270073299938,0.5161349203950062,0.6200629140255798,0.0,0.0,0.0,"[1.7711947982205984, 0.8356473141557323, 1.0978246436853745, 0.22681773485369305, 0.708662410894398, 0.3346856758672203, 1.0137657456114404, 0.5404623267260078]",21.36,0.0,0.0,1854.4529577845906,61.60098210168402,1.5580891547703706,-1496.0484062074834,-531.8784550425166,4970.059254110504,0.0,0.0,0.0,0.0,0.0,0.0,-8.5,21.116217015737362,0.0,20.649150894453452,0.0,-8.5,21.36,19.11,22.19,21.21,22.19,-7.71,-8.5,51.07,-1061.3,-1653.0,2737.48,0.0,0.0,46.0,0.0,0.0,0.0,0.0,0.0,0.0,0.0,0.0,0.0,0.0,0.0,0.0,0.0,0.0
84.0,1093.0,0.0,3218.045859400561,-15045.501462085864,19356.547321486425,0.0,0.0,5935.60668184653,0.0,0.0,0.0,5935.606681846531,0.8046270073299938,0.5161349203950062,0.671798322561875,0.0,0.0,0.0,"[1.7711947982205984, 0.8356473141557323, 1.0978246436853745, 0.22681773485369305, 0.708662410894398, 0.3346856758672203, 1.0137657456114404, 0.5404623267260078]",23.77,0.0,0.0,1982.172903282341,54.90522317758792,1.3887316379475063,-1566.7463960471441,-3658.7675556409176,0.0,0.0,0.0,0.0,0.0,0.0,0.0,-7.5,21.969332349584416,0.0,20.809330649533155,0.0,-7.5,23.77,19.19,22.42,23.14,23.62,-6.72,-7.5,0.0,-1111.46,-1731.11,2926.02,0.0,0.0,41.0,0.0,0.0,0.0,0.0,0.0,0.0,0.0,0.0,0.0,0.0,0.0,0.0,0.0,0.0
85.0,2875.0,0.0,7114.595714654531,-7136.664684701837,17126.260399356368,0.0,0.0,13326.17422026175,0.0,0.0,0.0,13326.17422026175,0.8046270073299938,0.5161349203950062,0.696338432705762,0.0,0.0,0.0,"[1.7711947982205984, 0.8356473141557323, 1.0978246436853745, 0.22681773485369305, 0.708662410894398, 0.3346856758672203, 1.0137657456114404, 0.5404623267260078]",22.17,0.0,0.0,1760.6000663706116,1776.8429734364465,97.88864472361696,-1471.4440465117427,-1296.5812370312021,0.0,0.0,0.0,0.0,0.0,0.0,0.0,-7.2,21.543619968263435,0.0,20.887721592633774,0.0,-7.2,22.17,19.25,22.53,21.77,22.74,-6.57,-7.2,0.0,-1043.85,-1625.81,2598.94,165.0,0.0,1240.0,0.0,0.0,0.0,0.0,0.0,0.0,0.0,0.0,0.0,0.0,0.0,0.0,0.0,0.0
86.0,3540.0,0.0,0.0,-0.0,14215.44226900891,-4784.644718449131,0.0,5301.7177955038,0.0,0.0,0.0,0.0,1.0,0.5161349203950062,0.696338432705762,23563.19020223912,5890.79755055978,29453.987752798897,"[1.7711947982205984, 0.8356473141557323, 1.0978246436853745, 0.22681773485369305, 0.708662410894398, 0.3346856758672203, 1.0137657456114404, 0.5404623267260078]",22.58,0.0,0.0,1485.771517703842,683.9541536781941,50.67176903340172,-1517.299666134712,-1805.529765646234,0.0,0.0,0.0,0.0,0.0,0.0,0.0,-7.7,21.70591927117616,0.0,20.93757107074659,0.0,-7.7,22.58,19.28,22.59,21.95,22.88,-7.25,-7.7,0.0,-1076.38,-1676.48,2193.25,104.0,0.0,456.0,0.0,0.0,0.0,0.0,0.0,0.0,0.0,0.0,0.0,0.0,0.0,0.0,0.0,0.0
87.0,3697.0,13961.682022003153,10195.651454000941,-0.0,0.7778421078042074,0.0,0.0,16958.86190120395,0.0,0.0,0.0,16958.86190120395,1.0,0.5161349203950062,0.696338432705762,0.0,0.0,0.0,"[1.7711947982205984, 0.8356473141557323, 1.0978246436853745, 0.22681773485369305, 0.708662410894398, 0.3346856758672203, 1.0137657456114404, 0.5404623267260078]",22.02,0.0,0.0,29.93630463763859,333.58975776575556,46.302345099371756,-1574.2983544048584,-990.8874148227069,5669.396151557085,0.0,0.0,0.0,0.0,0.0,0.0,-9.4,21.551295191251157,0.0,20.959850759770436,0.0,-9.4,22.02,19.31,22.61,21.58,22.63,-9.94,-9.4,1359.21,-1116.81,-1739.46,44.19,118.0,0.0,187.0,0.0,0.0,0.0,0.0,0.0,0.0,0.0,0.0,0.0,0.0,0.0,0.0,0.0,0.0
88.0,1924.0,13848.471949978966,11855.229590229072,-0.0,0.0,0.0,0.0,19945.348078918756,0.0,0.0,0.0,19945.348078918756,1.0,0.5161349203950062,0.696338432705762,0.0,0.0,0.0,"[1.7711947982205984, 0.8356473141557323, 1.0978246436853745, 0.22681773485369305, 0.708662410894398, 0.3346856758672203, 1.0137657456114404, 0.5404623267260078]",23.77,0.0,0.0,0.0,133.91517848192174,3.387150336457332,-1651.9196326460765,-3306.830144224393,0.0,0.0,0.0,0.0,0.0,0.0,0.0,-9.2,22.14702882236748,0.0,21.04626226837035,0.0,-9.2,23.77,19.35,22.74,22.7,23.43,-9.76,-9.2,0.0,-1171.88,-1825.22,0.0,0.0,0.0,100.0,0.0,0.0,0.0,0.0,0.0,0.0,0.0,0.0,0.0,0.0,0.0,0.0,0.0,0.0
89.0,2228.0,0.0,5269.716506753041,-0.0,0.0,7497.716506753041,0.0,8966.295514277737,0.0,0.0,0.0,8966.295514277737,0.6812195362775068,0.5161349203950062,0.6834490664329371,0.0,0.0,0.0,"[1.7711947982205984, 0.8356473141557323, 1.0978246436853745, 0.22681773485369305, 0.708662410894398, 0.3346856758672203, 1.0137657456114404, 0.5404623267260078]",21.37,0.0,0.0,0.0,62.94013388650323,1.5919606581349435,-1521.4505858127397,-20.12740655292503,0.0,0.0,0.0,0.0,0.0,0.0,0.0,-9.0,21.37971128263602,0.0,20.995921539803966,0.0,-9.0,21.37,19.33,22.66,20.74,22.05,-9.53,-9.0,478.47,-1079.32,-1681.06,0.0,0.0,0.0,47.0,0.0,0.0,0.0,0.0,0.0,0.0,0.0,0.0,0.0,0.0,0.0,0.0,0.0,0.0
90.0,3779.0,0.0,6123.319315291438,-0.0,0.0,9902.31931529144,0.0,10535.431065860434,0.0,0.0,0.0,10535.431065860434,0.26020255858654423,0.5161349203950062,0.6834490664329371,0.0,0.0,0.0,"[1.7711947982205984, 0.8356473141557323, 1.0978246436853745, 0.22681773485369305, 0.708662410894398, 0.3346856758672203, 1.0137657456114404, 0.5404623267260078]",20.63,0.0,0.0,0.0,70.97504459541854,1.7951896783223844,-1474.5293019267533,826.0403551995627,0.0,0.0,0.0,0.0,0.0,0.0,0.0,-8.8,21.06438212751996,0.0,20.87744940056603,0.0,-8.8,20.63,19.27,22.48,20.35,21.7,-9.31,-8.8,1514.87,-1046.04,-1629.22,0.0,0.0,0.0,53.0,0.0,0.0,0.0,0.0,0.0,0.0,0.0,0.0,0.0,0.0,0.0,0.0,0.0,0.0
91.0,4844.0,53153.77426966952,25072.35939832117,-0.0,0.0,-16000.0,0.0,15490.49818255207,34858.23,0.0,0.0,43377.082182552076,0.9135358919198775,0.5161349203950062,0.6786155540806278,27886.584000000003,6971.646000000001,34858.23,"[1.7711947982205984, 0.8356473141557323, 1.0978246436853745, 0.22681773485369305, 0.708662410894398, 0.3346856758672203, 1.0137657456114404, 0.5404623267260078]",20.34,0.0,0.0,0.0,235.40878743664143,52.16211518144296,-1455.1326618457108,1019.7207578401327,7028.724421725697,0.0,0.0,0.0,0.0,0.0,0.0,-8.7,20.873508191971137,0.0,20.743530852019866,0.0,-8.7,20.34,19.21,22.28,20.16,21.48,-9.2,-8.7,0.0,-1032.28,-1607.79,0.0,144.0,0.0,100.0,0.0,0.0,0.0,0.0,0.0,0.0,0.0,0.0,0.0,0.0,0.0,0.0,0.0,0.0
92.0,5300.0,5513.604077894889,0.0,-0.0,0.0,-186.03605750541456,0.0,3227.084954335931,0.0,3227.084954335931,0.0,0.0,0.7668378639507435,0.5024143210993602,0.6732449848002842,0.0,0.0,0.0,"[1.7711947982205984, 0.2825744687632614, 1.0349822110786917, 0.2268177348536966, 0.708662410894398, 0.3346856758672203, 1.0137657456114404, 0.5404623267260078]",23.77,0.0,0.0,0.0,591.1297904883567,68.18333627288614,-1616.848299928869,-3641.0766434860534,0.0,0.0,0.0,0.0,0.0,0.0,0.0,-8.5,21.9798118055151,0.0,20.832537526692235,0.0,-8.5,23.77,19.25,22.41,22.8,23.35,-8.98,-8.5,286.69,-1147.0,-1786.47,0.0,130.0,19.0,371.0,0.0,0.0,0.0,0.0,0.0,0.0,0.0,0.0,0.0,0.0,0.0,0.0,0.0,0.0
93.0,4487.0,0.0,0.0,-0.0,0.0,4487.0,0.0,15406.96410454209,0.0,15406.964104542092,0.0,0.0,0.576064054426934,0.4369085213351507,0.6684114724479748,0.0,0.0,0.0,"[1.7711947982205984, 0.2825744687632614, 1.0349822110786917, 0.2268177348536966, 0.708662410894398, 0.3346856758672203, 1.0137657456114404, 0.5404623267260078]",21.47,0.0,0.0,0.0,806.3103378069393,84.67875841143335,-1491.7624373674294,-468.3451830616197,2134.5887781311335,0.0,0.0,0.0,0.0,0.0,0.0,-8.3,21.263209037481246,0.0,20.804954655711676,0.0,-8.3,21.47,19.24,22.37,20.74,21.92,-8.77,-8.3,2421.48,-1058.26,-1648.26,0.0,155.0,24.0,518.0,0.0,0.0,0.0,0.0,0.0,0.0,0.0,0.0,0.0,0.0,0.0,0.0,0.0,0.0
94.0,2960.0,0.0,7780.026560121494,-0.0,0.0,10740.026560121494,0.0,13905.051940739904,0.0,0.0,0.0,13905.051940739904,0.11943027210884322,0.4369085213351507,0.5792600223942691,0.0,0.0,0.0,"[1.7711947982205984, 0.2825744687632614, 1.0349822110786917, 0.2268177348536966, 0.708662410894398, 0.3346856758672203, 1.0137657456114404, 0.5404623267260078]",22.0,0.0,0.0,0.0,513.8113953332683,59.95256095529482,-1508.1179165259693,-1238.9343439947015,0.0,0.0,0.0,0.0,0.0,0.0,0.0,-8.1,21.405682080818227,0.0,20.783593252908393,0.0,-8.1,22.0,19.23,22.34,21.28,22.28,-8.56,-8.1,0.0,-1069.87,-1666.33,0.0,84.0,33.0,336.0,0.0,0.0,0.0,0.0,0.0,0.0,0.0,0.0,0.0,0.0,0.0,0.0,0.0,0.0
95.0,1518.0,0.0,0.0,-0.0,0.0,1517.9999999999927,0.0,8449.719370493214,0.0,8449.719370493227,0.0,0.0,0.05488945578231292,0.4009828437395162,0.5792600223942683,0.0,0.0,0.0,"[1.7711947982205984, 0.2825744687632614, 1.0349822110786917, 0.2268177348536966, 0.708662410894398, 0.3346856758672203, 1.0137657456114404, 0.5404623267260078]",20.91,0.0,0.0,0.0,328.1626689535936,58.39447180052444,-1443.6395723899134,162.80728661363574,0.0,0.0,0.0,0.0,0.0,0.0,0.0,-7.9,21.016668371889402,0.0,20.706313319578236,0.0,-7.9,20.91,19.19,22.22,20.44,21.64,-8.35,-7.9,4052.84,-1024.12,-1595.09,0.0,141.0,8.0,170.0,0.0,0.0,0.0,0.0,0.0,0.0,0.0,0.0,0.0,0.0,0.0,0.0,0.0,0.0
96.0,1291.0,0.0,0.0,-0.0,0.0,1291.0,0.0,10140.992192378806,0.0,10140.992192378806,0.0,0.0,0.0,0.3578663803365451,0.5400548666477591,0.0,0.0,0.0,"[1.7711947982205984, 0.2825744687632614, 1.0349822110786917, 0.2268177348536966, 0.708662410894398, 0.3346856758672203, 1.0137657456114404, 0.5404623267260078]",20.46,0.0,0.0,0.0,263.9538649551563,32.347285713167544,-1391.0744436929654,624.897757118511,0.0,0.0,0.0,0.0,0.0,0.0,0.0,-7.3,20.7971337248356,0.0,20.59837163627565,0.0,-7.3,20.46,19.13,22.06,20.18,21.4,-7.76,-7.3,290.03,-986.83,-1537.01,0.0,80.0,0.0,155.0,0.0,0.0,0.0,0.0,0.0,0.0,0.0,0.0,0.0,0.0,0.0,0.0,0.0,0.0
97.0,1461.0,12826.942429163248,11301.807717017431,-0.0,0.0,0.0,0.0,21815.5996282498,0.0,0.0,0.0,21815.5996282498,0.0,0.3578663803365451,0.5400548666477591,0.0,0.0,0.0,"[1.7711947982205984, 0.2825744687632614, 1.0349822110786917, 0.2268177348536966, 0.708662410894398, 0.3346856758672203, 1.0137657456114404, 0.5404623267260078]",20.23,0.0,0.0,0.0,317.519936347925,33.70214584775047,-1344.1742194810727,774.9211399238912,7058.4349891953225,0.0,0.0,0.0,0.0,0.0,0.0,-6.6,20.63514736949918,0.0,20.481276073295852,0.0,-6.6,20.23,19.07,21.89,20.01,21.2,-7.05,-6.6,1353.94,-953.56,-1485.19,0.0,80.0,0.0,195.0,0.0,0.0,0.0,0.0,0.0,0.0,0.0,0.0,0.0,0.0,0.0,0.0,0.0,0.0
98.0,1354.0,9851.228478497538,8447.972336105051,-0.0,0.0,0.0,0.0,16870.67163719155,0.0,0.0,0.0,16870.67163719155,0.0,0.3578663803365451,0.5400548666477591,0.0,0.0,0.0,"[1.7711947982205984, 0.2825744687632614, 1.0349822110786917, 0.2268177348536966, 0.708662410894398, 0.3346856758672203, 1.0137657456114404, 0.5404623267260078]",23.64,0.0,0.0,0.0,187.76317656623138,31.02629708194918,-1479.879932864212,-3833.974787781388,5366.930147397843,0.0,0.0,0.0,0.0,0.0,0.0,-5.9,21.74780707617035,0.0,20.58593290235234,0.0,-5.9,23.64,19.13,22.05,22.63,23.07,-6.34,-5.9,4385.42,-1049.83,-1635.13,0.0,80.0,1.0,98.0,0.0,0.0,0.0,0.0,0.0,0.0,0.0,0.0,0.0,0.0,0.0,0.0,0.0,0.0
99.0,977.0,5790.19031716078,4784.239365574977,-0.0,0.0,0.0,0.0,9736.604643194612,0.0,0.0,0.0,9736.60464319461,0.0,0.3578663803365451,0.5400548666477591,0.0,0.0,0.0,"[1.7711947982205984, 0.2825744687632614, 1.0349822110786917, 0.2268177348536966, 0.708662410894398, 0.3346856758672203, 1.0137657456114404, 0.5404623267260078]",23.77,0.0,0.0,0.0,119.32547219468083,28.689163349793617,-1466.5425882836944,-3794.8429707052037,0.0,0.0,0.0,0.0,0.0,0.0,0.0,-5.5,21.900914744082378,0.0,20.73219773003101,0.0,-5.5,23.77,19.21,22.26,22.52,23.09,-5.94,-5.5,685.58,-1040.37,-1620.4,0.0,80.0,0.0,47.0,0.0,0.0,0.0,0.0,0.0,0.0,0.0,0.0,0.0,0.0,0.0,0.0,0.0,0.0
100.0,877.0,31516.817618449044,14482.2335303568,-0.0,0.0,-16000.0,0.0,30163.714062077375,0.0,0.0,0.0,30163.71406207738,0.6533333333333333,0.3578663803365451,0.5400548666477591,0.0,0.0,0.0,"[1.7711947982205984, 0.2825744687632614, 1.0349822110786917, 0.2268177348536966, 0.708662410894398, 0.3346856758672203, 1.0137657456114404, 0.5404623267260078]",21.22,0.0,0.0,0.0,285.3802935122638,32.889229767000714,-1313.6792179229253,-261.62203672849904,6377.373077883926,0.0,0.0,0.0,0.0,0.0,0.0,-5.0,21.10922063720618,0.0,20.708483000035805,0.0,-5.0,21.22,19.2,22.21,20.57,21.73,-5.43,-5.0,4358.12,-931.93,-1451.5,0.0,80.0,0.0,171.0,0.0,0.0,0.0,0.0,0.0,0.0,0.0,0.0,0.0,0.0,0.0,0.0,0.0,0.0
101.0,904.0,7659.446585619156,6717.149352691061,-0.0,0.0,0.0,0.0,14246.680017480357,0.0,0.0,0.0,14246.680017480357,0.6533333333333333,0.3578663803365451,0.5400548666477587,0.0,0.0,0.0,"[1.7711947982205984, 0.2825744687632614, 1.0349822110786917, 0.2268177348536966, 0.708662410894398, 0.3346856758672203, 1.0137657456114404, 0.5404623267260078]",23.77,0.0,0.0,0.0,165.27952291584555,31.669855645876073,-1421.4508747901418,-3669.7729310595723,0.0,0.0,0.0,0.0,0.0,0.0,0.0,-4.6,21.962555601394843,0.0,20.815561136775095,0.0,-4.6,23.77,19.27,22.36,22.7,23.25,-4.96,-4.6,604.79,-1008.38,-1570.57,0.0,80.0,3.0,81.0,0.0,0.0,0.0,0.0,0.0,0.0,0.0,0.0,0.0,0.0,0.0,0.0,0.0,0.0
102.0,697.0,16945.750959008867,11412.496705217669,-0.0,0.0,-4751.525498996153,0.0,24531.633011076796,0.0,0.0,0.0,24531.633011076796,0.8473539578756762,0.3578663803365451,0.5400548666477587,0.0,0.0,0.0,"[1.7711947982205984, 0.2825744687632614, 1.0349822110786917, 0.2268177348536966, 0.708662410894398, 0.3346856758672203, 1.0137657456114404, 0.5404623267260078]",21.33,0.0,0.0,0.0,141.80912584506663,47.69107673731927,-1284.0724570291115,-289.96389944906315,6287.7939152029185,0.0,0.0,0.0,0.0,0.0,0.0,-4.3,21.203684039371097,0.0,20.792505665012314,0.0,-4.3,21.33,19.27,22.32,20.66,21.83,-4.67,-4.3,3735.42,-910.93,-1418.78,0.0,111.0,14.0,46.0,0.0,0.0,0.0,0.0,0.0,0.0,0.0,0.0,0.0,0.0,0.0,0.0,0.0,0.0
103.0,1076.0,0.0,3468.006004503537,-0.0,0.0,4544.006004503537,0.0,7553.8068340758655,0.0,0.0,0.0,7553.806834075866,0.6541564236705939,0.3578663803365451,0.5400548666477587,0.0,0.0,0.0,"[1.7711947982205984, 0.2825744687632614, 1.0349822110786917, 0.2268177348536966, 0.708662410894398, 0.3346856758672203, 1.0137657456114404, 0.5404623267260078]",23.77,0.0,0.0,0.0,169.29697827030319,54.804092443879675,-1391.3897324611069,-3549.6874055304047,0.0,0.0,0.0,0.0,0.0,0.0,0.0,-4.0,22.021990892754644,0.0,20.897672718784527,0.0,-4.0,23.77,19.34,22.46,22.74,23.31,-4.36,-4.0,3300.08,-987.06,-1537.36,0.0,131.0,14.0,56.0,0.0,0.0,0.0,0.0,0.0,0.0,0.0,0.0,0.0,0.0,0.0,0.0,0.0,0.0
104.0,2048.0,7268.501592695847,5184.159084732368,-0.0,0.0,0.0,0.0,11440.097138691175,0.0,0.0,0.0,11440.097138691175,0.3466666666666667,0.3578663803365451,0.5400548666477587,0.0,0.0,0.0,"[0.5836932162042494, 0.2825744687632614, 0.9217501958130292, 0.2268177348536966, 0.7086624108944015, 0.3346856758672203, 1.0137657456114404, 0.5404623267260078]",21.42,0.0,0.0,1.4551851288334554,161.12110421561744,60.088046968753105,-1258.37478834565,-292.1925290101488,2831.564091400619,0.0,0.0,0.0,0.0,0.0,0.0,-3.7,21.28927101482062,0.0,20.874897611370585,0.0,-3.7,21.42,19.34,22.41,20.75,21.93,-4.04,-3.7,3175.39,-892.7,-1390.39,2.15,133.0,22.0,48.0,0.0,0.0,0.0,0.0,0.0,0.0,0.0,0.0,0.0,0.0,0.0,0.0,0.0,0.0
105.0,1828.0,9133.792700935162,7265.603673894179,-0.0,5.47993646369194,0.0,0.0,17072.284991525932,0.0,0.0,0.0,17072.284991525932,0.3466666666666667,0.3578663803365451,0.5400548666477587,0.0,0.0,0.0,"[0.5836932162042494, 0.2825744687632614, 0.9217501958130292, 0.2268177348536966, 0.7086624108944015, 0.3346856758672203, 1.0137657456114404, 0.5404623267260078]",22.16,0.0,0.0,42.779381217678306,233.85819063316654,69.16560987045877,-1220.6129158839033,-1340.1080128972983,726.3226986100332,0.0,0.0,0.0,0.0,0.0,0.0,-2.2,21.51250863434847,0.0,20.874703539709476,0.0,-2.2,22.16,19.36,22.39,21.5,22.43,-2.49,-2.2,3112.96,-865.91,-1348.67,63.15,165.0,17.0,86.0,0.0,0.0,0.0,0.0,0.0,0.0,0.0,0.0,0.0,0.0,0.0,0.0,0.0,0.0
106.0,4098.0,0.0,0.0,-0.0,18.67418349373117,4079.325816506269,0.0,2923.268290274328,0.0,2923.268290274328,0.0,0.0,0.1732259431757539,0.34543751855816784,0.5400548666477585,0.0,0.0,0.0,"[0.5836932162042494, 0.2825744687632614, 0.9217501958130292, 0.2268177348536966, 0.7086624108944015, 0.3346856758672203, 1.0137657456114404, 0.5404623267260078]",21.42,0.0,0.0,53.72762254415342,91.0623213677068,2.3032622287909854,-1133.1200286413375,-354.52578747953936,1341.342850853567,0.0,0.0,0.0,0.0,0.0,0.0,-1.2,21.2563049031237,0.0,20.839473151487603,0.0,-1.2,21.42,19.36,22.32,20.87,21.96,-1.47,-1.2,156.04,-803.84,-1251.99,79.31,0.0,0.0,68.0,0.0,0.0,0.0,0.0,0.0,0.0,0.0,0.0,0.0,0.0,0.0,0.0,0.0,0.0
107.0,6608.0,8822.974941843127,2388.745496114295,-0.0,217.88542898038207,0.0,0.0,6136.7034318066535,0.0,0.0,0.0,6136.703431806653,0.1732259431757539,0.34543751855816784,0.5400548666477585,0.0,0.0,0.0,"[0.5836932162042494, 0.2825744687632614, 0.9217501958130292, 0.2268177348536966, 0.7086624108944015, 0.3346856758672203, 1.0137657456114404, 0.5404623267260078]",21.42,0.0,0.0,99.75860408736688,28.122187481203568,0.7113015706560375,-1067.987553595095,-418.4576277195136,3700.35062381052,0.0,0.0,0.0,0.0,0.0,0.0,0.1,21.223470387583088,0.0,20.801289449350406,0.0,0.1,21.42,19.36,22.25,20.92,21.96,-0.16,0.1,3733.7,-757.63,-1180.03,147.26,0.0,0.0,21.0,0.0,0.0,0.0,0.0,0.0,0.0,0.0,0.0,0.0,0.0,0.0,0.0,0.0,0.0
108.0,3379.0,7224.248173248257,4342.068731767354,-0.0,532.9417993853374,0.0,0.0,11610.141125243466,0.0,0.0,0.0,11610.141125243465,0.1732259431757539,0.34543751855816784,0.5400548666477585,0.0,0.0,0.0,"[0.5836932162042494, 0.2825744687632614, 0.9217501958130292, 0.2268177348536966, 0.7086624108944015, 0.3346856758672203, 1.0137657456114404, 0.5404623267260078]",22.58,0.0,0.0,127.5372329877352,64.27928567132244,1.62583216149952,-1071.3637421545582,-1991.8414831521995,2871.2479073020854,0.0,0.0,0.0,0.0,0.0,0.0,1.2,21.606476902714547,0.0,20.844386621444897,0.0,1.2,22.58,19.4,22.29,21.84,22.59,0.9,1.2,2537.71,-760.03,-1183.76,188.27,0.0,0.0,48.0,0.0,0.0,0.0,0.0,0.0,0.0,0.0,0.0,0.0,0.0,0.0,0.0,0.0,0.0
109.0,1173.0,20892.043161355054,4181.596069487431,-0.0,567.0131239391521,-16000.0,0.0,11499.973086431957,0.0,0.0,0.0,11499.973086431957,0.8265592765090872,0.34543751855816784,0.5400548666477585,0.0,0.0,0.0,"[0.5836932162042494, 0.2825744687632614, 0.9217501958130292, 0.2268177348536966, 0.7086624108944015, 0.3346856758672203, 1.0137657456114404, 0.5404623267260078]",22.58,0.0,0.0,131.87093297308468,88.38401779806836,2.235519222061839,-1031.2822190491781,-1913.1614983338868,2723.5741923260184,0.0,0.0,0.0,0.0,0.0,0.0,2.0,21.645118625332255,0.0,20.899617037354467,0.0,2.0,22.58,19.45,22.34,21.76,22.56,1.7,2.0,0.0,-731.6,-1139.47,194.66,0.0,0.0,66.0,0.0,0.0,0.0,0.0,0.0,0.0,0.0,0.0,0.0,0.0,0.0,0.0,0.0,0.0
110.0,2456.0,6223.9348519444375,3887.863940143405,-0.0,151.0487624586904,0.0,0.0,10803.361315818467,0.0,0.0,0.0,10803.361315818469,0.8265592765090872,0.34543751855816784,0.5400548666477585,0.0,0.0,0.0,"[0.5836932162042494, 0.2825744687632614, 0.9217501958130292, 0.2268177348536966, 0.7086624108944015, 0.3346856758672203, 1.0137657456114404, 0.5404623267260078]",22.58,0.0,0.0,97.57417057448212,25.44388391156513,0.6435585639268919,-1016.2516478846608,-1841.2017238750832,393.4743328064903,0.0,0.0,0.0,0.0,0.0,0.0,2.3,21.68080610766271,0.0,20.95154888019387,0.0,2.3,22.58,19.51,22.39,21.77,22.58,1.96,2.3,587.16,-720.93,-1122.87,144.04,0.0,0.0,19.0,0.0,0.0,0.0,0.0,0.0,0.0,0.0,0.0,0.0,0.0,0.0,0.0,0.0,0.0
111.0,3406.0,17239.39752874635,9499.737956103498,-0.0,0.06533722731502031,-4247.527922226435,0.0,25853.9141191743,0.0,0.0,0.0,25853.9141191743,1.0,0.34543751855816784,0.5400548666477585,0.0,0.0,0.0,"[0.5836932162042494, 0.2825744687632614, 0.9217501958130292, 0.2268177348536966, 0.7086624108944015, 0.3346856758672203, 1.0137657456114404, 0.5404623267260078]",21.42,0.0,0.0,24.659121767517235,187.26980485603477,45.489429018622,-987.8245073843353,-255.053944409565,3332.2752022955615,0.0,0.0,0.0,0.0,0.0,0.0,1.7,21.303862594077234,0.0,20.926868397865434,0.0,1.7,21.42,19.52,22.33,20.88,21.94,1.32,1.7,3713.13,-700.77,-1091.46,36.4,127.0,0.0,73.0,0.0,0.0,0.0,0.0,0.0,0.0,0.0,0.0,0.0,0.0,0.0,0.0,0.0,0.0
112.0,4402.0,0.0,0.0,-0.0,0.0,4402.0,0.0,9709.340936829005,0.0,9709.340936829003,0.0,0.0,0.8128401360544217,0.30415630709205815,0.5346842973674147,0.0,0.0,0.0,"[0.5836932162042494, 0.2825744687632614, 0.9217501958130292, 0.2268177348536966, 0.7086624108944015, 0.3346856758672203, 1.0137657456114404, 0.5404623267260078]",22.58,0.0,0.0,0.0,398.9262685303564,39.290943902905084,-1086.3943133190755,-1845.8473223218186,157.0545600018907,0.0,0.0,0.0,0.0,0.0,0.0,0.9,21.679570055354258,0.0,20.960906284302297,0.0,0.9,22.58,19.57,22.36,21.85,22.6,0.49,0.9,66.82,-770.69,-1200.37,0.0,91.0,0.0,250.0,0.0,0.0,0.0,0.0,0.0,0.0,0.0,0.0,0.0,0.0,0.0,0.0,0.0,0.0
113.0,4555.0,8388.516794342557,3791.574210370844,-0.0,0.0,0.0,0.0,10065.896107969938,0.0,0.0,0.0,10065.896107969937,0.8128401360544217,0.30415630709205815,0.529313728087071,0.0,0.0,0.0,"[0.5836932162042494, 0.2825744687632614, 0.9217501958130292, 0.2268177348536966, 0.7086624108944015, 0.3346856758672203, 1.0137657456114404, 0.5404623267260078]",21.42,0.0,0.0,0.0,13.39151784819217,0.3387150336457324,-1022.8958401015428,-269.06230143422613,3619.683687695085,0.0,0.0,0.0,0.0,0.0,0.0,1.0,21.297419507426323,0.0,20.927882903162146,0.0,1.0,21.42,19.57,22.29,20.84,21.88,0.58,1.0,71.73,-725.65,-1130.21,0.0,0.0,0.0,10.0,0.0,0.0,0.0,0.0,0.0,0.0,0.0,0.0,0.0,0.0,0.0,0.0,0.0,0.0
114.0,3183.0,0.0,2657.5001903759057,-0.0,0.0,5840.500190375906,0.0,7080.483718585604,0.0,0.0,0.0,7080.483718585603,0.5645195497289155,0.30415630709205815,0.529313728087071,0.0,0.0,0.0,"[0.5836932162042494, 0.2825744687632614, 0.9217501958130292, 0.2268177348536966, 0.7086624108944015, 0.3346856758672203, 1.0137657456114404, 0.5404623267260078]",22.58,0.0,0.0,0.0,61.60098210168402,1.5580891547703706,-1076.3739325427307,-1855.3259704359314,1371.8720856745338,0.0,0.0,0.0,0.0,0.0,0.0,1.1,21.674709216820517,0.0,20.96286192176364,0.0,1.1,22.58,19.61,22.32,21.87,22.59,0.67,1.1,1076.51,-763.58,-1189.3,0.0,0.0,0.0,46.0,0.0,0.0,0.0,0.0,0.0,0.0,0.0,0.0,0.0,0.0,0.0,0.0,0.0,0.0
115.0,2536.0,0.0,0.0,-0.0,0.0,2536.0,0.0,10065.490161663922,0.0,10065.490161663922,0.0,0.0,0.4566964204772148,0.26136085572443946,0.4815156614920119,0.0,0.0,0.0,"[0.5836932162042494, 0.2825744687632614, 0.9217501958130292, 0.2268177348536966, 0.7086624108944015, 0.3346856758672203, 1.0137657456114404, 0.5404623267260078]",21.84,0.0,0.0,0.0,108.47129457035665,2.74359177253044,-1028.9625684055397,-818.1044099896021,891.5903329642819,0.0,0.0,0.0,0.0,0.0,0.0,1.3,21.444861737683244,0.0,20.961593609601138,0.0,1.3,21.84,19.62,22.3,21.22,22.13,0.87,1.3,0.0,-729.95,-1136.91,0.0,0.0,0.0,81.0,0.0,0.0,0.0,0.0,0.0,0.0,0.0,0.0,0.0,0.0,0.0,0.0,0.0,0.0
116.0,3498.0,0.0,0.0,-0.0,0.0,3498.0,0.0,7328.270537174057,0.0,7328.270537174057,0.0,0.0,0.04354632901356709,0.23020324289631847,0.48151566149201147,0.0,0.0,0.0,"[0.5836932162042494, 0.2825744687632614, 0.8925897397709939, 0.2268177348536966, 0.6761947377912101, 0.3346856758672203, 1.0137657456114404, 0.5404623267260078]",21.42,0.0,0.0,0.0,30.80049105084201,0.7790445773851834,-1002.8550785488529,-290.2269595824938,1261.5906871733957,0.0,0.0,0.0,0.0,0.0,0.0,1.4,21.286571979536575,0.0,20.92552475744266,0.0,1.4,21.42,19.62,22.23,20.94,21.9,0.98,1.4,0.0,-711.43,-1108.06,0.0,0.0,0.0,23.0,0.0,0.0,0.0,0.0,0.0,0.0,0.0,0.0,0.0,0.0,0.0,0.0,0.0,0.0
117.0,2903.0,7395.946287446737,4455.966556009504,-0.0,0.0,0.0,0.0,12084.609849327062,0.0,0.0,0.0,12084.609849327062,0.04354632901356709,0.23020324289631847,0.4471440180978117,0.0,0.0,0.0,"[0.5836932162042494, 0.2825744687632614, 0.8925897397709939, 0.2268177348536966, 0.6761947377912101, 0.3346856758672203, 1.0137657456114404, 0.5404623267260078]",21.42,0.0,0.0,0.0,268.32372867404,54.63473492705679,-992.8346977725081,-350.91017628751786,3368.388277606204,0.0,0.0,0.0,0.0,0.0,0.0,1.6,21.25617518205892,0.0,20.889714218873394,0.0,1.6,21.42,19.62,22.16,20.98,21.89,1.17,1.6,0.0,-704.32,-1096.99,0.0,100.0,26.0,145.0,0.0,0.0,0.0,0.0,0.0,0.0,0.0,0.0,0.0,0.0,0.0,0.0,0.0,0.0
118.0,2240.0,1221.8998408049267,0.0,-0.0,0.0,1024.2096583990979,0.0,8225.451131659598,0.0,8225.451131659598,0.0,0.0,0.0,0.19523108672429637,0.4471440180978117,0.0,0.0,0.0,"[0.5836932162042494, 0.2825744687632614, 0.8925897397709939, 0.2268177348536966, 0.6761947377912101, 0.3346856758672203, 1.0137657456114404, 0.5404623267260078]",22.58,0.0,0.0,0.0,436.4225185052945,75.46570949626938,-1046.3127902136957,-1929.1710043288722,130.72053932863383,0.0,0.0,0.0,0.0,0.0,0.0,1.7,21.637461268799385,0.0,20.92914167735077,0.0,1.7,22.58,19.66,22.2,21.87,22.51,1.26,1.7,1277.71,-742.26,-1156.08,0.0,146.0,29.0,246.0,0.0,0.0,0.0,0.0,0.0,0.0,0.0,0.0,0.0,0.0,0.0,0.0,0.0,0.0
119.0,1587.0,4785.729361045852,3174.800714240622,-0.0,0.0,0.0,0.0,8700.878926556345,0.0,0.0,0.0,8700.878926556343,0.0,0.19523108672429637,0.41814294398395563,0.0,0.0,0.0,"[0.5836932162042494, 0.2825744687632614, 0.8925897397709939, 0.2268177348536966, 0.6761947377912101, 0.3346856758672203, 1.0137657456114404, 0.5404623267260078]",21.42,0.0,0.0,0.0,387.6492008687209,57.581555719774684,-977.8041266079905,-338.13183461287,3218.640639880233,0.0,0.0,0.0,0.0,0.0,0.0,1.9,21.26233428070832,0.0,20.904159397555652,0.0,1.9,21.42,19.66,22.15,20.87,21.8,1.46,1.9,1737.29,-693.66,-1080.38,0.0,130.0,10.0,220.0,0.0,0.0,0.0,0.0,0.0,0.0,0.0,0.0,0.0,0.0,0.0,0.0,0.0,0.0
120.0,1154.0,12320.96141370612,7829.198181650882,-0.0,0.0,-3276.1584249867087,0.0,21158.197481448202,0.0,0.0,0.0,21158.197481448206,0.1337764690202906,0.19523108672429637,0.41814294398395563,0.0,0.0,0.0,"[0.5836932162042494, 0.2825744687632614, 0.8925897397709939, 0.2268177348536966, 0.6761947377912101, 0.3346856758672203, 1.0137657456114404, 0.5404623267260078]",22.58,0.0,0.0,0.0,182.12464273541357,4.606524457581974,-1056.3331709900406,-1919.4766121193434,2789.600055705815,0.0,0.0,0.0,0.0,0.0,0.0,1.5,21.642461429606634,0.0,20.941961158997394,0.0,1.5,22.58,19.69,22.19,21.86,22.49,1.03,1.5,336.91,-749.37,-1167.15,0.0,0.0,0.0,136.0,0.0,0.0,0.0,0.0,0.0,0.0,0.0,0.0,0.0,0.0,0.0,0.0,0.0,0.0
121.0,828.0,11478.105352669714,10592.714825906365,-0.0,0.0,0.0,0.0,12175.839662082082,0.0,-16147.736408574421,0.0,28323.576070656505,0.1337764690202906,0.2611676770593086,0.41814294398395563,0.0,0.0,0.0,"[0.5836932162042494, 0.2825744687632614, 0.8925897397709939, 0.2268177348536966, 0.6761947377912101, 0.3346856758672203, 1.0137657456114404, 0.5404623267260078]",22.58,0.0,0.0,0.0,225.11846319539896,31.36501211559492,-1071.3637421545582,-1847.535684830386,324.54890530112306,0.0,0.0,0.0,0.0,0.0,0.0,1.2,21.678561014889635,0.0,20.99135916972039,0.0,1.2,22.58,19.73,22.25,21.8,22.48,0.72,1.2,0.0,-760.03,-1183.76,0.0,80.0,0.0,126.0,0.0,0.0,0.0,0.0,0.0,0.0,0.0,0.0,0.0,0.0,0.0,0.0,0.0,0.0
122.0,1037.0,21452.68516534974,4308.421739522989,-0.0,0.0,-16000.0,0.0,11355.879308529247,0.0,0.0,0.0,11355.879308529247,0.7871098023536239,0.2611676770593086,0.41814294398395563,0.0,0.0,0.0,"[0.5836932162042494, 0.2825744687632614, 0.8925897397709939, 0.2268177348536966, 0.6761947377912101, 0.3346856758672203, 1.0137657456114404, 0.5404623267260078]",21.42,0.0,0.0,0.0,229.1359185498567,31.466626625688637,-1032.9162208778876,-261.34579935867373,3378.6388067968355,0.0,0.0,0.0,0.0,0.0,0.0,0.8,21.301459390835678,0.0,20.963206398672988,0.0,0.8,21.42,19.73,22.2,20.91,21.84,0.31,0.8,1373.1,-732.76,-1141.28,0.0,80.0,0.0,129.0,0.0,0.0,0.0,0.0,0.0,0.0,0.0,0.0,0.0,0.0,0.0,0.0,0.0,0.0
123.0,833.0,0.0,2529.145517890811,-0.0,0.0,3362.145517890811,0.0,6642.058765307231,0.0,0.0,0.0,6642.058765307231,0.6441614384977221,0.2611676770593086,0.41814294398395563,0.0,0.0,0.0,"[0.5836932162042494, 0.2825744687632614, 0.8925897397709939, 0.2268177348536966, 0.6761947377912101, 0.3346856758672203, 1.0137657456114404, 0.5404623267260078]",22.58,0.0,0.0,0.0,111.2905614857655,28.48593432960618,-1096.4146940954206,-1847.0460995850433,465.491351623884,0.0,0.0,0.0,0.0,0.0,0.0,0.7,21.6791777728981,0.0,20.99689535467515,0.0,0.7,22.58,19.76,22.23,21.9,22.53,0.21,0.7,1428.69,-777.8,-1211.44,0.0,80.0,0.0,41.0,0.0,0.0,0.0,0.0,0.0,0.0,0.0,0.0,0.0,0.0,0.0,0.0,0.0,0.0
124.0,633.0,0.0,5346.264012258992,-0.0,0.0,5979.264012258992,0.0,13938.45892395966,0.0,0.0,0.0,13938.458923959659,0.3899410298132412,0.2611676770593086,0.4181429439839556,0.0,0.0,0.0,"[0.5836932162042494, 0.2825744687632614, 0.8925897397709939, 0.2268177348536966, 0.6761947377912101, 0.3346856758672203, 1.0137657456114404, 0.5404623267260078]",21.42,0.0,0.0,0.0,105.93395434648862,28.350448316147883,-1047.9467920424054,-257.8053315996671,1174.6768761540009,0.0,0.0,0.0,0.0,0.0,0.0,0.5,21.303436541800593,0.0,20.969890019083124,0.0,0.5,21.42,19.75,22.19,20.94,21.85,0.03,0.5,1536.88,-743.42,-1157.89,0.0,80.0,0.0,37.0,0.0,0.0,0.0,0.0,0.0,0.0,0.0,0.0,0.0,0.0,0.0,0.0,0.0,0.0
125.0,904.0,0.0,3478.319720846386,-0.0,0.0,4382.319720846386,0.0,9002.146806977567,0.0,0.0,0.0,9002.146806977566,0.20361791243031666,0.2611676770593086,0.4181429439839556,0.0,0.0,0.0,"[0.5836932162042494, 0.2825744687632614, 0.8925897397709939, 0.2268177348536966, 0.6761947377912101, 0.3346856758672203, 1.0137657456114404, 0.5404623267260078]",21.42,0.0,0.0,0.0,150.90126164726027,50.09595347620396,-1057.96717281875,-319.76459514609815,3329.13584164894,0.0,0.0,0.0,0.0,0.0,0.0,0.3,21.272692612988163,0.0,20.931834187371518,0.0,0.3,21.42,19.74,22.12,21.03,21.88,-0.18,0.3,2808.58,-750.53,-1168.96,0.0,80.0,34.0,67.0,0.0,0.0,0.0,0.0,0.0,0.0,0.0,0.0,0.0,0.0,0.0,0.0,0.0,0.0
126.0,2339.0,5916.128787662232,3547.5481437239205,-0.0,0.0,0.0,0.0,9147.495182806213,0.0,0.0,0.0,9147.495182806213,0.20361791243031666,0.2611676770593086,0.4181429439839556,0.0,0.0,0.0,"[0.5836932162042494, 0.2825744687632614, 0.8925897397709939, 0.2268177348536966, 0.6761947377912101, 0.3346856758672203, 1.0137657456114404, 0.5404623267260078]",22.49,0.0,0.0,0.0,863.6119378626249,80.1738484639451,-1116.6023966071039,-1770.1518612289397,0.0,0.0,0.0,0.0,0.0,0.0,0.0,0.2,21.620724277295277,0.0,20.964264335390425,0.0,0.2,22.49,19.77,22.16,21.85,22.46,-0.26,0.2,337.44,-792.12,-1233.74,0.0,127.0,29.0,575.0,0.0,0.0,0.0,0.0,0.0,0.0,0.0,0.0,0.0,0.0,0.0,0.0,0.0,0.0
127.0,2403.0,0.0,2386.093300361048,-0.0,0.0,4789.093300361048,0.0,6129.8899228718365,0.0,0.0,0.0,6129.889922871838,0.0,0.2611676770593086,0.4181429439839556,0.0,0.0,0.0,"[0.5836932162042494, 0.2825744687632614, 0.8925897397709939, 0.2268177348536966, 0.6761947377912101, 0.3346856758672203, 1.0137657456114404, 0.5404623267260078]",21.51,0.0,0.0,0.0,2277.615259285948,132.2682206386589,-1072.8508030242783,-454.30072822361836,1278.970905785994,0.0,0.0,0.0,0.0,0.0,0.0,0.1,21.30290149773035,0.0,20.935394564523826,0.0,0.1,21.51,19.76,22.12,20.93,21.81,-0.38,0.1,1469.13,-761.08,-1185.4,0.0,142.0,48.0,1621.0,0.0,0.0,0.0,0.0,0.0,0.0,0.0,0.0,0.0,0.0,0.0,0.0,0.0,0.0
128.0,2137.0,58426.86863635721,33697.66485752228,-6300.06943565315,0.0,-16000.0,0.0,6890.780468007673,0.0,-80000.0,0.0,86890.78046800767,0.6533333333333333,0.5878343437259753,0.4398063406398857,0.0,0.0,0.0,"[0.5836932162042494, 0.2825744687632614, 0.8925897397709974, 0.2268177348536966, 0.6761947377912065, 0.3346856758672203, 1.000613192507707, 0.5404623267260078]",22.58,0.0,0.0,2.936133555989179,716.305241532511,92.0288746415458,-1121.465646036283,-1939.5188550429118,0.0,0.0,0.0,0.0,0.0,0.0,0.0,0.2,21.63340460441796,0.0,20.94489598308436,0.0,0.2,22.58,19.77,22.12,21.64,22.29,-0.24,0.2,1502.36,-795.57,-1239.12,4.33,83.0,78.0,483.0,0.0,0.0,0.0,0.0,0.0,0.0,0.0,0.0,0.0,0.0,0.0,0.0,0.0,0.0
129.0,2017.0,0.0,0.0,-2069.8401186267606,4086.8401186267606,0.0,0.0,2687.433254793995,0.0,2687.433254793995,0.0,0.0,0.6533333333333333,0.5764081819283818,0.44692368560919876,0.0,0.0,0.0,"[0.5836932162042494, 0.2825744687632614, 0.8925897397709974, 0.2268177348536966, 0.6761947377912065, 0.3346856758672203, 1.000613192507707, 0.5404623267260078]",21.46,0.0,0.0,759.270785208905,1446.0724825860996,122.71645668984921,-934.7422043099805,-399.7453888050391,0.0,0.0,0.0,0.0,0.0,0.0,0.0,2.8,21.271139997722358,0.0,20.91844860332087,0.0,2.8,21.46,19.76,22.08,20.91,21.77,2.85,2.8,759.21,-663.11,-1032.81,1120.81,140.0,68.0,999.0,0.0,0.0,0.0,0.0,0.0,0.0,0.0,0.0,0.0,0.0,0.0,0.0,0.0,0.0
130.0,1025.0,0.0,2728.9942653089593,-15435.458776916683,10205.921433287209,8983.531608938434,0.0,8363.654505802731,0.0,0.0,0.0,8363.654505802731,0.271380458803638,0.5764081819283818,0.5,0.0,0.0,0.0,"[0.5836932162042494, 0.2825744687632614, 0.8925897397709974, 0.2268177348536966, 0.6761947377912065, 0.3346856758672203, 1.000613192507707, 0.5404623267260078]",21.94,0.0,0.0,1222.2696497096892,321.325946683727,48.13140628105873,-833.770121019821,-1067.4490319837203,0.0,0.0,0.0,0.0,0.0,0.0,0.0,5.3,21.421199330878753,0.0,20.92575884700454,0.0,5.3,21.94,19.77,22.08,21.43,22.13,5.66,5.3,0.0,-591.48,-921.24,1804.27,85.0,21.0,193.0,0.0,0.0,0.0,0.0,0.0,0.0,0.0,0.0,0.0,0.0,0.0,0.0,0.0,0.0
131.0,2665.0,0.0,0.0,-0.0,10144.582992387026,-2587.25733942424,0.0,4403.093087666506,0.0,0.0,0.0,0.0,0.37702680016346113,0.5764081819283818,0.5,19569.302611851144,4892.325652962786,24461.628264813928,"[0.5836932162042494, 0.2825744687632614, 0.8925897397709974, 0.2268177348536966, 0.6761947377912065, 0.3346856758672203, 1.000613192507707, 0.5404623267260078]",21.78,0.0,0.0,1000.5130646203249,208.41430672160138,43.45713881674759,-750.3978571752805,-790.5597071731661,1923.0113960650592,0.0,0.0,0.0,0.0,0.0,0.0,6.8,21.394101714519966,0.0,20.959464069262978,0.0,6.8,21.78,19.81,22.11,21.51,22.19,6.99,6.8,0.0,-532.34,-829.12,1476.92,119.0,0.0,93.0,0.0,0.0,0.0,0.0,0.0,0.0,0.0,0.0,0.0,0.0,0.0,0.0,0.0,0.0
132.0,2946.0,0.0,0.0,-0.0,10017.092566912848,-1709.9005669128483,0.0,6309.319421347227,26805.96,27754.087421347227,0.0,0.0,0.4468477399790691,0.45840610955870825,0.5,21444.768,5361.192,26805.96,"[0.5836932162042494, 0.2825744687632614, 0.8925897397709974, 0.2268177348536966, 0.6761947377912065, 0.3346856758672203, 1.000613192507707, 0.5404623267260078]",22.58,0.0,0.0,925.4808686991618,116.50620527927192,2.9468207927178773,-740.691176535174,-1805.90324573047,0.0,0.0,0.0,0.0,0.0,0.0,0.0,7.8,21.694045260699347,0.0,21.037150930148314,0.0,7.8,22.58,19.88,22.19,22.11,22.64,7.92,7.8,0.0,-525.45,-818.4,1366.16,0.0,0.0,87.0,0.0,0.0,0.0,0.0,0.0,0.0,0.0,0.0,0.0,0.0,0.0,0.0,0.0,0.0
133.0,2474.0,0.0,0.0,-0.0,9416.038023600955,-6942.038023600955,0.0,2827.2415246749597,0.0,2827.2415246749597,0.0,0.0,0.7303142926094415,0.4463855248449542,0.5,0.0,0.0,0.0,"[0.5836932162042494, 0.2825744687632614, 0.8925897397709974, 0.2268177348536966, 0.6761947377912065, 0.3346856758672203, 1.000613192507707, 0.5404623267260078]",21.83,0.0,0.0,877.5800833558172,21.42642855710748,0.5419440538331735,-682.8353026588628,-706.4833641796957,2014.959197205529,0.0,0.0,0.0,0.0,0.0,0.0,8.2,21.48659648370374,0.0,21.070272020832824,0.0,8.2,21.83,19.93,22.21,21.46,22.2,8.3,8.2,0.0,-484.41,-754.47,1295.45,0.0,0.0,16.0,0.0,0.0,0.0,0.0,0.0,0.0,0.0,0.0,0.0,0.0,0.0,0.0,0.0,0.0
134.0,1764.0,0.0,0.0,-0.0,8368.54793609531,-6604.54793609531,0.0,5321.5092518997735,0.0,5321.5092518997735,0.0,0.0,1.0,0.4237600603385776,0.5,0.0,0.0,0.0,"[0.5836932162042494, 0.2825744687632614, 0.8925897397709974, 0.2268177348536966, 0.6761947377912065, 0.3346856758672203, 1.000613192507707, 0.5404623267260078]",22.58,0.0,0.0,798.6340066808039,176.20418221305496,54.19440538331736,-720.6504149824839,-1664.051597365113,0.0,0.0,0.0,0.0,0.0,0.0,0.0,8.2,21.764564621972156,0.0,21.140467445325722,0.0,8.2,22.58,19.99,22.29,22.11,22.67,8.2,8.2,0.0,-511.23,-796.25,1178.92,155.0,0.0,50.0,0.0,0.0,0.0,0.0,0.0,0.0,0.0,0.0,0.0,0.0,0.0,0.0,0.0,0.0
135.0,4135.0,1407.4267164495805,2639.637412698328,-0.0,5374.247829830995,0.0,0.0,8567.924093004169,0.0,0.0,0.0,8567.924093004167,1.0,0.4237600603385776,0.49892588614393124,0.0,0.0,0.0,"[0.5836932162042494, 0.2825744687632614, 0.8925897397709974, 0.2268177348536966, 0.6761947377912065, 0.3346856758672203, 1.000613192507707, 0.5404623267260078]",21.9,0.0,0.0,756.7470760111063,258.52677614299415,55.95572355827517,-736.4760847625479,-674.1184503211033,1727.8689168733022,0.0,0.0,0.0,0.0,0.0,0.0,7.2,21.574253263555587,0.0,21.168159996357716,0.0,7.2,21.9,20.04,22.3,21.53,22.26,7.16,7.2,50.17,-522.46,-813.74,1117.09,154.0,0.0,112.0,0.0,0.0,0.0,0.0,0.0,0.0,0.0,0.0,0.0,0.0,0.0,0.0,0.0,0.0
136.0,2491.0,3826.2819530436095,1316.1505432783918,-0.0,0.0,0.0,0.0,4096.393921635472,0.0,0.0,0.0,4096.393921635472,1.0,0.4237600603385776,0.4930182599355524,0.0,0.0,0.0,"[0.5836932162042494, 0.2825744687632614, 0.8925897397709974, 0.2268177348536966, 0.6761947377912065, 0.3346856758672203, 1.000613192507707, 0.5404623267260078]",22.58,0.0,0.0,0.0,443.75261248535753,58.39447180052444,-840.8949842986237,-1554.0826854176282,0.0,0.0,0.0,0.0,0.0,0.0,0.0,5.8,21.821545296876778,0.0,21.225371418678886,0.0,5.8,22.58,20.09,22.36,22.1,22.67,5.26,5.8,0.0,-596.53,-929.11,0.0,130.0,9.0,262.0,0.0,0.0,0.0,0.0,0.0,0.0,0.0,0.0,0.0,0.0,0.0,0.0,0.0,0.0
137.0,3510.0,0.0,2423.8651693495344,-0.0,0.0,5933.865169349534,0.0,7451.6209885570925,0.0,0.0,0.0,7451.620988557092,0.7477098142283362,0.4237600603385776,0.4726100966702463,0.0,0.0,0.0,"[0.5836932162042494, 0.2825744687632614, 0.8925897397709974, 0.2268177348536966, 0.6761947377912065, 0.3346856758672203, 1.000613192507707, 0.5404623267260078]",21.64,0.0,0.0,0.0,566.1792782869882,80.85127853123656,-813.4879830877368,-272.1472572218294,590.8715205253199,0.0,0.0,0.0,0.0,0.0,0.0,5.4,21.513270405578954,0.0,21.201319222138714,0.0,5.4,21.64,20.1,22.31,21.14,21.98,4.86,5.4,0.0,-577.09,-898.83,0.0,162.0,24.0,335.0,0.0,0.0,0.0,0.0,0.0,0.0,0.0,0.0,0.0,0.0,0.0,0.0,0.0,0.0
138.0,3155.0,0.0,1916.9857126746235,-0.0,0.0,5071.985712674624,0.0,5820.234780281027,0.0,0.0,0.0,5820.234780281027,0.532064163179245,0.4237600603385776,0.4532760472610089,0.0,0.0,0.0,"[0.5836932162042494, 0.2825744687632614, 0.8925897397709974, 0.2268177348536966, 0.6761947377912065, 0.3346856758672203, 1.000613192507707, 0.5404623267260078]",21.71,0.0,0.0,0.0,453.9724550537147,48.741093341621045,-837.1037325411547,-423.8011015899462,178.61694059946967,0.0,0.0,0.0,0.0,0.0,0.0,5.0,21.509341586931466,0.0,21.17170512127144,0.0,5.0,21.71,20.1,22.25,21.26,22.03,4.48,5.0,0.0,-593.84,-924.92,0.0,101.0,8.0,285.0,0.0,0.0,0.0,0.0,0.0,0.0,0.0,0.0,0.0,0.0,0.0,0.0,0.0,0.0
139.0,2746.0,0.0,0.0,-0.0,0.0,2746.0,0.0,14005.90903820268,0.0,14005.90903820268,0.0,0.0,0.4153124624989729,0.36421112735302197,0.4532760472610089,0.0,0.0,0.0,"[0.5836932162042494, 0.2825744687632614, 0.8925897397709974, 0.2268177348536966, 0.6761947377912065, 0.3346856758672203, 1.000613192507707, 0.5404623267260078]",21.42,0.0,0.0,0.0,303.9874551539624,7.68883126375815,-842.5289861273333,-87.79264275839965,2960.9331247025752,0.0,0.0,0.0,0.0,0.0,0.0,4.6,21.38521612342628,0.0,21.128095832524984,0.0,4.6,21.42,20.09,22.17,21.04,21.84,4.1,4.6,2025.6,-597.69,-930.92,0.0,0.0,0.0,227.0,0.0,0.0,0.0,0.0,0.0,0.0,0.0,0.0,0.0,0.0,0.0,0.0,0.0,0.0
140.0,5210.0,4850.1868184373225,1230.4850023209788,-0.0,0.0,1614.5491179758428,0.0,3642.0785798783313,0.0,0.0,0.0,3642.0785798783313,0.3466666666666667,0.36421112735302197,0.440386680988184,0.0,0.0,0.0,"[0.5836932162042494, 0.2825744687632614, 0.8925897397709974, 0.22681773485370016, 0.6761947377912065, 0.3346856758672203, 1.000613192507707, 0.5404623267260078]",22.58,0.0,0.0,0.0,289.256785520951,7.316244726747842,-921.0580305093835,-1677.8783927065301,2303.19156204553,0.0,0.0,0.0,0.0,0.0,0.0,4.2,21.760947224293357,0.0,21.15916325041006,0.0,4.2,22.58,20.11,22.2,21.97,22.49,3.72,4.2,0.0,-653.4,-1017.69,0.0,0.0,0.0,216.0,0.0,0.0,0.0,0.0,0.0,0.0,0.0,0.0,0.0,0.0,0.0,0.0,0.0,0.0
141.0,3675.0,37197.51401740071,0.0,-17336.526447313707,0.0,-16000.0,0.0,10021.217782687552,0.0,10021.217782687552,0.0,0.0,1.0,0.32160390888921436,0.49999999999999956,0.0,0.0,0.0,"[0.5836932162042494, 0.2825744687632614, 0.8925897397709974, 0.22681773485370016, 0.6761947377912065, 0.3346856758672203, 1.000613192507707, 0.5404623267260078]",22.58,0.0,0.0,0.0,231.67325877372463,5.859770082071189,-941.0987920620735,-1616.1746078864683,2319.607387434145,0.0,0.0,0.0,0.0,0.0,0.0,3.8,21.79198794266462,0.0,21.20106374876829,0.0,3.8,22.58,20.14,22.26,21.9,22.46,3.35,3.8,0.0,-667.62,-1039.83,0.0,0.0,0.0,173.0,0.0,0.0,0.0,0.0,0.0,0.0,0.0,0.0,0.0,0.0,0.0,0.0,0.0,0.0
142.0,2743.0,0.0,1705.5735479824987,-0.0,0.0,4448.573547982499,0.0,4918.201998710281,0.0,0.0,0.0,4918.201998710281,0.8108599681980231,0.32160390888921436,0.49999999999999956,0.0,0.0,0.0,"[0.5836932162042494, 0.2825744687632614, 0.8925897397709974, 0.22681773485370016, 0.6761947377912065, 0.3346856758672203, 1.000613192507707, 0.5404623267260078]",22.58,0.0,0.0,0.0,191.49870522914816,4.8436249811339875,-961.1196625073364,-1558.7968088252744,2324.918705468093,0.0,0.0,0.0,0.0,0.0,0.0,3.4,21.820493146208314,0.0,21.23970512334767,0.0,3.4,22.58,20.17,22.31,21.92,22.5,2.94,3.4,61.94,-681.82,-1061.95,0.0,0.0,0.0,143.0,0.0,0.0,0.0,0.0,0.0,0.0,0.0,0.0,0.0,0.0,0.0,0.0,0.0,0.0
143.0,1393.0,9339.01484432598,3267.3189912804246,-0.0,0.0,-4632.0007788239245,0.0,9297.06700312953,0.0,0.0,0.0,9297.06700312953,1.0,0.32160390888921436,0.49999999999999956,0.0,0.0,0.0,"[0.5836932162042494, 0.2825744687632614, 0.8925897397709974, 0.22681773485370016, 0.6761947377912065, 0.3346856758672203, 1.000613192507707, 0.5404623267260078]",22.58,0.0,0.0,0.0,144.6283927604755,3.658122363373919,-981.1803151674533,-1507.3132675540294,0.0,0.0,0.0,0.0,0.0,0.0,0.0,3.0,21.846854260146927,0.0,21.275100556137797,0.0,3.0,22.58,20.2,22.35,21.93,22.52,2.54,3.0,464.33,-696.05,-1084.12,0.0,0.0,0.0,108.0,0.0,0.0,0.0,0.0,0.0,0.0,0.0,0.0,0.0,0.0,0.0,0.0,0.0,0.0
144.0,1067.0,3466.440413511794,2382.1082114442347,-0.0,0.0,0.0,0.0,6664.677049211915,0.0,0.0,0.0,6664.677049211915,1.0,0.32160390888921436,0.49999999999999956,0.0,0.0,0.0,"[0.5836932162042494, 0.2825744687632614, 0.8925897397709974, 0.22681773485370016, 0.6761947377912065, 0.3346856758672203, 1.000613192507707, 0.5404623267260078]",21.42,0.0,0.0,0.0,28.122187481203568,0.7113015706560375,-947.7628753863877,60.92466005459272,857.2889569741338,0.0,0.0,0.0,0.0,0.0,0.0,2.5,21.461250888497464,0.0,21.234469581464662,0.0,2.5,21.42,20.18,22.29,21.05,21.89,2.07,2.5,0.0,-672.35,-1047.19,0.0,0.0,0.0,21.0,0.0,0.0,0.0,0.0,0.0,0.0,0.0,0.0,0.0,0.0,0.0,0.0,0.0,0.0
145.0,1980.0,0.0,4010.9854405493916,-0.0,0.0,5990.985440549392,0.0,11069.007988839672,0.0,0.0,0.0,11069.007988839674,0.7452812312691586,0.32160390888921436,0.49999999999999956,0.0,0.0,0.0,"[0.5836932162042494, 0.2825744687632614, 0.8925897397709974, 0.22681773485370016, 0.6761947377912065, 0.3346856758672203, 1.000613192507707, 0.5404623267260078]",21.42,0.0,0.0,0.0,103.11468743107976,2.6081057590721444,-967.7837458316453,-16.80790103690562,3220.581518498164,0.0,0.0,0.0,0.0,0.0,0.0,2.1,21.422367719454435,0.0,21.18509877584436,0.0,2.1,21.42,20.16,22.21,21.15,21.92,1.7,2.1,2045.49,-686.55,-1069.31,0.0,0.0,0.0,77.0,0.0,0.0,0.0,0.0,0.0,0.0,0.0,0.0,0.0,0.0,0.0,0.0,0.0,0.0
146.0,1405.0,10203.077156758247,19472.405303502106,-0.0,0.0,10725.34353252765,0.0,5905.62836822368,0.0,-46903.65957480014,0.0,52809.287943023824,0.28927172733515993,0.513127185486315,0.49999999999999956,0.0,0.0,0.0,"[0.5836932162042494, 0.2825744687632614, 0.8925897397709974, 0.22681773485370016, 0.6761947377912065, 0.3346856758672203, 1.000613192507707, 0.5404623267260078]",22.58,0.0,0.0,0.0,34.81794640529966,0.880659087478906,-1051.322980601868,-1610.7196871402077,285.0263113876905,0.0,0.0,0.0,0.0,0.0,0.0,1.6,21.796261894953602,0.0,21.211908722792305,0.0,1.6,22.58,20.18,22.25,22.03,22.54,1.22,1.6,755.04,-745.81,-1161.62,0.0,0.0,0.0,26.0,0.0,0.0,0.0,0.0,0.0,0.0,0.0,0.0,0.0,0.0,0.0,0.0,0.0,0.0
147.0,778.0,0.0,5353.1263208555065,-0.0,0.0,6131.1263208555065,0.0,14415.646887648954,0.0,0.0,0.0,14415.646887648956,0.02859458784300406,0.513127185486315,0.49999999999999956,0.0,0.0,0.0,"[0.5836932162042494, 0.2825744687632614, 0.8925897397709974, 0.22681773485370016, 0.6761947377912065, 0.3346856758672203, 1.000613192507707, 0.5404623267260078]",21.42,0.0,0.0,0.0,77.67080351951462,1.9645471951452524,-1002.8550785488529,-30.315560065047535,3295.175104513128,0.0,0.0,0.0,0.0,0.0,0.0,1.4,21.416133810446237,0.0,21.17712820349108,0.0,1.4,21.42,20.16,22.2,21.06,21.86,1.01,1.4,1356.17,-711.43,-1108.06,0.0,0.0,0.0,58.0,0.0,0.0,0.0,0.0,0.0,0.0,0.0,0.0,0.0,0.0,0.0,0.0,0.0,0.0
148.0,903.0,18802.794603856426,1805.7806308371426,-0.0,0.0,-16000.0,0.0,4828.4283967833135,0.0,0.0,0.0,4828.428396783313,0.6819279211763374,0.513127185486315,0.49999999999999956,0.0,0.0,0.0,"[0.5836932162042494, 0.2825744687632614, 0.8925897397709974, 0.22681773485370016, 0.6761947377912065, 0.3346856758672203, 1.000613192507707, 0.5404623267260078]",22.58,0.0,0.0,0.0,36.157098190118866,0.9145305908434787,-1071.3637421545582,-1622.7577161821991,315.73591281028285,0.0,0.0,0.0,0.0,0.0,0.0,1.2,21.790536357056215,0.0,21.20407979777236,0.0,1.2,22.58,20.17,22.24,22.04,22.54,0.85,1.2,768.94,-760.03,-1183.76,0.0,0.0,0.0,27.0,0.0,0.0,0.0,0.0,0.0,0.0,0.0,0.0,0.0,0.0,0.0,0.0,0.0,0.0
149.0,1738.0,0.0,3068.7598319048993,-0.0,0.0,4806.759831904899,0.0,8117.7083210048895,0.0,0.0,0.0,8117.708321004889,0.47755888070419034,0.513127185486315,0.49999999999999956,0.0,0.0,0.0,"[0.5836932162042494, 0.2825744687632614, 0.8925897397709974, 0.22681773485370016, 0.6761947377912065, 0.3346856758672203, 1.000613192507707, 0.5404623267260078]",21.42,0.0,0.0,0.0,95.07977672216447,2.4048767388847074,-1027.9060304897152,-41.88360531667122,972.5772045883415,0.0,0.0,0.0,0.0,0.0,0.0,0.9,21.410700809771324,0.0,21.169403605892125,0.0,0.9,21.42,20.15,22.19,21.06,21.85,0.56,0.9,0.0,-729.2,-1135.74,0.0,0.0,0.0,71.0,0.0,0.0,0.0,0.0,0.0,0.0,0.0,0.0,0.0,0.0,0.0,0.0,0.0,0.0
150.0,819.0,0.0,4766.569296218064,-0.0,0.0,5585.569296218064,0.0,12563.437127579444,0.0,0.0,0.0,12563.437127579444,0.24007719293981689,0.513127185486315,0.49999999999999956,0.0,0.0,0.0,"[0.5836932162042494, 0.2825744687632614, 0.8925897397709974, 0.22681773485370016, 0.6761947377912065, 0.3346856758672203, 1.000613192507707, 0.5404623267260078]",21.42,0.0,0.0,0.0,36.157098190118866,0.9145305908434787,-1032.9162208778876,-113.10277780131614,1109.050891032893,0.0,0.0,0.0,0.0,0.0,0.0,0.8,21.375250590888275,0.0,21.122919560862613,0.0,0.8,21.42,20.12,22.12,21.14,21.87,0.48,0.8,1674.14,-732.76,-1141.28,0.0,0.0,0.0,27.0,0.0,0.0,0.0,0.0,0.0,0.0,0.0,0.0,0.0,0.0,0.0,0.0,0.0,0.0
151.0,902.0,0.0,4744.615577944493,-0.0,0.0,5646.615577944493,0.0,12415.109082492985,0.0,0.0,0.0,12415.109082492985,0.0,0.513127185486315,0.49999999999999956,0.0,0.0,0.0,"[0.5836932162042494, 0.2825744687632614, 0.8925897397709974, 0.22681773485370016, 0.6761947377912065, 0.3346856758672203, 1.000613192507707, 0.5404623267260078]",21.42,0.0,0.0,0.0,89.72316958288756,2.2693907254264123,-1042.9366016542326,-176.48268503760673,3469.1010500423004,0.0,0.0,0.0,0.0,0.0,0.0,0.6,21.343791862175596,0.0,21.08132624128146,0.0,0.6,21.42,20.09,22.07,21.14,21.85,0.29,0.6,984.45,-739.86,-1152.35,0.0,0.0,0.0,67.0,0.0,0.0,0.0,0.0,0.0,0.0,0.0,0.0,0.0,0.0,0.0,0.0,0.0,0.0
