,load_elec,grid,hp_elec,ev,pv,bat_pow,cool,load_th_sh,load_th_dhw,tes_pow,dh,hp_th,bat_soc,tes_soc,ev_soc,eh_th_in,eh_elec_in,eh_th_out,temp_slack,temp_zone_1,temp_zone_2,temp_update,Qsolar_1,QconvInt_1,QradInt_1,Qvent_1,Qconduc_1,Qheating_1,Qsolar_2,QconvInt_2,QradInt_2,Qvent_2,Qconduc_2,Qheating_2,temp_amb,temp_aggregate_1,temp_aggregate_2,temp_wall_1,temp_wall_2,_Tamb,_Tz_1,_TEW_1,_TIW_1,_T1_1,_T2_1,_Taeq_1,_Tvent_1,_Qheating_1,_Qinfvent_1,_Qenvelope_1,_Qsolar_1,_Qint_people_1,_Qint_lighting_1,_Qint_appliances_1,_Tz_2,_TEW_2,_TIW_2,_T1_2,_T2_2,_Taeq_2,_Tvent_2,_Qheating_2,_Qinfvent_2,_Qenvelope_2,_Qsolar_2,_Qint_people_2,_Qint_lighting_2,_Qint_appliances_2
8.0,6069.0,53711.25003936766,60603.69378917082,-0.0,0.0,13230.0,0.0,100804.70858682459,0.0,0.0,0.0,100804.7085868246,0.0,0.5,0.8,0.0,0.0,0.0,"[2.0, 2.0, 2.0, 2.0, 2.0, 2.0, 2.0, 2.0, 2.0]",20.0,0.0,0.0,1.6542645215812655,323.1528545608871,146.71695459559893,-2464.661973626727,-1510.4586465581203,14439.877539412453,0.0,0.0,0.0,0.0,0.0,0.0,-9.4,19.4719638626239,0.0,19.0,0.0,-9.4,20.0,18.0,20.0,20.0,20.0,-9.84,-9.4,2258.3,-1711.86,-1788.75,2.67,176.0,158.0,127.0,0.0,0.0,0.0,0.0,0.0,0.0,0.0,0.0,0.0,0.0,0.0,0.0,0.0,0.0
9.0,3925.0,20009.17226787422,0.0,-0.0,15.873593465152439,-16000.0,0.0,66018.52638728463,0.0,66018.52638728463,0.0,0.0,0.5807407407407407,0.2504968768432176,0.8,0.0,0.0,0.0,"[2.0, 2.0, 2.0, 2.0, 2.0, 2.0, 2.0, 2.0, 2.0]",24.0,0.0,0.0,49.676163152113425,344.461218327878,92.88042253515508,-2732.924501368412,-8778.386807673596,107.27303083024017,0.0,0.0,0.0,0.0,0.0,0.0,-8.6,20.813184481154266,0.0,19.309824393051194,0.0,-8.6,24.0,18.19,20.43,22.34,22.47,-9.0,-8.6,7034.13,-1898.19,-1983.45,80.09,112.0,94.0,183.0,0.0,0.0,0.0,0.0,0.0,0.0,0.0,0.0,0.0,0.0,0.0,0.0,0.0,0.0
10.0,2940.0,15138.554284511722,12947.865653398238,-0.0,825.004140309075,0.0,0.0,23758.584741892035,0.0,0.0,0.0,23758.58474189203,0.5807407407407407,0.2504968768432176,0.8,0.0,0.0,0.0,"[2.0, 2.0, 2.0, 2.0, 2.0, 2.0, 2.0, 2.0, 2.0]",20.0,0.0,0.0,133.69920509121513,482.1017302281712,57.15479757338591,-2313.7643017720297,-734.1782422663081,2374.914058132739,0.0,0.0,0.0,0.0,0.0,0.0,-7.6,19.754677944179097,0.0,19.352829062588867,0.0,-7.6,20.0,18.22,20.49,19.35,20.22,-8.0,-7.6,427.71,-1607.05,-1679.24,215.56,95.0,33.0,299.0,0.0,0.0,0.0,0.0,0.0,0.0,0.0,0.0,0.0,0.0,0.0,0.0,0.0,0.0
11.0,6007.0,5024.742864090076,0.0,-0.0,2326.8310793016003,-1319.450229071226,0.0,13797.277958236082,0.0,13797.277958236082,0.0,0.0,0.6286318972033259,0.19835296921571915,0.8,0.0,0.0,0.0,"[2.0, 2.0, 2.0, 2.0, 2.0, 2.0, 2.0, 2.0, 2.0]",20.0,0.0,0.0,182.71337460848267,2283.3063579777713,94.3379784146717,-2246.698669836608,-766.1943761813664,453.8902462345425,0.0,0.0,0.0,0.0,0.0,0.0,-6.8,19.742253154649937,0.0,19.338216125273554,0.0,-6.8,20.0,18.22,20.46,19.57,20.37,-7.16,-6.8,8525.95,-1560.47,-1630.57,294.59,143.0,1.0,1594.0,0.0,0.0,0.0,0.0,0.0,0.0,0.0,0.0,0.0,0.0,0.0,0.0,0.0,0.0
12.0,6800.0,20278.8550751716,11077.99623525904,-0.0,5307.3834354632945,0.0,0.0,43862.825271828595,38034.24,52484.195654479285,0.0,21806.021617349303,0.6286318972033259,0.0,0.8,30427.392,7606.848,38034.24,"[2.0, 2.0, 2.0, 2.0, 2.0, 2.0, 2.0, 2.0, 2.0]",20.0,0.0,0.0,262.1266667280819,2690.5408641597573,101.25361588556973,-2196.3994458850425,-839.7144330624074,4229.580553760661,0.0,0.0,0.0,0.0,0.0,0.0,-6.2,19.71478269088355,0.0,19.305093881558754,0.0,-6.2,20.0,18.2,20.41,19.4,20.23,-6.51,-6.2,1753.92,-1525.54,-1594.06,422.62,137.0,0.0,1895.0,0.0,0.0,0.0,0.0,0.0,0.0,0.0,0.0,0.0,0.0,0.0,0.0,0.0,0.0
13.0,5032.0,9830.382218790828,21713.998542049154,-0.0,964.7682343522796,16000.0,0.0,42949.02485418748,0.0,0.0,0.0,42949.02485418748,0.02394557823129262,0.0,0.8,0.0,0.0,0.0,"[2.0, 2.0, 2.0, 2.0, 2.0, 2.0, 2.0, 2.0, 2.0]",21.56,0.0,0.0,141.00325964434802,2966.901703691779,158.96662634898328,-2318.434516855543,-3758.195306358954,0.0,0.0,0.0,0.0,0.0,0.0,0.0,-6.1,20.203055574837723,0.0,19.386325696478508,0.0,-6.1,21.56,18.26,20.51,20.46,21.08,-6.47,-6.1,3513.43,-1610.3,-1682.63,227.34,280.0,17.0,2020.0,0.0,0.0,0.0,0.0,0.0,0.0,0.0,0.0,0.0,0.0,0.0,0.0,0.0,0.0
14.0,4842.0,30056.986425570543,25075.346762136563,-0.0,10.645268693870767,0.0,0.0,48402.32104450141,0.0,0.0,0.0,48402.32104450141,0.02394557823129262,0.0,0.8,0.0,0.0,0.0,"[2.0, 2.0, 2.0, 2.0, 2.0, 2.0, 2.0, 2.0, 2.0]",20.52,0.0,0.0,45.17162128976113,950.525794524828,135.08751938668965,-2273.830160124148,-1681.5012191417327,12328.132702422814,0.0,0.0,0.0,0.0,0.0,0.0,-6.6,19.931019419154,0.0,19.400868725953963,0.0,-6.6,20.52,18.28,20.52,19.63,20.44,-7.0,-6.6,0.0,-1579.32,-1650.26,72.83,326.0,32.0,520.0,0.0,0.0,0.0,0.0,0.0,0.0,0.0,0.0,0.0,0.0,0.0,0.0,0.0,0.0
15.0,4104.0,108062.37530021495,87418.06342371387,-0.0,0.0,-16000.0,0.0,82907.2409645739,0.0,-80000.0,0.0,162907.24096457392,0.6046863189720333,0.29037037037037033,0.7917869586859134,0.0,0.0,0.0,"[2.0, 2.0, 2.0, 2.0, 2.0, 2.0, 2.0, 2.0, 2.0]",24.0,0.0,0.0,4.943659117442445,865.436314887722,85.53061948312443,-2623.942849473352,-7998.239319232643,9673.6632562251,0.0,0.0,0.0,0.0,0.0,0.0,-7.3,21.097773071922013,0.0,19.675724938158766,0.0,-7.3,24.0,18.47,20.89,22.34,22.63,-7.7,-7.3,9010.0,-1822.49,-1904.35,7.97,128.0,51.0,560.0,0.0,0.0,0.0,0.0,0.0,0.0,0.0,0.0,0.0,0.0,0.0,0.0,0.0,0.0
16.0,2620.0,13403.137940339951,10716.122250638251,-0.0,0.0,0.0,0.0,20072.10498039706,0.0,0.0,0.0,20072.10498039706,0.6046863189720333,0.29037037037037033,0.791786958685913,0.0,0.0,0.0,"[2.0, 2.0, 2.0, 2.0, 2.0, 2.0, 2.0, 2.0, 2.0]",24.0,0.0,0.0,0.0,914.747899956603,126.31117228236619,-2615.5596454814245,-7367.891517056687,0.0,0.0,0.0,0.0,0.0,0.0,0.0,-7.2,21.328506161445,0.0,19.968736622504988,0.0,-7.2,24.0,18.67,21.27,22.21,22.68,-7.59,-7.2,0.0,-1816.67,-1898.27,0.0,212.0,78.0,549.0,0.0,0.0,0.0,0.0,0.0,0.0,0.0,0.0,0.0,0.0,0.0,0.0,0.0,0.0
17.0,2450.0,40418.56242365974,37766.46961154144,-0.0,0.0,0.0,0.0,71459.52389688429,0.0,0.0,0.0,71459.5238968843,0.6046863189720333,0.29037037037037033,0.7850671976107512,0.0,0.0,0.0,"[2.0, 2.0, 2.0, 2.0, 2.0, 2.0, 2.0, 2.0, 2.0]",20.72,0.0,0.0,0.0,545.3069443748539,180.02365703391496,-2323.9329709788385,-803.3323956791927,11371.487440683792,0.0,0.0,0.0,0.0,0.0,0.0,-7.0,20.45074498732882,0.0,19.995708528501765,0.0,-7.0,20.72,18.7,21.29,19.97,20.97,-7.38,-7.0,0.0,-1614.12,-1686.62,0.0,276.0,156.0,237.0,0.0,0.0,0.0,0.0,0.0,0.0,0.0,0.0,0.0,0.0,0.0,0.0,0.0,0.0
18.0,3946.0,7552.761235237687,19568.9974290615,-0.0,0.0,16000.0,0.0,37213.87947802551,0.0,0.0,0.0,37213.87947802551,0.0,0.29037037037037033,0.7850671976107506,0.0,0.0,0.0,"[2.0, 2.0, 2.0, 2.0, 2.0, 2.0, 2.0, 2.0, 2.0]",24.0,0.0,0.0,0.0,1873.3363186094812,285.8360115213771,-2590.410033505642,-6837.995167842654,7294.575968321373,0.0,0.0,0.0,0.0,0.0,0.0,-6.9,21.52229698625615,0.0,20.221491391415313,0.0,-6.9,24.0,18.87,21.57,22.53,23.01,-7.29,-6.9,0.0,-1799.2,-1880.02,0.0,426.0,213.0,1123.0,0.0,0.0,0.0,0.0,0.0,0.0,0.0,0.0,0.0,0.0,0.0,0.0,0.0,0.0
19.0,5382.0,15456.170023050483,9996.88917293523,-0.0,0.0,0.0,0.0,19106.140844701404,0.0,0.0,0.0,19106.140844701404,0.0,0.29037037037037033,0.7637879542060717,0.0,0.0,0.0,"[2.0, 2.0, 2.0, 2.0, 2.0, 2.0, 2.0, 2.0, 2.0]",24.0,0.0,0.0,0.0,1058.2194168066471,237.55059653398595,-2582.026829513714,-6340.78759565724,0.0,0.0,0.0,0.0,0.0,0.0,0.0,-6.8,21.70427981392441,0.0,20.456075059867842,0.0,-6.8,24.0,19.05,21.86,22.3,22.94,-7.18,-6.8,0.0,-1793.38,-1873.93,0.0,249.0,253.0,616.0,0.0,0.0,0.0,0.0,0.0,0.0,0.0,0.0,0.0,0.0,0.0,0.0,0.0,0.0
20.0,5158.0,27286.985704663624,5992.550776140308,-0.0,0.0,-15999.999999999998,0.0,11567.272400802687,0.0,0.0,0.0,11567.272400802687,1.0,0.29037037037037033,0.7010701841712286,0.0,0.0,0.0,"[1.4489963334411442, 2.0, 2.0, 1.298854732449744, 2.0, 1.024352690582674, 2.0, 1.9696392137378105, 1.9431017834951696]",21.2,0.0,0.0,0.0,1056.4917116363506,278.6102557782415,-2330.47635513766,-750.4539531004558,0.0,0.0,0.0,0.0,0.0,0.0,0.0,-6.6,20.948223769958155,0.0,20.474139681486772,0.0,-6.6,21.2,19.09,21.86,20.45,21.52,-6.98,-6.6,0.0,-1618.66,-1691.37,0.0,387.0,254.0,542.0,0.0,0.0,0.0,0.0,0.0,0.0,0.0,0.0,0.0,0.0,0.0,0.0,0.0,0.0
21.0,4618.0,43841.32471168346,39004.11808812504,-0.0,0.0,0.0,0.0,75660.52171693459,0.0,0.0,0.0,75660.52171693459,1.0,0.29037037037037033,0.7010701841712286,0.0,0.0,0.0,"[1.4489963334411442, 2.0, 2.0, 1.298854732449744, 2.0, 1.024352690582674, 2.0, 1.9696392137378105, 1.9431017834951696]",20.55,0.0,0.0,0.0,854.9980961505134,238.26386856013235,-2267.740819231455,379.8836145906004,8729.657942189042,0.0,0.0,0.0,0.0,0.0,0.0,-6.5,20.71317417159408,0.0,20.407716717483595,0.0,-6.5,20.55,19.07,21.75,20.17,21.25,-6.89,-6.5,709.06,-1575.09,-1645.84,0.0,405.0,180.0,393.0,0.0,0.0,0.0,0.0,0.0,0.0,0.0,0.0,0.0,0.0,0.0,0.0,0.0,0.0
22.0,3765.0,0.0,0.0,-0.0,0.0,3765.0,0.0,14482.786680599247,0.0,14482.786680599249,0.0,0.0,0.8577097505668934,0.23563572683069062,0.6741911398705814,0.0,0.0,0.0,"[1.4489963334411442, 2.0, 2.0, 1.298854732449744, 2.0, 1.024352690582674, 2.0, 1.9696392137378105, 1.9431017834951696]",23.45,0.0,0.0,0.0,865.6522780340088,200.18134472935756,-2493.9190481834466,-5077.2212586014775,0.0,0.0,0.0,0.0,0.0,0.0,0.0,-6.3,21.61512646830147,0.0,20.552052725012263,0.0,-6.3,23.45,19.19,21.92,22.26,22.9,-6.72,-6.3,4216.51,-1732.18,-1809.99,0.0,471.0,76.0,377.0,0.0,0.0,0.0,0.0,0.0,0.0,0.0,0.0,0.0,0.0,0.0,0.0,0.0,0.0
23.0,5433.0,3423.60373335865,13973.485714691857,-0.0,0.0,16000.0,0.0,27505.527632738653,0.0,0.0,0.0,27505.527632738653,0.25302343159486007,0.23563572683069062,0.6741911398705814,0.0,0.0,0.0,"[1.4489963334411442, 2.0, 2.0, 1.298854732449744, 2.0, 1.024352690582674, 2.0, 1.9696392137378105, 1.9431017834951696]",21.06,0.0,0.0,0.0,1798.9730085713,126.83837334517006,-2285.2889606978088,-353.954760464606,7247.733594056395,0.0,0.0,0.0,0.0,0.0,0.0,-6.2,20.95396066580458,0.0,20.54731138910229,0.0,-6.2,21.06,19.21,21.89,20.44,21.49,-6.6,-6.2,5959.04,-1587.28,-1658.57,0.0,240.0,28.0,1186.0,0.0,0.0,0.0,0.0,0.0,0.0,0.0,0.0,0.0,0.0,0.0,0.0,0.0,0.0
24.0,2301.0,81951.055504861,63240.30022733669,-0.0,0.0,-16000.0,0.0,45085.63178681331,0.0,-80000.0,0.0,125085.63178681332,0.8337641723356007,0.526006097201061,0.6741911398705814,0.0,0.0,0.0,"[1.4489963334411442, 2.0, 2.0, 1.298854732449744, 2.0, 1.024352690582674, 2.0, 1.9696392137378105, 1.9431017834951696]",23.45,0.0,0.0,0.0,271.1057363057029,53.15427186152114,-2477.152640199591,-4844.016948870037,0.0,0.0,0.0,0.0,0.0,0.0,0.0,-6.1,21.700353204947344,0.0,20.670995549652268,0.0,-6.1,23.45,19.31,22.03,22.16,22.85,-6.52,-6.1,5293.38,-1720.54,-1797.82,0.0,160.0,0.0,114.0,0.0,0.0,0.0,0.0,0.0,0.0,0.0,0.0,0.0,0.0,0.0,0.0,0.0,0.0
25.0,2004.0,19628.224716811816,17526.083593227755,-0.0,0.0,0.0,0.0,34832.65445334333,0.0,0.0,0.0,34832.65445334333,0.8337641723356007,0.526006097201061,0.6741911398705814,0.0,0.0,0.0,"[1.4489963334411442, 2.0, 2.0, 1.298854732449744, 2.0, 1.024352690582674, 2.0, 1.9696392137378105, 1.9431017834951696]",20.89,0.0,0.0,0.0,487.21285802363184,58.0541405628749,-2253.8313459178803,185.8525678544336,8529.481439170146,0.0,0.0,0.0,0.0,0.0,0.0,-6.0,20.97605359697194,0.0,20.646921655685457,0.0,-6.0,20.89,19.32,21.98,20.38,21.46,-6.38,-6.0,0.0,-1565.43,-1635.74,0.0,160.0,0.0,272.0,0.0,0.0,0.0,0.0,0.0,0.0,0.0,0.0,0.0,0.0,0.0,0.0,0.0,0.0
26.0,1958.0,25191.91618105647,23107.95660015119,-0.0,0.0,0.0,0.0,46587.373699482334,0.0,0.0,0.0,46587.37369948233,0.8337641723356007,0.526006097201061,0.6741911398705814,0.0,0.0,0.0,"[1.4489963334411442, 2.0, 2.0, 1.298854732449744, 2.0, 1.024352690582674, 2.0, 1.9696392137378105, 1.9431017834951696]",23.45,0.0,0.0,0.0,480.3740250578745,57.899081426756105,-2443.61982423188,-4641.533624837247,3626.547915441743,0.0,0.0,0.0,0.0,0.0,0.0,-5.7,21.774129736759313,0.0,20.77526780672998,0.0,-5.7,23.45,19.43,22.13,22.32,22.99,-6.07,-5.7,6734.98,-1697.25,-1773.48,0.0,160.0,0.0,267.0,0.0,0.0,0.0,0.0,0.0,0.0,0.0,0.0,0.0,0.0,0.0,0.0,0.0,0.0
27.0,879.0,0.0,5182.399999999995,-0.0,0.0,6061.399999999995,0.0,10546.917920948856,0.0,0.0,0.0,10546.917920948854,0.6046863189720333,0.526006097201061,0.6741911398705814,0.0,0.0,0.0,"[1.4489963334411442, 2.0, 2.0, 1.298854732449744, 2.0, 1.024352690582674, 2.0, 1.9696392137378105, 1.9431017834951696]",22.38,0.0,0.0,0.0,287.51893542352036,53.52641378820623,-2337.046507836703,-2365.4558652252886,0.0,0.0,0.0,0.0,0.0,0.0,0.0,-5.5,21.535253659773893,0.0,20.848978754900195,0.0,-5.5,22.38,19.5,22.2,21.46,22.35,-5.86,-5.5,0.0,-1623.23,-1696.14,0.0,160.0,0.0,126.0,0.0,0.0,0.0,0.0,0.0,0.0,0.0,0.0,0.0,0.0,0.0,0.0,0.0,0.0
28.0,1378.0,0.0,14622.0,-0.0,0.0,16000.0,0.0,29897.23675121945,0.0,0.0,0.0,29897.236751219447,0.0,0.526006097201061,0.6741911398705814,0.0,0.0,0.0,"[1.4489963334411442, 2.0, 2.0, 1.298854732449744, 2.0, 1.024352690582674, 2.0, 1.9696392137378105, 1.9431017834951696]",20.78,0.0,0.0,0.0,391.61317193388845,79.39027769282038,-2194.628183643371,666.3522304797692,442.04276876569566,0.0,0.0,0.0,0.0,0.0,0.0,-5.4,21.04518147110263,0.0,20.788110541529573,0.0,-5.4,20.78,19.48,22.09,20.43,21.51,-5.76,-5.4,6469.37,-1524.31,-1592.78,0.0,240.0,0.0,160.0,0.0,0.0,0.0,0.0,0.0,0.0,0.0,0.0,0.0,0.0,0.0,0.0,0.0,0.0
29.0,1802.0,31729.56757461052,13768.919736737465,-0.0,0.0,-16000.0,0.0,28415.491602770453,0.0,0.0,0.0,28415.491602770457,0.5807407407407407,0.526006097201061,0.6741911398705814,0.0,0.0,0.0,"[1.4489963334411442, 2.0, 2.0, 1.298854732449744, 2.0, 1.024352690582674, 2.0, 1.9696392137378105, 1.9431017834951696]",20.55,0.0,0.0,0.0,270.7457977285579,90.5235236661495,-2158.759167336396,906.2839126815164,899.2320263974511,0.0,0.0,0.0,0.0,0.0,0.0,-5.2,20.904812815198135,0.0,20.695214106060224,0.0,-5.2,20.55,19.44,21.95,20.34,21.38,-5.56,-5.2,0.0,-1499.39,-1566.74,0.0,240.0,25.0,69.0,0.0,0.0,0.0,0.0,0.0,0.0,0.0,0.0,0.0,0.0,0.0,0.0,0.0,0.0
30.0,2125.0,0.0,10465.640477982175,-0.0,0.0,12590.640477982175,0.0,28579.36246463823,0.0,6881.213319400727,0.0,21698.149145237505,0.10490398798253298,0.5,0.6741911398705814,0.0,0.0,0.0,"[1.4489963334411442, 2.0, 2.0, 1.298854732449744, 2.0, 1.024352690582674, 2.0, 1.9696392137378105, 1.9431017834951696]",20.55,0.0,0.0,0.0,663.5827608247397,228.92930856578124,-2150.3759633444683,713.9572987864531,8478.141666719139,0.0,0.0,0.0,0.0,0.0,0.0,-5.1,20.83430391068954,0.0,20.611036650330014,0.0,-5.1,20.55,19.41,21.82,20.36,21.34,-5.46,-5.1,6183.85,-1493.57,-1560.66,0.0,507.0,117.0,206.0,0.0,0.0,0.0,0.0,0.0,0.0,0.0,0.0,0.0,0.0,0.0,0.0,0.0,0.0
31.0,1464.0,16329.678931737673,14784.030537078985,-0.0,0.0,0.0,0.0,30792.299328050132,0.0,0.0,0.0,30792.299328050132,0.10490398798253298,0.5,0.6741911398705814,0.0,0.0,0.0,"[1.4489963334411442, 2.0, 2.0, 1.298854732449744, 2.0, 1.024352690582674, 2.0, 1.9696392137378105, 1.9431017834951696]",23.45,0.0,0.0,0.0,468.3520765812276,216.27648305848803,-2384.937396288387,-4760.9286204837,6480.413193185625,0.0,0.0,0.0,0.0,0.0,0.0,-5.0,21.72980310775878,0.0,20.745467873107305,0.0,-5.0,23.45,19.51,21.98,22.38,22.94,-5.35,-5.0,0.0,-1656.49,-1730.89,0.0,411.0,153.0,110.0,0.0,0.0,0.0,0.0,0.0,0.0,0.0,0.0,0.0,0.0,0.0,0.0,0.0,0.0
32.0,6783.0,7473.9335699895355,653.5639021395883,-0.0,0.0,0.0,0.0,1373.7094739946751,0.0,0.0,0.0,1373.7094739946751,0.6856447287232736,0.5,0.6741911398705814,0.0,0.0,0.0,"[1.4489963334411442, 0.8255351221556779, 2.0, 1.1380947127776793, 1.3108993492775802, 0.9211261334556049, 1.794212030160427, 1.9696392137378105, 1.4645293819849634]",23.45,0.0,0.0,1.654266810390751,762.2059309625021,198.22759961426087,-2368.1709883045314,-4415.6580212184335,0.0,0.0,0.0,0.0,0.0,0.0,0.0,-4.8,21.856073749300684,0.0,20.908746313182796,0.0,-4.8,23.45,19.63,22.18,22.28,22.93,-5.16,-4.8,279.13,-1644.84,-1718.73,2.67,342.0,145.0,362.0,0.0,0.0,0.0,0.0,0.0,0.0,0.0,0.0,0.0,0.0,0.0,0.0,0.0,0.0
33.0,4949.0,1202.571118040767,0.0,-0.0,15.076047604956278,3737.3656899444804,0.0,15051.04592900193,0.0,15051.04592900193,0.0,0.0,0.5443988598667173,0.4431177402532051,0.6741911398705814,0.0,0.0,0.0,"[1.4489963334411442, 0.8255351221556779, 2.0, 1.1380947127776793, 1.3108993492775802, 0.9211261334556049, 1.794212030160427, 1.9696392137378105, 1.4645293819849634]",21.31,0.0,0.0,49.643673501462395,551.1379493246047,165.72720468376252,-2105.0836693913575,-200.91094091708766,0.0,0.0,0.0,0.0,0.0,0.0,0.0,-3.8,21.258510100336242,0.0,20.89703455514026,0.0,-3.8,21.31,19.65,22.15,20.78,21.76,-4.1,-3.8,160.32,-1462.11,-1527.79,80.04,327.0,103.0,220.0,0.0,0.0,0.0,0.0,0.0,0.0,0.0,0.0,0.0,0.0,0.0,0.0,0.0,0.0
34.0,3026.0,0.0,11637.97441991519,-0.0,259.1805878418493,14404.793832073341,0.0,26791.480778377718,0.0,0.0,0.0,26791.480778377718,0.0,0.4431177402532051,0.6741911398705814,0.0,0.0,0.0,"[1.4489963334411442, 0.8255351221556779, 2.0, 1.1380947127776793, 1.3108993492775802, 0.9211261334556049, 1.794212030160427, 1.9696392137378105, 1.4645293819849634]",20.74,0.0,0.0,96.82009849638942,1853.5396968665,164.73482621260226,-1965.2165761183883,754.7739729400938,0.0,0.0,0.0,0.0,0.0,0.0,0.0,-2.7,21.038630454729514,0.0,20.821294972003574,0.0,-2.7,20.74,19.62,22.02,20.51,21.5,-2.98,-2.7,2289.95,-1364.97,-1426.28,156.1,310.0,57.0,1186.0,0.0,0.0,0.0,0.0,0.0,0.0,0.0,0.0,0.0,0.0,0.0,0.0,0.0,0.0
35.0,8098.0,39758.50999791315,16741.487006589792,-0.0,1279.7695586662114,-16000.0,0.0,40136.16282275011,0.0,0.0,0.0,40136.162822750106,0.5807407407407407,0.4431177402532051,0.6741911398705814,0.0,0.0,0.0,"[1.4489963334411442, 0.8255351221556779, 2.0, 1.1380947127776793, 1.3108993492775802, 0.9211261334556049, 1.794212030160427, 1.9696392137378105, 1.4645293819849634]",21.07,0.0,0.0,149.61689774335647,4925.471477369225,177.97687643714693,-1908.8221172643907,-48.20914905578192,3211.716899649511,0.0,0.0,0.0,0.0,0.0,0.0,-1.7,21.07128205480752,0.0,20.75532137374448,0.0,-1.7,21.07,19.6,21.91,20.63,21.55,-1.94,-1.7,0.0,-1325.8,-1385.35,241.23,186.0,21.0,3501.0,0.0,0.0,0.0,0.0,0.0,0.0,0.0,0.0,0.0,0.0,0.0,0.0,0.0,0.0
36.0,8037.0,6252.012396111874,0.0,-0.0,1816.2476658686853,0.0,0.0,15532.047380101933,0.0,15532.047380101933,0.0,0.0,0.5807407407407407,0.38441763677587354,0.6741911398705814,0.0,0.0,0.0,"[1.4489963334411442, 0.8255351221556779, 2.0, 1.1380947127776793, 1.3108993492775802, 0.9211261334556049, 1.794212030160427, 1.9696392137378105, 1.4645293819849634]",23.45,0.0,0.0,166.97415199885816,2447.5103368713735,97.40814930982374,-2049.609236611281,-4609.366623201911,0.0,0.0,0.0,0.0,0.0,0.0,0.0,-1.0,21.781926167659726,0.0,20.836880217292027,0.0,-1.0,23.45,19.67,22.0,21.98,22.61,-1.34,-1.0,6129.44,-1423.58,-1487.53,269.21,120.0,12.0,1725.0,0.0,0.0,0.0,0.0,0.0,0.0,0.0,0.0,0.0,0.0,0.0,0.0,0.0,0.0
37.0,14729.0,9792.753109622201,5579.236752681593,-0.0,524.6474086075086,10039.799999999996,0.0,13907.588567737195,0.0,0.0,0.0,13907.588567737195,0.20130763416477715,0.38441763677587354,0.6741911398705814,0.0,0.0,0.0,"[1.4489963334411442, 0.8255351221556779, 2.0, 1.1380947127776793, 1.3108993492775802, 0.9211261334556049, 1.794212030160427, 1.9696392137378105, 1.4645293819849634]",22.0,0.0,0.0,118.89586740223834,5717.840261096488,183.9621590913322,-1903.2232032871555,-1677.7153557694169,0.0,0.0,0.0,0.0,0.0,0.0,0.0,-0.7,21.407850599758984,0.0,20.86918019616816,0.0,-0.7,22.0,19.72,22.02,21.08,21.92,-1.08,-0.7,4697.36,-1321.91,-1381.28,191.69,166.0,10.0,4092.0,0.0,0.0,0.0,0.0,0.0,0.0,0.0,0.0,0.0,0.0,0.0,0.0,0.0,0.0
38.0,10064.0,63646.169975051365,37264.45705681056,-0.0,0.5179316344535629,-16000.0,0.0,21425.593452462796,0.0,-69333.5011904766,0.0,90759.0946429394,0.7820483749055178,0.6360725670227886,0.6741911398705812,0.0,0.0,0.0,"[1.4489963334411442, 0.8255351221556779, 2.0, 1.1380947127776793, 1.3108993492775802, 0.9211261334556049, 1.794212030160427, 1.9696392137378105, 1.4645293819849634]",22.89,0.0,0.0,28.56406200371672,2265.66936769766,123.64415514112298,-2028.0593530324,-3384.715038038812,0.0,0.0,0.0,0.0,0.0,0.0,0.0,-1.3,21.673139079754254,0.0,20.90308522921015,0.0,-1.3,22.89,19.76,22.04,21.49,22.23,-1.68,-1.3,4460.12,-1408.61,-1471.89,46.05,246.0,0.0,1527.0,0.0,0.0,0.0,0.0,0.0,0.0,0.0,0.0,0.0,0.0,0.0,0.0,0.0,0.0
39.0,4693.0,0.0,0.0,-0.0,0.0,4693.0,0.0,20684.530775947864,0.0,20684.530775947864,0.0,0.0,0.6046863189720333,0.5578997371817158,0.6741911398705812,0.0,0.0,0.0,"[1.4489963334411442, 0.8255351221556779, 2.0, 1.1380947127776793, 1.3108993492775802, 0.9211261334556049, 1.794212030160427, 1.9696392137378105, 1.4645293819849634]",21.79,0.0,0.0,3.279730097807357,1972.9673167632502,120.10880683761455,-1986.1177279018823,-1203.2743538788784,5629.549094385934,0.0,0.0,0.0,0.0,0.0,0.0,-1.9,21.371247733307634,0.0,20.906568423363886,0.0,-1.9,21.79,19.79,22.03,21.0,21.84,-2.3,-1.9,0.0,-1379.48,-1441.45,5.29,249.0,4.0,1311.0,0.0,0.0,0.0,0.0,0.0,0.0,0.0,0.0,0.0,0.0,0.0,0.0,0.0,0.0
40.0,4651.0,7324.653658393337,2637.03039010137,-0.0,0.0,0.0,0.0,6221.477374115664,0.0,0.0,0.0,6221.477374115664,0.6046863189720333,0.5578997371817158,0.6741911398705812,0.0,0.0,0.0,"[1.4489963334411442, 0.8255351221556779, 2.0, 1.1380947127776793, 1.3108993492775802, 0.9211261334556049, 1.794212030160427, 1.9696392137378105, 1.4645293819849634]",23.45,0.0,0.0,0.0,1223.5032114316853,209.14376279702367,-2141.8244805224854,-4264.064339321013,0.0,0.0,0.0,0.0,0.0,0.0,0.0,-2.1,21.909359529586872,0.0,21.01820833607775,0.0,-2.1,23.45,19.88,22.16,22.27,22.85,-2.51,-2.1,0.0,-1487.63,-1554.45,0.0,489.0,68.0,630.0,0.0,0.0,0.0,0.0,0.0,0.0,0.0,0.0,0.0,0.0,0.0,0.0,0.0,0.0
41.0,8920.0,7864.385863496218,14905.063934178737,-0.0,0.0,16000.0,0.0,34880.94148831136,0.0,0.0,0.0,34880.941488311364,0.0,0.5578997371817158,0.6741911398705812,0.0,0.0,0.0,"[1.4489963334411442, 0.8255351221556779, 2.0, 1.1380947127776793, 1.3108993492775802, 0.9211261334556049, 1.794212030160427, 1.9696392137378105, 1.4645293819849634]",21.62,0.0,0.0,0.0,852.5505138259267,230.01472251861276,-2005.3514376132262,-636.0115749640793,0.0,0.0,0.0,0.0,0.0,0.0,0.0,-2.3,21.408602621365965,0.0,21.02095271851387,0.0,-2.3,21.62,19.9,22.15,21.02,21.88,-2.7,-2.3,0.0,-1392.84,-1455.41,0.0,447.0,143.0,373.0,0.0,0.0,0.0,0.0,0.0,0.0,0.0,0.0,0.0,0.0,0.0,0.0,0.0,0.0
42.0,5662.0,5690.452261306533,0.0,-0.0,0.0,0.0,0.0,15320.270458282008,0.0,15320.270458282008,0.0,0.0,0.0,0.5,0.6741911398705812,0.0,0.0,0.0,"[1.4489963334411442, 0.8255351221556779, 2.0, 1.1380947127776793, 1.3108993492775802, 0.9211261334556049, 1.794212030160427, 1.9696392137378105, 1.4645293819849634]",21.04,0.0,0.0,0.0,1674.074322301944,178.16294740048946,-1973.6393067126621,376.6590608298148,5651.629727429504,0.0,0.0,0.0,0.0,0.0,0.0,-2.5,21.20087015986028,0.0,20.962377297647606,0.0,-2.5,21.04,19.87,22.05,20.76,21.64,-2.95,-2.5,5461.69,-1370.82,-1432.39,0.0,243.0,124.0,1083.0,0.0,0.0,0.0,0.0,0.0,0.0,0.0,0.0,0.0,0.0,0.0,0.0,0.0,0.0
43.0,6013.0,32632.244615788113,10456.083392709172,-0.0,0.0,-16000.0,0.0,24070.679924636202,0.0,0.0,0.0,24070.679924636202,0.5807407407407407,0.5,0.6741911398705812,0.0,0.0,0.0,"[1.4489963334411442, 0.8255351221556779, 2.0, 1.1380947127776793, 1.3108993492775802, 0.9211261334556049, 1.794212030160427, 1.9696392137378105, 1.4645293819849634]",23.2,0.0,0.0,0.0,922.2346223612216,162.16084455303036,-2171.25232730625,-3734.8405028774714,0.0,0.0,0.0,0.0,0.0,0.0,0.0,-2.7,21.854525855579173,0.0,21.046379319445514,0.0,-2.7,23.2,19.94,22.15,22.21,22.78,-3.16,-2.7,3547.29,-1508.07,-1575.81,0.0,256.0,119.0,527.0,0.0,0.0,0.0,0.0,0.0,0.0,0.0,0.0,0.0,0.0,0.0,0.0,0.0,0.0
44.0,9814.0,9165.308319239217,448.30447481683893,-0.0,0.0,1142.822697173819,0.0,1023.4825217998772,0.0,0.0,0.0,1023.4825217998772,0.47048092960285964,0.5,0.6249128919860615,0.0,0.0,0.0,"[0.5708851791640441, 0.8255351221556779, 2.0, 1.1380947127776793, 1.3108993492775802, 0.37799413024442075, 1.1884167927937987, 1.0585311587597808, 1.144284181390482]",21.43,0.0,0.0,0.0,2199.5126572183876,252.00210802025714,-2039.5593248609798,-254.45524992657346,0.0,0.0,0.0,0.0,0.0,0.0,0.0,-2.9,21.356746901280484,0.0,21.03192434294386,0.0,-2.9,21.43,19.94,22.12,20.94,21.79,-3.34,-2.9,0.0,-1416.6,-1480.23,0.0,501.0,99.0,1334.0,0.0,0.0,0.0,0.0,0.0,0.0,0.0,0.0,0.0,0.0,0.0,0.0,0.0,0.0
45.0,7042.0,19569.028079252435,12429.182938856176,-0.0,0.0,0.0,0.0,28138.93664392936,0.0,0.0,0.0,28138.936643929363,0.47048092960285964,0.5,0.6249128919860615,0.0,0.0,0.0,"[0.5708851791640441, 0.8255351221556779, 2.0, 1.1380947127776793, 1.3108993492775802, 0.37799413024442075, 1.1884167927937987, 1.0585311587597808, 1.144284181390482]",21.48,0.0,0.0,0.0,1257.4814131141848,158.53246076785067,-2060.4748238218926,-461.61771752561737,984.9777305092258,0.0,0.0,0.0,0.0,0.0,0.0,-3.1,21.33059064500791,0.0,20.98466535347506,0.0,-3.1,21.48,19.92,22.05,20.97,21.78,-3.54,-3.1,0.0,-1431.13,-1495.41,0.0,214.0,121.0,794.0,0.0,0.0,0.0,0.0,0.0,0.0,0.0,0.0,0.0,0.0,0.0,0.0,0.0,0.0
46.0,3591.0,35543.23179241149,0.0,-0.0,0.0,0.0,0.0,28597.06407010448,0.0,0.0,0.0,0.0,0.47048092960285964,0.5,0.6249128919860615,127098.06253379773,31774.51563344943,158872.57816724715,"[0.5708851791640441, 0.8255351221556779, 2.0, 1.1380947127776793, 1.3108993492775802, 0.37799413024442075, 1.1884167927937987, 1.0585311587597808, 1.144284181390482]",21.43,0.0,0.0,0.0,913.1641702171644,149.94218462686973,-2073.0921408286904,-446.32191364729584,4587.587580869269,0.0,0.0,0.0,0.0,0.0,0.0,-3.3,21.2868498658263,0.0,20.948599886046445,0.0,-3.3,21.43,19.91,21.99,20.99,21.78,-3.77,-3.3,0.0,-1439.89,-1504.57,0.0,268.0,91.0,517.0,0.0,0.0,0.0,0.0,0.0,0.0,0.0,0.0,0.0,0.0,0.0,0.0,0.0,0.0
47.0,4415.0,18313.994388762734,13807.424416818922,-0.0,0.0,0.0,0.0,30864.30276784897,0.0,0.0,0.0,30864.30276784897,0.47048092960285964,0.5,0.6249128919860615,0.0,0.0,0.0,"[0.5708851791640441, 0.8255351221556779, 2.0, 1.1380947127776793, 1.3108993492775802, 0.37799413024442075, 1.1884167927937987, 1.0585311587597808, 1.144284181390482]",22.57,0.0,0.0,0.0,641.9144584806035,89.40709788609419,-2177.1922830786248,-2601.334435278899,4055.1322693956895,0.0,0.0,0.0,0.0,0.0,0.0,-3.4,21.640520057217877,0.0,21.00253958638791,0.0,-3.4,22.57,19.95,22.06,21.83,22.44,-3.86,-3.4,5402.46,-1512.2,-1580.12,0.0,166.0,47.0,377.0,0.0,0.0,0.0,0.0,0.0,0.0,0.0,0.0,0.0,0.0,0.0,0.0,0.0,0.0
48.0,2166.0,10793.014434568033,8573.049362395193,-0.0,0.0,0.0,0.0,18182.93514512625,0.0,0.0,0.0,18182.93514512625,0.47048092960285964,0.5,0.6249128919860615,0.0,0.0,0.0,"[0.5708851791640441, 0.8255351221556779, 2.0, 1.1380947127776793, 1.3108993492775802, 0.37799413024442075, 1.1884167927937987, 1.0585311587597808, 1.144284181390482]",22.57,0.0,0.0,0.0,1147.6281593694944,110.960317806606,-2277.7907309817565,-2464.3029991114086,375.3577874262544,0.0,0.0,0.0,0.0,0.0,0.0,-4.6,21.69169577612261,0.0,21.068435172843195,0.0,-4.6,22.57,20.0,22.14,21.8,22.44,-5.05,-4.6,4206.92,-1582.07,-1653.13,0.0,240.0,26.0,710.0,0.0,0.0,0.0,0.0,0.0,0.0,0.0,0.0,0.0,0.0,0.0,0.0,0.0,0.0
49.0,3416.0,0.0,9032.925397291667,-0.0,0.0,12448.925397291667,0.0,18124.941458288562,0.0,0.0,0.0,18124.941458288566,0.0,0.5,0.611473369835738,0.0,0.0,0.0,"[0.5708851791640441, 0.8255351221556779, 2.0, 1.1380947127776793, 1.3108993492775802, 0.37799413024442075, 1.1884167927937987, 1.0585311587597808, 1.144284181390482]",21.43,0.0,0.0,0.0,2496.1740325013943,135.98686237617864,-2282.6722406268814,-267.17238844691593,0.0,0.0,0.0,0.0,0.0,0.0,0.0,-5.8,21.354534246300187,0.0,21.037457599314834,0.0,-5.8,21.43,19.98,22.09,20.97,21.79,-6.24,-5.8,0.0,-1585.46,-1656.67,0.0,240.0,16.0,1697.0,0.0,0.0,0.0,0.0,0.0,0.0,0.0,0.0,0.0,0.0,0.0,0.0,0.0,0.0
50.0,2092.0,18306.252668978235,16122.721405633343,-0.0,0.0,0.0,0.0,30506.47856204635,0.0,0.0,0.0,30506.47856204635,0.0,0.5,0.611473369835738,0.0,0.0,0.0,"[0.5708851791640441, 0.8255351221556779, 2.0, 1.1380947127776793, 1.3108993492775802, 0.37799413024442075, 1.1884167927937987, 1.0585311587597808, 1.144284181390482]",21.45,0.0,0.0,0.0,617.7265860964517,86.18186785482337,-2385.427530036689,-450.13558245211965,5187.022100938112,0.0,0.0,0.0,0.0,0.0,0.0,-7.0,21.31431356969231,0.0,20.97750096433466,0.0,-7.0,21.45,19.94,22.02,20.92,21.73,-7.47,-7.0,2055.38,-1656.83,-1731.25,0.0,240.0,3.0,325.0,0.0,0.0,0.0,0.0,0.0,0.0,0.0,0.0,0.0,0.0,0.0,0.0,0.0,0.0
51.0,1027.0,37546.278807710456,20331.547413671906,-0.0,0.0,-16000.0,0.0,37307.21379818619,0.0,0.0,0.0,37307.21379818619,0.5807407407407407,0.5,0.611473369835738,0.0,0.0,0.0,"[0.5708851791640441, 0.8255351221556779, 2.0, 1.1380947127776793, 1.3108993492775802, 0.37799413024442075, 1.1884167927937987, 1.0585311587597808, 1.144284181390482]",22.57,0.0,0.0,0.0,485.9890668613384,81.53009377125967,-2529.286850739586,-2559.66150775638,4528.657905933916,0.0,0.0,0.0,0.0,0.0,0.0,-7.6,21.65932029916616,0.0,21.026203331455044,0.0,-7.6,22.57,19.96,22.09,21.88,22.49,-8.08,-7.6,0.0,-1756.75,-1835.66,0.0,240.0,0.0,229.0,0.0,0.0,0.0,0.0,0.0,0.0,0.0,0.0,0.0,0.0,0.0,0.0,0.0,0.0
52.0,1029.0,23158.43101523079,22013.63886015464,-0.0,0.0,0.0,0.0,38924.71490789429,0.0,0.0,0.0,38924.71490789428,0.5807407407407407,0.5,0.611473369835738,0.0,0.0,0.0,"[0.5708851791640441, 0.8255351221556779, 2.0, 1.1380947127776793, 1.3108993492775802, 0.37799413024442075, 1.1884167927937987, 1.0585311587597808, 1.144284181390482]",22.57,0.0,0.0,0.0,321.8570756831646,77.80867450440873,-2587.969278683079,-2427.9747785859317,4417.760898076503,0.0,0.0,0.0,0.0,0.0,0.0,-8.3,21.708142697610974,0.0,21.08579932651348,0.0,-8.3,22.57,20.0,22.18,21.84,22.5,-8.79,-8.3,4113.31,-1797.51,-1878.25,0.0,240.0,0.0,109.0,0.0,0.0,0.0,0.0,0.0,0.0,0.0,0.0,0.0,0.0,0.0,0.0,0.0,0.0
53.0,945.0,0.0,6438.654247136799,-0.0,0.0,7383.654247136799,0.0,11016.596548008036,0.0,0.0,0.0,11016.596548008036,0.30169107153678,0.5,0.611473369835738,0.0,0.0,0.0,"[0.5708851791640441, 0.8255351221556779, 2.0, 1.1380947127776793, 1.3108993492775802, 0.37799413024442075, 1.1884167927937987, 1.0585311587597808, 1.144284181390482]",22.5,0.0,0.0,0.0,195.87857368237323,51.44862136421444,-2631.9625701509167,-2169.0889684289828,1645.7165532176843,0.0,0.0,0.0,0.0,0.0,0.0,-8.9,21.728179013125246,0.0,21.134976191411486,0.0,-8.9,22.5,20.02,22.25,21.82,22.51,-9.41,-8.9,0.0,-1828.06,-1910.18,0.0,160.0,0.0,59.0,0.0,0.0,0.0,0.0,0.0,0.0,0.0,0.0,0.0,0.0,0.0,0.0,0.0,0.0
54.0,1277.0,37969.99214463502,20503.142183911845,-0.0,0.0,-16000.0,0.0,34103.75083989979,0.0,0.0,0.0,34103.75083989979,0.8824318122775207,0.5,0.6114733698357381,0.0,0.0,0.0,"[0.5708851791640441, 0.8255351221556779, 2.0, 1.1380947127776793, 1.3108993492775802, 0.37799413024442075, 1.1884167927937987, 1.0585311587597808, 1.144284181390482]",21.43,0.0,0.0,0.0,518.5275142352571,141.320896658665,-2584.4675843362766,-121.35163389054412,2058.5007512954357,0.0,0.0,0.0,0.0,0.0,0.0,-9.4,21.411013421206327,0.0,21.10055931890793,0.0,-9.4,21.43,19.99,22.21,21.09,21.94,-9.91,-9.4,5401.42,-1795.08,-1875.71,0.0,441.0,0.0,147.0,0.0,0.0,0.0,0.0,0.0,0.0,0.0,0.0,0.0,0.0,0.0,0.0,0.0,0.0
55.0,1538.0,0.0,14461.999999999998,-0.0,0.0,16000.0,0.0,24308.798591450195,0.0,942.8906178223324,0.0,23365.90797362786,0.27774549330548737,0.4964365433944734,0.6114733698357381,0.0,0.0,0.0,"[0.5708851791640441, 0.8255351221556779, 2.0, 1.1380947127776793, 1.3108993492775802, 0.37799413024442075, 1.1884167927937987, 1.0585311587597808, 1.144284181390482]",21.43,0.0,0.0,0.0,726.7159872559935,93.81077735186781,-2626.3836042959147,-221.4208040736139,5153.580742341052,0.0,0.0,0.0,0.0,0.0,0.0,-9.9,21.3747999390921,0.0,21.052627721569554,0.0,-9.9,21.43,19.95,22.16,21.13,21.95,-10.42,-9.9,0.0,-1824.19,-1906.13,0.0,216.0,25.0,415.0,0.0,0.0,0.0,0.0,0.0,0.0,0.0,0.0,0.0,0.0,0.0,0.0,0.0,0.0
56.0,4056.0,8263.907085241957,4166.587549815748,-0.0,0.0,0.0,0.0,6811.298700436557,0.0,0.0,0.0,6811.298700436557,0.0,0.49104027496481967,0.6114733698357381,0.0,0.0,0.0,"[0.5708851791640441, 0.8255351221556779, 1.7074533662259448, 1.1380947127776793, 1.3108993492775802, 0.37799413024442075, 1.1884167927937987, 1.0585311587597808, 1.144284181390482]",22.57,0.0,0.0,6.776447345702475,1548.9596728863012,95.60946333084577,-2705.334134570066,-2408.211807220846,352.42929467918157,0.0,0.0,0.0,0.0,0.0,0.0,-9.7,21.716593222906443,0.0,21.087292722782948,0.0,-9.7,22.57,19.96,22.21,21.9,22.56,-10.23,-9.7,419.78,-1879.02,-1963.43,10.93,136.0,37.0,1057.0,0.0,0.0,0.0,0.0,0.0,0.0,0.0,0.0,0.0,0.0,0.0,0.0,0.0,0.0
57.0,2859.0,0.0,7732.155775115823,-3774.1561039788176,14365.311879094641,0.0,0.0,14409.197764162747,0.0,0.0,0.0,14409.197764162747,0.0,0.49104027496481967,0.6204945234501265,0.0,0.0,0.0,"[0.5708851791640441, 0.8255351221556779, 1.7074533662259448, 1.1380947127776793, 1.3108993492775802, 0.37799413024442075, 1.1884167927937987, 1.0585311587597808, 1.144284181390482]",21.43,0.0,0.0,1294.49820509845,342.30158686500727,49.773982694131526,-2408.4203005057966,-228.37954373617708,2725.137104974671,0.0,0.0,0.0,0.0,0.0,0.0,-7.3,21.369264837542076,0.0,21.040354686337462,0.0,-7.3,21.43,19.92,22.16,20.95,21.83,-6.87,-7.3,0.0,-1672.8,-1747.94,2087.1,143.0,0.0,175.0,0.0,0.0,0.0,0.0,0.0,0.0,0.0,0.0,0.0,0.0,0.0,0.0,0.0,0.0
58.0,5325.0,0.0,0.0,-0.0,26468.61296865674,0.0,0.0,19029.25167179106,0.0,0.0,0.0,0.0,0.0,0.49104027496481967,0.6204945234501265,84574.45187462696,21143.61296865674,105718.06484328369,"[0.5708851791640441, 0.8255351221556779, 1.7074533662259448, 1.1380947127776793, 1.3108993492775802, 0.37799413024442075, 1.1884167927937987, 1.0585311587597808, 1.144284181390482]",22.09,0.0,0.0,1781.0760150323033,220.21042149738324,4.992904183025029,-2288.174238226792,-1452.8085239487186,0.0,0.0,0.0,0.0,0.0,0.0,0.0,-5.2,21.58507770033286,0.0,21.082804297066083,0.0,-5.2,22.09,19.95,22.22,21.77,22.51,-4.48,-5.2,0.0,-1589.28,-1660.67,2871.61,0.0,0.0,161.0,0.0,0.0,0.0,0.0,0.0,0.0,0.0,0.0,0.0,0.0,0.0,0.0,0.0,0.0
59.0,5556.0,0.0,2795.08770407018,-16411.545468197575,33678.24392862496,-8915.610756357199,0.0,6247.974318514443,0.0,0.0,0.0,6247.9743185144425,0.3236036496751872,0.49104027496481967,0.6597221199350866,0.0,0.0,0.0,"[0.5708851791640441, 0.8255351221556779, 1.7074533662259448, 1.1380947127776793, 1.3108993492775802, 0.37799413024442075, 1.1884167927937987, 1.0585311587597808, 1.144284181390482]",21.48,0.0,0.0,2199.4232627519978,2154.7362982215345,80.87884539956075,-2086.005427223611,-195.76665119323403,0.0,0.0,0.0,0.0,0.0,0.0,0.0,-3.4,21.431558382130614,0.0,21.101551937989484,0.0,-3.4,21.48,19.97,22.24,21.38,22.23,-2.43,-3.4,4258.82,-1448.86,-1513.94,3546.1,109.0,0.0,1518.0,0.0,0.0,0.0,0.0,0.0,0.0,0.0,0.0,0.0,0.0,0.0,0.0,0.0,0.0
60.0,6350.0,0.0,12490.735913395234,-0.0,34840.735913395234,-16000.0,0.0,24813.390978367854,0.0,-4298.444098295113,0.0,29111.835076662966,0.9043443904159278,0.5066420350252983,0.6597221199350866,0.0,0.0,0.0,"[0.5708851791640441, 0.8255351221556779, 1.7074533662259448, 1.1380947127776793, 1.3108993492775802, 0.37799413024442075, 1.1884167927937987, 1.0585311587597808, 1.144284181390482]",22.3,0.0,0.0,2266.47440024942,906.1813618205495,93.40762359795899,-2070.519132695763,-1692.9231989384812,1166.9814651410768,0.0,0.0,0.0,0.0,0.0,0.0,-2.4,21.698401218580898,0.0,21.160186806085207,0.0,-2.4,22.3,20.02,22.3,21.88,22.65,-1.39,-2.4,0.0,-1438.11,-1502.7,3654.21,248.0,0.0,532.0,0.0,0.0,0.0,0.0,0.0,0.0,0.0,0.0,0.0,0.0,0.0,0.0,0.0,0.0
61.0,10155.0,0.0,7461.769861376447,-13152.79238561368,30769.56224699013,0.0,0.0,17604.36001711273,0.0,0.0,0.0,17604.36001711273,0.9043443904159278,0.5066420350252983,0.6911605017348461,0.0,0.0,0.0,"[0.5708851791640441, 0.8255351221556779, 1.7074533662259448, 1.1380947127776793, 1.3108993492775802, 0.37799413024442075, 1.1884167927937987, 1.0585311587597808, 1.144284181390482]",22.57,0.0,0.0,2079.4039514297015,568.9909027510027,83.60788619525147,-2068.210631183566,-2017.126057319128,1283.7330207952689,0.0,0.0,0.0,0.0,0.0,0.0,-2.1,21.852169740638836,0.0,21.26413292477877,0.0,-2.1,22.57,20.1,22.43,22.18,22.91,-1.15,-2.1,0.0,-1436.5,-1501.03,3352.6,218.0,12.0,300.0,0.0,0.0,0.0,0.0,0.0,0.0,0.0,0.0,0.0,0.0,0.0,0.0,0.0,0.0
62.0,6978.0,0.0,7584.9747665140885,-0.0,17198.384418320158,-2635.4096518060696,0.0,17388.864907596384,0.0,0.0,0.0,17388.864907596384,1.0,0.5066420350252983,0.6911605017348461,0.0,0.0,0.0,"[0.5708851791640441, 0.8255351221556779, 1.7074533662259448, 1.1380947127776793, 1.3108993492775802, 0.37799413024442075, 1.1884167927937987, 1.0585311587597808, 1.144284181390482]",22.57,0.0,0.0,1208.391574499751,836.2093024235382,140.91774290475612,-2126.8930591270587,-1818.6311357940065,0.0,0.0,0.0,0.0,0.0,0.0,0.0,-2.8,21.925952724457815,0.0,21.361790542165146,0.0,-2.8,22.57,20.19,22.54,22.2,22.95,-2.45,-2.8,0.0,-1477.26,-1543.62,1948.28,332.0,44.0,432.0,0.0,0.0,0.0,0.0,0.0,0.0,0.0,0.0,0.0,0.0,0.0,0.0,0.0,0.0
63.0,4891.0,17090.388541166292,12113.936598460457,-0.0,0.0,0.0,0.0,25923.921156290893,0.0,0.0,0.0,25923.921156290893,1.0,0.5066420350252983,0.6911605017348461,0.0,0.0,0.0,"[0.5708851791640441, 0.8255351221556779, 1.7074533662259448, 1.1380947127776793, 1.3108993492775802, 0.37799413024442075, 1.1884167927937987, 1.0585311587597808, 1.144284181390482]",21.94,0.0,0.0,22.91253934338433,864.5004745871447,84.07306360360784,-2208.019268837051,-541.275910948339,3511.017999226888,0.0,0.0,0.0,0.0,0.0,0.0,-4.4,21.763016906304284,0.0,21.378577208322803,0.0,-4.4,21.94,20.21,22.54,21.63,22.49,-4.98,-4.4,5079.96,-1533.61,-1602.49,36.94,108.0,59.0,569.0,0.0,0.0,0.0,0.0,0.0,0.0,0.0,0.0,0.0,0.0,0.0,0.0,0.0,0.0
64.0,3088.0,11302.395809207008,8157.883830160973,-0.0,0.0,0.0,0.0,16913.535337732406,0.0,0.0,0.0,16913.535337732406,1.0,0.5066420350252983,0.6911605017348461,0.0,0.0,0.0,"[0.5708851791640441, 0.8255351221556779, 1.7074533662259448, 1.1380947127776793, 1.3108993492775802, 0.37799413024442075, 1.1884167927937987, 1.0585311587597808, 1.144284181390482]",22.57,0.0,0.0,0.0,811.5175160313833,147.21314383117902,-2319.706750941395,-1767.5155110583785,3141.543970798639,0.0,0.0,0.0,0.0,0.0,0.0,-5.1,21.947391409452855,0.0,21.395794318716213,0.0,-5.1,22.57,20.24,22.56,21.91,22.68,-5.69,-5.1,2359.19,-1611.18,-1683.55,0.0,276.0,86.0,439.0,0.0,0.0,0.0,0.0,0.0,0.0,0.0,0.0,0.0,0.0,0.0,0.0,0.0,0.0
65.0,2744.0,0.0,6265.309992940273,-0.0,0.0,9009.309992940274,0.0,12511.87662444967,0.0,0.0,0.0,12511.87662444967,0.6595120939931869,0.5066420350252983,0.6911605017348461,0.0,0.0,0.0,"[0.5708851791640441, 0.8255351221556779, 1.7074533662259448, 1.1380947127776793, 1.3108993492775802, 0.37799413024442075, 1.1884167927937987, 1.0585311587597808, 1.144284181390482]",22.57,0.0,0.0,0.0,1334.0763423306657,173.91432707083464,-2386.7723828768158,-1718.386451692925,0.0,0.0,0.0,0.0,0.0,0.0,0.0,-5.9,21.966038978831183,0.0,21.421170695609764,0.0,-5.9,22.57,20.26,22.58,21.91,22.68,-6.47,-5.9,0.0,-1657.76,-1732.23,0.0,234.0,135.0,838.0,0.0,0.0,0.0,0.0,0.0,0.0,0.0,0.0,0.0,0.0,0.0,0.0,0.0,0.0
66.0,4996.0,0.0,0.0,-0.0,0.0,4996.0,0.0,24621.67564308157,0.0,24621.675643081566,0.0,0.0,0.4706987908941695,0.41358959495318215,0.6911605017348461,0.0,0.0,0.0,"[0.5708851791640441, 0.8255351221556779, 1.7074533662259448, 1.1380947127776793, 1.3108993492775802, 0.37799413024442075, 1.1884167927937987, 1.0585311587597808, 1.144284181390482]",21.61,0.0,0.0,0.0,425.59137361638756,93.90381283353909,-2373.6359372241964,61.92328416043508,1295.1456616966727,0.0,0.0,0.0,0.0,0.0,0.0,-6.7,21.661121460137334,0.0,21.36760631361232,0.0,-6.7,21.61,20.23,22.51,21.2,22.11,-7.26,-6.7,3549.14,-1648.64,-1722.69,0.0,164.0,65.0,218.0,0.0,0.0,0.0,0.0,0.0,0.0,0.0,0.0,0.0,0.0,0.0,0.0,0.0,0.0
67.0,6120.0,3935.0406599731477,10250.055463733008,-0.0,0.0,12454.690007059726,0.0,19003.69289797311,0.0,0.0,0.0,19003.692897973106,0.0,0.41358959495318215,0.6911605017348461,0.0,0.0,0.0,"[0.5708851791640441, 0.8255351221556779, 1.7074533662259448, 1.1380947127776793, 1.3108993492775802, 0.37799413024442075, 1.1884167927937987, 1.0585311587597808, 1.144284181390482]",21.43,0.0,0.0,0.0,1027.4086746030252,128.637059324148,-2416.8035044977237,284.0798850014247,988.0832416271854,0.0,0.0,0.0,0.0,0.0,0.0,-7.4,21.557838850601808,0.0,21.301424075158515,0.0,-7.4,21.43,20.19,22.42,21.19,22.07,-7.96,-7.4,0.0,-1678.62,-1754.02,0.0,266.0,49.0,606.0,0.0,0.0,0.0,0.0,0.0,0.0,0.0,0.0,0.0,0.0,0.0,0.0,0.0,0.0
68.0,6844.0,61119.792358799255,30643.497397005263,-0.0,0.0,-15999.999999999998,0.0,25169.458522925106,36633.48,0.0,0.0,54476.24252292512,0.5807407407407407,0.7039599653235524,0.6911605017348461,29306.784000000003,7326.696000000001,36633.48,"[0.5708851791640441, 0.8255351221556779, 1.2065216892520603, 1.1380947127776793, 1.3108993492775802, 0.37799413024442075, 1.1884167927937987, 1.0585311587597808, 0.7872252208912016]",21.43,0.0,0.0,0.0,2719.1919749005087,203.6546693784185,-2483.869136433145,132.10571053063444,2564.9589764319053,0.0,0.0,0.0,0.0,0.0,0.0,-8.2,21.502853187063085,0.0,21.231373413728193,0.0,-8.2,21.43,20.14,22.33,21.14,21.99,-8.75,-8.2,0.0,-1725.2,-1802.69,0.0,302.0,96.0,1819.0,0.0,0.0,0.0,0.0,0.0,0.0,0.0,0.0,0.0,0.0,0.0,0.0,0.0,0.0
69.0,5299.0,0.0,0.0,-0.0,0.0,5299.0,0.0,21520.423718012735,0.0,21520.42371801274,0.0,0.0,0.3804761904761904,0.6226280540687802,0.6545751358811875,0.0,0.0,0.0,"[0.5708851791640441, 0.8255351221556779, 1.2065216892520603, 1.1380947127776793, 1.3108993492775802, 0.37799413024442075, 1.1884167927937987, 1.0585311587597808, 0.7872252208912016]",22.57,0.0,0.0,0.0,1171.0241668839271,167.24678421772668,-2638.2685026346453,-2136.822715273424,333.6633319919256,0.0,0.0,0.0,0.0,0.0,0.0,-8.9,21.815303725992447,0.0,21.230127300988112,0.0,-8.9,22.57,20.13,22.33,21.78,22.49,-9.44,-8.9,254.73,-1832.44,-1914.75,0.0,324.0,82.0,677.0,0.0,0.0,0.0,0.0,0.0,0.0,0.0,0.0,0.0,0.0,0.0,0.0,0.0,0.0
70.0,5113.0,0.0,0.0,-0.0,0.0,5113.0,0.0,18476.16587660594,0.0,18476.165876605945,0.0,0.0,0.18724111866969004,0.5528012744897706,0.6545751358811875,0.0,0.0,0.0,"[0.5708851791640441, 0.8255351221556779, 1.2065216892520603, 1.1380947127776793, 1.3108993492775802, 0.37799413024442075, 1.1884167927937987, 1.0585311587597808, 0.7872252208912016]",21.43,0.0,0.0,0.0,795.8241940678562,124.82260457562579,-2609.6171963120596,25.002703314007764,4793.020396612376,0.0,0.0,0.0,0.0,0.0,0.0,-9.7,21.46488358432416,0.0,21.17937619609784,0.0,-9.7,21.43,20.09,22.27,21.06,21.92,-10.24,-9.7,756.9,-1812.54,-1893.96,0.0,184.0,95.0,475.0,0.0,0.0,0.0,0.0,0.0,0.0,0.0,0.0,0.0,0.0,0.0,0.0,0.0,0.0
71.0,3481.0,27369.753654957298,23751.90488668251,-0.0,0.0,0.0,0.0,37243.21441640511,0.0,0.0,0.0,37243.21441640511,0.18724111866969004,0.5528012744897706,0.6545751358811875,0.0,0.0,0.0,"[0.5708851791640441, 0.8255351221556779, 1.2065216892520603, 1.1380947127776793, 1.3108993492775802, 0.37799413024442075, 1.1884167927937987, 1.0585311587597808, 0.7872252208912016]",22.57,0.0,0.0,0.0,746.7285721452622,119.92273587427202,-2764.0165625135596,-2186.4371144504366,976.4495389167142,0.0,0.0,0.0,0.0,0.0,0.0,-10.4,21.798394394979532,0.0,21.20346977212789,0.0,-10.4,22.57,20.09,22.32,21.94,22.62,-10.94,-10.4,3870.68,-1919.78,-2006.01,0.0,309.0,22.0,381.0,0.0,0.0,0.0,0.0,0.0,0.0,0.0,0.0,0.0,0.0,0.0,0.0,0.0,0.0
72.0,1826.0,43909.227555636484,25863.681417858304,-0.0,0.0,-16000.0,0.0,39321.66818802941,0.0,0.0,0.0,39321.66818802942,0.7679818594104307,0.5528012744897706,0.6545751358811875,0.0,0.0,0.0,"[0.5708851791640441, 0.8255351221556779, 1.2065216892520603, 1.1380947127776793, 1.3108993492775802, 0.37799413024442075, 1.1884167927937987, 1.0585311587597808, 0.7872252208912016]",21.43,0.0,0.0,0.0,338.7741888089852,85.40657217422942,-2710.2156442151913,-13.028173569630196,5424.621012784137,0.0,0.0,0.0,0.0,0.0,0.0,-10.9,21.45198171661525,0.0,21.156791433980793,0.0,-10.9,21.43,20.05,22.27,21.08,21.95,-11.46,-10.9,3587.6,-1882.42,-1966.97,0.0,240.0,13.0,120.0,0.0,0.0,0.0,0.0,0.0,0.0,0.0,0.0,0.0,0.0,0.0,0.0,0.0,0.0
73.0,1424.0,0.0,0.0,-0.0,0.0,1424.0,0.0,21293.89155847677,0.0,21293.89155847677,0.0,0.0,0.7141647770219197,0.4723254938454895,0.650095295164413,0.0,0.0,0.0,"[0.5708851791640441, 0.8255351221556779, 1.2065216892520603, 1.1380947127776793, 1.3108993492775802, 0.37799413024442075, 1.1884167927937987, 1.0585311587597808, 0.7872252208912016]",22.57,0.0,0.0,0.0,316.38600931055873,77.6846271955137,-2856.2318064247643,-2212.9430028476704,1564.0063825286088,0.0,0.0,0.0,0.0,0.0,0.0,-11.5,21.789640801664103,0.0,21.185480234733472,0.0,-11.5,22.57,20.05,22.32,21.97,22.65,-12.07,-11.5,3571.61,-1983.83,-2072.94,0.0,240.0,0.0,105.0,0.0,0.0,0.0,0.0,0.0,0.0,0.0,0.0,0.0,0.0,0.0,0.0,0.0,0.0
74.0,2539.0,22433.58345132927,22679.215534072617,-0.0,0.0,2896.7999999999947,0.0,31669.484644697084,0.0,0.0,0.0,31669.48464469708,0.6046863189720333,0.4723254938454895,0.650095295164413,0.0,0.0,0.0,"[0.5708851791640441, 0.8255351221556779, 1.2065216892520603, 1.1380947127776793, 1.3108993492775802, 0.37799413024442075, 1.1884167927937987, 1.0585311587597808, 0.7872252208912016]",21.43,0.0,0.0,0.0,290.3984440406813,77.09540247826229,-2819.1972961102506,-30.809088080648177,5607.333599868669,0.0,0.0,0.0,0.0,0.0,0.0,-12.2,21.44658622237864,0.0,21.142551818138738,0.0,-12.2,21.43,20.01,22.28,21.11,21.98,-12.79,-12.2,3523.61,-1958.11,-2046.06,0.0,240.0,0.0,86.0,0.0,0.0,0.0,0.0,0.0,0.0,0.0,0.0,0.0,0.0,0.0,0.0,0.0,0.0
75.0,1769.0,1441.093551187158,15664.888083431222,-0.0,0.0,16000.0,0.0,21277.25451136921,0.0,0.0,0.0,21277.25451136921,0.0,0.4723254938454895,0.650095295164413,0.0,0.0,0.0,"[0.5708851791640441, 0.8255351221556779, 1.2065216892520603, 1.1380947127776793, 1.3108993492775802, 0.37799413024442075, 1.1884167927937987, 1.0585311587597808, 0.7872252208912016]",22.57,0.0,0.0,0.0,291.76621063383266,77.12641430548604,-2948.4470503359685,-2230.9694142338262,1699.3765565265176,0.0,0.0,0.0,0.0,0.0,0.0,-12.6,21.783976023758612,0.0,21.170332291817356,0.0,-12.6,22.57,20.01,22.33,21.97,22.67,-13.18,-12.6,749.82,-2047.88,-2139.87,0.0,240.0,0.0,87.0,0.0,0.0,0.0,0.0,0.0,0.0,0.0,0.0,0.0,0.0,0.0,0.0,0.0,0.0
76.0,994.0,17493.065909821413,16411.600580272305,-0.0,0.0,0.0,0.0,21665.66949427697,0.0,0.0,0.0,21665.669494276968,0.0,0.4723254938454895,0.650095295164413,0.0,0.0,0.0,"[0.5708851791640441, 0.8255351221556779, 1.2065216892520603, 1.1380947127776793, 1.3108993492775802, 0.37799413024442075, 1.1884167927937987, 1.0585311587597808, 0.7872252208912016]",21.43,0.0,0.0,0.0,629.6045591422406,84.78633562975426,-2886.2629280456717,-48.76645471313652,4280.914347588816,0.0,0.0,0.0,0.0,0.0,0.0,-13.0,21.440677137911976,0.0,21.126750036094556,0.0,-13.0,21.43,19.96,22.29,21.1,22.0,-13.58,-13.0,1522.34,-2004.69,-2094.74,0.0,240.0,0.0,334.0,0.0,0.0,0.0,0.0,0.0,0.0,0.0,0.0,0.0,0.0,0.0,0.0,0.0,0.0
77.0,4143.0,46481.84071607686,26106.431512496478,-0.0,0.0,-16000.0,0.0,33468.71602237841,0.0,0.0,0.0,33468.71602237841,0.5807407407407407,0.4723254938454895,0.650095295164413,0.0,0.0,0.0,"[0.5708851791640441, 0.8255351221556779, 1.2065216892520603, 1.1380947127776793, 1.3108993492775802, 0.37799413024442075, 1.1884167927937987, 1.0585311587597808, 0.7872252208912016]",22.18,0.0,0.0,0.0,2360.405201202255,126.24914862791864,-2982.811992860875,-1545.4071635396958,0.0,0.0,0.0,0.0,0.0,0.0,0.0,-13.4,21.64529507515774,0.0,21.121478984442547,0.0,-13.4,22.18,19.94,22.3,21.65,22.43,-13.99,-13.4,403.29,-2071.75,-2164.81,0.0,240.0,4.0,1599.0,0.0,0.0,0.0,0.0,0.0,0.0,0.0,0.0,0.0,0.0,0.0,0.0,0.0,0.0
78.0,1326.0,0.0,0.0,-0.0,0.0,8929.92,0.0,31105.611921483007,38019.6,61521.29192148301,0.0,0.0,0.23267214028722588,0.23981872165545542,0.650095295164413,30415.68,7603.92,38019.6,"[0.5708851791640441, 0.8255351221556779, 1.2065216892520603, 1.1380947127776793, 1.3108993492775802, 0.37799413024442075, 1.1884167927937987, 1.0585311587597808, 0.7872252208912016]",21.43,0.0,0.0,0.0,468.4960520120857,161.6336434902265,-2953.3285599810933,-198.65918212931075,3601.4160852871933,0.0,0.0,0.0,0.0,0.0,0.0,-13.8,21.386463982590616,0.0,21.049754179202452,0.0,-13.8,21.43,19.88,22.22,20.91,21.84,-14.39,-13.8,4658.28,-2051.27,-2143.41,0.0,480.0,18.0,88.0,0.0,0.0,0.0,0.0,0.0,0.0,0.0,0.0,0.0,0.0,0.0,0.0,0.0,0.0
79.0,3314.0,34312.55973068994,30826.99693203649,-0.0,0.0,0.0,0.0,37463.347305203,0.0,0.0,0.0,37463.347305202995,0.23267214028722588,0.23981872165545542,0.650095295164413,0.0,0.0,0.0,"[0.5708851791640441, 0.8255351221556779, 1.2065216892520603, 1.1380947127776793, 1.3108993492775802, 0.37799413024442075, 1.1884167927937987, 1.0585311587597808, 0.7872252208912016]",21.82,0.0,0.0,0.0,789.345299679244,91.63994944620475,-3011.178861367397,-1011.5636912808724,5202.640825537533,0.0,0.0,0.0,0.0,0.0,0.0,-14.1,21.479450852903003,0.0,21.027966655114994,0.0,-14.1,21.82,19.84,22.21,21.41,22.22,-14.7,-14.1,4032.17,-2091.45,-2185.4,0.0,234.0,9.0,453.0,0.0,0.0,0.0,0.0,0.0,0.0,0.0,0.0,0.0,0.0,0.0,0.0,0.0,0.0
80.0,1547.0,28896.664915004305,27205.18159042928,-0.0,0.0,0.0,0.0,11560.894384861404,0.0,-21241.587875302754,0.0,32802.48226016416,0.0,0.29423069833740984,0.650095295164413,0.0,0.0,0.0,"[0.5708851791640441, 0.8255351221556779, 1.2065216892520638, 1.1380947127776793, 1.3108993492775802, 0.37799413024442075, 1.1884167927937987, 1.0585311587597808, 0.7872252208912016]",22.57,0.0,0.0,5.033315218215758,692.089896134633,15.691984575221525,-3082.57831420681,-2423.4036968924747,1676.3774200309724,0.0,0.0,0.0,0.0,0.0,0.0,-14.2,21.714856808762686,0.0,21.061009860332813,0.0,-14.2,22.57,19.85,22.28,21.86,22.6,-14.79,-14.2,1130.32,-2141.04,-2237.21,8.12,0.0,0.0,506.0,0.0,0.0,0.0,0.0,0.0,0.0,0.0,0.0,0.0,0.0,0.0,0.0,0.0,0.0
81.0,2161.0,1065.1197141458524,12892.078285498048,-0.0,13993.284169922925,0.0,0.0,18371.340182865184,0.0,0.0,0.0,18371.340182865184,0.0,0.29423069833740984,0.650095295164413,0.0,0.0,0.0,"[0.5708851791640441, 0.8255351221556779, 1.2065216892520638, 1.1380947127776793, 1.3108993492775802, 0.37799413024442075, 1.1884167927937987, 1.0585311587597808, 0.7872252208912016]",21.43,0.0,0.0,1219.1790208338437,162.76422458502236,3.6904074396271933,-2794.0476841344675,-234.54869435251445,1598.7947476087752,0.0,0.0,0.0,0.0,0.0,0.0,-11.9,21.37093614726206,0.0,21.016429191909275,0.0,-11.9,21.43,19.8,22.23,21.0,21.94,-11.55,-11.9,2048.42,-1940.64,-2027.81,1965.67,0.0,0.0,119.0,0.0,0.0,0.0,0.0,0.0,0.0,0.0,0.0,0.0,0.0,0.0,0.0,0.0,0.0
82.0,5112.0,17173.771056851972,22733.27811364688,-0.0,26757.37591207917,-16000.0,0.0,36512.891144685476,0.0,0.0,0.0,36512.891144685476,0.5807407407407407,0.29423069833740984,0.650095295164413,0.0,0.0,0.0,"[0.5708851791640441, 0.8255351221556779, 1.2065216892520638, 1.1380947127776793, 1.3108993492775802, 0.37799413024442075, 1.1884167927937987, 1.0585311587597808, 0.7872252208912016]",21.43,0.0,0.0,1744.2215329412732,132.67335953569054,3.008147240704521,-2634.7668082878427,-254.93129400789698,946.4215668313005,0.0,0.0,0.0,0.0,0.0,0.0,-10.0,21.361562048894488,0.0,21.00250168369276,0.0,-10.0,21.43,19.78,22.22,21.29,22.18,-9.27,-10.0,0.0,-1830.01,-1912.21,2812.19,0.0,0.0,97.0,0.0,0.0,0.0,0.0,0.0,0.0,0.0,0.0,0.0,0.0,0.0,0.0,0.0,0.0
83.0,3643.0,0.0,12685.982381908903,-16355.18119789727,32684.163579806172,0.0,0.0,22189.58981355047,0.0,0.0,0.0,22189.58981355047,0.5807407407407407,0.29423069833740984,0.6891881672959723,0.0,0.0,0.0,"[0.5708851791640441, 0.8255351221556779, 1.2065216892520638, 1.1380947127776793, 1.3108993492775802, 0.37799413024442075, 1.1884167927937987, 1.0585311587597808, 0.7872252208912016]",21.43,0.0,0.0,2069.6571343032742,2686.293588949445,60.90722866746063,-2509.018748408928,-241.07513144253087,981.113277034725,0.0,0.0,0.0,0.0,0.0,0.0,-8.5,21.365196860351215,0.0,21.006647719113364,0.0,-8.5,21.43,19.78,22.23,21.36,22.26,-7.56,-8.5,51.07,-1742.67,-1820.95,3336.88,0.0,0.0,1964.0,0.0,0.0,0.0,0.0,0.0,0.0,0.0,0.0,0.0,0.0,0.0,0.0,0.0,0.0
84.0,10329.0,0.0,0.0,-0.0,36882.002531819344,-4564.242961676413,0.0,21714.326873010905,0.0,1924.4432598822787,0.0,0.0,0.7464058556460327,0.28695767014435514,0.6891881672959723,87955.03828057172,21988.75957014293,109943.79785071465,"[0.5708851791640441, 0.8255351221556779, 1.2065216892520638, 1.1380947127776793, 1.3108993492775802, 0.37799413024442075, 1.1884167927937987, 1.0585311587597808, 0.7872252208912016]",22.57,0.0,0.0,2312.005054679999,6729.339650589698,244.40421035043644,-2520.9036467476585,-2366.2131796313924,-4461.376365901026,0.0,0.0,0.0,0.0,0.0,0.0,-7.5,21.72875598792778,0.0,21.07242874441716,0.0,-7.5,22.57,19.83,22.31,21.97,22.76,-6.41,-7.5,0.0,-1750.93,-1829.57,3727.62,288.0,13.0,4767.0,0.0,0.0,0.0,0.0,0.0,0.0,0.0,0.0,0.0,0.0,0.0,0.0,0.0,0.0
85.0,9282.0,0.0,0.0,-0.0,32524.656332963976,-7343.701059605977,0.0,14309.05974602219,0.0,0.0,0.0,0.0,1.0,0.28695767014435514,0.6891881672959723,63595.821093431994,15898.955273357999,79494.77636678999,"[0.5708851791640441, 0.8255351221556779, 1.2065216892520638, 1.1380947127776793, 1.3108993492775802, 0.37799413024442075, 1.1884167927937987, 1.0585311587597808, 0.7872252208912016]",22.57,0.0,0.0,2180.710607870413,4611.02913637525,258.85572183670763,-2495.7540347718755,-2166.982360135864,-2445.572854038793,0.0,0.0,0.0,0.0,0.0,0.0,-7.2,21.801472926603125,0.0,21.166048768035324,0.0,-7.2,22.57,19.9,22.43,22.04,22.86,-6.12,-7.2,0.0,-1733.46,-1811.32,3515.93,495.0,16.0,3109.0,0.0,0.0,0.0,0.0,0.0,0.0,0.0,0.0,0.0,0.0,0.0,0.0,0.0,0.0
86.0,4657.0,0.0,21474.294628194006,-0.0,26764.894628194008,-633.6000000000022,0.0,18567.00950820529,0.0,-20632.35830645571,0.0,39199.367814661,1.0,0.3618454891826018,0.6891881672959723,0.0,0.0,0.0,"[0.5708851791640441, 0.8255351221556779, 1.2065216892520638, 1.1380947127776793, 1.3108993492775802, 0.37799413024442075, 1.1884167927937987, 1.0585311587597808, 0.7872252208912016]",22.57,0.0,0.0,2062.3060781369404,1069.80943899072,120.91511434543224,-2537.6700547315136,-1993.2903179365987,0.0,0.0,0.0,0.0,0.0,0.0,0.0,-7.7,21.86556984957905,0.0,21.249631685527355,0.0,-7.7,22.57,19.97,22.53,22.06,22.9,-6.71,-7.7,0.0,-1762.57,-1841.74,3325.03,312.0,9.0,617.0,0.0,0.0,0.0,0.0,0.0,0.0,0.0,0.0,0.0,0.0,0.0,0.0,0.0,0.0
87.0,7090.0,15994.730153514836,8826.504259029318,-0.0,1.7477562820541537,0.0,0.0,14681.500978588952,0.0,0.0,0.0,14681.500978588954,1.0,0.3618454891826018,0.6791085256832297,0.0,0.0,0.0,"[0.5708851791640441, 0.8255351221556779, 1.2065216892520638, 1.1380947127776793, 1.3108993492775802, 0.37799413024442075, 1.1884167927937987, 1.0585311587597808, 0.7872252208912016]",22.13,0.0,0.0,35.3254867483591,660.4872890612917,93.1905408073927,-2643.0218861110184,-1017.9364829011403,4089.4234210694863,0.0,0.0,0.0,0.0,0.0,0.0,-9.4,21.781760043998336,0.0,21.299429026895265,0.0,-9.4,22.13,20.01,22.59,21.84,22.74,-9.92,-9.4,1359.21,-1835.75,-1918.2,56.95,236.0,16.0,357.0,0.0,0.0,0.0,0.0,0.0,0.0,0.0,0.0,0.0,0.0,0.0,0.0,0.0,0.0
88.0,3370.0,0.0,8106.166809115149,-0.0,0.0,11476.166809115148,0.0,13637.890127984923,0.0,0.0,0.0,13637.890127984925,0.566282433517946,0.3618454891826018,0.6791085256832297,0.0,0.0,0.0,"[0.5708851791640441, 0.8255351221556779, 1.2065216892520638, 1.1380947127776793, 1.3108993492775802, 0.37799413024442075, 1.1884167927937987, 1.0585311587597808, 0.7872252208912016]",22.57,0.0,0.0,0.0,497.00318732197906,78.64599383945018,-2663.418114610428,-1857.9088477738403,3952.650776151298,0.0,0.0,0.0,0.0,0.0,0.0,-9.2,21.917698888314124,0.0,21.31923855101493,0.0,-9.2,22.57,20.03,22.61,21.89,22.74,-9.75,-9.2,0.0,-1849.91,-1933.0,0.0,116.0,60.0,296.0,0.0,0.0,0.0,0.0,0.0,0.0,0.0,0.0,0.0,0.0,0.0,0.0,0.0,0.0
89.0,7559.0,26333.24385203455,18642.577632774377,-0.0,0.0,0.0,0.0,31719.89612517364,0.0,0.0,0.0,31719.89612517364,0.566282433517946,0.3618454891826018,0.6589492424577443,0.0,0.0,0.0,"[0.5708851791640441, 0.8255351221556779, 1.2065216892520638, 1.1380947127776793, 1.3108993492775802, 0.37799413024442075, 1.1884167927937987, 1.0585311587597808, 0.7872252208912016]",22.57,0.0,0.0,0.0,1455.5196182594289,197.88646951479953,-2646.651706626573,-1805.8997035769391,2816.6905435012372,0.0,0.0,0.0,0.0,0.0,0.0,-9.0,21.936548376992523,0.0,21.344275452676634,0.0,-9.0,22.57,20.05,22.64,21.88,22.74,-9.52,-9.0,478.47,-1838.27,-1920.84,0.0,310.0,133.0,887.0,0.0,0.0,0.0,0.0,0.0,0.0,0.0,0.0,0.0,0.0,0.0,0.0,0.0,0.0
90.0,7436.0,7473.366834170854,0.0,-0.0,0.0,0.0,0.0,21669.319705450274,0.0,21669.319705450278,0.0,0.0,0.566282433517946,0.2799508568868713,0.6391632792919902,0.0,0.0,0.0,"[0.5708851791640441, 0.8255351221556779, 1.2065216892520638, 1.1380947127776793, 1.3108993492775802, 0.37799413024442075, 1.1884167927937987, 1.0585311587597808, 0.7872252208912016]",22.57,0.0,0.0,0.0,1452.7840850731257,225.7350903617342,-2629.8852986427178,-1778.1933381279525,0.0,0.0,0.0,0.0,0.0,0.0,0.0,-8.8,21.94651535395139,0.0,21.35840897397413,0.0,-8.8,22.57,20.07,22.65,21.82,22.7,-9.3,-8.8,1514.87,-1826.62,-1908.67,0.0,286.0,196.0,891.0,0.0,0.0,0.0,0.0,0.0,0.0,0.0,0.0,0.0,0.0,0.0,0.0,0.0,0.0
91.0,5123.0,0.0,3346.0638131798473,-0.0,0.0,8469.063813179848,0.0,5788.944020245836,0.0,0.0,0.0,5788.944020245836,0.24621199462226018,0.2799508568868713,0.6391632792919902,0.0,0.0,0.0,"[0.5708851791640441, 0.8255351221556779, 1.2065216892520638, 1.1380947127776793, 1.3108993492775802, 0.37799413024442075, 1.1884167927937987, 1.0585311587597808, 0.7872252208912016]",21.56,0.0,0.0,0.0,794.5284151901335,209.73298751427504,-2537.094779676852,90.69911766877125,1092.3181080395836,0.0,0.0,0.0,0.0,0.0,0.0,-8.7,21.62307635347102,0.0,21.299270761559164,0.0,-8.7,21.56,20.03,22.56,21.12,22.13,-9.19,-8.7,0.0,-1762.17,-1841.32,0.0,288.0,193.0,409.0,0.0,0.0,0.0,0.0,0.0,0.0,0.0,0.0,0.0,0.0,0.0,0.0,0.0,0.0
92.0,5966.0,33085.58296370228,10954.155048883775,-0.0,0.0,-15999.999999999998,0.0,19160.37717626,0.0,0.0,0.0,19160.37717626,0.8269527353630008,0.2799508568868713,0.6272170373805915,0.0,0.0,0.0,"[0.5708851791640441, 0.8255351221556779, 1.174279765827059, 0.8952768720838229, 1.2544759702239645, 0.37799413024442075, 1.1884167927938023, 0.9282714147992479, 0.7872252208912016]",21.43,0.0,0.0,0.0,845.2797545675953,200.89461675550405,-2509.018748408928,208.06283626769786,4390.579020899073,0.0,0.0,0.0,0.0,0.0,0.0,-8.5,21.5308535505055,0.0,21.2309504972922,0.0,-8.5,21.43,19.99,22.47,21.13,22.09,-8.97,-8.5,286.69,-1742.67,-1820.95,0.0,390.0,121.0,400.0,0.0,0.0,0.0,0.0,0.0,0.0,0.0,0.0,0.0,0.0,0.0,0.0,0.0,0.0
93.0,5382.0,0.0,10617.999999999998,-0.0,0.0,16000.0,0.0,19287.882895914045,0.0,513.0394673652122,0.0,18774.84342854883,0.22226641639096756,0.2780119322180686,0.6272170373805915,0.0,0.0,0.0,"[0.5708851791640441, 0.8255351221556779, 1.174279765827059, 0.8952768720838229, 1.2544759702239645, 0.37799413024442075, 1.1884167927938023, 0.9282714147992479, 0.7872252208912016]",22.57,0.0,0.0,0.0,1291.4596147966836,215.84231747735538,-2587.969278683079,-2020.9981416886103,2.817182247236943,0.0,0.0,0.0,0.0,0.0,0.0,-8.3,21.85714849086475,0.0,21.250025248562544,0.0,-8.3,22.57,20.01,22.49,21.92,22.71,-8.76,-8.3,2421.48,-1797.51,-1878.25,0.0,465.0,90.0,690.0,0.0,0.0,0.0,0.0,0.0,0.0,0.0,0.0,0.0,0.0,0.0,0.0,0.0,0.0
94.0,3423.0,25654.279285770604,22103.007889341752,-0.0,0.0,0.0,0.0,39504.16754657987,0.0,0.0,0.0,39504.16754657987,0.22226641639096756,0.2780119322180686,0.5600194266289736,0.0,0.0,0.0,"[0.5708851791640441, 0.8255351221556779, 1.174279765827059, 0.8952768720838229, 1.2544759702239645, 0.37799413024442075, 1.1884167927938023, 0.9282714147992479, 0.7872252208912016]",21.43,0.0,0.0,0.0,716.349756234214,122.46570570662018,-2475.4859324412173,125.58380909145373,4639.930393787167,0.0,0.0,0.0,0.0,0.0,0.0,-8.1,21.500293900231725,0.0,21.194636605702662,0.0,-8.1,21.43,19.98,22.41,21.01,21.98,-8.55,-8.1,0.0,-1719.38,-1796.61,0.0,252.0,58.0,385.0,0.0,0.0,0.0,0.0,0.0,0.0,0.0,0.0,0.0,0.0,0.0,0.0,0.0,0.0
95.0,2306.0,21666.93932695398,3252.6046303192097,-0.0,0.0,-16000.0,0.0,5875.3171749277635,0.0,0.0,0.0,5875.3171749277635,0.8030071571317082,0.2780119322180686,0.5566595460913928,0.0,0.0,0.0,"[0.5708851791640441, 0.8255351221556779, 1.174279765827059, 0.8952768720838229, 1.2544759702239645, 0.37799413024442075, 1.1884167927938023, 0.9282714147992479, 0.7872252208912016]",22.57,0.0,0.0,0.0,571.0785464984443,168.30118634333442,-2554.4364627153686,-2095.1824656984586,807.1757472826152,0.0,0.0,0.0,0.0,0.0,0.0,-7.9,21.82962647718506,0.0,21.217427998080353,0.0,-7.9,22.57,20.0,22.44,21.91,22.67,-8.34,-7.9,4052.84,-1774.22,-1853.91,0.0,423.0,56.0,189.0,0.0,0.0,0.0,0.0,0.0,0.0,0.0,0.0,0.0,0.0,0.0,0.0,0.0,0.0
96.0,2114.0,21443.40895678224,19222.19191199833,-0.0,0.0,0.0,0.0,35821.36376663009,0.0,0.0,0.0,35821.36376663009,0.8030071571317082,0.2780119322180686,0.5566595460913928,0.0,0.0,0.0,"[0.5708851791640441, 0.8255351221556779, 1.174279765827059, 0.8952768720838229, 1.2544759702239645, 0.37799413024442075, 1.1884167927938023, 0.9282714147992479, 0.7872252208912016]",21.43,0.0,0.0,0.0,275.2810238005863,102.83521907398138,-2408.420300505796,78.33955771210026,5079.067733168927,0.0,0.0,0.0,0.0,0.0,0.0,-7.3,21.482320710971386,0.0,21.17403481489604,0.0,-7.3,21.43,19.97,22.37,21.07,22.01,-7.75,-7.3,290.03,-1672.8,-1747.94,0.0,240.0,47.0,70.0,0.0,0.0,0.0,0.0,0.0,0.0,0.0,0.0,0.0,0.0,0.0,0.0,0.0,0.0
97.0,2458.0,0.0,13542.0,-0.0,0.0,16000.0,0.0,32785.95856723218,0.0,6646.171237376373,0.0,26139.787329855808,0.19832083815967494,0.2528941270881503,0.5566595460913928,0.0,0.0,0.0,"[0.5708851791640441, 0.8255351221556779, 1.174279765827059, 0.8952768720838229, 1.2544759702239645, 0.37799413024442075, 1.1884167927938023, 0.9282714147992479, 0.7872252208912016]",22.57,0.0,0.0,0.0,320.057382797439,86.64704526317972,-2445.4548108203094,-2123.6580659845954,1052.1052939695999,0.0,0.0,0.0,0.0,0.0,0.0,-6.6,21.81811284186452,0.0,21.205328467847785,0.0,-6.6,22.57,20.0,22.41,21.94,22.68,-7.04,-6.6,1353.94,-1698.52,-1774.82,0.0,240.0,16.0,106.0,0.0,0.0,0.0,0.0,0.0,0.0,0.0,0.0,0.0,0.0,0.0,0.0,0.0,0.0
98.0,2509.0,34666.59869067336,15984.265697219987,-0.0,0.0,-16000.0,0.0,31920.71271196333,0.0,0.0,0.0,31920.71271196333,0.7790615789004156,0.2528941270881503,0.5566595460913928,0.0,0.0,0.0,"[0.5708851791640441, 0.8255351221556779, 1.174279765827059, 0.8952768720838229, 1.2544759702239645, 0.37799413024442075, 1.1884167927938023, 0.9282714147992479, 0.7872252208912016]",21.43,0.0,0.0,0.0,542.0674971805479,82.80157868743375,-2291.055444618809,57.317735764147905,4734.195622260223,0.0,0.0,0.0,0.0,0.0,0.0,-5.9,21.473432119177858,0.0,21.165988690629746,0.0,-5.9,21.43,19.98,22.35,21.06,21.99,-6.33,-5.9,4385.42,-1591.28,-1662.76,0.0,240.0,0.0,270.0,0.0,0.0,0.0,0.0,0.0,0.0,0.0,0.0,0.0,0.0,0.0,0.0,0.0,0.0
99.0,1762.0,0.0,4154.889366742901,-0.0,0.0,5916.889366742901,0.0,21789.618346483116,0.0,13333.830078178738,0.0,8455.788268304374,0.5554452007166325,0.2025017231645723,0.5566595460913928,0.0,0.0,0.0,"[0.5708851791640441, 0.8255351221556779, 1.174279765827059, 0.8952768720838229, 1.2544759702239645, 0.37799413024442075, 1.1884167927938023, 0.9282714147992479, 0.7872252208912016]",22.57,0.0,0.0,0.0,469.57586774352103,81.15795184457457,-2353.239566909105,-2149.324562727435,841.0404754226729,0.0,0.0,0.0,0.0,0.0,0.0,-5.5,21.8077750041716,0.0,21.196290448375912,0.0,-5.5,22.57,20.01,22.38,21.9,22.64,-5.93,-5.5,685.58,-1634.47,-1707.89,0.0,240.0,0.0,217.0,0.0,0.0,0.0,0.0,0.0,0.0,0.0,0.0,0.0,0.0,0.0,0.0,0.0,0.0
100.0,1041.0,0.0,13656.080010962096,-0.0,0.0,14697.080010962096,0.0,28442.994776743028,0.0,0.0,0.0,28442.994776743028,0.0,0.2025017231645723,0.5566595460913922,0.0,0.0,0.0,"[0.5708851791640441, 0.8255351221556779, 1.174279765827059, 0.8952768720838229, 1.2544759702239645, 0.37799413024442075, 1.1884167927938023, 0.9282714147992479, 0.7872252208912016]",21.43,0.0,0.0,0.0,521.5509982832762,82.33640127907738,-2215.60660869146,31.677629237552104,4705.327325109912,0.0,0.0,0.0,0.0,0.0,0.0,-5.0,21.463274400025927,0.0,21.15770154851436,0.0,-5.0,21.43,19.99,22.32,21.04,21.96,-5.42,-5.0,4358.12,-1538.88,-1608.0,0.0,240.0,0.0,255.0,0.0,0.0,0.0,0.0,0.0,0.0,0.0,0.0,0.0,0.0,0.0,0.0,0.0,0.0
101.0,1558.0,29679.938672366156,12788.63015824143,-0.0,0.0,-15184.908820762894,0.0,27123.934895592683,0.0,0.0,0.0,27123.934895592683,0.5511559497906532,0.2025017231645723,0.5566595460913922,0.0,0.0,0.0,"[0.5708851791640441, 0.8255351221556779, 1.174279765827059, 0.8952768720838229, 1.2544759702239645, 0.37799413024442075, 1.1884167927938023, 0.9282714147992479, 0.7872252208912016]",22.57,0.0,0.0,0.0,401.25952580137766,106.24652006859476,-2277.7907309817565,-2169.4042332217655,831.1235130836172,0.0,0.0,0.0,0.0,0.0,0.0,-4.6,21.79960100311179,0.0,21.190829112558163,0.0,-4.6,22.57,20.02,22.36,21.9,22.62,-4.95,-4.6,604.79,-1582.07,-1653.13,0.0,240.0,48.0,162.0,0.0,0.0,0.0,0.0,0.0,0.0,0.0,0.0,0.0,0.0,0.0,0.0,0.0,0.0
102.0,4456.0,15616.102433995316,11082.02192182534,-0.0,0.0,0.0,0.0,23821.263815360904,0.0,0.0,0.0,23821.263815360908,0.5511559497906532,0.2025017231645723,0.5566595460913922,0.0,0.0,0.0,"[0.5708851791640441, 0.8255351221556779, 1.174279765827059, 0.8952768720838229, 1.2544759702239645, 0.37799413024442075, 1.1884167927938023, 0.9282714147992479, 0.7872252208912016]",21.43,0.0,0.0,0.0,380.59905147324787,159.18370913954956,-2156.924180747967,19.199899371081433,1612.0552364453747,0.0,0.0,0.0,0.0,0.0,0.0,-4.3,21.458069440455034,0.0,21.15636868996882,0.0,-4.3,21.43,20.01,22.3,21.06,21.95,-4.66,-4.3,3735.42,-1498.12,-1565.41,0.0,333.0,95.0,93.0,0.0,0.0,0.0,0.0,0.0,0.0,0.0,0.0,0.0,0.0,0.0,0.0,0.0,0.0
103.0,1048.0,0.0,13535.586431460682,-0.0,0.0,14583.586431460682,0.0,29482.41876064145,0.0,0.0,0.0,29482.41876064145,0.0,0.2025017231645723,0.5566595460913922,0.0,0.0,0.0,"[0.5708851791640441, 0.8255351221556779, 1.174279765827059, 0.8952768720838229, 1.2544759702239645, 0.37799413024442075, 1.1884167927938023, 0.9282714147992479, 0.7872252208912016]",21.43,0.0,0.0,0.0,411.76973225401514,178.62812480884583,-2131.774568772184,-81.32159363223037,4756.521569981398,0.0,0.0,0.0,0.0,0.0,0.0,-4.0,21.421001428383565,0.0,21.11237150726845,0.0,-4.0,21.43,19.99,22.23,21.13,21.97,-4.35,-4.0,3300.08,-1480.65,-1547.16,0.0,393.0,97.0,84.0,0.0,0.0,0.0,0.0,0.0,0.0,0.0,0.0,0.0,0.0,0.0,0.0,0.0,0.0
104.0,1895.0,25569.73744415332,7546.888756932556,-0.0,0.0,-16000.0,0.0,16654.02991364064,0.0,0.0,0.0,16654.02991364064,0.5807407407407407,0.2025017231645723,0.5566595460913922,0.0,0.0,0.0,"[0.5708851791640441, 0.8255351221556779, 1.174279765827059, 0.8952768720838229, 1.254475970223968, 0.37799413024442075, 1.1884167927938023, 0.9282714147992479, 0.7872252208912016]",22.57,0.0,0.0,1.6539704095623389,805.6865110816323,193.76189649403975,-2202.341895054408,-2258.6806092225333,3477.0354633880934,0.0,0.0,0.0,0.0,0.0,0.0,-3.7,21.766140772861693,0.0,21.156597778033472,0.0,-3.7,22.57,20.03,22.28,21.93,22.6,-4.04,-3.7,3175.39,-1529.67,-1598.37,2.67,399.0,105.0,368.0,0.0,0.0,0.0,0.0,0.0,0.0,0.0,0.0,0.0,0.0,0.0,0.0,0.0,0.0
105.0,2505.0,19954.574680539434,5811.083123991371,-0.0,12.301725017902644,-11551.020408163267,0.0,13654.538790588105,0.0,0.0,0.0,13654.538790588105,1.0,0.2025017231645723,0.5566595460913922,0.0,0.0,0.0,"[0.5708851791640441, 0.8255351221556779, 1.174279765827059, 0.8952768720838229, 1.254475970223968, 0.37799413024442075, 1.1884167927938023, 0.9282714147992479, 0.7872252208912016]",22.57,0.0,0.0,47.52958600977764,863.1327079939931,199.4060490487637,-2076.593835175493,-2149.4410576612154,13.824234403533579,0.0,0.0,0.0,0.0,0.0,0.0,-2.2,21.804833886725326,0.0,21.208020216965785,0.0,-2.2,22.57,20.08,22.34,21.84,22.55,-2.48,-2.2,3112.96,-1442.33,-1507.11,76.63,495.0,62.0,364.0,0.0,0.0,0.0,0.0,0.0,0.0,0.0,0.0,0.0,0.0,0.0,0.0,0.0,0.0
106.0,6317.0,0.0,5004.871198920635,-0.0,41.707693461907766,11280.163505458728,0.0,12237.279511667706,0.0,0.0,0.0,12237.279511667708,0.5736899657800935,0.2025017231645723,0.5566595460913922,0.0,0.0,0.0,"[0.5708851791640441, 0.8255351221556779, 1.174279765827059, 0.8952768720838229, 1.254475970223968, 0.37799413024442075, 1.1884167927938023, 0.9282714147992479, 0.7872252208912016]",21.43,0.0,0.0,60.427179668134215,2652.7473135595196,152.26807166865157,-1897.0448569982098,39.98158295860052,0.0,0.0,0.0,0.0,0.0,0.0,0.0,-1.2,21.462981897700477,0.0,21.17444907775799,0.0,-1.2,21.43,20.07,22.28,21.04,21.91,-1.45,-1.2,156.04,-1317.62,-1376.8,97.43,306.0,4.0,1778.0,0.0,0.0,0.0,0.0,0.0,0.0,0.0,0.0,0.0,0.0,0.0,0.0,0.0,0.0
107.0,7496.0,11086.900151468226,8104.054018586122,-0.0,482.351873333965,4086.236494541271,0.0,20819.369911236623,0.0,0.0,0.0,20819.369911236623,0.41925925925925933,0.2025017231645723,0.5566595460913922,0.0,0.0,0.0,"[0.5708851791640441, 0.8255351221556779, 1.174279765827059, 0.8952768720838229, 1.254475970223968, 0.37799413024442075, 1.1884167927938023, 0.9282714147992479, 0.7872252208912016]",21.79,0.0,0.0,112.70196441364942,5387.632610423556,238.76005779571256,-1818.6761185755029,-782.5297898100785,-1000.3038278724383,0.0,0.0,0.0,0.0,0.0,0.0,0.1,21.52615645305427,0.0,21.132692134064534,0.0,0.1,21.79,20.06,22.2,21.16,21.98,-0.13,0.1,3733.7,-1263.19,-1319.92,181.71,378.0,10.0,3739.0,0.0,0.0,0.0,0.0,0.0,0.0,0.0,0.0,0.0,0.0,0.0,0.0,0.0,0.0
108.0,7767.0,31211.8647005781,8463.814807134067,-0.0,1175.0094300588623,-16000.0,0.0,22631.167408709935,0.0,0.0,0.0,22631.167408709935,1.0,0.2025017231645723,0.5566595460913922,0.0,0.0,0.0,"[0.5708851791640441, 0.8255351221556779, 1.174279765827059, 0.8952768720838229, 1.254475970223968, 0.37799413024442075, 1.1884167927938023, 0.9282714147992479, 0.7872252208912016]",22.57,0.0,0.0,146.35957165720092,905.6054600971172,159.4007919301159,-1791.5648994499534,-2317.786395042347,2906.4708560609065,0.0,0.0,0.0,0.0,0.0,0.0,1.2,21.74032017413604,0.0,21.139914178567686,0.0,1.2,22.57,20.09,22.19,21.54,22.25,0.93,1.2,2537.71,-1244.35,-1300.25,235.97,450.0,12.0,424.0,0.0,0.0,0.0,0.0,0.0,0.0,0.0,0.0,0.0,0.0,0.0,0.0,0.0,0.0
109.0,9644.0,13372.990087626928,4908.288194110954,-0.0,1246.163056922161,0.0,0.0,13498.477900484198,0.0,0.0,0.0,13498.477900484198,1.0,0.2025017231645723,0.5566595460913922,0.0,0.0,0.0,"[0.5708851791640441, 0.8255351221556779, 1.174279765827059, 0.8952768720838229, 1.254475970223968, 0.37799413024442075, 1.1884167927938023, 0.9282714147992479, 0.7872252208912016]",22.57,0.0,0.0,154.72586269269712,3292.1422020001078,224.15348717332253,-1724.499267514532,-2190.9453066351193,0.0,0.0,0.0,0.0,0.0,0.0,0.0,2.0,21.786091589212372,0.0,21.202849397395507,0.0,2.0,22.57,20.15,22.26,21.83,22.49,1.74,2.0,0.0,-1197.77,-1251.57,249.46,507.0,1.0,2140.0,0.0,0.0,0.0,0.0,0.0,0.0,0.0,0.0,0.0,0.0,0.0,0.0,0.0,0.0
110.0,6629.0,0.0,6177.354068005498,-0.0,331.51469444149626,12474.839373564002,0.0,17165.25809541135,0.0,0.0,0.0,17165.25809541135,0.5285397062145124,0.2025017231645723,0.5536729856135425,0.0,0.0,0.0,"[0.5708851791640441, 0.8255351221556779, 1.174279765827059, 0.8952768720838229, 1.254475970223968, 0.37799413024442075, 1.1884167927938023, 0.9282714147992479, 0.7872252208912016]",22.48,0.0,0.0,117.14442335555248,633.7798466371239,63.1400802275712,-1691.4195512079089,-1966.1131352650227,0.0,0.0,0.0,0.0,0.0,0.0,0.0,2.3,21.77353340535595,0.0,21.225437112320556,0.0,2.3,22.48,20.19,22.26,21.56,22.28,1.99,2.3,587.16,-1174.8,-1227.57,188.87,166.0,0.0,376.0,0.0,0.0,0.0,0.0,0.0,0.0,0.0,0.0,0.0,0.0,0.0,0.0,0.0,0.0
111.0,4941.0,0.0,3952.3331247574824,-0.0,0.14294336420846768,8893.190181393275,0.0,10756.431561588064,0.0,0.0,0.0,10756.431561588064,0.19244030404545442,0.2025017231645723,0.5536729856135417,0.0,0.0,0.0,"[0.5708851791640441, 0.8255351221556779, 1.174279765827059, 0.8952768720838229, 1.254475970223968, 0.37799413024442075, 1.1884167927938023, 0.9282714147992479, 0.7872252208912016]",21.43,0.0,0.0,28.751032561802855,596.0582837523156,99.23784711602545,-1654.3961685494992,31.748340948729297,891.1624495404519,0.0,0.0,0.0,0.0,0.0,0.0,1.7,21.463173541523417,0.0,21.198746045146518,0.0,1.7,21.43,20.19,22.2,21.06,21.87,1.33,1.7,3713.13,-1149.08,-1200.7,46.35,254.0,20.0,300.0,0.0,0.0,0.0,0.0,0.0,0.0,0.0,0.0,0.0,0.0,0.0,0.0,0.0,0.0
112.0,5695.0,10278.658988094736,4532.2656931542615,-0.0,0.0,0.0,0.0,11989.081239858822,0.0,0.0,0.0,11989.081239858822,0.19244030404545442,0.2025017231645723,0.5141010592820335,0.0,0.0,0.0,"[0.5708851791640441, 0.8255351221556779, 1.174279765827059, 0.8952768720838229, 1.254475970223968, 0.37799413024442075, 1.1884167927938023, 0.9282714147992479, 0.7872252208912016]",21.43,0.0,0.0,0.0,316.8179356031329,58.89145989791636,-1720.9975731677293,-55.04706830283161,1405.5567433548172,0.0,0.0,0.0,0.0,0.0,0.0,0.9,21.426546582470298,0.0,21.15920309842846,0.0,0.9,21.43,20.19,22.13,21.12,21.87,0.5,0.9,66.82,-1195.34,-1249.03,0.0,91.0,45.0,179.0,0.0,0.0,0.0,0.0,0.0,0.0,0.0,0.0,0.0,0.0,0.0,0.0,0.0,0.0
113.0,7738.0,52613.19849399465,38798.84164872499,-0.0,0.0,-5813.290852799683,0.0,23003.419549961684,0.0,-80000.0,0.0,103003.41954996169,0.4034412312952207,0.49287209353494266,0.5103678586847215,0.0,0.0,0.0,"[0.5708851791640441, 0.8255351221556779, 1.174279765827059, 0.8952768720838229, 1.254475970223968, 0.37799413024442075, 1.1884167927938023, 0.9282714147992479, 0.7872252208912016]",21.43,0.0,0.0,0.0,768.5408499202562,175.03075285088985,-1712.6143691758018,-137.3630525727854,4039.9101295905853,0.0,0.0,0.0,0.0,0.0,0.0,1.0,21.396329425499463,0.0,21.124490522698945,0.0,1.0,21.43,20.18,22.07,21.13,21.85,0.59,1.0,71.73,-1189.52,-1242.95,0.0,272.0,140.0,404.0,0.0,0.0,0.0,0.0,0.0,0.0,0.0,0.0,0.0,0.0,0.0,0.0,0.0,0.0
114.0,7685.0,0.0,2990.0549800715394,-0.0,0.0,10675.05498007154,0.0,7966.522704586401,0.0,0.0,0.0,7966.522704586401,0.0,0.49287209353494266,0.5103678586847215,0.0,0.0,0.0,"[0.5708851791640441, 0.8255351221556779, 1.174279765827059, 0.8952768720838229, 1.254475970223968, 0.37799413024442075, 1.1884167927938023, 0.9282714147992479, 0.7872252208912016]",22.57,0.0,0.0,0.0,1161.2338375855797,203.71669303286603,-1799.9481034418807,-2304.404111683026,0.0,0.0,0.0,0.0,0.0,0.0,0.0,1.1,21.745432673249567,0.0,21.174235597810544,0.0,1.1,22.57,20.22,22.13,21.92,22.47,0.68,1.1,1076.51,-1250.18,-1306.33,0.0,328.0,146.0,661.0,0.0,0.0,0.0,0.0,0.0,0.0,0.0,0.0,0.0,0.0,0.0,0.0,0.0,0.0
115.0,10395.0,12288.291474799766,1831.8500174257667,-0.0,0.0,0.0,0.0,4915.598218776437,0.0,0.0,0.0,4915.598218776437,0.0,0.49287209353494266,0.5021548173706348,0.0,0.0,0.0,"[0.5708851791640441, 0.8255351221556779, 1.174279765827059, 0.8952768720838229, 1.254475970223968, 0.37799413024442075, 1.1884167927938023, 0.9282714147992479, 0.7872252208912016]",21.56,0.0,0.0,0.0,2714.9446996901966,232.77477514152724,-1698.532170548302,-340.92194815535623,755.2990515537382,0.0,0.0,0.0,0.0,0.0,0.0,1.3,21.453674991441957,0.0,21.157294324248177,0.0,1.3,21.56,20.22,22.09,21.12,21.84,0.88,1.3,0.0,-1179.74,-1232.73,0.0,290.0,155.0,1816.0,0.0,0.0,0.0,0.0,0.0,0.0,0.0,0.0,0.0,0.0,0.0,0.0,0.0,0.0
116.0,6593.0,20198.39696418305,1953.3845711988681,-0.0,0.0,-11551.020408163267,0.0,5260.347043273993,0.0,0.0,0.0,5260.347043273993,1.0,0.49287209353494266,0.5021548173706335,0.0,0.0,0.0,"[0.2504294475941613, 0.8255351221556779, 1.1742797658270554, 0.4836424473117731, 0.684400037257042, 0.3395809916975594, 0.6090946900673124, 0.4708451411992485, 0.668182252811949]",22.16,0.0,0.0,0.0,1994.3476682456705,185.32667948917756,-1740.5840416591177,-1550.994800760004,0.0,0.0,0.0,0.0,0.0,0.0,0.0,1.4,21.612590993198207,0.0,21.153276777525512,0.0,1.4,22.16,20.23,22.08,21.45,22.09,0.99,1.4,0.0,-1208.95,-1263.25,0.0,186.0,154.0,1344.0,0.0,0.0,0.0,0.0,0.0,0.0,0.0,0.0,0.0,0.0,0.0,0.0,0.0,0.0
117.0,5780.0,3137.849054096364,0.0,-0.0,0.0,2657.840191174118,0.0,29402.146909256044,0.0,29402.146909256047,0.0,0.0,0.8995525248989373,0.3817528686322365,0.46855601199482466,0.0,0.0,0.0,"[0.2504294475941613, 0.8255351221556779, 1.1742797658270554, 0.4836424473117731, 0.684400037257042, 0.3395809916975594, 0.6090946900673124, 0.4708451411992485, 0.668182252811949]",21.75,0.0,0.0,0.0,1479.1315889201487,187.71459018540696,-1689.179602905563,-772.3217615726004,2179.0611387154636,0.0,0.0,0.0,0.0,0.0,0.0,1.6,21.484038962467125,0.0,21.136203075905257,0.0,1.6,21.75,20.23,22.04,21.19,21.87,1.18,1.6,0.0,-1173.24,-1225.94,0.0,300.0,119.0,911.0,0.0,0.0,0.0,0.0,0.0,0.0,0.0,0.0,0.0,0.0,0.0,0.0,0.0,0.0
118.0,3637.0,0.0,0.0,-0.0,0.0,3637.0,0.0,11480.564999905217,0.0,11480.564999905217,0.0,0.0,0.762099766017607,0.33836448994778745,0.447650088649876,0.0,0.0,0.0,"[0.2504294475941613, 0.8255351221556779, 1.1742797658270554, 0.4836424473117731, 0.684400037257042, 0.3395809916975594, 0.6090946900673124, 0.4708451411992485, 0.668182252811949]",22.25,0.0,0.0,0.0,1046.5574069071452,208.46150259810096,-1722.7844218089876,-1723.3803996607526,841.8661456133619,0.0,0.0,0.0,0.0,0.0,0.0,1.7,21.63697802061926,0.0,21.158996169575495,0.0,1.7,22.25,20.25,22.06,21.62,22.2,1.27,1.7,1277.71,-1196.58,-1250.33,0.0,438.0,101.0,524.0,0.0,0.0,0.0,0.0,0.0,0.0,0.0,0.0,0.0,0.0,0.0,0.0,0.0,0.0
119.0,2621.0,0.0,5429.089210241728,-0.0,0.0,8050.089210241728,0.0,14878.99624310292,0.0,0.0,0.0,14878.996243102918,0.45786359027150986,0.33836448994778745,0.447650088649876,0.0,0.0,0.0,"[0.2504294475941613, 0.8255351221556779, 1.1742797658270554, 0.4836424473117731, 0.684400037257042, 0.3395809916975594, 0.6090946900673124, 0.4708451411992485, 0.668182252811949]",21.75,0.0,0.0,0.0,478.43035674129095,159.8349575112485,-1664.0299909297805,-738.4795459864795,1778.4156800222677,0.0,0.0,0.0,0.0,0.0,0.0,1.9,21.49618824377565,0.0,21.156564099174602,0.0,1.9,21.75,20.26,22.05,21.29,21.94,1.47,1.9,1737.29,-1155.77,-1207.69,0.0,390.0,62.0,138.0,0.0,0.0,0.0,0.0,0.0,0.0,0.0,0.0,0.0,0.0,0.0,0.0,0.0,0.0
120.0,2665.0,0.0,9450.07059858415,-0.0,0.0,12115.07059858415,0.0,25538.561586942702,0.0,0.0,0.0,25538.561586942706,0.0,0.33836448994778745,0.447650088649876,0.0,0.0,0.0,"[0.2504294475941613, 0.8255351221556779, 1.1742797658270554, 0.4836424473117731, 0.684400037257042, 0.3395809916975594, 0.6090946900673124, 0.4708451411992485, 0.668182252811949]",21.75,0.0,0.0,0.0,563.9517626709711,83.29776792301386,-1697.5628068974909,-750.1398441800427,3175.601158241193,0.0,0.0,0.0,0.0,0.0,0.0,1.5,21.49227855802884,0.0,21.15413879011757,0.0,1.5,21.75,20.27,22.04,21.37,21.99,1.04,1.5,336.91,-1179.06,-1232.02,0.0,240.0,0.0,286.0,0.0,0.0,0.0,0.0,0.0,0.0,0.0,0.0,0.0,0.0,0.0,0.0,0.0,0.0
121.0,1424.0,9809.318850556261,8336.27225630348,-0.0,0.0,0.0,0.0,22290.13480280414,0.0,0.0,0.0,22290.134802804147,0.0,0.33836448994778745,0.4454101682914887,0.0,0.0,0.0,"[0.2504294475941613, 0.8255351221556779, 1.1742797658270554, 0.4836424473117731, 0.684400037257042, 0.3395809916975594, 0.6090946900673124, 0.4708451411992485, 0.668182252811949]",22.25,0.0,0.0,0.0,306.81164315849867,77.46754440494739,-1764.7004417686258,-1683.9645072780934,3071.254271471948,0.0,0.0,0.0,0.0,0.0,0.0,1.2,21.651867533002697,0.0,21.18463960491342,0.0,1.2,22.25,20.3,22.07,21.7,22.25,0.73,1.2,0.0,-1225.7,-1280.75,0.0,240.0,0.0,98.0,0.0,0.0,0.0,0.0,0.0,0.0,0.0,0.0,0.0,0.0,0.0,0.0,0.0,0.0
122.0,2000.0,24377.122885769888,6255.237271341037,-0.0,0.0,-16000.0,0.0,16487.17878473689,0.0,0.0,0.0,16487.17878473689,0.5807407407407407,0.33836448994778745,0.4454101682914887,0.0,0.0,0.0,"[0.2504294475941613, 0.8255351221556779, 1.1742797658270554, 0.4836424473117731, 0.684400037257042, 0.3395809916975594, 0.6090946900673124, 0.4708451411992485, 0.668182252811949]",22.25,0.0,0.0,0.0,334.1669750215276,78.08778094942254,-1798.2332577363363,-1607.6097059313568,1632.7491074815525,0.0,0.0,0.0,0.0,0.0,0.0,0.8,21.680166797400705,0.0,21.221887845810567,0.0,0.8,22.25,20.33,22.11,21.71,22.27,0.32,0.8,1373.1,-1248.99,-1305.09,0.0,240.0,0.0,118.0,0.0,0.0,0.0,0.0,0.0,0.0,0.0,0.0,0.0,0.0,0.0,0.0,0.0,0.0
123.0,2055.0,34528.76826362187,29131.662015657846,-0.0,0.0,-3169.4624066459114,0.0,76505.76436599543,0.0,0.0,0.0,76505.76436599545,0.695780487352333,0.33836448994778745,0.4454101682914887,0.0,0.0,0.0,"[0.2504294475941613, 0.8255351221556779, 1.1742797658270554, 0.4836424473117731, 0.684400037257042, 0.3395809916975594, 0.6090946900673124, 0.4708451411992485, 0.668182252811949]",21.75,0.0,0.0,0.0,321.8570756831646,77.80867450440873,-1764.628438832912,-623.2669659695247,3362.891012520973,0.0,0.0,0.0,0.0,0.0,0.0,0.7,21.539430404963763,0.0,21.21836805046417,0.0,0.7,21.75,20.33,22.1,21.36,22.01,0.22,0.7,1428.69,-1225.65,-1280.7,0.0,240.0,0.0,109.0,0.0,0.0,0.0,0.0,0.0,0.0,0.0,0.0,0.0,0.0,0.0,0.0,0.0,0.0
124.0,2919.0,0.0,3165.0573262134058,-0.0,0.0,6084.057326213406,0.0,11565.411657542983,0.0,3313.664001189868,0.0,8251.747656353116,0.4658463480396571,0.3258411944028522,0.4375704470371333,0.0,0.0,0.0,"[0.2504294475941613, 0.8255351221556779, 1.1742797658270554, 0.4836424473117731, 0.684400037257042, 0.3395809916975594, 0.6090946900673124, 0.4708451411992485, 0.668182252811949]",22.25,0.0,0.0,0.0,431.0624399889934,84.72431197530675,-1823.3828697121057,-1563.6815033214807,1511.0269360417321,0.0,0.0,0.0,0.0,0.0,0.0,0.5,21.69649614657301,0.0,21.245016769550126,0.0,0.5,22.25,20.36,22.13,21.75,22.31,0.03,0.5,1536.88,-1266.45,-1323.34,0.0,240.0,8.0,188.0,0.0,0.0,0.0,0.0,0.0,0.0,0.0,0.0,0.0,0.0,0.0,0.0,0.0,0.0
125.0,4397.0,0.0,7929.294369129326,-0.0,0.0,12326.294369129326,0.0,20521.59597602303,0.0,0.0,0.0,20521.59597602303,0.0,0.3258411944028522,0.4375704470371333,0.0,0.0,0.0,"[0.2504294475941613, 0.8255351221556779, 1.1742797658270554, 0.4836424473117731, 0.684400037257042, 0.3395809916975594, 0.6090946900673124, 0.4708451411992485, 0.668182252811949]",21.75,0.0,0.0,0.0,330.3516261037894,110.74323501603966,-1798.1612548006224,-586.3006937772907,3320.9485244711145,0.0,0.0,0.0,0.0,0.0,0.0,0.3,21.55329149143617,0.0,21.23808097139072,0.0,0.3,21.75,20.36,22.12,21.37,22.01,-0.17,0.3,2808.58,-1248.94,-1305.03,0.0,240.0,59.0,109.0,0.0,0.0,0.0,0.0,0.0,0.0,0.0,0.0,0.0,0.0,0.0,0.0,0.0,0.0
126.0,1401.0,5804.24906866678,4374.227823323446,-0.0,0.0,0.0,0.0,11279.121895255119,0.0,0.0,0.0,11279.121895255119,0.0,0.3258411944028522,0.4375704470371333,0.0,0.0,0.0,"[0.2504294475941613, 0.8255351221556779, 1.1742797658270554, 0.4836424473117731, 0.684400037257042, 0.3395809916975594, 0.6090946900673124, 0.4708451411992485, 0.668182252811949]",22.25,0.0,0.0,0.0,440.7807815719116,189.07911058325226,-1848.5324816879024,-1528.5463812699916,1396.2207021525912,0.0,0.0,0.0,0.0,0.0,0.0,0.2,21.70960557102593,0.0,21.26342133318264,0.0,0.2,22.25,20.38,22.15,21.77,22.32,-0.26,0.2,337.44,-1283.92,-1341.59,0.0,381.0,121.0,109.0,0.0,0.0,0.0,0.0,0.0,0.0,0.0,0.0,0.0,0.0,0.0,0.0,0.0,0.0
127.0,1808.0,21466.67110681856,11870.09824803055,-0.0,0.0,-7681.239503253917,0.0,30494.363159684995,0.0,0.0,0.0,30494.363159684995,0.27880054493291995,0.3258411944028522,0.4375704470371333,0.0,0.0,0.0,"[0.2504294475941613, 0.8255351221556779, 1.1742797658270554, 0.4836424473117731, 0.684400037257042, 0.3395809916975594, 0.6090946900673124, 0.4708451411992485, 0.668182252811949]",21.75,0.0,0.0,0.0,368.36113985031386,148.94980615570947,-1814.927662784478,-548.2935149583343,3226.8791804816337,0.0,0.0,0.0,0.0,0.0,0.0,0.1,21.567378843051703,0.0,21.257505759421527,0.0,0.1,21.75,20.37,22.14,21.4,22.04,-0.37,0.1,1469.13,-1260.58,-1317.2,0.0,284.0,103.0,109.0,0.0,0.0,0.0,0.0,0.0,0.0,0.0,0.0,0.0,0.0,0.0,0.0,0.0,0.0
128.0,1933.0,1467.0662269727798,2485.3966573814887,-0.0,0.0,2958.665761543573,0.0,6408.69497175995,0.0,0.0,0.0,6408.69497175995,0.0,0.3258411944028522,0.4375704470371333,0.0,0.0,0.0,"[0.2504294475941613, 0.7986582040082624, 1.1742797658270554, 0.4836424473117731, 0.684400037257042, 0.3395809916975594, 0.6090946900673124, 0.4708451411992485, 0.668182252811949]",22.25,0.0,0.0,3.328147573670131,191.0553967486287,39.26097326527757,-1848.5324816879024,-1492.5775391115085,1743.0547901554164,0.0,0.0,0.0,0.0,0.0,0.0,0.2,21.722759900594852,0.0,21.281510504069637,0.0,0.2,22.25,20.39,22.17,21.78,22.34,-0.24,0.2,1502.36,-1283.92,-1341.59,5.37,83.0,19.0,94.0,0.0,0.0,0.0,0.0,0.0,0.0,0.0,0.0,0.0,0.0,0.0,0.0,0.0,0.0
129.0,3434.0,0.0,3730.761496937986,-0.0,7164.761496937986,0.0,0.0,10544.647014041184,0.0,0.0,0.0,10544.647014041186,0.0,0.3258411944028522,0.4375704470371333,0.0,0.0,0.0,"[0.2504294475941613, 0.7986582040082624, 1.1742797658270554, 0.4836424473117731, 0.684400037257042, 0.3395809916975594, 0.6090946900673124, 0.4708451411992485, 0.668182252811949]",21.75,0.0,0.0,658.3158334087442,123.0989933836304,2.791064450138216,-1588.5811550024316,-510.6229991159692,1291.1004002848695,0.0,0.0,0.0,0.0,0.0,0.0,2.8,21.578495427797414,0.0,21.272940425887167,0.0,2.8,21.75,20.39,22.16,21.4,22.04,2.82,2.8,759.21,-1103.37,-1152.93,1061.39,0.0,0.0,90.0,0.0,0.0,0.0,0.0,0.0,0.0,0.0,0.0,0.0,0.0,0.0,0.0,0.0,0.0
130.0,2662.0,0.0,1929.9849692905636,-14664.180574608723,19256.165543899286,0.0,0.0,5914.899745203791,0.0,0.0,0.0,5914.899745203791,0.0,0.3258411944028522,0.4726214152398566,0.0,0.0,0.0,"[0.2504294475941613, 0.7986582040082624, 1.1742797658270554, 0.4836424473117731, 0.684400037257042, 0.3395809916975594, 0.6090946900673124, 0.4708451411992485, 0.668182252811949]",21.75,0.0,0.0,1233.6422135490343,140.8799590945992,3.1942182040470666,-1379.0010552042404,-496.47423414249124,452.90618376231544,0.0,0.0,0.0,0.0,0.0,0.0,5.3,21.581271636095078,0.0,21.27928699204284,0.0,5.3,21.75,20.41,22.15,21.51,22.14,5.68,5.3,0.0,-957.8,-1000.82,1988.99,0.0,0.0,103.0,0.0,0.0,0.0,0.0,0.0,0.0,0.0,0.0,0.0,0.0,0.0,0.0,0.0,0.0
131.0,4335.0,0.0,5321.618615037894,-0.0,19497.19043369976,-9840.571818661867,0.0,17070.360196342033,0.0,0.0,0.0,17070.360196342033,0.3571763104551344,0.3258411944028522,0.4726214152398566,0.0,0.0,0.0,"[0.2504294475941613, 0.7986582040082624, 1.1742797658270554, 0.4836424473117731, 0.684400037257042, 0.3395809916975594, 0.6090946900673124, 0.4708451411992485, 0.668182252811949]",21.75,0.0,0.0,1113.6707254381975,461.8011944771865,45.432326882805405,-1253.2529953253259,-450.42276463356836,45.87893112124713,0.0,0.0,0.0,0.0,0.0,0.0,6.8,21.596946849825315,0.0,21.303740284748486,0.0,6.8,21.75,20.44,22.17,21.59,22.22,7.09,6.8,0.0,-870.46,-909.56,1795.56,119.0,0.0,275.0,0.0,0.0,0.0,0.0,0.0,0.0,0.0,0.0,0.0,0.0,0.0,0.0,0.0,0.0
132.0,4842.0,0.0,2586.0855434261575,-11921.62480083304,19349.710344259198,0.0,0.0,8542.025284539634,0.0,0.0,0.0,8542.025284539634,0.3571763104551344,0.3258411944028522,0.5011170062272137,0.0,0.0,0.0,"[0.2504294475941613, 0.7986582040082624, 1.1742797658270554, 0.4836424473117731, 0.684400037257042, 0.3395809916975594, 0.6090946900673124, 0.4708451411992485, 0.668182252811949]",21.75,0.0,0.0,1081.0727213712426,1741.8147625206552,89.43810971331794,-1169.4209554060496,-420.42718995955613,0.0,0.0,0.0,0.0,0.0,0.0,0.0,7.8,21.607101440507297,0.0,21.322263087440827,0.0,7.8,21.75,20.48,22.17,21.56,22.18,8.08,7.8,0.0,-812.24,-848.72,1743.0,170.0,0.0,1184.0,0.0,0.0,0.0,0.0,0.0,0.0,0.0,0.0,0.0,0.0,0.0,0.0,0.0,0.0
133.0,6085.0,0.0,3182.18000523473,-8886.52983477311,18153.70984000784,0.0,0.0,10632.314667594457,0.0,0.0,0.0,10632.314667594459,0.3571763104551344,0.3258411944028522,0.5223579799786225,0.0,0.0,0.0,"[0.2504294475941613, 0.7986582040082624, 1.1742797658270554, 0.4836424473117731, 0.684400037257042, 0.3395809916975594, 0.6090946900673124, 0.4708451411992485, 0.668182252811949]",22.25,0.0,0.0,1088.0632975567798,1299.8101897864506,122.31064657050136,-1177.4660140566293,-1334.71312098435,-14.351758287349162,0.0,0.0,0.0,0.0,0.0,0.0,8.2,21.7683031745857,0.0,21.360805568731635,0.0,8.2,22.25,20.53,22.19,21.79,22.35,8.53,8.2,0.0,-817.82,-854.56,1754.27,316.0,0.0,784.0,0.0,0.0,0.0,0.0,0.0,0.0,0.0,0.0,0.0,0.0,0.0,0.0,0.0,0.0
134.0,4486.0,0.0,888.9140758405853,-8990.120635116884,16075.483300458869,-1710.4485895014004,0.0,2970.043853975467,0.0,0.0,0.0,2970.043853975467,0.41925925925925933,0.3258411944028522,0.5438465610089019,0.0,0.0,0.0,"[0.2504294475941613, 0.7986582040082624, 1.1742797658270554, 0.4836424473117731, 0.684400037257042, 0.3395809916975594, 0.6090946900673124, 0.4708451411992485, 0.668182252811949]",22.25,0.0,0.0,1097.394914182644,1268.1355949976798,119.82970039260073,-1177.876162333691,-1249.158539981715,-89.3778080832871,0.0,0.0,0.0,0.0,0.0,0.0,8.2,21.804565281234886,0.0,21.411113331089012,0.0,8.2,22.25,20.59,22.24,21.84,22.39,8.49,8.2,0.0,-818.11,-854.86,1769.32,310.0,0.0,764.0,0.0,0.0,0.0,0.0,0.0,0.0,0.0,0.0,0.0,0.0,0.0,0.0,0.0,0.0
135.0,5544.0,14571.408394480064,2400.0845555711394,-0.0,9445.533203063476,-16000.0,0.0,7790.366279095962,0.0,0.0,0.0,7790.3662790959615,1.0,0.3258411944028522,0.5438465610089019,0.0,0.0,0.0,"[0.2504294475941613, 0.7986582040082624, 1.1742797658270554, 0.4836424473117731, 0.684400037257042, 0.3395809916975594, 0.6090946900673124, 0.4708451411992485, 0.668182252811949]",22.25,0.0,0.0,1196.7580897827036,2306.1984514842006,142.77845253818163,-1261.7082022529673,-1161.443226089034,-1256.3097564874422,0.0,0.0,0.0,0.0,0.0,0.0,7.2,21.837481645808836,0.0,21.45869814390344,0.0,7.2,22.25,20.64,22.28,21.87,22.42,7.54,7.2,50.17,-876.34,-915.7,1929.52,308.0,0.0,1524.0,0.0,0.0,0.0,0.0,0.0,0.0,0.0,0.0,0.0,0.0,0.0,0.0,0.0,0.0
136.0,5171.0,0.0,1923.1457302062086,-0.0,0.0,7094.145730206208,0.0,5985.608956261761,0.0,0.0,0.0,5985.608956261761,0.7318916957594026,0.3258411944028522,0.5438465610089019,0.0,0.0,0.0,"[0.2504294475941613, 0.7986582040082624, 1.1742797658270554, 0.4836424473117731, 0.684400037257042, 0.3395809916975594, 0.6090946900673124, 0.4708451411992485, 0.668182252811949]",22.25,0.0,0.0,0.0,2130.0445118293796,164.0835778409034,-1379.0730581399546,-1075.6186259179872,0.0,0.0,0.0,0.0,0.0,0.0,0.0,5.8,21.87081983795791,0.0,21.50586351606492,0.0,5.8,22.25,20.69,22.32,21.94,22.48,5.27,5.8,0.0,-957.85,-1000.88,0.0,260.0,71.0,1413.0,0.0,0.0,0.0,0.0,0.0,0.0,0.0,0.0,0.0,0.0,0.0,0.0,0.0,0.0
137.0,7801.0,10156.972864489262,2305.1880001668164,-0.0,0.0,0.0,0.0,7086.775082139864,0.0,0.0,0.0,7086.775082139863,0.7318916957594026,0.3258411944028522,0.5397400403518586,0.0,0.0,0.0,"[0.2504294475941613, 0.7986582040082624, 1.1742797658270554, 0.4836424473117731, 0.684400037257042, 0.3395809916975594, 0.6090946900673124, 0.4708451411992485, 0.668182252811949]",22.19,0.0,0.0,0.0,2268.404900883963,257.05703585772966,-1407.230236516069,-975.5929590368705,55.264471151776114,0.0,0.0,0.0,0.0,0.0,0.0,5.4,21.84360883020267,0.0,21.49723648969023,0.0,5.4,22.19,20.7,22.29,21.61,22.19,4.87,5.4,0.0,-977.41,-1021.31,0.0,324.0,199.0,1467.0,0.0,0.0,0.0,0.0,0.0,0.0,0.0,0.0,0.0,0.0,0.0,0.0,0.0,0.0
138.0,8706.0,0.0,1563.6295542378523,-0.0,0.0,10269.629554237852,0.0,4747.396422873162,0.0,0.0,0.0,4747.396422873162,0.343772664986997,0.3258411944028522,0.531526999037772,0.0,0.0,0.0,"[0.2504294475941613, 0.7986582040082624, 1.1742797658270554, 0.4836424473117731, 0.684400037257042, 0.3395809916975594, 0.6090946900673124, 0.4708451411992485, 0.668182252811949]",22.25,0.0,0.0,0.0,975.7934826404152,263.7555905380614,-1446.1386900753755,-1117.19749416313,0.0,0.0,0.0,0.0,0.0,0.0,0.0,5.0,21.85625008885297,0.0,21.49404220409527,0.0,5.0,22.25,20.71,22.28,21.67,22.23,4.49,5.0,0.0,-1004.43,-1049.55,0.0,303.0,275.0,525.0,0.0,0.0,0.0,0.0,0.0,0.0,0.0,0.0,0.0,0.0,0.0,0.0,0.0,0.0
139.0,7904.0,0.0,1192.2247155559403,-0.0,0.0,9096.22471555594,0.0,3574.296389969433,0.0,0.0,0.0,3574.296389969433,0.0,0.3258411944028522,0.5147275963498675,0.0,0.0,0.0,"[0.2504294475941613, 0.7986582040082624, 1.1742797658270554, 0.4836424473117731, 0.684400037257042, 0.3395809916975594, 0.6090946900673124, 0.4708451411992485, 0.668182252811949]",21.76,0.0,0.0,0.0,1225.4468797482689,240.55874377469047,-1438.315565125849,-188.60403616638888,329.53478413922255,0.0,0.0,0.0,0.0,0.0,0.0,4.6,21.70287416419326,0.0,21.473059479515292,0.0,4.6,21.76,20.71,22.24,21.46,22.04,4.11,4.6,2025.6,-999.0,-1043.87,0.0,303.0,223.0,713.0,0.0,0.0,0.0,0.0,0.0,0.0,0.0,0.0,0.0,0.0,0.0,0.0,0.0,0.0
140.0,5625.0,33879.07103495833,15157.681727131347,-0.0,0.0,-5578.563952652195,0.0,15471.083581407343,36742.15,0.0,0.0,44864.803581407345,0.7832219508740426,0.3258411944028522,0.510247755633093,29393.72,7348.43,36742.15,"[0.1889529059817292, 0.7986582040082659, 0.7099861935563077, 0.4836424473117731, 0.684400037257042, 0.3395809916975594, 0.6090946900673124, 0.4708451411992485, 0.6681822528119525]",21.81,0.0,0.0,0.0,1726.1934282725574,248.74586616176262,-1476.3700030059968,-356.61113255259573,0.0,0.0,0.0,0.0,0.0,0.0,0.0,4.2,21.695651364365283,0.0,21.44718985724204,0.0,4.2,21.81,20.7,22.2,21.49,22.05,3.73,4.2,0.0,-1025.43,-1071.49,0.0,432.0,149.0,1019.0,0.0,0.0,0.0,0.0,0.0,0.0,0.0,0.0,0.0,0.0,0.0,0.0,0.0,0.0
141.0,5486.0,0.0,4144.452820127166,-0.0,0.0,9630.452820127166,0.0,12109.010095314841,0.0,0.0,0.0,12109.010095314841,0.41925925925925933,0.3258411944028522,0.5024080343787376,0.0,0.0,0.0,"[0.1889529059817292, 0.7986582040082659, 0.7099861935563077, 0.4836424473117731, 0.684400037257042, 0.3395809916975594, 0.6090946900673124, 0.4708451411992485, 0.6681822528119525]",21.85,0.0,0.0,0.0,1596.7595159311727,207.74823057195456,-1513.5836584557842,-503.65854999202105,111.2504692152052,0.0,0.0,0.0,0.0,0.0,0.0,3.8,21.68606597986377,0.0,21.4211492083438,0.0,3.8,21.85,20.68,22.16,21.47,22.02,3.36,3.8,0.0,-1051.28,-1098.5,0.0,327.0,136.0,981.0,0.0,0.0,0.0,0.0,0.0,0.0,0.0,0.0,0.0,0.0,0.0,0.0,0.0,0.0
142.0,4414.0,66323.24457745867,0.0,-26376.98020264804,0.0,-16000.0,0.0,17280.58333673099,0.0,0.0,0.0,0.0,1.0,0.3258411944028522,0.48108511697361855,76802.59260769332,19200.64815192333,96003.24075961664,"[0.1889529059817292, 0.7986582040082659, 0.7099861935563077, 0.4836424473117731, 0.684400037257042, 0.3395809916975594, 0.6090946900673124, 0.4708451411992485, 0.6681822528119525]",21.81,0.0,0.0,0.0,1029.712281496754,152.4541426319941,-1543.4356349414181,-474.9290927657265,1881.7134724009386,0.0,0.0,0.0,0.0,0.0,0.0,3.4,21.65298062534924,0.0,21.39513080154497,0.0,3.4,21.81,20.67,22.12,21.44,21.98,2.95,3.4,61.94,-1072.01,-1120.17,0.0,243.0,104.0,614.0,0.0,0.0,0.0,0.0,0.0,0.0,0.0,0.0,0.0,0.0,0.0,0.0,0.0,0.0
143.0,3046.0,0.0,4903.86958618764,-0.0,0.0,7949.86958618764,0.0,13953.827048741497,0.0,0.0,0.0,13953.827048741497,0.6995514139762797,0.3258411944028522,0.4810851169736186,0.0,0.0,0.0,"[0.1889529059817292, 0.7986582040082659, 0.7099861935563077, 0.4836424473117731, 0.684400037257042, 0.3395809916975594, 0.6090946900673124, 0.4708451411992485, 0.6681822528119525]",22.19,0.0,0.0,0.0,1135.1742846002735,124.38843899449317,-1608.6490660233758,-1207.918767548336,1568.0337703310688,0.0,0.0,0.0,0.0,0.0,0.0,3.0,21.763130166537564,0.0,21.403799787228103,0.0,3.0,22.19,20.68,22.13,21.75,22.22,2.55,3.0,464.33,-1117.31,-1167.49,0.0,315.0,11.0,663.0,0.0,0.0,0.0,0.0,0.0,0.0,0.0,0.0,0.0,0.0,0.0,0.0,0.0,0.0
144.0,2517.0,17525.149556749686,6642.858683822621,-0.0,0.0,-8277.665125143314,0.0,18585.43100541556,0.0,0.0,0.0,18585.43100541556,1.0,0.3258411944028522,0.4810851169736186,0.0,0.0,0.0,"[0.1889529059817292, 0.7986582040082659, 0.7099861935563077, 0.4836424473117731, 0.684400037257042, 0.3395809916975594, 0.6090946900673124, 0.4708451411992485, 0.6681822528119525]",22.19,0.0,0.0,0.0,985.2958610770463,98.40052778098402,-1650.565085983014,-1186.2376397876333,1761.830829384231,0.0,0.0,0.0,0.0,0.0,0.0,2.5,21.771468080520126,0.0,21.413957193240137,0.0,2.5,22.19,20.68,22.15,21.71,22.2,2.08,2.5,0.0,-1146.42,-1197.92,0.0,240.0,10.0,593.0,0.0,0.0,0.0,0.0,0.0,0.0,0.0,0.0,0.0,0.0,0.0,0.0,0.0,0.0
145.0,1582.0,7416.020080115466,5796.939979714889,-0.0,0.0,0.0,0.0,15997.658405237002,0.0,0.0,0.0,15997.658405237,1.0,0.3258411944028522,0.4810851169736186,0.0,0.0,0.0,"[0.1889529059817292, 0.7986582040082659, 0.7099861935563077, 0.4836424473117731, 0.684400037257042, 0.3395809916975594, 0.6090946900673124, 0.4708451411992485, 0.6681822528119525]",22.19,0.0,0.0,0.0,431.2784031352805,80.28962068230936,-1684.0979019507245,-1164.6433366238534,1312.2938215409379,0.0,0.0,0.0,0.0,0.0,0.0,2.1,21.779686097463124,0.0,21.423653024870273,0.0,2.1,22.19,20.68,22.16,21.73,22.22,1.71,2.1,2045.49,-1169.71,-1222.25,0.0,240.0,0.0,189.0,0.0,0.0,0.0,0.0,0.0,0.0,0.0,0.0,0.0,0.0,0.0,0.0,0.0,0.0
146.0,1351.0,0.0,7319.982757821855,-0.0,0.0,8670.982757821854,0.0,19851.840138427106,0.0,0.0,0.0,19851.840138427106,0.6722984596439209,0.3258411944028522,0.4810851169736186,0.0,0.0,0.0,"[0.1889529059817292, 0.7986582040082659, 0.7099861935563077, 0.4836424473117731, 0.684400037257042, 0.3395809916975594, 0.6090946900673124, 0.4708451411992485, 0.6681822528119525]",21.81,0.0,0.0,0.0,513.3443987243675,82.15033031573482,-1694.3333067961155,-440.3138064403913,2458.530613708469,0.0,0.0,0.0,0.0,0.0,0.0,1.6,21.667102437792913,0.0,21.411072788538927,0.0,1.6,21.81,20.67,22.15,21.52,22.05,1.23,1.6,755.04,-1176.82,-1229.68,0.0,240.0,0.0,249.0,0.0,0.0,0.0,0.0,0.0,0.0,0.0,0.0,0.0,0.0,0.0,0.0,0.0,0.0
147.0,2299.0,0.0,2926.509483006893,-0.0,0.0,5225.509483006893,0.0,7880.913842070759,0.0,0.0,0.0,7880.913842070759,0.4748113287668652,0.3258411944028522,0.47959183673469374,0.0,0.0,0.0,"[0.1889529059817292, 0.7986582040082659, 0.7099861935563077, 0.4836424473117731, 0.684400037257042, 0.3395809916975594, 0.6090946900673124, 0.4708451411992485, 0.6681822528119525]",22.15,0.0,0.0,0.0,485.9890668613384,81.53009377125967,-1739.099490412131,-1088.593302833627,2387.3059284552032,0.0,0.0,0.0,0.0,0.0,0.0,1.4,21.76416535318219,0.0,21.4171746140686,0.0,1.4,22.15,20.67,22.16,21.76,22.25,1.02,1.4,1356.17,-1207.91,-1262.17,0.0,240.0,0.0,229.0,0.0,0.0,0.0,0.0,0.0,0.0,0.0,0.0,0.0,0.0,0.0,0.0,0.0,0.0
148.0,901.0,9057.76133638732,8111.472529705384,-0.0,0.0,0.0,0.0,21689.04884310362,0.0,0.0,0.0,21689.048843103617,0.4748113287668652,0.3258411944028522,0.4751119960179192,0.0,0.0,0.0,"[0.1889529059817292, 0.7986582040082659, 0.7099861935563077, 0.4836424473117731, 0.684400037257042, 0.3395809916975594, 0.6090946900673124, 0.4708451411992485, 0.6681822528119525]",22.19,0.0,0.0,0.0,345.2530831975973,78.89408845724023,-1759.5467378780734,-1145.0234423298073,1455.4198831714623,0.0,0.0,0.0,0.0,0.0,0.0,1.2,21.787586764724075,0.0,21.430296174067866,0.0,1.2,22.19,20.68,22.19,21.78,22.27,0.85,1.2,768.94,-1222.12,-1277.01,0.0,240.0,1.0,126.0,0.0,0.0,0.0,0.0,0.0,0.0,0.0,0.0,0.0,0.0,0.0,0.0,0.0,0.0
149.0,963.0,7713.544407018607,6711.976684983514,-0.0,0.0,0.0,0.0,17755.01243844813,0.0,0.0,0.0,17755.01243844813,0.4748113287668652,0.3258411944028522,0.4751119960179192,0.0,0.0,0.0,"[0.1889529059817292, 0.7986582040082659, 0.7099861935563077, 0.4836424473117731, 0.684400037257042, 0.3395809916975594, 0.6090946900673124, 0.4708451411992485, 0.6681822528119525]",21.81,0.0,0.0,0.0,300.47672420074457,82.6775313785387,-1753.0157347396093,-421.7013484491379,1798.8932710161155,0.0,0.0,0.0,0.0,0.0,0.0,0.9,21.674478948762008,0.0,21.41667258848828,0.0,0.9,21.81,20.66,22.17,21.53,22.08,0.56,0.9,0.0,-1217.58,-1272.27,0.0,160.0,52.0,130.0,0.0,0.0,0.0,0.0,0.0,0.0,0.0,0.0,0.0,0.0,0.0,0.0,0.0,0.0
150.0,1676.0,25212.884693157175,23410.82026969139,-0.0,0.0,0.0,0.0,13722.306219077158,0.0,-47982.528072683584,0.0,61704.83429176074,0.4748113287668652,0.5,0.4751119960179192,0.0,0.0,0.0,"[0.1889529059817292, 0.7986582040082659, 0.7099861935563077, 0.4836424473117731, 0.684400037257042, 0.3395809916975594, 0.6090946900673124, 0.4708451411992485, 0.6681822528119525]",21.81,0.0,0.0,0.0,338.9901519552722,126.8693851723938,-1761.3989387315366,-456.19112090043257,1762.9791511526917,0.0,0.0,0.0,0.0,0.0,0.0,0.8,21.661916427686883,0.0,21.399444941690895,0.0,0.8,21.81,20.64,22.15,21.55,22.09,0.48,0.8,1674.14,-1223.4,-1278.35,0.0,298.0,57.0,85.0,0.0,0.0,0.0,0.0,0.0,0.0,0.0,0.0,0.0,0.0,0.0,0.0,0.0,0.0
151.0,1234.0,10898.529102790268,9610.036457276316,-0.0,0.0,0.0,0.0,25146.32617623119,0.0,0.0,0.0,25146.32617623119,0.4748113287668652,0.5,0.4751119960179192,0.0,0.0,0.0,"[0.1889529059817292, 0.7986582040082659, 0.7099861935563077, 0.4836424473117731, 0.684400037257042, 0.3395809916975594, 0.6090946900673124, 0.4708451411992485, 0.6681822528119525]",21.81,0.0,0.0,0.0,320.8492476671583,86.30591516371841,-1778.1653467153922,-486.0177757165225,2896.678223777531,0.0,0.0,0.0,0.0,0.0,0.0,0.6,21.65115648248395,0.0,21.384458132816867,0.0,0.6,21.81,20.63,22.14,21.55,22.09,0.29,0.6,984.45,-1235.05,-1290.52,0.0,150.0,63.0,149.0,0.0,0.0,0.0,0.0,0.0,0.0,0.0,0.0,0.0,0.0,0.0,0.0,0.0,0.0
