,load_elec,grid,hp_elec,ev,pv,bat_pow,cool,load_th_sh,load_th_dhw,tes_pow,dh,hp_th,bat_soc,tes_soc,ev_soc,eh_th_in,eh_elec_in,eh_th_out,temp_slack,temp_zone_1,temp_zone_2,temp_update,Qsolar_1,QconvInt_1,QradInt_1,Qvent_1,Qconduc_1,Qheating_1,Qsolar_2,QconvInt_2,QradInt_2,Qvent_2,Qconduc_2,Qheating_2,temp_amb,temp_aggregate_1,temp_aggregate_2,temp_wall_1,temp_wall_2,_Tamb,_Tz_1,_TEW_1,_TIW_1,_T1_1,_T2_1,_Taeq_1,_Tvent_1,_Qheating_1,_Qinfvent_1,_Qenvelope_1,_Qsolar_1,_Qint_people_1,_Qint_lighting_1,_Qint_appliances_1,_Tz_2,_TEW_2,_TIW_2,_T1_2,_T2_2,_Taeq_2,_Tvent_2,_Qheating_2,_Qinfvent_2,_Qenvelope_2,_Qsolar_2,_Qint_people_2,_Qint_lighting_2,_Qint_appliances_2
8.0,1837.0,57455.434249391335,55331.15707814438,-0.0,0.0,0.0,0.0,92034.6734051848,0.0,0.0,0.0,92034.67340518479,0.5,0.5,0.8,0.0,0.0,0.0,"[2.0, 2.0, 2.0, 2.0, 2.0, 2.0, 2.0, 2.0, 2.0]",20.0,0.0,0.0,0.9088107161011623,90.27259514799562,2.0467805967680235,-2464.661973626727,-1510.4601714625855,14805.379190962936,0.0,0.0,0.0,0.0,0.0,0.0,-9.4,19.4719638626239,0.0,19.0,0.0,-9.4,20.0,18.0,20.0,20.0,20.0,-9.84,-9.4,2258.3,-1711.86,-1788.75,1.47,0.0,0.0,66.0,0.0,0.0,0.0,0.0,0.0,0.0,0.0,0.0,0.0,0.0,0.0,0.0,0.0,0.0
9.0,1367.0,0.0,0.0,-0.0,14.530506183204698,1352.4694938167952,0.0,18586.67395456879,0.0,18586.673954568785,0.0,0.0,0.4488862625163721,0.4297555784029902,0.8,0.0,0.0,0.0,"[2.0, 2.0, 2.0, 2.0, 2.0, 2.0, 2.0, 2.0, 2.0]",24.0,0.0,0.0,27.061223973311744,106.685794265813,2.4189225234531175,-2732.924501368412,-8781.032283435741,453.68417922911294,0.0,0.0,0.0,0.0,0.0,0.0,-8.6,20.81223267876627,0.0,19.30853703032264,0.0,-8.6,24.0,18.19,20.43,22.33,22.47,-9.02,-8.6,7034.13,-1898.19,-1983.45,43.63,0.0,0.0,78.0,0.0,0.0,0.0,0.0,0.0,0.0,0.0,0.0,0.0,0.0,0.0,0.0,0.0,0.0
10.0,5022.0,36605.43691928206,27805.56747739228,-0.0,697.6082777095382,-4292.45053500291,0.0,51021.608417340816,0.0,0.0,0.0,51021.608417340816,0.6046863189720333,0.4297555784029902,0.7999999999999999,0.0,0.0,0.0,"[2.0, 2.0, 2.0, 2.0, 2.0, 2.0, 2.0, 2.0, 2.0]",20.0,0.0,0.0,73.27655383264855,94.37589492744998,2.139816078439296,-2313.7643017720297,-736.9290924154828,2878.4255080139105,0.0,0.0,0.0,0.0,0.0,0.0,-7.6,19.753715875799735,0.0,19.351464344226436,0.0,-7.6,20.0,18.22,20.48,19.35,20.22,-8.05,-7.6,427.71,-1607.05,-1679.24,118.14,0.0,0.0,69.0,0.0,0.0,0.0,0.0,0.0,0.0,0.0,0.0,0.0,0.0,0.0,0.0,0.0,0.0
11.0,6365.0,42583.3322305691,37910.139295701054,-0.0,1904.7237262847998,0.0,0.0,72454.18532665836,0.0,0.0,0.0,72454.18532665836,0.6046863189720333,0.4297555784029902,0.7999999999999999,0.0,0.0,0.0,"[2.0, 2.0, 2.0, 2.0, 2.0, 2.0, 2.0, 2.0, 2.0]",20.0,0.0,0.0,104.92886973175268,61.5494966918152,1.395532225069108,-2246.698669836608,-764.6964016223321,13763.165062513099,0.0,0.0,0.0,0.0,0.0,0.0,-6.8,19.74285996225974,0.0,19.338778920517505,0.0,-6.8,20.0,18.21,20.46,19.58,20.39,-7.23,-6.8,8525.95,-1560.47,-1630.57,169.18,0.0,0.0,45.0,0.0,0.0,0.0,0.0,0.0,0.0,0.0,0.0,0.0,0.0,0.0,0.0,0.0,0.0
12.0,4112.0,0.0,15796.773186265353,-0.0,3908.773186265353,16000.0,0.0,59810.839170317035,0.0,28716.337035742945,0.0,31094.502134574104,0.0,0.32122822754984226,0.7999999999999999,0.0,0.0,0.0,"[2.0, 2.0, 2.0, 2.0, 2.0, 2.0, 2.0, 2.0, 2.0]",24.0,0.0,0.0,168.86680566484253,84.80152877538983,1.9227332878729908,-2531.7276055621483,-8102.933974408369,10373.098666534202,0.0,0.0,0.0,0.0,0.0,0.0,-6.2,21.058506588423093,0.0,19.620764837225167,0.0,-6.2,24.0,18.41,20.83,22.41,22.68,-6.59,-6.2,1753.92,-1758.44,-1837.43,272.26,0.0,0.0,62.0,0.0,0.0,0.0,0.0,0.0,0.0,0.0,0.0,0.0,0.0,0.0,0.0,0.0,0.0
13.0,8697.0,41085.23002904312,21463.517264641596,-0.0,831.7337939069539,-11551.020408163267,0.0,42453.58747133728,0.0,0.0,0.0,42453.58747133728,0.41925925925925933,0.32122822754984226,0.7999999999999999,0.0,0.0,0.0,"[2.0, 2.0, 2.0, 2.0, 2.0, 2.0, 2.0, 2.0, 2.0]",24.0,0.0,0.0,77.03799020805319,98.4791947069043,2.2328515601105727,-2523.3444015702207,-7435.573891663283,0.0,0.0,0.0,0.0,0.0,0.0,0.0,-6.1,21.302834654234246,0.0,19.931811761265976,0.0,-6.1,24.0,18.63,21.24,22.26,22.72,-6.53,-6.1,3513.43,-1752.62,-1831.34,124.21,0.0,0.0,72.0,0.0,0.0,0.0,0.0,0.0,0.0,0.0,0.0,0.0,0.0,0.0,0.0,0.0,0.0
14.0,9390.0,49673.763881547915,24045.368382508605,-0.0,9.97332036843323,-16000.0,0.0,46414.17927830556,0.0,0.0,0.0,46414.17927830556,1.0,0.32122822754984226,0.7882653061224489,0.0,0.0,0.0,"[2.0, 2.0, 2.0, 2.0, 2.0, 2.0, 2.0, 2.0, 2.0]",20.42,0.0,0.0,24.516397413659654,2159.3435120089925,101.84284060282114,-2265.0748694244776,-293.0252628828416,3300.643424325175,0.0,0.0,0.0,0.0,0.0,0.0,-6.6,20.334952537525687,0.0,19.950171290657757,0.0,-6.6,20.42,18.66,21.24,19.79,20.83,-7.01,-6.6,0.0,-1573.24,-1643.9,39.53,163.0,9.0,1492.0,0.0,0.0,0.0,0.0,0.0,0.0,0.0,0.0,0.0,0.0,0.0,0.0,0.0,0.0
15.0,6629.0,0.0,6091.561576202501,-0.0,0.0,12720.5615762025,0.0,11351.881415343312,0.0,0.0,0.0,11351.881415343312,0.5192531528268141,0.32122822754984226,0.7811224489795918,0.0,0.0,0.0,"[2.0, 2.0, 2.0, 2.0, 2.0, 2.0, 2.0, 2.0, 2.0]",21.53,0.0,0.0,2.706904025770578,1321.2625289842995,81.43705828958839,-2416.469561703918,-2451.666577393497,0.0,0.0,0.0,0.0,0.0,0.0,0.0,-7.3,20.651917392538977,0.0,19.973504179197377,0.0,-7.3,21.53,18.69,21.25,20.6,21.43,-7.7,-7.3,9010.0,-1678.39,-1753.78,4.36,128.0,25.0,896.0,0.0,0.0,0.0,0.0,0.0,0.0,0.0,0.0,0.0,0.0,0.0,0.0,0.0,0.0
16.0,6434.0,29740.18517346976,23157.48424760241,-0.0,0.0,0.0,0.0,43375.71409024213,0.0,0.0,0.0,43375.71409024213,0.5192531528268141,0.32122822754984226,0.7811224489795914,0.0,0.0,0.0,"[2.0, 2.0, 2.0, 2.0, 2.0, 2.0, 2.0, 2.0, 2.0]",20.25,0.0,0.0,0.0,651.2008737709476,79.20420672947783,-2301.567719064056,-37.03262923140311,11843.525371813826,0.0,0.0,0.0,0.0,0.0,0.0,-7.2,20.264346422934373,0.0,19.92646463491735,0.0,-7.2,20.25,18.68,21.18,19.73,20.74,-7.59,-7.2,0.0,-1598.58,-1670.39,0.0,106.0,60.0,414.0,0.0,0.0,0.0,0.0,0.0,0.0,0.0,0.0,0.0,0.0,0.0,0.0,0.0,0.0
17.0,9501.0,17974.425120530766,22122.99141872561,-0.0,0.0,13739.438423797501,0.0,41859.84155304435,0.0,0.0,0.0,41859.84155304435,0.0,0.32122822754984226,0.7770408163265301,0.0,0.0,0.0,"[2.0, 2.0, 2.0, 2.0, 2.0, 2.0, 2.0, 2.0, 2.0]",24.0,0.0,0.0,0.0,682.2995668362859,107.98318239312522,-2598.7932374975694,-7004.74125045106,0.0,0.0,0.0,0.0,0.0,0.0,0.0,-7.0,21.46131760927235,0.0,20.14852222340075,0.0,-7.0,24.0,18.84,21.46,22.51,22.95,-7.38,-7.0,0.0,-1805.03,-1886.1,0.0,92.0,118.0,438.0,0.0,0.0,0.0,0.0,0.0,0.0,0.0,0.0,0.0,0.0,0.0,0.0,0.0,0.0
18.0,9720.0,9768.844221105528,0.0,-0.0,0.0,0.0,0.0,29528.98900968826,0.0,29528.98900968826,0.0,0.0,0.0,0.20962962962962967,0.7719387755102028,0.0,0.0,0.0,"[2.0, 2.0, 2.0, 2.0, 2.0, 2.0, 2.0, 2.0, 2.0]",20.77,0.0,0.0,0.0,663.8707116864558,154.9971124643423,-2319.56404492464,-557.3650083953911,10894.629607081404,0.0,0.0,0.0,0.0,0.0,0.0,-6.9,20.58865930122744,0.0,20.165699987477367,0.0,-6.9,20.77,18.87,21.46,20.08,21.1,-7.29,-6.9,0.0,-1611.08,-1683.45,0.0,142.0,177.0,392.0,0.0,0.0,0.0,0.0,0.0,0.0,0.0,0.0,0.0,0.0,0.0,0.0,0.0,0.0
19.0,6837.0,36147.142329210306,17578.386209400986,-0.0,0.0,-11551.020408163267,0.0,33595.963397157495,0.0,0.0,0.0,33595.963397157495,0.41925925925925933,0.20962962962962967,0.7688775510204069,0.0,0.0,0.0,"[2.0, 2.0, 2.0, 2.0, 2.0, 2.0, 2.0, 2.0, 2.0]",24.0,0.0,0.0,0.0,887.3205803781449,134.40525918776697,-2582.026829513714,-6532.975978095143,0.0,0.0,0.0,0.0,0.0,0.0,0.0,-6.8,21.63390264413222,0.0,20.374889446056585,0.0,-6.8,24.0,19.02,21.73,22.57,23.08,-7.18,-6.8,0.0,-1793.38,-1873.93,0.0,83.0,162.0,588.0,0.0,0.0,0.0,0.0,0.0,0.0,0.0,0.0,0.0,0.0,0.0,0.0,0.0,0.0
20.0,9511.0,25363.925919359423,15726.106289762627,-0.0,0.0,0.0,0.0,30355.71362731523,0.0,0.0,0.0,30355.71362731523,1.0,0.5,0.7382653061224478,0.0,0.0,0.0,"[2.0, 2.0, 1.8140034067483022, 0.8649400319830818, 1.126800445148291, 2.0, 1.7725078353139878, 2.0, 2.0]",21.03,0.0,0.0,0.0,1031.5119743824794,131.2110409837199,-2316.4445376946232,-616.8444663473606,9887.393312224365,0.0,0.0,0.0,0.0,0.0,0.0,-6.6,20.82962924368446,0.0,20.38862268141525,0.0,-6.6,21.03,19.05,21.72,20.32,21.36,-6.98,-6.6,0.0,-1608.92,-1681.18,0.0,129.0,126.0,673.0,0.0,0.0,0.0,0.0,0.0,0.0,0.0,0.0,0.0,0.0,0.0,0.0,0.0,0.0
21.0,5727.0,18210.60151501665,12392.548507441566,-0.0,0.0,0.0,0.0,24039.17153970755,0.0,0.0,0.0,24039.17153970755,1.0,0.5,0.7382653061224478,0.0,0.0,0.0,"[2.0, 2.0, 1.8140034067483022, 0.8649400319830818, 1.126800445148291, 2.0, 1.7725078353139878, 2.0, 2.0]",24.0,0.0,0.0,0.0,956.9327011980109,101.31563954001724,-2556.8772175379313,-6119.883116597323,5213.717858992129,0.0,0.0,0.0,0.0,0.0,0.0,-6.5,21.784929139362596,0.0,20.57575585439302,0.0,-6.5,24.0,19.2,21.95,22.57,23.15,-6.89,-6.5,709.06,-1775.91,-1855.68,0.0,135.0,72.0,621.0,0.0,0.0,0.0,0.0,0.0,0.0,0.0,0.0,0.0,0.0,0.0,0.0,0.0,0.0
22.0,4555.0,3153.554677749148,14582.786904360402,-0.0,0.0,16000.0,0.0,28565.85907227078,0.0,0.0,0.0,28565.859072270774,0.3953136810279667,0.5,0.7382653061224478,0.0,0.0,0.0,"[2.0, 2.0, 1.8140034067483022, 0.8649400319830818, 1.126800445148291, 2.0, 1.7725078353139878, 2.0, 2.0]",23.12,0.0,0.0,0.0,776.3875109020196,74.27332620090031,-2466.0118924360104,-4060.427353902742,0.0,0.0,0.0,0.0,0.0,0.0,0.0,-6.3,21.65429126094173,0.0,20.721299520242813,0.0,-6.3,23.12,19.32,22.12,21.83,22.65,-6.72,-6.3,4216.51,-1712.8,-1789.73,0.0,157.0,19.0,483.0,0.0,0.0,0.0,0.0,0.0,0.0,0.0,0.0,0.0,0.0,0.0,0.0,0.0,0.0
23.0,4675.0,29892.741287919107,25068.27758147951,-0.0,0.0,0.0,0.0,49344.60991344368,0.0,0.0,0.0,49344.60991344369,0.3953136810279667,0.5,0.7382653061224478,0.0,0.0,0.0,"[2.0, 2.0, 1.8140034067483022, 0.8649400319830818, 1.126800445148291, 2.0, 1.7725078353139878, 2.0, 2.0]",21.04,0.0,0.0,0.0,466.4084082646439,44.06780648496006,-2283.1896321635245,-3.6812254232099706,0.0,0.0,0.0,0.0,0.0,0.0,0.0,-6.2,21.057163673764535,0.0,20.691842586537778,0.0,-6.2,21.04,19.33,22.06,20.47,21.57,-6.6,-6.2,5959.04,-1585.82,-1657.05,0.0,80.0,18.0,297.0,0.0,0.0,0.0,0.0,0.0,0.0,0.0,0.0,0.0,0.0,0.0,0.0,0.0,0.0
24.0,1816.0,15398.918039699225,13505.92344950073,-0.0,0.0,0.0,0.0,26713.930222849664,0.0,0.0,0.0,26713.93022284966,0.3953136810279667,0.5,0.7382653061224478,0.0,0.0,0.0,"[2.0, 2.0, 1.8140034067483022, 0.8649400319830818, 1.126800445148291, 2.0, 1.7725078353139878, 2.0, 2.0]",20.38,0.0,0.0,0.0,844.0559634053019,42.64126243266719,-2220.1541413930954,1066.086569891256,0.0,0.0,0.0,0.0,0.0,0.0,0.0,-6.1,20.796353094795123,0.0,20.59376403722741,0.0,-6.1,20.38,19.29,21.9,20.15,21.25,-6.52,-6.1,5293.38,-1542.04,-1611.3,0.0,80.0,0.0,575.0,0.0,0.0,0.0,0.0,0.0,0.0,0.0,0.0,0.0,0.0,0.0,0.0,0.0,0.0
25.0,1578.0,38560.17862659949,20789.377733466492,-0.0,0.0,-16000.0,0.0,41318.37024728596,0.0,0.0,0.0,41318.37024728596,0.9760544217687074,0.5,0.7382653061224478,0.0,0.0,0.0,"[2.0, 2.0, 1.8140034067483022, 0.8649400319830818, 1.126800445148291, 2.0, 1.7725078353139878, 2.0, 2.0]",20.28,0.0,0.0,0.0,171.11479957478912,27.38344343857828,-2203.4470539239883,1016.8480140404776,11138.12237697211,0.0,0.0,0.0,0.0,0.0,0.0,-6.0,20.67883475790475,0.0,20.484957295951837,0.0,-6.0,20.28,19.23,21.74,20.06,21.12,-6.38,-6.0,0.0,-1530.43,-1599.18,0.0,80.0,0.0,83.0,0.0,0.0,0.0,0.0,0.0,0.0,0.0,0.0,0.0,0.0,0.0,0.0,0.0,0.0
26.0,1446.0,25243.75451088407,23671.53573832965,-0.0,0.0,0.0,0.0,47723.59151284712,0.0,0.0,0.0,47723.59151284712,0.9760544217687074,0.5,0.7382653061224478,0.0,0.0,0.0,"[2.0, 2.0, 1.8140034067483022, 0.8649400319830818, 1.126800445148291, 2.0, 1.7725078353139878, 2.0, 2.0]",24.0,0.0,0.0,0.0,214.88333055563555,28.375821909738534,-2489.81158560251,-5984.76863599052,8233.836956493407,0.0,0.0,0.0,0.0,0.0,0.0,-5.7,21.833719250353504,0.0,20.664796362447113,0.0,-5.7,24.0,19.37,21.96,22.73,23.23,-6.07,-5.7,6734.98,-1729.33,-1807.01,0.0,80.0,0.0,115.0,0.0,0.0,0.0,0.0,0.0,0.0,0.0,0.0,0.0,0.0,0.0,0.0,0.0,0.0
27.0,1597.0,0.0,0.0,-0.0,0.0,1597.0,0.0,29512.324793749904,0.0,29512.3247937499,0.0,0.0,0.9156991685563113,0.3884643809760019,0.7382653061224478,0.0,0.0,0.0,"[2.0, 2.0, 1.8140034067483022, 0.8649400319830818, 1.126800445148291, 2.0, 1.7725078353139878, 2.0, 2.0]",24.0,0.0,0.0,0.0,138.28840133915435,26.639159585208088,-2473.0451776186546,-5533.07359304429,0.0,0.0,0.0,0.0,0.0,0.0,0.0,-5.5,21.998947368270052,0.0,20.877709995934275,0.0,-5.5,24.0,19.53,22.23,22.57,23.21,-5.86,-5.5,0.0,-1717.69,-1794.84,0.0,80.0,0.0,59.0,0.0,0.0,0.0,0.0,0.0,0.0,0.0,0.0,0.0,0.0,0.0,0.0,0.0,0.0
28.0,1741.0,2913.458052603908,11130.153797129224,-0.0,0.0,9972.263034788335,0.0,22757.5463787619,0.0,0.0,0.0,22757.5463787619,0.5388184794108716,0.3884643809760019,0.7382653061224478,0.0,0.0,0.0,"[2.0, 2.0, 1.8140034067483022, 0.8649400319830818, 1.126800445148291, 2.0, 1.7725078353139878, 2.0, 2.0]",21.13,0.0,0.0,0.0,176.58586594739495,27.50749074747331,-2223.8780193018742,129.02974286559464,9736.746937502512,0.0,0.0,0.0,0.0,0.0,0.0,-5.4,21.197623351821157,0.0,20.862820316027378,0.0,-5.4,21.13,19.54,22.18,20.6,21.68,-5.76,-5.4,6469.37,-1544.62,-1614.0,0.0,80.0,0.0,87.0,0.0,0.0,0.0,0.0,0.0,0.0,0.0,0.0,0.0,0.0,0.0,0.0,0.0,0.0
29.0,819.0,19307.626278977532,18392.088147582643,-0.0,0.0,0.0,0.0,37956.51629231467,0.0,0.0,0.0,37956.51629231467,0.5388184794108716,0.3884643809760019,0.7382653061224478,0.0,0.0,0.0,"[2.0, 2.0, 1.8140034067483022, 0.8649400319830818, 1.126800445148291, 2.0, 1.7725078353139878, 2.0, 2.0]",24.0,0.0,0.0,0.0,143.75946771176018,26.763206894103114,-2447.895565642872,-5249.284394729503,0.0,0.0,0.0,0.0,0.0,0.0,0.0,-5.2,22.102609277281097,0.0,21.019873281933926,0.0,-5.2,24.0,19.67,22.37,22.79,23.41,-5.56,-5.2,0.0,-1700.22,-1776.59,0.0,80.0,0.0,63.0,0.0,0.0,0.0,0.0,0.0,0.0,0.0,0.0,0.0,0.0,0.0,0.0,0.0,0.0
30.0,2136.0,6438.078441369791,4269.8880491629425,-0.0,0.0,0.0,0.0,8852.651485508304,0.0,0.0,0.0,8852.651485508304,0.5388184794108716,0.3884643809760019,0.7382653061224478,0.0,0.0,0.0,"[2.0, 2.0, 1.8140034067483022, 0.8649400319830818, 1.126800445148291, 2.0, 1.7725078353139878, 2.0, 2.0]",21.24,0.0,0.0,0.0,60.18173009866375,1.3645203978453475,-2208.383734776504,175.3920576714875,0.0,0.0,0.0,0.0,0.0,0.0,0.0,-5.1,21.329621275629385,0.0,21.00122144376218,0.0,-5.1,21.24,19.68,22.32,20.73,21.81,-5.46,-5.1,6183.85,-1533.86,-1602.76,0.0,0.0,0.0,44.0,0.0,0.0,0.0,0.0,0.0,0.0,0.0,0.0,0.0,0.0,0.0,0.0,0.0,0.0
31.0,1985.0,0.0,0.0,-0.0,0.0,1985.0,0.0,17925.7127767101,0.0,17925.7127767101,0.0,0.0,0.4637995829634037,0.32071792301413454,0.7382653061224478,0.0,0.0,0.0,"[2.0, 2.0, 1.8140034067483022, 0.8649400319830818, 1.126800445148291, 2.0, 1.7725078353139878, 2.0, 2.0]",20.52,0.0,0.0,0.0,135.40889272199342,3.070170895152038,-2139.4767415026395,1368.9797140454905,0.0,0.0,0.0,0.0,0.0,0.0,0.0,-5.0,21.044039122478264,0.0,20.89576878369737,0.0,-5.0,20.52,19.63,22.16,20.38,21.47,-5.35,-5.0,0.0,-1486.0,-1552.75,0.0,0.0,0.0,99.0,0.0,0.0,0.0,0.0,0.0,0.0,0.0,0.0,0.0,0.0,0.0,0.0,0.0,0.0
32.0,1714.0,55379.676604178545,38615.909588516726,-0.0,0.0,-14772.86863264092,0.0,1165.8059372707587,0.0,-80000.0,0.0,81165.80593727076,1.0,0.6110882933845049,0.7382653061224478,0.0,0.0,0.0,"[1.8952526404104617, 1.8148679287552767, 1.8140034067483022, 0.8649400319830818, 1.126800445148291, 1.3653736756856318, 1.1618487371532602, 1.4708772195287025, 2.0]",20.29,0.0,0.0,0.9088725139572791,42.400764387694906,0.9613666439364932,-2103.3000833163137,1554.678892858832,0.0,0.0,0.0,0.0,0.0,0.0,0.0,-4.8,20.880145169903503,0.0,20.77379712932024,0.0,-4.8,20.29,19.57,21.97,20.23,21.28,-5.16,-4.8,279.13,-1460.87,-1526.49,1.47,0.0,0.0,31.0,0.0,0.0,0.0,0.0,0.0,0.0,0.0,0.0,0.0,0.0,0.0,0.0,0.0,0.0
33.0,6890.0,6910.734096646791,0.0,-0.0,13.819573836443075,0.0,0.0,17115.512121605043,0.0,17115.512121605043,0.0,0.0,1.0,0.5464038182461638,0.7382653061224478,0.0,0.0,0.0,"[1.8952526404104617, 1.8148679287552767, 1.8140034067483022, 0.8649400319830818, 1.126800445148291, 1.3653736756856318, 1.1618487371532602, 1.4708772195287025, 2.0]",20.1,0.0,0.0,27.04514737548343,129.93782634938762,2.946123586257005,-2003.9837349093282,1645.389699700326,197.94241647144045,0.0,0.0,0.0,0.0,0.0,0.0,-3.8,20.72762558164285,0.0,20.6490414563728,0.0,-3.8,20.1,19.51,21.79,20.1,21.1,-4.12,-3.8,160.32,-1391.89,-1454.41,43.6,0.0,0.0,95.0,0.0,0.0,0.0,0.0,0.0,0.0,0.0,0.0,0.0,0.0,0.0,0.0,0.0,0.0
34.0,4489.0,13053.21871924323,0.0,-0.0,228.33737435298437,0.0,0.0,41584.46636129665,43636.45,76493.62636129664,0.0,0.0,1.0,0.2573122598134478,0.7382653061224478,34909.159999999996,8727.289999999999,43636.45,"[1.8952526404104617, 1.8148679287552767, 1.8140034067483022, 0.8649400319830818, 1.126800445148291, 1.3653736756856318, 1.1618487371532602, 1.4708772195287025, 2.0]",20.1,0.0,0.0,53.04111592672009,61.5494966918152,1.395532225069108,-1911.768490998124,1393.7386662376323,10751.47957781157,0.0,0.0,0.0,0.0,0.0,0.0,-2.7,20.634547446769623,0.0,20.535339322645356,0.0,-2.7,20.1,19.44,21.63,20.07,21.02,-3.02,-2.7,2289.95,-1327.84,-1387.49,85.52,0.0,0.0,45.0,0.0,0.0,0.0,0.0,0.0,0.0,0.0,0.0,0.0,0.0,0.0,0.0,0.0,0.0
35.0,6127.0,14081.164176024793,8983.076860960055,-0.0,1099.3185058153845,0.0,0.0,21536.093860650082,0.0,0.0,0.0,21536.093860650086,1.0,0.2573122598134478,0.7382653061224478,0.0,0.0,0.0,"[1.8952526404104617, 1.8148679287552767, 1.8140034067483022, 0.8649400319830818, 1.126800445148291, 1.3653736756856318, 1.1618487371532602, 1.4708772195287025, 2.0]",23.9,0.0,0.0,82.7660289139009,88.90482855484417,2.015768769544263,-2145.7022410948553,-5760.323479881527,0.0,0.0,0.0,0.0,0.0,0.0,0.0,-1.7,21.80764761633111,0.0,20.71180950020194,0.0,-1.7,23.9,19.57,21.85,22.73,23.12,-2.0,-1.7,0.0,-1490.33,-1557.27,133.44,0.0,0.0,65.0,0.0,0.0,0.0,0.0,0.0,0.0,0.0,0.0,0.0,0.0,0.0,0.0,0.0,0.0
36.0,4388.0,0.0,13163.465768488124,-0.0,1551.4657684881229,16000.0,0.0,32436.628171733213,0.0,0.0,0.0,32436.62817173321,0.3953136810279667,0.2573122598134478,0.7382653061224478,0.0,0.0,0.0,"[1.8952526404104617, 1.8148679287552767, 1.8140034067483022, 0.8649400319830818, 1.126800445148291, 1.3653736756856318, 1.1618487371532602, 1.4708772195287025, 2.0]",21.06,0.0,0.0,92.45253615973898,106.685794265813,2.4189225234531175,-1849.7368744025198,-130.44233186807145,5922.057690108666,0.0,0.0,0.0,0.0,0.0,0.0,-1.0,21.035908776025472,0.0,20.718635050061895,0.0,-1.0,21.06,19.6,21.84,20.56,21.46,-1.4,-1.0,6129.44,-1284.76,-1342.47,149.06,0.0,0.0,78.0,0.0,0.0,0.0,0.0,0.0,0.0,0.0,0.0,0.0,0.0,0.0,0.0,0.0,0.0
37.0,4719.0,164.26740541736118,6365.203186588626,-0.0,460.7571181983508,10460.0,0.0,15866.798810173459,0.0,0.0,0.0,15866.798810173459,0.0,0.2573122598134478,0.7382653061224478,0.0,0.0,0.0,"[1.8952526404104617, 1.8148679287552767, 1.8140034067483022, 0.8649400319830818, 1.126800445148291, 1.3653736756856318, 1.1618487371532602, 1.4708772195287025, 2.0]",22.58,0.0,0.0,64.9334518704578,42.400764387694906,0.9613666439364932,-1951.8804552949664,-2985.2773234670217,0.0,0.0,0.0,0.0,0.0,0.0,0.0,-0.7,21.50997819119921,0.0,20.79829929297464,0.0,-0.7,22.58,19.67,21.93,21.8,22.43,-1.13,-0.7,4697.36,-1355.7,-1416.6,104.69,0.0,0.0,31.0,0.0,0.0,0.0,0.0,0.0,0.0,0.0,0.0,0.0,0.0,0.0,0.0,0.0,0.0
38.0,3453.0,21661.212349832353,6549.326547419237,-0.0,0.44066749931424,-11551.020408163267,0.0,15951.150101517493,0.0,0.0,0.0,15951.15010151749,0.41925925925925933,0.2573122598134478,0.7382653061224476,0.0,0.0,0.0,"[1.8952526404104617, 1.8148679287552767, 1.8140034067483022, 0.8649400319830818, 1.126800445148291, 1.3653736756856318, 1.1618487371532602, 1.4708772195287025, 2.0]",20.82,0.0,0.0,15.557617143834106,150.45432524665932,3.411300994613375,-1854.0115800125782,437.62183884128166,9656.211817462416,0.0,0.0,0.0,0.0,0.0,0.0,-1.3,20.994951272651797,0.0,20.763188092045013,0.0,-1.3,20.82,19.67,21.86,20.49,21.39,-1.69,-1.3,4460.12,-1287.73,-1345.57,25.08,0.0,0.0,110.0,0.0,0.0,0.0,0.0,0.0,0.0,0.0,0.0,0.0,0.0,0.0,0.0,0.0,0.0
39.0,4151.0,44015.57811890268,23644.500228308167,-0.0,0.0,-16000.0,0.0,56234.67641864664,0.0,0.0,0.0,56234.67641864664,1.0,0.2573122598134478,0.7382653061224476,0.0,0.0,0.0,"[1.8952526404104617, 1.8148679287552767, 1.8140034067483022, 0.8649400319830818, 1.126800445148291, 1.3653736756856318, 1.1618487371532602, 1.4708772195287025, 2.0]",23.9,0.0,0.0,1.7978735839587772,145.05524658948258,34.8883056267277,-2162.4686490787108,-5332.665283009475,7133.664061763496,0.0,0.0,0.0,0.0,0.0,0.0,-1.9,21.964503190161523,0.0,20.92893001869568,0.0,-1.9,23.9,19.8,22.06,22.75,23.18,-2.3,-1.9,0.0,-1501.97,-1569.43,2.9,83.0,13.0,61.0,0.0,0.0,0.0,0.0,0.0,0.0,0.0,0.0,0.0,0.0,0.0,0.0,0.0,0.0
40.0,2684.0,0.0,2425.910757152646,-0.0,0.0,5109.910757152646,0.0,5723.388302198826,0.0,0.0,0.0,5723.388302198826,0.8068816796238607,0.2573122598134478,0.7382653061224476,0.0,0.0,0.0,"[1.8952526404104617, 1.8148679287552767, 1.8140034067483022, 0.8649400319830818, 1.126800445148291, 1.3653736756856318, 1.1618487371532602, 1.4708772195287025, 2.0]",23.83,0.0,0.0,0.0,388.08577387786636,72.2265456041323,-2173.6247428668544,-4804.765434087848,0.0,0.0,0.0,0.0,0.0,0.0,0.0,-2.1,22.091012822618413,0.0,21.115614065849016,0.0,-2.1,23.83,19.94,22.29,22.58,23.14,-2.51,-2.1,0.0,-1509.72,-1577.53,0.0,163.0,28.0,195.0,0.0,0.0,0.0,0.0,0.0,0.0,0.0,0.0,0.0,0.0,0.0,0.0,0.0,0.0
41.0,6483.0,26935.083806126513,15645.056331834103,-0.0,0.0,-4672.352055261781,0.0,36612.67720164994,0.0,0.0,0.0,36612.67720164994,0.9764707542222513,0.2573122598134478,0.7382653061224476,0.0,0.0,0.0,"[1.8952526404104617, 1.8148679287552767, 1.8140034067483022, 0.8649400319830818, 1.126800445148291, 1.3653736756856318, 1.1618487371532602, 1.4708772195287025, 2.0]",21.44,0.0,0.0,0.0,488.36466147049623,79.26623038392533,-1990.100482067681,-86.24473813934424,8222.980353029792,0.0,0.0,0.0,0.0,0.0,0.0,-2.3,21.42784527086846,0.0,21.107552716683905,0.0,-2.3,21.44,19.95,22.26,20.94,21.86,-2.7,-2.3,0.0,-1382.25,-1444.34,0.0,149.0,44.0,274.0,0.0,0.0,0.0,0.0,0.0,0.0,0.0,0.0,0.0,0.0,0.0,0.0,0.0,0.0
42.0,5305.0,15335.85375769034,9954.174488901888,-0.0,0.0,0.0,0.0,23105.040781434145,0.0,0.0,0.0,23105.040781434145,0.9764707542222513,0.2573122598134478,0.5852040816326516,0.0,0.0,0.0,"[1.8952526404104617, 1.8148679287552767, 1.8140034067483022, 0.8649400319830818, 1.126800445148291, 1.3653736756856318, 1.1618487371532602, 1.4708772195287025, 2.0]",23.9,0.0,0.0,0.0,306.66766772764055,8.063075078177066,-2212.7678730302764,-4676.979626238384,0.0,0.0,0.0,0.0,0.0,0.0,0.0,-2.5,22.20515517316565,0.0,21.245882910024193,0.0,-2.5,23.9,20.06,22.43,22.8,23.34,-2.95,-2.5,5461.69,-1536.91,-1605.94,0.0,0.0,2.0,224.0,0.0,0.0,0.0,0.0,0.0,0.0,0.0,0.0,0.0,0.0,0.0,0.0,0.0,0.0
43.0,7713.0,0.0,4796.597375078107,-0.0,0.0,12509.597375078107,0.0,11042.123116898772,0.0,0.0,0.0,11042.123116898772,0.5036968549373644,0.2573122598134478,0.5806122448979578,0.0,0.0,0.0,"[1.8952526404104617, 1.8148679287552767, 1.8140034067483022, 0.8649400319830818, 1.126800445148291, 1.3653736756856318, 1.1618487371532602, 1.4708772195287025, 2.0]",21.49,0.0,0.0,0.0,318.68961620428763,7.225755743135602,-2027.6703239518986,60.82667678466498,0.0,0.0,0.0,0.0,0.0,0.0,0.0,-2.7,21.530281945735723,0.0,21.22915509212749,0.0,-2.7,21.49,20.07,22.39,21.01,21.95,-3.16,-2.7,3547.29,-1408.34,-1471.6,0.0,0.0,0.0,233.0,0.0,0.0,0.0,0.0,0.0,0.0,0.0,0.0,0.0,0.0,0.0,0.0,0.0,0.0
44.0,7711.0,5504.302732017428,0.0,-0.0,0.0,2234.2187816426595,0.0,0.0,0.0,0.0,0.0,0.0,0.41925925925925933,0.2573122598134478,0.5275510204081613,0.0,0.0,0.0,"[1.436792034885702, 0.9022317549652072, 1.8140034067483022, 0.5800736170334204, 0.2706866726804513, 0.9235522942838763, 0.8860106143538466, 0.917658154672587, 0.9620585584356931]",20.89,0.0,0.0,0.0,62.91726328496664,1.426544052292864,-1994.0433129146668,1047.8650056235367,0.0,0.0,0.0,0.0,0.0,0.0,0.0,-2.9,21.290242403233982,0.0,21.137828712278967,0.0,-2.9,20.89,20.03,22.25,20.72,21.67,-3.34,-2.9,0.0,-1384.99,-1447.2,0.0,0.0,0.0,46.0,0.0,0.0,0.0,0.0,0.0,0.0,0.0,0.0,0.0,0.0,0.0,0.0,0.0,0.0
45.0,7179.0,15606.488405226492,8349.455963200358,-0.0,0.0,0.0,0.0,18902.67554315959,0.0,0.0,0.0,18902.675543159592,0.41925925925925933,0.2573122598134478,0.5102040816326511,0.0,0.0,0.0,"[1.436792034885702, 0.9022317549652072, 1.8140034067483022, 0.5800736170334204, 0.2706866726804513, 0.9235522942838763, 0.8860106143538466, 0.917658154672587, 0.9620585584356931]",20.56,0.0,0.0,0.0,138.1444259082963,3.13219454959955,-1983.734994749602,1442.3937603986285,8247.623989204036,0.0,0.0,0.0,0.0,0.0,0.0,-3.1,21.111648705883766,0.0,21.027152195937887,0.0,-3.1,20.56,19.96,22.09,20.53,21.46,-3.54,-3.1,0.0,-1377.83,-1439.72,0.0,0.0,0.0,101.0,0.0,0.0,0.0,0.0,0.0,0.0,0.0,0.0,0.0,0.0,0.0,0.0,0.0,0.0
46.0,3412.0,23953.65311801543,0.0,-0.0,0.0,0.0,0.0,19291.136022895276,0.0,911.4396557124686,0.0,0.0,0.41925925925925933,0.25386766549858586,0.5051020408163246,81687.5394097014,20421.88485242535,102109.42426212675,"[1.436792034885702, 0.9022317549652072, 1.8140034067483022, 0.5800736170334204, 0.2706866726804513, 0.9235522942838763, 0.8860106143538466, 0.917658154672587, 0.9620585584356931]",23.44,0.0,0.0,0.0,54.710663726057945,1.2404730889503148,-2241.3998171819303,-4047.0137912403156,0.0,0.0,0.0,0.0,0.0,0.0,0.0,-3.3,21.97768232654464,0.0,21.131019254886333,0.0,-3.3,23.44,20.04,22.22,22.55,23.05,-3.77,-3.3,0.0,-1556.79,-1626.72,0.0,0.0,0.0,40.0,0.0,0.0,0.0,0.0,0.0,0.0,0.0,0.0,0.0,0.0,0.0,0.0,0.0,0.0
47.0,2028.0,16783.2185709364,14671.302478081718,-0.0,0.0,0.0,0.0,32795.36487128072,0.0,0.0,0.0,32795.364871280726,0.41925925925925933,0.25386766549858586,0.5051020408163246,0.0,0.0,0.0,"[1.436792034885702, 0.9022317549652072, 1.8140034067483022, 0.5800736170334204, 0.2706866726804513, 0.9235522942838763, 0.8860106143538466, 0.917658154672587, 0.9620585584356931]",21.15,0.0,0.0,0.0,86.16929536854126,1.9537451150967513,-2058.453477192017,412.58748256534767,7790.488634929155,0.0,0.0,0.0,0.0,0.0,0.0,-3.4,21.326603970972222,0.0,21.098490448488285,0.0,-3.4,21.15,20.03,22.17,20.82,21.7,-3.86,-3.4,5402.46,-1429.73,-1493.94,0.0,0.0,0.0,63.0,0.0,0.0,0.0,0.0,0.0,0.0,0.0,0.0,0.0,0.0,0.0,0.0,0.0,0.0
48.0,1396.0,38437.73162143487,20849.542963327694,-0.0,0.0,-16000.0,0.0,44220.65842413322,0.0,0.0,0.0,44220.65842413321,1.0,0.25386766549858586,0.5051020408163246,0.0,0.0,0.0,"[1.436792034885702, 0.9022317549652072, 1.8140034067483022, 0.5800736170334204, 0.2706866726804513, 0.9235522942838763, 0.8860106143538466, 0.917658154672587, 0.9620585584356931]",23.44,0.0,0.0,0.0,276.0728886703056,54.735875049932794,-2350.3814690769896,-3900.0396176772083,1942.635320681765,0.0,0.0,0.0,0.0,0.0,0.0,-4.6,22.032580077198347,0.0,21.204043587594665,0.0,-4.6,23.44,20.1,22.3,22.55,23.07,-5.05,-4.6,4206.92,-1632.49,-1705.81,0.0,80.0,45.0,155.0,0.0,0.0,0.0,0.0,0.0,0.0,0.0,0.0,0.0,0.0,0.0,0.0,0.0,0.0
49.0,1161.0,0.0,0.0,-0.0,0.0,1161.0,0.0,21471.19591498257,0.0,21471.195914982567,0.0,0.0,0.9561224489795919,0.17272180036259732,0.5051020408163246,0.0,0.0,0.0,"[1.436792034885702, 0.9022317549652072, 1.8140034067483022, 0.5800736170334204, 0.2706866726804513, 0.9235522942838763, 0.8860106143538466, 0.917658154672587, 0.9620585584356931]",21.98,0.0,0.0,0.0,167.0114997953348,27.290407956907,-2328.7443980780413,-969.6860496017083,0.0,0.0,0.0,0.0,0.0,0.0,0.0,-5.8,21.64732062317771,0.0,21.221779406667046,0.0,-5.8,21.98,20.12,22.32,21.42,22.22,-6.24,-5.8,0.0,-1617.46,-1690.11,0.0,80.0,0.0,80.0,0.0,0.0,0.0,0.0,0.0,0.0,0.0,0.0,0.0,0.0,0.0,0.0,0.0,0.0
50.0,1026.0,18292.20117023252,15965.868860757868,-0.0,0.0,-1208.8713036234894,0.0,30209.691271783173,0.0,0.0,0.0,30209.691271783173,1.0,0.17272180036259732,0.5051020408163246,0.0,0.0,0.0,"[1.436792034885702, 0.9022317549652072, 1.8140034067483022, 0.5800736170334204, 0.2706866726804513, 0.9235522942838763, 0.8860106143538466, 0.917658154672587, 0.9620585584356931]",20.84,0.0,0.0,0.0,149.23053408436596,26.887254202998147,-2333.9770154204152,1097.8304488166661,8150.790928714692,0.0,0.0,0.0,0.0,0.0,0.0,-7.0,21.266911847266805,0.0,21.134452069071294,0.0,-7.0,20.84,20.06,22.2,20.72,21.63,-7.47,-7.0,2055.38,-1621.09,-1693.91,0.0,80.0,0.0,67.0,0.0,0.0,0.0,0.0,0.0,0.0,0.0,0.0,0.0,0.0,0.0,0.0,0.0,0.0
51.0,959.0,21877.77048566139,20809.381633233083,-0.0,0.0,0.0,0.0,38184.01195951407,0.0,0.0,0.0,38184.01195951407,1.0,0.17272180036259732,0.5051020408163246,0.0,0.0,0.0,"[1.436792034885702, 0.9022317549652072, 1.8140034067483022, 0.5800736170334204, 0.2706866726804513, 0.9235522942838763, 0.8860106143538466, 0.917658154672587, 0.9620585584356931]",23.44,0.0,0.0,0.0,181.5530183119976,41.493824825388145,-2601.877588834819,-3856.5545279913335,0.0,0.0,0.0,0.0,0.0,0.0,0.0,-7.6,22.05104752513849,0.0,21.227605859934727,0.0,-7.6,23.44,20.12,22.33,22.6,23.12,-8.08,-7.6,0.0,-1807.17,-1888.34,0.0,80.0,25.0,88.0,0.0,0.0,0.0,0.0,0.0,0.0,0.0,0.0,0.0,0.0,0.0,0.0,0.0,0.0
52.0,673.0,14404.237673558393,13659.216485190602,-0.0,0.0,0.0,0.0,24152.34986495636,0.0,0.0,0.0,24152.34986495636,1.0,0.17272180036259732,0.5051020408163246,0.0,0.0,0.0,"[1.436792034885702, 0.9022317549652072, 1.8140034067483022, 0.5800736170334204, 0.2706866726804513, 0.9235522942838763, 0.8860106143538466, 0.917658154672587, 0.9620585584356931]",21.15,0.0,0.0,0.0,146.9269271906372,60.13193298686668,-2469.031185779644,579.9307919040708,79.15559330155546,0.0,0.0,0.0,0.0,0.0,0.0,-8.3,21.389644278907223,0.0,21.179607443874907,0.0,-8.3,21.15,20.09,22.27,20.87,21.78,-8.79,-8.3,4113.31,-1714.9,-1791.93,0.0,80.0,60.0,59.0,0.0,0.0,0.0,0.0,0.0,0.0,0.0,0.0,0.0,0.0,0.0,0.0,0.0,0.0
53.0,2392.0,13283.483251268246,10825.065835011905,-0.0,0.0,0.0,0.0,18521.787058682872,0.0,0.0,0.0,18521.787058682872,1.0,0.17272180036259732,0.5051020408163246,0.0,0.0,0.0,"[1.436792034885702, 0.9022317549652072, 1.8140034067483022, 0.5800736170334204, 0.2706866726804513, 0.9235522942838763, 0.8860106143538466, 0.917658154672587, 0.9620585584356931]",20.56,0.0,0.0,0.0,121.08333735161774,60.10092115964291,-2469.9608262814054,1498.5435353624528,795.5617643364664,0.0,0.0,0.0,0.0,0.0,0.0,-8.9,21.1371436790182,0.0,21.06245087182454,0.0,-8.9,20.56,20.0,22.12,20.58,21.5,-9.41,-8.9,0.0,-1715.54,-1792.6,0.0,80.0,61.0,40.0,0.0,0.0,0.0,0.0,0.0,0.0,0.0,0.0,0.0,0.0,0.0,0.0,0.0,0.0
54.0,3638.0,12950.81636538842,16453.569601022136,-0.0,0.0,7205.50731746066,0.0,27367.924051197762,0.0,0.0,0.0,27367.924051197762,0.7276830189924165,0.17272180036259732,0.5051020408163246,0.0,0.0,0.0,"[1.436792034885702, 0.9022317549652072, 1.8140034067483022, 0.5800736170334204, 0.2706866726804513, 0.9235522942838763, 0.8860106143538466, 0.917658154672587, 0.9620585584356931]",20.56,0.0,0.0,0.0,251.02116370100526,86.61603343595594,-2511.876846241044,1255.3565924505183,8773.84436506682,0.0,0.0,0.0,0.0,0.0,0.0,-9.4,21.048513603472074,0.0,20.947966198498307,0.0,-9.4,20.56,19.91,21.98,20.59,21.46,-9.91,-9.4,5401.42,-1744.66,-1823.02,0.0,147.0,68.0,99.0,0.0,0.0,0.0,0.0,0.0,0.0,0.0,0.0,0.0,0.0,0.0,0.0,0.0,0.0
55.0,2083.0,55230.80787513779,44184.521835762105,-0.0,0.0,0.0,0.0,36639.348578147445,43435.66,0.0,0.0,71387.87657814744,0.7276830189924165,0.17272180036259732,0.5051020408163246,34748.528000000006,8687.132000000001,43435.66,"[1.436792034885702, 0.9022317549652072, 1.8140034067483022, 0.5800736170334204, 0.2706866726804513, 0.9235522942838763, 0.8860106143538466, 0.917658154672587, 0.9620585584356931]",23.44,0.0,0.0,0.0,161.8283842844451,43.16846349547108,-2794.691280649155,-4222.486620810855,6816.008502000457,0.0,0.0,0.0,0.0,0.0,0.0,-9.9,21.919020079450114,0.0,21.051709906363886,0.0,-9.9,23.44,19.97,22.14,22.58,23.05,-10.42,-9.9,0.0,-1941.09,-2028.28,0.0,108.0,14.0,60.0,0.0,0.0,0.0,0.0,0.0,0.0,0.0,0.0,0.0,0.0,0.0,0.0,0.0,0.0
56.0,1136.0,6160.041207651843,7144.74059876465,-0.0,0.0,2151.499597151065,0.0,11679.812742078106,0.0,0.0,0.0,11679.812742078106,0.3334184613236443,0.17272180036259732,0.5051020408163246,0.0,0.0,0.0,"[1.436792034885702, 0.9022317549652072, 1.8140034067482986, 0.5800736170334204, 0.2706866726804513, 0.9235522942838763, 0.8860106143538466, 0.917658154672587, 0.9620585584356931]",23.44,0.0,0.0,3.7045571708728477,149.87842352322718,43.35453445881362,-2777.9248726652995,-3930.031259507595,0.0,0.0,0.0,0.0,0.0,0.0,0.0,-9.7,22.025957283857654,0.0,21.182937008071665,0.0,-9.7,23.44,20.04,22.33,22.45,23.02,-10.24,-9.7,419.78,-1929.44,-2016.11,5.97,136.0,0.0,38.0,0.0,0.0,0.0,0.0,0.0,0.0,0.0,0.0,0.0,0.0,0.0,0.0,0.0,0.0
57.0,1318.0,17393.68866925344,0.0,-0.0,11.279774092829538,-16000.0,0.0,20666.59980165948,0.0,20666.599801659482,0.0,0.0,0.914159202064385,0.09461673686426217,0.5051020408163246,0.0,0.0,0.0,"[1.436792034885702, 0.9022317549652072, 1.8140034067482986, 0.5800736170334204, 0.2706866726804513, 0.9235522942838763, 0.8860106143538466, 0.917658154672587, 0.9620585584356931]",21.05,0.0,0.0,42.838610315163606,134.041126128842,3.0391590679282774,-2376.736735566542,701.347037130991,161.62821157234717,0.0,0.0,0.0,0.0,0.0,0.0,-7.3,21.332248986994276,0.0,21.128012481510677,0.0,-7.3,21.05,19.99,22.26,20.79,21.74,-7.81,-7.3,0.0,-1650.79,-1724.94,69.07,0.0,0.0,98.0,0.0,0.0,0.0,0.0,0.0,0.0,0.0,0.0,0.0,0.0,0.0,0.0,0.0,0.0
58.0,2244.0,0.0,12763.446627398476,-0.0,51.37285310814971,14956.073774290326,0.0,26340.454981051902,0.0,0.0,0.0,26340.454981051906,0.34892587726127366,0.09461673686426217,0.5051020408163246,0.0,0.0,0.0,"[1.436792034885702, 0.9022317549652072, 1.8140034067482986, 0.5800736170334204, 0.2706866726804513, 0.9235522942838763, 0.8860106143538466, 0.917658154672587, 0.9620585584356931]",20.56,0.0,0.0,77.35955191914276,77.96269580963256,1.767674151754202,-2159.782278580082,1428.459144029495,4784.825040467532,0.0,0.0,0.0,0.0,0.0,0.0,-5.2,21.10840385796137,0.0,21.01382005774399,0.0,-5.2,20.56,19.92,22.11,20.54,21.49,-5.75,-5.2,0.0,-1500.1,-1567.49,124.73,0.0,0.0,57.0,0.0,0.0,0.0,0.0,0.0,0.0,0.0,0.0,0.0,0.0,0.0,0.0,0.0,0.0
59.0,2656.0,0.0,5919.74686481563,-0.0,8575.74686481563,0.0,0.0,13232.653247200495,0.0,0.0,0.0,13232.653247200496,0.34892587726127366,0.09461673686426217,0.5051020408163246,0.0,0.0,0.0,"[1.436792034885702, 0.9022317549652072, 1.8140034067482986, 0.5800736170334204, 0.2706866726804513, 0.9235522942838763, 0.8860106143538466, 0.917658154672587, 0.9620585584356931]",22.11,0.0,0.0,2094.3259182087527,88.90482855484417,2.015768769544263,-2138.2242987404634,-1616.682315572516,0.0,0.0,0.0,0.0,0.0,0.0,0.0,-3.4,21.534736344486184,0.0,21.020662316414175,0.0,-3.4,22.11,19.93,22.12,21.63,22.32,-2.52,-3.4,4258.82,-1485.13,-1551.84,3376.66,0.0,0.0,65.0,0.0,0.0,0.0,0.0,0.0,0.0,0.0,0.0,0.0,0.0,0.0,0.0,0.0,0.0
60.0,4439.0,0.0,7253.803789540506,-0.0,13630.560232342152,-1937.7564428016458,0.0,16906.252847209173,0.0,0.0,0.0,16906.252847209173,0.41925925925925933,0.09461673686426217,0.5051020408163246,0.0,0.0,0.0,"[1.436792034885702, 0.9022317549652072, 1.8140034067482986, 0.5800736170334204, 0.2706866726804513, 0.9235522942838763, 0.8860106143538466, 0.917658154672587, 0.9620585584356931]",21.56,0.0,0.0,2171.6564264066938,265.70665764852623,42.455191469324646,-2008.5393870289313,-438.4468924063282,0.0,0.0,0.0,0.0,0.0,0.0,0.0,-2.4,21.41789329763836,0.0,21.06397385614412,0.0,-2.4,21.56,19.96,22.16,21.48,22.28,-1.48,-2.4,0.0,-1395.06,-1457.72,3501.34,124.0,0.0,129.0,0.0,0.0,0.0,0.0,0.0,0.0,0.0,0.0,0.0,0.0,0.0,0.0,0.0,0.0
61.0,3942.0,898.679710534656,8886.928031213982,-0.0,11934.741719231999,0.0,0.0,20966.69870743001,0.0,0.0,0.0,20966.69870743001,0.41925925925925933,0.09461673686426217,0.5051020408163246,0.0,0.0,0.0,"[1.436792034885702, 0.9022317549652072, 1.8140034067482986, 0.5800736170334204, 0.2706866726804513, 0.9235522942838763, 0.8860106143538466, 0.917658154672587, 0.9620585584356931]",21.6,0.0,0.0,1846.5668290659723,246.70190077526394,37.6173464224184,-1986.7070087184468,-443.27856113618896,0.0,0.0,0.0,0.0,0.0,0.0,0.0,-2.1,21.455651332885797,0.0,21.10113249715201,0.0,-2.1,21.6,20.0,22.2,21.55,22.34,-1.39,-2.1,0.0,-1379.89,-1441.87,2977.2,109.0,0.0,123.0,0.0,0.0,0.0,0.0,0.0,0.0,0.0,0.0,0.0,0.0,0.0,0.0,0.0,0.0
62.0,3366.0,39067.28862702385,25930.325053686636,-0.0,6424.372869797907,-16000.0,0.0,25968.23749488678,0.0,-33478.09334318449,0.0,59446.33083807127,1.0,0.21612981640619106,0.505102040816324,0.0,0.0,0.0,"[1.436792034885702, 0.9022317549652072, 1.8140034067482986, 0.5800736170334204, 0.2706866726804513, 0.9235522942838763, 0.8860106143538466, 0.917658154672587, 0.9620585584356931]",21.51,0.0,0.0,913.3651498507992,239.35915380150354,5.42706976415764,-2038.1670972956701,-239.01425458792397,6341.190722138215,0.0,0.0,0.0,0.0,0.0,0.0,-2.8,21.445341005833438,0.0,21.1212279478983,0.0,-2.8,21.51,20.03,22.21,21.45,22.25,-2.71,-2.8,0.0,-1415.64,-1479.22,1472.61,0.0,0.0,175.0,0.0,0.0,0.0,0.0,0.0,0.0,0.0,0.0,0.0,0.0,0.0,0.0,0.0,0.0
63.0,4592.0,14294.188186390747,9630.717245458794,-0.0,0.0,0.0,0.0,20609.811890672638,0.0,0.0,0.0,20609.811890672638,1.0,0.21612981640619106,0.505102040816324,0.0,0.0,0.0,"[1.436792034885702, 0.9022317549652072, 1.8140034067482986, 0.5800736170334204, 0.2706866726804513, 0.9235522942838763, 0.8860106143538466, 0.917658154672587, 0.9620585584356931]",23.44,0.0,0.0,12.34482671265342,303.4282205333345,38.60972489357866,-2333.6150610931345,-3789.9641440859914,5772.170661820366,0.0,0.0,0.0,0.0,0.0,0.0,-4.4,22.072835264285793,0.0,21.252004939417127,0.0,-4.4,23.44,20.13,22.38,22.66,23.22,-4.99,-4.4,5079.96,-1620.84,-1693.65,19.9,108.0,0.0,165.0,0.0,0.0,0.0,0.0,0.0,0.0,0.0,0.0,0.0,0.0,0.0,0.0,0.0,0.0
64.0,3585.0,0.0,9973.031595334396,-0.0,0.0,13558.031595334396,0.0,20676.83554016504,0.0,0.0,0.0,20676.83554016504,0.48760273638192,0.21612981640619106,0.505102040816324,0.0,0.0,0.0,"[1.436792034885702, 0.9022317549652072, 1.8140034067482986, 0.5800736170334204, 0.2706866726804513, 0.9235522942838763, 0.8860106143538466, 0.917658154672587, 0.9620585584356931]",23.44,0.0,0.0,0.0,489.4444772019316,52.751118107612285,-2392.2974890366277,-3538.948162158706,0.0,0.0,0.0,0.0,0.0,0.0,0.0,-5.1,22.16534769385787,0.0,21.370272764893052,0.0,-5.1,23.44,20.21,22.53,22.45,23.09,-5.69,-5.1,2359.19,-1661.6,-1736.24,0.0,138.0,2.0,285.0,0.0,0.0,0.0,0.0,0.0,0.0,0.0,0.0,0.0,0.0,0.0,0.0,0.0,0.0
65.0,5834.0,17263.51618273963,11343.19860182593,-0.0,0.0,0.0,0.0,22652.462781984643,0.0,0.0,0.0,22652.462781984646,0.48760273638192,0.21612981640619106,0.505102040816324,0.0,0.0,0.0,"[1.436792034885702, 0.9022317549652072, 1.8140034067482986, 0.5800736170334204, 0.2706866726804513, 0.9235522942838763, 0.8860106143538466, 0.917658154672587, 0.9620585584356931]",21.46,0.0,0.0,0.0,501.3224502477205,50.73534933806802,-2293.7847246028223,293.2193468590827,0.0,0.0,0.0,0.0,0.0,0.0,0.0,-5.9,21.592519898785902,0.0,21.330289661454707,0.0,-5.9,21.46,20.19,22.47,21.08,22.01,-6.47,-5.9,0.0,-1593.18,-1664.74,0.0,117.0,9.0,304.0,0.0,0.0,0.0,0.0,0.0,0.0,0.0,0.0,0.0,0.0,0.0,0.0,0.0,0.0
66.0,7075.0,0.0,5826.968404665602,-0.0,0.0,12901.968404665602,0.0,12912.051991650693,0.0,1719.9494210781468,0.0,11192.102570572546,0.0,0.20962962962962967,0.505102040816324,0.0,0.0,0.0,"[1.436792034885702, 0.9022317549652072, 1.8140034067482986, 0.5800736170334204, 0.2706866726804513, 0.9235522942838763, 0.8860106143538466, 0.917658154672587, 0.9620585584356931]",20.93,0.0,0.0,0.0,1784.1435391929215,71.20315530574828,-2316.2455061461314,1124.3507671107143,6189.594196100986,0.0,0.0,0.0,0.0,0.0,0.0,-6.7,21.365006610841164,0.0,21.227731970847053,0.0,-6.7,20.93,20.13,22.33,20.81,21.75,-7.26,-6.7,3549.14,-1608.78,-1681.04,0.0,82.0,12.0,1260.0,0.0,0.0,0.0,0.0,0.0,0.0,0.0,0.0,0.0,0.0,0.0,0.0,0.0,0.0
67.0,10374.0,24439.334672236968,13943.137998875782,-0.0,0.0,0.0,0.0,25850.700369595248,0.0,0.0,0.0,25850.700369595244,0.0,0.20962962962962967,0.505102040816324,0.0,0.0,0.0,"[1.436792034885702, 0.9022317549652072, 1.8140034067482986, 0.5800736170334204, 0.2706866726804513, 0.9235522942838763, 0.8860106143538466, 0.917658154672587, 0.9620585584356931]",23.44,0.0,0.0,0.0,4708.068576773574,162.4709628252679,-2585.1111808509636,-3715.9817797935684,0.0,0.0,0.0,0.0,0.0,0.0,0.0,-7.4,22.102426699823596,0.0,21.293207634805817,0.0,-7.4,23.44,20.17,22.42,22.47,23.05,-7.96,-7.4,0.0,-1795.52,-1876.17,0.0,133.0,30.0,3369.0,0.0,0.0,0.0,0.0,0.0,0.0,0.0,0.0,0.0,0.0,0.0,0.0,0.0,0.0
68.0,5590.0,30115.489366093112,8374.91191926265,-0.0,0.0,-15999.999999999998,0.0,14888.435445572715,0.0,0.0,0.0,14888.435445572715,0.5807407407407407,0.20962962962962967,0.49285714285714033,0.0,0.0,0.0,"[0.9076648573055195, 0.9022317549652108, 1.8140034067482986, 0.5800736170334204, 0.2706866726804513, 0.9235522942838728, 0.8860106143538466, 0.917658154672587, 0.9620585584356931]",22.91,0.0,0.0,0.0,537.5322711085192,12.187648098936876,-2607.819002113109,-2625.6042207330847,0.0,0.0,0.0,0.0,0.0,0.0,0.0,-8.2,21.972804101869308,0.0,21.31116629650628,0.0,-8.2,22.91,20.18,22.45,21.7,22.48,-8.75,-8.2,0.0,-1811.29,-1892.65,0.0,0.0,0.0,393.0,0.0,0.0,0.0,0.0,0.0,0.0,0.0,0.0,0.0,0.0,0.0,0.0,0.0,0.0
69.0,4379.0,0.0,0.0,-0.0,0.0,4379.0,0.0,40270.26676996027,0.0,40270.266769960275,0.0,0.0,0.41524565381708234,0.05743663352244796,0.49285714285714033,0.0,0.0,0.0,"[0.9076648573055195, 0.9022317549652108, 1.8140034067482986, 0.5800736170334204, 0.2706866726804513, 0.9235522942838728, 0.8860106143538466, 0.917658154672587, 0.9620585584356931]",21.19,0.0,0.0,0.0,487.5727966007771,59.75979106018158,-2522.6864045275984,639.1802875432084,6026.2559134960875,0.0,0.0,0.0,0.0,0.0,0.0,-8.9,21.451951265585322,0.0,21.244299253892883,0.0,-8.9,21.19,20.13,22.36,20.91,21.84,-9.44,-8.9,254.73,-1752.16,-1830.87,0.0,162.0,2.0,271.0,0.0,0.0,0.0,0.0,0.0,0.0,0.0,0.0,0.0,0.0,0.0,0.0,0.0,0.0
70.0,4195.0,21633.991792567147,17330.82183360431,-0.0,0.0,0.0,0.0,28331.43497439449,0.0,0.0,0.0,28331.43497439449,0.41524565381708234,0.05743663352244796,0.49285714285714033,0.0,0.0,0.0,"[0.9076648573055195, 0.9022317549652108, 1.8140034067482986, 0.5800736170334204, 0.2706866726804513, 0.9235522942838728, 0.8860106143538466, 0.917658154672587, 0.9620585584356931]",22.91,0.0,0.0,0.0,711.9585055930436,64.81471889765413,-2733.567061992024,-2675.493038652072,4638.033547841286,0.0,0.0,0.0,0.0,0.0,0.0,-9.7,21.955785675594043,0.0,21.286561223148965,0.0,-9.7,22.91,20.15,22.43,22.22,22.87,-10.24,-9.7,756.9,-1898.63,-1983.92,0.0,92.0,39.0,468.0,0.0,0.0,0.0,0.0,0.0,0.0,0.0,0.0,0.0,0.0,0.0,0.0,0.0,0.0
71.0,3162.0,43992.346158919885,24610.38442812528,-0.0,0.0,-16000.0,0.0,38589.318562013104,0.0,0.0,0.0,38589.318562013104,0.995986394557823,0.05743663352244796,0.44999999999999746,0.0,0.0,0.0,"[0.9076648573055195, 0.9022317549652108, 1.8140034067482986, 0.5800736170334204, 0.2706866726804513, 0.9235522942838728, 0.8860106143538466, 0.917658154672587, 0.9620585584356931]",22.91,0.0,0.0,0.0,630.2524485811018,73.96320792866273,-2792.2494899355165,-2547.977834643694,4369.9888948207745,0.0,0.0,0.0,0.0,0.0,0.0,-10.4,22.003065033575318,0.0,21.34378724762427,0.0,-10.4,22.91,20.18,22.51,22.12,22.83,-10.94,-10.4,3870.68,-1939.39,-2026.51,0.0,103.0,53.0,401.0,0.0,0.0,0.0,0.0,0.0,0.0,0.0,0.0,0.0,0.0,0.0,0.0,0.0,0.0
72.0,2341.0,0.0,10668.300603012778,-0.0,0.0,13009.300603012778,0.0,16219.47663460509,0.0,0.0,0.0,16219.47663460509,0.5043272636805449,0.05743663352244796,0.44999999999999746,0.0,0.0,0.0,"[0.9076648573055195, 0.9022317549652108, 1.8140034067482986, 0.5800736170334204, 0.2706866726804513, 0.9235522942838728, 0.8860106143538466, 0.917658154672587, 0.9620585584356931]",22.81,0.0,0.0,0.0,235.9037434609104,36.0667550612305,-2825.7977423222255,-2249.197104709046,121.43823970318743,0.0,0.0,0.0,0.0,0.0,0.0,-10.9,22.013015189995574,0.0,21.388339435757633,0.0,-10.9,22.81,20.2,22.58,22.07,22.82,-11.46,-10.9,3587.6,-1962.69,-2050.85,0.0,80.0,13.0,129.0,0.0,0.0,0.0,0.0,0.0,0.0,0.0,0.0,0.0,0.0,0.0,0.0,0.0,0.0
73.0,3003.0,31465.63584040897,25540.313280727143,-0.0,0.0,-2764.9943804797817,0.0,37369.135822318436,0.0,0.0,0.0,37369.135822318436,0.6046863189720333,0.05743663352244796,0.44999999999999746,0.0,0.0,0.0,"[0.9076648573055195, 0.9022317549652108, 1.8140034067482986, 0.5800736170334204, 0.2706866726804513, 0.9235522942838728, 0.8860106143538466, 0.917658154672587, 0.9620585584356931]",21.09,0.0,0.0,0.0,273.6972940611477,29.709330480360123,-2732.2819407447996,983.3145707186935,6405.559341714155,0.0,0.0,0.0,0.0,0.0,0.0,-11.5,21.480280977187014,0.0,21.305449583322222,0.0,-11.5,21.09,20.13,22.48,20.91,21.9,-12.07,-11.5,3571.61,-1897.74,-1982.98,0.0,80.0,0.0,158.0,0.0,0.0,0.0,0.0,0.0,0.0,0.0,0.0,0.0,0.0,0.0,0.0,0.0,0.0
74.0,1327.0,1351.3504884188758,16017.593735976781,-0.0,0.0,16000.0,0.0,22367.128973416482,0.0,0.0,0.0,22367.128973416482,0.0,0.05743663352244796,0.44999999999999746,0.0,0.0,0.0,"[0.9076648573055195, 0.9022317549652108, 1.8140034067482986, 0.5800736170334204, 0.2706866726804513, 0.9235522942838728, 0.8860106143538466, 0.917658154672587, 0.9620585584356931]",22.91,0.0,0.0,0.0,186.16023209945507,27.724573538039614,-2943.147161790215,-2548.9074531875344,323.26347912312093,0.0,0.0,0.0,0.0,0.0,0.0,-12.2,22.004280130084236,0.0,21.337709549096306,0.0,-12.2,22.91,20.14,22.53,22.26,22.95,-12.79,-12.2,3523.61,-2044.2,-2136.02,0.0,80.0,0.0,94.0,0.0,0.0,0.0,0.0,0.0,0.0,0.0,0.0,0.0,0.0,0.0,0.0,0.0,0.0
75.0,789.0,35896.14204439576,34267.93621963817,-0.0,0.0,-659.725114535613,0.0,46545.34374208572,0.0,0.0,0.0,46545.34374208572,0.02394557823129262,0.05743663352244796,0.44999999999999746,0.0,0.0,0.0,"[0.9076648573055195, 0.9022317549652108, 1.8140034067482986, 0.5800736170334204, 0.2706866726804513, 0.9235522942838728, 0.8860106143538466, 0.917658154672587, 0.9620585584356931]",21.09,0.0,0.0,0.0,161.540433422729,27.166360648011974,-2824.4971846560043,893.7230473661971,6701.840471946998,0.0,0.0,0.0,0.0,0.0,0.0,-12.6,21.448409880397087,0.0,21.259040125351717,0.0,-12.6,21.09,20.08,22.44,20.89,21.88,-13.18,-12.6,749.82,-1961.79,-2049.91,0.0,80.0,0.0,76.0,0.0,0.0,0.0,0.0,0.0,0.0,0.0,0.0,0.0,0.0,0.0,0.0,0.0,0.0
76.0,875.0,29818.090925718192,12794.0004710896,-0.0,0.0,-16000.0,0.0,16889.917857826145,0.0,0.0,0.0,16889.91785782614,0.6046863189720333,0.05743663352244796,0.44999999999999746,0.0,0.0,0.0,"[0.9076648573055195, 0.9022317549652108, 1.8140034067482986, 0.5800736170334204, 0.2706866726804513, 0.9235522942838728, 0.8860106143538466, 0.917658154672587, 0.9620585584356931]",22.91,0.0,0.0,0.0,277.8005938406022,29.802365962031402,-3010.2127937256355,-2628.3504777047947,376.2382048571164,0.0,0.0,0.0,0.0,0.0,0.0,-13.0,21.975855706605657,0.0,21.29495231596154,0.0,-13.0,22.91,20.09,22.5,22.26,22.95,-13.58,-13.0,1522.34,-2090.78,-2184.69,0.0,80.0,0.0,161.0,0.0,0.0,0.0,0.0,0.0,0.0,0.0,0.0,0.0,0.0,0.0,0.0,0.0,0.0
77.0,892.0,0.0,15108.0,-0.0,0.0,16000.0,0.0,19368.612727635853,0.0,0.0,0.0,19368.612727635853,0.0,0.05743663352244796,0.44999999999999746,0.0,0.0,0.0,"[0.9076648573055195, 0.9022317549652108, 1.8140034067482986, 0.5800736170334204, 0.2706866726804513, 0.9235522942838728, 0.8860106143538466, 0.917658154672587, 0.9620585584356931]",21.09,0.0,0.0,0.0,226.4733527397083,36.40788516069185,-2891.562816591425,817.5251169784449,6771.748972336661,0.0,0.0,0.0,0.0,0.0,0.0,-13.4,21.42118280834929,0.0,21.217443471008885,0.0,-13.4,21.09,20.02,22.41,20.87,21.87,-13.99,-13.4,403.29,-2008.37,-2098.58,0.0,80.0,14.0,122.0,0.0,0.0,0.0,0.0,0.0,0.0,0.0,0.0,0.0,0.0,0.0,0.0,0.0,0.0
78.0,2159.0,21555.504419598114,19288.726897500124,-0.0,0.0,0.0,0.0,23992.806568359316,0.0,0.0,0.0,23992.80656835932,0.0,0.05743663352244796,0.44999999999999746,0.0,0.0,0.0,"[0.9076648573055195, 0.9022317549652108, 1.8140034067482986, 0.5800736170334204, 0.2706866726804513, 0.9235522942838728, 0.8860106143538466, 0.917658154672587, 0.9620585584356931]",22.91,0.0,0.0,0.0,222.22607752939592,58.705388934573804,-3077.2784256610566,-2700.5159042485407,544.7033873032321,0.0,0.0,0.0,0.0,0.0,0.0,-13.8,21.950105392698525,0.0,21.254901680140087,0.0,-13.8,22.91,20.03,22.48,22.24,22.94,-14.39,-13.8,4658.28,-2137.36,-2233.37,0.0,160.0,12.0,77.0,0.0,0.0,0.0,0.0,0.0,0.0,0.0,0.0,0.0,0.0,0.0,0.0,0.0,0.0
79.0,1065.0,25092.65074442345,23902.18749070133,-0.0,0.0,0.0,0.0,29047.78409951549,0.0,0.0,0.0,29047.78409951549,0.0,0.05743663352244796,0.44999999999999746,0.0,0.0,0.0,"[0.9076648573055195, 0.9022317549652108, 1.8140034067482986, 0.5800736170334204, 0.2706866726804513, 0.9235522942838728, 0.8860106143538466, 0.917658154672587, 0.9620585584356931]",21.09,0.0,0.0,0.0,158.08502308213588,37.95847652187973,-2950.2452445349186,753.781228461492,2003.786031371798,0.0,0.0,0.0,0.0,0.0,0.0,-14.1,21.398435454801366,0.0,21.180915447987417,0.0,-14.1,21.09,19.96,22.4,20.87,21.87,-14.7,-14.1,4032.17,-2049.13,-2141.17,0.0,117.0,0.0,54.0,0.0,0.0,0.0,0.0,0.0,0.0,0.0,0.0,0.0,0.0,0.0,0.0,0.0,0.0
80.0,1289.0,34033.86559171838,16574.696263759786,-0.0,0.0,-15999.999999999998,0.0,19984.839224556352,0.0,0.0,0.0,19984.839224556352,0.5807407407407407,0.05743663352244796,0.44999999999999746,0.0,0.0,0.0,"[0.9076648573055195, 0.9022317549652108, 1.8140034067483022, 0.5800736170334204, 0.2706866726804513, 0.9235522942838728, 0.8860106143538466, 0.917658154672587, 0.9620585584356931]",21.09,0.0,0.0,2.755804440434857,161.39645799187096,31.5700401137856,-2958.628448526846,563.1478520836516,2202.457151464655,0.0,0.0,0.0,0.0,0.0,0.0,-14.2,21.328706761940108,0.0,21.08894465523973,0.0,-14.2,21.09,19.89,22.29,20.95,21.9,-14.79,-14.2,1130.32,-2054.95,-2147.26,4.44,95.0,0.0,68.0,0.0,0.0,0.0,0.0,0.0,0.0,0.0,0.0,0.0,0.0,0.0,0.0,0.0,0.0
81.0,1464.0,8442.848161786778,11223.417525280724,-0.0,13.983604302882458,4272.7999999999965,0.0,15993.481951098589,0.0,0.0,0.0,15993.48195109859,0.41925925925925933,0.05743663352244796,0.44999999999999746,0.0,0.0,0.0,"[0.9076648573055195, 0.9022317549652108, 1.8140034067483022, 0.5800736170334204, 0.2706866726804513, 0.9235522942838728, 0.8860106143538466, 0.917658154672587, 0.9620585584356931]",21.09,0.0,0.0,44.07569810938569,84.80152877538983,1.9227332878729908,-2765.8147567125106,396.5614104048856,2237.020662574178,0.0,0.0,0.0,0.0,0.0,0.0,-11.9,21.26571891982396,0.0,21.005143654764773,0.0,-11.9,21.09,19.81,22.2,20.92,21.85,-12.43,-11.9,2048.42,-1921.03,-2007.32,71.06,0.0,0.0,62.0,0.0,0.0,0.0,0.0,0.0,0.0,0.0,0.0,0.0,0.0,0.0,0.0,0.0,0.0
82.0,2341.0,30993.608887487728,28545.676979818218,-0.0,48.03613676792861,0.0,0.0,45848.43378086193,0.0,0.0,0.0,45848.433780861924,0.41925925925925933,0.05743663352244796,0.44999999999999635,0.0,0.0,0.0,"[0.9076648573055195, 0.9022317549652108, 1.8140034067483022, 0.5800736170334204, 0.2706866726804513, 0.9235522942838728, 0.8860106143538466, 0.917658154672587, 0.9620585584356931]",21.09,0.0,0.0,75.4648662715533,72.4916294370268,1.6436268428591692,-2606.5338808658853,251.35256263397116,2818.6444369713518,0.0,0.0,0.0,0.0,0.0,0.0,-10.0,21.210937028346823,0.0,20.933437767109172,0.0,-10.0,21.09,19.76,22.11,20.89,21.8,-10.51,-10.0,0.0,-1810.4,-1891.72,121.67,0.0,0.0,53.0,0.0,0.0,0.0,0.0,0.0,0.0,0.0,0.0,0.0,0.0,0.0,0.0,0.0,0.0
83.0,4261.0,8608.315120512018,12445.233737995095,-0.0,8140.960193085636,0.0,0.0,21768.48615001124,0.0,0.0,0.0,21768.486150011242,0.41925925925925933,0.05743663352244796,0.44999999999999635,0.0,0.0,0.0,"[0.9076648573055195, 0.9022317549652108, 1.8140034067483022, 0.5800736170334204, 0.2706866726804513, 0.9235522942838728, 0.8860106143538466, 0.917658154672587, 0.9620585584356931]",21.32,0.0,0.0,1979.5278370460335,114.89239382472171,2.604993486795667,-2499.6856279767985,-284.7739591409304,0.0,0.0,0.0,0.0,0.0,0.0,0.0,-8.5,21.237837627065662,0.0,20.88836456902707,0.0,-8.5,21.32,19.72,22.06,21.02,21.88,-7.64,-8.5,51.07,-1736.19,-1814.17,3191.57,0.0,0.0,84.0,0.0,0.0,0.0,0.0,0.0,0.0,0.0,0.0,0.0,0.0,0.0,0.0,0.0,0.0
84.0,4832.0,0.0,9705.164852578462,-0.0,14537.164852578462,0.0,0.0,17900.93860194937,0.0,0.0,0.0,17900.938601949365,0.41925925925925933,0.05743663352244796,0.44999999999999635,0.0,0.0,0.0,"[0.9076648573055195, 0.9022317549652108, 1.8140034067483022, 0.5800736170334204, 0.2706866726804513, 0.9235522942838728, 0.8860106143538466, 0.917658154672587, 0.9620585584356931]",21.09,0.0,0.0,2208.99363954974,99.84696130005575,2.263863387334329,-2396.953781067694,162.05503610756946,4801.010066996387,0.0,0.0,0.0,0.0,0.0,0.0,-7.5,21.174863325769333,0.0,20.88641168945913,0.0,-7.5,21.09,19.72,22.05,21.13,22.02,-6.5,-7.5,0.0,-1664.84,-1739.62,3561.53,0.0,0.0,73.0,0.0,0.0,0.0,0.0,0.0,0.0,0.0,0.0,0.0,0.0,0.0,0.0,0.0,0.0
85.0,3194.0,21330.68068110734,14444.398262295032,-0.0,12414.37098459323,-16000.0,0.0,27055.44706548888,0.0,0.0,0.0,27055.44706548888,1.0,0.05743663352244796,0.44999999999999635,0.0,0.0,0.0,"[0.9076648573055195, 0.9022317549652108, 1.8140034067483022, 0.5800736170334204, 0.2706866726804513, 0.9235522942838728, 0.8860106143538466, 0.917658154672587, 0.9620585584356931]",22.91,0.0,0.0,1969.0827577901207,285.6472548223657,54.95295784049909,-2523.9869621938324,-3153.5676347036133,3301.1209749712775,0.0,0.0,0.0,0.0,0.0,0.0,-7.2,21.777444575037457,0.0,21.021260066172893,0.0,-7.2,22.91,19.81,22.23,22.46,23.11,-6.34,-7.2,0.0,-1753.07,-1831.81,3174.73,165.0,0.0,122.0,0.0,0.0,0.0,0.0,0.0,0.0,0.0,0.0,0.0,0.0,0.0,0.0,0.0,0.0
86.0,6149.0,9446.463297409493,12531.203453422137,-0.0,9280.97247249969,0.0,0.0,22874.56989092991,0.0,0.0,0.0,22874.569890929906,1.0,0.05743663352244796,0.44999999999999635,0.0,0.0,0.0,"[0.9076648573055195, 0.9022317549652108, 1.8140034067483022, 0.5800736170334204, 0.2706866726804513, 0.9235522942838728, 0.8860106143538466, 0.917658154672587, 0.9620585584356931]",22.91,0.0,0.0,1653.8304489893424,409.97003936828946,39.850197982528975,-2565.902982153471,-2855.961282473447,3261.5907825288095,0.0,0.0,0.0,0.0,0.0,0.0,-7.7,21.887032237610164,0.0,21.160852106424464,0.0,-7.7,22.91,19.91,22.41,22.35,23.08,-7.07,-7.7,0.0,-1782.18,-1862.23,2666.45,104.0,0.0,245.0,0.0,0.0,0.0,0.0,0.0,0.0,0.0,0.0,0.0,0.0,0.0,0.0,0.0,0.0
87.0,3547.0,0.0,8827.05251188064,-0.0,1.5591290876684307,12372.49338279297,0.0,14682.412910939176,0.0,0.0,0.0,14682.412910939176,0.5324076574908174,0.05743663352244796,0.44132653061224125,0.0,0.0,0.0,"[0.9076648573055195, 0.9022317549652108, 1.8140034067483022, 0.5800736170334204, 0.2706866726804513, 0.9235522942838728, 0.8860106143538466, 0.917658154672587, 0.9620585584356931]",22.91,0.0,0.0,18.771545113329235,190.2635318789094,38.981866820263754,-2708.4174500162408,-2617.09360518865,122.9030955809339,0.0,0.0,0.0,0.0,0.0,0.0,-9.4,21.976913465618132,0.0,21.275937651507277,0.0,-9.4,22.91,19.99,22.56,22.32,23.1,-9.93,-9.4,1359.21,-1881.17,-1965.66,30.27,118.0,0.0,77.0,0.0,0.0,0.0,0.0,0.0,0.0,0.0,0.0,0.0,0.0,0.0,0.0,0.0,0.0
88.0,4838.0,20954.56870149294,16011.795857985475,-0.0,0.0,0.0,0.0,26938.393670530262,0.0,0.0,0.0,26938.393670530262,0.5324076574908174,0.05743663352244796,0.42959183673469026,0.0,0.0,0.0,"[0.9076648573055195, 0.9022317549652108, 1.8140034067483022, 0.5800736170334204, 0.2706866726804513, 0.9235522942838728, 0.8860106143538466, 0.917658154672587, 0.9620585584356931]",21.09,0.0,0.0,0.0,1155.258857204971,79.14218307503032,-2539.4682489304637,834.3871571829904,5435.0615159604085,0.0,0.0,0.0,0.0,0.0,0.0,-9.2,21.4237941478912,0.0,21.20499056363336,0.0,-9.2,21.09,19.95,22.46,20.83,21.88,-9.75,-9.2,0.0,-1763.82,-1843.05,0.0,116.0,34.0,780.0,0.0,0.0,0.0,0.0,0.0,0.0,0.0,0.0,0.0,0.0,0.0,0.0,0.0,0.0
89.0,4579.0,23975.71049513016,19276.83194265451,-0.0,0.0,0.0,0.0,32799.06453324681,0.0,0.0,0.0,32799.064533246805,0.5324076574908174,0.05743663352244796,0.42959183673469026,0.0,0.0,0.0,"[0.9076648573055195, 0.9022317549652108, 1.8140034067483022, 0.5800736170334204, 0.2706866726804513, 0.9235522942838728, 0.8860106143538466, 0.917658154672587, 0.9620585584356931]",22.91,0.0,0.0,0.0,1265.6160249576642,130.83889905703484,-2674.88463404853,-2704.440251307442,2736.386975688316,0.0,0.0,0.0,0.0,0.0,0.0,-9.0,21.944575870141296,0.0,21.236938312417415,0.0,-9.0,22.91,19.97,22.5,22.11,22.87,-9.52,-9.0,478.47,-1857.88,-1941.33,0.0,155.0,102.0,833.0,0.0,0.0,0.0,0.0,0.0,0.0,0.0,0.0,0.0,0.0,0.0,0.0,0.0,0.0
90.0,6164.0,17979.509605896892,11725.61205786741,-0.0,0.0,0.0,0.0,20174.413774599045,0.0,0.0,0.0,20174.41377459905,0.5324076574908174,0.05743663352244796,0.4214285714285678,0.0,0.0,0.0,"[0.9076648573055195, 0.9022317549652108, 1.8140034067483022, 0.5800736170334204, 0.2706866726804513, 0.9235522942838728, 0.8860106143538466, 0.917658154672587, 0.9620585584356931]",22.45,0.0,0.0,0.0,1184.6298451000125,136.57608709343003,-2619.4971661061873,-1746.4593136908313,0.0,0.0,0.0,0.0,0.0,0.0,0.0,-8.8,21.83411584068952,0.0,21.25732012322616,0.0,-8.8,22.45,19.99,22.52,21.69,22.56,-9.3,-8.8,1514.87,-1819.41,-1901.13,0.0,143.0,122.0,778.0,0.0,0.0,0.0,0.0,0.0,0.0,0.0,0.0,0.0,0.0,0.0,0.0,0.0,0.0
91.0,9440.0,20131.21058538768,10590.554532460741,-0.0,0.0,0.0,0.0,18322.462079261248,0.0,0.0,0.0,18322.462079261248,0.5324076574908174,0.05743663352244796,0.4214285714285678,0.0,0.0,0.0,"[0.9076648573055195, 0.9022317549652108, 1.8140034067483022, 0.5800736170334204, 0.2706866726804513, 0.9235522942838728, 0.8860106143538466, 0.917658154672587, 0.9620585584356931]",21.33,0.0,0.0,0.0,1882.2627953226809,155.46228987269865,-2517.2734819394987,328.74151804796406,4479.534007711493,0.0,0.0,0.0,0.0,0.0,0.0,-8.7,21.473605450399777,0.0,21.18971507870971,0.0,-8.7,21.33,19.95,22.43,20.94,21.94,-9.19,-8.7,0.0,-1748.4,-1826.94,0.0,144.0,127.0,1287.0,0.0,0.0,0.0,0.0,0.0,0.0,0.0,0.0,0.0,0.0,0.0,0.0,0.0,0.0
92.0,6388.0,0.0,4510.8284123554495,-0.0,0.0,10898.82841235545,0.0,7890.081286272062,0.0,0.0,0.0,7890.081286272062,0.1205093803798783,0.05743663352244796,0.3795918367346903,0.0,0.0,0.0,"[0.9076648573055195, 0.9022317549652108, 1.583026519153801, 0.5800736170334169, 0.2706866726804513, 0.9235522942838728, 0.8860106143538466, 0.917658154672587, 0.9620585584356967]",22.91,0.0,0.0,0.0,1141.0772772654536,152.85729638590297,-2632.968614088892,-2746.0254830672347,0.0,0.0,0.0,0.0,0.0,0.0,0.0,-8.5,21.92889296376574,0.0,21.22025390047645,0.0,-8.5,22.91,19.97,22.47,22.03,22.79,-8.97,-8.5,286.69,-1828.76,-1910.91,0.0,130.0,160.0,749.0,0.0,0.0,0.0,0.0,0.0,0.0,0.0,0.0,0.0,0.0,0.0,0.0,0.0,0.0
93.0,5443.0,51832.77654512094,37899.74865245321,-0.0,0.0,-8230.864009942132,0.0,25083.954199136726,0.0,-41930.72341728476,0.0,67014.6776164215,0.41925925925925933,0.20962962962962967,0.3795918367346903,0.0,0.0,0.0,"[0.9076648573055195, 0.9022317549652108, 1.583026519153801, 0.5800736170334169, 0.2706866726804513, 0.9235522942838728, 0.8860106143538466, 0.917658154672587, 0.9620585584356967]",21.41,0.0,0.0,0.0,750.399945632142,120.82207886376102,-2490.381667039059,125.34318890290415,5603.141229607023,0.0,0.0,0.0,0.0,0.0,0.0,-8.3,21.4780508340785,0.0,21.169992321883704,0.0,-8.3,21.41,19.95,22.39,20.97,21.95,-8.76,-8.3,2421.48,-1729.73,-1807.42,0.0,155.0,105.0,456.0,0.0,0.0,0.0,0.0,0.0,0.0,0.0,0.0,0.0,0.0,0.0,0.0,0.0,0.0
94.0,3234.0,184719.97265044405,0.0,-22802.998750521638,0.0,-16000.0,0.0,47583.43663300311,0.0,-80000.0,0.0,0.0,1.0,0.5,0.4260204081632651,567037.4961466807,141759.37403667017,708796.8701833509,"[0.9076648573055195, 0.9022317549652108, 1.583026519153801, 0.5800736170334169, 0.2706866726804513, 0.9235522942838728, 0.8860106143538466, 0.917658154672587, 0.9620585584356967]",22.91,0.0,0.0,0.0,451.29098802454905,70.42785962515433,-2599.4357981211815,-2754.1055707148003,4838.066871139962,0.0,0.0,0.0,0.0,0.0,0.0,-8.1,21.92557734735681,0.0,21.218098943322463,0.0,-8.1,22.91,19.98,22.46,22.13,22.86,-8.55,-8.1,0.0,-1805.47,-1886.57,0.0,84.0,64.0,279.0,0.0,0.0,0.0,0.0,0.0,0.0,0.0,0.0,0.0,0.0,0.0,0.0,0.0,0.0
95.0,2513.0,0.0,10052.144268289658,-0.0,0.0,12565.144268289658,0.0,18157.612921598105,0.0,0.0,0.0,18157.612921598102,0.5251268228159616,0.5,0.4260204081632651,0.0,0.0,0.0,"[0.9076648573055195, 0.9022317549652108, 1.583026519153801, 0.5800736170334169, 0.2706866726804513, 0.9235522942838728, 0.8860106143538466, 0.917658154672587, 0.9620585584356967]",22.91,0.0,0.0,0.0,305.2999011344892,69.43548115399406,-2582.669390137326,-2612.001214716957,4826.091585201772,0.0,0.0,0.0,0.0,0.0,0.0,-7.9,21.977436091919735,0.0,21.284624216968545,0.0,-7.9,22.91,20.03,22.54,22.08,22.85,-8.34,-7.9,4052.84,-1793.83,-1874.4,0.0,141.0,38.0,145.0,0.0,0.0,0.0,0.0,0.0,0.0,0.0,0.0,0.0,0.0,0.0,0.0,0.0,0.0
96.0,1877.0,18611.517350056856,13789.789346511841,-0.0,0.0,-2851.670416794732,0.0,25697.85291438432,0.0,0.0,0.0,25697.85291438432,0.6286318972033259,0.5,0.4260204081632651,0.0,0.0,0.0,"[0.9076648573055195, 0.9022317549652108, 1.583026519153801, 0.5800736170334169, 0.2706866726804513, 0.9235522942838728, 0.8860106143538466, 0.917658154672587, 0.9620585584356967]",22.91,0.0,0.0,0.0,250.94917598557635,36.40788516069184,-2532.37016618576,-2479.077692718179,3502.8025754690234,0.0,0.0,0.0,0.0,0.0,0.0,-7.3,22.02561649620286,0.0,21.34701891908602,0.0,-7.3,22.91,20.08,22.62,22.11,22.9,-7.75,-7.3,290.03,-1758.89,-1837.89,0.0,80.0,13.0,140.0,0.0,0.0,0.0,0.0,0.0,0.0,0.0,0.0,0.0,0.0,0.0,0.0,0.0,0.0
97.0,1125.0,0.0,14875.0,-0.0,0.0,16000.0,0.0,28712.84422770677,0.0,0.0,0.0,28712.844227706773,0.02394557823129262,0.5,0.4260204081632651,0.0,0.0,0.0,"[0.9076648573055195, 0.9022317549652108, 1.583026519153801, 0.5800736170334169, 0.2706866726804513, 0.9235522942838728, 0.8860106143538466, 0.917658154672587, 0.9620585584356967]",22.46,0.0,0.0,0.0,168.37926638848623,27.321419784130764,-2436.097138419362,-1538.7825436370156,48.75317782591241,0.0,0.0,0.0,0.0,0.0,0.0,-6.6,21.9205696574988,0.0,21.371457367983226,0.0,-6.6,22.46,20.1,22.64,21.8,22.67,-7.04,-6.6,1353.94,-1692.02,-1768.02,0.0,80.0,0.0,81.0,0.0,0.0,0.0,0.0,0.0,0.0,0.0,0.0,0.0,0.0,0.0,0.0,0.0,0.0
98.0,1378.0,31237.51895618451,13703.331361403585,-0.0,0.0,-16000.0,0.0,27365.6677053534,0.0,0.0,0.0,27365.6677053534,0.6046863189720333,0.5,0.4260204081632651,0.0,0.0,0.0,"[0.9076648573055195, 0.9022317549652108, 1.583026519153801, 0.5800736170334169, 0.2706866726804513, 0.9235522942838728, 0.8860106143538466, 0.917658154672587, 0.9620585584356967]",21.09,0.0,0.0,0.0,239.50312923236163,28.934034799766177,-2262.822517196852,995.9476443597725,5958.367564942546,0.0,0.0,0.0,0.0,0.0,0.0,-5.9,21.480084887763304,0.0,21.290079682131065,0.0,-5.9,21.09,20.06,22.52,20.87,21.91,-6.33,-5.9,4385.42,-1571.67,-1642.27,0.0,80.0,0.0,133.0,0.0,0.0,0.0,0.0,0.0,0.0,0.0,0.0,0.0,0.0,0.0,0.0,0.0,0.0
99.0,1098.0,0.0,14902.0,-0.0,0.0,16000.0,0.0,30327.680390934704,0.0,0.0,0.0,30327.6803909347,0.0,0.5,0.4260204081632651,0.0,0.0,0.0,"[0.9076648573055195, 0.9022317549652108, 1.583026519153801, 0.5800736170334169, 0.2706866726804513, 0.9235522942838728, 0.8860106143538466, 0.917658154672587, 0.9620585584356967]",22.91,0.0,0.0,0.0,173.85033276109203,27.44546709302579,-2381.4724943310625,-2528.5502808430783,0.0,0.0,0.0,0.0,0.0,0.0,0.0,-5.5,22.00596960042929,0.0,21.33063828956135,0.0,-5.5,22.91,20.1,22.56,22.2,22.94,-5.93,-5.5,685.58,-1654.08,-1728.38,0.0,80.0,0.0,85.0,0.0,0.0,0.0,0.0,0.0,0.0,0.0,0.0,0.0,0.0,0.0,0.0,0.0,0.0
100.0,859.0,23121.215859320775,10595.5893718609,-0.0,0.0,-11551.020408163267,0.0,22068.579923260237,0.0,0.0,0.0,22068.579923260237,0.41925925925925933,0.5,0.4260204081632651,0.0,0.0,0.0,"[0.9076648573055195, 0.9022317549652108, 1.583026519153801, 0.5800736170334169, 0.2706866726804513, 0.9235522942838728, 0.8860106143538466, 0.917658154672587, 0.9620585584356967]",21.18,0.0,0.0,0.0,162.90820001588045,27.197372475235728,-2194.931735149884,757.8166020708031,1003.2168616837246,0.0,0.0,0.0,0.0,0.0,0.0,-5.0,21.48234830224553,0.0,21.26796810663697,0.0,-5.0,21.18,20.07,22.46,20.9,21.9,-5.42,-5.0,4358.12,-1524.52,-1593.0,0.0,80.0,0.0,77.0,0.0,0.0,0.0,0.0,0.0,0.0,0.0,0.0,0.0,0.0,0.0,0.0,0.0,0.0
101.0,1261.0,35425.17598208102,17987.05010217061,-0.0,0.0,-16000.0,0.0,38149.478865070865,0.0,0.0,0.0,38149.478865070865,1.0,0.5,0.4260204081632651,0.0,0.0,0.0,"[0.9076648573055195, 0.9022317549652108, 1.583026519153801, 0.5800736170334169, 0.2706866726804513, 0.9235522942838728, 0.8860106143538466, 0.917658154672587, 0.9620585584356967]",21.09,0.0,0.0,0.0,109.56530288297395,25.98791121350917,-2153.8408653017923,746.5966291176053,6231.359665875853,0.0,0.0,0.0,0.0,0.0,0.0,-4.6,21.387614402233197,0.0,21.182712993322415,0.0,-4.6,21.09,20.03,22.34,20.92,21.86,-4.95,-4.6,604.79,-1495.98,-1563.17,0.0,80.0,0.0,38.0,0.0,0.0,0.0,0.0,0.0,0.0,0.0,0.0,0.0,0.0,0.0,0.0,0.0,0.0
102.0,3777.0,1352.4435660874733,7684.0854012455875,-0.0,0.0,10115.404052988551,0.0,16517.258927483235,0.0,0.0,0.0,16517.258927483235,0.6177095973927229,0.5,0.4260204081632651,0.0,0.0,0.0,"[0.9076648573055195, 0.9022317549652108, 1.583026519153801, 0.5800736170334169, 0.2706866726804513, 0.9235522942838728, 0.8860106143538466, 0.917658154672587, 0.9620585584356967]",22.91,0.0,0.0,0.0,155.1335267495459,36.128778715678024,-2280.874046427931,-2744.9894468511147,0.0,0.0,0.0,0.0,0.0,0.0,0.0,-4.3,21.925647668208573,0.0,21.238275006487846,0.0,-4.3,22.91,20.07,22.4,22.19,22.86,-4.66,-4.3,3735.42,-1584.21,-1655.37,0.0,111.0,0.0,55.0,0.0,0.0,0.0,0.0,0.0,0.0,0.0,0.0,0.0,0.0,0.0,0.0,0.0,0.0
103.0,1341.0,0.0,6941.140239180407,-0.0,0.0,8282.140239180408,0.0,15118.78367768451,0.0,0.0,0.0,15118.78367768451,0.3047035414902132,0.5,0.4260204081632651,0.0,0.0,0.0,"[0.9076648573055195, 0.9022317549652108, 1.583026519153801, 0.5800736170334169, 0.2706866726804513, 0.9235522942838728, 0.8860106143538466, 0.917658154672587, 0.9620585584356967]",21.14,0.0,0.0,0.0,203.72523466413685,43.106439841023565,-2107.2119332567922,652.855966608026,1091.786241450144,0.0,0.0,0.0,0.0,0.0,0.0,-4.0,21.396604388309182,0.0,21.18446609032861,0.0,-4.0,21.14,20.05,22.32,20.85,21.8,-4.35,-4.0,3300.08,-1463.59,-1529.33,0.0,131.0,0.0,80.0,0.0,0.0,0.0,0.0,0.0,0.0,0.0,0.0,0.0,0.0,0.0,0.0,0.0,0.0
104.0,2704.0,10655.176760884053,4741.773958952853,-0.0,0.0,-3156.1269181267808,0.0,10463.86768104693,0.0,0.0,0.0,10463.86768104693,0.41925925925925933,0.5,0.4260204081632651,0.0,0.0,0.0,"[0.9076648573055195, 0.9022317549652108, 1.3759349423887457, 0.5800736170334169, 0.2706866726804513, 0.9235522942838799, 0.8860106143538502, 0.8365306684987921, 0.9620585584356967]",21.09,0.0,0.0,0.9089137125280234,105.31802767266154,2.387910696229362,-2078.3920293744436,571.3203193646339,1398.635516799834,0.0,0.0,0.0,0.0,0.0,0.0,-3.7,21.322662545893476,0.0,21.109086679387314,0.0,-3.7,21.09,20.01,22.21,20.91,21.79,-4.04,-3.7,3175.39,-1443.57,-1508.42,1.47,0.0,0.0,77.0,0.0,0.0,0.0,0.0,0.0,0.0,0.0,0.0,0.0,0.0,0.0,0.0,0.0,0.0
105.0,2584.0,18665.959925399067,0.0,-0.0,11.369874227925932,-16000.0,0.0,27369.12165995706,0.0,27369.12165995707,0.0,0.0,1.0,0.3965641660621426,0.4260204081632651,0.0,0.0,0.0,"[0.9076648573055195, 0.9022317549652108, 1.3759349423887457, 0.5800736170334169, 0.2706866726804513, 0.9235522942838799, 0.8860106143538502, 0.8365306684987921, 0.9620585584356967]",21.09,0.0,0.0,25.906508143674387,68.38832965757244,1.5505913611878972,-1952.6439694955288,422.9856539077343,6390.3725253323855,0.0,0.0,0.0,0.0,0.0,0.0,-2.2,21.267050590463768,0.0,21.041264820768827,0.0,-2.2,21.09,19.98,22.11,20.89,21.74,-2.5,-2.2,3112.96,-1356.23,-1417.15,41.77,0.0,0.0,50.0,0.0,0.0,0.0,0.0,0.0,0.0,0.0,0.0,0.0,0.0,0.0,0.0,0.0,0.0
106.0,4041.0,4022.818006911686,0.0,-0.0,38.29608312287261,0.0,0.0,23810.823587012488,0.0,23810.823587012488,0.0,0.0,1.0,0.30657617064637355,0.4260204081632641,0.0,0.0,0.0,"[0.9076648573055195, 0.9022317549652108, 1.3759349423887457, 0.5800736170334169, 0.2706866726804513, 0.9235522942838799, 0.8860106143538502, 0.8365306684987921, 0.9620585584356967]",22.91,0.0,0.0,33.03017361039758,344.2452551815909,37.772405558537194,-2020.9947226781737,-3026.800496637208,536.2685582751536,0.0,0.0,0.0,0.0,0.0,0.0,-1.2,21.819774677739947,0.0,21.115560952370274,0.0,-1.2,22.91,20.04,22.2,22.16,22.74,-1.47,-1.2,156.04,-1403.71,-1466.76,53.25,102.0,0.0,198.0,0.0,0.0,0.0,0.0,0.0,0.0,0.0,0.0,0.0,0.0,0.0,0.0,0.0,0.0
107.0,10223.0,13798.136732441011,3933.5805859071497,-0.0,427.4345371283443,0.0,0.0,10105.395288066904,0.0,0.0,0.0,10105.395288066902,1.0,0.30657617064637355,0.4260204081632641,0.0,0.0,0.0,"[0.9076648573055195, 0.9022317549652108, 1.3759349423887457, 0.5800736170334169, 0.2706866726804513, 0.9235522942838799, 0.8860106143538502, 0.8365306684987921, 0.9620585584356967]",21.41,0.0,0.0,62.027290957281274,406.6586044585544,46.238634390623126,-1786.1920991091447,-89.31636837769598,503.6893671594588,0.0,0.0,0.0,0.0,0.0,0.0,0.1,21.392226246564718,0.0,21.097375522697146,0.0,0.1,21.41,20.04,22.16,20.99,21.83,-0.18,0.1,3733.7,-1240.62,-1296.35,100.01,126.0,0.0,231.0,0.0,0.0,0.0,0.0,0.0,0.0,0.0,0.0,0.0,0.0,0.0,0.0,0.0,0.0
108.0,6455.0,34664.65337309049,20317.884867961402,-0.0,1021.7997176366769,-289.08095590030644,0.0,20522.791411792743,42255.82,0.0,0.0,54327.447411792746,0.9869796279629746,0.30657617064637355,0.4260204081632641,33804.656,8451.164,42255.82,"[0.9076648573055195, 0.9022317549652108, 1.3759349423887457, 0.5800736170334169, 0.2706866726804513, 0.9235522942838799, 0.8860106143538502, 0.8365306684987921, 0.9620585584356967]",21.09,0.0,0.0,80.79376406878997,2980.291418761578,111.64257800552863,-1667.6150337699894,404.0143554246679,0.0,0.0,0.0,0.0,0.0,0.0,0.0,1.2,21.25726884519089,0.0,21.040169263620147,0.0,1.2,21.09,20.02,22.06,20.85,21.68,0.88,1.2,2537.71,-1158.26,-1210.29,130.26,150.0,0.0,2100.0,0.0,0.0,0.0,0.0,0.0,0.0,0.0,0.0,0.0,0.0,0.0,0.0,0.0,0.0
109.0,3252.0,0.0,4963.842975958729,-0.0,1066.8284170006152,7149.014558958113,0.0,13651.261307933293,0.0,0.0,0.0,13651.261307933291,0.7167976718421085,0.30657617064637355,0.41938775510203957,0.0,0.0,0.0,"[0.9076648573055195, 0.9022317549652108, 1.3759349423887457, 0.5800736170334169, 0.2706866726804513, 0.9235522942838799, 0.8860106143538502, 0.8365306684987921, 0.9620585584356967]",21.79,0.0,0.0,84.64865711311911,2330.60228701464,102.49408897452007,-1658.9427540681388,-1063.1620799240468,3265.5654443171,0.0,0.0,0.0,0.0,0.0,0.0,2.0,21.41646985699941,0.0,21.005606586415553,0.0,2.0,21.79,20.02,22.0,21.1,21.84,1.68,2.0,0.0,-1152.24,-1204.0,136.48,169.0,0.0,1615.0,0.0,0.0,0.0,0.0,0.0,0.0,0.0,0.0,0.0,0.0,0.0,0.0,0.0,0.0
110.0,2895.0,0.0,5767.248942008327,-0.0,281.83188464883665,8380.41705735949,0.0,16025.682760001517,0.0,0.0,0.0,16025.68276000152,0.40007745047553667,0.30657617064637355,0.41530612244897835,0.0,0.0,0.0,"[0.9076648573055195, 0.9022317549652108, 1.3759349423887457, 0.5800736170334169, 0.2706866726804513, 0.9235522942838799, 0.8860106143538502, 0.8365306684987921, 0.9620585584356967]",22.91,0.0,0.0,64.38763933436923,210.6360553453231,4.775821392458724,-1727.5825829607063,-3144.8993184137294,4590.76380354752,0.0,0.0,0.0,0.0,0.0,0.0,2.3,21.773652317514166,0.0,21.075112924130245,0.0,2.3,22.91,20.08,22.07,21.91,22.48,1.95,2.3,587.16,-1199.91,-1253.81,103.81,0.0,0.0,154.0,0.0,0.0,0.0,0.0,0.0,0.0,0.0,0.0,0.0,0.0,0.0,0.0,0.0,0.0
111.0,2789.0,0.0,7797.130558728251,-0.0,0.0812191455510646,10586.0493395827,0.0,21220.20047003847,0.0,0.0,0.0,21220.200470038468,0.0,0.30657617064637355,0.2586734693877538,0.0,0.0,0.0,"[0.9076648573055195, 0.9022317549652108, 1.3759349423887457, 0.5800736170334169, 0.2706866726804513, 0.9235522942838799, 0.8860106143538502, 0.8365306684987921, 0.9620585584356967]",22.91,0.0,0.0,15.417287945449752,382.9026583669766,46.54875266286069,-1777.8818069122724,-2933.53018839837,4137.256536156522,0.0,0.0,0.0,0.0,0.0,0.0,1.7,21.85158297531035,0.0,21.17813319101782,0.0,1.7,22.91,20.17,22.19,22.05,22.63,1.32,1.7,3713.13,-1234.85,-1290.32,24.86,127.0,1.0,213.0,0.0,0.0,0.0,0.0,0.0,0.0,0.0,0.0,0.0,0.0,0.0,0.0,0.0,0.0
112.0,2989.0,26755.60203058218,7632.82402042927,-0.0,0.0,-16000.0,0.0,20190.905270336207,0.0,0.0,0.0,20190.905270336203,0.5807407407407407,0.30657617064637355,0.2499999999999987,0.0,0.0,0.0,"[0.9076648573055195, 0.9022317549652108, 1.3759349423887457, 0.5800736170334169, 0.2706866726804513, 0.9235522942838799, 0.8860106143538502, 0.8365306684987921, 0.9620585584356967]",22.86,0.0,0.0,0.0,551.2099370400339,60.876216840236864,-1840.8690700745435,-2660.373686846255,0.0,0.0,0.0,0.0,0.0,0.0,0.0,0.9,21.903608343699965,0.0,21.265040150633613,0.0,0.9,22.86,20.24,22.29,22.04,22.64,0.5,0.9,66.82,-1278.6,-1336.03,0.0,91.0,39.0,351.0,0.0,0.0,0.0,0.0,0.0,0.0,0.0,0.0,0.0,0.0,0.0,0.0,0.0,0.0
113.0,6195.0,12639.562835255749,6381.36502107947,-0.0,0.0,0.0,0.0,16941.289755986807,0.0,0.0,0.0,16941.289755986803,0.5807407407407407,0.30657617064637355,0.24540816326530482,0.0,0.0,0.0,"[0.9076648573055195, 0.9022317549652108, 1.3759349423887457, 0.5800736170334169, 0.2706866726804513, 0.9235522942838799, 0.8860106143538502, 0.8365306684987921, 0.9620585584356967]",21.43,0.0,0.0,0.0,599.5136940929087,89.06596778663285,-1712.9295736393385,102.28950320498275,0.0,0.0,0.0,0.0,0.0,0.0,0.0,1.0,21.48785054010768,0.0,21.236322440818363,0.0,1.0,21.43,20.24,22.23,21.05,21.86,0.59,1.0,71.73,-1189.74,-1243.18,0.0,136.0,64.0,360.0,0.0,0.0,0.0,0.0,0.0,0.0,0.0,0.0,0.0,0.0,0.0,0.0,0.0,0.0
114.0,7722.0,15046.445542431538,5240.936373317676,-0.0,0.0,-2008.2769414017032,0.0,13963.635749041987,0.0,0.0,0.0,13963.635749041987,0.6536337556508766,0.30657617064637355,0.24540816326530482,0.0,0.0,0.0,"[0.9076648573055195, 0.9022317549652108, 1.3759349423887457, 0.5800736170334169, 0.2706866726804513, 0.9235522942838799, 0.8860106143538502, 0.8365306684987921, 0.9620585584356967]",21.09,0.0,0.0,0.0,2345.4317563930185,119.67464125648198,-1675.9982377619167,620.8575507240151,0.0,0.0,0.0,0.0,0.0,0.0,0.0,1.1,21.336837270582368,0.0,21.167130654649956,0.0,1.1,21.09,20.21,22.12,20.89,21.69,0.68,1.1,1076.51,-1164.09,-1216.37,0.0,164.0,33.0,1625.0,0.0,0.0,0.0,0.0,0.0,0.0,0.0,0.0,0.0,0.0,0.0,0.0,0.0,0.0
115.0,10551.0,0.0,0.0,-0.0,0.0,10551.0,0.0,12694.848858748664,0.0,12694.848858748663,0.0,0.0,0.2548809211837564,0.2585986617319795,0.239285714285713,0.0,0.0,0.0,"[0.9076648573055195, 0.9022317549652108, 1.3759349423887457, 0.5800736170334169, 0.2706866726804513, 0.9235522942838799, 0.8860106143538502, 0.8365306684987921, 0.9620585584356967]",21.6,0.0,0.0,0.0,240.726920394655,5.4580815913814,-1702.1896861061327,-514.5681854702127,5529.066285726755,0.0,0.0,0.0,0.0,0.0,0.0,1.3,21.433753493268554,0.0,21.115963244902108,0.0,1.3,21.6,20.19,22.04,21.09,21.81,0.88,1.3,0.0,-1182.28,-1235.38,0.0,0.0,0.0,176.0,0.0,0.0,0.0,0.0,0.0,0.0,0.0,0.0,0.0,0.0,0.0,0.0,0.0,0.0
116.0,9434.0,26912.533416352886,1343.9707492711248,-0.0,0.0,-15999.999999999998,0.0,3619.232311656948,0.0,0.0,0.0,3619.232311656948,0.835621661924497,0.5,0.239285714285713,0.0,0.0,0.0,"[0.9076648573055195, 0.6993336416885896, 0.9113143467238558, 0.5800736170334133, 0.2706866726804513, 0.5473499370829273, 0.6379362112815521, 0.8365306684987921, 0.8813685276244243]",22.91,0.0,0.0,0.0,212.00382193847457,4.806833219682483,-1803.0314188880552,-2935.0012968184665,0.0,0.0,0.0,0.0,0.0,0.0,0.0,1.4,21.851320361783483,0.0,21.19616356599604,0.0,1.4,22.91,20.25,22.14,22.16,22.65,0.99,1.4,0.0,-1252.32,-1308.57,0.0,0.0,0.0,155.0,0.0,0.0,0.0,0.0,0.0,0.0,0.0,0.0,0.0,0.0,0.0,0.0,0.0,0.0
117.0,6121.0,768.4101289222584,2855.596801128679,-0.0,0.0,8212.028722851031,0.0,7744.396820502726,0.0,0.0,0.0,7744.396820502727,0.5252653231924097,0.5,0.239285714285713,0.0,0.0,0.0,"[0.9076648573055195, 0.6993336416885896, 0.9113143467238558, 0.5800736170334133, 0.2706866726804513, 0.5473499370829273, 0.6379362112815521, 0.8365306684987921, 0.8813685276244243]",21.25,0.0,0.0,0.0,120.3634601973275,2.7290407956907,-1647.4579767795685,284.8496666838256,804.0415474393151,0.0,0.0,0.0,0.0,0.0,0.0,1.6,21.373063586622028,0.0,21.166544878109676,0.0,1.6,21.25,20.24,22.09,20.94,21.7,1.18,1.6,0.0,-1144.26,-1195.66,0.0,0.0,0.0,88.0,0.0,0.0,0.0,0.0,0.0,0.0,0.0,0.0,0.0,0.0,0.0,0.0,0.0,0.0
118.0,3283.0,3299.497487437186,0.0,-0.0,0.0,0.0,0.0,11697.064898222845,0.0,11697.064898222843,0.0,0.0,0.5252653231924097,0.45579340552447906,0.2107142857142844,0.0,0.0,0.0,"[0.9076648573055195, 0.6993336416885896, 0.9113143467238558, 0.5800736170334133, 0.2706866726804513, 0.5473499370829273, 0.6379362112815521, 0.8365306684987921, 0.8813685276244243]",21.09,0.0,0.0,0.0,345.32507091302625,54.05361485101012,-1625.699013810351,468.1121815528583,763.000705704924,0.0,0.0,0.0,0.0,0.0,0.0,1.7,21.280409858434293,0.0,21.107549990626136,0.0,1.7,21.09,20.22,22.0,20.92,21.65,1.27,1.7,1277.71,-1129.15,-1179.87,0.0,146.0,6.0,175.0,0.0,0.0,0.0,0.0,0.0,0.0,0.0,0.0,0.0,0.0,0.0,0.0,0.0,0.0
119.0,4424.0,0.0,0.0,-0.0,0.0,4424.0,0.0,14481.39880581183,0.0,14481.39880581183,0.0,0.0,0.3580695559966425,0.40106400716540186,0.2107142857142844,0.0,0.0,0.0,"[0.9076648573055195, 0.6993336416885896, 0.9113143467238558, 0.5800736170334133, 0.2706866726804513, 0.5473499370829273, 0.6379362112815521, 0.8365306684987921, 0.8813685276244243]",21.09,0.0,0.0,0.0,447.6196145376687,63.326151190913755,-1608.9326058264958,341.249460130154,762.3520706790866,0.0,0.0,0.0,0.0,0.0,0.0,1.9,21.233784857110187,0.0,21.05112170319446,0.0,1.9,21.09,20.19,21.91,20.91,21.6,1.47,1.9,1737.29,-1117.5,-1167.7,0.0,130.0,27.0,256.0,0.0,0.0,0.0,0.0,0.0,0.0,0.0,0.0,0.0,0.0,0.0,0.0,0.0,0.0
120.0,3263.0,14193.099678119781,10859.134179729183,-0.0,0.0,0.0,0.0,29346.518011351003,0.0,0.0,0.0,29346.518011351,0.3580695559966425,0.40106400716540186,0.2107142857142844,0.0,0.0,0.0,"[0.9076648573055195, 0.6993336416885896, 0.9113143467238558, 0.5800736170334133, 0.2706866726804513, 0.5473499370829273, 0.6379362112815521, 0.8365306684987921, 0.8813685276244243]",21.09,0.0,0.0,0.0,2098.2259416097518,76.07201217987829,-1642.4654217942061,224.47656043376801,4207.800161299602,0.0,0.0,0.0,0.0,0.0,0.0,1.5,21.19138414860006,0.0,20.99963171225177,0.0,1.5,21.09,20.16,21.84,20.89,21.56,1.04,1.5,336.91,-1140.8,-1192.04,0.0,80.0,9.0,1491.0,0.0,0.0,0.0,0.0,0.0,0.0,0.0,0.0,0.0,0.0,0.0,0.0,0.0,0.0
121.0,2113.0,0.0,7361.520451671161,-0.0,0.0,9474.52045167116,0.0,19683.772095767818,0.0,0.0,0.0,19683.772095767818,0.0,0.40106400716540186,0.1999999999999987,0.0,0.0,0.0,"[0.9076648573055195, 0.6993336416885896, 0.9113143467238558, 0.5800736170334133, 0.2706866726804513, 0.5473499370829273, 0.6379362112815521, 0.8365306684987921, 0.8813685276244243]",22.91,0.0,0.0,0.0,1586.3932849093935,63.357163018137506,-1819.7978268719105,-3246.77813018035,0.0,0.0,0.0,0.0,0.0,0.0,0.0,1.2,21.737370902777183,0.0,21.063587252654134,0.0,1.2,22.91,20.21,21.92,22.0,22.44,0.73,1.2,0.0,-1263.96,-1320.74,0.0,80.0,7.0,1117.0,0.0,0.0,0.0,0.0,0.0,0.0,0.0,0.0,0.0,0.0,0.0,0.0,0.0,0.0
122.0,1813.0,11930.600706989588,10057.94770345464,-0.0,0.0,0.0,0.0,26510.134596195643,0.0,0.0,0.0,26510.134596195647,0.0,0.40106400716540186,0.19999999999999868,0.0,0.0,0.0,"[0.9076648573055195, 0.6993336416885896, 0.9113143467238558, 0.5800736170334133, 0.2706866726804513, 0.5473499370829273, 0.6379362112815521, 0.8365306684987921, 0.8813685276244243]",21.65,0.0,0.0,0.0,169.7470329816377,27.35243161135452,-1748.2673718598194,-765.9045155552088,5741.940522706136,0.0,0.0,0.0,0.0,0.0,0.0,0.8,21.39186494207845,0.0,21.060652385198125,0.0,0.8,21.65,20.21,21.91,21.08,21.73,0.32,0.8,1373.1,-1214.28,-1268.82,0.0,80.0,0.0,82.0,0.0,0.0,0.0,0.0,0.0,0.0,0.0,0.0,0.0,0.0,0.0,0.0,0.0,0.0
123.0,1730.0,94952.66401687996,19815.13294169314,-48469.38775510243,0.0,-16000.0,0.0,18185.113803427914,42316.9,0.0,0.0,52038.633803427925,0.5807407407407407,0.40106400716540186,0.3583333333333333,33853.520000000004,8463.380000000001,42316.9,"[0.9076648573055195, 0.6993336416885896, 0.9113143467238558, 0.5800736170334133, 0.2706866726804513, 0.5473499370829273, 0.6379362112815521, 0.8365306684987921, 0.8813685276244243]",22.91,0.0,0.0,0.0,119.13966903503409,26.204994004075473,-1861.7138468315488,-3065.643640125306,4784.336239026012,0.0,0.0,0.0,0.0,0.0,0.0,0.7,21.804127704908375,0.0,21.149242920878542,0.0,0.7,22.91,20.27,22.03,22.18,22.6,0.22,0.7,1428.69,-1293.08,-1351.16,0.0,80.0,0.0,45.0,0.0,0.0,0.0,0.0,0.0,0.0,0.0,0.0,0.0,0.0,0.0,0.0,0.0,0.0
124.0,716.0,10605.469047376575,9836.441702139691,-0.0,0.0,0.0,0.0,25644.980926646404,0.0,0.0,0.0,25644.980926646404,0.5807407407407407,0.40106400716540186,0.3583333333333333,0.0,0.0,0.0,"[0.9076648573055195, 0.6993336416885896, 0.9113143467238558, 0.5800736170334133, 0.2706866726804513, 0.5473499370829273, 0.6379362112815521, 0.8365306684987921, 0.8813685276244243]",22.91,0.0,0.0,0.0,145.1272343049116,26.794218721326875,-1878.480254815404,-2856.8114659851217,4565.7459253524385,0.0,0.0,0.0,0.0,0.0,0.0,0.5,21.880754563380346,0.0,21.246715422893345,0.0,0.5,22.91,20.34,22.15,22.13,22.62,0.03,0.5,1536.88,-1304.72,-1363.33,0.0,80.0,0.0,64.0,0.0,0.0,0.0,0.0,0.0,0.0,0.0,0.0,0.0,0.0,0.0,0.0,0.0,0.0
125.0,931.0,11213.109651403362,10226.044103146345,-0.0,0.0,0.0,0.0,26465.752909209386,0.0,0.0,0.0,26465.75290920939,0.5807407407407407,0.40106400716540186,0.3583333333333333,0.0,0.0,0.0,"[0.9076648573055195, 0.6993336416885896, 0.9113143467238558, 0.5800736170334133, 0.2706866726804513, 0.5473499370829273, 0.6379362112815521, 0.8365306684987921, 0.8813685276244243]",22.91,0.0,0.0,0.0,164.27596660903185,27.228384302459492,-1895.2466627992592,-2670.318039427515,0.0,0.0,0.0,0.0,0.0,0.0,0.0,0.3,21.94921584573719,0.0,21.334288792816373,0.0,0.3,22.91,20.4,22.27,22.16,22.68,-0.17,0.3,2808.58,-1316.37,-1375.5,0.0,80.0,0.0,78.0,0.0,0.0,0.0,0.0,0.0,0.0,0.0,0.0,0.0,0.0,0.0,0.0,0.0,0.0
126.0,890.0,3305.754026841698,7045.0146867054045,-0.0,0.0,4645.789429997915,0.0,18165.852949295993,0.0,0.0,0.0,18165.852949295993,0.4051629089192019,0.40106400716540186,0.3583333333333333,0.0,0.0,0.0,"[0.9076648573055195, 0.6993336416885896, 0.9113143467238558, 0.5800736170334133, 0.2706866726804513, 0.5473499370829273, 0.6379362112815521, 0.8365306684987921, 0.8813685276244243]",21.31,0.0,0.0,0.0,204.94902582643024,41.95900223374451,-1769.2794237088872,428.2007727781437,2922.8376141782533,0.0,0.0,0.0,0.0,0.0,0.0,0.2,21.47997029997392,0.0,21.296418680978014,0.0,0.2,21.31,20.38,22.21,21.05,21.81,-0.26,0.2,337.44,-1228.88,-1284.07,0.0,127.0,0.0,83.0,0.0,0.0,0.0,0.0,0.0,0.0,0.0,0.0,0.0,0.0,0.0,0.0,0.0,0.0
127.0,730.0,0.0,9990.610570002083,-0.0,0.0,10720.610570002083,0.0,25665.946527374264,0.0,0.0,0.0,25665.946527374268,0.0,0.40106400716540186,0.3583333333333333,0.0,0.0,0.0,"[0.9076648573055195, 0.6993336416885896, 0.9113143467238558, 0.5800736170334133, 0.2706866726804513, 0.5473499370829273, 0.6379362112815521, 0.8365306684987921, 0.8813685276244243]",21.97,0.0,0.0,0.0,177.44971853254322,45.74244515504299,-1833.685439664071,-918.4540879868074,5084.530755203071,0.0,0.0,0.0,0.0,0.0,0.0,0.1,21.655772604731137,0.0,21.289175720524078,0.0,0.1,21.97,20.39,22.19,21.6,22.22,-0.37,0.1,1469.13,-1273.61,-1330.82,0.0,142.0,0.0,55.0,0.0,0.0,0.0,0.0,0.0,0.0,0.0,0.0,0.0,0.0,0.0,0.0,0.0,0.0
128.0,1031.0,0.0,6114.704344688048,-0.0,0.0,7145.704344688048,0.0,15767.01041711672,0.0,0.0,0.0,15767.01041711672,0.14920240571851678,0.40106400716540186,0.3583333333333333,0.0,0.0,0.0,"[0.9076648573055195, 0.6993336416885896, 0.9113143467238558, 0.5682240434912664, 0.2706866726804513, 0.5473499370829273, 0.6379362112815521, 0.8365306684987921, 0.6820687507404521]",22.91,0.0,0.0,1.8255430018327048,117.19600071845046,27.042313339116937,-1903.629866791187,-2623.1292191468033,0.0,0.0,0.0,0.0,0.0,0.0,0.0,0.2,21.966553735603565,0.0,21.360073001949935,0.0,0.2,22.91,20.44,22.28,22.23,22.73,-0.24,0.2,1502.36,-1322.19,-1381.58,2.94,83.0,0.0,42.0,0.0,0.0,0.0,0.0,0.0,0.0,0.0,0.0,0.0,0.0,0.0,0.0,0.0,0.0
129.0,1720.0,4605.145004647017,2932.636386139258,-0.0,70.51710651547569,0.0,0.0,8288.821340563407,0.0,0.0,0.0,8288.821340563407,0.14920240571851678,0.40106400716540186,0.3583333333333333,0.0,0.0,0.0,"[0.9076648573055195, 0.6993336416885896, 0.9113143467238558, 0.5682240434912664, 0.2706866726804513, 0.5473499370829273, 0.6379362112815521, 0.8365306684987921, 0.6820687507404521]",21.3,0.0,0.0,63.03117881942288,101.21472789320718,2.294875214558085,-1551.11498515687,483.2378478986918,324.9091503673542,0.0,0.0,0.0,0.0,0.0,0.0,2.8,21.495523327504934,0.0,21.32055718612743,0.0,2.8,21.3,20.42,22.23,21.06,21.82,2.36,2.8,759.21,-1077.35,-1125.74,101.62,0.0,0.0,74.0,0.0,0.0,0.0,0.0,0.0,0.0,0.0,0.0,0.0,0.0,0.0,0.0,0.0,0.0
130.0,1781.0,7241.132968718786,6975.108689582099,-0.0,192.65029228157513,1358.5310934253323,0.0,21376.885969191484,0.0,0.0,0.0,21376.885969191484,0.09785958283774081,0.40106400716540186,0.3583333333333322,0.0,0.0,0.0,"[0.9076648573055195, 0.6993336416885896, 0.9113143467238558, 0.5682240434912664, 0.2706866726804513, 0.5473499370829273, 0.6379362112815521, 0.8365306684987921, 0.6820687507404521]",21.09,0.0,0.0,108.30479632630005,114.89239382472171,2.604993486795667,-1323.9036701009557,752.4201934573013,5299.337282647349,0.0,0.0,0.0,0.0,0.0,0.0,5.3,21.381525994911367,0.0,21.25262054892241,0.0,5.3,21.09,20.38,22.12,20.99,21.71,4.83,5.3,0.0,-919.53,-960.84,174.62,0.0,0.0,84.0,0.0,0.0,0.0,0.0,0.0,0.0,0.0,0.0,0.0,0.0,0.0,0.0,0.0,0.0
131.0,3681.0,0.0,1978.4668381939023,-0.0,5843.778180976245,-184.3113427823423,0.0,6346.403981121704,0.0,0.0,0.0,6346.403981121704,0.10454940194613693,0.40106400716540186,0.3583333333333322,0.0,0.0,0.0,"[0.9076648573055195, 0.6993336416885896, 0.9113143467238558, 0.5682240434912664, 0.2706866726804513, 0.5473499370829273, 0.6379362112815521, 0.8365306684987921, 0.6820687507404521]",22.91,0.0,0.0,964.7882803375277,91.64036174114706,2.07779242399178,-1350.3384033239627,-2702.3690606635264,0.0,0.0,0.0,0.0,0.0,0.0,0.0,6.8,21.93148908309384,0.0,21.325170411164514,0.0,6.8,22.91,20.45,22.2,22.26,22.71,6.96,6.8,0.0,-937.9,-980.02,1555.52,0.0,0.0,67.0,0.0,0.0,0.0,0.0,0.0,0.0,0.0,0.0,0.0,0.0,0.0,0.0,0.0,0.0
132.0,5383.0,1208.4043601679555,4319.024505227423,-0.0,8499.662166860307,0.0,0.0,14266.046466243806,0.0,0.0,0.0,14266.046466243806,0.10454940194613693,0.40106400716540186,0.3583333333333322,0.0,0.0,0.0,"[0.9076648573055195, 0.6993336416885896, 0.9113143467238558, 0.5682240434912664, 0.2706866726804513, 0.5473499370829273, 0.6379362112815521, 0.8365306684987921, 0.6820687507404521]",21.82,0.0,0.0,923.8138423758397,75.22716262332966,1.7056504973066857,-1175.6610430984576,-479.55151982665734,3580.306822902231,0.0,0.0,0.0,0.0,0.0,0.0,7.8,21.660066735638832,0.0,21.36206058176732,0.0,7.8,21.82,20.5,22.23,21.55,22.19,7.94,7.8,0.0,-816.57,-853.25,1489.45,0.0,0.0,55.0,0.0,0.0,0.0,0.0,0.0,0.0,0.0,0.0,0.0,0.0,0.0,0.0,0.0,0.0
133.0,4201.0,145.71663948083744,3803.70894295174,-0.0,7859.720886668307,0.0,0.0,12708.97005162435,0.0,0.0,0.0,12708.97005162435,0.10454940194613693,0.40106400716540186,0.3583333333333322,0.0,0.0,0.0,"[0.9076648573055195, 0.6993336416885896, 0.9113143467238558, 0.5682240434912664, 0.2706866726804513, 0.5473499370829273, 0.6379362112815521, 0.8365306684987921, 0.6820687507404521]",22.91,0.0,0.0,886.4153040473989,80.69822899593547,1.8296978062017184,-1232.9735474369754,-2431.963660863513,2663.9139440445924,0.0,0.0,0.0,0.0,0.0,0.0,8.2,22.0293478997453,0.0,21.460727961425054,0.0,8.2,22.91,20.59,22.33,22.38,22.85,8.34,8.2,0.0,-856.38,-894.84,1429.16,0.0,0.0,59.0,0.0,0.0,0.0,0.0,0.0,0.0,0.0,0.0,0.0,0.0,0.0,0.0,0.0,0.0
134.0,4717.0,14100.23092943561,0.0,-0.0,6687.270225211569,-16000.0,0.0,6838.252956886502,0.0,6838.252956886502,0.0,0.0,0.6852901426868776,0.3752202696110311,0.3583333333333322,0.0,0.0,0.0,"[0.9076648573055195, 0.6993336416885896, 0.9113143467238558, 0.5682240434912664, 0.2706866726804513, 0.5473499370829273, 0.6379362112815521, 0.8365306684987921, 0.6820687507404521]",22.91,0.0,0.0,812.544763825031,129.93782634938762,2.946123586257005,-1232.9735474369754,-2221.5151605108977,1081.0613727979196,0.0,0.0,0.0,0.0,0.0,0.0,8.2,22.106497934203304,0.0,21.564731744518596,0.0,8.2,22.91,20.68,22.44,22.34,22.86,8.24,8.2,0.0,-856.38,-894.84,1310.06,0.0,0.0,95.0,0.0,0.0,0.0,0.0,0.0,0.0,0.0,0.0,0.0,0.0,0.0,0.0,0.0,0.0
135.0,3662.0,5691.876354749167,2007.2543767281456,-0.0,5.837403752723963,0.0,0.0,6515.289960819563,0.0,0.0,0.0,6515.289960819563,0.6852901426868776,0.3752202696110311,0.3583333333333322,0.0,0.0,0.0,"[0.9076648573055195, 0.6993336416885896, 0.9113143467238558, 0.5682240434912664, 0.2706866726804513, 0.5473499370829273, 0.6379362112815521, 0.8365306684987921, 0.6820687507404521]",22.4,0.0,0.0,37.838678527703095,298.2451050224448,52.00683425424209,-1273.867699270128,-1103.6852515101357,0.0,0.0,0.0,0.0,0.0,0.0,0.0,7.2,22.004532027731408,0.0,21.61944505363585,0.0,7.2,22.4,20.75,22.49,22.0,22.6,6.67,7.2,50.17,-884.78,-924.52,61.01,154.0,0.0,137.0,0.0,0.0,0.0,0.0,0.0,0.0,0.0,0.0,0.0,0.0,0.0,0.0,0.0,0.0
136.0,3589.0,0.0,3823.7387606542698,-0.0,0.0,7412.73876065427,0.0,11901.024770350268,0.0,0.0,0.0,11901.024770350268,0.4051412855192938,0.3752202696110311,0.3460884353741486,0.0,0.0,0.0,"[0.9076648573055195, 0.6993336416885896, 0.9113143467238558, 0.5682240434912664, 0.2706866726804513, 0.5473499370829273, 0.6379362112815521, 0.8365306684987921, 0.6820687507404521]",21.67,0.0,0.0,0.0,91.64036174114706,2.07779242399178,-1330.060089544511,259.63315937237803,0.0,0.0,0.0,0.0,0.0,0.0,0.0,5.8,21.774625589141092,0.0,21.586836737332106,0.0,5.8,21.67,20.75,22.42,21.41,22.09,5.27,5.8,0.0,-923.81,-965.31,0.0,0.0,0.0,67.0,0.0,0.0,0.0,0.0,0.0,0.0,0.0,0.0,0.0,0.0,0.0,0.0,0.0,0.0
137.0,4916.0,8714.893250424757,3755.3187841726312,-0.0,0.0,0.0,0.0,11544.87164744936,0.0,0.0,0.0,11544.87164744936,0.4051412855192938,0.3752202696110311,0.3282312925170057,0.0,0.0,0.0,"[0.9076648573055195, 0.6993336416885896, 0.9113143467238558, 0.5682240434912664, 0.2706866726804513, 0.5473499370829273, 0.6379362112815521, 0.8365306684987921, 0.6820687507404521]",21.31,0.0,0.0,0.0,205.5249275498624,52.25492887203216,-1333.6039252907538,816.906614409865,4631.845142561518,0.0,0.0,0.0,0.0,0.0,0.0,5.4,21.62100367781487,0.0,21.520495465887045,0.0,5.4,21.31,20.72,22.32,21.21,21.89,4.87,5.4,0.0,-926.27,-967.88,0.0,162.0,0.0,65.0,0.0,0.0,0.0,0.0,0.0,0.0,0.0,0.0,0.0,0.0,0.0,0.0,0.0,0.0
138.0,6343.0,0.0,4377.038414840515,-0.0,0.0,10720.038414840514,0.0,13289.296340731216,0.0,0.0,0.0,13289.296340731216,0.0,0.3752202696110311,0.30935374149659756,0.0,0.0,0.0,"[0.9076648573055195, 0.6993336416885896, 0.9113143467238558, 0.5682240434912664, 0.2706866726804513, 0.5473499370829273, 0.6379362112815521, 0.8365306684987921, 0.6820687507404521]",22.91,0.0,0.0,0.0,79.33046240278402,1.798685978977958,-1501.23607517866,-2257.1599329565292,0.0,0.0,0.0,0.0,0.0,0.0,0.0,5.0,22.096596686940025,0.0,21.572015975371905,0.0,5.0,22.91,20.77,22.38,22.35,22.78,4.49,5.0,0.0,-1042.7,-1089.54,0.0,0.0,0.0,58.0,0.0,0.0,0.0,0.0,0.0,0.0,0.0,0.0,0.0,0.0,0.0,0.0,0.0,0.0
139.0,7400.0,25642.35536313118,2114.143586315525,-0.0,0.0,-16000.0,0.0,6338.214339836884,0.0,0.0,0.0,6338.214339836885,0.5807407407407407,0.3752202696110311,0.30935374149659756,0.0,0.0,0.0,"[0.9076648573055195, 0.6993336416885896, 0.9113143467238558, 0.5682240434912664, 0.2706866726804513, 0.5473499370829273, 0.6379362112815521, 0.8365306684987921, 0.6820687507404521]",21.56,0.0,0.0,0.0,87.5370619616927,1.9847569423205071,-1421.878056898502,347.2967782395364,53.98521825127298,0.0,0.0,0.0,0.0,0.0,0.0,4.6,21.702873413987362,0.0,21.542154558163702,0.0,4.6,21.56,20.76,22.32,21.33,21.98,4.11,4.6,2025.6,-987.58,-1031.94,0.0,0.0,0.0,64.0,0.0,0.0,0.0,0.0,0.0,0.0,0.0,0.0,0.0,0.0,0.0,0.0,0.0,0.0
140.0,5249.0,0.0,2343.7834334472495,-0.0,0.0,7592.78343344725,0.0,6937.29986365587,0.0,0.0,0.0,6937.29986365587,0.3444137192815293,0.3752202696110311,0.30935374149659756,0.0,0.0,0.0,"[0.9076648573055159, 0.48915320321379596, 0.46930414293929346, 0.5682240434912629, 0.2706866726804513, 0.5473499370829273, 0.43694878696997463, 0.8365306684987921, 0.6820687507404521]",21.22,0.0,0.0,0.0,206.53275556586874,4.682785910787451,-1426.8230497078348,867.3347753868666,0.0,0.0,0.0,0.0,0.0,0.0,0.0,4.2,21.55232313685774,0.0,21.47188700250357,0.0,4.2,21.22,20.72,22.22,21.16,21.81,3.73,4.2,0.0,-991.02,-1035.53,0.0,0.0,0.0,151.0,0.0,0.0,0.0,0.0,0.0,0.0,0.0,0.0,0.0,0.0,0.0,0.0,0.0,0.0
141.0,4377.0,9159.799140166266,4737.0001444654345,-0.0,0.0,0.0,0.0,13840.278816126034,0.0,0.0,0.0,13840.278816126034,0.3444137192815293,0.3752202696110311,0.30935374149659756,0.0,0.0,0.0,"[0.9076648573055159, 0.48915320321379596, 0.46930414293929346, 0.5682240434912629, 0.2706866726804513, 0.5473499370829273, 0.43694878696997463, 0.8365306684987921, 0.6820687507404521]",21.09,0.0,0.0,0.0,168.2352909576282,3.8144547485222255,-1449.6517299798707,946.2961925978612,4359.395905351004,0.0,0.0,0.0,0.0,0.0,0.0,3.8,21.45376257983113,0.0,21.39278467785026,0.0,3.8,21.09,20.67,22.11,21.06,21.69,3.36,3.8,0.0,-1006.87,-1052.1,0.0,0.0,0.0,123.0,0.0,0.0,0.0,0.0,0.0,0.0,0.0,0.0,0.0,0.0,0.0,0.0,0.0,0.0
142.0,2669.0,24948.179042116004,20474.070910971288,-0.0,0.0,-1680.3672359341367,0.0,11447.663765985328,0.0,-47591.48854450083,0.0,59039.15231048616,0.40540482636358316,0.5479597465503304,0.30935374149659756,0.0,0.0,0.0,"[0.9076648573055159, 0.48915320321379596, 0.46930414293929346, 0.5682240434912629, 0.2706866726804513, 0.5473499370829273, 0.43694878696997463, 0.8365306684987921, 0.6820687507404521]",22.57,0.0,0.0,0.0,130.15378949567472,29.523259517017575,-1606.8297890870044,-1911.4396128018382,0.0,0.0,0.0,0.0,0.0,0.0,0.0,3.4,21.883786851966864,0.0,21.427021470708404,0.0,3.4,22.57,20.7,22.16,22.1,22.5,2.95,3.4,61.94,-1116.04,-1166.17,0.0,81.0,5.0,52.0,0.0,0.0,0.0,0.0,0.0,0.0,0.0,0.0,0.0,0.0,0.0,0.0,0.0,0.0
143.0,2853.0,2867.3366834170856,0.0,-0.0,0.0,0.0,0.0,12690.14893721743,0.0,12690.14893721743,0.0,0.0,0.40540482636358316,0.5,0.305782312925169,0.0,0.0,0.0,"[0.9076648573055159, 0.48915320321379596, 0.46930414293929346, 0.5682240434912629, 0.2706866726804513, 0.5473499370829273, 0.43694878696997463, 0.8365306684987921, 0.6820687507404521]",21.34,0.0,0.0,0.0,313.5065006933979,42.951380704904764,-1537.1790838971228,451.0021533111821,5024.349789343182,0.0,0.0,0.0,0.0,0.0,0.0,3.0,21.517353682809443,0.0,21.389040172626643,0.0,3.0,21.34,20.67,22.11,21.17,21.77,2.55,3.0,464.33,-1067.67,-1115.62,0.0,105.0,9.0,173.0,0.0,0.0,0.0,0.0,0.0,0.0,0.0,0.0,0.0,0.0,0.0,0.0,0.0,0.0
144.0,2692.0,0.0,8035.011705580412,-0.0,0.0,10727.011705580411,0.0,22480.405317885983,0.0,0.0,0.0,22480.405317885987,0.0,0.5,0.305782312925169,0.0,0.0,0.0,"[0.9076648573055159, 0.48915320321379596, 0.46930414293929346, 0.5682240434912629, 0.2706866726804513, 0.5473499370829273, 0.43694878696997463, 0.8365306684987921, 0.6820687507404521]",22.91,0.0,0.0,0.0,724.5563557931226,64.34954148929776,-1710.8161749768508,-2539.1231166657535,3466.738821992892,0.0,0.0,0.0,0.0,0.0,0.0,2.5,21.995372918754295,0.0,21.44987049387075,0.0,2.5,22.91,20.71,22.19,22.33,22.69,2.08,2.5,0.0,-1188.27,-1241.64,0.0,80.0,44.0,483.0,0.0,0.0,0.0,0.0,0.0,0.0,0.0,0.0,0.0,0.0,0.0,0.0,0.0,0.0
145.0,1455.0,27353.728002104617,9941.062164943585,-0.0,0.0,-15820.89719715051,0.0,27434.08026588107,0.0,0.0,0.0,27434.08026588107,0.5742399723410185,0.5,0.305782312925169,0.0,0.0,0.0,"[0.9076648573055159, 0.48915320321379596, 0.46930414293929346, 0.5682240434912629, 0.2706866726804513, 0.5473499370829273, 0.43694878696997463, 0.8365306684987921, 0.6820687507404521]",22.91,0.0,0.0,0.0,245.04618332039638,45.15322043779158,-1744.3489909445614,-2385.3013211718103,0.0,0.0,0.0,0.0,0.0,0.0,0.0,2.1,22.05201111885754,0.0,21.52060404758584,0.0,2.1,22.91,20.75,22.29,22.22,22.64,1.71,2.1,2045.49,-1211.56,-1265.98,0.0,80.0,29.0,134.0,0.0,0.0,0.0,0.0,0.0,0.0,0.0,0.0,0.0,0.0,0.0,0.0,0.0,0.0
146.0,1986.0,0.0,3629.1077033806264,-0.0,0.0,5615.107703380627,0.0,9842.16334330331,0.0,0.0,0.0,9842.16334330331,0.3620287968542223,0.5,0.305782312925169,0.0,0.0,0.0,"[0.9076648573055159, 0.48915320321379596, 0.46930414293929346, 0.5682240434912629, 0.2706866726804513, 0.5473499370829273, 0.43694878696997463, 0.8365306684987921, 0.6820687507404521]",21.5,0.0,0.0,0.0,210.06015362189095,36.035743234006745,-1668.2773950769042,338.68050930939785,0.0,0.0,0.0,0.0,0.0,0.0,0.0,1.6,21.64128909380107,0.0,21.487249710210833,0.0,1.6,21.5,20.73,22.24,21.29,21.92,1.23,1.6,755.04,-1158.72,-1210.77,0.0,80.0,14.0,110.0,0.0,0.0,0.0,0.0,0.0,0.0,0.0,0.0,0.0,0.0,0.0,0.0,0.0,0.0
147.0,2027.0,0.0,7552.281964762721,-0.0,0.0,9579.281964762722,0.0,20337.840632645464,0.0,0.0,0.0,20337.840632645468,0.0,0.5,0.305782312925169,0.0,0.0,0.0,"[0.9076648573055159, 0.48915320321379596, 0.46930414293929346, 0.5682240434912629, 0.2706866726804513, 0.5473499370829273, 0.43694878696997463, 0.8365306684987921, 0.6820687507404521]",21.1,0.0,0.0,0.0,165.64373320218337,27.259396129683246,-1651.6840536099548,960.4289082334761,5430.919277377801,0.0,0.0,0.0,0.0,0.0,0.0,1.4,21.47087246340676,0.0,21.40869441696629,0.0,1.4,21.1,20.67,22.14,21.08,21.72,1.02,1.4,1356.17,-1147.2,-1198.73,0.0,80.0,0.0,79.0,0.0,0.0,0.0,0.0,0.0,0.0,0.0,0.0,0.0,0.0,0.0,0.0,0.0,0.0
148.0,973.0,6845.590424616914,5838.362472493829,-0.0,0.0,0.0,0.0,15611.040827165463,0.0,0.0,0.0,15611.040827165461,0.0,0.5,0.305782312925169,0.0,0.0,0.0,"[0.9076648573055159, 0.48915320321379596, 0.46930414293929346, 0.5682240434912629, 0.2706866726804513, 0.5473499370829273, 0.43694878696997463, 0.8365306684987921, 0.6820687507404521]",22.91,0.0,0.0,0.0,149.23053408436596,26.887254202998147,-1819.7978268719103,-2504.9181538630505,0.0,0.0,0.0,0.0,0.0,0.0,0.0,1.2,22.00892490204126,0.0,21.463642407522894,0.0,1.2,22.91,20.71,22.22,22.37,22.73,0.85,1.2,768.94,-1263.96,-1320.74,0.0,80.0,0.0,67.0,0.0,0.0,0.0,0.0,0.0,0.0,0.0,0.0,0.0,0.0,0.0,0.0,0.0,0.0
149.0,1575.0,81821.97150479822,9203.604649406952,-55457.01787192847,0.0,-15177.239125938817,0.0,24346.049263605404,0.0,0.0,0.0,24346.0492636054,0.5508775682748163,0.5,0.4869419046401353,0.0,0.0,0.0,"[0.9076648573055159, 0.48915320321379596, 0.46930414293929346, 0.5682240434912629, 0.2706866726804513, 0.5473499370829273, 0.43694878696997463, 0.8365306684987921, 0.6820687507404521]",21.39,0.0,0.0,0.0,320.20135822829707,30.763732605967892,-1717.5192352150252,437.7616497442907,5082.502200322261,0.0,0.0,0.0,0.0,0.0,0.0,0.9,21.565424554299973,0.0,21.426908639707356,0.0,0.9,21.39,20.68,22.18,21.2,21.83,0.56,0.9,0.0,-1192.93,-1246.51,0.0,80.0,0.0,192.0,0.0,0.0,0.0,0.0,0.0,0.0,0.0,0.0,0.0,0.0,0.0,0.0,0.0,0.0
150.0,1276.0,9766.331575150201,8441.49991727445,-0.0,0.0,0.0,0.0,22249.598585987456,0.0,0.0,0.0,22249.598585987453,0.5508775682748163,0.5,0.4869419046401353,0.0,0.0,0.0,"[0.9076648573055159, 0.48915320321379596, 0.46930414293929346, 0.5682240434912629, 0.2706866726804513, 0.5473499370829273, 0.43694878696997463, 0.8365306684987921, 0.6820687507404521]",22.91,0.0,0.0,0.0,152.397993563243,47.23101286178337,-1853.3306428396209,-2461.84539310234,0.0,0.0,0.0,0.0,0.0,0.0,0.0,0.8,22.025008234214482,0.0,21.481150217275353,0.0,0.8,22.91,20.71,22.26,22.34,22.73,0.48,0.8,1674.14,-1287.25,-1345.07,0.0,149.0,0.0,33.0,0.0,0.0,0.0,0.0,0.0,0.0,0.0,0.0,0.0,0.0,0.0,0.0,0.0,0.0
151.0,1203.0,5532.3015959796185,4301.64008799972,-0.0,0.0,0.0,0.0,11255.986928508548,0.0,0.0,0.0,11255.986928508548,0.5508775682748163,0.5,0.4869419046401353,0.0,0.0,0.0,"[0.9076648573055159, 0.48915320321379596, 0.46930414293929346, 0.5682240434912629, 0.2706866726804513, 0.5473499370829273, 0.43694878696997463, 0.8365306684987921, 0.6820687507404521]",21.4,0.0,0.0,0.0,95.74366152060142,2.170827905663056,-1743.628090780815,455.87992273308527,2787.6950155833333,0.0,0.0,0.0,0.0,0.0,0.0,0.6,21.583740786170424,0.0,21.443340498901144,0.0,0.6,21.4,20.68,22.21,21.22,21.86,0.29,0.6,984.45,-1211.06,-1265.46,0.0,0.0,0.0,70.0,0.0,0.0,0.0,0.0,0.0,0.0,0.0,0.0,0.0,0.0,0.0,0.0,0.0,0.0
