,load_elec,grid,hp_elec,ev,pv,bat_pow,cool,load_th_sh,load_th_dhw,tes_pow,dh,hp_th,bat_soc,tes_soc,ev_soc,eh_th_in,eh_elec_in,eh_th_out,temp_slack,temp_zone_1,temp_zone_2,temp_update,Qsolar_1,QconvInt_1,QradInt_1,Qvent_1,Qconduc_1,Qheating_1,Qsolar_2,QconvInt_2,QradInt_2,Qvent_2,Qconduc_2,Qheating_2,temp_amb,temp_aggregate_1,temp_aggregate_2,temp_wall_1,temp_wall_2,_Tamb,_Tz_1,_TEW_1,_TIW_1,_T1_1,_T2_1,_Taeq_1,_Tvent_1,_Qheating_1,_Qinfvent_1,_Qenvelope_1,_Qsolar_1,_Qint_people_1,_Qint_lighting_1,_Qint_appliances_1,_Tz_2,_TEW_2,_TIW_2,_T1_2,_T2_2,_Taeq_2,_Tvent_2,_Qheating_2,_Qinfvent_2,_Qenvelope_2,_Qsolar_2,_Qint_people_2,_Qint_lighting_2,_Qint_appliances_2
8.0,1692.0,0.0,4366.596,-0.0,0.0,11760.0,0.0,57639.27084727273,28507.02,73181.74148805294,0.0,7263.145359219802,0.0,0.18885313993174774,0.8,22805.616,5701.404,28507.02,"[2.0, 2.0, 2.0, 2.0, 2.0, 2.0, 2.0, 2.0]",20.0,0.0,0.0,1.4557788995247372,1236.037097388138,126.78103709359803,-1472.9959741227121,-1115.157248034883,1238.2446821287547,0.0,0.0,0.0,0.0,0.0,0.0,-9.4,19.465865585142524,0.0,19.0,0.0,-9.4,20.0,18.0,20.0,20.0,20.0,-9.85,-9.4,10592.32,-1044.95,-1627.53,2.15,88.0,111.0,865.0,0.0,0.0,0.0,0.0,0.0,0.0,0.0,0.0,0.0,0.0,0.0,0.0,0.0,0.0
9.0,1381.0,23477.628177644052,21986.329595365354,-0.0,7.089558609517433,0.0,0.0,38247.619137308204,0.0,0.0,0.0,38247.61913730821,0.0,0.18885313993174774,0.8,0.0,0.0,0.0,"[2.0, 2.0, 2.0, 2.0, 2.0, 2.0, 2.0, 2.0]",20.0,0.0,0.0,44.80026966704143,142.3729792281484,93.48534928622243,-1432.9144510173323,-1127.5280595253619,10313.57449155904,0.0,0.0,0.0,0.0,0.0,0.0,-8.6,19.459084243904112,0.0,18.984704016843718,0.0,-8.6,20.0,17.96,20.01,19.42,20.04,-9.01,-8.6,0.0,-1016.52,-1583.24,66.13,112.0,89.0,38.0,0.0,0.0,0.0,0.0,0.0,0.0,0.0,0.0,0.0,0.0,0.0,0.0,0.0,0.0
10.0,1337.0,966.0851970779879,0.0,-0.0,375.74522890740207,0.0,0.0,44418.25851194706,0.0,44418.25851194707,0.0,0.0,0.0,0.0,0.7999999999999996,0.0,0.0,0.0,"[2.0, 2.0, 2.0, 2.0, 2.0, 2.0, 2.0, 2.0]",24.0,0.0,0.0,120.84034513807742,666.2632537840034,61.88323664707549,-1583.220162662507,-6324.358001251118,0.0,0.0,0.0,0.0,0.0,0.0,0.0,-7.6,20.870248135926524,0.0,19.238444682578468,0.0,-7.6,24.0,18.07,20.41,22.66,22.44,-8.02,-7.6,1283.62,-1123.14,-1749.31,178.38,95.0,24.0,445.0,0.0,0.0,0.0,0.0,0.0,0.0,0.0,0.0,0.0,0.0,0.0,0.0,0.0,0.0
11.0,1070.0,13931.453340156317,13858.843551669683,-0.0,1067.0474782141487,0.0,0.0,26487.141375914336,0.0,0.0,0.0,26487.141375914336,0.0,0.0,0.7999999999999996,0.0,0.0,0.0,"[2.0, 2.0, 2.0, 2.0, 2.0, 2.0, 2.0, 2.0]",20.48,0.0,0.0,161.96118551959174,126.23267613743256,49.07980837526677,-1366.610641001943,-1306.6054716787644,9409.988069246858,0.0,0.0,0.0,0.0,0.0,0.0,-6.8,19.84544057669611,0.0,19.288585039218805,0.0,-6.8,20.48,18.08,20.5,19.6,20.4,-7.2,-6.8,0.0,-969.48,-1509.98,239.08,143.0,0.0,19.0,0.0,0.0,0.0,0.0,0.0,0.0,0.0,0.0,0.0,0.0,0.0,0.0,0.0,0.0
12.0,2998.0,22739.384811664477,6133.911171639893,-0.0,2506.2232840337383,-16000.0,0.0,12074.042702953877,0.0,0.0,0.0,12074.042702953873,0.6533333333333333,0.0,0.7999999999999996,0.0,0.0,0.0,"[2.0, 2.0, 2.0, 2.0, 2.0, 2.0, 2.0, 2.0]",24.0,0.0,0.0,226.16079036150424,854.5198020604312,65.57523051381399,-1513.077497228092,-5871.423132339877,0.0,0.0,0.0,0.0,0.0,0.0,0.0,-6.2,21.095001757961885,0.0,19.523294808442838,0.0,-6.2,24.0,18.19,20.85,22.67,22.66,-6.56,-6.2,4353.21,-1073.38,-1671.81,333.85,137.0,0.0,566.0,0.0,0.0,0.0,0.0,0.0,0.0,0.0,0.0,0.0,0.0,0.0,0.0,0.0,0.0
13.0,981.0,62307.24816959901,61453.01784104431,-0.0,438.30591229328786,0.0,0.0,41550.49128831542,0.0,-80000.0,0.0,121550.4912883154,0.6533333333333333,0.3266666666666667,0.7999999999999996,0.0,0.0,0.0,"[2.0, 2.0, 2.0, 2.0, 2.0, 2.0, 2.0, 2.0]",20.88,0.0,0.0,120.4352788145294,149.9849998997524,3.7936083768322137,-1351.9890154260893,-1429.541440271725,734.3878398583846,0.0,0.0,0.0,0.0,0.0,0.0,-6.1,20.192103118787372,0.0,19.574254240752197,0.0,-6.1,20.88,18.22,20.93,19.95,20.84,-6.51,-6.1,0.0,-959.11,-1493.83,177.78,0.0,0.0,112.0,0.0,0.0,0.0,0.0,0.0,0.0,0.0,0.0,0.0,0.0,0.0,0.0,0.0,0.0
14.0,1717.0,0.0,0.0,-0.0,4.7275828298251685,1712.2724171701748,0.0,34811.55713210709,0.0,34811.55713210708,0.0,0.0,0.5805326353243974,0.17865834552675566,0.7999999999999996,0.0,0.0,0.0,"[2.0, 2.0, 2.0, 2.0, 2.0, 2.0, 2.0, 2.0]",20.0,0.0,0.0,39.34308297654587,406.8202158935012,62.59453821773153,-1332.7106432538822,-252.59667281490374,9106.793959524894,0.0,0.0,0.0,0.0,0.0,0.0,-6.6,19.893842399540034,0.0,19.53477386446863,0.0,-6.6,20.0,18.2,20.87,19.55,20.54,-7.01,-6.6,8032.62,-945.43,-1472.52,58.08,163.0,0.0,218.0,0.0,0.0,0.0,0.0,0.0,0.0,0.0,0.0,0.0,0.0,0.0,0.0,0.0,0.0
15.0,1135.0,5443.596344040745,4281.378362320541,-0.0,0.0,0.0,0.0,7978.528798452693,0.0,0.0,0.0,7978.528798452693,0.5805326353243974,0.17865834552675566,0.7999999999999996,0.0,0.0,0.0,"[2.0, 2.0, 2.0, 2.0, 2.0, 2.0, 2.0, 2.0]",24.0,0.0,0.0,4.367942750758792,816.0368086651,61.713879130252636,-1568.189591497989,-5544.022175384091,6237.121704847517,0.0,0.0,0.0,0.0,0.0,0.0,-7.3,21.259076443289818,0.0,19.734254488990562,0.0,-7.3,24.0,18.3,21.17,22.67,22.8,-7.71,-7.3,5057.08,-1112.48,-1732.71,6.45,128.0,0.0,542.0,0.0,0.0,0.0,0.0,0.0,0.0,0.0,0.0,0.0,0.0,0.0,0.0,0.0,0.0
16.0,1370.0,1376.8844221105528,0.0,-0.0,0.0,0.0,0.0,20732.760398317107,0.0,20732.760398317107,0.0,0.0,0.5805326353243974,0.09050885403731218,0.7865735767991403,0.0,0.0,0.0,"[2.0, 2.0, 2.0, 2.0, 2.0, 2.0, 2.0, 2.0]",24.0,0.0,0.0,0.0,592.3279789274055,63.54294031193958,-1563.179401109817,-5202.6085876299685,0.0,0.0,0.0,0.0,0.0,0.0,0.0,-7.2,21.429216987863356,0.0,19.9541051510437,0.0,-7.2,24.0,18.42,21.49,22.35,22.73,-7.59,-7.2,0.0,-1108.93,-1727.17,0.0,106.0,24.0,384.0,0.0,0.0,0.0,0.0,0.0,0.0,0.0,0.0,0.0,0.0,0.0,0.0,0.0,0.0
17.0,1845.0,21015.69983021961,19065.621331068513,-0.0,0.0,0.0,0.0,36074.86315586356,0.0,0.0,0.0,36074.86315586357,0.5805326353243974,0.09050885403731218,0.7747583243823841,0.0,0.0,0.0,"[2.0, 2.0, 2.0, 2.0, 2.0, 2.0, 2.0, 2.0]",20.95,0.0,0.0,0.0,1212.7076636631293,78.37865878562272,-1400.354464228827,-914.9185480957739,561.6001834959303,0.0,0.0,0.0,0.0,0.0,0.0,-7.0,20.514721003412962,0.0,19.966282072902253,0.0,-7.0,20.95,18.43,21.5,20.05,21.17,-7.39,-7.0,0.0,-993.42,-1547.26,0.0,92.0,30.0,854.0,0.0,0.0,0.0,0.0,0.0,0.0,0.0,0.0,0.0,0.0,0.0,0.0,0.0,0.0
18.0,4976.0,0.0,6389.746029903286,-0.0,0.0,11365.746029903286,0.0,12151.222335942472,0.0,0.0,0.0,12151.222335942472,0.09729513405299917,0.09050885403731218,0.7747583243823841,0.0,0.0,0.0,"[2.0, 2.0, 2.0, 2.0, 2.0, 2.0, 2.0, 2.0]",20.72,0.0,0.0,0.0,2435.0713165115344,145.3426209373842,-1383.5673021320624,-662.239460599815,0.0,0.0,0.0,0.0,0.0,0.0,0.0,-6.9,20.40539885115521,0.0,19.918419347672003,0.0,-6.9,20.72,18.41,21.42,20.01,21.1,-7.3,-6.9,0.0,-981.51,-1528.72,0.0,142.0,63.0,1737.0,0.0,0.0,0.0,0.0,0.0,0.0,0.0,0.0,0.0,0.0,0.0,0.0,0.0,0.0
19.0,2792.0,13562.29999352073,10702.488493553126,-0.0,0.0,0.0,0.0,20454.68835447567,0.0,0.0,0.0,20454.68835447567,0.09729513405299917,0.09050885403731218,0.7425349087003218,0.0,0.0,0.0,"[2.0, 2.0, 2.0, 2.0, 2.0, 2.0, 2.0, 2.0]",20.97,0.0,0.0,0.0,559.2720743442363,103.8161578124173,-1391.5005513364247,-1097.557522332212,7908.134947150285,0.0,0.0,0.0,0.0,0.0,0.0,-6.8,20.446811456482653,0.0,19.872127100070678,0.0,-6.8,20.97,18.39,21.35,20.07,21.1,-7.19,-6.8,6372.32,-987.14,-1537.48,0.0,83.0,104.0,363.0,0.0,0.0,0.0,0.0,0.0,0.0,0.0,0.0,0.0,0.0,0.0,0.0,0.0,0.0
20.0,3569.0,0.0,4886.327981435192,-0.0,0.0,8455.327981435192,0.0,9431.957927827463,0.0,0.0,0.0,9431.957927827463,0.3911332300804145,0.09050885403731218,0.7425349087003218,0.0,0.0,0.0,"[2.0, 1.5549302893458936, 1.2038801986169858, 1.4724887129878113, 1.4181216841009139, 1.6055361080773167, 2.0, 1.9071109839460867]",24.0,0.0,0.0,0.0,596.1339892632076,109.81141390794677,-1533.1182587807818,-5059.929085188899,0.0,0.0,0.0,0.0,0.0,0.0,0.0,-6.6,21.49990978173391,0.0,20.05041616373928,0.0,-6.6,24.0,18.49,21.61,22.64,22.97,-6.99,-6.6,0.0,-1087.6,-1693.96,0.0,129.0,88.0,368.0,0.0,0.0,0.0,0.0,0.0,0.0,0.0,0.0,0.0,0.0,0.0,0.0,0.0,0.0
21.0,3431.0,0.0,0.0,-0.0,0.0,3431.0,0.0,19209.512003429158,0.0,19209.512003429158,0.0,0.0,0.24525737974027847,0.008835758784637188,0.7425349087003218,0.0,0.0,0.0,"[2.0, 1.5549302893458936, 1.2038801986169858, 1.4724887129878113, 1.4181216841009139, 1.6055361080773167, 2.0, 1.9071109839460867]",21.06,0.0,0.0,0.0,738.859376855782,117.7712171986215,-1380.738573706863,-923.7989107025908,0.0,0.0,0.0,0.0,0.0,0.0,0.0,-6.5,20.618492899748173,0.0,20.063583337757017,0.0,-6.5,21.06,18.51,21.62,20.17,21.29,-6.9,-6.5,0.0,-979.5,-1525.59,0.0,135.0,92.0,471.0,0.0,0.0,0.0,0.0,0.0,0.0,0.0,0.0,0.0,0.0,0.0,0.0,0.0,0.0
22.0,2512.0,14849.884185599558,12263.63476467156,-0.0,0.0,0.0,0.0,26101.100013081126,0.0,2078.1704661466665,0.0,24022.929546934458,0.24525737974027847,0.0,0.7425349087003218,0.0,0.0,0.0,"[2.0, 1.5549302893458936, 1.2038801986169858, 1.4724887129878113, 1.4181216841009139, 1.6055361080773167, 2.0, 1.9071109839460867]",20.33,0.0,0.0,0.0,458.9766538285656,97.14347164959634,-1334.2166675746503,-14.657902466194138,3825.5012798903203,0.0,0.0,0.0,0.0,0.0,0.0,-6.3,20.342566632226504,0.0,19.99395932456861,0.0,-6.3,20.33,18.48,21.51,19.81,20.99,-6.73,-6.3,7735.01,-946.5,-1474.19,0.0,157.0,58.0,254.0,0.0,0.0,0.0,0.0,0.0,0.0,0.0,0.0,0.0,0.0,0.0,0.0,0.0,0.0
23.0,1529.0,26637.176839952106,0.0,-0.0,0.0,-9371.264805509203,0.0,14043.353535218823,0.0,0.0,0.0,0.0,0.627917359298571,0.0,0.7425349087003218,62414.90460097257,15603.726150243143,78018.63075121571,"[2.0, 1.5549302893458936, 1.2038801986169858, 1.4724887129878113, 1.4181216841009139, 1.6055361080773167, 2.0, 1.9071109839460867]",21.84,0.0,0.0,0.0,349.23668914627495,67.23493417867809,-1404.6893877983425,-2085.0095929876406,7419.857744780507,0.0,0.0,0.0,0.0,0.0,0.0,-6.2,20.817935105025022,0.0,20.02077032428862,0.0,-6.2,21.84,18.5,21.54,21.05,21.85,-6.61,-6.2,5831.66,-996.49,-1552.05,0.0,80.0,54.0,213.0,0.0,0.0,0.0,0.0,0.0,0.0,0.0,0.0,0.0,0.0,0.0,0.0,0.0,0.0
24.0,1529.0,0.0,2128.533468763465,-0.0,0.0,3657.533468763465,0.0,4210.115270840613,0.0,0.0,0.0,4210.115270840613,0.4724099839259746,0.0,0.7425349087003218,0.0,0.0,0.0,"[2.0, 1.5549302893458936, 1.2038801986169858, 1.4724887129878113, 1.4181216841009139, 1.6055361080773167, 2.0, 1.9071109839460867]",24.0,0.0,0.0,0.0,190.30051679009932,30.484353028116,-1508.0673068399196,-4839.245757197076,0.0,0.0,0.0,0.0,0.0,0.0,0.0,-6.1,21.609598807450094,0.0,20.199546256343588,0.0,-6.1,24.0,18.61,21.79,22.63,23.04,-6.52,-6.1,2757.76,-1069.83,-1666.28,0.0,80.0,0.0,100.0,0.0,0.0,0.0,0.0,0.0,0.0,0.0,0.0,0.0,0.0,0.0,0.0,0.0,0.0
25.0,1046.0,0.0,10065.082821938924,-0.0,0.0,11111.082821938924,0.0,20004.101322234535,0.0,0.0,0.0,20004.101322234535,0.0,0.0,0.7425349087003218,0.0,0.0,0.0,"[2.0, 1.5549302893458936, 1.2038801986169858, 1.4724887129878113, 1.4181216841009139, 1.6055361080773167, 2.0, 1.9071109839460867]",20.94,0.0,0.0,0.0,218.4227042713029,31.195654598772048,-1349.9310938275116,-566.7737297437636,0.0,0.0,0.0,0.0,0.0,0.0,0.0,-6.0,20.681144628586058,0.0,20.197494831186788,0.0,-6.0,20.94,18.62,21.78,20.15,21.34,-6.39,-6.0,6693.24,-957.65,-1491.55,0.0,80.0,0.0,121.0,0.0,0.0,0.0,0.0,0.0,0.0,0.0,0.0,0.0,0.0,0.0,0.0,0.0,0.0
26.0,966.0,80455.33548733145,63087.05880989479,-0.0,0.0,-16000.0,0.0,47188.2423545212,0.0,-80000.0,0.0,127188.24235452122,0.6533333333333333,0.3266666666666667,0.7425349087003218,0.0,0.0,0.0,"[2.0, 1.5549302893458936, 1.2038801986169858, 1.4724887129878113, 1.4181216841009139, 1.6055361080773167, 2.0, 1.9071109839460867]",20.11,0.0,0.0,0.0,170.21324001781107,29.976280477647407,-1293.1687246008728,456.86820199662327,8440.100779191702,0.0,0.0,0.0,0.0,0.0,0.0,-5.7,20.357739227441456,0.0,20.107884239026482,0.0,-5.7,20.11,18.58,21.63,19.73,20.98,-6.08,-5.7,5579.04,-917.38,-1428.83,0.0,80.0,0.0,85.0,0.0,0.0,0.0,0.0,0.0,0.0,0.0,0.0,0.0,0.0,0.0,0.0,0.0,0.0
27.0,1862.0,1871.356783919598,0.0,-0.0,0.0,0.0,0.0,16371.560993331997,0.0,16371.560993331997,0.0,0.0,0.6533333333333333,0.25705968965420073,0.7425349087003218,0.0,0.0,0.0,"[2.0, 1.5549302893458936, 1.2038801986169858, 1.4724887129878113, 1.4181216841009139, 1.6055361080773167, 2.0, 1.9071109839460867]",24.0,0.0,0.0,0.0,1600.4273462047358,66.15104607101173,-1478.0061645108847,-4752.771168807047,0.0,0.0,0.0,0.0,0.0,0.0,0.0,-5.5,21.652235109764618,0.0,20.26198195588921,0.0,-5.5,24.0,18.67,21.85,22.79,23.16,-5.87,-5.5,0.0,-1048.5,-1633.06,0.0,80.0,0.0,1153.0,0.0,0.0,0.0,0.0,0.0,0.0,0.0,0.0,0.0,0.0,0.0,0.0,0.0,0.0
28.0,1667.0,8339.132079297166,12335.236418900678,-0.0,0.0,5704.799999999999,0.0,25741.055440910925,0.0,519.5068430352578,0.0,25221.548597875666,0.4107823129251701,0.2548509020562617,0.7425349087003218,0.0,0.0,0.0,"[2.0, 1.5549302893458936, 1.2038801986169858, 1.4724887129878113, 1.4181216841009139, 1.6055361080773167, 2.0, 1.9071109839460867]",21.72,0.0,0.0,0.0,1131.7242215180092,54.29601989341107,-1358.7958677384165,-1530.355519679452,0.0,0.0,0.0,0.0,0.0,0.0,0.0,-5.4,20.97776723884487,0.0,20.284641953181882,0.0,-5.4,21.72,18.7,21.87,20.57,21.66,-5.77,-5.4,0.0,-963.94,-1501.35,0.0,80.0,0.0,803.0,0.0,0.0,0.0,0.0,0.0,0.0,0.0,0.0,0.0,0.0,0.0,0.0,0.0,0.0
29.0,740.0,0.0,0.0,-0.0,0.0,740.0,0.0,25399.880747239076,0.0,25399.880747239076,0.0,0.0,0.3793197278911565,0.14685821180439487,0.7425349087003218,0.0,0.0,0.0,"[2.0, 1.5549302893458936, 1.2038801986169858, 1.4724887129878113, 1.4181216841009139, 1.6055361080773167, 2.0, 1.9071109839460867]",20.87,0.0,0.0,0.0,105.93395434648862,28.350448316147883,-1306.0779787411218,-422.26754661638563,7878.234481764853,0.0,0.0,0.0,0.0,0.0,0.0,-5.2,20.67725351892383,0.0,20.232547445500018,0.0,-5.2,20.87,18.69,21.78,20.15,21.32,-5.56,-5.2,0.0,-926.54,-1443.1,0.0,80.0,0.0,37.0,0.0,0.0,0.0,0.0,0.0,0.0,0.0,0.0,0.0,0.0,0.0,0.0,0.0,0.0
30.0,768.0,0.0,0.0,-0.0,0.0,768.0,0.0,26042.22807439483,0.0,26042.228074394825,0.0,0.0,0.3466666666666667,0.03613445298468898,0.7425349087003218,0.0,0.0,0.0,"[2.0, 1.5549302893458936, 1.2038801986169858, 1.4724887129878113, 1.4181216841009139, 1.6055361080773167, 2.0, 1.9071109839460867]",24.0,0.0,0.0,0.0,207.4275633012083,76.44798309384204,-1457.9654029581948,-4571.311900757823,0.0,0.0,0.0,0.0,0.0,0.0,0.0,-5.1,21.742411283434894,0.0,20.387082437947598,0.0,-5.1,24.0,18.78,21.99,22.77,23.21,-5.47,-5.1,0.0,-1034.29,-1610.92,0.0,169.0,28.0,63.0,0.0,0.0,0.0,0.0,0.0,0.0,0.0,0.0,0.0,0.0,0.0,0.0,0.0,0.0
31.0,1481.0,17568.844221105526,0.0,-0.0,0.0,-16000.0,0.0,8498.823341998848,0.0,8498.823341998848,0.0,0.0,1.0,0.0,0.7425349087003218,0.0,0.0,0.0,"[2.0, 1.5549302893458936, 1.2038801986169858, 1.4724887129878113, 1.4181216841009139, 1.6055361080773167, 2.0, 1.9071109839460867]",21.13,0.0,0.0,0.0,144.62839276047546,81.56258010189259,-1309.2197078658692,-562.8642807904438,7409.1809247151,0.0,0.0,0.0,0.0,0.0,0.0,-5.0,20.869905869159073,0.0,20.38482838886775,0.0,-5.0,21.13,18.8,21.97,20.35,21.54,-5.36,-5.0,0.0,-928.77,-1446.57,0.0,137.0,56.0,30.0,0.0,0.0,0.0,0.0,0.0,0.0,0.0,0.0,0.0,0.0,0.0,0.0,0.0,0.0
32.0,3717.0,3593.165680975804,803.8494791531693,-0.0,0.0,945.6496265822444,0.0,5832.197761403888,0.0,4142.6068253632575,0.0,1689.5909360406304,0.5965312037274327,0.0,0.7425349087003218,0.0,0.0,0.0,"[2.0, 1.55493028934589, 0.5163638623783093, 0.49855853564343633, 0.23769903017196725, 1.0288891616128382, 1.0651015679651614, 1.29597429296782]",24.0,0.0,0.0,1.4556515577163573,303.0007117335693,74.55117890542593,-1442.934831793677,-4358.198892093136,4155.245550055128,0.0,0.0,0.0,0.0,0.0,0.0,-4.8,21.84844589045117,0.0,20.53078698635784,0.0,-4.8,24.0,18.89,22.17,22.8,23.29,-5.17,-4.8,0.0,-1023.62,-1594.31,2.15,114.0,50.0,161.0,0.0,0.0,0.0,0.0,0.0,0.0,0.0,0.0,0.0,0.0,0.0,0.0,0.0,0.0
33.0,1716.0,0.0,12321.144457854925,-0.0,6.730546185707031,14030.413911669219,0.0,27072.11513972663,0.0,0.0,0.0,27072.115139726633,0.0,0.0,0.7425349087003218,0.0,0.0,0.0,"[2.0, 1.55493028934589, 0.5163638623783093, 0.49855853564343633, 0.23769903017196725, 1.0288891616128382, 1.0651015679651614, 1.29597429296782]",23.36,0.0,0.0,44.766173710344034,348.17946405299654,58.93641585435763,-1360.9752665467759,-3279.095985942988,311.6174861353257,0.0,0.0,0.0,0.0,0.0,0.0,-3.8,21.74937040608991,0.0,20.655354390524746,0.0,-3.8,23.36,18.98,22.34,22.1,22.89,-4.11,-3.8,7680.12,-965.48,-1503.75,66.08,109.0,25.0,200.0,0.0,0.0,0.0,0.0,0.0,0.0,0.0,0.0,0.0,0.0,0.0,0.0,0.0,0.0
34.0,2352.0,3136.7605040400254,886.193582305664,-0.0,117.11688078583849,0.0,0.0,2040.0833916282927,0.0,0.0,0.0,2040.0833916282922,0.0,0.0,0.7425349087003218,0.0,0.0,0.0,"[2.0, 1.55493028934589, 0.5163638623783093, 0.49855853564343633, 0.23769903017196725, 1.0288891616128382, 1.0651015679651614, 1.29597429296782]",21.43,0.0,0.0,86.8143370429034,555.8889540457458,66.82847613830322,-1208.849290719047,-595.006318290455,0.0,0.0,0.0,0.0,0.0,0.0,0.0,-2.7,21.149041252106315,0.0,20.64189223031523,0.0,-2.7,21.43,18.99,22.29,20.67,21.88,-3.0,-2.7,0.0,-857.56,-1335.67,128.15,155.0,5.0,333.0,0.0,0.0,0.0,0.0,0.0,0.0,0.0,0.0,0.0,0.0,0.0,0.0,0.0,0.0
35.0,2675.0,7067.143401637797,4938.4792094325385,-0.0,581.6715248029304,0.0,0.0,11839.546007384553,0.0,0.0,0.0,11839.546007384555,0.0,0.0,0.7425349087003218,0.0,0.0,0.0,"[2.0, 1.55493028934589, 0.5163638623783093, 0.49855853564343633, 0.23769903017196725, 1.0288891616128382, 1.0651015679651614, 1.29597429296782]",20.88,0.0,0.0,132.51062947818346,313.2910359748118,37.76672625149927,-1131.2007600461318,61.007140546643996,6854.016822625198,0.0,0.0,0.0,0.0,0.0,0.0,-1.7,20.92514841523465,0.0,20.57310391763469,0.0,-1.7,20.88,18.98,22.16,20.36,21.61,-1.97,-1.7,1070.31,-802.48,-1249.87,195.61,93.0,0.0,185.0,0.0,0.0,0.0,0.0,0.0,0.0,0.0,0.0,0.0,0.0,0.0,0.0,0.0,0.0
36.0,1550.0,69835.25994646816,0.0,-0.0,826.8818254059847,-16000.0,0.0,27408.922338714015,0.0,-20077.74658621358,0.0,0.0,0.6533333333333333,0.08198413189370546,0.7425349087003218,211051.8618885672,52762.9654721418,263814.82736070896,"[2.0, 1.55493028934589, 0.5163638623783093, 0.49855853564343633, 0.23769903017196725, 1.0288891616128382, 1.0651015679651614, 1.29597429296782]",24.0,0.0,0.0,145.02846355483942,494.1470085982914,12.498584741527566,-1252.5475970431226,-4111.619573745461,0.0,0.0,0.0,0.0,0.0,0.0,0.0,-1.0,21.96860587117632,0.0,20.706165404499398,0.0,-1.0,24.0,19.08,22.33,22.85,23.37,-1.37,-1.0,0.0,-888.56,-1383.95,214.09,0.0,0.0,369.0,0.0,0.0,0.0,0.0,0.0,0.0,0.0,0.0,0.0,0.0,0.0,0.0,0.0,0.0
37.0,1124.0,0.0,4968.830949234874,-0.0,237.41153564329807,5855.419413591577,0.0,12386.005392472987,0.0,0.0,0.0,12386.005392472987,0.4043784262928751,0.08198413189370546,0.7425349087003218,0.0,0.0,0.0,"[2.0, 1.55493028934589, 0.5163638623783093, 0.49855853564343633, 0.23769903017196725, 1.0288891616128382, 1.0651015679651614, 1.29597429296782]",21.65,0.0,0.0,102.26667041326284,139.27178562119863,3.522636349915627,-1119.7269604265014,-815.6317906701809,6407.142345559031,0.0,0.0,0.0,0.0,0.0,0.0,-0.7,21.258999215969975,0.0,20.714732833006686,0.0,-0.7,21.65,19.11,22.32,20.79,21.96,-1.11,-0.7,0.0,-794.34,-1237.2,150.96,0.0,0.0,104.0,0.0,0.0,0.0,0.0,0.0,0.0,0.0,0.0,0.0,0.0,0.0,0.0,0.0,0.0
38.0,2532.0,8886.78124141879,7589.225086098594,-0.0,0.23210991283392307,1278.645640974065,0.0,18483.865115912282,0.0,0.0,0.0,18483.865115912286,0.35001424087731114,0.08198413189370546,0.7425349087003213,0.0,0.0,0.0,"[2.0, 1.55493028934589, 0.5163638623783093, 0.49855853564343633, 0.23769903017196725, 1.0288891616128382, 1.0651015679651614, 1.29597429296782]",24.0,0.0,0.0,25.121173088252494,92.40147315252602,2.3371337321555576,-1267.5781682076401,-3911.518801692804,5059.749002142514,0.0,0.0,0.0,0.0,0.0,0.0,-1.3,22.068605757181285,0.0,20.847693180650612,0.0,-1.3,24.0,19.21,22.48,22.83,23.42,-1.69,-1.3,8061.24,-899.23,-1400.56,37.08,0.0,0.0,69.0,0.0,0.0,0.0,0.0,0.0,0.0,0.0,0.0,0.0,0.0,0.0,0.0,0.0,0.0
39.0,829.0,0.0,6489.334945434359,-0.0,0.0,7318.334945434359,0.0,15433.849195586427,0.0,0.0,0.0,15433.849195586428,0.038860544217687074,0.08198413189370546,0.7425349087003213,0.0,0.0,0.0,"[2.0, 1.55493028934589, 0.5163638623783093, 0.49855853564343633, 0.23769903017196725, 1.0288891616128382, 1.0651015679651614, 1.29597429296782]",24.0,0.0,0.0,2.9013017141780533,40.174553544576526,1.0161451009371973,-1297.6393105366749,-3693.3078114277796,0.0,0.0,0.0,0.0,0.0,0.0,0.0,-1.9,22.177852223710115,0.0,20.99486656931382,0.0,-1.9,24.0,19.32,22.67,22.68,23.39,-2.31,-1.9,0.0,-920.55,-1433.77,4.28,0.0,0.0,30.0,0.0,0.0,0.0,0.0,0.0,0.0,0.0,0.0,0.0,0.0,0.0,0.0,0.0,0.0
40.0,914.0,0.0,0.0,-0.0,0.0,914.0,0.0,11119.954774579153,0.0,11119.954774579151,0.0,0.0,0.0,0.034705412614032205,0.7425349087003213,0.0,0.0,0.0,"[2.0, 1.55493028934589, 0.5163638623783093, 0.49855853564343633, 0.23769903017196725, 1.0288891616128382, 1.0651015679651614, 1.29597429296782]",21.53,0.0,0.0,0.0,194.74086218186832,60.8670915461383,-1184.0843537890216,-281.32127040175095,0.0,0.0,0.0,0.0,0.0,0.0,0.0,-2.1,21.410874036566447,0.0,20.9742740773042,0.0,-2.1,21.53,19.34,22.61,20.81,22.08,-2.52,-2.1,7310.55,-839.99,-1308.31,0.0,163.0,6.0,59.0,0.0,0.0,0.0,0.0,0.0,0.0,0.0,0.0,0.0,0.0,0.0,0.0,0.0,0.0
41.0,2267.0,12139.28874357984,0.0,-0.0,0.0,0.0,0.0,8830.433069875744,0.0,0.0,0.0,0.0,0.0,0.034705412614032205,0.7425349087003213,39246.36919944776,9811.59229986194,49057.961499309706,"[2.0, 1.55493028934589, 0.5163638623783093, 0.49855853564343633, 0.23769903017196725, 1.0288891616128382, 1.0651015679651614, 1.29597429296782]",20.93,0.0,0.0,0.0,218.98655765438474,100.02254943558506,-1163.7120476515993,426.41343309053553,0.0,0.0,0.0,0.0,0.0,0.0,0.0,-2.3,21.156816780497646,0.0,20.888678729286596,0.0,-2.3,20.93,19.32,22.46,20.52,21.8,-2.71,-2.3,4119.09,-825.54,-1285.8,0.0,149.0,77.0,77.0,0.0,0.0,0.0,0.0,0.0,0.0,0.0,0.0,0.0,0.0,0.0,0.0,0.0,0.0
42.0,5143.0,5168.844221105528,0.0,-0.0,0.0,0.0,0.0,8162.713046820374,0.0,8162.713046820374,0.0,0.0,0.0,0.0,0.7425349087003213,0.0,0.0,0.0,"[2.0, 1.55493028934589, 0.5163638623783093, 0.49855853564343633, 0.23769903017196725, 1.0288891616128382, 1.0651015679651614, 1.29597429296782]",20.71,0.0,0.0,0.0,502.53432767163275,76.88831263758149,-1163.0007889429883,568.4297753722877,0.0,0.0,0.0,0.0,0.0,0.0,0.0,-2.5,21.0134513329832,0.0,20.791767513014168,0.0,-2.5,20.71,19.29,22.3,20.41,21.64,-2.96,-2.5,0.0,-825.04,-1285.01,0.0,81.0,63.0,326.0,0.0,0.0,0.0,0.0,0.0,0.0,0.0,0.0,0.0,0.0,0.0,0.0,0.0,0.0
43.0,5819.0,12259.256040463628,6378.959760261309,-0.0,0.0,0.0,0.0,14684.838756015346,0.0,0.0,0.0,14684.838756015346,0.0,0.0,0.7425349087003213,0.0,0.0,0.0,"[2.0, 1.55493028934589, 0.5163638623783093, 0.49855853564343633, 0.23769903017196725, 1.0288891616128382, 1.0651015679651614, 1.29597429296782]",20.7,0.0,0.0,0.0,858.8896657793149,108.86301181373872,-1172.4253546439263,430.19647679700654,0.0,0.0,0.0,0.0,0.0,0.0,0.0,-2.7,20.932784741873,0.0,20.69576453002483,0.0,-2.7,20.7,19.25,22.14,20.36,21.53,-3.17,-2.7,0.0,-831.72,-1295.42,0.0,128.0,76.0,566.0,0.0,0.0,0.0,0.0,0.0,0.0,0.0,0.0,0.0,0.0,0.0,0.0,0.0,0.0
44.0,4947.0,13757.306791105197,251.72433878232448,-0.0,0.0,-8489.795918367347,0.0,574.6885778032902,0.0,0.0,0.0,574.6885778032902,1.0,0.0,0.7274973147153588,0.0,0.0,0.0,"[1.19288762363054, 1.55493028934589, 0.5163638623783093, 0.4318070749752785, 0.23769903017196725, 1.0288891616128382, 0.9475932329529186, 1.2831789740771775]",20.81,0.0,0.0,0.0,1480.3970572812025,146.18940852149854,-1187.7714655941134,145.07234530554408,0.0,0.0,0.0,0.0,0.0,0.0,0.0,-2.9,20.89713095318349,0.0,20.610827946783765,0.0,-2.9,20.81,19.22,22.0,20.39,21.49,-3.34,-2.9,0.0,-842.61,-1312.38,0.0,167.0,91.0,1008.0,0.0,0.0,0.0,0.0,0.0,0.0,0.0,0.0,0.0,0.0,0.0,0.0,0.0,0.0
45.0,5295.0,50880.957372594625,45331.552585731646,-0.0,0.0,0.0,0.0,22627.95973443474,0.0,-80000.0,0.0,102627.95973443476,1.0,0.3266666666666667,0.6925886143931247,0.0,0.0,0.0,"[1.19288762363054, 1.55493028934589, 0.5163638623783093, 0.4318070749752785, 0.23769903017196725, 1.0288891616128382, 0.9475932329529186, 1.2831789740771775]",21.09,0.0,0.0,0.0,2776.76646665909,186.39488301524713,-1211.9639034018362,-357.3388629907548,2845.0311950628466,0.0,0.0,0.0,0.0,0.0,0.0,-3.1,20.929858018926552,0.0,20.544460736004645,0.0,-3.1,21.09,19.19,21.89,20.51,21.52,-3.55,-3.1,2556.2,-859.77,-1339.11,0.0,107.0,135.0,2003.0,0.0,0.0,0.0,0.0,0.0,0.0,0.0,0.0,0.0,0.0,0.0,0.0,0.0,0.0
46.0,3306.0,3322.613065326633,0.0,-0.0,0.0,0.0,0.0,15501.823648917638,0.0,15501.823648917634,0.0,0.0,1.0,0.26075755251310534,0.6925886143931245,0.0,0.0,0.0,"[1.19288762363054, 1.55493028934589, 0.5163638623783093, 0.4318070749752785, 0.23769903017196725, 1.0288891616128382, 0.9475932329529186, 1.2831789740771775]",23.19,0.0,0.0,0.0,678.2451381744911,123.19065773695324,-1327.3441092684766,-3216.9177290248726,0.0,0.0,0.0,0.0,0.0,0.0,0.0,-3.3,21.60874509731161,0.0,20.600723516735897,0.0,-3.3,23.19,19.23,21.97,21.94,22.53,-3.78,-3.3,0.0,-941.62,-1466.59,0.0,134.0,104.0,425.0,0.0,0.0,0.0,0.0,0.0,0.0,0.0,0.0,0.0,0.0,0.0,0.0,0.0,0.0
47.0,2131.0,0.0,8033.803304734236,-0.0,0.0,10164.803304734236,0.0,17958.290416033276,0.0,0.0,0.0,17958.290416033276,0.5678229887442927,0.26075755251310534,0.6925886143931245,0.0,0.0,0.0,"[1.19288762363054, 1.55493028934589, 0.5163638623783093, 0.4318070749752785, 0.23769903017196725, 1.0288891616128382, 0.9475932329529186, 1.2831789740771775]",21.32,0.0,0.0,0.0,242.52743639804882,58.22511428370158,-1238.5106880923083,-614.6629969585875,5315.782702575393,0.0,0.0,0.0,0.0,0.0,0.0,-3.4,21.03182412013298,0.0,20.58899353393759,0.0,-3.4,21.32,19.23,21.95,20.63,21.62,-3.87,-3.4,4378.3,-878.6,-1368.44,0.0,83.0,42.0,133.0,0.0,0.0,0.0,0.0,0.0,0.0,0.0,0.0,0.0,0.0,0.0,0.0,0.0,0.0
48.0,1359.0,0.0,0.0,-0.0,0.0,1359.0,0.0,21978.86765444558,0.0,21978.867654445578,0.0,0.0,0.5100423764993948,0.16730998595508845,0.6829215896885058,0.0,0.0,0.0,"[1.19288762363054, 1.55493028934589, 0.5163638623783093, 0.4318070749752785, 0.23769903017196725, 1.0288891616128382, 0.9475932329529186, 1.2831789740771775]",23.19,0.0,0.0,0.0,262.6147131703371,32.31341420980297,-1392.4765843147188,-3101.8562578471847,4203.062461539873,0.0,0.0,0.0,0.0,0.0,0.0,-4.6,21.667051413643396,0.0,20.67855514931839,0.0,-4.6,23.19,19.28,22.07,22.26,22.79,-5.06,-4.6,0.0,-987.83,-1538.56,0.0,80.0,0.0,154.0,0.0,0.0,0.0,0.0,0.0,0.0,0.0,0.0,0.0,0.0,0.0,0.0,0.0,0.0
49.0,770.0,0.0,0.0,-0.0,0.0,770.0,0.0,21694.40790092574,0.0,21694.40790092574,0.0,0.0,0.47730428126129953,0.07507185712462187,0.6603651987110621,0.0,0.0,0.0,"[1.19288762363054, 1.55493028934589, 0.5163638623783093, 0.4318070749752785, 0.23769903017196725, 1.0288891616128382, 0.9475932329529186, 1.2831789740771775]",23.19,0.0,0.0,0.0,115.30801684022316,28.5875488396999,-1452.5988689727885,-2948.360667000538,4260.299964280661,0.0,0.0,0.0,0.0,0.0,0.0,-5.8,21.744456716917437,0.0,20.779269415751422,0.0,-5.8,23.19,19.34,22.22,22.14,22.77,-6.25,-5.8,4796.36,-1030.48,-1604.99,0.0,80.0,0.0,44.0,0.0,0.0,0.0,0.0,0.0,0.0,0.0,0.0,0.0,0.0,0.0,0.0,0.0,0.0
50.0,2276.0,0.0,5704.509989920896,-0.0,0.0,7980.509989920896,0.0,10793.743024902498,0.0,0.0,0.0,10793.743024902496,0.13799688373064922,0.07507185712462187,0.6603651987110621,0.0,0.0,0.0,"[1.19288762363054, 1.55493028934589, 0.5163638623783093, 0.4318070749752785, 0.23769903017196725, 1.0288891616128382, 0.9475932329529186, 1.2831789740771775]",23.19,0.0,0.0,0.0,202.35288285347232,30.789196558397165,-1512.7211536308587,-2807.879929654751,1901.7676990051975,0.0,0.0,0.0,0.0,0.0,0.0,-7.0,21.815394564843,0.0,20.87132295417716,0.0,-7.0,23.19,19.39,22.35,22.18,22.86,-7.48,-7.0,162.16,-1073.13,-1671.42,0.0,80.0,0.0,109.0,0.0,0.0,0.0,0.0,0.0,0.0,0.0,0.0,0.0,0.0,0.0,0.0,0.0,0.0
51.0,1486.0,6235.189461365573,0.0,-0.0,0.0,0.0,0.0,4246.212162652869,0.0,0.0,0.0,0.0,0.13799688373064922,0.07507185712462187,0.6603651987110621,18872.054056234978,4718.0135140587445,23590.067570293722,"[1.19288762363054, 1.55493028934589, 0.5163638623783093, 0.4318070749752785, 0.23769903017196725, 1.0288891616128382, 0.9475932329529186, 1.2831789740771775]",22.1,0.0,0.0,0.0,192.97882035973777,30.552096034845153,-1488.0969702323077,-1261.4507808949281,0.0,0.0,0.0,0.0,0.0,0.0,0.0,-7.6,21.494578748045388,0.0,20.883603181911404,0.0,-7.6,22.1,19.4,22.37,21.35,22.3,-8.09,-7.6,4099.81,-1055.66,-1644.21,0.0,80.0,0.0,102.0,0.0,0.0,0.0,0.0,0.0,0.0,0.0,0.0,0.0,0.0,0.0,0.0,0.0,0.0
52.0,749.0,60560.19585536581,59508.39487608898,-0.0,0.0,0.0,0.0,25223.28088932268,0.0,-80000.0,0.0,105223.28088932268,0.13799688373064922,0.4017385237912886,0.6603651987110621,0.0,0.0,0.0,"[1.19288762363054, 1.55493028934589, 0.5163638623783093, 0.4318070749752785, 0.23769903017196725, 1.0288891616128382, 0.9475932329529186, 1.2831789740771775]",20.84,0.0,0.0,0.0,167.53493644817266,29.90853747091826,-1459.9823631209701,377.51068782881026,5607.06544974402,0.0,0.0,0.0,0.0,0.0,0.0,-8.3,21.050185143560036,0.0,20.802221514902577,0.0,-8.3,20.84,19.35,22.25,20.46,21.64,-8.8,-8.3,0.0,-1035.72,-1613.15,0.0,80.0,0.0,83.0,0.0,0.0,0.0,0.0,0.0,0.0,0.0,0.0,0.0,0.0,0.0,0.0,0.0,0.0
53.0,581.0,0.0,0.0,-0.0,0.0,581.0,0.0,6355.483593525921,0.0,6355.483593525921,0.0,0.0,0.11329450277826827,0.37471690987323625,0.6603651987110621,0.0,0.0,0.0,"[1.19288762363054, 1.55493028934589, 0.5163638623783093, 0.4318070749752785, 0.23769903017196725, 1.0288891616128382, 0.9475932329529186, 1.2831789740771775]",23.19,0.0,0.0,0.0,140.46997406024738,39.52804442645709,-1607.9147710061359,-2825.738985193855,0.0,0.0,0.0,0.0,0.0,0.0,0.0,-8.9,21.807912045704537,0.0,20.860230724000232,0.0,-8.9,23.19,19.38,22.34,22.36,22.98,-9.42,-8.9,3579.38,-1140.66,-1776.6,0.0,80.0,17.0,61.0,0.0,0.0,0.0,0.0,0.0,0.0,0.0,0.0,0.0,0.0,0.0,0.0,0.0,0.0
54.0,1126.0,7361.710404176391,0.0,-0.0,0.0,0.0,0.0,5579.011666939957,0.0,0.0,0.0,0.0,0.11329450277826827,0.37471690987323625,0.6603651987110621,24795.607408622036,6198.901852155509,30994.509260777544,"[1.19288762363054, 1.55493028934589, 0.5163638623783093, 0.4318070749752785, 0.23769903017196725, 1.0288891616128382, 0.9475932329529186, 1.2831789740771775]",21.07,0.0,0.0,0.0,156.46931380519277,59.61384592164907,-1526.598222398648,65.62153616309693,724.6417841566129,0.0,0.0,0.0,0.0,0.0,0.0,-9.4,21.125279685189064,0.0,20.80704881900555,0.0,-9.4,21.07,19.34,22.27,20.57,21.73,-9.92,-9.4,0.0,-1082.98,-1686.75,0.0,147.0,14.0,38.0,0.0,0.0,0.0,0.0,0.0,0.0,0.0,0.0,0.0,0.0,0.0,0.0,0.0,0.0
55.0,803.0,0.0,0.0,-0.0,0.0,803.0,0.0,16813.90408309435,0.0,16813.90408309435,0.0,0.0,0.07915334631568324,0.3032292224451141,0.6603651987110621,0.0,0.0,0.0,"[1.19288762363054, 1.55493028934589, 0.5163638623783093, 0.4318070749752785, 0.23769903017196725, 1.0288891616128382, 0.9475932329529186, 1.2831789740771775]",20.81,0.0,0.0,0.0,165.84337629892735,38.85061435916562,-1538.4847927661879,295.4859530529254,1042.7025802203118,0.0,0.0,0.0,0.0,0.0,0.0,-9.9,20.977316727987173,0.0,20.71685250213654,0.0,-9.9,20.81,19.29,22.14,20.52,21.63,-10.43,-9.9,5186.13,-1091.41,-1699.89,0.0,108.0,0.0,67.0,0.0,0.0,0.0,0.0,0.0,0.0,0.0,0.0,0.0,0.0,0.0,0.0,0.0,0.0
56.0,822.0,6317.210050251257,0.0,-0.0,0.0,0.0,0.0,7213.172165933606,27318.12,29067.668165933603,0.0,0.0,0.0,0.05605517341506644,0.6603651987110621,21854.496,5463.624,27318.12,"[1.19288762363054, 1.55493028934589, 0.5163638623783093, 0.4318070749752785, 0.23769903017196725, 1.0288891616128382, 0.9475932329529186, 1.2831789740771775]",20.81,0.0,0.0,6.03386503871045,253.87498573256963,50.0620819728394,-1528.4644119898428,164.86050630687822,1059.358891344927,0.0,0.0,0.0,0.0,0.0,0.0,-9.7,20.9120518265579,0.0,20.630030145452455,0.0,-9.7,20.81,19.23,22.03,20.51,21.58,-10.25,-9.7,366.32,-1084.3,-1688.81,8.91,136.0,0.0,118.0,0.0,0.0,0.0,0.0,0.0,0.0,0.0,0.0,0.0,0.0,0.0,0.0,0.0,0.0
57.0,1275.0,0.0,0.0,-6925.13818520335,8200.13818520335,0.0,0.0,10762.234065250177,0.0,10762.234065250173,0.0,0.0,0.0,0.010297375518594616,0.6841779545759719,0.0,0.0,0.0,"[1.19288762363054, 1.55493028934589, 0.5163638623783093, 0.4318070749752785, 0.23769903017196725, 1.0288891616128382, 0.9475932329529186, 1.2831789740771775]",20.81,0.0,0.0,1526.5121003978384,33.478794620480436,0.846787584114333,-1408.219842673703,50.144684536295415,619.64192289004,0.0,0.0,0.0,0.0,0.0,0.0,-7.3,20.85230789810571,0.0,20.5501525095551,0.0,-7.3,20.81,19.18,21.92,20.48,21.52,-6.77,-7.3,310.97,-999.0,-1555.96,2253.39,0.0,0.0,25.0,0.0,0.0,0.0,0.0,0.0,0.0,0.0,0.0,0.0,0.0,0.0,0.0,0.0,0.0
58.0,5676.0,0.0,8456.72773253693,-0.0,14132.72773253693,0.0,0.0,16362.933131998052,0.0,-1089.56717052449,0.0,17452.50030252254,0.0,0.01474644146490295,0.6841779545759719,0.0,0.0,0.0,"[1.19288762363054, 1.55493028934589, 0.5163638623783093, 0.4318070749752785, 0.23769903017196725, 1.0288891616128382, 0.9475932329529186, 1.2831789740771775]",21.21,0.0,0.0,1767.8990859597031,88.38401779806836,2.235519222061839,-1323.1652722713998,-510.65924812085825,3974.2451070514444,0.0,0.0,0.0,0.0,0.0,0.0,-5.2,20.973699440911094,0.0,20.54899934027148,0.0,-5.2,21.21,19.17,21.93,21.14,21.98,-4.49,-5.2,0.0,-938.66,-1461.98,2609.71,0.0,0.0,66.0,0.0,0.0,0.0,0.0,0.0,0.0,0.0,0.0,0.0,0.0,0.0,0.0,0.0,0.0
59.0,7364.0,0.0,10376.178813490907,-0.0,17740.178813490907,0.0,0.0,12997.006615209057,0.0,-10197.291959608427,0.0,23194.298574817483,0.0,0.05638538363330403,0.6841779545759719,0.0,0.0,0.0,"[1.19288762363054, 1.55493028934589, 0.5163638623783093, 0.4318070749752785, 0.23769903017196725, 1.0288891616128382, 0.9475932329529186, 1.2831789740771775]",23.19,0.0,0.0,1970.237832211188,62.94013388650323,1.5919606581349435,-1332.354299656649,-3073.711644092192,2396.60338695099,0.0,0.0,0.0,0.0,0.0,0.0,-3.4,21.67927654025766,0.0,20.685943759740134,0.0,-3.4,23.19,19.25,22.12,22.68,23.13,-2.59,-3.4,3134.46,-945.18,-1472.13,2908.4,0.0,0.0,47.0,0.0,0.0,0.0,0.0,0.0,0.0,0.0,0.0,0.0,0.0,0.0,0.0,0.0,0.0
60.0,4157.0,0.0,0.0,-0.0,18300.21659858984,-14143.21659858984,0.0,201.36269132015147,0.0,201.36269132015144,0.0,0.0,0.5775146777757518,0.05552924974163672,0.6841779545759719,0.0,0.0,0.0,"[1.19288762363054, 1.55493028934589, 0.5163638623783093, 0.4318070749752785, 0.23769903017196725, 1.0288891616128382, 0.9475932329529186, 1.2831789740771775]",23.19,0.0,0.0,1943.1274131149225,80.77199712646438,3.861351383561359,-1282.252395774924,-2833.6950760003056,0.0,0.0,0.0,0.0,0.0,0.0,0.0,-2.4,21.798291030267748,0.0,20.842349462514363,0.0,-2.4,23.19,19.34,22.34,22.6,23.18,-1.7,-2.4,1710.92,-909.64,-1416.77,2868.38,0.0,3.0,60.0,0.0,0.0,0.0,0.0,0.0,0.0,0.0,0.0,0.0,0.0,0.0,0.0,0.0,0.0
61.0,7070.0,0.0,4659.635655066815,-0.0,16169.368200748184,-4439.732545681369,0.0,10993.357493504813,0.0,0.0,0.0,10993.357493504811,0.7588037567244077,0.05552924974163672,0.662695677454597,0.0,0.0,0.0,"[1.19288762363054, 1.55493028934589, 0.5163638623783093, 0.4318070749752785, 0.23769903017196725, 1.0288891616128382, 0.9475932329529186, 1.2831789740771775]",22.14,0.0,0.0,1675.739548279345,325.9072554212665,54.73634943715053,-1214.4047271589332,-1244.132965666277,2544.9037772533693,0.0,0.0,0.0,0.0,0.0,0.0,-2.1,21.535763962475823,0.0,20.91922343535974,0.0,-2.1,22.14,19.4,22.44,21.79,22.67,-1.58,-2.1,1699.5,-861.5,-1341.81,2473.67,109.0,19.0,184.0,0.0,0.0,0.0,0.0,0.0,0.0,0.0,0.0,0.0,0.0,0.0,0.0,0.0,0.0
62.0,2173.0,2024.1699019431105,2966.952256419148,-0.0,9032.74997808189,-5906.846774096138,0.0,6801.85940788192,0.0,0.0,0.0,6801.859407881921,1.0,0.05552924974163672,0.662695677454597,0.0,0.0,0.0,"[1.19288762363054, 1.55493028934589, 0.5163638623783093, 0.4318070749752785, 0.23769903017196725, 1.0288891616128382, 0.9475932329529186, 1.2831789740771775]",23.19,0.0,0.0,875.2651979168559,317.3084913292694,70.38498399158341,-1302.293157327614,-2549.9874550680775,0.0,0.0,0.0,0.0,0.0,0.0,0.0,-2.8,21.94053212897,0.0,21.034293609987962,0.0,-2.8,23.19,19.48,22.58,22.62,23.29,-2.78,-2.8,2329.96,-923.85,-1438.92,1292.04,166.0,15.0,148.0,0.0,0.0,0.0,0.0,0.0,0.0,0.0,0.0,0.0,0.0,0.0,0.0,0.0,0.0
63.0,1209.0,0.0,0.0,-0.0,0.0,1209.0,0.0,9698.184739055727,0.0,9698.184739055727,0.0,0.0,0.9485969387755102,0.014295471089188903,0.662695677454597,0.0,0.0,0.0,"[1.19288762363054, 1.55493028934589, 0.5163638623783093, 0.4318070749752785, 0.23769903017196725, 1.0288891616128382, 0.9475932329529186, 1.2831789740771775]",21.89,0.0,0.0,19.789314456422478,397.5166350726519,44.710384441236805,-1317.2906751980647,-716.7727609113568,0.0,0.0,0.0,0.0,0.0,0.0,0.0,-4.4,21.55454823086237,0.0,21.04805775355741,0.0,-4.4,21.89,19.51,22.59,21.39,22.43,-4.99,-4.4,2826.22,-934.49,-1455.49,29.21,108.0,0.0,240.0,0.0,0.0,0.0,0.0,0.0,0.0,0.0,0.0,0.0,0.0,0.0,0.0,0.0,0.0
64.0,1362.0,52068.61148532104,50446.268427894436,-0.0,0.0,0.0,0.0,24588.979381812453,0.0,-80000.0,0.0,104588.97938181245,0.9485969387755102,0.3409621377558556,0.662695677454597,0.0,0.0,0.0,"[1.19288762363054, 1.55493028934589, 0.5163638623783093, 0.4318070749752785, 0.23769903017196725, 1.0288891616128382, 0.9475932329529186, 1.2831789740771775]",21.11,0.0,0.0,0.0,390.6094311299002,83.25615527012128,-1312.9611167661965,256.6259333519336,4777.922682131992,0.0,0.0,0.0,0.0,0.0,0.0,-5.1,21.25339653892318,0.0,20.968837904585797,0.0,-5.1,21.11,19.48,22.46,20.67,21.87,-5.7,-5.1,176.36,-931.42,-1450.7,0.0,138.0,48.0,214.0,0.0,0.0,0.0,0.0,0.0,0.0,0.0,0.0,0.0,0.0,0.0,0.0,0.0,0.0
65.0,1603.0,1611.0552763819096,0.0,-0.0,0.0,0.0,0.0,3779.382237928738,0.0,3779.3822379287376,0.0,0.0,0.9485969387755102,0.32489333572384566,0.662695677454597,0.0,0.0,0.0,"[1.19288762363054, 1.55493028934589, 0.5163638623783093, 0.4318070749752785, 0.23769903017196725, 1.0288891616128382, 0.9475932329529186, 1.2831789740771775]",23.19,0.0,0.0,0.0,413.8683831820234,79.5302899000182,-1457.6090593609613,-2591.892986474863,429.4931408158736,0.0,0.0,0.0,0.0,0.0,0.0,-5.9,21.92235462712936,0.0,21.018541320827467,0.0,-5.9,23.19,19.51,22.52,22.35,23.04,-6.49,-5.9,0.0,-1034.03,-1610.53,0.0,117.0,52.0,242.0,0.0,0.0,0.0,0.0,0.0,0.0,0.0,0.0,0.0,0.0,0.0,0.0,0.0,0.0
66.0,2429.0,45839.21926695385,43181.02317061908,-0.0,0.0,0.0,0.0,2939.602013437263,0.0,-80000.0,0.0,82939.60201343727,0.9485969387755102,0.6515600023905124,0.662695677454597,0.0,0.0,0.0,"[1.19288762363054, 1.55493028934589, 0.5163638623783093, 0.4318070749752785, 0.23769903017196725, 1.0288891616128382, 0.9475932329529186, 1.2831789740771775]",21.63,0.0,0.0,0.0,549.1227134487644,74.14472086505104,-1419.3634112362543,-451.6837837732017,0.0,0.0,0.0,0.0,0.0,0.0,0.0,-6.7,21.425492719838914,0.0,20.98880541337111,0.0,-6.7,21.63,19.5,22.48,21.0,22.1,-7.27,-6.7,0.0,-1006.9,-1568.27,0.0,82.0,56.0,361.0,0.0,0.0,0.0,0.0,0.0,0.0,0.0,0.0,0.0,0.0,0.0,0.0,0.0,0.0
67.0,4822.0,10237.74777011763,5364.559031267042,-0.0,0.0,0.0,0.0,9945.939582859457,0.0,0.0,0.0,9945.939582859457,0.9485969387755102,0.6515600023905124,0.662695677454597,0.0,0.0,0.0,"[1.19288762363054, 1.55493028934589, 0.5163638623783093, 0.4318070749752785, 0.23769903017196725, 1.0288891616128382, 0.9475932329529186, 1.2831789740771775]",21.0,0.0,0.0,0.0,1908.6437017318115,121.25998204517258,-1423.0557256241993,287.6532600596957,0.0,0.0,0.0,0.0,0.0,0.0,0.0,-7.4,21.167866041609887,0.0,20.901067600368798,0.0,-7.4,21.0,19.46,22.35,20.61,21.77,-7.97,-7.4,0.0,-1009.52,-1572.35,0.0,133.0,50.0,1350.0,0.0,0.0,0.0,0.0,0.0,0.0,0.0,0.0,0.0,0.0,0.0,0.0,0.0,0.0
68.0,4751.0,4774.874371859297,0.0,-0.0,0.0,0.0,0.0,2585.106790981156,0.0,2585.106790981156,0.0,0.0,0.9459616536920906,0.6295778017869311,0.662695677454597,0.0,0.0,0.0,"[0.7197672383111957, 0.9633130925483968, 0.5163638623783093, 0.4318070749752785, 0.23769903017196725, 0.8291011813158207, 0.9475932329529186, 0.7575810453324969]",21.44,0.0,0.0,0.0,1494.8458002226732,131.11658952426342,-1485.1388881235328,-451.16758663621033,0.0,0.0,0.0,0.0,0.0,0.0,0.0,-8.2,21.239543280954177,0.0,20.82126528733132,0.0,-8.2,21.44,19.41,22.23,20.8,21.85,-8.76,-8.2,21.7,-1053.56,-1640.94,0.0,151.0,74.0,1029.0,0.0,0.0,0.0,0.0,0.0,0.0,0.0,0.0,0.0,0.0,0.0,0.0,0.0,0.0
69.0,4338.0,0.0,0.0,-0.0,0.0,4338.0,0.0,21948.148705556123,0.0,21948.148705556123,0.0,0.0,0.7615228781818866,0.5362608430048048,0.6358428310528784,0.0,0.0,0.0,"[0.7197672383111957, 0.9633130925483968, 0.5163638623783093, 0.4318070749752785, 0.23769903017196725, 0.8291011813158207, 0.9475932329529186, 0.7575810453324969]",21.28,0.0,0.0,0.0,1381.793196914777,130.57464547043023,-1512.0871209542174,-334.6546149707826,3236.4169596628626,0.0,0.0,0.0,0.0,0.0,0.0,-8.9,21.135886082093847,0.0,20.749082900756193,0.0,-8.9,21.28,19.36,22.13,20.7,21.74,-9.45,-8.9,3864.3,-1072.68,-1670.72,0.0,162.0,72.0,939.0,0.0,0.0,0.0,0.0,0.0,0.0,0.0,0.0,0.0,0.0,0.0,0.0,0.0,0.0
70.0,2966.0,0.0,7882.957063557022,-0.0,0.0,10848.957063557022,0.0,12886.606740083385,0.0,0.0,0.0,12886.606740083382,0.3002576969082037,0.5362608430048048,0.6358428310528779,0.0,0.0,0.0,"[0.7197672383111957, 0.9633130925483968, 0.5163638623783093, 0.4318070749752785, 0.23769903017196725, 0.8291011813158207, 0.9475932329529186, 0.7575810453324969]",22.72,0.0,0.0,0.0,630.8109723227367,72.14630216654122,-1624.2920620417615,-2311.7767749431,3241.2782297857025,0.0,0.0,0.0,0.0,0.0,0.0,-9.7,21.59130672135674,0.0,20.772281341090352,0.0,-9.7,22.72,19.37,22.18,21.83,22.53,-10.25,-9.7,3126.46,-1152.28,-1794.7,0.0,92.0,44.0,418.0,0.0,0.0,0.0,0.0,0.0,0.0,0.0,0.0,0.0,0.0,0.0,0.0,0.0,0.0
71.0,2166.0,2176.884422110553,0.0,-0.0,0.0,0.0,0.0,7270.650168614892,0.0,7270.650168614893,0.0,0.0,0.3002576969082037,0.5053482147368843,0.6240275786361217,0.0,0.0,0.0,"[0.7197672383111957, 0.9633130925483968, 0.5163638623783093, 0.4318070749752785, 0.23769903017196725, 0.8291011813158207, 0.9475932329529186, 0.7575810453324969]",22.72,0.0,0.0,0.0,556.1003990644014,53.17826028238015,-1659.363394758969,-2237.0501781489033,405.89192727319534,0.0,0.0,0.0,0.0,0.0,0.0,-10.4,21.629073577897486,0.0,20.81836497826034,0.0,-10.4,22.72,19.38,22.26,21.82,22.57,-10.95,-10.4,0.0,-1177.16,-1833.45,0.0,103.0,10.0,360.0,0.0,0.0,0.0,0.0,0.0,0.0,0.0,0.0,0.0,0.0,0.0,0.0,0.0,0.0
72.0,1223.0,127218.40071562739,0.0,-0.0,0.0,0.0,0.0,32823.37784084429,0.0,-80000.0,0.0,0.0,0.3002576969082037,0.8320148814035511,0.6240275786361217,501437.234848197,125359.30871204926,626796.5435602462,"[0.7197672383111957, 0.9633130925483968, 0.5163638623783093, 0.4318070749752785, 0.23769903017196725, 0.8291011813158207, 0.9475932329529186, 0.7575810453324969]",21.28,0.0,0.0,0.0,175.56984715708796,30.111766491105698,-1612.2909287176672,-294.1823196507217,4591.462712494669,0.0,0.0,0.0,0.0,0.0,0.0,-10.9,21.15754564098588,0.0,20.769180568728153,0.0,-10.9,21.28,19.34,22.2,20.72,21.79,-11.47,-10.9,977.94,-1143.77,-1781.44,0.0,80.0,0.0,89.0,0.0,0.0,0.0,0.0,0.0,0.0,0.0,0.0,0.0,0.0,0.0,0.0,0.0,0.0
73.0,1398.0,0.0,0.0,-0.0,0.0,1398.0,0.0,12518.816241245298,0.0,12518.816241245298,0.0,0.0,0.24081892139799962,0.7787886218744469,0.6175828954997092,0.0,0.0,0.0,"[0.7197672383111957, 0.9633130925483968, 0.5163638623783093, 0.4318070749752785, 0.23769903017196725, 0.8291011813158207, 0.9475932329529186, 0.7575810453324969]",22.72,0.0,0.0,0.0,171.5523918026303,30.01015198101198,-1714.4754890288661,-2255.2174737957384,884.264897341584,0.0,0.0,0.0,0.0,0.0,0.0,-11.5,21.620846391284363,0.0,20.80175021665044,0.0,-11.5,22.72,19.34,22.26,21.97,22.68,-12.08,-11.5,5089.13,-1216.26,-1894.34,0.0,80.0,0.0,86.0,0.0,0.0,0.0,0.0,0.0,0.0,0.0,0.0,0.0,0.0,0.0,0.0,0.0,0.0
74.0,966.0,0.0,0.0,-0.0,0.0,966.0,0.0,23994.180900956024,0.0,23994.180900956024,0.0,0.0,0.19974749282657106,0.6767725466152801,0.6175828954997092,0.0,0.0,0.0,"[0.7197672383111957, 0.9633130925483968, 0.5163638623783093, 0.4318070749752785, 0.23769903017196725, 0.8291011813158207, 0.9475932329529186, 0.7575810453324969]",21.28,0.0,0.0,0.0,119.32547219468083,28.689163349793617,-1677.4234037639096,-305.5142667416308,4725.4330798593965,0.0,0.0,0.0,0.0,0.0,0.0,-12.2,21.152868507704504,0.0,20.756655531402195,0.0,-12.2,21.28,19.3,22.21,20.76,21.84,-12.8,-12.2,2523.19,-1189.97,-1853.4,0.0,80.0,0.0,47.0,0.0,0.0,0.0,0.0,0.0,0.0,0.0,0.0,0.0,0.0,0.0,0.0,0.0,0.0
75.0,631.0,20339.061528701517,18107.630020776698,-0.0,0.0,-1498.736200281311,0.0,24595.174283899763,0.0,0.0,0.0,24595.174283899767,0.26094588767139126,0.6767725466152801,0.589655935241922,0.0,0.0,0.0,"[0.7197672383111957, 0.9633130925483968, 0.5163638623783093, 0.4318070749752785, 0.23769903017196725, 0.8291011813158207, 0.9475932329529186, 0.7575810453324969]",22.72,0.0,0.0,0.0,108.61225791612706,28.418191322877032,-1769.5875832987635,-2266.872622021456,3902.64657948798,0.0,0.0,0.0,0.0,0.0,0.0,-12.6,21.615851579287884,0.0,20.788243546187736,0.0,-12.6,22.72,19.3,22.28,21.98,22.7,-13.2,-12.6,736.87,-1255.35,-1955.23,0.0,80.0,0.0,39.0,0.0,0.0,0.0,0.0,0.0,0.0,0.0,0.0,0.0,0.0,0.0,0.0,0.0,0.0
76.0,737.0,44298.35271511026,0.0,-0.0,0.0,-16000.0,0.0,24605.874856381226,0.0,0.0,0.0,0.0,0.9142792210047246,0.6767725466152801,0.589655935241922,109359.44380613885,27339.860951534713,136699.30475767356,"[0.7197672383111957, 0.9633130925483968, 0.5163638623783093, 0.4318070749752785, 0.23769903017196725, 0.8291011813158207, 0.9475932329529186, 0.7575810453324969]",22.72,0.0,0.0,0.0,119.32547219468083,28.689163349793617,-1789.6283448514537,-2192.6053296974724,3837.4665353400082,0.0,0.0,0.0,0.0,0.0,0.0,-13.0,21.65317034313488,0.0,20.832792702874137,0.0,-13.0,22.72,19.31,22.36,21.88,22.68,-13.59,-13.0,5113.7,-1269.57,-1977.38,0.0,80.0,0.0,47.0,0.0,0.0,0.0,0.0,0.0,0.0,0.0,0.0,0.0,0.0,0.0,0.0,0.0,0.0
77.0,706.0,9628.867209770784,8874.72287372193,-0.0,0.0,0.0,0.0,11377.486788867598,0.0,0.0,0.0,11377.486788867594,0.9142792210047246,0.6767725466152801,0.589655935241922,0.0,0.0,0.0,"[0.7197672383111957, 0.9633130925483968, 0.5163638623783093, 0.4318070749752785, 0.23769903017196725, 0.8291011813158207, 0.9475932329529186, 0.7575810453324969]",22.72,0.0,0.0,0.0,135.39529361251144,29.095621390168496,-1809.6691064041438,-2126.9902900224406,888.1994385898594,0.0,0.0,0.0,0.0,0.0,0.0,-13.4,21.686183256854537,0.0,20.87198053184005,0.0,-13.4,22.72,19.31,22.43,21.88,22.72,-14.0,-13.4,0.0,-1283.79,-1999.52,0.0,80.0,0.0,59.0,0.0,0.0,0.0,0.0,0.0,0.0,0.0,0.0,0.0,0.0,0.0,0.0,0.0,0.0
78.0,617.0,0.0,11758.784041560672,-0.0,0.0,12375.784041560672,0.0,14626.482737170176,0.0,0.0,0.0,14626.482737170176,0.3880979267206825,0.6767725466152801,0.589655935241922,0.0,0.0,0.0,"[0.7197672383111957, 0.9633130925483968, 0.5163638623783093, 0.4318070749752785, 0.23769903017196725, 0.8291011813158207, 0.9475932329529186, 0.7575810453324969]",21.28,0.0,0.0,0.0,173.03250693321993,55.71862303472314,-1757.5864499746694,-193.62779029007305,1728.7702312785527,0.0,0.0,0.0,0.0,0.0,0.0,-13.8,21.209823036418094,0.0,20.816014910003666,0.0,-13.8,21.28,19.26,22.37,20.77,21.93,-14.4,-13.8,4907.76,-1246.84,-1941.97,0.0,160.0,0.0,45.0,0.0,0.0,0.0,0.0,0.0,0.0,0.0,0.0,0.0,0.0,0.0,0.0,0.0,0.0
79.0,1796.0,26601.591257223547,0.0,-0.0,0.0,0.0,0.0,22205.324970843678,0.0,0.0,0.0,0.0,0.3880979267206825,0.6767725466152801,0.589655935241922,98690.33320374972,24672.58330093743,123362.91650468713,"[0.7197672383111957, 0.9633130925483968, 0.5163638623783093, 0.4318070749752785, 0.23769903017196725, 0.8291011813158207, 0.9475932329529186, 0.7575810453324969]",21.28,0.0,0.0,0.0,52.2269196079495,1.3209886312183565,-1772.6170211391739,-294.8623102988996,2014.080953727276,0.0,0.0,0.0,0.0,0.0,0.0,-14.1,21.15957745295623,0.0,20.747452684196286,0.0,-14.1,21.28,19.21,22.28,20.86,21.96,-14.71,-14.1,530.23,-1257.5,-1958.58,0.0,0.0,0.0,39.0,0.0,0.0,0.0,0.0,0.0,0.0,0.0,0.0,0.0,0.0,0.0,0.0,0.0,0.0
80.0,1583.0,0.0,0.0,-0.0,0.0,1583.0,0.0,8635.433813983564,0.0,8635.433813983564,0.0,0.0,0.320793504951975,0.6400572667939214,0.589655935241922,0.0,0.0,0.0,"[0.7197672383111957, 0.9633130925483968, 0.5163638623783093, 0.4318070749752785, 0.23769903017196725, 0.8291011813158207, 0.9475932329529186, 0.7575810453324969]",21.28,0.0,0.0,4.458905617482626,61.60098210168402,1.5580891547703706,-1777.6272115273593,-386.71693568260145,2096.946235273056,0.0,0.0,0.0,0.0,0.0,0.0,-14.2,21.113848370905785,0.0,20.684331335847766,0.0,-14.2,21.28,19.16,22.21,20.85,21.93,-14.8,-14.2,1634.16,-1261.06,-1964.12,6.58,0.0,0.0,46.0,0.0,0.0,0.0,0.0,0.0,0.0,0.0,0.0,0.0,0.0,0.0,0.0,0.0,0.0
81.0,4888.0,0.0,0.0,-3100.8949816246914,7988.894981624691,0.0,0.0,10878.984775081115,0.0,10878.984775081115,0.0,0.0,0.320793504951975,0.5938030798250391,0.6003186618454034,0.0,0.0,0.0,"[0.7197672383111957, 0.9633130925483968, 0.5163638623783093, 0.4318070749752785, 0.23769903017196725, 0.8291011813158207, 0.9475932329529186, 0.7575810453324969]",21.28,0.0,0.0,1437.5694666040538,70.97504459541854,1.7951896783223844,-1662.3928325993918,-465.5344111207645,632.1668450433773,0.0,0.0,0.0,0.0,0.0,0.0,-11.9,21.07209775634354,0.0,20.62619139560382,0.0,-11.9,21.28,19.11,22.15,20.83,21.89,-11.45,-11.9,1337.04,-1179.31,-1836.79,2122.09,0.0,0.0,53.0,0.0,0.0,0.0,0.0,0.0,0.0,0.0,0.0,0.0,0.0,0.0,0.0,0.0,0.0
82.0,2104.0,0.0,12186.819338387333,-0.0,14290.819338387333,0.0,0.0,13354.793324846112,0.0,-6218.978908000658,0.0,19573.77223284677,0.320793504951975,0.6191972436993751,0.6003186618454034,0.0,0.0,0.0,"[0.7197672383111957, 0.9633130925483968, 0.5163638623783093, 0.4318070749752785, 0.23769903017196725, 0.8291011813158207, 0.9475932329529186, 0.7575810453324969]",21.28,0.0,0.0,1732.6048115866236,65.61843745614168,1.6597036648640933,-1567.1992152241146,-476.7542556442083,3151.680712584668,0.0,0.0,0.0,0.0,0.0,0.0,-10.0,21.06491495249015,0.0,20.614876739597214,0.0,-10.0,21.28,19.09,22.14,21.14,22.11,-9.28,-10.0,0.0,-1111.78,-1731.61,2557.61,0.0,0.0,49.0,0.0,0.0,0.0,0.0,0.0,0.0,0.0,0.0,0.0,0.0,0.0,0.0,0.0,0.0
83.0,1335.0,0.0,6845.735297302498,-9069.727388290092,17250.46268559259,0.0,0.0,11974.165945233552,0.0,0.0,0.0,11974.165945233552,0.320793504951975,0.6191972436993751,0.6315057946191728,0.0,0.0,0.0,"[0.7197672383111957, 0.9633130925483968, 0.5163638623783093, 0.4318070749752785, 0.23769903017196725, 0.8291011813158207, 0.9475932329529186, 0.7575810453324969]",22.72,0.0,0.0,1854.4529577845906,61.60098210168402,1.5580891547703706,-1564.1697773836916,-2348.1120829069096,0.0,0.0,0.0,0.0,0.0,0.0,0.0,-8.5,21.571329423225837,0.0,20.705746420970968,0.0,-8.5,22.72,19.14,22.27,22.31,22.98,-7.71,-8.5,0.0,-1109.63,-1728.27,2737.48,0.0,0.0,46.0,0.0,0.0,0.0,0.0,0.0,0.0,0.0,0.0,0.0,0.0,0.0,0.0,0.0,0.0
84.0,1093.0,0.0,18263.547321486425,-0.0,19356.547321486425,0.0,0.0,11809.184061750602,0.0,-21877.481154334364,0.0,33686.66521608497,0.320793504951975,0.7085302917462405,0.6315057946191728,0.0,0.0,0.0,"[0.7197672383111957, 0.9633130925483968, 0.5163638623783093, 0.4318070749752785, 0.23769903017196725, 0.8291011813158207, 0.9475932329529186, 0.7575810453324969]",21.71,0.0,0.0,1982.172903282341,54.90522317758792,1.3887316379475063,-1463.6454499287215,-873.635802663586,2343.749993140225,0.0,0.0,0.0,0.0,0.0,0.0,-7.5,21.298614309925853,0.0,20.747739643129172,0.0,-7.5,21.71,19.16,22.33,21.45,22.43,-6.72,-7.5,2734.72,-1038.32,-1617.2,2926.02,0.0,0.0,41.0,0.0,0.0,0.0,0.0,0.0,0.0,0.0,0.0,0.0,0.0,0.0,0.0,0.0,0.0
85.0,2875.0,0.0,0.0,-14251.260399356368,17126.260399356368,0.0,0.0,9010.34232207928,0.0,9010.342322079277,0.0,0.0,0.320793504951975,0.6702210131659715,0.6805101286239771,0.0,0.0,0.0,"[0.7197672383111957, 0.9633130925483968, 0.5163638623783093, 0.4318070749752785, 0.23769903017196725, 0.8291011813158207, 0.9475932329529186, 0.7575810453324969]",22.72,0.0,0.0,1760.6000663706116,1776.8429734364465,97.88864472361696,-1499.0373023374493,-2138.5069069040533,0.0,0.0,0.0,0.0,0.0,0.0,0.0,-7.2,21.6749977748734,0.0,20.8422529730315,0.0,-7.2,22.72,19.22,22.46,22.34,23.09,-6.57,-7.2,0.0,-1063.42,-1656.3,2598.94,165.0,0.0,1240.0,0.0,0.0,0.0,0.0,0.0,0.0,0.0,0.0,0.0,0.0,0.0,0.0,0.0,0.0
86.0,3540.0,0.0,0.0,-0.0,14215.44226900891,-10675.44226900891,0.0,10036.848503595138,0.0,10036.848503595136,0.0,0.0,0.7567073976031722,0.627547337555448,0.6805101286239771,0.0,0.0,0.0,"[0.7197672383111957, 0.9633130925483968, 0.5163638623783093, 0.4318070749752785, 0.23769903017196725, 0.8291011813158207, 0.9475932329529186, 0.7575810453324969]",22.7,0.0,0.0,1485.771517703842,683.9541536781941,50.67176903340172,-1523.1724598040491,-2012.1267834325085,1377.021626247124,0.0,0.0,0.0,0.0,0.0,0.0,-7.7,21.720216731102695,0.0,20.910061717021044,0.0,-7.7,22.7,19.27,22.55,21.99,22.89,-7.25,-7.7,0.0,-1080.55,-1682.97,2193.25,104.0,0.0,456.0,0.0,0.0,0.0,0.0,0.0,0.0,0.0,0.0,0.0,0.0,0.0,0.0,0.0,0.0
87.0,3697.0,12202.035421010316,0.0,-0.0,0.7778421078042074,621.4569685237984,0.0,8159.634049083175,0.0,0.0,0.0,0.0,0.7302849074448474,0.627547337555448,0.6805101286239771,36265.040218147464,9066.260054536866,45331.300272684326,"[0.7197672383111957, 0.9633130925483968, 0.5163638623783093, 0.4318070749752785, 0.23769903017196725, 0.8291011813158207, 0.9475932329529186, 0.7575810453324969]",22.72,0.0,0.0,29.93630463763859,333.58975776575556,46.302345099371756,-1609.2614908772441,-1936.3906597817684,254.10736365316487,0.0,0.0,0.0,0.0,0.0,0.0,-9.4,21.77823672701219,0.0,20.97993211010592,0.0,-9.4,22.72,19.31,22.64,22.11,23.0,-9.94,-9.4,1763.77,-1141.62,-1778.09,44.19,118.0,0.0,187.0,0.0,0.0,0.0,0.0,0.0,0.0,0.0,0.0,0.0,0.0,0.0,0.0,0.0,0.0
88.0,1924.0,14223.14688932061,12228.031154874006,-0.0,0.0,0.0,0.0,20572.552884579978,0.0,0.0,0.0,20572.552884579974,0.7302849074448474,0.627547337555448,0.6805101286239771,0.0,0.0,0.0,"[0.7197672383111957, 0.9633130925483968, 0.5163638623783093, 0.4318070749752785, 0.23769903017196725, 0.8291011813158207, 0.9475932329529186, 0.7575810453324969]",21.28,0.0,0.0,0.0,133.91517848192174,3.387150336457332,-1527.1176921187348,-20.020499353015424,3465.4035462457205,0.0,0.0,0.0,0.0,0.0,0.0,-9.2,21.292983543413456,0.0,20.916529130857015,0.0,-9.2,21.28,19.28,22.55,20.73,22.0,-9.76,-9.2,0.0,-1083.34,-1687.33,0.0,0.0,0.0,100.0,0.0,0.0,0.0,0.0,0.0,0.0,0.0,0.0,0.0,0.0,0.0,0.0,0.0,0.0
89.0,2228.0,0.0,6794.701023102812,-0.0,0.0,9022.70102310281,0.0,11561.019881474274,0.0,0.0,0.0,11561.019881474276,0.3466666666666667,0.627547337555448,0.6676207623511522,0.0,0.0,0.0,"[0.7197672383111957, 0.9633130925483968, 0.5163638623783093, 0.4318070749752785, 0.23769903017196725, 0.8291011813158207, 0.9475932329529186, 0.7575810453324969]",22.3,0.0,0.0,0.0,62.94013388650323,1.5919606581349435,-1568.4355293899127,-1469.0220404293805,3805.1839553115833,0.0,0.0,0.0,0.0,0.0,0.0,-9.0,21.595794241329674,0.0,20.907619717594308,0.0,-9.0,22.3,19.28,22.53,21.62,22.6,-9.53,-9.0,0.0,-1112.65,-1732.98,0.0,0.0,0.0,47.0,0.0,0.0,0.0,0.0,0.0,0.0,0.0,0.0,0.0,0.0,0.0,0.0,0.0,0.0
90.0,3779.0,8363.591501233526,4542.7735437273595,-0.0,0.0,0.0,0.0,7816.034907445657,0.0,0.0,0.0,7816.034907445657,0.3466666666666667,0.627547337555448,0.6676207623511522,0.0,0.0,0.0,"[0.7197672383111957, 0.9633130925483968, 0.5163638623783093, 0.4318070749752785, 0.23769903017196725, 0.8291011813158207, 0.9475932329529186, 0.7575810453324969]",22.72,0.0,0.0,0.0,70.97504459541854,1.7951896783223844,-1579.2003485482091,-2001.7639316444465,621.134705509358,0.0,0.0,0.0,0.0,0.0,0.0,-8.8,21.74518554126099,0.0,20.93897411362741,0.0,-8.8,22.72,19.3,22.58,21.88,22.8,-9.31,-8.8,17.4,-1120.29,-1744.87,0.0,0.0,0.0,53.0,0.0,0.0,0.0,0.0,0.0,0.0,0.0,0.0,0.0,0.0,0.0,0.0,0.0,0.0
91.0,4844.0,27955.42311557789,0.0,-0.0,0.0,-16000.0,0.0,12187.776868498293,34858.23,40074.3608684983,0.0,0.0,1.0,0.4571631501893838,0.6627872499988429,27886.584000000003,6971.646000000001,34858.23,"[0.7197672383111957, 0.9633130925483968, 0.5163638623783093, 0.4318070749752785, 0.23769903017196725, 0.8291011813158207, 0.9475932329529186, 0.7575810453324969]",21.28,0.0,0.0,0.0,235.40878743664143,52.16211518144296,-1502.0667401778724,-75.00786692586769,1295.4082432775815,0.0,0.0,0.0,0.0,0.0,0.0,-8.7,21.265155642294502,0.0,20.882392283707766,0.0,-8.7,21.28,19.28,22.49,20.74,21.98,-9.2,-8.7,0.0,-1065.57,-1659.65,0.0,144.0,0.0,100.0,0.0,0.0,0.0,0.0,0.0,0.0,0.0,0.0,0.0,0.0,0.0,0.0,0.0,0.0
92.0,5300.0,5326.633165829146,0.0,-0.0,0.0,0.0,0.0,2446.5399659958916,0.0,2446.5399659958916,0.0,0.0,0.8471986031234562,0.4363592389139085,0.6574166807184992,0.0,0.0,0.0,"[0.7197672383111957, 0.47936088767866636, 0.5163638623783093, 0.4318070749752785, 0.23769903017196725, 0.8291011813158207, 0.7670403738879088, 0.7300497009512554]",21.28,0.0,0.0,0.0,591.1297904883567,68.18333627288614,-1492.0463594015275,-182.63631637298977,1023.0876247198539,0.0,0.0,0.0,0.0,0.0,0.0,-8.5,21.211338337290968,0.0,20.81344257707785,0.0,-8.5,21.28,19.24,22.39,20.83,21.99,-8.98,-8.5,58.98,-1058.46,-1648.58,0.0,130.0,19.0,371.0,0.0,0.0,0.0,0.0,0.0,0.0,0.0,0.0,0.0,0.0,0.0,0.0,0.0,0.0
93.0,4487.0,9138.746043013069,4606.052312798003,-0.0,0.0,0.0,0.0,8144.463269588221,0.0,0.0,0.0,8144.463269588222,0.8471986031234562,0.4363592389139085,0.6525831683661899,0.0,0.0,0.0,"[0.7197672383111957, 0.47936088767866636, 0.5163638623783093, 0.4318070749752785, 0.23769903017196725, 0.8291011813158207, 0.7670403738879088, 0.7300497009512554]",21.28,0.0,0.0,0.0,806.3103378069393,84.67875841143335,-1482.0259786251825,-287.108878781105,887.7310514345314,0.0,0.0,0.0,0.0,0.0,0.0,-8.3,21.159094594217407,0.0,20.74625657949321,0.0,-8.3,21.28,19.21,22.29,20.77,21.9,-8.77,-8.3,423.79,-1051.36,-1637.5,0.0,155.0,24.0,518.0,0.0,0.0,0.0,0.0,0.0,0.0,0.0,0.0,0.0,0.0,0.0,0.0,0.0,0.0
94.0,2960.0,13156.594576449828,10130.81160356758,-0.0,0.0,0.0,0.0,18106.552781133163,0.0,0.0,0.0,18106.55278113316,0.8471986031234562,0.4363592389139085,0.5634317183124842,0.0,0.0,0.0,"[0.7197672383111957, 0.47936088767866636, 0.5163638623783093, 0.4318070749752785, 0.23769903017196725, 0.8291011813158207, 0.7670403738879088, 0.7300497009512554]",21.28,0.0,0.0,0.0,513.8113953332683,59.95256095529482,-1472.0055978488374,-385.44456753908116,4177.735143156735,0.0,0.0,0.0,0.0,0.0,0.0,-8.1,21.109910675113717,0.0,20.68278528225402,0.0,-8.1,21.28,19.17,22.19,20.73,21.83,-8.56,-8.1,4137.48,-1044.25,-1626.43,0.0,84.0,33.0,336.0,0.0,0.0,0.0,0.0,0.0,0.0,0.0,0.0,0.0,0.0,0.0,0.0,0.0,0.0
95.0,1518.0,0.0,0.0,-0.0,0.0,1518.0,0.0,19270.01150030701,0.0,19270.011500307013,0.0,0.0,0.7826577867969255,0.35442891790920183,0.5634317183124834,0.0,0.0,0.0,"[0.7197672383111957, 0.47936088767866636, 0.5163638623783093, 0.4318070749752785, 0.23769903017196725, 0.8291011813158207, 0.7670403738879088, 0.7300497009512554]",22.72,0.0,0.0,0.0,328.1626689535936,58.39447180052444,-1534.1086350546566,-2343.822067673729,3497.983578128334,0.0,0.0,0.0,0.0,0.0,0.0,-7.9,21.573933965299332,0.0,20.719357558367257,0.0,-7.9,22.72,19.19,22.25,21.87,22.63,-8.35,-7.9,0.0,-1088.3,-1695.05,0.0,141.0,8.0,170.0,0.0,0.0,0.0,0.0,0.0,0.0,0.0,0.0,0.0,0.0,0.0,0.0,0.0,0.0
96.0,1291.0,0.0,0.0,-0.0,0.0,1291.0,0.0,21859.73994218109,0.0,21859.73994218109,0.0,0.0,0.7277683310146126,0.26148784672645914,0.5242265625659742,0.0,0.0,0.0,"[0.7197672383111957, 0.47936088767866636, 0.5163638623783093, 0.4318070749752785, 0.23769903017196725, 0.8291011813158207, 0.7670403738879088, 0.7300497009512554]",22.72,0.0,0.0,0.0,263.9538649551563,32.347285713167544,-1504.0474927256216,-2260.7455045221527,3472.1534274536557,0.0,0.0,0.0,0.0,0.0,0.0,-7.3,21.614923411903792,0.0,20.77251023168641,0.0,-7.3,22.72,19.22,22.32,21.79,22.62,-7.76,-7.3,4633.16,-1066.98,-1661.84,0.0,80.0,0.0,155.0,0.0,0.0,0.0,0.0,0.0,0.0,0.0,0.0,0.0,0.0,0.0,0.0,0.0,0.0
97.0,1461.0,10861.54806096596,9346.24032066113,-0.0,0.0,0.0,0.0,18040.81629861212,0.0,0.0,0.0,18040.816298612117,0.7277683310146126,0.26148784672645914,0.5242265625659742,0.0,0.0,0.0,"[0.7197672383111957, 0.47936088767866636, 0.5163638623783093, 0.4318070749752785, 0.23769903017196725, 0.8291011813158207, 0.7670403738879088, 0.7300497009512554]",22.72,0.0,0.0,0.0,317.519936347925,33.70214584775047,-1468.9761600084144,-2184.418791457734,418.72526622584394,0.0,0.0,0.0,0.0,0.0,0.0,-6.6,21.65246285152248,0.0,20.821871374155997,0.0,-6.6,22.72,19.25,22.39,21.8,22.65,-7.05,-6.6,19.26,-1042.1,-1623.09,0.0,80.0,0.0,195.0,0.0,0.0,0.0,0.0,0.0,0.0,0.0,0.0,0.0,0.0,0.0,0.0,0.0,0.0
98.0,1354.0,4079.3181572159297,2704.92156642985,-0.0,0.0,0.0,0.0,5401.751063573601,0.0,0.0,0.0,5401.7510635736,0.7277683310146126,0.26148784672645914,0.5242265625659742,0.0,0.0,0.0,"[0.7197672383111957, 0.47936088767866636, 0.5163638623783093, 0.4318070749752785, 0.23769903017196725, 0.8291011813158207, 0.7670403738879088, 0.7300497009512554]",21.28,0.0,0.0,0.0,187.76317656623138,31.02629708194918,-1361.7814093090428,-239.9400630809014,1386.4440490881263,0.0,0.0,0.0,0.0,0.0,0.0,-5.9,21.1808320523386,0.0,20.77688607082839,0.0,-5.9,21.28,19.24,22.32,20.68,21.86,-6.34,-5.9,1265.36,-966.05,-1504.64,0.0,80.0,1.0,98.0,0.0,0.0,0.0,0.0,0.0,0.0,0.0,0.0,0.0,0.0,0.0,0.0,0.0,0.0
99.0,977.0,7682.309563787609,0.0,-0.0,0.0,-6666.898015968672,0.0,25770.711089073542,0.0,25770.711089073546,0.0,0.0,1.0,0.15191849685794917,0.5242265625659742,0.0,0.0,0.0,"[0.7197672383111957, 0.47936088767866636, 0.5163638623783093, 0.4318070749752785, 0.23769903017196725, 0.8291011813158207, 0.7670403738879088, 0.7300497009512554]",21.28,0.0,0.0,0.0,119.32547219468083,28.689163349793617,-1341.7406477563527,-326.7141003681193,4410.95015747832,0.0,0.0,0.0,0.0,0.0,0.0,-5.5,21.13727180019216,0.0,20.722331520159383,0.0,-5.5,21.28,19.21,22.23,20.8,21.89,-5.94,-5.5,5045.11,-951.84,-1482.5,0.0,80.0,0.0,47.0,0.0,0.0,0.0,0.0,0.0,0.0,0.0,0.0,0.0,0.0,0.0,0.0,0.0,0.0
100.0,877.0,0.0,0.0,-0.0,0.0,877.0,0.0,8199.108895135516,0.0,8199.108895135518,0.0,0.0,0.9627125850340136,0.11705833999087639,0.5242265625659742,0.0,0.0,0.0,"[0.7197672383111957, 0.47936088767866636, 0.5163638623783093, 0.4318070749752785, 0.23769903017196725, 0.8291011813158207, 0.7670403738879088, 0.7300497009512554]",22.72,0.0,0.0,0.0,285.3802935122638,32.889229767000714,-1388.8131137976545,-2278.2056407353643,465.20960942277037,0.0,0.0,0.0,0.0,0.0,0.0,-5.0,21.60451007971836,0.0,20.76479415426258,0.0,-5.0,22.72,19.24,22.28,21.91,22.67,-5.43,-5.0,3983.9,-985.23,-1534.51,0.0,80.0,0.0,171.0,0.0,0.0,0.0,0.0,0.0,0.0,0.0,0.0,0.0,0.0,0.0,0.0,0.0,0.0
101.0,904.0,50547.96233190193,49391.22252024242,-0.0,0.0,0.0,0.0,24755.887649894114,0.0,-80000.0,0.0,104755.8876498941,0.9627125850340136,0.4437250066575431,0.5242265625659738,0.0,0.0,0.0,"[0.7197672383111957, 0.47936088767866636, 0.5163638623783093, 0.4318070749752785, 0.23769903017196725, 0.8291011813158207, 0.7670403738879088, 0.7300497009512554]",21.28,0.0,0.0,0.0,165.27952291584555,31.669855645876073,-1296.6489342628001,-321.2044482292691,4311.7514510453675,0.0,0.0,0.0,0.0,0.0,0.0,-4.6,21.139302110503962,0.0,20.72860184122805,0.0,-4.6,21.28,19.24,22.22,20.68,21.8,-4.96,-4.6,940.47,-919.85,-1432.68,0.0,80.0,3.0,81.0,0.0,0.0,0.0,0.0,0.0,0.0,0.0,0.0,0.0,0.0,0.0,0.0,0.0,0.0
102.0,697.0,700.5025125628141,0.0,-0.0,0.0,0.0,0.0,22501.591330765812,0.0,22501.59133076581,0.0,0.0,0.9627125850340136,0.34805497548932113,0.5242265625659738,0.0,0.0,0.0,"[0.7197672383111957, 0.47936088767866636, 0.5163638623783093, 0.4318070749752785, 0.23769903017196725, 0.8291011813158207, 0.7670403738879088, 0.7300497009512554]",22.72,0.0,0.0,0.0,141.80912584506663,47.69107673731927,-1353.741781080447,-2272.43998987672,3442.080003841678,0.0,0.0,0.0,0.0,0.0,0.0,-4.3,21.606829817194697,0.0,20.771914440627633,0.0,-4.3,22.72,19.27,22.28,21.91,22.66,-4.67,-4.3,4084.16,-960.35,-1495.76,0.0,111.0,14.0,46.0,0.0,0.0,0.0,0.0,0.0,0.0,0.0,0.0,0.0,0.0,0.0,0.0,0.0,0.0
103.0,1076.0,0.0,3513.1879926923366,-0.0,0.0,4589.187992692337,0.0,7652.2195850095395,0.0,0.0,0.0,7652.2195850095395,0.7675940479297476,0.34805497548932113,0.5242265625659738,0.0,0.0,0.0,"[0.7197672383111957, 0.47936088767866636, 0.5163638623783093, 0.4318070749752785, 0.23769903017196725, 0.8291011813158207, 0.7670403738879088, 0.7300497009512554]",22.72,0.0,0.0,0.0,169.29697827030319,54.804092443879675,-1338.7112099159297,-2185.971924626178,419.5231151122079,0.0,0.0,0.0,0.0,0.0,0.0,-4.0,21.64971601966753,0.0,20.82968912092187,0.0,-4.0,22.72,19.31,22.35,21.82,22.63,-4.36,-4.0,2506.88,-949.69,-1479.15,0.0,131.0,14.0,56.0,0.0,0.0,0.0,0.0,0.0,0.0,0.0,0.0,0.0,0.0,0.0,0.0,0.0,0.0
104.0,2048.0,3521.5612118758504,0.0,-0.0,0.0,-1455.9534058164713,0.0,9712.768246930109,0.0,9712.768246930109,0.0,0.0,0.5528359523371678,0.30675919212652303,0.5242265625659738,0.0,0.0,0.0,"[0.7197672383114657, 0.47936088767866636, 0.5163638623783093, 0.4318070749752785, 0.23769903017196725, 0.3055137441148297, 0.7670403738879088, 0.7300497009512554]",21.28,0.0,0.0,1.4551851288334554,161.12110421561744,60.088046968753105,-1251.5572207692342,-231.68382761459665,1267.3927070411864,0.0,0.0,0.0,0.0,0.0,0.0,-3.7,21.183265827866975,0.0,20.79258914011777,0.0,-3.7,21.28,19.3,22.28,20.72,21.84,-4.04,-3.7,0.0,-887.86,-1382.86,2.15,133.0,22.0,48.0,0.0,0.0,0.0,0.0,0.0,0.0,0.0,0.0,0.0,0.0,0.0,0.0,0.0,0.0
105.0,1828.0,3180.071055303098,1341.6506364902743,-0.0,5.47993646369194,0.0,0.0,16177.382764615339,0.0,13024.851598137937,0.0,3152.5311664774035,0.5528359523371678,0.2513814217262767,0.5242265625659738,0.0,0.0,0.0,"[0.7197672383114657, 0.47936088767866636, 0.5163638623783093, 0.4318070749752785, 0.23769903017196725, 0.3055137441148297, 0.7670403738879088, 0.7300497009512554]",21.28,0.0,0.0,42.779381217678306,233.85819063316654,69.16560987045877,-1176.4043649466605,-310.0656689611488,4036.1794676879626,0.0,0.0,0.0,0.0,0.0,0.0,-2.2,21.14304934693763,0.0,20.743247474230202,0.0,-2.2,21.28,19.29,22.2,20.82,21.87,-2.49,-2.2,894.7,-834.55,-1299.82,63.15,165.0,17.0,86.0,0.0,0.0,0.0,0.0,0.0,0.0,0.0,0.0,0.0,0.0,0.0,0.0,0.0,0.0
106.0,4098.0,44402.57384304452,40101.23515732303,-0.0,18.67418349373117,0.0,0.0,18050.479998188606,0.0,-80000.0,0.0,98050.4799981886,0.5528359523371678,0.5780480883929434,0.5242265625659731,0.0,0.0,0.0,"[0.7197672383114657, 0.47936088767866636, 0.5163638623783093, 0.4318070749752785, 0.23769903017196725, 0.3055137441148297, 0.7670403738879088, 0.7300497009512554]",22.72,0.0,0.0,53.72762254415342,91.0623213677068,2.3032622287909854,-1198.4258790471133,-2254.347100653266,3306.470014433066,0.0,0.0,0.0,0.0,0.0,0.0,-1.2,21.613505031469344,0.0,20.791517664446793,0.0,-1.2,22.72,19.33,22.25,21.92,22.65,-1.47,-1.2,4680.16,-850.17,-1324.15,79.31,0.0,0.0,68.0,0.0,0.0,0.0,0.0,0.0,0.0,0.0,0.0,0.0,0.0,0.0,0.0,0.0,0.0
107.0,6608.0,0.0,0.0,-0.0,217.88542898038207,6390.114571019618,0.0,3956.3812389570917,0.0,3956.381238957091,0.0,0.0,0.28114740765095947,0.5612267395878537,0.5242265625659731,0.0,0.0,0.0,"[0.7197672383114657, 0.47936088767866636, 0.5163638623783093, 0.4318070749752785, 0.23769903017196725, 0.3055137441148297, 0.7670403738879088, 0.7300497009512554]",22.72,0.0,0.0,99.75860408736688,28.122187481203568,0.7113015706560375,-1133.2934040008709,-2160.5048428437967,279.0237028965413,0.0,0.0,0.0,0.0,0.0,0.0,0.1,21.65933369596175,0.0,20.854673576124906,0.0,0.1,22.72,19.38,22.33,21.83,22.61,-0.16,0.1,2686.97,-803.96,-1252.19,147.26,0.0,0.0,21.0,0.0,0.0,0.0,0.0,0.0,0.0,0.0,0.0,0.0,0.0,0.0,0.0,0.0,0.0
108.0,3379.0,0.0,3766.528827335905,-0.0,532.9417993853374,6612.587027950567,0.0,10071.220411075396,0.0,0.0,0.0,10071.220411075396,0.0,0.5612267395878537,0.5242265625659731,0.0,0.0,0.0,"[0.7197672383114657, 0.47936088767866636, 0.5163638623783093, 0.4318070749752785, 0.23769903017196725, 0.3055137441148297, 0.7670403738879088, 0.7300497009512554]",21.28,0.0,0.0,127.5372329877352,64.27928567132244,1.62583216149952,-1006.0578917487823,-194.75470616951193,3896.1178284774874,0.0,0.0,0.0,0.0,0.0,0.0,1.2,21.198055278471195,0.0,20.82644480880854,0.0,1.2,21.28,19.39,22.26,20.74,21.83,0.9,1.2,0.0,-713.7,-1111.6,188.27,0.0,0.0,48.0,0.0,0.0,0.0,0.0,0.0,0.0,0.0,0.0,0.0,0.0,0.0,0.0,0.0,0.0
109.0,1173.0,609.0320362420582,0.0,-0.0,567.0131239391521,0.0,0.0,12979.358038893277,0.0,12979.358038893277,0.0,0.0,0.0,0.5060423941843959,0.5242265625659731,0.0,0.0,0.0,"[0.7197672383114657, 0.47936088767866636, 0.5163638623783093, 0.4318070749752785, 0.23769903017196725, 0.3055137441148297, 0.7670403738879088, 0.7300497009512554]",22.72,0.0,0.0,131.87093297308468,88.38401779806836,2.235519222061839,-1038.0997866255937,-2139.492919500821,2785.9942812832246,0.0,0.0,0.0,0.0,0.0,0.0,2.0,21.668447741750846,0.0,20.87660687082039,0.0,2.0,22.72,19.44,22.31,21.96,22.68,1.7,2.0,444.29,-736.43,-1147.01,194.66,0.0,0.0,66.0,0.0,0.0,0.0,0.0,0.0,0.0,0.0,0.0,0.0,0.0,0.0,0.0,0.0,0.0
110.0,2456.0,2316.533907076693,0.0,-0.0,151.0487624586904,0.0,0.0,7234.086988595281,0.0,7234.086988595281,0.0,0.0,0.0,0.47528522161383774,0.5242265625659731,0.0,0.0,0.0,"[0.7197672383114657, 0.47936088767866636, 0.5163638623783093, 0.4318070749752785, 0.23769903017196725, 0.3055137441148297, 0.7670403738879088, 0.7300497009512554]",22.63,0.0,0.0,97.57417057448212,25.44388391156513,0.6435585639268919,-1018.8044312255589,-1937.4364260717064,117.14560744644693,0.0,0.0,0.0,0.0,0.0,0.0,2.3,21.683814445371393,0.0,20.935432377845785,0.0,2.3,22.63,19.5,22.37,21.79,22.59,1.96,2.3,4333.82,-722.74,-1125.69,144.04,0.0,0.0,19.0,0.0,0.0,0.0,0.0,0.0,0.0,0.0,0.0,0.0,0.0,0.0,0.0,0.0,0.0
111.0,3406.0,19503.451922384607,0.0,-0.0,0.06533722731502031,-16000.0,0.0,9783.130047559096,0.0,9783.130047559096,0.0,0.0,0.6533333333333333,0.4336902809354402,0.5242265625659731,0.0,0.0,0.0,"[0.7197672383114657, 0.47936088767866636, 0.5163638623783093, 0.4318070749752785, 0.23769903017196725, 0.3055137441148297, 0.7670403738879088, 0.7300497009512554]",21.28,0.0,0.0,24.659121767517235,187.26980485603477,45.489429018622,-981.0069398079199,-99.32666761094922,3715.5754686042224,0.0,0.0,0.0,0.0,0.0,0.0,1.7,21.245331587182417,0.0,20.904279073421815,0.0,1.7,21.28,19.51,22.3,20.77,21.85,1.32,1.7,0.0,-695.93,-1083.92,36.4,127.0,0.0,73.0,0.0,0.0,0.0,0.0,0.0,0.0,0.0,0.0,0.0,0.0,0.0,0.0,0.0,0.0
112.0,4402.0,17835.712253843492,0.0,-0.0,0.0,-8489.795918367347,0.0,4369.263996786233,0.0,0.0,0.0,0.0,1.0,0.4336902809354402,0.5188559932856294,19418.951096827706,4854.737774206927,24273.688871034632,"[0.7197672383114657, 0.47936088767866636, 0.5163638623783093, 0.4318070749752785, 0.23769903017196725, 0.3055137441148297, 0.7670403738879088, 0.7300497009512554]",22.72,0.0,0.0,0.0,398.9262685303564,39.290943902905084,-1093.2118808954913,-2057.091405640884,0.0,0.0,0.0,0.0,0.0,0.0,0.0,0.9,21.71042143295525,0.0,20.947287833965614,0.0,0.9,22.72,19.56,22.34,21.96,22.67,0.49,0.9,4336.72,-775.53,-1207.9,0.0,91.0,0.0,250.0,0.0,0.0,0.0,0.0,0.0,0.0,0.0,0.0,0.0,0.0,0.0,0.0,0.0,0.0
113.0,4555.0,4577.889447236181,0.0,-0.0,0.0,0.0,0.0,4163.831819451707,0.0,4163.831819451707,0.0,0.0,1.0,0.4159869143561387,0.5134854240052856,0.0,0.0,0.0,"[0.7197672383114657, 0.47936088767866636, 0.5163638623783093, 0.4318070749752785, 0.23769903017196725, 0.3055137441148297, 0.7670403738879088, 0.7300497009512554]",21.37,0.0,0.0,0.0,13.39151784819217,0.3387150336457324,-1020.3430567606449,-218.9564354079783,1054.8787006616299,0.0,0.0,0.0,0.0,0.0,0.0,1.0,21.271412204809945,0.0,20.91386356432026,0.0,1.0,21.37,19.56,22.27,20.79,21.83,0.58,1.0,0.0,-723.84,-1127.39,0.0,0.0,0.0,10.0,0.0,0.0,0.0,0.0,0.0,0.0,0.0,0.0,0.0,0.0,0.0,0.0,0.0,0.0
114.0,3183.0,0.0,6424.1616046995205,-0.0,0.0,9607.16160469952,0.0,17116.149911245597,0.0,0.0,0.0,17116.149911245597,0.5915322446981497,0.4159869143561387,0.5134854240052856,0.0,0.0,0.0,"[0.7197672383114657, 0.47936088767866636, 0.5163638623783093, 0.4318070749752785, 0.23769903017196725, 0.3055137441148297, 0.7670403738879088, 0.7300497009512554]",21.28,0.0,0.0,0.0,61.60098210168402,1.5580891547703706,-1011.0680821369548,-177.1578545785539,4012.505783363459,0.0,0.0,0.0,0.0,0.0,0.0,1.1,21.206996998208158,0.0,20.86778890850196,0.0,1.1,21.28,19.55,22.18,20.87,21.84,0.67,1.1,0.0,-717.26,-1117.14,0.0,0.0,0.0,46.0,0.0,0.0,0.0,0.0,0.0,0.0,0.0,0.0,0.0,0.0,0.0,0.0,0.0,0.0
115.0,2536.0,0.0,1171.416985965799,-0.0,0.0,3707.416985965799,0.0,3143.387938358489,0.0,0.0,0.0,3143.387938358489,0.4339039714853181,0.4159869143561387,0.46568735741022654,0.0,0.0,0.0,"[0.7197672383114657, 0.47936088767866636, 0.5163638623783093, 0.4318070749752785, 0.23769903017196725, 0.3055137441148297, 0.7670403738879088, 0.7300497009512554]",22.72,0.0,0.0,0.0,108.47129457035665,2.74359177253044,-1073.1711193428011,-2124.3345958253494,199.33884366538845,0.0,0.0,0.0,0.0,0.0,0.0,1.3,21.676618992892255,0.0,20.91517932895201,0.0,1.3,22.72,19.6,22.23,21.98,22.62,0.87,1.3,1764.25,-761.31,-1185.76,0.0,0.0,0.0,81.0,0.0,0.0,0.0,0.0,0.0,0.0,0.0,0.0,0.0,0.0,0.0,0.0,0.0,0.0
116.0,3498.0,0.0,0.0,-0.0,0.0,3498.0,0.0,13825.982516711658,0.0,13825.982516711658,0.0,0.0,0.8512755102040817,0.6838696417510722,0.46568735741022654,0.0,0.0,0.0,"[0.7197672383114657, 0.47936088767866636, 0.5163638623783129, 0.4318070749752785, 0.23769903017196725, 0.3055137441148297, 0.7670403738879088, 0.13001164491035055]",21.28,0.0,0.0,0.0,30.80049105084201,0.7790445773851834,-996.0375109724374,-160.90165989188182,1125.4478199063624,0.0,0.0,0.0,0.0,0.0,0.0,1.4,21.21487744640931,0.0,20.88501066160117,0.0,1.4,21.28,19.6,22.17,20.76,21.76,0.98,1.4,0.0,-706.59,-1100.53,0.0,0.0,0.0,23.0,0.0,0.0,0.0,0.0,0.0,0.0,0.0,0.0,0.0,0.0,0.0,0.0,0.0,0.0
117.0,2903.0,0.0,0.0,-0.0,0.0,2903.0,0.0,2943.411125327102,0.0,2943.411125327102,0.0,0.0,0.7278486394557824,0.6713551386671985,0.43131571401602675,0.0,0.0,0.0,"[0.7197672383114657, 0.47936088767866636, 0.5163638623783129, 0.4318070749752785, 0.23769903017196725, 0.3055137441148297, 0.7670403738879088, 0.13001164491035055]",21.28,0.0,0.0,0.0,268.32372867404,54.63473492705679,-986.0171301960925,-231.57976786718848,900.8228637292984,0.0,0.0,0.0,0.0,0.0,0.0,1.6,21.17949738525831,0.0,20.842608988849623,0.0,1.6,21.28,19.59,22.09,20.88,21.8,1.17,1.6,0.0,-699.48,-1089.46,0.0,100.0,26.0,145.0,0.0,0.0,0.0,0.0,0.0,0.0,0.0,0.0,0.0,0.0,0.0,0.0,0.0,0.0
118.0,2240.0,38493.09041341915,36060.624961352056,-0.0,0.0,0.0,0.0,18140.422940355846,0.0,-80000.0,0.0,98140.42294035586,0.7278486394557824,0.9980218053338652,0.43131571401602675,0.0,0.0,0.0,"[0.7197672383114657, 0.47936088767866636, 0.5163638623783129, 0.4318070749752785, 0.23769903017196725, 0.3055137441148297, 0.7670403738879088, 0.13001164491035055]",21.28,0.0,0.0,0.0,436.4225185052945,75.46570949626938,-981.0069398079199,-297.852397918696,3662.776068956707,0.0,0.0,0.0,0.0,0.0,0.0,1.7,21.146390771219405,0.0,20.802866226217084,0.0,1.7,21.28,19.58,22.02,20.86,21.74,1.26,1.7,2780.11,-695.93,-1083.92,0.0,146.0,29.0,246.0,0.0,0.0,0.0,0.0,0.0,0.0,0.0,0.0,0.0,0.0,0.0,0.0,0.0,0.0
119.0,1587.0,0.0,2059.5683177734822,-0.0,0.0,3646.5683177734822,0.0,5644.46596396986,0.0,0.0,0.0,5644.46596396986,0.57280746948242,0.9980218053338652,0.4023146399021707,0.0,0.0,0.0,"[0.7197672383114657, 0.47936088767866636, 0.5163638623783129, 0.4318070749752785, 0.23769903017196725, 0.3055137441148297, 0.7670403738879088, 0.13001164491035055]",22.72,0.0,0.0,0.0,387.6492008687209,57.581555719774684,-1043.1099770137664,-2235.527034081456,0.0,0.0,0.0,0.0,0.0,0.0,0.0,1.9,21.620744023442686,0.0,20.85561935024637,0.0,1.9,22.72,19.62,22.09,21.95,22.52,1.46,1.9,2294.32,-739.99,-1152.54,0.0,130.0,10.0,220.0,0.0,0.0,0.0,0.0,0.0,0.0,0.0,0.0,0.0,0.0,0.0,0.0,0.0,0.0
120.0,1154.0,0.0,0.0,-0.0,0.0,1154.0,0.0,17428.48333902103,0.0,17428.483339021026,0.0,0.0,0.5237428436320799,0.9239211108652384,0.4023146399021707,0.0,0.0,0.0,"[0.7197672383114657, 0.47936088767866636, 0.5163638623783129, 0.4318070749752785, 0.23769903017196725, 0.3055137441148297, 0.7670403738879088, 0.13001164491035055]",21.3,0.0,0.0,0.0,182.12464273541357,4.606524457581974,-992.2098246694567,-293.80664299380635,3939.7309921340943,0.0,0.0,0.0,0.0,0.0,0.0,1.5,21.17219389311114,0.0,20.832588619882827,0.0,1.5,21.3,19.63,22.04,20.76,21.68,1.03,1.5,0.0,-703.88,-1096.3,0.0,0.0,0.0,136.0,0.0,0.0,0.0,0.0,0.0,0.0,0.0,0.0,0.0,0.0,0.0,0.0,0.0,0.0
121.0,828.0,0.0,0.0,-0.0,0.0,828.0,0.0,10605.10231412924,0.0,10605.10231412924,0.0,0.0,0.48853876199942686,0.8788313901418998,0.4023146399021707,0.0,0.0,0.0,"[0.7197672383114657, 0.47936088767866636, 0.5163638623783129, 0.4318070749752785, 0.23769903017196725, 0.3055137441148297, 0.7670403738879088, 0.13001164491035055]",22.72,0.0,0.0,0.0,225.11846319539896,31.36501211559492,-1078.1813097309735,-2198.850176035101,854.112040079392,0.0,0.0,0.0,0.0,0.0,0.0,1.2,21.639575937400554,0.0,20.885181437073296,0.0,1.2,22.72,19.66,22.11,21.98,22.54,0.72,1.2,1599.72,-764.87,-1191.29,0.0,80.0,0.0,126.0,0.0,0.0,0.0,0.0,0.0,0.0,0.0,0.0,0.0,0.0,0.0,0.0,0.0,0.0
122.0,1037.0,1042.211055276382,0.0,-0.0,0.0,0.0,0.0,17327.22154573822,0.0,17327.221545738215,0.0,0.0,0.48853876199942686,0.8051612305086591,0.4023146399021707,0.0,0.0,0.0,"[0.7197672383114657, 0.47936088767866636, 0.5163638623783129, 0.4318070749752785, 0.23769903017196725, 0.3055137441148297, 0.7670403738879088, 0.13001164491035055]",21.64,0.0,0.0,0.0,229.1359185498567,31.466626625688637,-1044.0161129541752,-693.2467823580416,3650.208605875354,0.0,0.0,0.0,0.0,0.0,0.0,0.8,21.307830302714503,0.0,20.88178940180945,0.0,0.8,21.64,19.67,22.09,21.05,21.9,0.31,0.8,2510.76,-740.63,-1153.54,0.0,80.0,0.0,129.0,0.0,0.0,0.0,0.0,0.0,0.0,0.0,0.0,0.0,0.0,0.0,0.0,0.0,0.0
123.0,833.0,837.1859296482412,0.0,-0.0,0.0,0.0,0.0,13804.791334101554,0.0,13804.791334101552,0.0,0.0,0.48853876199942686,0.746467389802445,0.4023146399021707,0.0,0.0,0.0,"[0.7197672383114657, 0.47936088767866636, 0.5163638623783129, 0.4318070749752785, 0.23769903017196725, 0.3055137441148297, 0.7670403738879088, 0.13001164491035055]",22.72,0.0,0.0,0.0,111.2905614857655,28.48593432960618,-1103.2322616718359,-2130.794934980384,3097.4751924758116,0.0,0.0,0.0,0.0,0.0,0.0,0.7,21.673879652981206,0.0,20.933556561500367,0.0,0.7,22.72,19.71,22.16,21.97,22.55,0.21,0.7,0.0,-782.64,-1218.97,0.0,80.0,0.0,41.0,0.0,0.0,0.0,0.0,0.0,0.0,0.0,0.0,0.0,0.0,0.0,0.0,0.0,0.0
124.0,633.0,0.0,3828.829277282467,-7028.602404944054,0.0,11490.431682226521,0.0,9982.29408160221,0.0,0.0,0.0,9982.29408160221,0.0,0.746467389802445,0.42648316747004844,0.0,0.0,0.0,"[0.7197672383114657, 0.47936088767866636, 0.5163638623783129, 0.4318070749752785, 0.23769903017196725, 0.3055137441148297, 0.7670403738879088, 0.13001164491035055]",22.72,0.0,0.0,0.0,105.93395434648862,28.350448316147883,-1113.252642448181,-2038.4877623888117,133.40260878505245,0.0,0.0,0.0,0.0,0.0,0.0,0.5,21.720037062668297,0.0,20.995094700604415,0.0,0.5,22.72,19.75,22.24,21.92,22.55,0.03,0.5,0.0,-789.75,-1230.04,0.0,80.0,0.0,37.0,0.0,0.0,0.0,0.0,0.0,0.0,0.0,0.0,0.0,0.0,0.0,0.0,0.0,0.0
125.0,904.0,908.5427135678392,0.0,-0.0,0.0,0.0,0.0,12763.863281535492,0.0,12763.863281535492,0.0,0.0,0.0,0.6921992636054404,0.42648316747004844,0.0,0.0,0.0,"[0.7197672383114657, 0.47936088767866636, 0.5163638623783129, 0.4318070749752785, 0.23769903017196725, 0.3055137441148297, 0.7670403738879088, 0.13001164491035055]",21.28,0.0,0.0,0.0,150.90126164726027,50.09595347620396,-1051.1496052423347,-79.24168224811174,3822.3272786407438,0.0,0.0,0.0,0.0,0.0,0.0,0.3,21.256439105828495,0.0,20.960927165870572,0.0,0.3,21.28,19.74,22.18,20.82,21.77,-0.18,0.3,361.86,-745.69,-1161.42,0.0,80.0,34.0,67.0,0.0,0.0,0.0,0.0,0.0,0.0,0.0,0.0,0.0,0.0,0.0,0.0,0.0,0.0
126.0,2339.0,2350.753768844221,0.0,-0.0,0.0,0.0,0.0,9130.597367980545,0.0,9130.597367980545,0.0,0.0,0.0,0.6533786965647068,0.42648316747004844,0.0,0.0,0.0,"[0.7197672383114657, 0.47936088767866636, 0.5163638623783129, 0.4318070749752785, 0.23769903017196725, 0.3055137441148297, 0.7670403738879088, 0.13001164491035055]",22.72,0.0,0.0,0.0,863.6119378626249,80.1738484639451,-1128.2832136126983,-2031.8365703345953,0.0,0.0,0.0,0.0,0.0,0.0,0.0,0.2,21.723565161908574,0.0,21.003233042659602,0.0,0.2,22.72,19.77,22.23,22.04,22.62,-0.26,0.2,0.0,-800.41,-1246.65,0.0,127.0,29.0,575.0,0.0,0.0,0.0,0.0,0.0,0.0,0.0,0.0,0.0,0.0,0.0,0.0,0.0,0.0
127.0,2403.0,2415.075376884422,0.0,-0.0,0.0,0.0,0.0,8647.791849075287,0.0,8647.791849075287,0.0,0.0,0.0,0.6166108740771419,0.42648316747004844,0.0,0.0,0.0,"[0.7197672383114657, 0.47936088767866636, 0.5163638623783129, 0.4318070749752785, 0.23769903017196725, 0.3055137441148297, 0.7670403738879088, 0.13001164491035055]",21.61,0.0,0.0,0.0,2277.615259285948,132.2682206386589,-1077.7029871050806,-518.2666005366457,0.0,0.0,0.0,0.0,0.0,0.0,0.0,0.1,21.36792655414046,0.0,20.979172812462288,0.0,0.1,21.61,19.77,22.19,20.99,21.89,-0.38,0.1,485.41,-764.53,-1190.76,0.0,142.0,48.0,1621.0,0.0,0.0,0.0,0.0,0.0,0.0,0.0,0.0,0.0,0.0,0.0,0.0,0.0,0.0
128.0,2137.0,2147.738693467337,0.0,-0.0,0.0,0.0,0.0,5252.990095731429,0.0,5252.990095731429,0.0,0.0,0.0,0.5942767325136579,0.46131317080394496,0.0,0.0,0.0,"[0.6974089467333471, 0.47936088767866636, 0.5163638623783129, 0.4318070749752785, 0.23769903017196725, 0.3055137441148297, 0.7670403738879159, 0.13001164491035055]",22.01,0.0,0.0,2.936133555989179,716.305241532511,92.0288746415458,-1092.6502487883852,-1124.1249429021357,0.0,0.0,0.0,0.0,0.0,0.0,0.0,0.2,21.464387586894496,0.0,20.94939804553656,0.0,0.2,22.01,19.76,22.14,21.19,22.0,-0.24,0.2,690.58,-775.13,-1207.28,4.33,83.0,78.0,483.0,0.0,0.0,0.0,0.0,0.0,0.0,0.0,0.0,0.0,0.0,0.0,0.0,0.0,0.0
129.0,2017.0,704.2316859813001,2770.5506461781542,-0.0,4086.8401186267606,0.0,0.0,7830.701218089142,0.0,0.0,0.0,7830.70121808914,0.0,0.5942767325136579,0.46131317080394496,0.0,0.0,0.0,"[0.6974089467333471, 0.47936088767866636, 0.5163638623783129, 0.4318070749752785, 0.23769903017196725, 0.3055137441148297, 0.7670403738879159, 0.13001164491035055]",21.3,0.0,0.0,759.270785208905,1446.0724825860996,122.71645668984921,-927.0150385136291,-200.53651183437117,1618.5486979334655,0.0,0.0,0.0,0.0,0.0,0.0,2.8,21.21611983437129,0.0,20.905833104993057,0.0,2.8,21.3,19.74,22.07,20.83,21.72,2.85,2.8,25.41,-657.63,-1024.27,1120.81,140.0,68.0,999.0,0.0,0.0,0.0,0.0,0.0,0.0,0.0,0.0,0.0,0.0,0.0,0.0,0.0,0.0
130.0,1025.0,4604.6843825287715,2511.8208419893704,-11250.761551913965,10205.921433287209,0.0,0.0,7698.074697308028,0.0,0.0,0.0,7698.074697308028,0.0,0.5942767325136579,0.5,0.0,0.0,0.0,"[0.6974089467333471, 0.47936088767866636, 0.5163638623783129, 0.4318070749752785, 0.23769903017196725, 0.3055137441148297, 0.7670403738879159, 0.13001164491035055]",22.7,0.0,0.0,1222.2696497096892,321.325946683727,48.13140628105873,-871.6433108402949,-2070.6566691869393,0.0,0.0,0.0,0.0,0.0,0.0,0.0,5.3,21.67749577727436,0.0,20.959575725334815,0.0,5.3,22.7,19.78,22.14,22.02,22.56,5.66,5.3,0.0,-618.35,-963.09,1804.27,85.0,21.0,193.0,0.0,0.0,0.0,0.0,0.0,0.0,0.0,0.0,0.0,0.0,0.0,0.0,0.0,0.0
131.0,2665.0,0.0,1730.1269496265124,-0.0,10144.582992387026,-5749.456042760514,0.0,5549.794592958212,0.0,0.0,0.0,5549.794592958212,0.23476945507938765,0.5942767325136579,0.5,0.0,0.0,0.0,"[0.6974089467333471, 0.47936088767866636, 0.5163638623783129, 0.4318070749752785, 0.23769903017196725, 0.3055137441148297, 0.7670403738879159, 0.13001164491035055]",22.01,0.0,0.0,1000.5130646203249,208.41430672160138,43.45713881674759,-762.264992340966,-1035.8477781620777,0.0,0.0,0.0,0.0,0.0,0.0,0.0,6.8,21.50883916026654,0.0,21.01360535330889,0.0,6.8,22.01,19.83,22.19,21.64,22.32,6.99,6.8,0.0,-540.75,-842.23,1476.92,119.0,0.0,93.0,0.0,0.0,0.0,0.0,0.0,0.0,0.0,0.0,0.0,0.0,0.0,0.0,0.0,0.0
132.0,2946.0,0.0,0.0,-0.0,10017.092566912848,-1709.9005669128483,0.0,1839.7967947155234,26805.96,23284.564794715523,0.0,0.0,0.3045903948949956,0.4952777325361259,0.5,21444.768,5361.192,26805.96,"[0.6974089467333471, 0.47936088767866636, 0.5163638623783129, 0.4318070749752785, 0.23769903017196725, 0.3055137441148297, 0.7670403738879159, 0.13001164491035055]",21.73,0.0,0.0,925.4808686991618,116.50620527927192,2.9468207927178773,-698.0980523798239,-616.1893006298536,0.0,0.0,0.0,0.0,0.0,0.0,0.0,7.8,21.43646164887058,0.0,21.03561236802851,0.0,7.8,21.73,19.87,22.2,21.44,22.18,7.92,7.8,0.0,-495.23,-771.34,1366.16,0.0,0.0,87.0,0.0,0.0,0.0,0.0,0.0,0.0,0.0,0.0,0.0,0.0,0.0,0.0,0.0,0.0
133.0,2474.0,0.0,0.0,-0.0,9416.038023600955,-4004.9307665886413,0.0,2643.396531311081,0.0,0.0,0.0,0.0,0.4681250678640318,0.4952777325361259,0.5,11748.429028049255,2937.1072570123138,14685.536285061567,"[0.6974089467333471, 0.47936088767866636, 0.5163638623783129, 0.4318070749752785, 0.23769903017196725, 0.3055137441148297, 0.7670403738879159, 0.13001164491035055]",21.59,0.0,0.0,877.5800833558172,21.42642855710748,0.5419440538331735,-671.0250381650171,-415.62362747858737,2413.159344514219,0.0,0.0,0.0,0.0,0.0,0.0,8.2,21.395716139560914,0.0,21.043978818493436,0.0,8.2,21.59,19.91,22.18,21.34,22.1,8.3,8.2,0.0,-476.03,-741.42,1295.45,0.0,0.0,16.0,0.0,0.0,0.0,0.0,0.0,0.0,0.0,0.0,0.0,0.0,0.0,0.0,0.0,0.0
134.0,1764.0,24388.484655679375,19011.09065787395,-0.0,8368.54793609531,-11859.99951062234,0.0,7304.502370182381,0.0,-56215.44235832808,0.0,63519.94472851046,0.952408381214444,0.7248241221659656,0.5,0.0,0.0,0.0,"[0.6974089467333471, 0.47936088767866636, 0.5163638623783129, 0.4318070749752785, 0.23769903017196725, 0.3055137441148297, 0.7670403738879159, 0.13001164491035055]",22.7,0.0,0.0,798.6340066808039,176.20418221305496,54.19440538331736,-726.3477895832929,-1852.117146273185,0.0,0.0,0.0,0.0,0.0,0.0,0.0,8.2,21.784597711828727,0.0,21.120780006942002,0.0,8.2,22.7,19.98,22.26,22.21,22.73,8.2,8.2,0.0,-515.27,-802.55,1178.92,155.0,0.0,50.0,0.0,0.0,0.0,0.0,0.0,0.0,0.0,0.0,0.0,0.0,0.0,0.0,0.0,0.0
135.0,4135.0,0.0,1417.2616824844602,-0.0,5374.247829830995,178.01385265346494,0.0,4600.249434651423,0.0,0.0,0.0,4600.249434651423,0.9448397650301981,0.7248241221659656,0.49892588614393124,0.0,0.0,0.0,"[0.6974089467333471, 0.47936088767866636, 0.5163638623783129, 0.4318070749752785, 0.23769903017196725, 0.3055137441148297, 0.7670403738879159, 0.13001164491035055]",21.92,0.0,0.0,756.7470760111063,258.52677614299415,55.95572355827517,-737.3332884102052,-720.5986582610129,1968.9692519697396,0.0,0.0,0.0,0.0,0.0,0.0,7.2,21.568200844912106,0.0,21.15249888402962,0.0,7.2,21.92,20.02,22.28,21.53,22.26,7.16,7.2,0.0,-523.07,-814.69,1117.09,154.0,0.0,112.0,0.0,0.0,0.0,0.0,0.0,0.0,0.0,0.0,0.0,0.0,0.0,0.0,0.0,0.0
136.0,2491.0,2503.5175879396984,0.0,-0.0,0.0,0.0,0.0,6117.106680050688,0.0,6117.106680050688,0.0,0.0,0.9448397650301981,0.698816015533097,0.4930182599355524,0.0,0.0,0.0,"[0.6974089467333471, 0.47936088767866636, 0.5163638623783129, 0.4318070749752785, 0.23769903017196725, 0.3055137441148297, 0.7670403738879159, 0.13001164491035055]",22.7,0.0,0.0,0.0,443.75261248535753,58.39447180052444,-846.5923588994327,-1722.4988319982021,0.0,0.0,0.0,0.0,0.0,0.0,0.0,5.8,21.851375206946162,0.0,21.218286156988206,0.0,5.8,22.7,20.08,22.35,22.19,22.73,5.26,5.8,0.0,-600.58,-935.41,0.0,130.0,9.0,262.0,0.0,0.0,0.0,0.0,0.0,0.0,0.0,0.0,0.0,0.0,0.0,0.0,0.0,0.0
137.0,3510.0,0.0,577.652626246336,-0.0,0.0,4087.652626246336,0.0,1775.8613343115364,0.0,0.0,0.0,1775.8613343115367,0.771045010512922,0.698816015533097,0.4726100966702463,0.0,0.0,0.0,"[0.6974089467333471, 0.47936088767866636, 0.5163638623783129, 0.4318070749752785, 0.23769903017196725, 0.3055137441148297, 0.7670403738879159, 0.13001164491035055]",21.66,0.0,0.0,0.0,566.1792782869882,80.85127853123656,-814.8360260800423,-313.6549100793857,0.0,0.0,0.0,0.0,0.0,0.0,0.0,5.4,21.51950120406328,0.0,21.19771513655156,0.0,5.4,21.66,20.09,22.31,21.15,21.99,4.86,5.4,0.0,-578.05,-900.32,0.0,162.0,24.0,335.0,0.0,0.0,0.0,0.0,0.0,0.0,0.0,0.0,0.0,0.0,0.0,0.0,0.0,0.0
138.0,3155.0,0.0,0.0,-0.0,0.0,3155.0,0.0,11742.416810081488,0.0,11742.416810081488,0.0,0.0,0.6369038540503369,0.6488907739936349,0.4532760472610089,0.0,0.0,0.0,"[0.6974089467333471, 0.47936088767866636, 0.5163638623783129, 0.4318070749752785, 0.23769903017196725, 0.3055137441148297, 0.7670403738879159, 0.13001164491035055]",21.42,0.0,0.0,0.0,453.9724550537147,48.741093341621045,-822.6213575702407,-50.3601436517619,2939.9517831270987,0.0,0.0,0.0,0.0,0.0,0.0,5.0,21.406262104843655,0.0,21.150452840122213,0.0,5.0,21.42,20.08,22.22,21.03,21.86,4.48,5.0,0.0,-583.57,-908.92,0.0,101.0,8.0,285.0,0.0,0.0,0.0,0.0,0.0,0.0,0.0,0.0,0.0,0.0,0.0,0.0,0.0,0.0
139.0,2746.0,3797.5269324378996,1032.5392977757103,-0.0,0.0,0.0,0.0,3095.5586110461986,0.0,0.0,0.0,3095.5586110461986,0.6369038540503369,0.6488907739936349,0.4532760472610089,0.0,0.0,0.0,"[0.6974089467333471, 0.47936088767866636, 0.5163638623783129, 0.4318070749752785, 0.23769903017196725, 0.3055137441148297, 0.7670403738879159, 0.13001164491035055]",22.7,0.0,0.0,0.0,303.9874551539624,7.68883126375815,-906.7146435575025,-1790.745350599842,120.41154673381148,0.0,0.0,0.0,0.0,0.0,0.0,4.6,21.818196546987217,0.0,21.18551414385333,0.0,4.6,22.7,20.11,22.26,22.05,22.57,4.1,4.6,0.0,-643.23,-1001.84,0.0,0.0,0.0,227.0,0.0,0.0,0.0,0.0,0.0,0.0,0.0,0.0,0.0,0.0,0.0,0.0,0.0,0.0
140.0,5210.0,5236.180904522613,0.0,-0.0,0.0,0.0,0.0,1368.0896308098293,0.0,1368.0896308098293,0.0,0.0,0.39573836212377567,0.6430740663796476,0.440386680988184,0.0,0.0,0.0,"[0.6974089467333471, 0.47936088767866636, 0.5163638623783093, 0.20543102580804984, 0.23769903017196725, 0.3055137441148297, 0.6592348749621806, 0.13001164491035055]",21.57,0.0,0.0,0.0,289.256785520951,7.316244726747842,-870.144981667959,-248.64908924490274,291.71685234514814,0.0,0.0,0.0,0.0,0.0,0.0,4.2,21.456599768041922,0.0,21.162474419708907,0.0,4.2,21.57,20.11,22.21,21.1,21.9,3.72,4.2,0.0,-617.28,-961.43,0.0,0.0,0.0,216.0,0.0,0.0,0.0,0.0,0.0,0.0,0.0,0.0,0.0,0.0,0.0,0.0,0.0,0.0
141.0,3675.0,3693.467336683417,0.0,-0.0,0.0,0.0,0.0,11157.99348749121,0.0,11157.99348749121,0.0,0.0,0.39573836212377567,0.5956336178784094,0.440386680988184,0.0,0.0,0.0,"[0.6974089467333471, 0.47936088767866636, 0.5163638623783093, 0.20543102580804984, 0.23769903017196725, 0.3055137441148297, 0.6592348749621806, 0.13001164491035055]",21.3,0.0,0.0,0.0,231.67325877372463,5.859770082071189,-876.913134631904,40.11832751115274,3397.499943107548,0.0,0.0,0.0,0.0,0.0,0.0,3.8,21.335743839415915,0.0,21.111777246700864,0.0,3.8,21.3,20.09,22.13,20.98,21.78,3.35,3.8,0.0,-622.09,-968.91,0.0,0.0,0.0,173.0,0.0,0.0,0.0,0.0,0.0,0.0,0.0,0.0,0.0,0.0,0.0,0.0,0.0,0.0
142.0,2743.0,7673.094445025875,4834.2814927712725,-0.0,0.0,-57.447480029472445,0.0,13940.162784653934,0.0,0.0,0.0,13940.162784653932,0.3980841342249791,0.5956336178784094,0.440386680988184,0.0,0.0,0.0,"[0.6974089467333471, 0.47936088767866636, 0.5163638623783093, 0.20543102580804984, 0.23769903017196725, 0.3055137441148297, 0.6592348749621806, 0.13001164491035055]",22.7,0.0,0.0,0.0,191.49870522914816,4.8436249811339875,-966.8369282155725,-1855.1527394948034,2626.19561610219,0.0,0.0,0.0,0.0,0.0,0.0,3.4,21.78693200445959,0.0,21.150620824433908,0.0,3.4,22.7,20.12,22.18,22.08,22.55,2.94,3.4,0.0,-685.88,-1068.27,0.0,0.0,0.0,143.0,0.0,0.0,0.0,0.0,0.0,0.0,0.0,0.0,0.0,0.0,0.0,0.0,0.0,0.0
143.0,1393.0,0.0,0.0,-0.0,0.0,1393.0,0.0,6787.933132138608,0.0,6787.933132138609,0.0,0.0,0.33885794374878864,0.5667733579628541,0.440386680988184,0.0,0.0,0.0,"[0.6974089467333471, 0.47936088767866636, 0.5163638623783093, 0.20543102580804984, 0.23769903017196725, 0.3055137441148297, 0.6592348749621806, 0.13001164491035055]",22.7,0.0,0.0,0.0,144.6283927604755,3.658122363373919,-986.8776897682623,-1776.9673810001948,0.0,0.0,0.0,0.0,0.0,0.0,0.0,3.0,21.826208835467583,0.0,21.20243675920436,0.0,3.0,22.7,20.15,22.25,22.0,22.53,2.54,3.0,2161.88,-700.1,-1090.41,0.0,0.0,0.0,108.0,0.0,0.0,0.0,0.0,0.0,0.0,0.0,0.0,0.0,0.0,0.0,0.0,0.0,0.0
144.0,1067.0,0.0,0.0,-0.0,0.0,1067.0,0.0,8925.572668351842,0.0,8925.572668351842,0.0,0.0,0.29349229749028527,0.5288244945770044,0.440386680988184,0.0,0.0,0.0,"[0.6974089467333471, 0.47936088767866636, 0.5163638623783093, 0.20543102580804984, 0.23769903017196725, 0.3055137441148297, 0.6592348749621806, 0.13001164491035055]",21.39,0.0,0.0,0.0,28.122187481203568,0.7113015706560375,-946.582008008715,-6.325550725070612,3540.127226303268,0.0,0.0,0.0,0.0,0.0,0.0,2.5,21.40413463258873,0.0,21.168053355290617,0.0,2.5,21.39,20.14,22.2,21.01,21.82,2.07,2.5,0.0,-671.51,-1045.89,0.0,0.0,0.0,21.0,0.0,0.0,0.0,0.0,0.0,0.0,0.0,0.0,0.0,0.0,0.0,0.0,0.0,0.0
145.0,1980.0,1989.9497487437186,0.0,-0.0,0.0,0.0,0.0,15756.564480904171,0.0,15756.564480904171,0.0,0.0,0.29349229749028527,0.4618322986547928,0.440386680988184,0.0,0.0,0.0,"[0.6974089467333471, 0.47936088767866636, 0.5163638623783093, 0.20543102580804984, 0.23769903017196725, 0.3055137441148297, 0.6592348749621806, 0.13001164491035055]",22.7,0.0,0.0,0.0,103.11468743107976,2.6081057590721444,-1031.9694032618147,-1777.3452583028388,2703.887095314089,0.0,0.0,0.0,0.0,0.0,0.0,2.1,21.82663752637539,0.0,21.20446547487738,0.0,2.1,22.7,20.16,22.25,22.13,22.61,1.7,2.1,27.63,-732.08,-1140.23,0.0,0.0,0.0,77.0,0.0,0.0,0.0,0.0,0.0,0.0,0.0,0.0,0.0,0.0,0.0,0.0,0.0,0.0
146.0,1405.0,0.0,0.0,-0.0,0.0,1405.0,0.0,7008.363177627398,0.0,7008.363177627399,0.0,0.0,0.23375590293246212,0.4320348361648804,0.440386680988184,0.0,0.0,0.0,"[0.6974089467333471, 0.47936088767866636, 0.5163638623783093, 0.20543102580804984, 0.23769903017196725, 0.3055137441148297, 0.6592348749621806, 0.13001164491035055]",22.7,0.0,0.0,0.0,34.81794640529966,0.880659087478906,-1057.0203552026771,-1705.8924657703653,0.0,0.0,0.0,0.0,0.0,0.0,0.0,1.6,21.86260956244032,0.0,21.251300191207008,0.0,1.6,22.7,20.19,22.32,22.03,22.57,1.22,1.6,705.95,-749.85,-1167.91,0.0,0.0,0.0,26.0,0.0,0.0,0.0,0.0,0.0,0.0,0.0,0.0,0.0,0.0,0.0,0.0,0.0,0.0
147.0,778.0,0.0,4719.93883697151,-0.0,0.0,5497.93883697151,0.0,12710.511115718984,0.0,0.0,0.0,12710.511115718982,0.0,0.4320348361648804,0.440386680988184,0.0,0.0,0.0,"[0.6974089467333471, 0.47936088767866636, 0.5163638623783093, 0.20543102580804984, 0.23769903017196725, 0.3055137441148297, 0.6592348749621806, 0.13001164491035055]",21.34,0.0,0.0,0.0,77.67080351951462,1.9645471951452524,-998.9128129896824,131.77818982172488,3515.0355536858406,0.0,0.0,0.0,0.0,0.0,0.0,1.4,21.418208114380487,0.0,21.20903076874682,0.0,1.4,21.34,20.17,22.25,21.0,21.84,1.01,1.4,2438.13,-708.63,-1103.71,0.0,0.0,0.0,58.0,0.0,0.0,0.0,0.0,0.0,0.0,0.0,0.0,0.0,0.0,0.0,0.0,0.0,0.0
148.0,903.0,4627.145691184722,3701.0099627287977,-0.0,0.0,0.0,0.0,9896.031276253798,0.0,0.0,0.0,9896.031276253798,0.0,0.4320348361648804,0.440386680988184,0.0,0.0,0.0,"[0.6974089467333471, 0.47936088767866636, 0.5163638623783093, 0.20543102580804984, 0.23769903017196725, 0.3055137441148297, 0.6592348749621806, 0.13001164491035055]",22.7,0.0,0.0,0.0,36.157098190118866,0.9145305908434787,-1077.061116755367,-1725.7543416170147,0.0,0.0,0.0,0.0,0.0,0.0,0.0,1.2,21.852983202561667,0.0,21.239034389026237,0.0,1.2,22.7,20.18,22.3,22.14,22.64,0.85,1.2,0.0,-764.07,-1190.05,0.0,0.0,0.0,27.0,0.0,0.0,0.0,0.0,0.0,0.0,0.0,0.0,0.0,0.0,0.0,0.0,0.0,0.0
149.0,1738.0,14359.59867412957,0.0,-0.0,0.0,-12549.80068075892,0.0,7524.482679301043,0.0,7524.482679301044,0.0,0.0,0.5124501944643226,0.4000429880386005,0.440386680988184,0.0,0.0,0.0,"[0.6974089467333471, 0.47936088767866636, 0.5163638623783093, 0.20543102580804984, 0.23769903017196725, 0.3055137441148297, 0.6592348749621806, 0.13001164491035055]",21.32,0.0,0.0,0.0,95.07977672216447,2.4048767388847074,-1023.0012047386523,138.2898842209533,3269.7555451606504,0.0,0.0,0.0,0.0,0.0,0.0,0.9,21.402563211013543,0.0,21.196164719449378,0.0,0.9,21.32,20.16,22.23,20.98,21.82,0.56,0.9,1163.5,-725.72,-1130.32,0.0,0.0,0.0,71.0,0.0,0.0,0.0,0.0,0.0,0.0,0.0,0.0,0.0,0.0,0.0,0.0,0.0,0.0
150.0,819.0,18246.76024855649,0.0,-17336.526447313707,0.0,0.0,0.0,9817.983633783044,0.0,9817.983633783046,0.0,0.0,0.5124501944643226,0.3582998603439447,0.49999999999999956,0.0,0.0,0.0,"[0.6974089467333471, 0.47936088767866636, 0.5163638623783093, 0.20543102580804984, 0.23769903017196725, 0.3055137441148297, 0.6592348749621806, 0.13001164491035055]",22.56,0.0,0.0,0.0,36.157098190118866,0.9145305908434787,-1090.0178220860873,-1561.1313336390476,100.19688018638671,0.0,0.0,0.0,0.0,0.0,0.0,0.8,21.79383486460465,0.0,21.217358062725637,0.0,0.8,22.56,20.17,22.27,22.03,22.55,0.48,0.8,2105.94,-773.26,-1204.37,0.0,0.0,0.0,27.0,0.0,0.0,0.0,0.0,0.0,0.0,0.0,0.0,0.0,0.0,0.0,0.0,0.0,0.0
151.0,902.0,0.0,2829.08923315211,-0.0,0.0,3731.08923315211,0.0,7402.802367585361,0.0,0.0,0.0,7402.802367585359,0.3538154481568349,0.3582998603439447,0.49999999999999956,0.0,0.0,0.0,"[0.6974089467333471, 0.47936088767866636, 0.5163638623783093, 0.20543102580804984, 0.23769903017196725, 0.3055137441148297, 0.6592348749621806, 0.13001164491035055]",21.3,0.0,0.0,0.0,89.72316958288756,2.2693907254264123,-1037.2392270534235,125.7915723004454,819.7119802232725,0.0,0.0,0.0,0.0,0.0,0.0,0.6,21.380701073391474,0.0,21.173232197982106,0.0,0.6,21.3,20.14,22.2,20.98,21.81,0.29,0.6,157.61,-735.82,-1146.06,0.0,0.0,0.0,67.0,0.0,0.0,0.0,0.0,0.0,0.0,0.0,0.0,0.0,0.0,0.0,0.0,0.0,0.0
