,load_elec,grid,hp_elec,ev,pv,bat_pow,cool,load_th_sh,load_th_dhw,tes_pow,dh,hp_th,bat_soc,tes_soc,ev_soc,eh_th_in,eh_elec_in,eh_th_out,temp_slack,temp_zone_1,temp_zone_2,temp_update,Qsolar_1,QconvInt_1,QradInt_1,Qvent_1,Qconduc_1,Qheating_1,Qsolar_2,QconvInt_2,QradInt_2,Qvent_2,Qconduc_2,Qheating_2,temp_amb,temp_aggregate_1,temp_aggregate_2,temp_wall_1,temp_wall_2,_Tamb,_Tz_1,_TEW_1,_TIW_1,_T1_1,_T2_1,_Taeq_1,_Tvent_1,_Qheating_1,_Qinfvent_1,_Qenvelope_1,_Qsolar_1,_Qint_people_1,_Qint_lighting_1,_Qint_appliances_1,_Tz_2,_TEW_2,_TIW_2,_T1_2,_T2_2,_Taeq_2,_Tvent_2,_Qheating_2,_Qinfvent_2,_Qenvelope_2,_Qsolar_2,_Qint_people_2,_Qint_lighting_2,_Qint_appliances_2
8.0,1433.0,0.0,0.0,-0.0,0.0,1433.0,0.0,44699.90174071054,0.0,44699.901740710535,0.0,0.0,0.43907312925170067,0.30994939736092464,0.8,0.0,0.0,0.0,"[2.0, 2.0, 2.0, 2.0, 2.0, 2.0, 2.0, 2.0]",20.0,0.0,0.0,1.3049539660058436,43.70517602470855,0.9558949670765189,-1502.2930247366216,-1820.7561346684681,3277.0438668019096,0.0,0.0,0.0,0.0,0.0,0.0,-9.4,19.156976502960116,0.0,19.0,0.0,-9.4,20.0,18.0,20.0,20.0,20.0,-10.57,-9.4,10592.32,-1044.95,-1473.11,2.18,0.0,0.0,32.0,0.0,0.0,0.0,0.0,0.0,0.0,0.0,0.0,0.0,0.0,0.0,0.0,0.0,0.0
9.0,1811.0,124358.80980276047,0.0,-0.0,7.040922578023344,-13736.984589754267,0.0,56081.36023734654,0.0,-41295.10464056681,0.0,0.0,1.0,0.4785710746432391,0.8,432784.28834628174,108196.07208657044,540980.3604328522,"[2.0, 2.0, 2.0, 2.0, 2.0, 2.0, 2.0, 2.0]",20.0,0.0,0.0,39.006777997049966,83.31299179710066,1.8221747809896118,-1461.414302975081,-1747.196469384856,11415.956798687372,0.0,0.0,0.0,0.0,0.0,0.0,-8.6,19.191251853769405,0.0,19.051444405750935,0.0,-8.6,20.0,18.04,20.07,19.31,20.23,-9.55,-8.6,0.0,-1016.52,-1433.03,65.29,0.0,0.0,61.0,0.0,0.0,0.0,0.0,0.0,0.0,0.0,0.0,0.0,0.0,0.0,0.0,0.0,0.0
10.0,2035.0,1669.7368830596256,0.0,-0.0,373.61180135567236,0.0,0.0,45629.92760588228,0.0,45629.92760588227,0.0,0.0,1.0,0.2845662804005424,0.8,0.0,0.0,0.0,"[2.0, 2.0, 2.0, 2.0, 2.0, 2.0, 2.0, 2.0]",24.0,0.0,0.0,104.15733630055227,42.33938927393641,0.9260232493553745,-1614.7095095808588,-7030.194770272646,156.5658692289618,0.0,0.0,0.0,0.0,0.0,0.0,-7.6,20.65850611487503,0.0,19.514354440021414,0.0,-7.6,24.0,18.28,20.75,21.89,22.91,-8.41,-7.6,1283.62,-1123.14,-1583.35,174.34,0.0,0.0,31.0,0.0,0.0,0.0,0.0,0.0,0.0,0.0,0.0,0.0,0.0,0.0,0.0,0.0,0.0
11.0,2395.0,1627.7542934578405,1494.3305436690175,-0.0,1061.4991243777322,1208.2158973007336,0.0,2855.9774287761275,0.0,0.0,0.0,2855.9774287761275,0.948630276475309,0.2845662804005424,0.8,0.0,0.0,0.0,"[2.0, 2.0, 2.0, 2.0, 2.0, 2.0, 2.0, 2.0]",20.0,0.0,0.0,141.961921724035,55.99725678165783,1.2247404265667894,-1369.437179011614,-1046.9445359183114,2207.845955662495,0.0,0.0,0.0,0.0,0.0,0.0,-6.8,19.525235772525555,0.0,19.561805958136816,0.0,-6.8,20.0,18.35,20.78,19.25,20.36,-7.46,-6.8,0.0,-952.54,-1342.84,237.62,0.0,0.0,41.0,0.0,0.0,0.0,0.0,0.0,0.0,0.0,0.0,0.0,0.0,0.0,0.0,0.0,0.0
12.0,4943.0,23662.400696855362,21095.709981256838,-0.0,2494.6212878857523,0.0,0.0,41524.974202508514,0.0,0.0,0.0,41524.974202508514,0.948630276475309,0.2845662804005424,0.8,0.0,0.0,0.0,"[2.0, 2.0, 2.0, 2.0, 2.0, 2.0, 2.0, 2.0]",20.0,0.0,0.0,202.37977667419284,250.08274241769908,44.24001394501014,-1338.7781376904588,-1056.4612682747631,10221.667133576017,0.0,0.0,0.0,0.0,0.0,0.0,-6.2,19.519920501392463,0.0,19.546246770453177,0.0,-6.2,20.0,18.37,20.72,19.47,20.58,-6.72,-6.2,4353.21,-931.21,-1312.77,338.75,137.0,0.0,111.0,0.0,0.0,0.0,0.0,0.0,0.0,0.0,0.0,0.0,0.0,0.0,0.0,0.0,0.0
13.0,6237.0,0.0,10199.245198643617,-0.0,436.24519864361787,16000.0,0.0,20173.513168577305,0.0,0.0,0.0,20173.51316857731,0.2683581676317715,0.2845662804005424,0.8,0.0,0.0,0.0,"[2.0, 2.0, 2.0, 2.0, 2.0, 2.0, 2.0, 2.0]",24.0,0.0,0.0,110.12926253099074,2462.082210562981,93.46860474945086,-1538.06190627797,-6412.056409756335,5281.8617407371385,0.0,0.0,0.0,0.0,0.0,0.0,-6.1,20.953606502375422,0.0,19.95290227292587,0.0,-6.1,24.0,18.6,21.3,22.04,23.21,-6.84,-6.1,0.0,-1069.83,-1508.19,184.34,140.0,0.0,1729.0,0.0,0.0,0.0,0.0,0.0,0.0,0.0,0.0,0.0,0.0,0.0,0.0,0.0,0.0
14.0,7255.0,11259.192518117245,3952.595615924354,-0.0,4.699060397696799,0.0,0.0,7629.597459842197,0.0,0.0,0.0,7629.597459842197,0.2683581676317715,0.2845662804005424,0.799999999999999,0.0,0.0,0.0,"[2.0, 2.0, 2.0, 2.0, 2.0, 2.0, 2.0, 2.0]",24.0,0.0,0.0,35.67351020145888,929.8132432230348,66.46457192953919,-1563.6111073789327,-5932.223375573896,0.0,0.0,0.0,0.0,0.0,0.0,0.0,-6.6,21.1846238415483,0.0,20.301403517008367,0.0,-6.6,24.0,18.84,21.77,21.71,22.9,-7.55,-6.6,8032.62,-1087.6,-1533.24,59.71,163.0,0.0,595.0,0.0,0.0,0.0,0.0,0.0,0.0,0.0,0.0,0.0,0.0,0.0,0.0,0.0,0.0
15.0,2238.0,0.0,4073.7841026992664,-0.0,0.0,6311.784102699266,0.0,7591.668157179195,0.0,0.0,0.0,7591.668157179195,0.0,0.2845662804005424,0.799999999999999,0.0,0.0,0.0,"[2.0, 2.0, 2.0, 2.0, 2.0, 2.0, 2.0, 2.0]",20.9,0.0,0.0,3.9162907552399573,1567.851306373221,78.53274588888026,-1440.826977000472,-1318.745739755367,0.0,0.0,0.0,0.0,0.0,0.0,0.0,-7.3,20.293684871660243,0.0,20.312757002065936,0.0,-7.3,20.9,18.91,21.71,19.97,21.22,-8.35,-7.3,5057.08,-1002.2,-1412.84,6.56,128.0,15.0,1079.0,0.0,0.0,0.0,0.0,0.0,0.0,0.0,0.0,0.0,0.0,0.0,0.0,0.0,0.0
16.0,3083.0,19316.456144751624,16136.873864027866,-0.0,0.0,0.0,0.0,30225.581481669018,0.0,0.0,0.0,30225.58148166902,0.0,0.2845662804005424,0.799999999999999,0.0,0.0,0.0,"[2.0, 2.0, 2.0, 2.0, 2.0, 2.0, 2.0, 2.0]",20.36,0.0,0.0,0.0,1013.198118533334,77.81582466357287,-1408.4188552196815,-659.408832962046,8558.810790348922,0.0,0.0,0.0,0.0,0.0,0.0,-7.2,20.075253947071026,0.0,20.204163550318107,0.0,-7.2,20.36,18.91,21.5,19.74,20.91,-8.23,-7.2,0.0,-979.65,-1381.06,0.0,106.0,48.0,681.0,0.0,0.0,0.0,0.0,0.0,0.0,0.0,0.0,0.0,0.0,0.0,0.0,0.0,0.0
17.0,5915.0,5944.723618090452,0.0,-0.0,0.0,0.0,0.0,9081.769668218107,0.0,9081.769668218107,0.0,0.0,0.0,0.24595331412410487,0.7805194805194796,0.0,0.0,0.0,"[2.0, 2.0, 2.0, 2.0, 2.0, 2.0, 2.0, 2.0]",24.0,0.0,0.0,0.0,587.935254450808,105.17831809613823,-1584.0504682597032,-5625.211704200238,1661.2231716866204,0.0,0.0,0.0,0.0,0.0,0.0,-7.0,21.33245445152458,0.0,20.49857880971664,0.0,-7.0,24.0,19.09,21.9,22.15,23.33,-8.03,-7.0,0.0,-1101.82,-1553.28,0.0,92.0,124.0,369.0,0.0,0.0,0.0,0.0,0.0,0.0,0.0,0.0,0.0,0.0,0.0,0.0,0.0,0.0
18.0,4528.0,67511.84207711324,62646.28286672767,-0.0,0.0,0.0,0.0,39132.89011354854,0.0,-80000.0,0.0,119132.89011354856,0.0,0.5726199807907716,0.7735621521335798,0.0,0.0,0.0,"[2.0, 2.0, 2.0, 2.0, 2.0, 2.0, 2.0, 2.0]",21.67,0.0,0.0,0.0,442.94620832936533,128.98607711988777,-1459.73907089444,-2058.416522584155,7813.267377624979,0.0,0.0,0.0,0.0,0.0,0.0,-6.9,20.70914370630456,0.0,20.578108567407718,0.0,-6.9,21.67,19.19,21.96,20.61,21.83,-7.94,-6.9,0.0,-1015.35,-1431.39,0.0,142.0,148.0,234.0,0.0,0.0,0.0,0.0,0.0,0.0,0.0,0.0,0.0,0.0,0.0,0.0,0.0,0.0
19.0,6745.0,16611.251021957254,9783.194766847468,-0.0,0.0,0.0,0.0,18697.72625194076,0.0,0.0,0.0,18697.72625194076,0.0,0.5726199807907716,0.7638218923933201,0.0,0.0,0.0,"[2.0, 2.0, 2.0, 2.0, 2.0, 2.0, 2.0, 2.0]",24.0,0.0,0.0,0.0,482.6977911281545,108.88241109355975,-1573.8307878193177,-5110.939745317884,0.0,0.0,0.0,0.0,0.0,0.0,0.0,-6.8,21.57907659656404,0.0,20.861295158557866,0.0,-6.8,24.0,19.38,22.34,22.28,23.54,-7.82,-6.8,6372.32,-1094.71,-1543.26,0.0,83.0,140.0,295.0,0.0,0.0,0.0,0.0,0.0,0.0,0.0,0.0,0.0,0.0,0.0,0.0,0.0,0.0
20.0,6973.0,12374.313466541369,0.0,-0.0,0.0,-5339.441899208663,0.0,7655.885629134691,0.0,7655.885629134691,0.0,0.0,0.21802721088435373,0.5400694466532941,0.7638218923933201,0.0,0.0,0.0,"[1.556955160802211, 2.0, 2.0, 1.2805121953123972, 0.47176806351841805, 0.1708926182992201, 1.9180887307273515, 2.0]",21.07,0.0,0.0,0.0,983.7977616351335,100.78717559113046,-1414.0361435011087,-805.7969640720095,6316.203206292363,0.0,0.0,0.0,0.0,0.0,0.0,-6.6,20.715016899057467,0.0,20.834896336009166,0.0,-6.6,21.07,19.44,22.23,20.37,21.63,-7.61,-6.6,0.0,-983.56,-1386.57,0.0,129.0,80.0,644.0,0.0,0.0,0.0,0.0,0.0,0.0,0.0,0.0,0.0,0.0,0.0,0.0,0.0,0.0
21.0,5128.0,0.0,0.0,-0.0,0.0,5128.0,0.0,2607.0905188538063,0.0,2607.0905188538063,0.0,0.0,0.0,0.5289848781207525,0.7638218923933201,0.0,0.0,0.0,"[1.556955160802211, 2.0, 2.0, 1.2805121953123972, 0.47176806351841805, 0.1708926182992201, 1.9180887307273515, 2.0]",23.56,0.0,0.0,0.0,627.6868372495971,85.07465206981017,-1535.862383771924,-4218.050763715108,0.0,0.0,0.0,0.0,0.0,0.0,0.0,-6.5,21.56386101508128,0.0,21.015715902365443,0.0,-6.5,23.56,19.58,22.46,22.06,23.3,-7.55,-6.5,0.0,-1068.3,-1506.03,0.0,135.0,62.0,382.0,0.0,0.0,0.0,0.0,0.0,0.0,0.0,0.0,0.0,0.0,0.0,0.0,0.0,0.0
22.0,3300.0,13829.584971524318,10460.437046666697,-0.0,0.0,0.0,0.0,20490.69032340406,0.0,0.0,0.0,20490.690323404062,0.0,0.5289848781207525,0.7638218923933201,0.0,0.0,0.0,"[1.556955160802211, 2.0, 2.0, 1.2805121953123972, 0.47176806351841805, 0.1708926182992201, 1.9180887307273515, 2.0]",21.14,0.0,0.0,0.0,483.847927339331,68.37636186369225,-1401.899425503864,-689.9696704133535,100.88936011252473,0.0,0.0,0.0,0.0,0.0,0.0,-6.3,20.832955581607393,0.0,20.967311560576373,0.0,-6.3,21.14,19.61,22.32,20.48,21.71,-7.42,-6.3,7735.01,-975.12,-1374.67,0.0,157.0,25.0,269.0,0.0,0.0,0.0,0.0,0.0,0.0,0.0,0.0,0.0,0.0,0.0,0.0,0.0,0.0
23.0,3186.0,3202.0100502512564,0.0,-0.0,0.0,0.0,0.0,16794.3841491028,0.0,16794.384149102796,0.0,0.0,0.0,0.457580183609261,0.7638218923933201,0.0,0.0,0.0,"[1.556955160802211, 2.0, 2.0, 1.2805121953123972, 0.47176806351841805, 0.1708926182992201, 1.9180887307273515, 2.0]",20.44,0.0,0.0,0.0,290.1218592692824,30.588638946448608,-1361.417021077275,152.83358984716847,889.4559778877286,0.0,0.0,0.0,0.0,0.0,0.0,-6.2,20.54438353035635,0.0,20.822664143610034,0.0,-6.2,20.44,19.59,22.06,20.18,21.33,-7.28,-6.2,5831.66,-946.96,-1334.97,0.0,80.0,3.0,170.0,0.0,0.0,0.0,0.0,0.0,0.0,0.0,0.0,0.0,0.0,0.0,0.0,0.0,0.0
24.0,2185.0,2195.9798994974876,0.0,-0.0,0.0,0.0,0.0,14031.936805443049,0.0,14031.936805443049,0.0,0.0,0.0,0.3979205883480236,0.7638218923933201,0.0,0.0,0.0,"[1.556955160802211, 2.0, 2.0, 1.2805121953123972, 0.47176806351841805, 0.1708926182992201, 1.9180887307273515, 2.0]",20.44,0.0,0.0,0.0,55.99725678165783,1.2247404265667894,-1356.3071808570824,-9.037101858905151,1308.1856691403934,0.0,0.0,0.0,0.0,0.0,0.0,-6.1,20.466625235159867,0.0,20.693760958959174,0.0,-6.1,20.44,19.56,21.83,20.2,21.28,-7.21,-6.1,2757.76,-943.41,-1329.96,0.0,0.0,0.0,41.0,0.0,0.0,0.0,0.0,0.0,0.0,0.0,0.0,0.0,0.0,0.0,0.0,0.0,0.0
25.0,1690.0,64078.35766341487,47398.178585376794,-0.0,0.0,-14669.787289721007,0.0,14202.698942977268,0.0,-80000.0,0.0,94202.69894297728,0.5990163143302745,0.7245872550146903,0.7638218923933201,0.0,0.0,0.0,"[1.556955160802211, 2.0, 2.0, 1.2805121953123972, 0.47176806351841805, 0.1708926182992201, 1.9180887307273515, 2.0]",20.44,0.0,0.0,0.0,55.99725678165783,1.2247404265667894,-1351.1973406368897,-140.0977777193315,7921.985114935041,0.0,0.0,0.0,0.0,0.0,0.0,-6.0,20.40353086830096,0.0,20.589704867896074,0.0,-6.0,20.44,19.53,21.65,20.21,21.21,-7.02,-6.0,6693.24,-939.85,-1324.95,0.0,0.0,0.0,41.0,0.0,0.0,0.0,0.0,0.0,0.0,0.0,0.0,0.0,0.0,0.0,0.0,0.0,0.0
26.0,2061.0,0.0,0.0,-0.0,0.0,2061.0,0.0,45053.48941619372,0.0,45053.48941619372,0.0,0.0,0.5113887633098663,0.5330333034152273,0.76382189239332,0.0,0.0,0.0,"[1.556955160802211, 2.0, 2.0, 1.2805121953123972, 0.47176806351841805, 0.1708926182992201, 1.9180887307273515, 2.0]",23.56,0.0,0.0,0.0,55.99725678165783,1.2247404265667894,-1494.9836620103831,-4416.651406079347,5854.47645451413,0.0,0.0,0.0,0.0,0.0,0.0,-5.7,21.46768480534536,0.0,20.826197872208862,0.0,-5.7,23.56,19.67,21.99,22.19,23.19,-6.7,-5.7,5579.04,-1039.87,-1465.95,0.0,0.0,0.0,41.0,0.0,0.0,0.0,0.0,0.0,0.0,0.0,0.0,0.0,0.0,0.0,0.0,0.0,0.0
27.0,1076.0,31688.98080157317,0.0,-0.0,0.0,0.0,0.0,27409.082307808767,0.0,0.0,0.0,0.0,0.5113887633098663,0.5330333034152273,0.76382189239332,121818.14359026121,30454.535897565303,152272.6794878265,"[1.556955160802211, 2.0, 2.0, 1.2805121953123972, 0.47176806351841805, 0.1708926182992201, 1.9180887307273515, 2.0]",23.56,0.0,0.0,0.0,55.99725678165783,1.2247404265667894,-1484.7639815699981,-4072.0510417322066,0.0,0.0,0.0,0.0,0.0,0.0,0.0,-5.5,21.63284746557563,0.0,21.077097483503657,0.0,-5.5,23.56,19.83,22.33,22.1,23.16,-6.47,-5.5,0.0,-1032.76,-1455.92,0.0,0.0,0.0,41.0,0.0,0.0,0.0,0.0,0.0,0.0,0.0,0.0,0.0,0.0,0.0,0.0,0.0,0.0
28.0,2134.0,0.0,0.0,-0.0,0.0,2134.0,0.0,21005.073014951144,0.0,21005.073014951144,0.0,0.0,0.4206574707928595,0.44372602018839413,0.76382189239332,0.0,0.0,0.0,"[1.556955160802211, 2.0, 2.0, 1.2805121953123972, 0.47176806351841805, 0.1708926182992201, 1.9180887307273515, 2.0]",20.92,0.0,0.0,0.0,117.45766056640424,34.830422862850654,-1344.7739193973243,-239.8308675890141,445.92707180340034,0.0,0.0,0.0,0.0,0.0,0.0,-5.4,20.82976343132782,0.0,21.018888163458044,0.0,-5.4,20.92,19.84,22.2,20.47,21.56,-6.36,-5.4,0.0,-935.38,-1318.65,0.0,80.0,18.0,42.0,0.0,0.0,0.0,0.0,0.0,0.0,0.0,0.0,0.0,0.0,0.0,0.0,0.0,0.0
29.0,1163.0,10894.282334037867,9676.810922367678,-0.0,0.0,0.0,0.0,19970.436661960703,0.0,0.0,0.0,19970.436661960703,0.4206574707928595,0.44372602018839413,0.76382189239332,0.0,0.0,0.0,"[1.556955160802211, 2.0, 2.0, 1.2805121953123972, 0.47176806351841805, 0.1708926182992201, 1.9180887307273515, 2.0]",20.44,0.0,0.0,0.0,116.37940786842621,35.87593298309059,-1310.318618875349,287.41904442651247,4929.863211544239,0.0,0.0,0.0,0.0,0.0,0.0,-5.2,20.607843213412337,0.0,20.882041612102643,0.0,-5.2,20.44,19.81,21.96,20.3,21.33,-6.15,-5.2,0.0,-911.42,-1284.87,0.0,80.0,20.0,41.0,0.0,0.0,0.0,0.0,0.0,0.0,0.0,0.0,0.0,0.0,0.0,0.0,0.0,0.0
30.0,1520.0,0.0,0.0,-0.0,0.0,1520.0,0.0,21896.119952952526,0.0,21896.119952952526,0.0,0.0,0.3560316204527234,0.3506302720891062,0.76382189239332,0.0,0.0,0.0,"[1.556955160802211, 2.0, 2.0, 1.2805121953123972, 0.47176806351841805, 0.1708926182992201, 1.9180887307273515, 2.0]",22.39,0.0,0.0,0.0,181.14645326030518,60.34086979670527,-1404.7164364012397,-2474.6919077286657,6071.5301332970475,0.0,0.0,0.0,0.0,0.0,0.0,-5.1,21.231386957430253,0.0,20.96217396857869,0.0,-5.1,22.39,19.87,22.06,21.55,22.54,-6.06,-5.1,0.0,-977.08,-1377.43,0.0,169.0,16.0,42.0,0.0,0.0,0.0,0.0,0.0,0.0,0.0,0.0,0.0,0.0,0.0,0.0,0.0,0.0
31.0,1515.0,0.0,0.0,-0.0,0.0,1515.0,0.0,16609.983860931585,0.0,16609.983860931585,0.0,0.0,0.29161835514660095,0.2800095924082746,0.76382189239332,0.0,0.0,0.0,"[1.556955160802211, 2.0, 2.0, 1.2805121953123972, 0.47176806351841805, 0.1708926182992201, 1.9180887307273515, 2.0]",23.56,0.0,0.0,0.0,154.47766986364917,42.148993704530255,-1459.214780469035,-3895.2087756900964,5159.978217118572,0.0,0.0,0.0,0.0,0.0,0.0,-5.0,21.71719430253843,0.0,21.18266073674798,0.0,-5.0,23.56,20.0,22.36,22.23,23.25,-5.95,-5.0,0.0,-1014.99,-1430.87,0.0,137.0,0.0,41.0,0.0,0.0,0.0,0.0,0.0,0.0,0.0,0.0,0.0,0.0,0.0,0.0,0.0,0.0
32.0,2179.0,0.0,0.0,-0.0,0.0,2179.0,0.0,4109.21185708902,0.0,4109.21185708902,0.0,0.0,0.10632923950034248,0.24506731471193943,0.76382189239332,0.0,0.0,0.0,"[1.556955160802211, 1.6961592048179384, 1.1123491942067218, 1.2805121953123972, 0.47176806351841805, 0.1708926182992201, 1.9180887307273515, 1.0587580925004048]",23.56,0.0,0.0,1.3049487275753258,55.99725678165783,1.2247404265667894,-1448.9951000286499,-3607.8779361585694,0.0,0.0,0.0,0.0,0.0,0.0,0.0,-4.8,21.854910486740167,0.0,21.39009865674265,0.0,-4.8,23.56,20.14,22.64,22.23,23.31,-5.76,-4.8,0.0,-1007.88,-1420.85,2.18,0.0,0.0,41.0,0.0,0.0,0.0,0.0,0.0,0.0,0.0,0.0,0.0,0.0,0.0,0.0,0.0,0.0
33.0,1089.0,3388.831468268183,4790.435082430116,-0.0,6.684058455219355,2500.863713048055,0.0,10525.581496470184,0.0,0.0,0.0,10525.581496470184,0.0,0.24506731471193943,0.76382189239332,0.0,0.0,0.0,"[1.556955160802211, 1.6961592048179384, 1.1123491942067218, 1.2805121953123972, 0.47176806351841805, 0.1708926182992201, 1.9180887307273515, 1.0587580925004048]",21.16,0.0,0.0,38.98337948705481,55.99725678165783,1.2247404265667894,-1275.311837965691,-144.19420384271382,0.0,0.0,0.0,0.0,0.0,0.0,0.0,-3.8,21.11464493023554,0.0,21.320098303450166,0.0,-3.8,21.16,20.15,22.49,20.75,21.83,-4.49,-3.8,7680.12,-887.07,-1250.54,65.25,0.0,0.0,41.0,0.0,0.0,0.0,0.0,0.0,0.0,0.0,0.0,0.0,0.0,0.0,0.0,0.0,0.0
34.0,3714.0,19696.02791105857,0.0,-0.0,116.45222849672467,-16000.0,0.0,10541.304616325267,0.0,10541.304616325267,0.0,0.0,0.6533333333333333,0.20024884270375376,0.76382189239332,0.0,0.0,0.0,"[1.556955160802211, 1.6961592048179384, 1.1123491942067218, 1.2805121953123972, 0.47176806351841805, 0.1708926182992201, 1.9180887307273515, 1.0587580925004048]",20.52,0.0,0.0,75.8324067197162,55.99725678165783,1.2247404265667894,-1186.712222039302,595.0111093064979,284.8269980809941,0.0,0.0,0.0,0.0,0.0,0.0,-2.7,20.833632145883758,0.0,21.163258963090822,0.0,-2.7,20.52,20.11,22.22,20.47,21.48,-3.24,-2.7,0.0,-825.44,-1163.66,126.93,0.0,0.0,41.0,0.0,0.0,0.0,0.0,0.0,0.0,0.0,0.0,0.0,0.0,0.0,0.0,0.0,0.0
35.0,3771.0,8485.729862236074,5250.9489548907495,-0.0,578.647741965856,0.0,0.0,27951.464658107114,0.0,15362.801408272262,0.0,12588.663249834854,0.6533333333333333,0.13493080950531727,0.76382189239332,0.0,0.0,0.0,"[1.556955160802211, 1.6961592048179384, 1.1123491942067218, 1.2805121953123972, 0.47176806351841805, 0.1708926182992201, 1.9180887307273515, 1.0587580925004048]",20.44,0.0,0.0,116.7303877478678,55.99725678165783,1.2247404265667894,-1131.4742111686085,528.1455516954452,6909.477419864229,0.0,0.0,0.0,0.0,0.0,0.0,-1.7,20.7192490035821,0.0,21.01598825717754,0.0,-1.7,20.44,20.06,21.97,20.42,21.36,-2.06,-1.7,1070.31,-787.02,-1109.5,195.39,0.0,0.0,41.0,0.0,0.0,0.0,0.0,0.0,0.0,0.0,0.0,0.0,0.0,0.0,0.0,0.0,0.0
36.0,3335.0,18857.34871883575,0.0,-0.0,822.8688731307767,-8489.795918367347,0.0,6985.021437004498,0.0,0.0,0.0,0.0,1.0,0.13493080950531727,0.76382189239332,31044.539720020002,7761.134930005001,38805.674650025,"[1.556955160802211, 1.6961592048179384, 1.1123491942067218, 1.2805121953123972, 0.47176806351841805, 0.1708926182992201, 1.9180887307273515, 1.0587580925004048]",23.56,0.0,0.0,130.14263639011762,55.99725678165783,1.2247404265667894,-1254.8211716613314,-3794.482935695163,4853.283799098238,0.0,0.0,0.0,0.0,0.0,0.0,-1.0,21.76114672810674,0.0,21.217613760099468,0.0,-1.0,23.56,20.18,22.26,22.4,23.33,-1.6,-1.0,0.0,-872.82,-1230.45,217.84,0.0,0.0,41.0,0.0,0.0,0.0,0.0,0.0,0.0,0.0,0.0,0.0,0.0,0.0,0.0,0.0,0.0
37.0,3077.0,0.0,0.0,-0.0,236.23880367883393,2840.761196321166,0.0,7075.9103415377685,0.0,7075.9103415377685,0.0,0.0,0.8792193368911069,0.10484615669265668,0.76382189239332,0.0,0.0,0.0,"[1.556955160802211, 1.6961592048179384, 1.1123491942067218, 1.2805121953123972, 0.47176806351841805, 0.1708926182992201, 1.9180887307273515, 1.0587580925004048]",23.56,0.0,0.0,93.1410873924757,62.82619053551855,1.3740990151724932,-1239.4916510007536,-3489.3363296005914,0.0,0.0,0.0,0.0,0.0,0.0,0.0,-0.7,21.907492095132376,0.0,21.43930472504841,0.0,-0.7,23.56,20.32,22.56,22.3,23.29,-1.48,-0.7,0.0,-862.15,-1215.42,155.9,0.0,0.0,46.0,0.0,0.0,0.0,0.0,0.0,0.0,0.0,0.0,0.0,0.0,0.0,0.0,0.0,0.0
38.0,5484.0,53949.83306804606,45238.418495233105,-0.0,0.2283829491556461,-2957.8937904218724,0.0,30180.000729552383,0.0,-80000.0,0.0,110180.00072955238,1.0,0.4315128233593234,0.76382189239332,0.0,0.0,0.0,"[1.556955160802211, 1.6961592048179384, 1.1123491942067218, 1.2805121953123972, 0.47176806351841805, 0.1708926182992201, 1.9180887307273515, 1.0587580925004048]",21.37,0.0,0.0,22.609595165961135,55.99725678165783,1.2247404265667894,-1158.1864218953465,-296.71863544159527,5938.8719266485705,0.0,0.0,0.0,0.0,0.0,0.0,-1.3,21.247224997088814,0.0,21.399778787764518,0.0,-1.3,21.37,20.35,22.45,20.95,21.94,-2.24,-1.3,8061.24,-805.6,-1135.69,37.84,0.0,0.0,41.0,0.0,0.0,0.0,0.0,0.0,0.0,0.0,0.0,0.0,0.0,0.0,0.0,0.0,0.0
39.0,3647.0,0.0,4632.601251126383,-0.0,0.0,8279.601251126383,0.0,11017.90394460582,0.0,0.0,0.0,11017.90394460582,0.6479761372820416,0.4315128233593234,0.6768552875695724,0.0,0.0,0.0,"[1.556955160802211, 1.6961592048179384, 1.1123491942067218, 1.2805121953123972, 0.47176806351841805, 0.1708926182992201, 1.9180887307273515, 1.0587580925004048]",23.56,0.0,0.0,2.5985325649799056,55.99725678165783,1.2247404265667894,-1300.8097336430646,-3314.7419578845706,0.0,0.0,0.0,0.0,0.0,0.0,0.0,-1.9,21.992773183434647,0.0,21.55756332409119,0.0,-1.9,23.56,20.45,22.66,22.47,23.44,-2.95,-1.9,0.0,-904.8,-1275.54,4.35,0.0,0.0,41.0,0.0,0.0,0.0,0.0,0.0,0.0,0.0,0.0,0.0,0.0,0.0,0.0,0.0,0.0
40.0,2896.0,0.0,0.0,-0.0,0.0,2896.0,0.0,5905.463386013669,0.0,5905.463386013669,0.0,0.0,0.5248468855813614,0.406404560663687,0.6768552875695715,0.0,0.0,0.0,"[1.556955160802211, 1.6961592048179384, 1.1123491942067218, 1.2805121953123972, 0.47176806351841805, 0.1708926182992201, 1.9180887307273515, 1.0587580925004048]",21.37,0.0,0.0,0.0,55.99725678165783,1.2247404265667894,-1199.301935875109,-155.58912073172937,3857.7609934300535,0.0,0.0,0.0,0.0,0.0,0.0,-2.1,21.320564374610395,0.0,21.49815790850378,0.0,-2.1,21.37,20.46,22.53,21.0,21.96,-3.2,-2.1,7310.55,-834.2,-1176.01,0.0,0.0,0.0,41.0,0.0,0.0,0.0,0.0,0.0,0.0,0.0,0.0,0.0,0.0,0.0,0.0,0.0,0.0
41.0,4636.0,10388.644473146167,5700.701250780435,-0.0,0.0,0.0,0.0,13340.823471064978,0.0,0.0,0.0,13340.823471064974,0.5248468855813614,0.406404560663687,0.6768552875695715,0.0,0.0,0.0,"[1.556955160802211, 1.6961592048179384, 1.1123491942067218, 1.2805121953123972, 0.47176806351841805, 0.1708926182992201, 1.9180887307273515, 1.0587580925004048]",22.6,0.0,0.0,0.0,55.99725678165783,1.2247404265667894,-1272.3068511297627,-1902.7975880371748,5113.53508762146,0.0,0.0,0.0,0.0,0.0,0.0,-2.3,21.71210948310392,0.0,21.54330383897662,0.0,-2.3,22.6,20.51,22.58,21.9,22.83,-3.38,-2.3,4119.09,-884.98,-1247.59,0.0,0.0,0.0,41.0,0.0,0.0,0.0,0.0,0.0,0.0,0.0,0.0,0.0,0.0,0.0,0.0,0.0,0.0
42.0,4963.0,8740.81817653428,8078.512834525229,-0.0,0.0,4344.39874887362,0.0,18751.36594231388,0.0,0.0,0.0,18751.36594231388,0.3401360544217687,0.406404560663687,0.6768552875695715,0.0,0.0,0.0,"[1.556955160802211, 1.6961592048179384, 1.1123491942067218, 1.2805121953123972, 0.47176806351841805, 0.1708926182992201, 1.9180887307273515, 1.0587580925004048]",23.56,0.0,0.0,0.0,55.99725678165783,1.2247404265667894,-1331.4687749642205,-3099.2143249004444,0.0,0.0,0.0,0.0,0.0,0.0,0.0,-2.5,22.096974197313344,0.0,21.70152997818908,0.0,-2.5,23.56,20.61,22.79,22.47,23.42,-3.7,-2.5,0.0,-926.13,-1305.61,0.0,0.0,0.0,41.0,0.0,0.0,0.0,0.0,0.0,0.0,0.0,0.0,0.0,0.0,0.0,0.0,0.0,0.0
43.0,8000.0,0.0,0.0,-0.0,0.0,8000.0,0.0,212.81650279848267,0.0,212.81650279848267,0.0,0.0,0.0,0.4054997285939656,0.6685064935064917,0.0,0.0,0.0,"[1.556955160802211, 1.6961592048179384, 1.1123491942067218, 1.2805121953123972, 0.47176806351841805, 0.1708926182992201, 1.9180887307273515, 1.0587580925004048]",21.46,0.0,0.0,0.0,55.99725678165783,1.2247404265667894,-1234.4268540467478,-81.06649628073579,0.0,0.0,0.0,0.0,0.0,0.0,0.0,-2.7,21.444559460428923,0.0,21.634073163863082,0.0,-2.7,21.46,20.62,22.65,21.13,22.07,-3.93,-2.7,0.0,-858.63,-1210.45,0.0,0.0,0.0,41.0,0.0,0.0,0.0,0.0,0.0,0.0,0.0,0.0,0.0,0.0,0.0,0.0,0.0,0.0
44.0,6423.0,26699.23375615267,0.0,-0.0,0.0,-16000.0,0.0,3728.463828634713,0.0,0.0,0.0,0.0,0.6533333333333333,0.7321663952606323,0.6685064935064917,16570.950349487623,4142.737587371906,20713.687936859526,"[1.3247187130070799, 0.9832981752552179, 0.5417006880312911, 0.3904412870952747, 0.47176806351841805, 0.1708926182992201, 0.9266423354440576, 1.0587580925004048]",20.85,0.0,0.0,0.0,55.99725678165783,1.2247404265667894,-1213.7856122878043,615.1096095500371,169.39386825595906,0.0,0.0,0.0,0.0,0.0,0.0,-2.9,21.174270685064133,0.0,21.48297248535079,0.0,-2.9,20.85,20.56,22.4,20.84,21.73,-4.06,-2.9,0.0,-844.27,-1190.21,0.0,0.0,0.0,41.0,0.0,0.0,0.0,0.0,0.0,0.0,0.0,0.0,0.0,0.0,0.0,0.0,0.0,0.0
45.0,6518.0,0.0,0.0,-0.0,0.0,6518.0,0.0,21082.41298173206,0.0,21082.412981732065,0.0,0.0,0.3762074829931973,0.6425302856444246,0.6302411873840428,0.0,0.0,0.0,"[1.3247187130070799, 0.9832981752552179, 0.5417006880312911, 0.3904412870952747, 0.47176806351841805, 0.1708926182992201, 0.9266423354440576, 1.0587580925004048]",20.68,0.0,0.0,0.0,55.99725678165783,1.2247404265667894,-1214.878885666687,673.8544058838277,6003.982743947161,0.0,0.0,0.0,0.0,0.0,0.0,-3.1,21.023888346099426,0.0,21.327074285763935,0.0,-3.1,20.68,20.5,22.16,20.73,21.54,-4.27,-3.1,2556.2,-845.03,-1191.28,0.0,0.0,0.0,41.0,0.0,0.0,0.0,0.0,0.0,0.0,0.0,0.0,0.0,0.0,0.0,0.0,0.0,0.0
46.0,4085.0,17487.686863729155,5906.862116152916,-0.0,0.0,-7408.386313257592,0.0,13260.163368731257,0.0,0.0,0.0,13260.163368731257,0.6787165907845489,0.6425302856444246,0.6302411873840428,0.0,0.0,0.0,"[1.3247187130070799, 0.9832981752552179, 0.5417006880312911, 0.3904412870952747, 0.47176806351841805, 0.1708926182992201, 0.9266423354440576, 1.0587580925004048]",23.32,0.0,0.0,0.0,55.99725678165783,1.2247404265667894,-1360.480585310379,-3051.294717690954,4354.616689425737,0.0,0.0,0.0,0.0,0.0,0.0,-3.3,21.88835707922679,0.0,21.467153899415568,0.0,-3.3,23.32,20.57,22.37,22.41,23.2,-4.55,-3.3,0.0,-946.31,-1334.05,0.0,0.0,0.0,41.0,0.0,0.0,0.0,0.0,0.0,0.0,0.0,0.0,0.0,0.0,0.0,0.0,0.0,0.0
47.0,1497.0,4965.845226130654,0.0,-0.0,0.0,0.0,0.0,22221.722808972117,17220.08,35997.786808972116,0.0,0.0,0.6787165907845489,0.4894784709804275,0.6302411873840428,13776.064000000002,3444.0160000000005,17220.08,"[1.3247187130070799, 0.9832981752552179, 0.5417006880312911, 0.3904412870952747, 0.47176806351841805, 0.1708926182992201, 0.9266423354440576, 1.0587580925004048]",23.32,0.0,0.0,0.0,57.363043532429984,1.25461214428793,-1365.5904255305713,-2834.5005391710188,2514.202712296273,0.0,0.0,0.0,0.0,0.0,0.0,-3.4,21.992501296206818,0.0,21.627259681427766,0.0,-3.4,23.32,20.66,22.6,22.31,23.15,-4.64,-3.4,4378.3,-949.86,-1339.07,0.0,0.0,0.0,42.0,0.0,0.0,0.0,0.0,0.0,0.0,0.0,0.0,0.0,0.0,0.0,0.0,0.0,0.0
48.0,1389.0,1395.9798994974874,0.0,-0.0,0.0,0.0,0.0,13095.667664925984,0.0,13095.667664925983,0.0,0.0,0.6787165907845489,0.43379961186084426,0.6177179962894231,0.0,0.0,0.0,"[1.3247187130070799, 0.9832981752552179, 0.5417006880312911, 0.3904412870952747, 0.47176806351841805, 0.1708926182992201, 0.9266423354440576, 1.0587580925004048]",22.54,0.0,0.0,0.0,289.6905581900912,28.975566189506978,-1386.997764550649,-1603.6441498305587,0.0,0.0,0.0,0.0,0.0,0.0,0.0,-4.6,21.802591462793856,0.0,21.683466455738504,0.0,-4.6,22.54,20.71,22.66,21.85,22.73,-5.8,-4.6,0.0,-964.75,-1360.06,0.0,80.0,0.0,170.0,0.0,0.0,0.0,0.0,0.0,0.0,0.0,0.0,0.0,0.0,0.0,0.0,0.0,0.0
49.0,3841.0,0.0,0.0,-0.0,0.0,3841.0,0.0,22579.961708766794,0.0,22579.961708766794,0.0,0.0,0.5154087676552972,0.3377963733031623,0.6177179962894231,0.0,0.0,0.0,"[1.3247187130070799, 0.9832981752552179, 0.5417006880312911, 0.3904412870952747, 0.47176806351841805, 0.1708926182992201, 0.9266423354440576, 1.0587580925004048]",21.26,0.0,0.0,0.0,222.76700740225624,27.51185202117106,-1382.748305829229,157.32067487665748,5277.3834646462265,0.0,0.0,0.0,0.0,0.0,0.0,-5.8,21.36452576232786,0.0,21.581983475007217,0.0,-5.8,21.26,20.67,22.49,21.07,21.93,-6.99,-5.8,4796.36,-961.8,-1355.89,0.0,80.0,0.0,121.0,0.0,0.0,0.0,0.0,0.0,0.0,0.0,0.0,0.0,0.0,0.0,0.0,0.0,0.0
50.0,1671.0,4163.523629264304,0.0,-0.0,0.0,0.0,0.0,2224.5354100061836,0.0,0.0,0.0,0.0,0.5154087676552972,0.3377963733031623,0.6177179962894231,9886.824044471929,2471.706011117982,12358.53005558991,"[1.3247187130070799, 0.9832981752552179, 0.5417006880312911, 0.3904412870952747, 0.47176806351841805, 0.1708926182992201, 0.9266423354440576, 1.0587580925004048]",23.32,0.0,0.0,0.0,207.7433531437627,27.1832631262385,-1549.5446734575048,-2745.667649431512,0.0,0.0,0.0,0.0,0.0,0.0,0.0,-7.0,22.03878547814889,0.0,21.69218180188588,0.0,-7.0,23.32,20.73,22.66,22.45,23.31,-8.25,-7.0,162.16,-1077.82,-1519.45,0.0,80.0,0.0,110.0,0.0,0.0,0.0,0.0,0.0,0.0,0.0,0.0,0.0,0.0,0.0,0.0,0.0,0.0
51.0,780.0,783.9195979899498,0.0,-0.0,0.0,0.0,0.0,12464.064779886881,0.0,12464.064779886881,0.0,0.0,0.5154087676552972,0.28480290059956165,0.6177179962894231,0.0,0.0,0.0,"[1.3247187130070799, 0.9832981752552179, 0.5417006880312911, 0.3904412870952747, 0.47176806351841805, 0.1708926182992201, 0.9266423354440576, 1.0587580925004048]",21.38,0.0,0.0,0.0,210.61869367170405,27.78069748066133,-1480.5898576598343,30.50778433028812,0.0,0.0,0.0,0.0,0.0,0.0,0.0,-7.6,21.420446830084533,0.0,21.61486553185268,0.0,-7.6,21.38,20.7,22.53,21.13,21.99,-8.87,-7.6,4099.81,-1029.85,-1451.83,0.0,80.0,1.0,112.0,0.0,0.0,0.0,0.0,0.0,0.0,0.0,0.0,0.0,0.0,0.0,0.0,0.0,0.0
52.0,1315.0,0.0,10807.414215252591,-0.0,0.0,12122.414215252591,0.0,19109.76735344136,0.0,0.0,0.0,19109.76735344136,0.0,0.28480290059956165,0.6177179962894231,0.0,0.0,0.0,"[1.3247187130070799, 0.9832981752552179, 0.5417006880312911, 0.3904412870952747, 0.47176806351841805, 0.1708926182992201, 0.9266423354440576, 1.0587580925004048]",20.79,0.0,0.0,0.0,1033.9724538477103,50.06499890063268,-1486.6067078449626,679.5079629267096,4905.527952477066,0.0,0.0,0.0,0.0,0.0,0.0,-8.3,21.149848879917435,0.0,21.458400893775305,0.0,-8.3,20.79,20.62,22.3,20.84,21.66,-9.61,-8.3,0.0,-1034.04,-1457.73,0.0,80.0,9.0,714.0,0.0,0.0,0.0,0.0,0.0,0.0,0.0,0.0,0.0,0.0,0.0,0.0,0.0,0.0
53.0,2275.0,2286.43216080402,0.0,-0.0,0.0,0.0,0.0,6104.063229575366,0.0,6104.063229575365,0.0,0.0,0.0,0.2588502508139521,0.6177179962894231,0.0,0.0,0.0,"[1.3247187130070799, 0.9832981752552179, 0.5417006880312911, 0.3904412870952747, 0.47176806351841805, 0.1708926182992201, 0.9266423354440576, 1.0587580925004048]",23.28,0.0,0.0,0.0,2188.5654428425596,92.42309462921094,-1644.3032814776275,-2868.935113683772,0.0,0.0,0.0,0.0,0.0,0.0,0.0,-8.9,21.936036853029808,0.0,21.55351503465367,0.0,-8.9,23.28,20.65,22.46,22.35,23.14,-10.26,-8.9,3579.38,-1143.73,-1612.36,0.0,80.0,41.0,1556.0,0.0,0.0,0.0,0.0,0.0,0.0,0.0,0.0,0.0,0.0,0.0,0.0,0.0,0.0
54.0,2435.0,9290.405222759355,6808.953196645557,-0.0,0.0,0.0,0.0,11325.62224931297,0.0,0.0,0.0,11325.62224931297,0.0,0.2588502508139521,0.6177179962894231,0.0,0.0,0.0,"[1.3247187130070799, 0.9832981752552179, 0.5417006880312911, 0.3904412870952747, 0.47176806351841805, 0.1708926182992201, 0.9266423354440576, 1.0587580925004048]",22.21,0.0,0.0,0.0,760.5275696404876,116.49969911245073,-1614.9887810151008,-1312.9471901640884,0.0,0.0,0.0,0.0,0.0,0.0,0.0,-9.4,21.608589490861984,0.0,21.532314066314804,0.0,-9.4,22.21,20.64,22.42,21.45,22.21,-10.77,-9.4,0.0,-1123.34,-1583.62,0.0,147.0,109.0,468.0,0.0,0.0,0.0,0.0,0.0,0.0,0.0,0.0,0.0,0.0,0.0,0.0,0.0,0.0
55.0,1396.0,67620.75919212669,60519.949358880716,-0.0,0.0,-5366.70603728533,0.0,17780.63665386705,0.0,-80000.0,0.0,97780.63665386706,0.21914049652248432,0.5855169174806187,0.6177179962894231,0.0,0.0,0.0,"[1.3247187130070799, 0.9832981752552179, 0.5417006880312911, 0.3904412870952747, 0.47176806351841805, 0.1708926182992201, 0.9266423354440576, 1.0587580925004048]",21.22,0.0,0.0,0.0,323.40392588020364,93.22963100768172,-1590.0911511224967,10.165832267532402,36.90791176616126,0.0,0.0,0.0,0.0,0.0,0.0,-9.9,21.25592451455047,0.0,21.43372299873528,0.0,-9.9,21.22,20.59,22.28,21.03,21.82,-11.3,-9.9,5186.13,-1106.02,-1559.21,0.0,108.0,104.0,169.0,0.0,0.0,0.0,0.0,0.0,0.0,0.0,0.0,0.0,0.0,0.0,0.0,0.0,0.0
56.0,1400.0,24340.732303568013,0.0,-0.0,0.0,-16000.0,0.0,6137.1257778451545,0.0,0.0,0.0,0.0,0.6533333333333333,0.5855169174806187,0.6177179962894231,27276.114568200697,6819.028642050174,34095.14321025087,"[1.3247187130070799, 0.9832981752552179, 0.5417006880312911, 0.3904412870952747, 0.47176806351841805, 0.1708926182992201, 0.9266423354440576, 1.0587580925004048]",20.68,0.0,0.0,5.341931356908242,178.9180643511506,85.1642672229736,-1552.1283401993978,612.7789870281415,673.9704122942074,0.0,0.0,0.0,0.0,0.0,0.0,-9.7,21.00148300548028,0.0,21.287299935676124,0.0,-9.7,20.68,20.5,22.08,20.74,21.51,-11.11,-9.7,366.32,-1079.61,-1521.98,8.94,136.0,80.0,51.0,0.0,0.0,0.0,0.0,0.0,0.0,0.0,0.0,0.0,0.0,0.0,0.0,0.0,0.0
57.0,4467.0,0.0,0.0,-3726.6907615132295,8193.69076151323,0.0,0.0,7875.864757295468,0.0,7875.864757295468,0.0,0.0,0.6533333333333333,0.5520310979342945,0.6343187096816184,0.0,0.0,0.0,"[1.3247187130070799, 0.9832981752552179, 0.5417006880312911, 0.3904412870952747, 0.47176806351841805, 0.1708926182992201, 0.9266423354440576, 1.0587580925004048]",20.68,0.0,0.0,980.6054227836054,269.6350580077003,72.55840234465201,-1429.4921749147754,440.7466719565034,5131.72700321781,0.0,0.0,0.0,0.0,0.0,0.0,-7.3,20.915165625155947,0.0,21.15679675101187,0.0,-7.3,20.68,20.41,21.9,20.74,21.47,-7.4,-7.3,310.97,-994.31,-1401.73,1641.36,143.0,49.0,117.0,0.0,0.0,0.0,0.0,0.0,0.0,0.0,0.0,0.0,0.0,0.0,0.0,0.0,0.0
58.0,4218.0,0.0,0.0,-0.0,14126.929203394691,0.0,0.0,14232.73949711346,0.0,5314.703214058241,0.0,0.0,0.6533333333333333,0.5294345706636387,0.6343187096816184,39635.716813578765,9908.929203394691,49544.64601697346,"[1.3247187130070799, 0.9832981752552179, 0.5417006880312911, 0.3904412870952747, 0.47176806351841805, 0.1708926182992201, 0.9266423354440576, 1.0587580925004048]",23.32,0.0,0.0,1350.2030424931124,535.0289887366872,63.23842641565595,-1457.567549494038,-3167.0507519021503,2599.4449679292234,0.0,0.0,0.0,0.0,0.0,0.0,-5.2,21.83287963609864,0.0,21.388730589137634,0.0,-5.2,23.32,20.49,22.29,22.49,23.55,-4.63,-5.2,0.0,-1013.84,-1429.26,2260.0,150.0,17.0,311.0,0.0,0.0,0.0,0.0,0.0,0.0,0.0,0.0,0.0,0.0,0.0,0.0,0.0,0.0
59.0,6373.0,0.0,0.0,-11362.330774866306,17735.330774866306,0.0,0.0,9247.595894514994,0.0,9247.595894514992,0.0,0.0,0.6533333333333333,0.4901165609080478,0.684932728587841,0.0,0.0,0.0,"[1.3247187130070799, 0.9832981752552179, 0.5417006880312911, 0.3904412870952747, 0.47176806351841805, 0.1708926182992201, 0.9266423354440576, 1.0587580925004048]",23.32,0.0,0.0,1667.7316104441838,1833.3890041286043,70.94532958771039,-1365.5904255305713,-2824.3316416243956,0.0,0.0,0.0,0.0,0.0,0.0,0.0,-3.4,21.994938644213278,0.0,21.646302914990336,0.0,-3.4,23.32,20.6,22.7,22.4,23.68,-2.22,-3.4,3134.46,-949.86,-1339.07,2791.49,109.0,0.0,1285.0,0.0,0.0,0.0,0.0,0.0,0.0,0.0,0.0,0.0,0.0,0.0,0.0,0.0,0.0
60.0,5369.0,0.0,0.0,-10542.481310907398,18299.030672620345,-2387.549361712946,0.0,6811.562178166609,0.0,6811.562178166609,0.0,0.0,0.7508249322699453,0.4611558373614211,0.731894690790974,0.0,0.0,0.0,"[1.3247187130070799, 0.9832981752552179, 0.5417006880312911, 0.3904412870952747, 0.47176806351841805, 0.1708926182992201, 0.9266423354440576, 1.0587580925004048]",23.07,0.0,0.0,1717.5027900914615,772.028931752253,51.97678883478573,-1301.6726842097971,-2208.146391232748,0.0,0.0,0.0,0.0,0.0,0.0,0.0,-2.4,22.0384237278468,0.0,21.83006266293586,0.0,-2.4,23.07,20.68,22.98,22.17,23.63,-1.1,-2.4,1710.92,-905.4,-1276.39,2874.8,124.0,0.0,500.0,0.0,0.0,0.0,0.0,0.0,0.0,0.0,0.0,0.0,0.0,0.0,0.0,0.0,0.0
61.0,6009.0,0.0,4060.7821168381333,-0.0,16172.028673492534,-6102.246556654401,0.0,9580.497879719464,0.0,0.0,0.0,9580.497879719462,1.0,0.4611558373614211,0.7172843011805844,0.0,0.0,0.0,"[1.3247187130070799, 0.9832981752552179, 0.5417006880312911, 0.3904412870952747, 0.47176806351841805, 0.1708926182992201, 0.9266423354440576, 1.0587580925004048]",22.66,0.0,0.0,1562.0158954607466,612.3756489383094,44.24001394501014,-1265.025273899653,-1403.8396897614532,1749.225178408846,0.0,0.0,0.0,0.0,0.0,0.0,-2.1,22.006749534286847,0.0,21.970675006753957,0.0,-2.1,22.66,20.76,23.18,22.07,23.64,-1.0,-2.1,1699.5,-879.91,-1240.45,2614.54,109.0,0.0,391.0,0.0,0.0,0.0,0.0,0.0,0.0,0.0,0.0,0.0,0.0,0.0,0.0,0.0,0.0
62.0,5583.0,0.0,3162.6668322622522,-294.2013121613795,9039.868144423632,0.0,0.0,7250.543078499766,0.0,0.0,0.0,7250.543078499765,1.0,0.4611558373614211,0.7185948342983942,0.0,0.0,0.0,"[1.3247187130070799, 0.9832981752552179, 0.5417006880312911, 0.3904412870952747, 0.47176806351841805, 0.1708926182992201, 0.9266423354440576, 1.0587580925004048]",23.32,0.0,0.0,896.5068053030891,726.3110173579855,65.00085776120328,-1334.9313842094157,-2157.910191821275,0.0,0.0,0.0,0.0,0.0,0.0,0.0,-2.8,22.31532722580873,0.0,22.144965217424307,0.0,-2.8,23.32,20.86,23.43,22.55,24.12,-2.75,-2.8,2329.96,-928.54,-1309.0,1500.59,166.0,4.0,444.0,0.0,0.0,0.0,0.0,0.0,0.0,0.0,0.0,0.0,0.0,0.0,0.0,0.0,0.0
63.0,3114.0,48174.431537769364,44819.559380080515,-0.0,0.0,0.0,0.0,15914.215349002972,0.0,-80000.0,0.0,95914.21534900299,1.0,0.7878225040280877,0.7185948342983942,0.0,0.0,0.0,"[1.3247187130070799, 0.9832981752552179, 0.5417006880312911, 0.3904412870952747, 0.47176806351841805, 0.1708926182992201, 0.9266423354440576, 1.0587580925004048]",22.48,0.0,0.0,18.10020184260616,463.1454755381532,57.2640828714277,-1373.7450270603524,-886.5581535779431,0.0,0.0,0.0,0.0,0.0,0.0,0.0,-4.4,22.08743790218308,0.0,22.165623671192364,0.0,-4.4,22.48,20.9,23.43,21.96,23.32,-5.89,-4.4,2826.22,-955.54,-1347.06,30.3,108.0,31.0,279.0,0.0,0.0,0.0,0.0,0.0,0.0,0.0,0.0,0.0,0.0,0.0,0.0,0.0,0.0
64.0,3901.0,3920.603015075377,0.0,-0.0,0.0,0.0,0.0,15101.193732230922,0.0,15101.193732230922,0.0,0.0,1.0,0.7236167483638406,0.7067673760423645,0.0,0.0,0.0,"[1.3247187130070799, 0.9832981752552179, 0.5417006880312911, 0.3904412870952747, 0.47176806351841805, 0.1708926182992201, 0.9266423354440576, 1.0587580925004048]",21.66,0.0,0.0,0.0,502.3219902313541,76.2326236243524,-1367.244066902059,163.63425061962693,4103.533241296279,0.0,0.0,0.0,0.0,0.0,0.0,-5.1,21.764228088566103,0.0,22.030115574606484,0.0,-5.1,21.66,20.87,23.19,21.41,22.5,-6.68,-5.1,176.36,-951.01,-1340.69,0.0,138.0,49.0,290.0,0.0,0.0,0.0,0.0,0.0,0.0,0.0,0.0,0.0,0.0,0.0,0.0,0.0,0.0
65.0,3259.0,0.0,0.0,-0.0,0.0,3259.0,0.0,6843.900995193853,0.0,6843.900995193853,0.0,0.0,0.861437074829932,0.6945185298468599,0.7067673760423645,0.0,0.0,0.0,"[1.3247187130070799, 0.9832981752552179, 0.5417006880312911, 0.3904412870952747, 0.47176806351841805, 0.1708926182992201, 0.9266423354440576, 1.0587580925004048]",23.32,0.0,0.0,0.0,429.8634089272321,89.01771880900083,-1493.336431035386,-2232.506953567246,0.0,0.0,0.0,0.0,0.0,0.0,0.0,-5.9,22.284255861422903,0.0,22.075467586087463,0.0,-5.9,23.32,20.92,23.23,22.5,23.54,-7.43,-5.9,0.0,-1038.72,-1464.33,0.0,117.0,87.0,244.0,0.0,0.0,0.0,0.0,0.0,0.0,0.0,0.0,0.0,0.0,0.0,0.0,0.0,0.0
66.0,7532.0,0.0,0.0,-0.0,0.0,7532.0,0.0,1777.827658912197,0.0,1777.8276589121965,0.0,0.0,0.5411989795918368,0.6869597387800563,0.7067673760423645,0.0,0.0,0.0,"[1.3247187130070799, 0.9832981752552179, 0.5417006880312911, 0.3904412870952747, 0.47176806351841805, 0.1708926182992201, 0.9266423354440576, 1.0587580925004048]",21.78,0.0,0.0,0.0,1415.458258392329,95.85834216714217,-1455.4507483520113,-73.92934664698298,0.0,0.0,0.0,0.0,0.0,0.0,0.0,-6.7,21.778064474653227,0.0,21.982966821916825,0.0,-6.7,21.78,20.9,23.06,21.47,22.47,-8.18,-6.7,0.0,-1012.37,-1427.18,0.0,82.0,78.0,985.0,0.0,0.0,0.0,0.0,0.0,0.0,0.0,0.0,0.0,0.0,0.0,0.0,0.0,0.0
67.0,4931.0,0.0,0.0,-0.0,0.0,4931.0,0.0,1930.677431733679,0.0,1930.6774317336792,0.0,0.0,0.33154761904761915,0.6787510762301683,0.7067673760423645,0.0,0.0,0.0,"[1.3247187130070799, 0.9832981752552179, 0.5417006880312911, 0.3904412870952747, 0.47176806351841805, 0.1708926182992201, 0.9266423354440576, 1.0587580925004048]",21.77,0.0,0.0,0.0,967.8396217050591,102.63922208984121,-1490.654951107394,-225.34098960322888,0.0,0.0,0.0,0.0,0.0,0.0,0.0,-7.4,21.695051326295793,0.0,21.854707856183055,0.0,-7.4,21.77,20.85,22.85,21.43,22.35,-8.9,-7.4,0.0,-1036.85,-1461.7,0.0,133.0,82.0,630.0,0.0,0.0,0.0,0.0,0.0,0.0,0.0,0.0,0.0,0.0,0.0,0.0,0.0,0.0
68.0,8003.0,24961.232945674823,0.0,-0.0,0.0,-16000.0,0.0,750.0841028518064,0.0,0.0,0.0,0.0,0.6533333333333333,0.675561943139812,0.7067673760423645,3333.707123785807,833.4267809464518,4167.133904732259,"[0.5401301892687798, 0.9832981752552179, 0.5417006880312911, 0.19906774076920897, 0.2709699717719758, 0.1708926182992201, 0.9266423354440576, 0.8033649567667922]",21.46,0.0,0.0,0.0,1402.4473425033946,110.82407274543394,-1515.5719568455038,63.228371614357165,0.0,0.0,0.0,0.0,0.0,0.0,0.0,-8.2,21.52165176697091,0.0,21.724979099846728,0.0,-8.2,21.46,20.8,22.65,21.26,22.13,-9.68,-8.2,21.7,-1054.19,-1486.13,0.0,151.0,70.0,940.0,0.0,0.0,0.0,0.0,0.0,0.0,0.0,0.0,0.0,0.0,0.0,0.0,0.0,0.0
69.0,6972.0,7007.035175879397,0.0,-0.0,0.0,0.0,0.0,13707.937302278835,0.0,13707.937302278837,0.0,0.0,0.6533333333333333,0.6172798967865857,0.7067673760423645,0.0,0.0,0.0,"[0.5401301892687798, 0.9832981752552179, 0.5417006880312911, 0.19906774076920897, 0.2709699717719758, 0.1708926182992201, 0.9266423354440576, 0.8033649567667922]",21.49,0.0,0.0,0.0,1323.2317109586102,103.11716957337947,-1552.694443136181,-142.86668169392465,219.35645274026814,0.0,0.0,0.0,0.0,0.0,0.0,-8.9,21.449919171064277,0.0,21.601067575984253,0.0,-8.9,21.49,20.73,22.47,21.22,22.02,-10.34,-8.9,3864.3,-1080.01,-1522.54,0.0,162.0,53.0,878.0,0.0,0.0,0.0,0.0,0.0,0.0,0.0,0.0,0.0,0.0,0.0,0.0,0.0,0.0
70.0,3458.0,0.0,0.0,-0.0,0.0,3458.0,0.0,13722.23576379434,0.0,13722.23576379434,0.0,0.0,0.5063095238095239,0.5589370576548071,0.7025929790108243,0.0,0.0,0.0,"[0.5401301892687798, 0.9832981752552179, 0.5417006880312911, 0.19906774076920897, 0.2709699717719758, 0.1708926182992201, 0.9266423354440576, 0.8033649567667922]",21.46,0.0,0.0,0.0,948.9342577338446,74.05198823070909,-1592.2195601483927,-250.58114084281115,3074.3750530785023,0.0,0.0,0.0,0.0,0.0,0.0,-9.7,21.372517253715333,0.0,21.494030307043616,0.0,-9.7,21.46,20.67,22.32,21.18,21.94,-11.14,-9.7,3126.46,-1107.5,-1561.29,0.0,92.0,51.0,641.0,0.0,0.0,0.0,0.0,0.0,0.0,0.0,0.0,0.0,0.0,0.0,0.0,0.0,0.0
71.0,1765.0,1773.8693467336684,0.0,-0.0,0.0,0.0,0.0,21640.373451864507,0.0,21640.373451864503,0.0,0.0,0.5063095238095239,0.46692866712817227,0.6893740550776146,0.0,0.0,0.0,"[0.5401301892687798, 0.9832981752552179, 0.5417006880312911, 0.19906774076920897, 0.2709699717719758, 0.1708926182992201, 0.9266423354440576, 0.8033649567667922]",22.54,0.0,0.0,0.0,504.3347286009132,55.680881832207234,-1683.1880209950577,-1814.5572317061974,2940.61127863914,0.0,0.0,0.0,0.0,0.0,0.0,-10.4,21.70391723874008,0.0,21.52176501561028,0.0,-10.4,22.54,20.67,22.38,21.89,22.65,-11.83,-10.4,0.0,-1170.77,-1650.49,0.0,103.0,29.0,312.0,0.0,0.0,0.0,0.0,0.0,0.0,0.0,0.0,0.0,0.0,0.0,0.0,0.0,0.0
72.0,2020.0,0.0,0.0,-0.0,0.0,2020.0,0.0,10934.637643486662,0.0,10934.637643486663,0.0,0.0,0.42042517006802727,0.420437860820831,0.6893740550776146,0.0,0.0,0.0,"[0.5401301892687798, 0.9832981752552179, 0.5417006880312911, 0.19906774076920897, 0.2709699717719758, 0.1708926182992201, 0.9266423354440576, 0.8033649567667922]",22.54,0.0,0.0,0.0,159.22198173475238,43.76206646147188,-1708.7372220960208,-1753.4347787615627,1010.7245508794878,0.0,0.0,0.0,0.0,0.0,0.0,-10.9,21.733821520266307,0.0,21.57144767155411,0.0,-10.9,22.54,20.68,22.46,21.88,22.68,-12.4,-10.9,977.94,-1188.55,-1675.55,0.0,80.0,33.0,71.0,0.0,0.0,0.0,0.0,0.0,0.0,0.0,0.0,0.0,0.0,0.0,0.0,0.0,0.0
73.0,1157.0,0.0,0.0,-0.0,0.0,4477.4000000000015,0.0,13778.78594584674,0.0,10790.425945846739,0.0,0.0,0.23005952380952382,0.37456019948644864,0.6893740550776146,13281.6,3320.4,16602.0,"[0.5401301892687798, 0.9832981752552179, 0.5417006880312911, 0.19906774076920897, 0.2709699717719758, 0.1708926182992201, 0.9266423354440576, 0.8033649567667922]",21.46,0.0,0.0,0.0,190.99449456850425,50.87153527910348,-1684.1966841118594,-246.7288740139286,1691.6922679454683,0.0,0.0,0.0,0.0,0.0,0.0,-11.5,21.37626278025827,0.0,21.508840629540828,0.0,-11.5,21.46,20.64,22.38,21.23,22.05,-13.02,-11.5,5089.13,-1171.48,-1651.48,0.0,80.0,45.0,93.0,0.0,0.0,0.0,0.0,0.0,0.0,0.0,0.0,0.0,0.0,0.0,0.0,0.0,0.0
74.0,988.0,0.0,0.0,-0.0,0.0,988.0,0.0,17858.03957653857,0.0,17858.03957653857,0.0,0.0,0.18805272108843538,0.2986331604705534,0.6893740550776146,0.0,0.0,0.0,"[0.5401301892687798, 0.9832981752552179, 0.5417006880312911, 0.19906774076920897, 0.2709699717719758, 0.1708926182992201, 0.9266423354440576, 0.8033649567667922]",21.46,0.0,0.0,0.0,342.0217557986238,41.88014824503998,-1719.9655656532077,-348.605276684209,1686.8363493410454,0.0,0.0,0.0,0.0,0.0,0.0,-12.2,21.328120098074816,0.0,21.437403158716542,0.0,-12.2,21.46,20.58,22.29,21.26,22.07,-13.77,-12.2,2523.19,-1196.36,-1686.56,0.0,80.0,22.0,206.0,0.0,0.0,0.0,0.0,0.0,0.0,0.0,0.0,0.0,0.0,0.0,0.0,0.0,0.0
75.0,852.0,17350.437096884245,16411.684911399825,-0.0,0.0,0.0,0.0,22291.611338710853,0.0,0.0,0.0,22291.61133871085,0.18805272108843538,0.2986331604705534,0.6893740550776146,0.0,0.0,0.0,"[0.5401301892687798, 0.9832981752552179, 0.5417006880312911, 0.19906774076920897, 0.2709699717719758, 0.1708926182992201, 0.9266423354440576, 0.8033649567667922]",21.46,0.0,0.0,0.0,133.9189850888685,30.379536922400614,-1740.404926533978,-444.6327421219782,4273.039577113706,0.0,0.0,0.0,0.0,0.0,0.0,-12.6,21.28242556891929,0.0,21.370478050841754,0.0,-12.6,21.46,20.53,22.21,21.22,22.02,-14.16,-12.6,736.87,-1210.57,-1706.6,0.0,80.0,9.0,55.0,0.0,0.0,0.0,0.0,0.0,0.0,0.0,0.0,0.0,0.0,0.0,0.0,0.0,0.0
76.0,614.0,15782.758290476255,0.0,-0.0,0.0,0.0,0.0,13580.860049121482,0.0,0.0,0.0,0.0,0.18805272108843538,0.2986331604705534,0.6893740550776145,60359.37799609549,15089.844499023873,75449.22249511936,"[0.5401301892687798, 0.9832981752552179, 0.5417006880312911, 0.19906774076920897, 0.2709699717719758, 0.1708926182992201, 0.9266423354440576, 0.8033649567667922]",22.54,0.0,0.0,0.0,86.5477498910347,41.103483584290316,-1816.0438667200654,-1968.9684274500135,1408.76007005182,0.0,0.0,0.0,0.0,0.0,0.0,-13.0,21.632550757674235,0.0,21.429181536165586,0.0,-13.0,22.54,20.53,22.33,21.92,22.73,-14.55,-13.0,5113.7,-1263.19,-1780.77,0.0,80.0,31.0,18.0,0.0,0.0,0.0,0.0,0.0,0.0,0.0,0.0,0.0,0.0,0.0,0.0,0.0,0.0
77.0,2054.0,14938.523525901019,12809.830908271513,-0.0,0.0,0.0,0.0,16422.33611125303,0.0,0.0,0.0,16422.33611125303,0.18805272108843538,0.2986331604705534,0.6893740550776145,0.0,0.0,0.0,"[0.5401301892687798, 0.9832981752552179, 0.5417006880312911, 0.19906774076920897, 0.2709699717719758, 0.1708926182992201, 0.9266423354440576, 0.8033649567667922]",21.46,0.0,0.0,0.0,653.5649020010693,59.38497482962873,-1781.2836482955186,-440.1554877909254,1511.5625924668914,0.0,0.0,0.0,0.0,0.0,0.0,-13.4,21.285393271678338,0.0,21.383970112560856,0.0,-13.4,21.46,20.49,22.28,21.18,22.02,-14.97,-13.4,0.0,-1239.01,-1746.68,0.0,80.0,42.0,432.0,0.0,0.0,0.0,0.0,0.0,0.0,0.0,0.0,0.0,0.0,0.0,0.0,0.0,0.0
78.0,3311.0,0.0,0.0,-0.0,0.0,3311.0,0.0,12647.90693327924,0.0,12647.906933279242,0.0,0.0,0.047278911564625846,0.2448580459583117,0.6893740550776145,0.0,0.0,0.0,"[0.5401301892687798, 0.9832981752552179, 0.5417006880312911, 0.19906774076920897, 0.2709699717719758, 0.1708926182992201, 0.9266423354440576, 0.8033649567667922]",21.46,0.0,0.0,0.0,308.38027162170994,90.51130469505789,-1801.7230091762888,-540.2200924449232,1947.7357303495921,0.0,0.0,0.0,0.0,0.0,0.0,-13.8,21.237761508921846,0.0,21.31384816047954,0.0,-13.8,21.46,20.44,22.19,21.16,21.98,-15.36,-13.8,4907.76,-1253.22,-1766.73,0.0,160.0,72.0,134.0,0.0,0.0,0.0,0.0,0.0,0.0,0.0,0.0,0.0,0.0,0.0,0.0,0.0,0.0
79.0,1112.0,0.0,0.0,-0.0,0.0,1112.0,0.0,19397.29542194689,0.0,19397.29542194689,0.0,0.0,0.0,0.16238655181738104,0.6893740550776145,0.0,0.0,0.0,"[0.5401301892687798, 0.9832981752552179, 0.5417006880312911, 0.19906774076920897, 0.2709699717719758, 0.1708926182992201, 0.9266423354440576, 0.8033649567667922]",21.46,0.0,0.0,0.0,175.75518977041511,98.42730989116032,-1817.052529836867,-614.5322588458126,2162.4961687649247,0.0,0.0,0.0,0.0,0.0,0.0,-14.1,21.202427515937746,0.0,21.263559435686997,0.0,-14.1,21.46,20.39,22.14,21.19,22.01,-15.69,-14.1,530.23,-1263.89,-1781.76,0.0,117.0,115.0,55.0,0.0,0.0,0.0,0.0,0.0,0.0,0.0,0.0,0.0,0.0,0.0,0.0,0.0,0.0
80.0,1010.0,1015.0753768844221,0.0,-0.0,0.0,0.0,0.0,16958.728904716965,0.0,16958.728904716965,0.0,0.0,0.0,0.41694977926331234,0.6893740550776146,0.0,0.0,0.0,"[0.5401301892687798, 0.9832981752552179, 0.5417006880312911, 0.19906774076920897, 0.2709699717719758, 0.1708926182992201, 0.9266423354440576, 0.8033649567667922]",21.46,0.0,0.0,3.969988548145637,118.32026272478663,83.46157931286855,-1822.1623700570592,-675.4823435796683,2295.942719746892,0.0,0.0,0.0,0.0,0.0,0.0,-14.2,21.173241321216977,0.0,21.22312652031176,0.0,-14.2,21.46,20.34,22.1,21.19,22.01,-15.76,-14.2,1634.16,-1267.44,-1786.77,6.65,95.0,101.0,26.0,0.0,0.0,0.0,0.0,0.0,0.0,0.0,0.0,0.0,0.0,0.0,0.0,0.0,0.0
81.0,2474.0,0.0,0.0,-0.0,7982.2743475815505,0.0,0.0,15125.064728001471,0.0,10167.617815178077,0.0,0.0,0.0,0.3737201116817729,0.6893740550776146,22033.097390326202,5508.2743475815505,27541.37173790775,"[0.5401301892687798, 0.9832981752552179, 0.5417006880312911, 0.19906774076920897, 0.2709699717719758, 0.1708926182992201, 0.9266423354440576, 0.8033649567667922]",21.46,0.0,0.0,923.6283794504274,345.9034655113447,67.7490557915483,-1704.6360449926299,-721.1969856991689,3288.03080873375,0.0,0.0,0.0,0.0,0.0,0.0,-11.9,21.14762154024641,0.0,21.18822562916474,0.0,-11.9,21.46,20.3,22.07,21.17,22.0,-12.12,-11.9,1337.04,-1185.69,-1671.53,1545.99,122.0,48.0,184.0,0.0,0.0,0.0,0.0,0.0,0.0,0.0,0.0,0.0,0.0,0.0,0.0,0.0,0.0
82.0,5100.0,0.0,0.0,-0.0,14284.907202560413,-9184.907202560413,0.0,6066.74617457582,0.0,6066.74617457582,0.0,0.0,0.37505037743788355,0.34792612284429064,0.6893740550776146,0.0,0.0,0.0,"[0.5401301892687798, 0.9832981752552179, 0.5417006880312911, 0.19906774076920897, 0.2709699717719758, 0.1708926182992201, 0.9266423354440576, 0.8033649567667922]",22.54,0.0,0.0,1322.2683877201207,449.0563069512407,50.57281810189208,-1662.7486601142875,-2130.49047652356,0.0,0.0,0.0,0.0,0.0,0.0,0.0,-10.0,21.54979566114571,0.0,21.330776790586448,0.0,-10.0,22.54,20.34,22.32,21.91,23.06,-9.37,-10.0,0.0,-1156.56,-1630.45,2213.24,144.0,0.0,253.0,0.0,0.0,0.0,0.0,0.0,0.0,0.0,0.0,0.0,0.0,0.0,0.0,0.0,0.0
83.0,7720.0,0.0,0.0,-1093.238763200383,17246.0926697521,-8432.853906551716,0.0,7073.75103502297,0.0,7073.75103502297,0.0,0.0,0.719391911955412,0.31785065075660796,0.6942439368409618,0.0,0.0,0.0,"[0.5401301892687798, 0.9832981752552179, 0.5417006880312911, 0.19906774076920897, 0.2709699717719758, 0.1708926182992201, 0.9266423354440576, 0.8033649567667922]",21.63,0.0,0.0,1569.186006649593,620.7860199825378,51.498841351247464,-1539.6101128667215,-698.4143023841718,1391.6680854462932,0.0,0.0,0.0,0.0,0.0,0.0,-8.5,21.32432938469792,0.0,21.399525061301947,0.0,-8.5,21.63,20.35,22.45,21.31,22.65,-7.33,-8.5,0.0,-1070.91,-1509.7,2626.54,134.0,0.0,384.0,0.0,0.0,0.0,0.0,0.0,0.0,0.0,0.0,0.0,0.0,0.0,0.0,0.0,0.0
84.0,8140.0,0.0,5568.832884854366,-5646.320128339086,19355.153013193452,0.0,0.0,10271.57570948521,0.0,0.0,0.0,10271.575709485212,0.719391911955412,0.31785065075660796,0.7193957265035631,0.0,0.0,0.0,"[0.5401301892687798, 0.9832981752552179, 0.5417006880312911, 0.19906774076920897, 0.2709699717719758, 0.1708926182992201, 0.9266423354440576, 0.8033649567667922]",22.34,0.0,0.0,1752.0968903085895,4428.958898701264,137.6190035412976,-1524.940414499502,-1577.929199322937,-2902.2906853525033,0.0,0.0,0.0,0.0,0.0,0.0,-7.5,21.614458551188793,0.0,21.531942812857377,0.0,-7.5,22.34,20.39,22.67,21.82,23.3,-5.98,-7.5,2734.72,-1060.7,-1495.32,2932.7,144.0,0.0,3167.0,0.0,0.0,0.0,0.0,0.0,0.0,0.0,0.0,0.0,0.0,0.0,0.0,0.0,0.0
85.0,4142.0,0.0,12986.043386217505,-0.0,17128.043386217505,0.0,0.0,11483.457349279179,0.0,-12840.381072088585,0.0,24323.838421367764,0.719391911955412,0.3702822068009697,0.7193957265035631,0.0,0.0,0.0,"[0.5401301892687798, 0.9832981752552179, 0.5417006880312911, 0.19906774076920897, 0.2709699717719758, 0.1708926182992201, 0.9266423354440576, 0.8033649567667922]",22.54,0.0,0.0,1638.3612391442452,49.16832302779712,1.075381837961082,-1519.673133948895,-1686.9664865355066,1418.4883041000421,0.0,0.0,0.0,0.0,0.0,0.0,-7.2,21.759135653216582,0.0,21.67056707356202,0.0,-7.2,22.54,20.45,22.89,21.87,23.45,-5.87,-7.2,0.0,-1057.04,-1490.16,2742.33,0.0,0.0,36.0,0.0,0.0,0.0,0.0,0.0,0.0,0.0,0.0,0.0,0.0,0.0,0.0,0.0,0.0
86.0,3906.0,0.0,0.0,-0.0,14218.104809255217,-6872.034809255218,0.0,8331.040159637321,17200.35,22091.32015963732,0.0,0.0,1.0,0.27635652585013076,0.7193957265035631,13760.279999999999,3440.0699999999997,17200.35,"[0.5401301892687798, 0.9832981752552179, 0.5417006880312911, 0.19906774076920897, 0.2709699717719758, 0.1708926182992201, 0.9266423354440576, 0.8033649567667922]",22.54,0.0,0.0,1525.7842814189933,73.75248454169568,1.613072756941623,-1545.222335049858,-1500.3500426841435,1347.470161546897,0.0,0.0,0.0,0.0,0.0,0.0,-7.7,21.849641457802186,0.0,21.812503531601926,0.0,-7.7,22.54,20.52,23.11,22.01,23.63,-6.8,-7.7,0.0,-1074.81,-1515.21,2553.89,0.0,0.0,54.0,0.0,0.0,0.0,0.0,0.0,0.0,0.0,0.0,0.0,0.0,0.0,0.0,0.0,0.0
87.0,5219.0,0.0,0.0,-0.0,0.7715098418505906,5218.22849015815,0.0,12069.925857164653,0.0,12069.925857164653,0.0,0.0,0.778136543785793,0.2250388138723899,0.7193957265035631,0.0,0.0,0.0,"[0.5401301892687798, 0.9832981752552179, 0.5417006880312911, 0.19906774076920897, 0.2709699717719758, 0.1708926182992201, 0.9266423354440576, 0.8033649567667922]",22.54,0.0,0.0,27.83424128223242,73.75248454169568,1.613072756941623,-1632.0896187931319,-1361.389303245957,2888.4704913327505,0.0,0.0,0.0,0.0,0.0,0.0,-9.4,21.920293551712717,0.0,21.92139509336915,0.0,-9.4,22.54,20.58,23.26,22.04,23.65,-10.72,-9.4,1763.77,-1135.23,-1600.39,46.59,0.0,0.0,54.0,0.0,0.0,0.0,0.0,0.0,0.0,0.0,0.0,0.0,0.0,0.0,0.0,0.0,0.0
88.0,3380.0,8857.679160230711,0.0,-0.0,0.0,-5433.390764429559,0.0,8026.386580380124,0.0,8026.386580380124,0.0,0.0,1.0,0.1909130205884608,0.7193957265035631,0.0,0.0,0.0,"[0.5401301892687798, 0.9832981752552179, 0.5417006880312911, 0.19906774076920897, 0.2709699717719758, 0.1708926182992201, 0.9266423354440576, 0.8033649567667922]",22.54,0.0,0.0,0.0,109.55047411456552,41.103483584290316,-1621.8699383527464,-1368.205571816065,590.8205618270199,0.0,0.0,0.0,0.0,0.0,0.0,-9.2,21.91696773074151,0.0,21.909290005494206,0.0,-9.2,22.54,20.6,23.21,21.89,23.09,-10.66,-9.2,0.0,-1128.12,-1590.37,0.0,116.0,11.0,18.0,0.0,0.0,0.0,0.0,0.0,0.0,0.0,0.0,0.0,0.0,0.0,0.0,0.0,0.0
89.0,3793.0,0.0,9525.080597661396,-0.0,0.0,13318.080597661396,0.0,16206.694862332875,0.0,0.0,0.0,16206.694862332875,0.43375507663004276,0.1909130205884608,0.7089597339247133,0.0,0.0,0.0,"[0.5401301892687798, 0.9832981752552179, 0.5417006880312911, 0.19906774076920897, 0.2709699717719758, 0.1708926182992201, 0.9266423354440576, 0.8033649567667922]",21.46,0.0,0.0,0.0,174.96447112523128,101.14563620378418,-1556.4506786070447,73.67913980055181,3462.6241991583647,0.0,0.0,0.0,0.0,0.0,0.0,-9.0,21.527373841352016,0.0,21.787598978142483,0.0,-9.0,21.46,20.57,23.0,21.21,22.35,-10.38,-9.0,0.0,-1082.62,-1526.22,0.0,155.0,100.0,36.0,0.0,0.0,0.0,0.0,0.0,0.0,0.0,0.0,0.0,0.0,0.0,0.0,0.0,0.0
90.0,7295.0,73978.11822598746,52446.00502171571,-0.0,0.0,-13867.22261314181,0.0,10235.580105421624,0.0,-80000.0,0.0,90235.58010542163,1.0,0.5175796872551275,0.6588669695462347,0.0,0.0,0.0,"[0.5401301892687798, 0.9832981752552179, 0.5417006880312911, 0.19906774076920897, 0.2709699717719758, 0.1708926182992201, 0.9266423354440576, 0.8033649567667922]",22.54,0.0,0.0,0.0,283.14915848902467,133.25773275401096,-1601.4305774719764,-1521.1959944829343,2713.1161291298195,0.0,0.0,0.0,0.0,0.0,0.0,-8.8,21.843011654322343,0.0,21.78299437922568,0.0,-8.8,22.54,20.59,22.97,21.95,23.04,-10.14,-8.8,17.4,-1113.91,-1570.32,0.0,143.0,162.0,115.0,0.0,0.0,0.0,0.0,0.0,0.0,0.0,0.0,0.0,0.0,0.0,0.0,0.0,0.0
91.0,6415.0,0.0,5092.963704520133,-0.0,0.0,11507.963704520134,0.0,8811.21324299927,0.0,0.0,0.0,8811.21324299927,0.5107158288894501,0.5175796872551275,0.6588669695462347,0.0,0.0,0.0,"[0.5401301892687798, 0.9832981752552179, 0.5417006880312911, 0.19906774076920897, 0.2709699717719758, 0.1708926182992201, 0.9266423354440576, 0.8033649567667922]",22.54,0.0,0.0,0.0,405.4948979529292,121.24930223011219,-1596.3207372517836,-1497.7870866276394,2573.6386033261665,0.0,0.0,0.0,0.0,0.0,0.0,-8.7,21.85410268368831,0.0,21.79578251683052,0.0,-8.7,22.54,20.62,22.97,21.9,22.97,-10.0,-8.7,0.0,-1110.35,-1565.31,0.0,144.0,134.0,207.0,0.0,0.0,0.0,0.0,0.0,0.0,0.0,0.0,0.0,0.0,0.0,0.0,0.0,0.0
92.0,6736.0,6769.849246231156,0.0,-0.0,0.0,0.0,0.0,4700.931525146852,0.0,4700.931525146852,0.0,0.0,0.22432127106632088,0.4776057797283686,0.6226888619395557,0.0,0.0,0.0,"[0.5401301892687798, 0.9832981752552179, 0.5273269268948617, 0.19906774076920897, 0.2709699717719758, 0.17089261829925206, 0.9266423354440576, 0.6726591415098042]",22.54,0.0,0.0,0.0,461.4202712213885,109.95779293152083,-1586.1010568113986,-1480.504112635392,250.18951155823333,0.0,0.0,0.0,0.0,0.0,0.0,-8.5,21.862162261477604,0.0,21.804009544492633,0.0,-8.5,22.54,20.64,22.96,21.89,22.95,-9.77,-8.5,58.98,-1103.24,-1555.29,0.0,130.0,118.0,257.0,0.0,0.0,0.0,0.0,0.0,0.0,0.0,0.0,0.0,0.0,0.0,0.0,0.0,0.0
93.0,4549.0,20652.261306532662,0.0,-0.0,0.0,-16000.0,0.0,7414.358505115453,0.0,7414.358505115453,0.0,0.0,0.8776546043996543,0.4460821466283879,0.6164272663922459,0.0,0.0,0.0,"[0.5401301892687798, 0.9832981752552179, 0.5273269268948617, 0.19906774076920897, 0.2709699717719758, 0.17089261829925206, 0.9266423354440576, 0.6726591415098042]",21.46,0.0,0.0,0.0,364.01811083737516,87.1059288748478,-1520.6817970656964,-21.00663179591737,1095.0723567769962,0.0,0.0,0.0,0.0,0.0,0.0,-8.3,21.4810770430596,0.0,21.697726229859157,0.0,-8.3,21.46,20.61,22.78,21.2,22.21,-9.53,-8.3,423.79,-1057.74,-1491.14,0.0,155.0,66.0,178.0,0.0,0.0,0.0,0.0,0.0,0.0,0.0,0.0,0.0,0.0,0.0,0.0,0.0,0.0
94.0,3289.0,6316.797758597372,0.0,-0.0,0.0,-2996.2137698043853,0.0,14263.356894114933,0.0,14263.356894114931,0.0,0.0,1.0,0.38543862241871557,0.6164272663922459,0.0,0.0,0.0,"[0.5401301892687798, 0.9832981752552179, 0.5273269268948617, 0.19906774076920897, 0.2709699717719758, 0.17089261829925206, 0.9266423354440576, 0.6726591415098042]",21.46,0.0,0.0,0.0,502.4657572577512,53.470374720842784,-1510.4621166253114,-157.10465914652252,1114.3978804370793,0.0,0.0,0.0,0.0,0.0,0.0,-8.1,21.41552050683713,0.0,21.592741828348508,0.0,-8.1,21.46,20.57,22.61,21.24,22.2,-9.3,-8.1,4137.48,-1050.63,-1481.12,0.0,84.0,35.0,320.0,0.0,0.0,0.0,0.0,0.0,0.0,0.0,0.0,0.0,0.0,0.0,0.0,0.0,0.0
95.0,2134.0,0.0,0.0,-0.0,0.0,2134.0,0.0,13042.360126570447,0.0,13042.360126570446,0.0,0.0,0.9092687074829933,0.32998641099622217,0.6164272663922459,0.0,0.0,0.0,"[0.5401301892687798, 0.9832981752552179, 0.5273269268948617, 0.19906774076920897, 0.2709699717719758, 0.17089261829925206, 0.9266423354440576, 0.6726591415098042]",21.46,0.0,0.0,0.0,319.88163373347544,46.89859682219171,-1500.242436184926,-280.6972434223084,1416.5865783983943,0.0,0.0,0.0,0.0,0.0,0.0,-7.9,21.35596642528335,0.0,21.498130583900487,0.0,-7.9,21.46,20.53,22.46,21.2,22.1,-9.07,-7.9,0.0,-1043.52,-1471.1,0.0,141.0,0.0,160.0,0.0,0.0,0.0,0.0,0.0,0.0,0.0,0.0,0.0,0.0,0.0,0.0,0.0,0.0
96.0,2365.0,55728.75870946,50863.12407876152,-0.0,0.0,-2221.990837151185,0.0,14785.572752256747,0.0,-80000.0,0.0,94785.57275225673,1.0,0.6566530776628889,0.6164272663922459,0.0,0.0,0.0,"[0.5401301892687798, 0.9832981752552179, 0.5273269268948617, 0.19906774076920897, 0.2709699717719758, 0.17089261829925206, 0.9266423354440576, 0.6726591415098042]",21.46,0.0,0.0,0.0,109.40670708816845,25.03249945031634,-1469.5833948637705,-379.97126837429727,1716.4109563127392,0.0,0.0,0.0,0.0,0.0,0.0,-7.3,21.307743685182533,0.0,21.422167067406594,0.0,-7.3,21.46,20.5,22.35,21.2,22.06,-8.5,-7.3,4633.16,-1022.2,-1441.04,0.0,80.0,0.0,38.0,0.0,0.0,0.0,0.0,0.0,0.0,0.0,0.0,0.0,0.0,0.0,0.0,0.0,0.0
97.0,1947.0,0.0,7411.6681087367715,-0.0,0.0,9358.668108736772,0.0,14306.559453688806,0.0,0.0,0.0,14306.559453688806,0.6020974443564298,0.6566530776628889,0.6164272663922459,0.0,0.0,0.0,"[0.5401301892687798, 0.9832981752552179, 0.5273269268948617, 0.19906774076920897, 0.2709699717719758, 0.17089261829925206, 0.9266423354440576, 0.6726591415098042]",21.46,0.0,0.0,0.0,132.62508185129482,25.540318651575735,-1433.8145133224223,-458.72541765500927,1735.6963111061134,0.0,0.0,0.0,0.0,0.0,0.0,-6.6,21.26922747687673,0.0,21.361855826774807,0.0,-6.6,21.46,20.47,22.26,21.19,22.04,-7.79,-6.6,19.26,-997.32,-1405.96,0.0,80.0,0.0,55.0,0.0,0.0,0.0,0.0,0.0,0.0,0.0,0.0,0.0,0.0,0.0,0.0,0.0,0.0
98.0,1059.0,0.0,0.0,-0.0,0.0,1059.0,0.0,16841.69621293152,0.0,16841.69621293152,0.0,0.0,0.5570719341523481,0.5850472264174318,0.6164272663922452,0.0,0.0,0.0,"[0.5401301892687798, 0.9832981752552179, 0.5273269268948617, 0.19906774076920897, 0.2709699717719758, 0.17089261829925206, 0.9266423354440576, 0.6726591415098042]",21.46,0.0,0.0,0.0,140.81980235592772,25.719548957902585,-1398.0456317810742,-526.1517577280056,4009.7173016718407,0.0,0.0,0.0,0.0,0.0,0.0,-5.9,21.236123913972225,0.0,21.310110747674425,0.0,-5.9,21.46,20.44,22.18,21.18,21.99,-7.05,-5.9,1265.36,-972.44,-1370.89,0.0,80.0,0.0,61.0,0.0,0.0,0.0,0.0,0.0,0.0,0.0,0.0,0.0,0.0,0.0,0.0,0.0,0.0
99.0,538.0,4798.3248154246685,0.0,-0.0,0.0,-4236.333191347545,0.0,14506.773013047097,0.0,14506.773013047097,0.0,0.0,0.7300555394657062,0.5233687697293063,0.6164272663922452,0.0,0.0,0.0,"[0.5401301892687798, 0.9832981752552179, 0.5273269268948617, 0.19906774076920897, 0.2709699717719758, 0.17089261829925206, 0.9266423354440576, 0.6726591415098042]",22.54,0.0,0.0,0.0,99.84619983276346,24.82339742626835,-1432.8058502056208,-2029.254487568407,3338.675418532329,0.0,0.0,0.0,0.0,0.0,0.0,-5.5,21.595628999991042,0.0,21.378473695526484,0.0,-5.5,22.54,20.47,22.28,21.85,22.67,-6.64,-5.5,5045.11,-996.62,-1404.98,0.0,80.0,0.0,31.0,0.0,0.0,0.0,0.0,0.0,0.0,0.0,0.0,0.0,0.0,0.0,0.0,0.0,0.0
100.0,581.0,0.0,8436.306288233412,-0.0,0.0,9017.306288233412,0.0,17571.20751332813,0.0,0.0,0.0,17571.207513328132,0.3466666666666667,0.5233687697293063,0.6164272663922452,0.0,0.0,0.0,"[0.5401301892687798, 0.9832981752552179, 0.5273269268948617, 0.19906774076920897, 0.2709699717719758, 0.17089261829925206, 0.9266423354440576, 0.6726591415098042]",22.54,0.0,0.0,0.0,120.33300109434559,25.27147319208547,-1407.256649104658,-1924.8904775479027,937.1223123258601,0.0,0.0,0.0,0.0,0.0,0.0,-5.0,21.645187582329182,0.0,21.45466479832787,0.0,-5.0,22.54,20.52,22.39,21.82,22.66,-6.11,-5.0,3983.9,-978.85,-1379.92,0.0,80.0,0.0,46.0,0.0,0.0,0.0,0.0,0.0,0.0,0.0,0.0,0.0,0.0,0.0,0.0,0.0,0.0
101.0,1894.0,17983.91959798995,0.0,-0.0,0.0,-16000.0,0.0,7002.166904950448,0.0,7002.166904950447,0.0,0.0,1.0,0.4935976519361497,0.6164272663922452,0.0,0.0,0.0,"[0.5401301892687798, 0.9832981752552179, 0.5273269268948617, 0.19906774076920897, 0.2709699717719758, 0.17089261829925206, 0.9266423354440576, 0.6726591415098042]",21.46,0.0,0.0,0.0,121.69878784511774,25.30134490980661,-1331.6177089185705,-388.5265771160825,1574.4535663732142,0.0,0.0,0.0,0.0,0.0,0.0,-4.6,21.300646005811785,0.0,21.40752129609664,0.0,-4.6,21.46,20.51,22.31,21.14,21.98,-5.54,-4.6,940.47,-926.23,-1305.75,0.0,80.0,0.0,47.0,0.0,0.0,0.0,0.0,0.0,0.0,0.0,0.0,0.0,0.0,0.0,0.0,0.0,0.0
102.0,1681.0,12506.680596940269,10763.147193955567,-0.0,0.0,0.0,0.0,23135.82941808026,0.0,0.0,0.0,23135.82941808026,1.0,0.4935976519361497,0.6164272663922452,0.0,0.0,0.0,"[0.5401301892687798, 0.9832981752552179, 0.5273269268948617, 0.19906774076920897, 0.2709699717719758, 0.17089261829925206, 0.9266423354440576, 0.6726591415098042]",21.46,0.0,0.0,0.0,42.33938927393641,0.9260232493553745,-1316.288188257993,-460.3325899303248,3984.131497066544,0.0,0.0,0.0,0.0,0.0,0.0,-4.3,21.265907165913397,0.0,21.351743637053957,0.0,-4.3,21.46,20.49,22.22,21.19,22.0,-5.26,-4.3,4084.16,-915.57,-1290.72,0.0,0.0,0.0,31.0,0.0,0.0,0.0,0.0,0.0,0.0,0.0,0.0,0.0,0.0,0.0,0.0,0.0,0.0
103.0,1311.0,1317.5879396984924,0.0,-0.0,0.0,0.0,0.0,18685.06918662825,0.0,18685.06918662825,0.0,0.0,1.0,0.41415433056443096,0.6164272663922452,0.0,0.0,0.0,"[0.5401301892687798, 0.9832981752552179, 0.5273269268948617, 0.19906774076920897, 0.2709699717719758, 0.17089261829925206, 0.9266423354440576, 0.6726591415098042]",22.54,0.0,0.0,0.0,156.9935928255978,40.506049229867486,-1356.1582469027321,-1965.7366282283558,3126.4915307789943,0.0,0.0,0.0,0.0,0.0,0.0,-4.0,21.624401384563118,0.0,21.417551592889442,0.0,-4.0,22.54,20.52,22.31,21.87,22.68,-4.94,-4.0,2506.88,-943.3,-1329.82,0.0,131.0,0.0,46.0,0.0,0.0,0.0,0.0,0.0,0.0,0.0,0.0,0.0,0.0,0.0,0.0,0.0,0.0
104.0,762.0,765.8291457286432,0.0,-0.0,0.0,0.0,0.0,5807.716965505996,0.0,5807.716965505996,0.0,0.0,1.0,0.36476898221829157,0.6164272663922452,0.0,0.0,0.0,"[0.5401301892687798, 0.9832981752552179, 0.5273269268948617, 0.19906774076920897, 0.2709699717719758, 0.17089261829927338, 0.9266423354440576, 0.6726591415098042]",22.54,0.0,0.0,1.3047104469032922,173.45491734806208,41.432072479222875,-1340.828726242154,-1865.5360979046131,741.500416637688,0.0,0.0,0.0,0.0,0.0,0.0,-3.7,21.672139874064708,0.0,21.490027296731817,0.0,-3.7,22.54,20.57,22.41,21.83,22.65,-4.59,-3.7,0.0,-932.64,-1314.78,2.18,133.0,0.0,57.0,0.0,0.0,0.0,0.0,0.0,0.0,0.0,0.0,0.0,0.0,0.0,0.0,0.0,0.0
105.0,1138.0,0.0,0.0,-0.0,5.4413611965551105,1132.5586388034449,0.0,10635.665249534346,0.0,10635.665249534348,0.0,0.0,0.9518469966495134,0.3195493170417,0.6164272663922452,0.0,0.0,0.0,"[0.5401301892687798, 0.9832981752552179, 0.5273269268948617, 0.19906774076920897, 0.2709699717719758, 0.17089261829927338, 0.9266423354440576, 0.6726591415098042]",21.46,0.0,0.0,37.34883706799595,282.50220687023784,52.872940366419954,-1208.9815436339486,-329.59909130449796,3416.802674943691,0.0,0.0,0.0,0.0,0.0,0.0,-2.2,21.326206317242587,0.0,21.440070788592877,0.0,-2.2,21.46,20.56,22.32,21.16,21.98,-2.84,-2.2,894.7,-840.93,-1185.5,62.52,165.0,0.0,120.0,0.0,0.0,0.0,0.0,0.0,0.0,0.0,0.0,0.0,0.0,0.0,0.0,0.0,0.0
106.0,1309.0,0.0,0.0,-0.0,18.561467960557874,1290.4385320394422,0.0,23819.526575214677,0.0,23819.526575214677,0.0,0.0,0.8969814128042991,0.21827581969810017,0.6164272663922447,0.0,0.0,0.0,"[0.5401301892687798, 0.9832981752552179, 0.5273269268948617, 0.19906774076920897, 0.2709699717719758, 0.17089261829927338, 0.9266423354440576, 0.6726591415098042]",22.54,0.0,0.0,47.59951933958972,183.01542460346704,4.00281017463292,-1213.0827207373395,-1845.1956439206976,2820.6462499840586,0.0,0.0,0.0,0.0,0.0,0.0,-1.2,21.67901393954658,0.0,21.495296254409478,0.0,-1.2,22.54,20.6,22.39,21.89,22.7,-1.73,-1.2,4680.16,-843.78,-1189.52,79.67,0.0,0.0,134.0,0.0,0.0,0.0,0.0,0.0,0.0,0.0,0.0,0.0,0.0,0.0,0.0,0.0,0.0
107.0,1938.0,0.0,0.0,-0.0,216.71197110773414,1721.2880288922659,0.0,18019.233297492654,0.0,18019.233297492658,0.0,0.0,0.8237973979704443,0.1416634332291688,0.6164272663922447,0.0,0.0,0.0,"[0.5401301892687798, 0.9832981752552179, 0.5273269268948617, 0.19906774076920897, 0.2709699717719758, 0.17089261829927338, 0.9266423354440576, 0.6726591415098042]",22.54,0.0,0.0,88.36937148144035,64.19197728629068,1.4039707328936342,-1146.6547978748358,-1749.6611194175387,2736.474002092754,0.0,0.0,0.0,0.0,0.0,0.0,0.1,21.72340778818015,0.0,21.560756550874245,0.0,0.1,22.54,20.65,22.47,21.85,22.67,-0.29,0.1,2686.97,-797.58,-1124.38,147.91,0.0,0.0,47.0,0.0,0.0,0.0,0.0,0.0,0.0,0.0,0.0,0.0,0.0,0.0,0.0,0.0,0.0
108.0,2270.0,0.0,0.0,-0.0,530.2973122603104,1739.7026877396897,0.0,12947.15946642173,0.0,12947.15946642173,0.0,0.0,0.7498304469611037,0.08661598651819205,0.6164272663922447,0.0,0.0,0.0,"[0.5401301892687798, 0.9832981752552179, 0.5273269268948617, 0.19906774076920897, 0.2709699717719758, 0.17089261829927338, 0.9266423354440576, 0.6726591415098042]",22.54,0.0,0.0,114.39520677077077,45.07096277548069,0.9857666847976596,-1090.4465554527173,-1656.419979192164,2578.779321859385,0.0,0.0,0.0,0.0,0.0,0.0,1.2,21.767092443605645,0.0,21.624210004915923,0.0,1.2,22.54,20.7,22.55,21.88,22.72,0.77,1.2,0.0,-758.48,-1069.27,191.48,0.0,0.0,33.0,0.0,0.0,0.0,0.0,0.0,0.0,0.0,0.0,0.0,0.0,0.0,0.0,0.0,0.0
109.0,3341.0,0.0,0.0,-0.0,564.3975068139447,2776.602493186055,0.0,8816.434466204184,0.0,8816.434466204184,0.0,0.0,0.6317776198698598,0.049131146100657254,0.6164272663922447,0.0,0.0,0.0,"[0.5401301892687798, 0.9832981752552179, 0.5273269268948617, 0.19906774076920897, 0.2709699717719758, 0.17089261829927338, 0.9266423354440576, 0.6726591415098042]",22.54,0.0,0.0,120.70690818774663,184.30932784104067,51.85730196390116,-1049.5678336911762,-1570.0246816751473,6.55664961425173,0.0,0.0,0.0,0.0,0.0,0.0,2.0,21.80774477858138,0.0,21.682264051525266,0.0,2.0,22.54,20.76,22.61,21.9,22.76,1.58,2.0,444.29,-730.05,-1029.18,202.04,169.0,0.0,46.0,0.0,0.0,0.0,0.0,0.0,0.0,0.0,0.0,0.0,0.0,0.0,0.0,0.0,0.0
110.0,3679.0,3546.352361862491,0.0,-0.0,150.37939994682185,0.0,0.0,10696.567655576648,0.0,10696.567655576648,0.0,0.0,0.6317776198698598,0.003652542122865386,0.6164272663922447,0.0,0.0,0.0,"[0.5401301892687798, 0.9832981752552179, 0.5273269268948617, 0.19906774076920897, 0.2709699717719758, 0.17089261829927338, 0.9266423354440576, 0.6726591415098042]",21.46,0.0,0.0,91.37054294255219,146.1391823326192,3.1962737961621084,-979.0387337252818,-48.41518505606835,780.7555154382641,0.0,0.0,0.0,0.0,0.0,0.0,2.3,21.456606995175193,0.0,21.620954776169054,0.0,2.3,21.46,20.76,22.49,21.23,22.06,1.67,2.3,4333.82,-680.99,-960.02,152.94,0.0,0.0,107.0,0.0,0.0,0.0,0.0,0.0,0.0,0.0,0.0,0.0,0.0,0.0,0.0,0.0,0.0
111.0,2042.0,0.0,6035.442616545834,-0.0,0.06296077995896553,8077.379655765875,0.0,16425.6967718911,0.0,0.0,0.0,16425.696771891104,0.2883516140975012,0.003652542122865386,0.6164272663922447,0.0,0.0,0.0,"[0.5401301892687798, 0.9832981752552179, 0.5273269268948617, 0.19906774076920897, 0.2709699717719758, 0.17089261829927338, 0.9266423354440576, 0.6726591415098042]",21.46,0.0,0.0,22.691163304977206,62.82619053551855,1.3740990151724932,-1009.6977750464375,-139.3561289681224,3311.4190601576615,0.0,0.0,0.0,0.0,0.0,0.0,1.7,21.41387224008737,0.0,21.54950888455198,0.0,1.7,21.46,20.74,22.36,21.26,22.04,0.77,1.7,0.0,-702.32,-990.09,37.98,0.0,0.0,46.0,0.0,0.0,0.0,0.0,0.0,0.0,0.0,0.0,0.0,0.0,0.0,0.0,0.0,0.0
112.0,2330.0,104322.02001635049,0.0,-0.0,0.0,0.0,0.0,11323.368924641807,0.0,-80000.0,0.0,0.0,0.2883516140975012,0.3303192087895321,0.6094699380063449,405881.63966507494,101470.40991626873,507352.04958134366,"[0.5401301892687798, 0.9832981752552179, 0.5273269268948617, 0.19906774076920897, 0.2709699717719758, 0.17089261829927338, 0.9266423354440576, 0.6726591415098042]",22.54,0.0,0.0,0.0,62.82619053551855,1.3740990151724932,-1105.7760761132952,-1666.5643969663133,2708.211296872844,0.0,0.0,0.0,0.0,0.0,0.0,0.9,21.76317786384454,0.0,21.598675014823506,0.0,0.9,22.54,20.78,22.42,21.95,22.69,-0.18,0.9,4336.72,-769.14,-1084.3,0.0,0.0,0.0,46.0,0.0,0.0,0.0,0.0,0.0,0.0,0.0,0.0,0.0,0.0,0.0,0.0,0.0,0.0
113.0,5300.0,10413.468881712572,0.0,-0.0,0.0,-5061.401537304009,0.0,7789.364162091814,0.0,7789.364162091814,0.0,0.0,0.4950255102040816,0.29720116388267914,0.5614643721436361,0.0,0.0,0.0,"[0.5401301892687798, 0.9832981752552179, 0.5273269268948617, 0.19906774076920897, 0.2709699717719758, 0.17089261829927338, 0.9266423354440576, 0.6726591415098042]",22.54,0.0,0.0,0.0,64.19197728629068,1.4039707328936342,-1100.6662358931023,-1585.8182883064685,2620.9612354665664,0.0,0.0,0.0,0.0,0.0,0.0,1.0,21.80186405372744,0.0,21.655834071305932,0.0,1.0,22.54,20.82,22.49,21.92,22.66,-0.11,1.0,0.0,-765.59,-1079.29,0.0,0.0,0.0,47.0,0.0,0.0,0.0,0.0,0.0,0.0,0.0,0.0,0.0,0.0,0.0,0.0,0.0,0.0
114.0,4142.0,0.0,0.0,-0.0,0.0,4142.0,0.0,2678.8581115144666,0.0,2678.858111514467,0.0,0.0,0.31892006802721085,0.28581146102760063,0.5350265242772168,0.0,0.0,0.0,"[0.5401301892687798, 0.9832981752552179, 0.5273269268948617, 0.19906774076920897, 0.2709699717719758, 0.17089261829927338, 0.9266423354440576, 0.6726591415098042]",22.54,0.0,0.0,0.0,42.33938927393641,0.9260232493553745,-1095.5563956729097,-1514.7490950996025,316.3597952677639,0.0,0.0,0.0,0.0,0.0,0.0,1.1,21.83588285168413,0.0,21.705450160190196,0.0,1.1,22.54,20.87,22.54,21.93,22.69,-0.02,1.1,0.0,-762.04,-1074.28,0.0,0.0,0.0,31.0,0.0,0.0,0.0,0.0,0.0,0.0,0.0,0.0,0.0,0.0,0.0,0.0,0.0,0.0
115.0,5810.0,0.0,0.0,-0.0,0.0,5810.0,0.0,11511.89659851002,0.0,11511.896598510019,0.0,0.0,0.07189625850340135,0.23686632242849343,0.5350265242772164,0.0,0.0,0.0,"[0.5401301892687798, 0.9832981752552179, 0.5273269268948617, 0.19906774076920897, 0.2709699717719758, 0.17089261829927338, 0.9266423354440576, 0.6726591415098042]",21.46,0.0,0.0,0.0,62.82619053551855,1.3740990151724932,-1030.1371359272077,-5.69160090746717,3222.42776781939,0.0,0.0,0.0,0.0,0.0,0.0,1.3,21.47863649465482,0.0,21.636908887856162,0.0,1.3,21.46,20.85,22.42,21.26,22.0,0.17,1.3,1764.25,-716.53,-1010.13,0.0,0.0,0.0,46.0,0.0,0.0,0.0,0.0,0.0,0.0,0.0,0.0,0.0,0.0,0.0,0.0,0.0,0.0
116.0,3611.0,3629.145728643216,0.0,-0.0,0.0,0.0,0.0,2074.890291607027,0.0,2074.890291607027,0.0,0.0,0.07189625850340135,0.25406421896959946,0.4946740196389975,0.0,0.0,0.0,"[0.5401301892687798, 0.9832981752552179, 0.5273269268948582, 0.19906774076920897, 0.2709699717719758, 0.17089261829927338, 0.7150027948296227, 0.6726591415098042]",22.54,0.0,0.0,0.0,64.19197728629068,1.4039707328936342,-1080.2268750123321,-1546.938629123518,310.91400821136233,0.0,0.0,0.0,0.0,0.0,0.0,1.4,21.82011270415877,0.0,21.674640120289475,0.0,1.4,22.54,20.88,22.47,21.99,22.71,0.3,1.4,0.0,-751.37,-1059.24,0.0,0.0,0.0,47.0,0.0,0.0,0.0,0.0,0.0,0.0,0.0,0.0,0.0,0.0,0.0,0.0,0.0,0.0
117.0,4760.0,24708.72530117256,3825.181674666694,-0.0,0.0,-16000.0,0.0,10373.917209679326,0.0,0.0,0.0,10373.917209679328,0.7252295918367346,0.25406421896959946,0.48980388976886763,0.0,0.0,0.0,"[0.5401301892687798, 0.9832981752552179, 0.5273269268948582, 0.19906774076920897, 0.2709699717719758, 0.17089261829927338, 0.7150027948296227, 0.6726591415098042]",21.46,0.0,0.0,0.0,42.33938927393641,0.9260232493553745,-1014.80761526663,-31.341908117196944,3253.660242262061,0.0,0.0,0.0,0.0,0.0,0.0,1.6,21.46600491695369,0.0,21.611662468745177,0.0,1.6,21.46,20.86,22.36,21.26,21.96,0.48,1.6,0.0,-705.87,-995.1,0.0,0.0,0.0,31.0,0.0,0.0,0.0,0.0,0.0,0.0,0.0,0.0,0.0,0.0,0.0,0.0,0.0,0.0
118.0,2919.0,9696.553990276247,0.0,-0.0,0.0,-6729.071220324866,0.0,2247.6791695375305,0.0,2247.6791695375305,0.0,0.0,1.0,0.2445077599154433,0.48980388976886763,0.0,0.0,0.0,"[0.5401301892687798, 0.9832981752552179, 0.5273269268948582, 0.19906774076920897, 0.2709699717719758, 0.17089261829927338, 0.7150027948296227, 0.6726591415098042]",22.54,0.0,0.0,0.0,64.47951133908482,2.4793525708547195,-1064.8973543517545,-1565.937808602675,313.27640506051694,0.0,0.0,0.0,0.0,0.0,0.0,1.7,21.810741844574626,0.0,21.655053306095624,0.0,1.7,22.54,20.89,22.42,22.0,22.69,0.55,1.7,2780.11,-740.71,-1044.21,0.0,0.0,2.0,47.0,0.0,0.0,0.0,0.0,0.0,0.0,0.0,0.0,0.0,0.0,0.0,0.0,0.0,0.0
119.0,1691.0,1628.4543599226029,12447.431577696672,-0.0,0.0,12518.119489573683,0.0,16528.049403242785,0.0,-17585.460341899765,0.0,34113.509745142546,0.4677670285045204,0.316315056311534,0.47658496583565796,0.0,0.0,0.0,"[0.5401301892687798, 0.9832981752552179, 0.5273269268948582, 0.19906774076920897, 0.2709699717719758, 0.17089261829927338, 0.7150027948296227, 0.6726591415098042]",21.46,0.0,0.0,0.0,205.44308072140961,41.28271389061717,-999.4780946060523,-45.45004683895048,800.3388390350952,0.0,0.0,0.0,0.0,0.0,0.0,1.9,21.458958770961573,0.0,21.596199276064667,0.0,1.9,21.46,20.88,22.31,21.26,21.94,0.75,1.9,2294.32,-695.21,-980.06,0.0,130.0,0.0,82.0,0.0,0.0,0.0,0.0,0.0,0.0,0.0,0.0,0.0,0.0,0.0,0.0,0.0,0.0
120.0,1878.0,0.0,2528.8805104263206,-0.0,0.0,4406.880510426321,0.0,6834.231552854002,0.0,0.0,0.0,6834.231552854001,0.28039965986394555,0.316315056311534,0.474497767319888,0.0,0.0,0.0,"[0.5401301892687798, 0.9832981752552179, 0.5273269268948582, 0.19906774076920897, 0.2709699717719758, 0.17089261829927338, 0.7150027948296227, 0.6726591415098042]",21.46,0.0,0.0,0.0,120.33300109434559,25.27147319208547,-1019.9174554868226,-134.38456183601755,3260.7336173791077,0.0,0.0,0.0,0.0,0.0,0.0,1.5,21.416754726181143,0.0,21.528671716142753,0.0,1.5,21.46,20.85,22.21,21.3,21.94,0.28,1.5,0.0,-709.42,-1000.11,0.0,80.0,0.0,46.0,0.0,0.0,0.0,0.0,0.0,0.0,0.0,0.0,0.0,0.0,0.0,0.0,0.0,0.0
121.0,1526.0,1533.6683417085428,0.0,-0.0,0.0,0.0,0.0,14153.76044290426,0.0,14153.76044290426,0.0,0.0,0.28039965986394555,0.2561375034080295,0.474497767319888,0.0,0.0,0.0,"[0.5401301892687798, 0.9832981752552179, 0.5273269268948582, 0.19906774076920897, 0.2709699717719758, 0.17089261829927338, 0.7150027948296227, 0.6726591415098042]",22.54,0.0,0.0,0.0,121.69878784511774,25.30134490980661,-1090.4465554527173,-1654.9570370677513,348.98466566752904,0.0,0.0,0.0,0.0,0.0,0.0,1.2,21.768635489419026,0.0,21.58464111966896,0.0,1.2,22.54,20.88,22.29,21.99,22.62,-0.06,1.2,1599.72,-758.48,-1069.27,0.0,80.0,0.0,47.0,0.0,0.0,0.0,0.0,0.0,0.0,0.0,0.0,0.0,0.0,0.0,0.0,0.0,0.0
122.0,959.0,963.8190954773869,0.0,-0.0,0.0,0.0,0.0,14874.0784850188,0.0,14874.078485018801,0.0,0.0,0.28039965986394555,0.1928973737948543,0.474497767319888,0.0,0.0,0.0,"[0.5401301892687798, 0.9832981752552179, 0.5273269268948582, 0.19906774076920897, 0.2709699717719758, 0.17089261829927338, 0.7150027948296227, 0.6726591415098042]",21.46,0.0,0.0,0.0,114.86985409125703,25.1519863212009,-1055.6863370281708,-123.45870947781773,3291.1530966672035,0.0,0.0,0.0,0.0,0.0,0.0,0.8,21.422756133510607,0.0,21.536442158404114,0.0,0.8,21.46,20.86,22.21,21.26,21.89,-0.47,0.8,2510.76,-734.3,-1035.18,0.0,80.0,0.0,42.0,0.0,0.0,0.0,0.0,0.0,0.0,0.0,0.0,0.0,0.0,0.0,0.0,0.0,0.0
123.0,1056.0,7644.4954007517335,6550.272923747975,-0.0,0.0,0.0,0.0,17202.370279041086,0.0,0.0,0.0,17202.370279041086,0.28039965986394555,0.1928973737948543,0.474497767319888,0.0,0.0,0.0,"[0.5401301892687798, 0.9832981752552179, 0.5273269268948582, 0.19906774076920897, 0.2709699717719758, 0.17089261829927338, 0.7150027948296227, 0.6726591415098042]",22.54,0.0,0.0,0.0,177.69604462677557,26.5260853363734,-1115.9957565536804,-1645.7020402535866,2558.848463570219,0.0,0.0,0.0,0.0,0.0,0.0,0.7,21.7736056597265,0.0,21.591349403756084,0.0,0.7,22.54,20.89,22.29,22.0,22.63,-0.59,0.7,0.0,-776.25,-1094.32,0.0,80.0,0.0,88.0,0.0,0.0,0.0,0.0,0.0,0.0,0.0,0.0,0.0,0.0,0.0,0.0,0.0,0.0
124.0,1145.0,0.0,0.0,-0.0,0.0,1145.0,0.0,7129.367677398162,0.0,7129.367677398164,0.0,0.0,0.2317176870748299,0.16258543639095055,0.474497767319888,0.0,0.0,0.0,"[0.5401301892687798, 0.9832981752552179, 0.5273269268948582, 0.19906774076920897, 0.2709699717719758, 0.17089261829927338, 0.7150027948296227, 0.6726591415098042]",22.54,0.0,0.0,0.0,121.69878784511774,25.30134490980661,-1126.2154369940656,-1562.6315733697008,292.4280835108365,0.0,0.0,0.0,0.0,0.0,0.0,0.5,21.81363594408636,0.0,21.653118024818124,0.0,0.5,22.54,20.92,22.38,21.95,22.6,-0.74,0.5,0.0,-783.36,-1104.34,0.0,80.0,0.0,47.0,0.0,0.0,0.0,0.0,0.0,0.0,0.0,0.0,0.0,0.0,0.0,0.0,0.0,0.0
125.0,987.0,0.0,0.0,-0.0,0.0,987.0,0.0,7797.239519374909,0.0,7797.239519374909,0.0,0.0,0.1897534013605442,0.12943390782217967,0.47449776731988796,0.0,0.0,0.0,"[0.5401301892687798, 0.9832981752552179, 0.5273269268948582, 0.19906774076920897, 0.2709699717719758, 0.17089261829927338, 0.7150027948296227, 0.6726591415098042]",21.46,0.0,0.0,0.0,99.84619983276346,24.82339742626835,-1081.2355381291336,-43.751964480701744,1001.6025833680533,0.0,0.0,0.0,0.0,0.0,0.0,0.3,21.461493658563885,0.0,21.59510943844503,0.0,0.3,21.46,20.9,22.29,21.28,21.93,-0.95,0.3,361.86,-752.07,-1060.23,0.0,80.0,0.0,31.0,0.0,0.0,0.0,0.0,0.0,0.0,0.0,0.0,0.0,0.0,0.0,0.0,0.0,0.0
126.0,1290.0,0.0,0.0,-0.0,0.0,1290.0,0.0,7110.456769176323,0.0,7110.456769176322,0.0,0.0,0.134906462585034,0.09920237393962729,0.47449776731988796,0.0,0.0,0.0,"[0.5401301892687798, 0.9832981752552179, 0.5273269268948582, 0.19906774076920897, 0.2709699717719758, 0.17089261829927338, 0.7150027948296227, 0.6726591415098042]",21.46,0.0,0.0,0.0,154.1182522976565,39.311180521021846,-1086.3453783493246,-131.08182946055376,1026.0322350042813,0.0,0.0,0.0,0.0,0.0,0.0,0.2,21.41964693448113,0.0,21.529731833247226,0.0,0.2,21.46,20.87,22.19,21.33,21.95,-1.02,0.2,0.0,-755.63,-1065.24,0.0,127.0,0.0,46.0,0.0,0.0,0.0,0.0,0.0,0.0,0.0,0.0,0.0,0.0,0.0,0.0,0.0,0.0
127.0,2307.0,0.0,0.0,-0.0,0.0,2307.0,0.0,7315.566054755125,0.0,7315.566054755126,0.0,0.0,0.03681972789115646,0.06809877676804937,0.47449776731988796,0.0,0.0,0.0,"[0.5401301892687798, 0.9832981752552179, 0.5273269268948582, 0.19906774076920897, 0.2709699717719758, 0.17089261829927338, 0.7150027948296227, 0.6726591415098042]",21.46,0.0,0.0,0.0,166.26656602820876,43.821809896914175,-1091.4552185695188,-207.50890012294087,1091.1436400614746,0.0,0.0,0.0,0.0,0.0,0.0,0.1,21.38310353125059,0.0,21.473251797273115,0.0,0.1,21.46,20.84,22.11,21.31,21.91,-1.15,0.1,485.41,-759.18,-1070.25,0.0,142.0,0.0,47.0,0.0,0.0,0.0,0.0,0.0,0.0,0.0,0.0,0.0,0.0,0.0,0.0,0.0,0.0
128.0,866.0,35005.39591164821,0.0,-0.0,0.0,-16000.0,0.0,7139.385420834258,0.0,-9028.546618046706,0.0,0.0,0.6533333333333333,0.07461081227458764,0.47449776731988796,71857.47572835987,17964.36893208997,89821.84466044983,"[0.5401301892687798, 0.9832981752552179, 0.5273269268948582, 0.19906774076920897, 0.2709699717719758, 0.1708926182992876, 0.7150027948296227, 0.6726591415098042]",21.46,0.0,0.0,2.6255340934705265,122.4895064903016,26.16762472371971,-1086.3453783493262,-273.45974632437725,1209.6982708321866,0.0,0.0,0.0,0.0,0.0,0.0,0.2,21.351248389593405,0.0,21.424630010687274,0.0,0.2,21.46,20.81,22.04,21.3,21.88,-0.95,0.2,690.58,-755.63,-1065.24,4.39,83.0,0.0,46.0,0.0,0.0,0.0,0.0,0.0,0.0,0.0,0.0,0.0,0.0,0.0,0.0,0.0,0.0
129.0,2177.0,0.0,1904.3582609572181,-0.0,4081.358260957218,0.0,0.0,15389.120030545364,0.0,10006.630244867976,0.0,5382.489785677389,0.6533333333333333,0.03206561565525101,0.47449776731988796,0.0,0.0,0.0,"[0.5401301892687798, 0.9832981752552179, 0.5273269268948582, 0.19906774076920897, 0.2709699717719758, 0.1708926182992876, 0.7150027948296227, 0.6726591415098042]",21.46,0.0,0.0,498.77070676511,1138.6348490647754,64.52291027766502,-953.4895326243192,-323.45305281829917,1799.1650928952427,0.0,0.0,0.0,0.0,0.0,0.0,2.8,21.32390678529607,0.0,21.38330131313757,0.0,2.8,21.46,20.78,21.99,21.28,21.85,2.36,2.8,25.41,-663.22,-934.97,834.85,140.0,0.0,760.0,0.0,0.0,0.0,0.0,0.0,0.0,0.0,0.0,0.0,0.0,0.0,0.0,0.0,0.0
130.0,2315.0,0.0,364.5847176408206,-0.0,10199.146499345581,-7519.5617817047605,0.0,8659.18971825288,0.0,7541.832802115038,0.0,1117.3569161378389,0.9603821060862777,0.0,0.47449776731988796,0.0,0.0,0.0,"[0.5401301892687798, 0.9832981752552179, 0.5273269268948582, 0.19906774076920897, 0.2709699717719758, 0.1708926182992876, 0.7150027948296227, 0.6726591415098042]",22.54,0.0,0.0,935.232366262496,328.7951893700936,31.245816736313714,-880.943106424821,-1795.0121185330602,0.0,0.0,0.0,0.0,0.0,0.0,0.0,5.3,21.695802075175852,0.0,21.472763398769395,0.0,5.3,22.54,20.81,22.13,21.91,22.61,5.5,5.3,0.0,-612.76,-863.83,1565.41,85.0,0.0,196.0,0.0,0.0,0.0,0.0,0.0,0.0,0.0,0.0,0.0,0.0,0.0,0.0,0.0,0.0
131.0,5592.0,0.0,4546.093786156007,-0.0,10138.093786156007,0.0,0.0,4755.859405699955,0.0,-9826.82004388378,0.0,14582.679449583733,0.9603821060862777,0.04012618184585877,0.47449776731988796,0.0,0.0,0.0,"[0.5401301892687798, 0.9832981752552179, 0.5273269268948582, 0.19906774076920897, 0.2709699717719758, 0.1708926182992876, 0.7150027948296227, 0.6726591415098042]",21.9,0.0,0.0,845.3764685402508,155.6996895880242,3.4053758202100974,-771.7616777729139,-748.0434782750134,0.0,0.0,0.0,0.0,0.0,0.0,0.0,6.8,21.55937376681413,0.0,21.551485174127304,0.0,6.8,21.9,20.85,22.25,21.58,22.47,7.08,6.8,0.0,-536.81,-756.77,1415.01,0.0,0.0,114.0,0.0,0.0,0.0,0.0,0.0,0.0,0.0,0.0,0.0,0.0,0.0,0.0,0.0,0.0
132.0,5065.0,0.0,5869.4705314322955,-0.0,10014.059578255987,4474.4989531763085,0.0,5170.928445460855,17770.44,0.0,0.0,19387.280445460852,0.7701398036553122,0.04012618184585877,0.47449776731988796,14216.351999999999,3554.0879999999997,17770.44,"[0.5401301892687798, 0.9832981752552179, 0.5273269268948582, 0.19906774076920897, 0.2709699717719758, 0.1708926182992876, 0.7150027948296227, 0.6726591415098042]",21.68,0.0,0.0,820.259364820954,2748.609894172336,108.22523330369462,-709.2684055023071,-373.47370617831166,-847.3065506570716,0.0,0.0,0.0,0.0,0.0,0.0,7.8,21.514880780785653,0.0,21.582872119570744,0.0,7.8,21.68,20.87,22.3,21.48,22.37,8.12,7.8,0.0,-493.35,-695.49,1372.97,170.0,0.0,1923.0,0.0,0.0,0.0,0.0,0.0,0.0,0.0,0.0,0.0,0.0,0.0,0.0,0.0,0.0
133.0,2628.0,0.0,330.3655402490727,-827.7868239010509,9415.381662387375,-5629.229298237251,0.0,1103.8188831177968,0.0,0.0,0.0,1103.8188831177965,1.0,0.04012618184585877,0.47818518135362903,0.0,0.0,0.0,"[0.5401301892687798, 0.9832981752552179, 0.5273269268948582, 0.19906774076920897, 0.2709699717719758, 0.1708926182992876, 0.7150027948296227, 0.6726591415098042]",22.54,0.0,0.0,819.5880287451489,343.02812498340336,52.21576257655485,-732.7577400392361,-1542.5187269350226,0.0,0.0,0.0,0.0,0.0,0.0,0.0,8.2,21.813913001595747,0.0,21.654848200314987,0.0,8.2,22.54,20.92,22.39,21.89,22.73,8.54,8.2,0.0,-509.68,-718.52,1371.85,158.0,0.0,168.0,0.0,0.0,0.0,0.0,0.0,0.0,0.0,0.0,0.0,0.0,0.0,0.0,0.0,0.0
134.0,1523.0,0.0,1950.662915164602,-4897.204185919981,8370.867101084583,0.0,0.0,6517.564025391234,0.0,0.0,0.0,6517.564025391234,1.0,0.04012618184585877,0.49999999999999983,0.0,0.0,0.0,"[0.5401301892687798, 0.9832981752552179, 0.5273269268948582, 0.19906774076920897, 0.2709699717719758, 0.1708926182992876, 0.7150027948296227, 0.6726591415098042]",22.05,0.0,0.0,815.5586000721044,142.04182208030278,3.106658642998686,-707.9277050160681,-738.8800660020746,0.0,0.0,0.0,0.0,0.0,0.0,0.0,8.2,21.71347283139924,0.0,21.71673354810673,0.0,8.2,22.05,20.96,22.47,21.71,22.6,8.28,8.2,0.0,-492.41,-694.18,1365.1,0.0,0.0,104.0,0.0,0.0,0.0,0.0,0.0,0.0,0.0,0.0,0.0,0.0,0.0,0.0,0.0,0.0
135.0,4431.0,9966.087479353157,10859.233580301612,-0.0,5373.976538345221,0.0,0.0,2146.6754316899096,0.0,-33101.00236551039,0.0,35247.6777972003,1.0,0.17528860817169287,0.49999999999999983,0.0,0.0,0.0,"[0.5401301892687798, 0.9832981752552179, 0.5273269268948582, 0.19906774076920897, 0.2709699717719758, 0.1708926182992876, 0.7150027948296227, 0.6726591415098042]",21.85,0.0,0.0,871.9802866321667,1072.1425993561318,23.449298411095857,-748.3835501673926,-396.5157204299747,566.8161437802207,0.0,0.0,0.0,0.0,0.0,0.0,7.2,21.67066106819507,0.0,21.741697808866313,0.0,7.2,21.85,20.99,22.49,21.63,22.52,6.94,7.2,0.0,-520.55,-733.85,1459.54,0.0,0.0,785.0,0.0,0.0,0.0,0.0,0.0,0.0,0.0,0.0,0.0,0.0,0.0,0.0,0.0,0.0
136.0,4451.0,4473.366834170854,0.0,-0.0,0.0,0.0,0.0,4310.457389106513,0.0,4310.457389106513,0.0,0.0,1.0,0.15696183355814478,0.49999999999999983,0.0,0.0,0.0,"[0.5401301892687798, 0.9832981752552179, 0.5273269268948582, 0.19906774076920897, 0.2709699717719758, 0.1708926182992876, 0.7150027948296227, 0.6726591415098042]",22.54,0.0,0.0,0.0,234.9153211328085,5.13793544803629,-855.3939053238582,-1331.192628054074,1946.7991788656564,0.0,0.0,0.0,0.0,0.0,0.0,5.8,21.91954132246737,0.0,21.8107641355145,0.0,5.8,22.54,21.04,22.58,22.02,22.89,4.38,5.8,0.0,-594.99,-838.78,0.0,0.0,0.0,172.0,0.0,0.0,0.0,0.0,0.0,0.0,0.0,0.0,0.0,0.0,0.0,0.0,0.0,0.0
137.0,3222.0,6483.916335925901,3229.496754246272,-0.0,0.0,0.0,0.0,9928.351667711195,0.0,0.0,0.0,9928.351667711193,1.0,0.15696183355814478,0.41581632653061207,0.0,0.0,0.0,"[0.5401301892687798, 0.9832981752552179, 0.5273269268948582, 0.19906774076920897, 0.2709699717719758, 0.1708926182992876, 0.7150027948296227, 0.6726591415098042]",22.54,0.0,0.0,0.0,241.38483732067652,68.76469419406708,-875.8332662046286,-1283.0896898831545,1852.3321836535417,0.0,0.0,0.0,0.0,0.0,0.0,5.4,21.943040370459876,0.0,21.842417278493595,0.0,5.4,22.54,21.08,22.61,21.98,22.67,3.98,5.4,0.0,-609.2,-858.82,0.0,162.0,33.0,88.0,0.0,0.0,0.0,0.0,0.0,0.0,0.0,0.0,0.0,0.0,0.0,0.0,0.0,0.0
138.0,5107.0,5132.663316582914,0.0,-0.0,0.0,0.0,0.0,1439.581557935594,0.0,1439.581557935594,0.0,0.0,1.0,0.15084116366896283,0.40120593692022244,0.0,0.0,0.0,"[0.5401301892687798, 0.9832981752552179, 0.5273269268948582, 0.19906774076920897, 0.2709699717719758, 0.1708926182992876, 0.7150027948296227, 0.6726591415098042]",22.54,0.0,0.0,0.0,503.04082536333954,96.24667449751699,-896.2726270853989,-1235.5113055413551,361.80591807147584,0.0,0.0,0.0,0.0,0.0,0.0,5.0,21.96621990411711,0.0,21.87401095899958,0.0,5.0,22.54,21.12,22.63,22.02,22.7,3.63,5.0,0.0,-623.42,-878.86,0.0,101.0,106.0,304.0,0.0,0.0,0.0,0.0,0.0,0.0,0.0,0.0,0.0,0.0,0.0,0.0,0.0,0.0
139.0,5401.0,0.0,0.0,-0.0,0.0,5401.0,0.0,7445.970713484514,0.0,7445.970713484516,0.0,0.0,0.7703656462585035,0.11918312492115452,0.4012059369202219,0.0,0.0,0.0,"[0.5401301892687798, 0.9832981752552179, 0.5273269268948582, 0.19906774076920897, 0.2709699717719758, 0.1708926182992876, 0.7150027948296227, 0.6726591415098042]",21.98,0.0,0.0,0.0,750.9670623850825,94.18552597475826,-887.878397913874,-445.11921673523443,1668.390922885614,0.0,0.0,0.0,0.0,0.0,0.0,4.6,21.781075210816226,0.0,21.8380539807997,0.0,4.6,21.98,21.12,22.56,21.65,22.31,3.29,4.6,0.0,-617.58,-870.63,0.0,101.0,92.0,487.0,0.0,0.0,0.0,0.0,0.0,0.0,0.0,0.0,0.0,0.0,0.0,0.0,0.0,0.0
140.0,4387.0,13879.67680516331,0.0,-0.0,0.0,-9423.278421137493,0.0,4180.359459235728,0.0,4180.359459235728,0.0,0.0,0.9085787459368759,0.10140948776454003,0.4012059369202219,0.0,0.0,0.0,"[0.5401301892687798, 0.49151226559543204, 0.5273269268948582, 0.19906774076920897, 0.2709699717719758, 0.1708926182992876, 0.7150027948296227, 0.32295680220678946]",22.54,0.0,0.0,0.0,1269.3909595729085,112.34753034921211,-937.1513488469396,-1256.4083619417395,0.0,0.0,0.0,0.0,0.0,0.0,0.0,4.2,21.95687791842086,0.0,21.851712496970706,0.0,4.2,22.54,21.14,22.56,22.02,22.64,2.95,4.2,0.0,-651.85,-918.95,0.0,144.0,82.0,845.0,0.0,0.0,0.0,0.0,0.0,0.0,0.0,0.0,0.0,0.0,0.0,0.0,0.0,0.0
141.0,3510.0,3527.638190954774,0.0,-0.0,0.0,0.0,0.0,4837.8049212060905,0.0,4837.8049212060905,0.0,0.0,0.9085787459368759,0.08084058929002434,0.4012059369202219,0.0,0.0,0.0,"[0.5401301892687798, 0.49151226559543204, 0.5273269268948582, 0.19906774076920897, 0.2709699717719758, 0.1708926182992876, 0.7150027948296227, 0.32295680220678946]",22.15,0.0,0.0,0.0,974.0934873533315,76.74044282561178,-937.5380281038283,-716.3995988093229,1424.7107321010155,0.0,0.0,0.0,0.0,0.0,0.0,3.8,21.823575869277352,0.0,21.819307125866615,0.0,3.8,22.15,21.14,22.5,21.7,22.29,2.61,3.8,0.0,-652.12,-919.33,0.0,109.0,46.0,651.0,0.0,0.0,0.0,0.0,0.0,0.0,0.0,0.0,0.0,0.0,0.0,0.0,0.0,0.0
142.0,3586.0,0.0,0.0,-0.0,0.0,3586.0,0.0,10451.978420596553,0.0,10451.978420596553,0.0,0.0,0.7561127595423182,0.03640190552898458,0.4012059369202219,0.0,0.0,0.0,"[0.5401301892687798, 0.49151226559543204, 0.5273269268948582, 0.19906774076920897, 0.2709699717719758, 0.1708926182992876, 0.7150027948296227, 0.32295680220678946]",22.54,0.0,0.0,0.0,562.1290732125344,50.184485771517245,-978.0300706084805,-1275.7210297916788,1644.0347244114473,0.0,0.0,0.0,0.0,0.0,0.0,3.4,21.948363878479746,0.0,21.83281058287632,0.0,3.4,22.54,21.16,22.51,21.99,22.58,2.21,3.4,0.0,-680.29,-959.03,0.0,81.0,28.0,366.0,0.0,0.0,0.0,0.0,0.0,0.0,0.0,0.0,0.0,0.0,0.0,0.0,0.0,0.0
143.0,2560.0,3668.867821500591,1090.5234823930882,-0.0,0.0,0.0,0.0,3103.05480161319,0.0,0.0,0.0,3103.0548016131906,0.7561127595423182,0.03640190552898458,0.397031539888682,0.0,0.0,0.0,"[0.5401301892687798, 0.49151226559543204, 0.5273269268948582, 0.19906774076920897, 0.2709699717719758, 0.1708926182992876, 0.7150027948296227, 0.32295680220678946]",22.54,0.0,0.0,0.0,228.44580494494045,34.710935991966096,-998.4694314892507,-1237.9304091205317,1975.0394845779922,0.0,0.0,0.0,0.0,0.0,0.0,3.0,21.966913422587105,0.0,21.85992674248331,0.0,3.0,22.54,21.18,22.54,22.02,22.62,1.8,3.0,2161.88,-694.51,-979.08,0.0,105.0,0.0,112.0,0.0,0.0,0.0,0.0,0.0,0.0,0.0,0.0,0.0,0.0,0.0,0.0,0.0,0.0
144.0,1644.0,33920.843306361065,32107.239089829258,-0.0,0.0,0.0,0.0,9829.831595185728,0.0,-80000.0,0.0,89829.83159518574,0.7561127595423182,0.3630685721956513,0.397031539888682,0.0,0.0,0.0,"[0.5401301892687798, 0.49151226559543204, 0.5273269268948582, 0.19906774076920897, 0.2709699717719758, 0.1708926182992876, 0.7150027948296227, 0.32295680220678946]",22.54,0.0,0.0,0.0,220.1073174139105,32.79914605781306,-1024.0186325902137,-1195.0876710113007,0.0,0.0,0.0,0.0,0.0,0.0,0.0,2.5,21.987911633081467,0.0,21.891197856028406,0.0,2.5,22.54,21.2,22.58,22.06,22.68,1.37,2.5,0.0,-712.28,-1004.13,0.0,80.0,10.0,118.0,0.0,0.0,0.0,0.0,0.0,0.0,0.0,0.0,0.0,0.0,0.0,0.0,0.0,0.0
145.0,531.0,0.0,0.0,-0.0,0.0,531.0,0.0,8138.275640036136,0.0,8138.275640036136,0.0,0.0,0.7335362289300733,0.32846706012066773,0.397031539888682,0.0,0.0,0.0,"[0.5401301892687798, 0.49151226559543204, 0.5273269268948582, 0.19906774076920897, 0.2709699717719758, 0.1708926182992876, 0.7150027948296227, 0.32295680220678946]",21.6,0.0,0.0,0.0,226.8643676545727,27.60146717433448,-996.1949016031585,105.88696790175486,354.4396270587498,0.0,0.0,0.0,0.0,0.0,0.0,2.1,21.667183008422267,0.0,21.820015850154107,0.0,2.1,21.6,21.18,22.46,21.47,22.07,1.05,2.1,27.63,-692.92,-976.84,0.0,80.0,0.0,124.0,0.0,0.0,0.0,0.0,0.0,0.0,0.0,0.0,0.0,0.0,0.0,0.0,0.0,0.0
146.0,769.0,0.0,5562.482271314075,-0.0,0.0,6331.482271314075,0.0,15085.48755869205,0.0,0.0,0.0,15085.48755869205,0.46434055412930486,0.32846706012066773,0.397031539888682,0.0,0.0,0.0,"[0.5401301892687798, 0.49151226559543204, 0.5273269268948582, 0.19906774076920897, 0.2709699717719758, 0.1708926182992876, 0.7150027948296227, 0.32295680220678946]",21.46,0.0,0.0,0.0,285.59319793777473,28.885951036343556,-1014.80761526663,186.0747613986689,515.7486310584163,0.0,0.0,0.0,0.0,0.0,0.0,1.6,21.570220865801215,0.0,21.730412553573515,0.0,1.6,21.46,21.13,22.33,21.41,21.98,0.62,1.6,705.95,-705.87,-995.1,0.0,80.0,0.0,167.0,0.0,0.0,0.0,0.0,0.0,0.0,0.0,0.0,0.0,0.0,0.0,0.0,0.0,0.0
147.0,363.0,0.0,2404.689833121251,-0.0,0.0,2767.689833121251,0.0,6475.684942001417,0.0,0.0,0.0,6475.684942001417,0.3466666666666667,0.32846706012066773,0.397031539888682,0.0,0.0,0.0,"[0.5401301892687798, 0.49151226559543204, 0.5273269268948582, 0.19906774076920897, 0.2709699717719758, 0.1708926182992876, 0.7150027948296227, 0.32295680220678946]",21.46,0.0,0.0,0.0,57.50681055882704,23.897374176912972,-1025.0272957070154,77.20675065457739,1402.4577013659432,0.0,0.0,0.0,0.0,0.0,0.0,1.4,21.518196631267173,0.0,21.650142844548412,0.0,1.4,21.46,21.09,22.21,21.39,21.93,0.39,1.4,2438.13,-712.98,-1005.12,0.0,80.0,0.0,0.0,0.0,0.0,0.0,0.0,0.0,0.0,0.0,0.0,0.0,0.0,0.0,0.0,0.0,0.0
148.0,599.0,43459.00276933321,3527.339159068243,-23115.3685964183,0.0,-16000.0,0.0,9431.657572290625,0.0,0.0,0.0,9431.657572290624,1.0,0.32846706012066773,0.4999999999999999,0.0,0.0,0.0,"[0.5401301892687798, 0.49151226559543204, 0.5273269268948582, 0.19906774076920897, 0.2709699717719758, 0.1708926182992876, 0.7150027948296227, 0.32295680220678946]",21.72,0.0,0.0,0.0,183.94991027504796,34.681064274244946,-1048.3631703337908,-353.42475519984976,650.1472027052326,0.0,0.0,0.0,0.0,0.0,0.0,1.2,21.56857066640851,0.0,21.613512495836453,0.0,1.2,21.72,21.06,22.17,21.56,22.09,0.28,1.2,0.0,-729.21,-1028.0,0.0,80.0,15.0,91.0,0.0,0.0,0.0,0.0,0.0,0.0,0.0,0.0,0.0,0.0,0.0,0.0,0.0,0.0
149.0,699.0,4620.873152922258,3898.7687871576463,-0.0,0.0,0.0,0.0,10313.308814896067,0.0,0.0,0.0,10313.308814896065,1.0,0.32846706012066773,0.4999999999999999,0.0,0.0,0.0,"[0.5401301892687798, 0.49151226559543204, 0.5273269268948582, 0.19906774076920897, 0.2709699717719758, 0.1708926182992876, 0.7150027948296227, 0.32295680220678946]",21.46,0.0,0.0,0.0,62.25112242993027,41.64117450327086,-1050.5764968079782,-53.86643002884113,1002.7056734128422,0.0,0.0,0.0,0.0,0.0,0.0,0.9,21.455677436946587,0.0,21.556314849158674,0.0,0.9,21.46,21.02,22.09,21.36,21.87,0.0,0.9,1163.5,-730.75,-1030.17,0.0,80.0,33.0,0.0,0.0,0.0,0.0,0.0,0.0,0.0,0.0,0.0,0.0,0.0,0.0,0.0,0.0,0.0
150.0,702.0,0.0,3076.8495430184716,-0.0,0.0,3778.8495430184716,0.0,8109.775266543332,0.0,0.0,0.0,8109.775266543332,0.8393346282730242,0.32846706012066773,0.4999999999999999,0.0,0.0,0.0,"[0.5401301892687798, 0.49151226559543204, 0.5273269268948582, 0.19906774076920897, 0.2709699717719758, 0.1708926182992876, 0.7150027948296227, 0.32295680220678946]",21.46,0.0,0.0,0.0,236.99994301556595,68.1971315573654,-1055.6863370281708,-123.84629859285525,877.8649472256692,0.0,0.0,0.0,0.0,0.0,0.0,0.8,21.422136936513404,0.0,21.506521280633468,0.0,0.8,21.46,20.98,22.03,21.38,21.88,-0.04,0.8,2105.94,-734.3,-1035.18,0.0,149.0,39.0,91.0,0.0,0.0,0.0,0.0,0.0,0.0,0.0,0.0,0.0,0.0,0.0,0.0,0.0,0.0
151.0,1263.0,0.0,0.0,-0.0,0.0,4738.236000000001,0.0,9283.056075819177,17376.18,23184.000075819175,0.0,0.0,0.6378790160281262,0.22989563122687873,0.4999999999999999,13900.944000000001,3475.2360000000003,17376.18,"[0.5401301892687798, 0.49151226559543204, 0.5273269268948582, 0.19906774076920897, 0.2709699717719758, 0.1708926182992876, 0.7150027948296227, 0.32295680220678946]",21.46,0.0,0.0,0.0,117.02635948721304,79.21979539646652,-1065.906017468556,-189.51493085011344,1063.2746323061851,0.0,0.0,0.0,0.0,0.0,0.0,0.6,21.390801793303027,0.0,21.460330534046,0.0,0.6,21.46,20.95,21.97,21.35,21.83,-0.22,0.6,157.61,-741.41,-1045.2,0.0,150.0,64.0,0.0,0.0,0.0,0.0,0.0,0.0,0.0,0.0,0.0,0.0,0.0,0.0,0.0,0.0,0.0
