,load_elec,grid,hp_elec,ev,pv,bat_pow,cool,load_th_sh,load_th_dhw,tes_pow,dh,hp_th,bat_soc,tes_soc,ev_soc,eh_th_in,eh_elec_in,eh_th_out,temp_slack,temp_zone_1,temp_zone_2,temp_update,Qsolar_1,QconvInt_1,QradInt_1,Qvent_1,Qconduc_1,Qheating_1,Qsolar_2,QconvInt_2,QradInt_2,Qvent_2,Qconduc_2,Qheating_2,temp_amb,temp_aggregate_1,temp_aggregate_2,temp_wall_1,temp_wall_2,_Tamb,_Tz_1,_TEW_1,_TIW_1,_T1_1,_T2_1,_Taeq_1,_Tvent_1,_Qheating_1,_Qinfvent_1,_Qenvelope_1,_Qsolar_1,_Qint_people_1,_Qint_lighting_1,_Qint_appliances_1,_Tz_2,_TEW_2,_TIW_2,_T1_2,_T2_2,_Taeq_2,_Tvent_2,_Qheating_2,_Qinfvent_2,_Qenvelope_2,_Qsolar_2,_Qint_people_2,_Qint_lighting_2,_Qint_appliances_2
8.0,2160.0,34677.337204231044,32343.950518209887,-0.0,0.0,0.0,0.0,53799.072344950415,0.0,0.0,0.0,53799.07234495041,0.5,0.5,0.8,0.0,0.0,0.0,"[2.0, 2.0, 2.0, 2.0, 2.0, 2.0, 2.0, 2.0]",20.0,0.0,0.0,1.0160303286469106,154.00245525421002,99.41286237502277,-1472.9959741227121,-1115.1577921472895,10367.756544809145,0.0,0.0,0.0,0.0,0.0,0.0,-9.4,19.465865585142524,0.0,19.0,0.0,-9.4,20.0,18.0,20.0,20.0,20.0,-9.85,-9.4,10592.32,-1044.95,-1627.53,1.5,88.0,111.0,57.0,0.0,0.0,0.0,0.0,0.0,0.0,0.0,0.0,0.0,0.0,0.0,0.0,0.0,0.0
9.0,3794.0,27992.559884942413,0.0,-0.0,7.038185774257692,0.0,0.0,21659.071744162757,0.0,0.0,0.0,0.0,0.5,0.5,0.8,96262.54108516783,24065.635271291958,120328.17635645978,"[2.0, 2.0, 2.0, 2.0, 2.0, 2.0, 2.0, 2.0]",24.0,0.0,0.0,31.43381378795466,182.40656942695446,93.8918073265973,-1633.3220665442318,-6315.073542817996,0.0,0.0,0.0,0.0,0.0,0.0,0.0,-8.6,20.875610002770582,0.0,19.251017527768806,0.0,-8.6,24.0,18.1,20.4,22.67,22.43,-9.02,-8.6,0.0,-1158.69,-1804.67,46.4,112.0,88.0,68.0,0.0,0.0,0.0,0.0,0.0,0.0,0.0,0.0,0.0,0.0,0.0,0.0,0.0,0.0
10.0,3841.0,27600.476915124178,0.0,-0.0,373.52426094148575,3606.4,0.0,24841.25891234103,0.0,0.0,0.0,0.0,0.3466666666666667,0.5,0.7999999999999997,110405.59516596017,27601.398791490043,138006.9939574502,"[2.0, 2.0, 2.0, 2.0, 2.0, 2.0, 2.0, 2.0]",20.19,0.0,0.0,87.05682117914954,801.094694013433,86.50781959312032,-1392.081412157629,-908.9406756096926,5708.0778634279095,0.0,0.0,0.0,0.0,0.0,0.0,-7.6,19.75249980008219,0.0,19.287234209983286,0.0,-7.6,20.19,18.1,20.47,19.45,20.28,-8.05,-7.6,1283.62,-987.55,-1538.12,128.51,95.0,59.0,542.0,0.0,0.0,0.0,0.0,0.0,0.0,0.0,0.0,0.0,0.0,0.0,0.0,0.0,0.0
11.0,7523.0,46029.02395315795,23337.22818926708,-0.0,1061.3493558749155,-16000.0,0.0,29335.44772308733,0.0,-15266.864155714324,0.0,44602.31187880166,1.0,0.5623396953025002,0.7999999999999997,0.0,0.0,0.0,"[2.0, 2.0, 2.0, 2.0, 2.0, 2.0, 2.0, 2.0]",22.36,0.0,0.0,120.55740002912246,969.6163738819988,80.71579251777827,-1461.1807009266072,-3772.1388386751078,0.0,0.0,0.0,0.0,0.0,0.0,0.0,-6.8,20.505134725126812,0.0,19.404569202527355,0.0,-6.8,22.36,18.15,20.66,21.33,21.65,-7.23,-6.8,0.0,-1036.57,-1614.47,177.96,143.0,17.0,647.0,0.0,0.0,0.0,0.0,0.0,0.0,0.0,0.0,0.0,0.0,0.0,0.0,0.0,0.0
12.0,10497.0,0.0,0.0,-0.0,2495.0331921619545,8001.9668078380455,0.0,18667.862023192018,0.0,18667.862023192018,0.0,0.0,0.6597803227960015,0.4829695336392688,0.7999999999999997,0.0,0.0,0.0,"[2.0, 2.0, 2.0, 2.0, 2.0, 2.0, 2.0, 2.0]",20.33,0.0,0.0,181.21045068360093,711.230561084775,61.950979653804644,-1329.3719337571877,-919.1462265281723,8657.719659277976,0.0,0.0,0.0,0.0,0.0,0.0,-6.2,19.894817734786095,0.0,19.40826434655238,0.0,-6.2,20.33,18.14,20.67,19.59,20.47,-6.6,-6.2,4353.21,-943.06,-1468.84,267.5,137.0,0.0,459.0,0.0,0.0,0.0,0.0,0.0,0.0,0.0,0.0,0.0,0.0,0.0,0.0,0.0,0.0
13.0,9020.0,16224.793409110996,7559.928515538736,-0.0,436.2590734732945,0.0,0.0,14953.098439285088,0.0,0.0,0.0,14953.098439285088,0.6597803227960015,0.4829695336392688,0.7661078717201163,0.0,0.0,0.0,"[2.0, 2.0, 2.0, 2.0, 2.0, 2.0, 2.0, 2.0]",24.0,0.0,0.0,89.39690876664041,1795.3796534052597,90.33529947331711,-1508.0673068399196,-5717.653946645873,0.0,0.0,0.0,0.0,0.0,0.0,0.0,-6.1,21.17164881697489,0.0,19.62324180704104,0.0,-6.1,24.0,18.25,21.0,22.62,22.69,-6.53,-6.1,0.0,-1069.83,-1666.28,131.96,140.0,0.0,1267.0,0.0,0.0,0.0,0.0,0.0,0.0,0.0,0.0,0.0,0.0,0.0,0.0,0.0,0.0
14.0,5604.0,20237.009419988197,0.0,-0.0,4.700089250482096,-8331.910462138738,0.0,36786.183614941125,31023.07,61604.63961494113,0.0,0.0,1.0,0.22104504548050552,0.7590014577259472,24818.456000000002,6204.6140000000005,31023.07,"[2.0, 2.0, 2.0, 2.0, 2.0, 2.0, 2.0, 2.0]",21.38,0.0,0.0,27.96373950494456,791.4387048281577,20.018058488462845,-1401.6733327598038,-1958.4411651051016,7785.371464302779,0.0,0.0,0.0,0.0,0.0,0.0,-6.6,20.420804202551388,0.0,19.678934030193155,0.0,-6.6,21.38,18.28,21.08,20.18,21.06,-7.02,-6.6,8032.62,-994.35,-1548.72,41.28,0.0,0.0,591.0,0.0,0.0,0.0,0.0,0.0,0.0,0.0,0.0,0.0,0.0,0.0,0.0,0.0,0.0
15.0,3981.0,14752.164498834189,10697.403676340018,-0.0,0.0,0.0,0.0,19935.062047189032,0.0,0.0,0.0,19935.062047189032,1.0,0.22104504548050552,0.7590014577259472,0.0,0.0,0.0,"[2.0, 2.0, 2.0, 2.0, 2.0, 2.0, 2.0, 2.0]",24.0,0.0,0.0,3.0479850329489255,380.2486252157726,15.072818997235137,-1568.189591497989,-5330.093438081098,0.0,0.0,0.0,0.0,0.0,0.0,0.0,-7.3,21.3657380782406,0.0,19.87415585455289,0.0,-7.3,24.0,18.39,21.36,22.52,22.79,-7.71,-7.3,5057.08,-1112.48,-1732.71,4.5,0.0,9.0,283.0,0.0,0.0,0.0,0.0,0.0,0.0,0.0,0.0,0.0,0.0,0.0,0.0,0.0,0.0
16.0,5672.0,0.0,0.0,-0.0,0.0,5672.0,0.0,36221.11032773865,0.0,36221.11032773865,0.0,0.0,0.758843537414966,0.06704372605984799,0.757361516034985,0.0,0.0,0.0,"[2.0, 2.0, 2.0, 2.0, 2.0, 2.0, 2.0, 2.0]",20.76,0.0,0.0,0.0,1167.810838035243,105.3742469671877,-1400.7688179908448,-777.2357135508287,0.0,0.0,0.0,0.0,0.0,0.0,0.0,-7.2,20.39164504989158,0.0,19.88362194459468,0.0,-7.2,20.76,18.39,21.37,19.91,21.01,-7.59,-7.2,0.0,-993.71,-1547.72,0.0,106.0,69.0,809.0,0.0,0.0,0.0,0.0,0.0,0.0,0.0,0.0,0.0,0.0,0.0,0.0,0.0,0.0
17.0,4753.0,0.0,3505.654218449288,-0.0,0.0,8258.654218449288,0.0,6633.195635552165,0.0,0.0,0.0,6633.195635552165,0.4077102798278364,0.06704372605984799,0.7573615160349849,0.0,0.0,0.0,"[2.0, 2.0, 2.0, 2.0, 2.0, 2.0, 2.0, 2.0]",20.3,0.0,0.0,0.0,597.1207326836006,156.75731757124544,-1367.8482147775371,-242.32737284106975,269.6825873056493,0.0,0.0,0.0,0.0,0.0,0.0,-7.0,20.200784385580032,0.0,19.816553684294995,0.0,-7.0,20.3,18.36,21.27,19.71,20.82,-7.39,-7.0,0.0,-970.36,-1511.35,0.0,92.0,185.0,378.0,0.0,0.0,0.0,0.0,0.0,0.0,0.0,0.0,0.0,0.0,0.0,0.0,0.0,0.0
18.0,4650.0,24136.95596702813,19366.27118719299,-0.0,0.0,0.0,0.0,36828.35998683666,0.0,0.0,0.0,36828.35998683666,0.4077102798278364,0.06704372605984799,0.7573615160349849,0.0,0.0,0.0,"[2.0, 2.0, 2.0, 2.0, 2.0, 2.0, 2.0, 2.0]",20.0,0.0,0.0,0.0,883.0648795789464,245.60227089652128,-1347.7412144183997,63.11043323377152,8206.532153765707,0.0,0.0,0.0,0.0,0.0,0.0,-6.9,20.05145648439359,0.0,19.742029412726673,0.0,-6.9,20.0,18.32,21.16,19.6,20.69,-7.3,-6.9,0.0,-956.09,-1489.13,0.0,284.0,218.0,487.0,0.0,0.0,0.0,0.0,0.0,0.0,0.0,0.0,0.0,0.0,0.0,0.0,0.0,0.0
19.0,5688.0,0.0,0.0,-0.0,0.0,5688.0,0.0,10570.05164396597,0.0,10570.05164396597,0.0,0.0,0.16587354513395888,0.02210303029468654,0.7573615160349849,0.0,0.0,0.0,"[2.0, 2.0, 2.0, 2.0, 2.0, 2.0, 2.0, 2.0]",24.0,0.0,0.0,0.0,754.9291982736125,172.37208062231375,-1543.1386395571267,-5261.825702139525,3252.263862909009,0.0,0.0,0.0,0.0,0.0,0.0,-6.8,21.399396096007443,0.0,19.91999255014371,0.0,-6.8,24.0,18.42,21.42,22.69,22.92,-7.19,-6.8,6372.32,-1094.71,-1705.03,0.0,166.0,165.0,459.0,0.0,0.0,0.0,0.0,0.0,0.0,0.0,0.0,0.0,0.0,0.0,0.0,0.0,0.0
20.0,6922.0,25743.92763861717,2693.2080004240834,-0.0,0.0,-16000.0,0.0,5198.6327253102745,0.0,0.0,0.0,5198.6327253102745,0.6533333333333333,0.0,0.7573615160349849,0.0,0.0,0.0,"[1.2104551764474323, 0.8336665946757584, 0.7693303711126873, 0.8111282268480231, 0.8755867984066406, 1.7351951547028364, 1.4735688691225732, 2.0]",22.68,0.0,0.0,0.0,745.0617640696818,168.30750021856494,-1467.0487484484704,-3221.541516061038,0.0,0.0,0.0,0.0,0.0,0.0,0.0,-6.6,21.096826654021434,0.0,20.04583581286405,0.0,-6.6,22.68,18.49,21.6,21.41,22.12,-6.99,-6.6,0.0,-1040.73,-1620.96,0.0,258.0,110.0,409.0,0.0,0.0,0.0,0.0,0.0,0.0,0.0,0.0,0.0,0.0,0.0,0.0,0.0,0.0
21.0,6426.0,0.0,1525.5785309736702,-0.0,0.0,7951.57853097367,0.0,2959.33027668595,0.0,0.0,0.0,2959.33027668595,0.31525601483955484,0.0,0.7573615160349849,0.0,0.0,0.0,"[1.2104551764474323, 0.8336665946757584, 0.7693303711126873, 0.8111282268480231, 0.8755867984066406, 1.7351951547028364, 1.4735688691225732, 2.0]",20.79,0.0,0.0,0.0,833.7277085592908,173.79468376362584,-1367.2581517256542,-605.2647402081709,984.6733493130674,0.0,0.0,0.0,0.0,0.0,0.0,-6.5,20.508050880480177,0.0,20.026714598655033,0.0,-6.5,20.79,18.49,21.56,20.06,21.18,-6.9,-6.5,0.0,-969.94,-1510.7,0.0,270.0,109.0,469.0,0.0,0.0,0.0,0.0,0.0,0.0,0.0,0.0,0.0,0.0,0.0,0.0,0.0,0.0
22.0,4350.0,76480.78477420835,61442.65466858947,-0.0,0.0,-10305.726181747843,0.0,40358.49017064876,0.0,-80000.0,0.0,120358.49017064876,0.7360731672609251,0.3266666666666667,0.7573615160349849,0.0,0.0,0.0,"[1.2104551764474323, 0.8336665946757584, 0.7693303711126873, 0.8111282268480231, 0.8755867984066406, 1.7351951547028364, 1.4735688691225732, 2.0]",20.79,0.0,0.0,0.0,610.8646588962189,173.1849967030635,-1357.2377709493092,-670.3843312502186,6118.776414653749,0.0,0.0,0.0,0.0,0.0,0.0,-6.3,20.475455962071912,0.0,19.986437408272995,0.0,-6.3,20.79,18.48,21.49,20.18,21.23,-6.73,-6.3,7735.01,-962.83,-1499.62,0.0,314.0,94.0,281.0,0.0,0.0,0.0,0.0,0.0,0.0,0.0,0.0,0.0,0.0,0.0,0.0,0.0,0.0
23.0,2710.0,10416.954584847355,7654.86981192312,-0.0,0.0,0.0,0.0,15067.910572627756,0.0,0.0,0.0,15067.910572627756,0.7360731672609251,0.3266666666666667,0.7404154518950432,0.0,0.0,0.0,"[1.2104551764474323, 0.8336665946757584, 0.7693303711126873, 0.8111282268480231, 0.8755867984066406, 1.7351951547028364, 1.4735688691225732, 2.0]",23.21,0.0,0.0,0.0,264.79964502977896,82.07065265236122,-1473.5197983681478,-3877.8353924718776,5013.774956464901,0.0,0.0,0.0,0.0,0.0,0.0,-6.2,21.298880522613807,0.0,20.1054412983718,0.0,-6.2,23.21,18.55,21.66,22.09,22.6,-6.61,-6.2,5831.66,-1045.32,-1628.11,0.0,80.0,82.0,147.0,0.0,0.0,0.0,0.0,0.0,0.0,0.0,0.0,0.0,0.0,0.0,0.0,0.0,0.0
24.0,3135.0,8157.136630819058,4981.350947664962,-0.0,0.0,0.0,0.0,9852.822143484536,0.0,0.0,0.0,9852.822143484536,0.7360731672609251,0.3266666666666667,0.7404154518950432,0.0,0.0,0.0,"[1.2104551764474323, 0.8336665946757584, 0.7693303711126873, 0.8111282268480231, 0.8755867984066406, 1.7351951547028364, 1.4735688691225732, 2.0]",23.21,0.0,0.0,0.0,1191.5631617975625,90.57239999686911,-1468.5096079799753,-3664.6075195457397,0.0,0.0,0.0,0.0,0.0,0.0,0.0,-6.1,21.40512813357332,0.0,20.244880378260532,0.0,-6.1,23.21,18.63,21.85,21.95,22.6,-6.52,-6.1,2757.76,-1041.77,-1622.57,0.0,160.0,15.0,804.0,0.0,0.0,0.0,0.0,0.0,0.0,0.0,0.0,0.0,0.0,0.0,0.0,0.0,0.0
25.0,1442.0,0.0,14558.0,-0.0,0.0,16000.0,0.0,28933.66226597927,0.0,0.0,0.0,28933.66226597927,0.05580105841738775,0.3266666666666667,0.7404154518950432,0.0,0.0,0.0,"[1.2104551764474323, 0.8336665946757584, 0.7693303711126873, 0.8111282268480231, 0.8755867984066406, 1.7351951547028364, 1.4735688691225732, 2.0]",21.29,0.0,0.0,0.0,436.8454085426058,62.391309197544096,-1367.0463280438867,-984.5612945453665,865.0672064407481,0.0,0.0,0.0,0.0,0.0,0.0,-6.0,20.81470230219035,0.0,20.23754324365796,0.0,-6.0,21.29,18.64,21.83,20.35,21.5,-6.39,-6.0,6693.24,-969.79,-1510.46,0.0,160.0,0.0,242.0,0.0,0.0,0.0,0.0,0.0,0.0,0.0,0.0,0.0,0.0,0.0,0.0,0.0,0.0
26.0,782.0,0.0,0.0,-0.0,0.0,782.0,0.0,19552.111688123132,0.0,19552.111688123132,0.0,0.0,0.022552759097659858,0.24353694010151733,0.7404154518950432,0.0,0.0,0.0,"[1.2104551764474323, 0.8336665946757584, 0.7693303711126873, 0.8111282268480231, 0.8755867984066406, 1.7351951547028364, 1.4735688691225732, 2.0]",20.79,0.0,0.0,0.0,297.8555496129481,60.08804696875311,-1327.176628620274,-370.1749093768288,1346.2096633744004,0.0,0.0,0.0,0.0,0.0,0.0,-5.7,20.624662989433844,0.0,20.18858558314877,0.0,-5.7,20.79,18.63,21.75,20.21,21.36,-6.08,-5.7,5579.04,-941.5,-1466.41,0.0,160.0,2.0,138.0,0.0,0.0,0.0,0.0,0.0,0.0,0.0,0.0,0.0,0.0,0.0,0.0,0.0,0.0
27.0,956.0,960.8040201005025,0.0,-0.0,0.0,0.0,0.0,13175.993055087625,0.0,13175.993055087625,0.0,0.0,0.022552759097659858,0.1875165614659407,0.7404154518950432,0.0,0.0,0.0,"[1.2104551764474323, 0.8336665946757584, 0.7693303711126873, 0.8111282268480231, 0.8755867984066406, 1.7351951547028364, 1.4735688691225732, 2.0]",20.79,0.0,0.0,0.0,182.12464273541357,66.25266058110546,-1317.1562478439293,-447.3168232648242,1523.5952988811862,0.0,0.0,0.0,0.0,0.0,0.0,-5.5,20.586046719347596,0.0,20.14121919666892,0.0,-5.5,20.79,18.62,21.66,20.26,21.35,-5.87,-5.5,0.0,-934.4,-1455.34,0.0,160.0,17.0,50.0,0.0,0.0,0.0,0.0,0.0,0.0,0.0,0.0,0.0,0.0,0.0,0.0,0.0,0.0
28.0,940.0,56715.61540884497,0.0,-0.0,0.0,-16000.0,0.0,35542.83359862066,0.0,0.0,0.0,0.0,0.6758860924309932,0.1875165614659407,0.740415451895043,157968.149327203,39492.03733180075,197460.18665900372,"[1.2104551764474323, 0.8336665946757584, 0.7693303711126873, 0.8111282268480231, 0.8755867984066406, 1.7351951547028364, 1.4735688691225732, 2.0]",20.79,0.0,0.0,0.0,182.12464273541357,66.25266058110546,-1312.1460574557566,-513.3691957216097,6440.2376133909165,0.0,0.0,0.0,0.0,0.0,0.0,-5.4,20.553036901056384,0.0,20.100830881186354,0.0,-5.4,20.79,18.61,21.59,20.28,21.33,-5.77,-5.4,0.0,-930.84,-1449.8,0.0,160.0,17.0,50.0,0.0,0.0,0.0,0.0,0.0,0.0,0.0,0.0,0.0,0.0,0.0,0.0,0.0,0.0
29.0,1615.0,0.0,0.0,-0.0,0.0,1615.0,0.0,20909.942079222077,0.0,20909.942079222077,0.0,0.0,0.6072211264445986,0.09861374650326181,0.740415451895043,0.0,0.0,0.0,"[1.2104551764474323, 0.8336665946757584, 0.7693303711126873, 0.8111282268480231, 0.8755867984066406, 1.7351951547028364, 1.4735688691225732, 2.0]",23.21,0.0,0.0,0.0,184.45053794062588,70.55434150840625,-1423.417894486423,-3726.637237442418,4903.036716313285,0.0,0.0,0.0,0.0,0.0,0.0,-5.2,21.373497661567352,0.0,20.216350626109296,0.0,-5.2,23.21,18.68,21.75,22.15,22.67,-5.56,-5.2,0.0,-1009.78,-1572.75,0.0,160.0,24.0,51.0,0.0,0.0,0.0,0.0,0.0,0.0,0.0,0.0,0.0,0.0,0.0,0.0,0.0,0.0
30.0,2085.0,2095.477386934673,0.0,-0.0,0.0,0.0,0.0,18123.33044105139,0.0,18123.330441051385,0.0,0.0,0.6072211264445986,0.02155877013824742,0.740415451895043,0.0,0.0,0.0,"[1.2104551764474323, 0.8336665946757584, 0.7693303711126873, 0.8111282268480231, 0.8755867984066406, 1.7351951547028364, 1.4735688691225732, 2.0]",23.21,0.0,0.0,0.0,305.32660693878165,116.78894360104889,-1418.4077040982504,-3522.486346002209,4531.998531868767,0.0,0.0,0.0,0.0,0.0,0.0,-5.1,21.47521278637664,0.0,20.350350175718795,0.0,-5.1,23.21,18.76,21.94,21.99,22.65,-5.47,-5.1,0.0,-1006.22,-1567.21,0.0,338.0,1.0,50.0,0.0,0.0,0.0,0.0,0.0,0.0,0.0,0.0,0.0,0.0,0.0,0.0,0.0,0.0
31.0,1046.0,0.0,9373.522260382495,-0.0,0.0,10419.522260382495,0.0,19523.248580685533,0.0,0.0,0.0,19523.248580685533,0.16421422761881224,0.02155877013824742,0.740415451895043,0.0,0.0,0.0,"[1.2104551764474323, 0.8336665946757584, 0.7693303711126873, 0.8111282268480231, 0.8755867984066406, 1.7351951547028364, 1.4735688691225732, 2.0]",23.21,0.0,0.0,0.0,66.95758924096087,1.693575168228666,-1413.397513710078,-3338.213784256733,3688.7856991004105,0.0,0.0,0.0,0.0,0.0,0.0,-5.0,21.56701028407309,0.0,20.4722037723855,0.0,-5.0,23.21,18.84,22.1,22.01,22.73,-5.36,-5.0,0.0,-1002.67,-1561.68,0.0,0.0,0.0,50.0,0.0,0.0,0.0,0.0,0.0,0.0,0.0,0.0,0.0,0.0,0.0,0.0,0.0,0.0
32.0,1734.0,0.0,0.0,-0.0,0.0,1734.0,0.0,652.7650621273559,0.0,652.7650621273559,0.0,0.0,0.09048973782289388,0.01600804682083793,0.740415451895043,0.0,0.0,0.0,"[1.2104551764474323, 0.8336665946757584, 0.7693303711126909, 0.8111282268480231, 0.5739176943223221, 0.927440317831806, 1.4735688691225732, 1.9091284854370194]",22.71,0.0,0.0,1.0160087456300608,16.069821417830603,0.40645804037487804,-1378.538004674636,-2524.539974339041,24.411356256351308,0.0,0.0,0.0,0.0,0.0,0.0,-4.8,21.476415490734283,0.0,20.552704730965928,0.0,-4.8,22.71,18.9,22.2,21.65,22.53,-5.17,-4.8,0.0,-977.94,-1523.16,1.5,0.0,0.0,12.0,0.0,0.0,0.0,0.0,0.0,0.0,0.0,0.0,0.0,0.0,0.0,0.0,0.0,0.0
33.0,3869.0,57547.397348263854,47946.00668438612,-0.0,6.681366405535588,-5451.335043541952,0.0,25347.341546856747,0.0,-80000.0,0.0,105347.34154685674,0.31308591876752356,0.34267471348750467,0.740415451895043,0.0,0.0,0.0,"[1.2104551764474323, 0.8336665946757584, 0.7693303711126909, 0.8111282268480231, 0.5739176943223221, 0.927440317831806, 1.4735688691225732, 1.9091284854370194]",20.79,0.0,0.0,31.405406613595996,49.548616038311046,1.2532456244892112,-1231.983011244997,86.09430236410405,1064.245177502265,0.0,0.0,0.0,0.0,0.0,0.0,-3.8,20.850715382535324,0.0,20.501029522312738,0.0,-3.8,20.79,18.89,22.11,20.22,21.5,-4.12,-3.8,7680.12,-873.97,-1361.23,46.36,0.0,0.0,37.0,0.0,0.0,0.0,0.0,0.0,0.0,0.0,0.0,0.0,0.0,0.0,0.0,0.0,0.0
34.0,2481.0,16722.177328399233,14273.977873230948,-0.0,116.41143147371153,0.0,0.0,11830.60112024516,0.0,-21029.15522766771,0.0,32859.75634791287,0.31308591876752356,0.42854376400048116,0.740415451895043,0.0,0.0,0.0,"[1.2104551764474323, 0.8336665946757584, 0.7693303711126909, 0.8111282268480231, 0.5739176943223221, 0.927440317831806, 1.4735688691225732, 1.9091284854370194]",20.79,0.0,0.0,61.76450192590542,66.95758924096087,1.693575168228666,-1176.8709169750994,-22.95068050808176,2285.019404576006,0.0,0.0,0.0,0.0,0.0,0.0,-2.7,20.795538728266422,0.0,20.43401395666752,0.0,-2.7,20.79,18.88,21.99,20.36,21.53,-3.02,-2.7,0.0,-834.88,-1300.34,91.17,0.0,0.0,50.0,0.0,0.0,0.0,0.0,0.0,0.0,0.0,0.0,0.0,0.0,0.0,0.0,0.0,0.0
35.0,5282.0,0.0,0.0,-0.0,578.4903827264885,4703.509617273511,0.0,12664.915712170681,0.0,12664.915712170681,0.0,0.0,0.11310676837324164,0.3746963332514562,0.740415451895043,0.0,0.0,0.0,"[1.2104551764474323, 0.8336665946757584, 0.7693303711126909, 0.8111282268480231, 0.5739176943223221, 0.927440317831806, 1.4735688691225732, 1.9091284854370194]",21.4,0.0,0.0,96.39712090646003,66.95758924096087,1.693575168228666,-1157.1093546233399,-907.4961439403907,5542.051898034674,0.0,0.0,0.0,0.0,0.0,0.0,-1.7,20.959789975444142,0.0,20.41385724471187,0.0,-1.7,21.4,18.89,21.94,20.82,21.82,-2.0,-1.7,1070.31,-820.86,-1278.5,142.3,0.0,0.0,50.0,0.0,0.0,0.0,0.0,0.0,0.0,0.0,0.0,0.0,0.0,0.0,0.0,0.0,0.0
36.0,3483.0,0.0,0.0,-0.0,822.7288078613567,2660.2711921386435,0.0,4718.792540698721,0.0,4718.792540698721,0.0,0.0,0.0,0.35463343979610445,0.740415451895043,0.0,0.0,0.0,"[1.2104551764474323, 0.8336665946757584, 0.7693303711126909, 0.8111282268480231, 0.5739176943223221, 0.927440317831806, 1.4735688691225732, 1.9091284854370194]",23.21,0.0,0.0,107.2012495097311,66.95758924096087,1.693575168228666,-1212.9898981831784,-3291.8614370587984,0.0,0.0,0.0,0.0,0.0,0.0,0.0,-1.0,21.587222029557616,0.0,20.519453861935997,0.0,-1.0,23.21,18.97,22.07,22.18,22.81,-1.4,-1.0,0.0,-860.5,-1340.24,158.25,0.0,0.0,50.0,0.0,0.0,0.0,0.0,0.0,0.0,0.0,0.0,0.0,0.0,0.0,0.0,0.0,0.0
37.0,5043.0,4830.904622909077,0.0,-0.0,236.24990020546872,0.0,0.0,7807.55867840237,0.0,7807.55867840237,0.0,0.0,0.0,0.3214380372518767,0.7272959183673462,0.0,0.0,0.0,"[1.2104551764474323, 0.8336665946757584, 0.7693303711126909, 0.8111282268480231, 0.5739176943223221, 0.927440317831806, 1.4735688691225732, 1.9091284854370194]",21.05,0.0,0.0,74.92280005411537,92.40147315252602,2.3371337321555576,-1089.7807732865454,-301.7584753099514,5553.779528644714,0.0,0.0,0.0,0.0,0.0,0.0,-0.7,20.91708027401508,0.0,20.503132836147397,0.0,-0.7,21.05,18.98,22.02,20.4,21.57,-1.13,-0.7,0.0,-773.1,-1204.11,110.6,0.0,0.0,69.0,0.0,0.0,0.0,0.0,0.0,0.0,0.0,0.0,0.0,0.0,0.0,0.0,0.0,0.0
38.0,3891.0,37808.47115841144,0.0,-0.0,0.22854946398799011,-16000.0,0.0,15955.791616875027,0.0,0.0,0.0,0.0,0.6533333333333333,0.3214380372518767,0.7272959183673458,70914.6294083335,17728.657352083374,88643.28676041686,"[1.2104551764474323, 0.8336665946757584, 0.7693303711126909, 0.8111282268480231, 0.5739176943223221, 0.927440317831806, 1.4735688691225732, 1.9091284854370194]",23.21,0.0,0.0,17.617127692846697,515.7848821740546,39.35868690963422,-1228.020469347696,-3186.1279548597963,227.27693835474662,0.0,0.0,0.0,0.0,0.0,0.0,-1.3,21.64015346378411,0.0,20.598338063949633,0.0,-1.3,23.21,19.06,22.14,22.22,22.85,-1.7,-1.3,8061.24,-871.16,-1356.85,26.01,82.0,0.0,342.0,0.0,0.0,0.0,0.0,0.0,0.0,0.0,0.0,0.0,0.0,0.0,0.0,0.0,0.0
39.0,4882.0,0.0,0.0,-0.0,0.0,4882.0,0.0,3305.701165601727,0.0,3305.701165601727,0.0,0.0,0.445765306122449,0.3073831853573115,0.7272959183673458,0.0,0.0,0.0,"[1.2104551764474323, 0.8336665946757584, 0.7693303711126909, 0.8111282268480231, 0.5739176943223221, 0.927440317831806, 1.4735688691225732, 1.9091284854370194]",21.41,0.0,0.0,2.0218087242903637,545.4576664587329,72.51888870355153,-1167.684422528,-680.875385805392,0.0,0.0,0.0,0.0,0.0,0.0,0.0,-1.9,21.08408353738176,0.0,20.59025155187016,0.0,-1.9,21.41,19.08,22.1,20.63,21.74,-2.31,-1.9,0.0,-828.36,-1290.19,2.98,166.0,9.0,319.0,0.0,0.0,0.0,0.0,0.0,0.0,0.0,0.0,0.0,0.0,0.0,0.0,0.0,0.0
40.0,7762.0,7801.005025125628,0.0,-0.0,0.0,0.0,0.0,17785.428650544054,0.0,17785.428650544047,0.0,0.0,0.445765306122449,0.23176486626486234,0.7092565597667626,0.0,0.0,0.0,"[1.2104551764474323, 0.8336665946757584, 0.7693303711126909, 0.8111282268480231, 0.5739176943223221, 0.927440317831806, 1.4735688691225732, 1.9091284854370194]",20.79,0.0,0.0,0.0,483.71572101127845,224.1277377633818,-1146.8097746460646,71.55038946580893,5248.386405071462,0.0,0.0,0.0,0.0,0.0,0.0,-2.1,20.842288990227555,0.0,20.52317666797139,0.0,-2.1,20.79,19.06,21.98,20.3,21.45,-2.52,-2.1,7310.55,-813.55,-1267.12,0.0,326.0,177.0,171.0,0.0,0.0,0.0,0.0,0.0,0.0,0.0,0.0,0.0,0.0,0.0,0.0,0.0,0.0
41.0,7912.0,21593.059843155803,0.0,-0.0,0.0,-13573.094543940024,0.0,17521.93592540008,0.0,17521.93592540008,0.0,0.0,1.0,0.15726683937115452,0.7092565597667626,0.0,0.0,0.0,"[1.2104551764474323, 0.8336665946757584, 0.7693303711126909, 0.8111282268480231, 0.5739176943223221, 0.927440317831806, 1.4735688691225732, 1.9091284854370194]",23.21,0.0,0.0,0.0,777.0604435595724,324.99707478308125,-1278.1223732294209,-3185.4436532974228,3398.2968521507046,0.0,0.0,0.0,0.0,0.0,0.0,-2.3,21.641238069681542,0.0,20.61250723017909,0.0,-2.3,23.21,19.13,22.1,22.27,22.84,-2.71,-2.3,4119.09,-906.71,-1412.21,0.0,298.0,346.0,387.0,0.0,0.0,0.0,0.0,0.0,0.0,0.0,0.0,0.0,0.0,0.0,0.0,0.0,0.0
42.0,8043.0,14409.79296482412,0.0,-0.0,0.0,0.0,0.0,11810.18462009554,31473.72,36989.16062009554,0.0,0.0,1.0,0.0,0.6972303206997073,25178.976000000002,6294.744000000001,31473.72,"[1.2104551764474323, 0.8336665946757584, 0.7693303711126909, 0.8111282268480231, 0.5739176943223221, 0.927440317831806, 1.4735688691225732, 1.9091284854370194]",23.21,0.0,0.0,0.0,913.4424805924771,218.13248166785235,-1288.1427540057657,-3023.384629763544,3204.644129184271,0.0,0.0,0.0,0.0,0.0,0.0,-2.5,21.722218638898294,0.0,20.720863798471573,0.0,-2.5,23.21,19.2,22.24,22.11,22.78,-2.96,-2.5,0.0,-913.81,-1423.28,0.0,162.0,236.0,572.0,0.0,0.0,0.0,0.0,0.0,0.0,0.0,0.0,0.0,0.0,0.0,0.0,0.0,0.0
43.0,7778.0,0.0,2881.1285465945125,-0.0,0.0,10659.128546594513,0.0,6632.571725199299,0.0,0.0,0.0,6632.5717251993,0.5468057590733626,0.0,0.6972303206997073,0.0,0.0,0.0,"[1.2104551764474323, 0.8336665946757584, 0.7693303711126909, 0.8111282268480231, 0.5739176943223221, 0.927440317831806, 1.4735688691225732, 1.9091284854370194]",23.21,0.0,0.0,0.0,1048.3444024947917,178.36733671784322,-1298.1631347821108,-2884.717120323769,0.0,0.0,0.0,0.0,0.0,0.0,0.0,-2.7,21.791510325523706,0.0,20.814237987728788,0.0,-2.7,23.21,19.27,22.36,22.08,22.82,-3.17,-2.7,0.0,-920.92,-1434.35,0.0,256.0,115.0,636.0,0.0,0.0,0.0,0.0,0.0,0.0,0.0,0.0,0.0,0.0,0.0,0.0,0.0,0.0
44.0,5694.0,0.0,0.0,-0.0,0.0,5693.999999999996,0.0,0.0,0.0,0.0,0.0,0.0,0.06262208560397488,0.0,0.6972303206997073,0.0,0.0,0.0,"[0.7282900697569303, 0.8336665946757584, 0.7693303711126909, 0.8111282268480231, 0.5739176943223221, 0.6927489984928137, 0.29528354191410955, 0.8960861886153175]",21.73,0.0,0.0,0.0,974.4796093110792,200.31607089808674,-1233.8344812953144,-830.4527789968615,0.0,0.0,0.0,0.0,0.0,0.0,0.0,-2.9,21.330812461309765,0.0,20.803136094688877,0.0,-2.9,21.73,19.28,22.32,20.92,22.01,-3.34,-2.9,0.0,-875.29,-1363.28,0.0,334.0,113.0,540.0,0.0,0.0,0.0,0.0,0.0,0.0,0.0,0.0,0.0,0.0,0.0,0.0,0.0,0.0
45.0,6106.0,34006.249580953205,27730.218333048444,-0.0,0.0,0.0,0.0,21301.661578209056,0.0,-41477.91618121102,0.0,62779.57775942008,0.06262208560397488,0.169368157739945,0.6972303206997073,0.0,0.0,0.0,"[0.7282900697569303, 0.8336665946757584, 0.7693303711126909, 0.8111282268480231, 0.5739176943223221, 0.6927489984928137, 0.29528354191410955, 0.8960861886153175]",21.27,0.0,0.0,0.0,1320.6151048504041,220.26638637982043,-1221.0690683583186,-282.9660035515799,2909.537733146331,0.0,0.0,0.0,0.0,0.0,0.0,-3.1,21.148804931099107,0.0,20.749350799890493,0.0,-3.1,21.27,19.27,22.23,20.7,21.8,-3.55,-3.1,2556.2,-866.23,-1349.17,0.0,214.0,195.0,853.0,0.0,0.0,0.0,0.0,0.0,0.0,0.0,0.0,0.0,0.0,0.0,0.0,0.0,0.0
46.0,4562.0,4584.924623115578,0.0,-0.0,0.0,0.0,0.0,5345.356709963046,0.0,5345.356709963046,0.0,0.0,0.06262208560397488,0.14664130097989805,0.6972303206997073,0.0,0.0,0.0,"[0.7282900697569303, 0.8336665946757584, 0.7693303711126909, 0.8111282268480231, 0.5739176943223221, 0.6927489984928137, 0.29528354191410955, 0.8960861886153175]",22.73,0.0,0.0,0.0,1081.6117520966166,197.60635062892086,-1304.0668872806164,-2276.659375056224,0.0,0.0,0.0,0.0,0.0,0.0,0.0,-3.3,21.612602304095372,0.0,20.782026979919046,0.0,-3.3,22.73,19.3,22.26,21.81,22.58,-3.78,-3.3,0.0,-925.11,-1440.88,0.0,268.0,139.0,652.0,0.0,0.0,0.0,0.0,0.0,0.0,0.0,0.0,0.0,0.0,0.0,0.0,0.0,0.0
47.0,2812.0,1345.8578357733777,0.0,-0.0,0.0,1472.8714534054893,0.0,23251.90129815015,0.0,23251.901298150147,0.0,0.0,0.0,0.04778117641293315,0.6972303206997073,0.0,0.0,0.0,"[0.7282900697569303, 0.8336665946757584, 0.7693303711126909, 0.8111282268480231, 0.5739176943223221, 0.6927489984928137, 0.29528354191410955, 0.8960861886153175]",21.57,0.0,0.0,0.0,891.0293086149763,110.35335796177993,-1251.0269677092137,-694.0710007650529,2682.5087425314387,0.0,0.0,0.0,0.0,0.0,0.0,-3.4,21.24223220057955,0.0,20.75922241912749,0.0,-3.4,21.57,19.3,22.22,20.85,21.89,-3.87,-3.4,4378.3,-887.48,-1382.27,0.0,166.0,57.0,572.0,0.0,0.0,0.0,0.0,0.0,0.0,0.0,0.0,0.0,0.0,0.0,0.0,0.0,0.0
48.0,2463.0,2475.3768844221104,0.0,-0.0,0.0,0.0,0.0,11238.132692321878,0.0,11238.132692321877,0.0,0.0,0.0,0.0,0.6972303206997073,0.0,0.0,0.0,"[0.7282900697569303, 0.8336665946757584, 0.7693303711126909, 0.8111282268480231, 0.5739176943223221, 0.6927489984928137, 0.29528354191410955, 0.8960861886153175]",22.43,0.0,0.0,0.0,1312.8621208330298,114.24858084870587,-1354.2720341404827,-1873.2132218823708,2410.8815304881396,0.0,0.0,0.0,0.0,0.0,0.0,-4.6,21.516534220017064,0.0,20.779452569641553,0.0,-4.6,22.43,19.32,22.23,21.6,22.41,-5.06,-4.6,0.0,-960.73,-1496.35,0.0,160.0,49.0,891.0,0.0,0.0,0.0,0.0,0.0,0.0,0.0,0.0,0.0,0.0,0.0,0.0,0.0,0.0
49.0,3499.0,30233.30692384537,0.0,-0.0,0.0,0.0,0.0,23924.82635030352,0.0,0.0,0.0,0.0,0.0,0.0,0.6972303206997073,106332.56155690458,26583.140389226144,132915.70194613072,"[0.7282900697569303, 0.8336665946757584, 0.7693303711126909, 0.8111282268480231, 0.5739176943223221, 0.6927489984928137, 0.29528354191410955, 0.8960861886153175]",22.73,0.0,0.0,0.0,904.1388997716276,79.66577591347651,-1429.3216469849287,-2233.11467960456,2687.6494919684,0.0,0.0,0.0,0.0,0.0,0.0,-5.8,21.636127015202355,0.0,20.8189509070177,0.0,-5.8,22.73,19.35,22.29,21.72,22.52,-6.25,-5.8,4796.36,-1013.97,-1579.27,0.0,160.0,9.0,590.0,0.0,0.0,0.0,0.0,0.0,0.0,0.0,0.0,0.0,0.0,0.0,0.0,0.0,0.0
50.0,3298.0,30993.56537611291,27540.597549232345,-0.0,0.0,0.0,0.0,9594.11849774082,0.0,-42516.603233644135,0.0,52110.721731384954,0.0,0.1736094632040469,0.6972303206997073,0.0,0.0,0.0,"[0.7282900697569303, 0.8336665946757584, 0.7693303711126909, 0.8111282268480231, 0.5739176943223221, 0.6927489984928137, 0.29528354191410955, 0.8960861886153175]",22.73,0.0,0.0,0.0,281.5038015035766,58.46221480725359,-1489.4439316429985,-2169.2088334306013,3325.304433149033,0.0,0.0,0.0,0.0,0.0,0.0,-7.0,21.668886071268368,0.0,20.862037591233975,0.0,-7.0,22.73,19.38,22.35,21.76,22.57,-7.48,-7.0,162.16,-1056.62,-1645.7,0.0,160.0,0.0,126.0,0.0,0.0,0.0,0.0,0.0,0.0,0.0,0.0,0.0,0.0,0.0,0.0,0.0,0.0
51.0,1510.0,31618.61716211147,0.0,-0.0,0.0,-16000.0,0.0,12555.471668670822,0.0,0.0,0.0,0.0,0.6533333333333333,0.1736094632040469,0.6972303206997073,55802.09630520366,13950.524076300915,69752.62038150457,"[0.7282900697569303, 0.8336665946757584, 0.7693303711126909, 0.8111282268480231, 0.5739176943223221, 0.6927489984928137, 0.29528354191410955, 0.8960861886153175]",22.73,0.0,0.0,0.0,163.65844443948546,55.48152251117113,-1519.5050739720336,-2098.342309683278,483.536803397086,0.0,0.0,0.0,0.0,0.0,0.0,-7.6,21.704664022618008,0.0,20.908382403084033,0.0,-7.6,22.73,19.4,22.41,21.86,22.67,-8.09,-7.6,4099.81,-1077.94,-1678.92,0.0,160.0,0.0,38.0,0.0,0.0,0.0,0.0,0.0,0.0,0.0,0.0,0.0,0.0,0.0,0.0,0.0,0.0
52.0,4804.0,0.0,0.0,-0.0,0.0,4804.0,0.0,12329.038819282583,0.0,12329.038819282583,0.0,0.0,0.4490816326530612,0.12119008046900193,0.6972303206997073,0.0,0.0,0.0,"[0.7282900697569303, 0.8336665946757584, 0.7693303711126909, 0.8111282268480231, 0.5739176943223221, 0.6927489984928137, 0.29528354191410955, 0.8960861886153175]",21.27,0.0,0.0,0.0,166.26626633623866,61.00257755959659,-1481.598968543288,-134.77804344544765,4317.464306663717,0.0,0.0,0.0,0.0,0.0,0.0,-8.3,21.226536438617494,0.0,20.860063397825574,0.0,-8.3,21.27,19.38,22.34,20.76,21.89,-8.8,-8.3,0.0,-1051.05,-1637.03,0.0,160.0,9.0,39.0,0.0,0.0,0.0,0.0,0.0,0.0,0.0,0.0,0.0,0.0,0.0,0.0,0.0,0.0
53.0,2461.0,2473.3668341708544,0.0,-0.0,0.0,0.0,0.0,8996.523756341036,0.0,8996.523756341034,0.0,0.0,0.4490816326530612,0.08293955429408256,0.6972303206997073,0.0,0.0,0.0,"[0.7282900697569303, 0.8336665946757584, 0.7693303711126909, 0.8111282268480231, 0.5739176943223221, 0.6927489984928137, 0.29528354191410955, 0.8960861886153175]",22.73,0.0,0.0,0.0,184.7324646321668,71.77371562953091,-1584.6375490182759,-2128.3891261389913,543.1940914314498,0.0,0.0,0.0,0.0,0.0,0.0,-8.9,21.690659673012437,0.0,20.889472317113253,0.0,-8.9,22.73,19.39,22.39,21.99,22.75,-9.42,-8.9,3579.38,-1124.15,-1750.88,0.0,160.0,26.0,51.0,0.0,0.0,0.0,0.0,0.0,0.0,0.0,0.0,0.0,0.0,0.0,0.0,0.0,0.0
54.0,1905.0,0.0,0.0,-0.0,0.0,1905.0,0.0,6508.137036075412,0.0,6508.137036075412,0.0,0.0,0.36808673469387754,0.055268903630496635,0.6972303206997073,0.0,0.0,0.0,"[0.7282900697569303, 0.8336665946757584, 0.7693303711126909, 0.8111282268480231, 0.5739176943223221, 0.6927489984928137, 0.29528354191410955, 0.8960861886153175]",21.27,0.0,0.0,0.0,291.159790688852,122.91968571003665,-1536.7110628131854,-163.29664821621466,1299.842241952506,0.0,0.0,0.0,0.0,0.0,0.0,-9.4,21.213138669883563,0.0,20.840984365268145,0.0,-9.4,21.27,19.36,22.32,20.76,21.89,-9.92,-9.4,0.0,-1090.15,-1697.93,0.0,294.0,35.0,59.0,0.0,0.0,0.0,0.0,0.0,0.0,0.0,0.0,0.0,0.0,0.0,0.0,0.0,0.0
55.0,1476.0,6515.632815537382,13664.454651459695,-0.0,0.0,8657.4,0.0,22077.33300344478,0.0,0.0,0.0,22077.33300344478,0.0,0.055268903630496635,0.6972303206997073,0.0,0.0,0.0,"[0.7282900697569303, 0.8336665946757584, 0.7693303711126909, 0.8111282268480231, 0.5739176943223221, 0.6927489984928137, 0.29528354191410955, 0.8960861886153175]",21.27,0.0,0.0,0.0,399.34915856766776,105.47586147728138,-1561.7620147540479,-258.09345278000967,1326.9698850203083,0.0,0.0,0.0,0.0,0.0,0.0,-9.9,21.1662503283652,0.0,20.77891234810618,0.0,-9.9,21.27,19.32,22.24,20.87,21.91,-10.43,-9.9,5186.13,-1107.92,-1725.61,0.0,216.0,43.0,180.0,0.0,0.0,0.0,0.0,0.0,0.0,0.0,0.0,0.0,0.0,0.0,0.0,0.0,0.0
56.0,2864.0,0.0,0.0,-0.0,0.0,2864.0,0.0,4830.724993888676,0.0,4830.724993888676,0.0,0.0,0.5315646258503401,0.014191310145048708,0.6972303206997073,0.0,0.0,0.0,"[0.7282900697569303, 0.8336665946757584, 0.7693303711126909, 0.8111282268480196, 0.5739176943223221, 0.6927489984928137, 0.29528354191410955, 0.8960861886153175]",21.27,0.0,0.0,4.20588053134683,472.15672665810195,136.19731502894942,-1551.7416339777028,-347.0046117956336,1301.6598027541904,0.0,0.0,0.0,0.0,0.0,0.0,-9.7,21.121784509216624,0.0,20.719357758698578,0.0,-9.7,21.27,19.28,22.16,20.84,21.86,-10.25,-9.7,366.32,-1100.81,-1714.53,6.21,272.0,61.0,203.0,0.0,0.0,0.0,0.0,0.0,0.0,0.0,0.0,0.0,0.0,0.0,0.0,0.0,0.0
57.0,3368.0,0.0,1873.8489322835835,-0.0,8203.010324328065,0.0,0.0,6157.04161591575,0.0,0.0,0.0,3491.996363075718,0.5315646258503401,0.014191310145048708,0.6972303206997073,11844.645568177924,2961.161392044481,14805.806960222404,"[0.7282900697569303, 0.8336665946757584, 0.7693303711126909, 0.8111282268480196, 0.5739176943223221, 0.6927489984928137, 0.29528354191410955, 0.8960861886153175]",21.27,0.0,0.0,1095.1223975549374,536.7179390209653,135.65537097511626,-1431.4970646615632,-423.24608821030296,2812.382162206045,0.0,0.0,0.0,0.0,0.0,0.0,-7.3,21.081450124543547,0.0,20.66508941853275,0.0,-7.3,21.27,19.24,22.09,20.82,21.82,-7.08,-7.3,310.97,-1015.51,-1581.67,1616.58,286.0,50.0,245.0,0.0,0.0,0.0,0.0,0.0,0.0,0.0,0.0,0.0,0.0,0.0,0.0,0.0,0.0
58.0,5897.0,0.0,3012.2832465810993,-0.0,14132.034332285612,-5222.751085704513,0.0,6216.574062089284,0.0,0.0,0.0,6216.574062089285,0.744826961849941,0.014191310145048708,0.6972303206997073,0.0,0.0,0.0,"[0.7282900697569303, 0.8336665946757584, 0.7693303711126909, 0.8111282268480196, 0.5739176943223221, 0.6927489984928137, 0.29528354191410955, 0.8960861886153175]",22.62,0.0,0.0,1507.3283647180056,656.5367829258428,120.75190949470397,-1393.6054938596183,-2196.7355084146625,0.0,0.0,0.0,0.0,0.0,0.0,0.0,-5.2,21.54022183028189,0.0,20.73212760582154,0.0,-5.2,22.62,19.27,22.19,22.08,22.74,-4.76,-5.2,0.0,-988.63,-1539.81,2225.07,300.0,13.0,331.0,0.0,0.0,0.0,0.0,0.0,0.0,0.0,0.0,0.0,0.0,0.0,0.0,0.0,0.0
59.0,6775.0,21225.96497217847,32085.704594800234,-0.0,17740.869447482655,0.0,0.0,10349.806812728973,0.0,-61372.68619091785,0.0,71722.49300364681,0.744826961849941,0.26479644542462993,0.6972303206997073,0.0,0.0,0.0,"[0.7282900697569303, 0.8336665946757584, 0.7693303711126909, 0.8111282268480196, 0.5739176943223221, 0.6927489984928137, 0.29528354191410955, 0.8960861886153175]",21.95,0.0,0.0,1859.974188670373,939.7321445786647,93.72244980977443,-1269.9580258013696,-1188.4876102919095,0.0,0.0,0.0,0.0,0.0,0.0,0.0,-3.4,21.37304923223192,0.0,20.778777612741205,0.0,-3.4,21.95,19.31,22.25,21.54,22.41,-2.77,-3.4,3134.46,-900.91,-1403.19,2745.63,218.0,0.0,587.0,0.0,0.0,0.0,0.0,0.0,0.0,0.0,0.0,0.0,0.0,0.0,0.0,0.0,0.0
60.0,10574.0,0.0,932.3510264241814,-545.2557186079756,18300.742373196867,-6249.1356281647095,0.0,2173.0064187579433,0.0,0.0,0.0,2173.0064187579433,1.0,0.26479644542462993,0.6991387157148352,0.0,0.0,0.0,"[0.7282900697569303, 0.8336665946757584, 0.7693303711126909, 0.8111282268480196, 0.5739176943223221, 0.6927489984928137, 0.29528354191410955, 0.8960861886153175]",22.15,0.0,0.0,1915.2831740665908,806.8741911900212,99.9886779322205,-1229.8327980569652,-1386.0448825932635,0.0,0.0,0.0,0.0,0.0,0.0,0.0,-2.4,21.473072762110867,0.0,20.83310338015891,0.0,-2.4,22.15,19.35,22.32,21.77,22.6,-1.75,-2.4,1710.92,-872.45,-1358.85,2827.28,248.0,0.0,472.0,0.0,0.0,0.0,0.0,0.0,0.0,0.0,0.0,0.0,0.0,0.0,0.0,0.0,0.0
61.0,12346.0,0.0,0.0,-0.0,16171.785176163869,0.0,0.0,3443.2066585474804,0.0,0.0,0.0,0.0,1.0,0.26479644542462993,0.6991387157148352,15303.140704655474,3825.7851761638685,19128.92588081934,"[0.7282900697569303, 0.8336665946757584, 0.7693303711126909, 0.8111282268480196, 0.5739176943223221, 0.6927489984928137, 0.29528354191410955, 0.8960861886153175]",22.23,0.0,0.0,1648.0100222624283,341.97707683909704,43.62649633357046,-1219.0293615048627,-1412.6460654853554,0.0,0.0,0.0,0.0,0.0,0.0,0.0,-2.1,21.544135791366713,0.0,20.89568801251157,0.0,-2.1,22.23,19.4,22.39,21.86,22.69,-1.6,-2.1,1699.5,-864.78,-1346.92,2432.74,109.0,0.0,198.0,0.0,0.0,0.0,0.0,0.0,0.0,0.0,0.0,0.0,0.0,0.0,0.0,0.0,0.0
62.0,3720.0,0.0,6940.609009898892,-0.0,9035.63384333592,1624.975166562972,0.0,15911.630053456942,0.0,0.0,0.0,15911.630053456942,0.9309109197889893,0.26479644542462993,0.684925887726497,0.0,0.0,0.0,"[0.7282900697569303, 0.8336665946757584, 0.7693303711126909, 0.8111282268480196, 0.5739176943223221, 0.6927489984928137, 0.29528354191410955, 0.8960861886153175]",21.92,0.0,0.0,849.0787969204323,234.3515623433631,5.9275130888003345,-1238.4848288272335,-926.0361019535362,2709.7911642144672,0.0,0.0,0.0,0.0,0.0,0.0,-2.8,21.475716024436526,0.0,20.933134911271125,0.0,-2.8,21.92,19.44,22.43,21.61,22.53,-2.8,-2.8,2329.96,-878.59,-1368.41,1253.38,0.0,0.0,175.0,0.0,0.0,0.0,0.0,0.0,0.0,0.0,0.0,0.0,0.0,0.0,0.0,0.0,0.0
63.0,1869.0,0.0,0.0,-0.0,0.0,1869.0,0.0,16298.718257845047,0.0,16298.718257845045,0.0,0.0,0.8514466340747036,0.19549917392018673,0.684925887726497,0.0,0.0,0.0,"[0.7282900697569303, 0.8336665946757584, 0.7693303711126909, 0.8111282268480196, 0.5739176943223221, 0.6927489984928137, 0.29528354191410955, 0.8960861886153175]",22.73,0.0,0.0,14.158258919766304,66.95758924096087,1.693575168228666,-1359.1789815505138,-1974.9336498368125,330.23420888175883,0.0,0.0,0.0,0.0,0.0,0.0,-4.4,21.763930977454226,0.0,20.992486928597238,0.0,-4.4,22.73,19.48,22.5,22.1,22.88,-5.0,-4.4,2826.22,-964.21,-1501.77,20.9,0.0,0.0,50.0,0.0,0.0,0.0,0.0,0.0,0.0,0.0,0.0,0.0,0.0,0.0,0.0,0.0,0.0
64.0,5081.0,10354.575359990202,1583.7608686931956,-0.0,0.0,-3638.041614497056,0.0,3283.571570377654,0.0,0.0,0.0,3283.5715703776536,1.0,0.19549917392018673,0.684925887726497,0.0,0.0,0.0,"[0.7282900697569303, 0.8336665946757584, 0.7693303711126909, 0.8111282268480196, 0.5739176943223221, 0.6927489984928137, 0.29528354191410955, 0.8960861886153175]",21.27,0.0,0.0,0.0,700.2354201146804,92.29984666846238,-1321.2728761217684,-17.563995499764776,556.7495712072073,0.0,0.0,0.0,0.0,0.0,0.0,-5.1,21.28270920476371,0.0,20.942235821684413,0.0,-5.1,21.27,19.47,22.42,20.76,21.92,-5.7,-5.1,176.36,-937.32,-1459.89,0.0,138.0,50.0,445.0,0.0,0.0,0.0,0.0,0.0,0.0,0.0,0.0,0.0,0.0,0.0,0.0,0.0,0.0
65.0,10195.0,101455.71853074929,0.0,-0.0,0.0,0.0,0.0,1678.0959442859585,0.0,-80000.0,0.0,0.0,1.0,0.5221658405868534,0.684925887726497,363013.7597523822,90753.43993809554,453767.1996904777,"[0.7282900697569303, 0.8336665946757584, 0.7693303711126909, 0.8111282268480196, 0.5739176943223221, 0.6927489984928137, 0.29528354191410955, 0.8960861886153175]",21.27,0.0,0.0,0.0,709.327555916874,182.77063215523776,-1361.3543992271482,-130.34017679101618,620.285278414357,0.0,0.0,0.0,0.0,0.0,0.0,-5.9,21.227053549124587,0.0,20.871530983032198,0.0,-5.9,21.27,19.44,22.31,20.8,21.89,-6.49,-5.9,0.0,-965.75,-1504.17,0.0,117.0,210.0,446.0,0.0,0.0,0.0,0.0,0.0,0.0,0.0,0.0,0.0,0.0,0.0,0.0,0.0,0.0
66.0,6709.0,53750.4588274001,46772.706533263095,-0.0,0.0,0.0,0.0,9838.29886642587,0.0,-80000.0,0.0,89838.29886642587,1.0,0.8488325072535202,0.684925887726497,0.0,0.0,0.0,"[0.7282900697569303, 0.8336665946757584, 0.7693303711126909, 0.8111282268480196, 0.5739176943223221, 0.6927489984928137, 0.29528354191410955, 0.8960861886153175]",21.27,0.0,0.0,0.0,817.4464421228046,180.94157097355077,-1401.4359223325282,-229.06639961207853,3574.047052524374,0.0,0.0,0.0,0.0,0.0,0.0,-6.7,21.178402961217703,0.0,20.808939885053988,0.0,-6.7,21.27,19.4,22.21,20.83,21.86,-7.27,-6.7,0.0,-994.18,-1548.46,0.0,82.0,221.0,544.0,0.0,0.0,0.0,0.0,0.0,0.0,0.0,0.0,0.0,0.0,0.0,0.0,0.0,0.0
67.0,9162.0,0.0,1364.8098407518085,-0.0,0.0,10526.809840751808,0.0,2530.369437467713,0.0,0.0,0.0,2530.369437467713,0.5524315543898042,0.8488325072535202,0.6417407565311617,0.0,0.0,0.0,"[0.7282900697569303, 0.8336665946757584, 0.7693303711126909, 0.8111282268480196, 0.5739176943223221, 0.6927489984928137, 0.29528354191410955, 0.8960861886153175]",22.73,0.0,0.0,0.0,3269.574323472563,220.53735840673704,-1509.4846931956884,-2219.5592505954965,0.0,0.0,0.0,0.0,0.0,0.0,0.0,-7.4,21.64414427034603,0.0,20.840576822683403,0.0,-7.4,22.73,19.42,22.26,21.93,22.63,-7.97,-7.4,0.0,-1070.83,-1667.84,0.0,133.0,157.0,2355.0,0.0,0.0,0.0,0.0,0.0,0.0,0.0,0.0,0.0,0.0,0.0,0.0,0.0,0.0
68.0,10558.0,21626.994866828736,0.0,-0.0,0.0,-10960.85989249459,0.0,3004.0689672426392,0.0,3004.0689672426392,0.0,0.0,1.0,0.8232877031103004,0.6417407565311617,0.0,0.0,0.0,"[0.5967164217081944, 0.8336665946757549, 0.4946758098234234, 0.7311848220140078, 0.5739176943223221, 0.6927489984928137, 0.29528354191410955, 0.896086188615314]",22.6,0.0,0.0,0.0,1251.7545104415424,144.9700344003739,-1542.9741260331627,-2034.5442148059785,0.0,0.0,0.0,0.0,0.0,0.0,0.0,-8.2,21.605299181639253,0.0,20.840860162346843,0.0,-8.2,22.6,19.41,22.27,21.39,22.27,-8.76,-8.2,21.7,-1094.59,-1704.85,0.0,151.0,107.0,844.0,0.0,0.0,0.0,0.0,0.0,0.0,0.0,0.0,0.0,0.0,0.0,0.0,0.0,0.0
69.0,7517.0,15240.71482528879,7647.511251162345,-0.0,0.0,0.0,0.0,13084.961983767429,0.0,0.0,0.0,13084.961983767427,1.0,0.8232877031103004,0.6417407565311617,0.0,0.0,0.0,"[0.5967164217081944, 0.8336665946757549, 0.4946758098234234, 0.7311848220140078, 0.5739176943223221, 0.6927489984928137, 0.29528354191410955, 0.896086188615314]",21.5,0.0,0.0,0.0,1414.7786198250606,192.6272396343286,-1523.1596122697188,-565.7573629790231,2700.519546941798,0.0,0.0,0.0,0.0,0.0,0.0,-8.9,21.24182389349095,0.0,20.798107011479047,0.0,-8.9,21.5,19.38,22.21,20.82,21.86,-9.45,-8.9,3864.3,-1080.54,-1682.95,0.0,162.0,173.0,953.0,0.0,0.0,0.0,0.0,0.0,0.0,0.0,0.0,0.0,0.0,0.0,0.0,0.0,0.0
70.0,4554.0,194.87883475041562,11639.904440576664,-0.0,0.0,16000.0,0.0,19028.249146669565,0.0,0.0,0.0,19028.249146669565,0.3197278911564626,0.8232877031103004,0.6417407565311617,0.0,0.0,0.0,"[0.5967164217081944, 0.8336665946757549, 0.4946758098234234, 0.7311848220140078, 0.5739176943223221, 0.6927489984928137, 0.29528354191410955, 0.896086188615314]",22.6,0.0,0.0,0.0,999.0777131480216,127.52621016761863,-1618.1269818557503,-2074.885794081165,187.1857879158906,0.0,0.0,0.0,0.0,0.0,0.0,-9.7,21.58627514509897,0.0,20.812839215544358,0.0,-9.7,22.6,19.38,22.24,21.74,22.5,-10.25,-9.7,3126.46,-1147.91,-1787.88,0.0,92.0,120.0,685.0,0.0,0.0,0.0,0.0,0.0,0.0,0.0,0.0,0.0,0.0,0.0,0.0,0.0,0.0
71.0,3037.0,0.0,0.0,-0.0,0.0,3037.0,0.0,4024.031238395703,0.0,4024.031238395703,0.0,0.0,0.19060374149659867,0.8061787267565772,0.6417407565311617,0.0,0.0,0.0,"[0.5967164217081944, 0.8336665946757549, 0.4946758098234234, 0.7311848220140078, 0.5739176943223221, 0.6927489984928137, 0.29528354191410955, 0.896086188615314]",21.4,0.0,0.0,0.0,771.4923914016398,98.02413073707527,-1593.405056962816,-472.0022385584969,1206.9867053720839,0.0,0.0,0.0,0.0,0.0,0.0,-10.4,21.191645252044864,0.0,20.767169674995692,0.0,-10.4,21.4,19.35,22.19,20.78,21.82,-10.95,-10.4,0.0,-1130.37,-1760.57,0.0,103.0,75.0,514.0,0.0,0.0,0.0,0.0,0.0,0.0,0.0,0.0,0.0,0.0,0.0,0.0,0.0,0.0
72.0,1567.0,0.0,0.0,-0.0,0.0,1567.0,0.0,18315.72376824226,0.0,18315.72376824226,0.0,0.0,0.12397959183673474,0.7283057515514656,0.6417407565311617,0.0,0.0,0.0,"[0.5967164217081944, 0.8336665946757549, 0.4946758098234234, 0.7311848220140078, 0.5739176943223221, 0.6927489984928137, 0.29528354191410955, 0.896086188615314]",21.4,0.0,0.0,0.0,297.50314124852196,87.35460717723466,-1618.4560089036786,-552.3940154204616,4189.538973133593,0.0,0.0,0.0,0.0,0.0,0.0,-10.9,21.151947112201317,0.0,20.712914031427246,0.0,-10.9,21.4,19.3,22.12,20.88,21.87,-11.47,-10.9,977.94,-1148.14,-1788.25,0.0,160.0,47.0,133.0,0.0,0.0,0.0,0.0,0.0,0.0,0.0,0.0,0.0,0.0,0.0,0.0,0.0,0.0
73.0,1193.0,1198.9949748743718,0.0,-0.0,0.0,0.0,0.0,23004.6845220334,0.0,23004.684522033396,0.0,0.0,0.12397959183673474,0.6304967187196909,0.6417407565311617,0.0,0.0,0.0,"[0.5967164217081944, 0.8336665946757549, 0.4946758098234234, 0.7311848220140078, 0.5739176943223221, 0.6927489984928137, 0.29528354191410955, 0.896086188615314]",22.6,0.0,0.0,0.0,117.56343037255024,63.4074542984813,-1708.310408842855,-2170.691058390123,3705.2080478986154,0.0,0.0,0.0,0.0,0.0,0.0,-11.5,21.539848725590375,0.0,20.744065447715837,0.0,-11.5,22.6,19.3,22.18,21.86,22.57,-12.08,-11.5,5089.13,-1211.88,-1887.53,0.0,160.0,15.0,2.0,0.0,0.0,0.0,0.0,0.0,0.0,0.0,0.0,0.0,0.0,0.0,0.0,0.0,0.0
74.0,1586.0,0.0,0.0,-0.0,0.0,2192.0000000000014,0.0,18611.731530369325,0.0,18066.331530369323,0.0,0.0,0.030782312925170065,0.5536840846619983,0.6417407565311617,2424.0000000000055,606.0000000000014,3030.000000000007,"[0.5967164217081944, 0.8336665946757549, 0.4946758098234234, 0.7311848220140078, 0.5739176943223221, 0.6927489984928137, 0.29528354191410955, 0.896086188615314]",22.6,0.0,0.0,0.0,223.28593970038324,60.02030396202396,-1743.3817415600627,-2099.7633107789234,1172.9743505865831,0.0,0.0,0.0,0.0,0.0,0.0,-12.2,21.575737715395988,0.0,20.786942517163432,0.0,-12.2,22.6,19.31,22.26,21.79,22.57,-12.8,-12.2,2523.19,-1236.76,-1926.28,0.0,160.0,5.0,82.0,0.0,0.0,0.0,0.0,0.0,0.0,0.0,0.0,0.0,0.0,0.0,0.0,0.0,0.0
75.0,724.0,0.0,0.0,-0.0,0.0,724.0,0.0,17811.49565250072,0.0,17811.495652500715,0.0,0.0,0.0,0.47795493647959725,0.6417407565311617,0.0,0.0,0.0,"[0.5967164217081944, 0.8336665946757549, 0.4946758098234234, 0.7311848220140078, 0.5739176943223221, 0.6927489984928137, 0.29528354191410955, 0.896086188615314]",21.4,0.0,0.0,0.0,112.77067661635516,54.194405383317346,-1703.6292455026107,-484.5150695297838,4420.972330607349,0.0,0.0,0.0,0.0,0.0,0.0,-12.6,21.18705349891147,0.0,20.74781611572017,0.0,-12.6,21.4,19.27,22.22,20.86,21.92,-13.2,-12.6,736.87,-1208.56,-1882.36,0.0,160.0,0.0,0.0,0.0,0.0,0.0,0.0,0.0,0.0,0.0,0.0,0.0,0.0,0.0,0.0,0.0,0.0
76.0,1067.0,17152.76381909548,0.0,-0.0,0.0,-16000.0,0.0,24238.878782599364,0.0,24238.878782599364,0.0,0.0,0.6533333333333333,0.3748984790705864,0.6417407565311617,0.0,0.0,0.0,"[0.5967164217081944, 0.8336665946757549, 0.4946758098234234, 0.7311848220140078, 0.5739176943223221, 0.6927489984928137, 0.29528354191410955, 0.896086188615314]",22.6,0.0,0.0,0.0,226.73954167175907,69.19948137382333,-1783.4632646654422,-2110.482017308448,3605.839358117843,0.0,0.0,0.0,0.0,0.0,0.0,-13.0,21.570974535746096,0.0,20.773473115442485,0.0,-13.0,22.6,19.27,22.28,21.88,22.64,-13.59,-13.0,5113.7,-1265.2,-1970.57,0.0,160.0,20.0,83.0,0.0,0.0,0.0,0.0,0.0,0.0,0.0,0.0,0.0,0.0,0.0,0.0,0.0,0.0
77.0,1930.0,21602.032764773794,0.0,-0.0,0.0,0.0,0.0,17607.620340854923,0.0,0.0,0.0,0.0,0.6533333333333333,0.3748984790705864,0.6417407565311617,78256.09040379968,19564.02260094992,97820.1130047496,"[0.5967164217081944, 0.8336665946757549, 0.4946758098234234, 0.7311848220140078, 0.5739176943223221, 0.6927489984928137, 0.29528354191410955, 0.896086188615314]",22.6,0.0,0.0,0.0,144.3464660689346,75.6011955097277,-1803.5040262181321,-2051.2708333243263,3446.930246178573,0.0,0.0,0.0,0.0,0.0,0.0,-13.4,21.600794608186053,0.0,20.808312287088185,0.0,-13.4,22.6,19.27,22.35,21.78,22.61,-14.0,-13.4,0.0,-1279.41,-1992.71,0.0,160.0,34.0,20.0,0.0,0.0,0.0,0.0,0.0,0.0,0.0,0.0,0.0,0.0,0.0,0.0,0.0,0.0
78.0,1160.0,1165.8291457286432,0.0,-0.0,0.0,0.0,0.0,20656.510956918464,0.0,20656.510956918464,0.0,0.0,0.6533333333333333,0.28707317738300786,0.6417407565311617,0.0,0.0,0.0,"[0.5967164217081944, 0.8336665946757549, 0.4946758098234234, 0.7311848220140078, 0.5739176943223221, 0.6927489984928137, 0.29528354191410955, 0.896086188615314]",22.5,0.0,0.0,0.0,322.0307634125792,128.40686925509755,-1818.6373766413312,-1869.155958685167,1054.687023889394,0.0,0.0,0.0,0.0,0.0,0.0,-13.8,21.593863894620977,0.0,20.83411285807334,0.0,-13.8,22.5,19.27,22.4,21.72,22.6,-14.4,-13.8,4907.76,-1290.15,-2009.43,0.0,320.0,29.0,69.0,0.0,0.0,0.0,0.0,0.0,0.0,0.0,0.0,0.0,0.0,0.0,0.0,0.0,0.0
79.0,950.0,0.0,0.0,-0.0,0.0,15366.400000000001,0.0,13750.421595302269,0.0,775.6615953022762,0.0,0.0,0.0,0.28377529645060023,0.6417407565311617,57665.600000000006,14416.400000000001,72082.0,"[0.5967164217081944, 0.8336665946757549, 0.4946758098234234, 0.7311848220140078, 0.5739176943223221, 0.6927489984928137, 0.29528354191410955, 0.896086188615314]",21.4,0.0,0.0,0.0,139.13082227542822,77.43025669141467,-1778.7821013251983,-405.810858579561,1976.796670339426,0.0,0.0,0.0,0.0,0.0,0.0,-14.1,21.22740154313395,0.0,20.78552005243482,0.0,-14.1,21.4,19.22,22.35,20.87,22.0,-14.71,-14.1,530.23,-1261.88,-1965.39,0.0,117.0,60.0,36.0,0.0,0.0,0.0,0.0,0.0,0.0,0.0,0.0,0.0,0.0,0.0,0.0,0.0,0.0
80.0,1131.0,35357.53841519772,0.0,-2.9103830456733704e-11,0.0,-15773.566190125548,0.0,16448.566079696524,0.0,0.0,0.0,0.0,0.6440872860967932,0.28377529645060023,0.6417407565311618,73104.73813198459,18276.184532996147,91380.92266498072,"[0.5967164217081944, 0.8336665946757549, 0.4946758098234234, 0.7311848220140043, 0.5739176943223221, 0.6927489984928137, 0.2952835419144755, 0.896086188615314]",21.4,0.0,0.0,3.10989297364272,186.84691481872355,84.30617187442307,-1783.7922917133703,-488.2523567073243,4401.025071304416,0.0,0.0,0.0,0.0,0.0,0.0,-14.2,21.18636650044253,0.0,20.728808417108176,0.0,-14.2,21.4,19.18,22.28,20.95,22.03,-14.8,-14.2,1634.16,-1265.43,-1970.93,4.59,95.0,81.0,81.0,0.0,0.0,0.0,0.0,0.0,0.0,0.0,0.0,0.0,0.0,0.0,0.0,0.0,0.0
81.0,1970.0,43105.634320730576,48912.135389463445,-0.0,7992.029240336526,0.0,0.0,20955.5414229666,0.0,-48744.73951009151,0.0,69700.28093305811,0.6440872860967932,0.48281631611680725,0.6417407565311617,0.0,0.0,0.0,"[0.5967164217081944, 0.8336665946757549, 0.4946758098234234, 0.7311848220140043, 0.5739176943223221, 0.6927489984928137, 0.2952835419144755, 0.896086188615314]",22.6,0.0,0.0,1030.123842793323,298.3489213231447,67.30267718540723,-1728.3511703955448,-2114.5696266245923,1756.6749006191064,0.0,0.0,0.0,0.0,0.0,0.0,-11.9,21.567583532812147,0.0,20.7509157623646,0.0,-11.9,22.6,19.17,22.33,21.86,22.67,-11.75,-11.9,1337.04,-1226.1,-1909.67,1520.63,122.0,34.0,155.0,0.0,0.0,0.0,0.0,0.0,0.0,0.0,0.0,0.0,0.0,0.0,0.0,0.0,0.0
82.0,5335.0,0.0,0.0,-0.0,14290.197225934182,-3951.4285740875594,0.0,4503.391786661959,0.0,0.0,0.0,0.0,0.8054372862053686,0.48281631611680725,0.6417407565311617,20015.07460738649,5003.768651846623,25018.843259233112,"[0.5967164217081944, 0.8336665946757549, 0.4946758098234234, 0.7311848220140043, 0.5739176943223221, 0.6927489984928137, 0.2952835419144755, 0.896086188615314]",22.24,0.0,0.0,1476.1813139808385,1387.0793223811681,81.29160807497604,-1615.3737231327073,-1548.7202894165925,0.0,0.0,0.0,0.0,0.0,0.0,0.0,-10.0,21.49288391890238,0.0,20.791568630457437,0.0,-10.0,22.24,19.18,22.4,21.7,22.61,-9.55,-10.0,0.0,-1145.95,-1784.84,2179.09,144.0,0.0,960.0,0.0,0.0,0.0,0.0,0.0,0.0,0.0,0.0,0.0,0.0,0.0,0.0,0.0,0.0
83.0,4198.0,0.0,0.0,-0.0,17251.52726825571,-4764.801154154238,0.0,7459.853502691323,0.0,0.0,0.0,0.0,1.0,0.48281631611680725,0.6417407565311617,33154.90445640589,8288.726114101473,41443.63057050737,"[0.5967164217081944, 0.8336665946757549, 0.4946758098234234, 0.7311848220140043, 0.5739176943223221, 0.6927489984928137, 0.2952835419144755, 0.896086188615314]",22.12,0.0,0.0,1752.842678926134,105.79299100071819,2.675848765801294,-1534.0115367132141,-1336.3203240810656,0.0,0.0,0.0,0.0,0.0,0.0,0.0,-8.5,21.473537748823944,0.0,20.815143196375825,0.0,-8.5,22.12,19.2,22.43,21.57,22.55,-7.88,-8.5,0.0,-1088.23,-1694.94,2587.49,0.0,0.0,79.0,0.0,0.0,0.0,0.0,0.0,0.0,0.0,0.0,0.0,0.0,0.0,0.0,0.0,0.0
84.0,6604.0,0.0,6509.191620333244,-6243.793452970614,19356.98507330386,0.0,0.0,12006.04433967462,0.0,0.0,0.0,12006.04433967462,1.0,0.48281631611680725,0.6548476779314277,0.0,0.0,0.0,"[0.5967164217081944, 0.8336665946757549, 0.4946758098234234, 0.7311848220140043, 0.5739176943223221, 0.6927489984928137, 0.2952835419144755, 0.896086188615314]",21.6,0.0,0.0,1951.6423766721596,2.678303569638429,0.06774300672914568,-1458.108696104041,-593.0230364382707,0.0,0.0,0.0,0.0,0.0,0.0,0.0,-7.5,21.32797099054727,0.0,20.82971770157903,0.0,-7.5,21.6,19.21,22.45,21.4,22.44,-6.77,-7.5,2734.72,-1034.39,-1611.08,2880.95,0.0,0.0,2.0,0.0,0.0,0.0,0.0,0.0,0.0,0.0,0.0,0.0,0.0,0.0,0.0,0.0,0.0
85.0,6962.0,0.0,0.0,-6918.067692176279,17127.617088899922,0.0,0.0,2922.7944570512777,0.0,0.0,0.0,0.0,1.0,0.48281631611680725,0.640248961501275,12990.197586894574,3247.5493967236434,16237.746983618215,"[0.5967164217081944, 0.8336665946757549, 0.4946758098234234, 0.7311848220140043, 0.5739176943223221, 0.6927489984928137, 0.2952835419144755, 0.896086188615314]",21.54,0.0,0.0,1737.9031217554468,109.81044635517584,2.7774632758950126,-1440.0064076394817,-491.5757461248387,2221.0884844605866,0.0,0.0,0.0,0.0,0.0,0.0,-7.2,21.3170609874911,0.0,20.841635677873136,0.0,-7.2,21.54,19.23,22.46,21.45,22.48,-6.59,-7.2,0.0,-1021.55,-1591.08,2565.44,0.0,0.0,82.0,0.0,0.0,0.0,0.0,0.0,0.0,0.0,0.0,0.0,0.0,0.0,0.0,0.0,0.0
86.0,4484.0,0.0,0.0,-9731.911279854174,14215.911279854174,0.0,0.0,6604.69656558049,0.0,6604.696565580489,0.0,0.0,1.0,0.45473512323593784,0.648071583925371,0.0,0.0,0.0,"[0.5967164217081944, 0.8336665946757549, 0.4946758098234234, 0.7311848220140043, 0.5739176943223221, 0.6927489984928137, 0.2952835419144755, 0.896086188615314]",22.6,0.0,0.0,1466.8433662224008,0.0,0.0,-1517.9231740923003,-1865.2935381087582,0.0,0.0,0.0,0.0,0.0,0.0,0.0,-7.7,21.688587772002172,0.0,20.91126420683766,0.0,-7.7,22.6,19.27,22.55,22.21,23.03,-7.27,-7.7,0.0,-1076.82,-1677.17,2165.31,0.0,0.0,0.0,0.0,0.0,0.0,0.0,0.0,0.0,0.0,0.0,0.0,0.0,0.0,0.0,0.0,0.0
87.0,2814.0,9194.219318808375,0.0,-0.0,0.7717777856679999,0.0,0.0,24687.3080120729,31675.1,50027.38801207291,0.0,0.0,1.0,0.24203364359277071,0.648071583925371,25340.08,6335.02,31675.1,"[0.5967164217081944, 0.8336665946757549, 0.4946758098234234, 0.7311848220140043, 0.5739176943223221, 0.6927489984928137, 0.2952835419144755, 0.896086188615314]",21.63,0.0,0.0,21.85964049006425,214.82813895415666,45.116842481611684,-1554.733457725178,-506.8295774670665,3721.2368231323276,0.0,0.0,0.0,0.0,0.0,0.0,-9.4,21.401854194975424,0.0,20.920161714614327,0.0,-9.4,21.63,19.29,22.55,21.35,22.45,-9.94,-9.4,1763.77,-1102.93,-1717.84,32.27,118.0,3.0,98.0,0.0,0.0,0.0,0.0,0.0,0.0,0.0,0.0,0.0,0.0,0.0,0.0,0.0,0.0
88.0,3523.0,0.0,0.0,-0.0,0.0,3523.0,0.0,3903.8588881019273,0.0,3903.8588881019273,0.0,0.0,0.8502125850340136,0.22543560410254143,0.615272750106129,0.0,0.0,0.0,"[0.5967164217081944, 0.8336665946757549, 0.4946758098234234, 0.7311848220140043, 0.5739176943223221, 0.6927489984928137, 0.2952835419144755, 0.896086188615314]",22.6,0.0,0.0,0.0,306.8067220693713,108.62591129018674,-1593.0760299148874,-1837.7427038782312,634.0235989451292,0.0,0.0,0.0,0.0,0.0,0.0,-9.2,21.70414947742293,0.0,20.933695872307887,0.0,-9.2,22.6,19.3,22.57,21.83,22.76,-9.76,-9.2,0.0,-1130.13,-1760.2,0.0,116.0,105.0,157.0,0.0,0.0,0.0,0.0,0.0,0.0,0.0,0.0,0.0,0.0,0.0,0.0,0.0,0.0
89.0,8844.0,797.8203434054318,4037.8312416884046,-0.0,0.0,12088.0,0.0,6870.272452676725,0.0,0.0,0.0,6870.272452676725,0.3362670068027211,0.22543560410254143,0.615272750106129,0.0,0.0,0.0,"[0.5967164217081944, 0.8336665946757549, 0.4946758098234234, 0.7311848220140043, 0.5739176943223221, 0.6927489984928137, 0.2952835419144755, 0.896086188615314]",21.4,0.0,0.0,0.0,1096.2719400567426,221.72286102449706,-1523.2623915284012,-246.285370218919,476.65108464782105,0.0,0.0,0.0,0.0,0.0,0.0,-9.0,21.303142098393444,0.0,20.88274929356085,0.0,-9.0,21.4,19.27,22.49,20.84,22.05,-9.53,-9.0,0.0,-1080.61,-1683.07,0.0,155.0,238.0,712.0,0.0,0.0,0.0,0.0,0.0,0.0,0.0,0.0,0.0,0.0,0.0,0.0,0.0,0.0
90.0,10092.0,10142.713567839197,0.0,-0.0,0.0,0.0,0.0,10211.675973716068,0.0,10211.675973716068,0.0,0.0,0.3362670068027211,0.18201861441837447,0.615272750106129,0.0,0.0,0.0,"[0.5967164217081944, 0.8336665946757549, 0.4946758098234234, 0.7311848220140043, 0.5739176943223221, 0.6927489984928137, 0.2952835419144755, 0.896086188615314]",21.4,0.0,0.0,0.0,2492.3729165672194,246.51680148736486,-1513.2420107520563,-352.96975617014857,1548.8852576503766,0.0,0.0,0.0,0.0,0.0,0.0,-8.8,21.249795288265453,0.0,20.8143074860894,0.0,-8.8,21.4,19.24,22.39,20.85,21.99,-9.31,-8.8,17.4,-1073.5,-1672.0,0.0,143.0,227.0,1762.0,0.0,0.0,0.0,0.0,0.0,0.0,0.0,0.0,0.0,0.0,0.0,0.0,0.0,0.0
91.0,7909.0,0.0,0.0,-0.0,0.0,7909.0,0.0,4581.465560399545,0.0,4581.465560399545,0.0,0.0,0.0,0.1625395941785805,0.6070730416513185,0.0,0.0,0.0,"[0.5967164217081944, 0.8336665946757549, 0.4946758098234234, 0.7311848220140043, 0.5739176943223221, 0.6927489984928137, 0.2952835419144755, 0.896086188615314]",22.6,0.0,0.0,0.0,1564.9750647434685,205.80325444314764,-1568.025077974025,-2035.8796047890953,0.0,0.0,0.0,0.0,0.0,0.0,0.0,-8.7,21.6049499275237,0.0,20.806777101159668,0.0,-8.7,22.6,19.24,22.38,21.56,22.48,-9.2,-8.7,0.0,-1112.36,-1732.53,0.0,144.0,198.0,1072.0,0.0,0.0,0.0,0.0,0.0,0.0,0.0,0.0,0.0,0.0,0.0,0.0,0.0,0.0
92.0,6847.0,0.0,0.0,-0.0,0.0,6847.0,0.0,5282.093178793238,0.0,5282.093178793238,0.0,0.0,0.25479013535286593,0.46674838168371136,0.6070730416513185,0.0,0.0,0.0,"[0.5967164217081944, 0.8336665946757549, 0.49467580982341985, 0.3839358131534034, 0.521224396017864, 0.6927489984928137, 0.2952835419144719, 0.896086188615314]",21.67,0.0,0.0,0.0,964.6826567800333,140.6683534730731,-1511.6315218190653,-798.4922141550096,683.4597510537352,0.0,0.0,0.0,0.0,0.0,0.0,-8.5,21.295477083568866,0.0,20.76900879771849,0.0,-8.5,21.67,19.22,22.32,20.88,21.99,-8.98,-8.5,58.98,-1072.36,-1670.22,0.0,130.0,123.0,639.0,0.0,0.0,0.0,0.0,0.0,0.0,0.0,0.0,0.0,0.0,0.0,0.0,0.0,0.0
93.0,5570.0,5597.989949748744,0.0,-0.0,0.0,0.0,0.0,16040.462921409904,0.0,16040.462921409904,0.0,0.0,0.25479013535286593,0.3985491345688733,0.6070730416513185,0.0,0.0,0.0,"[0.5967164217081944, 0.8336665946757549, 0.49467580982341985, 0.3839358131534034, 0.521224396017864, 0.6927489984928137, 0.2952835419144719, 0.896086188615314]",21.4,0.0,0.0,0.0,1047.3576590743987,136.84087359287633,-1488.1910588111934,-507.7627727234553,3220.903639722708,0.0,0.0,0.0,0.0,0.0,0.0,-8.3,21.172221674790254,0.0,20.714603392287128,0.0,-8.3,21.4,19.19,22.24,20.8,21.9,-8.77,-8.3,423.79,-1055.73,-1644.32,0.0,155.0,100.0,690.0,0.0,0.0,0.0,0.0,0.0,0.0,0.0,0.0,0.0,0.0,0.0,0.0,0.0,0.0
94.0,5124.0,40906.747980459564,0.0,-0.0,0.0,-16000.0,0.0,17620.39281650153,0.0,0.0,0.0,0.0,0.9081234686861992,0.3985491345688733,0.5863004468991319,78312.85696222905,19578.214240557263,97891.07120278632,"[0.5967164217081944, 0.8336665946757549, 0.49467580982341985, 0.3839358131534034, 0.521224396017864, 0.6927489984928137, 0.2952835419144719, 0.896086188615314]",22.6,0.0,0.0,0.0,1112.0598347830328,90.8433720237857,-1537.9639356449904,-2145.5973624150265,2490.9411906297682,0.0,0.0,0.0,0.0,0.0,0.0,-8.1,21.549779627499603,0.0,20.735777888132432,0.0,-8.1,22.6,19.2,22.27,21.72,22.54,-8.56,-8.1,4137.48,-1091.04,-1699.31,0.0,84.0,59.0,780.0,0.0,0.0,0.0,0.0,0.0,0.0,0.0,0.0,0.0,0.0,0.0,0.0,0.0,0.0
95.0,4417.0,0.0,5384.437728214521,-0.0,0.0,9801.437728214521,0.0,9726.13737526504,0.0,0.0,0.0,9726.137375265042,0.4913956741192553,0.3985491345688733,0.5863004468991316,0.0,0.0,0.0,"[0.5967164217081944, 0.8336665946757549, 0.49467580982341985, 0.3839358131534034, 0.521224396017864, 0.6927489984928137, 0.2952835419144719, 0.896086188615314]",22.6,0.0,0.0,0.0,634.6874643314239,132.60693567230464,-1527.9435548686454,-2097.1923507564293,479.1935583307632,0.0,0.0,0.0,0.0,0.0,0.0,-7.9,21.57375793857148,0.0,20.76692780060786,0.0,-7.9,22.6,19.22,22.32,21.61,22.49,-8.35,-7.9,0.0,-1083.93,-1688.24,0.0,282.0,43.0,321.0,0.0,0.0,0.0,0.0,0.0,0.0,0.0,0.0,0.0,0.0,0.0,0.0,0.0,0.0
96.0,2367.0,9616.728440645828,8496.603734764423,-0.0,0.0,1294.9589363218254,0.0,15833.778715627395,0.0,0.0,0.0,15833.778715627397,0.43633789621441577,0.3985491345688733,0.5731809133714348,0.0,0.0,0.0,"[0.5967164217081944, 0.8336665946757549, 0.49467580982341985, 0.3839358131534034, 0.521224396017864, 0.6927489984928137, 0.2952835419144719, 0.896086188615314]",21.4,0.0,0.0,0.0,718.5606550648381,77.39638518805009,-1438.0891549294686,-484.44647942944084,1135.339549391429,0.0,0.0,0.0,0.0,0.0,0.0,-7.3,21.183104664400066,0.0,20.729308227249074,0.0,-7.3,21.4,19.2,22.26,20.77,21.89,-7.76,-7.3,4633.16,-1020.19,-1588.96,0.0,160.0,13.0,451.0,0.0,0.0,0.0,0.0,0.0,0.0,0.0,0.0,0.0,0.0,0.0,0.0,0.0,0.0
97.0,1793.0,0.0,0.0,-0.0,0.0,1793.0,0.0,10431.121107735868,0.0,10431.121107735866,0.0,0.0,0.3601049030171369,0.35419912985911195,0.5731809133714348,0.0,0.0,0.0,"[0.5967164217081944, 0.8336665946757549, 0.49467580982341985, 0.3839358131534034, 0.521224396017864, 0.6927489984928137, 0.2952835419144719, 0.896086188615314]",21.4,0.0,0.0,0.0,255.6370275547001,67.50590620559468,-1403.0178222122613,-562.322513180232,1649.8387950168094,0.0,0.0,0.0,0.0,0.0,0.0,-6.6,21.143761532137347,0.0,20.679136727339795,0.0,-6.6,21.4,19.18,22.18,20.82,21.89,-7.05,-6.6,19.26,-995.31,-1550.21,0.0,160.0,16.0,105.0,0.0,0.0,0.0,0.0,0.0,0.0,0.0,0.0,0.0,0.0,0.0,0.0,0.0,0.0
98.0,1110.0,0.0,7359.667318963059,-0.0,0.0,8469.66731896306,0.0,14697.317386628769,0.0,0.0,0.0,14697.317386628773,0.0,0.35419912985911195,0.5731809133714348,0.0,0.0,0.0,"[0.5967164217081944, 0.8336665946757549, 0.49467580982341985, 0.3839358131534034, 0.521224396017864, 0.6927489984928137, 0.2952835419144719, 0.896086188615314]",21.4,0.0,0.0,0.0,171.69335514840077,55.684751531358565,-1367.9464894950538,-621.1264953577875,4161.6566768561115,0.0,0.0,0.0,0.0,0.0,0.0,-5.9,21.113920646744926,0.0,20.64141305665482,0.0,-5.9,21.4,19.16,22.12,20.87,21.9,-6.34,-5.9,1265.36,-970.43,-1511.46,0.0,160.0,0.0,44.0,0.0,0.0,0.0,0.0,0.0,0.0,0.0,0.0,0.0,0.0,0.0,0.0,0.0,0.0
99.0,2546.0,2558.7939698492464,0.0,-0.0,0.0,0.0,0.0,24492.08724670389,0.0,24492.087246703893,0.0,0.0,0.0,0.2500661058510172,0.5731809133714348,0.0,0.0,0.0,"[0.5967164217081944, 0.8336665946757549, 0.49467580982341985, 0.3839358131534034, 0.521224396017864, 0.6927489984928137, 0.2952835419144719, 0.896086188615314]",22.6,0.0,0.0,0.0,143.9940577045085,56.80251114238949,-1407.6989855525067,-2227.1276411998924,3440.45987060288,0.0,0.0,0.0,0.0,0.0,0.0,-5.5,21.507209398527607,0.0,20.684007699153735,0.0,-5.5,22.6,19.19,22.18,21.8,22.55,-5.94,-5.5,5045.11,-998.63,-1555.38,0.0,160.0,3.0,23.0,0.0,0.0,0.0,0.0,0.0,0.0,0.0,0.0,0.0,0.0,0.0,0.0,0.0,0.0
100.0,1006.0,1011.0552763819096,0.0,-0.0,0.0,0.0,0.0,16058.880636755788,0.0,16058.880636755786,0.0,0.0,0.0,0.18178855212331402,0.5731809133714348,0.0,0.0,0.0,"[0.5967164217081944, 0.8336665946757549, 0.49467580982341985, 0.3839358131534034, 0.521224396017864, 0.6927489984928137, 0.2952835419144719, 0.896086188615314]",22.6,0.0,0.0,0.0,178.95296745557863,69.80916843438565,-1382.648033611643,-2145.03802750799,893.1675266921816,0.0,0.0,0.0,0.0,0.0,0.0,-5.0,21.547763994914888,0.0,20.73788442109216,0.0,-5.0,22.6,19.22,22.25,21.72,22.53,-5.43,-5.0,3983.9,-980.86,-1527.7,0.0,160.0,23.0,47.0,0.0,0.0,0.0,0.0,0.0,0.0,0.0,0.0,0.0,0.0,0.0,0.0,0.0,0.0
101.0,3177.0,9908.131662058731,0.0,-0.0,0.0,-6681.591003748437,0.0,10819.725100538071,0.0,10819.725100538071,0.0,0.0,0.2728316326530612,0.13578631955299908,0.5731809133714346,0.0,0.0,0.0,"[0.5967164217081944, 0.8336665946757549, 0.49467580982341985, 0.3839358131534034, 0.521224396017864, 0.6927489984928137, 0.2952835419144719, 0.896086188615314]",21.4,0.0,0.0,0.0,192.90833868685255,72.58663171028067,-1302.8140144488116,-515.2455989281764,3954.4396655960572,0.0,0.0,0.0,0.0,0.0,0.0,-4.6,21.165697801316472,0.0,20.712882277511397,0.0,-4.6,21.4,19.22,22.21,20.8,21.88,-4.96,-4.6,940.47,-924.22,-1439.49,0.0,160.0,27.0,57.0,0.0,0.0,0.0,0.0,0.0,0.0,0.0,0.0,0.0,0.0,0.0,0.0,0.0,0.0
102.0,6417.0,0.0,0.0,-0.0,0.0,6417.0,0.0,13153.73373956387,0.0,13153.73373956387,0.0,0.0,0.0,0.0798605808643772,0.5731809133714346,0.0,0.0,0.0,"[0.5967164217081944, 0.8336665946757549, 0.49467580982341985, 0.3839358131534034, 0.521224396017864, 0.6927489984928137, 0.2952835419144719, 0.896086188615314]",22.6,0.0,0.0,0.0,237.3117926045424,96.63539909912775,-1347.5767008944358,-2128.6215469394956,759.5312775429071,0.0,0.0,0.0,0.0,0.0,0.0,-4.3,21.555394034559484,0.0,20.751897736851014,0.0,-4.3,22.6,19.25,22.25,21.81,22.58,-4.67,-4.3,4084.16,-955.98,-1488.95,0.0,222.0,32.0,57.0,0.0,0.0,0.0,0.0,0.0,0.0,0.0,0.0,0.0,0.0,0.0,0.0,0.0,0.0
103.0,1050.0,13064.658070976644,6178.8224940744885,-0.0,0.0,-5770.512286547271,0.0,13458.34797335166,0.0,0.0,0.0,13458.34797335166,0.23562925170068025,0.0798605808643772,0.5731809133714346,0.0,0.0,0.0,"[0.5967164217081944, 0.8336665946757549, 0.49467580982341985, 0.3839358131534034, 0.521224396017864, 0.6927489984928137, 0.2952835419144719, 0.896086188615314]",21.4,0.0,0.0,0.0,154.63679031017702,60.49450500912798,-1272.7528721197768,-498.96390093954494,3957.0917209089994,0.0,0.0,0.0,0.0,0.0,0.0,-4.0,21.17337846834384,0.0,20.72731253525118,0.0,-4.0,21.4,19.25,22.21,20.81,21.88,-4.36,-4.0,2506.88,-902.9,-1406.28,0.0,131.0,24.0,44.0,0.0,0.0,0.0,0.0,0.0,0.0,0.0,0.0,0.0,0.0,0.0,0.0,0.0,0.0
104.0,5542.0,21650.251256281404,0.0,-0.0,0.0,-16000.0,0.0,5566.566392445227,0.0,5566.566392445227,0.0,0.0,0.6533333333333333,0.03252583262929873,0.5731809133714346,0.0,0.0,0.0,"[0.5967164217081944, 0.8336665946757549, 0.49467580982341985, 0.34193975896249995, 0.521224396017864, 0.6927489984928137, 0.2952835419144719, 0.896086188615314]",22.6,0.0,0.0,1.0157811429069221,207.56852664697868,59.44448840482621,-1317.5155585654006,-2111.8937549218645,774.4645244037658,0.0,0.0,0.0,0.0,0.0,0.0,-3.7,21.563276836703615,0.0,20.766788391279267,0.0,-3.7,22.6,19.28,22.25,21.82,22.58,-4.04,-3.7,0.0,-934.65,-1455.74,1.5,133.0,19.0,83.0,0.0,0.0,0.0,0.0,0.0,0.0,0.0,0.0,0.0,0.0,0.0,0.0,0.0,0.0
105.0,4796.0,7862.783253563591,9368.709317554032,-0.0,5.43907958359153,6335.800900674669,0.0,17789.35470279702,0.0,-4224.683311241842,0.0,22014.03801403886,0.38395404333866207,0.049776622816869585,0.5731809133714346,0.0,0.0,0.0,"[0.5967164217081944, 0.8336665946757549, 0.49467580982341985, 0.34193975896249995, 0.521224396017864, 0.6927489984928137, 0.2952835419144719, 0.896086188615314]",21.4,0.0,0.0,29.98281699655725,309.2735806203541,72.89147524056183,-1182.5694451326717,-481.25772565203215,3653.99159228252,0.0,0.0,0.0,0.0,0.0,0.0,-2.2,21.180845057988527,0.0,20.74185677133299,0.0,-2.2,21.4,19.28,22.2,20.81,21.87,-2.5,-2.2,894.7,-838.92,-1306.63,44.26,165.0,20.0,142.0,0.0,0.0,0.0,0.0,0.0,0.0,0.0,0.0,0.0,0.0,0.0,0.0,0.0,0.0
106.0,3758.0,3758.2364066072564,0.0,-0.0,18.55477542577994,0.0,0.0,11707.461686527728,0.0,11707.461686527728,0.0,0.0,0.38395404333866207,0.0,0.5731809133714342,0.0,0.0,0.0,"[0.5967164217081944, 0.8336665946757549, 0.49467580982341985, 0.34193975896249995, 0.521224396017864, 0.6927489984928137, 0.2952835419144719, 0.896086188615314]",22.6,0.0,0.0,37.73531107493943,1113.8218766051627,66.96396215176149,-1192.2607988610885,-2093.3040060211733,0.0,0.0,0.0,0.0,0.0,0.0,0.0,-1.2,21.57066700003552,0.0,20.782275821727076,0.0,-1.2,22.6,19.32,22.25,21.8,22.56,-1.48,-1.2,4680.16,-845.79,-1317.34,55.7,102.0,10.0,777.0,0.0,0.0,0.0,0.0,0.0,0.0,0.0,0.0,0.0,0.0,0.0,0.0,0.0,0.0
107.0,5597.0,11398.010747074472,5960.678978880783,-0.0,216.6582855416858,0.0,0.0,11794.196067687317,0.0,-3518.8287836823138,0.0,15313.02485136963,0.38395404333866207,0.014368550866702783,0.5731809133714342,0.0,0.0,0.0,"[0.5967164217081944, 0.8336665946757549, 0.49467580982341985, 0.34193975896249995, 0.521224396017864, 0.6927489984928137, 0.2952835419144719, 0.896086188615314]",21.56,0.0,0.0,71.4375352514282,617.7718628389707,56.05733806836889,-1075.2918490615289,-686.7429415710183,705.5452462979549,0.0,0.0,0.0,0.0,0.0,0.0,0.1,21.235621431703553,0.0,20.757915234842855,0.0,0.1,21.56,19.32,22.19,20.8,21.85,-0.18,0.1,2686.97,-762.82,-1188.1,105.45,126.0,0.0,395.0,0.0,0.0,0.0,0.0,0.0,0.0,0.0,0.0,0.0,0.0,0.0,0.0,0.0,0.0
108.0,4478.0,6795.097835665702,2813.3155484034714,-0.0,530.1932019160979,0.0,0.0,7522.448990233092,0.0,0.0,0.0,7522.4489902330915,0.38395404333866207,0.014368550866702783,0.5666211466075858,0.0,0.0,0.0,"[0.5967164217081944, 0.8336665946757549, 0.49467580982341985, 0.34193975896249995, 0.521224396017864, 0.6927489984928137, 0.2952835419144719, 0.896086188615314]",21.4,0.0,0.0,93.25600711789845,1467.6398744889775,85.2545739686311,-1012.2229719348071,-522.03740394479,2292.6716274334594,0.0,0.0,0.0,0.0,0.0,0.0,1.2,21.158040403326233,0.0,20.72431086973375,0.0,1.2,21.4,19.33,22.12,20.83,21.83,0.87,1.2,0.0,-718.08,-1118.41,137.66,150.0,0.0,1017.0,0.0,0.0,0.0,0.0,0.0,0.0,0.0,0.0,0.0,0.0,0.0,0.0,0.0,0.0
109.0,9595.0,0.0,0.0,-0.0,564.4009006746669,9030.599099325333,0.0,3379.4831638484948,0.0,3379.4831638484948,0.0,0.0,0.0,0.0,0.5666211466075858,0.0,0.0,0.0,"[0.5967164217081944, 0.8336665946757549, 0.49467580982341985, 0.34193975896249995, 0.521224396017864, 0.6927489984928137, 0.2952835419144719, 0.896086188615314]",22.6,0.0,0.0,98.33655314171364,783.4037941192422,19.814829468275406,-1031.9347064395688,-2148.0200144394303,0.0,0.0,0.0,0.0,0.0,0.0,0.0,2.0,21.541076044078068,0.0,20.757391116699743,0.0,2.0,22.6,19.37,22.15,21.65,22.4,1.68,2.0,444.29,-732.06,-1140.19,145.16,0.0,0.0,585.0,0.0,0.0,0.0,0.0,0.0,0.0,0.0,0.0,0.0,0.0,0.0,0.0,0.0,0.0
110.0,4798.0,39103.49241161796,34260.38581586118,-0.0,150.4108663013011,0.0,0.0,15200.689243882887,0.0,-80000.0,0.0,95200.6892438829,0.0,0.3266666666666667,0.5518616713889266,0.0,0.0,0.0,"[0.5967164217081944, 0.8336665946757549, 0.49467580982341985, 0.34193975896249995, 0.521224396017864, 0.6927489984928137, 0.2952835419144719, 0.896086188615314]",21.46,0.0,0.0,74.02207785572448,203.55107129252107,5.148468511415148,-959.9010041900926,-588.608650795851,3549.3286502256487,0.0,0.0,0.0,0.0,0.0,0.0,2.3,21.179795509305436,0.0,20.74060568775594,0.0,2.3,21.46,19.38,22.1,20.77,21.77,1.94,2.3,4333.82,-680.96,-1060.6,109.27,0.0,0.0,152.0,0.0,0.0,0.0,0.0,0.0,0.0,0.0,0.0,0.0,0.0,0.0,0.0,0.0,0.0
111.0,2755.0,2768.7808166604646,0.0,-0.0,0.06308742283761291,0.0,0.0,4174.4852426586585,0.0,4174.485242658658,0.0,0.0,0.0,0.308918004920669,0.5392887850915505,0.0,0.0,0.0,"[0.5967164217081944, 0.8336665946757549, 0.49467580982341985, 0.34193975896249995, 0.521224396017864, 0.6927489984928137, 0.2952835419144719, 0.896086188615314]",22.6,0.0,0.0,17.776571248775298,171.41142845685985,4.335552430665388,-1046.9652776040862,-2110.171048853857,570.6838253159655,0.0,0.0,0.0,0.0,0.0,0.0,1.7,21.560214703854953,0.0,20.792264340968995,0.0,1.7,22.6,19.43,22.15,21.81,22.5,1.31,1.7,0.0,-742.72,-1156.8,26.24,0.0,0.0,128.0,0.0,0.0,0.0,0.0,0.0,0.0,0.0,0.0,0.0,0.0,0.0,0.0,0.0,0.0
112.0,3255.0,14476.439147794124,7540.143999118878,-0.0,0.0,-3608.9129529362763,0.0,19945.741288339195,0.0,0.0,0.0,19945.741288339195,0.1473639455782313,0.308918004920669,0.5196094848000054,0.0,0.0,0.0,"[0.5967164217081944, 0.8336665946757549, 0.49467580982341985, 0.34193975896249995, 0.521224396017864, 0.6927489984928137, 0.2952835419144719, 0.896086188615314]",21.4,0.0,0.0,0.0,76.3316517346954,1.9306756917806795,-1027.2535430993248,-471.6366757393239,3814.5049478465967,0.0,0.0,0.0,0.0,0.0,0.0,0.9,21.183451330846832,0.0,20.776580217941913,0.0,0.9,21.4,19.45,22.11,20.81,21.79,0.49,0.9,4336.72,-728.74,-1135.02,0.0,0.0,0.0,57.0,0.0,0.0,0.0,0.0,0.0,0.0,0.0,0.0,0.0,0.0,0.0,0.0,0.0,0.0
113.0,3466.0,0.0,0.0,-0.0,0.0,3466.0,0.0,4010.875573129746,0.0,4010.8755731297465,0.0,0.0,0.0,0.2918649625179065,0.5196094848000054,0.0,0.0,0.0,"[0.5967164217081944, 0.8336665946757549, 0.49467580982341985, 0.34193975896249995, 0.521224396017864, 0.6927489984928137, 0.2952835419144719, 0.896086188615314]",22.6,0.0,0.0,0.0,13.39151784819217,0.3387150336457324,-1082.0366103212937,-2075.228506492891,749.9147132765315,0.0,0.0,0.0,0.0,0.0,0.0,1.0,21.578173363538024,0.0,20.823576574123848,0.0,1.0,22.6,19.49,22.16,21.84,22.51,0.58,1.0,0.0,-767.6,-1195.55,0.0,0.0,0.0,10.0,0.0,0.0,0.0,0.0,0.0,0.0,0.0,0.0,0.0,0.0,0.0,0.0,0.0,0.0
114.0,9905.0,45176.92362604702,0.0,-0.0,0.0,-16000.0,0.0,4904.176055742629,0.0,-12237.259051382474,0.0,0.0,0.6533333333333333,0.3418337703110516,0.5196094848000054,76184.15603166714,19046.039007916785,95230.19503958392,"[0.5967164217081944, 0.8336665946757549, 0.49467580982341985, 0.34193975896249995, 0.521224396017864, 0.6927489984928137, 0.2952835419144719, 0.896086188615314]",21.4,0.0,0.0,0.0,1613.0435656511902,117.66960268852777,-1017.2331623229796,-435.3668377810183,2128.865062907776,0.0,0.0,0.0,0.0,0.0,0.0,1.1,21.201399821858583,0.0,20.80705159813047,0.0,1.1,21.4,19.5,22.12,20.85,21.81,0.67,1.1,0.0,-721.63,-1123.95,0.0,164.0,40.0,1114.0,0.0,0.0,0.0,0.0,0.0,0.0,0.0,0.0,0.0,0.0,0.0,0.0,0.0,0.0
115.0,5888.0,0.0,2283.071063413716,-0.0,0.0,8171.071063413716,0.0,6126.407700357089,0.0,0.0,0.0,6126.407700357089,0.30592384934465494,0.3418337703110516,0.5196094848000054,0.0,0.0,0.0,"[0.5967164217081944, 0.8336665946757549, 0.49467580982341985, 0.34193975896249995, 0.521224396017864, 0.6927489984928137, 0.2952835419144719, 0.896086188615314]",22.6,0.0,0.0,0.0,877.2853824023578,204.34677979847092,-1067.006039156776,-2071.6990412043087,1649.9811999688184,0.0,0.0,0.0,0.0,0.0,0.0,1.3,21.579721147419953,0.0,20.832729785759632,0.0,1.3,22.6,19.53,22.14,21.67,22.37,0.87,1.3,1764.25,-756.94,-1178.94,0.0,290.0,147.0,487.0,0.0,0.0,0.0,0.0,0.0,0.0,0.0,0.0,0.0,0.0,0.0,0.0,0.0,0.0
116.0,7500.0,24124.410697009556,0.0,-0.0,0.0,-16000.0,0.0,453.4097791720594,0.0,0.0,0.0,0.0,0.9592571826779883,0.3418337703110516,0.5196094848000054,2015.1545740980428,503.7886435245107,2518.943217622553,"[0.39606450954135397, 0.8255438678232245, 0.49467580982341985, 0.34193975896249995, 0.5075240154942939, 0.6927489984928137, 0.2952835419144755, 0.896086188615314]",22.38,0.0,0.0,0.0,1054.8991980731173,171.83013656848058,-1051.2489393865985,-1717.0195932161637,0.0,0.0,0.0,0.0,0.0,0.0,0.0,1.4,21.54181620512385,0.0,20.87120921500667,0.0,1.4,22.38,19.56,22.18,21.56,22.3,0.98,1.4,0.0,-745.76,-1161.53,0.0,186.0,141.0,675.0,0.0,0.0,0.0,0.0,0.0,0.0,0.0,0.0,0.0,0.0,0.0,0.0,0.0,0.0
117.0,5786.0,0.0,10214.0,-0.0,0.0,16000.0,0.0,8144.113963428491,0.0,-19556.3194777877,0.0,27700.43344121619,0.2789850738344509,0.4216887415120181,0.5196094848000054,0.0,0.0,0.0,"[0.39606450954135397, 0.8255438678232245, 0.49467580982341985, 0.34193975896249995, 0.5075240154942939, 0.6927489984928137, 0.2952835419144755, 0.896086188615314]",21.6,0.0,0.0,0.0,1234.486500584663,127.5262101676186,-1002.2352531991845,-662.5046710146888,1905.9293678445808,0.0,0.0,0.0,0.0,0.0,0.0,1.6,21.288586185664343,0.0,20.851947496415583,0.0,1.6,21.6,19.57,22.13,20.95,21.86,1.17,1.6,0.0,-710.99,-1107.38,0.0,200.0,53.0,811.0,0.0,0.0,0.0,0.0,0.0,0.0,0.0,0.0,0.0,0.0,0.0,0.0,0.0,0.0
118.0,4185.0,4206.030150753769,0.0,-0.0,0.0,0.0,0.0,8813.746492369011,0.0,8813.74649236901,0.0,0.0,0.2789850738344509,0.38421532955466686,0.5196094848000054,0.0,0.0,0.0,"[0.39606450954135397, 0.8255438678232245, 0.49467580982341985, 0.34193975896249995, 0.5075240154942939, 0.6927489984928137, 0.2952835419144755, 0.896086188615314]",22.4,0.0,0.0,0.0,571.0425137160684,123.90195930760929,-1036.912234787019,-1746.092656202671,2102.085614654868,0.0,0.0,0.0,0.0,0.0,0.0,1.7,21.54097454616146,0.0,20.871751303363734,0.0,1.7,22.4,19.6,22.15,21.58,22.29,1.26,1.7,2780.11,-735.59,-1145.69,0.0,292.0,26.0,270.0,0.0,0.0,0.0,0.0,0.0,0.0,0.0,0.0,0.0,0.0,0.0,0.0,0.0,0.0
119.0,5622.0,31599.9698395198,9819.969990322197,-0.0,0.0,-16000.0,0.0,11397.85726117298,0.0,-15514.814631886931,0.0,26912.67189305991,0.9323184071677842,0.4475674893015385,0.5196094848000054,0.0,0.0,0.0,"[0.39606450954135397, 0.8255438678232245, 0.49467580982341985, 0.34193975896249995, 0.5075240154942939, 0.6927489984928137, 0.2952835419144755, 0.896086188615314]",22.4,0.0,0.0,0.0,401.18168206268354,97.82090171688782,-1026.891854010674,-1692.1778626379448,642.3733528903643,0.0,0.0,0.0,0.0,0.0,0.0,1.9,21.567707836021814,0.0,20.909662410579543,0.0,1.9,22.4,19.63,22.19,21.62,22.34,1.46,1.9,2294.32,-728.48,-1134.62,0.0,260.0,7.0,162.0,0.0,0.0,0.0,0.0,0.0,0.0,0.0,0.0,0.0,0.0,0.0,0.0,0.0,0.0
120.0,2172.0,5993.313609791397,3791.3470417424396,-0.0,0.0,0.0,0.0,10246.013393542178,0.0,0.0,0.0,10246.013393542176,0.9323184071677842,0.4475674893015385,0.5196094848000054,0.0,0.0,0.0,"[0.39606450954135397, 0.8255438678232245, 0.49467580982341985, 0.34193975896249995, 0.5075240154942939, 0.6927489984928137, 0.2952835419144755, 0.896086188615314]",21.6,0.0,0.0,0.0,389.8341327281627,35.53120702943743,-1007.245443587357,-608.5810616541644,2783.249860542984,0.0,0.0,0.0,0.0,0.0,0.0,1.5,21.315573862634896,0.0,20.89709359809971,0.0,1.5,21.6,19.64,22.15,21.03,21.92,1.03,1.5,0.0,-714.54,-1112.91,0.0,80.0,0.0,249.0,0.0,0.0,0.0,0.0,0.0,0.0,0.0,0.0,0.0,0.0,0.0,0.0,0.0,0.0
121.0,2464.0,0.0,2772.5148711889674,-0.0,0.0,5236.514871188967,0.0,7413.353153725437,0.0,0.0,0.0,7413.353153725436,0.7096774687668927,0.4475674893015385,0.5196094848000054,0.0,0.0,0.0,"[0.39606450954135397, 0.8255438678232245, 0.49467580982341985, 0.34193975896249995, 0.5075240154942939, 0.6927489984928137, 0.2952835419144755, 0.896086188615314]",22.4,0.0,0.0,0.0,388.49498094334353,35.49733552607286,-1061.9631867278815,-1680.5275619142005,733.7498785724998,0.0,0.0,0.0,0.0,0.0,0.0,1.2,21.57406198202782,0.0,20.924255333337285,0.0,1.2,22.4,19.67,22.18,21.69,22.38,0.72,1.2,1599.72,-753.36,-1173.37,0.0,80.0,0.0,248.0,0.0,0.0,0.0,0.0,0.0,0.0,0.0,0.0,0.0,0.0,0.0,0.0,0.0,0.0
122.0,2994.0,40035.79687309771,36841.61788873222,-0.0,0.0,0.0,0.0,17104.924162256048,0.0,-80000.0,0.0,97104.92416225605,0.7096774687668927,0.7742341559682052,0.5196094848000054,0.0,0.0,0.0,"[0.39606450954135397, 0.8255438678232245, 0.49467580982341985, 0.34193975896249995, 0.5075240154942939, 0.6927489984928137, 0.2952835419144755, 0.896086188615314]",21.6,0.0,0.0,0.0,188.9613650052801,30.450481524751435,-1042.3167763045649,-600.3798523371956,3015.4983597559713,0.0,0.0,0.0,0.0,0.0,0.0,0.8,21.32018954988274,0.0,20.908574441394606,0.0,0.8,21.6,19.68,22.14,21.03,21.91,0.31,0.8,2510.76,-739.42,-1151.67,0.0,80.0,0.0,99.0,0.0,0.0,0.0,0.0,0.0,0.0,0.0,0.0,0.0,0.0,0.0,0.0,0.0,0.0
123.0,2406.0,0.0,6132.014065397318,-0.0,0.0,8538.014065397318,0.0,9410.556247178205,0.0,-6693.379838723931,0.0,16103.936085902136,0.3466666666666667,0.801565456976328,0.5196094848000054,0.0,0.0,0.0,"[0.39606450954135397, 0.8255438678232245, 0.49467580982341985, 0.34193975896249995, 0.5075240154942939, 0.6927489984928137, 0.2952835419144755, 0.896086188615314]",22.4,0.0,0.0,0.0,116.64716862504238,28.62142034306447,-1087.014138668744,-1668.2215753460403,2613.2069531500397,0.0,0.0,0.0,0.0,0.0,0.0,0.7,21.58057017415691,0.0,20.937412863215457,0.0,0.7,22.4,19.7,22.17,21.73,22.4,0.21,0.7,0.0,-771.13,-1201.05,0.0,80.0,0.0,45.0,0.0,0.0,0.0,0.0,0.0,0.0,0.0,0.0,0.0,0.0,0.0,0.0,0.0,0.0
124.0,895.0,16979.899497487437,0.0,-0.0,0.0,-16000.0,0.0,11938.631366619016,0.0,11938.631366619014,0.0,0.0,1.0,0.750805969873356,0.5196094848000054,0.0,0.0,0.0,"[0.39606450954135397, 0.8255438678232245, 0.49467580982341985, 0.34193975896249995, 0.5075240154942939, 0.6927489984928137, 0.2952835419144755, 0.896086188615314]",22.4,0.0,0.0,0.0,119.46643554045124,40.81516155431086,-1097.0345194450888,-1614.7218805779148,967.3282055555306,0.0,0.0,0.0,0.0,0.0,0.0,0.5,21.607378909680158,0.0,20.974112134014824,0.0,0.5,22.4,19.73,22.22,21.69,22.39,0.03,0.5,0.0,-778.24,-1212.12,0.0,80.0,20.0,45.0,0.0,0.0,0.0,0.0,0.0,0.0,0.0,0.0,0.0,0.0,0.0,0.0,0.0,0.0
125.0,931.0,935.678391959799,0.0,-0.0,0.0,0.0,0.0,10915.323501812618,0.0,10915.32350181262,0.0,0.0,1.0,0.7043972815153091,0.5196094848000054,0.0,0.0,0.0,"[0.39606450954135397, 0.8255438678232245, 0.49467580982341985, 0.34193975896249995, 0.5075240154942939, 0.6927489984928137, 0.2952835419144755, 0.896086188615314]",21.6,0.0,0.0,0.0,121.8628124185488,51.17984158387032,-1067.3677282454269,-533.6646052085665,3022.549736148214,0.0,0.0,0.0,0.0,0.0,0.0,0.3,21.353812238163425,0.0,20.958214851863268,0.0,0.3,21.6,19.73,22.18,21.09,21.96,-0.18,0.3,361.86,-757.2,-1179.34,0.0,80.0,37.0,45.0,0.0,0.0,0.0,0.0,0.0,0.0,0.0,0.0,0.0,0.0,0.0,0.0,0.0,0.0
126.0,1588.0,1595.9798994974874,0.0,-0.0,0.0,0.0,0.0,13206.591588850148,0.0,13206.591588850148,0.0,0.0,1.0,0.648246807072919,0.5196094848000054,0.0,0.0,0.0,"[0.39606450954135397, 0.8255438678232245, 0.49467580982341985, 0.34193975896249995, 0.5075240154942939, 0.6927489984928137, 0.2952835419144755, 0.896086188615314]",22.4,0.0,0.0,0.0,158.86569068329035,78.10768675870614,-1112.0650906096064,-1604.8673647919775,900.0338424114947,0.0,0.0,0.0,0.0,0.0,0.0,0.2,21.612504125522765,0.0,20.984438758696648,0.0,0.2,22.4,19.75,22.21,21.77,22.43,-0.26,0.2,0.0,-788.9,-1228.73,0.0,127.0,55.0,46.0,0.0,0.0,0.0,0.0,0.0,0.0,0.0,0.0,0.0,0.0,0.0,0.0,0.0,0.0
127.0,1300.0,1306.532663316583,0.0,-0.0,0.0,0.0,0.0,8652.470508131613,0.0,8652.470508131611,0.0,0.0,1.0,0.6114590923274615,0.5196094848000054,0.0,0.0,0.0,"[0.39606450954135397, 0.8255438678232245, 0.49467580982341985, 0.34193975896249995, 0.5075240154942939, 0.6927489984928137, 0.2952835419144755, 0.896086188615314]",21.6,0.0,0.0,0.0,200.4498776855713,90.6401430035983,-1077.388109021772,-523.5300438438769,1320.0882268564587,0.0,0.0,0.0,0.0,0.0,0.0,0.1,21.359012945191385,0.0,20.968291245766316,0.0,0.1,21.6,19.75,22.18,21.11,21.96,-0.38,0.1,485.41,-764.3,-1190.42,0.0,142.0,66.0,68.0,0.0,0.0,0.0,0.0,0.0,0.0,0.0,0.0,0.0,0.0,0.0,0.0,0.0,0.0
128.0,1281.0,0.0,0.0,-0.0,0.0,3097.4420613082034,0.0,5428.536395003773,0.0,3793.7385398263905,0.0,0.0,0.7243317516004313,0.5953292515969072,0.5196094848000054,7265.768245232813,1816.4420613082032,9082.210306541016,"[0.39606450954135397, 0.8255438678232245, 0.49467580982341985, 0.34193975896249995, 0.5075240154942939, 0.6927489984928137, 0.2952835419144755, 0.896086188615314]",21.6,0.0,0.0,2.0489012967136624,130.03868647323455,55.37990800107742,-1072.3779186335994,-562.9719328981853,1454.1786588499308,0.0,0.0,0.0,0.0,0.0,0.0,0.2,21.33925011651173,0.0,20.944177086049635,0.0,0.2,21.6,19.75,22.14,21.17,21.98,-0.24,0.2,690.58,-760.75,-1184.88,3.02,83.0,42.0,49.0,0.0,0.0,0.0,0.0,0.0,0.0,0.0,0.0,0.0,0.0,0.0,0.0,0.0,0.0
129.0,3150.0,0.0,0.0,-0.0,4090.2991192152886,5291.2368807847115,0.0,10721.096584405164,31157.68,35647.24058440516,0.0,0.0,0.499364197145299,0.4437678545543683,0.5196094848000054,24926.144,6231.536,31157.68,"[0.39606450954135397, 0.8255438678232245, 0.49467580982341985, 0.34193975896249995, 0.5075240154942939, 0.6927489984928137, 0.2952835419144755, 0.896086188615314]",21.6,0.0,0.0,544.2879296970701,1043.1992403741706,84.64488690806878,-942.1129685411148,-593.855468430886,1469.4960632424495,0.0,0.0,0.0,0.0,0.0,0.0,2.8,21.321699944494753,0.0,20.922770673972508,0.0,2.8,21.6,19.74,22.1,21.16,21.96,2.69,2.8,25.41,-668.34,-1040.95,803.46,140.0,22.0,703.0,0.0,0.0,0.0,0.0,0.0,0.0,0.0,0.0,0.0,0.0,0.0,0.0,0.0,0.0
130.0,8310.0,0.0,0.0,-1896.002940414959,10206.002940414959,0.0,0.0,3563.3070100946625,0.0,3563.307010094663,0.0,0.0,0.499364197145299,0.4286177397155304,0.5262454950914577,0.0,0.0,0.0,"[0.39606450954135397, 0.8255438678232245, 0.49467580982341985, 0.34193975896249995, 0.5075240154942939, 0.6927489984928137, 0.2952835419144755, 0.896086188615314]",22.4,0.0,0.0,1032.0021515661144,1419.5008919083707,35.90379356644774,-856.5453808128093,-1647.7978305711076,34.86361208239588,0.0,0.0,0.0,0.0,0.0,0.0,5.3,21.586901819524506,0.0,20.958691346899762,0.0,5.3,22.4,19.77,22.14,21.76,22.39,5.47,5.3,0.0,-607.64,-946.4,1523.41,0.0,0.0,1060.0,0.0,0.0,0.0,0.0,0.0,0.0,0.0,0.0,0.0,0.0,0.0,0.0,0.0,0.0
131.0,12839.0,0.0,1635.074012298203,-0.0,10143.90892813421,4330.165084163993,0.0,5244.889639166627,0.0,0.0,0.0,5244.889639166627,0.3152585388049932,0.4286177397155304,0.5262454950914577,0.0,0.0,0.0,"[0.39606450954135397, 0.8255438678232245, 0.49467580982341985, 0.34193975896249995, 0.5075240154942939, 0.6927489984928137, 0.2952835419144755, 0.896086188615314]",22.4,0.0,0.0,915.5969399305716,56.24437496240715,1.4226031413120792,-781.392524990222,-1572.2755900076293,466.69492730120123,0.0,0.0,0.0,0.0,0.0,0.0,6.8,21.623518048256265,0.0,21.010734158068093,0.0,6.8,22.4,19.83,22.2,21.74,22.41,6.88,6.8,0.0,-554.32,-863.37,1351.57,0.0,0.0,42.0,0.0,0.0,0.0,0.0,0.0,0.0,0.0,0.0,0.0,0.0,0.0,0.0,0.0,0.0
132.0,9247.0,0.0,0.0,-0.0,10016.17864151037,-769.1786415103707,0.0,0.0,0.0,0.0,0.0,0.0,0.3466666666666667,0.4286177397155304,0.5262454950914577,0.0,0.0,0.0,"[0.39606450954135397, 0.8255438678232245, 0.49467580982341985, 0.34193975896249995, 0.5075240154942939, 0.6927489984928137, 0.2952835419144755, 0.896086188615314]",21.93,0.0,0.0,875.7082490534751,54.90522317758792,1.3887316379475063,-708.155030852578,-874.5234469862285,0.0,0.0,0.0,0.0,0.0,0.0,0.0,7.8,21.508576801597474,0.0,21.04849568979934,0.0,7.8,21.93,19.87,22.22,21.55,22.28,7.87,7.8,0.0,-502.37,-782.45,1292.69,0.0,0.0,41.0,0.0,0.0,0.0,0.0,0.0,0.0,0.0,0.0,0.0,0.0,0.0,0.0,0.0,0.0
133.0,7719.0,74941.81715527405,0.0,-0.0,9418.101656376075,-16000.0,0.0,4717.132364495934,0.0,-49522.45638879043,0.0,0.0,1.0,0.6308344366364247,0.5262454950914577,241064.83890349502,60266.209725873756,301331.0486293688,"[0.39606450954135397, 0.8255438678232245, 0.49467580982341985, 0.34193975896249995, 0.5075240154942939, 0.6927489984928137, 0.2952835419144755, 0.896086188615314]",21.6,0.0,0.0,838.0646009193625,54.90522317758792,1.3887316379475063,-671.5626875798002,-406.3645894705921,1783.7505032413308,0.0,0.0,0.0,0.0,0.0,0.0,8.2,21.41109587486142,0.0,21.057973354846126,0.0,8.2,21.6,19.91,22.21,21.33,22.11,8.27,8.2,0.0,-476.41,-742.02,1237.12,0.0,0.0,41.0,0.0,0.0,0.0,0.0,0.0,0.0,0.0,0.0,0.0,0.0,0.0,0.0,0.0,0.0
134.0,3453.0,0.0,885.7834343814225,-4032.487750776291,8371.271185157713,0.0,0.0,2959.583740138261,0.0,0.0,0.0,2959.583740138261,1.0,0.6308344366364247,0.5365326716069297,0.0,0.0,0.0,"[0.39606450954135397, 0.8255438678232245, 0.49467580982341985, 0.34193975896249995, 0.5075240154942939, 0.6927489984928137, 0.2952835419144755, 0.896086188615314]",22.4,0.0,0.0,767.9852071807387,54.90522317758792,1.3887316379475063,-711.2498595558071,-1439.9856204016326,0.0,0.0,0.0,0.0,0.0,0.0,0.0,8.2,21.688532463014223,0.0,21.112943706076642,0.0,8.2,22.4,19.97,22.26,21.96,22.56,8.17,8.2,0.0,-504.56,-785.87,1133.67,0.0,0.0,41.0,0.0,0.0,0.0,0.0,0.0,0.0,0.0,0.0,0.0,0.0,0.0,0.0,0.0,0.0
135.0,2862.0,0.0,684.8790933340864,-1826.5078909160634,5373.38698425015,0.0,0.0,2223.0295935128097,0.0,0.0,0.0,2223.0295935128097,1.0,0.6308344366364247,0.542925449225136,0.0,0.0,0.0,"[0.39606450954135397, 0.8255438678232245, 0.49467580982341985, 0.34193975896249995, 0.5075240154942939, 0.6927489984928137, 0.2952835419144755, 0.896086188615314]",21.73,0.0,0.0,744.6751075729369,54.90522317758792,1.3887316379475063,-727.9429474664851,-491.7804870263709,177.57822448229692,0.0,0.0,0.0,0.0,0.0,0.0,7.2,21.494730603378507,0.0,21.129316106237795,0.0,7.2,21.73,20.0,22.26,21.39,22.16,7.15,7.2,0.0,-516.41,-804.31,1099.26,0.0,0.0,41.0,0.0,0.0,0.0,0.0,0.0,0.0,0.0,0.0,0.0,0.0,0.0,0.0,0.0,0.0
136.0,2602.0,5512.7466214044025,2883.182888297381,-0.0,0.0,0.0,0.0,8973.63369175513,0.0,0.0,0.0,8973.63369175513,1.0,0.6308344366364247,0.47459454543504853,0.0,0.0,0.0,"[0.39606450954135397, 0.8255438678232245, 0.49467580982341985, 0.34193975896249995, 0.5075240154942939, 0.6927489984928137, 0.2952835419144755, 0.896086188615314]",21.6,0.0,0.0,0.0,41.93659536670708,2.879077785988731,-791.8072568959401,-329.9740804279226,2666.0582713111257,0.0,0.0,0.0,0.0,0.0,0.0,5.8,21.451387400992665,0.0,21.12740448128982,0.0,5.8,21.6,20.03,22.23,21.36,22.11,5.26,5.8,0.0,-561.71,-874.88,0.0,0.0,3.0,31.0,0.0,0.0,0.0,0.0,0.0,0.0,0.0,0.0,0.0,0.0,0.0,0.0,0.0,0.0
137.0,4192.0,0.0,0.0,-0.0,0.0,12086.61754647767,0.0,7105.1557918299,0.0,0.0,0.0,0.0,0.4861131995545209,0.6308344366364247,0.47459454543504853,31578.47018591068,7894.61754647767,39473.08773238835,"[0.39606450954135397, 0.8255438678232245, 0.49467580982341985, 0.34193975896249995, 0.5075240154942939, 0.6927489984928137, 0.2952835419144755, 0.896086188615314]",22.4,0.0,0.0,0.0,834.2210802694874,117.33088765488206,-851.5351904246369,-1406.47838690933,1319.742987575312,0.0,0.0,0.0,0.0,0.0,0.0,5.4,21.707666974919338,0.0,21.15243763975633,0.0,5.4,22.4,20.06,22.25,21.82,22.42,4.86,5.4,0.0,-604.08,-940.87,0.0,162.0,73.0,530.0,0.0,0.0,0.0,0.0,0.0,0.0,0.0,0.0,0.0,0.0,0.0,0.0,0.0,0.0
138.0,5624.0,9390.742428556032,288.7000591062272,-0.0,0.0,-3431.0886573070247,0.0,876.5334629097756,0.0,0.0,0.0,876.5334629097756,0.6262159863945578,0.6308344366364247,0.46475489528927594,0.0,0.0,0.0,"[0.39606450954135397, 0.8255438678232245, 0.49467580982341985, 0.34193975896249995, 0.5075240154942939, 0.6927489984928137, 0.2952835419144755, 0.896086188615314]",22.4,0.0,0.0,0.0,371.7203427966607,159.39929483368218,-871.5759519773268,-1375.8547880374424,719.2475491115719,0.0,0.0,0.0,0.0,0.0,0.0,5.0,21.72321164945131,0.0,21.175811638597033,0.0,5.0,22.4,20.08,22.27,21.7,22.34,4.48,5.0,0.0,-618.3,-963.01,0.0,101.0,194.0,204.0,0.0,0.0,0.0,0.0,0.0,0.0,0.0,0.0,0.0,0.0,0.0,0.0,0.0,0.0
139.0,6080.0,7819.721434308318,1700.622827136776,-0.0,0.0,0.0,0.0,5098.47678245803,0.0,0.0,0.0,5098.47678245803,0.6262159863945578,0.6308344366364247,0.46475489528927594,0.0,0.0,0.0,"[0.39606450954135397, 0.8255438678232245, 0.49467580982341985, 0.34193975896249995, 0.5075240154942939, 0.6927489984928137, 0.2952835419144755, 0.896086188615314]",21.89,0.0,0.0,0.0,896.5268791000234,195.09985937994244,-866.2594838787838,-675.7693725889051,0.0,0.0,0.0,0.0,0.0,0.0,0.0,4.6,21.566053571457093,0.0,21.17363246859363,0.0,4.6,21.89,20.1,22.25,21.4,22.12,4.1,4.6,0.0,-614.53,-957.14,0.0,101.0,231.0,592.0,0.0,0.0,0.0,0.0,0.0,0.0,0.0,0.0,0.0,0.0,0.0,0.0,0.0,0.0
140.0,6575.0,5429.547738693467,0.0,-0.0,0.0,1172.6000000000006,0.0,2335.3756019989164,0.0,2335.3756019989164,0.0,0.0,0.2968112244897959,0.6109758005650054,0.46475489528927594,0.0,0.0,0.0,"[0.39606450954135397, 0.8255438678232245, 0.49467580982341985, 0.11203774991245297, 0.5075240154942939, 0.581644962256199, 0.2952835419144755, 0.6020008363879299]",21.65,0.0,0.0,0.0,1991.3187040261769,235.9827639409825,-874.4975950328837,-396.45223854882266,557.9541828230194,0.0,0.0,0.0,0.0,0.0,0.0,4.2,21.469846749306928,0.0,21.14399167540258,0.0,4.2,21.65,20.09,22.19,21.2,21.95,3.72,4.2,0.0,-620.37,-966.24,0.0,144.0,230.0,1387.0,0.0,0.0,0.0,0.0,0.0,0.0,0.0,0.0,0.0,0.0,0.0,0.0,0.0,0.0
141.0,5791.0,6521.516702941454,697.9091194267467,-0.0,0.0,0.0,0.0,2039.1084033359712,0.0,0.0,0.0,2039.108403335971,0.2968112244897959,0.6109758005650054,0.39697063872950916,0.0,0.0,0.0,"[0.39606450954135397, 0.8255438678232245, 0.49467580982341985, 0.11203774991245297, 0.5075240154942939, 0.581644962256199, 0.2952835419144755, 0.6020008363879299]",22.4,0.0,0.0,0.0,1094.5803799074977,166.30908152005512,-931.6982366353966,-1436.7166835305238,1126.350968782729,0.0,0.0,0.0,0.0,0.0,0.0,3.8,21.693696145237126,0.0,21.145211246731705,0.0,3.8,22.4,20.1,22.19,21.64,22.25,3.35,3.8,0.0,-660.95,-1029.44,0.0,109.0,171.0,742.0,0.0,0.0,0.0,0.0,0.0,0.0,0.0,0.0,0.0,0.0,0.0,0.0,0.0,0.0
142.0,4049.0,0.0,0.0,-0.0,0.0,4049.0,0.0,6321.86863673784,0.0,6321.86863673784,0.0,0.0,0.12465986394557822,0.5840971073815963,0.3401193267761564,0.0,0.0,0.0,"[0.39606450954135397, 0.8255438678232245, 0.49467580982341985, 0.11203774991245297, 0.5075240154942939, 0.581644962256199, 0.2952835419144755, 0.6020008363879299]",22.4,0.0,0.0,0.0,451.29415148407634,91.35144457425432,-951.7389981880867,-1406.9329059306335,237.6002119068659,0.0,0.0,0.0,0.0,0.0,0.0,3.4,21.708840795559865,0.0,21.16635039168945,0.0,3.4,22.4,20.12,22.21,21.7,22.3,2.94,3.4,0.0,-675.17,-1051.59,0.0,81.0,89.0,285.0,0.0,0.0,0.0,0.0,0.0,0.0,0.0,0.0,0.0,0.0,0.0,0.0,0.0,0.0
143.0,2932.0,0.0,0.0,-0.0,0.0,2932.0,0.0,10990.773880091627,0.0,10990.773880091627,0.0,0.0,0.0,0.5373676265988938,0.2652286562222206,0.0,0.0,0.0,"[0.39606450954135397, 0.8255438678232245, 0.49467580982341985, 0.11203774991245297, 0.5075240154942939, 0.581644962256199, 0.2952835419144755, 0.6020008363879299]",21.6,0.0,0.0,0.0,393.076289680883,62.425180700908676,-932.0925877647697,-336.3977373331563,2408.8218379575214,0.0,0.0,0.0,0.0,0.0,0.0,3.0,21.45017530365286,0.0,21.143132461986355,0.0,3.0,21.6,20.12,22.17,21.17,21.92,2.54,3.0,2161.88,-661.23,-1029.88,0.0,105.0,31.0,235.0,0.0,0.0,0.0,0.0,0.0,0.0,0.0,0.0,0.0,0.0,0.0,0.0,0.0,0.0
144.0,2781.0,7161.990000135916,0.0,-0.0,0.0,-4345.180050135236,0.0,9802.52570889839,0.0,9802.52570889839,0.0,0.0,0.17742818538052216,0.49569022137398566,0.2652286562222206,0.0,0.0,0.0,"[0.39606450954135397, 0.8255438678232245, 0.49467580982341985, 0.11203774991245297, 0.5075240154942939, 0.581644962256199, 0.2952835419144755, 0.6020008363879299]",22.4,0.0,0.0,0.0,345.78308717489904,60.088046968753105,-996.830711681639,-1418.1392650880748,427.13385731350587,0.0,0.0,0.0,0.0,0.0,0.0,2.5,21.70389558200886,0.0,21.162044113075133,0.0,2.5,22.4,20.13,22.19,21.84,22.38,2.07,2.5,0.0,-707.16,-1101.41,0.0,160.0,0.0,174.0,0.0,0.0,0.0,0.0,0.0,0.0,0.0,0.0,0.0,0.0,0.0,0.0,0.0,0.0
145.0,2325.0,0.0,1848.110920149881,-0.0,0.0,4173.110920149881,0.0,5100.181699138474,0.0,0.0,0.0,5100.181699138473,0.0,0.49569022137398566,0.2652286562222206,0.0,0.0,0.0,"[0.39606450954135397, 0.8255438678232245, 0.49467580982341985, 0.11203774991245297, 0.5075240154942939, 0.581644962256199, 0.2952835419144755, 0.6020008363879299]",21.6,0.0,0.0,0.0,1023.3938902934232,77.22702767122723,-977.1843012583226,-346.12872880539095,1820.2006040755364,0.0,0.0,0.0,0.0,0.0,0.0,2.1,21.445940708806628,0.0,21.13897540907119,0.0,2.1,21.6,20.12,22.16,21.18,21.92,1.7,2.1,27.63,-693.22,-1079.7,0.0,160.0,0.0,680.0,0.0,0.0,0.0,0.0,0.0,0.0,0.0,0.0,0.0,0.0,0.0,0.0,0.0,0.0
146.0,1385.0,34725.758619200875,33167.12982610487,-0.0,0.0,0.0,0.0,9949.46859058103,0.0,-80000.0,0.0,89949.468590581,0.0,0.8223568880406524,0.2652286562222206,0.0,0.0,0.0,"[0.39606450954135397, 0.8255438678232245, 0.49467580982341985, 0.11203774991245297, 0.5075240154942939, 0.581644962256199, 0.2952835419144755, 0.6020008363879299]",22.4,0.0,0.0,0.0,552.0124620370585,65.3042584868974,-1041.9224251751912,-1441.9113591450302,285.1425323628884,0.0,0.0,0.0,0.0,0.0,0.0,1.6,21.69266041028237,0.0,21.148154289505932,0.0,1.6,22.4,20.13,22.17,21.75,22.32,1.22,1.6,705.95,-739.14,-1151.23,0.0,160.0,0.0,328.0,0.0,0.0,0.0,0.0,0.0,0.0,0.0,0.0,0.0,0.0,0.0,0.0,0.0,0.0
147.0,1870.0,7167.1754845928945,5261.33960716993,-0.0,0.0,0.0,0.0,14168.470793874738,0.0,0.0,0.0,14168.47079387474,0.0,0.8223568880406524,0.2652286562222206,0.0,0.0,0.0,"[0.39606450954135397, 0.8255438678232245, 0.49467580982341985, 0.11203774991245297, 0.5075240154942939, 0.581644962256199, 0.2952835419144755, 0.6020008363879299]",21.6,0.0,0.0,0.0,252.04246223755376,57.71704173323297,-1012.2556339755296,-372.91024511215966,2670.706416220573,0.0,0.0,0.0,0.0,0.0,0.0,1.4,21.43308870571485,0.0,21.122303971396846,0.0,1.4,21.6,20.11,22.13,21.15,21.89,1.01,1.4,2438.13,-718.1,-1118.45,0.0,160.0,0.0,104.0,0.0,0.0,0.0,0.0,0.0,0.0,0.0,0.0,0.0,0.0,0.0,0.0,0.0,0.0
148.0,1388.0,5421.806774012917,0.0,-0.0,0.0,0.0,0.0,4300.551369075389,0.0,694.5234029468224,0.0,0.0,0.0,0.8194039824158785,0.2652286562222206,16026.790960571412,4006.697740142853,20033.488700714264,"[0.39606450954135397, 0.8255438678232245, 0.49467580982341985, 0.11203774991245297, 0.5075240154942939, 0.581644962256199, 0.2952835419144755, 0.6020008363879299]",22.4,0.0,0.0,0.0,163.65844443948546,55.48152251117113,-1061.9631867278815,-1449.2269738438486,709.5637685190821,0.0,0.0,0.0,0.0,0.0,0.0,1.2,21.689289378823368,0.0,21.143187997842446,0.0,1.2,22.4,20.12,22.17,21.86,22.39,0.85,1.2,0.0,-753.36,-1173.37,0.0,160.0,0.0,38.0,0.0,0.0,0.0,0.0,0.0,0.0,0.0,0.0,0.0,0.0,0.0,0.0,0.0,0.0
149.0,4722.0,88240.73044588068,0.0,-67077.52679365127,0.0,-16000.0,0.0,8332.229565277627,0.0,8332.229565277627,0.0,0.0,0.6533333333333333,0.7839778363050043,0.5,0.0,0.0,0.0,"[0.39606450954135397, 0.8255438678232245, 0.49467580982341985, 0.11203774991245297, 0.5075240154942939, 0.581644962256199, 0.2952835419144755, 0.6020008363879299]",21.6,0.0,0.0,0.0,192.0625586122299,80.44482049086169,-1037.3065859163921,-371.50113114623747,2734.1730709654025,0.0,0.0,0.0,0.0,0.0,0.0,0.9,21.434125871084095,0.0,21.122791183618688,0.0,0.9,21.6,20.11,22.14,21.21,21.93,0.56,0.9,1163.5,-735.87,-1146.13,0.0,160.0,40.0,55.0,0.0,0.0,0.0,0.0,0.0,0.0,0.0,0.0,0.0,0.0,0.0,0.0,0.0,0.0
150.0,3153.0,7176.2195900747,3987.338492124327,-0.0,0.0,0.0,0.0,10509.587365472267,0.0,0.0,0.0,10509.587365472267,0.6533333333333333,0.7839778363050043,0.5,0.0,0.0,0.0,"[0.39606450954135397, 0.8255438678232245, 0.49467580982341985, 0.11203774991245297, 0.5075240154942939, 0.581644962256199, 0.2952835419144755, 0.6020008363879299]",22.4,0.0,0.0,0.0,463.2055542016788,159.46703784041128,-1082.0039482805714,-1446.0818355784177,334.6975031377576,0.0,0.0,0.0,0.0,0.0,0.0,0.8,21.69112773895783,0.0,21.144471125435985,0.0,0.8,22.4,20.12,22.17,21.88,22.41,0.48,0.8,2105.94,-767.58,-1195.52,0.0,298.0,86.0,180.0,0.0,0.0,0.0,0.0,0.0,0.0,0.0,0.0,0.0,0.0,0.0,0.0,0.0,0.0
151.0,1452.0,9991.75469182648,0.0,-0.0,0.0,-8489.795918367347,0.0,5319.10983360564,0.0,5319.10983360564,0.0,0.0,1.0,0.7613625734070211,0.5,0.0,0.0,0.0,"[0.39606450954135397, 0.8255438678232245, 0.49467580982341985, 0.11203774991245297, 0.5075240154942939, 0.581644962256199, 0.2952835419144755, 0.6020008363879299]",21.6,0.0,0.0,0.0,407.03166091215695,135.65537097511623,-1052.3371570809095,-371.50042638032784,896.5061865490488,0.0,0.0,0.0,0.0,0.0,0.0,0.6,21.434325829261834,0.0,21.12184054389106,0.0,0.6,21.6,20.1,22.14,21.2,21.93,0.29,0.6,157.61,-746.53,-1162.74,0.0,300.0,48.0,141.0,0.0,0.0,0.0,0.0,0.0,0.0,0.0,0.0,0.0,0.0,0.0,0.0,0.0,0.0
