,load_elec,grid,hp_elec,ev,pv,bat_pow,cool,load_th_sh,load_th_dhw,tes_pow,dh,hp_th,bat_soc,tes_soc,ev_soc,eh_th_in,eh_elec_in,eh_th_out,temp_slack,temp_zone_1,temp_zone_2,temp_update,Qsolar_1,QconvInt_1,QradInt_1,Qvent_1,Qconduc_1,Qheating_1,Qsolar_2,QconvInt_2,QradInt_2,Qvent_2,Qconduc_2,Qheating_2,temp_amb,temp_aggregate_1,temp_aggregate_2,temp_wall_1,temp_wall_2,_Tamb,_Tz_1,_TEW_1,_TIW_1,_T1_1,_T2_1,_Taeq_1,_Tvent_1,_Qheating_1,_Qinfvent_1,_Qenvelope_1,_Qsolar_1,_Qint_people_1,_Qint_lighting_1,_Qint_appliances_1,_Tz_2,_TEW_2,_TIW_2,_T1_2,_T2_2,_Taeq_2,_Tvent_2,_Qheating_2,_Qinfvent_2,_Qenvelope_2,_Qsolar_2,_Qint_people_2,_Qint_lighting_2,_Qint_appliances_2
8.0,1837.0,41107.85811486327,52295.31882428896,-0.0,0.0,13230.0,0.0,86985.03416106146,0.0,0.0,0.0,86985.03416106146,0.0,0.5,0.8,0.0,0.0,0.0,"[2.0, 2.0, 2.0, 2.0, 2.0, 2.0, 2.0, 2.0, 2.0]",20.0,0.0,0.0,0.9088107161011623,90.27259514799562,2.0467805967680235,-2464.661973626727,-1510.4601714625855,14805.379190962936,0.0,0.0,0.0,0.0,0.0,0.0,-9.4,19.4719638626239,0.0,19.0,0.0,-9.4,20.0,18.0,20.0,20.0,20.0,-9.84,-9.4,10592.32,-1711.86,-1788.75,1.47,0.0,0.0,66.0,0.0,0.0,0.0,0.0,0.0,0.0,0.0,0.0,0.0,0.0,0.0,0.0,0.0,0.0
9.0,1367.0,65620.53344832585,0.0,-0.0,14.530506183204698,0.0,0.0,57545.96515854066,0.0,0.0,0.0,0.0,0.0,0.5,0.8,255759.8451490697,63939.961287267426,319699.8064363371,"[2.0, 2.0, 2.0, 2.0, 2.0, 2.0, 2.0, 2.0, 2.0]",24.0,0.0,0.0,27.061223973311744,106.685794265813,2.4189225234531175,-2732.924501368412,-8781.032283435741,10065.870378496591,0.0,0.0,0.0,0.0,0.0,0.0,-8.6,20.81223267876627,0.0,19.30853703032264,0.0,-8.6,24.0,18.19,20.43,22.33,22.47,-9.02,-8.6,0.0,-1898.19,-1983.45,43.63,0.0,0.0,78.0,0.0,0.0,0.0,0.0,0.0,0.0,0.0,0.0,0.0,0.0,0.0,0.0,0.0,0.0
10.0,5022.0,37039.86800488871,0.0,-0.0,697.6082777095382,-11551.020408163267,0.0,18881.33088096948,0.0,0.0,0.0,0.0,0.41925925925925933,0.5,0.7999999999999999,83917.02613764215,20979.25653441054,104896.2826720527,"[2.0, 2.0, 2.0, 2.0, 2.0, 2.0, 2.0, 2.0, 2.0]",23.52,0.0,0.0,73.27655383264855,94.37589492744998,2.139816078439296,-2608.8423317877737,-7175.611753653308,0.0,0.0,0.0,0.0,0.0,0.0,0.0,-7.6,20.91877411197146,0.0,19.607529594514254,0.0,-7.6,23.52,18.39,20.83,21.83,22.25,-8.05,-7.6,1283.62,-1812.01,-1893.4,118.14,0.0,0.0,69.0,0.0,0.0,0.0,0.0,0.0,0.0,0.0,0.0,0.0,0.0,0.0,0.0,0.0,0.0
11.0,6365.0,70935.84113687802,50120.88565747844,-0.0,1904.7237262847998,-16000.0,0.0,95791.46913277097,0.0,0.0,0.0,95791.46913277097,1.0,0.5,0.7999999999999999,0.0,0.0,0.0,"[2.0, 2.0, 2.0, 2.0, 2.0, 2.0, 2.0, 2.0, 2.0]",20.0,0.0,0.0,104.92886973175268,61.5494966918152,1.395532225069108,-2246.698669836608,-163.16532524773868,13161.633986138506,0.0,0.0,0.0,0.0,0.0,0.0,-6.8,19.963133707011032,0.0,19.617550212028654,0.0,-6.8,20.0,18.4,20.83,19.45,20.42,-7.23,-6.8,0.0,-1560.47,-1630.57,169.18,0.0,0.0,45.0,0.0,0.0,0.0,0.0,0.0,0.0,0.0,0.0,0.0,0.0,0.0,0.0,0.0,0.0
12.0,4112.0,17412.870759552505,27582.579592020094,-0.0,3908.773186265353,10460.0,0.0,54293.783286502774,0.0,0.0,0.0,54293.783286502774,0.6046863189720333,0.5,0.7999999999999999,0.0,0.0,0.0,"[2.0, 2.0, 2.0, 2.0, 2.0, 2.0, 2.0, 2.0, 2.0]",24.0,0.0,0.0,168.86680566484253,84.80152877538983,1.9227332878729908,-2531.7276055621483,-7563.256963452186,4737.089439246458,0.0,0.0,0.0,0.0,0.0,0.0,-6.2,21.25613008757125,0.0,19.872667227127188,0.0,-6.2,24.0,18.59,21.16,22.48,22.85,-6.59,-6.2,4353.21,-1758.44,-1837.43,272.26,0.0,0.0,62.0,0.0,0.0,0.0,0.0,0.0,0.0,0.0,0.0,0.0,0.0,0.0,0.0,0.0,0.0
13.0,8697.0,29090.08370464024,21079.367080023996,-0.0,831.7337939069539,0.0,0.0,41693.760772678725,0.0,0.0,0.0,41693.760772678725,0.6046863189720333,0.5,0.7999999999999999,0.0,0.0,0.0,"[2.0, 2.0, 2.0, 2.0, 2.0, 2.0, 2.0, 2.0, 2.0]",22.13,0.0,0.0,77.03799020805319,98.4791947069043,2.2328515601105727,-2366.8955314041923,-3537.282097634227,0.0,0.0,0.0,0.0,0.0,0.0,0.0,-6.1,20.862557838214812,0.0,20.023866600026643,0.0,-6.1,22.13,18.7,21.34,21.01,21.8,-6.53,-6.1,0.0,-1643.96,-1717.8,124.21,0.0,0.0,72.0,0.0,0.0,0.0,0.0,0.0,0.0,0.0,0.0,0.0,0.0,0.0,0.0,0.0,0.0
14.0,9390.0,25723.366014654264,16214.722504949428,-0.0,9.97332036843323,0.0,0.0,31298.87741042718,0.0,0.0,0.0,31298.87741042718,0.6046863189720333,0.5,0.7882653061224489,0.0,0.0,0.0,"[2.0, 2.0, 2.0, 2.0, 2.0, 2.0, 2.0, 2.0, 2.0]",20.04,0.0,0.0,24.516397413659654,2159.3435120089925,101.84284060282114,-2233.0997519107436,521.1030642543747,10254.58750126257,0.0,0.0,0.0,0.0,0.0,0.0,-6.6,20.2513376120232,0.0,19.980838687009992,0.0,-6.6,20.04,18.7,21.26,19.66,20.72,-7.01,-6.6,8032.62,-1551.03,-1620.7,39.53,163.0,9.0,1492.0,0.0,0.0,0.0,0.0,0.0,0.0,0.0,0.0,0.0,0.0,0.0,0.0,0.0,0.0
15.0,6629.0,0.0,9371.000000000002,-0.0,0.0,16000.0,0.0,17463.252962715495,0.0,0.0,0.0,17463.252962715495,0.0,0.5,0.7811224489795918,0.0,0.0,0.0,"[2.0, 2.0, 2.0, 2.0, 2.0, 2.0, 2.0, 2.0, 2.0]",24.0,0.0,0.0,2.706904025770578,1321.2625289842995,81.43705828958839,-2623.942849473352,-6938.648337449728,0.0,0.0,0.0,0.0,0.0,0.0,0.0,-7.3,21.485784748285198,0.0,20.176610728037886,0.0,-7.3,24.0,18.85,21.51,22.38,22.88,-7.7,-7.3,5057.08,-1822.49,-1904.35,4.36,128.0,25.0,896.0,0.0,0.0,0.0,0.0,0.0,0.0,0.0,0.0,0.0,0.0,0.0,0.0,0.0,0.0
16.0,6434.0,19234.751437431256,12704.5776802441,-0.0,0.0,0.0,0.0,23796.63193132019,0.0,0.0,0.0,23796.631931320186,0.0,0.5,0.7811224489795914,0.0,0.0,0.0,"[2.0, 2.0, 2.0, 2.0, 2.0, 2.0, 2.0, 2.0, 2.0]",21.01,0.0,0.0,0.0,651.2008737709476,79.20420672947783,-2364.929093186266,-959.7631176486059,10765.616312727054,0.0,0.0,0.0,0.0,0.0,0.0,-7.2,20.68290162463733,0.0,20.198784368465795,0.0,-7.2,21.01,18.88,21.52,20.18,21.2,-7.59,-7.2,0.0,-1642.59,-1716.37,0.0,106.0,60.0,414.0,0.0,0.0,0.0,0.0,0.0,0.0,0.0,0.0,0.0,0.0,0.0,0.0,0.0,0.0
17.0,9501.0,22443.643294862442,12830.425078388129,-0.0,0.0,0.0,0.0,24276.986356597885,0.0,0.0,0.0,24276.986356597885,0.0,0.5,0.7770408163265301,0.0,0.0,0.0,"[2.0, 2.0, 2.0, 2.0, 2.0, 2.0, 2.0, 2.0, 2.0]",24.0,0.0,0.0,0.0,682.2995668362859,107.98318239312522,-2598.7932374975694,-6462.198764864316,0.0,0.0,0.0,0.0,0.0,0.0,0.0,-7.0,21.65999041219242,0.0,20.405232141991007,0.0,-7.0,24.0,19.03,21.78,22.54,23.09,-7.38,-7.0,0.0,-1805.03,-1886.1,0.0,92.0,118.0,438.0,0.0,0.0,0.0,0.0,0.0,0.0,0.0,0.0,0.0,0.0,0.0,0.0,0.0,0.0
18.0,9720.0,44452.895608260565,27601.984532232214,-0.0,0.0,-6908.646597987046,0.0,52490.01281033312,0.0,0.0,0.0,52490.01281033312,0.2507582839269372,0.5,0.7719387755102028,0.0,0.0,0.0,"[2.0, 2.0, 2.0, 2.0, 2.0, 2.0, 2.0, 2.0, 2.0]",20.97,0.0,0.0,0.0,663.8707116864558,154.9971124643423,-2336.219191269909,-432.9976693554033,0.0,0.0,0.0,0.0,0.0,0.0,0.0,-6.9,20.833040939156817,0.0,20.41269648598822,0.0,-6.9,20.97,19.06,21.76,20.29,21.36,-7.29,-6.9,0.0,-1622.65,-1695.54,0.0,142.0,177.0,392.0,0.0,0.0,0.0,0.0,0.0,0.0,0.0,0.0,0.0,0.0,0.0,0.0,0.0,0.0
19.0,6837.0,23995.645450573906,17038.667223321037,-0.0,0.0,0.0,0.0,32564.447814037834,0.0,0.0,0.0,32564.447814037834,0.2507582839269372,0.5,0.7688775510204069,0.0,0.0,0.0,"[2.0, 2.0, 2.0, 2.0, 2.0, 2.0, 2.0, 2.0, 2.0]",20.25,0.0,0.0,0.0,887.3205803781449,134.40525918776697,-2267.54166348943,802.0269060160776,0.0,0.0,0.0,0.0,0.0,0.0,0.0,-6.8,20.565371780487695,0.0,20.328555695787763,0.0,-6.8,20.25,19.03,21.63,19.97,21.05,-7.18,-6.8,6372.32,-1574.95,-1645.69,0.0,83.0,162.0,588.0,0.0,0.0,0.0,0.0,0.0,0.0,0.0,0.0,0.0,0.0,0.0,0.0,0.0,0.0
20.0,9511.0,28511.454465018407,14215.523382517094,-0.0,0.0,-4642.373810176222,0.0,27439.87284017053,0.0,0.0,0.0,27439.87284017053,1.0,0.5,0.7382653061224478,0.0,0.0,0.0,"[1.9840777440471697, 2.0, 2.0, 2.0, 2.0, 1.0052056670081377, 1.614508637871431, 1.5437736671546034, 2.0]",20.08,0.0,0.0,0.0,1031.5119743824794,131.2110409837199,-2236.7858531460083,905.9212657939332,0.0,0.0,0.0,0.0,0.0,0.0,0.0,-6.6,20.43623235105029,0.0,20.227936651197627,0.0,-6.6,20.08,18.98,21.48,19.85,20.9,-6.98,-6.6,0.0,-1553.59,-1623.37,0.0,129.0,126.0,673.0,0.0,0.0,0.0,0.0,0.0,0.0,0.0,0.0,0.0,0.0,0.0,0.0,0.0,0.0
21.0,5727.0,0.0,0.0,-0.0,0.0,5727.0,0.0,5327.391418613146,0.0,5327.391418613146,0.0,0.0,0.7835600907029479,0.47986624558347263,0.7382653061224478,0.0,0.0,0.0,"[1.9840777440471697, 2.0, 2.0, 2.0, 2.0, 1.0052056670081377, 1.614508637871431, 1.5437736671546034, 2.0]",20.02,0.0,0.0,0.0,956.9327011980109,101.31563954001724,-2222.883853057468,813.9152038345372,359.7032637022822,0.0,0.0,0.0,0.0,0.0,0.0,-6.5,20.336580483448508,0.0,20.128832118569083,0.0,-6.5,20.02,18.93,21.33,19.78,20.78,-6.89,-6.5,0.0,-1543.93,-1613.28,0.0,135.0,72.0,621.0,0.0,0.0,0.0,0.0,0.0,0.0,0.0,0.0,0.0,0.0,0.0,0.0,0.0,0.0
22.0,4555.0,0.0,0.0,-0.0,0.0,4555.0,0.0,41762.496744789794,0.0,41762.49674478979,0.0,0.0,0.6114134542705971,0.3220336804104198,0.7382653061224478,0.0,0.0,0.0,"[1.9840777440471697, 2.0, 2.0, 2.0, 2.0, 1.0052056670081377, 1.614508637871431, 1.5437736671546034, 2.0]",20.02,0.0,0.0,0.0,776.3875109020196,74.27332620090031,-2206.117445073613,613.4213418622111,11584.995299958875,0.0,0.0,0.0,0.0,0.0,0.0,-6.3,20.26301520853863,0.0,20.039044678657465,0.0,-6.3,20.02,18.88,21.2,19.77,20.71,-6.72,-6.3,7735.01,-1532.29,-1601.11,0.0,157.0,19.0,483.0,0.0,0.0,0.0,0.0,0.0,0.0,0.0,0.0,0.0,0.0,0.0,0.0,0.0,0.0
23.0,4675.0,42423.134110290564,26830.062588010664,-0.0,0.0,-10705.955851728448,0.0,52812.52244217925,0.0,0.0,0.0,52812.52244217925,1.0,0.3220336804104198,0.7382653061224478,0.0,0.0,0.0,"[1.9840777440471697, 2.0, 2.0, 2.0, 2.0, 1.0052056670081377, 1.614508637871431, 1.5437736671546034, 2.0]",23.98,0.0,0.0,0.0,466.4084082646439,44.06780648496006,-2530.3928103655057,-6821.063138393102,8844.886920836034,0.0,0.0,0.0,0.0,0.0,0.0,-6.2,21.511986116066197,0.0,20.248716671281493,0.0,-6.2,23.98,19.03,21.47,22.56,22.95,-6.6,-6.2,5831.66,-1757.52,-1836.46,0.0,80.0,18.0,297.0,0.0,0.0,0.0,0.0,0.0,0.0,0.0,0.0,0.0,0.0,0.0,0.0,0.0,0.0
24.0,1816.0,0.0,14184.0,-0.0,0.0,16000.0,0.0,28055.12615984112,0.0,0.0,0.0,28055.126159841122,0.3953136810279667,0.3220336804104198,0.7382653061224478,0.0,0.0,0.0,"[1.9840777440471697, 2.0, 2.0, 2.0, 2.0, 1.0052056670081377, 1.614508637871431, 1.5437736671546034, 2.0]",23.98,0.0,0.0,0.0,844.0559634053019,42.64126243266719,-2522.009606373578,-6293.140147792302,6800.162030656444,0.0,0.0,0.0,0.0,0.0,0.0,-6.1,21.705232049236336,0.0,20.495209330169423,0.0,-6.1,23.98,19.2,21.79,22.42,22.96,-6.52,-6.1,2757.76,-1751.69,-1830.38,0.0,80.0,0.0,575.0,0.0,0.0,0.0,0.0,0.0,0.0,0.0,0.0,0.0,0.0,0.0,0.0,0.0,0.0
25.0,1578.0,45114.36550933586,27310.793681789182,-0.0,0.0,-16000.0,0.0,54279.52195388987,0.0,0.0,0.0,54279.52195388987,0.9760544217687074,0.3220336804104198,0.7382653061224478,0.0,0.0,0.0,"[1.9840777440471697, 2.0, 2.0, 2.0, 2.0, 1.0052056670081377, 1.614508637871431, 1.5437736671546034, 2.0]",23.57,0.0,0.0,0.0,171.11479957478912,27.38344343857828,-2478.873711015313,-5071.371484629081,0.0,0.0,0.0,0.0,0.0,0.0,0.0,-6.0,21.73761794867054,0.0,20.683123915206934,0.0,-6.0,23.57,19.35,22.02,22.15,22.83,-6.38,-6.0,6693.24,-1721.73,-1799.07,0.0,80.0,0.0,83.0,0.0,0.0,0.0,0.0,0.0,0.0,0.0,0.0,0.0,0.0,0.0,0.0,0.0,0.0
26.0,1446.0,13412.949209997014,11240.159349411415,-0.0,0.0,-659.725114535613,0.0,22661.00430746584,0.0,0.0,0.0,22661.00430746584,1.0,0.3220336804104198,0.7382653061224478,0.0,0.0,0.0,"[1.9840777440471697, 2.0, 2.0, 2.0, 2.0, 1.0052056670081377, 1.614508637871431, 1.5437736671546034, 2.0]",20.88,0.0,0.0,0.0,214.88333055563555,28.375821909738534,-2227.9632385096706,219.1346754820254,10254.331353336373,0.0,0.0,0.0,0.0,0.0,0.0,-5.7,20.979404656987548,0.0,20.660368894791247,0.0,-5.7,20.88,19.35,21.97,20.38,21.45,-6.07,-5.7,5579.04,-1547.46,-1616.97,0.0,80.0,0.0,115.0,0.0,0.0,0.0,0.0,0.0,0.0,0.0,0.0,0.0,0.0,0.0,0.0,0.0,0.0
27.0,1597.0,2923.102334466762,17311.486822794428,-0.0,0.0,16000.0,0.0,35231.32730194517,0.0,0.0,0.0,35231.32730194517,0.3953136810279667,0.3220336804104198,0.7382653061224478,0.0,0.0,0.0,"[1.9840777440471697, 2.0, 2.0, 2.0, 2.0, 1.0052056670081377, 1.614508637871431, 1.5437736671546034, 2.0]",23.98,0.0,0.0,0.0,138.28840133915435,26.639159585208088,-2471.710382422012,-5598.719790760944,0.0,0.0,0.0,0.0,0.0,0.0,0.0,-5.5,21.958972851747674,0.0,20.83001807925786,0.0,-5.5,23.98,19.49,22.17,22.73,23.31,-5.86,-5.5,0.0,-1716.76,-1793.87,0.0,80.0,0.0,59.0,0.0,0.0,0.0,0.0,0.0,0.0,0.0,0.0,0.0,0.0,0.0,0.0,0.0,0.0
28.0,1741.0,0.0,6582.999999999998,-0.0,0.0,8323.999999999998,0.0,27128.821630640028,0.0,13668.726600324233,0.0,13460.095030315797,0.08072562358276644,0.27037560557926255,0.7382653061224478,0.0,0.0,0.0,"[1.9840777440471697, 2.0, 2.0, 2.0, 2.0, 1.0052056670081377, 1.614508637871431, 1.5437736671546034, 2.0]",21.09,0.0,0.0,0.0,176.58586594739495,27.50749074747331,-2220.5689716750617,112.97475479374194,0.0,0.0,0.0,0.0,0.0,0.0,0.0,-5.4,21.152238680696193,0.0,20.81635394860344,0.0,-5.4,21.09,19.5,22.13,20.56,21.63,-5.76,-5.4,0.0,-1542.32,-1611.6,0.0,80.0,0.0,87.0,0.0,0.0,0.0,0.0,0.0,0.0,0.0,0.0,0.0,0.0,0.0,0.0,0.0,0.0
29.0,819.0,25271.978322043837,24326.618430433617,-0.0,0.0,0.0,0.0,50203.85294929313,0.0,0.0,0.0,50203.85294929312,0.08072562358276644,0.27037560557926255,0.7382653061224478,0.0,0.0,0.0,"[1.9840777440471697, 2.0, 2.0, 2.0, 2.0, 1.0052056670081377, 1.614508637871431, 1.5437736671546034, 2.0]",20.39,0.0,0.0,0.0,143.75946771176018,26.763206894103114,-2145.2934027519655,1267.1202743865522,10523.82764220157,0.0,0.0,0.0,0.0,0.0,0.0,-5.2,20.876184050496818,0.0,20.71446557967436,0.0,-5.2,20.39,19.46,21.97,20.23,21.31,-5.56,-5.2,0.0,-1490.04,-1556.97,0.0,80.0,0.0,63.0,0.0,0.0,0.0,0.0,0.0,0.0,0.0,0.0,0.0,0.0,0.0,0.0,0.0,0.0
30.0,2136.0,0.0,0.0,-0.0,0.0,2136.0,0.0,16073.385236272858,0.0,16073.385236272858,0.0,0.0,0.0,0.20962962962962967,0.7382653061224478,0.0,0.0,0.0,"[1.9840777440471697, 2.0, 2.0, 2.0, 2.0, 1.0052056670081377, 1.614508637871431, 1.5437736671546034, 2.0]",23.98,0.0,0.0,0.0,60.18173009866375,1.3645203978453475,-2438.177566454302,-5533.745225949222,0.0,0.0,0.0,0.0,0.0,0.0,0.0,-5.1,21.98242624886614,0.0,20.87576780292881,0.0,-5.1,23.98,19.58,22.17,22.79,23.33,-5.46,-5.1,0.0,-1693.47,-1769.53,0.0,0.0,0.0,44.0,0.0,0.0,0.0,0.0,0.0,0.0,0.0,0.0,0.0,0.0,0.0,0.0,0.0,0.0
31.0,1985.0,8158.789096099579,6132.995150619081,-0.0,0.0,0.0,0.0,12773.852298377034,0.0,0.0,0.0,12773.852298377034,0.0,0.20962962962962967,0.7382653061224478,0.0,0.0,0.0,"[1.9840777440471697, 2.0, 2.0, 2.0, 2.0, 1.0052056670081377, 1.614508637871431, 1.5437736671546034, 2.0]",21.09,0.0,0.0,0.0,135.40889272199342,3.070170895152038,-2186.955326932394,177.3728125411494,1686.8578387371306,0.0,0.0,0.0,0.0,0.0,0.0,-5.0,21.174516027392524,0.0,20.860206038877443,0.0,-5.0,21.09,19.59,22.13,20.59,21.63,-5.35,-5.0,0.0,-1518.98,-1587.21,0.0,0.0,0.0,99.0,0.0,0.0,0.0,0.0,0.0,0.0,0.0,0.0,0.0,0.0,0.0,0.0,0.0,0.0
32.0,1714.0,18341.070511641334,4984.344750919861,-0.0,0.0,-11551.020408163267,0.0,10476.46845791041,0.0,0.0,0.0,10476.46845791041,1.0,0.20962962962962967,0.7382653061224478,0.0,0.0,0.0,"[1.6925676622931647, 1.6001314363851762, 2.0, 1.2355530104226595, 1.6881732206463447, 0.8961706007790156, 1.2061397938703315, 1.4233093068001743, 1.841597631013478]",21.02,0.0,0.0,0.9088725139572791,42.400764387694906,0.9613666439364932,-2164.5245305850367,175.01202188744892,0.0,0.0,0.0,0.0,0.0,0.0,0.0,-4.8,21.10586354185821,0.0,20.801909014304147,0.0,-4.8,21.02,19.57,22.03,20.7,21.67,-5.16,-4.8,0.0,-1503.4,-1570.93,1.47,0.0,0.0,31.0,0.0,0.0,0.0,0.0,0.0,0.0,0.0,0.0,0.0,0.0,0.0,0.0,0.0,0.0
33.0,6890.0,0.0,1068.2759218482604,-0.0,13.819573836443075,7944.456348011818,0.0,2347.2242254928233,0.0,0.0,0.0,2347.2242254928233,0.6997559959179207,0.20962962962962967,0.7382653061224478,0.0,0.0,0.0,"[1.6925676622931647, 1.6001314363851762, 2.0, 1.2355530104226595, 1.6881732206463447, 0.8961706007790156, 1.2061397938703315, 1.4233093068001743, 1.841597631013478]",20.31,0.0,0.0,27.04514737548343,129.93782634938762,2.946123586257005,-2020.975230085895,1359.2736503695273,501.04996097880326,0.0,0.0,0.0,0.0,0.0,0.0,-3.8,20.82570848218412,0.0,20.698502229380885,0.0,-3.8,20.31,19.52,21.88,20.2,21.22,-4.12,-3.8,7680.12,-1403.69,-1466.74,43.6,0.0,0.0,95.0,0.0,0.0,0.0,0.0,0.0,0.0,0.0,0.0,0.0,0.0,0.0,0.0,0.0,0.0
34.0,4489.0,64093.515148200204,42513.06626291817,-0.0,228.33737435298437,-8272.028683894021,0.0,62959.07346714061,43636.45,0.0,0.0,97868.23346714063,1.0,0.20962962962962967,0.7382653061224478,34909.159999999996,8727.289999999999,43636.45,"[1.6925676622931647, 1.6001314363851762, 2.0, 1.2355530104226595, 1.6881732206463447, 0.8961706007790156, 1.2061397938703315, 1.4233093068001743, 1.841597631013478]",20.31,0.0,0.0,53.04111592672009,61.5494966918152,1.395532225069108,-1928.759986174691,1132.673721815471,9922.537875716032,0.0,0.0,0.0,0.0,0.0,0.0,-2.7,20.741803773099033,0.0,20.597014127007895,0.0,-2.7,20.31,19.47,21.72,20.21,21.16,-3.02,-2.7,0.0,-1339.65,-1399.82,85.52,0.0,0.0,45.0,0.0,0.0,0.0,0.0,0.0,0.0,0.0,0.0,0.0,0.0,0.0,0.0,0.0,0.0
35.0,6127.0,17870.187374664052,12753.154943606116,-0.0,1099.3185058153845,0.0,0.0,30574.506501056672,0.0,0.0,0.0,30574.506501056676,1.0,0.20962962962962967,0.7382653061224478,0.0,0.0,0.0,"[1.6925676622931647, 1.6001314363851762, 2.0, 1.2355530104226595, 1.6881732206463447, 0.8961706007790156, 1.2061397938703315, 1.4233093068001743, 1.841597631013478]",23.69,0.0,0.0,82.7660289139009,88.90482855484417,2.015768769544263,-2128.7107459182885,-5257.276850070911,7209.469182085306,0.0,0.0,0.0,0.0,0.0,0.0,-1.7,21.78900219323715,0.0,20.755097054813252,0.0,-1.7,23.69,19.59,21.92,22.59,23.05,-2.0,-1.7,1070.31,-1478.52,-1544.93,133.44,0.0,0.0,65.0,0.0,0.0,0.0,0.0,0.0,0.0,0.0,0.0,0.0,0.0,0.0,0.0,0.0,0.0
36.0,4388.0,12848.620820582657,9947.843484967865,-0.0,1551.4657684881229,0.0,0.0,24512.883301975708,0.0,0.0,0.0,24512.883301975704,1.0,0.20962962962962967,0.7382653061224478,0.0,0.0,0.0,"[1.6925676622931647, 1.6001314363851762, 2.0, 1.2355530104226595, 1.6881732206463447, 0.8961706007790156, 1.2061397938703315, 1.4233093068001743, 1.841597631013478]",23.69,0.0,0.0,92.45253615973898,106.685794265813,2.4189225234531175,-2070.028317974795,-4853.8557477580425,5956.40571183272,0.0,0.0,0.0,0.0,0.0,0.0,-1.0,21.936228899035573,0.0,20.94583062426323,0.0,-1.0,23.69,19.74,22.15,22.44,23.02,-1.4,-1.0,0.0,-1437.76,-1502.35,149.06,0.0,0.0,78.0,0.0,0.0,0.0,0.0,0.0,0.0,0.0,0.0,0.0,0.0,0.0,0.0,0.0,0.0
37.0,4719.0,2353.1099226290103,14083.101491214216,-0.0,460.7571181983508,16000.0,0.0,35105.515320416314,0.0,0.0,0.0,35105.51532041632,0.3953136810279667,0.20962962962962967,0.7382653061224478,0.0,0.0,0.0,"[1.6925676622931647, 1.6001314363851762, 2.0, 1.2355530104226595, 1.6881732206463447, 0.8961706007790156, 1.2061397938703315, 1.4233093068001743, 1.841597631013478]",23.41,0.0,0.0,64.9334518704578,42.400764387694906,0.9613666439364932,-2021.4628599147388,-3980.1938814990804,6653.8572456650845,0.0,0.0,0.0,0.0,0.0,0.0,-0.7,21.976370313559404,0.0,21.099069854324334,0.0,-0.7,23.41,19.87,22.33,22.29,22.96,-1.13,-0.7,0.0,-1404.03,-1467.1,104.69,0.0,0.0,31.0,0.0,0.0,0.0,0.0,0.0,0.0,0.0,0.0,0.0,0.0,0.0,0.0,0.0,0.0
38.0,3453.0,9852.708828111781,6350.885951470537,-0.0,0.44066749931424,0.0,0.0,15467.839991799478,0.0,0.0,0.0,15467.839991799478,0.3953136810279667,0.20962962962962967,0.7382653061224478,0.0,0.0,0.0,"[1.6925676622931647, 1.6001314363851762, 2.0, 1.2355530104226595, 1.6881732206463447, 0.8961706007790156, 1.2061397938703315, 1.4233093068001743, 1.841597631013478]",23.69,0.0,0.0,15.557617143834106,150.45432524665932,3.411300994613375,-2095.177929950578,-4213.699791761955,0.0,0.0,0.0,0.0,0.0,0.0,0.0,-1.3,22.170888513124893,0.0,21.255187995126676,0.0,-1.3,23.69,20.0,22.51,22.55,23.21,-1.69,-1.3,8061.24,-1455.23,-1520.6,25.08,0.0,0.0,110.0,0.0,0.0,0.0,0.0,0.0,0.0,0.0,0.0,0.0,0.0,0.0,0.0,0.0,0.0
39.0,4151.0,13674.342554616345,9454.970841843264,-0.0,0.0,0.0,0.0,22487.141648366298,0.0,0.0,0.0,22487.141648366294,0.3953136810279667,0.20962962962962967,0.7382653061224478,0.0,0.0,0.0,"[1.6925676622931647, 1.6001314363851762, 2.0, 1.2355530104226595, 1.6881732206463447, 0.8961706007790156, 1.2061397938703315, 1.4233093068001743, 1.841597631013478]",21.44,0.0,0.0,1.7978735839587772,145.05524658948258,34.8883056267277,-1957.0142629335357,190.11532827209658,0.0,0.0,0.0,0.0,0.0,0.0,0.0,-1.9,21.53403636572371,0.0,21.23389943049173,0.0,-1.9,21.44,20.01,22.45,20.98,21.98,-2.3,-1.9,0.0,-1359.27,-1420.32,2.9,83.0,13.0,61.0,0.0,0.0,0.0,0.0,0.0,0.0,0.0,0.0,0.0,0.0,0.0,0.0,0.0,0.0
40.0,2684.0,8476.2272380671,5749.846101876765,-0.0,0.0,0.0,0.0,13565.462712054035,0.0,0.0,0.0,13565.462712054035,0.3953136810279667,0.20962962962962967,0.7382653061224478,0.0,0.0,0.0,"[1.6925676622931647, 1.6001314363851762, 2.0, 1.2355530104226595, 1.6881732206463447, 0.8961706007790156, 1.2061397938703315, 1.4233093068001743, 1.841597631013478]",20.86,0.0,0.0,0.0,388.08577387786636,72.2265456041323,-1925.026036477138,1133.9742717147433,0.0,0.0,0.0,0.0,0.0,0.0,0.0,-2.1,21.297781029502236,0.0,21.142619770420378,0.0,-2.1,20.86,19.98,22.31,20.71,21.7,-2.51,-2.1,7310.55,-1337.05,-1397.11,0.0,163.0,28.0,195.0,0.0,0.0,0.0,0.0,0.0,0.0,0.0,0.0,0.0,0.0,0.0,0.0,0.0,0.0
41.0,6483.0,19240.67602294304,12661.472642828327,-0.0,0.0,0.0,0.0,29630.472459606008,0.0,0.0,0.0,29630.47245960601,0.3953136810279667,0.20962962962962967,0.7382653061224478,0.0,0.0,0.0,"[1.6925676622931647, 1.6001314363851762, 2.0, 1.2355530104226595, 1.6881732206463447, 0.8961706007790156, 1.2061397938703315, 1.4233093068001743, 1.841597631013478]",20.74,0.0,0.0,0.0,488.36466147049623,79.26623038392533,-1931.442710223072,1149.1370841850655,8286.222456661346,0.0,0.0,0.0,0.0,0.0,0.0,-2.3,21.17993398474087,0.0,21.041612664622072,0.0,-2.3,20.74,19.93,22.15,20.62,21.57,-2.7,-2.3,4119.09,-1341.51,-1401.77,0.0,149.0,44.0,274.0,0.0,0.0,0.0,0.0,0.0,0.0,0.0,0.0,0.0,0.0,0.0,0.0,0.0,0.0
42.0,5305.0,8496.010166564169,5610.204011010263,-0.0,0.0,2461.673895278916,0.0,13022.07356431997,0.0,0.0,0.0,13022.07356431997,0.3022798981376071,0.20962962962962967,0.5852040816326518,0.0,0.0,0.0,"[1.6925676622931647, 1.6001314363851762, 2.0, 1.2355530104226595, 1.6881732206463447, 0.8961706007790156, 1.2061397938703315, 1.4233093068001743, 1.841597631013478]",23.69,0.0,0.0,0.0,306.66766772764055,8.063075078177066,-2195.7763778537096,-4464.6655180347525,0.0,0.0,0.0,0.0,0.0,0.0,0.0,-2.5,22.08004685269101,0.0,21.162745653084336,0.0,-2.5,23.69,20.03,22.3,22.69,23.2,-2.95,-2.5,0.0,-1525.1,-1593.61,0.0,0.0,2.0,224.0,0.0,0.0,0.0,0.0,0.0,0.0,0.0,0.0,0.0,0.0,0.0,0.0,0.0,0.0
43.0,7713.0,0.0,285.32610472108337,-0.0,0.0,7998.3261047210835,0.0,656.8418673547831,0.0,0.0,0.0,656.8418673547832,0.0,0.20962962962962967,0.5806122448979572,0.0,0.0,0.0,"[1.6925676622931647, 1.6001314363851762, 2.0, 1.2355530104226595, 1.6881732206463447, 0.8961706007790156, 1.2061397938703315, 1.4233093068001743, 1.841597631013478]",21.37,0.0,0.0,0.0,318.68961620428763,7.225755743135602,-2017.7181270488252,102.1821645933961,0.0,0.0,0.0,0.0,0.0,0.0,0.0,-2.7,21.426610178865992,0.0,21.143215699303987,0.0,-2.7,21.37,20.03,22.26,20.92,21.83,-3.16,-2.7,0.0,-1401.43,-1464.38,0.0,0.0,0.0,233.0,0.0,0.0,0.0,0.0,0.0,0.0,0.0,0.0,0.0,0.0,0.0,0.0,0.0,0.0
44.0,7711.0,25859.28924814039,9572.792801899684,-0.0,0.0,-8446.200000000004,0.0,21854.758691755065,0.0,0.0,0.0,21854.758691755065,0.8760015117157974,0.20962962962962967,0.5275510204081613,0.0,0.0,0.0,"[1.6925676622931647, 1.1258020397177688, 1.3089483088819556, 1.2355530104226595, 1.6881732206463447, 0.896170600779012, 0.8028162459739683, 0.9807571640766781, 1.252518625874803]",20.79,0.0,0.0,0.0,62.91726328496664,1.426544052292864,-1985.6661760671923,1053.4584610468191,8804.677687656507,0.0,0.0,0.0,0.0,0.0,0.0,-2.9,21.19227906324009,0.0,21.051759992189684,0.0,-2.9,20.79,19.98,22.12,20.64,21.56,-3.34,-2.9,0.0,-1379.17,-1441.12,0.0,0.0,0.0,46.0,0.0,0.0,0.0,0.0,0.0,0.0,0.0,0.0,0.0,0.0,0.0,0.0,0.0,0.0
45.0,7179.0,0.0,0.0,-0.0,0.0,7179.0,0.0,24561.74754026775,0.0,24561.747540267752,0.0,0.0,0.6046863189720333,0.11680367520684905,0.5102040816326511,0.0,0.0,0.0,"[1.6925676622931647, 1.1258020397177688, 1.3089483088819556, 1.2355530104226595, 1.6881732206463447, 0.896170600779012, 0.8028162459739683, 0.9807571640766781, 1.252518625874803]",23.69,0.0,0.0,0.0,138.1444259082963,3.13219454959955,-2246.0756018052757,-4457.353505642466,0.0,0.0,0.0,0.0,0.0,0.0,0.0,-3.1,22.0832186494667,0.0,21.176052414098326,0.0,-3.1,23.69,20.07,22.28,22.73,23.21,-3.54,-3.1,2556.2,-1560.04,-1630.11,0.0,0.0,0.0,101.0,0.0,0.0,0.0,0.0,0.0,0.0,0.0,0.0,0.0,0.0,0.0,0.0,0.0,0.0
46.0,3412.0,4139.50686734146,706.8093330047523,-0.0,0.0,0.0,0.0,1586.698155786841,0.0,0.0,0.0,1586.698155786841,0.6046863189720333,0.11680367520684905,0.5051020408163246,0.0,0.0,0.0,"[1.6925676622931647, 1.1258020397177688, 1.3089483088819556, 1.2355530104226595, 1.6881732206463447, 0.896170600779012, 0.8028162459739683, 0.9807571640766781, 1.252518625874803]",21.29,0.0,0.0,0.0,54.710663726057945,1.2404730889503148,-2061.3863851797405,258.85062257171074,0.0,0.0,0.0,0.0,0.0,0.0,0.0,-3.3,21.405325146590098,0.0,21.15176009842443,0.0,-3.3,21.29,20.07,22.24,20.9,21.79,-3.77,-3.3,0.0,-1431.76,-1496.07,0.0,0.0,0.0,40.0,0.0,0.0,0.0,0.0,0.0,0.0,0.0,0.0,0.0,0.0,0.0,0.0,0.0,0.0
47.0,2028.0,2934.22535207162,16891.55422531126,-0.0,0.0,16000.0,0.0,37758.384771202516,0.0,0.0,0.0,37758.384771202516,0.0,0.11680367520684905,0.5051020408163246,0.0,0.0,0.0,"[1.6925676622931647, 1.1258020397177688, 1.3089483088819556, 1.2355530104226595, 1.6881732206463447, 0.896170600779012, 0.8028162459739683, 0.9807571640766781, 1.252518625874803]",20.65,0.0,0.0,0.0,86.16929536854126,1.9537451150967513,-2016.148987795933,1308.1329595514646,8526.611282243692,0.0,0.0,0.0,0.0,0.0,0.0,-3.4,21.149484442047623,0.0,21.05181034940363,0.0,-3.4,20.65,20.01,22.1,20.59,21.5,-3.86,-3.4,4378.3,-1400.34,-1463.24,0.0,0.0,0.0,63.0,0.0,0.0,0.0,0.0,0.0,0.0,0.0,0.0,0.0,0.0,0.0,0.0,0.0,0.0
48.0,1396.0,18096.33901430026,16609.85731922876,-0.0,0.0,0.0,0.0,35228.53370355002,0.0,0.0,0.0,35228.53370355002,0.0,0.11680367520684905,0.5051020408163246,0.0,0.0,0.0,"[1.6925676622931647, 1.1258020397177688, 1.3089483088819556, 1.2355530104226595, 1.6881732206463447, 0.896170600779012, 0.8028162459739683, 0.9807571640766781, 1.252518625874803]",23.55,0.0,0.0,0.0,276.0728886703056,54.735875049932794,-2359.46513747456,-4208.656541683959,0.0,0.0,0.0,0.0,0.0,0.0,0.0,-4.6,22.028014740693706,0.0,21.16325726893271,0.0,-4.6,23.55,20.09,22.24,22.65,23.12,-5.05,-4.6,0.0,-1638.8,-1712.41,0.0,80.0,45.0,155.0,0.0,0.0,0.0,0.0,0.0,0.0,0.0,0.0,0.0,0.0,0.0,0.0,0.0,0.0
49.0,1161.0,32963.55831839195,15637.740526799991,-0.0,0.0,-16000.0,0.0,31377.778418621492,0.0,0.0,0.0,31377.778418621492,0.5807407407407407,0.11680367520684905,0.5051020408163246,0.0,0.0,0.0,"[1.6925676622931647, 1.1258020397177688, 1.3089483088819556, 1.2355530104226595, 1.6881732206463447, 0.896170600779012, 0.8028162459739683, 0.9807571640766781, 1.252518625874803]",21.26,0.0,0.0,0.0,167.0114997953348,27.290407956907,-2268.439536688485,266.1333646346154,8455.169618919732,0.0,0.0,0.0,0.0,0.0,0.0,-5.8,21.37990557339774,0.0,21.134323853561128,0.0,-5.8,21.26,20.07,22.2,20.9,21.77,-6.24,-5.8,4796.36,-1575.57,-1646.34,0.0,80.0,0.0,80.0,0.0,0.0,0.0,0.0,0.0,0.0,0.0,0.0,0.0,0.0,0.0,0.0,0.0,0.0
50.0,1026.0,16710.895076358614,15601.340600976822,-0.0,0.0,0.0,0.0,29519.952035925322,0.0,0.0,0.0,29519.952035925322,0.5807407407407407,0.11680367520684905,0.5051020408163246,0.0,0.0,0.0,"[1.6925676622931647, 1.1258020397177688, 1.3089483088819556, 1.2355530104226595, 1.6881732206463447, 0.896170600779012, 0.8028162459739683, 0.9807571640766781, 1.252518625874803]",23.69,0.0,0.0,0.0,149.23053408436596,26.887254202998147,-2573.0205574904535,-4312.53016851074,0.0,0.0,0.0,0.0,0.0,0.0,0.0,-7.0,22.139554328916983,0.0,21.253396110389033,0.0,-7.0,23.69,20.15,22.36,22.75,23.24,-7.47,-7.0,162.16,-1787.12,-1867.4,0.0,80.0,0.0,67.0,0.0,0.0,0.0,0.0,0.0,0.0,0.0,0.0,0.0,0.0,0.0,0.0,0.0,0.0
51.0,959.0,6682.0460100025075,11877.853456899971,-0.0,0.0,6188.217676947476,0.0,21795.174236571416,0.0,0.0,0.0,21795.174236571416,0.3468700802363009,0.11680367520684905,0.5051020408163246,0.0,0.0,0.0,"[1.6925676622931647, 1.1258020397177688, 1.3089483088819556, 1.2355530104226595, 1.6881732206463447, 0.896170600779012, 0.8028162459739683, 0.9807571640766781, 1.252518625874803]",21.23,0.0,0.0,0.0,181.5530183119976,41.493824825388145,-2417.278236768723,484.68548461567246,0.0,0.0,0.0,0.0,0.0,0.0,0.0,-7.6,21.436894845022486,0.0,21.213453026506212,0.0,-7.6,21.23,20.12,22.31,20.92,21.83,-8.08,-7.6,4099.81,-1678.95,-1754.37,0.0,80.0,25.0,88.0,0.0,0.0,0.0,0.0,0.0,0.0,0.0,0.0,0.0,0.0,0.0,0.0,0.0,0.0
52.0,673.0,21852.002910652598,21069.742896099335,-0.0,0.0,0.0,0.0,37255.70954549294,0.0,0.0,0.0,37255.70954549294,0.3468700802363009,0.11680367520684905,0.5051020408163246,0.0,0.0,0.0,"[1.6925676622931647, 1.1258020397177688, 1.3089483088819556, 1.2355530104226595, 1.6881732206463447, 0.896170600779012, 0.8028162459739683, 0.9807571640766781, 1.252518625874803]",20.61,0.0,0.0,0.0,146.9269271906372,60.13193298686668,-2423.3675280717393,1481.204238880054,0.0,0.0,0.0,0.0,0.0,0.0,0.0,-8.3,21.174518374268715,0.0,21.097643353142267,0.0,-8.3,20.61,20.04,22.16,20.61,21.53,-8.79,-8.3,0.0,-1683.18,-1758.79,0.0,80.0,60.0,59.0,0.0,0.0,0.0,0.0,0.0,0.0,0.0,0.0,0.0,0.0,0.0,0.0,0.0,0.0
53.0,2392.0,0.0,6786.1823230525215,-0.0,0.0,9178.182323052522,0.0,11611.220277519766,0.0,0.0,0.0,11611.220277519766,0.0,0.11680367520684905,0.5051020408163246,0.0,0.0,0.0,"[1.6925676622931647, 1.1258020397177688, 1.3089483088819556, 1.2355530104226595, 1.6881732206463447, 0.896170600779012, 0.8028162459739683, 0.9807571640766781, 1.252518625874803]",20.34,0.0,0.0,0.0,121.08333735161774,60.10092115964291,-2450.9366087127582,1735.572065916222,460.74332059612505,0.0,0.0,0.0,0.0,0.0,0.0,-8.9,20.996817559581963,0.0,20.964735081697256,0.0,-8.9,20.34,19.94,21.99,20.43,21.34,-9.41,-8.9,3579.38,-1702.33,-1778.79,0.0,80.0,61.0,40.0,0.0,0.0,0.0,0.0,0.0,0.0,0.0,0.0,0.0,0.0,0.0,0.0,0.0,0.0
54.0,3638.0,40674.744127076636,20833.370406441252,-0.0,0.0,-16000.0,0.0,24658.92070817128,0.0,-9994.11281827608,0.0,34653.03352644736,0.5807407407407407,0.1530786032139252,0.5051020408163246,0.0,0.0,0.0,"[1.6925676622931647, 1.1258020397177688, 1.3089483088819556, 1.2355530104226595, 1.6881732206463447, 0.896170600779012, 0.8028162459739683, 0.9807571640766781, 1.252518625874803]",20.31,0.0,0.0,0.0,251.02116370100526,86.61603343595594,-2490.434653633843,1524.935571344108,9879.78485723153,0.0,0.0,0.0,0.0,0.0,0.0,-9.4,20.891239755809778,0.0,20.83815077596567,0.0,-9.4,20.31,19.84,21.83,20.4,21.26,-9.91,-9.4,0.0,-1729.76,-1807.46,0.0,147.0,68.0,99.0,0.0,0.0,0.0,0.0,0.0,0.0,0.0,0.0,0.0,0.0,0.0,0.0,0.0,0.0
55.0,2083.0,60420.78699500069,47645.57198291177,-0.0,0.0,-1702.9790771139178,0.0,42231.2846333549,43435.66,0.0,0.0,76979.8126333549,0.6211556718485984,0.1530786032139252,0.5051020408163246,34748.528000000006,8687.132000000001,43435.66,"[1.6925676622931647, 1.1258020397177688, 1.3089483088819556, 1.2355530104226595, 1.6881732206463447, 0.896170600779012, 0.8028162459739683, 0.9807571640766781, 1.252518625874803]",23.69,0.0,0.0,0.0,161.8283842844451,43.16846349547108,-2816.133473256355,-4911.842306286593,7526.806380083396,0.0,0.0,0.0,0.0,0.0,0.0,-9.9,21.9225765370226,0.0,20.967717984084157,0.0,-9.9,23.69,19.91,22.03,22.75,23.14,-10.42,-9.9,5186.13,-1955.98,-2043.84,0.0,108.0,14.0,60.0,0.0,0.0,0.0,0.0,0.0,0.0,0.0,0.0,0.0,0.0,0.0,0.0,0.0,0.0
56.0,1136.0,5965.110658078189,5250.699313692065,-0.0,0.0,451.4142089042673,0.0,8583.542523501135,0.0,0.0,0.0,8583.542523501135,0.3627235659303698,0.1530786032139252,0.5051020408163246,0.0,0.0,0.0,"[1.6925676622931647, 1.1258020397177688, 1.3089483088819556, 1.2355530104226595, 1.6881732206463447, 0.896170600779012, 0.8028162459739683, 0.9807571640766781, 1.252518625874803]",23.69,0.0,0.0,3.7045571708728477,149.87842352322718,43.35453445881362,-2799.3670652724995,-4552.893104867222,0.0,0.0,0.0,0.0,0.0,0.0,0.0,-9.7,22.053863019032796,0.0,21.129095898514684,0.0,-9.7,23.69,20.0,22.26,22.59,23.11,-10.24,-9.7,366.32,-1944.34,-2031.67,5.97,136.0,0.0,38.0,0.0,0.0,0.0,0.0,0.0,0.0,0.0,0.0,0.0,0.0,0.0,0.0,0.0,0.0
57.0,1318.0,31611.138746516142,30146.36282687639,-0.0,11.279774092829538,0.0,0.0,22996.256533485383,0.0,-33182.759574885684,0.0,56179.01610837107,0.3627235659303698,0.27351973055980655,0.5051020408163246,0.0,0.0,0.0,"[1.6925676622931647, 1.1258020397177688, 1.3089483088819556, 1.2355530104226595, 1.6881732206463447, 0.896170600779012, 0.8028162459739683, 0.9807571640766781, 1.252518625874803]",21.07,0.0,0.0,42.838610315163606,134.041126128842,3.0391590679282774,-2378.3998724716243,569.5958047400625,7800.915374936103,0.0,0.0,0.0,0.0,0.0,0.0,-7.3,21.30385879311108,0.0,21.08417953606093,0.0,-7.3,21.07,19.96,22.21,20.77,21.71,-7.81,-7.3,310.97,-1651.95,-1726.15,69.07,0.0,0.0,98.0,0.0,0.0,0.0,0.0,0.0,0.0,0.0,0.0,0.0,0.0,0.0,0.0,0.0,0.0
58.0,2244.0,32852.78273704747,14495.891676470384,-0.0,51.37285310814971,-16000.0,0.0,29915.773792215852,0.0,0.0,0.0,29915.77379221586,0.9434643066711105,0.27351973055980655,0.5051020408163246,0.0,0.0,0.0,"[1.6925676622931647, 1.1258020397177688, 1.3089483088819556, 1.2355530104226595, 1.6881732206463447, 0.896170600779012, 0.8028162459739683, 0.9807571640766781, 1.252518625874803]",23.33,0.0,0.0,77.35955191914276,77.96269580963256,1.767674151754202,-2391.8631489442887,-3718.0659606362424,0.0,0.0,0.0,0.0,0.0,0.0,0.0,-5.2,21.99453504992356,0.0,21.175762907605616,0.0,-5.2,23.33,20.02,22.33,22.48,23.06,-5.75,-5.2,0.0,-1661.3,-1735.92,124.73,0.0,0.0,57.0,0.0,0.0,0.0,0.0,0.0,0.0,0.0,0.0,0.0,0.0,0.0,0.0,0.0,0.0
59.0,2656.0,3179.7151949147283,9083.563483755785,-0.0,8575.74686481563,0.0,0.0,20304.86245009675,0.0,0.0,0.0,20304.86245009675,0.9434643066711105,0.27351973055980655,0.5051020408163246,0.0,0.0,0.0,"[1.6925676622931647, 1.1258020397177688, 1.3089483088819556, 1.2355530104226595, 1.6881732206463447, 0.896170600779012, 0.8028162459739683, 0.9807571640766781, 1.252518625874803]",21.15,0.0,0.0,2094.3259182087527,88.90482855484417,2.015768769544263,-2058.3048457565374,526.0685913600377,0.0,0.0,0.0,0.0,0.0,0.0,0.0,-3.4,21.36525765489266,0.0,21.134777771943654,0.0,-3.4,21.15,20.0,22.27,20.84,21.78,-2.52,-3.4,3134.46,-1429.62,-1493.84,3376.66,0.0,0.0,65.0,0.0,0.0,0.0,0.0,0.0,0.0,0.0,0.0,0.0,0.0,0.0,0.0,0.0,0.0
60.0,4439.0,0.0,7633.9441916482565,-0.0,13630.560232342152,-1557.6160406938952,0.0,17792.236248737117,0.0,0.0,0.0,17792.236248737117,1.0,0.27351973055980655,0.5051020408163246,0.0,0.0,0.0,"[1.6925676622931647, 1.1258020397177688, 1.3089483088819556, 1.2355530104226595, 1.6881732206463447, 0.896170600779012, 0.8028162459739683, 0.9807571640766781, 1.252518625874803]",21.42,0.0,0.0,2171.6564264066938,265.70665764852623,42.455191469324646,-1996.8521943843368,11.249077144967274,0.0,0.0,0.0,0.0,0.0,0.0,0.0,-2.4,21.443037622210117,0.0,21.14396250273019,0.0,-2.4,21.42,20.02,22.27,21.46,22.3,-1.48,-2.4,1710.92,-1386.94,-1449.24,3501.34,124.0,0.0,129.0,0.0,0.0,0.0,0.0,0.0,0.0,0.0,0.0,0.0,0.0,0.0,0.0,0.0,0.0
61.0,3942.0,0.0,8861.183713100192,-0.0,11934.741719231999,868.4419938681931,0.0,20905.96080571367,0.0,0.0,0.0,20905.960805713672,0.9671790629679443,0.27351973055980655,0.5051020408163246,0.0,0.0,0.0,"[1.6925676622931647, 1.1258020397177688, 1.3089483088819556, 1.2355530104226595, 1.6881732206463447, 0.896170600779012, 0.8028162459739683, 0.9807571640766781, 1.252518625874803]",21.63,0.0,0.0,1846.5668290659723,246.70190077526394,37.6173464224184,-1989.1835070137522,-346.4990993975506,5778.40786419065,0.0,0.0,0.0,0.0,0.0,0.0,-2.1,21.520656870998597,0.0,21.173673951914466,0.0,-2.1,21.63,20.05,22.29,21.6,22.41,-1.39,-2.1,1699.5,-1381.61,-1443.67,2977.2,109.0,0.0,123.0,0.0,0.0,0.0,0.0,0.0,0.0,0.0,0.0,0.0,0.0,0.0,0.0,0.0,0.0
62.0,3366.0,3716.9272572881096,7190.889863534886,-0.0,6424.372869797907,434.17437273531004,0.0,16485.409147890812,0.0,0.0,0.0,16485.409147890812,0.9507703565153627,0.27351973055980655,0.505102040816324,0.0,0.0,0.0,"[1.6925676622931647, 1.1258020397177688, 1.3089483088819556, 1.2355530104226595, 1.6881732206463447, 0.896170600779012, 0.8028162459739683, 0.9807571640766781, 1.252518625874803]",23.69,0.0,0.0,913.3651498507992,239.35915380150354,5.42706976415764,-2220.925989829492,-4086.4077400102346,0.0,0.0,0.0,0.0,0.0,0.0,0.0,-2.8,22.218362011429026,0.0,21.345825724033833,0.0,-2.8,23.69,20.18,22.51,23.0,23.55,-2.71,-2.8,2329.96,-1542.57,-1611.86,1472.61,0.0,0.0,175.0,0.0,0.0,0.0,0.0,0.0,0.0,0.0,0.0,0.0,0.0,0.0,0.0,0.0,0.0
63.0,4592.0,15937.517361281325,11265.829774474918,-0.0,0.0,0.0,0.0,24108.96577342158,0.0,0.0,0.0,24108.965773421576,0.9507703565153627,0.27351973055980655,0.505102040816324,0.0,0.0,0.0,"[1.6925676622931647, 1.1258020397177688, 1.3089483088819556, 1.2355530104226595, 1.6881732206463447, 0.896170600779012, 0.8028162459739683, 0.9807571640766781, 1.252518625874803]",21.82,0.0,0.0,12.34482671265342,303.4282205333345,38.60972489357866,-2197.991077229239,-331.85845587408926,0.0,0.0,0.0,0.0,0.0,0.0,0.0,-4.4,21.719988136970414,0.0,21.36671083094921,0.0,-4.4,21.82,20.21,22.52,21.45,22.34,-4.99,-4.4,2826.22,-1526.64,-1595.22,19.9,108.0,0.0,165.0,0.0,0.0,0.0,0.0,0.0,0.0,0.0,0.0,0.0,0.0,0.0,0.0,0.0,0.0
64.0,3585.0,0.0,5572.383633396497,-0.0,0.0,9157.383633396497,0.0,11553.082816698265,0.0,0.0,0.0,11553.082816698265,0.6046863189720333,0.27351973055980655,0.505102040816324,0.0,0.0,0.0,"[1.6925676622931647, 1.1258020397177688, 1.3089483088819556, 1.2355530104226595, 1.6881732206463447, 0.896170600779012, 0.8028162459739683, 0.9807571640766781, 1.252518625874803]",21.02,0.0,0.0,0.0,489.4444772019316,52.751118107612285,-2189.799012478411,1050.8616285966432,0.0,0.0,0.0,0.0,0.0,0.0,0.0,-5.1,21.42852724433787,0.0,21.276554693747705,0.0,-5.1,21.02,20.16,22.39,20.87,21.82,-5.69,-5.1,176.36,-1520.95,-1589.27,0.0,138.0,2.0,285.0,0.0,0.0,0.0,0.0,0.0,0.0,0.0,0.0,0.0,0.0,0.0,0.0,0.0,0.0
65.0,5834.0,14835.98983451487,8927.809885342296,-0.0,0.0,0.0,0.0,17828.91124905427,0.0,0.0,0.0,17828.91124905427,0.6046863189720333,0.27351973055980655,0.505102040816324,0.0,0.0,0.0,"[1.6925676622931647, 1.1258020397177688, 1.3089483088819556, 1.2355530104226595, 1.6881732206463447, 0.896170600779012, 0.8028162459739683, 0.9807571640766781, 1.252518625874803]",20.8,0.0,0.0,0.0,501.3224502477205,50.73534933806802,-2238.4020917696066,1243.0292211606168,8344.114286559367,0.0,0.0,0.0,0.0,0.0,0.0,-5.9,21.27913615476287,0.0,21.16531418447749,0.0,-5.9,20.8,20.09,22.24,20.73,21.65,-6.47,-5.9,0.0,-1554.71,-1624.54,0.0,117.0,9.0,304.0,0.0,0.0,0.0,0.0,0.0,0.0,0.0,0.0,0.0,0.0,0.0,0.0,0.0,0.0
66.0,7075.0,25659.20680842167,18455.91077437956,-0.0,0.0,0.0,0.0,35449.04177870604,0.0,0.0,0.0,35449.04177870604,0.6046863189720333,0.27351973055980655,0.505102040816324,0.0,0.0,0.0,"[1.6925676622931647, 1.1258020397177688, 1.3089483088819556, 1.2355530104226595, 1.6881732206463447, 0.896170600779012, 0.8028162459739683, 0.9807571640766781, 1.252518625874803]",23.69,0.0,0.0,0.0,1784.1435391929215,71.20315530574828,-2547.8709455146704,-4274.158222959394,0.0,0.0,0.0,0.0,0.0,0.0,0.0,-6.7,22.153426983746865,0.0,21.271087900474065,0.0,-6.7,23.69,20.16,22.38,22.76,23.25,-7.26,-6.7,0.0,-1769.66,-1849.14,0.0,82.0,12.0,1260.0,0.0,0.0,0.0,0.0,0.0,0.0,0.0,0.0,0.0,0.0,0.0,0.0,0.0,0.0
67.0,10374.0,0.0,5626.0,-0.0,0.0,16000.0,0.0,10430.653436197015,0.0,0.0,0.0,10430.653436197015,0.0,0.27351973055980655,0.505102040816324,0.0,0.0,0.0,"[1.6925676622931647, 1.1258020397177688, 1.3089483088819556, 1.2355530104226595, 1.6881732206463447, 0.896170600779012, 0.8028162459739683, 0.9807571640766781, 1.252518625874803]",21.87,0.0,0.0,0.0,4708.068576773574,162.4709628252679,-2453.8907321102265,-689.1213149177429,0.0,0.0,0.0,0.0,0.0,0.0,0.0,-7.4,21.644234752717782,0.0,21.255922924673747,0.0,-7.4,21.87,20.15,22.36,21.22,22.08,-7.96,-7.4,0.0,-1704.38,-1780.94,0.0,133.0,30.0,3369.0,0.0,0.0,0.0,0.0,0.0,0.0,0.0,0.0,0.0,0.0,0.0,0.0,0.0,0.0
68.0,5590.0,6077.3880898380585,457.0011493888679,-0.0,0.0,0.0,0.0,812.4302890373249,0.0,0.0,0.0,812.4302890373249,0.5807407407407407,0.27351973055980655,0.49285714285714033,0.0,0.0,0.0,"[0.9744275323521343, 1.1258020397177688, 1.1854087824463129, 1.0314783698004, 0.7714967744561854, 0.5417717973571143, 0.8028162459739683, 0.9807571640766781, 0.9485608277391648]",22.5,0.0,0.0,0.0,537.5322711085192,12.187648098936876,-2573.5463522707446,-1998.3414265821061,0.0,0.0,0.0,0.0,0.0,0.0,0.0,-8.2,21.79333176739486,0.0,21.226745354174668,0.0,-8.2,22.5,20.12,22.33,21.49,22.28,-8.75,-8.2,21.7,-1787.49,-1867.78,0.0,0.0,0.0,393.0,0.0,0.0,0.0,0.0,0.0,0.0,0.0,0.0,0.0,0.0,0.0,0.0,0.0,0.0
69.0,4379.0,4401.005025125628,0.0,-0.0,0.0,0.0,0.0,18397.249239501314,0.0,18397.249239501314,0.0,0.0,0.5807407407407407,0.20399119979827474,0.49285714285714033,0.0,0.0,0.0,"[0.9744275323521343, 1.1258020397177688, 1.1854087824463129, 1.0314783698004, 0.7714967744561854, 0.5417717973571143, 0.8028162459739683, 0.9807571640766781, 0.9485608277391648]",21.03,0.0,0.0,0.0,487.5727966007771,59.75979106018158,-2508.721785715056,766.0832657886881,1200.6044185537169,0.0,0.0,0.0,0.0,0.0,0.0,-8.9,21.331703153299646,0.0,21.150523882522414,0.0,-8.9,21.03,20.07,22.23,20.79,21.71,-9.44,-8.9,3864.3,-1742.47,-1820.73,0.0,162.0,2.0,271.0,0.0,0.0,0.0,0.0,0.0,0.0,0.0,0.0,0.0,0.0,0.0,0.0,0.0,0.0
70.0,4195.0,20504.494685249887,20479.772211823634,-0.0,0.0,4272.7999999999965,0.0,33479.15870813747,0.0,0.0,0.0,33479.15870813746,0.41925925925925933,0.20399119979827474,0.49285714285714033,0.0,0.0,0.0,"[0.9744275323521343, 1.1258020397177688, 1.1854087824463129, 1.0314783698004, 0.7714967744561854, 0.5417717973571143, 0.8028162459739683, 0.9807571640766781, 0.9485608277391648]",21.03,0.0,0.0,0.0,711.9585055930436,64.81471889765413,-2575.7874176504765,579.4549919567743,6547.305941910746,0.0,0.0,0.0,0.0,0.0,0.0,-9.7,21.264036160630642,0.0,21.062743777322503,0.0,-9.7,21.03,20.0,22.13,20.88,21.73,-10.24,-9.7,3126.46,-1789.05,-1869.41,0.0,92.0,39.0,468.0,0.0,0.0,0.0,0.0,0.0,0.0,0.0,0.0,0.0,0.0,0.0,0.0,0.0,0.0
71.0,3162.0,114495.88731576456,94761.40787918573,-0.0,0.0,-16000.0,0.0,148586.79541209087,0.0,0.0,0.0,148586.79541209084,1.0,0.20399119979827474,0.44999999999999746,0.0,0.0,0.0,"[0.9744275323521343, 1.1258020397177688, 1.1854087824463129, 1.0314783698004, 0.7714967744561854, 0.5417717973571143, 0.8028162459739683, 0.9807571640766781, 0.9485608277391648]",22.97,0.0,0.0,0.0,630.2524485811018,73.96320792866273,-2797.8463411751422,-3160.2442769565723,0.0,0.0,0.0,0.0,0.0,0.0,0.0,-10.4,21.845678898861294,0.0,21.12107830002983,0.0,-10.4,22.97,20.02,22.22,22.21,22.79,-10.94,-10.4,0.0,-1943.28,-2030.57,0.0,103.0,53.0,401.0,0.0,0.0,0.0,0.0,0.0,0.0,0.0,0.0,0.0,0.0,0.0,0.0,0.0,0.0
72.0,2341.0,2849.4790448386198,15775.245535897548,-0.0,0.0,15281.013886283123,0.0,23983.78484970612,0.0,0.0,0.0,23983.78484970612,0.4224862476839334,0.20399119979827474,0.44999999999999746,0.0,0.0,0.0,"[0.9744275323521343, 1.1258020397177688, 1.1854087824463129, 1.0314783698004, 0.7714967744561854, 0.5417717973571143, 0.8028162459739683, 0.9807571640766781, 0.9485608277391648]",21.05,0.0,0.0,0.0,235.9037434609104,36.0667550612305,-2678.2758787093376,541.3564113952884,1806.5794552450302,0.0,0.0,0.0,0.0,0.0,0.0,-10.9,21.2736736822744,0.0,21.059931505498753,0.0,-10.9,21.05,19.97,22.15,20.77,21.67,-11.46,-10.9,977.94,-1860.23,-1943.79,0.0,80.0,13.0,129.0,0.0,0.0,0.0,0.0,0.0,0.0,0.0,0.0,0.0,0.0,0.0,0.0,0.0,0.0
73.0,3003.0,0.0,8175.986113716876,-0.0,0.0,11178.986113716877,0.0,11962.638523914648,0.0,0.0,0.0,11962.638523914648,0.0,0.20399119979827474,0.44999999999999746,0.0,0.0,0.0,"[0.9744275323521343, 1.1258020397177688, 1.1854087824463129, 1.0314783698004, 0.7714967744561854, 0.5417717973571143, 0.8028162459739683, 0.9807571640766781, 0.9485608277391648]",21.03,0.0,0.0,0.0,273.6972940611477,29.709330480360123,-2726.685089505174,419.9862310656544,2005.926354221929,0.0,0.0,0.0,0.0,0.0,0.0,-11.5,21.20717785689129,0.0,20.979945611213754,0.0,-11.5,21.03,19.9,22.06,20.87,21.72,-12.07,-11.5,5089.13,-1893.85,-1978.92,0.0,80.0,0.0,158.0,0.0,0.0,0.0,0.0,0.0,0.0,0.0,0.0,0.0,0.0,0.0,0.0,0.0,0.0
74.0,1327.0,53305.22123085934,35711.69512470504,-0.0,0.0,-16000.0,0.0,49868.17020583498,0.0,0.0,0.0,49868.17020583497,0.5807407407407407,0.20399119979827474,0.44999999999999746,0.0,0.0,0.0,"[0.9744275323521343, 1.1258020397177688, 1.1854087824463129, 1.0314783698004, 0.7714967744561854, 0.5417717973571143, 0.8028162459739683, 0.9807571640766781, 0.9485608277391648]",21.03,0.0,0.0,0.0,186.16023209945507,27.724573538039614,-2785.367517448668,266.92403319953655,7629.016893319975,0.0,0.0,0.0,0.0,0.0,0.0,-12.2,21.15173119946813,0.0,20.905434923710587,0.0,-12.2,21.03,19.83,21.98,20.85,21.68,-12.79,-12.2,2523.19,-1934.61,-2021.51,0.0,80.0,0.0,94.0,0.0,0.0,0.0,0.0,0.0,0.0,0.0,0.0,0.0,0.0,0.0,0.0,0.0,0.0
75.0,789.0,0.0,14577.399999999998,-0.0,0.0,15366.399999999998,0.0,19800.1446459166,0.0,0.0,0.0,19800.1446459166,0.0,0.20399119979827474,0.44999999999999746,0.0,0.0,0.0,"[0.9744275323521343, 1.1258020397177688, 1.1854087824463129, 1.0314783698004, 0.7714967744561854, 0.5417717973571143, 0.8028162459739683, 0.9807571640766781, 0.9485608277391648]",22.97,0.0,0.0,0.0,161.540433422729,27.166360648011974,-2982.27682899755,-3434.1465502571104,6230.125238006198,0.0,0.0,0.0,0.0,0.0,0.0,-12.6,21.747267887884114,0.0,20.979487329148007,0.0,-12.6,22.97,19.86,22.1,22.21,22.78,-13.18,-12.6,736.87,-2071.38,-2164.42,0.0,80.0,0.0,76.0,0.0,0.0,0.0,0.0,0.0,0.0,0.0,0.0,0.0,0.0,0.0,0.0,0.0,0.0
76.0,875.0,57461.24012046024,40298.93391985794,-0.0,0.0,-16000.0,0.0,53200.37975630911,0.0,0.0,0.0,53200.37975630911,0.5807407407407407,0.20399119979827474,0.4499999999999967,0.0,0.0,0.0,"[0.9744275323521343, 1.1258020397177688, 1.1854087824463129, 1.0314783698004, 0.7714967744561854, 0.5417717973571143, 0.8028162459739683, 0.9807571640766781, 0.9485608277391648]",22.97,0.0,0.0,0.0,277.8005938406022,29.802365962031402,-3015.8096449652617,-3224.1312802769307,5934.980334574516,0.0,0.0,0.0,0.0,0.0,0.0,-13.0,21.82450642309174,0.0,21.07185102115001,0.0,-13.0,22.97,19.9,22.24,22.12,22.77,-13.58,-13.0,5113.7,-2094.67,-2188.76,0.0,80.0,0.0,161.0,0.0,0.0,0.0,0.0,0.0,0.0,0.0,0.0,0.0,0.0,0.0,0.0,0.0,0.0
77.0,892.0,0.0,0.0,-0.0,0.0,892.0,0.0,25244.08684350367,0.0,25244.08684350366,0.0,0.0,0.5470294784580498,0.1085864876157212,0.4499999999999967,0.0,0.0,0.0,"[0.9744275323521343, 1.1258020397177688, 1.1854087824463129, 1.0314783698004, 0.7714967744561854, 0.5417717973571143, 0.8028162459739683, 0.9807571640766781, 0.9485608277391648]",22.97,0.0,0.0,0.0,226.4733527397083,36.40788516069185,-3049.342460932972,-3040.465391905216,5830.154649656246,0.0,0.0,0.0,0.0,0.0,0.0,-13.4,21.892105120611408,0.0,21.152741172440468,0.0,-13.4,22.97,19.94,22.37,22.13,22.83,-13.99,-13.4,0.0,-2117.96,-2213.09,0.0,80.0,14.0,122.0,0.0,0.0,0.0,0.0,0.0,0.0,0.0,0.0,0.0,0.0,0.0,0.0,0.0,0.0
78.0,2159.0,0.0,12315.399999999998,-0.0,0.0,14474.4,0.0,28180.232595388243,0.0,12861.387988268654,0.0,15318.844607119587,0.0,0.0599795791188631,0.4499999999999967,0.0,0.0,0.0,"[0.9744275323521343, 1.1258020397177688, 1.1854087824463129, 1.0314783698004, 0.7714967744561854, 0.5417717973571143, 0.8028162459739683, 0.9807571640766781, 0.9485608277391648]",22.97,0.0,0.0,0.0,222.22607752939592,58.705388934573804,-3082.875276900683,-2875.30371169438,360.45245287449643,0.0,0.0,0.0,0.0,0.0,0.0,-13.8,21.952918890115953,0.0,21.225625360020352,0.0,-13.8,22.97,19.97,22.48,22.15,22.89,-14.39,-13.8,4907.76,-2141.25,-2237.43,0.0,160.0,12.0,77.0,0.0,0.0,0.0,0.0,0.0,0.0,0.0,0.0,0.0,0.0,0.0,0.0,0.0,0.0
79.0,1065.0,44292.399253008756,27005.937256743713,-0.0,0.0,-16000.0,0.0,32819.70050415397,0.0,0.0,0.0,32819.70050415397,0.5807407407407407,0.0599795791188631,0.4499999999999967,0.0,0.0,0.0,"[0.9744275323521343, 1.1258020397177688, 1.1854087824463129, 1.0314783698004, 0.7714967744561854, 0.5417717973571143, 0.8028162459739683, 0.9807571640766781, 0.9485608277391648]",21.03,0.0,0.0,0.0,158.08502308213588,37.95847652187973,-2944.6483932952933,838.1630848235504,7174.2400901643505,0.0,0.0,0.0,0.0,0.0,0.0,-14.1,21.36251634044217,0.0,21.149440862234965,0.0,-14.1,21.03,19.91,22.39,20.8,21.83,-14.7,-14.1,530.23,-2045.24,-2137.11,0.0,117.0,0.0,54.0,0.0,0.0,0.0,0.0,0.0,0.0,0.0,0.0,0.0,0.0,0.0,0.0,0.0,0.0
80.0,1289.0,7347.9331492790725,6022.193483532677,-0.0,0.0,0.0,0.0,21157.358612178272,0.0,13896.135442091,0.0,7261.223170087273,0.556795162509448,0.007462060441270505,0.4499999999999967,0.0,0.0,0.0,"[0.9744275323521308, 1.1258020397177688, 1.1854087824463129, 1.0314783698004, 0.7714967744561854, 0.5417717973571143, 0.8028162459739683, 0.9807571640766781, 0.9485608277391648]",22.95,0.0,0.0,2.755804440434857,161.39645799187096,31.5700401137856,-3114.5180797126413,-2885.464541265725,546.5264096056052,0.0,0.0,0.0,0.0,0.0,0.0,-14.2,21.92697443848281,0.0,21.193887776416766,0.0,-14.2,22.95,19.92,22.47,22.25,22.97,-14.79,-14.2,1634.16,-2163.23,-2260.4,4.44,95.0,0.0,68.0,0.0,0.0,0.0,0.0,0.0,0.0,0.0,0.0,0.0,0.0,0.0,0.0,0.0,0.0
81.0,1464.0,0.0,13282.783604302876,-0.0,13.983604302882458,14732.799999999996,0.0,20902.560353042714,0.0,1974.4611927601754,0.0,18928.099160282534,0.0,0.0,0.4499999999999967,0.0,0.0,0.0,"[0.9744275323521308, 1.1258020397177688, 1.1854087824463129, 1.0314783698004, 0.7714967744561854, 0.5417717973571143, 0.8028162459739683, 0.9807571640766781, 0.9485608277391648]",21.03,0.0,0.0,44.07569810938569,84.80152877538983,1.9227332878729908,-2760.217905472885,792.5857240640833,1835.3994976753586,0.0,0.0,0.0,0.0,0.0,0.0,-11.9,21.343919680211833,0.0,21.11921842891457,0.0,-11.9,21.03,19.86,22.38,20.78,21.83,-12.43,-11.9,1337.04,-1917.15,-2003.26,71.06,0.0,0.0,62.0,0.0,0.0,0.0,0.0,0.0,0.0,0.0,0.0,0.0,0.0,0.0,0.0,0.0,0.0
82.0,2341.0,18729.517116477422,16342.905667662964,-0.0,48.03613676792861,0.0,0.0,26249.04040007427,0.0,0.0,0.0,26249.04040007427,0.0,0.0,0.44999999999999546,0.0,0.0,0.0,"[0.9744275323521308, 1.1258020397177688, 1.1854087824463129, 1.0314783698004, 0.7714967744561854, 0.5417717973571143, 0.8028162459739683, 0.9807571640766781, 0.9485608277391648]",21.03,0.0,0.0,75.4648662715533,72.4916294370268,1.6436268428591692,-2600.93702962626,606.2358782990133,6305.992956910623,0.0,0.0,0.0,0.0,0.0,0.0,-10.0,21.274072429608786,0.0,21.029888237748892,0.0,-10.0,21.03,19.8,22.26,20.86,21.84,-10.51,-10.0,0.0,-1806.51,-1887.66,121.67,0.0,0.0,53.0,0.0,0.0,0.0,0.0,0.0,0.0,0.0,0.0,0.0,0.0,0.0,0.0,0.0,0.0
83.0,4261.0,22638.382660260286,10405.150940044625,-0.0,8140.960193085636,-16000.0,0.0,18200.090805496377,0.0,0.0,0.0,18200.09080549638,0.5807407407407407,0.0,0.44999999999999546,0.0,0.0,0.0,"[0.9744275323521308, 1.1258020397177688, 1.1854087824463129, 1.0314783698004, 0.7714967744561854, 0.5417717973571143, 0.8028162459739683, 0.9807571640766781, 0.9485608277391648]",22.66,0.0,0.0,1979.5278370460335,114.89239382472171,2.604993486795667,-2612.2106779586147,-2543.9708074949285,0.0,0.0,0.0,0.0,0.0,0.0,0.0,-8.5,21.7539415537268,0.0,21.071551641364707,0.0,-8.5,22.66,19.82,22.32,21.99,22.73,-7.64,-8.5,0.0,-1814.34,-1895.84,3191.57,0.0,0.0,84.0,0.0,0.0,0.0,0.0,0.0,0.0,0.0,0.0,0.0,0.0,0.0,0.0,0.0,0.0
84.0,4832.0,0.0,9705.164852578462,-0.0,14537.164852578462,0.0,0.0,17900.938601949365,0.0,0.0,0.0,17900.938601949365,0.5807407407407407,0.0,0.44999999999999546,0.0,0.0,0.0,"[0.9744275323521308, 1.1258020397177688, 1.1854087824463129, 1.0314783698004, 0.7714967744561854, 0.5417717973571143, 0.8028162459739683, 0.9807571640766781, 0.9485608277391648]",21.57,0.0,0.0,2208.99363954974,99.84696130005575,2.263863387334329,-2436.670937923234,-300.2820972489257,0.0,0.0,0.0,0.0,0.0,0.0,0.0,-7.5,21.479729530495504,0.0,21.103894444954776,0.0,-7.5,21.57,19.85,22.36,21.43,22.37,-6.5,-7.5,2734.72,-1692.42,-1768.44,3561.53,0.0,0.0,73.0,0.0,0.0,0.0,0.0,0.0,0.0,0.0,0.0,0.0,0.0,0.0,0.0,0.0,0.0
85.0,3194.0,0.0,9220.37098459323,-0.0,12414.37098459323,0.0,0.0,17270.450078146452,0.0,0.0,0.0,17270.450078146452,0.5807407407407407,0.0,0.44999999999999546,0.0,0.0,0.0,"[0.9744275323521308, 1.1258020397177688, 1.1854087824463129, 1.0314783698004, 0.7714967744561854, 0.5417717973571143, 0.8028162459739683, 0.9807571640766781, 0.9485608277391648]",21.44,0.0,0.0,1969.0827577901207,285.6472548223657,54.95295784049909,-2400.90891813129,-25.129449435912466,4241.197907455517,0.0,0.0,0.0,0.0,0.0,0.0,-7.2,21.45365843462333,0.0,21.116878537966155,0.0,-7.2,21.44,19.87,22.37,21.45,22.38,-6.34,-7.2,0.0,-1667.58,-1742.49,3174.73,165.0,0.0,122.0,0.0,0.0,0.0,0.0,0.0,0.0,0.0,0.0,0.0,0.0,0.0,0.0,0.0,0.0
86.0,6149.0,5757.01913834568,8860.206515153643,-0.0,9280.97247249969,0.0,0.0,16173.499531172849,0.0,0.0,0.0,16173.499531172849,0.5807407407407407,0.0,0.44999999999999546,0.0,0.0,0.0,"[0.9744275323521308, 1.1258020397177688, 1.1854087824463129, 1.0314783698004, 0.7714967744561854, 0.5417717973571143, 0.8028162459739683, 0.9807571640766781, 0.9485608277391648]",22.97,0.0,0.0,1653.8304489893424,409.97003936828946,39.850197982528975,-2571.4998333930957,-2832.2304892806446,3243.4568405756154,0.0,0.0,0.0,0.0,0.0,0.0,-7.7,21.962540957739954,0.0,21.232040183146175,0.0,-7.7,22.97,19.95,22.51,22.5,23.23,-7.07,-7.7,0.0,-1786.07,-1866.29,2666.45,104.0,0.0,245.0,0.0,0.0,0.0,0.0,0.0,0.0,0.0,0.0,0.0,0.0,0.0,0.0,0.0,0.0
87.0,3547.0,19792.162757101163,16147.761072403324,-0.0,1.5591290876684307,0.0,0.0,26859.259683015414,0.0,0.0,0.0,26859.259683015414,0.5807407407407407,0.0,0.44132653061224036,0.0,0.0,0.0,"[0.9744275323521308, 1.1258020397177688, 1.1854087824463129, 1.0314783698004, 0.7714967744561854, 0.5417717973571143, 0.8028162459739683, 0.9807571640766781, 0.9485608277391648]",22.97,0.0,0.0,18.771545113329235,190.2635318789094,38.981866820263754,-2714.014301255866,-2597.198780432066,5065.969597969594,0.0,0.0,0.0,0.0,0.0,0.0,-9.4,22.05101749833379,0.0,21.345882121372977,0.0,-9.4,22.97,20.04,22.66,22.38,23.18,-9.93,-9.4,1763.77,-1885.05,-1969.73,30.27,118.0,0.0,77.0,0.0,0.0,0.0,0.0,0.0,0.0,0.0,0.0,0.0,0.0,0.0,0.0,0.0,0.0
88.0,4838.0,20489.399764498783,15548.95276567629,-0.0,0.0,0.0,0.0,26159.702164661972,0.0,0.0,0.0,26159.70216466197,0.5807407407407407,0.0,0.42959183673468937,0.0,0.0,0.0,"[0.9744275323521308, 1.1258020397177688, 1.1854087824463129, 1.0314783698004, 0.7714967744561854, 0.5417717973571143, 0.8028162459739683, 0.9807571640766781, 0.9485608277391648]",22.97,0.0,0.0,0.0,1155.258857204971,79.14218307503032,-2697.24789327201,-2469.724779583817,3939.5886211631373,0.0,0.0,0.0,0.0,0.0,0.0,-9.2,22.097540407260084,0.0,21.405932038775028,0.0,-9.2,22.97,20.08,22.73,22.17,23.0,-9.75,-9.2,0.0,-1873.41,-1957.56,0.0,116.0,34.0,780.0,0.0,0.0,0.0,0.0,0.0,0.0,0.0,0.0,0.0,0.0,0.0,0.0,0.0,0.0
89.0,4579.0,22406.56400403391,17055.806069478127,-0.0,0.0,-659.725114535613,0.0,29020.042588093525,0.0,0.0,0.0,29020.04258809353,0.6046863189720333,0.0,0.42959183673468937,0.0,0.0,0.0,"[0.9744275323521308, 1.1258020397177688, 1.1854087824463129, 1.0314783698004, 0.7714967744561854, 0.5417717973571143, 0.8028162459739683, 0.9807571640766781, 0.9485608277391648]",22.97,0.0,0.0,0.0,1265.6160249576642,130.83889905703484,-2680.4814852881555,-2380.5498694036523,0.0,0.0,0.0,0.0,0.0,0.0,0.0,-9.0,22.129999570934867,0.0,21.44867991074564,0.0,-9.0,22.97,20.12,22.78,22.1,22.96,-9.52,-9.0,0.0,-1861.76,-1945.39,0.0,155.0,102.0,833.0,0.0,0.0,0.0,0.0,0.0,0.0,0.0,0.0,0.0,0.0,0.0,0.0,0.0,0.0
90.0,6164.0,976.1908261952208,10807.309872064245,-0.0,0.0,16000.0,0.0,18594.435844655385,0.0,0.0,0.0,18594.435844655385,0.0,0.0,0.42142857142856693,0.0,0.0,0.0,"[0.9744275323521308, 1.1258020397177688, 1.1854087824463129, 1.0314783698004, 0.7714967744561854, 0.5417717973571143, 0.8028162459739683, 0.9807571640766781, 0.9485608277391648]",21.63,0.0,0.0,0.0,1184.6298451000125,136.57608709343003,-2550.862595340473,162.76381021851984,422.3185463641521,0.0,0.0,0.0,0.0,0.0,0.0,-8.8,21.713848085812565,0.0,21.390012095675928,0.0,-8.8,21.63,20.09,22.69,21.16,22.21,-9.3,-8.8,17.4,-1771.73,-1851.32,0.0,143.0,122.0,778.0,0.0,0.0,0.0,0.0,0.0,0.0,0.0,0.0,0.0,0.0,0.0,0.0,0.0,0.0
91.0,9440.0,38519.138048565284,12886.542358322456,-0.0,0.0,-16000.0,0.0,22294.695048257836,0.0,0.0,0.0,22294.695048257832,0.5807407407407407,0.0,0.42142857142856693,0.0,0.0,0.0,"[0.9744275323521308, 1.1258020397177688, 1.1854087824463129, 1.0314783698004, 0.7714967744561854, 0.5417717973571143, 0.8028162459739683, 0.9807571640766781, 0.9485608277391648]",21.39,0.0,0.0,0.0,1882.2627953226809,155.46228987269865,-2522.3203050018,448.27222614435897,0.0,0.0,0.0,0.0,0.0,0.0,0.0,-8.7,21.577628407888795,0.0,21.303139392837355,0.0,-8.7,21.39,20.04,22.57,21.06,22.08,-9.19,-8.7,0.0,-1751.91,-1830.6,0.0,144.0,127.0,1287.0,0.0,0.0,0.0,0.0,0.0,0.0,0.0,0.0,0.0,0.0,0.0,0.0,0.0,0.0
92.0,6388.0,9730.449894611202,3293.797645138145,-0.0,0.0,0.0,0.0,5761.321155441815,0.0,0.0,0.0,5761.321155441815,0.5807407407407407,0.0,0.37959183673468944,0.0,0.0,0.0,"[0.9744275323521308, 0.8866071386028906, 1.1854087824463129, 1.0314783698004, 0.7714967744561854, 0.5417717973571143, 0.8028162459739683, 0.9807571640766781, 0.9485608277391648]",21.37,0.0,0.0,0.0,1141.0772772654536,152.85729638590297,-2504.01570343632,284.6011839584076,0.0,0.0,0.0,0.0,0.0,0.0,0.0,-8.5,21.499151471383374,0.0,21.211938116626428,0.0,-8.5,21.37,19.98,22.44,20.98,21.97,-8.97,-8.5,58.98,-1739.2,-1817.32,0.0,130.0,160.0,749.0,0.0,0.0,0.0,0.0,0.0,0.0,0.0,0.0,0.0,0.0,0.0,0.0,0.0,0.0
93.0,5443.0,8709.925579583938,3223.37595168602,-0.0,0.0,0.0,0.0,5699.602449072765,0.0,0.0,0.0,5699.602449072764,0.5807407407407407,0.0,0.37959183673468944,0.0,0.0,0.0,"[0.9744275323521308, 0.8866071386028906, 1.1854087824463129, 1.0314783698004, 0.7714967744561854, 0.5417717973571143, 0.8028162459739683, 0.9807571640766781, 0.9485608277391648]",21.03,0.0,0.0,0.0,750.399945632142,120.82207886376102,-2458.4225617634897,754.9711670824352,842.9418261162473,0.0,0.0,0.0,0.0,0.0,0.0,-8.3,21.327065172308945,0.0,21.114373901033982,0.0,-8.3,21.03,19.92,22.31,20.79,21.77,-8.76,-8.3,423.79,-1707.53,-1784.23,0.0,155.0,105.0,456.0,0.0,0.0,0.0,0.0,0.0,0.0,0.0,0.0,0.0,0.0,0.0,0.0,0.0,0.0
94.0,3234.0,3764.0995621912634,15877.679064380305,-0.0,0.0,15366.399999999998,0.0,28377.788993712504,0.0,0.0,0.0,28377.788993712507,0.0,0.0,0.3515306122448935,0.0,0.0,0.0,"[0.9744275323521308, 0.8866071386028906, 1.1854087824463129, 1.0314783698004, 0.7714967744561854, 0.5417717973571143, 0.8028162459739683, 0.9807571640766781, 0.9485608277391648]",21.03,0.0,0.0,0.0,451.29098802454905,70.42785962515433,-2441.656153779635,563.4607635136617,1362.720892569955,0.0,0.0,0.0,0.0,0.0,0.0,-8.1,21.256757933214466,0.0,21.026172022304443,0.0,-8.1,21.03,19.87,22.19,20.81,21.75,-8.55,-8.1,4137.48,-1695.88,-1772.06,0.0,84.0,64.0,279.0,0.0,0.0,0.0,0.0,0.0,0.0,0.0,0.0,0.0,0.0,0.0,0.0,0.0,0.0
95.0,2513.0,86068.16894986553,67124.8281051162,-0.0,0.0,-16000.0,0.0,41250.413208493366,0.0,-80000.0,0.0,121250.41320849338,0.5807407407407407,0.29037037037037033,0.3515306122448935,0.0,0.0,0.0,"[0.9744275323521308, 0.8866071386028906, 1.1854087824463129, 1.0314783698004, 0.7714967744561854, 0.5417717973571143, 0.8028162459739683, 0.9807571640766781, 0.9485608277391648]",21.03,0.0,0.0,0.0,305.2999011344892,69.43548115399406,-2424.889745795779,397.3933421600742,6980.917453003018,0.0,0.0,0.0,0.0,0.0,0.0,-7.9,21.195767726010867,0.0,20.94926929564759,0.0,-7.9,21.03,19.81,22.08,20.81,21.71,-8.34,-7.9,0.0,-1684.24,-1759.89,0.0,141.0,38.0,145.0,0.0,0.0,0.0,0.0,0.0,0.0,0.0,0.0,0.0,0.0,0.0,0.0,0.0,0.0
96.0,1877.0,26262.28511849239,12702.953284736659,-0.0,0.0,-11551.020408163267,0.0,23672.488164007467,0.0,0.0,0.0,23672.488164007467,1.0,0.29037037037037033,0.3515306122448935,0.0,0.0,0.0,"[0.9744275323521308, 0.8866071386028906, 1.1854087824463129, 1.0314783698004, 0.7714967744561854, 0.5417717973571143, 0.8028162459739683, 0.9807571640766781, 0.9485608277391648]",22.97,0.0,0.0,0.0,250.94917598557635,36.40788516069184,-2537.967017425385,-3311.2052130000816,243.043134977819,0.0,0.0,0.0,0.0,0.0,0.0,-7.3,21.787719769648465,0.0,21.023769670708912,0.0,-7.3,22.97,19.86,22.19,22.18,22.79,-7.75,-7.3,4633.16,-1762.78,-1841.96,0.0,80.0,13.0,140.0,0.0,0.0,0.0,0.0,0.0,0.0,0.0,0.0,0.0,0.0,0.0,0.0,0.0,0.0
97.0,1125.0,19671.189515144757,18447.833567569032,-0.0,0.0,0.0,0.0,35609.396407682,0.0,0.0,0.0,35609.396407682,1.0,0.29037037037037033,0.3515306122448935,0.0,0.0,0.0,"[0.9744275323521308, 0.8866071386028906, 1.1854087824463129, 1.0314783698004, 0.7714967744561854, 0.5417717973571143, 0.8028162459739683, 0.9807571640766781, 0.9485608277391648]",21.03,0.0,0.0,0.0,168.37926638848623,27.321419784130764,-2315.90809390072,458.372774517979,6986.257103070632,0.0,0.0,0.0,0.0,0.0,0.0,-6.6,21.21701149226318,0.0,20.97606616258985,0.0,-6.6,21.03,19.83,22.12,20.7,21.64,-7.04,-6.6,19.26,-1608.54,-1680.8,0.0,80.0,0.0,81.0,0.0,0.0,0.0,0.0,0.0,0.0,0.0,0.0,0.0,0.0,0.0,0.0,0.0,0.0
98.0,1378.0,3652.8690230630664,17623.00467794775,-0.0,0.0,15366.399999999998,0.0,35193.28820617601,0.0,0.0,0.0,35193.28820617601,0.41925925925925933,0.29037037037037033,0.3515306122448935,0.0,0.0,0.0,"[0.9744275323521308, 0.8866071386028906, 1.1854087824463129, 1.0314783698004, 0.7714967744561854, 0.5417717973571143, 0.8028162459739683, 0.9807571640766781, 0.9485608277391648]",22.97,0.0,0.0,0.0,239.50312923236163,28.934034799766177,-2420.6021615383984,-3253.198232303956,5269.203083028261,0.0,0.0,0.0,0.0,0.0,0.0,-5.9,21.80777061421214,0.0,21.050278409799816,0.0,-5.9,22.97,19.88,22.22,22.18,22.8,-6.33,-5.9,1265.36,-1681.26,-1756.78,0.0,80.0,0.0,133.0,0.0,0.0,0.0,0.0,0.0,0.0,0.0,0.0,0.0,0.0,0.0,0.0,0.0,0.0
99.0,1098.0,52617.76889031924,12453.681295345732,-22802.99875052191,0.0,-16000.0,0.0,25345.005101047307,0.0,0.0,0.0,25345.005101047307,1.0,0.29037037037037033,0.4260204081632651,0.0,0.0,0.0,"[0.9744275323521308, 0.8866071386028906, 1.1854087824463129, 1.0314783698004, 0.7714967744561854, 0.5417717973571143, 0.8028162459739683, 0.9807571640766781, 0.9485608277391648]",22.92,0.0,0.0,0.0,173.85033276109203,27.44546709302579,-2382.810704052977,-2960.137720117582,0.0,0.0,0.0,0.0,0.0,0.0,0.0,-5.5,21.863903656773026,0.0,21.140118314503326,0.0,-5.5,22.92,19.95,22.33,22.04,22.74,-5.93,-5.5,5045.11,-1655.01,-1729.35,0.0,80.0,0.0,85.0,0.0,0.0,0.0,0.0,0.0,0.0,0.0,0.0,0.0,0.0,0.0,0.0,0.0,0.0
100.0,859.0,9340.339382208185,8434.637685297144,-0.0,0.0,0.0,0.0,17567.73213352934,0.0,0.0,0.0,17567.732133529345,1.0,0.29037037037037033,0.4260204081632651,0.0,0.0,0.0,"[0.9744275323521308, 0.8866071386028906, 1.1854087824463129, 1.0314783698004, 0.7714967744561854, 0.5417717973571143, 0.8028162459739683, 0.9807571640766781, 0.9485608277391648]",21.04,0.0,0.0,0.0,162.90820001588045,27.197372475235728,-2182.9798519625615,659.3089335362507,6618.788298946935,0.0,0.0,0.0,0.0,0.0,0.0,-5.0,21.303586730722476,0.0,21.08508654517295,0.0,-5.0,21.04,19.92,22.25,20.74,21.71,-5.42,-5.0,3983.9,-1516.22,-1584.32,0.0,80.0,0.0,77.0,0.0,0.0,0.0,0.0,0.0,0.0,0.0,0.0,0.0,0.0,0.0,0.0,0.0,0.0
101.0,1261.0,0.0,12928.077192522835,-0.0,0.0,14189.077192522835,0.0,27419.693880912528,0.0,0.0,0.0,27419.693880912528,0.4637536964277085,0.29037037037037033,0.4260204081632651,0.0,0.0,0.0,"[0.9744275323521308, 0.8866071386028906, 1.1854087824463129, 1.0314783698004, 0.7714967744561854, 0.5417717973571143, 0.8028162459739683, 0.9807571640766781, 0.9485608277391648]",22.97,0.0,0.0,0.0,109.56530288297395,25.98791121350917,-2311.6205096433387,-3044.0915970112765,0.0,0.0,0.0,0.0,0.0,0.0,0.0,-4.6,21.883182034471222,0.0,21.151803469199976,0.0,-4.6,22.97,19.98,22.33,22.2,22.85,-4.95,-4.6,940.47,-1605.57,-1677.68,0.0,80.0,0.0,38.0,0.0,0.0,0.0,0.0,0.0,0.0,0.0,0.0,0.0,0.0,0.0,0.0,0.0,0.0
102.0,3777.0,17462.95445979906,13598.639687500063,-0.0,0.0,0.0,0.0,29230.837640557544,0.0,0.0,0.0,29230.837640557544,0.4637536964277085,0.29037037037037033,0.4260204081632651,0.0,0.0,0.0,"[0.9744275323521308, 0.8866071386028906, 1.1854087824463129, 1.0314783698004, 0.7714967744561854, 0.5417717973571143, 0.8028162459739683, 0.9807571640766781, 0.9485608277391648]",21.06,0.0,0.0,0.0,155.1335267495459,36.128778715678024,-2126.1500216713907,639.3590639244065,6521.195001007755,0.0,0.0,0.0,0.0,0.0,0.0,-4.3,21.317763051260005,0.0,21.10069393844099,0.0,-4.3,21.06,19.96,22.25,20.77,21.72,-4.66,-4.3,4084.16,-1476.75,-1543.08,0.0,111.0,0.0,55.0,0.0,0.0,0.0,0.0,0.0,0.0,0.0,0.0,0.0,0.0,0.0,0.0,0.0,0.0
103.0,1341.0,20904.56550769616,19459.04268015768,-0.0,0.0,0.0,0.0,42384.54298841141,0.0,0.0,0.0,42384.542988411406,0.4637536964277085,0.29037037037037033,0.4260204081632651,0.0,0.0,0.0,"[0.9744275323521308, 0.8866071386028906, 1.1854087824463129, 1.0314783698004, 0.7714967744561854, 0.5417717973571143, 0.8028162459739683, 0.9807571640766781, 0.9485608277391648]",22.97,0.0,0.0,0.0,203.72523466413685,43.106439841023565,-2261.321285691773,-3019.277651309936,5037.589211609539,0.0,0.0,0.0,0.0,0.0,0.0,-4.0,21.89176706713335,0.0,21.16825473921495,0.0,-4.0,22.97,20.01,22.33,22.21,22.85,-4.35,-4.0,2506.88,-1570.63,-1641.18,0.0,131.0,0.0,80.0,0.0,0.0,0.0,0.0,0.0,0.0,0.0,0.0,0.0,0.0,0.0,0.0,0.0,0.0
104.0,2704.0,0.0,847.8932848736315,-0.0,0.0,3551.8932848736313,0.0,1871.080995713513,0.0,0.0,0.0,1871.080995713513,0.28502292952102687,0.29037037037037033,0.4260204081632651,0.0,0.0,0.0,"[0.9744275323521308, 0.8866071386028906, 1.1854087824463129, 1.0314783698004, 0.7714967744561854, 0.5417717973571143, 0.8028162459739683, 0.9807571640766781, 0.9485608277391648]",22.97,0.0,0.0,0.9089137125280234,105.31802767266154,2.387910696229362,-2236.1716737159904,-2836.2048715888454,0.0,0.0,0.0,0.0,0.0,0.0,0.0,-3.7,21.95854006389341,0.0,21.255390826355978,0.0,-3.7,22.97,20.08,22.43,22.12,22.82,-4.04,-3.7,0.0,-1553.16,-1622.93,1.47,0.0,0.0,77.0,0.0,0.0,0.0,0.0,0.0,0.0,0.0,0.0,0.0,0.0,0.0,0.0,0.0,0.0
105.0,2584.0,0.0,4039.2153767196637,-0.0,11.369874227925932,6611.845502491738,0.0,9491.108949595622,0.0,0.0,0.0,9491.108949595622,0.03514214711393168,0.29037037037037033,0.4260204081632651,0.0,0.0,0.0,"[0.9744275323521308, 0.8866071386028906, 1.1854087824463129, 1.0314783698004, 0.7714967744561854, 0.5417717973571143, 0.8028162459739683, 0.9807571640766781, 0.9485608277391648]",21.16,0.0,0.0,25.906508143674387,68.38832965757244,1.5505913611878972,-1958.0389523410847,657.1871477063895,846.1418215486874,0.0,0.0,0.0,0.0,0.0,0.0,-2.2,21.41722122096104,0.0,21.202727299354,0.0,-2.2,21.16,20.06,22.35,20.86,21.82,-2.5,-2.2,894.7,-1359.98,-1421.07,41.77,0.0,0.0,50.0,0.0,0.0,0.0,0.0,0.0,0.0,0.0,0.0,0.0,0.0,0.0,0.0,0.0,0.0
106.0,4041.0,32474.897040384178,12309.818638305129,-0.0,38.29608312287261,-16000.0,0.0,30098.41520943912,0.0,0.0,0.0,30098.41520943912,0.6158828878546724,0.29037037037037033,0.4260204081632641,0.0,0.0,0.0,"[0.9744275323521308, 0.8866071386028906, 1.1854087824463129, 1.0314783698004, 0.7714967744561854, 0.5417717973571143, 0.8028162459739683, 0.9807571640766781, 0.9485608277391648]",21.03,0.0,0.0,33.03017361039758,344.2452551815909,37.772405558537194,-1863.2150783366274,741.4902867911943,3271.3788050898056,0.0,0.0,0.0,0.0,0.0,0.0,-1.2,21.316005360218725,0.0,21.124719073192217,0.0,-1.2,21.03,20.03,22.22,20.86,21.76,-1.47,-1.2,4680.16,-1294.12,-1352.25,53.25,102.0,0.0,198.0,0.0,0.0,0.0,0.0,0.0,0.0,0.0,0.0,0.0,0.0,0.0,0.0,0.0,0.0
107.0,10223.0,17590.394147744588,7706.876714134208,-0.0,427.4345371283443,0.0,0.0,19799.018713827536,0.0,0.0,0.0,19799.01871382754,0.6158828878546724,0.29037037037037033,0.4260204081632641,0.0,0.0,0.0,"[0.9744275323521308, 0.8866071386028906, 1.1854087824463129, 1.0314783698004, 0.7714967744561854, 0.5417717973571143, 0.8028162459739683, 0.9807571640766781, 0.9485608277391648]",21.96,0.0,0.0,62.027290957281274,406.6586044585544,46.238634390623126,-1832.899553777931,-1139.0349993376142,5218.29932312904,0.0,0.0,0.0,0.0,0.0,0.0,0.1,21.56545474972925,0.0,21.120324708104327,0.0,0.1,21.96,20.04,22.2,21.49,22.23,-0.18,0.1,2686.97,-1273.06,-1330.25,100.01,126.0,0.0,231.0,0.0,0.0,0.0,0.0,0.0,0.0,0.0,0.0,0.0,0.0,0.0,0.0,0.0,0.0
108.0,6455.0,98477.90934086575,73303.81672443272,-0.0,1021.7997176366769,-10797.33878736537,0.0,97515.83063224572,42255.82,-64684.62285924673,0.0,196005.10949149245,1.0,0.5251515940817103,0.4260204081632641,33804.656,8451.164,42255.82,"[0.9744275323521308, 0.8866071386028906, 1.1854087824463129, 1.0314783698004, 0.7714967744561854, 0.5417717973571143, 0.8028162459739683, 0.9807571640766781, 0.9485608277391648]",22.97,0.0,0.0,80.79376406878997,2980.291418761578,111.64257800552863,-1825.3946781115358,-2971.643534302873,1631.2702516097759,0.0,0.0,0.0,0.0,0.0,0.0,1.2,21.904815801482293,0.0,21.204952641587468,0.0,1.2,22.97,20.12,22.29,22.15,22.76,0.88,1.2,0.0,-1267.85,-1324.8,130.26,150.0,0.0,2100.0,0.0,0.0,0.0,0.0,0.0,0.0,0.0,0.0,0.0,0.0,0.0,0.0,0.0,0.0
109.0,3252.0,0.0,6330.842511895572,-0.0,1066.8284170006152,8516.014094894956,0.0,17410.70091214299,0.0,0.0,0.0,17410.70091214299,0.6781551740402512,0.5251515940817103,0.41938775510203957,0.0,0.0,0.0,"[0.9744275323521308, 0.8866071386028906, 1.1854087824463129, 1.0314783698004, 0.7714967744561854, 0.5417717973571143, 0.8028162459739683, 0.9807571640766781, 0.9485608277391648]",22.97,0.0,0.0,84.64865711311911,2330.60228701464,102.49408897452007,-1758.3290461761146,-2850.559413357707,0.0,0.0,0.0,0.0,0.0,0.0,0.0,2.0,21.94848246083486,0.0,21.26573686797286,0.0,2.0,22.97,20.18,22.35,21.87,22.57,1.68,2.0,444.29,-1221.27,-1276.13,136.48,169.0,0.0,1615.0,0.0,0.0,0.0,0.0,0.0,0.0,0.0,0.0,0.0,0.0,0.0,0.0,0.0,0.0
110.0,2895.0,5958.377069776029,3315.417069075986,-0.0,281.83188464883665,0.0,0.0,9212.68055191731,0.0,0.0,0.0,9212.68055191731,0.6781551740402512,0.5251515940817103,0.41530612244897835,0.0,0.0,0.0,"[0.9744275323521308, 0.8866071386028906, 1.1854087824463129, 1.0314783698004, 0.7714967744561854, 0.5417717973571143, 0.8028162459739683, 0.9807571640766781, 0.9485608277391648]",22.21,0.0,0.0,64.38763933436923,210.6360553453231,4.775821392458724,-1668.8003812453696,-1318.1626677584925,0.0,0.0,0.0,0.0,0.0,0.0,0.0,2.3,21.74080282832987,0.0,21.274815677394763,0.0,2.3,22.21,20.21,22.34,21.41,22.2,1.95,2.3,4333.82,-1159.09,-1211.15,103.81,0.0,0.0,154.0,0.0,0.0,0.0,0.0,0.0,0.0,0.0,0.0,0.0,0.0,0.0,0.0,0.0,0.0
111.0,2789.0,8338.484302842187,5507.873100473527,-0.0,0.0812191455510646,0.0,0.0,14989.89538205757,0.0,0.0,0.0,14989.89538205757,0.6781551740402512,0.5251515940817103,0.2586734693877538,0.0,0.0,0.0,"[0.9744275323521308, 0.8866071386028906, 1.1854087824463129, 1.0314783698004, 0.7714967744561854, 0.5417717973571143, 0.8028162459739683, 0.9807571640766781, 0.9485608277391648]",21.22,0.0,0.0,15.417287945449752,382.9026583669766,46.54875266286069,-1636.0531125099583,529.2433974921838,5467.904213978198,0.0,0.0,0.0,0.0,0.0,0.0,1.7,21.42636938930653,0.0,21.22591373251172,0.0,1.7,21.22,20.2,22.25,20.95,21.8,1.32,1.7,0.0,-1136.34,-1187.38,24.86,127.0,1.0,213.0,0.0,0.0,0.0,0.0,0.0,0.0,0.0,0.0,0.0,0.0,0.0,0.0,0.0,0.0
112.0,2989.0,0.0,5583.427476838964,-0.0,0.0,8572.427476838964,0.0,14769.691396908118,0.0,0.0,0.0,14769.691396908118,0.35417832306372193,0.5251515940817103,0.2499999999999987,0.0,0.0,0.0,"[0.9744275323521308, 0.8866071386028906, 1.1854087824463129, 1.0314783698004, 0.7714967744561854, 0.5417717973571143, 0.8028162459739683, 0.9807571640766781, 0.9485608277391648]",22.97,0.0,0.0,0.0,551.2099370400339,60.876216840236864,-1850.5442900873186,-2830.3670395577396,4074.2226477855193,0.0,0.0,0.0,0.0,0.0,0.0,0.9,21.956867680937904,0.0,21.293867811379666,0.0,0.9,22.97,20.27,22.32,22.23,22.79,0.5,0.9,4336.72,-1285.32,-1343.05,0.0,91.0,39.0,351.0,0.0,0.0,0.0,0.0,0.0,0.0,0.0,0.0,0.0,0.0,0.0,0.0,0.0,0.0
113.0,6195.0,0.0,3058.2389655872657,-0.0,0.0,9253.238965587265,0.0,8119.032885271146,0.0,0.0,0.0,8119.032885271146,0.004471635021875198,0.5251515940817103,0.24540816326530482,0.0,0.0,0.0,"[0.9744275323521308, 0.8866071386028906, 1.1854087824463129, 1.0314783698004, 0.7714967744561854, 0.5417717973571143, 0.8028162459739683, 0.9807571640766781, 0.9485608277391648]",22.97,0.0,0.0,0.0,599.5136940929087,89.06596778663285,-1842.1610860953908,-2660.690699548842,0.0,0.0,0.0,0.0,0.0,0.0,0.0,1.0,22.018927207745445,0.0,21.37622091930931,0.0,1.0,22.97,20.34,22.41,22.14,22.76,0.59,1.0,0.0,-1279.5,-1336.97,0.0,136.0,64.0,360.0,0.0,0.0,0.0,0.0,0.0,0.0,0.0,0.0,0.0,0.0,0.0,0.0,0.0,0.0
114.0,7722.0,11828.852178941295,4047.707918046587,-0.0,0.0,0.0,0.0,10784.469598576,0.0,0.0,0.0,10784.469598576,0.004471635021875198,0.5251515940817103,0.24540816326530482,0.0,0.0,0.0,"[0.9744275323521308, 0.8866071386028906, 1.1854087824463129, 1.0314783698004, 0.7714967744561854, 0.5417717973571143, 0.8028162459739683, 0.9807571640766781, 0.9485608277391648]",21.57,0.0,0.0,0.0,2345.4317563930185,119.67464125648198,-1716.4436907700544,53.08063782112625,0.0,0.0,0.0,0.0,0.0,0.0,0.0,1.1,21.61178750736945,0.0,21.349548286352217,0.0,1.1,21.57,20.34,22.36,21.18,22.0,0.68,1.1,0.0,-1192.18,-1245.73,0.0,164.0,33.0,1625.0,0.0,0.0,0.0,0.0,0.0,0.0,0.0,0.0,0.0,0.0,0.0,0.0,0.0,0.0
115.0,10551.0,31807.7087125262,5097.670168963569,-0.0,0.0,-16000.0,0.0,13679.121196657981,0.0,0.0,0.0,13679.121196657981,0.5852123757626159,0.5251515940817103,0.239285714285713,0.0,0.0,0.0,"[0.9744275323521308, 0.8866071386028906, 1.1854087824463129, 1.0314783698004, 0.7714967744561854, 0.5417717973571143, 0.8028162459739683, 0.9807571640766781, 0.9485608277391648]",21.86,0.0,0.0,0.0,240.726920394655,5.4580815913814,-1723.9637303604306,-624.5611152993216,0.0,0.0,0.0,0.0,0.0,0.0,0.0,1.3,21.653427768603525,0.0,21.306347667897377,0.0,1.3,21.86,20.33,22.29,21.3,22.05,0.88,1.3,1764.25,-1197.4,-1251.19,0.0,0.0,0.0,176.0,0.0,0.0,0.0,0.0,0.0,0.0,0.0,0.0,0.0,0.0,0.0,0.0,0.0,0.0
116.0,9434.0,74388.10638096891,1177.8308837178927,-47404.334965346185,0.0,-16000.0,0.0,3171.8276564658277,0.0,0.0,0.0,3171.8276564658277,0.7649013068390371,0.5251515940817103,0.39413987517251053,0.0,0.0,0.0,"[0.905532857819864, 0.6543000414585762, 1.1854087824463129, 0.35347273224780196, 0.14027829287689997, 0.5417717973571143, 0.8028162459739683, 0.9807571640766781, 0.9485608277391648]",21.09,0.0,0.0,0.0,212.00382193847457,4.806833219682483,-1651.0273556521233,754.1800120534649,3103.4704211742387,0.0,0.0,0.0,0.0,0.0,0.0,1.4,21.387534635104387,0.0,21.24003615398709,0.0,1.4,21.09,20.3,22.18,20.91,21.71,0.99,1.4,0.0,-1146.74,-1198.25,0.0,0.0,0.0,155.0,0.0,0.0,0.0,0.0,0.0,0.0,0.0,0.0,0.0,0.0,0.0,0.0,0.0,0.0
117.0,6121.0,0.0,0.0,-0.0,0.0,6121.0,0.0,19985.526966807236,0.0,19985.526966807236,0.0,0.0,0.5335709969372986,0.4496205019924917,0.39413987517251053,0.0,0.0,0.0,"[0.905532857819864, 0.6543000414585762, 1.1854087824463129, 0.35347273224780196, 0.14027829287689997, 0.5417717973571143, 0.8028162459739683, 0.9807571640766781, 0.9485608277391648]",21.98,0.0,0.0,0.0,120.3634601973275,2.7290407956907,-1708.6432242932838,-1025.354789414723,5133.860135344752,0.0,0.0,0.0,0.0,0.0,0.0,1.6,21.623750302369437,0.0,21.235222813129766,0.0,1.6,21.98,20.31,22.16,21.57,22.2,1.18,1.6,0.0,-1186.76,-1240.07,0.0,0.0,0.0,88.0,0.0,0.0,0.0,0.0,0.0,0.0,0.0,0.0,0.0,0.0,0.0,0.0,0.0,0.0
118.0,3283.0,1002.8042884001214,0.0,-0.0,0.0,2285.209733041879,0.0,23353.615891422844,0.0,23353.615891422844,0.0,0.0,0.4472063055902888,0.36136042681704633,0.36556844660108195,0.0,0.0,0.0,"[0.905532857819864, 0.6543000414585762, 1.1854087824463129, 0.35347273224780196, 0.14027829287689997, 0.5417717973571143, 0.8028162459739683, 0.9807571640766781, 0.9485608277391648]",22.91,0.0,0.0,0.0,345.32507091302625,54.05361485101012,-1777.703077046283,-2700.8182211404765,0.0,0.0,0.0,0.0,0.0,0.0,0.0,1.7,21.93470546866735,0.0,21.311784203094135,0.0,1.7,22.91,20.37,22.26,22.19,22.7,1.27,1.7,2780.11,-1234.73,-1290.19,0.0,146.0,6.0,175.0,0.0,0.0,0.0,0.0,0.0,0.0,0.0,0.0,0.0,0.0,0.0,0.0,0.0,0.0
119.0,4424.0,0.0,7409.078845919041,-0.0,0.0,11833.07884591904,0.0,20305.368367371942,0.0,0.0,0.0,20305.368367371942,0.0,0.36136042681704633,0.36556844660108195,0.0,0.0,0.0,"[0.905532857819864, 0.6543000414585762, 1.1854087824463129, 0.35347273224780196, 0.14027829287689997, 0.5417717973571143, 0.8028162459739683, 0.9807571640766781, 0.9485608277391648]",21.41,0.0,0.0,0.0,447.6196145376687,63.326151190913755,-1635.5666938896968,203.3382297966633,5010.832560709983,0.0,0.0,0.0,0.0,0.0,0.0,1.9,21.501258073242315,0.0,21.28361039611871,0.0,1.9,21.41,20.36,22.2,21.09,21.84,1.47,1.9,2294.32,-1136.0,-1187.03,0.0,130.0,27.0,256.0,0.0,0.0,0.0,0.0,0.0,0.0,0.0,0.0,0.0,0.0,0.0,0.0,0.0,0.0
120.0,3263.0,23328.40519721126,3948.763171225204,-0.0,0.0,-16000.0,0.0,10671.426248994921,0.0,0.0,0.0,10671.426248994921,0.5807407407407407,0.36136042681704633,0.36556844660108195,0.0,0.0,0.0,"[0.905532857819864, 0.6543000414585762, 1.1854087824463129, 0.35347273224780196, 0.14027829287689997, 0.5417717973571143, 0.8028162459739683, 0.9807571640766781, 0.9485608277391648]",22.91,0.0,0.0,0.0,2098.2259416097518,76.07201217987829,-1794.4694850301382,-2639.550411738676,2214.2535905480345,0.0,0.0,0.0,0.0,0.0,0.0,1.5,21.957331879673053,0.0,21.346328860185764,0.0,1.5,22.91,20.42,22.28,22.22,22.72,1.04,1.5,0.0,-1246.37,-1302.36,0.0,80.0,9.0,1491.0,0.0,0.0,0.0,0.0,0.0,0.0,0.0,0.0,0.0,0.0,0.0,0.0,0.0,0.0
121.0,2113.0,8234.438790621114,6080.266596668009,-0.0,0.0,0.0,0.0,16257.861776795498,0.0,0.0,0.0,16257.861776795498,0.5807407407407407,0.36136042681704633,0.3548541608867962,0.0,0.0,0.0,"[0.905532857819864, 0.6543000414585762, 1.1854087824463129, 0.35347273224780196, 0.14027829287689997, 0.5417717973571143, 0.8028162459739683, 0.9807571640766781, 0.9485608277391648]",22.89,0.0,0.0,0.0,1586.3932849093935,63.357163018137506,-1818.016241287462,-2490.8736937727613,2716.9700577019917,0.0,0.0,0.0,0.0,0.0,0.0,1.2,21.99290468790204,0.0,21.40027564368723,0.0,1.2,22.89,20.46,22.34,21.98,22.57,0.73,1.2,1599.72,-1262.73,-1319.44,0.0,80.0,7.0,1117.0,0.0,0.0,0.0,0.0,0.0,0.0,0.0,0.0,0.0,0.0,0.0,0.0,0.0,0.0
122.0,1813.0,21399.076852400834,7928.061059975561,-0.0,0.0,-11551.020408163267,0.0,20896.307276942833,0.0,0.0,0.0,20896.307276942833,1.0,0.36136042681704633,0.3548541608867962,0.0,0.0,0.0,"[0.905532857819864, 0.6543000414585762, 1.1854087824463129, 0.35347273224780196, 0.14027829287689997, 0.5417717973571143, 0.8028162459739683, 0.9807571640766781, 0.9485608277391648]",22.91,0.0,0.0,0.0,169.7470329816377,27.35243161135452,-1853.1519129736316,-2413.683825385735,0.0,0.0,0.0,0.0,0.0,0.0,0.0,0.8,22.040645657374288,0.0,21.456269233029964,0.0,0.8,22.91,20.51,22.4,22.06,22.65,0.32,0.8,2510.76,-1287.13,-1344.94,0.0,80.0,0.0,82.0,0.0,0.0,0.0,0.0,0.0,0.0,0.0,0.0,0.0,0.0,0.0,0.0,0.0,0.0
123.0,1730.0,20218.900190881686,24375.462924715877,-0.0,0.0,14451.0372347886,0.0,30161.482708325868,42316.9,0.0,0.0,64015.002708325876,0.4515352925060101,0.36136042681704633,0.3548541608867962,33853.520000000004,8463.380000000001,42316.9,"[0.905532857819864, 0.6543000414585762, 1.1854087824463129, 0.35347273224780196, 0.14027829287689997, 0.5417717973571143, 0.8028162459739683, 0.9807571640766781, 0.9485608277391648]",21.41,0.0,0.0,0.0,119.13966903503409,26.204994004075473,-1736.5265761349854,456.21475937143316,5209.451993043436,0.0,0.0,0.0,0.0,0.0,0.0,0.7,21.599226219085207,0.0,21.41576761761944,0.0,0.7,21.41,20.49,22.34,21.16,21.93,0.22,0.7,0.0,-1206.13,-1260.3,0.0,80.0,0.0,45.0,0.0,0.0,0.0,0.0,0.0,0.0,0.0,0.0,0.0,0.0,0.0,0.0,0.0,0.0
124.0,716.0,2864.0326613050665,2133.712497998541,-0.0,0.0,0.0,0.0,5562.887268697662,0.0,0.0,0.0,5562.887268697661,0.4515352925060101,0.36136042681704633,0.3548541608867962,0.0,0.0,0.0,"[0.905532857819864, 0.6543000414585762, 1.1854087824463129, 0.35347273224780196, 0.14027829287689997, 0.5417717973571143, 0.8028162459739683, 0.9807571640766781, 0.9485608277391648]",22.91,0.0,0.0,0.0,145.1272343049116,26.794218721326875,-1878.3015249494147,-2397.3824919027234,0.0,0.0,0.0,0.0,0.0,0.0,0.0,0.5,22.04685836559945,0.0,21.46826823267098,0.0,0.5,22.91,20.53,22.4,22.3,22.81,0.03,0.5,0.0,-1304.6,-1363.2,0.0,80.0,0.0,64.0,0.0,0.0,0.0,0.0,0.0,0.0,0.0,0.0,0.0,0.0,0.0,0.0,0.0,0.0
125.0,931.0,0.0,11016.623839709027,-0.0,0.0,11947.623839709027,0.0,28511.831309796195,0.0,0.0,0.0,28511.831309796195,0.0,0.36136042681704633,0.3548541608867962,0.0,0.0,0.0,"[0.905532857819864, 0.6543000414585762, 1.1854087824463129, 0.35347273224780196, 0.14027829287689997, 0.5417717973571143, 0.8028162459739683, 0.9807571640766781, 0.9485608277391648]",21.4,0.0,0.0,0.0,164.27596660903185,27.228384302459492,-1769.0163612901208,494.4604245668427,245.88375757581846,0.0,0.0,0.0,0.0,0.0,0.0,0.3,21.601103437905,0.0,21.42607485836632,0.0,0.3,21.4,20.51,22.34,21.16,21.93,-0.17,0.3,361.86,-1228.69,-1283.88,0.0,80.0,0.0,78.0,0.0,0.0,0.0,0.0,0.0,0.0,0.0,0.0,0.0,0.0,0.0,0.0,0.0,0.0
126.0,890.0,4415.45104830388,3503.373793062361,-0.0,0.0,0.0,0.0,9033.589847766549,0.0,0.0,0.0,9033.58984776655,0.0,0.36136042681704633,0.3548541608867962,0.0,0.0,0.0,"[0.905532857819864, 0.6543000414585762, 1.1854087824463129, 0.35347273224780196, 0.14027829287689997, 0.5417717973571143, 0.8028162459739683, 0.9807571640766781, 0.9485608277391648]",21.09,0.0,0.0,0.0,204.94902582643024,41.95900223374451,-1751.625803555255,926.4594938459684,581.9784954260094,0.0,0.0,0.0,0.0,0.0,0.0,0.2,21.451666729917427,0.0,21.34498266794769,0.0,0.2,21.09,20.46,22.23,21.02,21.77,-0.26,0.2,0.0,-1216.61,-1271.26,0.0,127.0,0.0,83.0,0.0,0.0,0.0,0.0,0.0,0.0,0.0,0.0,0.0,0.0,0.0,0.0,0.0,0.0
127.0,730.0,25015.788561148598,8160.709618342854,-0.0,0.0,-16000.0,0.0,20964.918532478936,0.0,0.0,0.0,20964.91853247893,0.5807407407407407,0.36136042681704633,0.3548541608867962,0.0,0.0,0.0,"[0.905532857819864, 0.6543000414585762, 1.1854087824463129, 0.35347273224780196, 0.14027829287689997, 0.5417717973571143, 0.8028162459739683, 0.9807571640766781, 0.9485608277391648]",21.09,0.0,0.0,0.0,177.44971853254322,45.74244515504299,-1760.0090075471824,756.8749675329425,783.9975417523074,0.0,0.0,0.0,0.0,0.0,0.0,0.1,21.389662584460226,0.0,21.267542919734588,0.0,0.1,21.09,20.42,22.12,21.02,21.73,-0.37,0.1,485.41,-1222.44,-1277.35,0.0,142.0,0.0,55.0,0.0,0.0,0.0,0.0,0.0,0.0,0.0,0.0,0.0,0.0,0.0,0.0,0.0,0.0
128.0,1031.0,0.0,5109.964791870062,-0.0,0.0,6140.964791870062,0.0,13176.249179489201,0.0,0.0,0.0,13176.249179489201,0.3486559035574428,0.36136042681704633,0.3548541608867962,0.0,0.0,0.0,"[0.905532857819864, 0.6543000414585762, 1.1854087824463129, 0.35347273224780196, 0.14027829287689997, 0.5417717973571143, 0.8028162459739647, 0.9807571640766781, 0.9485608277391648]",21.09,0.0,0.0,1.8255430018327048,117.19600071845046,27.042313339116937,-1751.625803555255,606.3173688257386,1001.5758302095243,0.0,0.0,0.0,0.0,0.0,0.0,0.2,21.334418454691903,0.0,21.19797979637245,0.0,0.2,21.09,20.37,22.03,21.01,21.68,-0.24,0.2,690.58,-1216.61,-1271.26,2.94,83.0,0.0,42.0,0.0,0.0,0.0,0.0,0.0,0.0,0.0,0.0,0.0,0.0,0.0,0.0,0.0,0.0
129.0,1720.0,0.0,5987.602606926987,-0.0,70.51710651547569,7637.085500411512,0.0,16923.396470725227,0.0,0.0,0.0,16923.396470725227,0.06002833362503496,0.36136042681704633,0.3548541608867962,0.0,0.0,0.0,"[0.905532857819864, 0.6543000414585762, 1.1854087824463129, 0.35347273224780196, 0.14027829287689997, 0.5417717973571143, 0.8028162459739647, 0.9807571640766781, 0.9485608277391648]",21.09,0.0,0.0,63.03117881942288,101.21472789320718,2.294875214558085,-1533.6624997651359,477.857447275576,887.1750600863717,0.0,0.0,0.0,0.0,0.0,0.0,2.8,21.285194192827912,0.0,21.13565431696066,0.0,2.8,21.09,20.33,21.94,20.99,21.64,2.36,2.8,25.41,-1065.23,-1113.07,101.62,0.0,0.0,74.0,0.0,0.0,0.0,0.0,0.0,0.0,0.0,0.0,0.0,0.0,0.0,0.0,0.0,0.0
130.0,1781.0,0.0,0.0,-0.0,192.65029228157513,1588.349707718425,0.0,8707.280217921727,0.0,8707.280217921727,0.0,0.0,0.0,0.3284530941718395,0.3548541608867962,0.0,0.0,0.0,"[0.905532857819864, 0.6543000414585762, 1.1854087824463129, 0.35347273224780196, 0.14027829287689997, 0.5417717973571143, 0.8028162459739647, 0.9807571640766781, 0.9485608277391648]",21.09,0.0,0.0,108.30479632630005,114.89239382472171,2.604993486795667,-1324.082399966945,368.26145966132486,3654.8574999463767,0.0,0.0,0.0,0.0,0.0,0.0,5.3,21.24298528684884,0.0,21.08389824645908,0.0,5.3,21.09,20.3,21.87,20.96,21.59,4.83,5.3,0.0,-919.66,-960.97,174.62,0.0,0.0,84.0,0.0,0.0,0.0,0.0,0.0,0.0,0.0,0.0,0.0,0.0,0.0,0.0,0.0,0.0
131.0,3681.0,3295.4077666927155,4376.656119079254,-1065.0527897562429,5843.778180976245,0.0,0.0,14039.167744394113,0.0,0.0,0.0,14039.167744394115,0.0,0.3284530941718395,0.3583333333333333,0.0,0.0,0.0,"[0.905532857819864, 0.6543000414585762, 1.1854087824463129, 0.35347273224780196, 0.14027829287689997, 0.5417717973571143, 0.8028162459739647, 0.9807571640766781, 0.9485608277391648]",22.17,0.0,0.0,964.7882803375277,91.64036174114706,2.07779242399178,-1288.2358390173142,-1686.628724939102,0.0,0.0,0.0,0.0,0.0,0.0,0.0,6.8,21.562021488992333,0.0,21.11964916162865,0.0,6.8,22.17,20.33,21.91,21.7,22.17,6.96,6.8,0.0,-894.76,-934.95,1555.52,0.0,0.0,67.0,0.0,0.0,0.0,0.0,0.0,0.0,0.0,0.0,0.0,0.0,0.0,0.0,0.0,0.0
132.0,5383.0,0.0,3116.6621668603075,-0.0,8499.662166860307,0.0,0.0,10294.557772987682,0.0,0.0,0.0,10294.557772987684,0.0,0.3284530941718395,0.3583333333333333,0.0,0.0,0.0,"[0.905532857819864, 0.6543000414585762, 1.1854087824463129, 0.35347273224780196, 0.14027829287689997, 0.5417717973571143, 0.8028162459739647, 0.9807571640766781, 0.9485608277391648]",21.48,0.0,0.0,923.8138423758397,75.22716262332966,1.7056504973066857,-1146.646452018115,-276.39951762690225,1745.4705016614644,0.0,0.0,0.0,0.0,0.0,0.0,7.8,21.38806397572396,0.0,21.141812297633592,0.0,7.8,21.48,20.36,21.92,21.3,21.88,7.94,7.8,0.0,-796.42,-832.19,1489.45,0.0,0.0,55.0,0.0,0.0,0.0,0.0,0.0,0.0,0.0,0.0,0.0,0.0,0.0,0.0,0.0,0.0
133.0,4201.0,0.0,3213.289958542401,-0.0,7859.720886668307,-445.43092812590567,0.0,10736.259388608736,0.0,0.0,0.0,10736.259388608736,0.01616749294679213,0.3284530941718395,0.3583333333333322,0.0,0.0,0.0,"[0.905532857819864, 0.6543000414585762, 1.1854087824463129, 0.35347273224780196, 0.14027829287689997, 0.5417717973571143, 0.8028162459739647, 0.9807571640766781, 0.9485608277391648]",21.97,0.0,0.0,886.4153040473989,80.69822899593547,1.8296978062017184,-1154.759677827411,-1169.3867459216438,0.0,0.0,0.0,0.0,0.0,0.0,0.0,8.2,21.557921983727294,0.0,21.18963246857838,0.0,8.2,21.97,20.42,21.96,21.69,22.19,8.34,8.2,0.0,-802.05,-838.08,1429.16,0.0,0.0,59.0,0.0,0.0,0.0,0.0,0.0,0.0,0.0,0.0,0.0,0.0,0.0,0.0,0.0,0.0
134.0,4717.0,1968.12733749286,3928.5569260169646,-0.0,6687.270225211569,0.0,0.0,13126.11271463535,0.0,0.0,0.0,13126.11271463535,0.01616749294679213,0.3284530941718395,0.3583333333333322,0.0,0.0,0.0,"[0.905532857819864, 0.6543000414585762, 1.1854087824463129, 0.35347273224780196, 0.14027829287689997, 0.5417717973571143, 0.8028162459739647, 0.9807571640766781, 0.9485608277391648]",21.49,0.0,0.0,812.544763825031,129.93782634938762,2.946123586257005,-1114.142011119997,-185.92532705881285,4190.467485802867,0.0,0.0,0.0,0.0,0.0,0.0,8.2,21.433220843458173,0.0,21.20436562404017,0.0,8.2,21.49,20.45,21.96,21.33,21.9,8.24,8.2,0.0,-773.84,-808.6,1310.06,0.0,0.0,95.0,0.0,0.0,0.0,0.0,0.0,0.0,0.0,0.0,0.0,0.0,0.0,0.0,0.0,0.0
135.0,3662.0,6357.354571872024,2669.405202765388,-0.0,5.837403752723963,0.0,0.0,8664.546517161405,0.0,0.0,0.0,8664.546517161405,0.01616749294679213,0.3284530941718395,0.3583333333333322,0.0,0.0,0.0,"[0.905532857819864, 0.6543000414585762, 1.1854087824463129, 0.35347273224780196, 0.14027829287689997, 0.5417717973571143, 0.8028162459739647, 0.9807571640766781, 0.9485608277391648]",22.91,0.0,0.0,37.838678527703095,298.2451050224448,52.00683425424209,-1316.6268574902626,-2778.7760464341272,0.0,0.0,0.0,0.0,0.0,0.0,0.0,7.2,21.901619175284647,0.0,21.311949526177187,0.0,7.2,22.91,20.54,22.09,22.35,22.72,6.67,7.2,0.0,-914.48,-955.56,61.01,154.0,0.0,137.0,0.0,0.0,0.0,0.0,0.0,0.0,0.0,0.0,0.0,0.0,0.0,0.0,0.0,0.0
136.0,3589.0,7710.059216928572,4510.30078421605,-0.0,0.0,427.79186337211974,0.0,14037.884048726402,0.0,0.0,0.0,14037.884048726404,0.0,0.3284530941718395,0.3460884353741486,0.0,0.0,0.0,"[0.905532857819864, 0.6543000414585762, 1.1854087824463129, 0.35347273224780196, 0.14027829287689997, 0.5417717973571143, 0.8028162459739647, 0.9807571640766781, 0.9485608277391648]",21.55,0.0,0.0,0.0,91.64036174114706,2.07779242399178,-1320.084129080091,-101.42709862169956,5038.524333353873,0.0,0.0,0.0,0.0,0.0,0.0,5.8,21.523310111312753,0.0,21.307112176882526,0.0,5.8,21.55,20.55,22.07,21.22,21.82,5.27,5.8,0.0,-916.88,-958.07,0.0,0.0,0.0,67.0,0.0,0.0,0.0,0.0,0.0,0.0,0.0,0.0,0.0,0.0,0.0,0.0,0.0,0.0
137.0,4916.0,8620.84455820831,3661.7403354172684,-0.0,0.0,0.0,0.0,11257.186036203417,0.0,0.0,0.0,11257.186036203415,0.0,0.3284530941718395,0.3282312925170057,0.0,0.0,0.0,"[0.905532857819864, 0.6543000414585762, 1.1854087824463129, 0.35347273224780196, 0.14027829287689997, 0.5417717973571143, 0.8028162459739647, 0.9807571640766781, 0.9485608277391648]",22.91,0.0,0.0,0.0,205.5249275498624,52.25492887203216,-1467.5245293449605,-2645.401676062096,3859.7794311832968,0.0,0.0,0.0,0.0,0.0,0.0,5.4,21.951975826814447,0.0,21.382032236002843,0.0,5.4,22.91,20.61,22.16,22.27,22.65,4.87,5.4,0.0,-1019.29,-1065.07,0.0,162.0,0.0,65.0,0.0,0.0,0.0,0.0,0.0,0.0,0.0,0.0,0.0,0.0,0.0,0.0,0.0,0.0
138.0,6343.0,28537.454769755983,6051.767495907202,-0.0,0.0,-16000.0,0.0,18374.00635224859,0.0,0.0,0.0,18374.006352248587,0.5807407407407407,0.3284530941718395,0.30935374149659756,0.0,0.0,0.0,"[0.905532857819864, 0.6543000414585762, 1.1854087824463129, 0.35347273224780196, 0.14027829287689997, 0.5417717973571143, 0.8028162459739647, 0.9807571640766781, 0.9485608277391648]",22.91,0.0,0.0,0.0,79.33046240278402,1.798685978977958,-1501.0573453126706,-2465.6955104230165,3885.783184367268,0.0,0.0,0.0,0.0,0.0,0.0,5.0,22.01809957175089,0.0,21.46777294143351,0.0,5.0,22.91,20.68,22.26,22.22,22.65,4.49,5.0,0.0,-1042.58,-1089.41,0.0,0.0,0.0,58.0,0.0,0.0,0.0,0.0,0.0,0.0,0.0,0.0,0.0,0.0,0.0,0.0,0.0,0.0
139.0,7400.0,5822.368630878435,2666.05678772404,-0.0,0.0,4272.7999999999965,0.0,7992.853215907365,0.0,0.0,0.0,7992.853215907365,0.41925925925925933,0.3284530941718395,0.30935374149659756,0.0,0.0,0.0,"[0.905532857819864, 0.6543000414585762, 1.1854087824463129, 0.35347273224780196, 0.14027829287689997, 0.5417717973571143, 0.8028162459739647, 0.9807571640766781, 0.9485608277391648]",22.91,0.0,0.0,0.0,87.5370619616927,1.9847569423205071,-1534.5901612803814,-2304.1713766090656,0.0,0.0,0.0,0.0,0.0,0.0,0.0,4.6,22.07756528559195,0.0,21.54512488908762,0.0,4.6,22.91,20.74,22.35,22.24,22.7,4.11,4.6,0.0,-1065.87,-1113.75,0.0,0.0,0.0,64.0,0.0,0.0,0.0,0.0,0.0,0.0,0.0,0.0,0.0,0.0,0.0,0.0,0.0,0.0
140.0,5249.0,0.0,4006.6880950974937,-0.0,0.0,9255.688095097494,0.0,11859.285452389056,0.0,0.0,0.0,11859.285452389056,0.6502007522638891,0.3284530941718395,0.30935374149659756,0.0,0.0,0.0,"[0.7934565595809637, 0.6543000414585798, 1.1854087824463129, 0.35347273224780196, 0.14027829287689997, 0.5417717973571108, 0.6720956731663428, 0.9807571640766781, 0.460805658362041]",21.53,0.0,0.0,0.0,206.53275556586874,4.682785910787451,-1453.0221902212998,351.9791195217777,0.0,0.0,0.0,0.0,0.0,0.0,0.0,4.2,21.676387875082273,0.0,21.51476999348214,0.0,4.2,21.53,20.73,22.3,21.3,21.95,3.73,4.2,0.0,-1009.22,-1054.55,0.0,0.0,0.0,151.0,0.0,0.0,0.0,0.0,0.0,0.0,0.0,0.0,0.0,0.0,0.0,0.0,0.0,0.0
141.0,4377.0,9442.69662177639,5018.483138667508,-0.0,0.0,0.0,0.0,14662.698702751206,0.0,0.0,0.0,14662.698702751204,0.6502007522638891,0.3284530941718395,0.30935374149659756,0.0,0.0,0.0,"[0.7934565595809637, 0.6543000414585798, 1.1854087824463129, 0.35347273224780196, 0.14027829287689997, 0.5417717973571108, 0.6720956731663428, 0.9807571640766781, 0.460805658362041]",21.21,0.0,0.0,0.0,168.2352909576282,3.8144547485222255,-1459.2260445538282,840.1507385086127,4780.960385920195,0.0,0.0,0.0,0.0,0.0,0.0,3.8,21.529197607962328,0.0,21.443400522500752,0.0,3.8,21.21,20.69,22.2,21.13,21.78,3.36,3.8,0.0,-1013.52,-1059.05,0.0,0.0,0.0,123.0,0.0,0.0,0.0,0.0,0.0,0.0,0.0,0.0,0.0,0.0,0.0,0.0,0.0,0.0
142.0,2669.0,38518.99855670941,30945.33284812611,-0.0,0.0,-4712.070715799757,0.0,9234.145337466545,0.0,-80000.0,0.0,89234.14533746654,0.821231467133658,0.6188234645422098,0.30935374149659756,0.0,0.0,0.0,"[0.7934565595809637, 0.6543000414585798, 1.1854087824463129, 0.35347273224780196, 0.14027829287689997, 0.5417717973571108, 0.6720956731663428, 0.9807571640766781, 0.460805658362041]",22.79,0.0,0.0,0.0,130.15378949567472,29.523259517017575,-1625.7930244755448,-2214.545182664707,0.0,0.0,0.0,0.0,0.0,0.0,0.0,3.4,21.999188277317128,0.0,21.49017168551343,0.0,3.4,22.79,20.72,22.26,22.26,22.67,2.95,3.4,0.0,-1129.22,-1179.94,0.0,81.0,5.0,52.0,0.0,0.0,0.0,0.0,0.0,0.0,0.0,0.0,0.0,0.0,0.0,0.0,0.0,0.0
143.0,2853.0,2867.3366834170856,0.0,-0.0,0.0,0.0,0.0,13135.036044599983,0.0,13135.036044599983,0.0,0.0,0.821231467133658,0.5691823608211215,0.305782312925169,0.0,0.0,0.0,"[0.7934565595809637, 0.6543000414585798, 1.1854087824463129, 0.35347273224780196, 0.14027829287689997, 0.5417717973571108, 0.6720956731663428, 0.9807571640766781, 0.460805658362041]",21.44,0.0,0.0,0.0,313.5065006933979,42.951380704904764,-1546.255345956917,390.0095442089897,153.27827794494848,0.0,0.0,0.0,0.0,0.0,0.0,3.0,21.603377093830918,0.0,21.456523394892805,0.0,3.0,21.44,20.7,22.21,21.25,21.87,2.55,3.0,2161.88,-1073.97,-1122.21,0.0,105.0,9.0,173.0,0.0,0.0,0.0,0.0,0.0,0.0,0.0,0.0,0.0,0.0,0.0,0.0,0.0,0.0
144.0,2692.0,0.0,8543.197624304343,-0.0,0.0,11235.197624304343,0.0,23902.211016292364,0.0,0.0,0.0,23902.21101629237,0.3966208237359127,0.5691823608211215,0.305782312925169,0.0,0.0,0.0,"[0.7934565595809637, 0.6543000414585798, 1.1854087824463129, 0.35347273224780196, 0.14027829287689997, 0.5417717973571108, 0.6720956731663428, 0.9807571640766781, 0.460805658362041]",21.21,0.0,0.0,0.0,724.5563557931226,64.34954148929776,-1568.2076964488872,713.3305673011005,4405.27328382677,0.0,0.0,0.0,0.0,0.0,0.0,2.5,21.483833049682033,0.0,21.388126327002155,0.0,2.5,21.21,20.66,22.12,21.13,21.75,2.08,2.5,0.0,-1089.22,-1138.14,0.0,80.0,44.0,483.0,0.0,0.0,0.0,0.0,0.0,0.0,0.0,0.0,0.0,0.0,0.0,0.0,0.0,0.0
145.0,1455.0,23374.104975083224,5802.234450207808,-0.0,0.0,-16000.0,0.0,24721.100128314683,0.0,8708.830716119064,0.0,16012.26941219562,0.9773615644766533,0.5362691683943677,0.305782312925169,0.0,0.0,0.0,"[0.7934565595809637, 0.6543000414585798, 1.1854087824463129, 0.35347273224780196, 0.14027829287689997, 0.5417717973571108, 0.6720956731663428, 0.9807571640766781, 0.460805658362041]",22.79,0.0,0.0,0.0,245.04618332039638,45.15322043779158,-1734.7746763706039,-2341.496784930643,3790.0754804988187,0.0,0.0,0.0,0.0,0.0,0.0,2.1,21.953747565376677,0.0,21.43325230329976,0.0,2.1,22.79,20.68,22.18,22.22,22.6,1.71,2.1,27.63,-1204.91,-1259.03,0.0,80.0,29.0,134.0,0.0,0.0,0.0,0.0,0.0,0.0,0.0,0.0,0.0,0.0,0.0,0.0,0.0,0.0
146.0,1986.0,0.0,3854.1420746960716,-0.0,0.0,5840.142074696072,0.0,10452.45800010862,0.0,0.0,0.0,10452.458000108618,0.7566456886377995,0.5362691683943677,0.305782312925169,0.0,0.0,0.0,"[0.7934565595809637, 0.6543000414585798, 1.1854087824463129, 0.35347273224780196, 0.14027829287689997, 0.5417717973571108, 0.6720956731663428, 0.9807571640766781, 0.460805658362041]",22.79,0.0,0.0,0.0,210.06015362189095,36.035743234006745,-1776.6906963302422,-2195.0711140853723,0.0,0.0,0.0,0.0,0.0,0.0,0.0,1.6,22.00776555039451,0.0,21.500583764116726,0.0,1.6,22.79,20.73,22.28,22.19,22.62,1.23,1.6,705.95,-1234.02,-1289.45,0.0,80.0,14.0,110.0,0.0,0.0,0.0,0.0,0.0,0.0,0.0,0.0,0.0,0.0,0.0,0.0,0.0,0.0
147.0,2027.0,0.0,6900.2449213561695,-0.0,0.0,8927.24492135617,0.0,18581.944131792246,0.0,0.0,0.0,18581.944131792243,0.41925925925925933,0.5362691683943677,0.305782312925169,0.0,0.0,0.0,"[0.7934565595809637, 0.6543000414585798, 1.1854087824463129, 0.35347273224780196, 0.14027829287689997, 0.5417717973571108, 0.6720956731663428, 0.9807571640766781, 0.460805658362041]",21.43,0.0,0.0,0.0,165.64373320218337,27.259396129683246,-1678.9873134243035,434.2635969718202,3100.54214733352,0.0,0.0,0.0,0.0,0.0,0.0,1.4,21.604160510383995,0.0,21.461538737283853,0.0,1.4,21.43,20.7,22.23,21.24,21.88,1.02,1.4,2438.13,-1166.16,-1218.54,0.0,80.0,0.0,79.0,0.0,0.0,0.0,0.0,0.0,0.0,0.0,0.0,0.0,0.0,0.0,0.0,0.0,0.0
148.0,973.0,4604.448499017417,3608.42625652233,-0.0,0.0,0.0,0.0,9648.474187373344,0.0,0.0,0.0,9648.474187373344,0.41925925925925933,0.5362691683943677,0.305782312925169,0.0,0.0,0.0,"[0.7934565595809637, 0.6543000414585798, 1.1854087824463129, 0.35347273224780196, 0.14027829287689997, 0.5417717973571108, 0.6720956731663428, 0.9807571640766781, 0.460805658362041]",22.18,0.0,0.0,0.0,149.23053408436596,26.887254202998147,-1758.5718498701028,-1051.4569531309915,0.0,0.0,0.0,0.0,0.0,0.0,0.0,1.2,21.810210899896727,0.0,21.46230799480186,0.0,1.2,22.18,20.69,22.23,21.84,22.34,0.85,1.2,0.0,-1221.44,-1276.3,0.0,80.0,0.0,67.0,0.0,0.0,0.0,0.0,0.0,0.0,0.0,0.0,0.0,0.0,0.0,0.0,0.0,0.0
149.0,1575.0,84649.78870762694,8496.69358820329,-58154.846175885534,0.0,-16000.0,0.0,22476.076337056347,0.0,0.0,0.0,22476.07633705635,1.0,0.5362691683943677,0.49575481043306174,0.0,0.0,0.0,"[0.7934565595809637, 0.6543000414585798, 1.1854087824463129, 0.35347273224780196, 0.14027829287689997, 0.5417717973571108, 0.6720956731663428, 0.9807571640766781, 0.460805658362041]",21.21,0.0,0.0,0.0,320.20135822829707,30.763732605967892,-1702.7916196920949,739.2025206666417,4934.202830597552,0.0,0.0,0.0,0.0,0.0,0.0,0.9,21.499981064932257,0.0,21.40280038804989,0.0,0.9,21.21,20.65,22.15,21.12,21.76,0.56,0.9,1163.5,-1182.7,-1235.82,0.0,80.0,0.0,192.0,0.0,0.0,0.0,0.0,0.0,0.0,0.0,0.0,0.0,0.0,0.0,0.0,0.0,0.0
150.0,1276.0,8257.945071860304,6940.655346501002,-0.0,0.0,0.0,0.0,18293.762589195816,0.0,0.0,0.0,18293.76258919582,1.0,0.5362691683943677,0.49575481043306174,0.0,0.0,0.0,"[0.7934565595809637, 0.6543000414585798, 1.1854087824463129, 0.35347273224780196, 0.14027829287689997, 0.5417717973571108, 0.6720956731663428, 0.9807571640766781, 0.460805658362041]",22.79,0.0,0.0,0.0,152.397993563243,47.23101286178337,-1843.7563282656633,-2301.23608578837,3949.5510540312184,0.0,0.0,0.0,0.0,0.0,0.0,0.8,21.96951724118734,0.0,21.44846316785455,0.0,0.8,22.79,20.68,22.22,22.26,22.66,0.48,0.8,2105.94,-1280.6,-1338.13,0.0,149.0,0.0,33.0,0.0,0.0,0.0,0.0,0.0,0.0,0.0,0.0,0.0,0.0,0.0,0.0,0.0,0.0
151.0,1203.0,10117.913508481113,8864.323940938708,-0.0,0.0,0.0,0.0,23195.04011681927,0.0,0.0,0.0,23195.04011681927,1.0,0.5362691683943677,0.49575481043306174,0.0,0.0,0.0,"[0.7934565595809637, 0.6543000414585798, 1.1854087824463129, 0.35347273224780196, 0.14027829287689997, 0.5417717973571108, 0.6720956731663428, 0.9807571640766781, 0.460805658362041]",22.79,0.0,0.0,0.0,95.74366152060142,2.170827905663056,-1860.5227362495189,-2158.0385343593816,0.0,0.0,0.0,0.0,0.0,0.0,0.0,0.6,22.022116765410207,0.0,21.513488695085666,0.0,0.6,22.79,20.71,22.31,22.2,22.65,0.29,0.6,157.61,-1292.25,-1350.29,0.0,0.0,0.0,70.0,0.0,0.0,0.0,0.0,0.0,0.0,0.0,0.0,0.0,0.0,0.0,0.0,0.0,0.0
