,load_elec,grid,hp_elec,ev,pv,bat_pow,cool,load_th_sh,load_th_dhw,tes_pow,dh,hp_th,bat_soc,tes_soc,ev_soc,eh_th_in,eh_elec_in,eh_th_out,temp_slack,temp_zone_1,temp_zone_2,temp_update,Qsolar_1,QconvInt_1,QradInt_1,Qvent_1,Qconduc_1,Qheating_1,Qsolar_2,QconvInt_2,QradInt_2,Qvent_2,Qconduc_2,Qheating_2,temp_amb,temp_aggregate_1,temp_aggregate_2,temp_wall_1,temp_wall_2,_Tamb,_Tz_1,_TEW_1,_TIW_1,_T1_1,_T2_1,_Taeq_1,_Tvent_1,_Qheating_1,_Qinfvent_1,_Qenvelope_1,_Qsolar_1,_Qint_people_1,_Qint_lighting_1,_Qint_appliances_1,_Tz_2,_TEW_2,_TIW_2,_T1_2,_T2_2,_Taeq_2,_Tvent_2,_Qheating_2,_Qinfvent_2,_Qenvelope_2,_Qsolar_2,_Qint_people_2,_Qint_lighting_2,_Qint_appliances_2
8.0,2915.0,0.0,8845.0,-0.0,0.0,11760.0,0.0,42708.86603033996,0.0,27996.600296963406,0.0,14712.26573337656,0.0,0.38096683547209437,0.8,0.0,0.0,0.0,"[2.0, 2.0, 2.0, 2.0, 2.0, 2.0, 2.0, 2.0]",20.0,0.0,0.0,1.0160519116637594,258.456294470109,105.44198997391682,-1472.9959741227121,-1115.1577921205896,10257.956029340117,0.0,0.0,0.0,0.0,0.0,0.0,-9.4,19.465865585142524,0.0,19.0,0.0,-9.4,20.0,18.0,20.0,20.0,20.0,-9.85,-9.4,10592.32,-1044.95,-1627.53,1.5,176.0,70.0,93.0,0.0,0.0,0.0,0.0,0.0,0.0,0.0,0.0,0.0,0.0,0.0,0.0,0.0,0.0
9.0,4116.0,42096.35310441466,21776.92921283684,-0.0,7.057873944254642,-16000.0,0.0,37883.344325388476,0.0,0.0,0.0,37883.34432538847,0.6533333333333333,0.38096683547209437,0.8,0.0,0.0,0.0,"[2.0, 2.0, 2.0, 2.0, 2.0, 2.0, 2.0, 2.0]",24.0,0.0,0.0,31.41288807207297,278.4026078966268,90.43691398341083,-1633.3220665442318,-6317.263436183582,7560.992157861018,0.0,0.0,0.0,0.0,0.0,0.0,-8.6,20.87451817628285,0.0,19.24960781769365,0.0,-8.6,24.0,18.1,20.4,22.65,22.42,-9.02,-8.6,0.0,-1158.69,-1804.67,46.37,224.0,19.0,88.0,0.0,0.0,0.0,0.0,0.0,0.0,0.0,0.0,0.0,0.0,0.0,0.0,0.0,0.0
10.0,4033.0,2970.6703691153084,0.0,-0.0,374.539319891539,702.6436628387293,0.0,49550.75912317074,0.0,49550.759123170734,0.0,0.0,0.6234590279405302,0.17029183920010996,0.8,0.0,0.0,0.0,"[2.0, 2.0, 2.0, 2.0, 2.0, 2.0, 2.0, 2.0]",24.0,0.0,0.0,86.97939897352592,320.057276571793,69.06399536036504,-1583.220162662507,-5884.091136390124,0.0,0.0,0.0,0.0,0.0,0.0,0.0,-7.6,21.08977775349543,0.0,19.523462686815748,0.0,-7.6,24.0,18.23,20.82,22.39,22.44,-8.05,-7.6,1283.62,-1123.14,-1749.31,128.4,190.0,0.0,139.0,0.0,0.0,0.0,0.0,0.0,0.0,0.0,0.0,0.0,0.0,0.0,0.0,0.0,0.0
11.0,8986.0,12483.234982088072,4499.226803316782,-0.0,1064.407996139151,0.0,0.0,8598.96108773067,0.0,0.0,0.0,8598.961087730671,0.6234590279405302,0.17029183920010996,0.8,0.0,0.0,0.0,"[2.0, 2.0, 2.0, 2.0, 2.0, 2.0, 2.0, 2.0]",20.51,0.0,0.0,120.51046677793725,2996.0349510050155,121.66644008554745,-1368.2746944348378,-944.826560313929,0.0,0.0,0.0,0.0,0.0,0.0,0.0,-6.8,20.059080231002,0.0,19.554471879630828,0.0,-6.8,20.51,18.23,20.87,19.72,20.65,-7.23,-6.8,0.0,-970.66,-1511.82,177.89,143.0,0.0,2162.0,0.0,0.0,0.0,0.0,0.0,0.0,0.0,0.0,0.0,0.0,0.0,0.0,0.0,0.0
12.0,3417.0,0.0,4424.917657345432,-0.0,2502.518053233727,5339.399604111705,0.0,28563.70544795503,0.0,19853.660053287236,0.0,8710.045394667792,0.3964437386500666,0.08588001924565743,0.798450012916559,0.0,0.0,0.0,"[2.0, 2.0, 2.0, 2.0, 2.0, 2.0, 2.0, 2.0]",20.96,0.0,0.0,181.22683415548207,2575.3298455531262,109.10011233729072,-1360.9382220005825,-1611.0448260017472,3868.5142253554195,0.0,0.0,0.0,0.0,0.0,0.0,-6.2,20.18035329805293,0.0,19.53282454387329,0.0,-6.2,20.96,18.22,20.85,19.96,20.8,-6.6,-6.2,4353.21,-965.46,-1503.71,267.52,137.0,0.0,1851.0,0.0,0.0,0.0,0.0,0.0,0.0,0.0,0.0,0.0,0.0,0.0,0.0,0.0,0.0
13.0,5037.0,16220.027502839395,11539.431316633872,-0.0,437.50395130867435,0.0,0.0,22824.323279821274,0.0,0.0,0.0,22824.32327982127,0.3964437386500666,0.08588001924565743,0.7984500129165584,0.0,0.0,0.0,"[2.0, 2.0, 2.0, 2.0, 2.0, 2.0, 2.0, 2.0]",22.83,0.0,0.0,89.40477283314338,698.6143416383202,62.59453821773153,-1449.5376594494855,-4053.643708372796,0.0,0.0,0.0,0.0,0.0,0.0,0.0,-6.1,20.832225210980134,0.0,19.643932729586606,0.0,-6.1,22.83,18.27,21.01,21.43,21.89,-6.53,-6.1,0.0,-1028.31,-1601.61,131.98,140.0,0.0,448.0,0.0,0.0,0.0,0.0,0.0,0.0,0.0,0.0,0.0,0.0,0.0,0.0,0.0,0.0
14.0,2955.0,0.0,0.0,-0.0,4.713591269269788,2950.2864087307303,0.0,20198.980526578627,0.0,20198.980526578627,0.0,0.0,0.2710063913400866,0.0,0.7984500129165584,0.0,0.0,0.0,"[2.0, 2.0, 2.0, 2.0, 2.0, 2.0, 2.0, 2.0]",20.51,0.0,0.0,27.958063171513167,434.94240337470484,63.30583978838759,-1358.1611211513757,-797.5212261204127,5024.429979585666,0.0,0.0,0.0,0.0,0.0,0.0,-6.6,20.130506650638335,0.0,19.64590000805414,0.0,-6.6,20.51,18.28,21.02,19.75,20.74,-7.02,-6.6,8032.62,-963.49,-1500.64,41.27,163.0,0.0,239.0,0.0,0.0,0.0,0.0,0.0,0.0,0.0,0.0,0.0,0.0,0.0,0.0,0.0,0.0
15.0,2216.0,0.0,4158.070324318836,-0.0,0.0,6374.070324318836,0.0,7748.739079110051,0.0,0.0,0.0,7748.7390791100515,0.0,0.0,0.7984500129165584,0.0,0.0,0.0,"[2.0, 2.0, 2.0, 2.0, 2.0, 2.0, 2.0, 2.0]",22.2,0.0,0.0,3.0468470193332315,101.77553564626052,2.5742342557075717,-1477.8495460120232,-3035.466999630146,0.0,0.0,0.0,0.0,0.0,0.0,0.0,-7.3,20.705348824308924,0.0,19.728094037225546,0.0,-7.3,22.2,18.32,21.14,21.26,21.82,-7.71,-7.3,5057.08,-1048.39,-1632.89,4.5,0.0,0.0,76.0,0.0,0.0,0.0,0.0,0.0,0.0,0.0,0.0,0.0,0.0,0.0,0.0,0.0,0.0
16.0,2880.0,84086.62730230876,64786.19416579721,-0.0,0.0,-16000.0,0.0,41349.42660800811,0.0,-80000.0,0.0,121349.42660800811,0.6533333333333333,0.3266666666666667,0.7907000774993536,0.0,0.0,0.0,"[2.0, 2.0, 2.0, 2.0, 2.0, 2.0, 2.0, 2.0]",20.0,0.0,0.0,0.0,254.43883911565135,6.435585639268935,-1362.7717855829173,-23.36602186702,9148.75921197901,0.0,0.0,0.0,0.0,0.0,0.0,-7.2,20.00855979728229,0.0,19.686475768469272,0.0,-7.2,20.0,18.29,21.08,19.47,20.57,-7.59,-7.2,0.0,-966.76,-1505.74,0.0,0.0,0.0,190.0,0.0,0.0,0.0,0.0,0.0,0.0,0.0,0.0,0.0,0.0,0.0,0.0,0.0,0.0
17.0,2289.0,2300.502512562814,0.0,-0.0,0.0,0.0,0.0,30980.701143343544,0.0,30980.701143343544,0.0,0.0,0.6533333333333333,0.19494599854020608,0.7907000774993536,0.0,0.0,0.0,"[2.0, 2.0, 2.0, 2.0, 2.0, 2.0, 2.0, 2.0]",24.0,0.0,0.0,0.0,99.09723207662209,2.5064912489784263,-1553.159020333472,-5336.27126368861,6788.110285287797,0.0,0.0,0.0,0.0,0.0,0.0,-7.0,21.36242711635593,0.0,19.871457459350367,0.0,-7.0,24.0,18.39,21.35,22.7,22.9,-7.39,-7.0,0.0,-1101.82,-1716.1,0.0,0.0,0.0,74.0,0.0,0.0,0.0,0.0,0.0,0.0,0.0,0.0,0.0,0.0,0.0,0.0,0.0,0.0
18.0,3924.0,16282.741743101697,12277.328034386188,-0.0,0.0,0.0,0.0,23347.49173738039,0.0,0.0,0.0,23347.49173738039,0.6533333333333333,0.19494599854020608,0.7868251097907512,0.0,0.0,0.0,"[2.0, 2.0, 2.0, 2.0, 2.0, 2.0, 2.0, 2.0]",24.0,0.0,0.0,0.0,278.54357124239726,7.045272699831254,-1548.1488299452994,-4999.818899322017,0.0,0.0,0.0,0.0,0.0,0.0,0.0,-6.9,21.53010525228115,0.0,20.088847663196546,0.0,-6.9,24.0,18.51,21.67,22.46,22.88,-7.3,-6.9,0.0,-1098.26,-1710.56,0.0,0.0,0.0,208.0,0.0,0.0,0.0,0.0,0.0,0.0,0.0,0.0,0.0,0.0,0.0,0.0,0.0,0.0
19.0,2333.0,2344.7236180904524,0.0,-0.0,0.0,0.0,0.0,14354.422623384828,0.0,14354.422623384828,0.0,0.0,0.6533333333333333,0.13391529010744746,0.7868251097907506,0.0,0.0,0.0,"[2.0, 2.0, 2.0, 2.0, 2.0, 2.0, 2.0, 2.0]",20.88,0.0,0.0,0.0,405.41058243579675,89.01431084209875,-1386.685362288699,-630.957505878641,0.0,0.0,0.0,0.0,0.0,0.0,0.0,-6.8,20.583271102616095,0.0,20.088357999061873,0.0,-6.8,20.88,18.52,21.66,20.05,21.23,-7.19,-6.8,6372.32,-983.72,-1532.16,0.0,83.0,86.0,250.0,0.0,0.0,0.0,0.0,0.0,0.0,0.0,0.0,0.0,0.0,0.0,0.0,0.0,0.0
20.0,4468.0,4490.452261306533,0.0,-0.0,0.0,0.0,0.0,1544.1431262547396,0.0,1544.1431262547396,0.0,0.0,0.6533333333333333,0.1273500557271127,0.7868251097907506,0.0,0.0,0.0,"[2.0, 1.0843533976777735, 0.9526924507291454, 0.6854279963744538, 1.4738746246251822, 2.0, 2.0, 2.0]",20.11,0.0,0.0,0.0,557.2281058305649,148.83138578393525,-1338.3635092703166,306.40367668540017,116.45051335288395,0.0,0.0,0.0,0.0,0.0,0.0,-6.6,20.285442225368485,0.0,20.004451137739427,0.0,-6.6,20.11,18.48,21.52,19.7,20.92,-6.99,-6.6,0.0,-949.44,-1478.77,0.0,129.0,154.0,332.0,0.0,0.0,0.0,0.0,0.0,0.0,0.0,0.0,0.0,0.0,0.0,0.0,0.0,0.0
21.0,4829.0,50713.958224305556,45631.38843318402,-0.0,0.0,0.0,0.0,8516.157389389193,0.0,-80000.0,0.0,88516.15738938919,0.6533333333333333,0.45401672239377944,0.7868251097907506,0.0,0.0,0.0,"[2.0, 1.0843533976777735, 0.9526924507291454, 0.6854279963744538, 1.4738746246251822, 2.0, 2.0, 2.0]",20.0,0.0,0.0,0.0,735.405774884406,154.65728436264192,-1327.70045286571,318.9276259079808,136.21634181709862,0.0,0.0,0.0,0.0,0.0,0.0,-6.5,20.17871263375932,0.0,19.912275824514488,0.0,-6.5,20.0,18.44,21.38,19.65,20.82,-6.9,-6.5,0.0,-941.88,-1466.99,0.0,135.0,153.0,462.0,0.0,0.0,0.0,0.0,0.0,0.0,0.0,0.0,0.0,0.0,0.0,0.0,0.0,0.0
22.0,2762.0,0.0,0.0,-0.0,0.0,2762.0,0.0,29943.22137504661,0.0,29943.221375046607,0.0,0.0,0.5359013605442177,0.3267071077039554,0.7868251097907506,0.0,0.0,0.0,"[2.0, 1.0843533976777735, 0.9526924507291454, 0.6854279963744538, 1.4738746246251822, 2.0, 2.0, 2.0]",20.0,0.0,0.0,0.0,673.8047927827222,151.7443350732886,-1317.680072089365,182.08375690975225,327.2240274455408,0.0,0.0,0.0,0.0,0.0,0.0,-6.3,20.110357347462045,0.0,19.82502268754171,0.0,-6.3,20.0,18.4,21.25,19.62,20.74,-6.73,-6.3,7735.01,-934.77,-1455.92,0.0,314.0,56.0,332.0,0.0,0.0,0.0,0.0,0.0,0.0,0.0,0.0,0.0,0.0,0.0,0.0,0.0,0.0
23.0,1549.0,17249.506493611367,9225.144617704002,-0.0,0.0,-6389.114343439308,0.0,18158.852800162844,0.0,0.0,0.0,18158.85280016284,0.7967901962346561,0.3267071077039554,0.774812709894083,0.0,0.0,0.0,"[2.0, 1.0843533976777735, 0.9526924507291454, 0.6854279963744538, 1.4738746246251822, 2.0, 2.0, 2.0]",20.0,0.0,0.0,0.0,404.14191232386287,70.65595601849999,-1312.6698817011923,60.11558063980545,8808.521746126054,0.0,0.0,0.0,0.0,0.0,0.0,-6.2,20.049461904259214,0.0,19.746981299688613,0.0,-6.2,20.0,18.36,21.13,19.62,20.68,-6.61,-6.2,5831.66,-931.21,-1450.38,0.0,160.0,15.0,216.0,0.0,0.0,0.0,0.0,0.0,0.0,0.0,0.0,0.0,0.0,0.0,0.0,0.0,0.0
24.0,2428.0,20592.71790735084,18061.754317814088,-0.0,0.0,0.0,0.0,19074.856234841835,0.0,-16650.24218974428,0.0,35725.09842458611,0.7967901962346561,0.3946955966454112,0.774812709894083,0.0,0.0,0.0,"[2.0, 1.0843533976777735, 0.9526924507291454, 0.6854279963744538, 1.4738746246251822, 2.0, 2.0, 2.0]",24.0,0.0,0.0,0.0,437.40926192568764,114.95988241936192,-1508.0673068399196,-5258.928637284779,0.0,0.0,0.0,0.0,0.0,0.0,0.0,-6.1,21.400352864286678,0.0,19.92868220296741,0.0,-6.1,24.0,18.46,21.4,22.71,22.92,-6.52,-6.1,2757.76,-1069.83,-1666.28,0.0,320.0,2.0,158.0,0.0,0.0,0.0,0.0,0.0,0.0,0.0,0.0,0.0,0.0,0.0,0.0,0.0,0.0
25.0,1871.0,0.0,5363.513116006942,-0.0,0.0,7234.513116006942,0.0,10659.848678231556,0.0,0.0,0.0,10659.848678231554,0.489200352867014,0.3946955966454112,0.774812709894083,0.0,0.0,0.0,"[2.0, 1.0843533976777735, 0.9526924507291454, 0.6854279963744538, 1.4738746246251822, 2.0, 2.0, 2.0]",20.9,0.0,0.0,0.0,459.89291557607345,114.31632385543504,-1347.491538313723,-884.476846056557,7898.339076590165,0.0,0.0,0.0,0.0,0.0,0.0,-6.0,20.474016332453893,0.0,19.946997356179317,0.0,-6.0,20.9,18.48,21.42,20.06,21.11,-6.39,-6.0,6693.24,-955.92,-1488.86,0.0,320.0,0.0,175.0,0.0,0.0,0.0,0.0,0.0,0.0,0.0,0.0,0.0,0.0,0.0,0.0,0.0,0.0
26.0,767.0,770.8542713567839,0.0,-0.0,0.0,0.0,0.0,28998.9625185927,0.0,28998.9625185927,0.0,0.0,0.489200352867014,0.27140068797792527,0.774812709894083,0.0,0.0,0.0,"[2.0, 1.0843533976777735, 0.9526924507291454, 0.6854279963744538, 1.4738746246251822, 2.0, 2.0, 2.0]",24.0,0.0,0.0,0.0,372.84804956282426,112.11467613673776,-1488.0265452872295,-4962.2970952056485,5978.051839079842,0.0,0.0,0.0,0.0,0.0,0.0,-5.7,21.547924218745667,0.0,20.12192810148919,0.0,-5.7,24.0,18.58,21.67,22.69,23.02,-6.08,-5.7,5579.04,-1055.61,-1644.13,0.0,320.0,0.0,110.0,0.0,0.0,0.0,0.0,0.0,0.0,0.0,0.0,0.0,0.0,0.0,0.0,0.0,0.0
27.0,435.0,437.1859296482412,0.0,-0.0,0.0,0.0,0.0,13666.512422388992,0.0,13666.512422388992,0.0,0.0,0.489200352867014,0.21329476781470674,0.774812709894083,0.0,0.0,0.0,"[2.0, 1.0843533976777735, 0.9526924507291454, 0.6854279963744538, 1.4738746246251822, 2.0, 2.0, 2.0]",24.0,0.0,0.0,0.0,312.5862192459595,110.59045848533196,-1478.0061645108847,-4659.563755561333,0.0,0.0,0.0,0.0,0.0,0.0,0.0,-5.5,21.698706562425127,0.0,20.319149655371813,0.0,-5.5,24.0,18.69,21.95,22.5,23.02,-5.87,-5.5,0.0,-1048.5,-1633.06,0.0,320.0,0.0,65.0,0.0,0.0,0.0,0.0,0.0,0.0,0.0,0.0,0.0,0.0,0.0,0.0,0.0,0.0
28.0,574.0,63827.9452235833,62934.805497465386,-0.0,0.0,0.0,0.0,48681.21870124948,0.0,-80000.0,0.0,128681.21870124948,0.489200352867014,0.5399614344813735,0.7748127098940827,0.0,0.0,0.0,"[2.0, 1.0843533976777735, 0.9526924507291454, 0.6854279963744538, 1.4738746246251822, 2.0, 2.0, 2.0]",21.14,0.0,0.0,0.0,291.44171738039284,111.2678885526234,-1329.9385159278545,-663.8368623312941,7330.572475113214,0.0,0.0,0.0,0.0,0.0,0.0,-5.4,20.833402054061256,0.0,20.320992111487605,0.0,-5.4,21.14,18.71,21.93,20.34,21.53,-5.77,-5.4,0.0,-943.46,-1469.46,0.0,320.0,2.0,49.0,0.0,0.0,0.0,0.0,0.0,0.0,0.0,0.0,0.0,0.0,0.0,0.0,0.0,0.0
29.0,1291.0,0.0,0.0,-0.0,0.0,1291.0,0.0,22573.96389084708,0.0,22573.963890847077,0.0,0.0,0.4343108970847011,0.44398369685022093,0.7748127098940827,0.0,0.0,0.0,"[2.0, 1.0843533976777735, 0.9526924507291454, 0.6854279963744538, 1.4738746246251822, 2.0, 2.0, 2.0]",24.0,0.0,0.0,0.0,291.30075403462246,145.20713492392593,-1462.975593346367,-4436.823238976685,0.0,0.0,0.0,0.0,0.0,0.0,0.0,-5.2,21.809535432439755,0.0,20.469229298314996,0.0,-5.2,24.0,18.8,22.13,22.76,23.27,-5.56,-5.2,0.0,-1037.84,-1616.46,0.0,320.0,58.0,43.0,0.0,0.0,0.0,0.0,0.0,0.0,0.0,0.0,0.0,0.0,0.0,0.0,0.0,0.0
30.0,782.0,785.929648241206,0.0,-0.0,0.0,0.0,0.0,18880.084998193604,0.0,18880.0849981936,0.0,0.0,0.4343108970847011,0.363711226619806,0.7748127098940827,0.0,0.0,0.0,"[2.0, 1.0843533976777735, 0.9526924507291454, 0.6854279963744538, 1.4738746246251822, 2.0, 2.0, 2.0]",21.27,0.0,0.0,0.0,541.5811744500458,280.320561845209,-1321.0825626088745,-619.448615451809,0.0,0.0,0.0,0.0,0.0,0.0,0.0,-5.1,20.97864600698921,0.0,20.467982098136446,0.0,-5.1,21.27,18.82,22.11,20.48,21.69,-5.47,-5.1,0.0,-937.18,-1459.68,0.0,676.0,82.0,40.0,0.0,0.0,0.0,0.0,0.0,0.0,0.0,0.0,0.0,0.0,0.0,0.0,0.0,0.0
31.0,707.0,12629.823448023571,11859.674330783453,-0.0,0.0,0.0,0.0,24701.426381038167,0.0,0.0,0.0,24701.426381038167,0.4343108970847011,0.363711226619806,0.7748127098940827,0.0,0.0,0.0,"[2.0, 1.0843533976777735, 0.9526924507291454, 0.6854279963744538, 1.4738746246251822, 2.0, 2.0, 2.0]",20.69,0.0,0.0,0.0,390.11605941970373,199.33379730051416,-1287.3365243295214,71.92292082357451,7274.681470005906,0.0,0.0,0.0,0.0,0.0,0.0,-5.0,20.749305378557054,0.0,20.399955424215392,0.0,-5.0,20.69,18.81,21.99,20.25,21.47,-5.36,-5.0,0.0,-913.24,-1422.39,0.0,411.0,95.0,65.0,0.0,0.0,0.0,0.0,0.0,0.0,0.0,0.0,0.0,0.0,0.0,0.0,0.0,0.0
32.0,890.0,0.0,0.0,-0.0,0.0,890.0,0.0,3550.6482954797143,0.0,3550.6482954797143,0.0,0.0,0.39647076103027934,0.34861493284650785,0.7748127098940827,0.0,0.0,0.0,"[1.9980383648048985, 1.0843533976777735, 0.9344032931375814, 0.6854279963744538, 1.2509958603490041, 2.0, 1.3134112400264293, 2.0]",24.0,0.0,0.0,1.0160283665544698,337.3957681015577,158.28153522265123,-1442.8365501356811,-4343.02409944936,0.0,0.0,0.0,0.0,0.0,0.0,0.0,-4.8,21.854048954281026,0.0,20.539123084211937,0.0,-4.8,24.0,18.9,22.18,22.84,23.32,-5.17,-4.8,0.0,-1023.55,-1594.2,1.5,342.0,66.0,65.0,0.0,0.0,0.0,0.0,0.0,0.0,0.0,0.0,0.0,0.0,0.0,0.0,0.0,0.0
33.0,783.0,45826.848615127405,44821.41455941948,-0.0,6.700187367709178,0.0,0.0,18481.96324850776,0.0,-80000.0,0.0,98481.96324850776,0.39647076103027934,0.6752815995131746,0.7748127098940827,0.0,0.0,0.0,"[1.9980383648048985, 1.0843533976777735, 0.9344032931375814, 0.6854279963744538, 1.2509958603490041, 2.0, 1.3134112400264293, 2.0]",21.35,0.0,0.0,31.384571153966576,376.4426148799706,137.4844321568032,-1260.1640795636447,-643.180584025107,5323.061326668273,0.0,0.0,0.0,0.0,0.0,0.0,-3.8,21.04999968219299,0.0,20.538841551809096,0.0,-3.8,21.35,18.92,22.16,20.57,21.76,-4.12,-3.8,7680.12,-893.97,-1392.37,46.33,327.0,38.0,105.0,0.0,0.0,0.0,0.0,0.0,0.0,0.0,0.0,0.0,0.0,0.0,0.0,0.0,0.0
34.0,2167.0,10266.323919027309,0.0,-0.0,116.71770056782992,0.0,0.0,15976.973041344463,40823.55,48635.81304134447,0.0,0.0,0.39647076103027934,0.4684966801197032,0.7748127098940827,32658.840000000004,8164.710000000001,40823.55,"[1.9980383648048985, 1.0843533976777735, 0.9344032931375814, 0.6854279963744538, 1.2509958603490041, 2.0, 1.3134112400264293, 2.0]",23.32,0.0,0.0,61.72604098987979,410.62622622930337,118.34703275581927,-1303.6985568898162,-3259.777049977401,0.0,0.0,0.0,0.0,0.0,0.0,0.0,-2.7,21.7149659428209,0.0,20.63274052699526,0.0,-2.7,23.32,18.99,22.28,22.28,22.97,-3.02,-2.7,0.0,-924.85,-1440.47,91.12,310.0,14.0,142.0,0.0,0.0,0.0,0.0,0.0,0.0,0.0,0.0,0.0,0.0,0.0,0.0,0.0,0.0
35.0,1790.0,23.48188237262717,0.0,-0.0,580.0965422424217,1186.5389847968142,0.0,13843.743318335291,0.0,13843.74331833529,0.0,0.0,0.3460226749419794,0.40963722723562457,0.7748127098940827,0.0,0.0,0.0,"[1.9980383648048985, 1.0843533976777735, 0.9344032931375814, 0.6854279963744538, 1.2509958603490041, 2.0, 1.3134112400264293, 2.0]",21.33,0.0,0.0,96.36038072550507,309.20309894746885,67.50590620559467,-1154.0018989222938,-505.3949469336496,6540.318947484825,0.0,0.0,0.0,0.0,0.0,0.0,-1.7,21.09820191536902,0.0,20.61852686030025,0.0,-1.7,21.33,19.0,22.23,20.61,21.81,-2.0,-1.7,1070.31,-818.65,-1275.07,142.24,186.0,0.0,133.0,0.0,0.0,0.0,0.0,0.0,0.0,0.0,0.0,0.0,0.0,0.0,0.0,0.0,0.0
36.0,3116.0,0.0,5847.544371911075,-0.0,825.0910572757186,8138.453314635357,0.0,14409.17049090907,0.0,0.0,0.0,14409.170490909071,0.0,0.40963722723562457,0.7748127098940827,0.0,0.0,0.0,"[1.9980383648048985, 1.0843533976777735, 0.9344032931375814, 0.6854279963744538, 1.2509958603490041, 2.0, 1.3134112400264293, 2.0]",24.0,0.0,0.0,107.20311545964236,1425.0689440663032,74.55117890542593,-1252.4493153851265,-4036.8420307074985,0.0,0.0,0.0,0.0,0.0,0.0,0.0,-1.0,22.003948802135636,0.0,20.752603720289585,0.0,-1.0,24.0,19.1,22.4,22.82,23.39,-1.4,-1.0,0.0,-888.49,-1383.84,158.25,120.0,0.0,1001.0,0.0,0.0,0.0,0.0,0.0,0.0,0.0,0.0,0.0,0.0,0.0,0.0,0.0,0.0
37.0,1447.0,1216.1952188597825,0.0,-0.0,236.8857572345164,0.0,0.0,7705.63289673158,0.0,7705.63289673158,0.0,0.0,0.0,0.37687518260666375,0.7527253939550489,0.0,0.0,0.0,"[1.9980383648048985, 1.0843533976777735, 0.9344032931375814, 0.6854279963744538, 1.2509958603490041, 2.0, 1.3134112400264293, 2.0]",22.16,0.0,0.0,74.92303942939316,348.24994572588184,88.7094673118176,-1145.184426404264,-1433.288126112442,0.0,0.0,0.0,0.0,0.0,0.0,0.0,-0.7,21.459550201134082,0.0,20.775434941534765,0.0,-0.7,22.16,19.15,22.4,21.07,22.19,-1.13,-0.7,0.0,-812.4,-1265.32,110.6,249.0,0.0,129.0,0.0,0.0,0.0,0.0,0.0,0.0,0.0,0.0,0.0,0.0,0.0,0.0,0.0,0.0
38.0,3108.0,48915.40908130079,45563.06214366837,-0.0,0.23010777408477723,0.0,0.0,30970.683485741363,0.0,-80000.0,0.0,110970.68348574138,0.0,0.7035418492733305,0.7527253939550484,0.0,0.0,0.0,"[1.9980383648048985, 1.0843533976777735, 0.9344032931375814, 0.6854279963744538, 1.2509958603490041, 2.0, 1.3134112400264293, 2.0]",21.12,0.0,0.0,17.61170839352506,1652.7247474855699,68.11559326615699,-1123.346457049532,-68.71809651909668,0.0,0.0,0.0,0.0,0.0,0.0,0.0,-1.3,21.10368267544143,0.0,20.727083237579993,0.0,-1.3,21.12,19.15,22.3,20.57,21.79,-1.7,-1.3,8061.24,-796.91,-1241.2,26.0,82.0,0.0,1191.0,0.0,0.0,0.0,0.0,0.0,0.0,0.0,0.0,0.0,0.0,0.0,0.0,0.0,0.0
39.0,1719.0,1727.6381909547738,0.0,-0.0,0.0,0.0,0.0,0.0,0.0,0.0,0.0,0.0,0.0,0.7035418492733305,0.7527253939550484,0.0,0.0,0.0,"[1.9980383648048985, 1.0843533976777735, 0.9344032931375814, 0.6854279963744538, 1.2509958603490041, 2.0, 1.3134112400264293, 2.0]",21.39,0.0,0.0,2.0210376219611086,622.2826899036247,42.373250709081255,-1166.8577685530674,-548.5158359494537,0.0,0.0,0.0,0.0,0.0,0.0,0.0,-1.9,21.13356396875841,0.0,20.666099754551723,0.0,-1.9,21.39,19.14,22.19,20.64,21.78,-2.31,-1.9,0.0,-827.77,-1289.27,2.98,83.0,0.0,421.0,0.0,0.0,0.0,0.0,0.0,0.0,0.0,0.0,0.0,0.0,0.0,0.0,0.0,0.0
40.0,3383.0,18572.27900618624,0.0,-0.0,0.0,-15096.417611155308,0.0,25372.90748691599,0.0,25372.907486915992,0.0,0.0,0.6164370524555084,0.5956638412507285,0.7527253939550484,0.0,0.0,0.0,"[1.9980383648048985, 1.0843533976777735, 0.9344032931375814, 0.6854279963744538, 1.2509958603490041, 2.0, 1.3134112400264293, 2.0]",20.86,0.0,0.0,0.0,513.8113953332683,129.72785788631586,-1150.5613595022576,70.21795025486414,6736.553749813901,0.0,0.0,0.0,0.0,0.0,0.0,-2.1,20.91655858924383,0.0,20.595381208861355,0.0,-2.1,20.86,19.13,22.06,20.36,21.52,-2.52,-2.1,7310.55,-816.21,-1271.27,0.0,326.0,20.0,210.0,0.0,0.0,0.0,0.0,0.0,0.0,0.0,0.0,0.0,0.0,0.0,0.0,0.0,0.0
41.0,6663.0,0.0,0.0,-0.0,0.0,6663.0,0.0,0.0,0.0,0.0,0.0,0.0,0.3331462361289778,0.5956638412507285,0.7527253939550484,0.0,0.0,0.0,"[1.9980383648048985, 1.0843533976777735, 0.9344032931375814, 0.6854279963744538, 1.2509958603490041, 2.0, 1.3134112400264293, 2.0]",24.0,0.0,0.0,0.0,629.1898938463765,202.991919663888,-1317.581790431369,-4120.730820880361,0.0,0.0,0.0,0.0,0.0,0.0,0.0,-2.3,21.963081586450695,0.0,20.725925028767158,0.0,-2.3,24.0,19.21,22.24,22.86,23.3,-2.71,-2.3,4119.09,-934.7,-1455.81,0.0,447.0,72.0,227.0,0.0,0.0,0.0,0.0,0.0,0.0,0.0,0.0,0.0,0.0,0.0,0.0,0.0,0.0
42.0,5181.0,5207.035175879397,0.0,-0.0,0.0,0.0,0.0,13262.311315696423,0.0,13262.311315696421,0.0,0.0,0.3331462361289778,0.5392764632078015,0.6364763626969756,0.0,0.0,0.0,"[1.9980383648048985, 1.0843533976777735, 0.9344032931375814, 0.6854279963744538, 1.2509958603490041, 2.0, 1.3134112400264293, 2.0]",21.69,0.0,0.0,0.0,499.6445790833386,149.407201341133,-1211.9676790769274,-877.7756021409209,0.0,0.0,0.0,0.0,0.0,0.0,0.0,-2.5,21.27046238413062,0.0,20.737318194735998,0.0,-2.5,21.69,19.24,22.24,20.88,21.94,-2.96,-2.5,0.0,-859.78,-1339.11,0.0,243.0,97.0,235.0,0.0,0.0,0.0,0.0,0.0,0.0,0.0,0.0,0.0,0.0,0.0,0.0,0.0,0.0
43.0,4331.0,0.0,3504.5994737535593,-0.0,0.0,7835.599473753559,0.0,8067.848067813968,0.0,0.0,0.0,8067.848067813968,0.0,0.5392764632078015,0.6318264014466527,0.0,0.0,0.0,"[1.9980383648048985, 1.0843533976777735, 0.9344032931375814, 0.6854279963744538, 1.2509958603490041, 2.0, 1.3134112400264293, 2.0]",20.96,0.0,0.0,0.0,2628.120618544157,249.7007228036347,-1185.5773194349376,38.31286904766465,0.0,0.0,0.0,0.0,0.0,0.0,0.0,-2.7,21.000095535613298,0.0,20.675706028604033,0.0,-2.7,20.96,19.22,22.13,20.5,21.63,-3.17,-2.7,0.0,-841.05,-1309.96,0.0,384.0,99.0,1750.0,0.0,0.0,0.0,0.0,0.0,0.0,0.0,0.0,0.0,0.0,0.0,0.0,0.0,0.0
44.0,5405.0,21512.56281407035,0.0,-0.0,0.0,-16000.0,0.0,230.52062285063147,0.0,230.52062285063147,0.0,0.0,0.6533333333333333,0.53731625382982,0.6318264014466527,0.0,0.0,0.0,"[0.8118423989470358, 1.084353397677777, 0.9344032931375814, 0.6127115314604659, 0.39150557305665856, 0.6950292603640307, 0.8120847873526458, 0.924651902380571]",21.81,0.0,0.0,0.0,1005.9849170907733,223.78902272973608,-1238.1207129343145,-1217.6554766749096,0.0,0.0,0.0,0.0,0.0,0.0,0.0,-2.9,21.223373452889867,0.0,20.635246084993796,0.0,-2.9,21.81,19.21,22.06,20.93,21.88,-3.34,-2.9,0.0,-878.33,-1368.01,0.0,501.0,62.0,481.0,0.0,0.0,0.0,0.0,0.0,0.0,0.0,0.0,0.0,0.0,0.0,0.0,0.0,0.0
45.0,6810.0,0.0,2812.2498942546745,-0.0,0.0,9622.249894254674,0.0,16276.340162901784,0.0,9909.572372080947,0.0,6366.767790820833,0.2442240691218251,0.4951837182342376,0.6318264014466527,0.0,0.0,0.0,"[0.8118423989470358, 1.084353397677777, 0.9344032931375814, 0.6127115314604659, 0.39150557305665856, 0.6950292603640307, 0.8120847873526458, 0.924651902380571]",21.19,0.0,0.0,0.0,903.3636013698901,152.52337965067377,-1216.8829375921418,-412.9251202470705,3847.7974462935053,0.0,0.0,0.0,0.0,0.0,0.0,-3.1,21.00039625287851,0.0,20.593460658825443,0.0,-3.1,21.19,19.2,21.98,20.61,21.63,-3.55,-3.1,2556.2,-863.26,-1344.55,0.0,321.0,44.0,501.0,0.0,0.0,0.0,0.0,0.0,0.0,0.0,0.0,0.0,0.0,0.0,0.0,0.0,0.0
46.0,4003.0,0.0,0.0,-0.0,0.0,4003.0,0.0,17912.263783420356,0.0,17912.263783420352,0.0,0.0,0.07402849089053265,0.4190261341210557,0.6318264014466527,0.0,0.0,0.0,"[0.8118423989470358, 1.084353397677777, 0.9344032931375814, 0.6127115314604659, 0.39150557305665856, 0.6950292603640307, 0.8120847873526458, 0.924651902380571]",22.81,0.0,0.0,0.0,672.0427509605915,216.26954898280079,-1308.2530180467934,-2602.7347386890856,3047.15628808235,0.0,0.0,0.0,0.0,0.0,0.0,-3.3,21.533640819083665,0.0,20.649445722770064,0.0,-3.3,22.81,19.24,22.06,21.9,22.54,-3.78,-3.3,0.0,-928.08,-1445.5,0.0,536.0,45.0,215.0,0.0,0.0,0.0,0.0,0.0,0.0,0.0,0.0,0.0,0.0,0.0,0.0,0.0,0.0
47.0,2599.0,2612.0603015075376,0.0,-0.0,0.0,0.0,0.0,10804.972427337503,0.0,10804.972427337503,0.0,0.0,0.07402849089053265,0.37308662550142346,0.6318264014466527,0.0,0.0,0.0,"[0.8118423989470358, 1.084353397677777, 0.9344032931375814, 0.6127115314604659, 0.39150557305665856, 0.6950292603640307, 0.8120847873526458, 0.924651902380571]",22.81,0.0,0.0,0.0,353.677034538044,123.36001525377611,-1313.263208434966,-2489.000805601244,3335.4392032964306,0.0,0.0,0.0,0.0,0.0,0.0,-3.4,21.590417053063682,0.0,20.724693193806658,0.0,-3.4,22.81,19.29,22.16,21.85,22.55,-3.87,-3.4,4378.3,-931.63,-1451.04,0.0,332.0,13.0,88.0,0.0,0.0,0.0,0.0,0.0,0.0,0.0,0.0,0.0,0.0,0.0,0.0,0.0,0.0
48.0,1687.0,0.0,0.0,-0.0,0.0,1687.0,0.0,16962.777917947646,0.0,16962.777917947646,0.0,0.0,0.0023023004143422066,0.30096597108838075,0.6318264014466527,0.0,0.0,0.0,"[0.8118423989470358, 1.084353397677777, 0.9344032931375814, 0.6127115314604659, 0.39150557305665856, 0.6950292603640307, 0.8120847873526458, 0.924651902380571]",22.81,0.0,0.0,0.0,291.159790688852,121.56482557545377,-1373.2917783511618,-2381.9218878408947,3360.001304385034,0.0,0.0,0.0,0.0,0.0,0.0,-4.6,21.642800919829433,0.0,20.795174559647876,0.0,-4.6,22.81,19.34,22.25,21.88,22.61,-5.06,-4.6,0.0,-974.22,-1517.36,0.0,320.0,19.0,47.0,0.0,0.0,0.0,0.0,0.0,0.0,0.0,0.0,0.0,0.0,0.0,0.0,0.0,0.0
49.0,3578.0,19676.381909547737,0.0,-0.0,0.0,-16000.0,0.0,23609.252955120424,0.0,23609.25295512042,0.0,0.0,0.6556356337476755,0.20058649423837896,0.6318264014466527,0.0,0.0,0.0,"[0.8118423989470358, 1.084353397677777, 0.9344032931375814, 0.6127115314604659, 0.39150557305665856, 0.6950292603640307, 0.8120847873526458, 0.924651902380571]",22.81,0.0,0.0,0.0,438.1140786545398,118.00831772217354,-1433.5077777511053,-2289.8041295310054,3180.547571393084,0.0,0.0,0.0,0.0,0.0,0.0,-5.8,21.691476249695476,0.0,20.858851853718615,0.0,-5.8,22.81,19.38,22.34,21.91,22.67,-6.25,-5.8,4796.36,-1016.94,-1583.9,0.0,320.0,7.0,158.0,0.0,0.0,0.0,0.0,0.0,0.0,0.0,0.0,0.0,0.0,0.0,0.0,0.0,0.0
50.0,1098.0,15204.055821672024,0.0,-0.0,0.0,0.0,0.0,12627.031988307292,0.0,0.0,0.0,0.0,0.6556356337476755,0.20058649423837896,0.6318264014466527,56120.14217025466,14030.035542563664,70150.17771281832,"[0.8118423989470358, 1.084353397677777, 0.9344032931375814, 0.6127115314604659, 0.39150557305665856, 0.6950292603640307, 0.8120847873526458, 0.924651902380571]",22.81,0.0,0.0,0.0,293.8380942584904,110.11625743822793,-1493.6300624091755,-2209.143045219171,54.67212268568225,0.0,0.0,0.0,0.0,0.0,0.0,-7.0,21.732589150470034,0.0,20.912922614053237,0.0,-7.0,22.81,19.41,22.41,21.91,22.7,-7.48,-7.0,162.16,-1059.59,-1650.33,0.0,320.0,0.0,51.0,0.0,0.0,0.0,0.0,0.0,0.0,0.0,0.0,0.0,0.0,0.0,0.0,0.0,0.0
51.0,813.0,0.0,0.0,-0.0,0.0,813.0,0.0,7141.923142176171,0.0,7141.923142176171,0.0,0.0,0.6210693072170633,0.17022117475633738,0.6318264014466527,0.0,0.0,0.0,"[0.8118423989470358, 1.084353397677777, 0.9344032931375814, 0.6127115314604659, 0.39150557305665856, 0.6950292603640307, 0.8120847873526458, 0.924651902380571]",21.19,0.0,0.0,0.0,421.05751381631615,113.33405025786242,-1442.3415050599037,-18.208952533224018,938.9878459850137,0.0,0.0,0.0,0.0,0.0,0.0,-7.6,21.20051871865453,0.0,20.860641699327516,0.0,-7.6,21.19,19.39,22.34,20.69,21.83,-8.09,-7.6,4099.81,-1023.2,-1593.66,0.0,320.0,0.0,146.0,0.0,0.0,0.0,0.0,0.0,0.0,0.0,0.0,0.0,0.0,0.0,0.0,0.0,0.0
52.0,476.0,478.391959798995,0.0,-0.0,0.0,0.0,0.0,16217.44623705261,0.0,16217.446237052609,0.0,0.0,0.6210693072170633,0.10126944755798448,0.6318264014466527,0.0,0.0,0.0,"[0.8118423989470358, 1.084353397677777, 0.9344032931375814, 0.6127115314604659, 0.39150557305665856, 0.6950292603640307, 0.8120847873526458, 0.924651902380571]",21.19,0.0,0.0,0.0,233.64674561451082,114.65503888908076,-1477.412837777111,-126.10593125243713,1268.1954675198863,0.0,0.0,0.0,0.0,0.0,0.0,-8.3,21.147246668069794,0.0,20.791468638796484,0.0,-8.3,21.19,19.35,22.24,20.78,21.85,-8.8,-8.3,0.0,-1048.08,-1632.41,0.0,320.0,10.0,5.0,0.0,0.0,0.0,0.0,0.0,0.0,0.0,0.0,0.0,0.0,0.0,0.0,0.0,0.0
53.0,539.0,0.0,14068.55010574533,-0.0,0.0,14607.55010574533,0.0,24071.41843334007,0.0,0.0,0.0,24071.418433340074,0.0,0.10126944755798448,0.6318264014466527,0.0,0.0,0.0,"[0.8118423989470358, 1.084353397677777, 0.9344032931375814, 0.6127115314604659, 0.39150557305665856, 0.6950292603640307, 0.8120847873526458, 0.924651902380571]",21.19,0.0,0.0,0.0,319.63438653448173,118.04218922553808,-1507.473980106146,-219.9544173394877,4559.725060972046,0.0,0.0,0.0,0.0,0.0,0.0,-8.9,21.100908671703174,0.0,20.730414889247985,0.0,-8.9,21.19,19.31,22.15,20.8,21.83,-9.42,-8.9,3579.38,-1069.41,-1665.62,0.0,320.0,12.0,69.0,0.0,0.0,0.0,0.0,0.0,0.0,0.0,0.0,0.0,0.0,0.0,0.0,0.0,0.0
54.0,700.0,2020.9790235636412,1310.874128445823,-0.0,0.0,0.0,0.0,2180.432845755042,0.0,0.0,0.0,2180.432845755042,0.0,0.10126944755798448,0.6318264014466527,0.0,0.0,0.0,"[0.8118423989470358, 1.084353397677777, 0.9344032931375814, 0.6127115314604659, 0.39150557305665856, 0.6950292603640307, 0.8120847873526458, 0.924651902380571]",22.81,0.0,0.0,0.0,596.9092876649449,211.05333746465647,-1613.874631725315,-2423.0573488977466,0.0,0.0,0.0,0.0,0.0,0.0,0.0,-9.4,21.62772517910343,0.0,20.774392667445472,0.0,-9.4,22.81,19.32,22.22,22.04,22.71,-9.92,-9.4,0.0,-1144.89,-1783.19,0.0,588.0,12.0,135.0,0.0,0.0,0.0,0.0,0.0,0.0,0.0,0.0,0.0,0.0,0.0,0.0,0.0,0.0
55.0,1233.0,15949.767841522595,0.0,-0.0,0.0,-14637.01900231498,0.0,14735.883425450644,0.0,14735.88342545064,0.0,0.0,0.5976782759278617,0.0386168819735855,0.6318264014466527,0.0,0.0,0.0,"[0.8118423989470358, 1.084353397677777, 0.9344032931375814, 0.6127115314604659, 0.39150557305665856, 0.6950292603640307, 0.8120847873526458, 0.924651902380571]",21.19,0.0,0.0,0.0,493.86508190675033,165.05583589556588,-1557.6695987297267,-220.09185343560478,1133.772570333419,0.0,0.0,0.0,0.0,0.0,0.0,-9.9,21.103455537726298,0.0,20.729278359238783,0.0,-9.9,21.19,19.29,22.17,20.66,21.74,-10.43,-9.9,5186.13,-1105.02,-1721.08,0.0,432.0,23.0,139.0,0.0,0.0,0.0,0.0,0.0,0.0,0.0,0.0,0.0,0.0,0.0,0.0,0.0,0.0
56.0,1211.0,24859.739757947547,0.0,-0.0,0.0,-15635.825974385833,0.0,7099.75357629478,0.0,0.0,0.0,0.0,1.0,0.0386168819735855,0.6318264014466527,31554.460339087924,7888.615084771981,39443.075423859904,"[0.8118423989470358, 1.084353397677777, 0.934403293137585, 0.6127115314604659, 0.39150557305665856, 0.6950292603640307, 0.8120847873526458, 0.924651902380571]",21.19,0.0,0.0,4.204669920310825,867.3474665255418,215.8969624457905,-1547.555503211526,-308.20509471724654,792.8066371541296,0.0,0.0,0.0,0.0,0.0,0.0,-9.7,21.057515693448934,0.0,20.668343203870872,0.0,-9.7,21.19,19.25,22.09,20.77,21.79,-10.25,-9.7,366.32,-1097.84,-1709.91,6.21,544.0,32.0,358.0,0.0,0.0,0.0,0.0,0.0,0.0,0.0,0.0,0.0,0.0,0.0,0.0,0.0,0.0
57.0,1703.0,106883.28719314959,0.0,-0.0,8201.50714863608,0.0,0.0,21562.640115237915,0.0,-80000.0,0.0,0.0,1.0,0.3652835486402522,0.6318264014466527,451389.51162327966,112847.37790581991,564236.8895290996,"[0.8118423989470358, 1.084353397677777, 0.934403293137585, 0.6127115314604659, 0.39150557305665856, 0.6950292603640307, 0.8120847873526458, 0.924651902380571]",21.19,0.0,0.0,1094.6485483062868,723.7058171854593,221.2486599773931,-1427.3109338953861,-392.3430944382782,0.0,0.0,0.0,0.0,0.0,0.0,0.0,-7.3,21.013244543240233,0.0,20.60879101310106,0.0,-7.3,21.19,19.21,22.01,20.72,21.72,-7.08,-7.3,310.97,-1012.54,-1577.05,1615.88,572.0,32.0,236.0,0.0,0.0,0.0,0.0,0.0,0.0,0.0,0.0,0.0,0.0,0.0,0.0,0.0,0.0
58.0,1694.0,0.0,0.0,-5907.844186774089,14136.534767734316,0.0,0.0,5881.221522864203,0.0,0.0,0.0,0.0,1.0,0.3652835486402522,0.646483837656877,26138.762323840907,6534.690580960227,32673.45290480113,"[0.8118423989470358, 1.084353397677777, 0.934403293137585, 0.6127115314604659, 0.39150557305665856, 0.6950292603640307, 0.8120847873526458, 0.924651902380571]",21.28,0.0,0.0,1506.619003551587,970.6031173023919,185.92068196814307,-1326.5983051386456,-534.1182087889939,0.0,0.0,0.0,0.0,0.0,0.0,0.0,-5.2,21.030774278399132,0.0,20.595754813887343,0.0,-5.2,21.28,19.2,22.0,21.04,21.94,-4.77,-5.2,0.0,-941.09,-1465.77,2224.02,450.0,28.0,485.0,0.0,0.0,0.0,0.0,0.0,0.0,0.0,0.0,0.0,0.0,0.0,0.0,0.0,0.0
59.0,1520.0,0.0,0.0,-2265.5759505704245,17748.164431958634,0.0,0.0,12566.329633249385,0.0,0.0,0.0,0.0,1.0,0.3652835486402522,0.6521047602684188,55850.35392555284,13962.58848138821,69812.94240694105,"[0.8118423989470358, 1.084353397677777, 0.934403293137585, 0.6127115314604659, 0.39150557305665856, 0.6950292603640307, 0.8120847873526458, 0.924651902380571]",21.66,0.0,0.0,1859.298648091357,1385.317280559038,174.9463148780213,-1255.4281031213986,-1029.371910798064,0.0,0.0,0.0,0.0,0.0,0.0,0.0,-3.4,21.162161933240522,0.0,20.618017638963686,0.0,-3.4,21.66,19.21,22.02,21.36,22.18,-2.78,-3.4,3134.46,-890.61,-1387.13,2744.64,436.0,0.0,805.0,0.0,0.0,0.0,0.0,0.0,0.0,0.0,0.0,0.0,0.0,0.0,0.0,0.0,0.0
60.0,1764.0,0.0,0.0,-16543.956801681936,18307.956801681936,0.0,0.0,6696.674458906654,0.0,6696.674458906654,0.0,0.0,1.0,0.33681129328775794,0.6931505265105664,0.0,0.0,0.0,"[0.8118423989470358, 1.084353397677777, 0.934403293137585, 0.6127115314604659, 0.39150557305665856, 0.6950292603640307, 0.8120847873526458, 0.924651902380571]",22.2,0.0,0.0,1915.0711915613733,831.6837400456193,180.19639789953018,-1232.5538163809538,-1692.3032183123216,0.0,0.0,0.0,0.0,0.0,0.0,0.0,-2.4,21.374727736121674,0.0,20.682399585151018,0.0,-2.4,22.2,19.26,22.11,21.77,22.5,-1.75,-2.4,1710.92,-874.38,-1361.86,2826.97,496.0,0.0,360.0,0.0,0.0,0.0,0.0,0.0,0.0,0.0,0.0,0.0,0.0,0.0,0.0,0.0,0.0
61.0,2849.0,0.0,7965.342562679055,-5363.644905825874,16177.987468504929,0.0,0.0,18792.42602467059,0.0,0.0,0.0,18792.42602467059,1.0,0.33681129328775794,0.7064577974161598,0.0,0.0,0.0,"[0.8118423989470358, 1.084353397677777, 0.934403293137585, 0.6127115314604659, 0.39150557305665856, 0.6950292603640307, 0.8120847873526458, 0.924651902380571]",22.18,0.0,0.0,1647.6015754411083,674.2276828200335,156.96054659143286,-1216.4234142399505,-1549.2161359535244,1596.0648349094745,0.0,0.0,0.0,0.0,0.0,0.0,-2.1,21.42399375790781,0.0,20.757764440458743,0.0,-2.1,22.18,19.31,22.2,21.81,22.57,-1.6,-2.1,1699.5,-862.94,-1344.04,2432.14,436.0,0.0,274.0,0.0,0.0,0.0,0.0,0.0,0.0,0.0,0.0,0.0,0.0,0.0,0.0,0.0,0.0
62.0,2739.0,6784.584540179287,13057.119749903444,-0.0,9045.458132425054,0.0,0.0,8373.22595563482,0.0,-21560.75515867901,0.0,29933.98111431383,1.0,0.4248510435190306,0.6963828813737934,0.0,0.0,0.0,"[0.8118423989470358, 1.084353397677777, 0.934403293137585, 0.6127115314604659, 0.39150557305665856, 0.6950292603640307, 0.8120847873526458, 0.924651902380571]",22.81,0.0,0.0,848.8000444094528,864.3872362643623,234.9327473366807,-1283.2020661059307,-2282.2993535108876,1655.3769079472736,0.0,0.0,0.0,0.0,0.0,0.0,-2.8,21.69268838179963,0.0,20.86098111919499,0.0,-2.8,22.81,19.38,22.34,22.27,22.94,-2.8,-2.8,2329.96,-910.31,-1417.82,1252.97,664.0,0.0,296.0,0.0,0.0,0.0,0.0,0.0,0.0,0.0,0.0,0.0,0.0,0.0,0.0,0.0,0.0
63.0,1412.0,0.0,6520.7987596175135,-0.0,0.0,7932.7987596175135,0.0,13954.561471111505,0.0,0.0,0.0,13954.561471111505,0.6627211411727247,0.4248510435190306,0.6963828813737934,0.0,0.0,0.0,"[0.8118423989470358, 1.084353397677777, 0.934403293137585, 0.6127115314604659, 0.39150557305665856, 0.6950292603640307, 0.8120847873526458, 0.924651902380571]",22.81,0.0,0.0,14.156090807619158,577.8792359859351,118.58413327937127,-1363.3651123166908,-2168.882567583826,2835.2416216599104,0.0,0.0,0.0,0.0,0.0,0.0,-4.4,21.750845239725262,0.0,20.939318701443696,0.0,-4.4,22.81,19.44,22.44,22.06,22.82,-5.0,-4.4,2826.22,-967.18,-1506.39,20.9,324.0,0.0,261.0,0.0,0.0,0.0,0.0,0.0,0.0,0.0,0.0,0.0,0.0,0.0,0.0,0.0,0.0
64.0,2896.0,0.0,0.0,-0.0,0.0,2896.0,0.0,9059.383837719666,0.0,9059.383837719666,0.0,0.0,0.5395918894720445,0.38633325509335176,0.6897954362691693,0.0,0.0,0.0,"[0.8118423989470358, 1.084353397677777, 0.934403293137585, 0.6127115314604659, 0.39150557305665856, 0.6950292603640307, 0.8120847873526458, 0.924651902380571]",22.81,0.0,0.0,0.0,557.862440886532,179.68832534906159,-1398.4364450338983,-2099.6754628691147,0.0,0.0,0.0,0.0,0.0,0.0,0.0,-5.1,21.785868260399806,0.0,20.98657994694237,0.0,-5.1,22.81,19.47,22.5,21.9,22.73,-5.7,-5.1,176.36,-992.06,-1545.15,0.0,414.0,54.0,193.0,0.0,0.0,0.0,0.0,0.0,0.0,0.0,0.0,0.0,0.0,0.0,0.0,0.0,0.0
65.0,5709.0,64585.1122524044,47277.88602515162,-0.0,0.0,-11275.300665990746,0.0,14414.335073289254,0.0,-80000.0,0.0,94414.33507328923,1.0,0.7129999217600185,0.6897954362691693,0.0,0.0,0.0,"[0.8118423989470358, 1.084353397677777, 0.934403293137585, 0.6127115314604659, 0.39150557305665856, 0.6950292603640307, 0.8120847873526458, 0.924651902380571]",21.43,0.0,0.0,0.0,2189.5131681794205,204.41452280520014,-1369.051443700517,-228.60097249974783,2007.7647434417233,0.0,0.0,0.0,0.0,0.0,0.0,-5.9,21.331802874272064,0.0,20.94370601657993,0.0,-5.9,21.43,19.46,22.43,20.86,21.98,-6.49,-5.9,0.0,-971.21,-1512.68,0.0,234.0,122.0,1499.0,0.0,0.0,0.0,0.0,0.0,0.0,0.0,0.0,0.0,0.0,0.0,0.0,0.0,0.0
66.0,6034.0,0.0,0.0,-0.0,0.0,6118.44329825144,0.0,3203.889989503552,0.0,3127.891021077256,0.0,0.0,0.7398621046661803,0.6997010653778872,0.6785580299142222,337.7731930057598,84.44329825143996,422.2164912571998,"[0.8118423989470358, 1.084353397677777, 0.934403293137585, 0.6127115314604659, 0.39150557305665856, 0.6950292603640307, 0.8120847873526458, 0.924651902380571]",22.81,0.0,0.0,0.0,1088.8008827309093,161.63481405574396,-1478.599491244658,-2161.9654327977332,0.0,0.0,0.0,0.0,0.0,0.0,0.0,-6.7,21.755956513279177,0.0,20.950463903478905,0.0,-6.7,22.81,19.47,22.43,21.81,22.63,-7.27,-6.7,0.0,-1048.92,-1633.72,0.0,246.0,91.0,674.0,0.0,0.0,0.0,0.0,0.0,0.0,0.0,0.0,0.0,0.0,0.0,0.0,0.0,0.0
67.0,4165.0,4185.929648241206,0.0,-0.0,0.0,0.0,0.0,2496.621812576969,0.0,2496.621812576969,0.0,0.0,0.7398621046661803,0.6890861767189715,0.6785580299142222,0.0,0.0,0.0,"[0.8118423989470358, 1.084353397677777, 0.934403293137585, 0.6127115314604659, 0.39150557305665856, 0.6950292603640307, 0.8120847873526458, 0.924651902380571]",21.61,0.0,0.0,0.0,726.3136390822125,200.34994240145133,-1453.5086858058203,-541.5912578897947,292.0933193911999,0.0,0.0,0.0,0.0,0.0,0.0,-7.4,21.362685991695884,0.0,20.912081948962133,0.0,-7.4,21.61,19.45,22.38,20.93,22.01,-7.97,-7.4,0.0,-1031.13,-1606.0,0.0,399.0,89.0,323.0,0.0,0.0,0.0,0.0,0.0,0.0,0.0,0.0,0.0,0.0,0.0,0.0,0.0,0.0
68.0,4621.0,6268.996516834442,0.0,-0.0,0.0,-1616.65153425027,0.0,2222.900941406003,0.0,2222.900941406003,0.0,0.0,0.5562407365975346,0.6796350672742182,0.6785580299142222,0.0,0.0,0.0,"[0.8118423989470358, 1.084353397677777, 0.30714174830972496, 0.387229832877253, 0.39150557305665856, 0.6950292603640307, 0.8120847873526458, 0.9246519023805746]",21.21,0.0,0.0,0.0,1009.5794824079195,253.9007892208418,-1473.6307541885897,-90.17528010157427,279.9024210769504,0.0,0.0,0.0,0.0,0.0,0.0,-8.2,21.18966444657526,0.0,20.843893470454166,0.0,-8.2,21.21,19.41,22.28,20.77,21.85,-8.76,-8.2,21.7,-1045.4,-1628.23,0.0,604.0,57.0,430.0,0.0,0.0,0.0,0.0,0.0,0.0,0.0,0.0,0.0,0.0,0.0,0.0,0.0,0.0
69.0,4072.0,4092.462311557789,0.0,-0.0,0.0,0.0,0.0,17903.931142722082,0.0,17903.93114272208,0.0,0.0,0.5562407365975346,0.6035129110551617,0.6785580299142222,0.0,0.0,0.0,"[0.8118423989470358, 1.084353397677777, 0.30714174830972496, 0.387229832877253, 0.39150557305665856, 0.6950292603640307, 0.8120847873526458, 0.9246519023805746]",21.19,0.0,0.0,0.0,1026.3541205546023,276.3237244481893,-1507.473980106146,-166.77923002189826,3659.4654289406653,0.0,0.0,0.0,0.0,0.0,0.0,-8.9,21.12744297761288,0.0,20.77183483384715,0.0,-8.9,21.19,19.37,22.18,20.75,21.79,-9.45,-8.9,3864.3,-1069.41,-1665.62,0.0,648.0,70.0,418.0,0.0,0.0,0.0,0.0,0.0,0.0,0.0,0.0,0.0,0.0,0.0,0.0,0.0,0.0
70.0,4078.0,0.0,9004.782124774014,-0.0,0.0,13082.782124774014,0.0,14720.502101749877,0.0,0.0,0.0,14720.502101749875,0.0,0.6035129110551617,0.6785580299142222,0.0,0.0,0.0,"[0.8118423989470358, 1.084353397677777, 0.30714174830972496, 0.387229832877253, 0.39150557305665856, 0.6950292603640307, 0.8120847873526458, 0.9246519023805746]",22.81,0.0,0.0,0.0,824.8470177757529,180.77221345672794,-1628.905202889833,-2383.655922204414,3027.4045714802496,0.0,0.0,0.0,0.0,0.0,0.0,-9.7,21.647611733597394,0.0,20.80707015929483,0.0,-9.7,22.81,19.37,22.24,22.01,22.68,-10.25,-9.7,3126.46,-1155.55,-1799.79,0.0,368.0,69.0,415.0,0.0,0.0,0.0,0.0,0.0,0.0,0.0,0.0,0.0,0.0,0.0,0.0,0.0,0.0
71.0,2689.0,6439.153305397348,3717.957538870362,-0.0,0.0,0.0,0.0,5829.7930406784735,0.0,0.0,0.0,5829.7930406784735,0.0,0.6035129110551617,0.6611206752255113,0.0,0.0,0.0,"[0.8118423989470358, 1.084353397677777, 0.30714174830972496, 0.387229832877253, 0.39150557305665856, 0.6950292603640307, 0.8120847873526458, 0.9246519023805746]",22.81,0.0,0.0,0.0,392.5124362978012,160.92351248508797,-1663.9765356070402,-2303.816884403946,175.96201213012733,0.0,0.0,0.0,0.0,0.0,0.0,-10.4,21.687927556491022,0.0,20.856824394722267,0.0,-10.4,22.81,19.39,22.32,21.89,22.65,-10.95,-10.4,0.0,-1180.43,-1838.54,0.0,412.0,31.0,73.0,0.0,0.0,0.0,0.0,0.0,0.0,0.0,0.0,0.0,0.0,0.0,0.0,0.0,0.0
72.0,1489.0,27642.55412565055,17525.545436654953,-0.0,0.0,-8489.795918367347,0.0,26644.841132266178,0.0,0.0,0.0,26644.841132266174,0.3466666666666667,0.6035129110551617,0.661120675225511,0.0,0.0,0.0,"[0.8118423989470358, 1.084353397677777, 0.30714174830972496, 0.387229832877253, 0.39150557305665856, 0.6950292603640307, 0.8120847873526458, 0.9246519023805746]",21.19,0.0,0.0,0.0,257.68099606837154,109.20172684738445,-1607.677787869596,-107.92343625923259,1361.0796915151116,0.0,0.0,0.0,0.0,0.0,0.0,-10.9,21.158268200992968,0.0,20.804913950732804,0.0,-10.9,21.19,19.35,22.26,20.7,21.81,-11.47,-10.9,977.94,-1140.49,-1776.34,0.0,320.0,0.0,24.0,0.0,0.0,0.0,0.0,0.0,0.0,0.0,0.0,0.0,0.0,0.0,0.0,0.0,0.0
73.0,887.0,42013.49081267185,0.0,-0.0,0.0,-16000.0,0.0,22424.781022747626,0.0,0.0,0.0,0.0,1.0,0.6035129110551617,0.661120675225511,99665.69343443394,24916.423358608485,124582.11679304241,"[0.8118423989470358, 1.084353397677777, 0.30714174830972496, 0.387229832877253, 0.39150557305665856, 0.6950292603640307, 0.8120847873526458, 0.9246519023805746]",21.19,0.0,0.0,0.0,488.01510305727703,115.02762542609106,-1637.738930198631,-208.06011766264885,4512.3883223315715,0.0,0.0,0.0,0.0,0.0,0.0,-11.5,21.108788950588384,0.0,20.738098061879004,0.0,-11.5,21.19,19.3,22.17,20.81,21.85,-12.08,-11.5,5089.13,-1161.82,-1809.55,0.0,320.0,0.0,196.0,0.0,0.0,0.0,0.0,0.0,0.0,0.0,0.0,0.0,0.0,0.0,0.0,0.0,0.0
74.0,528.0,0.0,0.0,-0.0,0.0,8017.366619282242,0.0,21226.34699924029,0.0,14485.917041886278,0.0,0.0,0.659125568908068,0.5419231277138085,0.661120675225511,29957.466477128968,7489.366619282242,37446.83309641121,"[0.8118423989470358, 1.084353397677777, 0.30714174830972496, 0.387229832877253, 0.39150557305665856, 0.6950292603640307, 0.8120847873526458, 0.9246519023805746]",22.81,0.0,0.0,0.0,249.64608535945626,108.998497827197,-1754.159962594145,-2420.767809497812,3828.621374510746,0.0,0.0,0.0,0.0,0.0,0.0,-12.2,21.630974478202784,0.0,20.774466398897346,0.0,-12.2,22.81,19.3,22.24,22.03,22.71,-12.8,-12.2,2523.19,-1244.41,-1938.19,0.0,320.0,0.0,18.0,0.0,0.0,0.0,0.0,0.0,0.0,0.0,0.0,0.0,0.0,0.0,0.0,0.0,0.0
75.0,1133.0,5870.995606747459,4708.6406287137215,-0.0,0.0,0.0,0.0,6395.637461699024,0.0,0.0,0.0,6395.637461699026,0.659125568908068,0.5419231277138085,0.661120675225511,0.0,0.0,0.0,"[0.8118423989470358, 1.084353397677777, 0.30714174830972496, 0.387229832877253, 0.39150557305665856, 0.6950292603640307, 0.8120847873526458, 0.9246519023805746]",22.81,0.0,0.0,0.0,367.49144242354737,111.97919012327948,-1774.200724146835,-2332.0853714593377,382.87970619882486,0.0,0.0,0.0,0.0,0.0,0.0,-12.6,21.675480331347934,0.0,20.828376976324876,0.0,-12.6,22.81,19.32,22.34,21.95,22.71,-13.2,-12.6,736.87,-1258.63,-1960.33,0.0,320.0,0.0,106.0,0.0,0.0,0.0,0.0,0.0,0.0,0.0,0.0,0.0,0.0,0.0,0.0,0.0,0.0
76.0,2144.0,0.0,0.0,-0.0,0.0,2144.0,0.0,30152.380320432,0.0,30152.380320431996,0.0,0.0,0.567969106323034,0.4137242317936044,0.6177210368891638,0.0,0.0,0.0,"[0.8118423989470358, 1.084353397677777, 0.30714174830972496, 0.387229832877253, 0.39150557305665856, 0.6950292603640307, 0.8120847873526458, 0.9246519023805746]",21.19,0.0,0.0,0.0,225.54135323271032,108.38881076663469,-1712.8917860212182,-140.24605146857488,4788.088189688771,0.0,0.0,0.0,0.0,0.0,0.0,-13.0,21.14370648236995,0.0,20.77278161050956,0.0,-13.0,21.19,19.27,22.27,20.68,21.82,-13.59,-13.0,5113.7,-1215.13,-1892.59,0.0,320.0,0.0,0.0,0.0,0.0,0.0,0.0,0.0,0.0,0.0,0.0,0.0,0.0,0.0,0.0,0.0,0.0
77.0,655.0,0.0,0.0,-0.0,0.0,13358.63338071776,0.0,11433.27004264598,0.0,0.0,0.0,0.0,0.0,0.4137242317936044,0.6177210368891638,50814.53352287104,12703.63338071776,63518.1669035888,"[0.8118423989470358, 1.084353397677777, 0.30714174830972496, 0.387229832877253, 0.39150557305665856, 0.6950292603640307, 0.8120847873526458, 0.9246519023805746]",22.81,0.0,0.0,0.0,367.49144242354737,111.97919012327948,-1814.2822472522148,-2357.132264171997,448.0081220168678,0.0,0.0,0.0,0.0,0.0,0.0,-13.4,21.66358141811042,0.0,20.805975943688516,0.0,-13.4,22.81,19.27,22.34,22.06,22.8,-14.0,-13.4,0.0,-1287.06,-2004.62,0.0,320.0,0.0,106.0,0.0,0.0,0.0,0.0,0.0,0.0,0.0,0.0,0.0,0.0,0.0,0.0,0.0,0.0
78.0,767.0,770.8542713567839,0.0,-0.0,0.0,0.0,0.0,17409.951398225807,0.0,17409.951398225807,0.0,0.0,0.0,0.33970232959026336,0.6177210368891638,0.0,0.0,0.0,"[0.8118423989470358, 1.084353397677777, 0.30714174830972496, 0.387229832877253, 0.39150557305665856, 0.6950292603640307, 0.8120847873526458, 0.9246519023805746]",21.19,0.0,0.0,0.0,489.21329149632584,249.2603932598952,-1752.973309126598,-165.25520327580446,4464.581432698775,0.0,0.0,0.0,0.0,0.0,0.0,-13.8,21.131826476428845,0.0,20.750170420814666,0.0,-13.8,21.19,19.22,22.28,20.67,21.82,-14.4,-13.8,4907.76,-1243.57,-1936.88,0.0,640.0,52.0,23.0,0.0,0.0,0.0,0.0,0.0,0.0,0.0,0.0,0.0,0.0,0.0,0.0,0.0,0.0
79.0,818.0,9007.382914572865,0.0,-0.0,0.0,0.0,0.0,21936.546396358368,40721.73,54513.93039635836,0.0,0.0,0.0,0.10792541463976013,0.6177210368891638,32577.384000000005,8144.346000000001,40721.73,"[0.8118423989470358, 1.084353397677777, 0.30714174830972496, 0.387229832877253, 0.39150557305665856, 0.6950292603640307, 0.8120847873526458, 0.9246519023805746]",22.81,0.0,0.0,0.0,371.0155260678086,169.89946087669995,-1849.3535799694225,-2381.8125971837644,452.87177187621523,0.0,0.0,0.0,0.0,0.0,0.0,-14.1,21.65179489130438,0.0,20.783349472072572,0.0,-14.1,22.81,19.22,22.34,22.06,22.8,-14.71,-14.1,530.23,-1311.94,-2043.37,0.0,351.0,79.0,84.0,0.0,0.0,0.0,0.0,0.0,0.0,0.0,0.0,0.0,0.0,0.0,0.0,0.0,0.0
80.0,1323.0,28516.717994532115,0.0,-0.0,0.0,-16000.0,0.0,9946.020964103507,0.0,0.0,0.0,0.0,0.6533333333333333,0.0656379105406806,0.6177210368891638,44204.53761823783,11051.134404559458,55255.672022797284,"[0.8118423989473484, 1.084353397677777, 0.30714174830972496, 0.387229832877253, 0.39150557305665856, 0.6950292603640307, 0.8120847873526458, 0.9246519023805746]",21.19,0.0,0.0,3.109376943330775,284.39355009187074,99.07414734137703,-1773.0140706792722,-186.88108248104675,1584.5746372051747,0.0,0.0,0.0,0.0,0.0,0.0,-14.2,21.121340983703323,0.0,20.72911574875436,0.0,-14.2,21.19,19.18,22.28,20.68,21.84,-14.8,-14.2,1634.16,-1257.78,-1959.02,4.59,190.0,51.0,107.0,0.0,0.0,0.0,0.0,0.0,0.0,0.0,0.0,0.0,0.0,0.0,0.0,0.0,0.0
81.0,2698.0,66773.9941988004,71732.58518063172,-0.0,7990.460952825337,0.0,0.0,22219.649568225464,0.0,-80000.0,0.0,102219.64956822545,0.6533333333333333,0.39230457720734735,0.6177210368891638,0.0,0.0,0.0,"[0.8118423989473484, 1.084353397677777, 0.30714174830972496, 0.387229832877253, 0.39150557305665856, 0.6950292603640307, 0.8120847873526458, 0.9246519023805746]",21.19,0.0,0.0,1029.6416723106308,425.99123091828164,72.34953118672865,-1657.7796917513208,-284.6613843856266,3693.0910243142343,0.0,0.0,0.0,0.0,0.0,0.0,-11.9,21.07035102905353,0.0,20.65939811879855,0.0,-11.9,21.19,19.12,22.2,20.77,21.87,-11.75,-11.9,1337.04,-1176.04,-1831.7,1519.92,122.0,37.0,250.0,0.0,0.0,0.0,0.0,0.0,0.0,0.0,0.0,0.0,0.0,0.0,0.0,0.0,0.0
82.0,2644.0,0.0,0.0,-11650.714146158116,14294.714146158116,0.0,0.0,16042.178270686016,0.0,16042.178270686016,0.0,0.0,0.6533333333333333,0.3240980369408252,0.6466266061631764,0.0,0.0,0.0,"[0.8118423989473484, 1.084353397677777, 0.30714174830972496, 0.387229832877253, 0.39150557305665856, 0.6950292603640307, 0.8120847873526458, 0.9246519023805746]",22.81,0.0,0.0,1475.4885403439148,171.41142845685985,4.335552430665388,-1643.935774054366,-2448.513102981075,2461.52463155177,0.0,0.0,0.0,0.0,0.0,0.0,-10.0,21.614761344341897,0.0,20.72587368838279,0.0,-10.0,22.81,19.15,22.3,22.21,22.92,-9.55,-10.0,0.0,-1166.22,-1816.4,2178.07,0.0,0.0,128.0,0.0,0.0,0.0,0.0,0.0,0.0,0.0,0.0,0.0,0.0,0.0,0.0,0.0,0.0
83.0,7170.0,0.0,0.0,-0.0,17258.098708225858,0.0,0.0,9079.288837403268,0.0,0.0,0.0,0.0,0.6533333333333333,0.3240980369408252,0.6466266061631764,40352.39483290343,10088.098708225858,50440.49354112929,"[0.8118423989473484, 1.084353397677777, 0.30714174830972496, 0.387229832877253, 0.39150557305665856, 0.6950292603640307, 0.8120847873526458, 0.9246519023805746]",22.81,0.0,0.0,1752.2371615021473,125.88026777300647,3.183921316269891,-1568.7829182317785,-2296.8396037288853,0.0,0.0,0.0,0.0,0.0,0.0,0.0,-8.5,21.689162845558915,0.0,20.82174882129941,0.0,-8.5,22.81,19.2,22.45,22.2,22.99,-7.88,-8.5,0.0,-1112.9,-1733.36,2586.59,0.0,0.0,94.0,0.0,0.0,0.0,0.0,0.0,0.0,0.0,0.0,0.0,0.0,0.0,0.0,0.0,0.0
84.0,4335.0,0.0,0.0,-6540.165126077054,19364.9610444444,-8489.795918367347,0.0,7032.064818565758,0.0,7032.064818565757,0.0,0.0,1.0,0.29419980216801167,0.6628528386278738,0.0,0.0,0.0,"[0.8118423989473484, 1.084353397677777, 0.30714174830972496, 0.387229832877253, 0.39150557305665856, 0.6950292603640307, 0.8120847873526458, 0.9246519023805746]",21.81,0.0,0.0,1951.4343124655466,1357.054129732064,89.62399790266107,-1468.5159647392159,-841.4760456202798,0.0,0.0,0.0,0.0,0.0,0.0,0.0,-7.5,21.411971300962712,0.0,20.85645083764466,0.0,-7.5,21.81,19.22,22.49,21.51,22.54,-6.77,-7.5,2734.72,-1041.77,-1622.58,2880.64,144.0,15.0,936.0,0.0,0.0,0.0,0.0,0.0,0.0,0.0,0.0,0.0,0.0,0.0,0.0,0.0,0.0
85.0,2888.0,0.0,0.0,-8999.664774106295,17133.200792300173,0.0,0.0,4720.982416374489,0.0,0.0,0.0,0.0,1.0,0.29419980216801167,0.6596063339754628,20982.144072775514,5245.536018193879,26227.680090969392,"[0.8118423989473484, 1.084353397677777, 0.30714174830972496, 0.387229832877253, 0.39150557305665856, 0.6950292603640307, 0.8120847873526458, 0.9246519023805746]",22.33,0.0,0.0,1737.5248676126066,797.4296470234017,76.75282662412317,-1479.7582470257992,-1511.2750867091597,0.0,0.0,0.0,0.0,0.0,0.0,0.0,-7.2,21.60265924826293,0.0,20.900046591395643,0.0,-7.2,22.33,19.26,22.54,21.88,22.82,-6.59,-7.2,0.0,-1049.75,-1635.0,2564.88,165.0,6.0,508.0,0.0,0.0,0.0,0.0,0.0,0.0,0.0,0.0,0.0,0.0,0.0,0.0,0.0,0.0
86.0,2229.0,0.0,11992.655832206314,-0.0,14221.655832206314,0.0,0.0,13386.826087301008,0.0,-8504.674200866115,0.0,21891.50028816712,1.0,0.3289272218215483,0.6596063339754628,0.0,0.0,0.0,"[0.8118423989473484, 1.084353397677777, 0.30714174830972496, 0.387229832877253, 0.39150557305665856, 0.6950292603640307, 0.8120847873526458, 0.9246519023805746]",22.13,0.0,0.0,1466.572970263127,594.2309840953064,48.40237830797531,-1494.5336183505894,-1173.0932493206503,1951.413141625097,0.0,0.0,0.0,0.0,0.0,0.0,-7.7,21.56652434024496,0.0,20.936051066491984,0.0,-7.7,22.13,19.29,22.59,21.72,22.72,-7.27,-7.7,0.0,-1060.23,-1651.32,2164.91,104.0,0.0,389.0,0.0,0.0,0.0,0.0,0.0,0.0,0.0,0.0,0.0,0.0,0.0,0.0,0.0,0.0
87.0,5472.0,0.0,8557.110105814414,-0.0,0.7759651942394153,14028.334140620174,0.0,14233.406194064859,0.0,0.0,0.0,14233.406194064859,0.4035572219124076,0.3289272218215483,0.6576688501211615,0.0,0.0,0.0,"[0.8118423989473484, 1.084353397677777, 0.30714174830972496, 0.387229832877253, 0.39150557305665856, 0.6950292603640307, 0.8120847873526458, 0.9246519023805746]",22.81,0.0,0.0,21.859458015467258,409.9214095004511,48.23302079115244,-1613.8746317253308,-2030.3891073726786,0.0,0.0,0.0,0.0,0.0,0.0,0.0,-9.4,21.823518457296114,0.0,21.00358803852429,0.0,-9.4,22.81,19.33,22.67,22.23,23.1,-9.94,-9.4,1763.77,-1144.89,-1783.19,32.27,118.0,0.0,244.0,0.0,0.0,0.0,0.0,0.0,0.0,0.0,0.0,0.0,0.0,0.0,0.0,0.0,0.0
88.0,3777.0,3795.9798994974876,0.0,-0.0,0.0,0.0,0.0,9535.708913792418,0.0,9535.708913792416,0.0,0.0,0.4035572219124076,0.2883842417459003,0.6526313920999783,0.0,0.0,0.0,"[0.8118423989473484, 1.084353397677777, 0.30714174830972496, 0.387229832877253, 0.39150557305665856, 0.6950292603640307, 0.8120847873526458, 0.9246519023805746]",21.23,0.0,0.0,0.0,310.7536957509438,99.27737636156448,-1524.6680088574033,75.10078754641049,4220.77721771824,0.0,0.0,0.0,0.0,0.0,0.0,-9.2,21.291479392630173,0.0,20.93490030663832,0.0,-9.2,21.23,19.3,22.57,20.68,21.97,-9.76,-9.2,0.0,-1081.61,-1684.62,0.0,232.0,28.0,107.0,0.0,0.0,0.0,0.0,0.0,0.0,0.0,0.0,0.0,0.0,0.0,0.0,0.0,0.0
89.0,1509.0,0.0,0.0,-0.0,0.0,1509.0,0.0,15986.710432055346,0.0,15986.710432055348,0.0,0.0,0.3393990586471015,0.22041353412661738,0.6526313920999783,0.0,0.0,0.0,"[0.8118423989473484, 1.084353397677777, 0.30714174830972496, 0.387229832877253, 0.39150557305665856, 0.6950292603640307, 0.8120847873526458, 0.9246519023805746]",22.81,0.0,0.0,0.0,499.3626523917977,191.54335152666226,-1593.8338701726411,-2105.9178992282427,0.0,0.0,0.0,0.0,0.0,0.0,0.0,-9.0,21.785554932638465,0.0,20.95588229554206,0.0,-9.0,22.81,19.31,22.6,22.03,22.9,-9.53,-9.0,0.0,-1130.67,-1761.04,0.0,465.0,49.0,123.0,0.0,0.0,0.0,0.0,0.0,0.0,0.0,0.0,0.0,0.0,0.0,0.0,0.0,0.0
90.0,3020.0,0.0,2854.5789259378325,-0.0,0.0,7982.665859379828,0.0,6808.702575126872,0.0,0.0,0.0,4911.424335029077,0.0,0.22041353412661738,0.6262816116814818,8432.347733767983,2108.086933441996,10540.434667209978,"[0.8118423989473484, 1.084353397677777, 0.30714174830972496, 0.387229832877253, 0.39150557305665856, 0.6950292603640307, 0.8120847873526458, 0.9246519023805746]",21.3,0.0,0.0,0.0,1813.281998318106,263.96062572012005,-1508.111328002313,-79.32953448496357,77.18171706387773,0.0,0.0,0.0,0.0,0.0,0.0,-8.8,21.28374717969602,0.0,20.899101684883398,0.0,-8.8,21.3,19.29,22.51,20.75,21.99,-9.31,-8.8,17.4,-1069.86,-1666.33,0.0,572.0,57.0,1047.0,0.0,0.0,0.0,0.0,0.0,0.0,0.0,0.0,0.0,0.0,0.0,0.0,0.0,0.0
91.0,3449.0,14934.138225133174,0.0,-0.0,0.0,0.0,0.0,10269.420780606753,0.0,0.0,0.0,0.0,0.0,0.22041353412661738,0.6262816116814818,45641.87013603003,11410.467534007508,57052.33767003754,"[0.8118423989473484, 1.084353397677777, 0.30714174830972496, 0.387229832877253, 0.39150557305665856, 0.6950292603640307, 0.8120847873526458, 0.9246519023805746]",21.57,0.0,0.0,0.0,918.517161040213,140.49899595625027,-1516.5179263267237,-563.6179236066373,273.8357419923914,0.0,0.0,0.0,0.0,0.0,0.0,-8.7,21.310191027234556,0.0,20.829211729975658,0.0,-8.7,21.57,19.25,22.4,20.89,22.03,-9.2,-8.7,0.0,-1075.82,-1675.61,0.0,288.0,41.0,530.0,0.0,0.0,0.0,0.0,0.0,0.0,0.0,0.0,0.0,0.0,0.0,0.0,0.0,0.0
92.0,4072.0,6794.09083855871,2688.120384365917,-0.0,0.0,0.0,0.0,4701.905371048437,0.0,0.0,0.0,4701.905371048437,0.0,0.20042243986195565,0.6262816116814818,0.0,0.0,0.0,"[0.8118423989473484, 1.0843533976777735, 0.30714174830972496, 0.387229832877253, 0.39150557305665856, 0.6950292603640307, 0.8120847873526458, 0.9246519023805746]",21.19,0.0,0.0,0.0,1251.6135470957722,203.9741932614607,-1487.4332185534404,-145.77952855451102,200.7140538967852,0.0,0.0,0.0,0.0,0.0,0.0,-8.5,21.137571839292253,0.0,20.75519022121879,0.0,-8.5,21.19,19.22,22.29,20.66,21.83,-8.98,-8.5,58.98,-1055.19,-1643.48,0.0,520.0,9.0,660.0,0.0,0.0,0.0,0.0,0.0,0.0,0.0,0.0,0.0,0.0,0.0,0.0,0.0,0.0
93.0,4933.0,4957.788944723618,0.0,-0.0,0.0,0.0,0.0,16908.392220033198,0.0,16908.3922200332,0.0,0.0,0.0,0.12853301715773285,0.6262816116814818,0.0,0.0,0.0,"[0.8118423989473484, 1.0843533976777735, 0.30714174830972496, 0.387229832877253, 0.39150557305665856, 0.6950292603640307, 0.8120847873526458, 0.9246519023805746]",21.19,0.0,0.0,0.0,1328.7204972322047,254.98467732850816,-1477.4128377770958,-261.1709418142647,183.7418310212464,0.0,0.0,0.0,0.0,0.0,0.0,-8.3,21.079884163780385,0.0,20.680656943775105,0.0,-8.3,21.19,19.18,22.19,20.65,21.76,-8.77,-8.3,423.79,-1048.08,-1632.41,0.0,620.0,37.0,662.0,0.0,0.0,0.0,0.0,0.0,0.0,0.0,0.0,0.0,0.0,0.0,0.0,0.0,0.0
94.0,2692.0,67373.29676859413,55019.320165127734,-0.0,0.0,-9325.110119623425,0.0,18334.69059883932,0.0,-80000.0,0.0,98334.69059883934,0.3807753298846232,0.45519968382439957,0.6262816116814818,0.0,0.0,0.0,"[0.8118423989473484, 1.0843533976777735, 0.30714174830972496, 0.387229832877253, 0.39150557305665856, 0.6950292603640307, 0.8120847873526458, 0.9246519023805746]",21.19,0.0,0.0,0.0,907.8744284345444,154.4201838390899,-1467.3924570007507,-364.5974843979162,4043.7864091026677,0.0,0.0,0.0,0.0,0.0,0.0,-8.1,21.0281620412836,0.0,20.613598535237657,0.0,-8.1,21.19,19.14,22.09,20.64,21.71,-8.56,-8.1,4137.48,-1040.97,-1621.34,0.0,336.0,39.0,497.0,0.0,0.0,0.0,0.0,0.0,0.0,0.0,0.0,0.0,0.0,0.0,0.0,0.0,0.0
95.0,1493.0,0.0,0.0,-0.0,0.0,1493.0,0.0,16015.646152419364,0.0,16015.646152419366,0.0,0.0,0.31729743872816063,0.38710595018316074,0.6262816116814818,0.0,0.0,0.0,"[0.8118423989473484, 1.0843533976777735, 0.30714174830972496, 0.387229832877253, 0.39150557305665856, 0.6950292603640307, 0.8120847873526458, 0.9246519023805746]",22.81,0.0,0.0,0.0,778.6110403630472,209.76622033680275,-1538.7217759027435,-2567.9972899831655,3142.0864861849823,0.0,0.0,0.0,0.0,0.0,0.0,-7.9,21.554307036125696,0.0,20.658081588417268,0.0,-7.9,22.81,19.16,22.16,21.91,22.62,-8.35,-7.9,0.0,-1091.58,-1700.15,0.0,564.0,15.0,283.0,0.0,0.0,0.0,0.0,0.0,0.0,0.0,0.0,0.0,0.0,0.0,0.0,0.0,0.0
96.0,1599.0,0.0,5863.835758886339,-0.0,0.0,7462.835758886339,0.0,10927.504768887942,0.0,0.0,0.0,10927.504768887942,0.0,0.38710595018316074,0.6262816116814818,0.0,0.0,0.0,"[0.8118423989473484, 1.0843533976777735, 0.30714174830972496, 0.387229832877253, 0.39150557305665856, 0.6950292603640307, 0.8120847873526458, 0.9246519023805746]",22.81,0.0,0.0,0.0,296.51639782812885,110.18400044495709,-1508.6606335737085,-2468.7857164548454,326.60698674046665,0.0,0.0,0.0,0.0,0.0,0.0,-7.3,21.60334109361237,0.0,20.721371746374032,0.0,-7.3,22.81,19.19,22.25,21.83,22.61,-7.76,-7.3,4633.16,-1070.25,-1666.93,0.0,320.0,0.0,53.0,0.0,0.0,0.0,0.0,0.0,0.0,0.0,0.0,0.0,0.0,0.0,0.0,0.0,0.0
97.0,671.0,16754.773869346733,0.0,-0.0,0.0,-16000.0,0.0,11010.072506362441,0.0,11010.072506362441,0.0,0.0,0.6533333333333333,0.3402944174180143,0.6262816116814818,0.0,0.0,0.0,"[0.8118423989473484, 1.0843533976777735, 0.30714174830972496, 0.387229832877253, 0.39150557305665856, 0.6950292603640307, 0.8120847873526458, 0.9246519023805746]",21.19,0.0,0.0,0.0,336.69095137270534,111.20014554589427,-1392.2396011781632,-255.84664799286662,1212.7825554042904,0.0,0.0,0.0,0.0,0.0,0.0,-6.6,21.081281067548684,0.0,20.68230973948983,0.0,-6.6,21.19,19.18,22.19,20.62,21.75,-7.05,-6.6,19.26,-987.66,-1538.3,0.0,320.0,0.0,83.0,0.0,0.0,0.0,0.0,0.0,0.0,0.0,0.0,0.0,0.0,0.0,0.0,0.0,0.0
98.0,871.0,58708.158991574026,49053.82227824881,-0.0,0.0,-8489.795918367347,0.0,17960.89467156561,0.0,-80000.0,0.0,97960.89467156562,1.0,0.666961084084681,0.6262816116814818,0.0,0.0,0.0,"[0.8118423989473484, 1.0843533976777735, 0.30714174830972496, 0.387229832877253, 0.39150557305665856, 0.6950292603640307, 0.8120847873526458, 0.9246519023805746]",21.19,0.0,0.0,0.0,457.21461200643495,114.24858084870587,-1357.1682684609557,-339.96160781451425,4395.210501704975,0.0,0.0,0.0,0.0,0.0,0.0,-5.9,21.038820607613648,0.0,20.62834184804644,0.0,-5.9,21.19,19.15,22.1,20.72,21.78,-6.34,-5.9,1265.36,-962.78,-1499.55,0.0,320.0,0.0,173.0,0.0,0.0,0.0,0.0,0.0,0.0,0.0,0.0,0.0,0.0,0.0,0.0,0.0,0.0
99.0,627.0,5929.47150338159,5272.824145864682,-0.0,0.0,0.0,0.0,10730.943863467139,0.0,0.0,0.0,10730.943863467139,1.0,0.666961084084681,0.6262816116814818,0.0,0.0,0.0,"[0.8118423989473484, 1.0843533976777735, 0.30714174830972496, 0.387229832877253, 0.39150557305665856, 0.6950292603640307, 0.8120847873526458, 0.9246519023805746]",22.81,0.0,0.0,0.0,512.1198351840229,115.63731248665339,-1418.4772065866036,-2533.5559040053804,80.75429059817573,0.0,0.0,0.0,0.0,0.0,0.0,-5.5,21.56971359676316,0.0,20.68047988740461,0.0,-5.5,22.81,19.18,22.18,21.95,22.65,-5.94,-5.5,5045.11,-1006.27,-1567.29,0.0,320.0,0.0,214.0,0.0,0.0,0.0,0.0,0.0,0.0,0.0,0.0,0.0,0.0,0.0,0.0,0.0,0.0
100.0,571.0,573.8693467336683,0.0,-0.0,0.0,0.0,0.0,24974.09382951512,0.0,24974.093829515117,0.0,0.0,1.0,0.5607787123605521,0.6262816116814818,0.0,0.0,0.0,"[0.8118423989473484, 1.0843533976777735, 0.30714174830972496, 0.387229832877253, 0.39150557305665856, 0.6950292603640307, 0.8120847873526458, 0.9246519023805746]",21.19,0.0,0.0,0.0,423.7358173859545,113.40179326459153,-1312.0765549674034,-316.5811310965523,4360.968040795586,0.0,0.0,0.0,0.0,0.0,0.0,-5.0,21.049807580132825,0.0,20.645057982075027,0.0,-5.0,21.19,19.17,22.12,20.58,21.69,-5.43,-5.0,3983.9,-930.79,-1449.73,0.0,320.0,0.0,148.0,0.0,0.0,0.0,0.0,0.0,0.0,0.0,0.0,0.0,0.0,0.0,0.0,0.0,0.0
101.0,1941.0,0.0,992.210060521697,-0.0,0.0,2933.210060521697,0.0,19724.769611929227,0.0,17620.35023695816,0.0,2104.419374971068,0.8752886879029891,0.4858622572714443,0.6262816116814818,0.0,0.0,0.0,"[0.8118423989473484, 1.0843533976777735, 0.30714174830972496, 0.387229832877253, 0.39150557305665856, 0.6950292603640307, 0.8120847873526458, 0.9246519023805746]",22.81,0.0,0.0,0.0,426.414120955593,113.46953627132069,-1373.3854930930513,-2509.9026512788582,3356.2487760754607,0.0,0.0,0.0,0.0,0.0,0.0,-4.6,21.58078996303168,0.0,20.697871209568305,0.0,-4.6,22.81,19.21,22.19,21.96,22.66,-4.96,-4.6,940.47,-974.29,-1517.47,0.0,320.0,0.0,150.0,0.0,0.0,0.0,0.0,0.0,0.0,0.0,0.0,0.0,0.0,0.0,0.0,0.0,0.0
102.0,2496.0,0.0,0.0,-0.0,0.0,10966.674,0.0,20726.19896389143,42353.37,54608.89496389144,0.0,0.0,0.40901853484176454,0.2536815814045589,0.6262816116814818,33882.696,8470.674,42353.37,"[0.8118423989473484, 1.0843533976777735, 0.30714174830972496, 0.387229832877253, 0.39150557305665856, 0.6950292603640307, 0.8120847873526458, 0.9246519023805746]",22.81,0.0,0.0,0.0,466.1657844628582,179.72219685242618,-1358.354921928534,-2407.2411818941023,3025.033555179309,0.0,0.0,0.0,0.0,0.0,0.0,-4.3,21.631763088472574,0.0,20.765797692524753,0.0,-4.3,22.81,19.25,22.28,21.85,22.62,-4.67,-4.3,4084.16,-963.62,-1500.86,0.0,444.0,42.0,110.0,0.0,0.0,0.0,0.0,0.0,0.0,0.0,0.0,0.0,0.0,0.0,0.0,0.0,0.0
103.0,990.0,0.0,2139.3918415090234,-0.0,0.0,3129.3918415090234,0.0,4659.897558473368,0.0,0.0,0.0,4659.897558473368,0.2759661606279455,0.2536815814045589,0.6262816116814818,0.0,0.0,0.0,"[0.8118423989473484, 1.0843533976777735, 0.30714174830972496, 0.387229832877253, 0.39150557305665856, 0.6950292603640307, 0.8120847873526458, 0.9246519023805746]",22.75,0.0,0.0,0.0,372.5661228712834,200.99350096537822,-1340.4512074018292,-2236.931341495169,0.0,0.0,0.0,0.0,0.0,0.0,0.0,-4.0,21.659063222695657,0.0,20.826042934607237,0.0,-4.0,22.75,19.3,22.35,21.83,22.64,-4.36,-4.0,2506.88,-950.92,-1481.08,0.0,393.0,108.0,60.0,0.0,0.0,0.0,0.0,0.0,0.0,0.0,0.0,0.0,0.0,0.0,0.0,0.0,0.0
104.0,795.0,10642.798281253716,5695.724097969278,-0.0,0.0,-4098.860191878171,0.0,12568.988700183105,0.0,0.0,0.0,12568.988700183105,0.16737012450169197,0.2536815814045589,0.6262816116814818,0.0,0.0,0.0,"[0.8118423989473484, 1.0843533976777735, 0.30714174830975693, 0.387229832877253, 0.39150557305665856, 0.6950292603640342, 0.5970224673923958, 0.9246519023805746]",21.25,0.0,0.0,1.0158203847557392,404.63528403405934,191.00140747282907,-1249.81722328333,-186.44762901930238,746.2281794465649,0.0,0.0,0.0,0.0,0.0,0.0,-3.7,21.17106540754425,0.0,20.78846234704455,0.0,-3.7,21.25,19.29,22.28,20.7,21.83,-4.04,-3.7,0.0,-886.63,-1380.93,1.5,399.0,87.0,83.0,0.0,0.0,0.0,0.0,0.0,0.0,0.0,0.0,0.0,0.0,0.0,0.0,0.0,0.0
105.0,681.0,0.0,0.0,-0.0,5.454671720204413,675.5453282797956,0.0,14674.750743088265,0.0,14674.750743088265,0.0,0.0,0.13864795918367345,0.19128893368734687,0.6262816116814818,0.0,0.0,0.0,"[0.8118423989473484, 1.0843533976777735, 0.30714174830975693, 0.387229832877253, 0.39150557305665856, 0.6950292603640342, 0.5970224673923958, 0.9246519023805746]",21.19,0.0,0.0,29.964589157781727,322.3831717770053,131.62466207473202,-1171.7912240985736,-193.9732098257063,3899.0546033643154,0.0,0.0,0.0,0.0,0.0,0.0,-2.2,21.108796160974165,0.0,20.733226160844925,0.0,-2.2,21.19,19.28,22.19,20.76,21.82,-2.5,-2.2,894.7,-831.27,-1294.72,44.23,330.0,29.0,64.0,0.0,0.0,0.0,0.0,0.0,0.0,0.0,0.0,0.0,0.0,0.0,0.0,0.0,0.0
106.0,1216.0,1203.4143182547614,0.0,-0.0,18.602753336512414,0.0,0.0,14776.42770514139,0.0,14776.42770514139,0.0,0.0,0.13864795918367345,0.12846398596140557,0.6262816116814818,0.0,0.0,0.0,"[0.8118423989473484, 1.0843533976777735, 0.30714174830975693, 0.387229832877253, 0.39150557305665856, 0.6950292603640342, 0.5970224673923958, 0.9246519023805746]",22.68,0.0,0.0,37.72053259467492,336.197579662509,49.11367987863135,-1196.6778820489806,-2222.2484323470294,0.0,0.0,0.0,0.0,0.0,0.0,0.0,-1.2,21.594604309194345,0.0,20.77905772256507,0.0,-1.2,22.68,19.32,22.24,21.9,22.63,-1.48,-1.2,4680.16,-848.93,-1322.22,55.68,102.0,13.0,196.0,0.0,0.0,0.0,0.0,0.0,0.0,0.0,0.0,0.0,0.0,0.0,0.0,0.0,0.0
107.0,5488.0,5297.273523798833,0.0,-0.0,217.2128438201621,0.0,0.0,16990.584096672694,0.0,16990.584096672694,0.0,0.0,0.13864795918367345,0.05622510799936181,0.6262816116814818,0.0,0.0,0.0,"[0.8118423989473484, 1.0843533976777735, 0.30714174830975693, 0.387229832877253, 0.39150557305665856, 0.6950292603640342, 0.5970224673923958, 0.9246519023805746]",21.19,0.0,0.0,71.41371741128869,6195.339046611011,197.13214958181686,-1056.5568451706063,-185.28689382727615,-1942.1559606300832,0.0,0.0,0.0,0.0,0.0,0.0,0.1,21.111426114217824,0.0,20.743945369062867,0.0,0.1,21.19,19.32,22.17,20.62,21.72,-0.18,0.1,2686.97,-749.53,-1167.4,105.42,126.0,0.0,4560.0,0.0,0.0,0.0,0.0,0.0,0.0,0.0,0.0,0.0,0.0,0.0,0.0,0.0,0.0
108.0,2722.0,79119.02527833861,0.0,-0.0,531.644034042746,0.0,0.0,12209.690202638227,0.0,-56670.07656475245,0.0,0.0,0.13864795918367345,0.2876279206387677,0.6262816116814818,306132.29674395866,76533.07418598967,382665.37092994835,"[0.8118423989473484, 1.0843533976777735, 0.30714174830975693, 0.387229832877253, 0.39150557305665856, 0.6950292603640342, 0.5970224673923958, 0.9246519023805746]",22.81,0.0,0.0,93.2525126312613,427.11893768444526,58.93641585435763,-1082.794450579047,-2463.4163505257015,0.0,0.0,0.0,0.0,0.0,0.0,0.0,1.2,21.59969602265536,0.0,20.74442861557851,0.0,1.2,22.81,19.34,22.15,21.46,22.28,0.87,1.2,0.0,-768.14,-1196.39,137.66,150.0,0.0,240.0,0.0,0.0,0.0,0.0,0.0,0.0,0.0,0.0,0.0,0.0,0.0,0.0,0.0,0.0
109.0,1212.0,6639.027270945613,5959.875896132824,-0.0,566.0437615419389,0.0,0.0,16390.490919034004,0.0,0.0,0.0,16390.490919034004,0.13864795918367345,0.2876279206387677,0.6262816116814818,0.0,0.0,0.0,"[0.8118423989473484, 1.0843533976777735, 0.30714174830975693, 0.387229832877253, 0.39150557305665856, 0.6950292603640342, 0.5970224673923958, 0.9246519023805746]",21.33,0.0,0.0,98.34885742341021,382.85644711252587,118.14380373563182,-968.40216226241,-418.8422955507982,3777.4168598772035,0.0,0.0,0.0,0.0,0.0,0.0,2.0,21.13421615166615,0.0,20.727776365635016,0.0,2.0,21.33,19.35,22.1,20.71,21.74,1.68,2.0,444.29,-686.99,-1070.0,145.18,338.0,0.0,108.0,0.0,0.0,0.0,0.0,0.0,0.0,0.0,0.0,0.0,0.0,0.0,0.0,0.0,0.0
110.0,1361.0,5595.628450959822,4357.527485604239,-0.0,150.87717689921664,0.0,0.0,12108.433987238801,0.0,0.0,0.0,12108.4339872388,0.13864795918367345,0.2876279206387677,0.5022826450062041,0.0,0.0,0.0,"[0.8118423989473484, 1.0843533976777735, 0.30714174830975693, 0.387229832877253, 0.39150557305665856, 0.6950292603640342, 0.5970224673923958, 0.9246519023805746]",22.81,0.0,0.0,74.02968685021013,580.4870578826883,227.75198862339118,-1027.6823563091496,-2402.3321293842905,0.0,0.0,0.0,0.0,0.0,0.0,0.0,2.3,21.629367905043956,0.0,20.792729817502014,0.0,2.3,22.81,19.41,22.17,21.99,22.63,1.94,2.3,4333.82,-729.04,-1135.5,109.28,664.0,0.0,84.0,0.0,0.0,0.0,0.0,0.0,0.0,0.0,0.0,0.0,0.0,0.0,0.0,0.0,0.0
111.0,1695.0,5234.143923472743,3513.0376463648427,-0.0,0.06444250946380861,0.0,0.0,9560.871471006007,0.0,0.0,0.0,9560.871471006007,0.13864795918367345,0.2876279206387677,0.5022826450062037,0.0,0.0,0.0,"[0.8118423989473484, 1.0843533976777735, 0.30714174830975693, 0.387229832877253, 0.39150557305665856, 0.6950292603640342, 0.5970224673923958, 0.9246519023805746]",21.53,0.0,0.0,17.774717071418692,674.4391278386893,139.92318039905248,-993.4323260714705,-619.2862130107906,114.5684771167738,0.0,0.0,0.0,0.0,0.0,0.0,1.7,21.23427775341865,0.0,20.789476364908325,0.0,1.7,21.53,19.43,22.14,20.91,21.87,1.31,1.7,0.0,-704.75,-1097.65,26.24,381.0,1.0,303.0,0.0,0.0,0.0,0.0,0.0,0.0,0.0,0.0,0.0,0.0,0.0,0.0,0.0,0.0
112.0,3261.0,0.0,0.0,-0.0,0.0,3261.0,0.0,14325.411565756802,0.0,14325.4115657568,0.0,0.0,0.0,0.22672055853946158,0.49220772896383735,0.0,0.0,0.0,"[0.8118423989473484, 1.0843533976777735, 0.30714174830975693, 0.387229832877253, 0.39150557305665856, 0.6950292603640342, 0.5970224673923958, 0.9246519023805746]",21.19,0.0,0.0,0.0,664.3602486161024,118.34703275581927,-1016.4753220652265,-221.08797999105104,3421.787621786308,0.0,0.0,0.0,0.0,0.0,0.0,0.9,21.093086637777613,0.0,20.744561504384805,0.0,0.9,21.19,19.43,22.06,20.7,21.68,0.49,0.9,4336.72,-721.09,-1123.11,0.0,273.0,23.0,350.0,0.0,0.0,0.0,0.0,0.0,0.0,0.0,0.0,0.0,0.0,0.0,0.0,0.0,0.0
113.0,2133.0,19231.34479608311,1002.1880721026921,-0.0,0.0,-16000.0,0.0,2660.61547386823,0.0,0.0,0.0,2660.61547386823,0.6533333333333333,0.22672055853946158,0.48872025802609514,0.0,0.0,0.0,"[0.8118423989473484, 1.0843533976777735, 0.30714174830975693, 0.387229832877253, 0.39150557305665856, 0.6950292603640342, 0.5970224673923958, 0.9246519023805746]",22.66,0.0,0.0,0.0,707.2835874032024,208.81781824259465,-1085.2440312860417,-2216.778886316663,0.0,0.0,0.0,0.0,0.0,0.0,0.0,1.0,21.571663853930072,0.0,20.79061223141364,0.0,1.0,22.66,19.47,22.11,21.85,22.49,0.58,1.0,0.0,-769.88,-1199.1,0.0,544.0,27.0,239.0,0.0,0.0,0.0,0.0,0.0,0.0,0.0,0.0,0.0,0.0,0.0,0.0,0.0,0.0
114.0,4700.0,6709.797121037195,1976.2481354320091,-0.0,0.0,0.0,0.0,5265.3967053271235,0.0,0.0,0.0,5265.3967053271235,0.6533333333333333,0.22672055853946158,0.488720258026095,0.0,0.0,0.0,"[0.8118423989473484, 1.0843533976777735, 0.30714174830975693, 0.387229832877253, 0.39150557305665856, 0.6950292603640342, 0.5970224673923958, 0.9246519023805746]",21.46,0.0,0.0,0.0,3053.407032733587,327.13097949504936,-1020.0433953525106,-560.9542208367684,0.0,0.0,0.0,0.0,0.0,0.0,0.0,1.1,21.194915752714753,0.0,20.777125236988443,0.0,1.1,21.46,19.48,22.07,20.85,21.78,0.67,1.1,0.0,-723.62,-1127.06,0.0,656.0,65.0,1928.0,0.0,0.0,0.0,0.0,0.0,0.0,0.0,0.0,0.0,0.0,0.0,0.0,0.0,0.0
115.0,5522.0,8570.202189320742,3005.351178374138,-0.0,0.0,0.0,0.0,8064.578845801843,0.0,0.0,0.0,8064.578845801842,0.6533333333333333,0.22672055853946158,0.488720258026095,0.0,0.0,0.0,"[0.8118423989473484, 1.0843533976777735, 0.30714174830975693, 0.387229832877253, 0.39150557305665856, 0.6950292603640342, 0.5970224673923958, 0.9246519023805746]",22.34,0.0,0.0,0.0,3688.8697954667473,323.2018851047589,-1054.050282464114,-1800.6150175959258,-170.696764521086,0.0,0.0,0.0,0.0,0.0,0.0,1.3,21.45610101532021,0.0,20.774398446016946,0.0,1.3,22.34,19.5,22.05,21.32,22.08,0.87,1.3,1764.25,-747.75,-1164.63,0.0,435.0,149.0,2510.0,0.0,0.0,0.0,0.0,0.0,0.0,0.0,0.0,0.0,0.0,0.0,0.0,0.0,0.0
116.0,4535.0,4557.788944723618,0.0,-0.0,0.0,0.0,0.0,0.0,0.0,0.0,0.0,0.0,0.4605187074829932,0.22672055853946158,0.488720258026095,0.0,0.0,0.0,"[0.8118423989473484, 0.6645873903890056, 0.30714174830975693, 0.31768559571155564, 0.39150557305665856, 0.5671231137308297, 0.5225216431962494, 0.924651902380571]",22.81,0.0,0.0,0.0,1069.9117943976694,186.29326850515338,-1072.7740698027021,-2420.540562007531,0.0,0.0,0.0,0.0,0.0,0.0,0.0,1.4,21.62099560865675,0.0,20.80549583127314,0.0,1.4,22.81,19.53,22.08,21.56,22.26,0.98,1.4,0.0,-761.03,-1185.32,0.0,279.0,115.0,640.0,0.0,0.0,0.0,0.0,0.0,0.0,0.0,0.0,0.0,0.0,0.0,0.0,0.0,0.0
117.0,5004.0,0.0,0.0,-0.0,0.0,5004.0,0.0,917.8792376654458,0.0,917.879237665446,0.0,0.0,0.24776360544217685,0.22281801076027175,0.488720258026095,0.0,0.0,0.0,"[0.8118423989473484, 0.6645873903890056, 0.30714174830975693, 0.31768559571155564, 0.39150557305665856, 0.5671231137308297, 0.5225216431962494, 0.924651902380571]",21.69,0.0,0.0,0.0,831.3313316811933,151.23626252281997,-1006.3442360099893,-853.3275548605266,0.0,0.0,0.0,0.0,0.0,0.0,0.0,1.6,21.275518079379484,0.0,20.802598901644593,0.0,1.6,21.69,19.54,22.06,20.97,21.85,1.17,1.6,0.0,-713.9,-1111.92,0.0,300.0,56.0,457.0,0.0,0.0,0.0,0.0,0.0,0.0,0.0,0.0,0.0,0.0,0.0,0.0,0.0,0.0
118.0,3061.0,7779.638007648508,4679.739817610266,-0.0,0.0,0.0,0.0,12736.097764343222,0.0,0.0,0.0,12736.097764343222,0.24776360544217685,0.22281801076027175,0.488720258026095,0.0,0.0,0.0,"[0.8118423989473484, 0.6645873903890056, 0.30714174830975693, 0.31768559571155564, 0.39150557305665856, 0.5671231137308297, 0.5225216431962494, 0.924651902380571]",21.24,0.0,0.0,0.0,528.330619947624,165.42842243257624,-978.9964660004033,-296.5600561436293,3752.944035286567,0.0,0.0,0.0,0.0,0.0,0.0,1.7,21.106878026687955,0.0,20.762214987681745,0.0,1.7,21.24,19.54,21.99,20.73,21.65,1.26,1.7,2780.11,-694.5,-1081.7,0.0,438.0,19.0,162.0,0.0,0.0,0.0,0.0,0.0,0.0,0.0,0.0,0.0,0.0,0.0,0.0,0.0,0.0
119.0,3411.0,3428.140703517588,0.0,-0.0,0.0,0.0,0.0,12763.859613905799,0.0,12763.859613905797,0.0,0.0,0.24776360544217685,0.16854990015693078,0.488720258026095,0.0,0.0,0.0,"[0.8118423989473484, 0.6645873903890056, 0.30714174830975693, 0.31768559571155564, 0.39150557305665856, 0.5671231137308297, 0.5225216431962494, 0.924651902380571]",22.81,0.0,0.0,0.0,344.5848987358503,139.92318039905248,-1047.7231178618397,-2404.8794032529227,2983.933175583371,0.0,0.0,0.0,0.0,0.0,0.0,1.9,21.62845073153644,0.0,20.824452372867633,0.0,1.9,22.81,19.58,22.07,22.03,22.56,1.46,1.9,2294.32,-743.26,-1157.64,0.0,390.0,10.0,51.0,0.0,0.0,0.0,0.0,0.0,0.0,0.0,0.0,0.0,0.0,0.0,0.0,0.0,0.0
120.0,1010.0,38347.50727787828,36738.89185164165,-0.0,0.0,-406.8778898472356,0.0,19285.86695741212,0.0,-80000.0,0.0,99285.86695741213,0.2643777859442723,0.4952165668235975,0.4875577677135142,0.0,0.0,0.0,"[0.8118423989473484, 0.6645873903890056, 0.30714174830975693, 0.31768559571155564, 0.39150557305665856, 0.5671231137308297, 0.5225216431962494, 0.924651902380571]",22.81,0.0,0.0,0.0,320.9030566464157,112.01306162664402,-1067.7638794145296,-2289.7034080629314,2937.2305911426324,0.0,0.0,0.0,0.0,0.0,0.0,1.5,21.68618962985071,0.0,20.902172078412057,0.0,1.5,22.81,19.64,22.16,21.95,22.55,1.03,1.5,0.0,-757.48,-1179.78,0.0,320.0,2.0,71.0,0.0,0.0,0.0,0.0,0.0,0.0,0.0,0.0,0.0,0.0,0.0,0.0,0.0,0.0
121.0,733.0,736.6834170854271,0.0,-0.0,0.0,0.0,0.0,9226.406190813792,0.0,9226.406190813792,0.0,0.0,0.2643777859442723,0.4559886493456477,0.4875577677135142,0.0,0.0,0.0,"[0.8118423989473484, 0.6645873903890056, 0.30714174830975693, 0.31768559571155564, 0.39150557305665856, 0.5671231137308297, 0.5225216431962494, 0.924651902380571]",22.81,0.0,0.0,0.0,364.813138853909,111.91144711655032,-1082.794450579047,-2186.22506564326,0.0,0.0,0.0,0.0,0.0,0.0,0.0,1.2,21.738013173596308,0.0,20.97217102549746,0.0,1.2,22.81,19.69,22.25,21.96,22.59,0.72,1.2,1599.72,-768.14,-1196.39,0.0,320.0,0.0,104.0,0.0,0.0,0.0,0.0,0.0,0.0,0.0,0.0,0.0,0.0,0.0,0.0,0.0,0.0
122.0,691.0,694.4723618090452,0.0,-0.0,0.0,0.0,0.0,13208.99649971448,0.0,13208.99649971448,0.0,0.0,0.2643777859442723,0.39982794994209975,0.4875577677135142,0.0,0.0,0.0,"[0.8118423989473484, 0.6645873903890056, 0.30714174830975693, 0.31768559571155564, 0.39150557305665856, 0.5671231137308297, 0.5225216431962494, 0.924651902380571]",21.41,0.0,0.0,0.0,350.08246922089756,111.53886057954001,-1032.7676292081528,-271.61047422534017,3660.345367787688,0.0,0.0,0.0,0.0,0.0,0.0,0.8,21.293373657181945,0.0,20.94747981168834,0.0,0.8,21.41,19.69,22.2,20.89,21.83,0.31,0.8,2510.76,-732.65,-1141.11,0.0,320.0,0.0,93.0,0.0,0.0,0.0,0.0,0.0,0.0,0.0,0.0,0.0,0.0,0.0,0.0,0.0,0.0
123.0,493.0,0.0,5221.165525409286,-0.0,0.0,5714.165525409286,0.0,13711.859597578861,0.0,0.0,0.0,13711.859597578861,0.02142857142857143,0.39982794994209975,0.4875577677135142,0.0,0.0,0.0,"[0.8118423989473484, 0.6645873903890056, 0.30714174830975693, 0.31768559571155564, 0.39150557305665856, 0.5671231137308297, 0.5225216431962494, 0.924651902380571]",22.81,0.0,0.0,0.0,346.0650138664399,111.43724606944627,-1107.8454025199094,-2157.812479151197,2747.359169634292,0.0,0.0,0.0,0.0,0.0,0.0,0.7,21.752551811693383,0.0,20.996420975868354,0.0,0.7,22.81,19.73,22.26,22.08,22.67,0.21,0.7,0.0,-785.91,-1224.07,0.0,320.0,0.0,90.0,0.0,0.0,0.0,0.0,0.0,0.0,0.0,0.0,0.0,0.0,0.0,0.0,0.0,0.0
124.0,504.0,0.0,0.0,-0.0,0.0,504.0,0.0,7381.653571304759,0.0,7381.653571304758,0.0,0.0,0.0,0.36844336843145026,0.4875577677135142,0.0,0.0,0.0,"[0.8118423989473484, 0.6645873903890056, 0.30714174830975693, 0.31768559571155564, 0.39150557305665856, 0.5671231137308297, 0.5225216431962494, 0.924651902380571]",22.78,0.0,0.0,0.0,297.8555496129481,110.21787194832166,-1116.0319943410102,-2019.3318757227196,0.0,0.0,0.0,0.0,0.0,0.0,0.0,0.5,21.785102431162183,0.0,21.05525334630976,0.0,0.5,22.78,19.77,22.34,21.96,22.62,0.03,0.5,0.0,-791.72,-1233.11,0.0,320.0,0.0,54.0,0.0,0.0,0.0,0.0,0.0,0.0,0.0,0.0,0.0,0.0,0.0,0.0,0.0,0.0
125.0,577.0,9178.24821098861,5915.83177209943,-0.0,0.0,-2639.5251978342358,0.0,15310.60695158369,0.0,0.0,0.0,15310.60695158369,0.10778061224489796,0.36844336843145026,0.4875577677135142,0.0,0.0,0.0,"[0.8118423989473484, 0.6645873903890056, 0.30714174830975693, 0.31768559571155564, 0.39150557305665856, 0.5671231137308297, 0.5225216431962494, 0.924651902380571]",21.41,0.0,0.0,0.0,297.0097695383254,129.5923718728576,-1057.6133839157685,-160.08565518353026,362.33223755058697,0.0,0.0,0.0,0.0,0.0,0.0,0.3,21.34523895310318,0.0,21.023515541016806,0.0,0.3,21.41,19.77,22.28,20.93,21.88,-0.18,0.3,361.86,-750.28,-1168.57,0.0,320.0,32.0,50.0,0.0,0.0,0.0,0.0,0.0,0.0,0.0,0.0,0.0,0.0,0.0,0.0,0.0,0.0
126.0,1110.0,0.0,0.0,-0.0,0.0,1110.0,0.0,6072.865291711971,0.0,6072.86529171197,0.0,0.0,0.06058673469387755,0.3426233629394776,0.4875577677135142,0.0,0.0,0.0,"[0.8118423989473484, 0.6645873903890056, 0.30714174830975693, 0.31768559571155564, 0.39150557305665856, 0.5671231137308297, 0.5225216431962494, 0.924651902380571]",21.19,0.0,0.0,0.0,444.1050208497837,250.6152533944782,-1051.546654782434,56.117418806400856,329.07758674566645,0.0,0.0,0.0,0.0,0.0,0.0,0.2,21.231848150513887,0.0,20.9655305567766,0.0,0.2,21.19,19.75,22.18,20.86,21.79,-0.26,0.2,0.0,-745.97,-1161.86,0.0,508.0,126.0,51.0,0.0,0.0,0.0,0.0,0.0,0.0,0.0,0.0,0.0,0.0,0.0,0.0,0.0,0.0
127.0,3501.0,9141.666414523901,5594.958082451281,-0.0,0.0,0.0,0.0,14373.485380189843,0.0,0.0,0.0,14373.485380189843,0.06058673469387755,0.3426233629394776,0.4875577677135142,0.0,0.0,0.0,"[0.8118423989473484, 0.6645873903890056, 0.30714174830975693, 0.31768559571155564, 0.39150557305665856, 0.5671231137308297, 0.5225216431962494, 0.924651902380571]",21.19,0.0,0.0,0.0,2115.1550032855116,342.4408990158365,-1056.5568451706063,-29.94133721866202,0.0,0.0,0.0,0.0,0.0,0.0,0.0,0.1,21.189024536498295,0.0,20.911852981809453,0.0,0.1,21.19,19.73,22.1,20.89,21.76,-0.38,0.1,485.41,-749.53,-1167.4,0.0,568.0,176.0,1262.0,0.0,0.0,0.0,0.0,0.0,0.0,0.0,0.0,0.0,0.0,0.0,0.0,0.0,0.0
128.0,1425.0,4951.32523039145,0.0,-0.0,0.0,-3501.5686042394927,0.0,2665.1918576612934,0.0,2665.1918576612934,0.0,0.0,0.14298071800644596,0.3199601668709292,0.4875577677135142,0.0,0.0,0.0,"[0.6284950873297532, 0.6645873903890056, 0.30714174830975693, 0.31768559571155564, 0.39150557305665856, 0.565201604742267, 0.5225216431962494, 0.924651902380571]",21.85,0.0,0.0,2.048791419536975,946.9917568858427,202.0096460663154,-1084.8281934372121,-1007.924410673225,0.0,0.0,0.0,0.0,0.0,0.0,0.0,0.2,21.36608626266652,0.0,20.882096295683063,0.0,0.2,21.85,19.72,22.05,21.19,21.94,-0.24,0.2,690.58,-769.58,-1198.64,3.02,332.0,118.0,520.0,0.0,0.0,0.0,0.0,0.0,0.0,0.0,0.0,0.0,0.0,0.0,0.0,0.0,0.0
129.0,5679.0,0.0,1772.536995239051,-0.0,4088.630507727442,3362.906487511609,0.0,5009.909357503932,0.0,0.0,0.0,5009.909357503932,0.0,0.3199601668709292,0.4875577677135142,0.0,0.0,0.0,"[0.6284950873297532, 0.6645873903890056, 0.30714174830975693, 0.31768559571155564, 0.39150557305665856, 0.565201604742267, 0.5225216431962494, 0.924651902380571]",21.37,0.0,0.0,543.6642648800979,2944.5833297988042,218.8776547418729,-930.4677540735867,-386.6177000878907,0.0,0.0,0.0,0.0,0.0,0.0,0.0,2.8,21.192424353087272,0.0,20.84672221622435,0.0,2.8,21.37,19.7,21.99,20.89,21.71,2.69,2.8,25.41,-660.08,-1028.08,802.54,280.0,90.0,2042.0,0.0,0.0,0.0,0.0,0.0,0.0,0.0,0.0,0.0,0.0,0.0,0.0,0.0,0.0
130.0,2411.0,0.0,6135.589082408218,-0.0,10210.918451955778,0.0,0.0,13707.67400172041,0.0,-6594.200118611461,0.0,18803.97768773907,0.0,0.346886484021926,0.4875577677135142,6657.317478190242,1664.3293695475604,8321.646847737802,"[0.6284950873297532, 0.6645873903890056, 0.30714174830975693, 0.31768559571155564, 0.39150557305665856, 0.565201604742267, 0.5225216431962494, 0.924651902380571]",22.55,0.0,0.0,1031.0573765865497,1150.4723465054783,121.8357976023703,-864.1145229685101,-1994.4015741281032,0.0,0.0,0.0,0.0,0.0,0.0,0.0,5.3,21.56527791950474,0.0,20.871405124082578,0.0,5.3,22.55,19.73,22.02,21.65,22.25,5.47,5.3,0.0,-613.01,-954.77,1522.01,255.0,18.0,723.0,0.0,0.0,0.0,0.0,0.0,0.0,0.0,0.0,0.0,0.0,0.0,0.0,0.0,0.0
131.0,1663.0,0.0,1503.0285128440112,-0.0,10152.952224876688,-6986.923712032677,0.0,4821.322224617343,0.0,0.0,0.0,4821.322224617344,0.285299384908001,0.346886484021926,0.4875577677135142,0.0,0.0,0.0,"[0.6284950873297532, 0.6645873903890056, 0.30714174830975693, 0.31768559571155564, 0.39150557305665856, 0.565201604742267, 0.5225216431962494, 0.924651902380571]",22.26,0.0,0.0,914.8535403844887,791.227259809502,174.573728341011,-774.4035969445781,-1499.5958812253189,0.0,0.0,0.0,0.0,0.0,0.0,0.0,6.8,21.520158810304267,0.0,20.93104777506072,0.0,6.8,22.26,19.78,22.08,21.67,22.31,6.88,6.8,0.0,-549.37,-855.65,1350.48,476.0,3.0,340.0,0.0,0.0,0.0,0.0,0.0,0.0,0.0,0.0,0.0,0.0,0.0,0.0,0.0,0.0
132.0,2359.0,0.0,1690.8416422494415,-0.0,10025.88931483165,-5976.047672582208,0.0,5584.970728041832,0.0,0.0,0.0,5584.970728041833,0.5293213315384412,0.346886484021926,0.4875577677135142,0.0,0.0,0.0,"[0.6284950873297532, 0.6645873903890056, 0.30714174830975693, 0.31768559571155564, 0.39150557305665856, 0.565201604742267, 0.5225216431962494, 0.924651902380571]",22.04,0.0,0.0,875.6653439780711,1889.4022050341453,265.9929159219945,-713.6753754792369,-1141.0106664010475,0.0,0.0,0.0,0.0,0.0,0.0,0.0,7.8,21.485974370881117,0.0,20.97523260884343,0.0,7.8,22.04,19.83,22.12,21.58,22.25,7.87,7.8,0.0,-506.28,-788.55,1292.63,680.0,0.0,1053.0,0.0,0.0,0.0,0.0,0.0,0.0,0.0,0.0,0.0,0.0,0.0,0.0,0.0,0.0
133.0,2956.0,0.0,6467.636327642469,-0.0,9423.636327642469,0.0,0.0,4151.654437750513,0.0,-17458.042209811494,0.0,21609.696647562007,0.5293213315384412,0.4181734897119896,0.4875577677135142,0.0,0.0,0.0,"[0.6284950873297532, 0.6645873903890056, 0.30714174830975693, 0.31768559571155564, 0.39150557305665856, 0.565201604742267, 0.5225216431962494, 0.924651902380571]",22.61,0.0,0.0,837.7642241875923,1535.3022804587904,190.93366446609997,-721.974319914993,-1848.1267822253558,0.0,0.0,0.0,0.0,0.0,0.0,0.0,8.2,21.699179592118917,0.0,21.035592512883895,0.0,8.2,22.61,19.89,22.18,21.91,22.48,8.27,8.2,0.0,-512.17,-797.72,1236.68,474.0,0.0,897.0,0.0,0.0,0.0,0.0,0.0,0.0,0.0,0.0,0.0,0.0,0.0,0.0,0.0,0.0
134.0,1164.0,0.0,308.3513645982439,-0.0,8375.597456499032,-6903.246091900788,0.0,1030.2650168115933,0.0,0.0,0.0,1030.2650168115933,0.8112038802910567,0.4181734897119896,0.4848452903174925,0.0,0.0,0.0,"[0.6284950873297532, 0.6645873903890056, 0.30714174830975693, 0.31768559571155564, 0.39150557305665856, 0.565201604742267, 0.5225216431962494, 0.924651902380571]",22.59,0.0,0.0,767.7299703476626,1058.9166534275753,175.9963314823231,-721.0009125149188,-1731.491431124343,0.0,0.0,0.0,0.0,0.0,0.0,0.0,8.2,21.737960278241314,0.0,21.09952587293981,0.0,8.2,22.59,19.95,22.25,21.88,22.49,8.17,8.2,0.0,-511.48,-796.64,1133.3,465.0,0.0,546.0,0.0,0.0,0.0,0.0,0.0,0.0,0.0,0.0,0.0,0.0,0.0,0.0,0.0,0.0
135.0,1059.0,0.0,1623.3871190830057,-0.0,5377.026046207791,-2694.6389271247854,0.0,5269.306133847222,0.0,0.0,0.0,5269.306133847222,0.9212349698153188,0.4181734897119896,0.4848452903174925,0.0,0.0,0.0,"[0.6284950873297532, 0.6645873903890056, 0.30714174830975693, 0.31768559571155564, 0.39150557305665856, 0.565201604742267, 0.5225216431962494, 0.924651902380571]",22.35,0.0,0.0,744.7529849840068,369.74685595587454,108.18558174644727,-759.1103718401073,-1331.8962391863654,0.0,0.0,0.0,0.0,0.0,0.0,0.0,7.2,21.698400978104193,0.0,21.148143032049546,0.0,7.2,22.35,20.01,22.29,21.77,22.42,7.15,7.2,0.0,-538.52,-838.75,1099.38,308.0,0.0,114.0,0.0,0.0,0.0,0.0,0.0,0.0,0.0,0.0,0.0,0.0,0.0,0.0,0.0,0.0
136.0,1849.0,3586.0046894171887,1719.0746659701026,-0.0,0.0,0.0,0.0,5350.457095110536,0.0,0.0,0.0,5350.457095110536,0.9212349698153188,0.4181734897119896,0.4848452903174925,0.0,0.0,0.0,"[0.6284950873297532, 0.6645873903890056, 0.30714174830975693, 0.31768559571155564, 0.39150557305665856, 0.565201604742267, 0.5225216431962494, 0.924651902380571]",21.91,0.0,0.0,0.0,456.93268531489406,153.67501076506926,-807.006678263497,-688.7528899326503,0.0,0.0,0.0,0.0,0.0,0.0,0.0,5.8,21.57609939402935,0.0,21.169044466744012,0.0,5.8,21.91,20.04,22.29,21.54,22.26,5.26,5.8,0.0,-572.49,-891.67,0.0,390.0,28.0,133.0,0.0,0.0,0.0,0.0,0.0,0.0,0.0,0.0,0.0,0.0,0.0,0.0,0.0,0.0
137.0,3191.0,0.0,0.0,-0.0,0.0,3191.0,0.0,9609.32244662091,0.0,9609.32244662091,0.0,0.0,0.7855632011078358,0.37731752692873743,0.4623704776075984,0.0,0.0,0.0,"[0.6284950873297532, 0.6645873903890056, 0.30714174830975693, 0.31768559571155564, 0.39150557305665856, 0.565201604742267, 0.5225216431962494, 0.924651902380571]",21.46,0.0,0.0,0.0,820.6181174026397,278.9995732139906,-804.5019345287423,-121.27907038855669,0.0,0.0,0.0,0.0,0.0,0.0,0.0,5.4,21.40900364096337,0.0,21.133065965491916,0.0,5.4,21.46,20.04,22.22,21.07,21.89,4.86,5.4,0.0,-570.72,-888.9,0.0,648.0,83.0,263.0,0.0,0.0,0.0,0.0,0.0,0.0,0.0,0.0,0.0,0.0,0.0,0.0,0.0,0.0
138.0,7575.0,7613.065326633166,0.0,-0.0,0.0,0.0,0.0,10195.492461723317,0.0,10195.492461723317,0.0,0.0,0.7855632011078358,0.33396934469351924,0.4623704776075978,0.0,0.0,0.0,"[0.6284950873297532, 0.6645873903890056, 0.30714174830975693, 0.31768559571155564, 0.39150557305665856, 0.565201604742267, 0.5225216431962494, 0.924651902380571]",21.53,0.0,0.0,0.0,573.0160005568547,220.50348690337248,-828.0962080332271,-281.049007955283,2547.3618253282757,0.0,0.0,0.0,0.0,0.0,0.0,5.0,21.400599332512957,0.0,21.097816322206214,0.0,5.0,21.53,20.04,22.15,21.15,21.9,4.48,5.0,0.0,-587.45,-914.97,0.0,404.0,126.0,202.0,0.0,0.0,0.0,0.0,0.0,0.0,0.0,0.0,0.0,0.0,0.0,0.0,0.0,0.0
139.0,8046.0,0.0,0.0,-0.0,0.0,8046.0,0.0,3842.3589099942856,0.0,3842.358909994285,0.0,0.0,0.443471364373142,0.3176327847020469,0.4623704776075978,0.0,0.0,0.0,"[0.6284950873297532, 0.6645873903890056, 0.30714174830975693, 0.31768559571155564, 0.39150557305665856, 0.565201604742267, 0.5225216431962494, 0.924651902380571]",22.63,0.0,0.0,0.0,643.7091184607324,232.59561360452517,-903.261927997545,-1764.6014236985839,1817.8874948802825,0.0,0.0,0.0,0.0,0.0,0.0,4.6,21.762267083439138,0.0,21.13757867382502,0.0,4.6,22.63,20.07,22.2,22.01,22.51,4.1,4.6,0.0,-640.78,-998.02,0.0,404.0,143.0,253.0,0.0,0.0,0.0,0.0,0.0,0.0,0.0,0.0,0.0,0.0,0.0,0.0,0.0,0.0
140.0,6436.0,152085.31546622005,1.474919861076955e-11,-40000.0,0.0,-16000.0,0.0,0.0,0.0,-80000.00000000004,0.0,4.3655745685100555e-11,0.8231652419241624,0.6442994513687138,0.5616109839367117,355555.55555555574,88888.88888888893,444444.4444444446,"[0.6284950873297532, 0.6645873903890056, 0.30714174830975693, 0.19191194583267546, 0.39150557305665856, 0.29145646923475965, 0.5088734530415842, 0.2037666915297791]",22.63,0.0,0.0,0.0,1031.3583193294533,268.4994071709729,-923.302689550235,-1694.1262694590266,0.0,0.0,0.0,0.0,0.0,0.0,0.0,4.2,21.797681023682813,0.0,21.185764963708998,0.0,4.2,22.63,20.11,22.26,21.94,22.49,3.72,4.2,0.0,-654.99,-1020.17,0.0,576.0,95.0,457.0,0.0,0.0,0.0,0.0,0.0,0.0,0.0,0.0,0.0,0.0,0.0,0.0,0.0,0.0
141.0,4904.0,4928.643216080402,0.0,-0.0,0.0,0.0,0.0,6313.353441348587,0.0,6313.353441348588,0.0,0.0,0.8231652419241624,0.6174569622473337,0.4864366103898246,0.0,0.0,0.0,"[0.6284950873297532, 0.6645873903890056, 0.30714174830975693, 0.19191194583267546, 0.39150557305665856, 0.29145646923475965, 0.5088734530415842, 0.2037666915297791]",21.96,0.0,0.0,0.0,649.8410240017465,189.6804188416107,-909.6714905886408,-762.3163579219046,1048.817124279426,0.0,0.0,0.0,0.0,0.0,0.0,3.8,21.58997849987524,0.0,21.182467076466025,0.0,3.8,21.96,20.12,22.24,21.39,22.1,3.35,3.8,0.0,-645.32,-1005.1,0.0,436.0,55.0,250.0,0.0,0.0,0.0,0.0,0.0,0.0,0.0,0.0,0.0,0.0,0.0,0.0,0.0,0.0
142.0,2928.0,0.0,0.0,-0.0,0.0,2928.0,0.0,1788.7224012933782,0.0,1788.722401293378,0.0,0.0,0.6986754460057951,0.6098518499969366,0.48643661038982466,0.0,0.0,0.0,"[0.6284950873297532, 0.6645873903890056, 0.30714174830975693, 0.19191194583267546, 0.39150557305665856, 0.29145646923475965, 0.5088734530415842, 0.2037666915297791]",22.05,0.0,0.0,0.0,345.9945321935547,140.60061046634394,-934.5803192284578,-904.1497374032723,0.0,0.0,0.0,0.0,0.0,0.0,0.0,3.4,21.61679255910331,0.0,21.18097457003509,0.0,3.4,22.05,20.13,22.23,21.55,22.2,2.94,3.4,0.0,-663.0,-1032.63,0.0,324.0,46.0,83.0,0.0,0.0,0.0,0.0,0.0,0.0,0.0,0.0,0.0,0.0,0.0,0.0,0.0,0.0
143.0,1594.0,0.0,4211.6273499703375,-8122.020114638575,0.0,13927.647464608912,0.0,11984.070661414784,0.0,0.0,0.0,11984.070661414788,0.10651356400711698,0.6098518499969366,0.5,0.0,0.0,0.0,"[0.6284950873297532, 0.6645873903890056, 0.30714174830975693, 0.19191194583267546, 0.39150557305665856, 0.29145646923475965, 0.5088734530415842, 0.2037666915297791]",21.37,0.0,0.0,0.0,382.15163038367353,146.25715152822767,-920.4473732972415,-14.130984584872234,2943.860221544486,0.0,0.0,0.0,0.0,0.0,0.0,3.0,21.37825060265517,0.0,21.14087550097009,0.0,3.0,21.37,20.11,22.17,21.04,21.83,2.54,3.0,2161.88,-652.97,-1017.01,0.0,420.0,3.0,64.0,0.0,0.0,0.0,0.0,0.0,0.0,0.0,0.0,0.0,0.0,0.0,0.0,0.0,0.0
144.0,1046.0,6962.111028437282,0.0,-0.0,0.0,-5881.300473295095,0.0,11927.82846021581,0.0,11927.828460215807,0.0,0.0,0.3466666666666667,0.5591382936184682,0.5,0.0,0.0,0.0,"[0.6284950873297532, 0.6645873903890056, 0.30714174830975693, 0.19191194583267546, 0.39150557305665856, 0.29145646923475965, 0.5088734530415842, 0.2037666915297791]",22.63,0.0,0.0,0.0,243.79610650998282,112.48726267374806,-1008.4759261491671,-1724.0547925695384,0.0,0.0,0.0,0.0,0.0,0.0,0.0,2.5,21.783972694541944,0.0,21.174489597483145,0.0,2.5,22.63,20.14,22.21,22.06,22.54,2.07,2.5,0.0,-715.42,-1114.27,0.0,320.0,6.0,13.0,0.0,0.0,0.0,0.0,0.0,0.0,0.0,0.0,0.0,0.0,0.0,0.0,0.0,0.0
145.0,2202.0,21652.23080257047,3341.9696485576183,-0.0,0.0,-16000.0,0.0,9222.743210276298,0.0,0.0,0.0,9222.7432102763,1.0,0.5591382936184682,0.5,0.0,0.0,0.0,"[0.6284950873297532, 0.6645873903890056, 0.30714174830975693, 0.19191194583267546, 0.39150557305665856, 0.29145646923475965, 0.5088734530415842, 0.2037666915297791]",21.44,0.0,0.0,0.0,351.4216210057169,111.57273208290458,-968.8402874495407,-102.48852386407144,488.8095534921974,0.0,0.0,0.0,0.0,0.0,0.0,2.1,21.40075228016894,0.0,21.145671750997877,0.0,2.1,21.44,20.12,22.17,21.07,21.85,1.7,2.1,27.63,-687.3,-1070.48,0.0,320.0,0.0,94.0,0.0,0.0,0.0,0.0,0.0,0.0,0.0,0.0,0.0,0.0,0.0,0.0,0.0,0.0
146.0,1158.0,0.0,4013.319142689315,-0.0,0.0,5171.319142689315,0.0,10884.14722835561,0.0,0.0,0.0,10884.14722835561,0.7801309888312367,0.5591382936184682,0.5,0.0,0.0,0.0,"[0.6284950873297532, 0.6645873903890056, 0.30714174830975693, 0.19191194583267546, 0.39150557305665856, 0.29145646923475965, 0.5088734530415842, 0.2037666915297791]",21.37,0.0,0.0,0.0,292.4989424736712,110.08238593486337,-990.5900387316564,-83.14467034808082,3043.0594052479823,0.0,0.0,0.0,0.0,0.0,0.0,1.6,21.344805803798724,0.0,21.099342891000973,0.0,1.6,21.37,20.1,22.1,21.08,21.83,1.22,1.6,705.95,-702.73,-1094.51,0.0,320.0,0.0,50.0,0.0,0.0,0.0,0.0,0.0,0.0,0.0,0.0,0.0,0.0,0.0,0.0,0.0,0.0
147.0,558.0,0.0,3766.7287873218356,-0.0,0.0,4324.728787321836,0.0,10143.573841705243,0.0,0.0,0.0,10143.573841705243,0.5962564655607505,0.5591382936184682,0.5,0.0,0.0,0.0,"[0.6284950873297532, 0.6645873903890056, 0.30714174830975693, 0.19191194583267546, 0.39150557305665856, 0.29145646923475965, 0.5088734530415842, 0.2037666915297791]",22.55,0.0,0.0,0.0,284.46403176475593,109.87915691467592,-1059.549032017021,-1681.801431294574,0.0,0.0,0.0,0.0,0.0,0.0,0.0,1.4,21.725135785144605,0.0,21.13041629090079,0.0,1.4,22.55,20.11,22.15,22.0,22.47,1.01,1.4,2438.13,-751.65,-1170.71,0.0,320.0,0.0,44.0,0.0,0.0,0.0,0.0,0.0,0.0,0.0,0.0,0.0,0.0,0.0,0.0,0.0,0.0
148.0,668.0,671.356783919598,0.0,-0.0,0.0,0.0,0.0,10092.439329416393,0.0,10092.439329416391,0.0,0.0,0.5962564655607505,0.5162282624559835,0.5,0.0,0.0,0.0,"[0.6284950873297532, 0.6645873903890056, 0.30714174830975693, 0.19191194583267546, 0.39150557305665856, 0.29145646923475965, 0.5088734530415842, 0.2037666915297791]",21.37,0.0,0.0,0.0,317.8018630394659,85.05134494844368,-1010.6308002843463,-83.91783531278016,1763.4809001223455,0.0,0.0,0.0,0.0,0.0,0.0,1.2,21.344696713987016,0.0,21.09844651438388,0.0,1.2,21.37,20.1,22.1,21.01,21.78,0.85,1.2,0.0,-716.95,-1116.66,0.0,240.0,0.0,111.0,0.0,0.0,0.0,0.0,0.0,0.0,0.0,0.0,0.0,0.0,0.0,0.0,0.0,0.0
149.0,780.0,2877.6704733559127,0.0,-0.0,0.0,-2083.282120989133,0.0,10461.63008508945,0.0,10461.630085089451,0.0,0.0,0.6813238188344735,0.47174854270645356,0.5,0.0,0.0,0.0,"[0.6284950873297532, 0.6645873903890056, 0.30714174830975693, 0.19191194583267546, 0.39150557305665856, 0.29145646923475965, 0.5088734530415842, 0.2037666915297791]",21.9,0.0,0.0,0.0,239.42624279109904,91.55467359444172,-1052.1939311356628,-842.2127417295706,3032.7662975652265,0.0,0.0,0.0,0.0,0.0,0.0,0.9,21.496796897364984,0.0,21.087290148986824,0.0,0.9,21.9,20.09,22.09,21.49,22.1,0.56,0.9,1163.5,-746.43,-1162.58,0.0,240.0,14.0,51.0,0.0,0.0,0.0,0.0,0.0,0.0,0.0,0.0,0.0,0.0,0.0,0.0,0.0,0.0
150.0,1864.0,0.0,3625.949886995809,-0.0,0.0,5489.949886995809,0.0,9557.060980770766,0.0,0.0,0.0,9557.060980770766,0.44790758214247484,0.47174854270645356,0.5,0.0,0.0,0.0,"[0.6284950873297532, 0.6645873903890056, 0.30714174830975693, 0.19191194583267546, 0.39150557305665856, 0.29145646923475965, 0.5088734530415842, 0.2037666915297791]",22.63,0.0,0.0,0.0,378.48658339364204,138.53444876110495,-1093.6491627480993,-1793.545540148805,0.0,0.0,0.0,0.0,0.0,0.0,0.0,0.8,21.75048971653026,0.0,21.12981930911024,0.0,0.8,22.63,20.11,22.15,22.03,22.5,0.48,0.8,2105.94,-775.84,-1208.38,0.0,298.0,55.0,120.0,0.0,0.0,0.0,0.0,0.0,0.0,0.0,0.0,0.0,0.0,0.0,0.0,0.0,0.0
151.0,2147.0,0.0,0.0,-0.0,0.0,2147.0,0.0,4844.350522272972,0.0,4844.350522272972,0.0,0.0,0.3566235685370327,0.45115181429542905,0.5,0.0,0.0,0.0,"[0.6284950873297532, 0.6645873903890056, 0.30714174830975693, 0.19191194583267546, 0.39150557305665856, 0.29145646923475965, 0.5088734530415842, 0.2037666915297791]",21.44,0.0,0.0,0.0,378.6275467394124,156.75731757124544,-1044.0712114215917,-171.22982294427683,562.3807326850552,0.0,0.0,0.0,0.0,0.0,0.0,0.6,21.369073466387277,0.0,21.10149487559138,0.0,0.6,21.44,20.09,22.11,21.06,21.82,0.29,0.6,157.61,-740.67,-1153.6,0.0,300.0,84.0,116.0,0.0,0.0,0.0,0.0,0.0,0.0,0.0,0.0,0.0,0.0,0.0,0.0,0.0,0.0
