,import_elec,import_th,consum_elec,consum_th,consum_cold,pow_elec_hp,pow_th_hp,pow_th_gb,pow_th_chp,pow_gas_gb,pow_elec_eh,pow_elec_ac,pow_elec_chp,pow_th_eh_in,pow_th_eh_out,consum_dhw,gen_pv,trans_to_hub,trans_to_bul,dh_to_bul_1,dh_to_bul_2,temp_zone_1,temp_zone_2,temp_amb,pow_elec_bat,pow_th_tes,soc_bat_avg,soc_tes_avg,soc_ev_1,soc_ev_2,consum_ev_drive,consum_ev_charge,soc_ev_1_driving,soc_ev_2_driving,obj_cost,obj_co2,obj_peak,emi_factor_elec,emi_factor_dh,price_elec,price_dh,slack_ext,restload_avg,renovation_cost_construction,renovation_cost_hp,renovation_cost_pv,renovation_cost_total
390.0,1485863.0812212862,0.0,55528.0,2695642.4303064262,0.0,1295620.6659482003,2550310.6924363677,0.0,0.0,0.0,205646.62503055055,0.0,0.0,822586.5001222022,1028233.1251527526,24740.83,0.0,0.0,1485863.0812212862,0.0,,20.0,,-6.2,78361.52516357093,-15504.211257436793,0.39455163094960355,0.5026672538641936,0.8,,0.0,0.0,0.0,,400.6332625896954,543825.8877269907,1485863.0812212862,366.0,217.0,89.63,73.89,,,5516588.0304000005,837141.3467096372,1055673.1935,7409402.570609635
391.0,731196.08227393,0.0,49458.0,1530947.9363355557,0.0,477630.9198228128,935619.345856165,0.0,0.0,0.0,242668.88691271713,0.0,0.0,970675.5476508685,1213344.4345635856,0.0,0.0,0.0,731196.08227393,0.0,,20.0,,-6.3,43904.502040816325,376926.59225794504,0.3599378383426136,0.4343577235896948,0.8,,0.0,-1686.7971678467304,0.0,,197.1670235851652,279316.90342864126,731196.08227393,382.0,207.0,89.65,73.9,,,,,,
392.0,737652.8801878892,0.0,65557.0,1393968.9812535674,0.0,645395.7916042765,1270402.54253526,0.0,0.0,0.0,86508.41278209533,0.0,0.0,346033.6511283813,432542.06391047663,0.0,0.0,0.0,737652.8801878893,0.0,,24.0,,-6.2,63496.58859942201,45708.867214422746,0.2847303357558052,0.4100863453145336,0.8,,0.0,0.0,0.0,,200.08834375096495,257440.85518557334,737652.8801878892,349.0,210.0,91.25,73.92,,,,,,
393.0,847479.8604568017,0.0,83640.0,1492552.359518596,3008.09869892656,583523.4621773803,1187552.8829370057,0.0,0.0,0.0,76408.04035996726,1504.04934946328,0.0,305632.161439869,382040.20179983624,0.0,414.0666266069257,0.0,847479.8604568016,0.0,,24.0,,-5.5,-100085.02524377697,236232.24025762058,0.48367427100482696,0.40007554464929596,0.8,,0.0,0.0,0.0,,232.84509166050626,283905.75325302855,847479.8604568017,335.0,211.0,94.75,73.92,,,,,,
394.0,1121420.073512705,0.0,109766.0,1774867.1739645111,125932.01263384467,761039.9857746174,1585100.2866784623,0.0,0.0,0.0,226481.67591543528,62966.006316922336,0.0,905926.7036617411,1132408.3795771762,356545.33999999997,2038.2736666551164,0.0,1121420.073512705,0.0,,21.316734904442495,,-5.0,-20563.58512174403,335347.81216215703,0.5087014385596814,0.3622225843441636,0.8,,0.0,0.0,0.0,,302.39092282270093,366704.3640386546,1121420.073512705,327.0,210.0,89.65,73.92,,,,,,
395.0,1030477.7983105947,0.0,157116.0,1705545.948779964,0.0,813077.4147352122,1739992.167057838,0.0,0.0,0.0,60814.980935237814,0.0,0.0,243259.92374095126,304074.90467618906,0.0,16256.065339844386,0.0,1030477.7983105947,0.0,,20.0,,-4.4,-10573.078988436086,-89179.70111958822,0.5000324820203578,0.36443337628994027,0.8,,0.0,0.0,0.0,,277.8683383144519,332844.32885432214,1030477.7983105947,323.0,210.0,89.65,73.92,,,,,,
396.0,773779.9094011472,0.0,147699.0,1430777.2953092004,0.0,638459.4959999226,1390654.946358796,0.0,0.0,0.0,9737.648,0.0,0.0,38950.592,48688.24,48688.24,24960.761679502157,0.0,773779.9094011472,0.0,,23.652483488364844,,-4.0,1024.3724662790382,79072.94095040431,0.48940122544516385,0.33749523819069377,0.8,,0.0,-1.4551915228366852e-11,0.31666666666666665,,208.6420147709253,249157.1308271694,773779.9094011472,322.0,209.0,89.64,73.92,,,,,,
397.0,570198.7990731873,0.0,128191.0,1181211.3929274813,0.0,474659.8684646552,1042926.3819799252,0.0,0.0,0.0,34568.894,0.0,0.0,138275.576,172844.47,172844.47,15251.528716750025,0.0,570198.7990731873,0.0,,24.0,,-3.8,54820.42867008374,276560.58694755624,0.3547278200454454,0.30890062527577705,0.8,,0.0,0.0,0.31666666666666665,,153.7427021941035,181323.21810527355,570198.7990731873,318.0,205.0,89.63,73.91,,,,,,
398.0,426603.3786318009,0.0,102534.0,873978.7264042677,0.0,238291.73529241318,521304.75957353954,0.0,0.0,0.0,39002.92197689739,0.0,0.0,156011.68790758957,195014.60988448694,0.0,3215.4731486138126,0.0,426603.3786318008,0.0,,21.15034574013668,,-3.9,-47857.17761794508,317571.3370515206,0.4624808199722168,0.2853664724648921,0.8,,8700.0,0.0,0.31666666666666665,,115.02933501427879,145045.1487348123,426603.3786318009,340.0,204.0,89.64,73.91,,,,,,
399.0,754795.8140436269,0.0,98491.0,1152032.47834626,0.0,545503.9804436422,1177783.792471426,0.0,0.0,0.0,124999.34641581224,0.0,0.0,499997.38566324895,624996.7320790612,28693.42,19.856061219163134,0.0,754795.8140436269,0.0,,20.32372027475106,,-4.2,17952.635824826568,-110131.17429939623,0.42378931715289425,0.29207925145465463,0.8,,10800.0,0.0,0.31666666666666665,,203.53069125686395,268707.3097995312,754795.8140436269,356.0,209.0,89.65,73.91,,,,,,
400.0,913448.9029756523,0.0,94333.0,1151270.5858626375,0.0,632843.2663414982,1336190.3815414514,0.0,0.0,0.0,168486.86617232187,0.0,0.0,673947.4646892875,842434.3308616093,83325.93,0.0,0.0,913448.902975652,0.0,,24.0,,-4.7,-13218.525946953992,-254898.5638339028,0.4508548841174554,0.33908480229435756,0.8,,2400.0,0.0,0.31666666666666665,,250.99748955964972,316966.76933255134,913448.9029756523,347.0,210.0,94.78,73.91,,,,,,
401.0,790546.2800790232,0.0,116456.0,1191272.284312027,0.0,655294.5970862845,1358605.8045429771,0.0,0.0,0.0,0.0,0.0,0.0,0.0,0.0,0.0,0.0,0.0,790546.2800790231,0.0,,21.185993334858072,,-5.1,-14842.951592343456,-167333.52023094922,0.45284712305484537,0.3570543479978887,0.8,,0.0,0.0,0.31666666666666665,,226.85516053147649,260880.27242607766,790546.2800790232,330.0,208.0,106.96,73.93,,,,,,
402.0,647886.9347921923,0.0,140032.0,619637.8979765687,100694.26199396559,399153.9985374597,812334.9144012679,0.0,0.0,0.0,0.0,50347.13099698279,0.0,0.0,0.0,0.0,0.0,0.0,647886.9347921923,0.0,,20.370722257446847,,-5.5,-105461.50158077168,-192697.01642469934,0.6234969830558731,0.42703487311394667,0.8,,12150.0,0.0,0.31666666666666665,,186.0990431497093,212506.91461183908,647886.9347921923,328.0,210.0,107.24,73.93,,,,,,
403.0,1096281.328965447,0.0,170267.0,2020085.892023647,200000.0,892496.1157812583,1790830.6709956233,0.0,0.0,0.0,22336.624036698977,100000.0,0.0,89346.49614679591,111683.12018349487,11533.93,0.0,0.0,1096281.328965447,0.0,,21.721024889172526,,-5.8,-5700.182502662457,220455.51079499512,0.6069245249609979,0.3710166207827,0.8,,7500.0,0.0,0.31666666666666665,,301.23618357312546,371639.3705192865,1096281.328965447,339.0,212.0,94.78,73.93,,,,,,
404.0,946180.1821427252,0.0,168212.0,1312351.3587367807,67465.51286341666,657037.1004586015,1293317.3934830958,0.0,0.0,0.0,142832.77956899317,33732.75643170833,0.0,571331.1182759727,714163.8978449658,36753.99,0.0,0.0,946180.1821427253,0.0,,23.629277742553153,,-6.2,26632.59879558313,-73496.62615840831,0.49723849168841383,0.3607045815949361,0.7775510204081633,,3300.0,0.0,0.0,,255.14694791660727,336840.1448428102,946180.1821427252,356.0,220.0,89.66,73.92,,,,,,
405.0,1114916.361463013,0.0,153517.0,1539470.277596791,227742.8861033116,806416.6185046313,1556606.033597144,0.0,0.0,0.0,68037.7922172896,113871.4430516558,0.0,272151.1688691584,340188.96108644805,0.0,0.0,0.0,1114916.3614630133,0.0,,21.229787396422715,,-6.6,-81370.3689337773,-78369.76899591286,0.619116109519461,0.38584941812691875,0.7775510204081633,,2400.0,0.0,0.0,,300.62604770488684,437047.21369350114,1114916.361463013,392.0,230.0,89.64,73.89,,,,,,
406.0,392579.4369595957,0.0,114577.0,961276.5823543433,75790.91625555392,349752.9818540493,661782.3117140941,0.0,0.0,0.0,20566.827218595463,37895.45812777696,0.0,82267.30887438185,102834.1360929773,0.0,0.0,0.0,392579.4369595957,0.0,,23.629277742553153,,-7.0,94280.26929784706,280984.12614351336,0.49977155662830847,0.3634094954641568,0.7775510204081633,,6300.0,0.0,0.0,,105.85119358741578,146039.5505489696,392579.4369595957,372.0,238.0,89.63,73.76,,,,,,
407.0,502478.64111089957,0.0,81470.0,895097.691004267,0.0,416681.29819002,776503.1389526203,0.0,0.0,0.0,33462.153796957704,0.0,0.0,133848.61518783082,167310.76898478853,0.0,0.0,0.0,502478.64111089957,0.0,,23.629277742553153,,-7.3,31647.204081632655,88478.61363438482,0.5070934351151529,0.35983115330562354,0.7775510204081633,,4350.0,0.0,0.0,,135.397894633743,175365.04574770396,502478.64111089957,349.0,197.0,89.46,71.69,,,,,,
408.0,425441.6565689017,0.0,62021.0,947205.8036066896,0.0,374108.89111402596,686468.1817188195,0.0,0.0,0.0,77446.0137641875,0.0,0.0,309784.05505675,387230.0688209375,0.0,0.0,0.0,425441.65656890173,0.0,,21.579312723429602,,-7.6,90261.45659215623,191036.20950010186,0.3575392341257515,0.335767441284512,0.7775510204081633,,20550.0,0.0,0.0,,108.78968600123383,143373.83826371987,425441.6565689017,337.0,199.0,75.71,74.75,,,,,,
409.0,505742.70825775363,0.0,52509.0,919949.896182295,0.0,424064.5370377811,770048.4284759331,0.0,0.0,0.0,33827.621632677125,0.0,0.0,135310.4865307085,169138.10816338562,0.0,0.0,0.0,505742.7082577535,0.0,,21.481553962816886,,-7.8,7187.163953993317,119456.60823695242,0.3949000332530347,0.32507948745184967,0.7775510204081633,,5550.0,0.0,0.0,,128.53956673079065,173975.49164066726,505742.70825775363,344.0,202.0,74.16,75.08,,,,,,
410.0,399281.79362536606,0.0,41795.0,699584.5686064598,0.0,353974.7999935638,632650.536805707,0.0,0.0,0.0,0.0,0.0,0.0,0.0,0.0,0.0,0.0,0.0,399281.7936253661,0.0,,20.860537040643152,,-8.1,3013.778101838907,66934.03180075318,0.36888156148935486,0.3250599511154914,0.7775510204081633,,0.0,-4529.362765514369,0.0,,98.05961569645365,134158.682658123,399281.79362536606,336.0,199.0,65.59,75.77,,,,,,
411.0,656188.0016117296,0.0,38765.0,855242.2946992832,3739.8499065678025,375799.47010402475,671657.2380207137,0.0,0.0,0.0,211893.00502185014,1869.9249532839012,0.0,847572.0200874006,1059465.0251092506,0.0,0.0,0.0,656188.0016117296,0.0,,20.54385510824868,,-8.1,-26449.58647779614,-7118.647841095366,0.3939757479821414,0.3258857679832307,0.7775510204081633,,0.0,0.0,0.0,,160.33953819382614,206043.0325060831,656188.0016117296,314.0,197.0,64.35,75.78,,,,,,
412.0,379433.2271776755,0.0,33965.0,742668.0845302532,0.0,358827.859935282,637903.4765048384,0.0,0.0,0.0,0.0,0.0,0.0,0.0,0.0,0.0,0.0,0.0,379433.2271776756,0.0,,23.629277742553153,,-8.2,15256.79889349481,104764.60802541509,0.36665030592849557,0.31241987152128925,0.7775510204081633,,5100.0,0.0,0.0,,92.83592769356187,114588.834607658,379433.2271776755,302.0,194.0,64.67,75.8,,,,,,
413.0,559895.6533927016,0.0,38733.0,745082.2025489488,0.0,457679.9590844261,809273.8342620772,0.0,0.0,0.0,104556.49228358043,0.0,0.0,418225.9691343217,522782.46141790214,0.0,0.0,0.0,559895.6533927016,0.0,,21.361480282559015,,-8.3,43873.27624226838,-158292.4747683508,0.30874698757815205,0.34344997078546047,0.7775510204081633,,0.0,0.0,0.0,,137.20242986388155,156770.78294995645,559895.6533927016,280.0,190.0,65.05,75.92,,,,,,
414.0,713592.3084801594,0.0,54504.0,412330.765275574,0.0,478095.8993635369,845373.4841195748,0.0,0.0,0.0,54035.19600000001,0.0,0.0,216140.78400000004,270175.98000000004,270175.98000000004,0.0,0.0,713592.308480159,0.0,,20.70533762649486,,-8.3,-113630.81758838237,-216901.9348440008,0.5589019568427102,0.372169789636847,0.7775510204081633,,0.0,-9758.433985839236,0.0,,182.46555327837675,186247.5925133216,713592.3084801594,261.0,185.0,75.7,76.03999999999999,,,,,,
415.0,671353.3619178035,0.0,48458.0,1277477.0583668146,0.0,620393.6050658342,1096985.5715938972,0.0,0.0,0.0,22783.883234522305,0.0,0.0,91135.53293808922,113919.41617261153,66604.92,0.0,0.0,671353.3619178038,0.0,,23.62927774255315,,-8.3,23638.89319214208,225258.813461849,0.5548720637262665,0.32898929041552033,0.7775510204081633,,0.0,0.0,0.0,,171.6717681760015,160453.45349835505,671353.3619178035,239.0,192.0,75.71,75.84,,,,,,
416.0,631758.3237236441,0.0,67192.0,918230.2423526373,0.0,312860.6798939895,559168.271537776,0.0,0.0,0.0,265216.9391637738,0.0,0.0,1060867.7566550951,1326084.695818869,19516.73,0.0,0.0,631758.3237236443,0.0,,21.42794329316724,,-8.1,20668.42098022585,139493.1209674655,0.5250468181265218,0.32679950293700244,0.7775510204081633,,0.0,-3998.3340274885445,0.31666666666666665,,161.54692095937304,140250.347866649,631758.3237236441,222.0,210.0,75.71,75.24,,,,,,
417.0,527710.4389976787,0.0,79350.0,1037348.5186708497,31447.729202370414,464558.81107765035,848009.7727198747,0.0,0.0,0.0,0.0,15723.864601185207,0.0,0.0,0.0,0.0,0.0,0.0,527710.4389976787,0.0,,23.62927774255315,,-7.7,18836.924274959973,189338.7459509751,0.5140404267639301,0.32525852965003843,0.7775510204081633,,0.0,0.0,0.31666666666666665,,134.9408363560964,107125.21911652878,527710.4389976787,203.0,221.0,75.71,75.22,,,,,,
418.0,658689.8828020415,0.0,112690.0,825743.1357180469,281.7164967811983,335948.49805260566,622851.4674009308,0.0,0.0,0.0,226733.64421322884,140.85824839059916,0.0,906934.5768529153,1133668.221066144,69881.15,21.203539641708293,0.0,658689.8828020416,0.0,,23.62927774255315,,-7.4,19954.505338161456,67314.91552521015,0.5002937635287054,0.31978700112670627,0.7775510204081633,,0.0,0.0,0.31666666666666665,,167.40603371413883,125151.07773238787,658689.8828020415,190.0,223.0,74.15,75.22,,,,,,
419.0,887346.2854999085,0.0,175464.0,826391.275779385,1228.56810070518,419790.8554867929,786299.9249229116,0.0,0.0,0.0,288081.2967099229,614.28405035259,0.0,1152325.1868396916,1440406.4835496142,76691.16,85.93675149002043,0.0,887346.2854999085,0.0,,21.691138147018638,,-7.2,340.66137281687406,-144024.4793824567,0.48750945047061206,0.3578564522526191,0.7775510204081633,,1800.0,0.0,0.31666666666666665,,215.1016130680328,157947.63881898372,887346.2854999085,178.0,215.0,62.41,75.23,,,,,,
420.0,820870.4945863959,0.0,145591.0,1130134.928501872,64421.93507163216,663480.0302934136,1261723.5999401908,0.0,0.0,0.0,6262.565572249121,32210.96753581608,0.0,25050.262288996484,31312.8278612456,0.0,210.26724157399374,0.0,820870.494586396,0.0,,23.62927774255315,,-6.9,-1642.813489375294,-137224.98045334272,0.46465725843417616,0.3583639027932104,0.7775510204081633,,0.0,0.0,0.31666666666666665,,197.41935394802823,144473.20704720568,820870.4945863959,176.0,212.0,60.5,75.27,,,,,,
421.0,309269.8490948029,0.0,119601.0,875303.0695101547,4231.01365574364,382159.45340309246,806894.5551153223,0.0,0.0,0.0,0.0,2115.50682787182,0.0,0.0,0.0,0.0,222160.7620151398,0.0,309269.84909480286,0.0,,21.792586052144724,,-4.7,-28123.808461376248,68408.51439483267,0.48904741319950223,0.3450351456567589,0.7663265306122449,,1650.0,0.0,0.0,,74.3793987073001,55977.842686159325,309269.8490948029,181.0,207.0,60.5,75.28,,,,,,
422.0,432276.5929541998,0.0,98586.0,750894.9721680885,2354.6819988426428,325016.417263559,717227.0997845838,0.0,0.0,0.0,131980.81616605274,1177.3409994213214,0.0,527923.264664211,659904.0808302637,19303.89,148479.10124446658,0.0,432276.5929541997,0.0,,21.323130010000327,,-3.7,-23011.0778042836,-66197.04996594248,0.5565537168567576,0.3567277094490958,0.7663265306122449,,2100.0,0.0,0.05,,103.98413443513277,79538.89310357277,432276.5929541998,184.0,193.0,60.55,77.02,,,,,,
423.0,636565.5536974865,0.0,99265.0,800232.3758353633,0.0,301936.09216732316,669173.2462523286,0.0,0.0,0.0,285575.17545916676,0.0,0.0,1142300.701836667,1427875.8772958335,0.0,15042.768588491721,0.0,636565.5536974865,0.0,,21.123772047286156,,-3.6,38350.77310899917,-125958.52833021543,0.5009803266913219,0.37832557977637193,0.7663265306122449,,4500.0,0.0,0.05,,161.43939007321958,126039.97963210233,636565.5536974865,198.0,196.0,73.61,76.56,,,,,,
424.0,792347.2003809677,0.0,92165.0,802811.1938437169,0.29782790664748954,181530.92533225304,388477.6313209311,0.0,0.0,0.0,540123.5913556657,0.14891395332374477,0.0,2160494.365422663,2700617.956778329,0.0,0.0,0.0,792347.2003809677,0.0,,20.982259189488378,,-4.4,25434.05230885583,-71777.6696973131,0.4541483572171173,0.3689467280200375,0.7663265306122449,,5550.0,0.0,0.05,,202.61110260941723,159261.7872765745,792347.2003809677,201.0,192.0,75.71,77.34,,,,,,
425.0,602563.0231498468,0.0,137175.0,860866.3737496642,26863.812038016873,397306.97341215896,827514.2032306732,0.0,0.0,0.0,104666.39433334096,13431.906019008436,0.0,418665.5773333638,523331.97166670475,0.0,0.0,0.0,602563.0231498468,0.0,,20.847713828639655,,-5.0,39598.15971140236,-60847.584381015506,0.3756742836464272,0.3666788221241062,0.7663265306122449,,7500.0,0.0,0.05,,154.08139064964732,118102.35253736997,602563.0231498468,196.0,188.0,75.71,77.38,,,,,,
426.0,713592.3084801594,0.0,151270.0,430154.1605494864,17765.10398087876,478095.8993635369,845373.4841195748,0.0,0.0,0.0,54035.19600000001,0.0,0.0,216140.78400000004,270175.98000000004,295876.26,0.0,0.0,713592.308480159,0.0,,20.73368614430146,,-5.5,-113630.81758838237,-216901.9348440008,0.5589019568427102,0.372169789636847,0.7775510204081633,,0.0,-9758.433985839236,0.05,,182.47268920146155,139150.5001536311,713592.3084801594,195.0,190.0,75.71,77.36,,,,,,
427.0,671353.3619178035,0.0,164090.0,1277477.0583668146,0.0,620393.6050658342,1096985.5715938972,0.0,0.0,0.0,22783.883234522305,0.0,0.0,91135.53293808922,113919.41617261153,176201.38,0.0,0.0,671353.3619178038,0.0,,23.62927774255315,,-6.1,23638.89319214208,225258.813461849,0.5548720637262665,0.32898929041552033,0.7775510204081633,,0.0,0.0,0.05,,171.6717681760015,133599.3190216429,671353.3619178035,199.0,195.0,75.71,76.7,,,,,,
428.0,631758.3237236441,0.0,161378.0,918230.2423526373,0.0,312860.6798939895,559168.271537776,0.0,0.0,0.0,265216.9391637738,0.0,0.0,1060867.7566550951,1326084.695818869,0.0,0.0,0.0,631758.3237236443,0.0,,21.42794329316724,,-6.7,20668.42098022585,139493.1209674655,0.5250468181265218,0.32679950293700244,0.7775510204081633,,0.0,-3998.3340274885445,0.05,,161.5406033761358,128878.6980396234,631758.3237236441,204.0,201.0,75.7,76.52,,,,,,
429.0,527710.4389976787,0.0,151354.0,1037348.5186708497,31447.729202370414,464558.81107765035,848009.7727198747,0.0,0.0,0.0,0.0,15723.864601185207,0.0,0.0,0.0,0.0,0.0,0.0,527710.4389976787,0.0,,23.62927774255315,,-7.2,18836.924274959973,189338.7459509751,0.5140404267639301,0.32525852965003843,0.7775510204081633,,0.0,0.0,0.05,,133.82209022542133,108708.35043352182,527710.4389976787,206.0,203.0,73.59,76.52,,,,,,
430.0,658689.8828020415,0.0,105204.0,825743.1357180469,281.7164967811983,335948.49805260566,622851.4674009308,0.0,0.0,0.0,226733.64421322884,140.85824839059916,0.0,906934.5768529153,1133668.221066144,0.0,0.0,0.0,658689.8828020416,0.0,,23.62927774255315,,-7.8,19954.505338161456,67314.91552521015,0.5002937635287054,0.31978700112670627,0.7775510204081633,,0.0,0.0,0.0,,158.20413605139433,131737.97656040828,658689.8828020415,200.0,189.0,60.18,77.77,,,,,,
431.0,887346.2854999085,0.0,72728.0,826391.275779385,1228.56810070518,419790.8554867929,786299.9249229116,0.0,0.0,0.0,288081.2967099229,614.28405035259,0.0,1152325.1868396916,1440406.4835496142,0.0,0.0,0.0,887346.2854999085,0.0,,21.691138147018638,,-8.4,340.66137281687406,-144024.4793824567,0.48750945047061206,0.3578564522526191,0.7775510204081633,,1800.0,0.0,0.0,,212.2443580287231,181905.98852748124,887346.2854999085,205.0,195.0,59.19,77.72,,,,,,
432.0,820870.4945863959,0.0,60975.0,1130134.928501872,64421.93507163216,663480.0302934136,1261723.5999401908,0.0,0.0,0.0,6262.565572249121,32210.96753581608,0.0,25050.262288996484,31312.8278612456,0.0,0.0,0.0,820870.494586396,0.0,,23.62927774255315,,-9.1,-1642.813489375294,-137224.98045334272,0.46465725843417616,0.3583639027932104,0.7775510204081633,,0.0,0.0,0.0,,195.79403036874717,183874.9907873527,820870.4945863959,224.0,200.0,58.52,77.09,,,,,,
433.0,309269.8490948029,0.0,51728.0,875303.0695101547,4231.01365574364,382159.45340309246,806894.5551153223,0.0,0.0,0.0,0.0,2115.50682787182,0.0,0.0,0.0,0.0,0.0,0.0,309269.84909480286,0.0,,21.792586052144724,,-9.9,-28123.808461376248,68408.51439483267,0.48904741319950223,0.3450351456567589,0.7663265306122449,,1650.0,0.0,0.0,,73.72374662721911,71750.60498999427,309269.8490948029,232.0,202.0,58.38,77.05,,,,,,
434.0,432276.5929541998,0.0,40253.0,750894.9721680885,2354.6819988426428,325016.417263559,717227.0997845838,0.0,0.0,0.0,131980.81616605274,1177.3409994213214,0.0,527923.264664211,659904.0808302637,0.0,0.0,0.0,432276.5929541997,0.0,,21.323130010000327,,-10.7,-23011.0778042836,-66197.04996594248,0.5565537168567576,0.3567277094490958,0.7663265306122449,,2100.0,0.0,0.0,,103.05041699435169,104610.93549491635,432276.5929541998,242.0,202.0,58.39,77.06,,,,,,
435.0,636565.5536974865,0.0,35225.0,800232.3758353633,0.0,301936.09216732316,669173.2462523286,0.0,0.0,0.0,285575.17545916676,0.0,0.0,1142300.701836667,1427875.8772958335,0.0,0.0,0.0,636565.5536974865,0.0,,21.123772047286156,,-11.2,38350.77310899917,-125958.52833021543,0.5009803266913219,0.37832557977637193,0.7663265306122449,,4500.0,0.0,0.0,,151.31799776942952,154685.42954848922,636565.5536974865,243.0,199.0,57.71,77.13,,,,,,
436.0,792347.2003809677,0.0,33314.0,802811.1938437169,0.29782790664748954,181530.92533225304,388477.6313209311,0.0,0.0,0.0,540123.5913556657,0.14891395332374477,0.0,2160494.365422663,2700617.956778329,0.0,0.0,0.0,792347.2003809677,0.0,,20.982259189488378,,-11.6,25434.05230885583,-71777.6696973131,0.4541483572171173,0.3689467280200375,0.7663265306122449,,5550.0,0.0,0.0,,188.8797256268151,192540.36969257516,792347.2003809677,243.0,196.0,58.38,77.88,,,,,,
437.0,602563.0231498468,0.0,41459.0,860866.3737496642,26863.812038016873,397306.97341215896,827514.2032306732,0.0,0.0,0.0,104666.39433334096,13431.906019008436,0.0,418665.5773333638,523331.97166670475,103216.69,0.0,0.0,602563.0231498468,0.0,,20.847713828639655,,-12.0,39598.15971140236,-60847.584381015506,0.3756742836464272,0.3666788221241062,0.7663265306122449,,7500.0,0.0,0.0,,144.12704950721184,142807.4364865137,602563.0231498468,237.0,191.0,59.19,77.93,,,,,,
438.0,417274.6333894937,0.0,52420.0,430154.1605494864,17765.10398087876,264431.6670266282,364213.2226205922,0.0,0.0,0.0,16717.171034856154,8882.55199043938,0.0,66868.68413942461,83585.85517428076,0.0,0.0,0.0,417274.6333894938,0.0,,20.73368614430146,,-12.4,-41440.33011608062,50895.48399752366,0.5916592104264786,0.4287634310092078,0.7663265306122448,,0.0,-40179.092044981255,0.0,,100.40044953984608,97224.98957975203,417274.6333894937,233.0,183.0,60.61,78.9,,,,,,
439.0,501747.45745951124,0.0,50870.0,879115.7110284287,233.9013056199367,333499.7528122714,449805.63120524463,0.0,0.0,0.0,172823.53399570976,116.95065280996835,0.0,691294.135982839,864117.6699785488,41598.27,0.0,0.0,501747.45745951124,0.0,,20.526809426966665,,-12.7,57954.56663576752,314535.20382704504,0.531965065578898,0.39457033784060125,0.7663265306122448,,0.0,0.0,0.31666666666666665,,127.4990464150364,111889.683013471,501747.45745951124,223.0,190.0,74.11,78.6,,,,,,
440.0,1032482.3361038335,0.0,68399.0,1131256.505548791,0.0,523167.97586261015,705619.4183799484,0.0,0.0,0.0,453177.32665368484,0.0,0.0,1812709.3066147394,2265886.633268424,46205.16,0.0,0.0,1032482.3361038333,0.0,,23.473190573033335,,-12.7,17424.378092980613,63058.54998052695,0.474199839188499,0.3914062668478683,0.7663265306122448,,0.0,0.0,0.36666666666666664,,262.41571054415033,213723.8435734935,1032482.3361038335,207.0,188.0,74.16,79.24,,,,,,
441.0,1003005.772527966,0.0,81336.0,1112182.0741254191,0.0,784845.4282468887,1081001.704126658,0.0,0.0,0.0,188900.50571704225,0.0,0.0,755602.022868169,944502.5285852114,173045.94,0.0,0.0,1003005.7725279658,0.0,,21.828623410914116,,-12.4,57091.190298605114,30754.93605342338,0.3554949254518317,0.3981585747246574,0.7663265306122448,,0.0,0.0,0.36666666666666664,,256.4685760354009,200601.1545055932,1003005.772527966,200.0,190.0,75.7,78.6,,,,,,
442.0,795527.6911295014,0.0,123871.0,923149.826589076,71766.0349914416,435249.2010416171,603636.9972001091,0.0,0.0,0.0,235253.931998757,35883.01749572081,0.0,941015.727995028,1176269.6599937852,0.0,23.305551410838614,0.0,795527.6911295016,0.0,,20.935727253566384,,-12.3,22669.57947983221,107784.29059008582,0.38236570415401777,0.4010585094719705,0.7663265306122448,,0.0,-19868.804664723033,0.36666666666666664,,202.19131797747406,152741.3166968643,795527.6911295014,192.0,194.0,74.16,78.44,,,,,,
443.0,1202879.725107462,0.0,155502.0,1380193.2899965027,122073.02501806706,859054.968363879,1207782.6315335543,0.0,0.0,0.0,118654.9663346097,61036.51250903353,0.0,474619.8653384388,593274.8316730484,0.0,222.7516312470125,0.0,1202879.725107462,0.0,,23.473190573033335,,-12.1,-63876.143414683145,65621.18876179986,0.4122315111798255,0.3742880655842288,0.7663265306122448,,0.0,0.0,0.5,,305.67579574430823,227344.26804531028,1202879.725107462,189.0,197.0,74.12,78.26,,,,,,
444.0,938087.0313252046,0.0,171481.0,1096370.0068922353,59672.49995155372,799517.7291883652,1131698.693116548,0.0,0.0,0.0,0.0,29836.24997577686,0.0,0.0,0.0,0.0,377.9349079320941,0.0,938087.0313252048,0.0,,23.473190573033335,,-12.0,37224.19811185431,-35328.68622431378,0.31404218259922023,0.3608414250356629,0.7663265306122448,,600.0,0.0,0.5,,237.90825201438517,183865.0581397401,938087.0313252046,196.0,196.0,73.61,78.27,,,,,,
445.0,764160.0986061357,0.0,120284.0,817769.1460241956,3439.337119356904,550003.5629849632,862410.8560455255,0.0,0.0,0.0,272907.72040224646,1719.668559678452,0.0,1091630.8816089858,1364538.602011232,243135.83,251880.14187552079,0.0,764160.0986061357,0.0,,21.532415853688306,,-10.4,-68618.07580174916,-51985.54498335122,0.40564712087082516,0.37483699019867656,0.7663265306122448,,5250.0,-406.08079966680924,0.5,,184.31541578379992,145190.41873516576,764160.0986061357,190.0,188.0,61.2,78.56,,,,,,
446.0,491173.04644575197,0.0,114711.0,735258.1567945059,1019.8434326100522,361243.19617392553,590539.6882275555,0.0,0.0,0.0,125061.97811625118,509.9217163050261,0.0,500247.9124650047,625309.8905812559,27286.38,169404.9949388158,0.0,491173.04644575197,0.0,,21.02313768351768,,-9.7,-57106.00186216239,58903.340662324554,0.5052169032126854,0.3870493775741923,0.7663265306122448,,750.0,0.0,0.5,,117.79311999862024,90867.01359246412,491173.04644575197,185.0,187.0,59.82,79.19,,,,,,
447.0,738245.6163958783,0.0,97716.0,983151.7804199416,142254.12893755556,495291.0132801362,804951.6213078813,0.0,0.0,0.0,146432.70020197547,71127.06446877778,0.0,585730.8008079019,732163.5010098773,65403.41,26380.4021434198,0.0,738245.6163958784,0.0,,23.473190573033335,,-9.8,-21495.0769752069,110506.07073028234,0.5635680816157554,0.3768705591835939,0.7663265306122448,,6000.0,0.0,0.5,,176.6547935473697,130669.47410207045,738245.6163958783,177.0,184.0,59.29,79.24,,,,,,
448.0,1005601.4438934925,0.0,88016.0,1122958.4901289975,169702.72069335982,726255.2446330584,1131851.567315258,0.0,0.0,0.0,198722.30920158635,84851.36034667991,0.0,794889.2368063454,993611.5460079317,45181.68,0.0,0.0,1005601.4438934926,0.0,,21.790730486415015,,-10.5,12420.117160619826,-143465.10906768823,0.5113906946842736,0.3897329127858998,0.7663265306122448,,6900.0,0.0,0.5,,240.71081762478528,171957.8469057872,1005601.4438934925,171.0,183.0,59.37,79.26,,,,,,
449.0,828272.6012185173,0.0,111512.0,966179.3347721737,45233.08112282582,749261.989539981,1139135.255441666,0.0,0.0,0.0,9943.26687552188,22616.54056141291,0.0,39773.06750208752,49716.334377609404,28945.27,0.0,0.0,828272.6012185173,0.0,,21.096870185581622,,-10.9,46586.01820307832,-153538.49625746283,0.47220194501985596,0.40501417453806876,0.7663265306122448,,0.0,0.0,0.5,,210.049931669016,140806.34220714794,828272.6012185173,170.0,189.0,73.6,78.75,,,,,,
450.0,820810.3009192612,0.0,135804.0,528419.3000726979,36324.58373354307,492835.9172700608,725787.8794250081,0.0,0.0,0.0,130517.7512661476,18162.291866771535,0.0,522071.0050645904,652588.756330738,48881.08,0.0,0.0,820810.3009192613,0.0,,20.933583724957728,,-11.4,-35245.37388137197,-266931.09709184314,0.492665430946217,0.42740111649361184,0.7663265306122448,,30600.0,-22303.206997084548,0.5,,208.15749231312464,138716.94085535515,820810.3009192612,169.0,196.0,73.6,78.3,,,,,,
451.0,1149491.2993114707,0.0,176843.0,1268988.4965466044,76612.66898859615,851446.7050895762,1221437.152491403,0.0,0.0,0.0,102296.81884676714,38306.33449429808,0.0,409187.27538706857,511484.09423383564,0.0,0.0,0.0,1149491.2993114707,0.0,,20.856953380080263,,-11.8,-13157.318878570008,-44515.79290689002,0.48950330188555646,0.43294170985681724,0.6999999999999998,,33750.0,0.0,0.36666666666666664,,282.71738506565623,195413.52088295005,1149491.2993114707,170.0,197.0,65.95,78.22,,,,,,
452.0,1211755.7799104396,0.0,171260.0,1582583.9926712706,247835.498987558,981738.0005190291,1361549.607104005,0.0,0.0,0.0,64471.645679318026,123917.749493779,0.0,257886.5827172721,322358.2283965901,0.0,0.0,0.0,1211755.7799104396,0.0,,23.143046619919737,,-12.3,11772.6451874596,163009.9044558785,0.3877963554830151,0.3881201294762264,0.6816326530612239,,2700.0,0.0,0.31666666666666665,,294.1658331310583,205998.48258477473,1211755.7799104396,170.0,196.0,62.76,78.96000000000001,,,,,,
453.0,1329016.8413668901,0.0,144144.0,1206511.1512501424,65632.25155092159,1054356.0087700267,1422055.8367454163,0.0,0.0,0.0,23595.728325690776,32816.125775460794,0.0,94382.9133027631,117978.64162845386,0.0,0.0,0.0,1329016.8413668906,0.0,,23.143046619919737,,-12.7,-85944.49153455894,-236780.8409883964,0.4993954521400934,0.3937702203482999,0.6816326530612239,,2100.0,-14331.528529779287,0.31666666666666665,,321.396142747755,239223.0314460402,1329016.8413668901,180.0,181.0,61.83,79.2,,,,,,
454.0,897458.4128662056,0.0,106314.0,914983.906672693,55272.152200816876,551302.0979090469,717286.4728014425,0.0,0.0,0.0,245491.11700096025,27636.076100408438,0.0,981964.468003841,1227455.5850048014,17165.62,0.0,0.0,897458.4128662056,0.0,,23.143046619919737,,-13.2,10787.923999999999,-6422.2638296133355,0.4994841943565567,0.40617166056090415,0.628571428571428,,11700.0,-651.8298918673347,0.0,,214.4028148337365,163337.4311416494,897458.4128662056,182.0,156.0,58.9,79.34,,,,,,
455.0,317861.3438533473,0.0,70642.0,664760.0073047009,0.0,176631.65773513084,223075.84996240615,0.0,0.0,0.0,75690.63465849501,0.0,0.0,302762.53863398003,378453.17329247505,0.0,0.0,0.0,317861.3438533473,0.0,,21.75681626503966,,-13.6,6692.255259545296,373562.58614964917,0.5030300779798829,0.3727309987326377,0.628571428571428,,6150.0,0.0,0.0,,75.30770958573505,58804.34861286925,317861.3438533473,185.0,156.0,56.92,79.48,,,,,,
456.0,545385.3549419639,0.0,60601.0,862277.9403987987,0.0,445684.1805436432,554376.3666303572,0.0,0.0,0.0,56936.764035305416,0.0,0.0,227747.05614122166,284683.8201765271,0.0,0.0,0.0,545385.3549419638,0.0,,21.13120835938809,,-13.8,25249.064100157717,256658.48613666618,0.5141905437609563,0.34588766729815706,0.628571428571428,,4500.0,-4685.54768846314,0.0,,127.04206458018108,102532.4467290892,545385.3549419639,188.0,147.0,52.94,79.61,,,,,,
457.0,945759.057424059,0.0,43125.0,1379618.9226321874,90200.61295182518,874942.2793352254,1063297.4257922983,0.0,0.0,0.0,52695.92965719049,45100.30647591259,0.0,210783.71862876197,263479.64828595245,0.0,0.0,0.0,945759.057424059,0.0,,20.858914020014744,,-14.1,35355.60408163265,268895.1601484182,0.44711125966636606,0.3059186053057353,0.628571428571428,,19800.0,-5622.657226155768,0.0,,215.47228605292335,141863.85861360887,945759.057424059,150.0,147.0,47.83,79.71000000000001,,,,,,
458.0,656741.0139438084,0.0,39308.0,920608.292401614,0.0,591428.6533357165,707473.2312580883,0.0,0.0,0.0,34606.751477914404,0.0,0.0,138427.00591165762,173033.757389572,0.0,0.0,0.0,656741.0139438084,0.0,,23.143046619919737,,-14.3,17508.753165697177,181988.984813403,0.48537854676520037,0.28274039429358055,0.628571428571428,,4200.0,-5622.657226155768,0.0,,148.48257584255563,91943.74195213318,656741.0139438084,140.0,143.0,46.09,79.78,,,,,,
459.0,757434.0505321514,0.0,37661.0,887956.0120225454,0.0,547295.127586741,649462.7070102866,0.0,0.0,0.0,190657.681114267,0.0,0.0,762630.724457068,953288.405571335,0.0,0.0,0.0,757434.0505321514,0.0,,21.686855193235253,,-14.4,48370.510262416974,66901.39200941846,0.46800644751281534,0.2695145919562483,0.628571428571428,,0.0,-26403.581840899624,0.0,,171.24826448481411,106798.20112503333,757434.0505321514,141.0,143.0,46.09,79.8,,,,,,
460.0,1033617.4922347559,0.0,35721.0,929170.396786472,0.0,909642.8384386873,1070780.6076372014,0.0,0.0,0.0,105342.75527473901,0.0,0.0,421371.02109895606,526713.776373695,296211.12,0.0,0.0,1033617.492234756,0.0,,23.143046619919737,,-14.5,23975.223092280547,53868.20700200596,0.41292581604560413,0.24879923464006842,0.628571428571428,,0.0,-1718.0341524364849,0.0,,233.69057881935595,142639.21392839632,1033617.4922347559,138.0,140.0,46.09,80.27,,,,,,
461.0,1239333.4380864925,0.0,40404.0,1108470.150960596,0.0,1120027.784631451,1307756.4157342322,0.0,0.0,0.0,56969.84454201313,0.0,0.0,227879.37816805253,284849.22271006566,0.0,0.0,0.0,1239333.4380864927,0.0,,21.470520120204757,,-14.6,-13392.367878364406,-250559.1248614481,0.48177164811197654,0.2949449729453028,0.628571428571428,,0.0,-2342.77384423157,0.0,,282.4812705430542,180942.68196062787,1239333.4380864925,146.0,138.0,47.93,81.01,,,,,,
462.0,1029618.718633447,0.0,45359.0,676906.4477602278,0.0,777740.1843543631,900683.3183418418,0.0,0.0,0.0,170368.3315600889,0.0,0.0,681473.3262403556,851841.6578004445,266133.47000000003,0.0,0.0,1029618.7186334467,0.0,,20.962839244697804,,-14.7,-29128.89005044253,-116297.56838569387,0.45150267059833765,0.3023625428672573,0.6285714285714262,,0.0,-1874.2190753852556,0.0,,243.9269706314499,185331.36935402043,1029618.718633447,180.0,141.0,56.91,81.18,,,,,,
463.0,609944.3314697344,0.0,53367.0,967743.681014391,0.0,522194.8590801964,604742.0564848988,0.0,0.0,0.0,121920.75028380676,0.0,0.0,487683.00113522704,609603.7514190337,20772.72,0.0,0.0,609944.3314697345,0.0,,20.856953380080263,,-14.7,90587.99955161737,273630.21487406606,0.3436071958555641,0.27391080323843564,0.6285714285714262,,0.0,0.0,0.0,,146.45983287251264,109180.03533308246,609944.3314697344,179.0,142.0,60.12,81.55,,,,,,
464.0,687942.5785795709,0.0,71414.0,986918.4921384855,1562.8387233540702,560395.7007054943,681036.132392595,0.0,0.0,0.0,65939.18918002755,781.4193616770351,0.0,263756.7567201102,329695.94590013777,0.0,0.0,0.0,687942.5785795711,0.0,,20.856953380080263,,-14.1,13246.02419884886,246537.08948386673,0.28828197738514716,0.23872885618360093,0.6285714285714262,,0.0,0.0,0.13333333333333333,,167.26635855583686,127269.3770372206,687942.5785795709,185.0,184.0,63.14,80.86,,,,,,
465.0,272668.28097086196,0.0,87119.0,638647.0296200083,796.850849167926,269272.5421831904,424788.9836782083,0.0,0.0,0.0,23803.328769315867,398.425424583963,0.0,95213.31507726347,119016.64384657933,0.0,33480.32445598682,0.0,272668.28097086196,0.0,,20.856953380080263,,-10.3,85613.6885631649,192435.05004941553,0.1999262658655862,0.22493180964667342,0.6285714285714262,,0.0,-10204.081632653062,0.18333333333333335,,69.14322268859118,49625.62713669688,272668.28097086196,182.0,185.0,73.58,80.38,,,,,,
466.0,417282.4818101638,0.0,116678.0,582833.8154268172,1414.111462918917,299891.3287931638,570295.9391082583,0.0,0.0,0.0,133995.39275141738,707.0557314594585,0.0,535981.5710056695,669976.9637570869,11094.02,160382.94064208024,0.0,417282.48181016376,0.0,,20.896692859689985,,-6.9,-22988.06757831775,-97185.83755771707,0.23992744908285488,0.2288601959298858,0.6285714285714262,,0.0,-2026.2209202942688,0.5,,103.18978492683542,73024.43431677867,417282.4818101638,175.0,184.0,67.29,80.43,,,,,,
467.0,685778.9349898965,0.0,155186.0,1165250.258725728,211029.42249308416,549471.3094746815,1186349.5518419794,0.0,0.0,0.0,138096.19052997502,105514.71124654208,0.0,552384.7621199001,690480.9526498751,173228.8,256614.81972616204,0.0,685778.9349898966,0.0,,23.143046619919737,,-4.2,-71223.54898423038,24378.359406770775,0.3171703151634756,0.2114603717943503,0.6285714285714262,,0.0,-24987.81105222215,0.5,,165.06013186271818,118639.75575325209,685778.9349898965,173.0,185.0,60.69,80.4,,,,,,
468.0,502184.7616291513,0.0,143078.0,777376.8337925335,14178.100955068683,289442.3551131861,671836.4668231029,0.0,0.0,0.0,245977.96898869323,7089.050477534342,0.0,983911.8759547729,1229889.8449434664,0.0,306862.4119934621,0.0,502184.76162915124,0.0,,21.611416734266896,,-2.5,-122109.45444378184,-115839.80512039301,0.4720978732923415,0.2341624173914187,0.6285714285714262,,0.0,-5928.471268806417,0.5,,120.6448671337873,87882.33328510147,502184.7616291513,175.0,185.0,60.24,80.42,,,,,,
469.0,342377.6417243132,0.0,142478.0,647531.4924733085,16677.681594755406,289698.50771317293,691763.526533344,0.0,0.0,0.0,54748.93234136334,8338.840797377703,0.0,218995.72936545336,273744.6617068167,0.0,269069.5197754236,0.0,342377.64172431314,0.0,,23.143046619919737,,-1.8,-122809.83323657892,-93506.07316726269,0.6737196933172264,0.251537008713806,0.6285714285714262,,0.0,0.0,0.5,,82.2288382129283,62312.730793825,342377.6417243132,182.0,181.0,60.17,81.14,,,,,,
470.0,347233.4066706894,0.0,105676.0,685363.8057681236,26446.100446456705,328265.7812393637,777598.3983224585,0.0,0.0,0.0,46863.11080864003,13223.050223228352,0.0,187452.4432345601,234315.55404320013,8357.24,178441.54266626464,0.0,347233.4066706894,0.0,,22.040912089970842,,-2.0,-43133.89025559691,-126221.29708211096,0.7757491576096297,0.272790364410609,0.6183673469387732,,1500.0,0.0,0.18333333333333335,,83.44365995703338,67710.51430078443,347233.4066706894,195.0,180.0,60.31,81.14,,,,,,
471.0,532361.5125623142,0.0,96821.0,925716.665501732,3495.3884576044666,440262.9745697005,971546.4192601093,0.0,0.0,0.0,68489.44333782404,1747.6942288022333,0.0,273957.77335129614,342447.21668912016,0.0,33777.03643417124,0.0,532361.512562314,0.0,,21.460068733128722,,-3.7,42096.67647385084,-107470.25276241882,0.6968941100773262,0.28101009948369166,0.5938775510204058,,6300.0,0.0,0.05,,135.00687958580286,112860.6406632106,532361.5125623142,212.0,220.0,73.6,80.34,,,,,,
472.0,663526.4626678053,0.0,105923.0,766310.0819597258,343.33866041172683,437082.27210126247,872856.9646876638,0.0,0.0,0.0,156015.0539500537,171.66933020586342,0.0,624060.2158002148,780075.2697502685,79541.78,0.0,0.0,663526.4626678054,0.0,,23.143046619919737,,-5.9,38811.49569684996,-169009.4868829866,0.6490796689287918,0.31355658973585143,0.5938775510204058,,1050.0,0.0,0.05,,168.32339304956884,141331.13654824253,663526.4626678053,213.0,222.0,73.68,80.34,,,,,,
473.0,733283.4591443347,0.0,132421.0,929862.6504104985,82670.71608824474,579758.0424231025,1152254.6637900348,0.0,0.0,0.0,0.0,41335.35804412237,0.0,0.0,0.0,0.0,0.0,0.0,733283.4591443347,0.0,,23.143046619919737,,-6.0,-17437.999425510297,-222392.01337953677,0.6016219154735817,0.33112470489764484,0.5867346938775487,,3750.0,0.0,0.0,,187.50791333779782,153989.52642031029,733283.4591443347,210.0,220.0,75.71,80.35,,,,,,
474.0,385678.1432996836,0.0,147535.0,353063.80846775486,2823.7168077215074,213576.4386810793,424477.85030697746,0.0,0.0,0.0,19526.539892475685,1411.8584038607537,0.0,78106.15956990274,97632.69946237841,0.0,0.0,0.0,385678.1432996836,0.0,,22.4085232807646,,-6.0,-3111.774009630146,-88987.92774245073,0.5831041661384189,0.36771562343211484,0.5867346938775487,,2400.0,0.0,0.0,,98.62561480459509,80606.73194963388,385678.1432996836,209.0,223.0,75.72,80.35,,,,,,
475.0,883032.9512917226,0.0,154540.0,1084493.425159565,101928.51430378878,567183.5038259999,1121855.9472376734,0.0,0.0,0.0,118391.4611000212,50964.25715189439,0.0,473565.8444000848,591957.305500106,0.0,0.0,0.0,883032.9512917225,0.0,,21.600766608969693,,-6.1,-38502.821609242936,-143914.83706812712,0.5961356476070035,0.3681964860737034,0.5867346938775487,,33900.0,0.0,0.0,,225.80035597480637,189852.08452772035,883032.9512917226,215.0,227.0,75.71,80.34,,,,,,
476.0,602665.7725427706,0.0,164800.0,810691.2897482994,0.0,243882.54537501844,482385.4750901945,0.0,0.0,0.0,216519.29072863384,0.0,0.0,866077.1629145354,1082596.4536431693,0.0,0.0,0.0,602665.7725427706,0.0,,22.4085232807646,,-6.1,25549.392423595695,133438.45300233507,0.5262789143103911,0.3442997894978909,0.5867346938775487,,24900.0,0.0,0.0,,154.10766469691188,135599.79882212338,602665.7725427706,225.0,237.0,75.71,78.56,,,,,,
477.0,958285.0997758205,0.0,145572.0,1363036.2066570274,280614.8328431233,737100.0457461977,1450913.97310038,0.0,0.0,0.0,31724.127650334267,140307.41642156165,0.0,126896.51060133707,158620.63825167133,81550.75,0.0,0.0,958285.0997758206,0.0,,21.652576525875627,,-6.2,-23322.823662583374,-36509.746328654044,0.5433275539936702,0.339580963402276,0.5867346938775487,,10050.0,-15774.6772178259,0.0,,243.09776411113018,225196.99844731783,958285.0997758205,235.0,246.0,73.68,77.77,,,,,,
478.0,365041.92643646826,0.0,109855.0,757122.7014404874,3703.8427452460514,250988.68402381887,491655.4992938484,0.0,0.0,0.0,7069.674500416346,1851.9213726230257,0.0,28278.698001665383,35348.37250208173,0.0,0.0,0.0,365041.92643646826,0.0,,22.4085232807646,,-6.3,4696.641719949381,259104.49509626464,0.524876398962021,0.30234487564861956,0.5867346938775487,,22950.0,0.0,0.0,,91.06335896884137,98196.27821140997,365041.92643646826,269.0,250.0,69.46,78.78,,,,,,
479.0,594221.7350091306,0.0,74028.0,744508.010740356,0.0,213496.6813193592,418213.346390102,0.0,0.0,0.0,311119.91074439377,0.0,0.0,1244479.642977575,1555599.5537219688,0.0,0.0,0.0,594221.7350091306,0.0,,21.960426705120028,,-6.3,7393.965729668045,46286.744680299584,0.4996097191449789,0.2806433460976337,0.5867346938775487,,6900.0,0.0,0.0,,145.04952551572876,158657.20324743786,594221.7350091306,267.0,206.0,64.1,79.78999999999999,,,,,,
480.0,485116.07811393554,0.0,62217.0,670300.2944374807,0.0,179974.63223129767,350832.08362212084,0.0,0.0,0.0,187737.47721463794,0.0,0.0,750949.9088585518,938687.3860731896,0.0,0.0,0.0,485116.07811393554,0.0,,22.4085232807646,,-6.4,-49950.05966435233,150504.48132218604,0.5825075920799916,0.26384361981922805,0.5867346938775487,,0.0,-2811.328613077884,0.0,,117.75222564059557,123219.48384093963,485116.07811393554,254.0,211.0,62.73,79.76,,,,,,
481.0,376145.895646575,0.0,53058.0,903624.0162245193,816.4502229726315,396818.0886469721,773534.109407419,0.0,0.0,0.0,8256.236049079751,408.22511148631577,0.0,33024.944196319004,41281.180245398755,0.0,0.0,0.0,376145.895646575,0.0,,21.5914767192354,,-6.4,83867.15852770969,122659.2943729281,0.42917897453229303,0.25047649192718857,0.5867346938775487,,0.0,0.0,0.0,,90.38409726491551,94036.47391164376,376145.895646575,250.0,210.0,60.29,79.78,,,,,,
482.0,430979.762196462,0.0,42869.0,818778.8290587199,0.0,399215.41027249006,778207.3087942748,0.0,0.0,0.0,7497.180654259548,0.0,0.0,29988.72261703819,37485.903271297735,0.0,0.0,0.0,430979.76219646214,0.0,,22.4085232807646,,-6.4,20756.72754126983,33824.05767561146,0.41199044565413057,0.2699123298706226,0.5867346938775487,,3000.0,0.0,0.0,,102.67661854568512,103435.1429271509,430979.762196462,240.0,209.0,58.24,79.93,,,,,,
483.0,573238.725725237,0.0,37571.0,751827.2784664149,0.0,478737.4888891361,937786.9765161783,0.0,0.0,0.0,52518.73357114184,0.0,0.0,210074.93428456737,262593.6678557092,0.0,0.0,0.0,573238.7257252369,0.0,,22.4085232807646,,-6.3,5795.381742259533,-233226.5582637907,0.4083042321306002,0.2935783850868619,0.5867346938775487,,0.0,-7340.691378592254,0.0,,135.398987016301,102609.73190481742,573238.725725237,179.0,200.0,56.2,80.15,,,,,,
484.0,400803.5414549938,0.0,33431.0,749422.0213525419,0.0,365459.4104240994,715889.3621142079,0.0,0.0,0.0,20651.243371132663,0.0,0.0,82604.97348453065,103256.21685566331,0.0,0.0,0.0,400803.5414549938,0.0,,21.5914767192354,,-6.3,23709.64358354001,14946.540204314704,0.33600421941335845,0.29749643142978766,0.5867346938775487,,0.0,-2967.5135360266563,0.0,,93.3912331944281,58918.120593884094,400803.5414549938,147.0,192.0,53.01,80.38,,,,,,
485.0,496868.21255536535,0.0,42470.0,801718.2817916784,21552.264068156146,449731.1889886847,880967.2560746373,0.0,0.0,0.0,0.0,10776.132034078073,0.0,0.0,0.0,0.0,0.0,0.0,496868.2125553654,0.0,,21.5914767192354,,-6.3,-2182.6825039039286,-79248.97428295927,0.37582447983807393,0.30844506588579773,0.5867346938775487,,0.0,0.0,0.0,,115.02499120656708,48693.0848304258,496868.21255536535,98.0,186.0,51.5,80.88,,,,,,
486.0,281039.5074277126,0.0,44696.0,328059.0565361223,1941.6086827809745,133828.7610350292,263429.6667175823,0.0,0.0,0.0,28822.669928541553,970.8043413904873,0.0,115290.67971416621,144113.34964270773,66124.95999999999,0.0,0.0,281039.5074277126,0.0,,22.4085232807646,,-6.2,-72286.8789270033,103491.44768285252,0.5204406545329989,0.3038057029884122,0.5867346938775487,,0.0,0.0,0.0,,63.54303262940582,22764.200101644725,281039.5074277126,81.0,175.0,46.1,84.91,,,,,,
487.0,179430.53019946377,0.0,54886.0,661232.5470894418,0.0,193618.87945496602,381121.0422227783,0.0,0.0,0.0,35961.518000000004,0.0,0.0,143846.07200000001,179807.59,57637.590000000004,0.0,0.0,179430.53019946383,0.0,,21.591476719235395,,-6.2,107807.23898188483,304230.9768666638,0.3864486416285346,0.2758149415737247,0.5867346938775487,,0.0,-1874.219075385256,0.05,,40.56744857279677,13995.581355558174,179430.53019946377,78.0,174.0,46.09,86.34,,,,,,
488.0,371805.66261819296,0.0,69273.0,845292.875390123,1128.3328853072912,269142.0422569019,547742.1713414817,0.0,0.0,0.0,91132.2672977172,564.1664426536456,0.0,364529.0691908688,455661.33648858604,29297.25,0.0,0.0,371805.66261819296,0.0,,22.4085232807646,,-5.5,59600.67524951714,244242.9684806961,0.31931272318815024,0.2532558461170055,0.5867346938775483,,0.0,0.0,0.18333333333333335,,85.0393911540331,30488.064334691822,371805.66261819296,82.0,182.0,48.72,85.56,,,,,,
489.0,604240.4189750423,0.0,92121.0,935048.3646370886,32728.97457340543,447667.2189301985,1073240.6495502898,0.0,0.0,0.0,146748.56932995678,16364.487286702715,0.0,586994.2773198271,733742.8466497838,243414.53,22378.758708370835,0.0,604240.4189750424,0.0,,22.4085232807646,,-1.7,62938.81267161746,-31719.757910162152,0.20321545592788523,0.2703201356550982,0.5867346938775483,,0.0,0.0,0.18333333333333335,,143.60377797360854,48339.233518003384,604240.4189750423,80.0,183.0,57.66,85.22,,,,,,
490.0,132276.75578325955,0.0,124433.0,572037.8898507708,13576.010593726452,151315.45475587077,417581.1661131899,0.0,0.0,0.0,336.2394266153351,6788.005296863225,0.0,1344.9577064613404,1681.1971330766755,0.0,154733.4724170964,0.0,132276.75578325955,0.0,,22.4085232807646,,2.1,6049.327003103367,154154.10825362703,0.21272824539194804,0.25822496433436415,0.5867346938775483,,0.0,-16313.477242056872,0.5,,31.436893779449463,10053.033439527726,132276.75578325955,76.0,180.0,57.66,87.03999999999999,,,,,,
491.0,152457.48689518502,0.0,163849.0,275131.69301356626,21807.3346969627,75066.57245144957,229343.8016401802,0.0,0.0,0.0,80565.75259674914,10903.667348481351,0.0,322263.01038699655,402828.7629837457,0.0,247956.90546604764,0.0,152457.48689518502,0.0,,22.2398692056571,,5.2,-80170.77987855801,-26721.285963688082,0.36109697691779263,0.26567200606645647,0.5867346938775483,,0.0,0.0,0.5,,36.229997185771765,11434.311517138876,152457.48689518502,75.0,180.0,57.64,87.07,,,,,,
492.0,149518.5750082965,0.0,152467.0,421826.40843693394,47061.11139605062,131755.5712380122,428917.73216115026,0.0,0.0,0.0,52674.899375689536,23530.55569802531,0.0,210699.59750275814,263374.49687844765,0.0,309257.1505863771,0.0,149518.57500829647,0.0,,21.78278609021694,,7.3,-105233.59162017526,-54498.73316233685,0.5460099489302042,0.2871921937365477,0.5867346938775483,,0.0,-15897.070485755066,0.5,,33.80764499512592,7176.891600398232,149518.5750082965,48.0,171.0,46.11,87.44,,,,,,
493.0,146905.9380294717,0.0,117354.0,515565.3179889436,31511.976991802356,177338.02476198433,592522.6350166805,0.0,0.0,0.0,24903.490619832926,15755.988495901176,0.0,99613.9624793317,124517.45309916462,0.0,260469.94433826194,0.0,146905.9380294717,0.0,,21.644775015068202,,8.2,-87045.83729576902,-99370.45858558638,0.6558215271498125,0.2952985334098639,0.5867346938775483,,4200.0,0.0,0.5,,32.77030759623425,7198.3909634441125,146905.9380294717,49.0,169.0,43.07,87.47999999999999,,,,,,
494.0,210330.90027356546,0.0,101868.0,454597.36914661905,40906.021758571806,187249.21221547903,625637.940738456,0.0,0.0,0.0,12147.898000000001,20453.010879285906,0.0,48591.592000000004,60739.49,60739.49,186712.7226115538,0.0,210330.90027356544,0.0,,21.5914767192354,,8.2,-94726.85816827229,-122448.97959183672,0.7522005561974469,0.3190011573165694,0.5704081632653034,,2400.0,0.0,0.18333333333333335,,46.91430730601878,11147.53771449897,210330.90027356546,53.0,169.0,43.05,87.49000000000001,,,,,,
495.0,395719.55160326883,0.0,96810.0,432504.7913260902,10477.213797284212,200171.4707259369,640189.4102025422,0.0,0.0,0.0,195704.59290752394,5238.606898642106,0.0,782818.3716300958,978522.9645376196,159625.52,58686.24265759829,0.0,395719.5516032689,0.0,,21.5914767192354,,6.7,40258.86713061007,-227385.7428932233,0.7190452035993324,0.3354613905335421,0.559183673469385,,9300.0,0.0,0.05,,88.26524598510912,22160.294889783054,395719.55160326883,56.0,172.0,43.05,86.44,,,,,,
496.0,238092.934519321,0.0,92836.0,506931.2394392198,1356.095127117166,158048.34967048437,470816.3926992014,0.0,0.0,0.0,10513.375109899831,678.0475635585829,0.0,42053.500439599324,52566.87554949915,16530.48,0.0,0.0,238092.93451932096,0.0,,22.4085232807646,,4.4,24495.254933659835,42852.67954110853,0.678276457679755,0.33002173840293586,0.5591836734693846,,11850.0,0.0,0.05,,53.10662904453455,13333.204333081974,238092.934519321,56.0,172.0,43.05,86.34,,,,,,
497.0,301458.384168662,0.0,123952.0,430170.830165073,6814.724237124103,196058.33587717087,580307.6544272819,0.0,0.0,0.0,11512.125944780737,3407.3621185620514,0.0,46048.50377912295,57560.62972390368,29969.68,0.0,0.0,301458.38416866196,0.0,,21.89323000679861,,4.2,31571.369574133,-131127.45121251157,0.6151938781127116,0.3402076319024435,0.5479591836734662,,12000.0,0.0,0.0,,68.15672607669279,15675.835976770424,301458.384168662,52.0,172.0,46.09,87.44,,,,,,
498.0,281039.5074277126,0.0,141922.0,204710.3364015006,4186.810750762659,133828.7610350292,263429.6667175823,0.0,0.0,0.0,28822.669928541553,970.8043413904873,0.0,115290.67971416621,144113.34964270773,0.0,0.0,0.0,281039.5074277126,0.0,,21.5914767192354,,3.9,-72286.8789270033,103491.44768285252,0.5204406545329989,0.3038057029884122,0.5867346938775487,,0.0,0.0,0.0,,65.74919276271336,13208.856849102494,281039.5074277126,47.0,173.0,53.95,86.47999999999999,,,,,,
499.0,179430.53019946377,0.0,159584.0,661232.5470894418,0.0,193618.87945496602,381121.0422227783,0.0,0.0,0.0,35961.518000000004,0.0,0.0,143846.07200000001,179807.59,378179.92,0.0,0.0,179430.53019946383,0.0,,21.591476719235395,,3.7,107807.23898188483,304230.9768666638,0.3864486416285346,0.2758149415737247,0.5867346938775487,,0.0,-1874.219075385256,0.05,,41.97777254016455,8612.66544957426,179430.53019946377,48.0,174.0,53.95,86.24000000000001,,,,,,
500.0,371805.66261819296,0.0,163271.0,845292.875390123,1128.3328853072912,269142.0422569019,547742.1713414817,0.0,0.0,0.0,91132.2672977172,564.1664426536456,0.0,364529.0691908688,455661.33648858604,0.0,0.0,0.0,371805.66261819296,0.0,,22.4085232807646,,3.5,59600.67524951714,244242.9684806961,0.31931272318815024,0.2532558461170055,0.5867346938775483,,0.0,0.0,0.05,,86.98021671290006,18590.283130909647,371805.66261819296,50.0,180.0,53.94,86.18,,,,,,
501.0,604240.4189750423,0.0,150507.0,935048.3646370886,32728.97457340543,447667.2189301985,1073240.6495502898,0.0,0.0,0.0,146748.56932995678,16364.487286702715,0.0,586994.2773198271,733742.8466497838,0.0,0.0,0.0,604240.4189750424,0.0,,22.4085232807646,,3.2,62938.81267161746,-31719.757910162152,0.20321545592788523,0.2703201356550982,0.5867346938775483,,0.0,0.0,0.0,,135.3256842336505,25378.097596951775,604240.4189750423,42.0,167.0,43.96,87.45,,,,,,
502.0,132276.75578325955,0.0,115456.0,572037.8898507708,13576.010593726452,151315.45475587077,417581.1661131899,0.0,0.0,0.0,336.2394266153351,6788.005296863225,0.0,1344.9577064613404,1681.1971330766755,0.0,0.0,0.0,132276.75578325955,0.0,,22.4085232807646,,3.0,6049.327003103367,154154.10825362703,0.21272824539194804,0.25822496433436415,0.5867346938775483,,0.0,-16313.477242056872,0.0,,28.078386950112503,925.9372904828168,132276.75578325955,7.0,78.0,32.27,87.85,,,,,,
503.0,152457.48689518502,0.0,73500.0,275131.69301356626,21807.3346969627,75066.57245144957,229343.8016401802,0.0,0.0,0.0,80565.75259674914,10903.667348481351,0.0,322263.01038699655,402828.7629837457,0.0,0.0,0.0,152457.48689518502,0.0,,22.2398692056571,,2.8,-80170.77987855801,-26721.285963688082,0.36109697691779263,0.26567200606645647,0.5867346938775483,,0.0,0.0,0.0,,29.053823277615408,914.7449213711101,152457.48689518502,6.0,75.0,10.57,85.72,,,,,,
504.0,149518.5750082965,0.0,61337.0,421826.40843693394,47061.11139605062,131755.5712380122,428917.73216115026,0.0,0.0,0.0,52674.899375689536,23530.55569802531,0.0,210699.59750275814,263374.49687844765,0.0,0.0,0.0,149518.57500829647,0.0,,21.78278609021694,,2.3,-105233.59162017526,-54498.73316233685,0.5460099489302042,0.2871921937365477,0.5867346938775483,,0.0,-15897.070485755066,0.0,,28.48328853908048,897.111450049779,149518.5750082965,6.0,74.0,10.5,85.7,,,,,,
505.0,146905.9380294717,0.0,48485.0,515565.3179889436,31511.976991802356,177338.02476198433,592522.6350166805,0.0,0.0,0.0,24903.490619832926,15755.988495901176,0.0,99613.9624793317,124517.45309916462,0.0,0.0,0.0,146905.9380294717,0.0,,21.644775015068202,,1.9,-87045.83729576902,-99370.45858558638,0.6558215271498125,0.2952985334098639,0.5867346938775483,,4200.0,0.0,0.0,,27.984112135234064,881.43562817683,146905.9380294717,6.0,73.0,10.49,85.7,,,,,,
506.0,210330.90027356546,0.0,37159.0,454597.36914661905,40906.021758571806,187249.21221547903,625637.940738456,0.0,0.0,0.0,12147.898000000001,20453.010879285906,0.0,48591.592000000004,60739.49,0.0,0.0,0.0,210330.90027356544,0.0,,21.5914767192354,,1.4,-94726.85816827229,-122448.97959183672,0.7522005561974469,0.3190011573165694,0.5704081632653034,,2400.0,0.0,0.0,,40.06382988410875,1261.9854016413929,210330.90027356546,6.0,73.0,10.48,85.7,,,,,,
507.0,395719.55160326883,0.0,35597.0,432504.7913260902,10477.213797284212,200171.4707259369,640189.4102025422,0.0,0.0,0.0,195704.59290752394,5238.606898642106,0.0,782818.3716300958,978522.9645376196,28498.4,0.0,0.0,395719.5516032689,0.0,,21.5914767192354,,1.2,40258.86713061007,-227385.7428932233,0.7190452035993324,0.3354613905335421,0.559183673469385,,9300.0,0.0,0.0,,75.33708823423032,2374.317309619613,395719.55160326883,6.0,73.0,10.38,85.68,,,,,,
508.0,238092.934519321,0.0,33938.0,506931.2394392198,1356.095127117166,158048.34967048437,470816.3926992014,0.0,0.0,0.0,10513.375109899831,678.0475635585829,0.0,42053.500439599324,52566.87554949915,0.0,0.0,0.0,238092.93451932096,0.0,,22.4085232807646,,1.0,24495.254933659835,42852.67954110853,0.678276457679755,0.33002173840293586,0.5591836734693846,,11850.0,0.0,0.0,,45.32813287378833,1428.5576071159257,238092.934519321,6.0,74.0,10.38,85.7,,,,,,
509.0,301458.384168662,0.0,41701.0,430170.830165073,6814.724237124103,196058.33587717087,580307.6544272819,0.0,0.0,0.0,11512.125944780737,3407.3621185620514,0.0,46048.50377912295,57560.62972390368,0.0,0.0,0.0,301458.38416866196,0.0,,21.89323000679861,,0.7,31571.369574133,-131127.45121251157,0.6151938781127116,0.3402076319024435,0.5479591836734662,,12000.0,0.0,0.0,,57.385618010346505,1808.7503050119722,301458.384168662,6.0,76.0,10.36,85.71000000000001,,,,,,
510.0,281039.5074277126,0.0,47465.0,204710.3364015006,4186.810750762659,133828.7610350292,263429.6667175823,0.0,0.0,0.0,28822.669928541553,970.8043413904873,0.0,115290.67971416621,144113.34964270773,91153.11,0.0,0.0,281039.5074277126,0.0,,21.5914767192354,,0.6,-72286.8789270033,103491.44768285252,0.5204406545329989,0.3038057029884122,0.5867346938775487,,0.0,0.0,0.0,,53.50430142408793,1686.237044566276,281039.5074277126,6.0,76.0,10.38,85.72,,,,,,
511.0,179430.53019946377,0.0,49895.0,661232.5470894418,0.0,193618.87945496602,381121.0422227783,0.0,0.0,0.0,35961.518000000004,0.0,0.0,143846.07200000001,179807.59,0.0,0.0,0.0,179430.53019946383,0.0,,21.591476719235395,,0.4,107807.23898188483,304230.9768666638,0.3864486416285346,0.2758149415737247,0.5867346938775487,,0.0,-1874.219075385256,0.13333333333333333,,34.17792739239386,1076.5831811967826,179430.53019946377,6.0,77.0,10.48,85.72999999999999,,,,,,
512.0,371805.66261819296,0.0,67525.0,845292.875390123,1128.3328853072912,269142.0422569019,547742.1713414817,0.0,0.0,0.0,91132.2672977172,564.1664426536456,0.0,364529.0691908688,455661.33648858604,0.0,0.0,0.0,371805.66261819296,0.0,,22.4085232807646,,0.6,59600.67524951714,244242.9684806961,0.31931272318815024,0.2532558461170055,0.5867346938775483,,0.0,0.0,0.13333333333333333,,70.82526067213958,2230.833975709158,371805.66261819296,6.0,77.0,10.49,85.72,,,,,,
513.0,604240.4189750423,0.0,96959.0,935048.3646370886,32728.97457340543,447667.2189301985,1073240.6495502898,0.0,0.0,0.0,146748.56932995678,16364.487286702715,0.0,586994.2773198271,733742.8466497838,0.0,447.8966753388531,0.0,604240.4189750424,0.0,,22.4085232807646,,1.5,62938.81267161746,-31719.757910162152,0.20321545592788523,0.2703201356550982,0.5867346938775483,,0.0,0.0,0.18333333333333335,,115.15009664407381,3625.442513850254,604240.4189750423,6.0,78.0,10.57,85.74000000000001,,,,,,
514.0,132276.75578325955,0.0,102287.0,572037.8898507708,13576.010593726452,151315.45475587077,417581.1661131899,0.0,0.0,0.0,336.2394266153351,6788.005296863225,0.0,1344.9577064613404,1681.1971330766755,30502.5,21141.668047406558,0.0,132276.75578325955,0.0,,22.4085232807646,,2.8,6049.327003103367,154154.10825362703,0.21272824539194804,0.25822496433436415,0.5867346938775483,,0.0,-16313.477242056872,0.18333333333333335,,28.60220290301421,925.9372904828168,132276.75578325955,7.0,102.0,36.23,88.25,,,,,,
515.0,152457.48689518502,0.0,177330.0,275131.69301356626,21807.3346969627,75066.57245144957,229343.8016401802,0.0,0.0,0.0,80565.75259674914,10903.667348481351,0.0,322263.01038699655,402828.7629837457,37492.9,46832.56940752411,0.0,152457.48689518502,0.0,,22.2398692056571,,3.8,-80170.77987855801,-26721.285963688082,0.36109697691779263,0.26567200606645647,0.5867346938775483,,0.0,0.0,0.18333333333333335,,34.350196372354134,7317.959370968881,152457.48689518502,48.0,168.0,45.31,87.84,,,,,,
516.0,149518.5750082965,0.0,157681.0,421826.40843693394,47061.11139605062,131755.5712380122,428917.73216115026,0.0,0.0,0.0,52674.899375689536,23530.55569802531,0.0,210699.59750275814,263374.49687844765,112946.59,112061.81515405566,0.0,149518.57500829647,0.0,,21.78278609021694,,4.6,-105233.59162017526,-54498.73316233685,0.5460099489302042,0.2871921937365477,0.5867346938775483,,0.0,-15897.070485755066,0.18333333333333335,,34.28161887790222,7475.928750414825,149518.5750082965,50.0,168.0,49.28,87.72,,,,,,
517.0,146905.9380294717,0.0,129550.0,515565.3179889436,31511.976991802356,177338.02476198433,592522.6350166805,0.0,0.0,0.0,24903.490619832926,15755.988495901176,0.0,99613.9624793317,124517.45309916462,243666.4,90465.07051891525,0.0,146905.9380294717,0.0,,21.644775015068202,,5.1,-87045.83729576902,-99370.45858558638,0.6558215271498125,0.2952985334098639,0.5867346938775483,,4200.0,0.0,0.5,,33.21396352908325,7639.108777532528,146905.9380294717,52.0,165.0,46.09,87.83,,,,,,
518.0,210330.90027356546,0.0,114879.0,454597.36914661905,40906.021758571806,187249.21221547903,625637.940738456,0.0,0.0,0.0,12147.898000000001,20453.010879285906,0.0,48591.592000000004,60739.49,0.0,34215.898878376465,0.0,210330.90027356544,0.0,,21.5914767192354,,5.3,-94726.85816827229,-122448.97959183672,0.7522005561974469,0.3190011573165694,0.5704081632653034,,2400.0,0.0,0.5,,47.553713242850414,11568.1995150461,210330.90027356546,55.0,165.0,46.09,87.81,,,,,,
519.0,395719.55160326883,0.0,88264.0,432504.7913260902,10477.213797284212,200171.4707259369,640189.4102025422,0.0,0.0,0.0,195704.59290752394,5238.606898642106,0.0,782818.3716300958,978522.9645376196,0.0,1079.2946836593726,0.0,395719.5516032689,0.0,,21.5914767192354,,4.8,40258.86713061007,-227385.7428932233,0.7190452035993324,0.3354613905335421,0.559183673469385,,9300.0,0.0,0.5,,89.46823342198304,21764.575338179784,395719.55160326883,55.0,166.0,46.09,85.96000000000001,,,,,,
520.0,238092.934519321,0.0,100525.0,506931.2394392198,1356.095127117166,158048.34967048437,470816.3926992014,0.0,0.0,0.0,10513.375109899831,678.0475635585829,0.0,42053.500439599324,52566.87554949915,35311.68,0.0,0.0,238092.93451932096,0.0,,22.4085232807646,,4.0,24495.254933659835,42852.67954110853,0.678276457679755,0.33002173840293586,0.5591836734693846,,11850.0,0.0,0.5,,55.475653743001786,28571.15214231852,238092.934519321,120.0,182.0,53.0,84.78999999999999,,,,,,
521.0,301458.384168662,0.0,117900.0,430170.830165073,6814.724237124103,196058.33587717087,580307.6544272819,0.0,0.0,0.0,11512.125944780737,3407.3621185620514,0.0,46048.50377912295,57560.62972390368,0.0,0.0,0.0,301458.38416866196,0.0,,21.89323000679861,,3.3,31571.369574133,-131127.45121251157,0.6151938781127116,0.3402076319024435,0.5479591836734662,,12000.0,0.0,0.31666666666666665,,72.53691639866345,54563.96753452782,301458.384168662,181.0,190.0,60.62,82.65,,,,,,
522.0,281039.5074277126,0.0,136582.0,204710.3364015006,4186.810750762659,133828.7610350292,263429.6667175823,0.0,0.0,0.0,28822.669928541553,970.8043413904873,0.0,115290.67971416621,144113.34964270773,36346.65,0.0,0.0,281039.5074277126,0.0,,21.5914767192354,,2.6,-72286.8789270033,103491.44768285252,0.5204406545329989,0.3038057029884122,0.5867346938775487,,0.0,0.0,0.13333333333333333,,70.86973258804629,55364.782963259386,281039.5074277126,197.0,189.0,72.17,82.73,,,,,,
523.0,179430.53019946377,0.0,157321.0,661232.5470894418,0.0,193618.87945496602,381121.0422227783,0.0,0.0,0.0,35961.518000000004,0.0,0.0,143846.07200000001,179807.59,0.0,0.0,0.0,179430.53019946383,0.0,,21.591476719235395,,1.9,107807.23898188483,304230.9768666638,0.3864486416285346,0.2758149415737247,0.5867346938775487,,0.0,-1874.219075385256,0.13333333333333333,,45.33671206549852,36244.96710029168,179430.53019946377,202.0,190.0,72.67,80.25,,,,,,
524.0,371805.66261819296,0.0,164816.0,845292.875390123,1128.3328853072912,269142.0422569019,547742.1713414817,0.0,0.0,0.0,91132.2672977172,564.1664426536456,0.0,364529.0691908688,455661.33648858604,26207.24,0.0,0.0,371805.66261819296,0.0,,22.4085232807646,,1.3,59600.67524951714,244242.9684806961,0.31931272318815024,0.2532558461170055,0.5867346938775483,,0.0,0.0,0.13333333333333333,,93.79913256531772,78079.18914982052,371805.66261819296,210.0,197.0,72.28,79.34,,,,,,
525.0,604240.4189750423,0.0,146179.0,935048.3646370886,32728.97457340543,447667.2189301985,1073240.6495502898,0.0,0.0,0.0,146748.56932995678,16364.487286702715,0.0,586994.2773198271,733742.8466497838,0.0,0.0,0.0,604240.4189750424,0.0,,22.4085232807646,,0.6,62938.81267161746,-31719.757910162152,0.20321545592788523,0.2703201356550982,0.5867346938775483,,0.0,0.0,0.13333333333333333,,149.10840819047118,130515.93049860914,604240.4189750423,216.0,201.0,66.77,79.3,,,,,,
526.0,132276.75578325955,0.0,113607.0,572037.8898507708,13576.010593726452,151315.45475587077,417581.1661131899,0.0,0.0,0.0,336.2394266153351,6788.005296863225,0.0,1344.9577064613404,1681.1971330766755,219710.0,0.0,0.0,132276.75578325955,0.0,,22.4085232807646,,-0.1,6049.327003103367,154154.10825362703,0.21272824539194804,0.25822496433436415,0.5867346938775483,,0.0,-16313.477242056872,0.13333333333333333,,31.643245518471346,29100.8862723171,132276.75578325955,220.0,192.0,59.22,79.97,,,,,,
527.0,152457.48689518502,0.0,75667.0,275131.69301356626,21807.3346969627,75066.57245144957,229343.8016401802,0.0,0.0,0.0,80565.75259674914,10903.667348481351,0.0,322263.01038699655,402828.7629837457,0.0,0.0,0.0,152457.48689518502,0.0,,22.2398692056571,,-0.7,-80170.77987855801,-26721.285963688082,0.36109697691779263,0.26567200606645647,0.5867346938775483,,0.0,0.0,0.0,,36.29402933026775,35522.59444657811,152457.48689518502,233.0,203.0,58.06,79.39,,,,,,
528.0,149518.5750082965,0.0,65013.0,421826.40843693394,47061.11139605062,131755.5712380122,428917.73216115026,0.0,0.0,0.0,52674.899375689536,23530.55569802531,0.0,210699.59750275814,263374.49687844765,0.0,0.0,0.0,149518.57500829647,0.0,,21.78278609021694,,-1.5,-105233.59162017526,-54498.73316233685,0.5460099489302042,0.2871921937365477,0.5867346938775483,,0.0,-15897.070485755066,0.0,,35.594391966475065,35734.93942698286,149518.5750082965,239.0,211.0,58.06,78.89,,,,,,
529.0,146905.9380294717,0.0,52018.0,515565.3179889436,31511.976991802356,177338.02476198433,592522.6350166805,0.0,0.0,0.0,24903.490619832926,15755.988495901176,0.0,99613.9624793317,124517.45309916462,0.0,0.0,0.0,146905.9380294717,0.0,,21.644775015068202,,-2.2,-87045.83729576902,-99370.45858558638,0.6558215271498125,0.2952985334098639,0.5867346938775483,,4200.0,0.0,0.0,,34.973896666676325,35698.14294116162,146905.9380294717,243.0,209.0,58.07,78.89,,,,,,
530.0,210330.90027356546,0.0,40552.0,454597.36914661905,40906.021758571806,187249.21221547903,625637.940738456,0.0,0.0,0.0,12147.898000000001,20453.010879285906,0.0,48591.592000000004,60739.49,0.0,0.0,0.0,210330.90027356544,0.0,,21.5914767192354,,-3.0,-94726.85816827229,-122448.97959183672,0.7522005561974469,0.3190011573165694,0.5704081632653034,,2400.0,0.0,0.0,,50.079787355135934,53634.3795697592,210330.90027356546,255.0,209.0,58.1,78.88,,,,,,
531.0,395719.55160326883,0.0,37197.0,432504.7913260902,10477.213797284212,200171.4707259369,640189.4102025422,0.0,0.0,0.0,195704.59290752394,5238.606898642106,0.0,782818.3716300958,978522.9645376196,0.0,0.0,0.0,395719.5516032689,0.0,,21.5914767192354,,-3.5,40258.86713061007,-227385.7428932233,0.7190452035993324,0.3354613905335421,0.559183673469385,,9300.0,0.0,0.0,,94.22478243225434,102095.64431364335,395719.55160326883,258.0,208.0,58.11,78.89,,,,,,
532.0,238092.934519321,0.0,33854.0,506931.2394392198,1356.095127117166,158048.34967048437,470816.3926992014,0.0,0.0,0.0,10513.375109899831,678.0475635585829,0.0,42053.500439599324,52566.87554949915,0.0,0.0,0.0,238092.93451932096,0.0,,22.4085232807646,,-3.9,24495.254933659835,42852.67954110853,0.678276457679755,0.33002173840293586,0.5591836734693846,,11850.0,0.0,0.0,,56.95897272505716,63094.62764762006,238092.934519321,265.0,198.0,59.23,79.83,,,,,,
533.0,301458.384168662,0.0,40804.0,430170.830165073,6814.724237124103,196058.33587717087,580307.6544272819,0.0,0.0,0.0,11512.125944780737,3407.3621185620514,0.0,46048.50377912295,57560.62972390368,173583.8,0.0,0.0,301458.38416866196,0.0,,21.89323000679861,,-4.3,31571.369574133,-131127.45121251157,0.6151938781127116,0.3402076319024435,0.5479591836734662,,12000.0,0.0,0.0,,73.5377582341034,84106.8891830567,301458.384168662,279.0,183.0,63.94,79.81,,,,,,
