,0
import_elec,79830964.25270532
import_th,0.0
consum_elec,13835934.0
consum_th,119419753.20040768
consum_cold,3902862.992073545
pow_elec_hp,57997323.82589808
pow_th_hp,110488077.2984276
pow_th_gb,0.0
pow_th_chp,0.0
pow_gas_gb,0.0
pow_elec_eh,13890394.60699572
pow_elec_ac,1939181.1409443608
pow_elec_chp,0.0
pow_th_eh_in,55561578.42798288
pow_th_eh_out,69451973.0349786
consum_dhw,5611271.54
gen_pv,3681513.601512475
trans_to_hub,0.0
trans_to_bul,79830964.25270534
dh_to_bul_1,0.0
dh_to_bul_2,0.0
temp_zone_1,3165.529843916246
temp_zone_2,0.0
temp_amb,-708.5
pow_elec_bat,-313521.44365777745
pow_th_tes,2794422.4638139065
soc_bat_avg,69.28063980087163
soc_tes_avg,46.87881517325185
soc_ev_1,96.76326530612226
soc_ev_2,0.0
consum_ev_drive,546000.0
consum_ev_charge,-388119.5727741339
soc_ev_1_driving,20.316666666666666
soc_ev_2_driving,0.0
obj_cost,19691.781976085254
obj_co2,16850248.980587166
obj_peak,79830964.25270532
emi_factor_elec,26775.0
emi_factor_dh,26223.0
price_elec,8810.74
price_dh,11508.35
slack_ext,0.0
restload_avg,0.0
renovation_cost_construction,5516588.0304000005
renovation_cost_hp,837141.3467096372
renovation_cost_pv,1055673.1935
renovation_cost_total,7409402.570609635
