,load_elec,grid,hp_elec,ev,pv,bat_pow,cool,load_th_sh,load_th_dhw,tes_pow,dh,hp_th,bat_soc,tes_soc,ev_soc,eh_th_in,eh_elec_in,eh_th_out,temp_slack,temp_zone_1,temp_zone_2,temp_update,Qsolar_1,QconvInt_1,QradInt_1,Qvent_1,Qconduc_1,Qheating_1,Qsolar_2,QconvInt_2,QradInt_2,Qvent_2,Qconduc_2,Qheating_2,temp_amb,temp_aggregate_1,temp_aggregate_2,temp_wall_1,temp_wall_2,_Tamb,_Tz_1,_TEW_1,_TIW_1,_T1_1,_T2_1,_Taeq_1,_Tvent_1,_Qheating_1,_Qinfvent_1,_Qenvelope_1,_Qsolar_1,_Qint_people_1,_Qint_lighting_1,_Qint_appliances_1,_Tz_2,_TEW_2,_TIW_2,_T1_2,_T2_2,_Taeq_2,_Tvent_2,_Qheating_2,_Qinfvent_2,_Qenvelope_2,_Qsolar_2,_Qint_people_2,_Qint_lighting_2,_Qint_appliances_2
390.0,829.0,10486.706948467918,12740.131855097421,-0.0,0.0,3134.858441371843,0.0,25077.783449313356,0.0,0.0,0.0,25077.783449313356,0.3667152023226257,0.5,0.8,0.0,0.0,0.0,"[2.0, 2.0, 2.0, 2.0, 2.0, 2.0, 2.0, 2.0]",20.0,0.0,0.0,0.0,211.7744100961551,94.6915000572545,-1356.774792242412,-2093.2163161791,3146.267826624994,0.0,0.0,0.0,0.0,0.0,0.0,-6.2,19.11740921046961,0.0,19.0,0.0,-6.2,20.0,18.0,20.0,20.0,20.0,-7.14,-6.2,9656.16,-931.21,-3361.5,0.0,134.0,109.0,71.0,0.0,0.0,0.0,0.0,0.0,0.0,0.0,0.0,0.0,0.0,0.0,0.0,0.0,0.0
391.0,1160.0,0.0,0.0,-0.0,0.0,1160.0,0.0,70741.06558194419,0.0,70741.06558194419,0.0,0.0,0.31739547443146926,0.19923016334207405,0.8,0.0,0.0,0.0,"[2.0, 2.0, 2.0, 2.0, 2.0, 2.0, 2.0, 2.0]",20.0,0.0,0.0,0.0,351.20895461766895,113.94983656460008,-1361.9533219837954,-2170.3844244718366,11674.55199201292,0.0,0.0,0.0,0.0,0.0,0.0,-6.3,19.081833721816334,0.0,18.97185778368641,0.0,-6.3,20.0,17.88,20.06,19.14,20.21,-7.23,-6.3,0.0,-934.77,-3374.33,0.0,107.0,156.0,181.0,0.0,0.0,0.0,0.0,0.0,0.0,0.0,0.0,0.0,0.0,0.0,0.0,0.0,0.0
392.0,1133.0,0.0,6332.141558628157,-0.0,0.0,7465.141558628157,0.0,12464.241075663513,0.0,0.0,0.0,12464.241075663514,0.0,0.19923016334207405,0.8,0.0,0.0,0.0,"[2.0, 2.0, 2.0, 2.0, 2.0, 2.0, 2.0, 2.0]",24.0,0.0,0.0,2.4191944867705386,328.698362006829,101.28874361297785,-1563.915981897742,-7837.533966107802,367.6173561820684,0.0,0.0,0.0,0.0,0.0,0.0,-6.2,20.460193404483267,0.0,19.379123563795048,0.0,-6.2,24.0,18.01,20.75,21.49,22.87,-7.13,-6.2,10287.47,-1073.38,-3874.71,4.31,114.0,128.0,164.0,0.0,0.0,0.0,0.0,0.0,0.0,0.0,0.0,0.0,0.0,0.0,0.0,0.0,0.0
393.0,4079.0,63529.60506619145,59142.25704809254,-0.0,9.300007232048614,0.0,0.0,40362.86869903741,0.0,-80000.0,0.0,120362.86869903743,0.0,0.5258968300087408,0.8,0.0,0.0,0.0,"[2.0, 2.0, 2.0, 2.0, 2.0, 2.0, 2.0, 2.0]",20.0,0.0,0.0,38.922748412706916,425.5886149919979,81.9181135983008,-1320.5250840527294,-1694.9133992407437,11070.831561847737,0.0,0.0,0.0,0.0,0.0,0.0,-5.5,19.29948976533737,0.0,19.348273112382692,0.0,-5.5,20.0,17.94,20.76,18.98,20.3,-6.22,-5.5,4116.14,-906.33,-3271.69,69.32,166.0,58.0,214.0,0.0,0.0,0.0,0.0,0.0,0.0,0.0,0.0,0.0,0.0,0.0,0.0,0.0,0.0
394.0,4052.0,135079.33566231217,110469.66288232479,-0.0,45.70389832419286,-16000.0,0.0,214375.19444486924,19639.9,0.0,0.0,230087.11444486925,0.6533333333333333,0.5258968300087408,0.8,15711.920000000002,3927.9800000000005,19639.9,"[2.0, 2.0, 2.0, 2.0, 2.0, 2.0, 2.0, 2.0]",24.0,0.0,0.0,55.054999196878846,2126.631778303047,67.60069141353954,-1501.7736250011433,-7424.742719835939,0.0,0.0,0.0,0.0,0.0,0.0,0.0,-5.0,20.64690176988284,0.0,19.697452612666243,0.0,-5.0,24.0,18.08,21.32,21.52,23.15,-5.57,-5.0,0.0,-1030.73,-3720.75,98.06,92.0,0.0,1488.0,0.0,0.0,0.0,0.0,0.0,0.0,0.0,0.0,0.0,0.0,0.0,0.0,0.0,0.0
395.0,2371.0,15291.631769707496,13209.662040358195,-0.0,365.4884294992369,0.0,0.0,28268.782360889647,0.0,0.0,0.0,28268.782360889647,0.6533333333333333,0.5258968300087408,0.8,0.0,0.0,0.0,"[2.0, 2.0, 2.0, 2.0, 2.0, 2.0, 2.0, 2.0]",20.9,0.0,0.0,94.66297894139657,224.74167703702733,38.60089314518973,-1310.0598225318913,-2650.7266634641237,8798.593376464003,0.0,0.0,0.0,0.0,0.0,0.0,-4.4,19.751562141823424,0.0,19.67385114630836,0.0,-4.4,20.9,18.05,21.3,19.37,20.88,-4.87,-4.4,9255.63,-899.15,-3245.76,168.6,128.0,0.0,95.0,0.0,0.0,0.0,0.0,0.0,0.0,0.0,0.0,0.0,0.0,0.0,0.0,0.0,0.0
396.0,2192.0,22390.88292733495,20648.77313303086,-0.0,561.8446203325843,0.0,0.0,44975.943930033514,0.0,0.0,0.0,44975.943930033514,0.6533333333333333,0.5258968300087408,0.8,0.0,0.0,0.0,"[2.0, 2.0, 2.0, 2.0, 2.0, 2.0, 2.0, 2.0]",23.32,0.0,0.0,106.02630669190718,213.15855656737182,4.3233000322612485,-1414.676956911579,-6058.593820736487,0.0,0.0,0.0,0.0,0.0,0.0,0.0,-4.0,20.593970288793695,0.0,19.924476658953786,0.0,-4.0,23.32,18.17,21.68,21.14,22.9,-4.4,-4.0,0.0,-970.95,-3504.96,188.84,0.0,0.0,154.0,0.0,0.0,0.0,0.0,0.0,0.0,0.0,0.0,0.0,0.0,0.0,0.0,0.0,0.0
397.0,1367.0,0.0,11222.532051782167,-0.0,343.39796913652117,12246.134082645647,0.0,24658.235353407516,0.0,0.0,0.0,24658.235353407516,0.13266436723445385,0.5258968300087408,0.8,0.0,0.0,0.0,"[2.0, 2.0, 2.0, 2.0, 2.0, 2.0, 2.0, 2.0]",20.0,0.0,0.0,92.95045420240083,73.35976297448511,1.4878889721418564,-1232.4900784492143,-1070.2182176531708,10728.025362952041,0.0,0.0,0.0,0.0,0.0,0.0,-3.8,19.583570928570566,0.0,19.813151572272602,0.0,-3.8,20.0,18.11,21.52,19.09,20.73,-4.32,-3.8,0.0,-845.91,-3053.58,165.55,0.0,0.0,53.0,0.0,0.0,0.0,0.0,0.0,0.0,0.0,0.0,0.0,0.0,0.0,0.0,0.0,0.0
398.0,1576.0,27094.83444536859,23863.993851796455,-0.0,72.34947274456904,-1591.7158940898578,0.0,52206.65149007061,0.0,0.0,0.0,52206.65149007062,0.1976594329097897,0.5258968300087408,0.8,0.0,0.0,0.0,"[2.0, 2.0, 2.0, 2.0, 2.0, 2.0, 2.0, 2.0]",24.0,0.0,0.0,62.409103752544695,110.73171769733598,2.2458701466292204,-1444.8097978459273,-6868.854719226416,8130.953030691853,0.0,0.0,0.0,0.0,0.0,0.0,-3.9,20.902167476706918,0.0,20.106745819698695,0.0,-3.9,24.0,18.26,21.96,21.62,23.49,-4.62,-3.9,8429.25,-991.64,-3579.62,111.15,0.0,0.0,80.0,0.0,0.0,0.0,0.0,0.0,0.0,0.0,0.0,0.0,0.0,0.0,0.0,0.0,0.0
399.0,3140.0,20602.75847544051,17360.19721080355,-0.0,0.4525277402412369,0.0,0.0,37481.960979209536,0.0,0.0,0.0,37481.96097920953,0.1976594329097897,0.5258968300087408,0.8,0.0,0.0,0.0,"[2.0, 2.0, 2.0, 2.0, 2.0, 2.0, 2.0, 2.0]",24.0,0.0,0.0,22.57050822551217,34.6036617804175,0.7018344208216309,-1460.345387070077,-6441.002162573184,0.0,0.0,0.0,0.0,0.0,0.0,0.0,-4.2,21.102708368680727,0.0,20.415405222347303,0.0,-4.2,24.0,18.44,22.39,21.51,23.45,-5.11,-4.2,0.0,-1002.3,-3618.11,40.2,0.0,0.0,25.0,0.0,0.0,0.0,0.0,0.0,0.0,0.0,0.0,0.0,0.0,0.0,0.0,0.0,0.0
400.0,2692.0,33474.7136852811,14615.340116854703,-0.0,0.0,-16000.0,0.0,30858.94711339141,0.0,0.0,0.0,30858.947113391412,0.850992766243123,0.5258968300087408,0.8,0.0,0.0,0.0,"[2.0, 2.0, 2.0, 2.0, 2.0, 2.0, 2.0, 2.0]",20.35,0.0,0.0,0.0,214.17845396721566,42.11006524929788,-1297.4721125862527,-983.8532221705743,1262.9986927252417,0.0,0.0,0.0,0.0,0.0,0.0,-4.7,19.984672059060163,0.0,20.27633678739607,0.0,-4.7,20.35,18.38,22.17,19.4,21.21,-5.79,-4.7,0.0,-890.51,-3214.58,0.0,142.0,0.0,80.0,0.0,0.0,0.0,0.0,0.0,0.0,0.0,0.0,0.0,0.0,0.0,0.0,0.0,0.0
401.0,4052.0,11398.625384068744,7289.6322571484,-0.0,0.0,0.0,0.0,15113.41119182383,0.0,0.0,0.0,15113.41119182383,0.850992766243123,0.5258968300087408,0.8,0.0,0.0,0.0,"[2.0, 2.0, 2.0, 2.0, 2.0, 2.0, 2.0, 2.0]",20.0,0.0,0.0,0.0,1779.7938125418523,108.61589496635568,-1299.8109650871966,-746.0672014085553,7536.744048471032,0.0,0.0,0.0,0.0,0.0,0.0,-5.1,19.740397288211216,0.0,20.054694191401573,0.0,-5.1,20.0,18.25,21.86,19.3,21.05,-6.15,-5.1,8581.99,-892.12,-3220.37,0.0,148.0,66.0,1201.0,0.0,0.0,0.0,0.0,0.0,0.0,0.0,0.0,0.0,0.0,0.0,0.0,0.0,0.0
402.0,7012.0,11921.356645264575,4849.749862038252,-0.0,0.0,0.0,0.0,9869.927780960661,0.0,0.0,0.0,9869.927780960661,0.3466666666666667,0.5258968300087408,0.8,0.0,0.0,0.0,"[1.4291340805287973, 2.0, 1.9292324153036837, 1.4110580098625718, 1.1291535030100484, 2.0, 1.3996843125375165, 1.3328018781362623]",23.43,0.0,0.0,0.0,2435.442141012921,148.48009006902433,-1498.1038122848222,-5872.123716612143,0.0,0.0,0.0,0.0,0.0,0.0,0.0,-5.5,20.799172496868515,0.0,20.196117774325124,0.0,-5.5,23.43,18.31,22.08,21.18,23.02,-6.54,-5.5,0.0,-1028.21,-3711.66,0.0,110.0,139.0,1687.0,0.0,0.0,0.0,0.0,0.0,0.0,0.0,0.0,0.0,0.0,0.0,0.0,0.0,0.0
403.0,12288.0,12349.748743718594,0.0,-0.0,0.0,0.0,0.0,37980.53065121336,0.0,37980.53065121336,0.0,0.0,0.3466666666666667,0.36441498200188127,0.8,0.0,0.0,0.0,"[1.4291340805287973, 2.0, 1.9292324153036837, 1.4110580098625718, 1.1291535030100484, 2.0, 1.3996843125375165, 1.3328018781362623]",21.2,0.0,0.0,0.0,1292.428555045025,127.98652498103273,-1398.3066004650802,-2542.5366937737904,5957.160191826286,0.0,0.0,0.0,0.0,0.0,0.0,-5.8,20.11359615128359,0.0,20.10978284833527,0.0,-5.8,21.2,18.27,21.95,19.67,21.38,-6.86,-5.8,7206.67,-959.72,-3464.4,0.0,88.0,156.0,871.0,0.0,0.0,0.0,0.0,0.0,0.0,0.0,0.0,0.0,0.0,0.0,0.0,0.0,0.0
404.0,7374.0,18279.737311918587,10814.33862535899,-0.0,0.0,0.0,0.0,21287.035744907844,0.0,0.0,0.0,21287.035744907844,0.3466666666666667,0.36441498200188127,0.8,0.0,0.0,0.0,"[1.4291340805287973, 2.0, 1.9292324153036837, 1.4110580098625718, 1.1291535030100484, 2.0, 1.3996843125375165, 1.3328018781362623]",22.8,0.0,0.0,0.0,1264.1628271064944,122.59643662912258,-1501.6700547095409,-4893.381343183955,221.23714664674952,0.0,0.0,0.0,0.0,0.0,0.0,-6.2,20.623308438833156,0.0,20.20382237576637,0.0,-6.2,22.8,18.3,22.1,20.81,22.66,-7.25,-6.2,0.0,-1030.66,-3720.49,0.0,85.0,148.0,853.0,0.0,0.0,0.0,0.0,0.0,0.0,0.0,0.0,0.0,0.0,0.0,0.0,0.0,0.0
405.0,4955.0,8669.773811119465,11825.024942063868,-0.0,0.0,8153.600000000001,0.0,22825.55288404888,0.0,0.0,0.0,22825.552884048884,0.0,0.36441498200188127,0.8,0.0,0.0,0.0,"[1.4291340805287973, 2.0, 1.9292324153036837, 1.4110580098625718, 1.1291535030100484, 2.0, 1.3996843125375165, 1.3328018781362623]",20.57,0.0,0.0,0.0,1155.0338053231985,114.67974436225458,-1407.0513726311822,-1642.309531726283,1782.968919106618,0.0,0.0,0.0,0.0,0.0,0.0,-6.6,19.901531953822364,0.0,20.06349864456512,0.0,-6.6,20.57,18.22,21.91,19.43,21.17,-7.66,-6.6,2980.29,-965.72,-3486.07,0.0,90.0,134.0,773.0,0.0,0.0,0.0,0.0,0.0,0.0,0.0,0.0,0.0,0.0,0.0,0.0,0.0,0.0
406.0,3482.0,101291.0392045797,81302.5840085568,-0.0,0.0,-16000.0,0.0,153836.03510195244,0.0,0.0,0.0,153836.03510195244,0.6533333333333333,0.36441498200188127,0.8,0.0,0.0,0.0,"[1.4291340805287973, 2.0, 1.9292324153036837, 1.4110580098625718, 1.1291535030100484, 2.0, 1.3996843125375165, 1.3328018781362623]",20.57,0.0,0.0,0.0,659.8007678847184,80.37407787249326,-1427.7654915967155,-1867.2969668169312,2557.2155536542946,0.0,0.0,0.0,0.0,0.0,0.0,-7.0,19.798045978455733,0.0,19.908779220172622,0.0,-7.0,20.57,18.11,21.71,19.49,21.22,-7.99,-7.0,0.0,-979.94,-3537.39,0.0,97.0,82.0,417.0,0.0,0.0,0.0,0.0,0.0,0.0,0.0,0.0,0.0,0.0,0.0,0.0,0.0,0.0
407.0,1600.0,79345.34176709395,68858.81913989113,-0.0,0.0,-8489.795918367347,0.0,48321.308009155284,0.0,-80000.0,0.0,128321.30800915528,1.0,0.691081648668548,0.8,0.0,0.0,0.0,"[1.4291340805287973, 2.0, 1.9292324153036837, 1.4110580098625718, 1.1291535030100484, 2.0, 1.3996843125375165, 1.3328018781362623]",20.57,0.0,0.0,0.0,332.26800290628256,52.188407532296516,-1443.301080820865,-2050.868315257445,9259.411263174143,0.0,0.0,0.0,0.0,0.0,0.0,-7.3,19.713781344768368,0.0,19.785725425754364,0.0,-7.3,20.57,18.01,21.56,19.48,21.2,-8.31,-7.3,0.0,-990.6,-3575.88,0.0,101.0,37.0,183.0,0.0,0.0,0.0,0.0,0.0,0.0,0.0,0.0,0.0,0.0,0.0,0.0,0.0,0.0
408.0,2232.0,0.0,13134.4,-0.0,0.0,15366.400000000001,0.0,24100.864481244153,0.0,0.0,0.0,24100.864481244153,0.3466666666666667,0.691081648668548,0.8,0.0,0.0,0.0,"[1.4291340805287973, 2.0, 1.9292324153036837, 1.4110580098625718, 1.1291535030100484, 2.0, 1.3996843125375165, 1.3328018781362623]",23.43,0.0,0.0,0.0,324.0359738932569,27.84878981820233,-1606.8529368538707,-6199.308932742899,7455.083713454246,0.0,0.0,0.0,0.0,0.0,0.0,-7.6,20.653711049374472,0.0,19.99839431594635,0.0,-7.6,23.43,18.09,21.9,21.18,23.07,-8.53,-7.6,7570.41,-1102.85,-3981.09,0.0,80.0,0.0,192.0,0.0,0.0,0.0,0.0,0.0,0.0,0.0,0.0,0.0,0.0,0.0,0.0,0.0,0.0
409.0,1484.0,37127.67312645215,19458.034760819897,-0.0,0.0,-16000.0,0.0,35333.36975891599,0.0,0.0,0.0,35333.36975891599,1.0,0.691081648668548,0.8,0.0,0.0,0.0,"[1.4291340805287973, 2.0, 1.9292324153036837, 1.4110580098625718, 1.1291535030100484, 2.0, 1.3996843125375165, 1.3328018781362623]",23.43,0.0,0.0,0.0,253.4445038612052,26.41704759972621,-1617.209996336637,-5896.978048164666,7235.09163187341,0.0,0.0,0.0,0.0,0.0,0.0,-7.8,20.794951688821122,0.0,20.221594701207145,0.0,-7.8,23.43,18.2,22.24,21.1,23.06,-8.74,-7.8,0.0,-1109.96,-4006.75,0.0,80.0,0.0,141.0,0.0,0.0,0.0,0.0,0.0,0.0,0.0,0.0,0.0,0.0,0.0,0.0,0.0,0.0
410.0,1453.0,14470.915739716876,12945.561161018291,-0.0,0.0,0.0,0.0,23137.28609471141,0.0,0.0,0.0,23137.286094711413,1.0,0.691081648668548,0.8,0.0,0.0,0.0,"[1.4291340805287973, 2.0, 1.9292324153036837, 1.4110580098625718, 1.1291535030100484, 2.0, 1.3996843125375165, 1.3328018781362623]",23.43,0.0,0.0,0.0,337.8774386054239,28.12952358653099,-1632.7455855607868,-5637.274187431926,6904.82754949438,0.0,0.0,0.0,0.0,0.0,0.0,-8.1,20.91658600394335,0.0,20.41222432327005,0.0,-8.1,23.43,18.3,22.52,21.16,23.21,-9.01,-8.1,0.0,-1120.62,-4045.24,0.0,80.0,0.0,202.0,0.0,0.0,0.0,0.0,0.0,0.0,0.0,0.0,0.0,0.0,0.0,0.0,0.0,0.0
411.0,1338.0,7833.40853400115,22456.241491331144,-0.0,0.0,16000.0,0.0,40135.49335824914,0.0,0.0,0.0,40135.493358249136,0.3197278911564626,0.691081648668548,0.8,0.0,0.0,0.0,"[1.4291340805287973, 2.0, 1.9292324153036837, 1.4110580098625718, 1.1291535030100484, 2.0, 1.3996843125375165, 1.3328018781362623]",23.43,0.0,0.0,0.0,160.70669028968626,24.536131351924233,-1632.7455855607868,-5417.388906687698,6865.602330904507,0.0,0.0,0.0,0.0,0.0,0.0,-8.1,21.018809818468647,0.0,20.57120568803038,0.0,-8.1,23.43,18.39,22.75,21.19,23.31,-9.01,-8.1,7377.52,-1120.62,-4045.24,0.0,80.0,0.0,74.0,0.0,0.0,0.0,0.0,0.0,0.0,0.0,0.0,0.0,0.0,0.0,0.0,0.0,0.0
412.0,926.0,0.0,2360.808233337127,-0.0,0.0,3286.808233337127,0.0,4196.908734117286,0.0,0.0,0.0,4196.908734117287,0.1799826431404283,0.691081648668548,0.8,0.0,0.0,0.0,"[1.4291340805287973, 2.0, 1.9292324153036837, 1.4110580098625718, 1.1291535030100484, 2.0, 1.3996843125375165, 1.3328018781362623]",23.43,0.0,0.0,0.0,261.89508231705446,36.635756766889145,-1637.92411530217,-5222.281337580384,414.5490241151263,0.0,0.0,0.0,0.0,0.0,0.0,-8.2,21.109814236628996,0.0,20.71127801561578,0.0,-8.2,23.43,18.47,22.95,21.25,23.43,-9.1,-8.2,0.0,-1124.18,-4058.07,0.0,80.0,20.0,145.0,0.0,0.0,0.0,0.0,0.0,0.0,0.0,0.0,0.0,0.0,0.0,0.0,0.0,0.0
413.0,1410.0,0.0,1359.191766662874,-0.0,0.0,2769.191766662874,0.0,37961.748095001705,0.0,35558.412946342054,0.0,2403.3351486596475,0.06224489795918367,0.539897920155189,0.8,0.0,0.0,0.0,"[1.4291340805287973, 2.0, 1.9292324153036837, 1.4110580098625718, 1.1291535030100484, 2.0, 1.3996843125375165, 1.3328018781362623]",20.57,0.0,0.0,0.0,175.8594516587954,48.45464841352543,-1495.0863782346976,-1062.0538147642053,2334.229525047545,0.0,0.0,0.0,0.0,0.0,0.0,-8.3,20.176384904099866,0.0,20.515369826164218,0.0,-8.3,20.57,18.37,22.66,19.56,21.61,-9.19,-8.3,0.0,-1026.14,-3704.18,0.0,80.0,47.0,80.0,0.0,0.0,0.0,0.0,0.0,0.0,0.0,0.0,0.0,0.0,0.0,0.0,0.0,0.0
414.0,1927.0,33626.13918207908,14187.818148809256,-1343.1903373594323,0.0,-16000.0,0.0,25087.028097251583,0.0,0.0,0.0,25087.028097251583,0.715578231292517,0.539897920155189,0.8877551020408163,0.0,0.0,0.0,"[1.4291340805287973, 2.0, 1.9292324153036837, 1.4110580098625718, 1.1291535030100484, 2.0, 1.3996843125375165, 1.3328018781362623]",20.57,0.0,0.0,0.0,166.68037506020045,55.36069911441029,-1495.0863782346976,-1355.7172830915124,8778.552746394977,0.0,0.0,0.0,0.0,0.0,0.0,-8.3,20.03986189620438,0.0,20.305968199856807,0.0,-8.3,20.57,18.25,22.37,19.64,21.65,-9.19,-8.3,0.0,-1026.14,-3704.18,0.0,101.0,50.0,62.0,0.0,0.0,0.0,0.0,0.0,0.0,0.0,0.0,0.0,0.0,0.0,0.0,0.0,0.0
415.0,1464.0,25937.490261516246,24343.802810208665,-0.0,0.0,0.0,0.0,43044.9318343506,0.0,0.0,0.0,43044.9318343506,0.715578231292517,0.539897920155189,0.8877551020408163,0.0,0.0,0.0,"[1.4291340805287973, 2.0, 1.9292324153036837, 1.4110580098625718, 1.1291535030100484, 2.0, 1.3996843125375165, 1.3328018781362623]",23.43,0.0,0.0,0.0,196.111700027124,80.51444475665754,-1643.1026450435531,-5603.808493778069,6972.617000598051,0.0,0.0,0.0,0.0,0.0,0.0,-8.3,20.932743406601222,0.0,20.440933423032615,0.0,-8.3,23.43,18.3,22.58,21.31,23.43,-9.19,-8.3,2841.41,-1127.73,-4070.9,0.0,148.0,74.0,56.0,0.0,0.0,0.0,0.0,0.0,0.0,0.0,0.0,0.0,0.0,0.0,0.0,0.0,0.0
416.0,1242.0,0.0,0.0,-0.0,0.0,5145.346,0.0,32410.99667542875,19516.73,48024.38067542875,0.0,0.0,0.4968135204081633,0.3357126281678219,0.8877551020408163,15613.384,3903.346,19516.73,"[1.4291340805287973, 2.0, 1.9292324153036837, 1.4110580098625718, 1.1291535030100484, 2.0, 1.3996843125375165, 1.3328018781362623]",23.43,0.0,0.0,2.418081984643299,157.6469980901547,39.1904340586799,-1632.7455855607868,-5379.63330639643,6813.971228073873,0.0,0.0,0.0,0.0,0.0,0.0,-8.1,21.036225580577234,0.0,20.601627706826115,0.0,-8.1,23.43,18.39,22.81,21.22,23.37,-8.97,-8.1,0.0,-1120.62,-4045.24,4.31,107.0,15.0,56.0,0.0,0.0,0.0,0.0,0.0,0.0,0.0,0.0,0.0,0.0,0.0,0.0,0.0,0.0
417.0,2070.0,0.0,0.0,-0.0,0.0,2070.0,0.0,30505.374226436037,0.0,30505.37422643604,0.0,0.0,0.40880331632653066,0.2060129078173285,0.8877551020408163,0.0,0.0,0.0,"[1.4291340805287973, 2.0, 1.9292324153036837, 1.4110580098625718, 1.1291535030100484, 2.0, 1.3996843125375165, 1.3328018781362623]",23.43,0.0,0.0,14.604308799730422,103.81098534125249,2.105503262464893,-1612.0314665952537,-5184.8649580009305,526.5146036630732,0.0,0.0,0.0,0.0,0.0,0.0,-7.7,21.125423258579964,0.0,20.738138620258326,0.0,-7.7,23.43,18.48,23.0,21.26,23.46,-8.56,-7.7,4117.61,-1106.41,-3993.92,26.01,0.0,0.0,75.0,0.0,0.0,0.0,0.0,0.0,0.0,0.0,0.0,0.0,0.0,0.0,0.0,0.0,0.0
418.0,5409.0,59250.44675315373,0.0,-0.0,0.4794097564051569,-14478.28613077884,0.0,35160.64901852895,0.0,0.0,0.0,0.0,1.0,0.2060129078173285,0.8877551020408163,156269.5511934621,39067.387798365526,195336.93899182763,"[1.4291340805287973, 2.0, 1.9292324153036837, 1.4110580098625718, 1.1291535030100484, 2.0, 1.3996843125375165, 1.3328018781362623]",20.57,0.0,0.0,21.793634344157926,85.8170812154354,1.7405493636376435,-1448.4796105622484,-1018.1606316735871,2354.7493413773595,0.0,0.0,0.0,0.0,0.0,0.0,-7.4,20.19366313270059,0.0,20.54326582939678,0.0,-7.4,20.57,18.39,22.7,19.57,21.64,-8.25,-7.4,0.0,-994.15,-3588.71,38.82,0.0,0.0,62.0,0.0,0.0,0.0,0.0,0.0,0.0,0.0,0.0,0.0,0.0,0.0,0.0,0.0,0.0
419.0,5425.0,3210.6853704688365,13137.959238468313,-0.0,1.9272948518213413,15366.400000000001,0.0,24608.388267221104,0.0,0.0,0.0,24608.388267221108,0.3466666666666667,0.2060129078173285,0.7653061224489796,0.0,0.0,0.0,"[1.4291340805287973, 2.0, 1.9292324153036837, 1.4110580098625718, 1.1291535030100484, 2.0, 1.3996843125375165, 1.3328018781362623]",20.57,0.0,0.0,26.58065238058184,77.5122023881352,1.5721091026404543,-1438.1225510794818,-1306.183476001096,5273.212056912842,0.0,0.0,0.0,0.0,0.0,0.0,-7.2,20.059067694289826,0.0,20.334596862191606,0.0,-7.2,20.57,18.27,22.4,19.65,21.67,-8.04,-7.2,0.0,-987.05,-3563.05,47.34,0.0,0.0,56.0,0.0,0.0,0.0,0.0,0.0,0.0,0.0,0.0,0.0,0.0,0.0,0.0,0.0,0.0
420.0,6700.0,58981.97722263723,35991.77506090269,-0.0,4.70772437864923,-16000.0,0.0,31406.410479370425,0.0,-37038.25993218231,0.0,68444.67041155274,1.0,0.35725246920707293,0.7653061224489796,0.0,0.0,0.0,"[1.4291340805287973, 2.0, 1.9292324153036837, 1.4110580098625718, 1.1291535030100484, 2.0, 1.3996843125375165, 1.3328018781362623]",21.8,0.0,0.0,31.52794093729374,747.1476951999197,53.45170948977547,-1486.088654529242,-3265.003049638411,7427.267380917385,0.0,0.0,0.0,0.0,0.0,0.0,-6.9,20.377675933664367,0.0,20.292454060963536,0.0,-6.9,21.8,18.24,22.35,20.33,22.36,-7.72,-6.9,0.0,-1019.97,-3681.89,56.15,144.0,0.0,464.0,0.0,0.0,0.0,0.0,0.0,0.0,0.0,0.0,0.0,0.0,0.0,0.0,0.0,0.0
421.0,4405.0,17373.39495231489,17973.141165918423,-0.0,5091.613188365107,0.0,0.0,37948.63535614759,0.0,0.0,0.0,37948.63535614759,1.0,0.35725246920707293,0.7653061224489796,0.0,0.0,0.0,"[1.4291340805287973, 2.0, 1.9292324153036837, 1.4110580098625718, 1.1291535030100484, 2.0, 1.3996843125375165, 1.3328018781362623]",23.43,0.0,0.0,904.6727443531303,2776.5249714464253,86.10104674639774,-1456.6755743537562,-5562.787693096374,0.0,0.0,0.0,0.0,0.0,0.0,0.0,-4.7,20.935546422124467,0.0,20.441643458710306,0.0,-4.7,23.43,18.32,22.56,21.2,23.28,-4.31,-4.7,0.0,-999.78,-3609.02,1611.26,112.0,0.0,1947.0,0.0,0.0,0.0,0.0,0.0,0.0,0.0,0.0,0.0,0.0,0.0,0.0,0.0,0.0
422.0,5255.0,0.0,9209.22499766549,-0.0,3856.2204610054764,10608.004536660013,0.0,20322.37568781999,0.0,0.0,0.0,20322.375687819993,0.5489793989515301,0.35725246920707293,0.7653061224489796,0.0,0.0,0.0,"[1.4291340805287973, 2.0, 1.9292324153036837, 1.4110580098625718, 1.1291535030100484, 2.0, 1.3996843125375165, 1.3328018781362623]",21.96,0.0,0.0,855.484043821114,1089.104723404719,55.86601989740186,-1329.0270649388112,-3251.041406834024,0.0,0.0,0.0,0.0,0.0,0.0,0.0,-3.7,20.538351342698913,0.0,20.463702747269956,0.0,-3.7,21.96,18.35,22.58,20.19,22.44,-3.69,-3.7,0.0,-912.17,-3292.76,1523.66,127.0,0.0,720.0,0.0,0.0,0.0,0.0,0.0,0.0,0.0,0.0,0.0,0.0,0.0,0.0,0.0,0.0
423.0,4880.0,0.0,0.0,-0.0,465.00333010533535,4414.996669894665,0.0,23618.66715202714,0.0,23618.66715202714,0.0,0.0,0.36126695550362775,0.25683296600967864,0.7653061224489796,0.0,0.0,0.0,"[1.4291340805287973, 2.0, 1.9292324153036837, 1.4110580098625718, 1.1291535030100484, 2.0, 1.3996843125375165, 1.3328018781362623]",20.81,0.0,0.0,485.74306122601524,284.76992399926735,38.488599637858265,-1264.0569997168868,-1582.989606278584,7618.420058262434,0.0,0.0,0.0,0.0,0.0,0.0,-3.6,20.15762636769219,0.0,20.375801300823195,0.0,-3.6,20.81,18.32,22.43,19.73,21.95,-4.37,-3.6,0.0,-867.58,-3131.79,865.13,123.0,0.0,141.0,0.0,0.0,0.0,0.0,0.0,0.0,0.0,0.0,0.0,0.0,0.0,0.0,0.0,0.0
424.0,5030.0,0.0,3466.9987934453256,-0.0,0.0,8496.998793445326,0.0,10015.357138926647,0.0,2595.952006687905,0.0,7419.405132238744,0.0,0.24579575509688995,0.7653061224489796,0.0,0.0,0.0,"[1.4291340805287973, 2.0, 1.9292324153036837, 1.4110580098625718, 1.1291535030100484, 2.0, 1.3996843125375165, 1.3328018781362623]",23.43,0.0,0.0,1.2105002778632712,207.62197068250498,4.211006524929786,-1441.1399851296064,-5397.706163761506,477.59415294306945,0.0,0.0,0.0,0.0,0.0,0.0,-4.4,21.01840271285016,0.0,20.558860345118152,0.0,-4.4,23.43,18.43,22.69,21.37,23.62,-6.14,-4.4,0.0,-989.12,-3570.52,2.16,0.0,0.0,150.0,0.0,0.0,0.0,0.0,0.0,0.0,0.0,0.0,0.0,0.0,0.0,0.0,0.0,0.0
425.0,5280.0,13067.59325872598,7722.255292432351,-0.0,0.0,0.0,0.0,16083.976278039923,0.0,0.0,0.0,16083.976278039925,0.0,0.24579575509688995,0.7653061224489796,0.0,0.0,0.0,"[1.4291340805287973, 2.0, 1.9292324153036837, 1.4110580098625718, 1.1291535030100484, 2.0, 1.3996843125375165, 1.3328018781362623]",20.57,0.0,0.0,0.0,207.62197068250498,4.211006524929786,-1324.1948967690503,-1186.9007131152396,2299.3845995471565,0.0,0.0,0.0,0.0,0.0,0.0,-5.0,20.11000911123948,0.0,20.398056350279894,0.0,-5.0,20.57,18.36,22.43,19.53,21.48,-6.69,-5.0,0.0,-908.85,-3280.79,0.0,0.0,0.0,150.0,0.0,0.0,0.0,0.0,0.0,0.0,0.0,0.0,0.0,0.0,0.0,0.0,0.0,0.0
426.0,5533.0,33626.13918207908,14187.818148809256,-1343.1903373594323,0.0,-16000.0,0.0,16200.208294622855,0.0,0.0,0.0,25087.028097251583,0.715578231292517,0.539897920155189,0.8877551020408163,0.0,0.0,0.0,"[1.4291340805287973, 2.0, 1.9292324153036837, 1.4110580098625718, 1.1291535030100484, 2.0, 1.3996843125375165, 1.3328018781362623]",20.57,0.0,0.0,0.0,229.03981607922648,44.805109425252965,-1350.0875454759666,-1444.9855311078709,2522.525878579388,0.0,0.0,0.0,0.0,0.0,0.0,-5.5,19.99161890530687,0.0,20.214076868454974,0.0,-5.5,20.57,18.26,22.17,19.62,21.52,-7.17,-5.5,2522.75,-926.62,-3344.94,0.0,117.0,18.0,102.0,0.0,0.0,0.0,0.0,0.0,0.0,0.0,0.0,0.0,0.0,0.0,0.0,0.0,0.0
427.0,5316.0,25937.490261516246,24343.802810208665,-0.0,0.0,0.0,0.0,43044.9318343506,0.0,0.0,0.0,43044.9318343506,0.715578231292517,0.539897920155189,0.8877551020408163,0.0,0.0,0.0,"[1.4291340805287973, 2.0, 1.9292324153036837, 1.4110580098625718, 1.1291535030100484, 2.0, 1.3996843125375165, 1.3328018781362623]",23.43,0.0,0.0,0.0,522.9888166770888,44.38400877275997,-1529.1749907331218,-5593.579542454064,6972.617000598051,0.0,0.0,0.0,0.0,0.0,0.0,-6.1,20.932743406601222,0.0,20.440933423032615,0.0,-6.1,23.43,18.3,22.58,21.31,23.43,-7.76,-6.1,2841.41,-1049.54,-3788.64,0.0,110.0,9.0,319.0,0.0,0.0,0.0,0.0,0.0,0.0,0.0,0.0,0.0,0.0,0.0,0.0,0.0,0.0
428.0,5040.0,0.0,0.0,-0.0,0.0,5145.346,0.0,32410.99667542875,0.0,48024.38067542875,0.0,0.0,0.4968135204081633,0.3357126281678219,0.8877551020408163,15613.384,3903.346,19516.73,"[1.4291340805287973, 2.0, 1.9292324153036837, 1.4110580098625718, 1.1291535030100484, 2.0, 1.3996843125375165, 1.3328018781362623]",23.43,0.0,0.0,0.0,373.719547228509,7.57981174487362,-1560.2461691814212,-5374.855026008507,6813.971228073873,0.0,0.0,0.0,0.0,0.0,0.0,-6.7,21.036225580577234,0.0,20.601627706826115,0.0,-6.7,23.43,18.39,22.81,21.22,23.37,-8.3,-6.7,0.0,-1070.86,-3865.62,0.0,0.0,0.0,270.0,0.0,0.0,0.0,0.0,0.0,0.0,0.0,0.0,0.0,0.0,0.0,0.0,0.0,0.0
429.0,5330.0,0.0,0.0,-0.0,0.0,2070.0,0.0,30505.374226436037,0.0,30505.37422643604,0.0,0.0,0.40880331632653066,0.2060129078173285,0.8877551020408163,0.0,0.0,0.0,"[1.4291340805287973, 2.0, 1.9292324153036837, 1.4110580098625718, 1.1291535030100484, 2.0, 1.3996843125375165, 1.3328018781362623]",23.43,0.0,0.0,0.0,286.51831954185684,5.811189004403109,-1586.1388178883376,-5186.416571479003,526.5146036630732,0.0,0.0,0.0,0.0,0.0,0.0,-7.2,21.125423258579964,0.0,20.738138620258326,0.0,-7.2,23.43,18.48,23.0,21.26,23.46,-8.78,-7.2,4117.61,-1088.64,-3929.77,0.0,0.0,0.0,207.0,0.0,0.0,0.0,0.0,0.0,0.0,0.0,0.0,0.0,0.0,0.0,0.0,0.0,0.0
430.0,3759.0,59250.44675315373,0.0,-0.0,0.0,-14478.28613077884,0.0,35160.64901852895,0.0,0.0,0.0,0.0,1.0,0.2060129078173285,0.8877551020408163,156269.5511934621,39067.387798365526,195336.93899182763,"[1.4291340805287973, 2.0, 1.9292324153036837, 1.4110580098625718, 1.1291535030100484, 2.0, 1.3996843125375165, 1.3328018781362623]",20.57,0.0,0.0,0.0,196.5487989127714,3.986419510266867,-1469.1937295277812,-1025.8214867913807,2354.7493413773595,0.0,0.0,0.0,0.0,0.0,0.0,-7.8,20.19366313270059,0.0,20.54326582939678,0.0,-7.8,20.57,18.39,22.7,19.57,21.64,-9.32,-7.8,0.0,-1008.37,-3640.03,0.0,0.0,0.0,142.0,0.0,0.0,0.0,0.0,0.0,0.0,0.0,0.0,0.0,0.0,0.0,0.0,0.0,0.0
431.0,2432.0,3210.6853704688365,13137.959238468313,-0.0,0.0,15366.400000000001,0.0,24608.388267221104,0.0,0.0,0.0,24608.388267221108,0.3466666666666667,0.2060129078173285,0.7653061224489796,0.0,0.0,0.0,"[1.4291340805287973, 2.0, 1.9292324153036837, 1.4110580098625718, 1.1291535030100484, 2.0, 1.3996843125375165, 1.3328018781362623]",20.57,0.0,0.0,0.0,458.80813030119873,52.27262766279512,-1500.2649079760808,-1318.7980435401648,5273.212056912842,0.0,0.0,0.0,0.0,0.0,0.0,-8.4,20.059067694289826,0.0,20.334596862191606,0.0,-8.4,20.57,18.27,22.4,19.65,21.67,-9.8,-8.4,0.0,-1029.7,-3717.01,0.0,154.0,4.0,250.0,0.0,0.0,0.0,0.0,0.0,0.0,0.0,0.0,0.0,0.0,0.0,0.0,0.0,0.0
432.0,1181.0,58981.97722263723,35991.77506090269,-0.0,0.0,-16000.0,0.0,31406.410479370425,0.0,-37038.25993218231,0.0,68444.67041155274,1.0,0.35725246920707293,0.7653061224489796,0.0,0.0,0.0,"[1.4291340805287973, 2.0, 1.9292324153036837, 1.4110580098625718, 1.1291535030100484, 2.0, 1.3996843125375165, 1.3328018781362623]",21.8,0.0,0.0,0.0,242.3713320914716,26.192460585063287,-1600.0163088396735,-3285.074868593504,7427.267380917385,0.0,0.0,0.0,0.0,0.0,0.0,-9.1,20.377675933664367,0.0,20.292454060963536,0.0,-9.1,21.8,18.24,22.35,20.33,22.36,-10.51,-9.1,0.0,-1098.16,-3964.15,0.0,80.0,0.0,133.0,0.0,0.0,0.0,0.0,0.0,0.0,0.0,0.0,0.0,0.0,0.0,0.0,0.0,0.0
433.0,1174.0,17373.39495231489,17973.141165918423,-0.0,0.0,0.0,0.0,37948.63535614759,0.0,0.0,0.0,37948.63535614759,1.0,0.35725246920707293,0.7653061224489796,0.0,0.0,0.0,"[1.4291340805287973, 2.0, 1.9292324153036837, 1.4110580098625718, 1.1291535030100484, 2.0, 1.3996843125375165, 1.3328018781362623]",23.43,0.0,0.0,0.0,270.05426151580565,26.753928121720588,-1725.9591209056853,-5612.866394709427,0.0,0.0,0.0,0.0,0.0,0.0,0.0,-9.9,20.935546422124467,0.0,20.441643458710306,0.0,-9.9,23.43,18.32,22.56,21.2,23.28,-11.29,-9.9,0.0,-1184.6,-4276.18,0.0,80.0,0.0,153.0,0.0,0.0,0.0,0.0,0.0,0.0,0.0,0.0,0.0,0.0,0.0,0.0,0.0,0.0
434.0,1356.0,0.0,9209.22499766549,-0.0,0.0,10608.004536660013,0.0,20322.37568781999,0.0,0.0,0.0,20322.375687819993,0.5489793989515301,0.35725246920707293,0.7653061224489796,0.0,0.0,0.0,"[1.4291340805287973, 2.0, 1.9292324153036837, 1.4110580098625718, 1.1291535030100484, 2.0, 1.3996843125375165, 1.3328018781362623]",21.96,0.0,0.0,0.0,92.88351320006801,23.160535887113838,-1691.5241468356387,-3310.7372631466264,0.0,0.0,0.0,0.0,0.0,0.0,0.0,-10.7,20.538351342698913,0.0,20.463702747269956,0.0,-10.7,21.96,18.35,22.58,20.19,22.44,-12.01,-10.7,0.0,-1160.97,-4190.87,0.0,80.0,0.0,25.0,0.0,0.0,0.0,0.0,0.0,0.0,0.0,0.0,0.0,0.0,0.0,0.0,0.0,0.0
435.0,1675.0,0.0,0.0,-0.0,0.0,4414.996669894665,0.0,23618.66715202714,0.0,23618.66715202714,0.0,0.0,0.36126695550362775,0.25683296600967864,0.7653061224489796,0.0,0.0,0.0,"[1.4291340805287973, 2.0, 1.9292324153036837, 1.4110580098625718, 1.1291535030100484, 2.0, 1.3996843125375165, 1.3328018781362623]",20.81,0.0,0.0,0.0,170.39571558820322,24.73264498975429,-1657.6252600620137,-1641.4619329183356,7618.420058262434,0.0,0.0,0.0,0.0,0.0,0.0,-11.2,20.15762636769219,0.0,20.375801300823195,0.0,-11.2,20.81,18.32,22.43,19.73,21.95,-12.51,-11.2,0.0,-1137.7,-4106.88,0.0,80.0,0.0,81.0,0.0,0.0,0.0,0.0,0.0,0.0,0.0,0.0,0.0,0.0,0.0,0.0,0.0,0.0
436.0,709.0,0.0,3466.9987934453256,-0.0,0.0,8496.998793445326,0.0,10015.357138926647,0.0,2595.952006687905,0.0,7419.405132238744,0.0,0.24579575509688995,0.7653061224489796,0.0,0.0,0.0,"[1.4291340805287973, 2.0, 1.9292324153036837, 1.4110580098625718, 1.1291535030100484, 2.0, 1.3996843125375165, 1.3328018781362623]",23.43,0.0,0.0,0.0,121.95058909561872,23.75007680060401,-1813.9941265092002,-5446.222794192838,477.59415294306945,0.0,0.0,0.0,0.0,0.0,0.0,-11.6,21.01840271285016,0.0,20.558860345118152,0.0,-11.6,23.43,18.43,22.69,21.37,23.62,-12.9,-11.6,0.0,-1245.02,-4494.3,0.0,80.0,0.0,46.0,0.0,0.0,0.0,0.0,0.0,0.0,0.0,0.0,0.0,0.0,0.0,0.0,0.0,0.0
437.0,911.0,13067.59325872598,7722.255292432351,-0.0,0.0,0.0,0.0,16083.976278039923,0.0,0.0,0.0,16083.976278039925,0.0,0.24579575509688995,0.7653061224489796,0.0,0.0,0.0,"[1.4291340805287973, 2.0, 1.9292324153036837, 1.4110580098625718, 1.1291535030100484, 2.0, 1.3996843125375165, 1.3328018781362623]",20.57,0.0,0.0,0.0,143.58698393516397,27.20310215104643,-1686.691978665878,-1233.8680653491922,2299.3845995471565,0.0,0.0,0.0,0.0,0.0,0.0,-12.0,20.11000911123948,0.0,20.398056350279894,0.0,-12.0,20.57,18.36,22.43,19.53,21.48,-13.23,-12.0,0.0,-1157.65,-4178.9,0.0,80.0,6.0,61.0,0.0,0.0,0.0,0.0,0.0,0.0,0.0,0.0,0.0,0.0,0.0,0.0,0.0,0.0
438.0,1282.0,29189.872928820398,11761.923564176299,-0.0,0.0,-16000.0,0.0,16200.208294622855,0.0,0.0,0.0,16200.208294622855,0.6533333333333333,0.24579575509688995,0.7653061224489796,0.0,0.0,0.0,"[1.6099653513366832, 2.0, 2.127153235509205, 2.252966869352168, 1.6453010954248661, 1.6994205546382837, 1.636303952327058, 1.0678952099608452]",20.57,0.0,0.0,0.0,238.21889267782154,50.25134453082882,-1707.4060976314108,-1491.1058930310594,2522.525878579388,0.0,0.0,0.0,0.0,0.0,0.0,-12.4,19.99161890530687,0.0,20.214076868454974,0.0,-12.4,20.57,18.26,22.17,19.62,21.52,-13.59,-12.4,2522.75,-1171.87,-4230.22,0.0,150.0,11.0,92.0,0.0,0.0,0.0,0.0,0.0,0.0,0.0,0.0,0.0,0.0,0.0,0.0,0.0,0.0
439.0,1524.0,4164.6201669033735,0.0,-0.0,0.0,15366.400000000001,0.0,16187.577359461964,0.0,0.0,0.0,0.0,0.0,0.24579575509688995,0.7653061224489796,71944.78826427543,17986.197066068857,89930.98533034428,"[1.6099653513366832, 2.0, 2.127153235509205, 2.252966869352168, 1.6453010954248661, 1.6994205546382837, 1.636303952327058, 1.0678952099608452]",20.39,0.0,0.0,0.0,102.35398905576123,26.81007487538632,-1713.577285715053,-1518.3544294538383,3103.544173645351,0.0,0.0,0.0,0.0,0.0,0.0,-12.7,19.79851268601443,0.0,20.01041852266563,0.0,-12.7,20.39,18.08,21.94,19.47,21.35,-13.89,-12.7,1539.53,-1176.1,-4245.51,0.0,93.0,0.0,25.0,0.0,0.0,0.0,0.0,0.0,0.0,0.0,0.0,0.0,0.0,0.0,0.0,0.0,0.0
440.0,2989.0,60368.41117899528,48587.773204732955,-0.0,0.0,-8489.795918367347,0.0,65532.44435990478,0.0,0.0,0.0,65532.44435990479,0.3466666666666667,0.24579575509688995,0.7653061224489796,0.0,0.0,0.0,"[1.6099653513366832, 2.0, 2.127153235509205, 2.252966869352168, 1.6453010954248661, 1.6994205546382837, 1.636303952327058, 1.0678952099608452]",20.39,0.0,0.0,2.416761145319331,137.0305006504533,2.7792643064536593,-1713.577285715053,-1789.5377814316591,8331.605210143689,0.0,0.0,0.0,0.0,0.0,0.0,-12.7,19.672295785344353,0.0,19.832153670577767,0.0,-12.7,20.39,17.91,21.75,19.4,21.29,-13.85,-12.7,1874.01,-1176.1,-4245.51,4.3,0.0,0.0,99.0,0.0,0.0,0.0,0.0,0.0,0.0,0.0,0.0,0.0,0.0,0.0,0.0,0.0,0.0
441.0,2017.0,22115.651328510947,19988.07307186839,-0.0,0.0,0.0,0.0,27530.441377688618,0.0,0.0,0.0,27530.44137768862,0.3466666666666667,0.24579575509688995,0.7653061224489796,0.0,0.0,0.0,"[1.6099653513366832, 2.0, 2.127153235509205, 2.252966869352168, 1.6453010954248661, 1.6994205546382837, 1.636303952327058, 1.0678952099608452]",22.7,0.0,0.0,14.595765721039255,52.5975659062346,1.0667883196488772,-1817.7156004061467,-5258.554331802654,2035.3831439982546,0.0,0.0,0.0,0.0,0.0,0.0,-12.4,20.377096669754906,0.0,19.928567162856815,0.0,-12.4,22.7,17.9,21.96,20.71,22.73,-13.51,-12.4,1880.78,-1247.58,-4503.52,26.0,0.0,0.0,38.0,0.0,0.0,0.0,0.0,0.0,0.0,0.0,0.0,0.0,0.0,0.0,0.0,0.0,0.0
442.0,10577.0,76890.1937865959,49929.26925762677,-0.0,0.5264399638612738,-16000.0,0.0,52591.17071146911,0.0,-16654.57194570751,0.0,69245.74265717663,1.0,0.3138019238751956,0.7653061224489796,0.0,0.0,0.0,"[1.6099653513366832, 2.0, 2.127153235509205, 2.252966869352168, 1.6453010954248661, 1.6994205546382837, 1.636303952327058, 1.0678952099608452]",20.39,0.0,0.0,21.783681752681602,107.9634247549026,2.1897233929634874,-1692.86316674952,-1876.239644710006,10360.769912443717,0.0,0.0,0.0,0.0,0.0,0.0,-12.3,19.63031040140956,0.0,19.796138066838168,0.0,-12.3,20.39,17.78,21.81,19.23,21.18,-13.35,-12.3,2639.93,-1161.89,-4194.19,38.8,0.0,0.0,78.0,0.0,0.0,0.0,0.0,0.0,0.0,0.0,0.0,0.0,0.0,0.0,0.0,0.0,0.0
443.0,8493.0,20823.272462713387,28231.143121866084,-0.0,4.987021466259692,16000.0,0.0,39691.38831228429,0.0,0.0,0.0,39691.38831228429,0.3197278911564626,0.3138019238751956,0.7653061224489796,0.0,0.0,0.0,"[1.6099653513366832, 2.0, 2.127153235509205, 2.252966869352168, 1.6453010954248661, 1.6994205546382837, 1.636303952327058, 1.0678952099608452]",23.61,0.0,0.0,31.580514730623637,88.5853741578688,1.7966961173033764,-1849.2511763566242,-6603.866719096666,1401.324884988335,0.0,0.0,0.0,0.0,0.0,0.0,-12.1,20.66233526524003,0.0,19.997372126120773,0.0,-12.1,23.61,17.84,22.16,21.21,23.36,-13.11,-12.1,1617.62,-1269.22,-4581.65,56.25,0.0,0.0,64.0,0.0,0.0,0.0,0.0,0.0,0.0,0.0,0.0,0.0,0.0,0.0,0.0,0.0,0.0
444.0,5014.0,0.0,0.0,-0.0,8.457346142917906,5005.542653857082,0.0,31520.16057175639,0.0,31520.160571756394,0.0,0.0,0.10690720009111049,0.17978763572997286,0.7653061224489796,0.0,0.0,0.0,"[1.6099653513366832, 2.0, 2.127153235509205, 2.252966869352168, 1.6453010954248661, 1.6994205546382837, 1.636303952327058, 1.0678952099608452]",20.39,0.0,0.0,35.2939956078904,132.00386346550843,36.71997689738776,-1677.3275775253703,-1803.2465935236116,10199.555291402321,0.0,0.0,0.0,0.0,0.0,0.0,-12.0,19.663275247243615,0.0,19.86747460831969,0.0,-12.0,20.39,17.74,21.99,19.17,21.22,-13.05,-12.0,1799.01,-1151.22,-4155.7,62.86,128.0,0.0,28.0,0.0,0.0,0.0,0.0,0.0,0.0,0.0,0.0,0.0,0.0,0.0,0.0,0.0,0.0
445.0,4996.0,15472.718983280114,16156.430990096822,-0.0,5757.075601733108,0.0,0.0,25333.438578452966,0.0,0.0,0.0,25333.438578452966,0.10690720009111049,0.17978763572997286,0.7653061224489796,0.0,0.0,0.0,"[1.6099653513366832, 2.0, 2.127153235509205, 2.252966869352168, 1.6453010954248661, 1.6994205546382837, 1.636303952327058, 1.0678952099608452]",23.61,0.0,0.0,953.9531201874355,1322.6612279689684,52.89024195311816,-1761.216170753109,-6519.243671701066,5843.309660246372,0.0,0.0,0.0,0.0,0.0,0.0,-10.4,20.691255957232862,0.0,20.058876360080095,0.0,-10.4,23.61,17.81,22.31,21.21,23.45,-9.98,-10.4,1616.83,-1208.8,-4363.54,1699.04,98.0,0.0,904.0,0.0,0.0,0.0,0.0,0.0,0.0,0.0,0.0,0.0,0.0,0.0,0.0,0.0,0.0
446.0,6123.0,29111.843525247292,27245.27497998007,-0.0,4401.990672359016,0.0,0.0,44539.01516419145,0.0,0.0,0.0,44539.01516419145,0.10690720009111049,0.17978763572997286,0.7653061224489796,0.0,0.0,0.0,"[1.6099653513366832, 2.0, 2.127153235509205, 2.252966869352168, 1.6453010954248661, 1.6994205546382837, 1.636303952327058, 1.0678952099608452]",23.61,0.0,0.0,968.7718940710557,2522.643368699573,76.69646550738788,-1724.9664625634266,-6152.129979688454,4200.686451603037,0.0,0.0,0.0,0.0,0.0,0.0,-9.7,20.860343391852005,0.0,20.325077227175882,0.0,-9.7,23.61,17.94,22.71,21.1,23.67,-9.51,-9.7,507.43,-1183.92,-4273.72,1725.43,96.0,0.0,1772.0,0.0,0.0,0.0,0.0,0.0,0.0,0.0,0.0,0.0,0.0,0.0,0.0,0.0,0.0
447.0,1871.0,168724.02131843878,150828.38769959705,-0.0,818.9864877504554,-16000.0,0.0,245127.71676189324,0.0,0.0,0.0,245127.71676189324,0.7602405334244438,0.17978763572997286,0.7653061224489796,0.0,0.0,0.0,"[1.6099653513366832, 2.0, 2.127153235509205, 2.252966869352168, 1.6453010954248661, 1.6994205546382837, 1.636303952327058, 1.0678952099608452]",23.61,0.0,0.0,569.4514158959289,233.9207536356223,4.744400684754227,-1730.1449923048096,-5882.611272663085,6739.7965241378915,0.0,0.0,0.0,0.0,0.0,0.0,-9.8,20.988880596171217,0.0,20.523914851550714,0.0,-9.8,23.61,18.06,22.99,21.05,23.68,-10.48,-9.8,980.59,-1187.47,-4286.55,1014.22,0.0,0.0,169.0,0.0,0.0,0.0,0.0,0.0,0.0,0.0,0.0,0.0,0.0,0.0,0.0,0.0,0.0
448.0,1796.0,15524.040442609015,13650.42024039597,-0.0,0.0,0.0,0.0,21273.8560688954,0.0,0.0,0.0,21273.856068895395,0.7602405334244438,0.17978763572997286,0.7653061224489796,0.0,0.0,0.0,"[1.6099653513366832, 2.0, 2.127153235509205, 2.252966869352168, 1.6453010954248661, 1.6994205546382837, 1.636303952327058, 1.0678952099608452]",23.61,0.0,0.0,1.2104927287397382,63.6707376759682,1.2913753343117993,-1766.3947004944926,-5627.936941838477,401.92326295464505,0.0,0.0,0.0,0.0,0.0,0.0,-10.5,21.113535674210254,0.0,20.71512948746245,0.0,-10.5,23.61,18.17,23.26,21.26,23.91,-12.36,-10.5,1559.42,-1212.35,-4376.37,2.16,0.0,0.0,46.0,0.0,0.0,0.0,0.0,0.0,0.0,0.0,0.0,0.0,0.0,0.0,0.0,0.0,0.0
449.0,1990.0,0.0,7737.2573461429165,-0.0,0.0,9727.257346142918,0.0,11763.285401449171,0.0,0.0,0.0,11763.285401449173,0.3466666666666667,0.17978763572997286,0.7653061224489796,0.0,0.0,0.0,"[1.6099653513366832, 2.0, 2.127153235509205, 2.252966869352168, 1.6453010954248661, 1.6994205546382837, 1.636303952327058, 1.0678952099608452]",20.39,0.0,0.0,0.0,59.5182982623181,1.207155203813205,-1620.3637503701545,-964.5624747726952,4479.441862433815,0.0,0.0,0.0,0.0,0.0,0.0,-10.9,20.05196901999717,0.0,20.477425554458662,0.0,-10.9,20.39,18.06,22.9,19.32,21.65,-12.69,-10.9,1687.31,-1112.13,-4014.56,0.0,0.0,0.0,43.0,0.0,0.0,0.0,0.0,0.0,0.0,0.0,0.0,0.0,0.0,0.0,0.0,0.0,0.0
450.0,5842.0,0.0,10158.0,-0.0,0.0,16000.0,0.0,33537.90974697194,0.0,18578.461742375162,0.0,14959.448004596778,0.3197278911564626,0.10079757730150704,0.7653061224489796,0.0,0.0,0.0,"[1.6099653513366832, 2.0, 1.806563296739835, 2.145751294312298, 1.6453010954248661, 1.6994205546382801, 0.8506311691420159, 1.0678952099608452]",21.3,0.0,0.0,0.0,132.87806123680318,2.695044175955064,-1693.3275642516978,-2594.5570604146646,9123.312844971551,0.0,0.0,0.0,0.0,0.0,0.0,-11.4,20.207894093631708,0.0,20.32244912638317,0.0,-11.4,21.3,17.96,22.68,19.95,22.27,-13.2,-11.4,1673.96,-1162.2,-4195.34,0.0,0.0,0.0,96.0,0.0,0.0,0.0,0.0,0.0,0.0,0.0,0.0,0.0,0.0,0.0,0.0,0.0,0.0
451.0,4331.0,3946.3496850602355,0.0,-0.0,0.0,7520.000000000001,0.0,6404.056142971439,0.0,0.0,0.0,0.0,0.0,0.10079757730150704,0.7653061224489796,28462.47174653974,7115.617936634935,35578.08968317467,"[1.6099653513366832, 2.0, 1.806563296739835, 2.145751294312298, 1.6453010954248661, 1.6994205546382801, 0.8506311691420159, 1.0678952099608452]",23.61,0.0,0.0,0.0,237.92749342072324,41.38015745164339,-1833.7155871324746,-6001.566410815255,631.0434810123231,0.0,0.0,0.0,0.0,0.0,0.0,-11.8,20.943756356588143,0.0,20.453536817988464,0.0,-11.8,23.61,18.02,22.89,21.25,23.66,-13.53,-11.8,0.0,-1258.56,-4543.16,0.0,128.0,5.0,104.0,0.0,0.0,0.0,0.0,0.0,0.0,0.0,0.0,0.0,0.0,0.0,0.0,0.0,0.0
452.0,4641.0,41803.07117241059,36953.05581654854,-0.0,0.0,0.0,0.0,51249.33393809157,0.0,0.0,0.0,51249.33393809157,0.0,0.10079757730150704,0.7653061224489796,0.0,0.0,0.0,"[1.6099653513366832, 2.0, 1.806563296739835, 2.145751294312298, 1.6453010954248661, 1.6994205546382801, 0.8506311691420159, 1.0678952099608452]",20.39,0.0,0.0,0.0,462.52347082920136,72.7381193739539,-1692.86316674952,-1303.3796226111563,2463.087973563905,0.0,0.0,0.0,0.0,0.0,0.0,-12.3,19.89916511597376,0.0,20.246976386525382,0.0,-12.3,20.39,17.9,22.59,19.25,21.49,-14.1,-12.3,0.0,-1161.89,-4194.19,0.0,89.0,79.0,279.0,0.0,0.0,0.0,0.0,0.0,0.0,0.0,0.0,0.0,0.0,0.0,0.0,0.0,0.0
453.0,4925.0,56442.89997647507,51235.68547659269,-0.0,0.0,0.0,0.0,50286.638291076044,0.0,-18817.16059241194,0.0,69103.79888348798,0.0,0.17763431638718913,0.7653061224489796,0.0,0.0,0.0,"[1.6099653513366832, 2.0, 1.806563296739835, 2.145751294312298, 1.6453010954248661, 1.6994205546382801, 0.8506311691420159, 1.0678952099608452]",20.39,0.0,0.0,0.0,810.5998834330641,162.62907199278848,-1713.577285715053,-1639.311220397888,9310.499305060115,0.0,0.0,0.0,0.0,0.0,0.0,-12.7,19.744190481414233,0.0,20.012948590760224,0.0,-12.7,20.39,17.75,22.28,19.31,21.52,-14.46,-12.7,2079.83,-1176.1,-4245.51,0.0,153.0,210.0,483.0,0.0,0.0,0.0,0.0,0.0,0.0,0.0,0.0,0.0,0.0,0.0,0.0,0.0,0.0
454.0,4269.0,52984.214814880346,32450.293740805944,-0.0,0.0,-16000.0,0.0,42220.33042680983,0.0,0.0,0.0,42220.33042680983,0.6533333333333333,0.17763431638718913,0.7653061224489796,0.0,0.0,0.0,"[1.6099653513366832, 2.0, 1.806563296739835, 2.145751294312298, 1.6453010954248661, 1.6994205546382801, 0.8506311691420159, 1.0678952099608452]",23.61,0.0,0.0,0.0,2055.7489090138974,183.0664903271143,-1906.21500351184,-6440.337788563364,6113.039699142526,0.0,0.0,0.0,0.0,0.0,0.0,-13.2,20.744486055740776,0.0,20.160196116171964,0.0,-13.2,23.61,17.79,22.53,21.17,23.5,-14.94,-13.2,2488.27,-1308.32,-4722.78,0.0,150.0,202.0,1385.0,0.0,0.0,0.0,0.0,0.0,0.0,0.0,0.0,0.0,0.0,0.0,0.0,0.0,0.0
455.0,1844.0,30170.991983307747,19686.34110502386,-0.0,0.0,-8489.795918367347,0.0,24862.74165664246,0.0,0.0,0.0,24862.74165664246,1.0,0.17763431638718913,0.7653061224489796,0.0,0.0,0.0,"[1.6099653513366832, 2.0, 1.806563296739835, 2.145751294312298, 1.6453010954248661, 1.6994205546382801, 0.8506311691420159, 1.0678952099608452]",23.61,0.0,0.0,0.0,600.501019065224,98.17259878452981,-1926.929122477373,-6253.649398743991,7484.748357674616,0.0,0.0,0.0,0.0,0.0,0.0,-13.6,20.83279066795467,0.0,20.30123248283025,0.0,-13.6,23.61,17.86,22.75,20.94,23.28,-15.4,-13.6,2236.48,-1322.54,-4774.1,0.0,108.0,114.0,365.0,0.0,0.0,0.0,0.0,0.0,0.0,0.0,0.0,0.0,0.0,0.0,0.0,0.0,0.0
456.0,2390.0,29120.417335458245,26584.815248780953,-0.0,0.0,0.0,0.0,33068.24412565233,0.0,0.0,0.0,33068.24412565233,1.0,0.17763431638718913,0.7653061224489796,0.0,0.0,0.0,"[1.6099653513366832, 2.0, 1.806563296739835, 2.145751294312298, 1.6453010954248661, 1.6994205546382801, 0.8506311691420159, 1.0678952099608452]",23.61,0.0,0.0,0.0,272.822554458239,26.81007487538632,-1937.2861819601396,-6050.553427645739,762.8541088379587,0.0,0.0,0.0,0.0,0.0,0.0,-13.8,20.927808528941807,0.0,20.452617513037186,0.0,-13.8,23.61,17.93,22.98,21.09,23.55,-15.58,-13.8,2153.17,-1329.64,-4799.76,0.0,80.0,0.0,155.0,0.0,0.0,0.0,0.0,0.0,0.0,0.0,0.0,0.0,0.0,0.0,0.0,0.0,0.0
457.0,1429.0,49917.63840995384,48239.05021790407,-0.0,0.0,0.0,0.0,58623.81911448425,0.0,0.0,0.0,58623.81911448426,1.0,0.17763431638718913,0.7653061224489796,0.0,0.0,0.0,"[1.6099653513366832, 2.0, 1.806563296739835, 2.145751294312298, 1.6453010954248661, 1.6994205546382801, 0.8506311691420159, 1.0678952099608452]",20.39,0.0,0.0,0.0,164.85912970333644,24.620351482422834,-1786.0767020944188,-1372.5384474826144,9895.97816186821,0.0,0.0,0.0,0.0,0.0,0.0,-14.1,19.872826949917993,0.0,20.231700200786456,0.0,-14.1,20.39,17.79,22.67,19.2,21.54,-15.85,-14.1,2185.48,-1225.86,-4425.13,0.0,80.0,0.0,77.0,0.0,0.0,0.0,0.0,0.0,0.0,0.0,0.0,0.0,0.0,0.0,0.0,0.0,0.0
458.0,792.0,16467.297616736407,31592.961128652725,-0.0,0.0,16000.0,0.0,37791.83536109769,0.0,0.0,0.0,37791.83536109769,0.3197278911564626,0.17763431638718913,0.7653061224489796,0.0,0.0,0.0,"[1.6099653513366832, 2.0, 1.806563296739835, 2.145751294312298, 1.6453010954248661, 1.6994205546382801, 0.8506311691420159, 1.0678952099608452]",23.61,0.0,0.0,0.0,135.79205380778572,24.030810568932658,-1963.178830667056,-6215.690958288731,1093.6135550103754,0.0,0.0,0.0,0.0,0.0,0.0,-14.3,20.852640952303844,0.0,20.34625698783246,0.0,-14.3,23.61,17.83,22.87,21.22,23.72,-16.06,-14.3,2162.33,-1347.42,-4863.91,0.0,80.0,0.0,56.0,0.0,0.0,0.0,0.0,0.0,0.0,0.0,0.0,0.0,0.0,0.0,0.0,0.0,0.0
459.0,1311.0,16135.89397657602,22264.21450669314,-0.0,0.0,7520.000000000001,0.0,26420.438067362273,0.0,0.0,0.0,26420.438067362273,0.0,0.17763431638718913,0.7653061224489796,0.0,0.0,0.0,"[1.6099653513366832, 2.0, 1.806563296739835, 2.145751294312298, 1.6453010954248661, 1.6994205546382801, 0.8506311691420159, 1.0678952099608452]",20.39,0.0,0.0,0.0,128.8713214517022,23.890443684768332,-1801.6122913185684,-1516.4611962629597,3166.003681155936,0.0,0.0,0.0,0.0,0.0,0.0,-14.4,19.807029016557838,0.0,20.140876355127187,0.0,-14.4,20.39,17.7,22.58,19.17,21.51,-16.18,-14.4,2171.58,-1236.52,-4463.62,0.0,80.0,0.0,51.0,0.0,0.0,0.0,0.0,0.0,0.0,0.0,0.0,0.0,0.0,0.0,0.0,0.0,0.0
460.0,873.0,47308.18470711549,30198.64378357991,-0.0,0.0,-16000.0,0.0,35548.152279088856,0.0,0.0,0.0,35548.15227908886,0.6533333333333333,0.17763431638718913,0.7653061224489796,0.0,0.0,0.0,"[1.6099653513366832, 2.0, 1.806563296739835, 2.145751294312298, 1.6453010954248661, 1.6994205546382801, 0.8506311691420159, 1.0678952099608452]",20.39,0.0,0.0,0.0,163.76638248921796,25.60291967157311,-1806.7908210599523,-1843.6884229334291,10387.980894245908,0.0,0.0,0.0,0.0,0.0,0.0,-14.5,19.655415874998194,0.0,19.91364888697428,0.0,-14.5,20.39,17.54,22.29,19.24,21.56,-16.33,-14.5,1364.03,-1240.08,-4476.45,0.0,80.0,2.0,76.0,0.0,0.0,0.0,0.0,0.0,0.0,0.0,0.0,0.0,0.0,0.0,0.0,0.0,0.0
461.0,1358.0,26390.374603846987,24900.42273082775,-0.0,0.0,0.0,0.0,29073.999794969102,0.0,0.0,0.0,29073.999794969102,0.6533333333333333,0.17763431638718913,0.7653061224489796,0.0,0.0,0.0,"[1.6099653513366832, 2.0, 1.806563296739835, 2.145751294312298, 1.6453010954248661, 1.6994205546382801, 0.8506311691420159, 1.0678952099608452]",23.61,0.0,0.0,0.0,248.05361760488753,36.35502299856051,-1978.7144198912056,-6630.906188432663,1400.135554525474,0.0,0.0,0.0,0.0,0.0,0.0,-14.6,20.660828165345784,0.0,20.069909465549987,0.0,-14.6,23.61,17.59,22.55,21.11,23.57,-16.42,-14.6,1694.72,-1358.08,-4902.4,0.0,80.0,20.0,135.0,0.0,0.0,0.0,0.0,0.0,0.0,0.0,0.0,0.0,0.0,0.0,0.0,0.0,0.0
462.0,1181.0,35387.13864464614,50029.20295142291,-0.0,0.0,16000.0,0.0,57937.68849129451,0.0,0.0,0.0,57937.68849129451,0.2076859681668266,0.17763431638718913,0.7653061224489796,0.0,0.0,0.0,"[1.6099653513366832, 2.0, 1.806563296739835, 2.145751294312298, 1.6453010954248661, 1.6994205546382801, 0.8506311691420159, 1.0678952099608452]",20.39,0.0,0.0,0.0,164.0577817463162,46.26492502056194,-1817.147880542718,-1885.981973036722,10420.276550002865,0.0,0.0,0.0,0.0,0.0,0.0,-14.7,19.636139237199952,0.0,19.89802078755727,0.0,-14.7,20.39,17.48,22.32,19.05,21.38,-16.45,-14.7,1506.12,-1247.19,-4502.11,0.0,152.0,5.0,38.0,0.0,0.0,0.0,0.0,0.0,0.0,0.0,0.0,0.0,0.0,0.0,0.0,0.0,0.0
463.0,986.0,5166.3758793969855,0.0,-0.0,0.0,0.0,0.0,25161.415214266883,20772.72,41779.59121426688,0.0,0.0,0.2076859681668266,0.0,0.7653061224489796,16618.176000000003,4154.544000000001,20772.72,"[1.6099653513366832, 2.0, 1.806563296739835, 2.145751294312298, 1.6453010954248661, 1.6994205546382801, 0.8506311691420159, 1.0678952099608452]",23.61,0.0,0.0,0.0,99.65854592760239,2.0212831319662983,-1983.8929496325889,-6669.875315428877,1626.0175862577432,0.0,0.0,0.0,0.0,0.0,0.0,-14.7,20.643011235000248,0.0,20.055333574634677,0.0,-14.7,23.61,17.53,22.58,21.09,23.59,-16.51,-14.7,1574.34,-1361.63,-4915.23,0.0,0.0,0.0,72.0,0.0,0.0,0.0,0.0,0.0,0.0,0.0,0.0,0.0,0.0,0.0,0.0,0.0,0.0
464.0,2204.0,27788.182395018357,30330.015454327026,-0.0,0.0,4884.773971283762,0.0,36859.377033796714,0.0,0.0,0.0,36859.377033796714,0.0,0.0,0.7653061224489796,0.0,0.0,0.0,"[1.6099653513366832, 2.0, 1.806563296739835, 2.145751294312298, 1.6453010954248661, 1.6994205546382801, 0.8506311691420159, 1.0678952099608452]",20.39,0.0,0.0,10.121061549127083,105.19513181246919,2.1335766392977575,-1786.0767020944188,-1916.2308465057774,3583.7169799877097,0.0,0.0,0.0,0.0,0.0,0.0,-14.1,19.619978927669774,0.0,19.88496278719782,0.0,-14.1,20.39,17.42,22.35,19.03,21.4,-15.82,-14.1,1685.95,-1225.86,-4425.13,18.03,0.0,0.0,76.0,0.0,0.0,0.0,0.0,0.0,0.0,0.0,0.0,0.0,0.0,0.0,0.0,0.0,0.0
465.0,1689.0,20094.414814688458,19318.29717784068,-0.0,1013.3544372256613,0.0,0.0,30475.442308505895,0.0,0.0,0.0,30475.4423085059,0.0,0.0,0.7653061224489796,0.0,0.0,0.0,"[1.6099653513366832, 2.0, 1.806563296739835, 2.145751294312298, 1.6453010954248661, 1.6994205546382801, 0.8506311691420159, 1.0678952099608452]",20.39,0.0,0.0,1066.250949797755,78.89634885935189,1.600182479473319,-1589.2925719218547,-2152.703781642426,9394.568957816762,0.0,0.0,0.0,0.0,0.0,0.0,-10.3,19.49157790606975,0.0,19.691663971956704,0.0,-10.3,20.39,17.29,22.09,19.12,21.47,-10.29,-10.3,0.0,-1090.8,-3937.58,1899.04,0.0,0.0,57.0,0.0,0.0,0.0,0.0,0.0,0.0,0.0,0.0,0.0,0.0,0.0,0.0,0.0,0.0
466.0,3018.0,33384.81197619175,18705.52907746704,-0.0,4505.641161156245,-16000.0,0.0,35571.84302287194,0.0,0.0,0.0,35571.84302287194,0.6533333333333333,0.0,0.7653061224489796,0.0,0.0,0.0,"[1.6099653513366832, 2.0, 1.806563296739835, 2.145751294312298, 1.6453010954248661, 1.6994205546382801, 0.8506311691420159, 1.0678952099608452]",23.61,0.0,0.0,1424.0352216039812,70.59147003205169,1.4317422184761266,-1579.9676298046954,-6715.029665679183,6632.127038255399,0.0,0.0,0.0,0.0,0.0,0.0,-6.9,20.587156132708927,0.0,19.979175671691866,0.0,-6.9,23.61,17.45,22.51,21.16,23.91,-6.06,-6.9,0.0,-1084.4,-3914.48,2536.27,0.0,0.0,51.0,0.0,0.0,0.0,0.0,0.0,0.0,0.0,0.0,0.0,0.0,0.0,0.0,0.0,0.0
467.0,3084.0,9611.08981098269,12663.703123691346,-0.0,6184.668761763569,0.0,0.0,27341.879851405345,0.0,0.0,0.0,27341.879851405345,0.6533333333333333,0.0,0.7653061224489796,0.0,0.0,0.0,"[1.6099653513366832, 2.0, 1.806563296739835, 2.145751294312298, 1.6453010954248661, 1.6994205546382801, 0.8506311691420159, 1.0678952099608452]",23.61,0.0,0.0,1490.7589950027905,106.5792782836859,2.1616500161306225,-1440.1473267873475,-6200.979490453935,0.0,0.0,0.0,0.0,0.0,0.0,0.0,-4.2,20.815580335894584,0.0,20.32298797181184,0.0,-4.2,23.61,17.68,22.97,21.14,24.07,-2.9,-4.2,0.0,-988.44,-3568.07,2655.11,0.0,0.0,77.0,0.0,0.0,0.0,0.0,0.0,0.0,0.0,0.0,0.0,0.0,0.0,0.0,0.0,0.0
468.0,6970.0,1085.8072602367497,8117.128585373412,-0.0,6793.950361437846,7212.8,0.0,18840.998538080385,0.0,0.0,0.0,18840.998538080385,0.3466666666666667,0.0,0.7653061224489796,0.0,0.0,0.0,"[1.6099653513366832, 2.0, 1.806563296739835, 2.145751294312298, 1.6453010954248661, 1.6994205546382801, 0.8506311691420159, 1.0678952099608452]",20.88,0.0,0.0,1490.757009168611,102.42683887003577,2.077429885632028,-1210.7786803233976,-1909.4222924505564,299.5760700795547,0.0,0.0,0.0,0.0,0.0,0.0,-2.5,20.066778829617373,0.0,20.341348276129242,0.0,-2.5,20.88,17.76,22.92,19.59,22.5,-1.22,-2.5,0.0,-831.01,-2999.79,2655.11,0.0,0.0,74.0,0.0,0.0,0.0,0.0,0.0,0.0,0.0,0.0,0.0,0.0,0.0,0.0,0.0,0.0
469.0,7783.0,52064.273515236826,34187.361205139285,-0.0,6166.409057478646,-16000.0,0.0,29181.1294383921,0.0,-52453.98058278738,0.0,81635.11002117948,1.0,0.21418708737971515,0.7653061224489796,0.0,0.0,0.0,"[1.6099653513366832, 2.0, 1.806563296739835, 2.145751294312298, 1.6453010954248661, 1.6994205546382801, 0.8506311691420159, 1.0678952099608452]",20.39,0.0,0.0,1347.4482507956373,53.9817123774513,1.094861696481742,-1149.1175439042786,-1219.628071226931,7738.786034359312,0.0,0.0,0.0,0.0,0.0,0.0,-1.8,19.893831731740324,0.0,20.271417377793135,0.0,-1.8,20.39,17.79,22.75,19.43,22.3,-0.83,-1.8,0.0,-788.69,-2847.02,2399.87,0.0,0.0,39.0,0.0,0.0,0.0,0.0,0.0,0.0,0.0,0.0,0.0,0.0,0.0,0.0,0.0,0.0
470.0,5467.0,16009.936197508992,15102.932533369692,-0.0,4640.046016848246,0.0,0.0,35775.93772820617,0.0,0.0,0.0,35775.93772820617,1.0,0.21418708737971515,0.7653061224489796,0.0,0.0,0.0,"[1.6099653513366832, 2.0, 1.806563296739835, 2.145751294312298, 1.6453010954248661, 1.6994205546382801, 0.8506311691420159, 1.0678952099608452]",23.61,0.0,0.0,1090.1595335623572,98.2743994563857,1.9932097551334336,-1326.219672476916,-5805.274206898705,1902.5034255900523,0.0,0.0,0.0,0.0,0.0,0.0,-2.0,20.995239629618325,0.0,20.551065427401674,0.0,-2.0,23.61,18.01,23.1,21.39,24.31,-1.61,-2.0,0.0,-910.24,-3285.8,1941.63,0.0,0.0,71.0,0.0,0.0,0.0,0.0,0.0,0.0,0.0,0.0,0.0,0.0,0.0,0.0,0.0,0.0
471.0,4373.0,10024.800724568988,6651.639243855183,-0.0,1049.9625229090398,0.0,0.0,14678.445980822371,0.0,0.0,0.0,14678.445980822373,1.0,0.21418708737971515,0.7653061224489796,0.0,0.0,0.0,"[1.6099653513366832, 2.0, 1.806563296739835, 2.145751294312298, 1.6453010954248661, 1.6994205546382801, 0.8506311691420159, 1.0678952099608452]",21.79,0.0,0.0,611.0225189306921,103.81098534125249,2.105503262464893,-1320.0178901787242,-2882.3025548401056,7330.064680949041,0.0,0.0,0.0,0.0,0.0,0.0,-3.7,20.536889262876517,0.0,20.618971951281853,0.0,-3.7,21.79,18.12,23.12,20.22,22.96,-4.19,-3.7,0.0,-905.99,-3270.44,1088.26,0.0,0.0,75.0,0.0,0.0,0.0,0.0,0.0,0.0,0.0,0.0,0.0,0.0,0.0,0.0,0.0,0.0
472.0,2517.0,16463.311433496376,13863.994876328892,-0.0,0.0,0.0,0.0,27686.514092692723,0.0,0.0,0.0,27686.514092692727,1.0,0.21418708737971515,0.7653061224489796,0.0,0.0,0.0,"[1.6099653513366832, 2.0, 1.806563296739835, 2.145751294312298, 1.6453010954248661, 1.6994205546382801, 0.8506311691420159, 1.0678952099608452]",23.61,0.0,0.0,1.210461207453805,52.5975659062346,1.0667883196488772,-1528.1823323908627,-5452.934757607962,0.0,0.0,0.0,0.0,0.0,0.0,0.0,-5.9,21.178939850582058,0.0,20.80164235233073,0.0,-5.9,23.61,18.28,23.32,21.39,24.04,-7.57,-5.9,0.0,-1048.86,-3786.18,2.16,0.0,0.0,38.0,0.0,0.0,0.0,0.0,0.0,0.0,0.0,0.0,0.0,0.0,0.0,0.0,0.0,0.0
473.0,3892.0,13046.108765169964,9088.878221344114,-0.0,0.0,0.0,0.0,18063.91900212838,0.0,0.0,0.0,18063.91900212838,1.0,0.21418708737971515,0.7653061224489796,0.0,0.0,0.0,"[1.6099653513366832, 2.0, 1.806563296739835, 2.145751294312298, 1.6453010954248661, 1.6994205546382801, 0.8506311691420159, 1.0678952099608452]",20.39,0.0,0.0,0.0,100.96984258454452,6.569170178890468,-1366.6157930423751,-759.3943202536029,4877.476620597995,0.0,0.0,0.0,0.0,0.0,0.0,-6.0,20.130505859660577,0.0,20.57474058989736,0.0,-6.0,20.39,18.21,22.94,19.37,21.64,-7.64,-6.0,1377.87,-937.97,-3385.89,0.0,0.0,9.0,72.0,0.0,0.0,0.0,0.0,0.0,0.0,0.0,0.0,0.0,0.0,0.0,0.0,0.0,0.0
474.0,6132.0,15048.036777549822,8840.796593662073,-0.0,0.0,0.0,0.0,17570.862948429618,0.0,0.0,0.0,17570.862948429618,0.3634015053715105,0.21418708737971515,0.7653061224489796,0.0,0.0,0.0,"[1.6099653513366796, 2.0, 1.806563296739835, 2.145751294312298, 1.3260886896230772, 1.6994205546382801, 0.8506311691420159, 1.0678952099608452]",21.72,0.0,0.0,0.0,614.196784148842,106.37002481972645,-1435.4411527146467,-2944.825097932221,803.965073074392,0.0,0.0,0.0,0.0,0.0,0.0,-6.0,20.447804577342744,0.0,20.476546175940406,0.0,-6.0,21.72,18.18,22.77,20.27,22.52,-7.59,-6.0,183.47,-985.21,-3556.41,0.0,117.0,125.0,369.0,0.0,0.0,0.0,0.0,0.0,0.0,0.0,0.0,0.0,0.0,0.0,0.0,0.0,0.0
475.0,7310.0,20794.95967599119,13774.588283949162,-0.0,0.0,393.60340633792674,0.0,27245.333622818893,0.0,0.0,0.0,27245.333622818893,0.3466666666666667,0.21418708737971515,0.7653061224489796,0.0,0.0,0.0,"[1.6099653513366796, 2.0, 1.806563296739835, 2.145751294312298, 1.3260886896230772, 1.6994205546382801, 0.8506311691420159, 1.0678952099608452]",20.39,0.0,0.0,0.0,2235.032301943597,181.91548187696688,-1371.7943227837584,-1172.7475969427228,132.8631047030335,0.0,0.0,0.0,0.0,0.0,0.0,-6.1,19.938170245619872,0.0,20.26235283227613,0.0,-6.1,20.39,18.09,22.44,19.38,21.47,-7.59,-6.1,797.93,-941.52,-3398.72,0.0,81.0,229.0,1548.0,0.0,0.0,0.0,0.0,0.0,0.0,0.0,0.0,0.0,0.0,0.0,0.0,0.0,0.0
476.0,6055.0,46715.32581591382,24426.74918683425,-0.0,0.0,-16000.0,0.0,48314.68768411107,0.0,0.0,0.0,48314.68768411108,1.0,0.21418708737971515,0.2142857142857142,0.0,0.0,0.0,"[1.6099653513366796, 2.0, 1.806563296739835, 2.145751294312298, 1.3260886896230772, 1.6994205546382801, 0.8506311691420159, 1.0678952099608452]",20.39,0.0,0.0,0.0,1035.3415604700915,162.48870510862415,-1371.7943227837584,-1502.2798832144285,1680.9502353882679,0.0,0.0,0.0,0.0,0.0,0.0,-6.1,19.784971963325027,0.0,20.020889138746867,0.0,-6.1,20.39,17.97,22.08,19.24,21.2,-7.59,-6.1,0.0,-941.52,-3398.72,0.0,158.0,198.0,644.0,0.0,0.0,0.0,0.0,0.0,0.0,0.0,0.0,0.0,0.0,0.0,0.0,0.0,0.0
477.0,5213.0,0.0,0.0,-0.0,0.0,5213.0,0.0,23040.036159494084,0.0,23040.036159494088,0.0,0.0,0.7783588435374149,0.11622774996690015,0.2142857142857142,0.0,0.0,0.0,"[1.6099653513366796, 2.0, 1.806563296739835, 2.145751294312298, 1.3260886896230772, 1.6994205546382801, 0.8506311691420159, 1.0678952099608452]",20.39,0.0,0.0,0.0,1037.5999047126031,121.19276778747931,-1376.9728525251417,-1743.9249855964101,1965.615372148807,0.0,0.0,0.0,0.0,0.0,0.0,-6.2,19.67293175779507,0.0,19.84669362174593,0.0,-6.2,20.39,17.87,21.82,19.3,21.21,-7.68,-6.2,175.6,-945.08,-3411.55,0.0,165.0,112.0,651.0,0.0,0.0,0.0,0.0,0.0,0.0,0.0,0.0,0.0,0.0,0.0,0.0,0.0,0.0
478.0,3564.0,4660.368018088207,1073.0661779977659,-0.0,0.0,0.0,0.0,29438.769476402722,0.0,27336.766792214916,0.0,2102.00268418781,0.7783588435374149,0.0,0.2142857142857142,0.0,0.0,0.0,"[1.6099653513366796, 2.0, 1.806563296739835, 2.145751294312298, 1.3260886896230772, 1.6994205546382801, 0.8506311691420159, 1.0678952099608452]",20.39,0.0,0.0,0.0,712.4711836052276,65.13023425224739,-1382.151382266525,-1956.7846857856832,9489.350464963974,0.0,0.0,0.0,0.0,0.0,0.0,-6.3,19.57418090471086,0.0,19.695064045775098,0.0,-6.3,20.39,17.78,21.61,19.25,21.1,-7.74,-6.3,835.46,-948.63,-3424.38,0.0,81.0,58.0,466.0,0.0,0.0,0.0,0.0,0.0,0.0,0.0,0.0,0.0,0.0,0.0,0.0,0.0,0.0
479.0,2293.0,12533.34926216665,10177.682515855817,-0.0,0.0,0.0,0.0,19936.809495811733,0.0,0.0,0.0,19936.809495811736,0.7783588435374149,0.0,0.2142857142857142,0.0,0.0,0.0,"[1.6099653513366796, 2.0, 1.806563296739835, 2.145751294312298, 1.3260886896230772, 1.6994205546382801, 0.8506311691420159, 1.0678952099608452]",23.61,0.0,0.0,0.0,584.182660667722,41.57667108947345,-1548.8964513563958,-6634.1106454247565,7558.451984590082,0.0,0.0,0.0,0.0,0.0,0.0,-6.3,20.630104992719662,0.0,19.92326685934747,0.0,-6.3,23.61,17.89,21.96,21.16,23.17,-7.66,-6.3,1933.62,-1063.08,-3837.5,0.0,91.0,11.0,373.0,0.0,0.0,0.0,0.0,0.0,0.0,0.0,0.0,0.0,0.0,0.0,0.0,0.0,0.0
480.0,1338.0,65253.2824721956,63589.01605983462,-0.0,0.0,0.0,0.0,56839.30287448449,0.0,-67117.42771119818,0.0,123956.73058568267,0.7783588435374149,0.27406282982072594,0.2142857142857142,0.0,0.0,0.0,"[1.6099653513366796, 2.0, 1.806563296739835, 2.145751294312298, 1.3260886896230772, 1.6994205546382801, 0.8506311691420159, 1.0678952099608452]",23.61,0.0,0.0,0.0,235.01350084974072,34.08107947509843,-1554.074981097779,-6289.2078430376805,7575.175362347609,0.0,0.0,0.0,0.0,0.0,0.0,-6.4,20.791025445199146,0.0,20.170926026275446,0.0,-6.4,23.61,18.04,22.3,21.09,23.15,-7.83,-6.4,1916.61,-1066.63,-3850.33,0.0,80.0,16.0,126.0,0.0,0.0,0.0,0.0,0.0,0.0,0.0,0.0,0.0,0.0,0.0,0.0,0.0,0.0
481.0,1125.0,16866.9094970422,18231.878764321416,-0.0,0.0,2574.303814764427,0.0,35540.16438834792,0.0,0.0,0.0,35540.16438834793,0.6689071507328049,0.27406282982072594,0.2142857142857142,0.0,0.0,0.0,"[1.6099653513366796, 2.0, 1.806563296739835, 2.145751294312298, 1.3260886896230772, 1.6994205546382801, 0.8506311691420159, 1.0678952099608452]",23.61,0.0,0.0,0.0,207.76767031105408,25.490626164241654,-1554.074981097779,-5979.095413347586,7300.650404091632,0.0,0.0,0.0,0.0,0.0,0.0,-6.4,20.93491870033799,0.0,20.390534989704587,0.0,-6.4,23.61,18.18,22.61,21.19,23.34,-7.75,-6.4,1812.87,-1066.63,-3850.33,0.0,80.0,0.0,108.0,0.0,0.0,0.0,0.0,0.0,0.0,0.0,0.0,0.0,0.0,0.0,0.0,0.0,0.0
482.0,2292.0,13348.58015145686,10989.837250699575,-0.0,0.0,0.0,0.0,21422.949743138543,0.0,0.0,0.0,21422.949743138543,0.6689071507328049,0.27406282982072594,0.2142857142857142,0.0,0.0,0.0,"[1.6099653513366796, 2.0, 1.806563296739835, 2.145751294312298, 1.3260886896230772, 1.6994205546382801, 0.8506311691420159, 1.0678952099608452]",23.61,0.0,0.0,0.0,193.9262055988871,25.209892395913002,-1554.074981097779,-5709.889824512914,6286.87859558763,0.0,0.0,0.0,0.0,0.0,0.0,-6.4,21.05997965609702,0.0,20.579031048535768,0.0,-6.4,23.61,18.3,22.85,21.25,23.46,-7.72,-6.4,1094.0,-1066.63,-3850.33,0.0,80.0,0.0,98.0,0.0,0.0,0.0,0.0,0.0,0.0,0.0,0.0,0.0,0.0,0.0,0.0,0.0,0.0
483.0,976.0,23262.76747834006,22170.453640948363,-0.0,0.0,0.0,0.0,43429.15098665227,0.0,0.0,0.0,43429.15098665227,0.6689071507328049,0.27406282982072594,0.2142857142857142,0.0,0.0,0.0,"[1.6099653513366796, 2.0, 1.806563296739835, 2.145751294312298, 1.3260886896230772, 1.6994205546382801, 0.8506311691420159, 1.0678952099608452]",23.26,0.0,0.0,0.0,318.4993880083901,27.73649631087087,-1530.6313873237184,-4982.250248693221,0.0,0.0,0.0,0.0,0.0,0.0,0.0,-6.3,21.04416441685339,0.0,20.702498962957744,0.0,-6.3,23.26,18.4,23.01,21.1,23.33,-7.66,-6.3,1292.89,-1050.54,-3792.25,0.0,80.0,0.0,188.0,0.0,0.0,0.0,0.0,0.0,0.0,0.0,0.0,0.0,0.0,0.0,0.0,0.0,0.0
484.0,712.0,0.0,11957.696185235574,-0.0,0.0,12669.696185235574,0.0,23423.63406231581,0.0,0.0,0.0,23423.63406231581,0.1302295918367347,0.27406282982072594,0.2142857142857142,0.0,0.0,0.0,"[1.6099653513366796, 2.0, 1.806563296739835, 2.145751294312298, 1.3260886896230772, 1.6994205546382801, 0.8506311691420159, 1.0678952099608452]",20.39,0.0,0.0,0.0,212.6486078674498,28.101450209698125,-1382.151382266525,-828.9124092447202,8897.257052857136,0.0,0.0,0.0,0.0,0.0,0.0,-6.3,20.09815586342194,0.0,20.48606024389305,0.0,-6.3,20.39,18.31,22.66,19.42,21.5,-7.63,-6.3,1289.68,-948.63,-3424.38,0.0,80.0,5.0,111.0,0.0,0.0,0.0,0.0,0.0,0.0,0.0,0.0,0.0,0.0,0.0,0.0,0.0,0.0
485.0,3063.0,0.0,0.0,-0.0,0.0,3063.0,0.0,23691.57757383476,0.0,23691.57757383476,0.0,0.0,0.0,0.17333333333333328,0.2142857142857142,0.0,0.0,0.0,"[1.6099653513366796, 2.0, 1.806563296739835, 2.145751294312298, 1.3260886896230772, 1.6994205546382801, 0.8506311691420159, 1.0678952099608452]",23.61,0.0,0.0,0.0,162.4550858322758,49.689876994171506,-1548.8964513563958,-5640.08501907467,810.8266098573599,0.0,0.0,0.0,0.0,0.0,0.0,-6.3,21.092131973800686,0.0,20.612941099018876,0.0,-6.3,23.61,18.38,22.84,21.44,23.65,-7.63,-6.3,1404.89,-1063.08,-3837.5,0.0,80.0,50.0,70.0,0.0,0.0,0.0,0.0,0.0,0.0,0.0,0.0,0.0,0.0,0.0,0.0,0.0,0.0
486.0,848.0,89831.75009860378,68560.27534811075,-0.0,0.0,-16000.0,0.0,39057.36268365535,19871.58,-80000.0,0.0,134954.62668365537,0.6533333333333333,0.5,0.2142857142857142,15897.264000000003,3974.3160000000007,19871.58,"[1.2572578272934543, 2.0, 1.8065632967398386, 0.8568804355315365, 1.3260886896230772, 1.57798408519497, 0.8506311691420159, 1.0678952099608452]",20.74,0.0,0.0,0.0,193.99905541316164,85.25884544141178,-1395.2379165578168,-1398.7473822789893,7033.801462205294,0.0,0.0,0.0,0.0,0.0,0.0,-6.2,20.186734811396207,0.0,20.4611621699881,0.0,-6.2,20.74,18.32,22.6,19.63,21.68,-7.52,-6.2,1316.85,-957.61,-3456.8,0.0,132.0,92.0,61.0,0.0,0.0,0.0,0.0,0.0,0.0,0.0,0.0,0.0,0.0,0.0,0.0,0.0,0.0
487.0,2800.0,5398.980572703698,0.0,-0.0,0.0,-2571.98566984018,0.0,11456.105298654893,0.0,11456.105298654893,0.0,0.0,0.758356081518474,0.45129206930844007,0.2142857142857142,0.0,0.0,0.0,"[1.2572578272934543, 2.0, 1.8065632967398386, 0.8568804355315365, 1.3260886896230772, 1.57798408519497, 0.8506311691420159, 1.0678952099608452]",22.84,0.0,0.0,0.0,720.0475642897821,81.3004993079778,-1503.974197704125,-4570.304020864986,758.6802870250359,0.0,0.0,0.0,0.0,0.0,0.0,-6.2,20.819046672268737,0.0,20.519137897482445,0.0,-6.2,22.84,18.36,22.68,20.99,23.12,-7.52,-6.2,1458.33,-1032.24,-3726.2,0.0,94.0,83.0,462.0,0.0,0.0,0.0,0.0,0.0,0.0,0.0,0.0,0.0,0.0,0.0,0.0,0.0,0.0
488.0,3372.0,31392.644946648015,27863.681721914774,-0.0,0.0,0.0,0.0,44778.06547961449,0.0,-11928.472822422838,0.0,56706.53830203733,0.758356081518474,0.5,0.2142857142857142,0.0,0.0,0.0,"[1.2572578272934543, 2.0, 1.8065632967398386, 0.8568804355315365, 1.3260886896230772, 1.57798408519497, 0.8506311691420159, 1.0678952099608452]",20.74,0.0,0.0,10.091607595326476,394.2631948539357,40.6502496539889,-1358.988208368134,-1529.6040937818364,7852.33437333166,0.0,0.0,0.0,0.0,0.0,0.0,-5.5,20.123336640198495,0.0,20.357585876234797,0.0,-5.5,20.74,18.28,22.43,19.6,21.58,-6.75,-5.5,1341.39,-932.73,-3366.99,17.97,85.0,20.0,238.0,0.0,0.0,0.0,0.0,0.0,0.0,0.0,0.0,0.0,0.0,0.0,0.0,0.0,0.0
489.0,2002.0,8181.556096205492,6808.645575354563,-0.0,669.9972596300984,0.0,0.0,16323.09646731273,0.0,0.0,0.0,16323.096467312731,0.758356081518474,0.5,0.2142857142857142,0.0,0.0,0.0,"[1.2572578272934543, 2.0, 1.8065632967398386, 0.8568804355315365, 1.3260886896230772, 1.57798408519497, 0.8506311691420159, 1.0678952099608452]",23.26,0.0,0.0,845.4411399365356,91.35366710030218,1.8528428709691058,-1292.4190192200913,-5226.603169465838,71.08296574491463,0.0,0.0,0.0,0.0,0.0,0.0,-1.7,20.90998742169469,0.0,20.472864336568236,0.0,-1.7,23.26,18.35,22.59,21.19,23.28,-1.49,-1.7,628.9,-887.04,-3202.06,1505.77,0.0,0.0,66.0,0.0,0.0,0.0,0.0,0.0,0.0,0.0,0.0,0.0,0.0,0.0,0.0,0.0,0.0
490.0,4672.0,13266.47200440891,12778.612278660958,-0.0,4250.472634274092,0.0,0.0,35264.79053471924,0.0,0.0,0.0,35264.79053471924,0.758356081518474,0.5,0.2142857142857142,0.0,0.0,0.0,"[1.2572578272934543, 2.0, 1.8065632967398386, 0.8568804355315365, 1.3260886896230772, 1.57798408519497, 0.8506311691420159, 1.0678952099608452]",20.74,0.0,0.0,1311.8930568867743,96.890252985169,1.9651363783005653,-965.4199480230067,-1348.885348878025,5142.474593265453,0.0,0.0,0.0,0.0,0.0,0.0,2.1,20.17446547181371,0.0,20.42426853607892,0.0,2.1,20.74,18.37,22.48,19.75,21.91,3.11,2.1,414.19,-662.61,-2391.9,2336.54,0.0,0.0,70.0,0.0,0.0,0.0,0.0,0.0,0.0,0.0,0.0,0.0,0.0,0.0,0.0,0.0,0.0
491.0,3667.0,113.20124882778562,2421.2154229342923,-0.0,5975.580180350646,0.0,0.0,7397.310567826045,0.0,0.0,0.0,7397.310567826045,0.758356081518474,0.5,0.2142857142857142,0.0,0.0,0.0,"[1.2572578272934543, 2.0, 1.8065632967398386, 0.8568804355315365, 1.3260886896230772, 1.57798408519497, 0.8506311691420159, 1.0678952099608452]",22.78,0.0,0.0,1467.5379373246403,89.96952062908551,1.824769494136241,-910.6365805919369,-4191.548476219802,0.0,0.0,0.0,0.0,0.0,0.0,0.0,5.2,20.890183384489564,0.0,20.624532309679708,0.0,5.2,22.78,18.54,22.71,21.14,23.53,6.61,5.2,0.0,-625.01,-2256.17,2613.75,0.0,0.0,65.0,0.0,0.0,0.0,0.0,0.0,0.0,0.0,0.0,0.0,0.0,0.0,0.0,0.0,0.0
492.0,4975.0,4044.67379644477,5895.502163720329,-0.0,6846.051736257783,0.0,0.0,19192.246629526493,0.0,0.0,0.0,19192.246629526493,0.758356081518474,0.5,0.2142857142857142,0.0,0.0,0.0,"[1.2572578272934543, 2.0, 1.8065632967398386, 0.8568804355315365, 1.3260886896230772, 1.57798408519497, 0.8506311691420159, 1.0678952099608452]",21.22,0.0,0.0,1542.263219760494,77.5122023881352,1.5721091026404543,-720.6481438665251,-1625.7301550835728,4939.943574630657,0.0,0.0,0.0,0.0,0.0,0.0,7.3,20.501695997036702,0.0,20.689317117817616,0.0,7.3,21.22,18.66,22.72,20.19,22.57,8.8,7.3,0.0,-494.61,-1785.46,2746.84,0.0,0.0,56.0,0.0,0.0,0.0,0.0,0.0,0.0,0.0,0.0,0.0,0.0,0.0,0.0,0.0,0.0
493.0,3167.0,5141.339783781986,7923.750417242767,-0.0,5975.117332379691,0.0,0.0,26474.87183158061,0.0,0.0,0.0,26474.87183158061,0.758356081518474,0.5,0.2142857142857142,0.0,0.0,0.0,"[1.2572578272934543, 2.0, 1.8065632967398386, 0.8568804355315365, 1.3260886896230772, 1.57798408519497, 0.8506311691420159, 1.0678952099608452]",23.26,0.0,0.0,1326.367971292762,1971.8987727838758,66.59004984755641,-779.7445748231493,-4375.169612214062,0.0,0.0,0.0,0.0,0.0,0.0,0.0,8.2,21.269996192683575,0.0,20.96366416522254,0.0,8.2,23.26,18.89,23.03,21.54,24.04,9.25,8.2,0.0,-535.17,-1931.87,2362.32,100.0,0.0,1372.0,0.0,0.0,0.0,0.0,0.0,0.0,0.0,0.0,0.0,0.0,0.0,0.0,0.0,0.0
494.0,1927.0,0.0,4366.140488124455,-0.0,4853.515550831446,1439.6249372930097,0.0,14588.16895219584,0.0,0.0,0.0,14588.16895219584,0.6971475382662202,0.5,0.2142857142857142,0.0,0.0,0.0,"[1.2572578272934543, 2.0, 1.8065632967398386, 0.8568804355315365, 1.3260886896230772, 1.57798408519497, 0.8506311691420159, 1.0678952099608452]",22.49,0.0,0.0,1169.5971334408289,518.3264285635169,35.512821693574544,-740.2437616163152,-2986.008592632299,0.0,0.0,0.0,0.0,0.0,0.0,0.0,8.2,21.15175127815437,0.0,21.087755388248926,0.0,8.2,22.49,19.07,23.11,20.9,23.2,8.87,8.2,0.0,-508.06,-1834.01,2083.11,94.0,0.0,325.0,0.0,0.0,0.0,0.0,0.0,0.0,0.0,0.0,0.0,0.0,0.0,0.0,0.0,0.0
495.0,6027.0,0.0,3786.3512163526407,-0.0,1831.0101230096002,7982.3410933430405,0.0,12109.527612629921,0.0,0.0,0.0,12109.527612629921,0.3577622876989141,0.5,0.2142857142857142,0.0,0.0,0.0,"[1.2572578272934543, 2.0, 1.8065632967398386, 0.8568804355315365, 1.3260886896230772, 1.57798408519497, 0.8506311691420159, 1.0678952099608452]",21.62,0.0,0.0,746.8498781104128,163.3292836035706,3.312658466278098,-772.8897180131873,-1585.7048067838973,4871.3073203538725,0.0,0.0,0.0,0.0,0.0,0.0,6.7,20.93814347204419,0.0,21.113631253219282,0.0,6.7,21.62,19.18,23.05,20.6,22.81,6.5,6.7,75.92,-530.47,-1914.89,1330.17,0.0,0.0,118.0,0.0,0.0,0.0,0.0,0.0,0.0,0.0,0.0,0.0,0.0,0.0,0.0,0.0,0.0
496.0,3421.0,8769.323272382264,5304.476656020354,-0.0,0.0,0.0,0.0,15801.712384542687,0.0,0.0,0.0,15801.712384542687,0.3577622876989141,0.5,0.2142857142857142,0.0,0.0,0.0,"[1.2572578272934543, 2.0, 1.8065632967398386, 0.8568804355315365, 1.3260886896230772, 1.57798408519497, 0.8506311691420159, 1.0678952099608452]",23.26,0.0,0.0,2.4398898587639595,96.890252985169,1.9651363783005653,-976.5287049957127,-3900.346995113633,0.0,0.0,0.0,0.0,0.0,0.0,0.0,4.4,21.512142870136586,0.0,21.268635773007745,0.0,4.4,23.26,19.34,23.2,21.65,23.76,2.83,4.4,902.4,-670.23,-2419.42,4.35,0.0,0.0,70.0,0.0,0.0,0.0,0.0,0.0,0.0,0.0,0.0,0.0,0.0,0.0,0.0,0.0,0.0
497.0,2895.0,0.0,2671.2936158837415,-0.0,0.0,5566.293615883742,0.0,7906.688208815755,0.0,0.0,0.0,7906.688208815755,0.1211001441664421,0.5,0.2142857142857142,0.0,0.0,0.0,"[1.2572578272934543, 2.0, 1.8065632967398386, 0.8568804355315365, 1.3260886896230772, 1.57798408519497, 0.8506311691420159, 1.0678952099608452]",21.04,0.0,0.0,0.0,89.96952062908551,1.824769494136241,-871.9203025224616,-651.4344947122685,798.1921386708556,0.0,0.0,0.0,0.0,0.0,0.0,4.2,20.795667797775376,0.0,21.1140614046898,0.0,4.2,21.04,19.32,22.91,20.23,21.94,2.66,4.2,1014.39,-598.44,-2160.24,0.0,0.0,0.0,65.0,0.0,0.0,0.0,0.0,0.0,0.0,0.0,0.0,0.0,0.0,0.0,0.0,0.0,0.0
498.0,3065.0,89831.75009860378,68560.27534811075,-0.0,0.0,-16000.0,0.0,26493.231098977776,0.0,-80000.0,0.0,134954.62668365537,0.6533333333333333,0.5,0.2142857142857142,15897.264000000003,3974.3160000000007,19871.58,"[1.2572578272934543, 2.0, 1.8065632967398386, 0.8568804355315365, 1.3260886896230772, 1.57798408519497, 0.8506311691420159, 1.0678952099608452]",20.74,0.0,0.0,0.0,203.32383164030574,33.379245054276794,-872.2064126781083,-453.73585099161323,1090.2059777004088,0.0,0.0,0.0,0.0,0.0,0.0,3.9,20.592770973119386,0.0,20.91671568284519,0.0,3.9,20.74,19.26,22.58,20.13,21.74,2.47,3.9,137.88,-598.63,-2160.95,0.0,110.0,0.0,89.0,0.0,0.0,0.0,0.0,0.0,0.0,0.0,0.0,0.0,0.0,0.0,0.0,0.0,0.0
499.0,5369.0,5398.980572703698,0.0,-0.0,0.0,-2571.98566984018,0.0,11456.105298654893,0.0,11456.105298654893,0.0,0.0,0.758356081518474,0.45129206930844007,0.2142857142857142,0.0,0.0,0.0,"[1.2572578272934543, 2.0, 1.8065632967398386, 0.8568804355315365, 1.3260886896230772, 1.57798408519497, 0.8506311691420159, 1.0678952099608452]",22.84,0.0,0.0,0.0,514.2468389641413,46.06841138273189,-991.2997533071832,-4499.7961350112155,758.6802870250359,0.0,0.0,0.0,0.0,0.0,0.0,3.7,20.819046672268737,0.0,20.519137897482445,0.0,3.7,22.84,18.36,22.68,20.99,23.12,2.31,3.7,1458.33,-680.37,-2456.01,0.0,100.0,18.0,317.0,0.0,0.0,0.0,0.0,0.0,0.0,0.0,0.0,0.0,0.0,0.0,0.0,0.0,0.0
500.0,5472.0,31392.644946648015,27863.681721914774,-0.0,0.0,0.0,0.0,44778.06547961449,0.0,-11928.472822422838,0.0,56706.53830203733,0.758356081518474,0.5,0.2142857142857142,0.0,0.0,0.0,"[1.2572578272934543, 2.0, 1.8065632967398386, 0.8568804355315365, 1.3260886896230772, 1.57798408519497, 0.8506311691420159, 1.0678952099608452]",20.74,0.0,0.0,0.0,892.0459757920258,73.97334795459996,-892.9205316436412,-1466.0759684371735,7852.33437333166,0.0,0.0,0.0,0.0,0.0,0.0,3.5,20.123336640198495,0.0,20.357585876234797,0.0,3.5,20.74,18.28,22.43,19.6,21.58,2.11,3.5,1341.39,-612.85,-2212.27,0.0,93.0,62.0,589.0,0.0,0.0,0.0,0.0,0.0,0.0,0.0,0.0,0.0,0.0,0.0,0.0,0.0,0.0
501.0,4752.0,8181.556096205492,6808.645575354563,-0.0,0.0,0.0,0.0,16323.09646731273,0.0,0.0,0.0,16323.096467312731,0.758356081518474,0.5,0.2142857142857142,0.0,0.0,0.0,"[1.2572578272934543, 2.0, 1.8065632967398386, 0.8568804355315365, 1.3260886896230772, 1.57798408519497, 0.8506311691420159, 1.0678952099608452]",23.26,0.0,0.0,0.0,1173.829057406036,116.98176126254951,-1038.6710618923119,-5202.192175835302,71.08296574491463,0.0,0.0,0.0,0.0,0.0,0.0,3.2,20.90998742169469,0.0,20.472864336568236,0.0,3.2,23.26,18.35,22.59,21.19,23.28,1.91,3.2,628.9,-712.89,-2573.38,0.0,135.0,114.0,765.0,0.0,0.0,0.0,0.0,0.0,0.0,0.0,0.0,0.0,0.0,0.0,0.0,0.0,0.0
502.0,3207.0,13266.47200440891,12778.612278660958,-0.0,0.0,0.0,0.0,35264.79053471924,0.0,0.0,0.0,35264.79053471924,0.758356081518474,0.5,0.2142857142857142,0.0,0.0,0.0,"[1.2572578272934543, 2.0, 1.8065632967398386, 0.8568804355315365, 1.3260886896230772, 1.57798408519497, 0.8506311691420159, 1.0678952099608452]",20.74,0.0,0.0,0.0,778.8373644093547,118.16084308952986,-918.8131803505574,-1358.4412789468165,5142.474593265453,0.0,0.0,0.0,0.0,0.0,0.0,3.0,20.17446547181371,0.0,20.42426853607892,0.0,3.0,20.74,18.37,22.48,19.75,21.91,1.78,3.0,414.19,-630.62,-2276.42,0.0,128.0,136.0,481.0,0.0,0.0,0.0,0.0,0.0,0.0,0.0,0.0,0.0,0.0,0.0,0.0,0.0,0.0
503.0,2318.0,113.20124882778562,2421.2154229342923,-0.0,0.0,0.0,0.0,7397.310567826045,0.0,0.0,0.0,7397.310567826045,0.758356081518474,0.5,0.2142857142857142,0.0,0.0,0.0,"[1.2572578272934543, 2.0, 1.8065632967398386, 0.8568804355315365, 1.3260886896230772, 1.57798408519497, 0.8506311691420159, 1.0678952099608452]",22.78,0.0,0.0,0.0,408.25035919465205,79.05462916134857,-1034.9212943851348,-4227.119378502984,0.0,0.0,0.0,0.0,0.0,0.0,0.0,2.8,20.890183384489564,0.0,20.624532309679708,0.0,2.8,22.78,18.54,22.71,21.14,23.53,1.65,2.8,0.0,-710.31,-2564.09,0.0,149.0,62.0,210.0,0.0,0.0,0.0,0.0,0.0,0.0,0.0,0.0,0.0,0.0,0.0,0.0,0.0,0.0
504.0,1817.0,4044.67379644477,5895.502163720329,-0.0,0.0,0.0,0.0,19192.246629526493,0.0,0.0,0.0,19192.246629526493,0.758356081518474,0.5,0.2142857142857142,0.0,0.0,0.0,"[1.2572578272934543, 2.0, 1.8065632967398386, 0.8568804355315365, 1.3260886896230772, 1.57798408519497, 0.8506311691420159, 1.0678952099608452]",21.22,0.0,0.0,0.0,204.99937736862074,25.43447941057592,-979.5746309356875,-1680.446647068366,4939.943574630657,0.0,0.0,0.0,0.0,0.0,0.0,2.3,20.501695997036702,0.0,20.689317117817616,0.0,2.3,21.22,18.66,22.72,20.19,22.57,1.17,2.3,0.0,-672.32,-2426.96,0.0,80.0,0.0,106.0,0.0,0.0,0.0,0.0,0.0,0.0,0.0,0.0,0.0,0.0,0.0,0.0,0.0,0.0
505.0,698.0,5141.339783781986,7923.750417242767,-0.0,0.0,0.0,0.0,26474.87183158061,0.0,0.0,0.0,26474.87183158061,0.758356081518474,0.5,0.2142857142857142,0.0,0.0,0.0,"[1.2572578272934543, 2.0, 1.8065632967398386, 0.8568804355315365, 1.3260886896230772, 1.57798408519497, 0.8506311691420159, 1.0678952099608452]",23.26,0.0,0.0,0.0,200.84693795497063,25.350259280077328,-1105.9919485302942,-4435.662130156729,0.0,0.0,0.0,0.0,0.0,0.0,0.0,1.9,21.269996192683575,0.0,20.96366416522254,0.0,1.9,23.26,18.89,23.03,21.54,24.04,0.82,1.9,0.0,-759.09,-2740.17,0.0,80.0,0.0,103.0,0.0,0.0,0.0,0.0,0.0,0.0,0.0,0.0,0.0,0.0,0.0,0.0,0.0,0.0
506.0,2029.0,0.0,4366.140488124455,-0.0,0.0,1439.6249372930097,0.0,14588.16895219584,0.0,0.0,0.0,14588.16895219584,0.6971475382662202,0.5,0.2142857142857142,0.0,0.0,0.0,"[1.2572578272934543, 2.0, 1.8065632967398386, 0.8568804355315365, 1.3260886896230772, 1.57798408519497, 0.8506311691420159, 1.0678952099608452]",22.49,0.0,0.0,0.0,519.2006263348117,31.807135951636337,-1092.3837840303763,-3047.17851836254,0.0,0.0,0.0,0.0,0.0,0.0,0.0,1.4,21.15175127815437,0.0,21.087755388248926,0.0,1.4,22.49,19.07,23.11,20.9,23.2,0.34,1.4,0.0,-749.75,-2706.46,0.0,80.0,0.0,333.0,0.0,0.0,0.0,0.0,0.0,0.0,0.0,0.0,0.0,0.0,0.0,0.0,0.0,0.0
507.0,3498.0,0.0,3786.3512163526407,-0.0,0.0,7982.3410933430405,0.0,12109.527612629921,0.0,0.0,0.0,12109.527612629921,0.3577622876989141,0.5,0.2142857142857142,0.0,0.0,0.0,"[1.2572578272934543, 2.0, 1.8065632967398386, 0.8568804355315365, 1.3260886896230772, 1.57798408519497, 0.8506311691420159, 1.0678952099608452]",21.62,0.0,0.0,0.0,1904.7312440227286,59.90858616133446,-1057.7088537892662,-1630.6765704706083,4871.3073203538725,0.0,0.0,0.0,0.0,0.0,0.0,1.2,20.93814347204419,0.0,21.113631253219282,0.0,1.2,21.62,19.18,23.05,20.6,22.81,0.23,1.2,75.92,-725.95,-2620.55,0.0,80.0,0.0,1334.0,0.0,0.0,0.0,0.0,0.0,0.0,0.0,0.0,0.0,0.0,0.0,0.0,0.0,0.0
508.0,794.0,8769.323272382264,5304.476656020354,-0.0,0.0,0.0,0.0,15801.712384542687,0.0,0.0,0.0,15801.712384542687,0.3577622876989141,0.5,0.2142857142857142,0.0,0.0,0.0,"[1.2572578272934543, 2.0, 1.8065632967398386, 0.8568804355315365, 1.3260886896230772, 1.57798408519497, 0.8506311691420159, 1.0678952099608452]",23.26,0.0,0.0,0.0,244.77537596253214,29.757779442837172,-1152.5987162027434,-3920.2543586106426,0.0,0.0,0.0,0.0,0.0,0.0,0.0,1.0,21.512142870136586,0.0,21.268635773007745,0.0,1.0,23.26,19.34,23.2,21.65,23.76,0.06,1.0,902.4,-791.08,-2855.64,0.0,80.0,7.0,134.0,0.0,0.0,0.0,0.0,0.0,0.0,0.0,0.0,0.0,0.0,0.0,0.0,0.0,0.0
509.0,1716.0,0.0,2671.2936158837415,-0.0,0.0,5566.293615883742,0.0,7906.688208815755,0.0,0.0,0.0,7906.688208815755,0.1211001441664421,0.5,0.2142857142857142,0.0,0.0,0.0,"[1.2572578272934543, 2.0, 1.8065632967398386, 0.8568804355315365, 1.3260886896230772, 1.57798408519497, 0.8506311691420159, 1.0678952099608452]",21.04,0.0,0.0,0.0,130.3283177371935,57.57849588420663,-1053.1688434708753,-671.202232402289,798.1921386708556,0.0,0.0,0.0,0.0,0.0,0.0,0.7,20.795667797775376,0.0,21.1140614046898,0.0,0.7,21.04,19.32,22.91,20.23,21.94,-0.09,0.7,1014.39,-722.84,-2609.3,0.0,80.0,67.0,45.0,0.0,0.0,0.0,0.0,0.0,0.0,0.0,0.0,0.0,0.0,0.0,0.0,0.0,0.0
510.0,1390.0,89831.75009860378,68560.27534811075,-0.0,0.0,-16000.0,0.0,26493.231098977776,0.0,-80000.0,0.0,134954.62668365537,0.6533333333333333,0.5,0.2142857142857142,15897.264000000003,3974.3160000000007,19871.58,"[1.2572578272934543, 2.0, 1.8065632967398386, 0.8568804355315365, 1.3260886896230772, 1.57798408519497, 0.8506311691420159, 1.0678952099608452]",20.74,0.0,0.0,0.0,1194.2998552171885,99.54819424934021,-1043.0978941437556,-472.9184558046061,1090.2059777004088,0.0,0.0,0.0,0.0,0.0,0.0,0.6,20.592770973119386,0.0,20.91671568284519,0.0,0.6,20.74,19.26,22.58,20.13,21.74,-0.21,0.6,137.88,-715.92,-2584.35,0.0,117.0,88.0,792.0,0.0,0.0,0.0,0.0,0.0,0.0,0.0,0.0,0.0,0.0,0.0,0.0,0.0,0.0
511.0,970.0,5398.980572703698,0.0,-0.0,0.0,-2571.98566984018,0.0,11456.105298654893,0.0,11456.105298654893,0.0,0.0,0.758356081518474,0.45129206930844007,0.2142857142857142,0.0,0.0,0.0,"[1.2572578272934543, 2.0, 1.8065632967398386, 0.8568804355315365, 1.3260886896230772, 1.57798408519497, 0.8506311691420159, 1.0678952099608452]",22.84,0.0,0.0,0.0,303.6380258963792,105.33130987691044,-1162.1912347728303,-4518.984379003689,758.6802870250359,0.0,0.0,0.0,0.0,0.0,0.0,0.4,20.819046672268737,0.0,20.519137897482445,0.0,0.4,22.84,18.36,22.68,20.99,23.12,-0.36,0.4,1458.33,-797.66,-2879.41,0.0,150.0,118.0,128.0,0.0,0.0,0.0,0.0,0.0,0.0,0.0,0.0,0.0,0.0,0.0,0.0,0.0,0.0
512.0,1041.0,31392.644946648015,27863.681721914774,-0.0,0.0,0.0,0.0,44778.06547961449,0.0,-11928.472822422838,0.0,56706.53830203733,0.758356081518474,0.5,0.2142857142857142,0.0,0.0,0.0,"[1.2572578272934543, 2.0, 1.8065632967398386, 0.8568804355315365, 1.3260886896230772, 1.57798408519497, 0.8506311691420159, 1.0678952099608452]",20.74,0.0,0.0,2.413248432484626,505.140612179821,106.84727222588518,-1043.0978941437556,-1482.4063809764384,7852.33437333166,0.0,0.0,0.0,0.0,0.0,0.0,0.6,20.123336640198495,0.0,20.357585876234797,0.0,0.6,20.74,18.28,22.43,19.6,21.58,-0.17,0.6,1341.39,-715.92,-2584.35,4.3,112.0,133.0,292.0,0.0,0.0,0.0,0.0,0.0,0.0,0.0,0.0,0.0,0.0,0.0,0.0,0.0,0.0
513.0,1893.0,8181.556096205492,6808.645575354563,-0.0,10.053939207521418,0.0,0.0,16323.09646731273,0.0,0.0,0.0,16323.096467312731,0.758356081518474,0.5,0.2142857142857142,0.0,0.0,0.0,"[1.2572578272934543, 2.0, 1.8065632967398386, 0.8568804355315365, 1.3260886896230772, 1.57798408519497, 0.8506311691420159, 1.0678952099608452]",23.26,0.0,0.0,39.91261216507252,1185.6307273185153,115.8026794355692,-1126.706067495827,-5208.951072774544,71.08296574491463,0.0,0.0,0.0,0.0,0.0,0.0,1.5,20.90998742169469,0.0,20.472864336568236,0.0,1.5,23.26,18.35,22.59,21.19,23.28,0.97,1.5,628.9,-773.31,-2791.49,71.09,141.0,108.0,771.0,0.0,0.0,0.0,0.0,0.0,0.0,0.0,0.0,0.0,0.0,0.0,0.0,0.0,0.0
514.0,1578.0,13266.47200440891,12778.612278660958,-0.0,476.61979210031996,0.0,0.0,35264.79053471924,0.0,0.0,0.0,35264.79053471924,0.758356081518474,0.5,0.2142857142857142,0.0,0.0,0.0,"[1.2572578272934543, 2.0, 1.8065632967398386, 0.8568804355315365, 1.3260886896230772, 1.57798408519497, 0.8506311691420159, 1.0678952099608452]",20.74,0.0,0.0,107.75412861571274,987.6977819345271,82.59187464228958,-929.170239833324,-1353.5556448628354,5142.474593265453,0.0,0.0,0.0,0.0,0.0,0.0,2.8,20.17446547181371,0.0,20.42426853607892,0.0,2.8,20.74,18.37,22.48,19.75,21.91,2.46,2.8,414.19,-637.73,-2302.08,191.92,120.0,61.0,644.0,0.0,0.0,0.0,0.0,0.0,0.0,0.0,0.0,0.0,0.0,0.0,0.0,0.0,0.0
515.0,1730.0,113.20124882778562,2421.2154229342923,-0.0,1056.2128841116369,0.0,0.0,7397.310567826045,0.0,0.0,0.0,7397.310567826045,0.758356081518474,0.5,0.2142857142857142,0.0,0.0,0.0,"[1.2572578272934543, 2.0, 1.8065632967398386, 0.8568804355315365, 1.3260886896230772, 1.57798408519497, 0.8506311691420159, 1.0678952099608452]",22.78,0.0,0.0,131.26503549539046,1077.4487531207892,46.32107177422768,-983.1359969713023,-4214.109171440491,0.0,0.0,0.0,0.0,0.0,0.0,0.0,3.8,20.890183384489564,0.0,20.624532309679708,0.0,3.8,22.78,18.54,22.71,21.14,23.53,3.46,3.8,0.0,-674.77,-2435.79,233.79,92.0,0.0,730.0,0.0,0.0,0.0,0.0,0.0,0.0,0.0,0.0,0.0,0.0,0.0,0.0,0.0,0.0
516.0,2226.0,4044.67379644477,5895.502163720329,-0.0,2534.759086204861,0.0,0.0,19192.246629526493,0.0,0.0,0.0,19192.246629526493,0.758356081518474,0.5,0.2142857142857142,0.0,0.0,0.0,"[1.2572578272934543, 2.0, 1.8065632967398386, 0.8568804355315365, 1.3260886896230772, 1.57798408519497, 0.8506311691420159, 1.0678952099608452]",21.22,0.0,0.0,179.38072104488316,42.9085406077177,0.8702746818188201,-860.468446883873,-1657.8417741100538,4939.943574630657,0.0,0.0,0.0,0.0,0.0,0.0,4.6,20.501695997036702,0.0,20.689317117817616,0.0,4.6,21.22,18.66,22.72,20.19,22.57,4.33,4.6,0.0,-590.58,-2131.87,319.49,0.0,0.0,31.0,0.0,0.0,0.0,0.0,0.0,0.0,0.0,0.0,0.0,0.0,0.0,0.0,0.0,0.0
517.0,3379.0,5141.339783781986,7923.750417242767,-0.0,2056.6916607608737,0.0,0.0,26474.87183158061,0.0,0.0,0.0,26474.87183158061,0.758356081518474,0.5,0.2142857142857142,0.0,0.0,0.0,"[1.2572578272934543, 2.0, 1.8065632967398386, 0.8568804355315365, 1.3260886896230772, 1.57798408519497, 0.8506311691420159, 1.0678952099608452]",23.26,0.0,0.0,176.00193591833067,1184.8293793614953,24.030810568932658,-940.2789968060301,-4407.536660308666,0.0,0.0,0.0,0.0,0.0,0.0,0.0,5.1,21.269996192683575,0.0,20.96366416522254,0.0,5.1,23.26,18.89,23.03,21.54,24.04,4.74,5.1,0.0,-645.35,-2329.61,313.47,0.0,0.0,856.0,0.0,0.0,0.0,0.0,0.0,0.0,0.0,0.0,0.0,0.0,0.0,0.0,0.0,0.0
518.0,4586.0,0.0,4366.140488124455,-0.0,794.2655097361476,1439.6249372930097,0.0,14588.16895219584,0.0,0.0,0.0,14588.16895219584,0.6971475382662202,0.5,0.2142857142857142,0.0,0.0,0.0,"[1.2572578272934543, 2.0, 1.8065632967398386, 0.8568804355315365, 1.3260886896230772, 1.57798408519497, 0.8506311691420159, 1.0678952099608452]",22.49,0.0,0.0,145.44188007223195,294.82319836915707,5.9796292654003,-890.4211241164294,-3015.098533219857,0.0,0.0,0.0,0.0,0.0,0.0,0.0,5.3,21.15175127815437,0.0,21.087755388248926,0.0,5.3,22.49,19.07,23.11,20.9,23.2,4.81,5.3,0.0,-611.13,-2206.08,259.04,0.0,0.0,213.0,0.0,0.0,0.0,0.0,0.0,0.0,0.0,0.0,0.0,0.0,0.0,0.0,0.0,0.0
519.0,1829.0,0.0,3786.3512163526407,-0.0,24.394645161983135,7982.3410933430405,0.0,12109.527612629921,0.0,0.0,0.0,12109.527612629921,0.3577622876989141,0.5,0.2142857142857142,0.0,0.0,0.0,"[1.2572578272934543, 2.0, 1.8065632967398386, 0.8568804355315365, 1.3260886896230772, 1.57798408519497, 0.8506311691420159, 1.0678952099608452]",21.62,0.0,0.0,50.724559339536526,37.371954722850894,0.7579811744873607,-871.2817830994694,-1603.7588803895833,4871.3073203538725,0.0,0.0,0.0,0.0,0.0,0.0,4.8,20.93814347204419,0.0,21.113631253219282,0.0,4.8,21.62,19.18,23.05,20.6,22.81,3.99,4.8,75.92,-598.0,-2158.66,90.34,0.0,0.0,27.0,0.0,0.0,0.0,0.0,0.0,0.0,0.0,0.0,0.0,0.0,0.0,0.0,0.0,0.0
520.0,1892.0,8769.323272382264,5304.476656020354,-0.0,0.0,0.0,0.0,15801.712384542687,0.0,0.0,0.0,15801.712384542687,0.3577622876989141,0.5,0.2142857142857142,0.0,0.0,0.0,"[1.2572578272934543, 2.0, 1.8065632967398386, 0.8568804355315365, 1.3260886896230772, 1.57798408519497, 0.8506311691420159, 1.0678952099608452]",23.26,0.0,0.0,1.2104933309178303,152.25611183383697,3.088071451615179,-997.2428239612458,-3899.1570288702965,0.0,0.0,0.0,0.0,0.0,0.0,0.0,4.0,21.512142870136586,0.0,21.268635773007745,0.0,4.0,23.26,19.34,23.2,21.65,23.76,3.0,4.0,902.4,-684.45,-2470.74,2.16,0.0,0.0,110.0,0.0,0.0,0.0,0.0,0.0,0.0,0.0,0.0,0.0,0.0,0.0,0.0,0.0,0.0
521.0,4410.0,0.0,2671.2936158837415,-0.0,0.0,5566.293615883742,0.0,7906.688208815755,0.0,0.0,0.0,7906.688208815755,0.1211001441664421,0.5,0.2142857142857142,0.0,0.0,0.0,"[1.2572578272934543, 2.0, 1.8065632967398386, 0.8568804355315365, 1.3260886896230772, 1.57798408519497, 0.8506311691420159, 1.0678952099608452]",21.04,0.0,0.0,0.0,330.88385643506587,49.35299647217713,-918.5270701949106,-654.2723945236215,798.1921386708556,0.0,0.0,0.0,0.0,0.0,0.0,3.3,20.795667797775376,0.0,21.1140614046898,0.0,3.3,21.04,19.32,22.91,20.23,21.94,2.27,3.3,1014.39,-630.43,-2275.71,0.0,81.0,42.0,192.0,0.0,0.0,0.0,0.0,0.0,0.0,0.0,0.0,0.0,0.0,0.0,0.0,0.0,0.0
522.0,5439.0,89831.75009860378,68560.27534811075,-0.0,0.0,-16000.0,0.0,26493.231098977776,0.0,-80000.0,0.0,134954.62668365537,0.6533333333333333,0.5,0.2142857142857142,15897.264000000003,3974.3160000000007,19871.58,"[1.2572578272934543, 2.0, 1.8065632967398386, 0.8568804355315365, 1.3260886896230772, 1.57798408519497, 0.8506311691420159, 1.0678952099608452]",20.74,0.0,0.0,0.0,422.1646737210935,79.86875708950166,-939.5272993160906,-459.68509332029083,1090.2059777004088,0.0,0.0,0.0,0.0,0.0,0.0,2.6,20.592770973119386,0.0,20.91671568284519,0.0,2.6,20.74,19.26,22.58,20.13,21.74,1.64,2.6,137.88,-644.84,-2327.74,0.0,117.0,80.0,235.0,0.0,0.0,0.0,0.0,0.0,0.0,0.0,0.0,0.0,0.0,0.0,0.0,0.0,0.0
523.0,4535.0,5398.980572703698,0.0,-0.0,0.0,-2571.98566984018,0.0,11456.105298654893,0.0,11456.105298654893,0.0,0.0,0.758356081518474,0.45129206930844007,0.2142857142857142,0.0,0.0,0.0,"[1.2572578272934543, 2.0, 1.8065632967398386, 0.8568804355315365, 1.3260886896230772, 1.57798408519497, 0.8506311691420159, 1.0678952099608452]",22.84,0.0,0.0,0.0,525.5385601766986,107.40873976254247,-1084.5132886520817,-4510.002489595452,758.6802870250359,0.0,0.0,0.0,0.0,0.0,0.0,1.9,20.819046672268737,0.0,20.519137897482445,0.0,1.9,22.84,18.36,22.68,20.99,23.12,0.89,1.9,1458.33,-744.35,-2686.96,0.0,156.0,110.0,286.0,0.0,0.0,0.0,0.0,0.0,0.0,0.0,0.0,0.0,0.0,0.0,0.0,0.0,0.0
524.0,5149.0,31392.644946648015,27863.681721914774,-0.0,0.0,0.0,0.0,44778.06547961449,0.0,-11928.472822422838,0.0,56706.53830203733,0.758356081518474,0.5,0.2142857142857142,0.0,0.0,0.0,"[1.2572578272934543, 2.0, 1.8065632967398386, 0.8568804355315365, 1.3260886896230772, 1.57798408519497, 0.8506311691420159, 1.0678952099608452]",20.74,0.0,0.0,0.0,1275.6730977618754,93.45627147660845,-1006.8481859540727,-1479.2040120711506,7852.33437333166,0.0,0.0,0.0,0.0,0.0,0.0,1.3,20.123336640198495,0.0,20.357585876234797,0.0,1.3,20.74,18.28,22.43,19.6,21.58,0.28,1.3,1341.39,-691.04,-2494.54,0.0,120.0,71.0,851.0,0.0,0.0,0.0,0.0,0.0,0.0,0.0,0.0,0.0,0.0,0.0,0.0,0.0,0.0
525.0,5878.0,8181.556096205492,6808.645575354563,-0.0,0.0,0.0,0.0,16323.09646731273,0.0,0.0,0.0,16323.096467312731,0.758356081518474,0.5,0.2142857142857142,0.0,0.0,0.0,"[1.2572578272934543, 2.0, 1.8065632967398386, 0.8568804355315365, 1.3260886896230772, 1.57798408519497, 0.8506311691420159, 1.0678952099608452]",23.26,0.0,0.0,0.0,2024.3506390615612,117.68359568337117,-1173.3128351682763,-5219.127134100269,71.08296574491463,0.0,0.0,0.0,0.0,0.0,0.0,0.6,20.90998742169469,0.0,20.472864336568236,0.0,0.6,23.26,18.35,22.59,21.19,23.28,-0.45,0.6,628.9,-805.3,-2906.96,0.0,137.0,80.0,1382.0,0.0,0.0,0.0,0.0,0.0,0.0,0.0,0.0,0.0,0.0,0.0,0.0,0.0,0.0
526.0,3729.0,13266.47200440891,12778.612278660958,-0.0,0.0,0.0,0.0,35264.79053471924,0.0,0.0,0.0,35264.79053471924,0.758356081518474,0.5,0.2142857142857142,0.0,0.0,0.0,"[1.2572578272934543, 2.0, 1.8065632967398386, 0.8568804355315365, 1.3260886896230772, 1.57798408519497, 0.8506311691420159, 1.0678952099608452]",20.74,0.0,0.0,0.0,1991.568222638007,96.0670955220649,-1079.3476023334385,-1379.8350303690618,5142.474593265453,0.0,0.0,0.0,0.0,0.0,0.0,-0.1,20.17446547181371,0.0,20.42426853607892,0.0,-0.1,20.74,18.37,22.48,19.75,21.91,-1.2,-0.1,414.19,-740.8,-2674.16,0.0,130.0,42.0,1366.0,0.0,0.0,0.0,0.0,0.0,0.0,0.0,0.0,0.0,0.0,0.0,0.0,0.0,0.0
527.0,2826.0,113.20124882778562,2421.2154229342923,-0.0,0.0,0.0,0.0,7397.310567826045,0.0,0.0,0.0,7397.310567826045,0.758356081518474,0.5,0.2142857142857142,0.0,0.0,0.0,"[1.2572578272934543, 2.0, 1.8065632967398386, 0.8568804355315365, 1.3260886896230772, 1.57798408519497, 0.8506311691420159, 1.0678952099608452]",22.78,0.0,0.0,0.0,861.4490537967093,59.93665953816732,-1216.1698353335487,-4251.797387436932,0.0,0.0,0.0,0.0,0.0,0.0,0.0,-0.7,20.890183384489564,0.0,20.624532309679708,0.0,-0.7,22.78,18.54,22.71,21.14,23.53,-1.79,-0.7,0.0,-834.71,-3013.15,0.0,120.0,21.0,557.0,0.0,0.0,0.0,0.0,0.0,0.0,0.0,0.0,0.0,0.0,0.0,0.0,0.0,0.0
528.0,2252.0,4044.67379644477,5895.502163720329,-0.0,0.0,0.0,0.0,19192.246629526493,0.0,0.0,0.0,19192.246629526493,0.758356081518474,0.5,0.2142857142857142,0.0,0.0,0.0,"[1.2572578272934543, 2.0, 1.8065632967398386, 0.8568804355315365, 1.3260886896230772, 1.57798408519497, 0.8506311691420159, 1.0678952099608452]",21.22,0.0,0.0,0.0,355.87134273124104,28.49447748535824,-1176.3587611082512,-1707.0642743348587,4939.943574630657,0.0,0.0,0.0,0.0,0.0,0.0,-1.5,20.501695997036702,0.0,20.689317117817616,0.0,-1.5,21.22,18.66,22.72,20.19,22.57,-2.53,-1.5,0.0,-807.39,-2914.51,0.0,80.0,0.0,215.0,0.0,0.0,0.0,0.0,0.0,0.0,0.0,0.0,0.0,0.0,0.0,0.0,0.0,0.0
529.0,2299.0,5141.339783781986,7923.750417242767,-0.0,0.0,0.0,0.0,26474.87183158061,0.0,0.0,0.0,26474.87183158061,0.758356081518474,0.5,0.2142857142857142,0.0,0.0,0.0,"[1.2572578272934543, 2.0, 1.8065632967398386, 0.8568804355315365, 1.3260886896230772, 1.57798408519497, 0.8506311691420159, 1.0678952099608452]",23.26,0.0,0.0,0.0,222.99328149443784,25.79943330940317,-1318.3116679270072,-4464.574384301538,0.0,0.0,0.0,0.0,0.0,0.0,0.0,-2.2,21.269996192683575,0.0,20.96366416522254,0.0,-2.2,23.26,18.89,23.03,21.54,24.04,-3.21,-2.2,0.0,-904.81,-3266.21,0.0,80.0,0.0,119.0,0.0,0.0,0.0,0.0,0.0,0.0,0.0,0.0,0.0,0.0,0.0,0.0,0.0,0.0
530.0,999.0,0.0,4366.140488124455,-0.0,0.0,1439.6249372930097,0.0,14588.16895219584,0.0,0.0,0.0,14588.16895219584,0.6971475382662202,0.5,0.2142857142857142,0.0,0.0,0.0,"[1.2572578272934543, 2.0, 1.8065632967398386, 0.8568804355315365, 1.3260886896230772, 1.57798408519497, 0.8506311691420159, 1.0678952099608452]",22.49,0.0,0.0,0.0,167.6274226457698,24.676498236088566,-1320.2390926512394,-3078.578206717533,0.0,0.0,0.0,0.0,0.0,0.0,0.0,-3.0,21.15175127815437,0.0,21.087755388248926,0.0,-3.0,22.49,19.07,23.11,20.9,23.2,-4.03,-3.0,0.0,-906.14,-3270.98,0.0,80.0,0.0,79.0,0.0,0.0,0.0,0.0,0.0,0.0,0.0,0.0,0.0,0.0,0.0,0.0,0.0,0.0
531.0,1284.0,0.0,3786.3512163526407,-0.0,0.0,7982.3410933430405,0.0,12109.527612629921,0.0,0.0,0.0,12109.527612629921,0.3577622876989141,0.5,0.2142857142857142,0.0,0.0,0.0,"[1.2572578272934543, 2.0, 1.8065632967398386, 0.8568804355315365, 1.3260886896230772, 1.57798408519497, 0.8506311691420159, 1.0678952099608452]",21.62,0.0,0.0,0.0,130.2554679229189,23.918517061601197,-1301.0997516342793,-1665.0829683426828,4871.3073203538725,0.0,0.0,0.0,0.0,0.0,0.0,-3.5,20.93814347204419,0.0,21.113631253219282,0.0,-3.5,21.62,19.18,23.05,20.6,22.81,-4.56,-3.5,75.92,-893.0,-3223.57,0.0,80.0,0.0,52.0,0.0,0.0,0.0,0.0,0.0,0.0,0.0,0.0,0.0,0.0,0.0,0.0,0.0,0.0
532.0,2517.0,8769.323272382264,5304.476656020354,-0.0,0.0,0.0,0.0,15801.712384542687,0.0,0.0,0.0,15801.712384542687,0.3577622876989141,0.5,0.2142857142857142,0.0,0.0,0.0,"[1.2572578272934543, 2.0, 1.8065632967398386, 0.8568804355315365, 1.3260886896230772, 1.57798408519497, 0.8506311691420159, 1.0678952099608452]",23.26,0.0,0.0,0.0,181.25033791511314,28.97172489151695,-1406.3466735305228,-3956.5063179992644,0.0,0.0,0.0,0.0,0.0,0.0,0.0,-3.9,21.512142870136586,0.0,21.268635773007745,0.0,-3.9,23.26,19.34,23.2,21.65,23.76,-5.0,-3.9,902.4,-965.24,-3484.32,0.0,80.0,8.0,88.0,0.0,0.0,0.0,0.0,0.0,0.0,0.0,0.0,0.0,0.0,0.0,0.0,0.0,0.0
533.0,2823.0,0.0,2671.2936158837415,-0.0,0.0,5566.293615883742,0.0,7906.688208815755,0.0,0.0,0.0,7906.688208815755,0.1211001441664421,0.5,0.2142857142857142,0.0,0.0,0.0,"[1.2572578272934543, 2.0, 1.8065632967398386, 0.8568804355315365, 1.3260886896230772, 1.57798408519497, 0.8506311691420159, 1.0678952099608452]",21.04,0.0,0.0,0.0,132.73236160825405,32.508970372457966,-1312.095330540038,-709.5199192097692,798.1921386708556,0.0,0.0,0.0,0.0,0.0,0.0,-4.3,20.795667797775376,0.0,21.1140614046898,0.0,-4.3,21.04,19.32,22.91,20.23,21.94,-5.43,-4.3,1014.39,-900.55,-3250.81,0.0,80.0,17.0,52.0,0.0,0.0,0.0,0.0,0.0,0.0,0.0,0.0,0.0,0.0,0.0,0.0,0.0,0.0
