,load_elec,grid,hp_elec,ev,pv,bat_pow,cool,load_th_sh,load_th_dhw,tes_pow,dh,hp_th,bat_soc,tes_soc,ev_soc,eh_th_in,eh_elec_in,eh_th_out,temp_slack,temp_zone_1,temp_zone_2,temp_update,Qsolar_1,QconvInt_1,QradInt_1,Qvent_1,Qconduc_1,Qheating_1,Qsolar_2,QconvInt_2,QradInt_2,Qvent_2,Qconduc_2,Qheating_2,temp_amb,temp_aggregate_1,temp_aggregate_2,temp_wall_1,temp_wall_2,_Tamb,_Tz_1,_TEW_1,_TIW_1,_T1_1,_T2_1,_Taeq_1,_Tvent_1,_Qheating_1,_Qinfvent_1,_Qenvelope_1,_Qsolar_1,_Qint_people_1,_Qint_lighting_1,_Qint_appliances_1,_Tz_2,_TEW_2,_TIW_2,_T1_2,_T2_2,_Taeq_2,_Tvent_2,_Qheating_2,_Qinfvent_2,_Qenvelope_2,_Qsolar_2,_Qint_people_2,_Qint_lighting_2,_Qint_appliances_2
390.0,1804.0,6003.259458517354,17399.243161224767,-0.0,0.0,13230.0,0.0,34248.81760580528,0.0,0.0,0.0,34248.81760580527,0.0,0.5,0.8,0.0,0.0,0.0,"[2.0, 2.0, 2.0, 2.0, 2.0, 2.0, 2.0, 2.0, 2.0]",20.0,0.0,0.0,0.0,280.08199709603775,98.72405656855007,-1825.0283602858099,-1441.3531956717293,2896.8951752882695,0.0,0.0,0.0,0.0,0.0,0.0,-6.2,19.480147761413434,0.0,19.0,0.0,-6.2,20.0,18.0,20.0,20.0,20.0,-6.59,-6.2,9656.16,-1271.28,-1004.31,0.0,268.0,22.0,62.0,0.0,0.0,0.0,0.0,0.0,0.0,0.0,0.0,0.0,0.0,0.0,0.0,0.0,0.0
391.0,2279.0,17992.443493403123,15623.48127593611,-0.0,0.0,0.0,0.0,30604.449428881417,0.0,0.0,0.0,30604.449428881417,0.0,0.5,0.8,0.0,0.0,0.0,"[2.0, 2.0, 2.0, 2.0, 2.0, 2.0, 2.0, 2.0, 2.0]",20.0,0.0,0.0,0.0,1789.4526364951876,123.64102686883423,-1831.9941173861375,-1372.2334064484094,12116.779157641973,0.0,0.0,0.0,0.0,0.0,0.0,-6.3,19.505762454659912,0.0,19.039445204187807,0.0,-6.3,20.0,18.05,20.02,19.49,20.12,-6.69,-6.3,0.0,-1276.13,-1008.15,0.0,214.0,33.0,1196.0,0.0,0.0,0.0,0.0,0.0,0.0,0.0,0.0,0.0,0.0,0.0,0.0,0.0,0.0
392.0,1308.0,1977.6131804378022,0.0,-0.0,0.0,-659.725114535613,0.0,52792.47172194964,0.0,52792.47172194964,0.0,0.0,0.02394557823129262,0.3004819662813695,0.8,0.0,0.0,0.0,"[2.0, 2.0, 2.0, 2.0, 2.0, 2.0, 2.0, 2.0, 2.0]",24.0,0.0,0.0,2.012471329300013,414.02177325729025,96.64764237685971,-2103.6586442989105,-8601.756455248327,10201.804141648478,0.0,0.0,0.0,0.0,0.0,0.0,-6.2,20.83357170060446,0.0,19.344149064667373,0.0,-6.2,24.0,18.28,20.41,22.22,22.31,-6.59,-6.2,10287.47,-1465.37,-1157.64,3.2,228.0,34.0,180.0,0.0,0.0,0.0,0.0,0.0,0.0,0.0,0.0,0.0,0.0,0.0,0.0,0.0,0.0
393.0,2867.0,103679.60909689305,84315.30053203291,-0.0,21.089480624329624,-16000.0,0.0,91593.57714408134,0.0,-80000.0,0.0,171593.57714408136,0.6046863189720333,0.5908523366517398,0.8,0.0,0.0,0.0,"[2.0, 2.0, 2.0, 2.0, 2.0, 2.0, 2.0, 2.0, 2.0]",24.0,0.0,0.0,32.59192053867027,429.31071876765805,72.3284276772137,-2054.898344596618,-7867.300017730946,9393.941261963264,0.0,0.0,0.0,0.0,0.0,0.0,-5.5,21.104875595384318,0.0,19.691211800665165,0.0,-5.5,24.0,18.54,20.85,22.2,22.46,-5.86,-5.5,4116.14,-1431.4,-1130.81,51.8,166.0,23.0,225.0,0.0,0.0,0.0,0.0,0.0,0.0,0.0,0.0,0.0,0.0,0.0,0.0,0.0,0.0
394.0,2135.0,2041.5961592460271,0.0,-0.0,103.61182155020308,0.0,0.0,71438.73920426838,0.0,71438.73920426838,0.0,0.0,0.6046863189720333,0.32086466014278897,0.8,0.0,0.0,0.0,"[2.0, 2.0, 2.0, 2.0, 2.0, 2.0, 2.0, 2.0, 2.0]",24.0,0.0,0.0,46.24030958960585,431.17697502713963,41.308058086203395,-2020.0695590949804,-7207.200276621557,0.0,0.0,0.0,0.0,0.0,0.0,0.0,-5.0,21.348773858382668,0.0,20.006149556220205,0.0,-5.0,24.0,18.78,21.23,22.29,22.65,-5.33,-5.0,0.0,-1407.14,-1111.64,73.49,92.0,7.0,267.0,0.0,0.0,0.0,0.0,0.0,0.0,0.0,0.0,0.0,0.0,0.0,0.0,0.0,0.0
395.0,7230.0,4726.201309748017,14300.904647924444,-0.0,828.3343447251689,16000.0,0.0,30604.050264184436,0.0,0.0,0.0,30604.050264184436,0.0,0.32086466014278897,0.8,0.0,0.0,0.0,"[2.0, 2.0, 2.0, 2.0, 2.0, 2.0, 2.0, 2.0, 2.0]",20.78,0.0,0.0,81.0034302127578,1154.2794964893349,64.77783061652156,-1753.8234583466408,-771.7774469356305,3120.1572230640586,0.0,0.0,0.0,0.0,0.0,0.0,-4.4,20.50506762256618,0.0,20.06045090357383,0.0,-4.4,20.78,18.86,21.26,20.06,20.97,-4.74,-4.4,9255.63,-1221.68,-965.13,128.74,128.0,0.0,779.0,0.0,0.0,0.0,0.0,0.0,0.0,0.0,0.0,0.0,0.0,0.0,0.0,0.0,0.0
396.0,4758.0,29369.22811944028,0.0,-0.0,1273.266021156923,-16000.0,0.0,41049.407999999996,48688.24,80000.0,0.0,0.0,0.5807407407407407,0.018521500656772324,0.8,38950.592,9737.648,48688.24,"[2.0, 2.0, 2.0, 2.0, 2.0, 2.0, 2.0, 2.0, 2.0]",21.48,0.0,0.0,91.73624475037003,373.61014733082436,53.32609174113844,-1774.6738089568103,-2065.8530571413603,0.0,0.0,0.0,0.0,0.0,0.0,0.0,-4.0,20.725868459911073,0.0,20.11031579845072,0.0,-4.0,21.48,18.94,21.28,20.71,21.45,-4.33,-4.0,0.0,-1236.21,-976.6,145.79,150.0,0.0,195.0,0.0,0.0,0.0,0.0,0.0,0.0,0.0,0.0,0.0,0.0,0.0,0.0,0.0,0.0
397.0,3548.0,2783.6955603086203,0.0,-0.0,778.222917492923,0.0,0.0,4900.789073781956,0.0,4900.789073781956,0.0,0.0,0.5807407407407407,0.0,0.8,0.0,0.0,0.0,"[2.0, 2.0, 2.0, 2.0, 2.0, 2.0, 2.0, 2.0, 2.0]",20.25,0.0,0.0,80.61382396847995,562.6044831467824,86.89478784013235,-1675.0844026587838,282.18181619205336,0.0,0.0,0.0,0.0,0.0,0.0,0.0,-3.8,20.36398782767882,0.0,20.088178832421313,0.0,-3.8,20.25,18.97,21.21,19.89,20.79,-4.16,-3.8,0.0,-1166.83,-921.8,128.12,248.0,0.0,282.0,0.0,0.0,0.0,0.0,0.0,0.0,0.0,0.0,0.0,0.0,0.0,0.0,0.0,0.0
398.0,2438.0,42041.53045286864,31294.56769740129,-0.0,163.9745333700923,-8262.729636573102,0.0,47533.29191802593,0.0,-20929.036703788628,0.0,68462.32862181455,0.8806472238459866,0.07596465173967724,0.8,0.0,0.0,0.0,"[2.0, 2.0, 2.0, 2.0, 2.0, 2.0, 2.0, 2.0, 2.0]",20.0,0.0,0.0,53.78651909936608,1101.6654257893356,124.96238135445535,-1664.815946978277,627.6128623574193,0.0,0.0,0.0,0.0,0.0,0.0,0.0,-3.9,20.244294020524332,0.0,20.033537162480137,0.0,-3.9,20.0,18.98,21.09,19.78,20.64,-4.3,-3.9,8429.25,-1159.68,-916.15,85.48,334.0,0.0,632.0,0.0,0.0,0.0,0.0,0.0,0.0,0.0,0.0,0.0,0.0,0.0,0.0,0.0,0.0
399.0,1811.0,0.0,0.0,-0.0,1.026965899005563,1809.9730341009945,0.0,20100.2468503186,0.0,20100.2468503186,0.0,0.0,0.8122431031316633,0.0,0.8,0.0,0.0,0.0,"[2.0, 2.0, 2.0, 2.0, 2.0, 2.0, 2.0, 2.0, 2.0]",20.09,0.0,0.0,19.100203582268836,699.3436436972568,104.35554354298297,-1691.712103222696,324.75080871338014,11134.662316545246,0.0,0.0,0.0,0.0,0.0,0.0,-4.2,20.21859012950964,0.0,19.98155351961264,0.0,-4.2,20.09,18.98,20.99,19.81,20.61,-4.62,-4.2,0.0,-1178.42,-930.95,30.36,296.0,0.0,357.0,0.0,0.0,0.0,0.0,0.0,0.0,0.0,0.0,0.0,0.0,0.0,0.0,0.0,0.0
400.0,4461.0,81052.68549398547,76186.42206651554,-0.0,0.0,0.0,0.0,80860.62660956221,0.0,-80000.0,0.0,160860.6266095622,0.8122431031316633,0.29037037037037033,0.8,0.0,0.0,0.0,"[2.0, 2.0, 2.0, 2.0, 2.0, 2.0, 2.0, 2.0, 2.0]",24.0,0.0,0.0,0.0,1029.3121061909742,66.06772428105647,-1999.1722877939978,-6879.102452881955,7789.131785057379,0.0,0.0,0.0,0.0,0.0,0.0,-4.7,21.470050447291865,0.0,20.221296151141853,0.0,-4.7,24.0,19.16,21.28,22.64,22.83,-5.16,-4.7,0.0,-1392.59,-1100.14,0.0,142.0,0.0,680.0,0.0,0.0,0.0,0.0,0.0,0.0,0.0,0.0,0.0,0.0,0.0,0.0,0.0,0.0
401.0,3699.0,0.0,2189.952508863811,-0.0,0.0,5888.952508863811,0.0,4540.37344950681,0.0,0.0,0.0,4540.37344950681,0.5896825396825397,0.29037037037037033,0.8,0.0,0.0,0.0,"[2.0, 2.0, 2.0, 2.0, 2.0, 2.0, 2.0, 2.0, 2.0]",24.0,0.0,0.0,0.0,177.72501917216545,5.788791079863994,-2027.0353161953078,-6326.473314370138,1172.730915129546,0.0,0.0,0.0,0.0,0.0,0.0,-5.1,21.674654831554143,0.0,20.48522710185305,0.0,-5.1,24.0,19.37,21.6,22.43,22.8,-5.54,-5.1,8581.99,-1412.0,-1115.48,0.0,0.0,3.0,130.0,0.0,0.0,0.0,0.0,0.0,0.0,0.0,0.0,0.0,0.0,0.0,0.0,0.0,0.0
402.0,3070.0,0.0,199.8289301815709,-0.0,0.0,3269.8289301815707,0.0,406.68017228620903,0.0,0.0,0.0,406.68017228620903,0.46610623846630495,0.2888334082680037,0.5900874635568514,0.0,0.0,0.0,"[1.364461937783986, 1.2382121287659444, 1.5307466801040377, 0.45861161420758023, 1.0808436110654824, 0.9709139280823109, 1.6402515454967208, 1.0688058488448462, 1.9623196780350973]",21.41,0.0,0.0,0.0,409.78680713000495,84.03185312128656,-1874.5944161274151,-1115.96183288241,406.68017228620903,0.0,0.0,0.0,0.0,0.0,0.0,-5.5,21.01245080934407,0.0,20.548026775930023,0.0,-5.5,21.41,19.44,21.65,20.73,21.52,-5.94,-5.5,0.0,-1305.81,-1031.59,0.0,220.0,16.0,183.0,0.0,0.0,0.0,0.0,0.0,0.0,0.0,0.0,0.0,0.0,0.0,0.0,0.0,0.0
403.0,3472.0,3489.4472361809044,0.0,-0.0,0.0,0.0,0.0,66029.57453264682,0.0,66029.57453264682,0.0,0.0,0.46610623846630495,0.039288530971530455,0.5900874635568514,0.0,0.0,0.0,"[1.364461937783986, 1.2382121287659444, 1.5307466801040377, 0.45861161420758023, 1.0808436110654824, 0.9709139280823109, 1.6402515454967208, 1.0688058488448462, 1.9623196780350973]",20.64,0.0,0.0,0.0,702.5737026078981,46.9395450606363,-1841.4353695785958,318.71107598853274,8155.269768666617,0.0,0.0,0.0,0.0,0.0,0.0,-5.8,20.766861944874563,0.0,20.514436265155407,0.0,-5.8,20.64,19.46,21.57,20.34,21.18,-6.24,-5.8,7206.67,-1282.71,-1013.34,0.0,88.0,8.0,468.0,0.0,0.0,0.0,0.0,0.0,0.0,0.0,0.0,0.0,0.0,0.0,0.0,0.0,0.0
404.0,5022.0,34654.247394793456,14749.658238013599,-0.0,0.0,-14709.317919805884,0.0,11802.470197868952,0.0,-17230.882003763927,0.0,29033.35220163288,1.0,0.10183025083704396,0.5900874635568514,0.0,0.0,0.0,"[1.364461937783986, 1.2382121287659444, 1.5307466801040377, 0.45861161420758023, 1.0808436110654824, 0.9709139280823109, 1.6402515454967208, 1.0688058488448462, 1.9623196780350973]",23.36,0.0,0.0,0.0,724.179207765742,16.70569599678142,-2059.388606604815,-4744.155525508462,0.0,0.0,0.0,0.0,0.0,0.0,0.0,-6.2,21.62463393233222,0.0,20.665507576093958,0.0,-6.2,23.36,19.59,21.74,22.31,22.71,-6.64,-6.2,0.0,-1434.53,-1133.28,0.0,0.0,0.0,531.0,0.0,0.0,0.0,0.0,0.0,0.0,0.0,0.0,0.0,0.0,0.0,0.0,0.0,0.0
405.0,4140.0,4160.804020100502,0.0,-0.0,0.0,0.0,0.0,26944.28437148183,0.0,26944.28437148183,0.0,0.0,1.0,0.0,0.5900874635568514,0.0,0.0,0.0,"[1.364461937783986, 1.2382121287659444, 1.5307466801040377, 0.45861161420758023, 1.0808436110654824, 0.9709139280823109, 1.6402515454967208, 1.0688058488448462, 1.9623196780350973]",21.12,0.0,0.0,0.0,429.66961420217376,56.44071302867393,-1931.0019563808032,-321.00645809194606,7835.462427037552,0.0,0.0,0.0,0.0,0.0,0.0,-6.6,21.016690662073866,0.0,20.677196093199864,0.0,-6.6,21.12,19.63,21.73,20.58,21.4,-7.04,-6.6,2980.29,-1345.1,-1062.63,0.0,90.0,35.0,264.0,0.0,0.0,0.0,0.0,0.0,0.0,0.0,0.0,0.0,0.0,0.0,0.0,0.0,0.0
406.0,2969.0,49279.30655215638,54612.9100193956,-0.0,0.0,8549.0,0.0,40896.091800155526,0.0,-62439.28978967549,0.0,103335.38158983101,0.6769085411942555,0.22663149627363693,0.5900874635568514,0.0,0.0,0.0,"[1.364461937783986, 1.2382121287659444, 1.5307466801040377, 0.45861161420758023, 1.0808436110654824, 0.9709139280823109, 1.6402515454967208, 1.0688058488448462, 1.9623196780350973]",23.36,0.0,0.0,0.0,499.4388866720223,57.32161601908803,-2115.114663407435,-4434.784391780883,0.0,0.0,0.0,0.0,0.0,0.0,0.0,-7.0,21.739456146157746,0.0,20.824292841653744,0.0,-7.0,23.36,19.75,21.9,22.37,22.8,-7.42,-7.0,0.0,-1473.35,-1163.95,0.0,97.0,30.0,312.0,0.0,0.0,0.0,0.0,0.0,0.0,0.0,0.0,0.0,0.0,0.0,0.0,0.0,0.0
407.0,1800.0,15425.356927596858,13548.230142958873,-0.0,0.0,0.0,0.0,25247.697170374333,0.0,0.0,0.0,25247.697170374333,0.6769085411942555,0.22663149627363693,0.5900874635568514,0.0,0.0,0.0,"[1.364461937783986, 1.2382121287659444, 1.5307466801040377, 0.45861161420758023, 1.0808436110654824, 0.9709139280823109, 1.6402515454967208, 1.0688058488448462, 1.9623196780350973]",21.15,0.0,0.0,0.0,597.7762357293188,73.99585119478321,-1981.4547184764456,-75.81843768643279,7391.036152992348,0.0,0.0,0.0,0.0,0.0,0.0,-7.3,21.1320332874886,0.0,20.827854996110247,0.0,-7.3,21.15,19.78,21.88,20.7,21.52,-7.73,-7.3,0.0,-1380.25,-1090.39,0.0,202.0,0.0,332.0,0.0,0.0,0.0,0.0,0.0,0.0,0.0,0.0,0.0,0.0,0.0,0.0,0.0,0.0
408.0,1517.0,1524.6231155778894,0.0,-0.0,0.0,0.0,0.0,41114.21166825239,0.0,41114.211668252385,0.0,0.0,0.6769085411942555,0.07124898807918348,0.5900874635568514,0.0,0.0,0.0,"[1.364461937783986, 1.2382121287659444, 1.5307466801040377, 0.45861161420758023, 1.0808436110654824, 0.9709139280823109, 1.6402515454967208, 1.0688058488448462, 1.9623196780350973]",23.36,0.0,0.0,0.0,303.1948630788477,42.660873392910744,-2156.9092060094,-4171.983843330365,5987.064552059105,0.0,0.0,0.0,0.0,0.0,0.0,-7.6,21.83695101540764,0.0,20.960417147647988,0.0,-7.6,23.36,19.89,22.03,22.42,22.86,-7.99,-7.6,7570.41,-1502.46,-1186.95,0.0,80.0,21.0,178.0,0.0,0.0,0.0,0.0,0.0,0.0,0.0,0.0,0.0,0.0,0.0,0.0,0.0,0.0
409.0,1141.0,9743.04940461355,8553.334157590481,-0.0,0.0,0.0,0.0,15531.790449375076,0.0,0.0,0.0,15531.790449375078,0.6769085411942555,0.07124898807918348,0.5900874635568514,0.0,0.0,0.0,"[1.364461937783986, 1.2382121287659444, 1.5307466801040377, 0.45861161420758023, 1.0808436110654824, 0.9709139280823109, 1.6402515454967208, 1.0688058488448462, 1.9623196780350973]",23.36,0.0,0.0,0.0,312.4543652893522,31.051830412096532,-2170.840720210055,-3855.642173333454,0.0,0.0,0.0,0.0,0.0,0.0,0.0,-7.8,21.954064486726775,0.0,21.11358666243165,0.0,-7.8,23.36,20.02,22.21,22.35,22.87,-8.19,-7.8,0.0,-1512.17,-1194.61,0.0,80.0,0.0,187.0,0.0,0.0,0.0,0.0,0.0,0.0,0.0,0.0,0.0,0.0,0.0,0.0,0.0,0.0
410.0,1064.0,1655.2099560773827,16582.933906296996,-0.0,0.0,16000.0,0.0,29638.273791871954,0.0,0.0,0.0,29638.273791871954,0.07222222222222222,0.07124898807918348,0.5900874635568514,0.0,0.0,0.0,"[1.364461937783986, 1.2382121287659444, 1.5307466801040377, 0.45861161420758023, 1.0808436110654824, 0.9709139280823109, 1.6402515454967208, 1.0688058488448462, 1.9623196780350973]",21.26,0.0,0.0,0.0,176.07410017339328,27.905748303474798,-2045.2362288561826,241.602645102377,6290.014036951479,0.0,0.0,0.0,0.0,0.0,0.0,-8.1,21.365523363821836,0.0,21.101268347852947,0.0,-8.1,21.26,20.04,22.16,20.89,21.74,-8.48,-8.1,0.0,-1424.67,-1125.49,0.0,80.0,0.0,87.0,0.0,0.0,0.0,0.0,0.0,0.0,0.0,0.0,0.0,0.0,0.0,0.0,0.0,0.0
411.0,862.0,8343.571041306226,7439.853186099695,-0.0,0.0,0.0,0.0,13297.068356355332,0.0,0.0,0.0,13297.068356355328,0.07222222222222222,0.07124898807918348,0.5900874635568514,0.0,0.0,0.0,"[1.364461937783986, 1.2382121287659444, 1.5307466801040377, 0.45861161420758023, 1.0808436110654824, 0.9709139280823109, 1.6402515454967208, 1.0688058488448462, 1.9623196780350973]",23.0,0.0,0.0,0.0,121.52199412700972,26.6473154600261,-2166.019068315011,-2996.914426171493,0.0,0.0,0.0,0.0,0.0,0.0,0.0,-8.1,21.902440490320743,0.0,21.18871424948147,0.0,-8.1,23.0,20.12,22.26,22.27,22.81,-8.48,-8.1,7377.52,-1508.81,-1191.96,0.0,80.0,0.0,47.0,0.0,0.0,0.0,0.0,0.0,0.0,0.0,0.0,0.0,0.0,0.0,0.0,0.0,0.0
412.0,749.0,752.7638190954774,0.0,-0.0,0.0,0.0,0.0,18852.482245751948,0.0,18852.482245751948,0.0,0.0,0.07222222222222222,0.0,0.5900874635568514,0.0,0.0,0.0,"[1.364461937783986, 1.2382121287659444, 1.5307466801040377, 0.45861161420758023, 1.0808436110654824, 0.9709139280823109, 1.6402515454967208, 1.0688058488448462, 1.9623196780350973]",21.14,0.0,0.0,0.0,191.0759293361488,28.251817335423183,-2043.7107816551172,578.1563267951088,0.0,0.0,0.0,0.0,0.0,0.0,0.0,-8.2,21.36809950108884,0.0,21.159243021591173,0.0,-8.2,21.14,20.13,22.19,20.88,21.73,-8.58,-8.2,0.0,-1423.61,-1124.65,0.0,80.0,0.0,98.0,0.0,0.0,0.0,0.0,0.0,0.0,0.0,0.0,0.0,0.0,0.0,0.0,0.0,0.0
413.0,1879.0,103756.10586146865,0.0,-0.0,0.0,0.0,0.0,11222.492798945139,0.0,-80000.0,0.0,0.0,0.07222222222222222,0.29037037037037033,0.5900874635568514,405433.3013286452,101358.3253321613,506791.6266608065,"[1.364461937783986, 1.2382121287659444, 1.5307466801040377, 0.45861161420758023, 1.0808436110654824, 0.9709139280823109, 1.6402515454967208, 1.0688058488448462, 1.9623196780350973]",20.68,0.0,0.0,0.0,188.34832403382964,28.18889569325075,-2018.4978384257358,1290.683421080228,2916.849346150766,0.0,0.0,0.0,0.0,0.0,0.0,-8.3,21.169518849948833,0.0,21.074373373873136,0.0,-8.3,20.68,20.1,22.05,20.65,21.49,-8.67,-8.3,0.0,-1406.05,-1110.78,0.0,80.0,0.0,96.0,0.0,0.0,0.0,0.0,0.0,0.0,0.0,0.0,0.0,0.0,0.0,0.0,0.0,0.0
414.0,3736.0,4760.334293611253,0.0,-0.0,0.0,-1000.5326221431968,0.0,7354.3801201820315,0.0,7354.3801201820315,0.0,0.0,0.10853785072964195,0.2347817073304457,0.5900874635568514,0.0,0.0,0.0,"[1.3644619377839824, 1.2382121287659444, 1.5307466801040377, 0.45861161420758023, 1.0808436110654824, 0.4896028194353157, 1.417469405445246, 1.0688058488448462, 1.5732934458172778]",21.57,0.0,0.0,0.0,72.28154051145825,1.6674235175695173,-2080.410677537529,-509.56402965065354,0.0,0.0,0.0,0.0,0.0,0.0,0.0,-8.3,21.392883423231133,0.0,21.05591940284407,0.0,-8.3,21.57,20.1,22.01,21.3,21.96,-8.67,-8.3,0.0,-1449.18,-1144.85,0.0,0.0,0.0,53.0,0.0,0.0,0.0,0.0,0.0,0.0,0.0,0.0,0.0,0.0,0.0,0.0,0.0,0.0
415.0,1911.0,1920.6030150753768,0.0,-0.0,0.0,0.0,0.0,13346.873030578547,0.0,13346.873030578548,0.0,0.0,0.10853785072964195,0.1843400103138979,0.5900874635568514,0.0,0.0,0.0,"[1.3644619377839824, 1.2382121287659444, 1.5307466801040377, 0.45861161420758023, 1.0808436110654824, 0.4896028194353157, 1.417469405445246, 1.0688058488448462, 1.5732934458172778]",20.64,0.0,0.0,0.0,118.65083065088426,2.7370914345009068,-2015.5792970867838,1161.1702082774282,733.2795515393323,0.0,0.0,0.0,0.0,0.0,0.0,-8.3,21.079693626166655,0.0,20.985653740559773,0.0,-8.3,20.64,20.07,21.9,20.59,21.37,-8.67,-8.3,2841.41,-1404.02,-1109.17,0.0,0.0,0.0,87.0,0.0,0.0,0.0,0.0,0.0,0.0,0.0,0.0,0.0,0.0,0.0,0.0,0.0,0.0
416.0,1364.0,0.0,0.0,-0.0,0.0,1364.0,0.0,21691.880111715913,0.0,21691.880111715913,0.0,0.0,0.05698834203727611,0.10236011571179694,0.5900874635568514,0.0,0.0,0.0,"[1.3644619377839824, 1.2382121287659444, 1.5307466801040377, 0.45861161420758023, 1.0808436110654824, 0.4896028194353157, 1.417469405445246, 1.0688058488448462, 1.5732934458172778]",20.64,0.0,0.0,2.0115816502558532,69.55393520913907,1.6045018753970823,-2001.647782886129,989.047145134475,939.5293814238646,0.0,0.0,0.0,0.0,0.0,0.0,-8.1,21.015924502212616,0.0,20.90956492989241,0.0,-8.1,20.64,20.04,21.78,20.63,21.35,-8.47,-8.1,0.0,-1394.31,-1101.51,3.2,0.0,0.0,51.0,0.0,0.0,0.0,0.0,0.0,0.0,0.0,0.0,0.0,0.0,0.0,0.0,0.0,0.0
417.0,1485.0,61580.64695194226,59787.74371718255,-0.0,0.0,0.0,0.0,29137.077485260663,0.0,-80000.0,0.0,109137.07748526067,0.05698834203727611,0.39273048608216726,0.5900874635568514,0.0,0.0,0.0,"[1.3644619377839824, 1.2382121287659444, 1.5307466801040377, 0.45861161420758023, 1.0808436110654824, 0.4896028194353157, 1.417469405445246, 1.0688058488448462, 1.5732934458172778]",20.64,0.0,0.0,12.125847795271891,96.82998823233085,2.2337182971214298,-1973.784754484819,837.0861383169814,8403.02979534032,0.0,0.0,0.0,0.0,0.0,0.0,-7.7,20.959524870804273,0.0,20.84197054875912,0.0,-7.7,20.64,20.01,21.68,20.62,21.3,-8.09,-7.7,4117.61,-1374.9,-1086.17,19.27,0.0,0.0,71.0,0.0,0.0,0.0,0.0,0.0,0.0,0.0,0.0,0.0,0.0,0.0,0.0,0.0,0.0
418.0,1509.0,0.0,0.0,-0.0,1.0884696936741414,1507.9115303063259,0.0,13841.24550064533,0.0,13841.24550064533,0.0,0.0,0.0,0.3404204123835832,0.5900874635568514,0.0,0.0,0.0,"[1.3644619377839824, 1.2382121287659444, 1.5307466801040377, 0.45861161420758023, 1.0808436110654824, 0.4896028194353157, 1.417469405445246, 1.0688058488448462, 1.5732934458172778]",23.36,0.0,0.0,18.053848592150196,141.8354757205973,3.271925392966604,-2142.977691808745,-4246.748720133225,0.0,0.0,0.0,0.0,0.0,0.0,0.0,-7.4,21.80919762379077,0.0,20.977197756570305,0.0,-7.4,23.36,20.1,21.85,22.56,22.82,-7.79,-7.4,0.0,-1492.76,-1179.28,28.69,0.0,0.0,104.0,0.0,0.0,0.0,0.0,0.0,0.0,0.0,0.0,0.0,0.0,0.0,0.0,0.0,0.0
419.0,3394.0,80583.94972040338,60791.40154235483,-0.0,4.371570553460676,-16000.0,0.0,33866.87881345721,0.0,-80000.0,0.0,113866.87881345721,0.5807407407407407,0.6307907827539536,0.5900874635568514,0.0,0.0,0.0,"[1.3644619377839824, 1.2382121287659444, 1.5307466801040377, 0.45861161420758023, 1.0808436110654824, 0.4896028194353157, 1.417469405445246, 1.0688058488448462, 1.5732934458172778]",21.06,0.0,0.0,21.98920711842484,69.55393520913907,1.6045018753970823,-1968.6182003937051,266.86713501244463,7834.579773932786,0.0,0.0,0.0,0.0,0.0,0.0,-7.2,21.174403810616322,0.0,20.970758358969512,0.0,-7.2,21.06,20.11,21.83,20.78,21.48,-7.6,-7.2,0.0,-1371.3,-1083.33,34.95,0.0,0.0,51.0,0.0,0.0,0.0,0.0,0.0,0.0,0.0,0.0,0.0,0.0,0.0,0.0,0.0,0.0
420.0,4015.0,0.0,0.0,-0.0,10.675182973469315,4004.3248170265306,0.0,8742.457998264203,0.0,8742.457998264203,0.0,0.0,0.42940571364223235,0.5977505030930912,0.5900874635568514,0.0,0.0,0.0,"[1.3644619377839824, 1.2382121287659444, 1.5307466801040377, 0.45861161420758023, 1.0808436110654824, 0.4896028194353157, 1.417469405445246, 1.0688058488448462, 1.5732934458172778]",23.36,0.0,0.0,26.11394788694814,133.6526598136398,3.083160466449298,-2108.148906307107,-3991.4511914601408,0.0,0.0,0.0,0.0,0.0,0.0,0.0,-6.9,21.903381515559758,0.0,21.10077381704327,0.0,-6.9,23.36,20.21,22.0,22.57,22.88,-7.3,-6.9,0.0,-1468.5,-1160.11,41.5,0.0,0.0,98.0,0.0,0.0,0.0,0.0,0.0,0.0,0.0,0.0,0.0,0.0,0.0,0.0,0.0,0.0
421.0,4964.0,489.3177088453173,7061.576564448781,-0.0,11538.70544414769,0.0,0.0,14909.86976677934,0.0,0.0,0.0,14909.86976677934,0.42940571364223235,0.5977505030930912,0.5900874635568514,0.0,0.0,0.0,"[1.3644619377839824, 1.2382121287659444, 1.5307466801040377, 0.45861161420758023, 1.0808436110654824, 0.4896028194353157, 1.417469405445246, 1.0688058488448462, 1.5732934458172778]",21.17,0.0,0.0,1099.633007737214,106.37660679044798,2.4539440447249508,-1801.9474737045236,306.6183350532332,0.0,0.0,0.0,0.0,0.0,0.0,0.0,-4.7,21.29496613540097,0.0,21.091421337728583,0.0,-4.7,21.17,20.21,21.97,20.89,21.61,-4.64,-4.7,0.0,-1255.2,-991.61,1747.62,0.0,0.0,78.0,0.0,0.0,0.0,0.0,0.0,0.0,0.0,0.0,0.0,0.0,0.0,0.0,0.0,0.0
422.0,1854.0,0.0,7146.774089937157,-0.0,8732.298906963691,268.47518297346596,0.0,43029.357672649385,0.0,27258.277256164984,0.0,15771.080416484394,0.41925925925925933,0.4947335822459068,0.5900874635568514,0.0,0.0,0.0,"[1.3644619377839824, 1.2382121287659444, 1.5307466801040377, 0.45861161420758023, 1.0808436110654824, 0.4896028194353157, 1.417469405445246, 1.0688058488448462, 1.5732934458172778]",21.07,0.0,0.0,1060.2183953344336,40.91407953478768,0.9438246325865193,-1725.634960440342,452.155121878091,6338.3577531728715,0.0,0.0,0.0,0.0,0.0,0.0,-3.7,21.252745966470968,0.0,21.07545637299508,0.0,-3.7,21.07,20.22,21.93,21.12,21.78,-3.7,-3.7,0.0,-1202.05,-949.62,1684.98,0.0,0.0,30.0,0.0,0.0,0.0,0.0,0.0,0.0,0.0,0.0,0.0,0.0,0.0,0.0,0.0,0.0
423.0,922.0,50342.059827928846,34220.732028075596,-0.0,1052.3824992864,-16000.0,0.0,28599.00964728583,0.0,-47243.52436705838,0.0,75842.53401434422,1.0,0.6662100780967113,0.5900874635568514,0.0,0.0,0.0,"[1.3644619377839824, 1.2382121287659444, 1.5307466801040377, 0.45861161420758023, 1.0808436110654824, 0.4896028194353157, 1.417469405445246, 1.0688058488448462, 1.5732934458172778]",23.36,0.0,0.0,599.2679921285986,137.74406776711854,3.1775429297079487,-1878.278921996299,-3744.2028750958557,4866.891004840222,0.0,0.0,0.0,0.0,0.0,0.0,-3.6,21.993138357184133,0.0,21.22504712146397,0.0,-3.6,23.36,20.33,22.12,22.76,23.08,-3.9,-3.6,0.0,-1308.37,-1033.62,952.4,0.0,0.0,101.0,0.0,0.0,0.0,0.0,0.0,0.0,0.0,0.0,0.0,0.0,0.0,0.0,0.0,0.0
424.0,733.0,12356.80717152093,11562.023135663325,-0.0,0.0,0.0,0.0,24742.821934055675,0.0,0.0,0.0,24742.821934055675,1.0,0.6662100780967113,0.5900874635568514,0.0,0.0,0.0,"[1.3644619377839824, 1.2382121287659444, 1.5307466801040377, 0.45861161420758023, 1.0808436110654824, 0.4896028194353157, 1.417469405445246, 1.0688058488448462, 1.5732934458172778]",23.36,0.0,0.0,1.0081950768305974,100.9213961858096,2.3281007603800807,-1934.0049787989194,-3423.85184049374,5253.7924875901235,0.0,0.0,0.0,0.0,0.0,0.0,-4.4,22.1122504483493,0.0,21.378730627001502,0.0,-4.4,23.36,20.45,22.31,22.58,23.0,-5.13,-4.4,0.0,-1347.19,-1064.28,1.6,0.0,0.0,74.0,0.0,0.0,0.0,0.0,0.0,0.0,0.0,0.0,0.0,0.0,0.0,0.0,0.0,0.0
425.0,1655.0,24532.54838689929,0.0,-0.0,0.0,0.0,0.0,20479.397080468305,0.0,0.0,0.0,0.0,1.0,0.6662100780967113,0.5900874635568514,91019.54257985918,22754.885644964794,113774.42822482396,"[1.3644619377839824, 1.2382121287659444, 1.5307466801040377, 0.45861161420758023, 1.0808436110654824, 0.4896028194353157, 1.417469405445246, 1.0688058488448462, 1.5732934458172778]",23.36,0.0,0.0,0.0,102.2851988369692,2.3595615814663002,-1975.799521400884,-3167.069815902107,1262.9662317526743,0.0,0.0,0.0,0.0,0.0,0.0,-5.0,22.207519581850722,0.0,21.502991897762698,0.0,-5.0,23.36,20.55,22.45,22.53,23.0,-5.71,-5.0,0.0,-1376.31,-1087.28,0.0,0.0,0.0,75.0,0.0,0.0,0.0,0.0,0.0,0.0,0.0,0.0,0.0,0.0,0.0,0.0,0.0,0.0
426.0,3274.0,4760.334293611253,0.0,-0.0,0.0,-1000.5326221431968,0.0,7979.013328174441,0.0,7354.3801201820315,0.0,0.0,0.10853785072964195,0.2347817073304457,0.5900874635568514,0.0,0.0,0.0,"[1.3644619377839824, 1.2382121287659444, 1.5307466801040377, 0.45861161420758023, 1.0808436110654824, 0.4896028194353157, 1.417469405445246, 1.0688058488448462, 1.5732934458172778]",21.97,0.0,0.0,0.0,1626.2269928774558,76.89024673471523,-1913.3501532938476,-403.75515382174507,0.0,0.0,0.0,0.0,0.0,0.0,0.0,-5.5,21.83267469446481,0.0,21.515301519188483,0.0,-5.5,21.97,20.58,22.45,21.57,22.27,-6.2,-5.5,2522.75,-1332.8,-1052.92,0.0,117.0,8.0,1130.0,0.0,0.0,0.0,0.0,0.0,0.0,0.0,0.0,0.0,0.0,0.0,0.0,0.0,0.0
427.0,4696.0,1920.6030150753768,0.0,-0.0,0.0,0.0,0.0,13346.873030578547,0.0,13346.873030578548,0.0,0.0,0.10853785072964195,0.1843400103138979,0.5900874635568514,0.0,0.0,0.0,"[1.3644619377839824, 1.2382121287659444, 1.5307466801040377, 0.45861161420758023, 1.0808436110654824, 0.4896028194353157, 1.417469405445246, 1.0688058488448462, 1.5732934458172778]",20.64,0.0,0.0,0.0,2572.2035791738886,119.70842423305703,-1862.3326408795783,1163.704101217938,733.2795515393323,0.0,0.0,0.0,0.0,0.0,0.0,-6.1,21.079693626166655,0.0,20.985653740559773,0.0,-6.1,20.64,20.07,21.9,20.59,21.37,-6.8,-6.1,2841.41,-1297.27,-1024.84,0.0,110.0,49.0,1823.0,0.0,0.0,0.0,0.0,0.0,0.0,0.0,0.0,0.0,0.0,0.0,0.0,0.0,0.0
428.0,4099.0,0.0,0.0,-0.0,0.0,1364.0,0.0,21691.880111715913,0.0,21691.880111715913,0.0,0.0,0.05698834203727611,0.10236011571179694,0.5900874635568514,0.0,0.0,0.0,"[1.3644619377839824, 1.2382121287659444, 1.5307466801040377, 0.45861161420758023, 1.0808436110654824, 0.4896028194353157, 1.417469405445246, 1.0688058488448462, 1.5732934458172778]",20.64,0.0,0.0,0.0,581.7694993499196,86.6745620925288,-1904.1271834815436,990.5285151822883,939.5293814238646,0.0,0.0,0.0,0.0,0.0,0.0,-6.7,21.015924502212616,0.0,20.90956492989241,0.0,-6.7,20.64,20.04,21.78,20.63,21.35,-7.37,-6.7,0.0,-1326.38,-1047.84,0.0,157.0,47.0,339.0,0.0,0.0,0.0,0.0,0.0,0.0,0.0,0.0,0.0,0.0,0.0,0.0,0.0,0.0
429.0,3328.0,61580.64695194226,59787.74371718255,-0.0,0.0,0.0,0.0,29137.077485260663,0.0,-80000.0,0.0,109137.07748526067,0.05698834203727611,0.39273048608216726,0.5900874635568514,0.0,0.0,0.0,"[1.3644619377839824, 1.2382121287659444, 1.5307466801040377, 0.45861161420758023, 1.0808436110654824, 0.4896028194353157, 1.417469405445246, 1.0688058488448462, 1.5732934458172778]",20.64,0.0,0.0,0.0,651.8258881673806,90.57570390721979,-1938.955968983181,837.3895213039613,8403.02979534032,0.0,0.0,0.0,0.0,0.0,0.0,-7.2,20.959524870804273,0.0,20.84197054875912,0.0,-7.2,20.64,20.01,21.68,20.62,21.3,-7.86,-7.2,4117.61,-1350.64,-1067.01,0.0,142.0,59.0,397.0,0.0,0.0,0.0,0.0,0.0,0.0,0.0,0.0,0.0,0.0,0.0,0.0,0.0,0.0
430.0,1980.0,0.0,0.0,-0.0,0.0,1507.9115303063259,0.0,13841.24550064533,0.0,13841.24550064533,0.0,0.0,0.0,0.3404204123835832,0.5900874635568514,0.0,0.0,0.0,"[1.3644619377839824, 1.2382121287659444, 1.5307466801040377, 0.45861161420758023, 1.0808436110654824, 0.4896028194353157, 1.417469405445246, 1.0688058488448462, 1.5732934458172778]",23.36,0.0,0.0,0.0,398.73282774692206,82.58465535132058,-2170.8407202100548,-4247.617032232572,0.0,0.0,0.0,0.0,0.0,0.0,0.0,-7.8,21.80919762379077,0.0,20.977197756570305,0.0,-7.8,23.36,20.1,21.85,22.56,22.82,-8.44,-7.8,0.0,-1512.17,-1194.61,0.0,97.0,79.0,233.0,0.0,0.0,0.0,0.0,0.0,0.0,0.0,0.0,0.0,0.0,0.0,0.0,0.0,0.0
431.0,1526.0,80583.94972040338,60791.40154235483,-0.0,0.0,-16000.0,0.0,33866.87881345721,0.0,-80000.0,0.0,113866.87881345721,0.5807407407407407,0.6307907827539536,0.5900874635568514,0.0,0.0,0.0,"[1.3644619377839824, 1.2382121287659444, 1.5307466801040377, 0.45861161420758023, 1.0808436110654824, 0.4896028194353157, 1.417469405445246, 1.0688058488448462, 1.5732934458172778]",21.06,0.0,0.0,0.0,499.9413402803442,92.33750988804795,-2052.2072855976353,264.99122369962623,7834.579773932786,0.0,0.0,0.0,0.0,0.0,0.0,-8.4,21.174403810616322,0.0,20.970758358969512,0.0,-8.4,21.06,20.11,21.83,20.78,21.48,-8.99,-8.4,0.0,-1429.53,-1129.33,0.0,154.0,62.0,279.0,0.0,0.0,0.0,0.0,0.0,0.0,0.0,0.0,0.0,0.0,0.0,0.0,0.0,0.0
432.0,1259.0,0.0,0.0,-0.0,0.0,4004.3248170265306,0.0,8742.457998264203,0.0,8742.457998264203,0.0,0.0,0.42940571364223235,0.5977505030930912,0.5900874635568514,0.0,0.0,0.0,"[1.3644619377839824, 1.2382121287659444, 1.5307466801040377, 0.45861161420758023, 1.0808436110654824, 0.4896028194353157, 1.417469405445246, 1.0688058488448462, 1.5732934458172778]",23.36,0.0,0.0,0.0,105.15636231309466,26.26978560699149,-2261.395562514312,-3994.689436447923,0.0,0.0,0.0,0.0,0.0,0.0,0.0,-9.1,21.903381515559758,0.0,21.10077381704327,0.0,-9.1,23.36,20.21,22.0,22.57,22.88,-9.69,-9.1,0.0,-1575.25,-1244.44,0.0,80.0,0.0,35.0,0.0,0.0,0.0,0.0,0.0,0.0,0.0,0.0,0.0,0.0,0.0,0.0,0.0,0.0
433.0,1360.0,489.3177088453173,7061.576564448781,-0.0,0.0,0.0,0.0,14909.86976677934,0.0,0.0,0.0,14909.86976677934,0.42940571364223235,0.5977505030930912,0.5900874635568514,0.0,0.0,0.0,"[1.3644619377839824, 1.2382121287659444, 1.5307466801040377, 0.45861161420758023, 1.0808436110654824, 0.4896028194353157, 1.417469405445246, 1.0688058488448462, 1.5732934458172778]",21.17,0.0,0.0,0.0,274.2678910568838,30.170927421682446,-2164.166842921555,298.72040788938705,0.0,0.0,0.0,0.0,0.0,0.0,0.0,-9.9,21.29496613540097,0.0,21.091421337728583,0.0,-9.9,21.17,20.21,21.97,20.89,21.61,-10.48,-9.9,0.0,-1507.52,-1190.94,0.0,80.0,0.0,159.0,0.0,0.0,0.0,0.0,0.0,0.0,0.0,0.0,0.0,0.0,0.0,0.0,0.0,0.0
434.0,1138.0,0.0,7146.774089937157,-0.0,0.0,268.47518297346596,0.0,43029.357672649385,0.0,27258.277256164984,0.0,15771.080416484394,0.41925925925925933,0.4947335822459068,0.5900874635568514,0.0,0.0,0.0,"[1.3644619377839824, 1.2382121287659444, 1.5307466801040377, 0.45861161420758023, 1.0808436110654824, 0.4896028194353157, 1.417469405445246, 1.0688058488448462, 1.5732934458172778]",21.07,0.0,0.0,0.0,103.79255966193509,26.238324785905277,-2213.2379574632687,441.95888748975904,6338.3577531728715,0.0,0.0,0.0,0.0,0.0,0.0,-10.7,21.252745966470968,0.0,21.07545637299508,0.0,-10.7,21.07,20.22,21.93,21.12,21.78,-11.25,-10.7,0.0,-1541.7,-1217.94,0.0,80.0,0.0,34.0,0.0,0.0,0.0,0.0,0.0,0.0,0.0,0.0,0.0,0.0,0.0,0.0,0.0,0.0
435.0,1059.0,50342.059827928846,34220.732028075596,-0.0,0.0,-16000.0,0.0,28599.00964728583,0.0,-47243.52436705838,0.0,75842.53401434422,1.0,0.6662100780967113,0.5900874635568514,0.0,0.0,0.0,"[1.3644619377839824, 1.2382121287659444, 1.5307466801040377, 0.45861161420758023, 1.0808436110654824, 0.4896028194353157, 1.417469405445246, 1.0688058488448462, 1.5732934458172778]",23.36,0.0,0.0,0.0,158.34466570831864,27.49675762935397,-2407.6764616211904,-3754.8144052350244,4866.891004840222,0.0,0.0,0.0,0.0,0.0,0.0,-11.2,21.993138357184133,0.0,21.22504712146397,0.0,-11.2,23.36,20.33,22.12,22.76,23.08,-11.75,-11.2,0.0,-1677.14,-1324.94,0.0,80.0,0.0,74.0,0.0,0.0,0.0,0.0,0.0,0.0,0.0,0.0,0.0,0.0,0.0,0.0,0.0,0.0
436.0,1171.0,12356.80717152093,11562.023135663325,-0.0,0.0,0.0,0.0,24742.821934055675,0.0,0.0,0.0,24742.821934055675,1.0,0.6662100780967113,0.5900874635568514,0.0,0.0,0.0,"[1.3644619377839824, 1.2382121287659444, 1.5307466801040377, 0.45861161420758023, 1.0808436110654824, 0.4896028194353157, 1.417469405445246, 1.0688058488448462, 1.5732934458172778]",23.36,0.0,0.0,0.0,181.52931077803166,28.031591587819666,-2435.5394900225,-3433.3295919940997,5253.7924875901235,0.0,0.0,0.0,0.0,0.0,0.0,-11.6,22.1122504483493,0.0,21.378730627001502,0.0,-11.6,23.36,20.45,22.31,22.58,23.0,-12.15,-11.6,0.0,-1696.55,-1340.28,0.0,80.0,0.0,91.0,0.0,0.0,0.0,0.0,0.0,0.0,0.0,0.0,0.0,0.0,0.0,0.0,0.0,0.0
437.0,1116.0,24532.54838689929,0.0,-0.0,0.0,0.0,0.0,20479.397080468305,0.0,0.0,0.0,0.0,1.0,0.6662100780967113,0.5900874635568514,91019.54257985918,22754.885644964794,113774.42822482396,"[1.3644619377839824, 1.2382121287659444, 1.5307466801040377, 0.45861161420758023, 1.0808436110654824, 0.4896028194353157, 1.417469405445246, 1.0688058488448462, 1.5732934458172778]",23.36,0.0,0.0,0.0,146.07044184788234,27.21361023957801,-2463.4025184238108,-3176.2710989563934,1262.9662317526743,0.0,0.0,0.0,0.0,0.0,0.0,-12.0,22.207519581850722,0.0,21.502991897762698,0.0,-12.0,23.36,20.55,22.45,22.53,23.0,-12.52,-12.0,0.0,-1715.96,-1355.61,0.0,80.0,0.0,65.0,0.0,0.0,0.0,0.0,0.0,0.0,0.0,0.0,0.0,0.0,0.0,0.0,0.0,0.0
438.0,785.0,4215.071609609898,0.0,-0.0,0.0,-3408.996251561848,0.0,7979.013328174441,0.0,7979.013328174441,0.0,0.0,1.0,0.6059000756161788,0.5900874635568514,0.0,0.0,0.0,"[0.9771290598899398, 1.2382121287659444, 1.1513101457170727, 0.5691255294933875, 1.0808436110654824, 0.4896028194353157, 1.286463081161699, 1.0188484844227759, 1.3622059340975703]",21.97,0.0,0.0,0.0,203.99616497871332,52.79125778267273,-2393.987393216447,-412.811087878354,0.0,0.0,0.0,0.0,0.0,0.0,0.0,-12.4,21.83267469446481,0.0,21.515301519188483,0.0,-12.4,21.97,20.58,22.45,21.57,22.27,-12.9,-12.4,2522.75,-1667.61,-1317.41,0.0,150.0,6.0,70.0,0.0,0.0,0.0,0.0,0.0,0.0,0.0,0.0,0.0,0.0,0.0,0.0,0.0,0.0
439.0,977.0,23534.517461441428,22439.84487413422,-0.0,0.0,0.0,0.0,30265.59540941978,0.0,0.0,0.0,30265.595409419784,1.0,0.6059000756161788,0.5900874635568514,0.0,0.0,0.0,"[0.9771290598899398, 1.2382121287659444, 1.1513101457170727, 0.5691255294933875, 1.0808436110654824, 0.4896028194353157, 1.286463081161699, 1.0188484844227759, 1.3622059340975703]",21.02,0.0,0.0,0.0,265.65440062850735,59.74409924272676,-2349.0532769450015,1273.4059634086566,1741.978787695938,0.0,0.0,0.0,0.0,0.0,0.0,-12.7,21.510998291283677,0.0,21.43649702210096,0.0,-12.7,21.02,20.54,22.34,21.03,21.81,-13.2,-12.7,1539.53,-1636.31,-1292.68,0.0,93.0,46.0,141.0,0.0,0.0,0.0,0.0,0.0,0.0,0.0,0.0,0.0,0.0,0.0,0.0,0.0,0.0
440.0,1912.0,89743.73836187614,0.0,-0.0,0.0,0.0,0.0,29099.857288433515,0.0,-49544.86041462652,0.0,0.0,1.0,0.7857295689729713,0.5900874635568514,349532.07868026703,87383.01967006676,436915.09835033375,"[0.9771290598899398, 1.2382121287659444, 1.1513101457170727, 0.5691255294933875, 1.0808436110654824, 0.4896028194353157, 1.286463081161699, 1.0188484844227759, 1.3622059340975703]",21.39,0.0,0.0,2.0105417656587834,265.94151697611994,75.9778829232149,-2374.460640338621,427.5108945768783,5907.373322007779,0.0,0.0,0.0,0.0,0.0,0.0,-12.7,21.56303054586688,0.0,21.378153921925353,0.0,-12.7,21.39,20.5,22.26,21.33,22.0,-13.19,-12.7,1874.01,-1654.01,-1306.66,3.2,121.0,60.0,125.0,0.0,0.0,0.0,0.0,0.0,0.0,0.0,0.0,0.0,0.0,0.0,0.0,0.0,0.0
441.0,4636.0,0.0,7588.142803136803,-0.0,0.0,12224.142803136803,0.0,10451.478732149748,0.0,0.0,0.0,10451.478732149748,0.5380142553614209,0.7857295689729713,0.5900874635568514,0.0,0.0,0.0,"[0.9771290598899398, 1.2382121287659444, 1.1513101457170727, 0.5691255294933875, 1.0808436110654824, 0.4896028194353157, 1.286463081161699, 1.0188484844227759, 1.3622059340975703]",22.98,0.0,0.0,12.11753449563198,246.99183803369198,59.74409924272676,-2464.284879381313,-2556.8329934496337,0.0,0.0,0.0,0.0,0.0,0.0,0.0,-12.4,22.049303971470742,0.0,21.44503111555139,0.0,-12.4,22.98,20.55,22.35,22.44,22.87,-12.89,-12.4,1880.78,-1716.58,-1356.09,19.26,85.0,51.0,131.0,0.0,0.0,0.0,0.0,0.0,0.0,0.0,0.0,0.0,0.0,0.0,0.0,0.0,0.0
442.0,7388.0,0.0,6849.052337800432,-0.0,1.195140937234486,14235.857196863197,0.0,9498.791443986887,0.0,0.0,0.0,9498.791443986885,0.0,0.7857295689729713,0.5900874635568514,0.0,0.0,0.0,"[0.9771290598899398, 1.2382121287659444, 1.1513101457170727, 0.5691255294933875, 1.0808436110654824, 0.4896028194353157, 1.286463081161699, 1.0188484844227759, 1.3622059340975703]",21.24,0.0,0.0,18.043802151515166,501.37692201840684,57.1013902714845,-2336.024552410135,776.579929571014,412.10317805875314,0.0,0.0,0.0,0.0,0.0,0.0,-12.3,21.540081328904567,0.0,21.402045365317917,0.0,-12.3,21.24,20.52,22.28,21.11,21.85,-12.78,-12.3,2639.93,-1627.23,-1285.51,28.68,132.0,11.0,297.0,0.0,0.0,0.0,0.0,0.0,0.0,0.0,0.0,0.0,0.0,0.0,0.0,0.0,0.0
443.0,6394.0,53777.19309248351,0.0,-0.0,11.308964698744614,-15106.64701145536,0.0,28817.072172238015,0.0,0.0,0.0,0.0,0.5483153359713426,0.7857295689729713,0.5900874635568514,128075.8763210579,32018.969080264476,160094.84540132238,"[0.9771290598899398, 1.2382121287659444, 1.1513101457170727, 0.5691255294933875, 1.0808436110654824, 0.4896028194353157, 1.286463081161699, 1.0188484844227759, 1.3622059340975703]",21.02,0.0,0.0,26.173161611902422,242.5415346456975,32.12149832902792,-2307.258734343037,1020.4222357272521,6271.670708185863,0.0,0.0,0.0,0.0,0.0,0.0,-12.1,21.417110294827786,0.0,21.32145680233929,0.0,-12.1,21.02,20.47,22.17,21.03,21.74,-12.58,-12.1,1617.62,-1607.19,-1269.68,41.6,89.0,0.0,131.0,0.0,0.0,0.0,0.0,0.0,0.0,0.0,0.0,0.0,0.0,0.0,0.0,0.0,0.0
444.0,3434.0,0.0,0.0,-0.0,19.1762101982767,3414.8237898017233,0.0,22646.833530914395,0.0,22646.833530914395,0.0,0.0,0.41925925925925933,0.7001406289468398,0.5900874635568514,0.0,0.0,0.0,"[0.9771290598899398, 1.2382121287659444, 1.1513101457170727, 0.5691255294933875, 1.0808436110654824, 0.4896028194353157, 1.286463081161699, 1.0188484844227759, 1.3622059340975703]",22.98,0.0,0.0,29.282081483216604,8.18281590695753,0.1887649265173011,-2436.4218509800035,-2680.270132456526,5078.288934004201,0.0,0.0,0.0,0.0,0.0,0.0,-12.0,22.003452332289378,0.0,21.38904339245635,0.0,-12.0,22.98,20.51,22.26,22.44,22.84,-12.5,-12.0,1799.01,-1697.17,-1340.76,46.54,0.0,0.0,6.0,0.0,0.0,0.0,0.0,0.0,0.0,0.0,0.0,0.0,0.0,0.0,0.0,0.0,0.0
445.0,1486.0,0.0,0.0,-0.0,13046.903898823384,0.0,0.0,10404.813508941043,0.0,0.0,0.0,0.0,0.41925925925925933,0.7001406289468398,0.5900874635568514,46243.61559529354,11560.903898823384,57804.51949411692,"[0.9771290598899398, 1.2382121287659444, 1.1513101457170727, 0.5691255294933875, 1.0808436110654824, 0.4896028194353157, 1.286463081161699, 1.0188484844227759, 1.3622059340975703]",22.98,0.0,0.0,1156.7356899863169,216.84462153437474,5.0022705527085565,-2324.9697373747626,-2484.2715898011784,0.0,0.0,0.0,0.0,0.0,0.0,0.0,-10.4,22.074874701737436,0.0,21.47857864283164,0.0,-10.4,22.98,20.57,22.38,22.36,22.82,-10.35,-10.4,1616.83,-1619.53,-1279.43,1838.37,0.0,0.0,159.0,0.0,0.0,0.0,0.0,0.0,0.0,0.0,0.0,0.0,0.0,0.0,0.0,0.0,0.0
446.0,2928.0,0.0,7040.296312445538,-0.0,9968.296312445538,0.0,0.0,11509.0732044666,0.0,0.0,0.0,11509.073204466602,0.41925925925925933,0.7001406289468398,0.5900874635568514,0.0,0.0,0.0,"[0.9771290598899398, 1.2382121287659444, 1.1513101457170727, 0.5691255294933875, 1.0808436110654824, 0.4896028194353157, 1.286463081161699, 1.0188484844227759, 1.3622059340975703]",21.72,0.0,0.0,1207.4393182737747,46.36929013942603,1.0696679169313896,-2188.5846140007307,27.263731030388254,0.0,0.0,0.0,0.0,0.0,0.0,0.0,-9.7,21.744938712560398,0.0,21.495852822172793,0.0,-9.7,21.72,20.59,22.4,21.64,22.31,-9.62,-9.7,507.43,-1524.53,-1204.38,1918.96,0.0,0.0,34.0,0.0,0.0,0.0,0.0,0.0,0.0,0.0,0.0,0.0,0.0,0.0,0.0,0.0,0.0
447.0,5190.0,28903.131723291986,9422.297205369188,-0.0,1853.6811406936613,-16000.0,0.0,15313.20619301619,0.0,0.0,0.0,15313.206193016193,1.0,0.7001406289468398,0.5900874635568514,0.0,0.0,0.0,"[0.9771290598899398, 1.2382121287659444, 1.1513101457170727, 0.5691255294933875, 1.0808436110654824, 0.4896028194353157, 1.286463081161699, 1.0188484844227759, 1.3622059340975703]",21.4,0.0,0.0,706.4836793615041,100.9213961858096,2.3281007603800807,-2173.007698178014,615.0699168097727,5005.645972032223,0.0,0.0,0.0,0.0,0.0,0.0,-9.8,21.638797656993564,0.0,21.475314361061237,0.0,-9.8,21.4,20.58,22.37,21.5,22.2,-10.05,-9.8,980.59,-1513.68,-1195.8,1122.8,0.0,0.0,74.0,0.0,0.0,0.0,0.0,0.0,0.0,0.0,0.0,0.0,0.0,0.0,0.0,0.0,0.0
448.0,2518.0,11612.39798994975,0.0,-0.0,0.0,0.0,0.0,23865.294311263777,45181.68,60010.638311263785,0.0,0.0,1.0,0.4733430540743387,0.5419825072886298,36145.344000000005,9036.336000000001,45181.68,"[0.9771290598899398, 1.2382121287659444, 1.1513101457170727, 0.5691255294933875, 1.0808436110654824, 0.4896028194353157, 1.286463081161699, 1.0188484844227759, 1.3622059340975703]",22.98,0.0,0.0,1.0081873739817302,124.10604125552265,2.862934718845777,-2331.9354944750908,-2336.0013202698824,4540.20350090584,0.0,0.0,0.0,0.0,0.0,0.0,-10.5,22.130183934796484,0.0,21.55274936628273,0.0,-10.5,22.98,20.64,22.46,22.56,23.02,-11.28,-10.5,1559.42,-1624.38,-1283.26,1.6,0.0,0.0,91.0,0.0,0.0,0.0,0.0,0.0,0.0,0.0,0.0,0.0,0.0,0.0,0.0,0.0,0.0
449.0,2420.0,0.0,9672.95810652333,-0.0,0.0,12092.95810652333,0.0,14706.214591662565,0.0,0.0,0.0,14706.214591662565,0.5429721048177123,0.4733430540743387,0.5419825072886298,0.0,0.0,0.0,"[0.9771290598899398, 1.2382121287659444, 1.1513101457170727, 0.5691255294933875, 1.0808436110654824, 0.4896028194353157, 1.286463081161699, 1.0188484844227759, 1.3622059340975703]",22.98,0.0,0.0,0.0,88.6471723253733,2.044953370604124,-2359.7985228764005,-2182.619616252854,0.0,0.0,0.0,0.0,0.0,0.0,0.0,-10.9,22.187104006353337,0.0,21.625528640182008,0.0,-10.9,22.98,20.69,22.56,22.38,22.89,-11.65,-10.9,1687.31,-1643.79,-1298.6,0.0,0.0,0.0,65.0,0.0,0.0,0.0,0.0,0.0,0.0,0.0,0.0,0.0,0.0,0.0,0.0,0.0,0.0
450.0,4515.0,4537.688442211055,0.0,-0.0,0.0,0.0,0.0,2928.118550168663,0.0,2928.118550168663,0.0,0.0,0.24937932115395717,0.4622768464017436,0.5419825072886298,0.0,0.0,0.0,"[0.9771290598899363, 0.8930025490620821, 1.1330451100035823, 0.569125529493391, 0.8552508969049057, 0.4896028194353157, 0.8375668538278376, 0.7041155983323186, 1.3622059340975703]",21.33,0.0,0.0,0.0,335.6390103590652,67.45200040885001,-2279.920213909912,941.6592051565347,110.13276343975512,0.0,0.0,0.0,0.0,0.0,0.0,-11.4,21.69544986162588,0.0,21.573517939273376,0.0,-11.4,21.33,20.67,22.48,21.23,21.99,-12.16,-11.4,1673.96,-1588.15,-1254.64,0.0,155.0,24.0,162.0,0.0,0.0,0.0,0.0,0.0,0.0,0.0,0.0,0.0,0.0,0.0,0.0,0.0,0.0
451.0,3729.0,44859.9898934938,24906.689944026337,-0.0,0.0,-16000.0,0.0,35729.72478649414,0.0,0.0,0.0,35729.72478649414,0.8301200618946978,0.4622768464017436,0.5419825072886298,0.0,0.0,0.0,"[0.9771290598899363, 0.8930025490620821, 1.1330451100035823, 0.569125529493391, 0.8552508969049057, 0.4896028194353157, 0.8375668538278376, 0.7041155983323186, 1.3622059340975703]",21.02,0.0,0.0,0.0,422.7070427725695,88.43636807335696,-2286.3614630420543,1343.2863279596108,5638.635435105398,0.0,0.0,0.0,0.0,0.0,0.0,-11.8,21.536509871638746,0.0,21.480931894826277,0.0,-11.8,21.02,20.61,22.35,21.08,21.83,-12.53,-11.8,0.0,-1592.64,-1258.18,0.0,128.0,72.0,235.0,0.0,0.0,0.0,0.0,0.0,0.0,0.0,0.0,0.0,0.0,0.0,0.0,0.0,0.0
452.0,4615.0,0.0,0.0,-0.0,0.0,4615.0,0.0,23005.26215631767,0.0,23005.262156317676,0.0,0.0,0.655705851766202,0.3753333008374289,0.5419825072886298,0.0,0.0,0.0,"[0.9771290598899363, 0.8930025490620821, 1.1330451100035823, 0.569125529493391, 0.8552508969049057, 0.4896028194353157, 0.8375668538278376, 0.7041155983323186, 1.3622059340975703]",22.95,0.0,0.0,0.0,521.5468454381883,89.78918338006434,-2455.1298404342597,-2335.948676577717,4273.187336063882,0.0,0.0,0.0,0.0,0.0,0.0,-12.3,22.099646239876016,0.0,21.530571916827125,0.0,-12.3,22.95,20.65,22.41,22.46,22.89,-13.06,-12.3,0.0,-1710.2,-1351.06,0.0,89.0,91.0,326.0,0.0,0.0,0.0,0.0,0.0,0.0,0.0,0.0,0.0,0.0,0.0,0.0,0.0,0.0
453.0,3747.0,0.0,0.0,-0.0,0.0,3747.0,0.0,8628.251082933457,0.0,8628.251082933457,0.0,0.0,0.5140958744419389,0.34272464217176957,0.5419825072886298,0.0,0.0,0.0,"[0.9771290598899363, 0.8930025490620821, 1.1330451100035823, 0.569125529493391, 0.8552508969049057, 0.4896028194353157, 0.8375668538278376, 0.7041155983323186, 1.3622059340975703]",22.98,0.0,0.0,0.0,365.49911051077,115.39829174424524,-2485.1821506822957,-2244.282913498194,0.0,0.0,0.0,0.0,0.0,0.0,0.0,-12.7,22.1651889660578,0.0,21.601960927913602,0.0,-12.7,22.98,20.69,22.51,22.37,22.87,-13.44,-12.7,2079.83,-1731.13,-1367.59,0.0,153.0,109.0,176.0,0.0,0.0,0.0,0.0,0.0,0.0,0.0,0.0,0.0,0.0,0.0,0.0,0.0,0.0
454.0,2746.0,207866.9674905138,0.0,-0.0,0.0,0.0,0.0,122704.96028129931,0.0,-60968.50910645569,0.0,0.0,0.5140958744419389,0.5640177492989051,0.5419825072886298,816326.530612245,204081.63265306124,1020408.1632653062,"[0.9771290598899363, 0.8930025490620821, 1.1330451100035823, 0.569125529493391, 0.8552508969049057, 0.4896028194353157, 0.8375668538278376, 0.7041155983323186, 1.3622059340975703]",21.4,0.0,0.0,0.0,299.03167603846583,85.3846684279939,-2410.262660206934,756.7520983905234,5536.616038949137,0.0,0.0,0.0,0.0,0.0,0.0,-13.2,21.699165702937215,0.0,21.55639793270349,0.0,-13.2,21.4,20.67,22.45,21.29,22.02,-13.93,-13.2,2488.27,-1678.94,-1326.37,0.0,150.0,60.0,134.0,0.0,0.0,0.0,0.0,0.0,0.0,0.0,0.0,0.0,0.0,0.0,0.0,0.0,0.0
455.0,1658.0,0.0,0.0,-0.0,0.0,1658.0,0.0,14935.916472336377,0.0,14935.916472336377,0.0,0.0,0.451435254638462,0.5075705970980874,0.5419825072886298,0.0,0.0,0.0,"[0.9771290598899363, 0.8930025490620821, 1.1330451100035823, 0.569125529493391, 0.8552508969049057, 0.4896028194353157, 0.8375668538278376, 0.7041155983323186, 1.3622059340975703]",22.98,0.0,0.0,0.0,209.95382919167363,37.59568119802974,-2547.873964585244,-2236.027623546692,0.0,0.0,0.0,0.0,0.0,0.0,0.0,-13.6,22.168699547132476,0.0,21.60692480182046,0.0,-13.6,22.98,20.7,22.51,22.5,22.96,-14.35,-13.6,2236.48,-1774.8,-1402.09,0.0,108.0,1.0,97.0,0.0,0.0,0.0,0.0,0.0,0.0,0.0,0.0,0.0,0.0,0.0,0.0,0.0,0.0
456.0,2318.0,0.0,0.0,-0.0,0.0,2318.0,0.0,11905.835886673012,0.0,11905.835886673014,0.0,0.0,0.3638313241773887,0.4625749966193534,0.5419825072886297,0.0,0.0,0.0,"[0.9771290598899363, 0.8930025490620821, 1.1330451100035823, 0.569125529493391, 0.8552508969049057, 0.4896028194353157, 0.8375668538278376, 0.7041155983323186, 1.3622059340975703]",21.3,0.0,0.0,0.0,691.7350604855244,63.645241057417714,-2444.831458398092,952.0366564885028,0.0,0.0,0.0,0.0,0.0,0.0,0.0,-13.8,21.667922560975956,0.0,21.552703896716928,0.0,-13.8,21.3,20.66,22.44,21.22,21.97,-14.55,-13.8,2153.17,-1703.02,-1345.39,0.0,160.0,0.0,423.0,0.0,0.0,0.0,0.0,0.0,0.0,0.0,0.0,0.0,0.0,0.0,0.0,0.0,0.0
457.0,1379.0,0.0,0.0,-0.0,0.0,1379.0,0.0,28529.54514315429,0.0,28529.545143154293,0.0,0.0,0.3117149220609866,0.3547535864033508,0.5419825072886297,0.0,0.0,0.0,"[0.9771290598899363, 0.8930025490620821, 1.1330451100035823, 0.569125529493391, 0.8552508969049057, 0.4896028194353157, 0.8375668538278376, 0.7041155983323186, 1.3622059340975703]",21.02,0.0,0.0,0.0,841.753352113079,67.10593137690162,-2446.5738763495874,1283.8983580968224,5543.474963986397,0.0,0.0,0.0,0.0,0.0,0.0,-14.1,21.515695639937423,0.0,21.45581536356564,0.0,-14.1,21.02,20.6,22.31,21.06,21.8,-14.83,-14.1,2185.48,-1704.24,-1346.35,0.0,160.0,0.0,533.0,0.0,0.0,0.0,0.0,0.0,0.0,0.0,0.0,0.0,0.0,0.0,0.0,0.0,0.0
458.0,657.0,0.0,0.0,-0.0,0.0,657.0,0.0,6319.633140209775,0.0,6319.633140209775,0.0,0.0,0.2868849900881975,0.3308698632733063,0.5419825072886297,0.0,0.0,0.0,"[0.9771290598899363, 0.8930025490620821, 1.1330451100035823, 0.569125529493391, 0.8552508969049057, 0.4896028194353157, 0.8375668538278376, 0.7041155983323186, 1.3622059340975703]",22.98,0.0,0.0,0.0,279.8666598353284,54.14407308938007,-2596.634264287536,-2459.321183384733,0.0,0.0,0.0,0.0,0.0,0.0,0.0,-14.3,22.086446700702997,0.0,21.502784706691152,0.0,-14.3,22.98,20.63,22.38,22.44,22.87,-15.04,-14.3,2162.33,-1808.77,-1428.93,0.0,160.0,0.0,121.0,0.0,0.0,0.0,0.0,0.0,0.0,0.0,0.0,0.0,0.0,0.0,0.0,0.0,0.0
459.0,743.0,26086.847186154573,25686.943620804046,-0.0,0.0,473.53067058024646,0.0,30482.113028027947,0.0,0.0,0.0,30482.113028027947,0.26898889520610203,0.3308698632733063,0.5419825072886297,0.0,0.0,0.0,"[0.9771290598899363, 0.8930025490620821, 1.1330451100035823, 0.569125529493391, 0.8552508969049057, 0.4896028194353157, 0.8375668538278376, 0.7041155983323186, 1.3622059340975703]",21.23,0.0,0.0,0.0,224.74032109371979,61.317140297037625,-2481.803813988156,876.0008933923881,6052.589855244088,0.0,0.0,0.0,0.0,0.0,0.0,-14.4,21.570836359695612,0.0,21.45262465494382,0.0,-14.4,21.23,20.59,22.31,21.14,21.87,-15.15,-14.4,2171.58,-1728.78,-1365.74,0.0,160.0,15.0,79.0,0.0,0.0,0.0,0.0,0.0,0.0,0.0,0.0,0.0,0.0,0.0,0.0,0.0,0.0
460.0,1531.0,0.0,0.0,-0.0,0.0,1531.0,0.0,14010.82282709423,0.0,14010.82282709423,0.0,0.0,0.2111279730594656,0.2779189077665254,0.5419825072886297,0.0,0.0,0.0,"[0.9771290598899363, 0.8930025490620821, 1.1330451100035823, 0.569125529493391, 0.8552508969049057, 0.4896028194353157, 0.8375668538278376, 0.7041155983323186, 1.3622059340975703]",22.98,0.0,0.0,0.0,357.74696912523126,77.89699300947419,-2610.5657784881914,-2439.3503702326857,2366.236220944878,0.0,0.0,0.0,0.0,0.0,0.0,-14.5,22.09394956016693,0.0,21.51006601850513,0.0,-14.5,22.98,20.62,22.4,22.49,22.91,-15.27,-14.5,1364.03,-1818.47,-1436.59,0.0,160.0,39.0,174.0,0.0,0.0,0.0,0.0,0.0,0.0,0.0,0.0,0.0,0.0,0.0,0.0,0.0,0.0
461.0,2335.0,30795.100657410243,0.0,-0.0,0.0,0.0,0.0,25475.512638710854,0.0,0.0,0.0,0.0,0.2111279730594656,0.2779189077665254,0.5419825072886297,113224.50061649276,28306.12515412319,141530.62577061594,"[0.9771290598899363, 0.8930025490620821, 1.1330451100035823, 0.569125529493391, 0.8552508969049057, 0.4896028194353157, 0.8375668538278376, 0.7041155983323186, 1.3622059340975703]",22.14,0.0,0.0,0.0,266.2286333237325,51.94181561334485,-2559.4197017149218,-764.976504781613,0.0,0.0,0.0,0.0,0.0,0.0,0.0,-14.6,21.878667513031647,0.0,21.524107006174447,0.0,-14.6,22.14,20.63,22.42,21.79,22.4,-15.37,-14.6,1694.72,-1782.84,-1408.45,0.0,80.0,39.0,149.0,0.0,0.0,0.0,0.0,0.0,0.0,0.0,0.0,0.0,0.0,0.0,0.0,0.0,0.0
462.0,1257.0,5331.887862225338,4048.228422914211,-0.0,0.0,0.0,0.0,4688.161782951955,0.0,0.0,0.0,4688.161782951955,0.010628032662103104,0.2779189077665254,0.5419825072886297,0.0,0.0,0.0,"[0.9771290598899363, 0.8930025490620821, 1.1330451100035823, 0.569125529493391, 0.8552508969049057, 0.4896028194354187, 0.6578522030439871, 0.7041155983323186, 1.330442958596258]",21.03,0.0,0.0,0.0,257.83048015606556,88.97120203182268,-2488.8014172245107,1259.676976812973,873.9165706142295,0.0,0.0,0.0,0.0,0.0,0.0,-14.7,21.513255992128972,0.0,21.445935789479748,0.0,-14.7,21.03,20.58,22.32,21.05,21.8,-15.43,-14.7,1506.12,-1733.65,-1369.59,0.0,152.0,67.0,102.0,0.0,0.0,0.0,0.0,0.0,0.0,0.0,0.0,0.0,0.0,0.0,0.0,0.0,0.0
463.0,1557.0,27094.626273076225,25402.15314171084,-0.0,0.0,0.0,0.0,29417.659065278836,0.0,0.0,0.0,29417.65906527884,0.010628032662103104,0.2779189077665254,0.5419825072886297,0.0,0.0,0.0,"[0.9771290598899363, 0.8930025490620821, 1.1330451100035823, 0.569125529493391, 0.8552508969049057, 0.4896028194354187, 0.6578522030439871, 0.7041155983323186, 1.330442958596258]",21.02,0.0,0.0,0.0,165.09189987721345,50.33731373794777,-2488.3684189515525,1090.2488651537801,6470.766091169603,0.0,0.0,0.0,0.0,0.0,0.0,-14.7,21.44438015826512,0.0,21.3609789699102,0.0,-14.7,21.02,20.52,22.21,21.1,21.8,-15.46,-14.7,1574.34,-1733.35,-1369.35,0.0,90.0,35.0,70.0,0.0,0.0,0.0,0.0,0.0,0.0,0.0,0.0,0.0,0.0,0.0,0.0,0.0,0.0
464.0,3772.0,3508.3238751364343,0.0,-0.0,0.0,281.21774423924813,0.0,11052.612165302808,0.0,11052.612165302806,0.0,0.0,0.0,0.23614788673363496,0.5419825072886297,0.0,0.0,0.0,"[0.9771290598899363, 0.8930025490620821, 1.1330451100035823, 0.569125529493391, 0.8552508969049057, 0.4896028194354187, 0.6578522030439871, 0.7041155983323186, 1.330442958596258]",22.98,0.0,0.0,8.423510075790727,1157.3659972261698,85.44759007016636,-2582.702750086881,-2615.345450849137,0.0,0.0,0.0,0.0,0.0,0.0,0.0,-14.1,22.028635003432168,0.0,21.424303383288592,0.0,-14.1,22.98,20.55,22.3,22.48,22.87,-14.84,-14.1,1685.95,-1799.06,-1421.26,13.39,114.0,44.0,784.0,0.0,0.0,0.0,0.0,0.0,0.0,0.0,0.0,0.0,0.0,0.0,0.0,0.0,0.0
465.0,2123.0,15089.429740762373,0.0,-0.0,2310.960292147938,-15201.942884206499,0.0,2368.601770557896,0.0,2368.601770557896,0.0,0.0,0.5517742232045322,0.22719625494770185,0.5419825072886297,0.0,0.0,0.0,"[0.9771290598899363, 0.8930025490620821, 1.1330451100035823, 0.569125529493391, 0.8552508969049057, 0.4896028194354187, 0.6578522030439871, 0.7041155983323186, 1.330442958596258]",21.51,0.0,0.0,954.0756243636489,270.89427397243634,56.189026459984184,-2216.109228682362,200.89059670170053,0.0,0.0,0.0,0.0,0.0,0.0,0.0,-10.3,21.604563936989937,0.0,21.391331244631388,0.0,-10.3,21.51,20.53,22.26,21.24,21.93,-10.34,-10.3,0.0,-1543.7,-1219.52,1516.29,126.0,22.0,130.0,0.0,0.0,0.0,0.0,0.0,0.0,0.0,0.0,0.0,0.0,0.0,0.0,0.0,0.0
466.0,2608.0,0.0,0.0,-0.0,10213.377320359383,-5478.048533724892,0.0,1914.5959079710403,0.0,0.0,0.0,0.0,0.7506070959101023,0.22719625494770185,0.5419825072886297,8509.315146537961,2127.3287866344904,10636.64393317245,"[0.9771290598899363, 0.8930025490620821, 1.1330451100035823, 0.569125529493391, 0.8552508969049057, 0.4896028194354187, 0.6578522030439871, 0.7041155983323186, 1.330442958596258]",21.25,0.0,0.0,1463.5621875880267,77.73675111609658,1.7932668019143876,-1960.8672834106555,655.7090314402465,0.0,0.0,0.0,0.0,0.0,0.0,0.0,-6.9,21.506569218643005,0.0,21.35975956961581,0.0,-6.9,21.25,20.51,22.21,21.34,22.01,-6.62,-6.9,0.0,-1365.9,-1079.06,2326.01,0.0,0.0,57.0,0.0,0.0,0.0,0.0,0.0,0.0,0.0,0.0,0.0,0.0,0.0,0.0,0.0,0.0
467.0,4946.0,18386.426753017415,0.0,-0.0,14011.165088063999,0.0,0.0,24623.693736584682,0.0,0.0,0.0,0.0,0.7506070959101023,0.22719625494770185,0.5419825072886297,109438.63882926531,27359.65970731633,136798.29853658163,"[0.9771290598899363, 0.8930025490620821, 1.1330451100035823, 0.569125529493391, 0.8552508969049057, 0.4896028194354187, 0.6578522030439871, 0.7041155983323186, 1.330442958596258]",21.35,0.0,0.0,1793.9917229505272,323.2212283248227,52.7597969615865,-1779.9060475107854,434.4490216315889,3526.373955405615,0.0,0.0,0.0,0.0,0.0,0.0,-4.2,21.52545957636093,0.0,21.350920356316575,0.0,-4.2,21.35,20.51,22.19,21.49,22.13,-3.72,-4.2,0.0,-1239.85,-979.48,2851.15,152.0,0.0,157.0,0.0,0.0,0.0,0.0,0.0,0.0,0.0,0.0,0.0,0.0,0.0,0.0,0.0,0.0
468.0,4708.0,0.0,4753.026237699425,-5928.471268806417,15389.497506505842,0.0,0.0,11032.44324074397,0.0,0.0,0.0,11032.44324074397,0.7506070959101023,0.22719625494770185,0.7079797028152094,0.0,0.0,0.0,"[0.9771290598899363, 0.8930025490620821, 1.1330451100035823, 0.569125529493391, 0.8552508969049057, 0.4896028194354187, 0.6578522030439871, 0.7041155983323186, 1.330442958596258]",22.98,0.0,0.0,1877.9319197123177,1029.527443451684,67.86099108297084,-1774.674926448889,-2512.6908261048275,0.0,0.0,0.0,0.0,0.0,0.0,0.0,-2.5,22.060184937270712,0.0,21.469432017790364,0.0,-2.5,22.98,20.6,22.34,22.68,23.08,-1.99,-2.5,0.0,-1236.21,-976.6,2984.56,148.0,0.0,677.0,0.0,0.0,0.0,0.0,0.0,0.0,0.0,0.0,0.0,0.0,0.0,0.0,0.0,0.0
469.0,4402.0,0.0,9567.09253768123,-0.0,13969.09253768123,0.0,0.0,12960.10478797224,0.0,-9884.906478325945,0.0,22845.011266298185,0.7506070959101023,0.2630748043875516,0.7079797028152094,0.0,0.0,0.0,"[0.9771290598899363, 0.8930025490620821, 1.1330451100035823, 0.569125529493391, 0.8552508969049057, 0.4896028194354187, 0.6578522030439871, 0.7041155983323186, 1.330442958596258]",22.51,0.0,0.0,1695.237994459688,386.602162060292,36.93500395521918,-1693.2114645968677,-1402.9415124661393,2205.697054985655,0.0,0.0,0.0,0.0,0.0,0.0,-1.8,22.000659894109077,0.0,21.55942556708944,0.0,-1.8,22.51,20.68,22.44,22.21,22.77,-1.41,-1.8,0.0,-1179.46,-931.77,2694.2,94.0,0.0,234.0,0.0,0.0,0.0,0.0,0.0,0.0,0.0,0.0,0.0,0.0,0.0,0.0,0.0,0.0
470.0,3702.0,0.0,0.0,-0.0,10507.534829811691,-6805.534829811691,0.0,18840.077696631244,0.0,18840.077696631244,0.0,0.0,0.9976228045477118,0.19187269669053253,0.7079797028152094,0.0,0.0,0.0,"[0.9771290598899363, 0.8930025490620821, 1.1330451100035823, 0.569125529493391, 0.8552508969049057, 0.4896028194354187, 0.6578522030439871, 0.7041155983323186, 1.330442958596258]",22.98,0.0,0.0,1366.8802786791132,516.3787511811623,53.04294435136247,-1739.8461409472511,-2095.694065971523,535.5141859251966,0.0,0.0,0.0,0.0,0.0,0.0,-2.0,22.214340957025446,0.0,21.67194518947968,0.0,-2.0,22.98,20.77,22.57,22.63,23.11,-1.82,-2.0,0.0,-1211.95,-957.44,2172.35,138.0,0.0,306.0,0.0,0.0,0.0,0.0,0.0,0.0,0.0,0.0,0.0,0.0,0.0,0.0,0.0,0.0
471.0,2311.0,0.0,0.0,-0.0,2376.494160420184,-65.49416042018402,0.0,10613.492121561067,0.0,10613.492121561067,0.0,0.0,1.0,0.15176123742537354,0.7079797028152094,0.0,0.0,0.0,"[0.9771290598899363, 0.8930025490620821, 1.1330451100035823, 0.569125529493391, 0.8552508969049057, 0.4896028194354187, 0.6578522030439871, 0.7041155983323186, 1.330442958596258]",22.48,0.0,0.0,759.0852895116925,840.8202239833386,53.6721607730868,-1823.9203525354453,-1002.4359697672057,0.0,0.0,0.0,0.0,0.0,0.0,0.0,-3.7,22.126471770803224,0.0,21.735538819473465,0.0,-3.7,22.48,20.84,22.64,22.22,22.81,-3.87,-3.7,0.0,-1270.51,-1003.7,1206.4,115.0,0.0,556.0,0.0,0.0,0.0,0.0,0.0,0.0,0.0,0.0,0.0,0.0,0.0,0.0,0.0,0.0
472.0,6092.0,0.0,0.0,-0.0,0.0,6092.0,0.0,6251.895747464993,0.0,6251.895747464994,0.0,0.0,0.7697656840513983,0.12813351351205157,0.7079797028152094,0.0,0.0,0.0,"[0.9771290598899363, 0.8930025490620821, 1.1330451100035823, 0.569125529493391, 0.8552508969049057, 0.4896028194354187, 0.6578522030439871, 0.7041155983323186, 1.330442958596258]",22.06,0.0,0.0,1.0081738939962124,627.4209986203143,64.14861419479719,-1947.331364601574,-173.06045207486076,0.0,0.0,0.0,0.0,0.0,0.0,0.0,-5.9,22.006085765654905,0.0,21.73579669967394,0.0,-5.9,22.06,20.85,22.62,21.84,22.5,-6.6,-5.9,0.0,-1356.48,-1071.62,1.6,93.0,39.0,407.0,0.0,0.0,0.0,0.0,0.0,0.0,0.0,0.0,0.0,0.0,0.0,0.0,0.0,0.0
473.0,8173.0,0.0,3411.08053447159,-0.0,0.0,11584.08053447159,0.0,6779.437570164655,0.0,0.0,0.0,6779.437570164655,0.3319697454848228,0.12813351351205157,0.7079797028152094,0.0,0.0,0.0,"[0.9771290598899363, 0.8930025490620821, 1.1330451100035823, 0.569125529493391, 0.8552508969049057, 0.4896028194354187, 0.6578522030439871, 0.7041155983323186, 1.330442958596258]",21.53,0.0,0.0,0.0,644.2890840425513,91.99144085609954,-1917.3530534498684,732.2097673751493,0.0,0.0,0.0,0.0,0.0,0.0,0.0,-6.0,21.810348193749125,0.0,21.67530843977257,0.0,-6.0,21.53,20.83,22.52,21.4,22.11,-6.69,-6.0,1377.87,-1335.59,-1055.12,0.0,85.0,92.0,418.0,0.0,0.0,0.0,0.0,0.0,0.0,0.0,0.0,0.0,0.0,0.0,0.0,0.0,0.0
474.0,3533.0,0.0,0.0,-0.0,0.0,3533.0,0.0,13901.196662150509,0.0,13901.196662150509,0.0,0.0,0.7791881884175514,0.3659672373890337,1.0,0.0,0.0,0.0,"[0.7560376726092564, 0.8930025490620821, 0.7589092326591427, 0.569125529493391, 0.8552508969049057, 0.4896028194354187, 0.6578522030439871, 0.7041155983323257, 0.9437516280921017]",21.36,0.0,0.0,0.0,564.4707394062638,150.88609792949848,-1905.5640089983094,901.1117041054841,0.0,0.0,0.0,0.0,0.0,0.0,0.0,-6.0,21.70348436838053,0.0,21.602298796533205,0.0,-6.0,21.36,20.79,22.41,21.31,21.99,-6.67,-6.0,183.47,-1327.38,-1048.63,0.0,234.0,121.0,278.0,0.0,0.0,0.0,0.0,0.0,0.0,0.0,0.0,0.0,0.0,0.0,0.0,0.0,0.0
475.0,4766.0,11644.807711011661,6820.583672456604,-0.0,0.0,0.0,0.0,13490.717386810667,0.0,0.0,0.0,13490.71738681067,0.7791881884175514,0.3659672373890337,1.0,0.0,0.0,0.0,"[0.7560376726092564, 0.8930025490620821, 0.7589092326591427, 0.569125529493391, 0.8552508969049057, 0.4896028194354187, 0.6578522030439871, 0.7041155983323257, 0.9437516280921017]",21.24,0.0,0.0,0.0,868.1680560934334,155.57376027134484,-1904.7139973311025,958.6286864498193,1880.9258706064134,0.0,0.0,0.0,0.0,0.0,0.0,-6.1,21.612530858586485,0.0,21.529088939268615,0.0,-6.1,21.24,20.75,22.3,21.25,21.9,-6.73,-6.1,797.93,-1326.79,-1048.16,0.0,162.0,155.0,535.0,0.0,0.0,0.0,0.0,0.0,0.0,0.0,0.0,0.0,0.0,0.0,0.0,0.0,0.0
476.0,4656.0,1311.9148412079853,0.0,-0.0,0.0,3350.6447329980547,0.0,20600.113868928274,0.0,20600.11386892827,0.0,0.0,0.6525576240563249,0.28811344347774015,1.0,0.0,0.0,0.0,"[0.7560376726092564, 0.8930025490620821, 0.7589092326591427, 0.569125529493391, 0.8552508969049057, 0.4896028194354187, 0.6578522030439871, 0.7041155983323257, 0.9437516280921017]",21.96,0.0,0.0,0.0,1504.9203360111555,220.66619909872855,-1954.7999628459163,-502.505065230529,0.0,0.0,0.0,0.0,0.0,0.0,0.0,-6.1,21.79146004090008,0.0,21.509467982225985,0.0,-6.1,21.96,20.75,22.27,21.73,22.24,-6.73,-6.1,0.0,-1361.68,-1075.73,0.0,316.0,163.0,920.0,0.0,0.0,0.0,0.0,0.0,0.0,0.0,0.0,0.0,0.0,0.0,0.0,0.0,0.0
477.0,3602.0,0.0,0.0,-0.0,0.0,12488.294,0.0,15107.721430499703,44431.47,50652.8974304997,0.0,0.0,0.18058884098754183,0.09668148039950997,1.0,35545.176,8886.294,44431.47,"[0.7560376726092564, 0.8930025490620821, 0.7589092326591427, 0.569125529493391, 0.8552508969049057, 0.4896028194354187, 0.6578522030439871, 0.7041155983323257, 0.9437516280921017]",21.68,0.0,0.0,0.0,851.5870870188089,164.72885920743408,-1942.3757033689983,-31.41316512764198,0.0,0.0,0.0,0.0,0.0,0.0,0.0,-6.2,21.687259849240927,0.0,21.475200352808976,0.0,-6.2,21.68,20.73,22.22,21.43,22.0,-6.82,-6.2,175.6,-1353.02,-1068.89,0.0,330.0,83.0,442.0,0.0,0.0,0.0,0.0,0.0,0.0,0.0,0.0,0.0,0.0,0.0,0.0,0.0,0.0
478.0,2677.0,13221.72890209311,10478.620257582645,-0.0,0.0,0.0,0.0,20526.308963648407,0.0,0.0,0.0,20526.308963648407,0.18058884098754183,0.09668148039950997,1.0,0.0,0.0,0.0,"[0.7560376726092564, 0.8930025490620821, 0.7589092326591427, 0.569125529493391, 0.8552508969049057, 0.4896028194354187, 0.6578522030439871, 0.7041155983323257, 0.9437516280921017]",21.32,0.0,0.0,0.0,798.6141208842943,68.39582504143654,-1924.2707661216612,559.1472105057554,4374.133076926276,0.0,0.0,0.0,0.0,0.0,0.0,-6.3,21.54565199313574,0.0,21.42158849866206,0.0,-6.3,21.32,20.7,22.15,21.24,21.82,-6.91,-6.3,835.46,-1340.41,-1058.93,0.0,162.0,3.0,500.0,0.0,0.0,0.0,0.0,0.0,0.0,0.0,0.0,0.0,0.0,0.0,0.0,0.0,0.0
479.0,3021.0,0.0,1757.3807325303571,-0.0,0.0,4778.380732530357,0.0,11781.969662231626,0.0,8339.480193584483,0.0,3442.4894686471434,0.0,0.06516417052201759,1.0,0.0,0.0,0.0,"[0.7560376726092564, 0.8930025490620821, 0.7589092326591427, 0.569125529493391, 0.8552508969049057, 0.4896028194354187, 0.6578522030439871, 0.7041155983323257, 0.9437516280921017]",22.76,0.0,0.0,0.0,1826.7777616848186,105.39375063882814,-2023.973007253618,-2156.4323758033747,2258.183171094829,0.0,0.0,0.0,0.0,0.0,0.0,-6.3,21.973198916765224,0.0,21.468985629966458,0.0,-6.3,22.76,20.73,22.21,22.25,22.61,-6.87,-6.3,1933.62,-1409.86,-1113.79,0.0,182.0,16.0,1242.0,0.0,0.0,0.0,0.0,0.0,0.0,0.0,0.0,0.0,0.0,0.0,0.0,0.0,0.0
480.0,1137.0,1142.713567839196,0.0,-0.0,0.0,0.0,0.0,17242.439520125852,0.0,17242.439520125852,0.0,0.0,0.0,0.0,1.0,0.0,0.0,0.0,"[0.7560376726092564, 0.8930025490620821, 0.7589092326591427, 0.569125529493391, 0.8552508969049057, 0.4896028194354187, 0.6578522030439871, 0.7041155983323257, 0.9437516280921017]",22.76,0.0,0.0,0.0,270.89427397243634,43.60469802549725,-2030.9387643539458,-2049.6453969583267,3770.201526717629,0.0,0.0,0.0,0.0,0.0,0.0,-6.4,22.012763788284,0.0,21.518858261495982,0.0,-6.4,22.76,20.76,22.27,22.09,22.52,-7.0,-6.4,1916.61,-1414.71,-1117.62,0.0,80.0,24.0,154.0,0.0,0.0,0.0,0.0,0.0,0.0,0.0,0.0,0.0,0.0,0.0,0.0,0.0,0.0
481.0,1196.0,10702.33286981144,5357.788011917322,-0.0,0.0,-4095.0331935450604,0.0,10444.16042706988,0.0,0.0,0.0,10444.16042706988,0.14863453813607996,0.0,1.0,0.0,0.0,0.0,"[0.7560376726092564, 0.8930025490620821, 0.7589092326591427, 0.569125529493391, 0.8552508969049057, 0.4896028194354187, 0.6578522030439871, 0.7041155983323257, 0.9437516280921017]",22.76,0.0,0.0,0.0,196.96181446220598,40.77322412773769,-2030.9387643539458,-1913.8737533073424,0.0,0.0,0.0,0.0,0.0,0.0,0.0,-6.4,22.062967210674163,0.0,21.582276392619022,0.0,-6.4,22.76,20.81,22.36,22.24,22.66,-6.97,-6.4,1812.87,-1414.71,-1117.62,0.0,80.0,22.0,100.0,0.0,0.0,0.0,0.0,0.0,0.0,0.0,0.0,0.0,0.0,0.0,0.0,0.0,0.0
482.0,976.0,14649.357498152764,13600.110710662,-0.0,0.0,0.0,0.0,26511.26505418318,0.0,0.0,0.0,26511.265054183183,0.14863453813607996,0.0,1.0,0.0,0.0,0.0,"[0.7560376726092564, 0.8930025490620821, 0.7589092326591427, 0.569125529493391, 0.8552508969049057, 0.4896028194354187, 0.6578522030439871, 0.7041155983323257, 0.9437516280921017]",21.38,0.0,0.0,0.0,151.59743153942384,32.970940498355795,-1935.3239085108896,698.7528562982851,4766.041699558816,0.0,0.0,0.0,0.0,0.0,0.0,-6.4,21.656023262705308,0.0,21.542081165757708,0.0,-6.4,21.38,20.79,22.3,21.28,21.92,-6.95,-6.4,1094.0,-1348.11,-1065.01,0.0,80.0,10.0,68.0,0.0,0.0,0.0,0.0,0.0,0.0,0.0,0.0,0.0,0.0,0.0,0.0,0.0,0.0
483.0,822.0,3474.4756681300632,2635.103289789413,-0.0,0.0,0.0,0.0,5161.8383859462265,0.0,0.0,0.0,5161.8383859462265,0.14863453813607996,0.0,1.0,0.0,0.0,0.0,"[0.7560376726092564, 0.8930025490620821, 0.7589092326591427, 0.569125529493391, 0.8552508969049057, 0.4896028194354187, 0.6578522030439871, 0.7041155983323257, 0.9437516280921017]",22.76,0.0,0.0,0.0,177.4379028245529,27.937209124561015,-2023.973007253618,-1909.289150281689,0.0,0.0,0.0,0.0,0.0,0.0,0.0,-6.3,22.064615167078788,0.0,21.586361719401637,0.0,-6.3,22.76,20.82,22.35,22.34,22.73,-6.87,-6.3,1292.89,-1409.86,-1113.79,0.0,80.0,0.0,88.0,0.0,0.0,0.0,0.0,0.0,0.0,0.0,0.0,0.0,0.0,0.0,0.0,0.0,0.0
484.0,771.0,0.0,3161.869879080676,-0.0,0.0,3932.869879080676,0.0,6193.708374334769,0.0,0.0,0.0,6193.708374334769,0.0,0.0,1.0,0.0,0.0,0.0,"[0.7560376726092564, 0.8930025490620821, 0.7589092326591427, 0.569125529493391, 0.8552508969049057, 0.4896028194354187, 0.6578522030439871, 0.7041155983323257, 0.9437516280921017]",21.38,0.0,0.0,0.0,161.07227101063782,27.55967927152641,-1927.8531983325297,716.1850759532404,668.276540202964,0.0,0.0,0.0,0.0,0.0,0.0,-6.3,21.65517074709879,0.0,21.545416600608988,0.0,-6.3,21.38,20.8,22.3,21.28,21.91,-6.86,-6.3,1289.68,-1342.91,-1060.9,0.0,80.0,0.0,76.0,0.0,0.0,0.0,0.0,0.0,0.0,0.0,0.0,0.0,0.0,0.0,0.0,0.0,0.0
485.0,733.0,72268.31572508973,57790.72532102848,-0.0,0.0,-13383.24882543581,0.0,33204.81647518224,0.0,-80000.0,0.0,113204.81647518222,0.48576236477507756,0.29037037037037033,1.0,0.0,0.0,0.0,"[0.7560376726092564, 0.8930025490620821, 0.7589092326591427, 0.569125529493391, 0.8552508969049057, 0.4896028194354187, 0.6578522030439871, 0.7041155983323257, 0.9437516280921017]",21.24,0.0,0.0,0.0,233.35381152209607,29.227102789095927,-1918.6455115317576,834.6003260467231,4912.108998168657,0.0,0.0,0.0,0.0,0.0,0.0,-6.3,21.5667204969251,0.0,21.48073435030991,0.0,-6.3,21.24,20.76,22.2,21.26,21.86,-6.86,-6.3,1404.89,-1336.49,-1055.83,0.0,80.0,0.0,129.0,0.0,0.0,0.0,0.0,0.0,0.0,0.0,0.0,0.0,0.0,0.0,0.0,0.0,0.0
486.0,639.0,0.0,0.0,-0.0,0.0,639.0,0.0,6948.929484331993,0.0,6948.929484331993,0.0,0.0,0.14504913076341647,0.2941659798818369,1.0,0.0,0.0,0.0,"[0.7560376726092564, 0.8930025490620821, 0.7589092326591427, 0.569125529493391, 0.8552508969049057, 0.4896028194354187, 0.6578522030439871, 0.7041155983323257, 0.9437516280921017]",22.76,0.0,0.0,0.0,222.94584392114137,44.48560101591134,-2017.0072501532902,-2039.6396563591607,0.0,0.0,0.0,0.0,0.0,0.0,0.0,-6.2,22.016340230988913,0.0,21.52823534028255,0.0,-6.2,22.76,20.79,22.27,22.33,22.68,-6.75,-6.2,1316.85,-1405.01,-1109.96,0.0,132.0,0.0,94.0,0.0,0.0,0.0,0.0,0.0,0.0,0.0,0.0,0.0,0.0,0.0,0.0,0.0,0.0
487.0,2159.0,0.0,1678.9999999999995,-0.0,0.0,3837.9999999999995,0.0,4110.540602237588,0.0,805.5827815263092,0.0,3304.957820711279,0.0,0.2911214493394094,1.0,0.0,0.0,0.0,"[0.7560376726092564, 0.8930025490620821, 0.7589092326591427, 0.569125529493391, 0.8552508969049057, 0.4896028194354187, 0.6578522030439871, 0.7041155983323257, 0.9437516280921017]",21.35,0.0,0.0,0.0,180.09372903996893,51.3125991916205,-1919.2670167744732,641.6727078050351,756.5612584934961,0.0,0.0,0.0,0.0,0.0,0.0,-6.2,21.604281295268994,0.0,21.49143014316192,0.0,-6.2,21.35,20.77,22.22,21.25,21.86,-6.75,-6.2,1458.33,-1336.93,-1056.17,0.0,94.0,34.0,79.0,0.0,0.0,0.0,0.0,0.0,0.0,0.0,0.0,0.0,0.0,0.0,0.0,0.0,0.0
488.0,2318.0,62072.04673949512,0.0,-0.0,0.0,0.0,0.0,28119.69873976093,0.0,-25379.61911545692,0.0,0.0,0.0,0.3832400668695864,1.0,237774.7460231906,59443.68650579765,297218.4325289882,"[0.7560376726092564, 0.8930025490620821, 0.7589092326591427, 0.569125529493391, 0.8552508969049057, 0.4896028194354187, 0.6578522030439871, 0.7041155983323257, 0.9437516280921017]",21.24,0.0,0.0,8.398348719966062,216.3421679260528,72.54865342481723,-1862.9194547291374,728.2747625586655,3052.7737201497216,0.0,0.0,0.0,0.0,0.0,0.0,-5.5,21.52698198906295,0.0,21.43232563653808,0.0,-5.5,21.24,20.73,22.13,21.25,21.82,-6.04,-5.5,1341.39,-1297.68,-1025.16,13.35,85.0,75.0,106.0,0.0,0.0,0.0,0.0,0.0,0.0,0.0,0.0,0.0,0.0,0.0,0.0,0.0,0.0
489.0,3419.0,1898.7603231539854,0.0,-0.0,1529.7334784617844,0.0,0.0,6287.696949841597,0.0,6287.696949841597,0.0,0.0,0.0,0.3594770398482652,1.0,0.0,0.0,0.0,"[0.7560376726092564, 0.8930025490620821, 0.7589092326591427, 0.569125529493391, 0.8552508969049057, 0.4896028194354187, 0.6578522030439871, 0.7041155983323257, 0.9437516280921017]",22.06,0.0,0.0,755.1249360653335,251.65747868239578,78.46328778902608,-1655.1318346859496,-864.9118413137398,0.0,0.0,0.0,0.0,0.0,0.0,0.0,-1.7,21.752914966097297,0.0,21.43691573857434,0.0,-1.7,22.06,20.73,22.14,21.83,22.26,-1.67,-1.7,628.9,-1152.93,-910.82,1200.1,104.0,74.0,122.0,0.0,0.0,0.0,0.0,0.0,0.0,0.0,0.0,0.0,0.0,0.0,0.0,0.0,0.0
490.0,5030.0,5534.896493448114,0.0,-0.0,9636.834719032613,-10114.056730013486,0.0,5960.689665272333,0.0,5960.6896652723335,0.0,0.0,0.3671027998301191,0.3369498680218391,1.0,0.0,0.0,0.0,"[0.7560376726092564, 0.8930025490620821, 0.7589092326591427, 0.569125529493391, 0.8552508969049057, 0.4896028194354187, 0.6578522030439871, 0.7041155983323257, 0.9437516280921017]",21.53,0.0,0.0,1343.3045047604105,322.50343745579136,59.36656938969215,-1353.7833192130802,168.1609894778038,0.0,0.0,0.0,0.0,0.0,0.0,0.0,2.1,21.606583574774742,0.0,21.435269985773537,0.0,2.1,21.53,20.74,22.13,21.5,22.03,2.43,2.1,414.19,-943.02,-744.99,2134.88,110.0,34.0,175.0,0.0,0.0,0.0,0.0,0.0,0.0,0.0,0.0,0.0,0.0,0.0,0.0,0.0,0.0
491.0,3663.0,0.0,0.0,-0.0,13537.883390200614,-9874.883390200614,0.0,6241.965153156143,0.0,6241.965153156144,0.0,0.0,0.7255244932522155,0.3133596746992536,1.0,0.0,0.0,0.0,"[0.7560376726092564, 0.8930025490620821, 0.7589092326591427, 0.569125529493391, 0.8552508969049057, 0.4896028194354187, 0.6578522030439871, 0.7041155983323257, 0.9437516280921017]",21.75,0.0,0.0,1762.869542457158,1098.6507041394038,71.54190715005825,-1152.509258986413,-201.74097307297933,0.0,0.0,0.0,0.0,0.0,0.0,0.0,5.2,21.67874843413204,0.0,21.4576143295239,0.0,5.2,21.75,20.77,22.14,21.75,22.23,5.71,5.2,0.0,-802.82,-634.23,2801.69,155.0,0.0,724.0,0.0,0.0,0.0,0.0,0.0,0.0,0.0,0.0,0.0,0.0,0.0,0.0,0.0,0.0
492.0,1810.0,0.0,24935.391310521452,-0.0,15507.35863441477,11238.032676106683,0.0,1174.7950463447128,0.0,-80000.0,0.0,81174.79504634472,0.30080670503956686,0.6037300450696239,1.0,0.0,0.0,0.0,"[0.7560376726092564, 0.8930025490620821, 0.7589092326591427, 0.569125529493391, 0.8552508969049057, 0.4896028194354187, 0.6578522030439871, 0.7041155983323257, 0.9437516280921017]",22.34,0.0,0.0,1944.9490234711866,1061.0384626021605,24.476518805077102,-1047.9237151437155,-1238.7787516573476,321.7170797380061,0.0,0.0,0.0,0.0,0.0,0.0,7.3,21.8929384587389,0.0,21.526626849900243,0.0,7.3,22.34,20.83,22.22,22.15,22.56,7.9,7.3,0.0,-729.96,-576.67,3091.07,0.0,0.0,778.0,0.0,0.0,0.0,0.0,0.0,0.0,0.0,0.0,0.0,0.0,0.0,0.0,0.0,0.0
493.0,2212.0,0.0,1912.639289236673,-0.0,13536.256038114461,-9411.616748877788,0.0,6390.51930918926,0.0,0.0,0.0,6390.51930918926,0.6424135351840199,0.6037300450696239,1.0,0.0,0.0,0.0,"[0.7560376726092564, 0.8930025490620821, 0.7589092326591427, 0.569125529493391, 0.8552508969049057, 0.4896028194354187, 0.6578522030439871, 0.7041155983323257, 0.9437516280921017]",22.76,0.0,0.0,1664.229491791014,261.85010902264116,6.040477648553731,-1013.9382277061278,-1833.9538682709724,0.0,0.0,0.0,0.0,0.0,0.0,0.0,8.2,22.084740926469237,0.0,21.632129270478,0.0,8.2,22.76,20.93,22.34,22.44,22.83,8.62,8.2,0.0,-706.29,-557.97,2644.92,0.0,0.0,192.0,0.0,0.0,0.0,0.0,0.0,0.0,0.0,0.0,0.0,0.0,0.0,0.0,0.0,0.0
494.0,2402.0,0.0,1048.0107815956771,-0.0,10990.859156728613,-7540.848375132936,0.0,3501.618508892276,0.0,0.0,0.0,3501.618508892276,0.9161184021332894,0.6037300450696239,1.0,0.0,0.0,0.0,"[0.7560376726092564, 0.8930025490620821, 0.7589092326591427, 0.569125529493391, 0.8552508969049057, 0.4896028194354187, 0.6578522030439871, 0.7041155983323257, 0.9437516280921017]",22.43,0.0,0.0,1466.5690533085724,181.38575260422542,4.184289204466908,-991.4514534570391,-1036.7055608274356,1210.7265108692416,0.0,0.0,0.0,0.0,0.0,0.0,8.2,22.05671696543659,0.0,21.71382611729461,0.0,8.2,22.43,21.01,22.42,22.24,22.69,8.49,8.2,0.0,-690.63,-545.6,2330.79,0.0,0.0,133.0,0.0,0.0,0.0,0.0,0.0,0.0,0.0,0.0,0.0,0.0,0.0,0.0,0.0,0.0
495.0,1215.0,0.0,618.9538235522966,-0.0,4144.977438247384,-2311.0236146950874,0.0,1979.5412493375356,0.0,0.0,0.0,1979.5412493375356,1.0,0.6037300450696239,1.0,0.0,0.0,0.0,"[0.7560376726092564, 0.8930025490620821, 0.7589092326591427, 0.569125529493391, 0.8552508969049057, 0.4896028194354187, 0.6578522030439871, 0.7041155983323257, 0.9437516280921017]",22.76,0.0,0.0,933.6927517642788,252.4470486383303,46.656397670860336,-1118.4245842110406,-1496.0745706931893,0.0,0.0,0.0,0.0,0.0,0.0,0.0,6.7,22.21069026986239,0.0,21.803295818183408,0.0,6.7,22.76,21.09,22.52,22.5,22.9,6.67,6.7,75.92,-779.07,-615.47,1483.9,137.0,0.0,113.0,0.0,0.0,0.0,0.0,0.0,0.0,0.0,0.0,0.0,0.0,0.0,0.0,0.0,0.0
496.0,3528.0,0.0,2676.6086525450555,-0.0,0.0,6204.6086525450555,0.0,7973.453902467889,0.0,0.0,0.0,7973.453902467889,0.7655098770769064,0.6037300450696239,0.978134110787172,0.0,0.0,0.0,"[0.7560376726092564, 0.8930025490620821, 0.7589092326591427, 0.569125529493391, 0.8552508969049057, 0.4896028194354187, 0.6578522030439871, 0.7041155983323257, 0.9437516280921017]",22.25,0.0,0.0,2.037894581986163,357.38807369071554,59.177804463174844,-1243.553197119262,-444.8057218880511,0.0,0.0,0.0,0.0,0.0,0.0,0.0,4.4,22.097100791600905,0.0,21.839126570597816,0.0,4.4,22.25,21.14,22.54,22.07,22.57,3.74,4.4,902.4,-866.24,-684.33,3.24,101.0,37.0,205.0,0.0,0.0,0.0,0.0,0.0,0.0,0.0,0.0,0.0,0.0,0.0,0.0,0.0,0.0
497.0,5338.0,0.0,0.0,-0.0,0.0,5338.0,0.0,0.0,0.0,0.0,0.0,0.0,0.5637714039098618,0.6037300450696239,0.978134110787172,0.0,0.0,0.0,"[0.7560376726092564, 0.8930025490620821, 0.7589092326591427, 0.569125529493391, 0.8552508969049057, 0.4896028194354187, 0.6578522030439871, 0.7041155983323257, 0.9437516280921017]",21.78,0.0,0.0,0.0,603.8056790291824,121.69045596148875,-1224.625936655453,399.9639239902782,0.0,0.0,0.0,0.0,0.0,0.0,0.0,4.2,21.937711162811883,0.0,21.80565876851051,0.0,4.2,21.78,21.14,22.47,21.63,22.18,3.55,4.2,1014.39,-853.05,-673.91,0.0,167.0,103.0,344.0,0.0,0.0,0.0,0.0,0.0,0.0,0.0,0.0,0.0,0.0,0.0,0.0,0.0,0.0
498.0,6325.0,0.0,0.0,-0.0,0.0,639.0,0.0,0.0,0.0,6948.929484331993,0.0,0.0,0.14504913076341647,0.2941659798818369,1.0,0.0,0.0,0.0,"[0.7560376726092564, 0.8930025490620821, 0.7589092326591427, 0.569125529493391, 0.8552508969049057, 0.4896028194354187, 0.6578522030439871, 0.7041155983323257, 0.9437516280921017]",21.74,0.0,0.0,0.0,2246.1829664598436,170.73787603490157,-1242.672133262423,382.9062710367183,0.0,0.0,0.0,0.0,0.0,0.0,0.0,3.9,21.890579340288255,0.0,21.765194514703765,0.0,3.9,21.74,21.13,22.4,21.62,22.13,3.3,3.9,137.88,-865.62,-683.84,0.0,110.0,153.0,1573.0,0.0,0.0,0.0,0.0,0.0,0.0,0.0,0.0,0.0,0.0,0.0,0.0,0.0,0.0
499.0,6796.0,0.0,1678.9999999999995,-0.0,0.0,3837.9999999999995,0.0,4110.540602237588,0.0,805.5827815263092,0.0,3304.957820711279,0.0,0.2911214493394094,1.0,0.0,0.0,0.0,"[0.7560376726092564, 0.8930025490620821, 0.7589092326591427, 0.569125529493391, 0.8552508969049057, 0.4896028194354187, 0.6578522030439871, 0.7041155983323257, 0.9437516280921017]",21.35,0.0,0.0,0.0,2673.7709871418265,144.40516878573766,-1229.657063842049,655.0083831044078,756.5612584934961,0.0,0.0,0.0,0.0,0.0,0.0,3.7,21.604281295268994,0.0,21.49143014316192,0.0,3.7,21.35,20.77,22.22,21.25,21.86,3.12,3.7,1458.33,-856.56,-676.68,0.0,100.0,94.0,1898.0,0.0,0.0,0.0,0.0,0.0,0.0,0.0,0.0,0.0,0.0,0.0,0.0,0.0,0.0
500.0,6443.0,62072.04673949512,0.0,-0.0,0.0,0.0,0.0,28119.69873976093,0.0,-25379.61911545692,0.0,0.0,0.0,0.3832400668695864,1.0,237774.7460231906,59443.68650579765,297218.4325289882,"[0.7560376726092564, 0.8930025490620821, 0.7589092326591427, 0.569125529493391, 0.8552508969049057, 0.4896028194354187, 0.6578522030439871, 0.7041155983323257, 0.9437516280921017]",21.24,0.0,0.0,0.0,1816.7286895183793,97.2139371564116,-1236.0013156996608,740.3754164800638,3052.7737201497216,0.0,0.0,0.0,0.0,0.0,0.0,3.5,21.52698198906295,0.0,21.43232563653808,0.0,3.5,21.24,20.73,22.13,21.25,21.82,2.92,3.5,1341.39,-860.98,-680.17,0.0,93.0,49.0,1278.0,0.0,0.0,0.0,0.0,0.0,0.0,0.0,0.0,0.0,0.0,0.0,0.0,0.0,0.0
501.0,3965.0,1898.7603231539854,0.0,-0.0,0.0,0.0,0.0,6287.696949841597,0.0,6287.696949841597,0.0,0.0,0.0,0.3594770398482652,1.0,0.0,0.0,0.0,"[0.7560376726092564, 0.8930025490620821, 0.7589092326591427, 0.569125529493391, 0.8552508969049057, 0.4896028194354187, 0.6578522030439871, 0.7041155983323257, 0.9437516280921017]",22.06,0.0,0.0,0.0,475.39289255947176,86.1082673129769,-1313.8097367699013,-859.0561672900667,0.0,0.0,0.0,0.0,0.0,0.0,0.0,3.2,21.752914966097297,0.0,21.43691573857434,0.0,3.2,22.06,20.73,22.14,21.83,22.26,2.66,3.2,628.9,-915.18,-722.99,0.0,135.0,62.0,271.0,0.0,0.0,0.0,0.0,0.0,0.0,0.0,0.0,0.0,0.0,0.0,0.0,0.0,0.0
502.0,2839.0,5534.896493448114,0.0,-0.0,0.0,-10114.056730013486,0.0,5960.689665272333,0.0,5960.6896652723335,0.0,0.0,0.3671027998301191,0.3369498680218391,1.0,0.0,0.0,0.0,"[0.7560376726092564, 0.8930025490620821, 0.7589092326591427, 0.569125529493391, 0.8552508969049057, 0.4896028194354187, 0.6578522030439871, 0.7041155983323257, 0.9437516280921017]",21.53,0.0,0.0,0.0,406.6285273062671,78.49474861011231,-1291.0915053101326,168.23806029649327,0.0,0.0,0.0,0.0,0.0,0.0,0.0,3.0,21.606583574774742,0.0,21.435269985773537,0.0,3.0,21.53,20.74,22.13,21.5,22.03,2.49,3.0,414.19,-899.35,-710.49,0.0,128.0,55.0,225.0,0.0,0.0,0.0,0.0,0.0,0.0,0.0,0.0,0.0,0.0,0.0,0.0,0.0,0.0
503.0,2051.0,0.0,0.0,-0.0,0.0,-9874.883390200614,0.0,6241.965153156143,0.0,6241.965153156144,0.0,0.0,0.7255244932522155,0.3133596746992536,1.0,0.0,0.0,0.0,"[0.7560376726092564, 0.8930025490620821, 0.7589092326591427, 0.569125529493391, 0.8552508969049057, 0.4896028194354187, 0.6578522030439871, 0.7041155983323257, 0.9437516280921017]",21.75,0.0,0.0,0.0,333.41385866506806,68.42728586252275,-1319.6874293942735,-206.32365094800394,0.0,0.0,0.0,0.0,0.0,0.0,0.0,2.8,21.67874843413204,0.0,21.4576143295239,0.0,2.8,21.75,20.77,22.14,21.75,22.23,2.32,2.8,0.0,-919.27,-726.22,0.0,149.0,29.0,163.0,0.0,0.0,0.0,0.0,0.0,0.0,0.0,0.0,0.0,0.0,0.0,0.0,0.0,0.0
504.0,1503.0,0.0,24935.391310521452,-0.0,0.0,11238.032676106683,0.0,1174.7950463447128,0.0,-80000.0,0.0,81174.79504634472,0.30080670503956686,0.6037300450696239,1.0,0.0,0.0,0.0,"[0.7560376726092564, 0.8930025490620821, 0.7589092326591427, 0.569125529493391, 0.8552508969049057, 0.4896028194354187, 0.6578522030439871, 0.7041155983323257, 0.9437516280921017]",22.34,0.0,0.0,0.0,667.1866127646518,63.078946277865796,-1396.2115701600912,-1246.9781465451133,321.7170797380061,0.0,0.0,0.0,0.0,0.0,0.0,2.3,21.8929384587389,0.0,21.526626849900243,0.0,2.3,22.34,20.83,22.22,22.15,22.56,1.83,2.3,0.0,-972.58,-768.33,0.0,160.0,0.0,405.0,0.0,0.0,0.0,0.0,0.0,0.0,0.0,0.0,0.0,0.0,0.0,0.0,0.0,0.0
505.0,1630.0,0.0,1912.639289236673,-0.0,0.0,-9411.616748877788,0.0,6390.51930918926,0.0,0.0,0.0,6390.51930918926,0.6424135351840199,0.6037300450696239,1.0,0.0,0.0,0.0,"[0.7560376726092564, 0.8930025490620821, 0.7589092326591427, 0.569125529493391, 0.8552508969049057, 0.4896028194354187, 0.6578522030439871, 0.7041155983323257, 0.9437516280921017]",22.76,0.0,0.0,0.0,987.6802357871553,70.47223923312688,-1452.7809250267615,-1843.6425068575509,0.0,0.0,0.0,0.0,0.0,0.0,0.0,1.9,22.084740926469237,0.0,21.632129270478,0.0,1.9,22.76,20.93,22.34,22.44,22.83,1.45,1.9,0.0,-1011.98,-799.46,0.0,160.0,0.0,640.0,0.0,0.0,0.0,0.0,0.0,0.0,0.0,0.0,0.0,0.0,0.0,0.0,0.0,0.0
506.0,1122.0,0.0,1048.0107815956771,-0.0,0.0,-7540.848375132936,0.0,3501.618508892276,0.0,0.0,0.0,3501.618508892276,0.9161184021332894,0.6037300450696239,1.0,0.0,0.0,0.0,"[0.7560376726092564, 0.8930025490620821, 0.7589092326591427, 0.569125529493391, 0.8552508969049057, 0.4896028194354187, 0.6578522030439871, 0.7041155983323257, 0.9437516280921017]",22.43,0.0,0.0,0.0,534.8977556021715,60.02724663250272,-1465.1229362793104,-1046.8909641553814,1210.7265108692416,0.0,0.0,0.0,0.0,0.0,0.0,1.4,22.05671696543659,0.0,21.71382611729461,0.0,1.4,22.43,21.01,22.42,22.24,22.69,0.96,1.4,0.0,-1020.58,-806.26,0.0,160.0,0.0,308.0,0.0,0.0,0.0,0.0,0.0,0.0,0.0,0.0,0.0,0.0,0.0,0.0,0.0,0.0
507.0,688.0,0.0,618.9538235522966,-0.0,0.0,-2311.0236146950874,0.0,1979.5412493375356,0.0,0.0,0.0,1979.5412493375356,1.0,0.6037300450696239,1.0,0.0,0.0,0.0,"[0.7560376726092564, 0.8930025490620821, 0.7589092326591427, 0.569125529493391, 0.8552508969049057, 0.4896028194354187, 0.6578522030439871, 0.7041155983323257, 0.9437516280921017]",22.76,0.0,0.0,0.0,312.09546985483655,58.265440651674545,-1501.541224729054,-1504.0174236733046,0.0,0.0,0.0,0.0,0.0,0.0,0.0,1.2,22.21069026986239,0.0,21.803295818183408,0.0,1.2,22.76,21.09,22.52,22.5,22.9,0.8,1.2,75.92,-1045.95,-826.3,0.0,160.0,6.0,144.0,0.0,0.0,0.0,0.0,0.0,0.0,0.0,0.0,0.0,0.0,0.0,0.0,0.0,0.0
508.0,711.0,0.0,2676.6086525450555,-0.0,0.0,6204.6086525450555,0.0,7973.453902467889,0.0,0.0,0.0,7973.453902467889,0.7655098770769064,0.6037300450696239,0.978134110787172,0.0,0.0,0.0,"[0.7560376726092564, 0.8930025490620821, 0.7589092326591427, 0.569125529493391, 0.8552508969049057, 0.4896028194354187, 0.6578522030439871, 0.7041155983323257, 0.9437516280921017]",22.25,0.0,0.0,0.0,180.5961826482909,63.67670187850392,-1480.3889385303978,-449.03987123183595,0.0,0.0,0.0,0.0,0.0,0.0,0.0,1.0,22.097100791600905,0.0,21.839126570597816,0.0,1.0,22.25,21.14,22.54,22.07,22.57,0.6,1.0,902.4,-1031.21,-814.66,0.0,160.0,21.0,46.0,0.0,0.0,0.0,0.0,0.0,0.0,0.0,0.0,0.0,0.0,0.0,0.0,0.0,0.0
509.0,1414.0,0.0,0.0,-0.0,0.0,5338.0,0.0,0.0,0.0,0.0,0.0,0.0,0.5637714039098618,0.6037300450696239,0.978134110787172,0.0,0.0,0.0,"[0.7560376726092564, 0.8930025490620821, 0.7589092326591427, 0.569125529493391, 0.8552508969049057, 0.4896028194354187, 0.6578522030439871, 0.7041155983323257, 0.9437516280921017]",21.78,0.0,0.0,0.0,263.7881443690258,65.59581196476319,-1468.427435166916,395.6567545026409,0.0,0.0,0.0,0.0,0.0,0.0,0.0,0.7,21.937711162811883,0.0,21.80565876851051,0.0,0.7,21.78,21.14,22.47,21.63,22.18,0.37,0.7,1014.39,-1022.88,-808.07,0.0,160.0,21.0,107.0,0.0,0.0,0.0,0.0,0.0,0.0,0.0,0.0,0.0,0.0,0.0,0.0,0.0,0.0
510.0,953.0,0.0,0.0,-0.0,0.0,639.0,0.0,0.0,0.0,6948.929484331993,0.0,0.0,0.14504913076341647,0.2941659798818369,1.0,0.0,0.0,0.0,"[0.7560376726092564, 0.8930025490620821, 0.7589092326591427, 0.569125529493391, 0.8552508969049057, 0.4896028194354187, 0.6578522030439871, 0.7041155983323257, 0.9437516280921017]",21.74,0.0,0.0,0.0,246.6329425991763,95.1375229647213,-1472.5421175732308,378.8022265623958,0.0,0.0,0.0,0.0,0.0,0.0,0.0,0.6,21.890579340288255,0.0,21.765194514703765,0.0,0.6,21.74,21.13,22.4,21.62,22.13,0.26,0.6,137.88,-1025.75,-810.34,0.0,234.0,35.0,54.0,0.0,0.0,0.0,0.0,0.0,0.0,0.0,0.0,0.0,0.0,0.0,0.0,0.0,0.0
511.0,1079.0,0.0,1678.9999999999995,-0.0,0.0,3837.9999999999995,0.0,4110.540602237588,0.0,805.5827815263092,0.0,3304.957820711279,0.0,0.2911214493394094,1.0,0.0,0.0,0.0,"[0.7560376726092564, 0.8930025490620821, 0.7589092326591427, 0.569125529493391, 0.8552508969049057, 0.4896028194354187, 0.6578522030439871, 0.7041155983323257, 0.9437516280921017]",21.35,0.0,0.0,0.0,372.67701920108357,116.02750816596964,-1459.527048152857,650.9038932670843,756.5612584934961,0.0,0.0,0.0,0.0,0.0,0.0,0.4,21.604281295268994,0.0,21.49143014316192,0.0,0.4,21.35,20.77,22.22,21.25,21.86,0.08,0.4,1458.33,-1016.68,-803.18,0.0,300.0,32.0,112.0,0.0,0.0,0.0,0.0,0.0,0.0,0.0,0.0,0.0,0.0,0.0,0.0,0.0,0.0
512.0,1313.0,62072.04673949512,0.0,-0.0,0.0,0.0,0.0,28119.69873976093,0.0,-25379.61911545692,0.0,0.0,0.0,0.3832400668695864,1.0,237774.7460231906,59443.68650579765,297218.4325289882,"[0.7560376726092564, 0.8930025490620821, 0.7589092326591427, 0.569125529493391, 0.8552508969049057, 0.4896028194354187, 0.6578522030439871, 0.7041155983323257, 0.9437516280921017]",21.24,0.0,0.0,2.0077957000376307,268.31022684392343,88.15322068358103,-1438.0082716091588,736.8048490495655,3052.7737201497216,0.0,0.0,0.0,0.0,0.0,0.0,0.6,21.52698198906295,0.0,21.43232563653808,0.0,0.6,21.24,20.73,22.13,21.25,21.82,0.27,0.6,1341.39,-1001.69,-791.34,3.19,224.0,27.0,76.0,0.0,0.0,0.0,0.0,0.0,0.0,0.0,0.0,0.0,0.0,0.0,0.0,0.0,0.0
513.0,4969.0,1898.7603231539854,0.0,-0.0,22.798557017147075,0.0,0.0,6287.696949841597,0.0,6287.696949841597,0.0,0.0,0.0,0.3594770398482652,1.0,0.0,0.0,0.0,"[0.7560376726092564, 0.8930025490620821, 0.7589092326591427, 0.569125529493391, 0.8552508969049057, 0.4896028194354187, 0.6578522030439871, 0.7041155983323257, 0.9437516280921017]",22.06,0.0,0.0,33.380753885461125,1597.8024744638137,86.20264977623556,-1432.227607475469,-861.0098308084353,0.0,0.0,0.0,0.0,0.0,0.0,0.0,1.5,21.752914966097297,0.0,21.43691573857434,0.0,1.5,22.06,20.73,22.14,21.83,22.26,1.21,1.5,628.9,-997.66,-788.15,53.05,141.0,13.0,1096.0,0.0,0.0,0.0,0.0,0.0,0.0,0.0,0.0,0.0,0.0,0.0,0.0,0.0,0.0
514.0,5009.0,5534.896493448114,0.0,-0.0,1080.3377366628922,-10114.056730013486,0.0,5960.689665272333,0.0,5960.6896652723335,0.0,0.0,0.3671027998301191,0.3369498680218391,1.0,0.0,0.0,0.0,"[0.7560376726092564, 0.8930025490620821, 0.7589092326591427, 0.569125529493391, 0.8552508969049057, 0.4896028194354187, 0.6578522030439871, 0.7041155983323257, 0.9437516280921017]",21.53,0.0,0.0,92.34549773009573,555.139458108856,88.27906396792592,-1305.0230195107874,168.25769247022643,0.0,0.0,0.0,0.0,0.0,0.0,0.0,2.8,21.606583574774742,0.0,21.435269985773537,0.0,2.8,21.53,20.74,22.13,21.5,22.03,2.5,2.8,414.19,-909.06,-718.15,146.76,240.0,7.0,280.0,0.0,0.0,0.0,0.0,0.0,0.0,0.0,0.0,0.0,0.0,0.0,0.0,0.0,0.0
515.0,8792.0,0.0,0.0,-0.0,2393.493674858584,-9874.883390200614,0.0,6241.965153156143,0.0,6241.965153156144,0.0,0.0,0.7255244932522155,0.3133596746992536,1.0,0.0,0.0,0.0,"[0.7560376726092564, 0.8930025490620821, 0.7589092326591427, 0.569125529493391, 0.8552508969049057, 0.4896028194354187, 0.6578522030439871, 0.7041155983323257, 0.9437516280921017]",21.75,0.0,0.0,113.99666147455964,1568.1577115728185,91.0161554024268,-1250.0298583909982,-204.765408221528,0.0,0.0,0.0,0.0,0.0,0.0,0.0,3.8,21.67874843413204,0.0,21.4576143295239,0.0,3.8,21.75,20.77,22.14,21.75,22.23,3.47,3.8,0.0,-870.75,-687.89,181.17,184.0,0.0,1053.0,0.0,0.0,0.0,0.0,0.0,0.0,0.0,0.0,0.0,0.0,0.0,0.0,0.0,0.0
516.0,4319.0,0.0,24935.391310521452,-0.0,5743.281754981661,11238.032676106683,0.0,1174.7950463447128,43424.59,-80000.0,0.0,81174.79504634472,0.30080670503956686,0.6037300450696239,1.0,0.0,0.0,0.0,"[0.7560376726092564, 0.8930025490620821, 0.7589092326591427, 0.569125529493391, 0.8552508969049057, 0.4896028194354187, 0.6578522030439871, 0.7041155983323257, 0.9437516280921017]",22.34,0.0,0.0,164.98544835526013,471.3014846059928,74.05877283695567,-1235.9991568525588,-1243.6925136753016,321.7170797380061,0.0,0.0,0.0,0.0,0.0,0.0,4.6,21.8929384587389,0.0,21.526626849900243,0.0,4.6,22.34,20.83,22.22,22.15,22.56,4.26,4.6,0.0,-860.97,-680.17,262.21,212.0,0.0,234.0,0.0,0.0,0.0,0.0,0.0,0.0,0.0,0.0,0.0,0.0,0.0,0.0,0.0,0.0
517.0,4851.0,0.0,1912.639289236673,-0.0,4660.130215714707,-9411.616748877788,0.0,6390.51930918926,0.0,0.0,0.0,6390.51930918926,0.6424135351840199,0.6037300450696239,1.0,0.0,0.0,0.0,"[0.7560376726092564, 0.8930025490620821, 0.7589092326591427, 0.569125529493391, 0.8552508969049057, 0.4896028194354187, 0.6578522030439871, 0.7041155983323257, 0.9437516280921017]",22.76,0.0,0.0,166.27693719740464,204.5703976739384,4.7191231629326005,-1229.876697816281,-1839.1939088443728,0.0,0.0,0.0,0.0,0.0,0.0,0.0,5.1,22.084740926469237,0.0,21.632129270478,0.0,5.1,22.76,20.93,22.34,22.44,22.83,4.74,5.1,0.0,-856.71,-676.8,264.26,0.0,0.0,150.0,0.0,0.0,0.0,0.0,0.0,0.0,0.0,0.0,0.0,0.0,0.0,0.0,0.0,0.0
518.0,2654.0,0.0,1048.0107815956771,-0.0,1799.5756846087384,-7540.848375132936,0.0,3501.618508892276,0.0,0.0,0.0,3501.618508892276,0.9161184021332894,0.6037300450696239,1.0,0.0,0.0,0.0,"[0.7560376726092564, 0.8930025490620821, 0.7589092326591427, 0.569125529493391, 0.8552508969049057, 0.4896028194354187, 0.6578522030439871, 0.7041155983323257, 0.9437516280921017]",22.43,0.0,0.0,140.96332759594767,455.72542274801225,46.27886781782573,-1193.4584093665371,-1041.5165220154627,1210.7265108692416,0.0,0.0,0.0,0.0,0.0,0.0,5.3,22.05671696543659,0.0,21.71382611729461,0.0,5.3,22.43,21.01,22.42,22.24,22.69,4.93,5.3,0.0,-831.34,-656.76,224.03,120.0,0.0,271.0,0.0,0.0,0.0,0.0,0.0,0.0,0.0,0.0,0.0,0.0,0.0,0.0,0.0,0.0
519.0,2154.0,0.0,618.9538235522966,-0.0,55.293922545806765,-2311.0236146950874,0.0,1979.5412493375356,0.0,0.0,0.0,1979.5412493375356,1.0,0.6037300450696239,1.0,0.0,0.0,0.0,"[0.7560376726092564, 0.8930025490620821, 0.7589092326591427, 0.569125529493391, 0.8552508969049057, 0.4896028194354187, 0.6578522030439871, 0.7041155983323257, 0.9437516280921017]",22.76,0.0,0.0,44.458178475693536,419.6205420357347,40.081086063840914,-1250.7739691172633,-1499.1697590417793,0.0,0.0,0.0,0.0,0.0,0.0,0.0,4.8,22.21069026986239,0.0,21.803295818183408,0.0,4.8,22.76,21.09,22.52,22.5,22.9,4.38,4.8,75.92,-871.27,-688.3,70.66,85.0,9.0,262.0,0.0,0.0,0.0,0.0,0.0,0.0,0.0,0.0,0.0,0.0,0.0,0.0,0.0,0.0
520.0,1787.0,0.0,2676.6086525450555,-0.0,0.0,6204.6086525450555,0.0,7973.453902467889,0.0,0.0,0.0,7973.453902467889,0.7655098770769064,0.6037300450696239,0.978134110787172,0.0,0.0,0.0,"[0.7560376726092564, 0.8930025490620821, 0.7589092326591427, 0.569125529493391, 0.8552508969049057, 0.4896028194354187, 0.6578522030439871, 0.7041155983323257, 0.9437516280921017]",22.25,0.0,0.0,1.0082239625138492,444.0972106697041,87.87007329380505,-1271.4162255205722,-445.0227797257193,0.0,0.0,0.0,0.0,0.0,0.0,0.0,4.0,22.097100791600905,0.0,21.839126570597816,0.0,4.0,22.25,21.14,22.54,22.07,22.57,3.58,4.0,902.4,-885.65,-699.66,1.6,166.0,50.0,233.0,0.0,0.0,0.0,0.0,0.0,0.0,0.0,0.0,0.0,0.0,0.0,0.0,0.0,0.0
521.0,2584.0,0.0,0.0,-0.0,0.0,5338.0,0.0,0.0,0.0,0.0,0.0,0.0,0.5637714039098618,0.6037300450696239,0.978134110787172,0.0,0.0,0.0,"[0.7560376726092564, 0.8930025490620821, 0.7589092326591427, 0.569125529493391, 0.8552508969049057, 0.4896028194354187, 0.6578522030439871, 0.7041155983323257, 0.9437516280921017]",21.78,0.0,0.0,0.0,370.88254202850516,87.87007329380506,-1287.3177505584003,399.03368688328777,0.0,0.0,0.0,0.0,0.0,0.0,0.0,3.3,21.937711162811883,0.0,21.80565876851051,0.0,3.3,21.78,21.14,22.47,21.63,22.18,2.87,3.3,1014.39,-896.72,-708.41,0.0,81.0,98.0,219.0,0.0,0.0,0.0,0.0,0.0,0.0,0.0,0.0,0.0,0.0,0.0,0.0,0.0,0.0
522.0,4064.0,0.0,0.0,-0.0,0.0,639.0,0.0,0.0,0.0,6948.929484331993,0.0,0.0,0.14504913076341647,0.2941659798818369,1.0,0.0,0.0,0.0,"[0.7560376726092564, 0.8930025490620821, 0.7589092326591427, 0.569125529493391, 0.8552508969049057, 0.4896028194354187, 0.6578522030439871, 0.7041155983323257, 0.9437516280921017]",21.74,0.0,0.0,0.0,1171.0040237377652,179.51544511795626,-1333.2269755666805,381.41648433481106,0.0,0.0,0.0,0.0,0.0,0.0,0.0,2.6,21.890579340288255,0.0,21.765194514703765,0.0,2.6,21.74,21.13,22.4,21.62,22.13,2.2,2.6,137.88,-928.7,-733.67,0.0,234.0,147.0,720.0,0.0,0.0,0.0,0.0,0.0,0.0,0.0,0.0,0.0,0.0,0.0,0.0,0.0,0.0
523.0,4390.0,0.0,1678.9999999999995,-0.0,0.0,3837.9999999999995,0.0,4110.540602237588,0.0,805.5827815263092,0.0,3304.957820711279,0.0,0.2911214493394094,1.0,0.0,0.0,0.0,"[0.7560376726092564, 0.8930025490620821, 0.7589092326591427, 0.569125529493391, 0.8552508969049057, 0.4896028194354187, 0.6578522030439871, 0.7041155983323257, 0.9437516280921017]",21.35,0.0,0.0,0.0,811.5343565268588,169.6996689390564,-1355.0406916479444,652.7901012381124,756.5612584934961,0.0,0.0,0.0,0.0,0.0,0.0,1.9,21.604281295268994,0.0,21.49143014316192,0.0,1.9,21.35,20.77,22.22,21.25,21.86,1.48,1.9,1458.33,-943.9,-745.68,0.0,312.0,103.0,420.0,0.0,0.0,0.0,0.0,0.0,0.0,0.0,0.0,0.0,0.0,0.0,0.0,0.0,0.0
524.0,4454.0,62072.04673949512,0.0,-0.0,0.0,0.0,0.0,28119.69873976093,0.0,-25379.61911545692,0.0,0.0,0.0,0.3832400668695864,1.0,237774.7460231906,59443.68650579765,297218.4325289882,"[0.7560376726092564, 0.8930025490620821, 0.7589092326591427, 0.569125529493391, 0.8552508969049057, 0.4896028194354187, 0.6578522030439871, 0.7041155983323257, 0.9437516280921017]",21.24,0.0,0.0,0.0,552.2682946327304,119.73988505414329,-1389.247971906866,737.6125631976007,3052.7737201497216,0.0,0.0,0.0,0.0,0.0,0.0,1.3,21.52698198906295,0.0,21.43232563653808,0.0,1.3,21.24,20.73,22.13,21.25,21.82,0.87,1.3,1341.39,-967.72,-764.5,0.0,240.0,63.0,272.0,0.0,0.0,0.0,0.0,0.0,0.0,0.0,0.0,0.0,0.0,0.0,0.0,0.0,0.0
525.0,4413.0,1898.7603231539854,0.0,-0.0,0.0,0.0,0.0,6287.696949841597,0.0,6287.696949841597,0.0,0.0,0.0,0.3594770398482652,1.0,0.0,0.0,0.0,"[0.7560376726092564, 0.8930025490620821, 0.7589092326591427, 0.569125529493391, 0.8552508969049057, 0.4896028194354187, 0.6578522030439871, 0.7041155983323257, 0.9437516280921017]",22.06,0.0,0.0,0.0,671.9958115871618,142.76920608925437,-1494.9194213784167,-862.4335040612093,0.0,0.0,0.0,0.0,0.0,0.0,0.0,0.6,21.752914966097297,0.0,21.43691573857434,0.0,0.6,22.06,20.73,22.14,21.83,22.26,0.16,0.6,628.9,-1041.33,-822.65,0.0,274.0,81.0,340.0,0.0,0.0,0.0,0.0,0.0,0.0,0.0,0.0,0.0,0.0,0.0,0.0,0.0,0.0
526.0,4338.0,5534.896493448114,0.0,-0.0,0.0,-10114.056730013486,0.0,5960.689665272333,0.0,5960.6896652723335,0.0,0.0,0.3671027998301191,0.3369498680218391,1.0,0.0,0.0,0.0,"[0.7560376726092564, 0.8930025490620821, 0.7589092326591427, 0.569125529493391, 0.8552508969049057, 0.4896028194354187, 0.6578522030439871, 0.7041155983323257, 0.9437516280921017]",21.53,0.0,0.0,0.0,490.0358262877115,139.46581987520153,-1507.0299754202856,164.1163002968371,0.0,0.0,0.0,0.0,0.0,0.0,0.0,-0.1,21.606583574774742,0.0,21.435269985773537,0.0,-0.1,21.53,20.74,22.13,21.5,22.03,-0.56,-0.1,414.19,-1049.77,-829.32,0.0,260.0,90.0,213.0,0.0,0.0,0.0,0.0,0.0,0.0,0.0,0.0,0.0,0.0,0.0,0.0,0.0,0.0
527.0,1867.0,0.0,0.0,-0.0,0.0,-9874.883390200614,0.0,6241.965153156143,0.0,6241.965153156144,0.0,0.0,0.7255244932522155,0.3133596746992536,1.0,0.0,0.0,0.0,"[0.7560376726092564, 0.8930025490620821, 0.7589092326591427, 0.569125529493391, 0.8552508969049057, 0.4896028194354187, 0.6578522030439871, 0.7041155983323257, 0.9437516280921017]",21.75,0.0,0.0,0.0,365.42733142386686,94.03639422670369,-1563.4889279057365,-211.01861677426206,0.0,0.0,0.0,0.0,0.0,0.0,0.0,-0.7,21.67874843413204,0.0,21.4576143295239,0.0,-0.7,21.75,20.77,22.14,21.75,22.23,-1.16,-0.7,0.0,-1089.1,-860.39,0.0,240.0,25.0,139.0,0.0,0.0,0.0,0.0,0.0,0.0,0.0,0.0,0.0,0.0,0.0,0.0,0.0,0.0
528.0,2162.0,0.0,24935.391310521452,-0.0,0.0,11238.032676106683,0.0,1174.7950463447128,0.0,-80000.0,0.0,81174.79504634472,0.30080670503956686,0.6037300450696239,1.0,0.0,0.0,0.0,"[0.7560376726092564, 0.8930025490620821, 0.7589092326591427, 0.569125529493391, 0.8552508969049057, 0.4896028194354187, 0.6578522030439871, 0.7041155983323257, 0.9437516280921017]",22.34,0.0,0.0,0.0,229.62129900313292,59.177804463174844,-1660.9103399725373,-1252.061666603834,321.7170797380061,0.0,0.0,0.0,0.0,0.0,0.0,-1.5,21.8929384587389,0.0,21.526626849900243,0.0,-1.5,22.34,20.83,22.22,22.15,22.56,-1.93,-1.5,0.0,-1156.96,-914.0,0.0,160.0,11.0,83.0,0.0,0.0,0.0,0.0,0.0,0.0,0.0,0.0,0.0,0.0,0.0,0.0,0.0,0.0
529.0,1013.0,0.0,1912.639289236673,-0.0,0.0,-9411.616748877788,0.0,6390.51930918926,0.0,0.0,0.0,6390.51930918926,0.6424135351840199,0.6037300450696239,1.0,0.0,0.0,0.0,"[0.7560376726092564, 0.8930025490620821, 0.7589092326591427, 0.569125529493391, 0.8552508969049057, 0.4896028194354187, 0.6578522030439871, 0.7041155983323257, 0.9437516280921017]",22.76,0.0,0.0,0.0,185.76427690531676,51.97327643443108,-1738.3769661401896,-1849.1426185029816,0.0,0.0,0.0,0.0,0.0,0.0,0.0,-2.2,22.084740926469237,0.0,21.632129270478,0.0,-2.2,22.76,20.93,22.34,22.44,22.83,-2.63,-2.2,0.0,-1210.92,-956.63,0.0,160.0,0.0,52.0,0.0,0.0,0.0,0.0,0.0,0.0,0.0,0.0,0.0,0.0,0.0,0.0,0.0,0.0
530.0,847.0,0.0,1048.0107815956771,-0.0,0.0,-7540.848375132936,0.0,3501.618508892276,0.0,0.0,0.0,3501.618508892276,0.9161184021332894,0.6037300450696239,1.0,0.0,0.0,0.0,"[0.7560376726092564, 0.8930025490620821, 0.7589092326591427, 0.569125529493391, 0.8552508969049057, 0.4896028194354187, 0.6578522030439871, 0.7041155983323257, 0.9437516280921017]",22.43,0.0,0.0,0.0,335.78256853287155,55.43396675391498,-1771.6162486937212,-1052.8228946476086,1210.7265108692416,0.0,0.0,0.0,0.0,0.0,0.0,-3.0,22.05671696543659,0.0,21.71382611729461,0.0,-3.0,22.43,21.01,22.42,22.24,22.69,-3.43,-3.0,0.0,-1234.08,-974.92,0.0,160.0,0.0,162.0,0.0,0.0,0.0,0.0,0.0,0.0,0.0,0.0,0.0,0.0,0.0,0.0,0.0,0.0
531.0,542.0,0.0,618.9538235522966,-0.0,0.0,-2311.0236146950874,0.0,1979.5412493375356,0.0,0.0,0.0,1979.5412493375356,1.0,0.6037300450696239,1.0,0.0,0.0,0.0,"[0.7560376726092564, 0.8930025490620821, 0.7589092326591427, 0.569125529493391, 0.8552508969049057, 0.4896028194354187, 0.6578522030439871, 0.7041155983323257, 0.9437516280921017]",22.76,0.0,0.0,0.0,192.58329016111466,52.13058053986216,-1828.9318084444474,-1510.4221835905144,0.0,0.0,0.0,0.0,0.0,0.0,0.0,-3.5,22.21069026986239,0.0,21.803295818183408,0.0,-3.5,22.76,21.09,22.52,22.5,22.9,-3.94,-3.5,75.92,-1274.0,-1006.46,0.0,160.0,0.0,57.0,0.0,0.0,0.0,0.0,0.0,0.0,0.0,0.0,0.0,0.0,0.0,0.0,0.0,0.0
532.0,1128.0,0.0,2676.6086525450555,-0.0,0.0,6204.6086525450555,0.0,7973.453902467889,0.0,0.0,0.0,7973.453902467889,0.7655098770769064,0.6037300450696239,0.978134110787172,0.0,0.0,0.0,"[0.7560376726092564, 0.8930025490620821, 0.7589092326591427, 0.569125529493391, 0.8552508969049057, 0.4896028194354187, 0.6578522030439871, 0.7041155983323257, 0.9437516280921017]",22.25,0.0,0.0,0.0,184.04157881964144,55.87441824912203,-1821.711036446446,-455.74730048226917,0.0,0.0,0.0,0.0,0.0,0.0,0.0,-3.9,22.097100791600905,0.0,21.839126570597816,0.0,-3.9,22.25,21.14,22.54,22.07,22.57,-4.36,-3.9,902.4,-1268.97,-1002.49,0.0,160.0,7.0,50.0,0.0,0.0,0.0,0.0,0.0,0.0,0.0,0.0,0.0,0.0,0.0,0.0,0.0,0.0
533.0,1298.0,0.0,0.0,-0.0,0.0,5338.0,0.0,0.0,0.0,0.0,0.0,0.0,0.5637714039098618,0.6037300450696239,0.978134110787172,0.0,0.0,0.0,"[0.7560376726092564, 0.8930025490620821, 0.7589092326591427, 0.569125529493391, 0.8552508969049057, 0.4896028194354187, 0.6578522030439871, 0.7041155983323257, 0.9437516280921017]",21.78,0.0,0.0,0.0,263.285690760704,68.96211982098843,-1816.715290183292,388.70772458844044,0.0,0.0,0.0,0.0,0.0,0.0,0.0,-4.3,21.937711162811883,0.0,21.80565876851051,0.0,-4.3,21.78,21.14,22.47,21.63,22.18,-4.78,-4.3,1014.39,-1265.49,-999.74,0.0,160.0,27.0,106.0,0.0,0.0,0.0,0.0,0.0,0.0,0.0,0.0,0.0,0.0,0.0,0.0,0.0,0.0
