,load_elec,grid,hp_elec,ev,pv,bat_pow,cool,load_th_sh,load_th_dhw,tes_pow,dh,hp_th,bat_soc,tes_soc,ev_soc,eh_th_in,eh_elec_in,eh_th_out,temp_slack,temp_zone_1,temp_zone_2,temp_update,Qsolar_1,QconvInt_1,QradInt_1,Qvent_1,Qconduc_1,Qheating_1,Qsolar_2,QconvInt_2,QradInt_2,Qvent_2,Qconduc_2,Qheating_2,temp_amb,temp_aggregate_1,temp_aggregate_2,temp_wall_1,temp_wall_2,_Tamb,_Tz_1,_TEW_1,_TIW_1,_T1_1,_T2_1,_Taeq_1,_Tvent_1,_Qheating_1,_Qinfvent_1,_Qenvelope_1,_Qsolar_1,_Qint_people_1,_Qint_lighting_1,_Qint_appliances_1,_Tz_2,_TEW_2,_TIW_2,_T1_2,_T2_2,_Taeq_2,_Tvent_2,_Qheating_2,_Qinfvent_2,_Qenvelope_2,_Qsolar_2,_Qint_people_2,_Qint_lighting_2,_Qint_appliances_2
390.0,1178.0,22699.631623615776,33759.133465497696,-0.0,0.0,12351.0,0.0,66451.76424492704,0.0,0.0,0.0,66451.76424492704,0.033219954648526076,0.5,0.8,0.0,0.0,0.0,"[2.0, 2.0, 2.0, 2.0, 2.0, 2.0, 2.0, 2.0, 2.0]",20.0,0.0,0.0,0.0,288.41766759721025,141.43213766746644,-1801.7691201364228,-2200.217290228491,3581.9105976112755,0.0,0.0,0.0,0.0,0.0,0.0,-6.2,19.170356159705136,0.0,19.0,0.0,-6.2,20.0,18.0,20.0,20.0,20.0,-7.14,-6.2,9656.16,-1271.28,-991.41,0.0,402.0,25.0,0.0,0.0,0.0,0.0,0.0,0.0,0.0,0.0,0.0,0.0,0.0,0.0,0.0,0.0,0.0
391.0,879.0,0.0,0.0,-0.0,0.0,879.0,0.0,75339.39787242768,0.0,75339.39787242768,0.0,0.0,0.0,0.2152706051684517,0.8,0.0,0.0,0.0,"[2.0, 2.0, 2.0, 2.0, 2.0, 2.0, 2.0, 2.0, 2.0]",20.0,0.0,0.0,0.0,241.6472350138789,95.87010674103429,-1808.646101510989,-2064.0047409402027,13958.560444405768,0.0,0.0,0.0,0.0,0.0,0.0,-6.3,19.222711549111388,0.0,19.07221634196378,0.0,-6.3,20.0,18.08,20.06,19.41,20.22,-7.23,-6.3,0.0,-1276.13,-995.19,0.0,214.0,46.0,62.0,0.0,0.0,0.0,0.0,0.0,0.0,0.0,0.0,0.0,0.0,0.0,0.0,0.0,0.0
392.0,1330.0,12945.749153932931,0.0,-0.0,0.0,-11551.020408163267,0.0,38672.52359348745,0.0,38672.52359348746,0.0,0.0,0.41925925925925933,0.0691159430615452,0.8,0.0,0.0,0.0,"[2.0, 2.0, 2.0, 2.0, 2.0, 2.0, 2.0, 2.0, 2.0]",24.0,0.0,0.0,1.8735026233063894,261.1349152569336,101.09075611802132,-2076.8483751190824,-8664.504083491594,3162.8781516588097,0.0,0.0,0.0,0.0,0.0,0.0,-6.2,20.69034011071953,0.0,19.541468801078025,0.0,-6.2,24.0,18.35,20.74,22.14,22.87,-7.12,-6.2,10287.47,-1465.37,-1142.77,2.96,228.0,47.0,69.0,0.0,0.0,0.0,0.0,0.0,0.0,0.0,0.0,0.0,0.0,0.0,0.0,0.0,0.0
393.0,4283.0,55608.0440385892,35065.71591286079,-0.0,18.71209446453393,-16000.0,0.0,71363.69781804825,0.0,0.0,0.0,71363.69781804824,1.0,0.0691159430615452,0.8,0.0,0.0,0.0,"[2.0, 2.0, 2.0, 2.0, 2.0, 2.0, 2.0, 2.0, 2.0]",21.23,0.0,0.0,28.43793090762649,288.3468033054173,119.31556848859415,-1838.0153105040752,-3191.9860742893907,11822.167127574487,0.0,0.0,0.0,0.0,0.0,0.0,-5.5,20.016776152774664,0.0,19.728257889669727,0.0,-5.5,21.23,18.51,20.95,20.18,21.13,-6.25,-5.5,4116.14,-1296.86,-1011.35,44.94,332.0,23.0,37.0,0.0,0.0,0.0,0.0,0.0,0.0,0.0,0.0,0.0,0.0,0.0,0.0,0.0,0.0
394.0,6065.0,12764.272943513268,6728.469041243109,-0.0,93.01746244740878,0.0,0.0,26547.606575473503,0.0,12533.496403159714,0.0,14014.110172313789,1.0,0.021748231787321038,0.8,0.0,0.0,0.0,"[2.0, 2.0, 2.0, 2.0, 2.0, 2.0, 2.0, 2.0, 2.0]",24.0,0.0,0.0,40.53699200293043,274.45740211400374,61.603662648446786,-1994.3245986242844,-7627.732940782915,0.0,0.0,0.0,0.0,0.0,0.0,0.0,-5.0,21.087607776339535,0.0,20.129396152086564,0.0,-5.0,24.0,18.76,21.5,22.25,23.17,-5.61,-5.0,0.0,-1407.14,-1097.36,64.06,184.0,0.0,107.0,0.0,0.0,0.0,0.0,0.0,0.0,0.0,0.0,0.0,0.0,0.0,0.0,0.0,0.0
395.0,5369.0,0.0,11369.457198360615,-0.0,738.4571983606153,16000.0,0.0,30085.311419832164,0.0,5754.582130925146,0.0,24330.72928890702,0.3953136810279667,0.0,0.8,0.0,0.0,0.0,"[2.0, 2.0, 2.0, 2.0, 2.0, 2.0, 2.0, 2.0, 2.0]",20.45,0.0,0.0,67.40808286642242,1487.441484733524,111.69025636826767,-1708.8502954601468,-975.3528971500389,10270.365527120974,0.0,0.0,0.0,0.0,0.0,0.0,-4.4,20.088568685743596,0.0,20.15877545597061,0.0,-4.4,20.45,18.87,21.45,19.8,20.92,-4.95,-4.4,9255.63,-1205.72,-940.28,106.52,256.0,0.0,970.0,0.0,0.0,0.0,0.0,0.0,0.0,0.0,0.0,0.0,0.0,0.0,0.0,0.0,0.0
396.0,4326.0,20626.497373198366,17323.11286757053,-0.0,1125.747981238154,0.0,0.0,37732.186217842056,0.0,0.0,0.0,37732.186217842056,0.3953136810279667,0.0,0.8,0.0,0.0,0.0,"[2.0, 2.0, 2.0, 2.0, 2.0, 2.0, 2.0, 2.0, 2.0]",24.0,0.0,0.0,75.06083191018668,726.9967695036315,62.04662683800932,-1925.5547848786196,-7001.677774372565,777.0064253484081,0.0,0.0,0.0,0.0,0.0,0.0,-4.0,21.327382214345253,0.0,20.470098667243498,0.0,-4.0,24.0,19.09,21.86,22.32,23.28,-4.5,-4.0,0.0,-1358.62,-1059.52,118.62,150.0,0.0,461.0,0.0,0.0,0.0,0.0,0.0,0.0,0.0,0.0,0.0,0.0,0.0,0.0,0.0,0.0
397.0,1649.0,0.0,5524.398196062378,-0.0,684.1852671192369,6489.212928943141,0.0,12138.251000389315,0.0,0.0,0.0,12138.251000389315,0.15006753858869457,0.0,0.8,0.0,0.0,0.0,"[2.0, 2.0, 2.0, 2.0, 2.0, 2.0, 2.0, 2.0, 2.0]",21.2,0.0,0.0,66.28215827856506,212.73460396236493,4.999167282205748,-1719.3672282561406,-1696.8518530289205,0.0,0.0,0.0,0.0,0.0,0.0,0.0,-3.8,20.564555525890583,0.0,20.527062990774727,0.0,-3.8,21.2,19.2,21.85,20.39,21.51,-4.4,-3.8,0.0,-1213.14,-946.07,104.74,0.0,0.0,158.0,0.0,0.0,0.0,0.0,0.0,0.0,0.0,0.0,0.0,0.0,0.0,0.0,0.0,0.0
398.0,2766.0,9494.909507165174,6825.57173171838,-0.0,144.1367720890336,0.0,0.0,14932.129417703247,0.0,0.0,0.0,14932.129417703247,0.15006753858869457,0.0,0.8,0.0,0.0,0.0,"[2.0, 2.0, 2.0, 2.0, 2.0, 2.0, 2.0, 2.0, 2.0]",20.0,0.0,0.0,45.309203855362625,119.83151742183847,2.815986633647539,-1643.5985485213928,372.0584865946965,1101.7852563655174,0.0,0.0,0.0,0.0,0.0,0.0,-3.9,20.156714588823917,0.0,20.42058297112049,0.0,-3.9,20.0,19.23,21.61,19.79,20.89,-4.67,-3.9,8429.25,-1159.68,-904.38,71.6,0.0,0.0,89.0,0.0,0.0,0.0,0.0,0.0,0.0,0.0,0.0,0.0,0.0,0.0,0.0,0.0,0.0
399.0,5106.0,22513.844241096445,21266.862336089605,-0.0,0.8002451417826459,3970.787071056858,0.0,45916.742451258986,0.0,0.0,0.0,45916.74245125899,0.0,0.0,0.8,0.0,0.0,0.0,"[2.0, 2.0, 2.0, 2.0, 2.0, 2.0, 2.0, 2.0, 2.0]",20.0,0.0,0.0,16.985322190794328,365.16369560894947,54.642796812464105,-1664.2294926450923,212.40457937599265,11434.85590634717,0.0,0.0,0.0,0.0,0.0,0.0,-4.2,20.095662141495744,0.0,20.31490416639555,0.0,-4.2,20.0,19.24,21.39,19.86,20.85,-5.12,-4.2,0.0,-1174.24,-915.73,26.84,148.0,3.0,193.0,0.0,0.0,0.0,0.0,0.0,0.0,0.0,0.0,0.0,0.0,0.0,0.0,0.0,0.0
400.0,2406.0,48872.266258730924,30221.904927437266,-0.0,0.0,-16000.0,0.0,63810.774047346196,0.0,0.0,0.0,63810.7740473462,0.5807407407407407,0.0,0.8,0.0,0.0,0.0,"[2.0, 2.0, 2.0, 2.0, 2.0, 2.0, 2.0, 2.0, 2.0]",24.0,0.0,0.0,0.0,446.7993597544006,64.38800898283986,-1973.6936545005847,-6647.634154193573,8114.59012111128,0.0,0.0,0.0,0.0,0.0,0.0,-4.7,21.46405827728965,0.0,20.629801780831343,0.0,-4.7,24.0,19.44,21.82,22.55,23.36,-5.79,-4.7,0.0,-1392.59,-1086.01,0.0,142.0,20.0,255.0,0.0,0.0,0.0,0.0,0.0,0.0,0.0,0.0,0.0,0.0,0.0,0.0,0.0,0.0
401.0,4789.0,3442.4918078542,9887.679348814927,-0.0,0.0,11251.399999999998,0.0,20499.876874447757,0.0,0.0,0.0,20499.876874447757,0.1555177626606198,0.0,0.8,0.0,0.0,0.0,"[2.0, 2.0, 2.0, 2.0, 2.0, 2.0, 2.0, 2.0, 2.0]",24.0,0.0,0.0,0.0,454.169246100865,123.74521038421952,-2001.2015799988508,-6062.2182500773415,0.0,0.0,0.0,0.0,0.0,0.0,0.0,-5.1,21.68905686458007,0.0,20.96458843847067,0.0,-5.1,24.0,19.67,22.26,22.43,23.34,-6.15,-5.1,8581.99,-1412.0,-1101.14,0.0,296.0,43.0,177.0,0.0,0.0,0.0,0.0,0.0,0.0,0.0,0.0,0.0,0.0,0.0,0.0,0.0,0.0
402.0,4115.0,55251.58205126792,39309.30373284832,-0.0,0.0,-11551.020408163267,0.0,0.0,0.0,-80000.0,0.0,80000.0,0.41925925925925933,0.29037037037037033,0.8,0.0,0.0,0.0,"[1.124221082496021, 1.1975160292863194, 2.0, 0.993642747576235, 2.0, 1.4516263469459538, 1.1818666204656942, 1.422794037112297, 1.8793275770007725]",21.12,0.0,0.0,0.0,1776.3552023732852,132.0349687888898,-1830.8119443322626,-710.4943851382429,0.0,0.0,0.0,0.0,0.0,0.0,0.0,-5.5,20.865013053979187,0.0,20.964836164113027,0.0,-5.5,21.12,19.75,22.18,20.59,21.65,-6.53,-5.5,0.0,-1291.77,-1007.39,0.0,220.0,43.0,1199.0,0.0,0.0,0.0,0.0,0.0,0.0,0.0,0.0,0.0,0.0,0.0,0.0,0.0,0.0
403.0,4092.0,30281.42991762981,10038.02276804166,-0.0,0.0,-16000.0,0.0,20141.711242547546,0.0,0.0,0.0,20141.711242547546,1.0,0.29037037037037033,0.8,0.0,0.0,0.0,"[1.124221082496021, 1.1975160292863194, 2.0, 0.993642747576235, 2.0, 1.4516263469459538, 1.1818666204656942, 1.422794037112297, 1.8793275770007725]",20.88,0.0,0.0,0.0,1464.056268441858,158.83430225742313,-1834.4883476772852,-391.8444301045764,614.418816121824,0.0,0.0,0.0,0.0,0.0,0.0,-5.8,20.740874995651318,0.0,20.871563996485747,0.0,-5.8,20.88,19.77,21.98,20.48,21.45,-6.85,-5.8,7206.67,-1294.37,-1009.41,0.0,264.0,80.0,940.0,0.0,0.0,0.0,0.0,0.0,0.0,0.0,0.0,0.0,0.0,0.0,0.0,0.0,0.0
404.0,4635.0,17156.77639525736,28435.99251328107,-0.0,0.0,16000.0,0.0,55973.64850890749,0.0,0.0,0.0,55973.64850890749,0.3953136810279667,0.29037037037037033,0.8,0.0,0.0,0.0,"[1.124221082496021, 1.1975160292863194, 2.0, 0.993642747576235, 2.0, 1.4516263469459538, 1.1818666204656942, 1.422794037112297, 1.8793275770007725]",20.88,0.0,0.0,0.0,1183.7879944008348,158.0432947760615,-1861.9962731755513,-498.9936937430855,1030.0806223933453,0.0,0.0,0.0,0.0,0.0,0.0,-6.2,20.69994677444526,0.0,20.79861019446811,0.0,-6.2,20.88,19.78,21.81,20.53,21.42,-7.24,-6.2,0.0,-1313.78,-1024.55,0.0,340.0,50.0,695.0,0.0,0.0,0.0,0.0,0.0,0.0,0.0,0.0,0.0,0.0,0.0,0.0,0.0,0.0
405.0,5744.0,41121.2781333782,19171.671742711304,-0.0,0.0,-16000.0,0.0,37006.60331651747,0.0,0.0,0.0,37006.60331651747,0.9760544217687074,0.29037037037037033,0.8,0.0,0.0,0.0,"[1.124221082496021, 1.1975160292863194, 2.0, 0.993642747576235, 2.0, 1.4516263469459538, 1.1818666204656942, 1.422794037112297, 1.8793275770007725]",20.88,0.0,0.0,0.0,978.1398196177626,163.16902325528505,-1889.5041986738172,-576.7801184668872,7191.645640801438,0.0,0.0,0.0,0.0,0.0,0.0,-6.6,20.67030864344387,0.0,20.744729324550196,0.0,-6.6,20.88,19.8,21.69,20.56,21.38,-7.65,-6.6,2980.29,-1333.18,-1039.68,0.0,360.0,57.0,531.0,0.0,0.0,0.0,0.0,0.0,0.0,0.0,0.0,0.0,0.0,0.0,0.0,0.0,0.0
406.0,4280.0,10804.891447671618,19793.499669693596,-0.0,0.0,13322.632679260336,0.0,37452.112341927495,0.0,0.0,0.0,37452.1123419275,0.4725535646538042,0.29037037037037033,0.8,0.0,0.0,0.0,"[1.124221082496021, 1.1975160292863194, 2.0, 0.993642747576235, 2.0, 1.4516263469459538, 1.1818666204656942, 1.422794037112297, 1.8793275770007725]",23.12,0.0,0.0,0.0,654.0774132487102,140.16652569728777,-2071.6370730764856,-4410.40236472287,0.0,0.0,0.0,0.0,0.0,0.0,0.0,-7.0,21.448107689052044,0.0,20.933591644433946,0.0,-7.0,23.12,19.93,21.94,22.1,22.83,-7.99,-7.0,0.0,-1461.69,-1139.9,0.0,388.0,15.0,280.0,0.0,0.0,0.0,0.0,0.0,0.0,0.0,0.0,0.0,0.0,0.0,0.0,0.0,0.0
407.0,4055.0,50081.999425388785,45776.58942826184,-0.0,0.0,0.0,0.0,26196.43361612915,0.0,-59110.16770241788,0.0,85306.60131854704,0.4725535646538042,0.5049183864754426,0.8,0.0,0.0,0.0,"[1.124221082496021, 1.1975160292863194, 2.0, 0.993642747576235, 2.0, 1.4516263469459538, 1.1818666204656942, 1.422794037112297, 1.8793275770007725]",20.94,0.0,0.0,0.0,546.1510968480834,133.9333867441578,-1941.8130917040603,-373.6898668952129,6217.66471014979,0.0,0.0,0.0,0.0,0.0,0.0,-7.3,20.809333773109408,0.0,20.917090592856404,0.0,-7.3,20.94,19.97,21.87,20.59,21.43,-8.31,-7.3,0.0,-1370.09,-1068.47,0.0,404.0,0.0,193.0,0.0,0.0,0.0,0.0,0.0,0.0,0.0,0.0,0.0,0.0,0.0,0.0,0.0,0.0
408.0,1335.0,0.0,11168.76732073966,-0.0,0.0,12503.76732073966,0.0,20494.042180814875,0.0,0.0,0.0,20494.042180814875,0.0,0.5049183864754426,0.8,0.0,0.0,0.0,"[1.124221082496021, 1.1975160292863194, 2.0, 0.993642747576235, 2.0, 1.4516263469459538, 1.1818666204656942, 1.422794037112297, 1.8793275770007725]",22.69,0.0,0.0,0.0,454.169246100865,82.61282135341271,-2083.20421298767,-3389.9719946088003,6066.594856105478,0.0,0.0,0.0,0.0,0.0,0.0,-7.6,21.408209071118367,0.0,21.050147606175912,0.0,-7.6,22.69,20.06,22.04,21.91,22.66,-8.53,-7.6,7570.41,-1469.85,-1146.27,0.0,240.0,0.0,211.0,0.0,0.0,0.0,0.0,0.0,0.0,0.0,0.0,0.0,0.0,0.0,0.0,0.0,0.0
409.0,1137.0,31078.801608691887,13786.407600648428,-0.0,0.0,-16000.0,0.0,25034.40061591889,0.0,0.0,0.0,25034.40061591889,0.5807407407407407,0.5049183864754426,0.8,0.0,0.0,0.0,"[1.124221082496021, 1.1975160292863194, 2.0, 0.993642747576235, 2.0, 1.4516263469459538, 1.1818666204656942, 1.422794037112297, 1.8793275770007725]",23.12,0.0,0.0,0.0,389.5410119857163,81.09408698919832,-2126.6529240730174,-3860.262801934895,0.0,0.0,0.0,0.0,0.0,0.0,0.0,-7.8,21.659776990270874,0.0,21.237926626278806,0.0,-7.8,23.12,20.19,22.28,22.15,22.93,-8.73,-7.8,0.0,-1500.51,-1170.17,0.0,240.0,0.0,163.0,0.0,0.0,0.0,0.0,0.0,0.0,0.0,0.0,0.0,0.0,0.0,0.0,0.0,0.0
410.0,890.0,0.0,8357.574020206253,-0.0,0.0,9247.574020206253,0.0,14937.288446446071,0.0,0.0,0.0,14937.288446446071,0.23124814738449528,0.5049183864754426,0.8,0.0,0.0,0.0,"[1.124221082496021, 1.1975160292863194, 2.0, 0.993642747576235, 2.0, 1.4516263469459538, 1.1818666204656942, 1.422794037112297, 1.8793275770007725]",21.0,0.0,0.0,0.0,277.7880238282713,78.46794215107758,-2001.4659849517348,5.12121119337546,7167.396335087892,0.0,0.0,0.0,0.0,0.0,0.0,-8.1,21.022650315805876,0.0,21.193728483053945,0.0,-8.1,21.0,20.22,22.17,20.75,21.63,-9.0,-8.1,0.0,-1412.18,-1101.29,0.0,240.0,0.0,80.0,0.0,0.0,0.0,0.0,0.0,0.0,0.0,0.0,0.0,0.0,0.0,0.0,0.0,0.0
411.0,812.0,21186.563718497266,20268.63089990478,-0.0,0.0,0.0,0.0,36225.63024083822,0.0,0.0,0.0,36225.63024083822,0.23124814738449528,0.5049183864754426,0.8,0.0,0.0,0.0,"[1.124221082496021, 1.1975160292863194, 2.0, 0.993642747576235, 2.0, 1.4516263469459538, 1.1818666204656942, 1.422794037112297, 1.8793275770007725]",23.12,0.0,0.0,0.0,227.97042669784412,77.29725107866231,-2147.2838681967173,-3660.867487223967,5508.22548160491,0.0,0.0,0.0,0.0,0.0,0.0,-8.1,21.73649514350827,0.0,21.341480884015706,0.0,-8.1,23.12,20.32,22.36,22.31,23.09,-9.0,-8.1,7377.52,-1515.07,-1181.52,0.0,240.0,0.0,43.0,0.0,0.0,0.0,0.0,0.0,0.0,0.0,0.0,0.0,0.0,0.0,0.0,0.0,0.0
412.0,565.0,13787.354263916222,4718.185085051318,-0.0,0.0,-8435.232407545323,0.0,8387.717355866263,0.0,0.0,0.0,8387.717355866263,0.5374158421768811,0.5049183864754426,0.8,0.0,0.0,0.0,"[1.124221082496021, 1.1975160292863194, 2.0, 0.993642747576235, 2.0, 1.4516263469459538, 1.1818666204656942, 1.422794037112297, 1.8793275770007725]",23.12,0.0,0.0,0.0,228.82079819935922,80.71440339814471,-2154.1608495712835,-3372.1199721453436,0.0,0.0,0.0,0.0,0.0,0.0,0.0,-8.2,21.847423200939055,0.0,21.50490078665285,0.0,-8.2,23.12,20.44,22.57,22.25,23.07,-9.09,-8.2,0.0,-1519.92,-1185.31,0.0,240.0,6.0,43.0,0.0,0.0,0.0,0.0,0.0,0.0,0.0,0.0,0.0,0.0,0.0,0.0,0.0,0.0
413.0,754.0,0.0,13466.023184000274,-0.0,0.0,14220.023184000274,0.0,23810.743726202087,0.0,0.0,0.0,23810.743726202087,0.0,0.5049183864754426,0.8,0.0,0.0,0.0,"[1.124221082496021, 1.1975160292863194, 2.0, 0.993642747576235, 2.0, 1.4516263469459538, 1.1818666204656942, 1.422794037112297, 1.8793275770007725]",21.12,0.0,0.0,0.0,230.02549115983896,90.93422005733747,-2023.1305413099658,251.43900139559554,6679.339620935401,0.0,0.0,0.0,0.0,0.0,0.0,-8.3,21.232430600764594,0.0,21.443518242102584,0.0,-8.3,21.12,20.46,22.42,20.94,21.84,-9.18,-8.3,0.0,-1427.47,-1113.21,0.0,240.0,24.0,42.0,0.0,0.0,0.0,0.0,0.0,0.0,0.0,0.0,0.0,0.0,0.0,0.0,0.0,0.0
414.0,647.0,18118.678659126665,1381.0852658310334,-0.0,0.0,-16000.0,0.0,2442.0474314798826,0.0,0.0,0.0,2442.0474314798826,0.5807407407407407,0.5049183864754426,0.8,0.0,0.0,0.0,"[1.124221082496021, 1.1609982457482424, 1.7209731301450475, 0.993642747576235, 2.0, 0.9734148102216302, 1.1818666204656942, 1.4227940371122934, 1.6687230855375361]",23.12,0.0,0.0,0.0,207.41978207789543,90.90257975808301,-2161.03783094585,-3246.0982473745485,2139.911432998641,0.0,0.0,0.0,0.0,0.0,0.0,-8.3,21.89586536442844,0.0,21.5649330232497,0.0,-8.3,23.12,20.55,22.58,22.4,23.2,-9.18,-8.3,0.0,-1524.77,-1189.09,0.0,202.0,45.0,43.0,0.0,0.0,0.0,0.0,0.0,0.0,0.0,0.0,0.0,0.0,0.0,0.0,0.0,0.0
415.0,1834.0,0.0,0.0,-0.0,0.0,1834.0,0.0,31476.433075709283,0.0,31476.433075709287,0.0,0.0,0.5114285714285713,0.38595983365719133,0.8,0.0,0.0,0.0,"[1.124221082496021, 1.1609982457482424, 1.7209731301450475, 0.993642747576235, 2.0, 0.9734148102216302, 1.1818666204656942, 1.4227940371122934, 1.6687230855375361]",21.98,0.0,0.0,0.0,178.50715102638148,111.40549367497746,-2082.471346275828,-1079.9520478057284,0.0,0.0,0.0,0.0,0.0,0.0,0.0,-8.3,21.584557609584408,0.0,21.587517654821294,0.0,-8.3,21.98,20.61,22.57,21.57,22.41,-9.18,-8.3,2841.41,-1469.34,-1145.86,0.0,148.0,111.0,43.0,0.0,0.0,0.0,0.0,0.0,0.0,0.0,0.0,0.0,0.0,0.0,0.0,0.0,0.0
416.0,4757.0,0.0,0.0,-0.0,0.0,4757.0,0.0,1440.6134052192308,0.0,1440.6134052192308,0.0,0.0,0.33164777021919867,0.3805153385505427,0.8,0.0,0.0,0.0,"[1.124221082496021, 1.1609982457482424, 1.7209731301450475, 0.993642747576235, 2.0, 0.9734148102216302, 1.1818666204656942, 1.4227940371122934, 1.6687230855375361]",20.88,0.0,0.0,1.873281839728804,150.51575576817558,86.56785876022104,-1992.658919292315,797.3678163306146,962.2328121281491,0.0,0.0,0.0,0.0,0.0,0.0,-8.1,21.198709605679653,0.0,21.479667248447484,0.0,-8.1,20.88,20.59,22.37,20.9,21.75,-8.96,-8.1,0.0,-1405.97,-1096.44,2.96,107.0,90.0,46.0,0.0,0.0,0.0,0.0,0.0,0.0,0.0,0.0,0.0,0.0,0.0,0.0,0.0,0.0
417.0,6352.0,22659.647848525037,16194.349609282413,-0.0,0.0,0.0,0.0,29561.309362870583,0.0,0.0,0.0,29561.309362870583,0.33164777021919867,0.3805153385505427,0.8,0.0,0.0,0.0,"[1.124221082496021, 1.1609982457482424, 1.7209731301450475, 0.993642747576235, 2.0, 0.9734148102216302, 1.1818666204656942, 1.4227940371122934, 1.6687230855375361]",20.88,0.0,0.0,11.227314569490726,229.45857682549553,84.85928260047984,-1965.1509937940486,622.6938346732319,1022.27412386991,0.0,0.0,0.0,0.0,0.0,0.0,-7.7,21.131414406996768,0.0,21.371010008722813,0.0,-7.7,20.88,20.57,22.18,20.95,21.71,-8.57,-7.7,4117.61,-1386.56,-1081.31,17.74,114.0,80.0,102.0,0.0,0.0,0.0,0.0,0.0,0.0,0.0,0.0,0.0,0.0,0.0,0.0,0.0,0.0
418.0,5455.0,16024.008170725927,10489.772021681834,-0.0,0.8838918095370092,0.0,0.0,19448.12950282242,0.0,0.0,0.0,19448.12950282242,0.33164777021919867,0.3805153385505427,0.8,0.0,0.0,0.0,"[1.124221082496021, 1.1609982457482424, 1.7209731301450475, 0.993642747576235, 2.0, 0.9734148102216302, 1.1818666204656942, 1.4227940371122934, 1.6687230855375361]",20.88,0.0,0.0,16.776299212111514,532.2616956566699,71.15903302329575,-1944.5200496703494,472.4367896601563,856.0528504363022,0.0,0.0,0.0,0.0,0.0,0.0,-7.4,21.07354452755913,0.0,21.27805361435503,0.0,-7.4,20.88,20.54,22.02,20.93,21.63,-8.26,-7.4,0.0,-1372.0,-1069.96,26.51,122.0,39.0,327.0,0.0,0.0,0.0,0.0,0.0,0.0,0.0,0.0,0.0,0.0,0.0,0.0,0.0,0.0
419.0,7936.0,159660.30939574496,0.0,-0.0,3.837427826222547,-16000.0,0.0,33606.12067381351,45704.97,-43039.86947511965,0.0,0.0,0.9123885109599393,0.5367341240528288,0.8,539719.3811063698,134929.84527659244,674649.2263829622,"[1.124221082496021, 1.1609982457482424, 1.7209731301450475, 0.993642747576235, 2.0, 0.9734148102216302, 1.1818666204656942, 1.4227940371122934, 1.6687230855375361]",20.88,0.0,0.0,20.467975900511608,2192.116002322384,98.27476948437376,-1930.7660869212164,334.08183998772654,5147.094580924453,0.0,0.0,0.0,0.0,0.0,0.0,-7.2,21.020302303516626,0.0,21.193133118302345,0.0,-7.2,20.88,20.52,21.87,20.88,21.52,-8.06,-7.2,0.0,-1362.3,-1062.39,32.34,156.0,0.0,1546.0,0.0,0.0,0.0,0.0,0.0,0.0,0.0,0.0,0.0,0.0,0.0,0.0,0.0,0.0
420.0,3222.0,6130.784850217252,11024.695054529737,-0.0,9.540259298894325,8137.023869264677,0.0,20965.390512646696,0.0,0.0,0.0,20965.390512646696,0.6048668227791125,0.5367341240528288,0.8,0.0,0.0,0.0,"[1.124221082496021, 1.1609982457482424, 1.7209731301450475, 0.993642747576235, 2.0, 0.9734148102216302, 1.1818666204656942, 1.4227940371122934, 1.6687230855375361]",23.12,0.0,0.0,24.21142827455351,1587.1475432861714,80.461281004109,-2064.760091701919,-3614.860027784721,3992.2773644016515,0.0,0.0,0.0,0.0,0.0,0.0,-6.9,21.753452318078917,0.0,21.317561183186193,0.0,-6.9,23.12,20.58,22.05,22.25,22.76,-7.74,-6.9,0.0,-1456.84,-1136.12,38.26,144.0,0.0,1103.0,0.0,0.0,0.0,0.0,0.0,0.0,0.0,0.0,0.0,0.0,0.0,0.0,0.0,0.0
421.0,3271.0,9141.827031427483,10620.716973118344,-0.0,4795.599076848,0.0,0.0,22424.667558834044,0.0,0.0,0.0,22424.667558834048,0.6048668227791125,0.5367341240528288,0.8,0.0,0.0,0.0,"[1.124221082496021, 1.1609982457482424, 1.7209731301450475, 0.993642747576235, 2.0, 0.9734148102216302, 1.1818666204656942, 1.4227940371122934, 1.6687230855375361]",23.12,0.0,0.0,555.9533111443815,1436.5609232262032,67.33055681350528,-1913.4665014614561,-3343.196139079859,3183.2524725649832,0.0,0.0,0.0,0.0,0.0,0.0,-4.7,21.856273150802878,0.0,21.472399327170848,0.0,-4.7,23.12,20.68,22.27,22.22,22.79,-5.07,-4.7,0.0,-1350.09,-1052.87,878.55,112.0,0.0,1008.0,0.0,0.0,0.0,0.0,0.0,0.0,0.0,0.0,0.0,0.0,0.0,0.0,0.0,0.0
422.0,4616.0,4491.063814426397,0.0,-0.0,147.39150464573515,0.0,0.0,0.0,0.0,0.0,0.0,0.0,0.6048668227791125,0.5367341240528288,0.8,0.0,0.0,0.0,"[1.124221082496021, 1.1609982457482424, 1.7209731301450475, 0.993642747576235, 2.0, 0.9734148102216302, 1.1818666204656942, 1.4227940371122934, 1.6687230855375361]",23.12,0.0,0.0,73.8409968339336,968.9983259764751,98.9075754694631,-1844.6966877157913,-3067.7231031362962,0.0,0.0,0.0,0.0,0.0,0.0,0.0,-3.7,21.962146292667043,0.0,21.631260867975044,0.0,-3.7,23.12,20.78,22.48,22.32,23.01,-5.24,-3.7,0.0,-1301.57,-1015.03,116.69,254.0,0.0,586.0,0.0,0.0,0.0,0.0,0.0,0.0,0.0,0.0,0.0,0.0,0.0,0.0,0.0,0.0
423.0,2437.0,11893.03928220441,9410.216897857346,-0.0,13.642812063958154,0.0,0.0,20855.623268741547,0.0,0.0,0.0,20855.623268741547,0.6048668227791125,0.5367341240528288,0.8,0.0,0.0,0.0,"[1.124221082496021, 1.1609982457482424, 1.7209731301450475, 0.993642747576235, 2.0, 0.9734148102216302, 1.1818666204656942, 1.4227940371122934, 1.6687230855375361]",21.67,0.0,0.0,38.674881037548225,394.1471909522563,46.13155631301254,-1738.1465756929626,-410.5863947844711,484.61653690379876,0.0,0.0,0.0,0.0,0.0,0.0,-3.6,21.532254653373812,0.0,21.609292605276167,0.0,-3.6,21.67,20.8,22.41,21.36,22.07,-5.18,-3.6,0.0,-1226.39,-956.4,61.12,123.0,0.0,228.0,0.0,0.0,0.0,0.0,0.0,0.0,0.0,0.0,0.0,0.0,0.0,0.0,0.0,0.0
424.0,3839.0,17801.332730581307,13873.326066928399,-0.0,0.0,0.0,0.0,29689.028682903503,0.0,0.0,0.0,29689.028682903503,0.6048668227791125,0.5367341240528288,0.8,0.0,0.0,0.0,"[1.124221082496021, 1.1609982457482424, 1.7209731301450475, 0.993642747576235, 2.0, 0.9734148102216302, 1.1818666204656942, 1.4227940371122934, 1.6687230855375361]",21.22,0.0,0.0,0.9410222150257384,1534.4953744840273,165.3522039038433,-1761.8252748472344,306.7952281379267,4726.7715927263,0.0,0.0,0.0,0.0,0.0,0.0,-4.4,21.352323602177865,0.0,21.530386563442264,0.0,-4.4,21.22,20.79,22.27,21.17,21.86,-6.13,-4.4,0.0,-1243.1,-969.43,1.49,369.0,33.0,942.0,0.0,0.0,0.0,0.0,0.0,0.0,0.0,0.0,0.0,0.0,0.0,0.0,0.0,0.0
425.0,5426.0,18882.30548362529,13361.893956207163,-0.0,0.0,0.0,0.0,27830.261663575242,0.0,0.0,0.0,27830.26166357524,0.6048668227791125,0.5367341240528288,0.8,0.0,0.0,0.0,"[1.124221082496021, 1.1609982457482424, 1.7209731301450475, 0.993642747576235, 2.0, 0.9734148102216302, 1.1818666204656942, 1.4227940371122934, 1.6687230855375361]",23.12,0.0,0.0,0.0,911.8817067913761,144.02664220633272,-1934.0974455851556,-3045.51435105781,3933.6567393477717,0.0,0.0,0.0,0.0,0.0,0.0,-5.0,21.97148371351185,0.0,21.630993486658827,0.0,-5.0,23.12,20.86,22.4,22.4,22.97,-6.68,-5.0,0.0,-1364.65,-1064.22,0.0,188.0,117.0,566.0,0.0,0.0,0.0,0.0,0.0,0.0,0.0,0.0,0.0,0.0,0.0,0.0,0.0,0.0
426.0,3983.0,18118.678659126665,1381.0852658310334,-0.0,0.0,-16000.0,0.0,9247.041509471173,0.0,0.0,0.0,2442.0474314798826,0.5807407407407407,0.5049183864754426,0.8,0.0,0.0,0.0,"[1.124221082496021, 1.1609982457482424, 1.7209731301450475, 0.993642747576235, 2.0, 0.9734148102216302, 1.1818666204656942, 1.4227940371122934, 1.6687230855375361]",23.12,0.0,0.0,0.0,819.1912131262285,182.24812370572855,-1968.4823524579883,-2819.8751857085335,0.0,0.0,0.0,0.0,0.0,0.0,0.0,-5.5,22.058396009344722,0.0,21.760644049704894,0.0,-5.5,23.12,20.95,22.58,22.38,23.0,-7.16,-5.5,2522.75,-1388.91,-1083.14,0.0,234.0,164.0,468.0,0.0,0.0,0.0,0.0,0.0,0.0,0.0,0.0,0.0,0.0,0.0,0.0,0.0,0.0
427.0,4640.0,0.0,0.0,-0.0,0.0,1834.0,0.0,31476.433075709283,0.0,31476.433075709287,0.0,0.0,0.5114285714285713,0.38595983365719133,0.8,0.0,0.0,0.0,"[1.124221082496021, 1.1609982457482424, 1.7209731301450475, 0.993642747576235, 2.0, 0.9734148102216302, 1.1818666204656942, 1.4227940371122934, 1.6687230855375361]",21.98,0.0,0.0,0.0,1117.104695823691,166.93421886656665,-1931.1777560353648,-1077.8620005237817,0.0,0.0,0.0,0.0,0.0,0.0,0.0,-6.1,21.584557609584408,0.0,21.587517654821294,0.0,-6.1,21.98,20.61,22.57,21.57,22.41,-7.75,-6.1,2841.41,-1362.59,-1062.61,0.0,220.0,132.0,700.0,0.0,0.0,0.0,0.0,0.0,0.0,0.0,0.0,0.0,0.0,0.0,0.0,0.0,0.0
428.0,5197.0,0.0,0.0,-0.0,0.0,4757.0,0.0,1440.6134052192308,0.0,1440.6134052192308,0.0,0.0,0.33164777021919867,0.3805153385505427,0.8,0.0,0.0,0.0,"[1.124221082496021, 1.1609982457482424, 1.7209731301450475, 0.993642747576235, 2.0, 0.9734148102216302, 1.1818666204656942, 1.4227940371122934, 1.6687230855375361]",20.88,0.0,0.0,0.0,1700.955595905611,161.27060530001708,-1896.3811800483836,798.350257513835,962.2328121281491,0.0,0.0,0.0,0.0,0.0,0.0,-6.7,21.198709605679653,0.0,21.479667248447484,0.0,-6.7,20.88,20.59,22.37,20.9,21.75,-8.29,-6.7,0.0,-1338.04,-1043.47,0.0,314.0,48.0,1093.0,0.0,0.0,0.0,0.0,0.0,0.0,0.0,0.0,0.0,0.0,0.0,0.0,0.0,0.0
429.0,4429.0,22659.647848525037,16194.349609282413,-0.0,0.0,0.0,0.0,29561.309362870583,0.0,0.0,0.0,29561.309362870583,0.33164777021919867,0.3805153385505427,0.8,0.0,0.0,0.0,"[1.124221082496021, 1.1609982457482424, 1.7209731301450475, 0.993642747576235, 2.0, 0.9734148102216302, 1.1818666204656942, 1.4227940371122934, 1.6687230855375361]",20.88,0.0,0.0,0.0,1320.7686704365617,124.09325367601863,-1930.7660869212164,622.4017912742739,1022.27412386991,0.0,0.0,0.0,0.0,0.0,0.0,-7.2,21.131414406996768,0.0,21.371010008722813,0.0,-7.2,20.88,20.57,22.18,20.95,21.71,-8.77,-7.2,4117.61,-1362.3,-1062.39,0.0,284.0,14.0,830.0,0.0,0.0,0.0,0.0,0.0,0.0,0.0,0.0,0.0,0.0,0.0,0.0,0.0,0.0
430.0,3224.0,16024.008170725927,10489.772021681834,-0.0,0.0,0.0,0.0,19448.12950282242,0.0,0.0,0.0,19448.12950282242,0.33164777021919867,0.3805153385505427,0.8,0.0,0.0,0.0,"[1.124221082496021, 1.1609982457482424, 1.7209731301450475, 0.993642747576235, 2.0, 0.9734148102216302, 1.1818666204656942, 1.4227940371122934, 1.6687230855375361]",20.88,0.0,0.0,0.0,708.4303250538849,103.87510245241441,-1972.027975168615,470.9087657678277,856.0528504363022,0.0,0.0,0.0,0.0,0.0,0.0,-7.8,21.07354452755913,0.0,21.27805361435503,0.0,-7.8,20.88,20.54,22.02,20.93,21.63,-9.31,-7.8,0.0,-1391.41,-1085.09,0.0,291.0,0.0,373.0,0.0,0.0,0.0,0.0,0.0,0.0,0.0,0.0,0.0,0.0,0.0,0.0,0.0,0.0
431.0,1608.0,159660.30939574496,0.0,-0.0,0.0,-16000.0,0.0,33606.12067381351,0.0,-43039.86947511965,0.0,0.0,0.9123885109599393,0.5367341240528288,0.8,539719.3811063698,134929.84527659244,674649.2263829622,"[1.124221082496021, 1.1609982457482424, 1.7209731301450475, 0.993642747576235, 2.0, 0.9734148102216302, 1.1818666204656942, 1.4227940371122934, 1.6687230855375361]",20.88,0.0,0.0,0.0,615.5272385133584,152.94920659609235,-2013.289863416014,331.5497390268659,5147.094580924453,0.0,0.0,0.0,0.0,0.0,0.0,-8.4,21.020302303516626,0.0,21.193133118302345,0.0,-8.4,20.88,20.52,21.87,20.88,21.52,-9.79,-8.4,0.0,-1420.52,-1107.8,0.0,462.0,0.0,214.0,0.0,0.0,0.0,0.0,0.0,0.0,0.0,0.0,0.0,0.0,0.0,0.0,0.0,0.0
432.0,1521.0,6130.784850217252,11024.695054529737,-0.0,0.0,8137.023869264677,0.0,20965.390512646696,0.0,0.0,0.0,20965.390512646696,0.6048668227791125,0.5367341240528288,0.8,0.0,0.0,0.0,"[1.124221082496021, 1.1609982457482424, 1.7209731301450475, 0.993642747576235, 2.0, 0.9734148102216302, 1.1818666204656942, 1.4227940371122934, 1.6687230855375361]",23.12,0.0,0.0,0.0,471.460133298339,110.96252948541495,-2216.053681942382,-3618.904557816704,3992.2773644016515,0.0,0.0,0.0,0.0,0.0,0.0,-9.1,21.753452318078917,0.0,21.317561183186193,0.0,-9.1,23.12,20.58,22.05,22.25,22.76,-10.5,-9.1,0.0,-1563.59,-1219.36,0.0,320.0,7.0,181.0,0.0,0.0,0.0,0.0,0.0,0.0,0.0,0.0,0.0,0.0,0.0,0.0,0.0,0.0
433.0,3680.0,9141.827031427483,10620.716973118344,-0.0,0.0,0.0,0.0,22424.667558834044,0.0,0.0,0.0,22424.667558834048,0.6048668227791125,0.5367341240528288,0.8,0.0,0.0,0.0,"[1.124221082496021, 1.1609982457482424, 1.7209731301450475, 0.993642747576235, 2.0, 0.9734148102216302, 1.1818666204656942, 1.4227940371122934, 1.6687230855375361]",23.12,0.0,0.0,0.0,520.2856303436653,108.14654285176742,-2271.0695329389137,-3352.273016477008,3183.2524725649832,0.0,0.0,0.0,0.0,0.0,0.0,-9.9,21.856273150802878,0.0,21.472399327170848,0.0,-9.9,23.12,20.68,22.27,22.22,22.79,-11.28,-9.9,0.0,-1602.41,-1249.64,0.0,320.0,0.0,218.0,0.0,0.0,0.0,0.0,0.0,0.0,0.0,0.0,0.0,0.0,0.0,0.0,0.0,0.0
434.0,1034.0,4491.063814426397,0.0,-0.0,0.0,0.0,0.0,0.0,0.0,0.0,0.0,0.0,0.6048668227791125,0.5367341240528288,0.8,0.0,0.0,0.0,"[1.124221082496021, 1.1609982457482424, 1.7209731301450475, 0.993642747576235, 2.0, 0.9734148102216302, 1.1818666204656942, 1.4227940371122934, 1.6687230855375361]",23.12,0.0,0.0,0.0,326.40092799821883,103.5903397591242,-2326.0853839354463,-3077.6091536092595,0.0,0.0,0.0,0.0,0.0,0.0,0.0,-10.7,21.962146292667043,0.0,21.631260867975044,0.0,-10.7,23.12,20.78,22.48,22.32,23.01,-12.0,-10.7,0.0,-1641.23,-1279.91,0.0,320.0,0.0,74.0,0.0,0.0,0.0,0.0,0.0,0.0,0.0,0.0,0.0,0.0,0.0,0.0,0.0,0.0
435.0,752.0,11893.03928220441,9410.216897857346,-0.0,0.0,0.0,0.0,20855.623268741547,0.0,0.0,0.0,20855.623268741547,0.6048668227791125,0.5367341240528288,0.8,0.0,0.0,0.0,"[1.124221082496021, 1.1609982457482424, 1.7209731301450475, 0.993642747576235, 2.0, 0.9734148102216302, 1.1818666204656942, 1.4227940371122934, 1.6687230855375361]",21.67,0.0,0.0,0.0,273.89048777966036,102.35636808819997,-2260.797160160016,-421.2973834888088,484.61653690379876,0.0,0.0,0.0,0.0,0.0,0.0,-11.2,21.532254653373812,0.0,21.609292605276167,0.0,-11.2,21.67,20.8,22.41,21.36,22.07,-12.51,-11.2,0.0,-1595.16,-1243.98,0.0,320.0,0.0,35.0,0.0,0.0,0.0,0.0,0.0,0.0,0.0,0.0,0.0,0.0,0.0,0.0,0.0,0.0
436.0,488.0,17801.332730581307,13873.326066928399,-0.0,0.0,0.0,0.0,29689.028682903503,0.0,0.0,0.0,29689.028682903503,0.6048668227791125,0.5367341240528288,0.8,0.0,0.0,0.0,"[1.124221082496021, 1.1609982457482424, 1.7209731301450475, 0.993642747576235, 2.0, 0.9734148102216302, 1.1818666204656942, 1.4227940371122934, 1.6687230855375361]",21.22,0.0,0.0,0.0,276.5833308677916,113.17735043322756,-2256.967933816022,296.91100922519774,4726.7715927263,0.0,0.0,0.0,0.0,0.0,0.0,-11.6,21.352323602177865,0.0,21.530386563442264,0.0,-11.6,21.22,20.79,22.27,21.17,21.86,-12.9,-11.6,0.0,-1592.46,-1241.88,0.0,320.0,19.0,35.0,0.0,0.0,0.0,0.0,0.0,0.0,0.0,0.0,0.0,0.0,0.0,0.0,0.0,0.0
437.0,2800.0,18882.30548362529,13361.893956207163,-0.0,0.0,0.0,0.0,27830.261663575242,0.0,0.0,0.0,27830.26166357524,0.6048668227791125,0.5367341240528288,0.8,0.0,0.0,0.0,"[1.124221082496021, 1.1609982457482424, 1.7209731301450475, 0.993642747576235, 2.0, 0.9734148102216302, 1.1818666204656942, 1.4227940371122934, 1.6687230855375361]",23.12,0.0,0.0,0.0,278.2840738708218,120.01165507219244,-2415.4861418048104,-3055.0846076291978,3933.6567393477717,0.0,0.0,0.0,0.0,0.0,0.0,-12.0,21.97148371351185,0.0,21.630993486658827,0.0,-12.0,23.12,20.86,22.4,22.4,22.97,-13.23,-12.0,0.0,-1704.3,-1329.1,0.0,320.0,31.0,35.0,0.0,0.0,0.0,0.0,0.0,0.0,0.0,0.0,0.0,0.0,0.0,0.0,0.0,0.0
438.0,1691.0,77762.64060540072,64796.50517281865,-0.0,0.0,-10886.322229555064,0.0,9247.041509471173,0.0,-80000.0,0.0,89247.04150947118,1.0,0.8271044944231991,0.7863945578231293,0.0,0.0,0.0,"[1.124221082496021, 1.1609982457482424, 1.449629728687352, 0.993642747576235, 1.0077011328995802, 0.9331180445132681, 1.1818666204656942, 1.4227940371122934, 1.6687230855375361]",23.12,0.0,0.0,0.0,480.7433555232124,230.21481737550016,-2442.994067303077,-2829.2730796491437,0.0,0.0,0.0,0.0,0.0,0.0,0.0,-12.4,22.058396009344722,0.0,21.760644049704894,0.0,-12.4,23.12,20.95,22.58,22.38,23.0,-13.59,-12.4,2522.75,-1723.71,-1344.24,0.0,600.0,69.0,34.0,0.0,0.0,0.0,0.0,0.0,0.0,0.0,0.0,0.0,0.0,0.0,0.0,0.0,0.0
439.0,2782.0,29623.11185796945,0.0,-0.0,0.0,0.0,0.0,36424.970568917954,0.0,12401.273900106322,0.0,0.0,1.0,0.7802364902655788,0.7863945578231293,106771.9851947184,26692.9962986796,133464.981493398,"[1.124221082496021, 1.1609982457482424, 1.449629728687352, 0.993642747576235, 1.0077011328995802, 0.9331180445132681, 1.1818666204656942, 1.4227940371122934, 1.6687230855375361]",21.37,0.0,0.0,0.0,1707.829432209525,198.06827333296195,-2342.753183383284,343.11497622710885,4684.646961714049,0.0,0.0,0.0,0.0,0.0,0.0,-12.7,21.518129300172113,0.0,21.709439485096322,0.0,-12.7,21.37,20.94,22.48,21.32,22.04,-13.88,-12.7,1539.53,-1652.99,-1289.08,0.0,372.0,82.0,1064.0,0.0,0.0,0.0,0.0,0.0,0.0,0.0,0.0,0.0,0.0,0.0,0.0,0.0,0.0
440.0,3939.0,0.0,0.0,-0.0,0.0,13180.032000000001,0.0,27301.748892436743,46205.16,64265.87689243676,0.0,0.0,0.5018884353741496,0.5373571369305948,0.7863945578231293,36964.128000000004,9241.032000000001,46205.16,"[1.124221082496021, 1.1609982457482424, 1.449629728687352, 0.993642747576235, 1.0077011328995802, 0.9331180445132681, 1.1818666204656942, 1.4227940371122934, 1.6687230855375361]",23.12,0.0,0.0,1.8729671262958423,3357.0540951063003,264.7343838621234,-2463.625011426776,-2771.2472852124815,1629.4220722826255,0.0,0.0,0.0,0.0,0.0,0.0,-12.7,22.080822101272204,0.0,21.790703255416723,0.0,-12.7,23.12,20.98,22.6,22.48,23.09,-13.84,-12.7,1874.01,-1738.27,-1355.59,2.96,484.0,72.0,2231.0,0.0,0.0,0.0,0.0,0.0,0.0,0.0,0.0,0.0,0.0,0.0,0.0,0.0,0.0
441.0,1440.0,27326.37958219055,25749.7476842796,-0.0,0.0,0.0,0.0,35466.24612404761,0.0,0.0,0.0,35466.24612404762,0.5018884353741496,0.5373571369305948,0.7863945578231293,0.0,0.0,0.0,"[1.124221082496021, 1.1609982457482424, 1.449629728687352, 0.993642747576235, 1.0077011328995802, 0.9331180445132681, 1.1818666204656942, 1.4227940371122934, 1.6687230855375361]",23.12,0.0,0.0,11.225389491630025,301.17324011993696,91.44046484540894,-2442.994067303077,-2649.845682845314,0.0,0.0,0.0,0.0,0.0,0.0,0.0,-12.4,22.127254039722217,0.0,21.859054049991887,0.0,-12.4,23.12,21.04,22.68,22.28,22.89,-13.51,-12.4,1880.78,-1723.71,-1344.24,17.74,170.0,59.0,128.0,0.0,0.0,0.0,0.0,0.0,0.0,0.0,0.0,0.0,0.0,0.0,0.0,0.0,0.0
442.0,2078.0,0.0,691.0866500256175,-0.0,0.9790882088056614,2768.107561816812,0.0,5521.6396355150255,0.0,4563.187628645843,0.0,958.4520068691832,0.397273637119546,0.5201115298684412,0.7863945578231293,0.0,0.0,0.0,"[1.124221082496021, 1.1609982457482424, 1.449629728687352, 0.993642747576235, 1.0077011328995802, 0.9331180445132681, 1.1818666204656942, 1.4227940371122934, 1.6687230855375361]",21.32,0.0,0.0,16.774868960602337,408.53264218622047,96.66111422239595,-2312.1397862177614,576.1959249179515,59.327861308268616,0.0,0.0,0.0,0.0,0.0,0.0,-12.3,21.562152440923565,0.0,21.78967147120861,0.0,-12.3,21.32,21.02,22.56,21.32,22.04,-13.36,-12.3,2639.93,-1631.39,-1272.23,26.51,264.0,14.0,163.0,0.0,0.0,0.0,0.0,0.0,0.0,0.0,0.0,0.0,0.0,0.0,0.0,0.0,0.0
443.0,5404.0,21501.4049947667,0.0,-0.0,10.102030207133094,-16000.0,0.0,5321.510803189557,0.0,5321.510803189557,0.0,0.0,0.9780143778602867,0.5,0.7863945578231293,0.0,0.0,0.0,"[1.124221082496021, 1.1609982457482424, 1.449629728687352, 0.993642747576235, 1.0077011328995802, 0.9331180445132681, 1.1818666204656942, 1.4227940371122934, 1.6687230855375361]",20.88,0.0,0.0,24.22487864250377,1851.1170302148223,70.17818374640729,-2267.7381742749744,1177.0820260267117,5004.29655390088,0.0,0.0,0.0,0.0,0.0,0.0,-12.1,21.346855721234952,0.0,21.65508337229066,0.0,-12.1,20.88,20.96,22.35,21.09,21.77,-13.13,-12.1,1617.62,-1600.06,-1247.8,38.28,89.0,0.0,1328.0,0.0,0.0,0.0,0.0,0.0,0.0,0.0,0.0,0.0,0.0,0.0,0.0,0.0,0.0
444.0,3773.0,14266.940528576582,10439.839803100236,-0.0,17.23397716653762,0.0,0.0,14777.349682424769,0.0,0.0,0.0,14777.34968242477,0.9780143778602867,0.5,0.7863945578231293,0.0,0.0,0.0,"[1.124221082496021, 1.1609982457482424, 1.449629728687352, 0.993642747576235, 1.0077011328995802, 0.9331180445132681, 1.1818666204656942, 1.4227940371122934, 1.6687230855375361]",23.12,0.0,0.0,27.02829264412882,388.2654547334435,47.49208918095461,-2415.4861418048104,-2855.8143656367934,0.0,0.0,0.0,0.0,0.0,0.0,0.0,-12.0,22.047919213937465,0.0,21.731779095952774,0.0,-12.0,23.12,21.0,22.46,22.47,23.02,-13.08,-12.0,1799.01,-1704.3,-1329.1,42.71,128.0,0.0,221.0,0.0,0.0,0.0,0.0,0.0,0.0,0.0,0.0,0.0,0.0,0.0,0.0,0.0,0.0
445.0,3268.0,15580.66584268772,18325.75304070628,-0.0,6090.990527231999,0.0,0.0,28734.95633690372,0.0,0.0,0.0,28734.956336903717,0.9780143778602867,0.5,0.745578231292517,0.0,0.0,0.0,"[1.124221082496021, 1.1609982457482424, 1.449629728687352, 0.993642747576235, 1.0077011328995802, 0.9331180445132681, 1.1818666204656942, 1.4227940371122934, 1.6687230855375361]",21.28,0.0,0.0,586.985218649407,2565.145634320348,119.03080579530398,-2178.419938283552,474.22211366744403,2500.4130503128517,0.0,0.0,0.0,0.0,0.0,0.0,-10.4,21.477071889689924,0.0,21.674696706486436,0.0,-10.4,21.28,20.98,22.37,21.25,21.9,-10.79,-10.4,1616.83,-1537.04,-1198.66,927.59,196.0,0.0,1802.0,0.0,0.0,0.0,0.0,0.0,0.0,0.0,0.0,0.0,0.0,0.0,0.0,0.0,0.0
446.0,3853.0,0.0,11053.422277471009,-0.0,121.76183928782768,14784.660438183182,0.0,18069.50169503677,0.0,0.0,0.0,18069.50169503677,0.41925925925925933,0.5,0.745578231292517,0.0,0.0,0.0,"[1.124221082496021, 1.1609982457482424, 1.449629728687352, 0.993642747576235, 1.0077011328995802, 0.9331180445132681, 1.1818666204656942, 1.4227940371122934, 1.6687230855375361]",22.84,0.0,0.0,71.00002444704442,1184.2131801515927,56.604495366241046,-2237.98119126578,-2316.256739859412,0.0,0.0,0.0,0.0,0.0,0.0,0.0,-9.7,21.97279968425167,0.0,21.739416870843527,0.0,-9.7,22.84,21.02,22.46,22.28,22.89,-11.29,-9.7,507.43,-1579.06,-1231.43,112.2,96.0,0.0,829.0,0.0,0.0,0.0,0.0,0.0,0.0,0.0,0.0,0.0,0.0,0.0,0.0,0.0,0.0
447.0,2431.0,32417.827030909593,13839.142150217902,-0.0,14.4042544628527,-16000.0,0.0,22491.50421194388,0.0,0.0,0.0,22491.504211943884,1.0,0.5,0.745578231292517,0.0,0.0,0.0,"[1.124221082496021, 1.1609982457482424, 1.449629728687352, 0.993642747576235, 1.0077011328995802, 0.9331180445132681, 1.1818666204656942, 1.4227940371122934, 1.6687230855375361]",21.6,0.0,0.0,38.893299906815734,372.74617483079265,89.85844988268562,-2159.208977674246,-82.1926172799057,0.0,0.0,0.0,0.0,0.0,0.0,0.0,-9.8,21.584610528023468,0.0,21.694818516008468,0.0,-9.8,21.6,21.01,22.38,21.41,22.04,-11.45,-9.8,980.59,-1523.48,-1188.09,61.46,246.0,13.0,146.0,0.0,0.0,0.0,0.0,0.0,0.0,0.0,0.0,0.0,0.0,0.0,0.0,0.0,0.0
448.0,1737.0,3655.559157991686,15560.93319504394,-0.0,0.0,13660.65183284221,0.0,24251.34517905937,0.0,0.0,0.0,24251.345179059375,0.48372442052750536,0.5,0.745578231292517,0.0,0.0,0.0,"[1.124221082496021, 1.1609982457482424, 1.449629728687352, 0.993642747576235, 1.0077011328995802, 0.9331180445132681, 1.1818666204656942, 1.4227940371122934, 1.6687230855375361]",20.93,0.0,0.0,0.941030930166959,241.57637072208598,91.47210514466342,-2161.281989073011,973.5346417383817,6580.032164166978,0.0,0.0,0.0,0.0,0.0,0.0,-10.5,21.320277622543063,0.0,21.58535549869345,0.0,-10.5,20.93,20.96,22.21,21.09,21.71,-12.35,-10.5,1559.42,-1524.94,-1189.23,1.49,188.0,52.0,75.0,0.0,0.0,0.0,0.0,0.0,0.0,0.0,0.0,0.0,0.0,0.0,0.0,0.0,0.0
449.0,2306.0,0.0,4505.314099466534,-0.0,0.0,6811.314099466534,0.0,6849.622961244448,0.0,0.0,0.0,6849.622961244449,0.22630514239195987,0.5,0.745578231292517,0.0,0.0,0.0,"[1.124221082496021, 1.1609982457482424, 1.449629728687352, 0.993642747576235, 1.0077011328995802, 0.9331180445132681, 1.1818666204656942, 1.4227940371122934, 1.6687230855375361]",23.12,0.0,0.0,0.0,334.5503215544054,141.08409437566735,-2339.839346684579,-2892.6774870910913,0.0,0.0,0.0,0.0,0.0,0.0,0.0,-10.9,22.033541787663886,0.0,21.70526891636162,0.0,-10.9,23.12,21.01,22.4,22.6,23.12,-12.68,-10.9,1687.31,-1650.93,-1287.48,0.0,316.0,68.0,75.0,0.0,0.0,0.0,0.0,0.0,0.0,0.0,0.0,0.0,0.0,0.0,0.0,0.0,0.0
450.0,3036.0,33839.86563242146,2952.0340676912588,-11682.632236568097,0.0,-15999.999999999998,0.0,4347.3912328633305,0.0,0.0,0.0,4347.3912328633305,0.5807407407407407,0.5,1.0,0.0,0.0,0.0,"[0.7169374260233035, 0.5185774864368149, 1.3651384785526943, 0.6903180666146369, 1.0077011328995802, 0.8736698388501694, 1.1818666204656942, 1.0245248737046992, 1.15231144445875]",21.29,0.0,0.0,0.0,1648.6577485624316,165.63696659713352,-2248.350523245241,417.38915536319934,0.0,0.0,0.0,0.0,0.0,0.0,0.0,-11.4,21.473487143150592,0.0,21.657735103115748,0.0,-11.4,21.29,21.0,22.32,21.28,21.9,-13.19,-11.4,1673.96,-1586.38,-1237.14,0.0,310.0,60.0,1055.0,0.0,0.0,0.0,0.0,0.0,0.0,0.0,0.0,0.0,0.0,0.0,0.0,0.0,0.0
451.0,7621.0,103846.84210330364,84155.58748462386,-0.0,0.0,-11551.020408163267,0.0,40724.83283923926,0.0,-80000.0,0.0,120724.83283923926,1.0,0.7903703703703704,1.0,0.0,0.0,0.0,"[0.7169374260233035, 0.5185774864368149, 1.3651384785526943, 0.6903180666146369, 1.0077011328995802, 0.8736698388501694, 1.1818666204656942, 1.0245248737046992, 1.15231144445875]",21.28,0.0,0.0,0.0,3334.306657440771,205.9150675480697,-2275.1160513485574,275.0087779824902,0.0,0.0,0.0,0.0,0.0,0.0,0.0,-11.8,21.40819694319942,0.0,21.561641438915892,0.0,-11.8,21.28,20.95,22.17,21.25,21.81,-13.52,-11.8,0.0,-1605.26,-1251.86,0.0,384.0,22.0,2272.0,0.0,0.0,0.0,0.0,0.0,0.0,0.0,0.0,0.0,0.0,0.0,0.0,0.0,0.0
452.0,6203.0,0.0,0.0,-0.0,0.0,6203.0,0.0,10615.266468464608,0.0,10615.266468464612,0.0,0.0,0.7655706727135299,0.7502522053346009,1.0,0.0,0.0,0.0,"[0.7169374260233035, 0.5185774864368149, 1.3651384785526943, 0.6903180666146369, 1.0077011328995802, 0.8736698388501694, 1.1818666204656942, 1.0245248737046992, 1.15231144445875]",21.87,0.0,0.0,0.0,957.5891749978139,133.11073896354168,-2349.7953892046776,-903.407684380167,4379.915334938499,0.0,0.0,0.0,0.0,0.0,0.0,-12.3,21.5422730091798,0.0,21.507024662754077,0.0,-12.3,21.87,20.92,22.09,21.49,21.97,-14.09,-12.3,0.0,-1657.95,-1292.95,0.0,267.0,54.0,565.0,0.0,0.0,0.0,0.0,0.0,0.0,0.0,0.0,0.0,0.0,0.0,0.0,0.0,0.0
453.0,4770.0,6142.5463365367095,17341.833604854026,-0.0,0.0,16000.0,0.0,23389.685734725565,0.0,0.0,0.0,23389.685734725565,0.16088435374149657,0.7502522053346009,1.0,0.0,0.0,0.0,"[0.7169374260233035, 0.5185774864368149, 1.3651384785526943, 0.6903180666146369, 1.0077011328995802, 0.8736698388501694, 1.1818666204656942, 1.0245248737046992, 1.15231144445875]",22.72,0.0,0.0,0.0,1013.4302369306399,183.48209537665278,-2435.616190229494,-2318.818643027372,2558.3814211844956,0.0,0.0,0.0,0.0,0.0,0.0,-12.7,21.847382801689832,0.0,21.600293816944337,0.0,-12.7,22.72,20.96,22.24,22.22,22.71,-14.45,-12.7,2079.83,-1718.51,-1340.18,0.0,459.0,39.0,507.0,0.0,0.0,0.0,0.0,0.0,0.0,0.0,0.0,0.0,0.0,0.0,0.0,0.0,0.0
454.0,3577.0,8900.120880575296,9535.62027617242,-0.0,0.0,4256.999999999999,0.0,12406.57610375727,0.0,0.0,0.0,12406.57610375727,0.0,0.7502522053346009,1.0,0.0,0.0,0.0,"[0.7169374260233035, 0.5185774864368149, 1.3651384785526943, 0.6903180666146369, 1.0077011328995802, 0.8736698388501694, 1.1818666204656942, 1.0245248737046992, 1.15231144445875]",22.33,0.0,0.0,0.0,1030.6502598363209,213.12905577808814,-2443.2816696261643,-1508.0453126505004,0.0,0.0,0.0,0.0,0.0,0.0,0.0,-13.2,21.770233122410467,0.0,21.655077867090135,0.0,-13.2,22.33,20.99,22.32,21.94,22.48,-14.93,-13.2,2488.27,-1723.92,-1344.39,0.0,600.0,16.0,448.0,0.0,0.0,0.0,0.0,0.0,0.0,0.0,0.0,0.0,0.0,0.0,0.0,0.0,0.0
455.0,2647.0,43916.60412260913,29499.000693832815,-0.0,0.0,-11551.020408163267,0.0,22570.75725323821,0.0,-14684.821600503954,0.0,37255.57885374216,0.41925925925925933,0.8035526689216153,1.0,0.0,0.0,0.0,"[0.7169374260233035, 0.5185774864368149, 1.3651384785526943, 0.6903180666146369, 1.0077011328995802, 0.8736698388501694, 1.1818666204656942, 1.0245248737046992, 1.15231144445875]",21.28,0.0,0.0,0.0,2035.5059174600167,190.34804031487204,-2398.9017160907547,317.8773049511113,3602.422362000656,0.0,0.0,0.0,0.0,0.0,0.0,-13.6,21.425705590061245,0.0,21.59053818879417,0.0,-13.6,21.28,20.96,22.23,21.27,21.86,-15.39,-13.6,2236.48,-1692.6,-1319.97,0.0,432.0,23.0,1282.0,0.0,0.0,0.0,0.0,0.0,0.0,0.0,0.0,0.0,0.0,0.0,0.0,0.0,0.0
456.0,1323.0,48774.08404018057,31207.21361997967,-0.0,0.0,-16000.0,0.0,38817.93982052184,0.0,0.0,0.0,38817.93982052183,1.0,0.8035526689216153,1.0,0.0,0.0,0.0,"[0.7169374260233035, 0.5185774864368149, 1.3651384785526943, 0.6903180666146369, 1.0077011328995802, 0.8736698388501694, 1.1818666204656942, 1.0245248737046992, 1.15231144445875]",22.72,0.0,0.0,0.0,428.4455081800328,58.028308832692055,-2511.2629853497256,-2250.2071176202608,4279.006465434942,0.0,0.0,0.0,0.0,0.0,0.0,-13.8,21.87435438284672,0.0,21.643034937966256,0.0,-13.8,22.72,20.97,22.31,22.19,22.7,-15.57,-13.8,2153.17,-1771.88,-1381.8,0.0,160.0,0.0,234.0,0.0,0.0,0.0,0.0,0.0,0.0,0.0,0.0,0.0,0.0,0.0,0.0,0.0,0.0
457.0,943.0,947.7386934673367,0.0,-0.0,0.0,0.0,0.0,26332.41156688644,0.0,26332.411566886443,0.0,0.0,1.0,0.704034862546383,1.0,0.0,0.0,0.0,"[0.7169374260233035, 0.5185774864368149, 1.3651384785526943, 0.6903180666146369, 1.0077011328995802, 0.8736698388501694, 1.1818666204656942, 1.0245248737046992, 1.15231144445875]",22.72,0.0,0.0,0.0,272.26060906842304,54.3580341191739,-2531.8939294734246,-2091.533809377163,566.4681619891295,0.0,0.0,0.0,0.0,0.0,0.0,-14.1,21.93543548818645,0.0,21.737614992953873,0.0,-14.1,22.72,21.02,22.46,22.24,22.81,-15.84,-14.1,2185.48,-1786.44,-1393.15,0.0,160.0,0.0,118.0,0.0,0.0,0.0,0.0,0.0,0.0,0.0,0.0,0.0,0.0,0.0,0.0,0.0,0.0
458.0,741.0,4140.671268053943,13331.967911713673,-0.0,0.0,9953.0,0.0,15947.841492514339,0.0,0.0,0.0,15947.841492514339,0.6238473167044596,0.704034862546383,1.0,0.0,0.0,0.0,"[0.7169374260233035, 0.5185774864368149, 1.3651384785526943, 0.6903180666146369, 1.0077011328995802, 0.8736698388501694, 1.1818666204656942, 1.0245248737046992, 1.15231144445875]",21.28,0.0,0.0,0.0,388.0528618580647,57.07909985505804,-2447.04058571272,459.74094971230426,1546.1122564997966,0.0,0.0,0.0,0.0,0.0,0.0,-14.3,21.480551371907506,0.0,21.675979275181085,0.0,-14.3,21.28,20.99,22.36,21.3,21.95,-16.05,-14.3,2162.33,-1726.57,-1346.46,0.0,160.0,0.0,204.0,0.0,0.0,0.0,0.0,0.0,0.0,0.0,0.0,0.0,0.0,0.0,0.0,0.0,0.0
459.0,2666.0,0.0,13334.0,-0.0,0.0,16000.0,0.0,26964.199740256547,0.0,11141.044556214378,0.0,15823.155184042174,0.019160997732426303,0.6619296299076288,1.0,0.0,0.0,0.0,"[0.7169374260233035, 0.5185774864368149, 1.3651384785526943, 0.6903180666146369, 1.0077011328995802, 0.8736698388501694, 1.1818666204656942, 1.0245248737046992, 1.15231144445875]",21.28,0.0,0.0,0.0,1867.7701387861594,91.85178873571704,-2453.917567087286,326.8127769066302,173.83049135218755,0.0,0.0,0.0,0.0,0.0,0.0,-14.4,21.429575843115682,0.0,21.59803583329107,0.0,-14.4,21.28,20.95,22.25,21.35,21.97,-16.17,-14.4,2171.58,-1731.42,-1350.25,0.0,160.0,0.0,1303.0,0.0,0.0,0.0,0.0,0.0,0.0,0.0,0.0,0.0,0.0,0.0,0.0,0.0,0.0
460.0,507.0,0.0,0.0,-0.0,0.0,507.0,0.0,24230.51135744803,0.0,24230.511357448035,0.0,0.0,0.0,0.5703555129104707,1.0,0.0,0.0,0.0,"[0.7169374260233035, 0.5185774864368149, 1.3651384785526943, 0.6903180666146369, 1.0077011328995802, 0.8736698388501694, 1.1818666204656942, 1.0245248737046992, 1.15231144445875]",21.28,0.0,0.0,0.0,373.5256820405147,81.2839287847251,-2460.794548461853,164.80476255735292,5066.831770839192,0.0,0.0,0.0,0.0,0.0,0.0,-14.5,21.367451789398427,0.0,21.503088690972163,0.0,-14.5,21.28,20.9,22.11,21.21,21.77,-16.32,-14.5,1364.03,-1736.27,-1354.03,0.0,240.0,1.0,151.0,0.0,0.0,0.0,0.0,0.0,0.0,0.0,0.0,0.0,0.0,0.0,0.0,0.0,0.0
461.0,1353.0,1359.7989949748744,0.0,-0.0,0.0,0.0,0.0,12876.917297507904,0.0,12876.917297507904,0.0,0.0,0.0,0.5216899146583622,1.0,0.0,0.0,0.0,"[0.7169374260233035, 0.5185774864368149, 1.3651384785526943, 0.6903180666146369, 1.0077011328995802, 0.8736698388501694, 1.1818666204656942, 1.0245248737046992, 1.15231144445875]",22.52,0.0,0.0,0.0,235.34031304430843,85.39716768780582,-2552.7038328391336,-2004.4472345123354,4756.378341016981,0.0,0.0,0.0,0.0,0.0,0.0,-14.6,21.77169131577412,0.0,21.576472521435253,0.0,-14.6,22.52,20.92,22.23,22.16,22.68,-16.41,-14.6,1694.72,-1801.12,-1404.6,0.0,240.0,14.0,47.0,0.0,0.0,0.0,0.0,0.0,0.0,0.0,0.0,0.0,0.0,0.0,0.0,0.0,0.0
462.0,660.0,11552.452924801548,10834.690660177539,-0.0,0.0,0.0,0.0,12547.410219155821,0.0,0.0,0.0,12547.410219155821,0.0,0.5216899146583622,1.0,0.0,0.0,0.0,"[0.7169374260233035, 0.5185774864368149, 1.3651384785526943, 0.6903180666146369, 1.0077011328995802, 0.8736698388501658, 1.1818666204656942, 1.0245248737046992, 1.15231144445875]",22.72,0.0,0.0,0.0,387.76940469089294,156.55620071110152,-2573.155817720824,-2194.0560430917512,499.6079606205253,0.0,0.0,0.0,0.0,0.0,0.0,-14.7,21.896405640515425,0.0,21.68163701558656,0.0,-14.7,22.72,20.97,22.4,22.25,22.82,-16.44,-14.7,1506.12,-1815.55,-1415.86,0.0,456.0,19.0,46.0,0.0,0.0,0.0,0.0,0.0,0.0,0.0,0.0,0.0,0.0,0.0,0.0,0.0,0.0
463.0,1423.0,37129.82495121716,19521.175826461076,-0.0,0.0,-16000.0,0.0,22607.03223905994,0.0,0.0,0.0,22607.032239059943,0.5807407407407407,0.5216899146583622,1.0,0.0,0.0,0.0,"[0.7169374260233035, 0.5185774864368149, 1.3651384785526943, 0.6903180666146369, 1.0077011328995802, 0.8736698388501658, 1.1818666204656942, 1.0245248737046992, 1.15231144445875]",21.28,0.0,0.0,0.0,250.50527148799463,93.81348728949396,-2474.548511210986,372.1920521583463,1764.5208966499267,0.0,0.0,0.0,0.0,0.0,0.0,-14.7,21.447188373117815,0.0,21.62896173965008,0.0,-14.7,21.28,20.95,22.31,21.3,21.94,-16.5,-14.7,1574.34,-1745.98,-1361.6,0.0,180.0,60.0,85.0,0.0,0.0,0.0,0.0,0.0,0.0,0.0,0.0,0.0,0.0,0.0,0.0,0.0,0.0
464.0,1109.0,20836.45689584799,19623.27461136875,-0.0,0.0,0.0,0.0,23847.71872692804,0.0,0.0,0.0,23847.71872692804,0.5807407407407407,0.5216899146583622,1.0,0.0,0.0,0.0,"[0.7169374260233035, 0.5185774864368149, 1.3651384785526943, 0.6903180666146369, 1.0077011328995802, 0.8736698388501658, 1.1818666204656942, 1.0245248737046992, 1.15231144445875]",21.28,0.0,0.0,7.585534001275894,227.4743766552936,121.81515212969701,-2433.286622963587,256.81363091423805,5561.776100394013,0.0,0.0,0.0,0.0,0.0,0.0,-14.1,21.40249991179616,0.0,21.56087073022181,0.0,-14.1,21.28,20.91,22.21,21.36,21.97,-15.82,-14.1,1685.95,-1716.86,-1338.89,11.99,228.0,85.0,40.0,0.0,0.0,0.0,0.0,0.0,0.0,0.0,0.0,0.0,0.0,0.0,0.0,0.0,0.0
465.0,2011.0,18149.26238647461,16098.557147141813,-0.0,51.04107259957639,0.0,0.0,25396.164323979203,0.0,0.0,0.0,25396.164323979207,0.5807407407407407,0.5216899146583622,1.0,0.0,0.0,0.0,"[0.7169374260233035, 0.5185774864368149, 1.3651384785526943, 0.6903180666146369, 1.0077011328995802, 0.8736698388501658, 1.1818666204656942, 1.0245248737046992, 1.15231144445875]",22.72,0.0,0.0,55.50545330743572,321.5821561562998,105.74188010842792,-2270.5686372398977,-2244.4032554651753,303.061049224818,0.0,0.0,0.0,0.0,0.0,0.0,-10.3,21.874491955469555,0.0,21.64970561302703,0.0,-10.3,22.72,20.94,22.36,22.32,22.88,-11.84,-10.3,0.0,-1602.05,-1249.36,87.71,252.0,40.0,102.0,0.0,0.0,0.0,0.0,0.0,0.0,0.0,0.0,0.0,0.0,0.0,0.0,0.0,0.0
466.0,1850.0,0.0,8057.976877517724,-0.0,3406.680358366153,6501.2965191515705,0.0,15323.65576947404,0.0,0.0,0.0,15323.65576947404,0.33503792444627456,0.5216899146583622,1.0,0.0,0.0,0.0,"[0.7169374260233035, 0.5185774864368149, 1.3651384785526943, 0.6903180666146369, 1.0077011328995802, 0.8736698388501658, 1.1818666204656942, 1.0245248737046992, 1.15231144445875]",21.28,0.0,0.0,76.47943805400021,407.04449205856895,85.93505277513174,-1938.1439639947992,336.32811804857425,4769.301926831311,0.0,0.0,0.0,0.0,0.0,0.0,-6.9,21.428920451696165,0.0,21.601377614274575,0.0,-6.9,21.28,20.93,22.27,21.27,21.9,-8.49,-6.9,0.0,-1367.5,-1066.45,120.86,234.0,11.0,178.0,0.0,0.0,0.0,0.0,0.0,0.0,0.0,0.0,0.0,0.0,0.0,0.0,0.0,0.0
467.0,2299.0,4509.00834019451,0.0,-0.0,13812.536701506462,-16000.0,0.0,13781.749953674936,0.0,13781.749953674935,0.0,0.0,0.9157786651870152,0.4696046918553579,1.0,0.0,0.0,0.0,"[0.7169374260233035, 0.5185774864368149, 1.3651384785526943, 0.6903180666146369, 1.0077011328995802, 0.8736698388501658, 1.1818666204656942, 1.0245248737046992, 1.15231144445875]",22.72,0.0,0.0,913.6386347298444,498.17597130427225,148.3930035034491,-1851.0727733913413,-2177.362149716648,0.0,0.0,0.0,0.0,0.0,0.0,0.0,-4.2,21.895951549247304,0.0,21.679983851021134,0.0,-4.2,22.72,20.97,22.39,22.27,22.84,-4.21,-4.2,0.0,-1306.07,-1018.54,1443.79,456.0,0.0,130.0,0.0,0.0,0.0,0.0,0.0,0.0,0.0,0.0,0.0,0.0,0.0,0.0,0.0,0.0
468.0,4872.0,0.0,7901.736559108703,-0.0,15094.120273343999,-2320.383714235296,0.0,18341.04331262293,0.0,0.0,0.0,18341.043312622925,1.0,0.4696046918553579,1.0,0.0,0.0,0.0,"[0.7169374260233035, 0.5185774864368149, 1.3651384785526943, 0.6903180666146369, 1.0077011328995802, 0.8736698388501658, 1.1818666204656942, 1.0245248737046992, 1.15231144445875]",21.78,0.0,0.0,955.1813722134121,1749.7810929509371,218.5711872498564,-1669.475038801424,-372.39583009079604,1300.7795527505716,0.0,0.0,0.0,0.0,0.0,0.0,-2.5,21.64684962664203,0.0,21.71372728305733,0.0,-2.5,21.78,21.0,22.43,21.67,22.41,-2.41,-2.5,0.0,-1177.94,-918.61,1509.44,592.0,0.0,988.0,0.0,0.0,0.0,0.0,0.0,0.0,0.0,0.0,0.0,0.0,0.0,0.0,0.0,0.0
469.0,6843.0,0.0,4078.50076337104,-0.0,4634.706266685859,6286.794496685181,0.0,9738.94582098393,0.0,0.0,0.0,9738.94582098393,0.7624038361041126,0.4696046918553579,1.0,0.0,0.0,0.0,"[0.7169374260233035, 0.5185774864368149, 1.3651384785526943, 0.6903180666146369, 1.0077011328995802, 0.8736698388501658, 1.1818666204656942, 1.0245248737046992, 1.15231144445875]",22.62,0.0,0.0,856.1178003229451,717.5009544033793,129.5670254470414,-1679.365273376743,-1795.8950617553717,0.0,0.0,0.0,0.0,0.0,0.0,0.0,-1.8,21.944225051404423,0.0,21.79289134614413,0.0,-1.8,22.62,21.05,22.53,22.2,22.9,-1.87,-1.8,0.0,-1184.92,-924.06,1352.89,376.0,0.0,335.0,0.0,0.0,0.0,0.0,0.0,0.0,0.0,0.0,0.0,0.0,0.0,0.0,0.0,0.0
470.0,1778.0,12519.688648205054,10744.874676213849,-0.0,65.78447124982154,0.0,0.0,17078.3206549771,0.0,-8374.217550054453,0.0,25452.538205031553,0.7624038361041126,0.5,1.0,0.0,0.0,0.0,"[0.7169374260233035, 0.5185774864368149, 1.3651384785526943, 0.6903180666146369, 1.0077011328995802, 0.8736698388501658, 1.1818666204656942, 1.0245248737046992, 1.15231144445875]",21.95,0.0,0.0,64.80874454831401,916.2752928825378,186.99416859389856,-1646.8034604038114,-501.75203919210276,2996.8151680076285,0.0,0.0,0.0,0.0,0.0,0.0,-2.0,21.768296690751008,0.0,21.81883504501254,0.0,-2.0,21.95,21.09,22.55,21.78,22.52,-3.65,-2.0,0.0,-1161.94,-906.14,102.41,552.0,0.0,390.0,0.0,0.0,0.0,0.0,0.0,0.0,0.0,0.0,0.0,0.0,0.0,0.0,0.0,0.0
471.0,1530.0,0.0,2878.3141984648455,-0.0,15.61507197314887,4392.699126491697,0.0,6351.694361210325,0.0,0.0,0.0,6351.694361210326,0.5963910195322419,0.5,1.0,0.0,0.0,0.0,"[0.7169374260233035, 0.5185774864368149, 1.3651384785526943, 0.6903180666146369, 1.0077011328995802, 0.8736698388501658, 1.1818666204656942, 1.0245248737046992, 1.15231144445875]",22.72,0.0,0.0,40.042851242521785,851.9305159345607,161.30224559927157,-1816.6878665185088,-1834.7793546896517,2607.614684623434,0.0,0.0,0.0,0.0,0.0,0.0,-3.7,22.028077897135468,0.0,21.871305546760752,0.0,-3.7,22.72,21.13,22.61,22.25,22.85,-5.24,-3.7,0.0,-1281.81,-999.62,63.28,460.0,6.0,390.0,0.0,0.0,0.0,0.0,0.0,0.0,0.0,0.0,0.0,0.0,0.0,0.0,0.0,0.0
472.0,1690.0,0.0,7576.919105586973,-0.0,0.0,9266.919105586974,0.0,15131.171027349272,0.0,0.0,0.0,15131.171027349274,0.2461673193966798,0.5,1.0,0.0,0.0,0.0,"[0.7169374260233035, 0.5185774864368149, 1.3651384785526943, 0.6903180666146369, 1.0077011328995802, 0.8736698388501658, 1.1818666204656942, 1.0245248737046992, 1.15231144445875]",22.72,0.0,0.0,0.9410851577123307,668.3211358990885,134.43963153222927,-1967.981456758972,-1732.776454829117,0.0,0.0,0.0,0.0,0.0,0.0,0.0,-5.9,22.06855427764523,0.0,21.929723201954257,0.0,-5.9,22.72,21.18,22.68,22.24,22.84,-7.57,-5.9,0.0,-1388.56,-1082.86,1.49,279.0,62.0,343.0,0.0,0.0,0.0,0.0,0.0,0.0,0.0,0.0,0.0,0.0,0.0,0.0,0.0,0.0
473.0,2047.0,24487.430307160274,6317.993155624473,-0.0,0.0,-16000.0,0.0,12556.853974694814,0.0,0.0,0.0,12556.853974694814,0.8269080601374205,0.5,1.0,0.0,0.0,0.0,"[0.7169374260233035, 0.5185774864368149, 1.3651384785526943, 0.6903180666146369, 1.0077011328995802, 0.8736698388501658, 1.1818666204656942, 1.0245248737046992, 1.15231144445875]",21.6,0.0,0.0,0.0,858.2374379041311,130.00998963660393,-1898.1108750711273,237.13903825757396,0.0,0.0,0.0,0.0,0.0,0.0,0.0,-6.0,21.708397214271493,0.0,21.86917069630894,0.0,-6.0,21.6,21.17,22.57,21.52,22.16,-7.63,-6.0,1377.87,-1339.26,-1044.42,0.0,255.0,59.0,497.0,0.0,0.0,0.0,0.0,0.0,0.0,0.0,0.0,0.0,0.0,0.0,0.0,0.0,0.0
474.0,2784.0,0.0,646.1330052115296,-0.0,0.0,3430.1330052115295,0.0,1284.1732485020345,0.0,0.0,0.0,1284.1732485020345,0.5676387475741907,0.5,1.0,0.0,0.0,0.0,"[0.6608420139962234, 0.5181539553806864, 1.2335893364000832, 0.6758297085945877, 1.0077011328995802, 0.45986973796881614, 1.107133714559712, 0.880324044356005, 1.15231144445875]",21.34,0.0,0.0,0.0,1652.3426917356637,146.90590943848918,-1880.108802660789,558.0748029742028,0.0,0.0,0.0,0.0,0.0,0.0,0.0,-6.0,21.56968363312873,0.0,21.769812030229208,0.0,-6.0,21.34,21.14,22.4,21.37,21.97,-7.58,-6.0,183.47,-1326.56,-1034.51,0.0,234.0,67.0,1097.0,0.0,0.0,0.0,0.0,0.0,0.0,0.0,0.0,0.0,0.0,0.0,0.0,0.0,0.0
475.0,2581.0,12214.95565195068,9572.880873690927,-0.0,0.0,0.0,0.0,18934.601002857376,0.0,0.0,0.0,18934.60100285738,0.5676387475741907,0.5,1.0,0.0,0.0,0.0,"[0.6608420139962234, 0.5181539553806864, 1.2335893364000832, 0.6758297085945877, 1.0077011328995802, 0.45986973796881614, 1.107133714559712, 0.880324044356005, 1.15231144445875]",21.52,0.0,0.0,0.0,890.9058764206702,93.27560220216802,-1899.319623427099,84.15707102053376,370.3647669608869,0.0,0.0,0.0,0.0,0.0,0.0,-6.1,21.56715538715515,0.0,21.684370139176078,0.0,-6.1,21.52,21.1,22.26,21.43,21.95,-7.58,-6.1,797.93,-1340.11,-1045.08,0.0,162.0,42.0,572.0,0.0,0.0,0.0,0.0,0.0,0.0,0.0,0.0,0.0,0.0,0.0,0.0,0.0,0.0
476.0,4029.0,2113.959053922504,0.0,-0.0,0.0,1925.610741347108,0.0,27001.353924081053,0.0,27001.35392408105,0.0,0.0,0.49486434313930383,0.39795406680241474,1.0,0.0,0.0,0.0,"[0.6608420139962234, 0.5181539553806864, 1.2335893364000832, 0.6758297085945877, 1.0077011328995802, 0.45986973796881614, 1.107133714559712, 0.880324044356005, 1.15231144445875]",21.34,0.0,0.0,0.0,707.1547678016121,91.15570215211878,-1886.9857840353554,290.7333298445867,4246.171589225108,0.0,0.0,0.0,0.0,0.0,0.0,-6.1,21.46702938061308,0.0,21.60953722840692,0.0,-6.1,21.34,21.07,22.15,21.34,21.84,-7.58,-6.1,0.0,-1331.41,-1038.3,0.0,158.0,48.0,437.0,0.0,0.0,0.0,0.0,0.0,0.0,0.0,0.0,0.0,0.0,0.0,0.0,0.0,0.0
477.0,2959.0,0.0,10135.11051946598,-0.0,0.0,13094.11051946598,0.0,19950.03738837537,0.0,0.0,0.0,19950.03738837537,0.0,0.39795406680241474,1.0,0.0,0.0,0.0,"[0.6608420139962234, 0.5181539553806864, 1.2335893364000832, 0.6758297085945877, 1.0077011328995802, 0.45986973796881614, 1.107133714559712, 0.880324044356005, 1.15231144445875]",22.66,0.0,0.0,0.0,790.2785820747146,100.86927402324004,-1984.754729845583,-2037.4597247235997,3138.0374011838057,0.0,0.0,0.0,0.0,0.0,0.0,-6.2,21.895491031910563,0.0,21.68048523437374,0.0,-6.2,22.66,21.1,22.26,22.24,22.69,-7.67,-6.2,175.6,-1400.39,-1092.09,0.0,165.0,58.0,494.0,0.0,0.0,0.0,0.0,0.0,0.0,0.0,0.0,0.0,0.0,0.0,0.0,0.0,0.0
478.0,2536.0,2548.743718592965,0.0,-0.0,0.0,0.0,0.0,17411.724822633456,0.0,17411.724822633452,0.0,0.0,0.0,0.3321501181152135,1.0,0.0,0.0,0.0,"[0.6608420139962234, 0.5181539553806864, 1.2335893364000832, 0.6758297085945877, 1.0077011328995802, 0.45986973796881614, 1.107133714559712, 0.880324044356005, 1.15231144445875]",22.66,0.0,0.0,0.0,636.8573903430291,78.2464600562963,-1991.6317112201493,-1900.031908706759,2830.7495638337605,0.0,0.0,0.0,0.0,0.0,0.0,-6.3,21.94829754470367,0.0,21.76122427262618,0.0,-6.3,22.66,21.15,22.38,22.19,22.67,-7.74,-6.3,835.46,-1405.24,-1095.88,0.0,162.0,26.0,385.0,0.0,0.0,0.0,0.0,0.0,0.0,0.0,0.0,0.0,0.0,0.0,0.0,0.0,0.0
479.0,1776.0,8892.322852709513,7071.861238445965,-0.0,0.0,0.0,0.0,13852.893335203129,0.0,0.0,0.0,13852.893335203129,0.0,0.3321501181152135,0.9217687074829932,0.0,0.0,0.0,"[0.6608420139962234, 0.5181539553806864, 1.2335893364000832, 0.6758297085945877, 1.0077011328995802, 0.45986973796881614, 1.107133714559712, 0.880324044356005, 1.15231144445875]",22.53,0.0,0.0,0.0,608.3699450422728,85.27060649078793,-1982.3570143243712,-1550.55598515304,0.0,0.0,0.0,0.0,0.0,0.0,0.0,-6.3,21.947506762218666,0.0,21.819000786658428,0.0,-6.3,22.53,21.18,22.46,22.12,22.64,-7.65,-6.3,1933.62,-1398.7,-1090.77,0.0,182.0,29.0,353.0,0.0,0.0,0.0,0.0,0.0,0.0,0.0,0.0,0.0,0.0,0.0,0.0,0.0,0.0
480.0,858.0,25204.444950838202,8220.422726084014,-0.0,0.0,-16000.0,0.0,16024.41409376117,0.0,0.0,0.0,16024.41409376117,0.5807407407407407,0.3321501181152135,0.9217687074829932,0.0,0.0,0.0,"[0.6608420139962234, 0.5181539553806864, 1.2335893364000832, 0.6758297085945877, 1.0077011328995802, 0.45986973796881614, 1.107133714559712, 0.880324044356005, 1.15231144445875]",21.43,0.0,0.0,0.0,294.8663181503666,122.09991482298726,-1914.1009586078455,369.62975920414743,890.3957562038556,0.0,0.0,0.0,0.0,0.0,0.0,-6.4,21.59180284824172,0.0,21.756654743639437,0.0,-6.4,21.43,21.16,22.35,21.41,21.97,-7.83,-6.4,1916.61,-1350.54,-1053.22,0.0,320.0,34.0,47.0,0.0,0.0,0.0,0.0,0.0,0.0,0.0,0.0,0.0,0.0,0.0,0.0,0.0,0.0
481.0,1704.0,0.0,12668.399999999998,-0.0,0.0,14372.399999999998,0.0,24695.04236822981,0.0,0.0,0.0,24695.042368229813,0.03756613756613757,0.3321501181152135,0.9217687074829932,0.0,0.0,0.0,"[0.6608420139962234, 0.5181539553806864, 1.2335893364000832, 0.6758297085945877, 1.0077011328995802, 0.45986973796881614, 1.107133714559712, 0.880324044356005, 1.15231144445875]",21.34,0.0,0.0,0.0,1145.308683957276,134.7243942255195,-1907.616728159055,422.92633759556645,3655.8978318402997,0.0,0.0,0.0,0.0,0.0,0.0,-6.4,21.51788035092395,0.0,21.68427541494455,0.0,-6.4,21.34,21.13,22.24,21.42,21.96,-7.74,-6.4,1812.87,-1345.96,-1049.65,0.0,320.0,21.0,680.0,0.0,0.0,0.0,0.0,0.0,0.0,0.0,0.0,0.0,0.0,0.0,0.0,0.0,0.0
482.0,3117.0,10377.780510883664,7208.891608329245,-0.0,0.0,0.0,0.0,14052.594147300932,0.0,0.0,0.0,14052.59414730093,0.03756613756613757,0.3321501181152135,0.9217687074829932,0.0,0.0,0.0,"[0.6608420139962234, 0.5181539553806864, 1.2335893364000832, 0.6758297085945877, 1.0077011328995802, 0.45986973796881614, 1.107133714559712, 0.880324044356005, 1.15231144445875]",22.66,0.0,0.0,0.0,693.9740095281278,112.2281414555936,-1998.508692594716,-1932.3497397256062,0.0,0.0,0.0,0.0,0.0,0.0,0.0,-6.4,21.935876474253877,0.0,21.73874680855876,0.0,-6.4,22.66,21.15,22.33,22.24,22.69,-7.72,-6.4,1094.0,-1410.1,-1099.66,0.0,320.0,0.0,347.0,0.0,0.0,0.0,0.0,0.0,0.0,0.0,0.0,0.0,0.0,0.0,0.0,0.0,0.0
483.0,994.0,0.0,0.0,-0.0,0.0,994.0,0.0,5665.322413549388,0.0,5665.322413549388,0.0,0.0,0.0,0.31073922463997017,0.9217687074829932,0.0,0.0,0.0,"[0.6608420139962234, 0.5181539553806864, 1.2335893364000832, 0.6758297085945877, 1.0077011328995802, 0.45986973796881614, 1.107133714559712, 0.880324044356005, 1.15231144445875]",21.46,0.0,0.0,0.0,283.3154385881196,102.57785018298127,-1908.9132714837253,218.71853134139437,1001.8723128610928,0.0,0.0,0.0,0.0,0.0,0.0,-6.3,21.558335199776515,0.0,21.692753757207914,0.0,-6.3,21.46,21.14,22.25,21.41,21.92,-7.65,-6.3,1292.89,-1346.88,-1050.36,0.0,320.0,0.0,42.0,0.0,0.0,0.0,0.0,0.0,0.0,0.0,0.0,0.0,0.0,0.0,0.0,0.0,0.0
484.0,1178.0,16456.1460076801,15195.8652776417,-0.0,0.0,0.0,0.0,29766.80307057976,0.0,0.0,0.0,29766.803070579765,0.0,0.31073922463997017,0.9217687074829932,0.0,0.0,0.0,"[0.6608420139962234, 0.5181539553806864, 1.2335893364000832, 0.6758297085945877, 1.0077011328995802, 0.45986973796881614, 1.107133714559712, 0.880324044356005, 1.15231144445875]",21.34,0.0,0.0,0.0,283.3154385881196,102.57785018298127,-1900.7397467844885,332.49330034084227,4631.372116418215,0.0,0.0,0.0,0.0,0.0,0.0,-6.3,21.483088732544708,0.0,21.629871530476777,0.0,-6.3,21.34,21.11,22.15,21.41,21.91,-7.63,-6.3,1289.68,-1341.11,-1045.87,0.0,320.0,0.0,42.0,0.0,0.0,0.0,0.0,0.0,0.0,0.0,0.0,0.0,0.0,0.0,0.0,0.0,0.0
485.0,1287.0,42434.31478658595,40935.14321265302,-0.0,0.0,0.0,0.0,60545.42191901387,0.0,-19641.413408479046,0.0,80186.83532749291,0.0,0.3820302807151904,0.9217687074829932,0.0,0.0,0.0,"[0.6608420139962234, 0.5181539553806864, 1.2335893364000832, 0.6758297085945877, 1.0077011328995802, 0.45986973796881614, 1.107133714559712, 0.880324044356005, 1.15231144445875]",22.66,0.0,0.0,0.0,276.86678803496324,114.31640120638842,-1991.6317112201493,-1983.5585169701735,2920.9971903540136,0.0,0.0,0.0,0.0,0.0,0.0,-6.3,21.916162110431184,0.0,21.708298443967422,0.0,-6.3,22.66,21.14,22.28,22.3,22.74,-7.63,-6.3,1404.89,-1405.24,-1095.88,0.0,320.0,21.0,35.0,0.0,0.0,0.0,0.0,0.0,0.0,0.0,0.0,0.0,0.0,0.0,0.0,0.0,0.0
486.0,653.0,28971.79957926211,18923.264581365802,-0.0,0.0,0.0,0.0,246.01027729224106,46253.38,0.0,0.0,37248.71427729224,0.5807407407407407,0.3820302807151904,0.9217687074829932,37002.704,9250.676,46253.38,"[0.6608420139961311, 0.5181539553806864, 0.9804963445157142, 0.6758297085945877, 1.0077011328995802, 0.45986973796881614, 1.107133714559712, 0.7556061508449332, 1.15231144445875]",22.4,0.0,0.0,0.0,416.61117145061405,192.40465976641235,-1967.0378322015981,-1399.7015684225523,0.0,0.0,0.0,0.0,0.0,0.0,0.0,-6.2,21.88252388031649,0.0,21.771011570513977,0.0,-6.2,22.4,21.17,22.37,22.07,22.56,-7.51,-6.2,1316.85,-1387.89,-1082.35,0.0,528.0,43.0,27.0,0.0,0.0,0.0,0.0,0.0,0.0,0.0,0.0,0.0,0.0,0.0,0.0,0.0,0.0
487.0,901.0,0.0,0.0,-0.0,0.0,901.0,0.0,16534.58919442915,0.0,16534.58919442915,0.0,0.0,0.5466893424036281,0.31954128149210215,0.9217687074829932,0.0,0.0,0.0,"[0.6608420139961311, 0.5181539553806864, 0.9804963445157142, 0.6758297085945877, 1.0077011328995802, 0.45986973796881614, 1.107133714559712, 0.7556061508449332, 1.15231144445875]",21.34,0.0,0.0,0.0,242.0015564728435,113.43047282726333,-1893.8627654099287,474.2721244573694,4513.927565796139,0.0,0.0,0.0,0.0,0.0,0.0,-6.2,21.537465362572362,0.0,21.713018767296976,0.0,-6.2,21.34,21.15,22.28,21.39,21.92,-7.51,-6.2,1458.33,-1336.26,-1042.08,0.0,282.0,41.0,27.0,0.0,0.0,0.0,0.0,0.0,0.0,0.0,0.0,0.0,0.0,0.0,0.0,0.0,0.0
488.0,1018.0,0.0,0.0,-0.0,0.0,1018.0,0.0,5635.190430711984,0.0,5635.190430711985,0.0,0.0,0.5082161753590325,0.2982442655030168,0.9217687074829937,0.0,0.0,0.0,"[0.6608420139961311, 0.5181539553806864, 0.9804963445157142, 0.6758297085945877, 1.0077011328995802, 0.45986973796881614, 1.107133714559712, 0.7556061508449332, 1.15231144445875]",22.66,0.0,0.0,7.58097695076661,263.8986226368578,59.99000738646899,-1936.615860223611,-1857.4693227358782,1478.3568118874603,0.0,0.0,0.0,0.0,0.0,0.0,-5.5,21.96408781224955,0.0,21.78087172638343,0.0,-5.5,22.66,21.18,22.38,22.32,22.8,-6.75,-5.5,1341.39,-1366.43,-1065.61,11.98,170.0,5.0,106.0,0.0,0.0,0.0,0.0,0.0,0.0,0.0,0.0,0.0,0.0,0.0,0.0,0.0,0.0
489.0,1960.0,0.0,4734.575316531651,-0.0,72.42341298101147,6622.151903550639,0.0,11350.705330182986,0.0,0.0,0.0,11350.705330182986,0.2579458842195526,0.2982442655030168,0.9217687074829937,0.0,0.0,0.0,"[0.6608420139961311, 0.5181539553806864, 0.9804963445157142, 0.6758297085945877, 1.0077011328995802, 0.45986973796881614, 1.107133714559712, 0.7556061508449332, 1.15231144445875]",21.9,0.0,0.0,59.77025123938049,474.71989072081374,74.06994055470669,-1622.791154605634,-436.9752752932274,0.0,0.0,0.0,0.0,0.0,0.0,0.0,-1.7,21.743454846210433,0.0,21.780291680691338,0.0,-1.7,21.9,21.19,22.37,21.74,22.26,-2.72,-1.7,628.9,-1145.0,-892.93,94.45,208.0,1.0,243.0,0.0,0.0,0.0,0.0,0.0,0.0,0.0,0.0,0.0,0.0,0.0,0.0,0.0,0.0
490.0,2517.0,6055.118014887304,6253.628832172591,-3592.2532278217395,6338.039635181463,0.0,0.0,17257.970274027008,0.0,0.0,0.0,17257.970274027008,0.2579458842195526,0.2982442655030168,1.0,0.0,0.0,0.0,"[0.6608420139961311, 0.5181539553806864, 0.9804963445157142, 0.6758297085945877, 1.0077011328995802, 0.45986973796881614, 1.107133714559712, 0.7556061508449332, 1.15231144445875]",21.34,0.0,0.0,90.03811003256004,1947.0672813024448,146.93754973774367,-1323.0733113209087,484.61536663638134,0.0,0.0,0.0,0.0,0.0,0.0,0.0,2.1,21.536725136461225,0.0,21.708625867480425,0.0,2.1,21.34,21.16,22.25,21.37,21.89,0.89,2.1,414.19,-933.53,-728.01,142.28,330.0,4.0,1272.0,0.0,0.0,0.0,0.0,0.0,0.0,0.0,0.0,0.0,0.0,0.0,0.0,0.0,0.0
491.0,4071.0,0.0,0.0,-0.0,13335.169310939076,-3600.414180448072,0.0,5097.379617441901,0.0,0.0,0.0,0.0,0.3886275841024826,0.2982442655030168,1.0,22655.02052196402,5663.755130491005,28318.775652455024,"[0.6608420139961311, 0.5181539553806864, 0.9804963445157142, 0.6758297085945877, 1.0077011328995802, 0.45986973796881614, 1.107133714559712, 0.7556061508449332, 1.15231144445875]",21.85,0.0,0.0,898.5711887342046,511.28586528596367,162.15653367914217,-1145.2458884420464,-530.9145327066609,943.8174436246688,0.0,0.0,0.0,0.0,0.0,0.0,5.2,21.658736600677585,0.0,21.66454762574888,0.0,5.2,21.85,21.16,22.17,21.61,22.04,5.31,5.2,0.0,-808.06,-630.16,1419.98,465.0,19.0,133.0,0.0,0.0,0.0,0.0,0.0,0.0,0.0,0.0,0.0,0.0,0.0,0.0,0.0,0.0
492.0,4211.0,6420.932050343327,1401.5924948226864,-0.0,15223.765104731076,-16000.0,0.0,4562.751074923767,0.0,0.0,0.0,4562.751074923768,0.9693683248432232,0.2982442655030168,1.0,0.0,0.0,0.0,"[0.6608420139961311, 0.5181539553806864, 0.9804963445157142, 0.6758297085945877, 1.0077011328995802, 0.45986973796881614, 1.107133714559712, 0.7556061508449332, 1.15231144445875]",22.18,0.0,0.0,988.7836663381526,467.2082757907636,130.57951502318434,-1023.4564353793724,-1015.9265068569573,0.0,0.0,0.0,0.0,0.0,0.0,0.0,7.3,21.800438042997975,0.0,21.734577748316653,0.0,7.3,22.18,21.2,22.27,22.01,22.55,7.57,7.3,0.0,-722.12,-563.15,1562.54,399.0,0.0,137.0,0.0,0.0,0.0,0.0,0.0,0.0,0.0,0.0,0.0,0.0,0.0,0.0,0.0,0.0
493.0,1338.0,0.0,2322.1671775824425,-0.0,4504.101084963027,-843.9339073805841,0.0,7758.835798792281,0.0,0.0,0.0,7758.835798792281,1.0,0.2982442655030168,1.0,0.0,0.0,0.0,"[0.6608420139961311, 0.5181539553806864, 0.9804963445157142, 0.6758297085945877, 1.0077011328995802, 0.45986973796881614, 1.107133714559712, 0.7556061508449332, 1.15231144445875]",22.02,0.0,0.0,836.3540422279829,472.45223338344005,101.0274755195124,-950.1903481459432,-616.5999949977108,1814.2014698138867,0.0,0.0,0.0,0.0,0.0,0.0,8.2,21.787947699943537,0.0,21.786521809417636,0.0,8.2,22.02,21.24,22.33,21.89,22.47,8.21,8.2,0.0,-670.43,-522.83,1321.66,300.0,0.0,193.0,0.0,0.0,0.0,0.0,0.0,0.0,0.0,0.0,0.0,0.0,0.0,0.0,0.0,0.0
494.0,2356.0,4484.025260039891,3599.2675413550674,-0.0,85.76464154940552,1407.8977660659716,0.0,12025.889487582052,0.0,0.0,0.0,12025.88948758205,0.9467914676467887,0.2982442655030168,1.0,0.0,0.0,0.0,"[0.6608420139961311, 0.5181539553806864, 0.9804963445157142, 0.6758297085945877, 1.0077011328995802, 0.45986973796881614, 1.107133714559712, 0.7556061508449332, 1.15231144445875]",22.66,0.0,0.0,69.400458079278,209.33311795630445,33.09575302017223,-994.4694119080008,-1638.0416541877842,0.0,0.0,0.0,0.0,0.0,0.0,0.0,8.2,22.040819222926636,0.0,21.88576158217254,0.0,8.2,22.66,21.3,22.47,22.32,22.87,6.66,8.2,0.0,-701.67,-547.2,109.67,94.0,0.0,106.0,0.0,0.0,0.0,0.0,0.0,0.0,0.0,0.0,0.0,0.0,0.0,0.0,0.0,0.0
495.0,1296.0,0.0,2792.596751000871,-0.0,11.807787509878153,4076.7889634909925,0.0,8931.297054836159,0.0,0.0,0.0,8931.297054836159,0.79271781067434,0.2982442655030168,1.0,0.0,0.0,0.0,"[0.6608420139961311, 0.5181539553806864, 0.9804963445157142, 0.6758297085945877, 1.0077011328995802, 0.45986973796881614, 1.107133714559712, 0.7556061508449332, 1.15231144445875]",21.77,0.0,0.0,39.36063773457532,133.4374614460803,44.20149805849007,-1036.356817048083,-27.81665787465448,0.0,0.0,0.0,0.0,0.0,0.0,0.0,6.7,21.768555221202714,0.0,21.858678093396463,0.0,6.7,21.77,21.32,22.4,21.63,22.12,5.2,6.7,75.92,-731.23,-570.25,62.2,137.0,0.0,27.0,0.0,0.0,0.0,0.0,0.0,0.0,0.0,0.0,0.0,0.0,0.0,0.0,0.0,0.0
496.0,5404.0,8023.374231274069,2579.257360117698,-0.0,0.0,0.0,0.0,7683.450340767851,0.0,0.0,0.0,7683.450340767851,0.79271781067434,0.2982442655030168,1.0,0.0,0.0,0.0,"[0.6608420139961311, 0.5181539553806864, 0.9804963445157142, 0.6758297085945877, 1.0077011328995802, 0.45986973796881614, 1.107133714559712, 0.7556061508449332, 1.15231144445875]",21.44,0.0,0.0,1.887289008368153,2218.6192474529385,85.80849157811384,-1172.1200123567833,463.4399288991953,1576.834450369691,0.0,0.0,0.0,0.0,0.0,0.0,4.4,21.6325072216386,0.0,21.790734643594604,0.0,4.4,21.44,21.31,22.28,21.47,21.94,2.84,4.4,902.4,-827.02,-644.95,2.98,101.0,6.0,1594.0,0.0,0.0,0.0,0.0,0.0,0.0,0.0,0.0,0.0,0.0,0.0,0.0,0.0,0.0
497.0,4660.0,0.0,1024.4901768402437,-0.0,0.0,5684.490176840243,0.0,3032.360184258704,0.0,0.0,0.0,3032.3601842587045,0.5778844706577019,0.2982442655030168,1.0,0.0,0.0,0.0,"[0.6608420139961311, 0.5181539553806864, 0.9804963445157142, 0.6758297085945877, 1.0077011328995802, 0.45986973796881614, 1.107133714559712, 0.7556061508449332, 1.15231144445875]",22.66,0.0,0.0,0.0,1659.4999852067492,103.2106561680706,-1269.5486668906606,-1751.1584124893855,0.0,0.0,0.0,0.0,0.0,0.0,0.0,4.2,21.999624948595542,0.0,21.811165211053968,0.0,4.2,22.66,21.33,22.29,22.14,22.49,2.67,4.2,1014.39,-895.76,-698.56,0.0,167.0,25.0,1142.0,0.0,0.0,0.0,0.0,0.0,0.0,0.0,0.0,0.0,0.0,0.0,0.0,0.0,0.0
498.0,3925.0,28971.79957926211,18923.264581365802,-0.0,0.0,0.0,0.0,5093.719043231916,0.0,0.0,0.0,37248.71427729224,0.5807407407407407,0.3820302807151904,0.9217687074829932,37002.704,9250.676,46253.38,"[0.6608420139961311, 0.5181539553806864, 0.9804963445157142, 0.6758297085945877, 1.0077011328995802, 0.45986973796881614, 1.107133714559712, 0.7556061508449332, 1.15231144445875]",22.18,0.0,0.0,0.0,232.29314849721263,41.82847561440506,-1256.7710112841019,-846.7422507803666,3097.4113380767612,0.0,0.0,0.0,0.0,0.0,0.0,3.9,21.86095026368873,0.0,21.81160334078044,0.0,3.9,22.18,21.34,22.28,21.81,22.19,2.47,3.9,137.88,-886.74,-691.53,0.0,110.0,6.0,114.0,0.0,0.0,0.0,0.0,0.0,0.0,0.0,0.0,0.0,0.0,0.0,0.0,0.0,0.0
499.0,6878.0,0.0,0.0,-0.0,0.0,901.0,0.0,16534.58919442915,0.0,16534.58919442915,0.0,0.0,0.5466893424036281,0.31954128149210215,0.9217687074829932,0.0,0.0,0.0,"[0.6608420139961311, 0.5181539553806864, 0.9804963445157142, 0.6758297085945877, 1.0077011328995802, 0.45986973796881614, 1.107133714559712, 0.7556061508449332, 1.15231144445875]",21.34,0.0,0.0,0.0,191.19185925731531,4.492922494134279,-1213.0416093278452,488.63391068947635,4513.927565796139,0.0,0.0,0.0,0.0,0.0,0.0,3.7,21.537465362572362,0.0,21.713018767296976,0.0,3.7,21.34,21.15,22.28,21.39,21.92,2.32,3.7,1458.33,-855.89,-667.47,0.0,0.0,0.0,142.0,0.0,0.0,0.0,0.0,0.0,0.0,0.0,0.0,0.0,0.0,0.0,0.0,0.0,0.0
500.0,3799.0,0.0,0.0,-0.0,0.0,1018.0,0.0,5635.190430711984,0.0,5635.190430711985,0.0,0.0,0.5082161753590325,0.2982442655030168,0.9217687074829937,0.0,0.0,0.0,"[0.6608420139961311, 0.5181539553806864, 0.9804963445157142, 0.6758297085945877, 1.0077011328995802, 0.45986973796881614, 1.107133714559712, 0.7556061508449332, 1.15231144445875]",22.66,0.0,0.0,0.0,226.9074623209502,63.2173179104246,-1317.6875365126261,-1844.5159475939333,1478.3568118874603,0.0,0.0,0.0,0.0,0.0,0.0,3.5,21.96408781224955,0.0,21.78087172638343,0.0,3.5,22.66,21.18,22.38,22.32,22.8,2.11,3.5,1341.39,-929.73,-725.05,0.0,93.0,53.0,114.0,0.0,0.0,0.0,0.0,0.0,0.0,0.0,0.0,0.0,0.0,0.0,0.0,0.0,0.0
501.0,3599.0,0.0,4734.575316531651,-0.0,0.0,6622.151903550639,0.0,11350.705330182986,0.0,0.0,0.0,11350.705330182986,0.2579458842195526,0.2982442655030168,0.9217687074829937,0.0,0.0,0.0,"[0.6608420139961311, 0.5181539553806864, 0.9804963445157142, 0.6758297085945877, 1.0077011328995802, 0.45986973796881614, 1.107133714559712, 0.7556061508449332, 1.15231144445875]",21.9,0.0,0.0,0.0,428.162051012861,122.70108050882212,-1285.8190672518756,-430.1928574957357,0.0,0.0,0.0,0.0,0.0,0.0,0.0,3.2,21.743454846210433,0.0,21.780291680691338,0.0,3.2,21.9,21.19,22.37,21.74,22.26,1.92,3.2,628.9,-907.24,-707.51,0.0,270.0,56.0,170.0,0.0,0.0,0.0,0.0,0.0,0.0,0.0,0.0,0.0,0.0,0.0,0.0,0.0,0.0
502.0,2459.0,6055.118014887304,6253.628832172591,-3592.2532278217395,0.0,0.0,0.0,17257.970274027008,0.0,0.0,0.0,17257.970274027008,0.2579458842195526,0.2982442655030168,1.0,0.0,0.0,0.0,"[0.6608420139961311, 0.5181539553806864, 0.9804963445157142, 0.6758297085945877, 1.0077011328995802, 0.45986973796881614, 1.107133714559712, 0.7556061508449332, 1.15231144445875]",21.34,0.0,0.0,0.0,386.06866168786274,149.0890900870474,-1261.1804789498105,485.928704054855,0.0,0.0,0.0,0.0,0.0,0.0,0.0,3.0,21.536725136461225,0.0,21.708625867480425,0.0,3.0,21.34,21.16,22.25,21.37,21.89,1.79,3.0,414.19,-889.86,-693.95,0.0,384.0,44.0,80.0,0.0,0.0,0.0,0.0,0.0,0.0,0.0,0.0,0.0,0.0,0.0,0.0,0.0,0.0
503.0,1166.0,0.0,0.0,-0.0,0.0,-3600.414180448072,0.0,5097.379617441901,0.0,0.0,0.0,0.0,0.3886275841024826,0.2982442655030168,1.0,22655.02052196402,5663.755130491005,28318.775652455024,"[0.6608420139961311, 0.5181539553806864, 0.9804963445157142, 0.6758297085945877, 1.0077011328995802, 0.45986973796881614, 1.107133714559712, 0.7556061508449332, 1.15231144445875]",21.85,0.0,0.0,0.0,362.6834453961971,164.5928367217361,-1310.2934414316423,-536.2602021096761,943.8174436246688,0.0,0.0,0.0,0.0,0.0,0.0,2.8,21.658736600677585,0.0,21.66454762574888,0.0,2.8,21.85,21.16,22.17,21.61,22.04,1.65,2.8,0.0,-924.51,-720.98,0.0,447.0,39.0,30.0,0.0,0.0,0.0,0.0,0.0,0.0,0.0,0.0,0.0,0.0,0.0,0.0,0.0,0.0
504.0,1227.0,6420.932050343327,1401.5924948226864,-0.0,0.0,-16000.0,0.0,4562.751074923767,0.0,0.0,0.0,4562.751074923768,0.9693683248432232,0.2982442655030168,1.0,0.0,0.0,0.0,"[0.6608420139961311, 0.5181539553806864, 0.9804963445157142, 0.6758297085945877, 1.0077011328995802, 0.45986973796881614, 1.107133714559712, 0.7556061508449332, 1.15231144445875]",22.18,0.0,0.0,0.0,288.701124764382,113.4621131265178,-1367.3055041076973,-1025.2675868759509,0.0,0.0,0.0,0.0,0.0,0.0,0.0,2.3,21.800438042997975,0.0,21.734577748316653,0.0,2.3,22.18,21.2,22.27,22.01,22.55,1.18,2.3,0.0,-964.74,-752.35,0.0,320.0,19.0,44.0,0.0,0.0,0.0,0.0,0.0,0.0,0.0,0.0,0.0,0.0,0.0,0.0,0.0,0.0
505.0,1739.0,0.0,2322.1671775824425,-0.0,0.0,-843.9339073805841,0.0,7758.835798792281,0.0,0.0,0.0,7758.835798792281,1.0,0.2982442655030168,1.0,0.0,0.0,0.0,"[0.6608420139961311, 0.5181539553806864, 0.9804963445157142, 0.6758297085945877, 1.0077011328995802, 0.45986973796881614, 1.107133714559712, 0.7556061508449332, 1.15231144445875]",22.02,0.0,0.0,0.0,290.04754630844764,102.73605167925359,-1383.4401747436325,-627.3921852521089,1814.2014698138867,0.0,0.0,0.0,0.0,0.0,0.0,1.9,21.787947699943537,0.0,21.786521809417636,0.0,1.9,22.02,21.24,22.33,21.89,22.47,0.82,1.9,0.0,-976.12,-761.23,0.0,320.0,0.0,47.0,0.0,0.0,0.0,0.0,0.0,0.0,0.0,0.0,0.0,0.0,0.0,0.0,0.0,0.0
506.0,787.0,4484.025260039891,3599.2675413550674,-0.0,0.0,1407.8977660659716,0.0,12025.889487582052,0.0,0.0,0.0,12025.88948758205,0.9467914676467887,0.2982442655030168,1.0,0.0,0.0,0.0,"[0.6608420139961311, 0.5181539553806864, 0.9804963445157142, 0.6758297085945877, 1.0077011328995802, 0.45986973796881614, 1.107133714559712, 0.7556061508449332, 1.15231144445875]",22.66,0.0,0.0,0.0,334.47945726261236,103.78018155465098,-1462.1041453785228,-1647.2729873155438,0.0,0.0,0.0,0.0,0.0,0.0,0.0,1.4,22.040819222926636,0.0,21.88576158217254,0.0,1.4,22.66,21.3,22.47,22.32,22.87,0.35,1.4,0.0,-1031.62,-804.51,0.0,320.0,0.0,80.0,0.0,0.0,0.0,0.0,0.0,0.0,0.0,0.0,0.0,0.0,0.0,0.0,0.0,0.0
507.0,1185.0,0.0,2792.596751000871,-0.0,0.0,4076.7889634909925,0.0,8931.297054836159,0.0,0.0,0.0,8931.297054836159,0.79271781067434,0.2982442655030168,1.0,0.0,0.0,0.0,"[0.6608420139961311, 0.5181539553806864, 0.9804963445157142, 0.6758297085945877, 1.0077011328995802, 0.45986973796881614, 1.107133714559712, 0.7556061508449332, 1.15231144445875]",21.77,0.0,0.0,0.0,331.78661417448126,103.71690095614206,-1414.5907926492403,-35.065085375451375,0.0,0.0,0.0,0.0,0.0,0.0,0.0,1.2,21.768555221202714,0.0,21.858678093396463,0.0,1.2,21.77,21.32,22.4,21.63,22.12,0.24,1.2,75.92,-998.1,-778.37,0.0,320.0,0.0,78.0,0.0,0.0,0.0,0.0,0.0,0.0,0.0,0.0,0.0,0.0,0.0,0.0,0.0,0.0
508.0,932.0,8023.374231274069,2579.257360117698,-0.0,0.0,0.0,0.0,7683.450340767851,0.0,0.0,0.0,7683.450340767851,0.79271781067434,0.2982442655030168,1.0,0.0,0.0,0.0,"[0.6608420139961311, 0.5181539553806864, 0.9804963445157142, 0.6758297085945877, 1.0077011328995802, 0.45986973796881614, 1.107133714559712, 0.7556061508449332, 1.15231144445875]",21.44,0.0,0.0,0.0,271.48110185870087,103.43213826285184,-1405.9373790920445,459.38280203780596,1576.834450369691,0.0,0.0,0.0,0.0,0.0,0.0,1.0,21.6325072216386,0.0,21.790734643594604,0.0,1.0,21.44,21.31,22.28,21.47,21.94,0.06,1.0,902.4,-991.99,-773.6,0.0,320.0,2.0,33.0,0.0,0.0,0.0,0.0,0.0,0.0,0.0,0.0,0.0,0.0,0.0,0.0,0.0,0.0
509.0,775.0,0.0,1024.4901768402437,-0.0,0.0,5684.490176840243,0.0,3032.360184258704,0.0,0.0,0.0,3032.3601842587045,0.5778844706577019,0.2982442655030168,1.0,0.0,0.0,0.0,"[0.6608420139961311, 0.5181539553806864, 0.9804963445157142, 0.6758297085945877, 1.0077011328995802, 0.45986973796881614, 1.107133714559712, 0.7556061508449332, 1.15231144445875]",22.66,0.0,0.0,0.0,275.44950219910476,119.37884908710309,-1510.243015000488,-1755.1910847289496,0.0,0.0,0.0,0.0,0.0,0.0,0.0,0.7,21.999624948595542,0.0,21.811165211053968,0.0,0.7,22.66,21.33,22.29,22.14,22.49,-0.09,0.7,1014.39,-1065.59,-831.0,0.0,320.0,30.0,33.0,0.0,0.0,0.0,0.0,0.0,0.0,0.0,0.0,0.0,0.0,0.0,0.0,0.0,0.0
510.0,701.0,28971.79957926211,18923.264581365802,-0.0,0.0,0.0,0.0,5093.719043231916,0.0,0.0,0.0,37248.71427729224,0.5807407407407407,0.3820302807151904,0.9217687074829932,37002.704,9250.676,46253.38,"[0.6608420139961311, 0.5181539553806864, 0.9804963445157142, 0.6758297085945877, 1.0077011328995802, 0.45986973796881614, 1.107133714559712, 0.7556061508449332, 1.15231144445875]",22.18,0.0,0.0,0.0,475.28680505515706,171.26893986442857,-1483.7113966447962,-850.6547330153558,3097.4113380767612,0.0,0.0,0.0,0.0,0.0,0.0,0.6,21.86095026368873,0.0,21.81160334078044,0.0,0.6,22.18,21.34,22.28,21.81,22.19,-0.2,0.6,137.88,-1046.87,-816.4,0.0,468.0,35.0,103.0,0.0,0.0,0.0,0.0,0.0,0.0,0.0,0.0,0.0,0.0,0.0,0.0,0.0,0.0
511.0,1326.0,0.0,0.0,-0.0,0.0,901.0,0.0,16534.58919442915,0.0,16534.58919442915,0.0,0.0,0.5466893424036281,0.31954128149210215,0.9217687074829932,0.0,0.0,0.0,"[0.6608420139961311, 0.5181539553806864, 0.9804963445157142, 0.6758297085945877, 1.0077011328995802, 0.45986973796881614, 1.107133714559712, 0.7556061508449332, 1.15231144445875]",21.34,0.0,0.0,0.0,423.2724148791491,190.6960836066712,-1439.9819946885395,484.720286553247,4513.927565796139,0.0,0.0,0.0,0.0,0.0,0.0,0.4,21.537465362572362,0.0,21.713018767296976,0.0,0.4,21.34,21.15,22.28,21.39,21.92,-0.36,0.4,1458.33,-1016.01,-792.34,0.0,450.0,81.0,69.0,0.0,0.0,0.0,0.0,0.0,0.0,0.0,0.0,0.0,0.0,0.0,0.0,0.0,0.0
512.0,990.0,0.0,0.0,-0.0,0.0,1018.0,0.0,5635.190430711984,0.0,5635.190430711985,0.0,0.0,0.5082161753590325,0.2982442655030168,0.9217687074829937,0.0,0.0,0.0,"[0.6608420139961311, 0.5181539553806864, 0.9804963445157142, 0.6758297085945877, 1.0077011328995802, 0.45986973796881614, 1.107133714559712, 0.7556061508449332, 1.15231144445875]",22.66,0.0,0.0,1.872417104049928,365.73060994329296,172.72439363013405,-1517.1199963750546,-1847.850398383479,1478.3568118874603,0.0,0.0,0.0,0.0,0.0,0.0,0.6,21.96408781224955,0.0,21.78087172638343,0.0,0.6,22.66,21.18,22.38,22.32,22.8,-0.17,0.6,1341.39,-1070.44,-834.78,2.96,336.0,112.0,83.0,0.0,0.0,0.0,0.0,0.0,0.0,0.0,0.0,0.0,0.0,0.0,0.0,0.0,0.0
513.0,2518.0,0.0,4734.575316531651,-0.0,20.277030288583163,6622.151903550639,0.0,11350.705330182986,0.0,0.0,0.0,11350.705330182986,0.2579458842195526,0.2982442655030168,0.9217687074829937,0.0,0.0,0.0,"[0.6608420139961311, 0.5181539553806864, 0.9804963445157142, 0.6758297085945877, 1.0077011328995802, 0.45986973796881614, 1.107133714559712, 0.7556061508449332, 1.15231144445875]",21.9,0.0,0.0,29.325960222286625,972.1163548153637,200.02997188673888,-1402.727750619506,-431.6269013692335,0.0,0.0,0.0,0.0,0.0,0.0,0.0,1.5,21.743454846210433,0.0,21.780291680691338,0.0,1.5,21.9,21.19,22.37,21.74,22.26,0.94,1.5,628.9,-989.73,-771.84,46.34,423.0,89.0,490.0,0.0,0.0,0.0,0.0,0.0,0.0,0.0,0.0,0.0,0.0,0.0,0.0,0.0,0.0
514.0,3365.0,6055.118014887304,6253.628832172591,-3592.2532278217395,958.2844176708923,0.0,0.0,17257.970274027008,0.0,0.0,0.0,17257.970274027008,0.2579458842195526,0.2982442655030168,1.0,0.0,0.0,0.0,"[0.6608420139961311, 0.5181539553806864, 0.9804963445157142, 0.6758297085945877, 1.0077011328995802, 0.45986973796881614, 1.107133714559712, 0.7556061508449332, 1.15231144445875]",21.34,0.0,0.0,73.93726137880789,2814.5879414314486,200.66277787182824,-1274.9344416989434,486.77091384332414,0.0,0.0,0.0,0.0,0.0,0.0,0.0,2.8,21.536725136461225,0.0,21.708625867480425,0.0,2.8,21.34,21.16,22.25,21.37,21.89,2.36,2.8,414.19,-899.56,-701.52,116.84,360.0,47.0,1896.0,0.0,0.0,0.0,0.0,0.0,0.0,0.0,0.0,0.0,0.0,0.0,0.0,0.0,0.0
515.0,3972.0,0.0,0.0,-0.0,2113.3379203332915,-3600.414180448072,0.0,5097.379617441901,0.0,0.0,0.0,0.0,0.3886275841024826,0.2982442655030168,1.0,22655.02052196402,5663.755130491005,28318.775652455024,"[0.6608420139961311, 0.5181539553806864, 0.9804963445157142, 0.6758297085945877, 1.0077011328995802, 0.45986973796881614, 1.107133714559712, 0.7556061508449332, 1.15231144445875]",21.85,0.0,0.0,90.26239612856695,1876.0612609259326,138.14154654500192,-1241.5236276859773,-533.794256707887,943.8174436246688,0.0,0.0,0.0,0.0,0.0,0.0,3.8,21.658736600677585,0.0,21.66454762574888,0.0,3.8,21.85,21.16,22.17,21.61,22.04,3.34,3.8,0.0,-875.99,-683.14,142.64,276.0,20.0,1246.0,0.0,0.0,0.0,0.0,0.0,0.0,0.0,0.0,0.0,0.0,0.0,0.0,0.0,0.0
516.0,2229.0,6420.932050343327,1401.5924948226864,-0.0,4976.181809262276,-16000.0,0.0,4562.751074923767,0.0,0.0,0.0,4562.751074923768,0.9693683248432232,0.2982442655030168,1.0,0.0,0.0,0.0,"[0.6608420139961311, 0.5181539553806864, 0.9804963445157142, 0.6758297085945877, 1.0077011328995802, 0.45986973796881614, 1.107133714559712, 0.7556061508449332, 1.15231144445875]",22.18,0.0,0.0,120.12214145170192,1550.7232973046077,139.12239582189036,-1209.1349324926678,-1020.9148926339543,0.0,0.0,0.0,0.0,0.0,0.0,0.0,4.6,21.800438042997975,0.0,21.734577748316653,0.0,4.6,22.18,21.2,22.27,22.01,22.55,4.16,4.6,0.0,-853.13,-665.32,189.82,318.0,13.0,983.0,0.0,0.0,0.0,0.0,0.0,0.0,0.0,0.0,0.0,0.0,0.0,0.0,0.0,0.0
517.0,3652.0,0.0,2322.1671775824425,-0.0,3659.2309757087987,-843.9339073805841,0.0,7758.835798792281,0.0,0.0,0.0,7758.835798792281,1.0,0.2982442655030168,1.0,0.0,0.0,0.0,"[0.6608420139961311, 0.5181539553806864, 0.9804963445157142, 0.6758297085945877, 1.0077011328995802, 0.45986973796881614, 1.107133714559712, 0.7556061508449332, 1.15231144445875]",22.02,0.0,0.0,117.55520328219812,1008.9657865476854,170.2880905875401,-1163.3767707575048,-621.9085858701751,1814.2014698138867,0.0,0.0,0.0,0.0,0.0,0.0,5.1,21.787947699943537,0.0,21.786521809417636,0.0,5.1,22.02,21.24,22.33,21.89,22.47,4.57,5.1,0.0,-820.85,-640.14,185.77,489.0,0.0,492.0,0.0,0.0,0.0,0.0,0.0,0.0,0.0,0.0,0.0,0.0,0.0,0.0,0.0,0.0
518.0,2968.0,4484.025260039891,3599.2675413550674,-0.0,1255.4825927571687,1407.8977660659716,0.0,12025.889487582052,0.0,0.0,0.0,12025.88948758205,0.9467914676467887,0.2982442655030168,1.0,0.0,0.0,0.0,"[0.6608420139961311, 0.5181539553806864, 0.9804963445157142, 0.6758297085945877, 1.0077011328995802, 0.45986973796881614, 1.107133714559712, 0.7556061508449332, 1.15231144445875]",22.66,0.0,0.0,80.49355269553025,1829.3616926343939,152.0316379177128,-1193.9018717704291,-1640.9874199313444,0.0,0.0,0.0,0.0,0.0,0.0,0.0,5.3,22.040819222926636,0.0,21.88576158217254,0.0,5.3,22.66,21.3,22.47,22.32,22.87,4.65,5.3,0.0,-842.39,-656.93,127.2,360.0,2.0,1169.0,0.0,0.0,0.0,0.0,0.0,0.0,0.0,0.0,0.0,0.0,0.0,0.0,0.0,0.0
519.0,1846.0,0.0,2792.596751000871,-0.0,47.22279846542031,4076.7889634909925,0.0,8931.297054836159,0.0,0.0,0.0,8931.297054836159,0.79271781067434,0.2982442655030168,1.0,0.0,0.0,0.0,"[0.6608420139961311, 0.5181539553806864, 0.9804963445157142, 0.6758297085945877, 1.0077011328995802, 0.45986973796881614, 1.107133714559712, 0.7556061508449332, 1.15231144445875]",21.77,0.0,0.0,36.07255729939731,618.8578602276258,104.00166364943225,-1167.0194631648462,-29.651984006529347,0.0,0.0,0.0,0.0,0.0,0.0,0.0,4.8,21.768555221202714,0.0,21.858678093396463,0.0,4.8,21.77,21.32,22.4,21.63,22.12,3.94,4.8,75.92,-823.42,-642.14,57.0,255.0,23.0,323.0,0.0,0.0,0.0,0.0,0.0,0.0,0.0,0.0,0.0,0.0,0.0,0.0,0.0,0.0
520.0,1071.0,8023.374231274069,2579.257360117698,-0.0,0.0,0.0,0.0,7683.450340767851,0.0,0.0,0.0,7683.450340767851,0.79271781067434,0.2982442655030168,1.0,0.0,0.0,0.0,"[0.6608420139961311, 0.5181539553806864, 0.9804963445157142, 0.6758297085945877, 1.0077011328995802, 0.45986973796881614, 1.107133714559712, 0.7556061508449332, 1.15231144445875]",21.44,0.0,0.0,0.941166499030389,277.4337023693067,86.85262145351128,-1199.6279378550496,463.6789877853572,1576.834450369691,0.0,0.0,0.0,0.0,0.0,0.0,4.0,21.6325072216386,0.0,21.790734643594604,0.0,4.0,21.44,21.31,22.28,21.47,21.94,3.0,4.0,902.4,-846.43,-660.08,1.49,166.0,54.0,113.0,0.0,0.0,0.0,0.0,0.0,0.0,0.0,0.0,0.0,0.0,0.0,0.0,0.0,0.0
521.0,1203.0,0.0,1024.4901768402437,-0.0,0.0,5684.490176840243,0.0,3032.360184258704,0.0,0.0,0.0,3032.3601842587045,0.5778844706577019,0.2982442655030168,1.0,0.0,0.0,0.0,"[0.6608420139961311, 0.5181539553806864, 0.9804963445157142, 0.6758297085945877, 1.0077011328995802, 0.45986973796881614, 1.107133714559712, 0.7556061508449332, 1.15231144445875]",22.66,0.0,0.0,0.0,252.56033594998954,120.10657596995583,-1331.4414992617592,-1751.7407387034434,0.0,0.0,0.0,0.0,0.0,0.0,0.0,3.3,21.999624948595542,0.0,21.811165211053968,0.0,3.3,22.66,21.33,22.29,22.14,22.49,2.27,3.3,1014.39,-939.43,-732.61,0.0,243.0,73.0,52.0,0.0,0.0,0.0,0.0,0.0,0.0,0.0,0.0,0.0,0.0,0.0,0.0,0.0,0.0
522.0,2262.0,28971.79957926211,18923.264581365802,-0.0,0.0,0.0,0.0,5093.719043231916,0.0,0.0,0.0,37248.71427729224,0.5807407407407407,0.3820302807151904,0.9217687074829932,37002.704,9250.676,46253.38,"[0.6608420139961311, 0.5181539553806864, 0.9804963445157142, 0.6758297085945877, 1.0077011328995802, 0.45986973796881614, 1.107133714559712, 0.7556061508449332, 1.15231144445875]",22.18,0.0,0.0,0.0,435.957123110083,164.14987253217353,-1346.1717691534664,-847.9580138249536,3097.4113380767612,0.0,0.0,0.0,0.0,0.0,0.0,2.6,21.86095026368873,0.0,21.81160334078044,0.0,2.6,22.18,21.34,22.28,21.81,22.19,1.64,2.6,137.88,-949.82,-740.72,0.0,351.0,86.0,130.0,0.0,0.0,0.0,0.0,0.0,0.0,0.0,0.0,0.0,0.0,0.0,0.0,0.0,0.0
523.0,2537.0,0.0,0.0,-0.0,0.0,901.0,0.0,16534.58919442915,0.0,16534.58919442915,0.0,0.0,0.5466893424036281,0.31954128149210215,0.9217687074829932,0.0,0.0,0.0,"[0.6608420139961311, 0.5181539553806864, 0.9804963445157142, 0.6758297085945877, 1.0077011328995802, 0.45986973796881614, 1.107133714559712, 0.7556061508449332, 1.15231144445875]",21.34,0.0,0.0,0.0,942.6368094295065,215.090754331865,-1336.8272740700422,486.5518470770468,4513.927565796139,0.0,0.0,0.0,0.0,0.0,0.0,1.9,21.537465362572362,0.0,21.713018767296976,0.0,1.9,21.34,21.15,22.28,21.39,21.92,0.89,1.9,1458.33,-943.23,-735.58,0.0,468.0,93.0,444.0,0.0,0.0,0.0,0.0,0.0,0.0,0.0,0.0,0.0,0.0,0.0,0.0,0.0,0.0
524.0,3497.0,0.0,0.0,-0.0,0.0,1018.0,0.0,5635.190430711984,0.0,5635.190430711985,0.0,0.0,0.5082161753590325,0.2982442655030168,0.9217687074829937,0.0,0.0,0.0,"[0.6608420139961311, 0.5181539553806864, 0.9804963445157142, 0.6758297085945877, 1.0077011328995802, 0.45986973796881614, 1.107133714559712, 0.7556061508449332, 1.15231144445875]",22.66,0.0,0.0,0.0,1147.5054770028564,187.5320536812245,-1468.981126753089,-1847.193044306274,1478.3568118874603,0.0,0.0,0.0,0.0,0.0,0.0,1.3,21.96408781224955,0.0,21.78087172638343,0.0,1.3,22.66,21.18,22.38,22.32,22.8,0.28,1.3,1341.39,-1036.47,-808.29,0.0,360.0,93.0,653.0,0.0,0.0,0.0,0.0,0.0,0.0,0.0,0.0,0.0,0.0,0.0,0.0,0.0,0.0
525.0,4037.0,0.0,4734.575316531651,-0.0,0.0,6622.151903550639,0.0,11350.705330182986,0.0,0.0,0.0,11350.705330182986,0.2579458842195526,0.2982442655030168,0.9217687074829937,0.0,0.0,0.0,"[0.6608420139961311, 0.5181539553806864, 0.9804963445157142, 0.6758297085945877, 1.0077011328995802, 0.45986973796881614, 1.107133714559712, 0.7556061508449332, 1.15231144445875]",21.9,0.0,0.0,0.0,1186.33910890538,244.23146994522892,-1464.6205829906046,-433.64424036986657,0.0,0.0,0.0,0.0,0.0,0.0,0.0,0.6,21.743454846210433,0.0,21.780291680691338,0.0,0.6,21.9,21.19,22.37,21.74,22.26,-0.44,0.6,628.9,-1033.4,-805.89,0.0,548.0,92.0,583.0,0.0,0.0,0.0,0.0,0.0,0.0,0.0,0.0,0.0,0.0,0.0,0.0,0.0,0.0
526.0,2887.0,6055.118014887304,6253.628832172591,-3592.2532278217395,0.0,0.0,0.0,17257.970274027008,46298.97,0.0,0.0,17257.970274027008,0.2579458842195526,0.2982442655030168,1.0,0.0,0.0,0.0,"[0.6608420139961311, 0.5181539553806864, 0.9804963445157142, 0.6758297085945877, 1.0077011328995802, 0.45986973796881614, 1.107133714559712, 0.7556061508449332, 1.15231144445875]",21.34,0.0,0.0,0.0,913.4407212108207,224.3297217141694,-1474.3669015613718,481.5701813963913,0.0,0.0,0.0,0.0,0.0,0.0,0.0,-0.1,21.536725136461225,0.0,21.708625867480425,0.0,-0.1,21.34,21.16,22.25,21.37,21.89,-1.2,-0.1,414.19,-1040.27,-811.26,0.0,520.0,83.0,396.0,0.0,0.0,0.0,0.0,0.0,0.0,0.0,0.0,0.0,0.0,0.0,0.0,0.0,0.0
527.0,1441.0,0.0,0.0,-0.0,0.0,-3600.414180448072,0.0,5097.379617441901,0.0,0.0,0.0,0.0,0.3886275841024826,0.2982442655030168,1.0,22655.02052196402,5663.755130491005,28318.775652455024,"[0.6608420139961311, 0.5181539553806864, 0.9804963445157142, 0.6758297085945877, 1.0077011328995802, 0.45986973796881614, 1.107133714559712, 0.7556061508449332, 1.15231144445875]",21.85,0.0,0.0,0.0,394.5015124112211,182.0266416109473,-1550.9877895414695,-541.2871758852441,943.8174436246688,0.0,0.0,0.0,0.0,0.0,0.0,-0.7,21.658736600677585,0.0,21.66454762574888,0.0,-0.7,21.85,21.16,22.17,21.61,22.04,-1.78,-0.7,0.0,-1094.34,-853.42,0.0,480.0,51.0,35.0,0.0,0.0,0.0,0.0,0.0,0.0,0.0,0.0,0.0,0.0,0.0,0.0,0.0,0.0
528.0,3292.0,6420.932050343327,1401.5924948226864,-0.0,0.0,-16000.0,0.0,4562.751074923767,0.0,0.0,0.0,4562.751074923768,0.9693683248432232,0.2982442655030168,1.0,0.0,0.0,0.0,"[0.6608420139961311, 0.5181539553806864, 0.9804963445157142, 0.6758297085945877, 1.0077011328995802, 0.45986973796881614, 1.107133714559712, 0.7556061508449332, 1.15231144445875]",22.18,0.0,0.0,0.0,2328.5297640237673,150.63946475051628,-1628.630796341224,-1030.6898781193781,0.0,0.0,0.0,0.0,0.0,0.0,0.0,-1.5,21.800438042997975,0.0,21.734577748316653,0.0,-1.5,22.18,21.2,22.27,22.01,22.55,-2.53,-1.5,0.0,-1149.12,-896.14,0.0,320.0,0.0,1561.0,0.0,0.0,0.0,0.0,0.0,0.0,0.0,0.0,0.0,0.0,0.0,0.0,0.0,0.0
529.0,1152.0,0.0,2322.1671775824425,-0.0,0.0,-843.9339073805841,0.0,7758.835798792281,0.0,0.0,0.0,7758.835798792281,1.0,0.2982442655030168,1.0,0.0,0.0,0.0,"[0.6608420139961311, 0.5181539553806864, 0.9804963445157142, 0.6758297085945877, 1.0077011328995802, 0.45986973796881614, 1.107133714559712, 0.7556061508449332, 1.15231144445875]",22.02,0.0,0.0,0.0,564.7175412978302,109.19067272716481,-1665.3964111008588,-633.2816811412761,1814.2014698138867,0.0,0.0,0.0,0.0,0.0,0.0,-2.2,21.787947699943537,0.0,21.786521809417636,0.0,-2.2,22.02,21.24,22.33,21.89,22.47,-3.21,-2.2,0.0,-1175.06,-916.37,0.0,320.0,0.0,251.0,0.0,0.0,0.0,0.0,0.0,0.0,0.0,0.0,0.0,0.0,0.0,0.0,0.0,0.0
530.0,802.0,4484.025260039891,3599.2675413550674,-0.0,0.0,1407.8977660659716,0.0,12025.889487582052,0.0,0.0,0.0,12025.88948758205,0.9467914676467887,0.2982442655030168,1.0,0.0,0.0,0.0,"[0.6608420139961311, 0.5181539553806864, 0.9804963445157142, 0.6758297085945877, 1.0077011328995802, 0.45986973796881614, 1.107133714559712, 0.7556061508449332, 1.15231144445875]",22.66,0.0,0.0,0.0,265.8119585152668,102.16652629267318,-1764.6913258594486,-1653.6687302203518,0.0,0.0,0.0,0.0,0.0,0.0,0.0,-3.0,22.040819222926636,0.0,21.88576158217254,0.0,-3.0,22.66,21.3,22.47,22.32,22.87,-4.03,-3.0,0.0,-1245.12,-971.01,0.0,320.0,0.0,29.0,0.0,0.0,0.0,0.0,0.0,0.0,0.0,0.0,0.0,0.0,0.0,0.0,0.0,0.0
531.0,1071.0,0.0,2792.596751000871,-0.0,0.0,4076.7889634909925,0.0,8931.297054836159,0.0,0.0,0.0,8931.297054836159,0.79271781067434,0.2982442655030168,1.0,0.0,0.0,0.0,"[0.6608420139961311, 0.5181539553806864, 0.9804963445157142, 0.6758297085945877, 1.0077011328995802, 0.45986973796881614, 1.107133714559712, 0.7556061508449332, 1.15231144445875]",21.77,0.0,0.0,0.0,299.4724971169068,102.95753377403486,-1737.8089172538657,-42.07222554312712,0.0,0.0,0.0,0.0,0.0,0.0,0.0,-3.5,21.768555221202714,0.0,21.858678093396463,0.0,-3.5,21.77,21.32,22.4,21.63,22.12,-4.55,-3.5,75.92,-1226.15,-956.21,0.0,320.0,0.0,54.0,0.0,0.0,0.0,0.0,0.0,0.0,0.0,0.0,0.0,0.0,0.0,0.0,0.0,0.0
532.0,1098.0,8023.374231274069,2579.257360117698,-0.0,0.0,0.0,0.0,7683.450340767851,0.0,0.0,0.0,7683.450340767851,0.79271781067434,0.2982442655030168,1.0,0.0,0.0,0.0,"[0.6608420139961311, 0.5181539553806864, 0.9804963445157142, 0.6758297085945877, 1.0077011328995802, 0.45986973796881614, 1.107133714559712, 0.7556061508449332, 1.15231144445875]",21.44,0.0,0.0,0.0,290.04754630844764,102.73605167925359,-1742.909466445803,452.0002423537614,1576.834450369691,0.0,0.0,0.0,0.0,0.0,0.0,-3.9,21.6325072216386,0.0,21.790734643594604,0.0,-3.9,21.44,21.31,22.28,21.47,21.94,-4.99,-3.9,902.4,-1229.75,-959.02,0.0,320.0,0.0,47.0,0.0,0.0,0.0,0.0,0.0,0.0,0.0,0.0,0.0,0.0,0.0,0.0,0.0,0.0
533.0,707.0,0.0,1024.4901768402437,-0.0,0.0,5684.490176840243,0.0,3032.360184258704,0.0,0.0,0.0,3032.3601842587045,0.5778844706577019,0.2982442655030168,1.0,0.0,0.0,0.0,"[0.6608420139961311, 0.5181539553806864, 0.9804963445157142, 0.6758297085945877, 1.0077011328995802, 0.45986973796881614, 1.107133714559712, 0.7556061508449332, 1.15231144445875]",22.66,0.0,0.0,0.0,238.31661329961133,110.01332050778093,-1854.0920837288131,-1762.992794261482,0.0,0.0,0.0,0.0,0.0,0.0,0.0,-4.3,21.999624948595542,0.0,21.811165211053968,0.0,-4.3,22.66,21.33,22.29,22.14,22.49,-5.43,-4.3,1014.39,-1308.2,-1020.2,0.0,320.0,15.0,7.0,0.0,0.0,0.0,0.0,0.0,0.0,0.0,0.0,0.0,0.0,0.0,0.0,0.0,0.0
