,load_elec,grid,hp_elec,ev,pv,bat_pow,cool,load_th_sh,load_th_dhw,tes_pow,dh,hp_th,bat_soc,tes_soc,ev_soc,eh_th_in,eh_elec_in,eh_th_out,temp_slack,temp_zone_1,temp_zone_2,temp_update,Qsolar_1,QconvInt_1,QradInt_1,Qvent_1,Qconduc_1,Qheating_1,Qsolar_2,QconvInt_2,QradInt_2,Qvent_2,Qconduc_2,Qheating_2,temp_amb,temp_aggregate_1,temp_aggregate_2,temp_wall_1,temp_wall_2,_Tamb,_Tz_1,_TEW_1,_TIW_1,_T1_1,_T2_1,_Taeq_1,_Tvent_1,_Qheating_1,_Qinfvent_1,_Qenvelope_1,_Qsolar_1,_Qint_people_1,_Qint_lighting_1,_Qint_appliances_1,_Tz_2,_TEW_2,_TIW_2,_T1_2,_T2_2,_Taeq_2,_Tvent_2,_Qheating_2,_Qinfvent_2,_Qenvelope_2,_Qsolar_2,_Qint_people_2,_Qint_lighting_2,_Qint_appliances_2
390.0,1067.0,20078.049107660183,30670.658862121883,-0.0,0.0,11760.0,0.0,60372.38467703244,0.0,0.0,0.0,60372.38467703243,0.0,0.5,0.8,0.0,0.0,0.0,"[2.0, 2.0, 2.0, 2.0, 2.0, 2.0, 2.0, 2.0]",20.0,0.0,0.0,0.0,244.08177001192064,121.75508002300894,-1090.130790337249,-1061.6326420689525,9739.147593442829,0.0,0.0,0.0,0.0,0.0,0.0,-6.2,19.47629477756384,0.0,19.0,0.0,-6.2,20.0,18.0,20.0,20.0,20.0,-6.61,-6.2,9656.16,-776.01,-905.47,0.0,268.0,46.0,37.0,0.0,0.0,0.0,0.0,0.0,0.0,0.0,0.0,0.0,0.0,0.0,0.0,0.0,0.0
391.0,974.0,4985.449289735643,3986.5220432869646,-0.0,0.0,0.0,0.0,7809.099016799425,0.0,0.0,0.0,7809.099016799426,0.0,0.5,0.8,0.0,0.0,0.0,"[2.0, 2.0, 2.0, 2.0, 2.0, 2.0, 2.0, 2.0]",24.0,0.0,0.0,0.0,150.94438093686833,84.1810158353723,-1260.7237766113985,-6185.169529921401,3518.222374229797,0.0,0.0,0.0,0.0,0.0,0.0,-6.3,20.896535225804143,0.0,19.26799306448234,0.0,-6.3,24.0,18.15,20.39,22.69,22.39,-6.71,-6.3,0.0,-897.45,-1047.17,0.0,107.0,74.0,49.0,0.0,0.0,0.0,0.0,0.0,0.0,0.0,0.0,0.0,0.0,0.0,0.0,0.0,0.0
392.0,2137.0,9200.520989095412,7017.518384149936,-0.0,0.0,0.0,0.0,13813.342623991372,0.0,0.0,0.0,13813.342623991372,0.0,0.5,0.8,0.0,0.0,0.0,"[2.0, 2.0, 2.0, 2.0, 2.0, 2.0, 2.0, 2.0]",22.13,0.0,0.0,1.7177757788302634,177.7758157986104,112.96261162078318,-1178.9444998677204,-3336.6547909102014,0.0,0.0,0.0,0.0,0.0,0.0,0.0,-6.2,20.465459477228347,0.0,19.443505532688995,0.0,-6.2,22.13,18.25,20.63,20.97,21.34,-6.61,-6.2,10287.47,-839.23,-979.24,2.5,114.0,116.0,61.0,0.0,0.0,0.0,0.0,0.0,0.0,0.0,0.0,0.0,0.0,0.0,0.0,0.0,0.0
393.0,2533.0,44631.402123838285,25884.57657522687,-0.0,9.331462007780306,-16000.0,0.0,52678.77905168137,0.0,0.0,0.0,52678.77905168136,0.6533333333333333,0.5,0.8,0.0,0.0,0.0,"[2.0, 2.0, 2.0, 2.0, 2.0, 2.0, 2.0, 2.0]",20.0,0.0,0.0,27.827913165678382,236.14472252664092,116.0193682137445,-1061.0051585343451,-377.6947641504505,1072.9533571523266,0.0,0.0,0.0,0.0,0.0,0.0,-5.5,19.82058929313592,0.0,19.450708438850064,0.0,-5.5,20.0,18.28,20.63,19.47,20.32,-5.88,-5.5,4116.14,-755.28,-881.28,40.51,166.0,91.0,80.0,0.0,0.0,0.0,0.0,0.0,0.0,0.0,0.0,0.0,0.0,0.0,0.0,0.0,0.0
394.0,2498.0,21043.480152708576,9996.305286881126,-0.0,45.83845330343877,-8489.795918367347,0.0,21355.891698066065,0.0,535.5055526089839,0.0,20820.38614545708,1.0,0.4977231906776829,0.8,0.0,0.0,0.0,"[2.0, 2.0, 2.0, 2.0, 2.0, 2.0, 2.0, 2.0]",20.0,0.0,0.0,39.480746005203144,261.9225670142308,64.9474912055035,-1040.2011358179855,-410.9452336681419,1093.2891645078605,0.0,0.0,0.0,0.0,0.0,0.0,-5.0,19.80361185066781,0.0,19.43352288025842,0.0,-5.0,20.0,18.29,20.58,19.64,20.4,-5.35,-5.0,0.0,-740.47,-864.0,57.48,92.0,46.0,143.0,0.0,0.0,0.0,0.0,0.0,0.0,0.0,0.0,0.0,0.0,0.0,0.0,0.0,0.0
395.0,1804.0,0.0,8656.069977688796,-0.0,366.4642815651997,10093.605696123595,0.0,18524.058946573947,0.0,0.0,0.0,18524.058946573947,0.5708500979539288,0.4977231906776829,0.8,0.0,0.0,0.0,"[2.0, 2.0, 2.0, 2.0, 2.0, 2.0, 2.0, 2.0]",20.0,0.0,0.0,69.1822269248425,1428.4578292755195,78.41095844641168,-1015.2363085583538,-442.223796034272,7790.474955162129,0.0,0.0,0.0,0.0,0.0,0.0,-4.4,19.78760941391927,0.0,19.417406967786086,0.0,-4.4,20.0,18.3,20.54,19.62,20.37,-4.77,-4.4,9255.63,-722.7,-843.26,100.71,128.0,0.0,1003.0,0.0,0.0,0.0,0.0,0.0,0.0,0.0,0.0,0.0,0.0,0.0,0.0,0.0,0.0
396.0,6692.0,0.0,0.0,-0.0,563.3704258490645,6128.629574150936,0.0,6709.376351749054,0.0,6709.376351749054,0.0,0.0,0.31027911265839586,0.46919693067874985,0.8,0.0,0.0,0.0,"[2.0, 2.0, 2.0, 2.0, 2.0, 2.0, 2.0, 2.0]",23.98,0.0,0.0,78.36149234359999,1353.1612372027773,83.63148656023321,-1164.1749442808646,-5621.537182543735,0.0,0.0,0.0,0.0,0.0,0.0,0.0,-4.0,21.15908790225512,0.0,19.63299660459566,0.0,-4.0,23.98,18.43,20.84,22.58,22.5,-4.36,-4.0,0.0,-828.72,-966.97,114.08,150.0,0.0,935.0,0.0,0.0,0.0,0.0,0.0,0.0,0.0,0.0,0.0,0.0,0.0,0.0,0.0,0.0
397.0,4296.0,20051.945018232236,0.0,-0.0,344.31470685892464,-16000.0,0.0,18215.286628970527,0.0,18215.286628970523,0.0,0.0,0.9636124459917292,0.39175098412700443,0.8,0.0,0.0,0.0,"[2.0, 2.0, 2.0, 2.0, 2.0, 2.0, 2.0, 2.0]",21.32,0.0,0.0,68.86822731371927,1338.8324081143076,80.33431090939855,-1045.1189024889272,-1821.918363862924,0.0,0.0,0.0,0.0,0.0,0.0,0.0,-3.8,20.41095477949631,0.0,19.713389927497325,0.0,-3.8,21.32,18.49,20.93,20.24,20.97,-4.19,-3.8,0.0,-743.97,-868.08,100.26,124.0,9.0,937.0,0.0,0.0,0.0,0.0,0.0,0.0,0.0,0.0,0.0,0.0,0.0,0.0,0.0,0.0
398.0,3312.0,10900.636911194748,22117.254923741657,-0.0,72.55646737741108,14510.564729725473,0.0,48385.355229795576,0.0,0.0,0.0,48385.355229795576,0.3466666666666667,0.39175098412700443,0.8,0.0,0.0,0.0,"[2.0, 2.0, 2.0, 2.0, 2.0, 2.0, 2.0, 2.0]",20.62,0.0,0.0,45.947026271137524,777.1282599746446,88.4742132973966,-1020.1407689339928,-861.9943459883747,7694.5826554707455,0.0,0.0,0.0,0.0,0.0,0.0,-3.9,20.194054032141004,0.0,19.713143418100763,0.0,-3.9,20.62,18.52,20.91,19.91,20.72,-4.33,-3.9,8429.25,-726.19,-847.34,66.89,167.0,23.0,492.0,0.0,0.0,0.0,0.0,0.0,0.0,0.0,0.0,0.0,0.0,0.0,0.0,0.0,0.0
399.0,9330.0,25456.82877578906,0.0,-0.0,0.45536808988087385,-16000.0,0.0,3546.532026767285,0.0,3546.532026767285,0.0,0.0,1.0,0.37667219149619113,0.8,0.0,0.0,0.0,"[2.0, 2.0, 2.0, 2.0, 2.0, 2.0, 2.0, 2.0]",24.0,0.0,0.0,16.309385459929995,962.2792083923199,91.35924199187694,-1173.3468812026877,-5226.500482436447,0.0,0.0,0.0,0.0,0.0,0.0,0.0,-4.2,21.37868894499838,0.0,19.92245692892189,0.0,-4.2,24.0,18.65,21.19,22.7,22.72,-4.64,-4.2,0.0,-835.25,-974.59,23.74,148.0,30.0,640.0,0.0,0.0,0.0,0.0,0.0,0.0,0.0,0.0,0.0,0.0,0.0,0.0,0.0,0.0
400.0,8205.0,8246.231155778894,0.0,-0.0,0.0,0.0,0.0,13136.928507901404,0.0,13136.928507901404,0.0,0.0,1.0,0.32081790362246065,0.8,0.0,0.0,0.0,"[2.0, 2.0, 2.0, 2.0, 2.0, 2.0, 2.0, 2.0]",21.31,0.0,0.0,0.0,4023.16996337922,195.83849542770014,-1082.1816251440173,-1418.1286030393726,3645.3232275156956,0.0,0.0,0.0,0.0,0.0,0.0,-4.7,20.60557385973945,0.0,19.983060395435295,0.0,-4.7,21.31,18.71,21.26,20.35,21.16,-5.18,-4.7,0.0,-770.35,-898.87,0.0,142.0,75.0,2932.0,0.0,0.0,0.0,0.0,0.0,0.0,0.0,0.0,0.0,0.0,0.0,0.0,0.0,0.0
401.0,5414.0,5441.206030150754,0.0,-0.0,0.0,0.0,0.0,27332.964951333768,0.0,27332.964951333768,0.0,0.0,1.0,0.20460631794502115,0.8,0.0,0.0,0.0,"[2.0, 2.0, 2.0, 2.0, 2.0, 2.0, 2.0, 2.0]",24.0,0.0,0.0,0.0,3218.367396243511,247.97508540652316,-1210.7941220921352,-4923.858292873695,0.0,0.0,0.0,0.0,0.0,0.0,0.0,-5.1,21.531561550043655,0.0,20.13000365059221,0.0,-5.1,24.0,18.81,21.45,22.26,22.53,-5.56,-5.1,8581.99,-861.91,-1005.7,0.0,296.0,112.0,2244.0,0.0,0.0,0.0,0.0,0.0,0.0,0.0,0.0,0.0,0.0,0.0,0.0,0.0,0.0
402.0,8037.0,0.0,0.0,-0.0,0.0,8037.0,0.0,0.0,0.0,0.0,0.0,0.0,0.3377125850340136,0.20460631794502115,0.8,0.0,0.0,0.0,"[0.6408876789511879, 2.0, 1.1090064863585454, 2.0, 0.6641985902594527, 0.7207491715284462, 2.0, 2.0]",22.64,0.0,0.0,0.0,2974.9880198143596,197.3153553546365,-1170.887333062855,-2905.1718194072755,0.0,0.0,0.0,0.0,0.0,0.0,0.0,-5.5,21.189153769394572,0.0,20.22528652674079,0.0,-5.5,22.64,18.89,21.56,21.16,21.83,-5.95,-5.5,0.0,-833.5,-972.55,0.0,220.0,80.0,2105.0,0.0,0.0,0.0,0.0,0.0,0.0,0.0,0.0,0.0,0.0,0.0,0.0,0.0,0.0
403.0,5758.0,25404.626792841405,3519.6036588771963,-0.0,0.0,-16000.0,0.0,32473.249594442,0.0,25411.018094926432,0.0,7062.231499515572,0.9910459183673469,0.09656627502441557,0.8,0.0,0.0,0.0,"[0.6408876789511879, 2.0, 1.1090064863585454, 2.0, 0.6641985902594527, 0.7207491715284462, 2.0, 2.0]",22.17,0.0,0.0,0.0,675.8431053394822,131.81833487399388,-1163.9369388753123,-2199.13057950613,3497.86034028467,0.0,0.0,0.0,0.0,0.0,0.0,-5.8,21.07778039768758,0.0,20.270197274402488,0.0,-5.8,22.17,18.94,21.6,20.94,21.69,-6.26,-5.8,7206.67,-828.55,-966.78,0.0,176.0,93.0,404.0,0.0,0.0,0.0,0.0,0.0,0.0,0.0,0.0,0.0,0.0,0.0,0.0,0.0,0.0
404.0,8189.0,0.0,0.0,-0.0,0.0,8189.0,0.0,6255.033825499038,0.0,6255.033825499038,0.0,0.0,0.642874149659864,0.06997174345341627,0.8,0.0,0.0,0.0,"[0.6408876789511879, 2.0, 1.1090064863585454, 2.0, 0.6641985902594527, 0.7207491715284462, 2.0, 2.0]",22.64,0.0,0.0,0.0,1031.3947369367029,148.23552196877478,-1200.012964865759,-2703.5625996644517,1124.3565079461337,0.0,0.0,0.0,0.0,0.0,0.0,-6.2,21.29103012403413,0.0,20.36798416357628,0.0,-6.2,22.64,19.02,21.72,21.67,22.23,-6.66,-6.2,0.0,-854.23,-996.74,0.0,170.0,108.0,672.0,0.0,0.0,0.0,0.0,0.0,0.0,0.0,0.0,0.0,0.0,0.0,0.0,0.0,0.0
405.0,7791.0,15341.826564646239,7474.117431823007,-0.0,0.0,0.0,0.0,14427.103835934238,0.0,0.0,0.0,14427.103835934238,0.642874149659864,0.06997174345341627,0.8,0.0,0.0,0.0,"[0.6408876789511879, 2.0, 1.1090064863585454, 2.0, 0.6641985902594527, 0.7207491715284462, 2.0, 2.0]",21.83,0.0,0.0,0.0,1210.0134250346352,165.30527507778336,-1182.7568235300625,-1524.0741288627733,423.99283229452953,0.0,0.0,0.0,0.0,0.0,0.0,-6.6,21.07040970476616,0.0,20.40781417279365,0.0,-6.6,21.83,19.06,21.75,20.98,21.77,-7.06,-6.6,2980.29,-841.95,-982.41,0.0,180.0,123.0,799.0,0.0,0.0,0.0,0.0,0.0,0.0,0.0,0.0,0.0,0.0,0.0,0.0,0.0,0.0
406.0,7212.0,0.0,0.0,-0.0,0.0,7212.0,0.0,16457.354060243502,0.0,16457.354060243506,0.0,0.0,0.33624149659863956,0.0,0.8,0.0,0.0,0.0,"[0.6408876789511879, 2.0, 1.1090064863585454, 2.0, 0.6641985902594527, 0.7207491715284462, 2.0, 2.0]",21.36,0.0,0.0,0.0,915.5700351382403,115.57287567769396,-1179.967233885792,-892.6495325384919,3599.035884113465,0.0,0.0,0.0,0.0,0.0,0.0,-7.0,20.92146658575214,0.0,20.40421450444154,0.0,-7.0,21.36,19.09,21.72,20.67,21.54,-7.43,-7.0,0.0,-839.96,-980.09,0.0,194.0,47.0,579.0,0.0,0.0,0.0,0.0,0.0,0.0,0.0,0.0,0.0,0.0,0.0,0.0,0.0,0.0
407.0,2821.0,4684.361674319105,1839.939865947509,-0.0,0.0,0.0,0.0,3428.805390590778,0.0,0.0,0.0,3428.805390590778,0.33624149659863956,0.0,0.8,0.0,0.0,0.0,"[0.6408876789511879, 2.0, 1.1090064863585454, 2.0, 0.6641985902594527, 0.7207491715284462, 2.0, 2.0]",22.64,0.0,0.0,0.0,395.86902324811075,89.43588952889006,-1245.78181484175,-2560.0817079965013,787.1008553601906,0.0,0.0,0.0,0.0,0.0,0.0,-7.3,21.363779635760125,0.0,20.478316957125813,0.0,-7.3,22.64,19.15,21.81,21.75,22.3,-7.74,-7.3,0.0,-886.81,-1034.76,0.0,202.0,22.0,188.0,0.0,0.0,0.0,0.0,0.0,0.0,0.0,0.0,0.0,0.0,0.0,0.0,0.0,0.0
408.0,1111.0,78951.77262732413,0.0,-0.0,0.0,0.0,0.0,22235.354169045833,0.0,-47466.05821872289,0.0,0.0,0.33624149659863956,0.1938197377264518,0.7081632653061225,309784.05505675,77446.0137641875,387230.0688209375,"[0.6408876789511879, 2.0, 1.1090064863585454, 2.0, 0.6641985902594527, 0.7207491715284462, 2.0, 2.0]",21.36,0.0,0.0,0.0,18.683669301631905,0.4808381157467177,-1204.9320611454239,-777.7866753372776,4507.584104526823,0.0,0.0,0.0,0.0,0.0,0.0,-7.6,20.979581263751246,0.0,20.489147105796874,0.0,-7.6,21.36,19.18,21.8,20.73,21.61,-8.01,-7.6,7570.41,-857.73,-1000.83,0.0,0.0,0.0,14.0,0.0,0.0,0.0,0.0,0.0,0.0,0.0,0.0,0.0,0.0,0.0,0.0,0.0,0.0
409.0,1045.0,0.0,0.0,-0.0,0.0,1045.0,0.0,17485.797052204067,0.0,17485.797052204067,0.0,0.0,0.291811224489796,0.11947536250449574,0.7081632653061225,0.0,0.0,0.0,"[0.6408876789511879, 2.0, 1.1090064863585454, 2.0, 0.6641985902594527, 0.7207491715284462, 2.0, 2.0]",22.64,0.0,0.0,0.0,61.38919913393343,1.5798966660249363,-1266.58583755811,-2438.687975744741,3642.4904766911945,0.0,0.0,0.0,0.0,0.0,0.0,-7.8,21.425139774681657,0.0,20.56699344328063,0.0,-7.8,22.64,19.24,21.89,21.87,22.41,-8.21,-7.8,0.0,-901.62,-1052.04,0.0,0.0,0.0,46.0,0.0,0.0,0.0,0.0,0.0,0.0,0.0,0.0,0.0,0.0,0.0,0.0,0.0,0.0
410.0,1922.0,1931.6582914572864,0.0,-0.0,0.0,0.0,0.0,968.3157160255656,0.0,968.3157160255656,0.0,0.0,0.291811224489796,0.11535837391595166,0.7081632653061225,0.0,0.0,0.0,"[0.6408876789511879, 2.0, 1.1090064863585454, 2.0, 0.6641985902594527, 0.7207491715284462, 2.0, 2.0]",22.64,0.0,0.0,0.0,78.7383206283059,2.0263892020754644,-1279.0682511879256,-2313.7472583741765,968.3157160255656,0.0,0.0,0.0,0.0,0.0,0.0,-8.1,21.48821151996934,0.0,20.652664030367575,0.0,-8.1,22.64,19.31,22.0,21.79,22.4,-8.49,-8.1,0.0,-910.51,-1062.4,0.0,0.0,0.0,59.0,0.0,0.0,0.0,0.0,0.0,0.0,0.0,0.0,0.0,0.0,0.0,0.0,0.0,0.0
411.0,1071.0,7363.817935580898,0.0,-0.0,0.0,-6255.998845902994,0.0,15569.982374430312,0.0,15569.982374430312,0.0,0.0,0.5472645106975016,0.04915946926276155,0.7081632653061225,0.0,0.0,0.0,"[0.6408876789511879, 2.0, 1.1090064863585454, 2.0, 0.6641985902594527, 0.7207491715284462, 2.0, 2.0]",21.36,0.0,0.0,0.0,76.06922501378706,1.9576980426830766,-1225.7360838617835,-549.0779228005238,1697.0172634696116,0.0,0.0,0.0,0.0,0.0,0.0,-8.1,21.095021609248622,0.0,20.651765817142085,0.0,-8.1,21.36,19.33,21.97,20.8,21.72,-8.49,-8.1,7377.52,-872.54,-1018.11,0.0,0.0,0.0,57.0,0.0,0.0,0.0,0.0,0.0,0.0,0.0,0.0,0.0,0.0,0.0,0.0,0.0,0.0
412.0,1315.0,0.0,0.0,-0.0,0.0,1315.0,0.0,4253.937267211114,0.0,4253.937267211114,0.0,0.0,0.49135464675192336,0.031073001289925184,0.7081632653061225,0.0,0.0,0.0,"[0.6408876789511879, 2.0, 1.1090064863585454, 2.0, 0.6641985902594527, 0.7207491715284462, 2.0, 2.0]",21.36,0.0,0.0,0.0,74.87515592308127,27.95730187270219,-1229.8968884050553,-579.6123665611481,4253.937267211114,0.0,0.0,0.0,0.0,0.0,0.0,-8.2,21.07967711053389,0.0,20.636889958259065,0.0,-8.2,21.36,19.34,21.93,20.9,21.76,-8.59,-8.2,0.0,-875.5,-1021.56,0.0,80.0,0.0,14.0,0.0,0.0,0.0,0.0,0.0,0.0,0.0,0.0,0.0,0.0,0.0,0.0,0.0,0.0
413.0,2356.0,0.0,1047.0612916052373,-0.0,0.0,3403.0612916052373,0.0,1851.4232256528953,0.0,0.0,0.0,1851.4232256528953,0.3466666666666667,0.031073001289925184,0.7081632653061225,0.0,0.0,0.0,"[0.6408876789511879, 2.0, 1.1090064863585454, 2.0, 0.6641985902594527, 0.7207491715284462, 2.0, 2.0]",22.64,0.0,0.0,0.0,117.58068575538277,29.056360422980408,-1287.3898602744696,-2256.359030937965,856.5548587452097,0.0,0.0,0.0,0.0,0.0,0.0,-8.3,21.517206878712145,0.0,20.703951088938783,0.0,-8.3,22.64,19.4,22.01,21.92,22.48,-8.69,-8.3,0.0,-916.43,-1069.32,0.0,80.0,0.0,46.0,0.0,0.0,0.0,0.0,0.0,0.0,0.0,0.0,0.0,0.0,0.0,0.0,0.0,0.0
414.0,6888.0,6922.613065326633,0.0,-0.0,0.0,0.0,0.0,9626.962686889954,0.0,9626.962686889954,0.0,0.0,1.0,0.3168087041517877,0.7081632653061223,0.0,0.0,0.0,"[0.6408876789511879, 1.611673431009475, 1.1090064863585454, 1.1187221521450148, 0.6641985902594527, 0.7207491715284462, 1.1368105252578609, 0.8248987699670565]",21.36,0.0,0.0,0.0,154.17539141760165,56.498478600239686,-1234.0576929483273,-494.426294850503,1524.4530278844625,0.0,0.0,0.0,0.0,0.0,0.0,-8.3,21.122638138374537,0.0,20.70069433183582,0.0,-8.3,21.36,19.42,21.98,20.83,21.73,-8.69,-8.3,0.0,-878.47,-1025.02,0.0,101.0,32.0,59.0,0.0,0.0,0.0,0.0,0.0,0.0,0.0,0.0,0.0,0.0,0.0,0.0,0.0,0.0
415.0,1324.0,0.0,0.0,-0.0,0.0,1324.0,0.0,14932.591551915388,0.0,14932.591551915388,0.0,0.0,0.9437074829931973,0.2533197944922835,0.7081632653061223,0.0,0.0,0.0,"[0.6408876789511879, 1.611673431009475, 1.1090064863585454, 1.1187221521450148, 0.6641985902594527, 0.7207491715284462, 1.1368105252578609, 0.8248987699670565]",21.36,0.0,0.0,0.0,186.20453879182787,79.9908551124366,-1234.0576929483273,-527.1626572821268,4048.4033648512495,0.0,0.0,0.0,0.0,0.0,0.0,-8.3,21.10614399434735,0.0,20.68379111224357,0.0,-8.3,21.36,19.43,21.94,20.94,21.77,-8.69,-8.3,2841.41,-878.47,-1025.02,0.0,148.0,44.0,57.0,0.0,0.0,0.0,0.0,0.0,0.0,0.0,0.0,0.0,0.0,0.0,0.0,0.0,0.0
416.0,2390.0,0.0,0.0,-0.0,0.0,2390.0,0.0,1515.341796356611,0.0,1515.341796356611,0.0,0.0,0.8420918367346939,0.24687701474586932,0.7081632653061223,0.0,0.0,0.0,"[0.6408876789511879, 1.611673431009475, 1.1090064863585454, 1.1187221521450148, 0.6641985902594527, 0.7207491715284462, 1.1368105252578609, 0.8248987699670565]",22.64,0.0,0.0,1.7170184097485834,161.90172082805094,62.33722714859273,-1279.0682511879256,-2206.6779806493014,723.1836200268285,0.0,0.0,0.0,0.0,0.0,0.0,-8.1,21.542152629067505,0.0,20.74840826604749,0.0,-8.1,22.64,19.48,22.02,21.95,22.48,-8.48,-8.1,0.0,-910.51,-1062.4,2.5,107.0,38.0,61.0,0.0,0.0,0.0,0.0,0.0,0.0,0.0,0.0,0.0,0.0,0.0,0.0,0.0,0.0
417.0,2275.0,63064.465467877315,56607.00444832635,-0.0,0.0,-3867.138692211578,0.0,23330.92782208469,0.0,-80000.0,0.0,103330.92782208469,1.0,0.5735436814125361,0.7081632653061223,0.0,0.0,0.0,"[0.6408876789511879, 1.611673431009475, 1.1090064863585454, 1.1187221521450148, 0.6641985902594527, 0.7207491715284462, 1.1368105252578609, 0.8248987699670565]",21.36,0.0,0.0,10.350012815376592,314.81280379667004,67.9355566390724,-1209.0928656886956,-446.33287330979476,3814.5130901330463,0.0,0.0,0.0,0.0,0.0,0.0,-7.7,21.14662480773741,0.0,20.743558992432266,0.0,-7.7,21.36,19.49,21.99,20.86,21.74,-8.1,-7.7,4117.61,-860.69,-1004.28,15.07,114.0,37.0,172.0,0.0,0.0,0.0,0.0,0.0,0.0,0.0,0.0,0.0,0.0,0.0,0.0,0.0,0.0
418.0,3833.0,7439.834711567403,3570.117885232452,-0.0,0.48234722288521037,0.0,0.0,6619.029930186331,0.0,0.0,0.0,6619.029930186331,1.0,0.5735436814125361,0.7081632653061223,0.0,0.0,0.0,"[0.6408876789511879, 1.611673431009475, 1.1090064863585454, 1.1187221521450148, 0.6641985902594527, 0.7207491715284462, 1.1368105252578609, 0.8248987699670565]",22.64,0.0,0.0,15.408964374098804,419.4694476291194,62.78371968464325,-1249.942619385022,-2135.025049063956,351.0486941622251,0.0,0.0,0.0,0.0,0.0,0.0,-7.4,21.57797313815634,0.0,20.802334253749056,0.0,-7.4,22.64,19.54,22.06,21.94,22.49,-7.81,-7.4,0.0,-889.77,-1038.21,22.43,122.0,20.0,248.0,0.0,0.0,0.0,0.0,0.0,0.0,0.0,0.0,0.0,0.0,0.0,0.0,0.0,0.0
419.0,6440.0,3730.2455865578067,0.0,-0.0,1.9349633433681903,8923.708678031613,0.0,5526.727376712613,30986.19,30315.679376712615,0.0,0.0,0.6205906174306287,0.44465048678365593,0.7081632653061223,24788.952,6197.238,30986.19,"[0.6408876789511879, 1.611673431009475, 1.1090064863585454, 1.1187221521450148, 0.6641985902594527, 0.7207491715284462, 1.1368105252578609, 0.8248987699670565]",21.36,0.0,0.0,18.76699862873482,461.89402002831366,62.64633736585848,-1188.288842972336,-385.4717646879875,1521.327601780237,0.0,0.0,0.0,0.0,0.0,0.0,-7.2,21.1770853739204,0.0,20.790746624852208,0.0,-7.2,21.36,19.55,22.03,20.84,21.73,-7.62,-7.2,0.0,-845.89,-987.0,27.32,156.0,0.0,264.0,0.0,0.0,0.0,0.0,0.0,0.0,0.0,0.0,0.0,0.0,0.0,0.0,0.0,0.0
420.0,10329.0,11993.028998737764,1608.7876067447735,-0.0,4.723753000698585,0.0,0.0,3059.3916893376763,0.0,0.0,0.0,3059.3916893376763,0.6205906174306287,0.44465048678365593,0.7081632653061223,0.0,0.0,0.0,"[0.6408876789511879, 1.611673431009475, 1.1090064863585454, 1.1187221521450148, 0.6641985902594527, 0.7207491715284462, 1.1368105252578609, 0.8248987699670565]",21.6,0.0,0.0,22.287812784560185,1751.9803134985139,91.94311684671226,-1185.9342194969242,-744.0450938589762,0.0,0.0,0.0,0.0,0.0,0.0,0.0,-6.9,21.239804010345363,0.0,20.78057520315965,0.0,-6.9,21.6,19.57,21.99,21.12,21.9,-7.32,-6.9,0.0,-844.21,-985.05,32.45,144.0,0.0,1237.0,0.0,0.0,0.0,0.0,0.0,0.0,0.0,0.0,0.0,0.0,0.0,0.0,0.0,0.0
421.0,11023.0,5958.299446309702,0.0,-0.0,5094.492050921846,0.0,0.0,8912.59733200299,0.0,8912.59733200299,0.0,0.0,0.6205906174306287,0.40675679064418746,0.7081632653061223,0.0,0.0,0.0,"[0.6408876789511879, 1.611673431009475, 1.1090064863585454, 1.1187221521450148, 0.6641985902594527, 0.7207491715284462, 1.1368105252578609, 0.8248987699670565]",21.56,0.0,0.0,941.3877653623746,4510.701349178569,152.52871943079907,-1092.8229021777552,-736.5380236681863,-1600.9472087631789,0.0,0.0,0.0,0.0,0.0,0.0,-4.7,21.20470216821514,0.0,20.754124829078602,0.0,-4.7,21.56,19.57,21.94,20.9,21.72,-4.83,-4.7,0.0,-777.93,-907.71,1370.46,112.0,0.0,3321.0,0.0,0.0,0.0,0.0,0.0,0.0,0.0,0.0,0.0,0.0,0.0,0.0,0.0,0.0
422.0,4563.0,706.41008421288,0.0,-0.0,3860.1219662081844,0.0,0.0,11594.566619189642,0.0,11594.56661918964,0.0,0.0,0.6205906174306287,0.3574601638619186,0.6653061224489795,0.0,0.0,0.0,"[0.6408876789511879, 1.611673431009475, 1.1090064863585454, 1.1187221521450148, 0.6641985902594527, 0.7207491715284462, 1.1368105252578609, 0.8248987699670565]",22.64,0.0,0.0,908.232104434826,1473.1300611395716,79.23525235912035,-1095.9928512839601,-2151.234326812373,815.6672561812143,0.0,0.0,0.0,0.0,0.0,0.0,-3.7,21.568152307480503,0.0,20.806092380334874,0.0,-3.7,22.64,19.62,22.0,21.79,22.35,-3.88,-3.7,0.0,-780.18,-910.34,1322.2,127.0,0.0,1037.0,0.0,0.0,0.0,0.0,0.0,0.0,0.0,0.0,0.0,0.0,0.0,0.0,0.0,0.0
423.0,3188.0,6545.883906680455,3793.3425931142824,-0.0,468.18810596723074,0.0,0.0,8407.088264806745,0.0,0.0,0.0,8407.088264806745,0.6205906174306287,0.3574601638619186,0.6653061224489795,0.0,0.0,0.0,"[0.6408876789511879, 1.611673431009475, 1.1090064863585454, 1.1187221521450148, 0.6641985902594527, 0.7207491715284462, 1.1368105252578609, 0.8248987699670565]",22.64,0.0,0.0,513.3827159202195,1622.5291761943495,87.92468402225751,-1091.8320467406882,-2035.1146943985839,924.5956130246973,0.0,0.0,0.0,0.0,0.0,0.0,-3.6,21.626713457402584,0.0,20.885809031968517,0.0,-3.6,22.64,19.68,22.09,21.9,22.47,-4.01,-3.6,0.0,-777.22,-906.88,747.38,123.0,10.0,1150.0,0.0,0.0,0.0,0.0,0.0,0.0,0.0,0.0,0.0,0.0,0.0,0.0,0.0,0.0
424.0,4542.0,0.0,0.0,-0.0,0.0,4542.0,0.0,4833.334119493949,0.0,4833.334119493949,0.0,0.0,0.4274783725326695,0.33691027389808376,0.6653061224489795,0.0,0.0,0.0,"[0.6408876789511879, 1.611673431009475, 1.1090064863585454, 1.1187221521450148, 0.6641985902594527, 0.7207491715284462, 1.1368105252578609, 0.8248987699670565]",22.64,0.0,0.0,0.8605313308211303,1063.002448161268,112.85957488169458,-1125.1184830868638,-1949.236715638551,0.0,0.0,0.0,0.0,0.0,0.0,0.0,-4.4,21.67046644766929,0.0,20.94678391594539,0.0,-4.4,22.64,19.73,22.16,21.81,22.42,-5.16,-4.4,0.0,-800.92,-934.53,1.25,123.0,74.0,724.0,0.0,0.0,0.0,0.0,0.0,0.0,0.0,0.0,0.0,0.0,0.0,0.0,0.0,0.0
425.0,8350.0,0.0,0.0,-0.0,0.0,8350.0,0.0,4699.592569043292,0.0,4699.592569043292,0.0,0.0,0.07246136572994843,0.31692901297528064,0.6653061224489795,0.0,0.0,0.0,"[0.6408876789511879, 1.611673431009475, 1.1090064863585454, 1.1187221521450148, 0.6641985902594527, 0.7207491715284462, 1.1368105252578609, 0.8248987699670565]",21.68,0.0,0.0,0.0,1944.8575913266388,214.00730708698694,-1110.022529536079,-636.9511975886744,0.0,0.0,0.0,0.0,0.0,0.0,0.0,-5.0,21.368681776066172,0.0,20.93876241494337,0.0,-5.0,21.68,19.75,22.13,21.05,21.88,-5.73,-5.0,0.0,-790.17,-921.99,0.0,94.0,217.0,1385.0,0.0,0.0,0.0,0.0,0.0,0.0,0.0,0.0,0.0,0.0,0.0,0.0,0.0,0.0
426.0,10457.0,6922.613065326633,0.0,-0.0,0.0,0.0,0.0,5890.124620000545,0.0,9626.962686889954,0.0,0.0,1.0,0.3168087041517877,0.7081632653061223,0.0,0.0,0.0,"[0.6408876789511879, 1.611673431009475, 1.1090064863585454, 1.1187221521450148, 0.6641985902594527, 0.7207491715284462, 1.1368105252578609, 0.8248987699670565]",21.87,0.0,0.0,0.0,6471.643753550598,349.0541264524231,-1138.933983605507,-939.0125666456414,-3177.518544541946,0.0,0.0,0.0,0.0,0.0,0.0,-5.5,21.411629530496032,0.0,20.922302678813807,0.0,-5.5,21.87,19.76,22.08,21.18,21.94,-6.22,-5.5,2522.75,-810.75,-946.01,0.0,117.0,235.0,4763.0,0.0,0.0,0.0,0.0,0.0,0.0,0.0,0.0,0.0,0.0,0.0,0.0,0.0,0.0
427.0,6335.0,0.0,0.0,-0.0,0.0,1324.0,0.0,14932.591551915388,0.0,14932.591551915388,0.0,0.0,0.9437074829931973,0.2533197944922835,0.7081632653061223,0.0,0.0,0.0,"[0.6408876789511879, 1.611673431009475, 1.1090064863585454, 1.1187221521450148, 0.6641985902594527, 0.7207491715284462, 1.1368105252578609, 0.8248987699670565]",21.36,0.0,0.0,0.0,1778.7415090019795,228.60417845786952,-1142.5199929963446,-525.6069524570457,4048.4033648512495,0.0,0.0,0.0,0.0,0.0,0.0,-6.1,21.10614399434735,0.0,20.68379111224357,0.0,-6.1,21.36,19.43,21.94,20.94,21.77,-6.82,-6.1,2841.41,-813.3,-948.99,0.0,220.0,181.0,1198.0,0.0,0.0,0.0,0.0,0.0,0.0,0.0,0.0,0.0,0.0,0.0,0.0,0.0,0.0
428.0,8823.0,0.0,0.0,-0.0,0.0,2390.0,0.0,1515.341796356611,0.0,1515.341796356611,0.0,0.0,0.8420918367346939,0.24687701474586932,0.7081632653061223,0.0,0.0,0.0,"[0.6408876789511879, 1.611673431009475, 1.1090064863585454, 1.1187221521450148, 0.6641985902594527, 0.7207491715284462, 1.1368105252578609, 0.8248987699670565]",22.64,0.0,0.0,0.0,861.2047718319883,118.11444857521234,-1220.8169875821184,-2205.771713929548,723.1836200268285,0.0,0.0,0.0,0.0,0.0,0.0,-6.7,21.542152629067505,0.0,20.74840826604749,0.0,-6.7,22.64,19.48,22.02,21.95,22.48,-7.4,-6.7,0.0,-869.04,-1014.02,0.0,157.0,73.0,555.0,0.0,0.0,0.0,0.0,0.0,0.0,0.0,0.0,0.0,0.0,0.0,0.0,0.0,0.0
429.0,6937.0,63064.465467877315,56607.00444832635,-0.0,0.0,-3867.138692211578,0.0,23330.92782208469,0.0,-80000.0,0.0,103330.92782208469,1.0,0.5735436814125361,0.7081632653061223,0.0,0.0,0.0,"[0.6408876789511879, 1.611673431009475, 1.1090064863585454, 1.1187221521450148, 0.6641985902594527, 0.7207491715284462, 1.1368105252578609, 0.8248987699670565]",21.36,0.0,0.0,0.0,619.2301825683719,15.936348979034172,-1188.288842972336,-446.151909800955,3814.5130901330463,0.0,0.0,0.0,0.0,0.0,0.0,-7.2,21.14662480773741,0.0,20.743558992432266,0.0,-7.2,21.36,19.49,21.99,20.86,21.74,-7.89,-7.2,4117.61,-845.89,-987.0,0.0,0.0,0.0,464.0,0.0,0.0,0.0,0.0,0.0,0.0,0.0,0.0,0.0,0.0,0.0,0.0,0.0,0.0
430.0,4126.0,7439.834711567403,3570.117885232452,-0.0,0.0,0.0,0.0,6619.029930186331,0.0,0.0,0.0,6619.029930186331,1.0,0.5735436814125361,0.7081632653061223,0.0,0.0,0.0,"[0.6408876789511879, 1.611673431009475, 1.1090064863585454, 1.1187221521450148, 0.6641985902594527, 0.7207491715284462, 1.1368105252578609, 0.8248987699670565]",22.64,0.0,0.0,0.0,269.57865706640325,6.937807098631255,-1266.58583755811,-2135.5661000643718,351.0486941622251,0.0,0.0,0.0,0.0,0.0,0.0,-7.8,21.57797313815634,0.0,20.802334253749056,0.0,-7.8,22.64,19.54,22.06,21.94,22.49,-8.46,-7.8,0.0,-901.62,-1052.04,0.0,0.0,0.0,202.0,0.0,0.0,0.0,0.0,0.0,0.0,0.0,0.0,0.0,0.0,0.0,0.0,0.0,0.0
431.0,2256.0,3730.2455865578067,0.0,-0.0,0.0,8923.708678031613,0.0,5526.727376712613,0.0,30315.679376712615,0.0,0.0,0.6205906174306287,0.44465048678365593,0.7081632653061223,24788.952,6197.238,30986.19,"[0.6408876789511879, 1.611673431009475, 1.1090064863585454, 1.1187221521450148, 0.6641985902594527, 0.7207491715284462, 1.1368105252578609, 0.8248987699670565]",21.36,0.0,0.0,0.0,162.8148324856495,4.190160722935707,-1238.2184974915992,-386.6330975844502,1521.327601780237,0.0,0.0,0.0,0.0,0.0,0.0,-8.4,21.1770853739204,0.0,20.790746624852208,0.0,-8.4,21.36,19.55,22.03,20.84,21.73,-9.01,-8.4,0.0,-881.43,-1028.47,0.0,0.0,0.0,122.0,0.0,0.0,0.0,0.0,0.0,0.0,0.0,0.0,0.0,0.0,0.0,0.0,0.0,0.0
432.0,1762.0,11993.028998737764,1608.7876067447735,-0.0,0.0,0.0,0.0,3059.3916893376763,0.0,0.0,0.0,3059.3916893376763,0.6205906174306287,0.44465048678365593,0.7081632653061223,0.0,0.0,0.0,"[0.6408876789511879, 1.611673431009475, 1.1090064863585454, 1.1187221521450148, 0.6641985902594527, 0.7207491715284462, 1.1368105252578609, 0.8248987699670565]",21.6,0.0,0.0,0.0,510.2186985227602,65.80613069790836,-1277.4719194489069,-746.0478755017826,0.0,0.0,0.0,0.0,0.0,0.0,0.0,-9.1,21.239804010345363,0.0,20.78057520315965,0.0,-9.1,21.6,19.57,21.99,21.12,21.9,-9.72,-9.1,0.0,-909.37,-1061.08,0.0,160.0,1.0,298.0,0.0,0.0,0.0,0.0,0.0,0.0,0.0,0.0,0.0,0.0,0.0,0.0,0.0,0.0
433.0,2210.0,5958.299446309702,0.0,-0.0,0.0,0.0,0.0,8912.59733200299,0.0,8912.59733200299,0.0,0.0,0.6205906174306287,0.40675679064418746,0.7081632653061223,0.0,0.0,0.0,"[0.6408876789511879, 1.611673431009475, 1.1090064863585454, 1.1187221521450148, 0.6641985902594527, 0.7207491715284462, 1.1368105252578609, 0.8248987699670565]",21.56,0.0,0.0,0.0,204.46677194379885,57.322772512948355,-1309.184738427896,-741.2808289396893,-1600.9472087631789,0.0,0.0,0.0,0.0,0.0,0.0,-9.9,21.20470216821514,0.0,20.754124829078602,0.0,-9.9,21.56,19.57,21.94,20.9,21.72,-10.5,-9.9,0.0,-931.95,-1087.42,0.0,160.0,0.0,69.0,0.0,0.0,0.0,0.0,0.0,0.0,0.0,0.0,0.0,0.0,0.0,0.0,0.0,0.0
434.0,1709.0,706.41008421288,0.0,-0.0,0.0,0.0,0.0,11594.566619189642,0.0,11594.56661918964,0.0,0.0,0.6205906174306287,0.3574601638619186,0.6653061224489795,0.0,0.0,0.0,"[0.6408876789511879, 1.611673431009475, 1.1090064863585454, 1.1187221521450148, 0.6641985902594527, 0.7207491715284462, 1.1368105252578609, 0.8248987699670565]",22.64,0.0,0.0,0.0,176.44126799135097,56.601515339328266,-1387.2491693129964,-2157.403605485865,815.6672561812143,0.0,0.0,0.0,0.0,0.0,0.0,-10.7,21.568152307480503,0.0,20.806092380334874,0.0,-10.7,22.64,19.62,22.0,21.79,22.35,-11.27,-10.7,0.0,-987.52,-1152.26,0.0,160.0,0.0,48.0,0.0,0.0,0.0,0.0,0.0,0.0,0.0,0.0,0.0,0.0,0.0,0.0,0.0,0.0
435.0,1360.0,6545.883906680455,3793.3425931142824,-0.0,0.0,0.0,0.0,8407.088264806745,0.0,0.0,0.0,8407.088264806745,0.6205906174306287,0.3574601638619186,0.6653061224489795,0.0,0.0,0.0,"[0.6408876789511879, 1.611673431009475, 1.1090064863585454, 1.1187221521450148, 0.6641985902594527, 0.7207491715284462, 1.1368105252578609, 0.8248987699670565]",22.64,0.0,0.0,0.0,273.8632579212888,59.10874265715045,-1408.053192029356,-2041.5958398471582,924.5956130246973,0.0,0.0,0.0,0.0,0.0,0.0,-11.2,21.626713457402584,0.0,20.885809031968517,0.0,-11.2,22.64,19.68,22.09,21.9,22.47,-11.77,-11.2,0.0,-1002.32,-1169.54,0.0,160.0,0.0,121.0,0.0,0.0,0.0,0.0,0.0,0.0,0.0,0.0,0.0,0.0,0.0,0.0,0.0,0.0
436.0,1994.0,0.0,0.0,-0.0,0.0,4542.0,0.0,4833.334119493949,0.0,4833.334119493949,0.0,0.0,0.4274783725326695,0.33691027389808376,0.6653061224489795,0.0,0.0,0.0,"[0.6408876789511879, 1.611673431009475, 1.1090064863585454, 1.1187221521450148, 0.6641985902594527, 0.7207491715284462, 1.1368105252578609, 0.8248987699670565]",22.64,0.0,0.0,0.0,116.24613794812336,29.02201484328421,-1424.6964102024438,-1955.0879462115909,0.0,0.0,0.0,0.0,0.0,0.0,0.0,-11.6,21.67046644766929,0.0,20.94678391594539,0.0,-11.6,22.64,19.73,22.16,21.81,22.42,-12.17,-11.6,0.0,-1014.17,-1183.36,0.0,80.0,0.0,45.0,0.0,0.0,0.0,0.0,0.0,0.0,0.0,0.0,0.0,0.0,0.0,0.0,0.0,0.0
437.0,2252.0,0.0,0.0,-0.0,0.0,8350.0,0.0,4699.592569043292,32586.6,4699.592569043292,0.0,0.0,0.07246136572994843,0.31692901297528064,0.6653061224489795,0.0,0.0,0.0,"[0.6408876789511879, 1.611673431009475, 1.1090064863585454, 1.1187221521450148, 0.6641985902594527, 0.7207491715284462, 1.1368105252578609, 0.8248987699670565]",21.68,0.0,0.0,0.0,381.04851865170343,49.97281845796277,-1401.2788475651148,-642.6316046373755,0.0,0.0,0.0,0.0,0.0,0.0,0.0,-12.0,21.368681776066172,0.0,20.93876241494337,0.0,-12.0,21.68,19.75,22.13,21.05,21.88,-12.54,-12.0,0.0,-997.5,-1163.91,0.0,80.0,23.0,241.0,0.0,0.0,0.0,0.0,0.0,0.0,0.0,0.0,0.0,0.0,0.0,0.0,0.0,0.0
438.0,3832.0,0.0,0.0,-0.0,0.0,3832.0,0.0,5890.124620000545,0.0,5890.124620000545,0.0,0.0,0.5628695289952546,0.6185526327882035,0.6653061224489795,0.0,0.0,0.0,"[2.4096640141185297, 1.2166095052432624, 0.7096088187748251, 0.6211917655504458, 0.723480705154703, 0.7207491715284462, 1.1368105252578609, 0.1942805639979639]",21.87,0.0,0.0,0.0,904.3317378139506,128.62419596224782,-1426.029497091271,-944.6029088399982,-3177.518544541946,0.0,0.0,0.0,0.0,0.0,0.0,-12.4,21.411629530496032,0.0,20.922302678813807,0.0,-12.4,21.87,19.76,22.08,21.18,21.94,-12.92,-12.4,2522.75,-1015.12,-1184.47,0.0,150.0,92.0,589.0,0.0,0.0,0.0,0.0,0.0,0.0,0.0,0.0,0.0,0.0,0.0,0.0,0.0,0.0
439.0,1241.0,12006.267361413076,0.0,-0.0,0.0,-10705.23602460601,0.0,3767.516600438904,0.0,3767.516600438904,0.0,0.0,1.0,0.6025342798951809,0.6653061224489795,0.0,0.0,0.0,"[2.4096640141185297, 1.2166095052432624, 0.7096088187748251, 0.6211917655504458, 0.723480705154703, 0.7207491715284462, 1.1368105252578609, 0.1942805639979639]",19.59,0.0,0.0,0.0,129.2404192293335,44.64925360505264,-1343.5377667383311,2063.2962172275875,0.0,0.0,0.0,0.0,0.0,0.0,0.0,-12.7,20.643727584349524,0.0,20.825887618112525,0.0,-12.7,19.59,19.71,21.94,20.02,21.09,-13.22,-12.7,1539.53,-956.4,-1115.95,0.0,93.0,18.0,46.0,0.0,0.0,0.0,0.0,0.0,0.0,0.0,0.0,0.0,0.0,0.0,0.0,0.0,0.0
440.0,2493.0,11098.083819773572,0.0,-0.0,0.0,6185.0180148524505,0.0,13261.150273974432,0.0,0.0,0.0,0.0,0.7370315469875659,0.6025342798951809,0.6653061224489795,58938.445662108614,14734.611415527153,73673.05707763576,"[2.4096640141185297, 1.2166095052432624, 0.7096088187748251, 0.6211917655504458, 0.723480705154703, 0.7207491715284462, 1.1368105252578609, 0.1942805639979639]",20.04,0.0,0.0,1.716133987465837,515.2056929604138,60.619948163783015,-1362.162259281329,1249.546782876873,4667.027338616813,0.0,0.0,0.0,0.0,0.0,0.0,-12.7,20.681521682102403,0.0,20.70058237016641,0.0,-12.7,20.04,19.65,21.75,20.15,21.09,-13.2,-12.7,1874.01,-969.66,-1131.42,2.5,121.0,13.0,321.0,0.0,0.0,0.0,0.0,0.0,0.0,0.0,0.0,0.0,0.0,0.0,0.0,0.0,0.0
441.0,3145.0,0.0,0.0,-0.0,0.0,3145.0,0.0,19200.38176251394,0.0,19200.38176251394,0.0,0.0,0.6033155605930081,0.5209000036940162,0.6653061224489795,0.0,0.0,0.0,"[2.4096640141185297, 1.2166095052432624, 0.7096088187748251, 0.6211917655504458, 0.723480705154703, 0.7207491715284462, 1.1368105252578609, 0.1942805639979639]",22.62,0.0,0.0,10.34293743711462,168.50422050607125,46.74433396652049,-1457.116544550375,-2252.106096143073,0.0,0.0,0.0,0.0,0.0,0.0,0.0,-12.4,21.500297777724242,0.0,20.745963900969514,0.0,-12.4,22.62,19.67,21.82,22.07,22.42,-12.91,-12.4,1880.78,-1037.25,-1210.29,15.06,85.0,24.0,79.0,0.0,0.0,0.0,0.0,0.0,0.0,0.0,0.0,0.0,0.0,0.0,0.0,0.0,0.0
442.0,5159.0,0.0,0.0,-0.0,0.529542850790363,5158.470457149209,0.0,21308.773529167964,0.0,21308.773529167964,0.0,0.0,0.38399283707475934,0.43030147678428843,0.6653061224489795,0.0,0.0,0.0,"[2.4096640141185297, 1.2166095052432624, 0.7096088187748251, 0.6211917655504458, 0.723480705154703, 0.7207491715284462, 1.1368105252578609, 0.1942805639979639]",20.86,0.0,0.0,15.40036930754876,302.23995866512075,50.728421211279034,-1379.8045437101885,131.7770254175738,7927.1695325165,0.0,0.0,0.0,0.0,0.0,0.0,-12.3,20.942522725234287,0.0,20.71380939854774,0.0,-12.3,20.86,19.65,21.78,20.55,21.38,-12.8,-12.3,2639.93,-982.22,-1146.08,22.42,132.0,0.0,157.0,0.0,0.0,0.0,0.0,0.0,0.0,0.0,0.0,0.0,0.0,0.0,0.0,0.0,0.0
443.0,5585.0,0.0,0.0,-0.0,5.004004938237423,5579.995995061762,0.0,4033.365906691829,0.0,4033.3659066918285,0.0,0.0,0.14674810939356198,0.4131528122150204,0.6653061224489795,0.0,0.0,0.0,"[2.4096640141185297, 1.2166095052432624, 0.7096088187748251, 0.6211917655504458, 0.723480705154703, 0.7207491715284462, 1.1368105252578609, 0.1942805639979639]",24.41,0.0,0.0,22.33886672084834,586.9903171193153,44.06537875021734,-1519.0957590327648,-4517.219179910086,0.0,0.0,0.0,0.0,0.0,0.0,0.0,-12.1,22.149245024911114,0.0,20.8813950108715,0.0,-12.1,24.41,19.74,22.03,23.44,23.44,-12.6,-12.1,1617.62,-1081.37,-1261.77,32.52,89.0,0.0,393.0,0.0,0.0,0.0,0.0,0.0,0.0,0.0,0.0,0.0,0.0,0.0,0.0,0.0,0.0
444.0,3460.0,0.0,0.0,-0.0,8.484467063422215,3451.515532936578,0.0,16959.418513662407,0.0,16959.418513662407,0.0,0.0,0.0,0.3410464409834626,0.6530612244897958,0.0,0.0,0.0,"[2.4096640141185297, 1.2166095052432624, 0.7096088187748251, 0.6211917655504458, 0.723480705154703, 0.7207491715284462, 1.1368105252578609, 0.1942805639979639]",21.69,0.0,0.0,24.992998190871077,1129.519120449409,70.71754859446415,-1401.96796985486,-726.9968180600127,6301.179065675609,0.0,0.0,0.0,0.0,0.0,0.0,-12.0,21.342739868571737,0.0,20.903096435448756,0.0,-12.0,21.69,19.75,22.06,21.02,21.83,-12.53,-12.0,1799.01,-997.99,-1164.49,36.38,128.0,0.0,779.0,0.0,0.0,0.0,0.0,0.0,0.0,0.0,0.0,0.0,0.0,0.0,0.0,0.0,0.0
445.0,6139.0,16180.604125069322,0.0,-0.0,5760.266016617107,0.0,0.0,14148.870408954972,0.0,0.0,0.0,0.0,0.0,0.3410464409834626,0.6530612244897958,62883.86848424433,15720.967121061083,78604.83560530542,"[2.4096640141185297, 1.2166095052432624, 0.7096088187748251, 0.6211917655504458, 0.723480705154703, 0.7207491715284462, 1.1368105252578609, 0.1942805639979639]",24.41,0.0,0.0,990.3011456673217,772.141265536991,51.75878860216487,-1448.362081797142,-4253.5344451379515,0.0,0.0,0.0,0.0,0.0,0.0,0.0,-10.4,22.281238444324835,0.0,21.051649817300472,0.0,-10.4,24.41,19.83,22.27,23.29,23.45,-10.55,-10.4,1616.83,-1031.02,-1203.02,1441.67,98.0,0.0,527.0,0.0,0.0,0.0,0.0,0.0,0.0,0.0,0.0,0.0,0.0,0.0,0.0,0.0,0.0
446.0,3549.0,19387.517650857062,4147.4986911046235,-0.0,4405.918628501846,-16000.0,0.0,6780.093327459901,0.0,0.0,0.0,6780.093327459899,0.6533333333333333,0.3410464409834626,0.6530612244897958,0.0,0.0,0.0,"[2.4096640141185297, 1.2166095052432624, 0.7096088187748251, 0.6211917655504458, 0.723480705154703, 0.7207491715284462, 1.1368105252578609, 0.1942805639979639]",22.44,0.0,0.0,1034.366803758825,1611.5015969448907,72.7095922168434,-1337.1559531451985,-1408.7530231685041,0.0,0.0,0.0,0.0,0.0,0.0,0.0,-9.7,21.74072958078416,0.0,21.127431270646134,0.0,-9.7,22.44,19.88,22.38,21.82,22.52,-9.82,-9.7,507.43,-951.86,-1110.65,1505.82,96.0,0.0,1157.0,0.0,0.0,0.0,0.0,0.0,0.0,0.0,0.0,0.0,0.0,0.0,0.0,0.0,0.0
447.0,5667.0,8266.683948067785,3382.291646083312,-0.0,823.9411177558645,0.0,0.0,5496.932250436321,0.0,0.0,0.0,5496.932250436321,0.6533333333333333,0.3410464409834626,0.6530612244897958,0.0,0.0,0.0,"[2.4096640141185297, 1.2166095052432624, 0.7096088187748251, 0.6211917655504458, 0.723480705154703, 0.7207491715284462, 1.1368105252578609, 0.1942805639979639]",22.41,0.0,0.0,605.2437210861348,2813.016059628031,124.70879987688164,-1340.0937089162874,-1319.9783952468952,0.0,0.0,0.0,0.0,0.0,0.0,0.0,-9.8,21.756204869792608,0.0,21.161501547608744,0.0,-9.8,22.41,19.91,22.41,21.85,22.56,-10.18,-9.8,980.59,-953.95,-1113.09,881.11,123.0,20.0,2041.0,0.0,0.0,0.0,0.0,0.0,0.0,0.0,0.0,0.0,0.0,0.0,0.0,0.0,0.0
448.0,4595.0,0.0,0.0,-0.0,0.0,4595.0,0.0,9744.243080181659,0.0,9744.24308018166,0.0,0.0,0.45796768707482993,0.2996168360507174,0.6530612244897958,0.0,0.0,0.0,"[2.4096640141185297, 1.2166095052432624, 0.7096088187748251, 0.6211917655504458, 0.723480705154703, 0.7207491715284462, 1.1368105252578609, 0.1942805639979639]",22.84,0.0,0.0,0.8605247306548413,554.329015520598,101.25076894438092,-1387.1455812800343,-1875.3632654323771,0.0,0.0,0.0,0.0,0.0,0.0,0.0,-10.5,21.90786854942912,0.0,21.191274719319477,0.0,-10.5,22.84,19.94,22.45,21.94,22.62,-11.31,-10.5,1559.42,-987.44,-1152.17,1.25,188.0,42.0,312.0,0.0,0.0,0.0,0.0,0.0,0.0,0.0,0.0,0.0,0.0,0.0,0.0,0.0,0.0
449.0,5663.0,23313.274773123183,4259.4476745595275,-0.0,0.0,-13274.260724698042,0.0,6475.821651888121,0.0,0.0,0.0,6475.821651888121,1.0,0.2996168360507174,0.6530612244897958,0.0,0.0,0.0,"[2.4096640141185297, 1.2166095052432624, 0.7096088187748251, 0.6211917655504458, 0.723480705154703, 0.7207491715284462, 1.1368105252578609, 0.1942805639979639]",21.52,0.0,0.0,0.0,586.9903171193153,202.74195694663524,-1348.904896670584,-103.42764896790057,0.0,0.0,0.0,0.0,0.0,0.0,0.0,-10.9,21.481185479128463,0.0,21.159431012888223,0.0,-10.9,21.52,19.93,22.39,21.07,22.0,-11.68,-10.9,1687.31,-960.22,-1120.41,0.0,316.0,138.0,259.0,0.0,0.0,0.0,0.0,0.0,0.0,0.0,0.0,0.0,0.0,0.0,0.0,0.0,0.0
450.0,4823.0,4847.236180904522,0.0,-0.0,0.0,0.0,0.0,1673.958278642538,0.0,1673.958278642538,0.0,0.0,0.8851336752572265,0.2853824969466142,0.6530612244897958,0.0,0.0,0.0,"[1.0050200283090014, 1.2166095052432624, 0.7096088187748251, 0.38311303241555805, 0.11738125934742172, 0.5125658462286324, 0.6946623116705695, 0.1942805639979639]",21.17,0.0,0.0,0.0,533.8893622620457,219.09045288202373,-1355.3183490001225,273.84799382920374,0.0,0.0,0.0,0.0,0.0,0.0,0.0,-11.4,21.325481500383553,0.0,21.096423725015253,0.0,-11.4,21.17,19.91,22.28,20.93,21.85,-12.18,-11.4,1673.96,-964.79,-1125.74,0.0,310.0,170.0,219.0,0.0,0.0,0.0,0.0,0.0,0.0,0.0,0.0,0.0,0.0,0.0,0.0,0.0,0.0
451.0,8556.0,8598.994974874371,0.0,-0.0,0.0,0.0,0.0,14889.96833305253,0.0,14889.968333052531,0.0,0.0,0.8851336752572265,0.22207480845574462,0.6530612244897958,0.0,0.0,0.0,"[1.0050200283090014, 1.2166095052432624, 0.7096088187748251, 0.38311303241555805, 0.11738125934742172, 0.5125658462286324, 0.6946623116705695, 0.1942805639979639]",20.99,0.0,0.0,0.0,840.765118573436,229.08501657361626,-1364.5350166272426,408.22620814233244,3902.773240085905,0.0,0.0,0.0,0.0,0.0,0.0,-11.8,21.21477945309747,0.0,21.02538264660194,0.0,-11.8,20.99,19.88,22.17,20.83,21.72,-12.55,-11.8,0.0,-971.35,-1133.39,0.0,256.0,202.0,474.0,0.0,0.0,0.0,0.0,0.0,0.0,0.0,0.0,0.0,0.0,0.0,0.0,0.0,0.0
452.0,7342.0,0.0,0.0,-0.0,0.0,7342.0,0.0,9593.091976603228,0.0,9593.091976603228,0.0,0.0,0.5729738113116483,0.18128785277290776,0.6530612244897958,0.0,0.0,0.0,"[1.0050200283090014, 1.2166095052432624, 0.7096088187748251, 0.38311303241555805, 0.11738125934742172, 0.5125658462286324, 0.6946623116705695, 0.1942805639979639]",23.01,0.0,0.0,0.0,844.4878045621072,232.07308200718518,-1468.97287734095,-2292.7962336094656,2712.4946338456707,0.0,0.0,0.0,0.0,0.0,0.0,-12.3,21.864984782585044,0.0,21.078458310193085,0.0,-12.3,23.01,19.91,22.25,22.37,22.79,-13.09,-12.3,0.0,-1045.69,-1220.14,0.0,178.0,248.0,513.0,0.0,0.0,0.0,0.0,0.0,0.0,0.0,0.0,0.0,0.0,0.0,0.0,0.0,0.0
453.0,5189.0,9538.86472777222,4302.170404133357,-0.0,0.0,0.0,0.0,3936.497531132717,0.0,-1866.02693212536,0.0,5802.524463258077,0.5729738113116483,0.18890746274575299,0.6530612244897958,0.0,0.0,0.0,"[1.0050200283090014, 1.2166095052432624, 0.7096088187748251, 0.38311303241555805, 0.11738125934742172, 0.5125658462286324, 0.6946623116705695, 0.1942805639979639]",23.01,0.0,0.0,0.0,1239.3032374360655,234.09947120926057,-1485.6160955140376,-2183.598920759705,981.8872478383529,0.0,0.0,0.0,0.0,0.0,0.0,-12.7,21.920164461664598,0.0,21.149826954235095,0.0,-12.7,23.01,19.95,22.35,22.23,22.75,-13.47,-12.7,2079.83,-1057.54,-1233.97,0.0,306.0,167.0,750.0,0.0,0.0,0.0,0.0,0.0,0.0,0.0,0.0,0.0,0.0,0.0,0.0,0.0,0.0
454.0,4151.0,4171.859296482412,0.0,-0.0,0.0,0.0,0.0,15284.91136950863,0.0,15284.911369508629,0.0,0.0,0.5729738113116483,0.12392059467811425,0.6530612244897958,0.0,0.0,0.0,"[1.0050200283090014, 1.2166095052432624, 0.7096088187748251, 0.38311303241555805, 0.11738125934742172, 0.5125658462286324, 0.6946623116705695, 0.1942805639979639]",22.38,0.0,0.0,0.0,1115.0498126443858,188.38550463362594,-1480.3942147940495,-1288.4539046131197,2729.0122918176207,0.0,0.0,0.0,0.0,0.0,0.0,-13.2,21.74562320960645,0.0,21.170065883427704,0.0,-13.2,22.38,19.96,22.38,21.69,22.4,-13.96,-13.2,2488.27,-1053.82,-1229.63,0.0,300.0,101.0,667.0,0.0,0.0,0.0,0.0,0.0,0.0,0.0,0.0,0.0,0.0,0.0,0.0,0.0,0.0
455.0,2417.0,13297.221313544587,10813.735206976864,-0.0,0.0,0.0,0.0,13657.139402394756,0.0,0.0,0.0,13657.139402394756,0.5729738113116483,0.12392059467811425,0.6530612244897958,0.0,0.0,0.0,"[1.0050200283090014, 1.2166095052432624, 0.7096088187748251, 0.38311303241555805, 0.11738125934742172, 0.5125658462286324, 0.6946623116705695, 0.1942805639979639]",23.01,0.0,0.0,0.0,728.8035814801981,126.52911560077995,-1523.063336403485,-2077.975207335454,2760.5827346951614,0.0,0.0,0.0,0.0,0.0,0.0,-13.6,21.97376768776516,0.0,21.220176685899965,0.0,-13.6,23.01,19.99,22.45,22.24,22.8,-14.38,-13.6,2236.48,-1084.2,-1265.07,0.0,216.0,61.0,426.0,0.0,0.0,0.0,0.0,0.0,0.0,0.0,0.0,0.0,0.0,0.0,0.0,0.0,0.0
456.0,1878.0,0.0,0.0,-0.0,0.0,11186.344042049968,0.0,8974.110918096352,0.0,596.601280251386,0.0,0.0,0.09736394557823129,0.12138402460901823,0.6530612244897958,37233.376168199866,9308.344042049966,46541.72021024983,"[1.0050200283090014, 1.2166095052432624, 0.7096088187748251, 0.38311303241555805, 0.11738125934742172, 0.5125658462286324, 0.6946623116705695, 0.1942805639979639]",23.01,0.0,0.0,0.0,276.53235353580766,59.17743381654284,-1531.3849454900292,-1991.5297068769619,0.0,0.0,0.0,0.0,0.0,0.0,0.0,-13.8,22.017403489448682,0.0,21.27684693153006,0.0,-13.8,23.01,20.03,22.53,22.24,22.84,-14.57,-13.8,2153.17,-1090.12,-1271.98,0.0,160.0,0.0,123.0,0.0,0.0,0.0,0.0,0.0,0.0,0.0,0.0,0.0,0.0,0.0,0.0,0.0,0.0
457.0,1160.0,0.0,0.0,-0.0,0.0,1160.0,0.0,9174.057512451027,0.0,9174.057512451029,0.0,0.0,0.04804421768707483,0.08237867804247474,0.6530612244897958,0.0,0.0,0.0,"[1.0050200283090014, 1.2166095052432624, 0.7096088187748251, 0.38311303241555805, 0.11738125934742172, 0.5125658462286324, 0.6946623116705695, 0.1942805639979639]",21.4,0.0,0.0,0.0,175.10672018409159,56.56716975963207,-1476.9045415466107,167.31810048437768,289.34681135405117,0.0,0.0,0.0,0.0,0.0,0.0,-14.1,21.495205832215174,0.0,21.233888577918886,0.0,-14.1,21.4,20.01,22.46,21.04,22.0,-14.86,-14.1,2185.48,-1051.34,-1226.73,0.0,160.0,0.0,47.0,0.0,0.0,0.0,0.0,0.0,0.0,0.0,0.0,0.0,0.0,0.0,0.0,0.0,0.0
458.0,1130.0,0.0,0.0,-0.0,0.0,1130.0,0.0,12026.719606370774,0.0,12026.719606370776,0.0,0.0,0.0,0.031244666110626207,0.6530612244897958,0.0,0.0,0.0,"[1.0050200283090014, 1.2166095052432624, 0.7096088187748251, 0.38311303241555805, 0.11738125934742172, 0.5125658462286324, 0.6946623116705695, 0.1942805639979639]",20.99,0.0,0.0,0.0,177.7758157986104,56.635860919024466,-1468.555130209041,595.0435154385815,645.7590011292028,0.0,0.0,0.0,0.0,0.0,0.0,-14.3,21.309963804279395,0.0,21.15284075786658,0.0,-14.3,20.99,19.97,22.34,20.85,21.81,-15.07,-14.3,2162.33,-1045.39,-1219.79,0.0,160.0,0.0,49.0,0.0,0.0,0.0,0.0,0.0,0.0,0.0,0.0,0.0,0.0,0.0,0.0,0.0,0.0
459.0,973.0,24684.68248261648,0.0,-0.0,0.0,0.0,0.0,21229.433163183046,0.0,0.0,0.0,0.0,0.0,0.031244666110626207,0.6530612244897958,94353.0362808136,23588.2590702034,117941.29535101699,"[1.0050200283090014, 1.2166095052432624, 0.7096088187748251, 0.38311303241555805, 0.11738125934742172, 0.5125658462286324, 0.6946623116705695, 0.1942805639979639]",20.99,0.0,0.0,0.0,188.45219825668576,56.91062555659401,-1472.7159347523132,473.36717170201473,4750.0567927031625,0.0,0.0,0.0,0.0,0.0,0.0,-14.4,21.248703495936706,0.0,21.074428470310423,0.0,-14.4,20.99,19.93,22.22,20.87,21.77,-15.18,-14.4,2171.58,-1048.36,-1223.25,0.0,160.0,0.0,57.0,0.0,0.0,0.0,0.0,0.0,0.0,0.0,0.0,0.0,0.0,0.0,0.0,0.0,0.0
460.0,1324.0,4735.317371639218,3387.6407847810224,-0.0,0.0,0.0,0.0,3987.7410173541293,0.0,0.0,0.0,3987.741017354129,0.0,0.031244666110626207,0.6530612244897958,0.0,0.0,0.0,"[1.0050200283090014, 1.2166095052432624, 0.7096088187748251, 0.38311303241555805, 0.11738125934742172, 0.5125658462286324, 0.6946623116705695, 0.1942805639979639]",23.01,0.0,0.0,0.0,181.00682627934376,70.85493091324892,-1560.5105772929328,-2226.166769322279,0.0,0.0,0.0,0.0,0.0,0.0,0.0,-14.5,21.899487005951805,0.0,21.12699075977871,0.0,-14.5,23.01,19.95,22.3,22.43,22.86,-15.3,-14.5,1364.03,-1110.85,-1296.17,0.0,160.0,23.0,49.0,0.0,0.0,0.0,0.0,0.0,0.0,0.0,0.0,0.0,0.0,0.0,0.0,0.0,0.0
461.0,913.0,16997.989949748742,0.0,-0.0,0.0,-16000.0,0.0,7348.745469219283,0.0,7348.745469219284,0.0,0.0,0.6533333333333333,0.0,0.6530612244897958,0.0,0.0,0.0,"[1.0050200283090014, 1.2166095052432624, 0.7096088187748251, 0.38311303241555805, 0.11738125934742172, 0.5125658462286324, 0.6946623116705695, 0.1942805639979639]",21.22,0.0,0.0,0.0,247.80445600059167,90.3975657603835,-1490.3924268510875,184.69199623025307,531.8940657751781,0.0,0.0,0.0,0.0,0.0,0.0,-14.6,21.328275423669574,0.0,21.08826656250437,0.0,-14.6,21.22,19.93,22.24,20.9,21.8,-15.39,-14.6,1694.72,-1060.94,-1237.93,0.0,160.0,52.0,96.0,0.0,0.0,0.0,0.0,0.0,0.0,0.0,0.0,0.0,0.0,0.0,0.0,0.0,0.0
462.0,1755.0,3994.315757678938,0.0,-0.0,0.0,-2219.3441788905434,0.0,11460.39199957235,0.0,11460.39199957235,0.0,0.0,0.7439565539713638,0.03477705046384884,0.6530612244897958,0.0,0.0,0.0,"[1.0050200283090014, 1.2166095052432624, 0.7096088187748251, 0.38311303241555805, 0.11738125934742172, 0.5125658462286324, 0.6946623116705695, 0.1942805639979639]",20.99,0.0,0.0,0.0,745.0991126004186,166.64475268593495,-1485.1983483821289,387.4135453263908,205.63449389221742,0.0,0.0,0.0,0.0,0.0,0.0,-14.7,21.205516591151873,0.0,21.017910639378915,0.0,-14.7,20.99,19.89,22.14,20.85,21.72,-15.46,-14.7,1506.12,-1057.24,-1233.62,0.0,304.0,79.0,390.0,0.0,0.0,0.0,0.0,0.0,0.0,0.0,0.0,0.0,0.0,0.0,0.0,0.0,0.0
463.0,1090.0,0.0,11440.769738523391,-0.0,0.0,12530.769738523391,0.0,13249.296692869751,0.0,0.0,0.0,13249.296692869753,0.21118573175523328,0.03477705046384884,0.6530612244897958,0.0,0.0,0.0,"[1.0050200283090014, 1.2166095052432624, 0.7096088187748251, 0.38311303241555805, 0.11738125934742172, 0.5125658462286324, 0.6946623116705695, 0.1942805639979639]",20.99,0.0,0.0,0.0,117.15924960572191,69.79021794266691,-1485.1983483821289,277.1403249210149,1029.3142661438906,0.0,0.0,0.0,0.0,0.0,0.0,-14.7,21.1499674123475,0.0,20.945965253878384,0.0,-14.7,20.99,19.85,22.04,20.8,21.64,-15.49,-14.7,1574.34,-1057.24,-1233.62,0.0,90.0,61.0,34.0,0.0,0.0,0.0,0.0,0.0,0.0,0.0,0.0,0.0,0.0,0.0,0.0,0.0,0.0
464.0,1309.0,8865.521650225606,0.0,-0.0,0.0,0.0,0.0,6760.974637777028,0.0,0.0,0.0,0.0,0.21118573175523328,0.03477705046384884,0.6530612244897958,30048.77616789791,7512.194041974478,37560.97020987239,"[1.0050200283090014, 1.2166095052432624, 0.7096088187748251, 0.38311303241555805, 0.11738125934742172, 0.5125658462286324, 0.6946623116705695, 0.1942805639979639]",20.99,0.0,0.0,7.190574264297995,62.232071433255165,5.289219273213927,-1460.2335211224972,188.28874908410705,1198.0109319964606,0.0,0.0,0.0,0.0,0.0,0.0,-14.1,21.104938235266896,0.0,20.887048811379692,0.0,-14.1,20.99,19.82,21.96,20.85,21.64,-14.87,-14.1,1685.95,-1039.47,-1212.88,10.47,0.0,6.0,46.0,0.0,0.0,0.0,0.0,0.0,0.0,0.0,0.0,0.0,0.0,0.0,0.0,0.0,0.0
465.0,3383.0,0.0,2603.266149124896,-0.0,1019.1777382418093,4967.088410883087,0.0,4106.763997416148,0.0,0.0,0.0,4106.763997416148,0.0,0.03477705046384884,0.6530612244897958,0.0,0.0,0.0,"[1.0050200283090014, 1.2166095052432624, 0.7096088187748251, 0.38311303241555805, 0.11738125934742172, 0.5125658462286324, 0.6946623116705695, 0.1942805639979639]",20.99,0.0,0.0,817.5328192224499,74.73467720652764,1.9233524629868828,-1302.1229484781634,109.9548101459263,315.9552639725414,0.0,0.0,0.0,0.0,0.0,0.0,-10.3,21.063634062657638,0.0,20.832848371359283,0.0,-10.3,20.99,19.78,21.88,20.83,21.59,-10.5,-10.3,0.0,-926.92,-1081.55,1190.16,0.0,0.0,56.0,0.0,0.0,0.0,0.0,0.0,0.0,0.0,0.0,0.0,0.0,0.0,0.0,0.0,0.0
466.0,5249.0,742.980816151837,0.0,-0.0,4509.734087928922,0.0,0.0,8179.562269097248,0.0,8179.562269097247,0.0,0.0,0.0,0.0,0.6530612244897958,0.0,0.0,0.0,"[1.0050200283090014, 1.2166095052432624, 0.7096088187748251, 0.38311303241555805, 0.11738125934742172, 0.5125658462286324, 0.6946623116705695, 0.1942805639979639]",20.99,0.0,0.0,1253.8389486137266,45.37462544682035,1.1677497096706064,-1160.6555940069172,72.50881448588989,2468.9957115760567,0.0,0.0,0.0,0.0,0.0,0.0,-6.9,21.04323267879669,0.0,20.8068730053539,0.0,-6.9,20.99,19.77,21.84,20.98,21.69,-6.86,-6.9,0.0,-826.21,-964.05,1825.33,0.0,0.0,34.0,0.0,0.0,0.0,0.0,0.0,0.0,0.0,0.0,0.0,0.0,0.0,0.0,0.0,0.0
467.0,7994.0,19695.888107451206,0.0,-0.0,6187.061703077169,-11965.086135568901,0.0,5242.845810979993,0.0,0.0,0.0,0.0,0.4885743505357302,0.0,0.6530612244897958,23301.53693768887,5825.384234422218,29126.921172111084,"[1.0050200283090014, 1.2166095052432624, 0.7096088187748251, 0.38311303241555805, 0.11738125934742172, 0.5125658462286324, 0.6946623116705695, 0.1942805639979639]",22.33,0.0,0.0,1535.969137045566,61.38919913393343,1.5798966660249363,-1103.9498671810245,-1664.6611507141936,1528.2590885241352,0.0,0.0,0.0,0.0,0.0,0.0,-4.2,21.504470098146477,0.0,20.879877424792337,0.0,-4.2,22.33,19.82,21.94,22.11,22.5,-4.0,-4.2,0.0,-785.85,-916.95,2236.05,0.0,0.0,46.0,0.0,0.0,0.0,0.0,0.0,0.0,0.0,0.0,0.0,0.0,0.0,0.0,0.0,0.0
468.0,9396.0,0.0,921.4525478147251,-0.0,6798.693041007692,3518.759506807033,0.0,2138.821126669268,0.0,0.0,0.0,2138.821126669268,0.33896722864767603,0.0,0.6530612244897958,0.0,0.0,0.0,"[1.0050200283090014, 1.2166095052432624, 0.7096088187748251, 0.38311303241555805, 0.11738125934742172, 0.5125658462286324, 0.6946623116705695, 0.1942805639979639]",22.5,0.0,0.0,1607.746322933531,74.73467720652764,1.9233524629868828,-1040.0305494996403,-1737.5947090709737,2138.821126669268,0.0,0.0,0.0,0.0,0.0,0.0,-2.5,21.630842438490173,0.0,20.98102529588063,0.0,-2.5,22.5,19.88,22.08,22.2,22.63,-2.28,-2.5,0.0,-740.35,-863.86,2340.54,0.0,0.0,56.0,0.0,0.0,0.0,0.0,0.0,0.0,0.0,0.0,0.0,0.0,0.0,0.0,0.0,0.0
469.0,8796.0,55969.51467862052,37062.450589358676,-0.0,6168.78348413126,-16000.0,0.0,8500.461131290689,0.0,-80000.0,0.0,88500.46113129068,0.9923005619810094,0.3266666666666667,0.6530612244897958,0.0,0.0,0.0,"[1.0050200283090014, 1.2166095052432624, 0.7096088187748251, 0.38311303241555805, 0.11738125934742172, 0.5125658462286324, 0.6946623116705695, 0.1942805639979639]",23.01,0.0,0.0,1451.7366254382137,45.37462544682035,1.1677497096706064,-1032.088400297396,-2248.716973280695,1814.18654964482,0.0,0.0,0.0,0.0,0.0,0.0,-1.8,21.882391161948835,0.0,21.10954688365438,0.0,-1.8,23.01,19.96,22.25,22.61,22.98,-1.67,-1.8,0.0,-734.69,-857.26,2113.43,0.0,0.0,34.0,0.0,0.0,0.0,0.0,0.0,0.0,0.0,0.0,0.0,0.0,0.0,0.0,0.0,0.0
470.0,4455.0,0.0,0.0,-0.0,4643.5576657712,-188.55766577119994,0.0,5973.907394061725,0.0,5973.9073940617245,0.0,0.0,1.0,0.3012674005354519,0.6530612244897958,0.0,0.0,0.0,"[1.0050200283090014, 1.2166095052432624, 0.7096088187748251, 0.38311303241555805, 0.11738125934742172, 0.5125658462286324, 0.6946623116705695, 0.1942805639979639]",23.01,0.0,0.0,1170.9676237178387,61.38919913393343,1.5798966660249363,-1040.41000938394,-2070.2167166753948,1902.3020496814045,0.0,0.0,0.0,0.0,0.0,0.0,-2.0,21.972481896065922,0.0,21.229751412800958,0.0,-2.0,23.01,20.05,22.41,22.57,23.01,-2.04,-2.0,0.0,-740.62,-864.17,1704.68,0.0,0.0,46.0,0.0,0.0,0.0,0.0,0.0,0.0,0.0,0.0,0.0,0.0,0.0,0.0,0.0,0.0
471.0,3645.0,0.0,0.0,-0.0,1055.9835685379321,2589.016431462068,0.0,7219.3338261274075,0.0,7219.3338261274075,0.0,0.0,0.8899227707711705,0.27057295399579456,0.6530612244897958,0.0,0.0,0.0,"[1.0050200283090014, 1.2166095052432624, 0.7096088187748251, 0.38311303241555805, 0.11738125934742172, 0.5125658462286324, 0.6946623116705695, 0.1942805639979639]",23.01,0.0,0.0,650.310411464244,297.9553578102353,49.38894360312745,-1111.143686619563,-1921.2453636026453,0.0,0.0,0.0,0.0,0.0,0.0,0.0,-3.7,22.0483679189699,0.0,21.33209668830067,0.0,-3.7,23.01,20.12,22.54,22.52,23.04,-4.0,-3.7,0.0,-790.97,-922.93,946.72,115.0,7.0,162.0,0.0,0.0,0.0,0.0,0.0,0.0,0.0,0.0,0.0,0.0,0.0,0.0,0.0,0.0
472.0,3815.0,42753.28234283832,38724.51593112413,-0.0,0.0,0.0,0.0,11310.018770340974,0.0,-66023.1644588547,0.0,77333.18322919568,0.8899227707711705,0.5401675422027846,0.6530612244897958,0.0,0.0,0.0,"[1.0050200283090014, 1.2166095052432624, 0.7096088187748251, 0.38311303241555805, 0.11738125934742172, 0.5125658462286324, 0.6946623116705695, 0.1942805639979639]",21.97,0.0,0.0,0.8605230806132691,1985.104743619252,144.18274356462388,-1159.6071995008695,-477.86797023250784,0.0,0.0,0.0,0.0,0.0,0.0,0.0,-5.9,21.741044103412158,0.0,21.345204389009737,0.0,-5.9,21.97,20.15,22.54,21.6,22.4,-6.63,-5.9,0.0,-825.47,-963.18,1.25,186.0,53.0,1384.0,0.0,0.0,0.0,0.0,0.0,0.0,0.0,0.0,0.0,0.0,0.0,0.0,0.0,0.0
473.0,5002.0,10607.411096025138,2856.605161471637,-0.0,0.0,-2695.768879073374,0.0,5677.431581898167,0.0,0.0,0.0,5677.431581898168,1.0,0.5401675422027846,0.6530612244897958,0.0,0.0,0.0,"[1.0050200283090014, 1.2166095052432624, 0.7096088187748251, 0.38311303241555805, 0.11738125934742172, 0.5125658462286324, 0.6946623116705695, 0.1942805639979639]",22.21,0.0,0.0,0.0,1439.3449298084251,191.92309934233398,-1173.7406706089803,-855.1616132114511,0.0,0.0,0.0,0.0,0.0,0.0,0.0,-6.0,21.790762917021684,0.0,21.31946927510494,0.0,-6.0,22.21,20.16,22.48,21.52,22.3,-6.71,-6.0,1377.87,-835.53,-974.92,0.0,170.0,162.0,972.0,0.0,0.0,0.0,0.0,0.0,0.0,0.0,0.0,0.0,0.0,0.0,0.0,0.0,0.0
474.0,6098.0,2804.0201005025087,0.0,-0.0,0.0,3308.0000000000036,0.0,3701.038131743606,0.0,3701.038131743606,0.0,0.0,0.6000850340136054,0.5086961295178901,0.6530612244897958,0.0,0.0,0.0,"[1.0050200283090014, 0.4467207755590188, 0.7096088187748251, 0.22474646189687064, 0.11738125934742172, 0.5125658462286324, 0.46439962031589843, 0.1942805639979639]",22.0,0.0,0.0,0.0,997.7500843221101,250.55100388373774,-1164.9315474521968,-603.7140598589187,2548.9639630077268,0.0,0.0,0.0,0.0,0.0,0.0,-6.0,21.70563796213935,0.0,21.29592230896654,0.0,-6.0,22.0,20.16,22.43,21.44,22.22,-6.69,-6.0,183.47,-829.26,-967.6,0.0,234.0,242.0,599.0,0.0,0.0,0.0,0.0,0.0,0.0,0.0,0.0,0.0,0.0,0.0,0.0,0.0,0.0
475.0,7482.0,0.0,0.0,-0.0,0.0,7482.0,0.0,8793.228630540267,0.0,8793.228630540269,0.0,0.0,0.2819727891156462,0.47130995336763387,0.17551020408163243,0.0,0.0,0.0,"[1.0050200283090014, 0.4467207755590188, 0.7096088187748251, 0.22474646189687064, 0.11738125934742172, 0.5125658462286324, 0.46439962031589843, 0.1942805639979639]",23.01,0.0,0.0,0.0,1090.3255585309478,225.20396606794628,-1211.0029956580895,-1929.1582850710183,1851.1105169499683,0.0,0.0,0.0,0.0,0.0,0.0,-6.1,22.045537029346498,0.0,21.34315293316715,0.0,-6.1,23.01,20.2,22.49,22.33,22.84,-6.75,-6.1,797.93,-862.05,-1005.87,0.0,162.0,235.0,707.0,0.0,0.0,0.0,0.0,0.0,0.0,0.0,0.0,0.0,0.0,0.0,0.0,0.0,0.0
476.0,6632.0,0.0,0.0,-0.0,0.0,6632.0,0.0,3257.412749719795,0.0,3257.412749719795,0.0,0.0,0.0,0.4574604093637232,0.17551020408163243,0.0,0.0,0.0,"[1.0050200283090014, 0.4467207755590188, 0.7096088187748251, 0.22474646189687064, 0.11738125934742172, 0.5125658462286324, 0.46439962031589843, 0.1942805639979639]",23.01,0.0,0.0,0.0,1206.782414553902,244.5061818572075,-1211.0029956580895,-1851.7519618021313,1640.214614560751,0.0,0.0,0.0,0.0,0.0,0.0,-6.1,22.08453803464386,0.0,21.396107832545574,0.0,-6.1,23.01,20.24,22.56,22.24,22.81,-6.75,-6.1,0.0,-862.05,-1005.87,0.0,316.0,180.0,719.0,0.0,0.0,0.0,0.0,0.0,0.0,0.0,0.0,0.0,0.0,0.0,0.0,0.0,0.0
477.0,5835.0,21944.72361809045,0.0,-0.0,0.0,-16000.0,0.0,786.9671328903335,0.0,786.9671328903335,0.0,0.0,0.6533333333333333,0.45411446066946154,0.17551020408163243,0.0,0.0,0.0,"[1.0050200283090014, 0.4467207755590188, 0.7096088187748251, 0.22474646189687064, 0.11738125934742172, 0.5125658462286324, 0.46439962031589843, 0.1942805639979639]",23.01,0.0,0.0,0.0,1038.559151480938,242.27371917695487,-1215.1638002013615,-1783.2355518120041,0.0,0.0,0.0,0.0,0.0,0.0,0.0,-6.2,22.119100090183384,0.0,21.44352701176566,0.0,-6.2,23.01,20.28,22.61,22.24,22.83,-6.84,-6.2,175.6,-865.02,-1009.33,0.0,330.0,176.0,586.0,0.0,0.0,0.0,0.0,0.0,0.0,0.0,0.0,0.0,0.0,0.0,0.0,0.0,0.0
478.0,3359.0,0.0,2306.4953896027496,-0.0,0.0,5665.495389602749,0.0,4518.136531950112,0.0,0.0,0.0,4518.136531950112,0.4124534273128083,0.45411446066946154,0.17551020408163243,0.0,0.0,0.0,"[1.0050200283090014, 0.4467207755590188, 0.7096088187748251, 0.22474646189687064, 0.11738125934742172, 0.5125658462286324, 0.46439962031589843, 0.1942805639979639]",22.13,0.0,0.0,0.0,671.0668289766588,137.58839226295453,-1182.7201524727943,-583.6798068722427,1717.388806750369,0.0,0.0,0.0,0.0,0.0,0.0,-6.3,21.84341399474869,0.0,21.43524116086844,0.0,-6.3,22.13,20.29,22.58,21.59,22.37,-6.93,-6.3,835.46,-841.92,-982.38,0.0,162.0,110.0,406.0,0.0,0.0,0.0,0.0,0.0,0.0,0.0,0.0,0.0,0.0,0.0,0.0,0.0,0.0
479.0,2518.0,2530.6532663316584,0.0,-0.0,0.0,0.0,0.0,12496.62989091947,0.0,12496.62989091947,0.0,0.0,0.4124534273128083,0.40098253086113045,0.17551020408163243,0.0,0.0,0.0,"[1.0050200283090014, 0.4467207755590188, 0.7096088187748251, 0.22474646189687064, 0.11738125934742172, 0.5125658462286324, 0.46439962031589843, 0.1942805639979639]",22.5,0.0,0.0,0.0,345.71812143846716,75.49158417223516,-1198.3062825198654,-1093.6794085348463,0.0,0.0,0.0,0.0,0.0,0.0,0.0,-6.3,21.96118837574982,0.0,21.443568774003978,0.0,-6.3,22.5,20.3,22.58,21.97,22.63,-6.89,-6.3,1933.62,-853.02,-995.32,0.0,182.0,12.0,162.0,0.0,0.0,0.0,0.0,0.0,0.0,0.0,0.0,0.0,0.0,0.0,0.0,0.0,0.0
480.0,4663.0,4686.43216080402,0.0,-0.0,0.0,0.0,0.0,6206.732682996234,0.0,6206.732682996235,0.0,0.0,0.4124534273128083,0.37459336129056825,0.17551020408163243,0.0,0.0,0.0,"[1.0050200283090014, 0.4467207755590188, 0.7096088187748251, 0.22474646189687064, 0.11738125934742172, 0.5125658462286324, 0.46439962031589843, 0.1942805639979639]",21.55,0.0,0.0,0.0,603.7072843891965,74.35818004226073,-1163.0618323972228,145.9852988719715,0.0,0.0,0.0,0.0,0.0,0.0,0.0,-6.4,21.63838910213857,0.0,21.400636728713998,0.0,-6.4,21.55,20.29,22.51,21.23,22.1,-7.02,-6.4,1916.61,-827.93,-966.05,0.0,160.0,11.0,367.0,0.0,0.0,0.0,0.0,0.0,0.0,0.0,0.0,0.0,0.0,0.0,0.0,0.0,0.0
481.0,5917.0,0.0,0.0,-0.0,0.0,5917.0,0.0,5497.743455632561,0.0,5497.743455632561,0.0,0.0,0.16088029806110765,0.35121860170029373,0.17551020408163243,0.0,0.0,0.0,"[1.0050200283090014, 0.4467207755590188, 0.7096088187748251, 0.22474646189687064, 0.11738125934742172, 0.5125658462286324, 0.46439962031589843, 0.1942805639979639]",21.38,0.0,0.0,0.0,299.21966625921783,59.76130867137816,-1155.7714779503424,284.9869293238895,0.0,0.0,0.0,0.0,0.0,0.0,0.0,-6.4,21.533120831269756,0.0,21.33619655295189,0.0,-6.4,21.38,20.27,22.4,21.13,21.97,-6.99,-6.4,1812.87,-822.74,-959.99,0.0,160.0,0.0,140.0,0.0,0.0,0.0,0.0,0.0,0.0,0.0,0.0,0.0,0.0,0.0,0.0,0.0,0.0
482.0,3043.0,4004.1259725611044,3189.0099530955513,-0.0,0.0,2247.9046103972523,0.0,6216.470580689054,0.0,0.0,0.0,6216.470580689054,0.06530612244897958,0.35121860170029373,0.17551020408163243,0.0,0.0,0.0,"[1.0050200283090014, 0.4467207755590188, 0.7096088187748251, 0.22474646189687064, 0.11738125934742172, 0.5125658462286324, 0.46439962031589843, 0.1942805639979639]",21.12,0.0,0.0,0.0,235.16137151076555,58.112720845960816,-1144.8946601107186,532.0512613774788,85.84393886518954,0.0,0.0,0.0,0.0,0.0,0.0,-6.4,21.39607721828518,0.0,21.264028253615848,0.0,-6.4,21.12,20.24,22.29,20.97,21.81,-6.98,-6.4,1094.0,-815.0,-950.96,0.0,160.0,0.0,92.0,0.0,0.0,0.0,0.0,0.0,0.0,0.0,0.0,0.0,0.0,0.0,0.0,0.0,0.0
483.0,1536.0,0.0,0.0,-0.0,0.0,1536.0,0.0,4634.7500250963885,0.0,4634.750025096388,0.0,0.0,0.0,0.33151303186570025,0.17551020408163243,0.0,0.0,0.0,"[1.0050200283090014, 0.4467207755590188, 0.7096088187748251, 0.22474646189687064, 0.11738125934742172, 0.5125658462286324, 0.46439962031589843, 0.1942805639979639]",20.99,0.0,0.0,0.0,115.05206885741755,55.02161867330333,-1135.6907667472858,581.7165992300661,390.36974563134646,0.0,0.0,0.0,0.0,0.0,0.0,-6.3,21.299810156111562,0.0,21.189127222672944,0.0,-6.3,20.99,20.21,22.17,20.89,21.7,-6.89,-6.3,1292.89,-808.44,-943.31,0.0,160.0,0.0,2.0,0.0,0.0,0.0,0.0,0.0,0.0,0.0,0.0,0.0,0.0,0.0,0.0,0.0,0.0
484.0,2006.0,22566.18025228659,4447.3493510251565,-0.0,0.0,-16000.0,0.0,8711.802184296648,0.0,0.0,0.0,8711.802184296648,0.6533333333333333,0.33151303186570025,0.17551020408163243,0.0,0.0,0.0,"[1.0050200283090014, 0.4467207755590188, 0.7096088187748251, 0.22474646189687064, 0.11738125934742172, 0.5125658462286324, 0.46439962031589843, 0.1942805639979639]",20.99,0.0,0.0,0.0,231.15772808898728,58.00968410687224,-1135.6907667472858,475.7713176275269,4366.952114173217,0.0,0.0,0.0,0.0,0.0,0.0,-6.3,21.246424826792815,0.0,21.12160356896559,0.0,-6.3,20.99,20.18,22.06,20.91,21.66,-6.88,-6.3,1289.68,-808.44,-943.31,0.0,160.0,0.0,89.0,0.0,0.0,0.0,0.0,0.0,0.0,0.0,0.0,0.0,0.0,0.0,0.0,0.0,0.0
485.0,3720.0,0.0,0.0,-0.0,0.0,3720.0,0.0,7772.173554886764,0.0,7772.173554886764,0.0,0.0,0.49517006802721086,0.2984680762751953,0.17551020408163243,0.0,0.0,0.0,"[1.0050200283090014, 0.4467207755590188, 0.7096088187748251, 0.22474646189687064, 0.11738125934742172, 0.5125658462286324, 0.46439962031589843, 0.1942805639979639]",23.01,0.0,0.0,0.0,58.8605822359682,27.54515491634786,-1219.3246047446335,-2211.6726385846573,0.0,0.0,0.0,0.0,0.0,0.0,0.0,-6.3,21.903247895408246,0.0,21.182773115456968,0.0,-6.3,23.01,20.21,22.15,22.46,22.75,-6.88,-6.3,1404.89,-867.98,-1012.78,0.0,80.0,0.0,2.0,0.0,0.0,0.0,0.0,0.0,0.0,0.0,0.0,0.0,0.0,0.0,0.0,0.0,0.0
486.0,1780.0,0.0,0.0,-0.0,0.0,1780.0,0.0,4254.393049685827,0.0,4254.393049685827,0.0,0.0,0.3438095238095238,0.262291264628207,0.17551020408163243,0.0,0.0,0.0,"[1.0050200283090014, 0.4467207755590188, 0.7096088187748215, 0.22474646189687064, 0.11738125934742172, 0.5125658462286324, 0.46439962031589843, 0.1942805639979639]",21.32,0.0,0.0,0.0,211.49070777147998,48.39292179193783,-1144.9794801140072,85.5262219879421,163.7102060638928,0.0,0.0,0.0,0.0,0.0,0.0,-6.2,21.373134673897713,0.0,21.159374814601364,0.0,-6.2,21.32,20.2,22.12,21.01,21.76,-6.77,-6.2,1316.85,-815.06,-951.03,0.0,132.0,0.0,89.0,0.0,0.0,0.0,0.0,0.0,0.0,0.0,0.0,0.0,0.0,0.0,0.0,0.0,0.0
487.0,1160.0,5968.611517236588,4778.768459650405,-0.0,0.0,0.0,0.0,9406.568310952951,0.0,0.0,0.0,9406.56831095295,0.3438095238095238,0.262291264628207,0.17551020408163243,0.0,0.0,0.0,"[1.0050200283090014, 0.4467207755590188, 0.7096088187748215, 0.22474646189687064, 0.11738125934742172, 0.5125658462286324, 0.46439962031589843, 0.1942805639979639]",20.99,0.0,0.0,0.0,2.669095614518838,0.06869115939238765,-1131.5299622040136,435.3438719107648,693.4563800057921,0.0,0.0,0.0,0.0,0.0,0.0,-6.2,21.226010317208925,0.0,21.09704092208259,0.0,-6.2,20.99,20.17,22.02,20.87,21.61,-6.77,-6.2,1458.33,-805.48,-939.86,0.0,0.0,0.0,2.0,0.0,0.0,0.0,0.0,0.0,0.0,0.0,0.0,0.0,0.0,0.0,0.0,0.0,0.0
488.0,1106.0,0.0,0.0,-0.0,0.0,1106.0,0.0,8591.18350842351,0.0,8591.183508423508,0.0,0.0,0.29678571428571426,0.22576412386110026,0.17551020408163243,0.0,0.0,0.0,"[1.0050200283090014, 0.4467207755590188, 0.7096088187748215, 0.22474646189687064, 0.11738125934742172, 0.5125658462286324, 0.46439962031589843, 0.1942805639979639]",20.99,0.0,0.0,7.168981820283036,184.02711868524668,39.15396085366155,-1102.4043304011102,344.8775027706741,531.9360301625783,0.0,0.0,0.0,0.0,0.0,0.0,-5.5,21.18012994521279,0.0,21.038453682912753,0.0,-5.5,20.99,20.14,21.93,20.9,21.6,-6.06,-5.5,1341.39,-784.75,-915.67,10.44,85.0,11.0,92.0,0.0,0.0,0.0,0.0,0.0,0.0,0.0,0.0,0.0,0.0,0.0,0.0,0.0,0.0
489.0,2879.0,0.0,0.0,-0.0,674.5254957022091,2204.474504297791,0.0,9377.389366102454,0.0,9377.389366102456,0.0,0.0,0.2030580567900599,0.185894271114066,0.17551020408163243,0.0,0.0,0.0,"[1.0050200283090014, 0.4467207755590188, 0.7096088187748215, 0.22474646189687064, 0.11738125934742172, 0.5125658462286324, 0.46439962031589843, 0.1942805639979639]",20.99,0.0,0.0,647.0767712501217,164.57081644256982,47.29386324165961,-944.2937577567762,264.2751799632987,3190.4725442952067,0.0,0.0,0.0,0.0,0.0,0.0,-1.7,21.137726622747394,0.0,20.984283033569817,0.0,-1.7,20.99,20.12,21.85,20.87,21.54,-1.8,-1.7,628.9,-672.2,-784.34,942.01,104.0,15.0,67.0,0.0,0.0,0.0,0.0,0.0,0.0,0.0,0.0,0.0,0.0,0.0,0.0,0.0,0.0
490.0,3596.0,0.0,0.0,-658.5313468147069,4254.531346814707,0.0,0.0,5524.179918638288,0.0,5524.179918638288,0.0,0.0,0.2030580567900599,0.16240711159604607,0.18841741847920068,0.0,0.0,0.0,"[1.0050200283090014, 0.4467207755590188, 0.7096088187748215, 0.22474646189687064, 0.11738125934742172, 0.5125658462286324, 0.46439962031589843, 0.1942805639979639]",22.68,0.0,0.0,1150.7736794961977,287.208735993883,45.027054981710776,-856.4084693751604,-1954.4020820443172,0.0,0.0,0.0,0.0,0.0,0.0,0.0,2.1,21.706650994484203,0.0,21.05910577132915,0.0,2.1,22.68,20.16,21.96,22.32,22.57,2.22,2.1,414.19,-609.64,-711.34,1675.29,110.0,3.0,157.0,0.0,0.0,0.0,0.0,0.0,0.0,0.0,0.0,0.0,0.0,0.0,0.0,0.0,0.0
491.0,4459.0,25596.349670837233,26987.39209635911,-0.0,5978.0241738760615,0.0,0.0,2452.0275484301997,0.0,-80000.0,0.0,82452.0275484302,0.2030580567900599,0.4890737782627128,0.18841741847920068,0.0,0.0,0.0,"[1.0050200283090014, 0.4467207755590188, 0.7096088187748215, 0.22474646189687064, 0.11738125934742172, 0.5125658462286324, 0.46439962031589843, 0.1942805639979639]",22.0,0.0,0.0,1509.2744063383125,1089.7636436647333,78.47964960580407,-698.9525106520978,-918.1436320835755,0.0,0.0,0.0,0.0,0.0,0.0,0.0,5.2,21.54285869179909,0.0,21.118381565165002,0.0,5.2,22.0,20.21,22.03,21.75,22.22,5.43,5.2,0.0,-497.55,-580.56,2197.19,155.0,0.0,735.0,0.0,0.0,0.0,0.0,0.0,0.0,0.0,0.0,0.0,0.0,0.0,0.0,0.0,0.0
492.0,5646.0,15104.826058398312,336.9383148094699,-15897.070485755066,6850.706872458215,0.0,0.0,1096.8706409022273,0.0,0.0,0.0,1096.8706409022273,0.2030580567900599,0.4890737782627128,0.5,0.0,0.0,0.0,"[1.0050200283090014, 0.4467207755590188, 0.7096088187748215, 0.22474646189687064, 0.11738125934742172, 0.5125658462286324, 0.46439962031589843, 0.1942805639979639]",22.51,0.0,0.0,1665.1827867261973,1091.660106338207,71.37011460869184,-632.9259366622945,-1512.6417683899947,0.0,0.0,0.0,0.0,0.0,0.0,0.0,7.3,21.755757716740206,0.0,21.19668986282727,0.0,7.3,22.51,20.27,22.12,22.17,22.55,7.6,7.3,0.0,-450.55,-525.71,2424.16,133.0,0.0,748.0,0.0,0.0,0.0,0.0,0.0,0.0,0.0,0.0,0.0,0.0,0.0,0.0,0.0,0.0
493.0,5841.0,18742.455701262992,0.0,-0.0,5977.470193511077,-16000.0,0.0,2506.6922546409787,0.0,0.0,0.0,0.0,0.8563913901233933,0.4890737782627128,0.5,11140.854465071021,2785.2136162677552,13926.068081338775,"[1.0050200283090014, 0.4467207755590188, 0.7096088187748215, 0.22474646189687064, 0.11738125934742172, 0.5125658462286324, 0.46439962031589843, 0.1942805639979639]",22.83,0.0,0.0,1425.1375502393275,616.5610869538531,15.867657819641785,-608.8558224559839,-1806.5443352700468,0.0,0.0,0.0,0.0,0.0,0.0,0.0,8.2,21.92899565070945,0.0,21.299642104040377,0.0,8.2,22.83,20.35,22.25,22.43,22.78,8.35,8.2,0.0,-433.41,-505.72,2074.7,0.0,0.0,462.0,0.0,0.0,0.0,0.0,0.0,0.0,0.0,0.0,0.0,0.0,0.0,0.0,0.0,0.0
494.0,5792.0,0.0,0.0,-0.0,4856.997936807629,935.0020631923708,0.0,0.0,0.0,0.0,0.0,0.0,0.816637901042085,0.4890737782627128,0.5,0.0,0.0,0.0,"[1.0050200283090014, 0.4467207755590188, 0.7096088187748215, 0.22474646189687064, 0.11738125934742172, 0.5125658462286324, 0.46439962031589843, 0.1942805639979639]",22.64,0.0,0.0,1256.3778897974596,342.27639288290334,39.3943799115349,-600.6662964435706,-1411.0629022654286,0.0,0.0,0.0,0.0,0.0,0.0,0.0,8.2,21.9313888658218,0.0,21.385631635535745,0.0,8.2,22.64,20.42,22.35,22.26,22.7,8.26,8.2,0.0,-427.59,-498.92,1829.02,94.0,0.0,207.0,0.0,0.0,0.0,0.0,0.0,0.0,0.0,0.0,0.0,0.0,0.0,0.0,0.0,0.0
495.0,7025.0,9724.253785135987,0.0,-0.0,1839.8678664325107,-4490.5003826428165,0.0,2019.0440542029442,0.0,2019.0440542029442,0.0,0.0,1.0,0.4804894072839588,0.5,0.0,0.0,0.0,"[1.0050200283090014, 0.4467207755590188, 0.7096088187748215, 0.22474646189687064, 0.11738125934742172, 0.5125658462286324, 0.46439962031589843, 0.1942805639979639]",22.43,0.0,0.0,799.9113782395104,348.5979351278164,98.12532119202723,-654.5754576995382,-1039.734943226111,0.0,0.0,0.0,0.0,0.0,0.0,0.0,6.7,21.914772619049735,0.0,21.45035661534466,0.0,6.7,22.43,20.49,22.41,22.15,22.64,6.52,6.7,75.92,-465.96,-543.7,1164.5,274.0,0.0,117.0,0.0,0.0,0.0,0.0,0.0,0.0,0.0,0.0,0.0,0.0,0.0,0.0,0.0,0.0
496.0,4717.0,8527.489424615589,0.0,-0.0,0.0,0.0,0.0,3391.0667797432584,0.0,0.0,0.0,0.0,1.0,0.4804894072839588,0.5,15071.407909970045,3767.851977492511,18839.259887462555,"[1.0050200283090014, 0.4467207755590188, 0.7096088187748215, 0.22474646189687064, 0.11738125934742172, 0.5125658462286324, 0.46439962031589843, 0.1942805639979639]",22.19,0.0,0.0,1.7395431272518844,503.6864382030167,90.9814406152188,-740.2828342121634,-670.4457338958277,0.0,0.0,0.0,0.0,0.0,0.0,0.0,4.4,21.861792335832536,0.0,21.48178614312784,0.0,4.4,22.19,20.53,22.43,21.92,22.48,3.71,4.4,902.4,-526.97,-614.89,2.53,202.0,20.0,269.0,0.0,0.0,0.0,0.0,0.0,0.0,0.0,0.0,0.0,0.0,0.0,0.0,0.0,0.0
497.0,8032.0,0.0,0.0,-0.0,0.0,8032.0,0.0,2789.7476891863807,0.0,2789.7476891863807,0.0,0.0,0.6585034013605442,0.4686282351360575,0.4510204081632653,0.0,0.0,0.0,"[1.0050200283090014, 0.4467207755590188, 0.7096088187748215, 0.22474646189687064, 0.11738125934742172, 0.5125658462286324, 0.46439962031589843, 0.1942805639979639]",21.78,0.0,0.0,0.0,1091.7303456964842,147.58295595454706,-731.3078639915861,-139.8440978097726,0.0,0.0,0.0,0.0,0.0,0.0,0.0,4.2,21.713333642266544,0.0,21.457904166578643,0.0,4.2,21.78,20.54,22.38,21.42,22.1,3.53,4.2,1014.39,-520.58,-607.43,0.0,167.0,106.0,719.0,0.0,0.0,0.0,0.0,0.0,0.0,0.0,0.0,0.0,0.0,0.0,0.0,0.0,0.0
498.0,7285.0,0.0,0.0,-0.0,0.0,1780.0,0.0,137.87972507283575,0.0,4254.393049685827,0.0,0.0,0.3438095238095238,0.262291264628207,0.17551020408163243,0.0,0.0,0.0,"[1.0050200283090014, 0.4467207755590188, 0.7096088187748215, 0.22474646189687064, 0.11738125934742172, 0.5125658462286324, 0.46439962031589843, 0.1942805639979639]",21.95,0.0,0.0,0.0,474.3966258015862,209.02719803103867,-751.1446804595834,-425.93911687808674,0.0,0.0,0.0,0.0,0.0,0.0,0.0,3.9,21.74612105033774,0.0,21.43566050622966,0.0,3.9,21.95,20.55,22.32,21.53,22.14,3.28,3.9,137.88,-534.7,-623.91,0.0,110.0,262.0,270.0,0.0,0.0,0.0,0.0,0.0,0.0,0.0,0.0,0.0,0.0,0.0,0.0,0.0,0.0
499.0,9568.0,5968.611517236588,4778.768459650405,-0.0,0.0,0.0,0.0,9406.568310952951,30846.6,0.0,0.0,9406.56831095295,0.3438095238095238,0.262291264628207,0.17551020408163243,0.0,0.0,0.0,"[1.0050200283090014, 0.4467207755590188, 0.7096088187748215, 0.22474646189687064, 0.11738125934742172, 0.5125658462286324, 0.46439962031589843, 0.1942805639979639]",20.99,0.0,0.0,0.0,381.96163030930194,238.42701425098113,-719.6103124200915,443.584383971257,693.4563800057921,0.0,0.0,0.0,0.0,0.0,0.0,3.7,21.226010317208925,0.0,21.09704092208259,0.0,3.7,20.99,20.17,22.02,20.87,21.61,3.1,3.7,1458.33,-512.26,-597.71,0.0,100.0,319.0,200.0,0.0,0.0,0.0,0.0,0.0,0.0,0.0,0.0,0.0,0.0,0.0,0.0,0.0,0.0
500.0,6397.0,0.0,0.0,-0.0,0.0,1106.0,0.0,8591.18350842351,0.0,8591.183508423508,0.0,0.0,0.29678571428571426,0.22576412386110026,0.17551020408163243,0.0,0.0,0.0,"[1.0050200283090014, 0.4467207755590188, 0.7096088187748215, 0.22474646189687064, 0.11738125934742172, 0.5125658462286324, 0.46439962031589843, 0.1942805639979639]",20.99,0.0,0.0,0.0,719.1105500379981,176.6049707978313,-727.9319215066354,352.3558256001922,531.9360301625783,0.0,0.0,0.0,0.0,0.0,0.0,3.5,21.18012994521279,0.0,21.038453682912753,0.0,3.5,20.99,20.14,21.93,20.9,21.6,2.89,3.5,1341.39,-518.18,-604.63,0.0,93.0,208.0,468.0,0.0,0.0,0.0,0.0,0.0,0.0,0.0,0.0,0.0,0.0,0.0,0.0,0.0,0.0
501.0,4958.0,0.0,0.0,-0.0,0.0,2204.474504297791,0.0,9377.389366102454,0.0,9377.389366102456,0.0,0.0,0.2030580567900599,0.185894271114066,0.17551020408163243,0.0,0.0,0.0,"[1.0050200283090014, 0.4467207755590188, 0.7096088187748215, 0.22474646189687064, 0.11738125934742172, 0.5125658462286324, 0.46439962031589843, 0.1942805639979639]",20.99,0.0,0.0,0.0,1008.637184855016,120.89644053060407,-740.4143351364512,267.9841698605604,3190.4725442952067,0.0,0.0,0.0,0.0,0.0,0.0,3.2,21.137726622747394,0.0,20.984283033569817,0.0,3.2,20.99,20.12,21.85,20.87,21.54,2.64,3.2,628.9,-527.07,-614.99,0.0,135.0,83.0,676.0,0.0,0.0,0.0,0.0,0.0,0.0,0.0,0.0,0.0,0.0,0.0,0.0,0.0,0.0
502.0,3629.0,0.0,0.0,-658.5313468147069,0.0,0.0,0.0,5524.179918638288,0.0,5524.179918638288,0.0,0.0,0.2030580567900599,0.16240711159604607,0.18841741847920068,0.0,0.0,0.0,"[1.0050200283090014, 0.4467207755590188, 0.7096088187748215, 0.22474646189687064, 0.11738125934742172, 0.5125658462286324, 0.46439962031589843, 0.1942805639979639]",22.68,0.0,0.0,0.0,1309.4723563546004,160.63427623910096,-818.961228485713,-1954.1921416316475,0.0,0.0,0.0,0.0,0.0,0.0,0.0,3.0,21.706650994484203,0.0,21.05910577132915,0.0,3.0,22.68,20.16,21.96,22.32,22.57,2.47,3.0,414.19,-582.98,-680.24,0.0,256.0,71.0,839.0,0.0,0.0,0.0,0.0,0.0,0.0,0.0,0.0,0.0,0.0,0.0,0.0,0.0,0.0
503.0,2601.0,25596.349670837233,26987.39209635911,-0.0,0.0,0.0,0.0,2452.0275484301997,0.0,-80000.0,0.0,82452.0275484302,0.2030580567900599,0.4890737782627128,0.18841741847920068,0.0,0.0,0.0,"[1.0050200283090014, 0.4467207755590188, 0.7096088187748215, 0.22474646189687064, 0.11738125934742172, 0.5125658462286324, 0.46439962031589843, 0.1942805639979639]",22.0,0.0,0.0,0.0,880.4503559998346,154.0399249374316,-798.8118196906241,-920.7626110601924,0.0,0.0,0.0,0.0,0.0,0.0,0.0,2.8,21.54285869179909,0.0,21.118381565165002,0.0,2.8,22.0,20.21,22.03,21.75,22.22,2.3,2.8,0.0,-568.64,-663.5,0.0,298.0,56.0,497.0,0.0,0.0,0.0,0.0,0.0,0.0,0.0,0.0,0.0,0.0,0.0,0.0,0.0,0.0
504.0,4079.0,15104.826058398312,336.9383148094699,-15897.070485755066,0.0,0.0,0.0,1096.8706409022273,0.0,0.0,0.0,1096.8706409022273,0.2030580567900599,0.4890737782627128,0.5,0.0,0.0,0.0,"[1.0050200283090014, 0.4467207755590188, 0.7096088187748215, 0.22474646189687064, 0.11738125934742172, 0.5125658462286324, 0.46439962031589843, 0.1942805639979639]",22.51,0.0,0.0,0.0,316.8497451866976,61.44424207649167,-840.9661638258916,-1517.474596704009,0.0,0.0,0.0,0.0,0.0,0.0,0.0,2.3,21.755757716740206,0.0,21.19668986282727,0.0,2.3,22.51,20.27,22.12,22.17,22.55,1.81,2.3,0.0,-598.64,-698.51,0.0,160.0,2.0,153.0,0.0,0.0,0.0,0.0,0.0,0.0,0.0,0.0,0.0,0.0,0.0,0.0,0.0,0.0
505.0,2224.0,18742.455701262992,0.0,-0.0,0.0,-16000.0,0.0,2506.6922546409787,0.0,0.0,0.0,0.0,0.8563913901233933,0.4890737782627128,0.5,11140.854465071021,2785.2136162677552,13926.068081338775,"[1.0050200283090014, 0.4467207755590188, 0.7096088187748215, 0.22474646189687064, 0.11738125934742172, 0.5125658462286324, 0.46439962031589843, 0.1942805639979639]",22.83,0.0,0.0,0.0,224.4849890526902,57.83795620839126,-870.9865086821162,-1812.3286384726205,0.0,0.0,0.0,0.0,0.0,0.0,0.0,1.9,21.92899565070945,0.0,21.299642104040377,0.0,1.9,22.83,20.35,22.25,22.43,22.78,1.43,1.9,0.0,-620.01,-723.45,0.0,160.0,0.0,84.0,0.0,0.0,0.0,0.0,0.0,0.0,0.0,0.0,0.0,0.0,0.0,0.0,0.0,0.0
506.0,1319.0,0.0,0.0,-0.0,0.0,935.0020631923708,0.0,0.0,0.0,0.0,0.0,0.0,0.816637901042085,0.4890737782627128,0.5,0.0,0.0,0.0,"[1.0050200283090014, 0.4467207755590188, 0.7096088187748215, 0.22474646189687064, 0.11738125934742172, 0.5125658462286324, 0.46439962031589843, 0.1942805639979639]",22.64,0.0,0.0,0.0,361.94341320041065,61.375550917099275,-883.6010053860626,-1417.1774512003371,0.0,0.0,0.0,0.0,0.0,0.0,0.0,1.4,21.9313888658218,0.0,21.385631635535745,0.0,1.4,22.64,20.42,22.35,22.26,22.7,0.94,1.4,0.0,-628.99,-733.93,0.0,160.0,0.0,187.0,0.0,0.0,0.0,0.0,0.0,0.0,0.0,0.0,0.0,0.0,0.0,0.0,0.0,0.0
507.0,2570.0,9724.253785135987,0.0,-0.0,0.0,-4490.5003826428165,0.0,2019.0440542029442,0.0,2019.0440542029442,0.0,0.0,1.0,0.4804894072839588,0.5,0.0,0.0,0.0,"[1.0050200283090014, 0.4467207755590188, 0.7096088187748215, 0.22474646189687064, 0.11738125934742172, 0.5125658462286324, 0.46439962031589843, 0.1942805639979639]",22.43,0.0,0.0,0.0,237.83046712528446,58.1814120053532,-883.419707579495,-1044.5254390716427,0.0,0.0,0.0,0.0,0.0,0.0,0.0,1.2,21.914772619049735,0.0,21.45035661534466,0.0,1.2,22.43,20.49,22.41,22.15,22.64,0.78,1.2,75.92,-628.86,-733.78,0.0,160.0,0.0,94.0,0.0,0.0,0.0,0.0,0.0,0.0,0.0,0.0,0.0,0.0,0.0,0.0,0.0,0.0
508.0,2270.0,8527.489424615589,0.0,-0.0,0.0,0.0,0.0,3391.0667797432584,0.0,0.0,0.0,0.0,1.0,0.4804894072839588,0.5,15071.407909970045,3767.851977492511,18839.259887462555,"[1.0050200283090014, 0.4467207755590188, 0.7096088187748215, 0.22474646189687064, 0.11738125934742172, 0.5125658462286324, 0.46439962031589843, 0.1942805639979639]",22.19,0.0,0.0,0.0,168.15302371468718,66.83649808879419,-881.7501886834095,-673.0536775077519,0.0,0.0,0.0,0.0,0.0,0.0,0.0,1.0,21.861792335832536,0.0,21.48178614312784,0.0,1.0,22.19,20.53,22.43,21.92,22.48,0.59,1.0,902.4,-627.68,-732.39,0.0,160.0,17.0,40.0,0.0,0.0,0.0,0.0,0.0,0.0,0.0,0.0,0.0,0.0,0.0,0.0,0.0,0.0
509.0,1205.0,0.0,0.0,-0.0,0.0,8032.0,0.0,2789.7476891863807,0.0,2789.7476891863807,0.0,0.0,0.6585034013605442,0.4686282351360575,0.4510204081632653,0.0,0.0,0.0,"[1.0050200283090014, 0.4467207755590188, 0.7096088187748215, 0.22474646189687064, 0.11738125934742172, 0.5125658462286324, 0.46439962031589843, 0.1942805639979639]",21.78,0.0,0.0,0.0,167.31015141536545,86.48216967501732,-876.9360230061042,-142.4960815139773,0.0,0.0,0.0,0.0,0.0,0.0,0.0,0.7,21.713333642266544,0.0,21.457904166578643,0.0,0.7,21.78,20.54,22.38,21.42,22.1,0.35,0.7,1014.39,-624.25,-728.39,0.0,160.0,49.0,36.0,0.0,0.0,0.0,0.0,0.0,0.0,0.0,0.0,0.0,0.0,0.0,0.0,0.0,0.0
510.0,3770.0,0.0,0.0,-0.0,0.0,1780.0,0.0,137.87972507283575,0.0,4254.393049685827,0.0,0.0,0.3438095238095238,0.262291264628207,0.17551020408163243,0.0,0.0,0.0,"[1.0050200283090014, 0.4467207755590188, 0.7096088187748215, 0.22474646189687064, 0.11738125934742172, 0.5125658462286324, 0.46439962031589843, 0.1942805639979639]",21.95,0.0,0.0,0.0,1590.7107468949544,133.70734175728458,-888.4512303875573,-428.46713626148505,0.0,0.0,0.0,0.0,0.0,0.0,0.0,0.6,21.74612105033774,0.0,21.43566050622966,0.0,0.6,21.95,20.55,22.32,21.53,22.14,0.25,0.6,137.88,-632.45,-737.96,0.0,117.0,89.0,1121.0,0.0,0.0,0.0,0.0,0.0,0.0,0.0,0.0,0.0,0.0,0.0,0.0,0.0,0.0
511.0,1445.0,5968.611517236588,4778.768459650405,-0.0,0.0,0.0,0.0,9406.568310952951,0.0,0.0,0.0,9406.56831095295,0.3438095238095238,0.262291264628207,0.17551020408163243,0.0,0.0,0.0,"[1.0050200283090014, 0.4467207755590188, 0.7096088187748215, 0.22474646189687064, 0.11738125934742172, 0.5125658462286324, 0.46439962031589843, 0.1942805639979639]",20.99,0.0,0.0,0.0,207.90850049936262,129.1393796576907,-856.9168623480656,441.0560789519756,693.4563800057921,0.0,0.0,0.0,0.0,0.0,0.0,0.4,21.226010317208925,0.0,21.09704092208259,0.0,0.4,20.99,20.17,22.02,20.87,21.61,0.07,0.4,1458.33,-610.0,-711.76,0.0,150.0,122.0,64.0,0.0,0.0,0.0,0.0,0.0,0.0,0.0,0.0,0.0,0.0,0.0,0.0,0.0,0.0
512.0,4604.0,0.0,0.0,-0.0,0.0,1106.0,0.0,8591.18350842351,0.0,8591.183508423508,0.0,0.0,0.29678571428571426,0.22576412386110026,0.17551020408163243,0.0,0.0,0.0,"[1.0050200283090014, 0.4467207755590188, 0.7096088187748215, 0.22474646189687064, 0.11738125934742172, 0.5125658462286324, 0.46439962031589843, 0.1942805639979639]",20.99,0.0,0.0,1.7137843282668994,2322.745338855886,169.35805348193423,-848.5952532615216,350.15697416674857,531.9360301625783,0.0,0.0,0.0,0.0,0.0,0.0,0.6,21.18012994521279,0.0,21.038453682912753,0.0,0.6,20.99,20.14,21.93,20.9,21.6,0.26,0.6,1341.39,-604.07,-704.85,2.49,112.0,119.0,1669.0,0.0,0.0,0.0,0.0,0.0,0.0,0.0,0.0,0.0,0.0,0.0,0.0,0.0,0.0
513.0,5149.0,0.0,0.0,-0.0,10.087718208187447,2204.474504297791,0.0,9377.389366102454,0.0,9377.389366102456,0.0,0.0,0.2030580567900599,0.185894271114066,0.17551020408163243,0.0,0.0,0.0,"[1.0050200283090014, 0.4467207755590188, 0.7096088187748215, 0.22474646189687064, 0.11738125934742172, 0.5125658462286324, 0.46439962031589843, 0.1942805639979639]",20.99,0.0,0.0,28.500140102228453,1081.4051600297928,144.388817042801,-811.1480123720742,266.7788676391937,3190.4725442952067,0.0,0.0,0.0,0.0,0.0,0.0,1.5,21.137726622747394,0.0,20.984283033569817,0.0,1.5,20.99,20.12,21.85,20.87,21.54,1.2,1.5,628.9,-577.42,-673.75,41.49,141.0,115.0,724.0,0.0,0.0,0.0,0.0,0.0,0.0,0.0,0.0,0.0,0.0,0.0,0.0,0.0,0.0
514.0,3636.0,0.0,0.0,-658.5313468147069,477.911361393883,0.0,0.0,5524.179918638288,0.0,5524.179918638288,0.0,0.0,0.2030580567900599,0.16240711159604607,0.18841741847920068,0.0,0.0,0.0,"[1.0050200283090014, 0.4467207755590188, 0.7096088187748215, 0.22474646189687064, 0.11738125934742172, 0.5125658462286324, 0.46439962031589843, 0.1942805639979639]",22.68,0.0,0.0,78.88938519369734,1518.7154046612225,118.08010299551611,-827.2828375722568,-1954.1896749599418,0.0,0.0,0.0,0.0,0.0,0.0,0.0,2.8,21.706650994484203,0.0,21.05910577132915,0.0,2.8,22.68,20.16,21.96,22.32,22.57,2.47,2.8,414.19,-588.9,-687.15,114.85,120.0,65.0,1068.0,0.0,0.0,0.0,0.0,0.0,0.0,0.0,0.0,0.0,0.0,0.0,0.0,0.0,0.0
515.0,10305.0,25596.349670837233,26987.39209635911,-0.0,1058.9568397840492,0.0,0.0,2452.0275484301997,37492.9,-80000.0,0.0,82452.0275484302,0.2030580567900599,0.4890737782627128,0.18841741847920068,0.0,0.0,0.0,"[1.0050200283090014, 0.4467207755590188, 0.7096088187748215, 0.22474646189687064, 0.11738125934742172, 0.5125658462286324, 0.46439962031589843, 0.1942805639979639]",22.0,0.0,0.0,97.38454937364719,2074.1682499142494,105.44092966731662,-757.2037742579049,-919.8150685271718,0.0,0.0,0.0,0.0,0.0,0.0,0.0,3.8,21.54285869179909,0.0,21.118381565165002,0.0,3.8,22.0,20.21,22.03,21.75,22.22,3.43,3.8,0.0,-539.02,-628.94,141.77,92.0,36.0,1502.0,0.0,0.0,0.0,0.0,0.0,0.0,0.0,0.0,0.0,0.0,0.0,0.0,0.0,0.0
516.0,9519.0,15104.826058398312,336.9383148094699,-15897.070485755066,2541.817877008757,0.0,0.0,1096.8706409022273,0.0,0.0,0.0,1096.8706409022273,0.2030580567900599,0.4890737782627128,0.5,0.0,0.0,0.0,"[1.0050200283090014, 0.4467207755590188, 0.7096088187748215, 0.22474646189687064, 0.11738125934742172, 0.5125658462286324, 0.46439962031589843, 0.1942805639979639]",22.51,0.0,0.0,141.02354721857824,3263.10986746584,131.9900627724748,-745.2676593306371,-1515.4685100975353,0.0,0.0,0.0,0.0,0.0,0.0,0.0,4.6,21.755757716740206,0.0,21.19668986282727,0.0,4.6,22.51,20.27,22.12,22.17,22.55,4.21,4.6,0.0,-530.52,-619.03,205.3,106.0,22.0,2387.0,0.0,0.0,0.0,0.0,0.0,0.0,0.0,0.0,0.0,0.0,0.0,0.0,0.0,0.0
517.0,6511.0,18742.455701262992,0.0,-0.0,2061.89031890856,-16000.0,0.0,2506.6922546409787,0.0,0.0,0.0,0.0,0.8563913901233933,0.4890737782627128,0.5,11140.854465071021,2785.2136162677552,13926.068081338775,"[1.0050200283090014, 0.4467207755590188, 0.7096088187748215, 0.22474646189687064, 0.11738125934742172, 0.5125658462286324, 0.46439962031589843, 0.1942805639979639]",22.83,0.0,0.0,142.18576582055016,674.5787968904995,80.23127417030999,-737.8407632974141,-1809.604852578724,0.0,0.0,0.0,0.0,0.0,0.0,0.0,5.1,21.92899565070945,0.0,21.299642104040377,0.0,5.1,22.83,20.35,22.25,22.43,22.78,4.69,5.1,0.0,-525.23,-612.86,206.99,163.0,16.0,418.0,0.0,0.0,0.0,0.0,0.0,0.0,0.0,0.0,0.0,0.0,0.0,0.0,0.0,0.0
518.0,4355.0,0.0,0.0,-0.0,796.4469471984737,935.0020631923708,0.0,0.0,0.0,0.0,0.0,0.0,0.816637901042085,0.4890737782627128,0.5,0.0,0.0,0.0,"[1.0050200283090014, 0.4467207755590188, 0.7096088187748215, 0.22474646189687064, 0.11738125934742172, 0.5125658462286324, 0.46439962031589843, 0.1942805639979639]",22.64,0.0,0.0,120.58905872702368,1139.3526306081624,77.58666453370303,-721.3296281984568,-1413.8771533157517,0.0,0.0,0.0,0.0,0.0,0.0,0.0,5.3,21.9313888658218,0.0,21.385631635535745,0.0,5.3,22.64,20.42,22.35,22.26,22.7,4.89,5.3,0.0,-513.48,-599.14,175.55,120.0,15.0,789.0,0.0,0.0,0.0,0.0,0.0,0.0,0.0,0.0,0.0,0.0,0.0,0.0,0.0,0.0
519.0,3759.0,9724.253785135987,0.0,-0.0,24.477390226743317,-4490.5003826428165,0.0,2019.0440542029442,0.0,2019.0440542029442,0.0,0.0,1.0,0.4804894072839588,0.5,0.0,0.0,0.0,"[1.0050200283090014, 0.4467207755590188, 0.7096088187748215, 0.22474646189687064, 0.11738125934742172, 0.5125658462286324, 0.46439962031589843, 0.1942805639979639]",22.43,0.0,0.0,37.99234910550291,1207.6955262115002,71.6448792462614,-733.630744021705,-1041.5378650021255,0.0,0.0,0.0,0.0,0.0,0.0,0.0,4.8,21.914772619049735,0.0,21.45035661534466,0.0,4.8,22.43,20.49,22.41,22.15,22.64,4.36,4.8,75.92,-522.24,-609.36,55.31,85.0,21.0,858.0,0.0,0.0,0.0,0.0,0.0,0.0,0.0,0.0,0.0,0.0,0.0,0.0,0.0,0.0
520.0,4548.0,8527.489424615589,0.0,-0.0,0.0,0.0,0.0,3391.0667797432584,0.0,0.0,0.0,0.0,1.0,0.4804894072839588,0.5,15071.407909970045,3767.851977492511,18839.259887462555,"[1.0050200283090014, 0.4467207755590188, 0.7096088187748215, 0.22474646189687064, 0.11738125934742172, 0.5125658462286324, 0.46439962031589843, 0.1942805639979639]",22.19,0.0,0.0,0.8605593815278595,843.6449322627855,121.20555074786984,-756.9260523852513,-670.5721394088936,0.0,0.0,0.0,0.0,0.0,0.0,0.0,4.0,21.861792335832536,0.0,21.48178614312784,0.0,4.0,22.19,20.53,22.43,21.92,22.48,3.56,4.0,902.4,-538.82,-628.71,1.25,166.0,74.0,537.0,0.0,0.0,0.0,0.0,0.0,0.0,0.0,0.0,0.0,0.0,0.0,0.0,0.0,0.0
521.0,4299.0,0.0,0.0,-0.0,0.0,8032.0,0.0,2789.7476891863807,0.0,2789.7476891863807,0.0,0.0,0.6585034013605442,0.4686282351360575,0.4510204081632653,0.0,0.0,0.0,"[1.0050200283090014, 0.4467207755590188, 0.7096088187748215, 0.22474646189687064, 0.11738125934742172, 0.5125658462286324, 0.46439962031589843, 0.1942805639979639]",21.78,0.0,0.0,0.0,1614.030213842856,171.07533246674402,-768.7551048810336,-140.41231088332853,0.0,0.0,0.0,0.0,0.0,0.0,0.0,3.3,21.713333642266544,0.0,21.457904166578643,0.0,3.3,21.78,20.54,22.38,21.42,22.1,2.85,3.3,1014.39,-547.24,-638.53,0.0,162.0,125.0,1111.0,0.0,0.0,0.0,0.0,0.0,0.0,0.0,0.0,0.0,0.0,0.0,0.0,0.0,0.0
522.0,6016.0,0.0,0.0,-0.0,0.0,1780.0,0.0,137.87972507283575,0.0,4254.393049685827,0.0,0.0,0.3438095238095238,0.262291264628207,0.17551020408163243,0.0,0.0,0.0,"[1.0050200283090014, 0.4467207755590188, 0.7096088187748215, 0.22474646189687064, 0.11738125934742172, 0.5125658462286324, 0.46439962031589843, 0.1942805639979639]",21.95,0.0,0.0,0.0,805.7156787933069,187.83597535848688,-805.2351395221185,-426.8535780693245,0.0,0.0,0.0,0.0,0.0,0.0,0.0,2.6,21.74612105033774,0.0,21.43566050622966,0.0,2.6,21.95,20.55,22.32,21.53,22.14,2.18,2.6,137.88,-573.21,-668.84,0.0,234.0,148.0,465.0,0.0,0.0,0.0,0.0,0.0,0.0,0.0,0.0,0.0,0.0,0.0,0.0,0.0,0.0
523.0,10238.0,5968.611517236588,4778.768459650405,-0.0,0.0,0.0,0.0,9406.568310952951,0.0,0.0,0.0,9406.56831095295,0.3438095238095238,0.262291264628207,0.17551020408163243,0.0,0.0,0.0,"[1.0050200283090014, 0.4467207755590188, 0.7096088187748215, 0.22474646189687064, 0.11738125934742172, 0.5125658462286324, 0.46439962031589843, 0.1942805639979639]",20.99,0.0,0.0,0.0,2872.017120580553,250.41362156495296,-794.5047941989865,442.21847602384076,693.4563800057921,0.0,0.0,0.0,0.0,0.0,0.0,1.9,21.226010317208925,0.0,21.09704092208259,0.0,1.9,20.99,20.17,22.02,20.87,21.61,1.46,1.9,1458.33,-565.57,-659.92,0.0,312.0,122.0,1975.0,0.0,0.0,0.0,0.0,0.0,0.0,0.0,0.0,0.0,0.0,0.0,0.0,0.0,0.0
524.0,7887.0,0.0,0.0,-0.0,0.0,1106.0,0.0,8591.18350842351,0.0,8591.183508423508,0.0,0.0,0.29678571428571426,0.22576412386110026,0.17551020408163243,0.0,0.0,0.0,"[1.0050200283090014, 0.4467207755590188, 0.7096088187748215, 0.22474646189687064, 0.11738125934742172, 0.5125658462286324, 0.46439962031589843, 0.1942805639979639]",20.99,0.0,0.0,0.0,2769.116460705024,223.10888570647847,-819.4696214586181,350.6532758679984,531.9360301625783,0.0,0.0,0.0,0.0,0.0,0.0,1.3,21.18012994521279,0.0,21.038453682912753,0.0,1.3,20.99,20.14,21.93,20.9,21.6,0.85,1.3,1341.39,-583.34,-680.66,0.0,240.0,120.0,1936.0,0.0,0.0,0.0,0.0,0.0,0.0,0.0,0.0,0.0,0.0,0.0,0.0,0.0,0.0
525.0,7001.0,0.0,0.0,-0.0,0.0,2204.474504297791,0.0,9377.389366102454,0.0,9377.389366102456,0.0,0.0,0.2030580567900599,0.185894271114066,0.17551020408163243,0.0,0.0,0.0,"[1.0050200283090014, 0.4467207755590188, 0.7096088187748215, 0.22474646189687064, 0.11738125934742172, 0.5125658462286324, 0.46439962031589843, 0.1942805639979639]",20.99,0.0,0.0,0.0,1461.7512850987282,220.80773186683342,-848.5952532615216,265.90013987195584,3190.4725442952067,0.0,0.0,0.0,0.0,0.0,0.0,0.6,21.137726622747394,0.0,20.984283033569817,0.0,0.6,20.99,20.12,21.85,20.87,21.54,0.14,0.6,628.9,-604.07,-704.85,0.0,274.0,153.0,935.0,0.0,0.0,0.0,0.0,0.0,0.0,0.0,0.0,0.0,0.0,0.0,0.0,0.0,0.0
526.0,4529.0,0.0,0.0,-658.5313468147069,0.0,0.0,0.0,5524.179918638288,0.0,5524.179918638288,0.0,0.0,0.2030580567900599,0.16240711159604607,0.18841741847920068,0.0,0.0,0.0,"[1.0050200283090014, 0.4467207755590188, 0.7096088187748215, 0.22474646189687064, 0.11738125934742172, 0.5125658462286324, 0.46439962031589843, 0.1942805639979639]",22.68,0.0,0.0,0.0,1080.3515696556406,168.94590652557997,-947.9461693271433,-1956.737833923262,0.0,0.0,0.0,0.0,0.0,0.0,0.0,-0.1,21.706650994484203,0.0,21.05910577132915,0.0,-0.1,22.68,20.16,21.96,22.32,22.57,-0.58,-0.1,414.19,-674.8,-787.37,0.0,260.0,92.0,663.0,0.0,0.0,0.0,0.0,0.0,0.0,0.0,0.0,0.0,0.0,0.0,0.0,0.0,0.0
527.0,3604.0,25596.349670837233,26987.39209635911,-0.0,0.0,0.0,0.0,2452.0275484301997,0.0,-80000.0,0.0,82452.0275484302,0.2030580567900599,0.4890737782627128,0.18841741847920068,0.0,0.0,0.0,"[1.0050200283090014, 0.4467207755590188, 0.7096088187748215, 0.22474646189687064, 0.11738125934742172, 0.5125658462286324, 0.46439962031589843, 0.1942805639979639]",22.0,0.0,0.0,0.0,686.0980516478966,117.87402951733897,-944.4399787051423,-923.6633099647622,0.0,0.0,0.0,0.0,0.0,0.0,0.0,-0.7,21.54285869179909,0.0,21.118381565165002,0.0,-0.7,22.0,20.21,22.03,21.75,22.22,-1.17,-0.7,0.0,-672.3,-784.46,0.0,240.0,36.0,384.0,0.0,0.0,0.0,0.0,0.0,0.0,0.0,0.0,0.0,0.0,0.0,0.0,0.0,0.0
528.0,4298.0,15104.826058398312,336.9383148094699,-15897.070485755066,0.0,0.0,0.0,1096.8706409022273,0.0,0.0,0.0,1096.8706409022273,0.2030580567900599,0.4890737782627128,0.5,0.0,0.0,0.0,"[1.0050200283090014, 0.4467207755590188, 0.7096088187748215, 0.22474646189687064, 0.11738125934742172, 0.5125658462286324, 0.46439962031589843, 0.1942805639979639]",22.51,0.0,0.0,0.0,468.7072377811644,64.12319729279483,-999.0767364702253,-1520.6150304423916,0.0,0.0,0.0,0.0,0.0,0.0,0.0,-1.5,21.755757716740206,0.0,21.19668986282727,0.0,-1.5,22.51,20.27,22.12,22.17,22.55,-1.95,-1.5,0.0,-711.19,-829.84,0.0,160.0,0.0,267.0,0.0,0.0,0.0,0.0,0.0,0.0,0.0,0.0,0.0,0.0,0.0,0.0,0.0,0.0
529.0,5219.0,18742.455701262992,0.0,-0.0,0.0,-16000.0,0.0,2506.6922546409787,0.0,0.0,0.0,0.0,0.8563913901233933,0.4890737782627128,0.5,11140.854465071021,2785.2136162677552,13926.068081338775,"[1.0050200283090014, 0.4467207755590188, 0.7096088187748215, 0.22474646189687064, 0.11738125934742172, 0.5125658462286324, 0.46439962031589843, 0.1942805639979639]",22.83,0.0,0.0,0.0,1194.70124493029,82.80719264752453,-1041.5794949562658,-1815.7267889478926,0.0,0.0,0.0,0.0,0.0,0.0,0.0,-2.2,21.92899565070945,0.0,21.299642104040377,0.0,-2.2,22.83,20.35,22.25,22.43,22.78,-2.64,-2.2,0.0,-741.45,-865.14,0.0,160.0,0.0,811.0,0.0,0.0,0.0,0.0,0.0,0.0,0.0,0.0,0.0,0.0,0.0,0.0,0.0,0.0
530.0,2876.0,0.0,0.0,-0.0,0.0,935.0020631923708,0.0,0.0,0.0,0.0,0.0,0.0,0.816637901042085,0.4890737782627128,0.5,0.0,0.0,0.0,"[1.0050200283090014, 0.4467207755590188, 0.7096088187748215, 0.22474646189687064, 0.11738125934742172, 0.5125658462286324, 0.46439962031589843, 0.1942805639979639]",22.64,0.0,0.0,0.0,584.8128970127342,67.11126272636373,-1066.676405290028,-1420.8430844950205,0.0,0.0,0.0,0.0,0.0,0.0,0.0,-3.0,21.9313888658218,0.0,21.385631635535745,0.0,-3.0,22.64,20.42,22.35,22.26,22.7,-3.45,-3.0,0.0,-759.32,-885.99,0.0,160.0,0.0,354.0,0.0,0.0,0.0,0.0,0.0,0.0,0.0,0.0,0.0,0.0,0.0,0.0,0.0,0.0
531.0,3610.0,9724.253785135987,0.0,-0.0,0.0,-4490.5003826428165,0.0,2019.0440542029442,0.0,2019.0440542029442,0.0,0.0,1.0,0.4804894072839588,0.5,0.0,0.0,0.0,"[1.0050200283090014, 0.4467207755590188, 0.7096088187748215, 0.22474646189687064, 0.11738125934742172, 0.5125658462286324, 0.46439962031589843, 0.1942805639979639]",22.43,0.0,0.0,0.0,344.5942917060382,60.92905838104875,-1078.9775211132762,-1048.4848575335334,0.0,0.0,0.0,0.0,0.0,0.0,0.0,-3.5,21.914772619049735,0.0,21.45035661534466,0.0,-3.5,22.43,20.49,22.41,22.15,22.64,-3.96,-3.5,75.92,-768.07,-896.21,0.0,160.0,0.0,174.0,0.0,0.0,0.0,0.0,0.0,0.0,0.0,0.0,0.0,0.0,0.0,0.0,0.0,0.0
532.0,1215.0,8527.489424615589,0.0,-0.0,0.0,0.0,0.0,3391.0667797432584,0.0,0.0,0.0,0.0,1.0,0.4804894072839588,0.5,15071.407909970045,3767.851977492511,18839.259887462555,"[1.0050200283090014, 0.4467207755590188, 0.7096088187748215, 0.22474646189687064, 0.11738125934742172, 0.5125658462286324, 0.46439962031589843, 0.1942805639979639]",22.19,0.0,0.0,0.0,314.11041021390184,66.90518924818656,-1085.6296113037347,-677.2009035581725,0.0,0.0,0.0,0.0,0.0,0.0,0.0,-3.9,21.861792335832536,0.0,21.48178614312784,0.0,-3.9,22.19,20.53,22.43,21.92,22.48,-4.38,-3.9,902.4,-772.81,-901.73,0.0,160.0,11.0,150.0,0.0,0.0,0.0,0.0,0.0,0.0,0.0,0.0,0.0,0.0,0.0,0.0,0.0,0.0
533.0,2649.0,0.0,0.0,-0.0,0.0,8032.0,0.0,2789.7476891863807,0.0,2789.7476891863807,0.0,0.0,0.6585034013605442,0.4686282351360575,0.4510204081632653,0.0,0.0,0.0,"[1.0050200283090014, 0.4467207755590188, 0.7096088187748215, 0.22474646189687064, 0.11738125934742172, 0.5125658462286324, 0.46439962031589843, 0.1942805639979639]",21.78,0.0,0.0,0.0,133.94645623387987,62.26853598920032,-1084.9762501697014,-146.7951039258027,0.0,0.0,0.0,0.0,0.0,0.0,0.0,-4.3,21.713333642266544,0.0,21.457904166578643,0.0,-4.3,21.78,20.54,22.38,21.42,22.1,-4.79,-4.3,1014.39,-772.34,-901.19,0.0,160.0,11.0,15.0,0.0,0.0,0.0,0.0,0.0,0.0,0.0,0.0,0.0,0.0,0.0,0.0,0.0,0.0
