,load_elec,grid,hp_elec,ev,pv,bat_pow,cool,load_th_sh,load_th_dhw,tes_pow,dh,hp_th,bat_soc,tes_soc,ev_soc,eh_th_in,eh_elec_in,eh_th_out,temp_slack,temp_zone_1,temp_zone_2,temp_update,Qsolar_1,QconvInt_1,QradInt_1,Qvent_1,Qconduc_1,Qheating_1,Qsolar_2,QconvInt_2,QradInt_2,Qvent_2,Qconduc_2,Qheating_2,temp_amb,temp_aggregate_1,temp_aggregate_2,temp_wall_1,temp_wall_2,_Tamb,_Tz_1,_TEW_1,_TIW_1,_T1_1,_T2_1,_Taeq_1,_Tvent_1,_Qheating_1,_Qinfvent_1,_Qenvelope_1,_Qsolar_1,_Qint_people_1,_Qint_lighting_1,_Qint_appliances_1,_Tz_2,_TEW_2,_TIW_2,_T1_2,_T2_2,_Taeq_2,_Tvent_2,_Qheating_2,_Qinfvent_2,_Qenvelope_2,_Qsolar_2,_Qint_people_2,_Qint_lighting_2,_Qint_appliances_2
390.0,1350.0,0.0,0.0,-0.0,0.0,1350.0,0.0,31610.787485271085,0.0,31610.787485271085,0.0,0.0,0.44260204081632654,0.3656003933449359,0.8,0.0,0.0,0.0,"[2.0, 2.0, 2.0, 2.0, 2.0, 2.0, 2.0, 2.0]",20.0,0.0,0.0,0.0,475.4502161757384,228.4324505593885,-1090.130790337249,-1061.6326420689525,1474.7391213538785,0.0,0.0,0.0,0.0,0.0,0.0,-6.2,19.47629477756384,0.0,19.0,0.0,-6.2,20.0,18.0,20.0,20.0,20.0,-6.61,-6.2,9656.16,-776.01,-905.47,0.0,536.0,68.0,67.0,0.0,0.0,0.0,0.0,0.0,0.0,0.0,0.0,0.0,0.0,0.0,0.0,0.0,0.0
391.0,1718.0,0.0,0.0,-0.0,0.0,1718.0,0.0,29975.52143960833,0.0,29975.521439608332,0.0,0.0,0.36955782312925173,0.23815344844864195,0.8,0.0,0.0,0.0,"[2.0, 2.0, 2.0, 2.0, 2.0, 2.0, 2.0, 2.0]",20.0,0.0,0.0,0.0,376.2020029306034,187.66424746000587,-1094.2915948805207,-1033.0353423566826,1585.5256478225176,0.0,0.0,0.0,0.0,0.0,0.0,-6.3,19.490743677411878,0.0,19.02070755861325,0.0,-6.3,20.0,18.02,20.02,19.55,20.1,-6.71,-6.3,0.0,-778.97,-908.93,0.0,428.0,63.0,50.0,0.0,0.0,0.0,0.0,0.0,0.0,0.0,0.0,0.0,0.0,0.0,0.0,0.0,0.0
392.0,3199.0,9217.71444787594,5972.62587563656,-0.0,0.0,0.0,0.0,11756.567360254678,0.0,0.0,0.0,11756.567360254678,0.36955782312925173,0.23815344844864195,0.8,0.0,0.0,0.0,"[2.0, 2.0, 2.0, 2.0, 2.0, 2.0, 2.0, 2.0]",20.0,0.0,0.0,1.713937782133122,340.30969085115265,166.74778942502348,-1090.130790337249,-1006.1635878069068,8348.656074232647,0.0,0.0,0.0,0.0,0.0,0.0,-6.2,19.50424210659461,0.0,19.040126757603826,0.0,-6.2,20.0,18.04,20.04,19.56,20.11,-6.61,-6.2,10287.47,-776.01,-905.47,2.5,342.0,76.0,67.0,0.0,0.0,0.0,0.0,0.0,0.0,0.0,0.0,0.0,0.0,0.0,0.0,0.0,0.0
393.0,2978.0,30492.272656581656,11931.738571524227,-0.0,9.327528121353538,-15439.400249895874,0.0,24282.777741603448,0.0,0.0,0.0,24282.777741603444,1.0,0.23815344844864195,0.8,0.0,0.0,0.0,"[2.0, 2.0, 2.0, 2.0, 2.0, 2.0, 2.0, 2.0]",23.4,0.0,0.0,27.75193205135768,374.0245828240223,155.75720392224136,-1202.3345817453092,-5356.582380710458,0.0,0.0,0.0,0.0,0.0,0.0,0.0,-5.5,20.710101913613666,0.0,19.267818302131662,0.0,-5.5,23.4,18.17,20.37,22.23,22.06,-5.88,-5.5,4116.14,-855.88,-998.67,40.4,332.0,62.0,99.0,0.0,0.0,0.0,0.0,0.0,0.0,0.0,0.0,0.0,0.0,0.0,0.0,0.0,0.0
394.0,3052.0,54988.323200941326,43423.74707190178,-0.0,45.821486965163075,0.0,0.0,57309.51040938133,41417.28,0.0,0.0,90443.33440938134,1.0,0.23815344844864195,0.8,33133.824,8283.456,41417.28,"[2.0, 2.0, 2.0, 2.0, 2.0, 2.0, 2.0, 2.0]",20.36,0.0,0.0,39.37940375191638,372.12812015054834,81.12425924241101,-1055.3202707852458,-1071.0442335807506,8861.840623921318,0.0,0.0,0.0,0.0,0.0,0.0,-5.0,19.834545819024513,0.0,19.327683277368614,0.0,-5.0,20.36,18.21,20.44,19.63,20.34,-5.35,-5.0,0.0,-751.23,-876.56,57.33,184.0,19.0,180.0,0.0,0.0,0.0,0.0,0.0,0.0,0.0,0.0,0.0,0.0,0.0,0.0,0.0,0.0
395.0,6943.0,0.0,0.0,-0.0,366.1405008946582,6576.8594991053415,0.0,16258.849108816488,0.0,16258.849108816488,0.0,0.0,0.7203716199359974,0.16902568863224532,0.8,0.0,0.0,0.0,"[2.0, 2.0, 2.0, 2.0, 2.0, 2.0, 2.0, 2.0]",24.0,0.0,0.0,68.9943234906735,605.0418321964559,57.21973577385977,-1181.6684902892316,-5733.154972513185,0.0,0.0,0.0,0.0,0.0,0.0,0.0,-4.4,21.123468474745135,0.0,19.570430795516756,0.0,-4.4,24.0,18.36,20.78,22.69,22.56,-4.77,-4.4,9255.63,-841.17,-981.5,100.44,128.0,0.0,386.0,0.0,0.0,0.0,0.0,0.0,0.0,0.0,0.0,0.0,0.0,0.0,0.0,0.0,0.0
396.0,7570.0,7042.418736640594,0.0,-0.0,562.7933570426092,0.0,0.0,35862.36047844218,0.0,35862.36047844218,0.0,0.0,0.7203716199359974,0.016549666189889123,0.8,0.0,0.0,0.0,"[2.0, 2.0, 2.0, 2.0, 2.0, 2.0, 2.0, 2.0]",20.88,0.0,0.0,78.14758755433486,389.6177203614744,58.833978019580904,-1035.2197597794272,-1318.4133497463054,8027.441644792892,0.0,0.0,0.0,0.0,0.0,0.0,-4.0,20.226618571362298,0.0,19.638302142972947,0.0,-4.0,20.88,18.41,20.86,19.98,20.77,-4.36,-4.0,0.0,-736.92,-859.86,113.77,150.0,0.0,213.0,0.0,0.0,0.0,0.0,0.0,0.0,0.0,0.0,0.0,0.0,0.0,0.0,0.0,0.0
397.0,2642.0,0.0,7270.0079327887315,-0.0,343.97562026596177,9568.03231252277,0.0,15973.718390884558,0.0,0.0,0.0,15973.718390884556,0.31356752501581153,0.016549666189889123,0.8,0.0,0.0,0.0,"[2.0, 2.0, 2.0, 2.0, 2.0, 2.0, 2.0, 2.0]",24.0,0.0,0.0,68.68582676819386,476.1526097585064,133.29519480093023,-1156.7036630295997,-5299.240064584646,5794.973956003316,0.0,0.0,0.0,0.0,0.0,0.0,-3.8,21.34184965808868,0.0,19.86098092693765,0.0,-3.8,24.0,18.55,21.17,22.71,22.73,-4.19,-3.8,0.0,-823.4,-960.77,99.99,372.0,0.0,161.0,0.0,0.0,0.0,0.0,0.0,0.0,0.0,0.0,0.0,0.0,0.0,0.0,0.0,0.0
398.0,3062.0,0.0,3461.605022489937,-0.0,72.49683411804966,6451.108188371887,0.0,7572.8651342996345,0.0,0.0,0.0,7572.865134299634,0.039285714285714285,0.016549666189889123,0.8,0.0,0.0,0.0,"[2.0, 2.0, 2.0, 2.0, 2.0, 2.0, 2.0, 2.0]",24.0,0.0,0.0,45.832675090094845,664.1833718655314,180.1082199268431,-1160.8644675728717,-4937.217191215839,0.0,0.0,0.0,0.0,0.0,0.0,0.0,-3.9,21.524312172648813,0.0,20.101254457057557,0.0,-3.9,24.0,18.71,21.49,22.53,22.75,-4.33,-3.9,8429.25,-826.36,-964.22,66.72,501.0,0.0,234.0,0.0,0.0,0.0,0.0,0.0,0.0,0.0,0.0,0.0,0.0,0.0,0.0,0.0,0.0
399.0,2634.0,122506.74119207489,0.0,-0.0,0.4549296977398381,0.0,0.0,27334.59617423098,0.0,-80000.0,0.0,0.0,0.039285714285714285,0.34321633285655584,0.8,477042.649663249,119260.66241581224,596303.3120790612,"[2.0, 2.0, 2.0, 2.0, 2.0, 2.0, 2.0, 2.0]",21.36,0.0,0.0,16.271657259379634,544.214547928737,110.31800198417619,-1063.7018159993752,-1217.8520199461798,6854.2029331777485,0.0,0.0,0.0,0.0,0.0,0.0,-4.2,20.762139855284914,0.0,20.155896452682242,0.0,-4.2,21.36,18.77,21.54,20.49,21.39,-4.64,-4.2,0.0,-757.2,-883.52,23.69,296.0,0.0,252.0,0.0,0.0,0.0,0.0,0.0,0.0,0.0,0.0,0.0,0.0,0.0,0.0,0.0,0.0
400.0,924.0,0.0,0.0,-0.0,0.0,924.0,0.0,22911.589344275522,0.0,22911.589344275522,0.0,0.0,0.0,0.24580311285538442,0.8,0.0,0.0,0.0,"[2.0, 2.0, 2.0, 2.0, 2.0, 2.0, 2.0, 2.0]",24.0,0.0,0.0,0.0,513.0282728538327,111.1422958968849,-1194.1509039190473,-4594.9891730374275,0.0,0.0,0.0,0.0,0.0,0.0,0.0,-4.7,21.697100677132372,0.0,20.337641883198987,0.0,-4.7,24.0,18.9,21.78,22.76,23.02,-5.18,-4.7,0.0,-850.06,-991.87,0.0,284.0,9.0,234.0,0.0,0.0,0.0,0.0,0.0,0.0,0.0,0.0,0.0,0.0,0.0,0.0,0.0,0.0
401.0,3365.0,19462.311557788944,0.0,-0.0,0.0,-16000.0,0.0,7476.931609290192,0.0,7476.931609290192,0.0,0.0,0.6533333333333333,0.2140134376458173,0.8,0.0,0.0,0.0,"[2.0, 2.0, 2.0, 2.0, 2.0, 2.0, 2.0, 2.0]",21.39,0.0,0.0,0.0,361.59221640902655,135.73373095936003,-1102.2411174682516,-941.6206513465298,0.0,0.0,0.0,0.0,0.0,0.0,0.0,-5.1,20.927962835864005,0.0,20.373299921427254,0.0,-5.1,21.39,18.95,21.79,20.56,21.54,-5.56,-5.1,8581.99,-784.63,-915.53,0.0,296.0,49.0,110.0,0.0,0.0,0.0,0.0,0.0,0.0,0.0,0.0,0.0,0.0,0.0,0.0,0.0,0.0
402.0,4309.0,4330.653266331658,0.0,-0.0,0.0,0.0,0.0,0.0,0.0,0.0,0.0,0.0,0.9421227530758124,0.2140134376458173,0.6075801749271137,0.0,0.0,0.0,"[1.532898409885707, 2.0, 0.9282442328058416, 0.8249755438890745, 1.315638913346735, 0.5643751699958166, 2.0, 1.1059661516478876]",20.6,0.0,0.0,0.0,614.9455817134863,147.17080899819274,-1086.1280007891548,70.01110395865035,0.0,0.0,0.0,0.0,0.0,0.0,0.0,-5.5,20.650246044246217,0.0,20.330806081881754,0.0,-5.5,20.6,18.96,21.7,20.18,21.23,-5.95,-5.5,0.0,-773.16,-902.15,0.0,330.0,39.0,283.0,0.0,0.0,0.0,0.0,0.0,0.0,0.0,0.0,0.0,0.0,0.0,0.0,0.0,0.0
403.0,4378.0,45280.350010247406,39340.765757533714,-0.0,0.0,-1335.1825026624563,0.0,38290.89929987111,0.0,-40647.98759643102,0.0,78938.88689630214,0.9966427052678627,0.379992720331244,0.6075801749271137,0.0,0.0,0.0,"[1.532898409885707, 2.0, 0.9282442328058416, 0.8249755438890745, 1.315638913346735, 0.5643751699958166, 2.0, 1.1059661516478876]",20.47,0.0,0.0,0.0,878.8348507594677,152.7691384886724,-1092.922756347332,157.4467142079539,4496.426271180335,0.0,0.0,0.0,0.0,0.0,0.0,-5.8,20.55767694819064,0.0,20.27202853628013,0.0,-5.8,20.47,18.96,21.58,20.11,21.11,-6.26,-5.8,7206.67,-778.0,-907.79,0.0,264.0,72.0,512.0,0.0,0.0,0.0,0.0,0.0,0.0,0.0,0.0,0.0,0.0,0.0,0.0,0.0,0.0
404.0,4880.0,0.0,0.0,-0.0,0.0,4880.0,0.0,2257.7603606126077,0.0,2257.7603606126077,0.0,0.0,0.7891597120705838,0.37039339907013596,0.6075801749271137,0.0,0.0,0.0,"[1.532898409885707, 2.0, 0.9282442328058416, 0.8249755438890745, 1.315638913346735, 0.5643751699958166, 2.0, 1.1059661516478876]",22.77,0.0,0.0,0.0,895.9030148207331,106.64302495668343,-1205.46828141468,-2910.985851996932,0.0,0.0,0.0,0.0,0.0,0.0,0.0,-6.2,21.317687601051816,0.0,20.356300250709452,0.0,-6.2,22.77,19.03,21.68,21.89,22.35,-6.66,-6.2,0.0,-858.11,-1001.27,0.0,170.0,46.0,577.0,0.0,0.0,0.0,0.0,0.0,0.0,0.0,0.0,0.0,0.0,0.0,0.0,0.0,0.0
405.0,5652.0,0.0,0.0,-0.0,0.0,5652.0,0.0,12634.366258267655,0.0,12634.366258267653,0.0,0.0,0.5488535896216041,0.3166758554550524,0.6075801749271137,0.0,0.0,0.0,"[1.532898409885707, 2.0, 0.9282442328058416, 0.8249755438890745, 1.315638913346735, 0.5643751699958166, 2.0, 1.1059661516478876]",21.2,0.0,0.0,0.0,842.4508631720794,141.70986182649784,-1156.5682868032106,-732.093646127552,0.0,0.0,0.0,0.0,0.0,0.0,0.0,-6.6,20.839772095513826,0.0,20.361493019763966,0.0,-6.6,21.2,19.06,21.66,20.49,21.4,-7.06,-6.6,2980.29,-823.3,-960.66,0.0,180.0,100.0,526.0,0.0,0.0,0.0,0.0,0.0,0.0,0.0,0.0,0.0,0.0,0.0,0.0,0.0,0.0
406.0,4030.0,0.0,0.0,-0.0,0.0,10467.03642790013,0.0,5793.332785110115,0.0,0.0,0.0,0.0,0.1038265306122449,0.3166758554550524,0.6075801749271137,25748.14571160052,6437.03642790013,32185.18213950065,"[1.532898409885707, 2.0, 0.9282442328058416, 0.8249755438890745, 1.315638913346735, 0.5643751699958166, 2.0, 1.1059661516478876]",20.73,0.0,0.0,0.0,866.89415985241,129.07068849829832,-1153.9001315239605,-159.9607170854508,0.0,0.0,0.0,0.0,0.0,0.0,0.0,-7.0,20.663874759518617,0.0,20.321718896056122,0.0,-7.0,20.73,19.07,21.58,20.27,21.2,-7.43,-7.0,0.0,-821.41,-958.44,0.0,194.0,71.0,540.0,0.0,0.0,0.0,0.0,0.0,0.0,0.0,0.0,0.0,0.0,0.0,0.0,0.0,0.0
407.0,1924.0,0.0,0.0,-0.0,0.0,1924.0,0.0,28273.30942068081,0.0,28273.309420680805,0.0,0.0,0.022023809523809522,0.1964662065576,0.6075801749271137,0.0,0.0,0.0,"[1.532898409885707, 2.0, 0.9282442328058416, 0.8249755438890745, 1.315638913346735, 0.5643751699958166, 2.0, 1.1059661516478876]",20.56,0.0,0.0,0.0,483.17654558618773,120.2438745163764,-1159.3999890349714,-15.772063913242283,6476.746728275016,0.0,0.0,0.0,0.0,0.0,0.0,-7.3,20.56876624509672,0.0,20.269678215277306,0.0,-7.3,20.56,19.06,21.48,20.17,21.08,-7.74,-7.3,0.0,-825.32,-963.01,0.0,303.0,15.0,201.0,0.0,0.0,0.0,0.0,0.0,0.0,0.0,0.0,0.0,0.0,0.0,0.0,0.0,0.0
408.0,3286.0,16363.780374124044,12995.961472253424,-0.0,0.0,0.0,0.0,23846.837788269735,0.0,0.0,0.0,23846.83778826974,0.022023809523809522,0.1964662065576,0.6075801749271137,0.0,0.0,0.0,"[1.532898409885707, 2.0, 0.9282442328058416, 0.8249755438890745, 1.315638913346735, 0.5643751699958166, 2.0, 1.1059661516478876]",23.53,0.0,0.0,0.0,554.1182974457674,128.83026944042496,-1295.3790514907625,-3912.531040516791,4540.1089754545765,0.0,0.0,0.0,0.0,0.0,0.0,-7.6,21.57484793590213,0.0,20.40967366815679,0.0,-7.6,23.53,19.15,21.67,22.56,22.78,-8.01,-7.6,7570.41,-922.12,-1075.95,0.0,320.0,17.0,245.0,0.0,0.0,0.0,0.0,0.0,0.0,0.0,0.0,0.0,0.0,0.0,0.0,0.0,0.0
409.0,1256.0,2750.378049591794,1480.6261593438346,-0.0,0.0,0.0,0.0,2688.632855572871,0.0,0.0,0.0,2688.632855572871,0.022023809523809522,0.1964662065576,0.6075801749271137,0.0,0.0,0.0,"[1.532898409885707, 2.0, 0.9282442328058416, 0.8249755438890745, 1.315638913346735, 0.5643751699958166, 2.0, 1.1059661516478876]",23.53,0.0,0.0,0.0,418.7670540463514,122.88848415298334,-1303.7006605773067,-3669.154174849884,0.0,0.0,0.0,0.0,0.0,0.0,0.0,-7.8,21.697558137520833,0.0,20.57104615557894,0.0,-7.8,23.53,19.25,21.89,22.36,22.74,-8.21,-7.8,0.0,-928.04,-1082.86,0.0,320.0,13.0,144.0,0.0,0.0,0.0,0.0,0.0,0.0,0.0,0.0,0.0,0.0,0.0,0.0,0.0,0.0
410.0,518.0,0.0,0.0,-0.0,0.0,518.0,0.0,17656.03978689904,0.0,17656.03978689904,0.0,0.0,0.0,0.12139801018472991,0.6075801749271137,0.0,0.0,0.0,"[1.532898409885707, 2.0, 0.9282442328058416, 0.8249755438890745, 1.315638913346735, 0.5643751699958166, 2.0, 1.1059661516478876]",21.29,0.0,0.0,0.0,254.1259982455047,110.66145778113815,-1222.9839646534951,-560.3490776350104,5877.204937412903,0.0,0.0,0.0,0.0,0.0,0.0,-8.1,21.023170913197124,0.0,20.581883390420174,0.0,-8.1,21.29,19.28,21.89,20.65,21.58,-8.49,-8.1,0.0,-870.58,-1015.82,0.0,320.0,0.0,22.0,0.0,0.0,0.0,0.0,0.0,0.0,0.0,0.0,0.0,0.0,0.0,0.0,0.0,0.0
411.0,879.0,883.4170854271357,0.0,-0.0,0.0,0.0,0.0,4342.809865362549,0.0,4342.809865362549,0.0,0.0,0.0,0.10293368252587554,0.6075801749271137,0.0,0.0,0.0,"[1.532898409885707, 2.0, 0.9282442328058416, 0.8249755438890745, 1.315638913346735, 0.5643751699958166, 2.0, 1.1059661516478876]",23.53,0.0,0.0,0.0,391.5844223932252,114.19905248984618,-1316.1830742071224,-3473.866562784411,0.0,0.0,0.0,0.0,0.0,0.0,0.0,-8.1,21.796074010584984,0.0,20.70669815333778,0.0,-8.1,23.53,19.36,22.05,22.61,22.97,-8.49,-8.1,7377.52,-936.93,-1093.23,0.0,320.0,0.0,125.0,0.0,0.0,0.0,0.0,0.0,0.0,0.0,0.0,0.0,0.0,0.0,0.0,0.0,0.0
412.0,1807.0,20015.992367994582,13775.545094503956,-0.0,0.0,-4333.367311650654,0.0,24489.369660756416,0.0,0.0,0.0,24489.369660756416,0.17694583189240173,0.10293368252587554,0.6075801749271137,0.0,0.0,0.0,"[1.532898409885707, 2.0, 0.9282442328058416, 0.8249755438890745, 1.315638913346735, 0.5643751699958166, 2.0, 1.1059661516478876]",21.37,0.0,0.0,0.0,382.24258774240917,113.95863343197281,-1230.246511889711,-477.9655154145989,5523.103017975391,0.0,0.0,0.0,0.0,0.0,0.0,-8.2,21.139297973411846,0.0,20.711270497312327,0.0,-8.2,21.37,19.39,22.03,20.75,21.7,-8.59,-8.2,0.0,-875.75,-1021.85,0.0,320.0,0.0,118.0,0.0,0.0,0.0,0.0,0.0,0.0,0.0,0.0,0.0,0.0,0.0,0.0,0.0,0.0
413.0,1565.0,5452.100022958878,3859.8395228440845,-0.0,0.0,0.0,0.0,6825.0030797440495,0.0,0.0,0.0,6825.0030797440495,0.17694583189240173,0.10293368252587554,0.6075801749271137,0.0,0.0,0.0,"[1.532898409885707, 2.0, 0.9282442328058416, 0.8249755438890745, 1.315638913346735, 0.5643751699958166, 2.0, 1.1059661516478876]",23.53,0.0,0.0,0.0,443.6317868763426,115.53853009799775,-1324.5046832936662,-3306.1375088182244,0.0,0.0,0.0,0.0,0.0,0.0,0.0,-8.3,21.88066435147236,0.0,20.824800776356255,0.0,-8.3,23.53,19.47,22.18,22.62,23.02,-8.69,-8.3,0.0,-942.85,-1100.14,0.0,320.0,0.0,164.0,0.0,0.0,0.0,0.0,0.0,0.0,0.0,0.0,0.0,0.0,0.0,0.0,0.0,0.0
414.0,2398.0,6324.26589142358,823.4139186643332,-0.0,0.0,-3071.2306433021295,0.0,1455.9679223781031,0.0,0.0,0.0,1455.9679223781031,0.2003986341809802,0.09674334271984619,0.6075801749271137,0.0,0.0,0.0,"[1.1094545589318088, 1.3010782229324995, 0.9282442328058416, 0.824975543889078, 1.315638913346735, 0.5643751699958166, 0.7051036819071115, 1.0537445329047053]",21.47,0.0,0.0,0.0,411.0407246359021,150.0214921129769,-1238.8650601435593,-463.84917373156696,0.0,0.0,0.0,0.0,0.0,0.0,0.0,-8.3,21.253632332697116,0.0,20.825917355439017,0.0,-8.3,21.47,19.49,22.16,20.86,21.82,-8.69,-8.3,0.0,-881.89,-1029.01,0.0,404.0,13.0,94.0,0.0,0.0,0.0,0.0,0.0,0.0,0.0,0.0,0.0,0.0,0.0,0.0,0.0,0.0
415.0,944.0,10459.195210575179,0.0,-0.0,0.0,0.0,0.0,8516.609311070068,0.0,0.0,0.0,0.0,0.2003986341809802,0.09674334271984619,0.6075801749271137,37851.59693808921,9462.899234522303,47314.496172611514,"[1.1094545589318088, 1.3010782229324995, 0.9282442328058416, 0.824975543889078, 1.315638913346735, 0.5643751699958166, 0.7051036819071115, 1.0537445329047053]",20.89,0.0,0.0,0.0,363.8398758738846,194.39598108046002,-1214.561540917826,249.11844655292336,430.0636940583794,0.0,0.0,0.0,0.0,0.0,0.0,-8.3,21.02850748751217,0.0,20.769266087434296,0.0,-8.3,20.89,19.48,22.05,20.58,21.57,-8.69,-8.3,2841.41,-864.59,-1008.82,0.0,444.0,66.0,32.0,0.0,0.0,0.0,0.0,0.0,0.0,0.0,0.0,0.0,0.0,0.0,0.0,0.0,0.0
416.0,1533.0,0.0,3180.3758759366547,-0.0,0.0,4713.375875936655,0.0,20242.499114433187,0.0,14558.290788891847,0.0,5684.20832554134,0.0,0.03484584786911555,0.6075801749271137,0.0,0.0,0.0,"[1.1094545589318088, 1.3010782229324995, 0.9282442328058416, 0.824975543889078, 1.315638913346735, 0.5643751699958166, 0.7051036819071115, 1.0537445329047053]",20.89,0.0,0.0,1.7131820630930144,357.8695304203556,138.2409582771822,-1206.239931831282,156.56848999039786,4972.0663159617325,0.0,0.0,0.0,0.0,0.0,0.0,-8.1,20.981790460100093,0.0,20.713755345274215,0.0,-8.1,20.89,19.48,21.95,20.64,21.56,-8.48,-8.1,0.0,-858.66,-1001.91,2.49,321.0,40.0,95.0,0.0,0.0,0.0,0.0,0.0,0.0,0.0,0.0,0.0,0.0,0.0,0.0,0.0,0.0
417.0,4335.0,12889.24212901241,0.0,-0.0,0.0,-8489.795918367347,0.0,8195.743418815977,0.0,8195.743418815977,0.0,0.0,0.3466666666666667,0.0,0.6075801749271137,0.0,0.0,0.0,"[1.1094545589318088, 1.3010782229324995, 0.9282442328058416, 0.824975543889078, 1.315638913346735, 0.5643751699958166, 0.7051036819071115, 1.0537445329047053]",23.11,0.0,0.0,10.326600375507399,529.7452401237139,142.1220087828522,-1281.9211850453391,-2786.6641987159933,0.0,0.0,0.0,0.0,0.0,0.0,0.0,-7.7,21.718532732144794,0.0,20.799567748408826,0.0,-7.7,23.11,19.54,22.06,22.36,22.77,-8.1,-7.7,4117.61,-912.54,-1064.77,15.03,342.0,28.0,214.0,0.0,0.0,0.0,0.0,0.0,0.0,0.0,0.0,0.0,0.0,0.0,0.0,0.0,0.0
418.0,3176.0,23137.514654513463,3846.3096365462256,-0.0,0.48255530532968605,-16000.0,0.0,7131.091864045253,0.0,0.0,0.0,7131.091864045251,1.0,0.0,0.6075801749271137,0.0,0.0,0.0,"[1.1094545589318088, 1.3010782229324995, 0.9282442328058416, 0.824975543889078, 1.315638913346735, 0.5643751699958166, 0.7051036819071115, 1.0537445329047053]",21.39,0.0,0.0,15.374858014799617,330.19522325929177,61.10078627952974,-1198.0910298012702,-425.1990320749296,4627.463093076521,0.0,0.0,0.0,0.0,0.0,0.0,-7.4,21.192749455978742,0.0,20.796067084221704,0.0,-7.4,21.39,19.55,22.04,20.84,21.73,-7.81,-7.4,0.0,-852.86,-995.14,22.38,122.0,21.0,181.0,0.0,0.0,0.0,0.0,0.0,0.0,0.0,0.0,0.0,0.0,0.0,0.0,0.0,0.0
419.0,4799.0,9321.051307116399,4477.381460061034,-0.0,1.9354094802164903,0.0,0.0,8386.473073156278,0.0,0.0,0.0,8386.473073156278,1.0,0.0,0.6075801749271137,0.0,0.0,0.0,"[1.1094545589318088, 1.3010782229324995, 0.9282442328058416, 0.824975543889078, 1.315638913346735, 0.5643751699958166, 0.7051036819071115, 1.0537445329047053]",23.11,0.0,0.0,18.72590269333542,329.7737871096309,59.24612497593523,-1261.1171623289795,-2673.514613588693,1412.9236430598694,0.0,0.0,0.0,0.0,0.0,0.0,-7.2,21.77533873843552,0.0,20.880428557864064,0.0,-7.2,23.11,19.61,22.15,22.32,22.78,-7.62,-7.2,0.0,-897.73,-1047.49,27.26,156.0,0.0,165.0,0.0,0.0,0.0,0.0,0.0,0.0,0.0,0.0,0.0,0.0,0.0,0.0,0.0,0.0
420.0,2526.0,0.0,8312.829637894276,-0.0,4.724144986538219,10834.105492907738,0.0,15808.302974507167,0.0,0.0,0.0,15808.302974507169,0.5393662630566438,0.0,0.6075801749271137,0.0,0.0,0.0,"[1.1094545589318088, 1.3010782229324995, 0.9282442328058416, 0.824975543889078, 1.315638913346735, 0.5643751699958166, 0.7051036819071115, 1.0537445329047053]",22.04,0.0,0.0,22.238514492504937,50.71281667585804,1.3051320284553818,-1204.1628251653003,-1152.0498155643638,0.0,0.0,0.0,0.0,0.0,0.0,0.0,-6.9,21.472518987981257,0.0,20.911849448342736,0.0,-6.9,22.04,19.65,22.17,21.37,22.15,-7.32,-6.9,0.0,-857.19,-1000.19,32.37,0.0,0.0,38.0,0.0,0.0,0.0,0.0,0.0,0.0,0.0,0.0,0.0,0.0,0.0,0.0,0.0,0.0
421.0,1689.0,310.05547209663257,3711.8705326729482,-0.0,5092.365337936799,0.0,0.0,7837.2734088764455,0.0,0.0,0.0,7837.273408876445,0.5393662630566438,0.0,0.6075801749271137,0.0,0.0,0.0,"[1.1094545589318088, 1.3010782229324995, 0.9282442328058416, 0.824975543889078, 1.315638913346735, 0.5643751699958166, 0.7051036819071115, 1.0537445329047053]",20.89,0.0,0.0,939.9608886126556,1477.2741832779031,74.46121678134932,-1064.772577360036,355.2470261202292,681.9749827283684,0.0,0.0,0.0,0.0,0.0,0.0,-4.7,21.080356260480674,0.0,20.860494922117645,0.0,-4.7,20.89,19.64,22.08,20.58,21.57,-4.83,-4.7,0.0,-757.96,-884.41,1368.39,112.0,0.0,1048.0,0.0,0.0,0.0,0.0,0.0,0.0,0.0,0.0,0.0,0.0,0.0,0.0,0.0,0.0
422.0,1462.0,6198.304688100001,8560.23276031624,-0.0,3854.9195956567382,0.0,0.0,18890.217816855424,0.0,0.0,0.0,18890.217816855424,0.5393662630566438,0.0,0.6075801749271137,0.0,0.0,0.0,"[1.1094545589318088, 1.3010782229324995, 0.9282442328058416, 0.824975543889078, 1.315638913346735, 0.5643751699958166, 0.7051036819071115, 1.0537445329047053]",22.12,0.0,0.0,907.2081315361451,620.1432942259705,98.60615930777396,-1074.2117618249986,-1314.95388898399,2763.4477284774157,0.0,0.0,0.0,0.0,0.0,0.0,-3.7,21.465807844574613,0.0,20.882566352308885,0.0,-3.7,22.12,19.68,22.09,21.64,22.29,-3.88,-3.7,0.0,-764.68,-892.25,1320.71,254.0,0.0,331.0,0.0,0.0,0.0,0.0,0.0,0.0,0.0,0.0,0.0,0.0,0.0,0.0,0.0,0.0
423.0,726.0,47191.4806475192,46697.08048679564,-0.0,467.5572425140369,0.0,0.0,23493.546318200468,0.0,-80000.0,0.0,103493.54631820048,0.5393662630566438,0.3266666666666667,0.6075801749271137,0.0,0.0,0.0,"[1.1094545589318088, 1.3010782229324995, 0.9282442328058416, 0.824975543889078, 1.315638913346735, 0.5643751699958166, 0.7051036819071115, 1.0537445329047053]",23.11,0.0,0.0,513.2029092400459,226.52193044271772,45.851348894419445,-1111.3281987711896,-2525.645335948247,2867.932041909296,0.0,0.0,0.0,0.0,0.0,0.0,-3.6,21.848324770843217,0.0,20.992263365350574,0.0,-3.6,23.11,19.75,22.23,22.46,22.9,-4.01,-3.6,0.0,-791.1,-923.08,747.12,123.0,0.0,105.0,0.0,0.0,0.0,0.0,0.0,0.0,0.0,0.0,0.0,0.0,0.0,0.0,0.0,0.0
424.0,1017.0,0.0,0.0,-0.0,0.0,1017.0,0.0,8267.460314847944,0.0,8267.460314847944,0.0,0.0,0.49612646713827646,0.29151590002190503,0.6075801749271137,0.0,0.0,0.0,"[1.1094545589318088, 1.3010782229324995, 0.9282442328058416, 0.824975543889078, 1.315638913346735, 0.5643751699958166, 0.7051036819071115, 1.0537445329047053]",23.11,0.0,0.0,0.8585842817658307,125.4474938823857,3.228484491442264,-1144.614635117365,-2370.1811329919697,0.0,0.0,0.0,0.0,0.0,0.0,0.0,-4.4,21.92713856118508,0.0,21.09847889014125,0.0,-4.4,23.11,19.83,22.36,22.36,22.88,-5.16,-4.4,0.0,-814.8,-950.73,1.25,0.0,0.0,94.0,0.0,0.0,0.0,0.0,0.0,0.0,0.0,0.0,0.0,0.0,0.0,0.0,0.0,0.0
425.0,4547.0,13130.695168826633,0.0,-0.0,0.0,0.0,0.0,7666.237523684245,0.0,0.0,0.0,0.0,0.49612646713827646,0.29151590002190503,0.6075801749271137,34072.166771929995,8518.041692982499,42590.20846491249,"[1.1094545589318088, 1.3010782229324995, 0.9282442328058416, 0.824975543889078, 1.315638913346735, 0.5643751699958166, 0.7051036819071115, 1.0537445329047053]",21.4,0.0,0.0,0.0,96.0874421226784,2.472881738125992,-1098.602084937943,-51.4828363267253,2104.959737884006,0.0,0.0,0.0,0.0,0.0,0.0,-5.0,21.389076398461174,0.0,21.076888784838733,0.0,-5.0,21.4,19.85,22.31,20.93,21.88,-5.73,-5.0,0.0,-782.04,-912.51,0.0,0.0,0.0,72.0,0.0,0.0,0.0,0.0,0.0,0.0,0.0,0.0,0.0,0.0,0.0,0.0,0.0,0.0
426.0,3172.0,6324.26589142358,823.4139186643332,-0.0,0.0,-3071.2306433021295,0.0,5061.631350888066,0.0,0.0,0.0,1455.9679223781031,0.2003986341809802,0.09674334271984619,0.6075801749271137,0.0,0.0,0.0,"[1.1094545589318088, 1.3010782229324995, 0.9282442328058416, 0.824975543889078, 1.315638913346735, 0.5643751699958166, 0.7051036819071115, 1.0537445329047053]",21.93,0.0,0.0,0.0,267.96315182603655,57.87230178808747,-1141.4843550085463,-802.3923429520785,0.0,0.0,0.0,0.0,0.0,0.0,0.0,-5.5,21.541786269272933,0.0,21.07105670809554,0.0,-5.5,21.93,19.86,22.28,21.49,22.23,-6.22,-5.5,2522.75,-812.57,-948.13,0.0,117.0,21.0,137.0,0.0,0.0,0.0,0.0,0.0,0.0,0.0,0.0,0.0,0.0,0.0,0.0,0.0,0.0
427.0,4231.0,10459.195210575179,0.0,-0.0,0.0,0.0,0.0,8516.609311070068,0.0,0.0,0.0,0.0,0.2003986341809802,0.09674334271984619,0.6075801749271137,37851.59693808921,9462.899234522303,47314.496172611514,"[1.1094545589318088, 1.3010782229324995, 0.9282442328058416, 0.824975543889078, 1.315638913346735, 0.5643751699958166, 0.7051036819071115, 1.0537445329047053]",20.89,0.0,0.0,0.0,766.7328349496765,167.0568996422893,-1123.0238409658434,250.67415137800452,430.0636940583794,0.0,0.0,0.0,0.0,0.0,0.0,-6.1,21.02850748751217,0.0,20.769266087434296,0.0,-6.1,20.89,19.48,22.05,20.58,21.57,-6.82,-6.1,2841.41,-799.43,-932.79,0.0,330.0,65.0,394.0,0.0,0.0,0.0,0.0,0.0,0.0,0.0,0.0,0.0,0.0,0.0,0.0,0.0,0.0
428.0,4814.0,0.0,3180.3758759366547,-0.0,0.0,4713.375875936655,0.0,20242.499114433187,0.0,14558.290788891847,0.0,5684.20832554134,0.0,0.03484584786911555,0.6075801749271137,0.0,0.0,0.0,"[1.1094545589318088, 1.3010782229324995, 0.9282442328058416, 0.824975543889078, 1.315638913346735, 0.5643751699958166, 0.7051036819071115, 1.0537445329047053]",20.89,0.0,0.0,0.0,1309.542595712877,277.3749016264655,-1147.9886682254748,157.47475951622596,4972.0663159617325,0.0,0.0,0.0,0.0,0.0,0.0,-6.7,20.981790460100093,0.0,20.713755345274215,0.0,-6.7,20.89,19.48,21.95,20.64,21.56,-7.4,-6.7,0.0,-817.2,-953.53,0.0,628.0,64.0,644.0,0.0,0.0,0.0,0.0,0.0,0.0,0.0,0.0,0.0,0.0,0.0,0.0,0.0,0.0
429.0,4730.0,12889.24212901241,0.0,-0.0,0.0,-8489.795918367347,0.0,8195.743418815977,0.0,8195.743418815977,0.0,0.0,0.3466666666666667,0.0,0.6075801749271137,0.0,0.0,0.0,"[1.1094545589318088, 1.3010782229324995, 0.9282442328058416, 0.824975543889078, 1.315638913346735, 0.5643751699958166, 0.7051036819071115, 1.0537445329047053]",23.11,0.0,0.0,0.0,1039.0508269888755,226.921245052756,-1261.1171623289795,-2786.483218082244,0.0,0.0,0.0,0.0,0.0,0.0,0.0,-7.2,21.718532732144794,0.0,20.799567748408826,0.0,-7.2,23.11,19.54,22.06,22.36,22.77,-7.89,-7.2,4117.61,-897.73,-1047.49,0.0,568.0,25.0,477.0,0.0,0.0,0.0,0.0,0.0,0.0,0.0,0.0,0.0,0.0,0.0,0.0,0.0,0.0
430.0,2911.0,23137.514654513463,3846.3096365462256,-0.0,0.0,-16000.0,0.0,7131.091864045253,0.0,0.0,0.0,7131.091864045251,1.0,0.0,0.6075801749271137,0.0,0.0,0.0,"[1.1094545589318088, 1.3010782229324995, 0.9282442328058416, 0.824975543889078, 1.315638913346735, 0.5643751699958166, 0.7051036819071115, 1.0537445329047053]",21.39,0.0,0.0,0.0,530.7988304978661,142.980648275257,-1214.7342479743581,-425.7400581284173,4627.463093076521,0.0,0.0,0.0,0.0,0.0,0.0,-7.8,21.192749455978742,0.0,20.796067084221704,0.0,-7.8,21.39,19.55,22.04,20.84,21.73,-8.46,-7.8,0.0,-864.71,-1008.97,0.0,388.0,5.0,193.0,0.0,0.0,0.0,0.0,0.0,0.0,0.0,0.0,0.0,0.0,0.0,0.0,0.0,0.0
431.0,3195.0,9321.051307116399,4477.381460061034,-0.0,0.0,0.0,0.0,8386.473073156278,0.0,0.0,0.0,8386.473073156278,1.0,0.0,0.6075801749271137,0.0,0.0,0.0,"[1.1094545589318088, 1.3010782229324995, 0.9282442328058416, 0.824975543889078, 1.315638913346735, 0.5643751699958166, 0.7051036819071115, 1.0537445329047053]",23.11,0.0,0.0,0.0,447.4949515815673,212.5647927397468,-1311.0468168482428,-2674.6759164257383,1412.9236430598694,0.0,0.0,0.0,0.0,0.0,0.0,-8.4,21.77533873843552,0.0,20.880428557864064,0.0,-8.4,23.11,19.61,22.15,22.32,22.78,-9.01,-8.4,0.0,-933.27,-1088.97,0.0,616.0,1.0,11.0,0.0,0.0,0.0,0.0,0.0,0.0,0.0,0.0,0.0,0.0,0.0,0.0,0.0,0.0
432.0,1134.0,0.0,8312.829637894276,-0.0,0.0,10834.105492907738,0.0,15808.302974507167,0.0,0.0,0.0,15808.302974507169,0.5393662630566438,0.0,0.6075801749271137,0.0,0.0,0.0,"[1.1094545589318088, 1.3010782229324995, 0.9282442328058416, 0.824975543889078, 1.315638913346735, 0.5643751699958166, 0.7051036819071115, 1.0537445329047053]",22.04,0.0,0.0,0.0,443.77226559289636,127.83424762923532,-1295.700525117283,-1154.0525611481778,0.0,0.0,0.0,0.0,0.0,0.0,0.0,-9.1,21.472518987981257,0.0,20.911849448342736,0.0,-9.1,22.04,19.65,22.17,21.37,22.15,-9.72,-9.1,0.0,-922.35,-1076.22,0.0,320.0,20.0,162.0,0.0,0.0,0.0,0.0,0.0,0.0,0.0,0.0,0.0,0.0,0.0,0.0,0.0,0.0
433.0,1588.0,310.05547209663257,3711.8705326729482,-0.0,0.0,0.0,0.0,7837.2734088764455,0.0,0.0,0.0,7837.273408876445,0.5393662630566438,0.0,0.6075801749271137,0.0,0.0,0.0,"[1.1094545589318088, 1.3010782229324995, 0.9282442328058416, 0.824975543889078, 1.315638913346735, 0.5643751699958166, 0.7051036819071115, 1.0537445329047053]",20.89,0.0,0.0,0.0,429.2327184295963,116.39716959040261,-1281.134413610177,350.5052645305536,681.9749827283684,0.0,0.0,0.0,0.0,0.0,0.0,-9.9,21.080356260480674,0.0,20.860494922117645,0.0,-9.9,20.89,19.64,22.08,20.58,21.57,-10.5,-9.9,0.0,-911.98,-1064.12,0.0,320.0,2.0,153.0,0.0,0.0,0.0,0.0,0.0,0.0,0.0,0.0,0.0,0.0,0.0,0.0,0.0,0.0
434.0,677.0,6198.304688100001,8560.23276031624,-0.0,0.0,0.0,0.0,18890.217816855424,0.0,0.0,0.0,18890.217816855424,0.5393662630566438,0.0,0.6075801749271137,0.0,0.0,0.0,"[1.1094545589318088, 1.3010782229324995, 0.9282442328058416, 0.824975543889078, 1.315638913346735, 0.5643751699958166, 0.7051036819071115, 1.0537445329047053]",22.12,0.0,0.0,0.0,224.76594648579743,109.90585502782189,-1365.4680798540346,-1321.1224186776492,2763.4477284774157,0.0,0.0,0.0,0.0,0.0,0.0,-10.7,21.465807844574613,0.0,20.882566352308885,0.0,-10.7,22.12,19.68,22.09,21.64,22.29,-11.27,-10.7,0.0,-972.01,-1134.17,0.0,320.0,0.0,0.0,0.0,0.0,0.0,0.0,0.0,0.0,0.0,0.0,0.0,0.0,0.0,0.0,0.0,0.0
435.0,510.0,47191.4806475192,46697.08048679564,-0.0,0.0,0.0,0.0,23493.546318200468,0.0,-80000.0,0.0,103493.54631820048,0.5393662630566438,0.3266666666666667,0.6075801749271137,0.0,0.0,0.0,"[1.1094545589318088, 1.3010782229324995, 0.9282442328058416, 0.824975543889078, 1.315638913346735, 0.5643751699958166, 0.7051036819071115, 1.0537445329047053]",23.11,0.0,0.0,0.0,414.27173511663534,114.78292734468148,-1427.549344059857,-2532.1263498781277,2867.932041909296,0.0,0.0,0.0,0.0,0.0,0.0,-11.2,21.848324770843217,0.0,20.992263365350574,0.0,-11.2,23.11,19.75,22.23,22.46,22.9,-11.77,-11.2,0.0,-1016.2,-1185.73,0.0,320.0,0.0,142.0,0.0,0.0,0.0,0.0,0.0,0.0,0.0,0.0,0.0,0.0,0.0,0.0,0.0,0.0
436.0,443.0,0.0,0.0,-0.0,0.0,1017.0,0.0,8267.460314847944,0.0,8267.460314847944,0.0,0.0,0.49612646713827646,0.29151590002190503,0.6075801749271137,0.0,0.0,0.0,"[1.1094545589318088, 1.3010782229324995, 0.9282442328058416, 0.824975543889078, 1.315638913346735, 0.5643751699958166, 0.7051036819071115, 1.0537445329047053]",23.11,0.0,0.0,0.0,224.76594648579743,109.90585502782189,-1444.192562232945,-2376.0323621408506,0.0,0.0,0.0,0.0,0.0,0.0,0.0,-11.6,21.92713856118508,0.0,21.09847889014125,0.0,-11.6,23.11,19.83,22.36,22.36,22.88,-12.17,-11.6,0.0,-1028.05,-1199.56,0.0,320.0,0.0,0.0,0.0,0.0,0.0,0.0,0.0,0.0,0.0,0.0,0.0,0.0,0.0,0.0,0.0,0.0
437.0,771.0,13130.695168826633,0.0,-0.0,0.0,0.0,0.0,7666.237523684245,0.0,0.0,0.0,0.0,0.49612646713827646,0.29151590002190503,0.6075801749271137,34072.166771929995,8518.041692982499,42590.20846491249,"[1.1094545589318088, 1.3010782229324995, 0.9282442328058416, 0.824975543889078, 1.315638913346735, 0.5643751699958166, 0.7051036819071115, 1.0537445329047053]",21.4,0.0,0.0,0.0,331.67024978310485,124.94921893475504,-1389.858402966979,-57.16324337542642,2104.959737884006,0.0,0.0,0.0,0.0,0.0,0.0,-12.0,21.389076398461174,0.0,21.076888784838733,0.0,-12.0,21.4,19.85,22.31,20.93,21.88,-12.54,-12.0,0.0,-989.37,-1154.43,0.0,320.0,20.0,78.0,0.0,0.0,0.0,0.0,0.0,0.0,0.0,0.0,0.0,0.0,0.0,0.0,0.0,0.0
438.0,684.0,687.4371859296482,0.0,-0.0,0.0,0.0,0.0,5061.631350888066,0.0,5061.631350888066,0.0,0.0,0.49612646713827646,0.24847481710619024,0.6075801749271137,0.0,0.0,0.0,"[0.8391619449132328, 1.2123403871089913, 0.6926646148912532, 0.5625319858249966, 0.7136061092957995, 0.6455424225416024, 0.7051036819071115, 0.7043667814830101]",21.93,0.0,0.0,0.0,509.09486879033125,218.16312223022646,-1428.5798684943104,-807.9826851464354,0.0,0.0,0.0,0.0,0.0,0.0,0.0,-12.4,21.541786269272933,0.0,21.07105670809554,0.0,-12.4,21.93,19.86,22.28,21.49,22.23,-12.92,-12.4,2522.75,-1016.94,-1186.59,0.0,600.0,16.0,64.0,0.0,0.0,0.0,0.0,0.0,0.0,0.0,0.0,0.0,0.0,0.0,0.0,0.0,0.0
439.0,766.0,0.0,0.0,-0.0,0.0,5620.170400688499,0.0,15700.462022216452,0.0,11331.708661596804,0.0,0.0,0.25717364397975184,0.20029578368103376,0.6075801749271137,19416.681602753997,4854.170400688499,24270.852003442495,"[0.8391619449132328, 1.2123403871089913, 0.6926646148912532, 0.5625319858249966, 0.7136061092957995, 0.6455424225416024, 0.7051036819071115, 0.7043667814830101]",21.16,0.0,0.0,0.0,316.2175909622062,99.53348995957118,-1408.8832881860048,181.32064364866076,4154.5280567493555,0.0,0.0,0.0,0.0,0.0,0.0,-12.7,21.2666611986561,0.0,21.0203152835424,0.0,-12.7,21.16,19.84,22.2,20.9,21.79,-13.22,-12.7,1539.53,-1002.92,-1170.23,0.0,279.0,1.0,90.0,0.0,0.0,0.0,0.0,0.0,0.0,0.0,0.0,0.0,0.0,0.0,0.0,0.0,0.0
440.0,1289.0,0.0,4759.724106403764,-0.0,0.0,6048.724106403764,0.0,6419.647055177624,0.0,0.0,0.0,6419.647055177625,0.0,0.20029578368103376,0.6075801749271137,0.0,0.0,0.0,"[0.8391619449132328, 1.2123403871089913, 0.6926646148912532, 0.5625319858249966, 0.7136061092957995, 0.6455424225416024, 0.7051036819071115, 0.7043667814830101]",22.84,0.0,0.0,1.712304240976557,544.0740692121834,117.94272067673137,-1478.715064844723,-2068.1742765239073,0.0,0.0,0.0,0.0,0.0,0.0,0.0,-12.7,21.812282231096034,0.0,21.068264922602076,0.0,-12.7,22.84,19.87,22.26,22.25,22.74,-13.2,-12.7,1874.01,-1052.63,-1228.23,2.49,242.0,41.0,276.0,0.0,0.0,0.0,0.0,0.0,0.0,0.0,0.0,0.0,0.0,0.0,0.0,0.0,0.0
441.0,1568.0,6208.026230450944,0.0,-0.0,0.0,-4608.98609929869,0.0,9719.745789134435,0.0,9719.745789134433,0.0,0.0,0.18820026572136317,0.15897033389729892,0.6075801749271137,0.0,0.0,0.0,"[0.8391619449132328, 1.2123403871089913, 0.6926646148912532, 0.5625319858249966, 0.7136061092957995, 0.6455424225416024, 0.7051036819071115, 0.7043667814830101]",21.38,0.0,0.0,10.319600899157754,368.6161522367078,92.45830054215516,-1405.4982324020702,-95.48627591432697,606.7365752851374,0.0,0.0,0.0,0.0,0.0,0.0,-12.4,21.345799069462064,0.0,21.03852754325907,0.0,-12.4,21.38,19.86,22.22,20.96,21.85,-12.91,-12.4,1880.78,-1000.51,-1167.42,15.02,170.0,45.0,182.0,0.0,0.0,0.0,0.0,0.0,0.0,0.0,0.0,0.0,0.0,0.0,0.0,0.0,0.0
442.0,4427.0,0.0,0.0,-0.0,0.5297502335380369,4426.470249766462,0.0,17086.679642871146,0.0,17086.679642871146,0.0,0.0,0.0,0.08632288643611208,0.6075801749271137,0.0,0.0,0.0,"[0.8391619449132328, 1.2123403871089913, 0.6926646148912532, 0.5625319858249966, 0.7136061092957995, 0.6455424225416024, 0.7051036819071115, 0.7043667814830101]",21.16,0.0,0.0,15.366188696378819,611.5740925161995,69.1376519284392,-1392.2400700129172,120.50225456047164,3915.136190208829,0.0,0.0,0.0,0.0,0.0,0.0,-12.3,21.235840838862686,0.0,20.983513470052102,0.0,-12.3,21.16,19.84,22.13,20.92,21.77,-12.8,-12.3,2639.93,-991.07,-1156.41,22.37,132.0,17.0,387.0,0.0,0.0,0.0,0.0,0.0,0.0,0.0,0.0,0.0,0.0,0.0,0.0,0.0,0.0
443.0,3410.0,11122.637301233988,7662.028786100559,-0.0,5.00467137274203,0.0,0.0,10772.378521699598,0.0,0.0,0.0,10772.378521699597,0.0,0.08632288643611208,0.6075801749271137,0.0,0.0,0.0,"[0.8391619449132328, 1.2123403871089913, 0.6926646148912532, 0.5625319858249966, 0.7136061092957995, 0.6455424225416024, 0.7051036819071115, 0.7043667814830101]",22.84,0.0,0.0,22.28924832072807,483.38726366101804,73.43084939046351,-1453.750237585091,-2129.8804805584214,5.526630159455059,0.0,0.0,0.0,0.0,0.0,0.0,-12.1,21.780937525480926,0.0,21.030565935362304,0.0,-12.1,22.84,19.86,22.2,22.2,22.67,-12.6,-12.1,1617.62,-1034.85,-1207.5,32.45,178.0,5.0,268.0,0.0,0.0,0.0,0.0,0.0,0.0,0.0,0.0,0.0,0.0,0.0,0.0,0.0,0.0
444.0,3466.0,6475.003063993562,2985.1127813148314,-0.0,8.484732641236675,0.0,0.0,4225.357500013099,0.0,0.0,0.0,4225.357500013099,0.0,0.08632288643611208,0.6075801749271137,0.0,0.0,0.0,"[0.8391619449132328, 1.2123403871089913, 0.6926646148912532, 0.5625319858249966, 0.7136061092957995, 0.6455424225416024, 0.7051036819071115, 0.7043667814830101]",21.32,0.0,0.0,24.937367039261392,450.72596206230065,94.89683670058497,-1386.526954314208,-78.33144075309339,3914.1118603270957,0.0,0.0,0.0,0.0,0.0,0.0,-12.0,21.298305879961795,0.0,21.001728688221036,0.0,-12.0,21.32,19.85,22.15,20.91,21.78,-12.53,-12.0,1799.01,-987.0,-1151.66,36.3,256.0,0.0,203.0,0.0,0.0,0.0,0.0,0.0,0.0,0.0,0.0,0.0,0.0,0.0,0.0,0.0,0.0
445.0,4738.0,44086.704277845434,28886.687315746793,-0.0,5758.416559290584,-16000.0,0.0,12621.826881539017,0.0,-32672.775577197586,0.0,45294.602458736605,0.6533333333333333,0.21973672004300224,0.6075801749271137,0.0,0.0,0.0,"[0.8391619449132328, 1.2123403871089913, 0.6926646148912532, 0.5625319858249966, 0.7136061092957995, 0.6455424225416024, 0.7051036819071115, 0.7043667814830101]",22.84,0.0,0.0,988.8596429491058,1432.3912333390208,164.4122900056823,-1383.0165603494681,-2096.0662151471743,934.2226874184612,0.0,0.0,0.0,0.0,0.0,0.0,-10.4,21.79711172873448,0.0,21.05281372172059,0.0,-10.4,22.84,19.88,22.22,22.22,22.69,-10.55,-10.4,1616.83,-984.5,-1148.75,1439.57,392.0,0.0,867.0,0.0,0.0,0.0,0.0,0.0,0.0,0.0,0.0,0.0,0.0,0.0,0.0,0.0,0.0
446.0,3292.0,0.0,0.0,-0.0,4400.745730595015,-1108.7457305950147,0.0,6712.633753103927,0.0,6712.633753103927,0.0,0.0,0.6986071173326298,0.19119661054851275,0.6075801749271137,0.0,0.0,0.0,"[0.8391619449132328, 1.2123403871089913, 0.6926646148912532, 0.5625319858249966, 0.7136061092957995, 0.6455424225416024, 0.7051036819071115, 0.7043667814830101]",22.84,0.0,0.0,1033.3801878013403,409.14426196242823,104.23883437794981,-1353.8909285465645,-1978.0325299874478,0.0,0.0,0.0,0.0,0.0,0.0,0.0,-9.7,21.85627422394557,0.0,21.130158121971235,0.0,-9.7,22.84,19.93,22.33,22.21,22.75,-9.82,-9.7,507.43,-963.77,-1124.55,1504.39,288.0,0.0,155.0,0.0,0.0,0.0,0.0,0.0,0.0,0.0,0.0,0.0,0.0,0.0,0.0,0.0,0.0
447.0,4125.0,0.0,0.0,-0.0,822.9738753010706,11693.060124698928,0.0,11405.306801010196,41955.17,44969.4428010102,0.0,0.0,0.20145320046617882,0.0,0.6075801749271137,33564.136,8391.034,41955.17,"[0.8391619449132328, 1.2123403871089913, 0.6926646148912532, 0.5625319858249966, 0.7136061092957995, 0.6455424225416024, 0.7051036819071115, 0.7043667814830101]",21.92,0.0,0.0,605.0661205115431,695.9315618066503,97.95359329354623,-1319.9000716701726,-667.4984925290873,0.0,0.0,0.0,0.0,0.0,0.0,0.0,-9.8,21.59942118356451,0.0,21.15944572860753,0.0,-9.8,21.92,19.95,22.36,21.64,22.38,-10.18,-9.8,980.59,-939.57,-1096.32,880.85,246.0,0.0,392.0,0.0,0.0,0.0,0.0,0.0,0.0,0.0,0.0,0.0,0.0,0.0,0.0,0.0,0.0
448.0,1784.0,64478.345151985544,62371.95342622561,-0.0,0.0,0.0,0.0,17205.20955088782,0.0,-80000.0,0.0,97205.20955088781,0.20145320046617882,0.3266666666666667,0.6075801749271137,0.0,0.0,0.0,"[0.8391619449132328, 1.2123403871089913, 0.6926646148912532, 0.5625319858249966, 0.7136061092957995, 0.6455424225416024, 0.7051036819071115, 0.7043667814830101]",21.61,0.0,0.0,0.8585776815995415,205.52036231795105,5.289219273213927,-1336.1725435230246,-273.12587302149984,3831.228464025008,0.0,0.0,0.0,0.0,0.0,0.0,-10.5,21.489560398915245,0.0,21.14093546656522,0.0,-10.5,21.61,19.95,22.33,21.34,22.14,-11.31,-10.5,1559.42,-951.16,-1109.84,1.25,0.0,0.0,154.0,0.0,0.0,0.0,0.0,0.0,0.0,0.0,0.0,0.0,0.0,0.0,0.0,0.0,0.0
449.0,3577.0,0.0,0.0,-0.0,0.0,3577.0,0.0,521.8910172419486,0.0,521.8910172419486,0.0,0.0,0.049369867132845496,0.3244477422736312,0.6075801749271137,0.0,0.0,0.0,"[0.8391619449132328, 1.2123403871089913, 0.6926646148912532, 0.5625319858249966, 0.7136061092957995, 0.6455424225416024, 0.7051036819071115, 0.7043667814830101]",22.84,0.0,0.0,0.0,138.7929719549799,3.571940288404211,-1403.820583065828,-1904.1871366108032,0.0,0.0,0.0,0.0,0.0,0.0,0.0,-10.9,21.89426546102336,0.0,21.184906292848577,0.0,-10.9,22.84,19.98,22.39,22.23,22.76,-11.68,-10.9,1687.31,-999.31,-1166.03,0.0,0.0,0.0,104.0,0.0,0.0,0.0,0.0,0.0,0.0,0.0,0.0,0.0,0.0,0.0,0.0,0.0,0.0
450.0,4794.0,4818.090452261306,0.0,-0.0,0.0,0.0,0.0,712.4976656353375,0.0,712.4976656353375,0.0,0.0,0.41524370882258493,0.3183890886542831,0.485131195335277,0.0,0.0,0.0,"[0.7795759740609185, 0.09602886441447822, 0.16689240343086809, 0.5625319858250002, 0.6259741228261397, 0.6455424225416024, 0.7051036819071115, 0.7043667814830066]",21.24,0.0,0.0,0.0,960.2422670022927,133.5699594384998,-1358.2508794771497,233.45434841191167,0.0,0.0,0.0,0.0,0.0,0.0,0.0,-11.4,21.37563879587611,0.0,21.14160783158089,0.0,-11.4,21.24,19.97,22.31,20.9,21.84,-12.18,-11.4,1673.96,-966.87,-1128.17,0.0,310.0,13.0,555.0,0.0,0.0,0.0,0.0,0.0,0.0,0.0,0.0,0.0,0.0,0.0,0.0,0.0,0.0
451.0,3532.0,581.3748427063331,0.0,-0.0,0.0,2953.5320315071986,0.0,9902.600884101847,0.0,9902.600884101847,0.0,0.0,0.28966836734693874,0.2762861937388841,0.485131195335277,0.0,0.0,0.0,"[0.7795759740609185, 0.09602886441447822, 0.16689240343086809, 0.5625319858250002, 0.6259741228261397, 0.6455424225416024, 0.7051036819071115, 0.7043667814830066]",21.22,0.0,0.0,0.0,729.2250176298589,146.93038994031937,-1373.9153030789332,158.48317258977497,1981.5929509403966,0.0,0.0,0.0,0.0,0.0,0.0,-11.8,21.314485885057728,0.0,21.07357016646783,0.0,-11.8,21.22,19.94,22.21,20.92,21.8,-12.55,-11.8,0.0,-978.02,-1141.19,0.0,256.0,73.0,404.0,0.0,0.0,0.0,0.0,0.0,0.0,0.0,0.0,0.0,0.0,0.0,0.0,0.0,0.0
452.0,6813.0,0.0,0.0,-0.0,0.0,6813.0,0.0,6360.192725854168,0.0,6360.192725854168,0.0,0.0,0.0,0.24924455799970818,0.485131195335277,0.0,0.0,0.0,"[0.7795759740609185, 0.09602886441447822, 0.16689240343086809, 0.5625319858250002, 0.6259741228261397, 0.6455424225416024, 0.7051036819071115, 0.7043667814830066]",22.04,0.0,0.0,0.0,1074.0300274107276,180.96685941924795,-1428.7868755923553,-987.8734727485664,2652.3903117806085,0.0,0.0,0.0,0.0,0.0,0.0,-12.3,21.556238001274064,0.0,21.065813946512016,0.0,-12.3,22.04,19.94,22.19,21.6,22.24,-13.09,-12.3,0.0,-1017.08,-1186.76,0.0,356.0,61.0,611.0,0.0,0.0,0.0,0.0,0.0,0.0,0.0,0.0,0.0,0.0,0.0,0.0,0.0,0.0
453.0,4957.0,25888.108716608163,0.0,-0.0,0.0,-8805.144452352608,0.0,10796.871348605258,0.0,0.0,0.0,0.0,0.35954339847106487,0.24924455799970818,0.485131195335277,47986.09488269005,11996.523720672512,59982.618603362556,"[0.7795759740609185, 0.09602886441447822, 0.16689240343086809, 0.5625319858250002, 0.6259741228261397, 0.6455424225416024, 0.7051036819071115, 0.7043667814830066]",22.78,0.0,0.0,0.0,1137.5264072929654,247.4599017110802,-1476.2358090623472,-1945.417778128527,0.0,0.0,0.0,0.0,0.0,0.0,0.0,-12.7,21.814632595449986,0.0,21.109468388772264,0.0,-12.7,22.78,19.96,22.26,22.08,22.6,-13.47,-12.7,2079.83,-1050.86,-1226.17,0.0,612.0,31.0,527.0,0.0,0.0,0.0,0.0,0.0,0.0,0.0,0.0,0.0,0.0,0.0,0.0,0.0,0.0
454.0,4087.0,12684.002521848126,0.0,-0.0,0.0,0.0,0.0,7680.224258314995,0.0,0.0,0.0,0.0,0.35954339847106487,0.24924455799970818,0.485131195335277,34134.33003695554,8533.582509238886,42667.91254619443,"[0.7795759740609185, 0.09602886441447822, 0.16689240343086809, 0.5625319858250002, 0.6259741228261397, 0.6455424225416024, 0.7051036819071115, 0.7043667814830066]",21.74,0.0,0.0,0.0,1039.61274185509,246.56691663897917,-1453.7329280975694,-529.4304746721543,0.0,0.0,0.0,0.0,0.0,0.0,0.0,-13.2,21.487013496867803,0.0,21.094272198602884,0.0,-13.2,21.74,19.95,22.23,21.23,22.01,-13.96,-13.2,2488.27,-1034.84,-1207.48,0.0,600.0,40.0,459.0,0.0,0.0,0.0,0.0,0.0,0.0,0.0,0.0,0.0,0.0,0.0,0.0,0.0,0.0
455.0,1615.0,23090.698965941312,0.0,-0.0,0.0,0.0,0.0,19224.220924000438,0.0,0.0,0.0,0.0,0.35954339847106487,0.24924455799970818,0.485131195335277,85440.98188444642,21360.245471111604,106801.22735555802,"[0.7795759740609185, 0.09602886441447822, 0.16689240343086809, 0.5625319858250002, 0.6259741228261397, 0.6455424225416024, 0.7051036819071115, 0.7043667814830066]",21.37,0.0,0.0,0.0,497.7863321077645,168.73983304740278,-1455.1567326761462,-96.93534042499606,3697.1429099019388,0.0,0.0,0.0,0.0,0.0,0.0,-13.6,21.339168927377308,0.0,21.04696696403071,0.0,-13.6,21.37,19.93,22.16,21.04,21.85,-14.38,-13.6,2236.48,-1035.86,-1208.67,0.0,432.0,25.0,143.0,0.0,0.0,0.0,0.0,0.0,0.0,0.0,0.0,0.0,0.0,0.0,0.0,0.0,0.0
456.0,1227.0,3346.1288004527282,0.0,-0.0,0.0,0.0,0.0,19034.679115457067,0.0,17142.52077465165,0.0,0.0,0.35954339847106487,0.176359690760543,0.485131195335277,8409.592625801859,2102.3981564504647,10511.990782252324,"[0.7795759740609185, 0.09602886441447822, 0.16689240343086809, 0.5625319858250002, 0.6259741228261397, 0.6455424225416024, 0.7051036819071115, 0.7043667814830066]",22.78,0.0,0.0,0.0,563.7410895296906,118.62963227065525,-1522.004659038338,-1972.9129565570906,2826.49498589078,0.0,0.0,0.0,0.0,0.0,0.0,-13.8,21.801244588309558,0.0,21.092153501230044,0.0,-13.8,22.78,19.95,22.23,22.22,22.68,-14.57,-13.8,2153.17,-1083.44,-1264.19,0.0,320.0,0.0,254.0,0.0,0.0,0.0,0.0,0.0,0.0,0.0,0.0,0.0,0.0,0.0,0.0,0.0,0.0
457.0,749.0,0.0,0.0,-0.0,0.0,749.0,0.0,7228.724403084198,0.0,7228.724403084197,0.0,0.0,0.3276981603758268,0.14562531829845032,0.485131195335277,0.0,0.0,0.0,"[0.7795759740609185, 0.09602886441447822, 0.16689240343086809, 0.5625319858250002, 0.6259741228261397, 0.6455424225416024, 0.7051036819071115, 0.7043667814830066]",22.78,0.0,0.0,0.0,388.9153267787063,114.13036133045378,-1534.4870726681543,-1887.7224749821905,0.0,0.0,0.0,0.0,0.0,0.0,0.0,-14.1,21.844288264941238,0.0,21.14691334583126,0.0,-14.1,22.78,19.98,22.32,22.09,22.63,-14.86,-14.1,2185.48,-1092.33,-1274.56,0.0,320.0,0.0,123.0,0.0,0.0,0.0,0.0,0.0,0.0,0.0,0.0,0.0,0.0,0.0,0.0,0.0,0.0
458.0,843.0,847.2361809045226,0.0,-0.0,0.0,0.0,0.0,13700.530187657949,0.0,13700.530187657949,0.0,0.0,0.3276981603758268,0.08737476477949645,0.485131195335277,0.0,0.0,0.0,"[0.7795759740609185, 0.09602886441447822, 0.16689240343086809, 0.5625319858250002, 0.6259741228261397, 0.6455424225416024, 0.7051036819071115, 0.7043667814830066]",21.3,0.0,0.0,0.0,332.8643188738106,112.68784698321365,-1481.3296553490813,96.4059349773817,3861.266283721307,0.0,0.0,0.0,0.0,0.0,0.0,-14.3,21.36587609116105,0.0,21.107757884686187,0.0,-14.3,21.3,19.96,22.26,20.97,21.85,-15.07,-14.3,2162.33,-1054.49,-1230.4,0.0,320.0,0.0,81.0,0.0,0.0,0.0,0.0,0.0,0.0,0.0,0.0,0.0,0.0,0.0,0.0,0.0,0.0
459.0,467.0,39334.08892271562,0.0,-0.0,0.0,-16000.0,0.0,20403.376630291838,0.0,0.0,0.0,0.0,0.9810314937091601,0.08737476477949645,0.485131195335277,90681.67391240818,22670.418478102045,113352.09239051022,"[0.7795759740609185, 0.09602886441447822, 0.16689240343086809, 0.5625319858250002, 0.6259741228261397, 0.6455424225416024, 0.7051036819071115, 0.7043667814830066]",22.77,0.0,0.0,0.0,250.12235482372645,110.55842104204959,-1546.4676536753716,-1871.7662988980885,0.0,0.0,0.0,0.0,0.0,0.0,0.0,-14.4,21.840394011940884,0.0,21.146109327131057,0.0,-14.4,22.77,19.98,22.32,22.23,22.73,-15.18,-14.4,2171.58,-1100.86,-1284.51,0.0,320.0,0.0,19.0,0.0,0.0,0.0,0.0,0.0,0.0,0.0,0.0,0.0,0.0,0.0,0.0,0.0,0.0
460.0,1402.0,0.0,10301.944773264011,-0.0,0.0,11703.944773264011,0.0,12126.872458089558,0.0,0.0,0.0,12126.872458089558,0.4834147941656223,0.08737476477949645,0.485131195335277,0.0,0.0,0.0,"[0.7795759740609185, 0.09602886441447822, 0.16689240343086809, 0.5625319858250002, 0.6259741228261397, 0.6455424225416024, 0.7051036819071115, 0.7043667814830066]",21.22,0.0,0.0,0.0,358.22072721173964,113.34041299744135,-1486.2570257472757,203.5160026539208,3918.9960557549407,0.0,0.0,0.0,0.0,0.0,0.0,-14.5,21.33833044276258,0.0,21.10354532396652,0.0,-14.5,21.22,19.95,22.25,20.92,21.82,-15.3,-14.5,1364.03,-1057.99,-1234.5,0.0,320.0,0.0,100.0,0.0,0.0,0.0,0.0,0.0,0.0,0.0,0.0,0.0,0.0,0.0,0.0,0.0,0.0
461.0,1201.0,0.0,4145.217792088331,-0.0,0.0,5346.217792088331,0.0,4840.0006112374995,0.0,0.0,0.0,4840.000611237499,0.2561096159305742,0.08737476477949645,0.485131195335277,0.0,0.0,0.0,"[0.7795759740609185, 0.09602886441447822, 0.16689240343086809, 0.5625319858250002, 0.6259741228261397, 0.6455424225416024, 0.7051036819071115, 0.7043667814830066]",22.78,0.0,0.0,0.0,236.77687675113222,110.21496524508763,-1555.291095384514,-1894.8006423759819,21.568648038511878,0.0,0.0,0.0,0.0,0.0,0.0,-14.6,21.840946402055927,0.0,21.141442235454,0.0,-14.6,22.78,19.97,22.31,22.24,22.73,-15.39,-14.6,1694.72,-1107.14,-1291.84,0.0,320.0,0.0,9.0,0.0,0.0,0.0,0.0,0.0,0.0,0.0,0.0,0.0,0.0,0.0,0.0,0.0,0.0
462.0,679.0,6867.610343973785,6154.272292253916,-0.0,0.0,0.0,0.0,7127.123558323073,0.0,0.0,0.0,7127.123558323073,0.22724056831152656,0.057072368698190865,0.485131195335277,0.0,0.0,0.0,"[0.7795759740609185, 0.09602886441447822, 0.16689240343086809, 0.5625319858250002, 0.6259741228261433, 0.6455424225416024, 0.7051036819071115, 0.7043667814830066]",21.22,0.0,0.0,0.0,548.4991487836226,211.94657230521528,-1494.5786348338197,198.10339556367848,560.9495171165933,0.0,0.0,0.0,0.0,0.0,0.0,-14.7,21.335671999362265,0.0,21.09936753059592,0.0,-14.7,21.22,19.95,22.25,20.93,21.82,-15.46,-14.7,1506.12,-1063.92,-1241.41,0.0,608.0,0.0,91.0,0.0,0.0,0.0,0.0,0.0,0.0,0.0,0.0,0.0,0.0,0.0,0.0,0.0,0.0
463.0,687.0,0.0,3204.17856658658,-0.0,0.0,3891.17856658658,0.0,9217.141536686044,0.0,5506.4548035468,0.0,3710.686733139247,0.061799302725362465,0.03366057106406332,0.485131195335277,0.0,0.0,0.0,"[0.7795759740609185, 0.09602886441447822, 0.16689240343086809, 0.5625319858250002, 0.6259741228261433, 0.6455424225416024, 0.7051036819071115, 0.7043667814830066]",21.22,0.0,0.0,0.0,278.56929492583515,110.3866931435686,-1494.5786348338197,108.61024994966948,1009.9913105366677,0.0,0.0,0.0,0.0,0.0,0.0,-14.7,21.290592815421267,0.0,21.041201020025746,0.0,-14.7,21.22,19.91,22.17,21.02,21.84,-15.49,-14.7,1574.34,-1063.92,-1241.41,0.0,270.0,25.0,64.0,0.0,0.0,0.0,0.0,0.0,0.0,0.0,0.0,0.0,0.0,0.0,0.0,0.0,0.0
464.0,2484.0,1035.6586933663064,0.0,-0.0,0.0,1453.5196001005252,0.0,7916.966314267693,0.0,7916.966314267693,0.0,0.0,0.0,0.0,0.485131195335277,0.0,0.0,0.0,"[0.7795759740609185, 0.09602886441447822, 0.16689240343086809, 0.5625319858250002, 0.6259741228261433, 0.6455424225416024, 0.7051036819071115, 0.7043667814830066]",21.22,0.0,0.0,7.171900743824414,294.8648260460555,147.75468385302804,-1469.6138075741878,30.023614996724756,1007.3270342813995,0.0,0.0,0.0,0.0,0.0,0.0,-14.1,21.250735613052637,0.0,20.989328739142138,0.0,-14.1,21.22,19.88,22.09,21.02,21.81,-14.87,-14.1,1685.95,-1046.15,-1220.67,10.44,342.0,47.0,36.0,0.0,0.0,0.0,0.0,0.0,0.0,0.0,0.0,0.0,0.0,0.0,0.0,0.0,0.0
465.0,2078.0,3618.2284967776036,2541.30778390566,-0.0,1019.1704296119444,0.0,0.0,4009.0220190530626,0.0,0.0,0.0,4009.0220190530626,0.0,0.0,0.485131195335277,0.0,0.0,0.0,"[0.7795759740609185, 0.09602886441447822, 0.16689240343086809, 0.5625319858250002, 0.6259741228261433, 0.6455424225416024, 0.7051036819071115, 0.7043667814830066]",21.22,0.0,0.0,816.8090730378883,882.2063399567547,169.66716369920002,-1311.503234929854,-36.12324828968094,0.0,0.0,0.0,0.0,0.0,0.0,0.0,-10.3,21.215572131483228,0.0,20.943494215606023,0.0,-10.3,21.22,19.86,22.03,21.02,21.78,-10.51,-10.3,0.0,-933.6,-1089.35,1189.1,378.0,39.0,458.0,0.0,0.0,0.0,0.0,0.0,0.0,0.0,0.0,0.0,0.0,0.0,0.0,0.0,0.0
466.0,1094.0,11414.34018840857,0.0,-531.0287380258219,4508.589969682707,0.0,0.0,12816.74674721107,0.0,0.0,0.0,0.0,0.0,0.0,0.5,56963.31887649366,14240.829719123414,71204.14859561707,"[0.7795759740609185, 0.09602886441447822, 0.16689240343086809, 0.5625319858250002, 0.6259741228261433, 0.6455424225416024, 0.7051036819071115, 0.7043667814830066]",21.46,0.0,0.0,1252.9862780809556,436.81856912349195,163.51930493358125,-1180.169330187689,-388.5446554720886,0.0,0.0,0.0,0.0,0.0,0.0,0.0,-6.9,21.28011904012273,0.0,20.9322793854014,0.0,-6.9,21.46,19.85,22.01,21.29,21.97,-6.86,-6.9,0.0,-840.11,-980.26,1824.09,468.0,0.0,81.0,0.0,0.0,0.0,0.0,0.0,0.0,0.0,0.0,0.0,0.0,0.0,0.0,0.0,0.0
467.0,4941.0,1322.0277724493405,2558.376754110786,-0.0,6183.959120523692,0.0,0.0,5523.7262862441075,0.0,0.0,0.0,5523.7262862441075,0.0,0.0,0.5,0.0,0.0,0.0,"[0.7795759740609185, 0.09602886441447822, 0.16689240343086809, 0.5625319858250002, 0.6259741228261433, 0.6455424225416024, 0.7051036819071115, 0.7043667814830066]",21.58,0.0,0.0,1535.4801191749116,613.8919913393341,213.6295057103288,-1072.8207762772997,-523.888899734704,607.0625542693764,0.0,0.0,0.0,0.0,0.0,0.0,-4.2,21.33078031530631,0.0,20.95260156537099,0.0,-4.2,21.58,19.87,22.03,21.51,22.13,-4.0,-4.2,0.0,-763.69,-891.09,2235.34,608.0,0.0,140.0,0.0,0.0,0.0,0.0,0.0,0.0,0.0,0.0,0.0,0.0,0.0,0.0,0.0,0.0
468.0,2729.0,50466.35474993803,38281.3139670804,-0.0,6796.290990892061,-16000.0,0.0,8856.320668520997,0.0,-80000.0,0.0,88856.32066852099,0.6533333333333333,0.3266666666666667,0.5,0.0,0.0,0.0,"[0.7795759740609185, 0.09602886441447822, 0.16689240343086809, 0.5625319858250002, 0.6259741228261433, 0.6455424225416024, 0.7051036819071115, 0.7043667814830066]",22.25,0.0,0.0,1607.0257662793288,501.3685393798819,157.37144616796246,-1029.6527254343355,-1337.2907879128584,1212.622510770151,0.0,0.0,0.0,0.0,0.0,0.0,-2.5,21.583011322121088,0.0,21.021627542751922,0.0,-2.5,22.25,19.92,22.12,22.07,22.54,-2.28,-2.5,0.0,-732.96,-855.24,2339.49,444.0,0.0,142.0,0.0,0.0,0.0,0.0,0.0,0.0,0.0,0.0,0.0,0.0,0.0,0.0,0.0,0.0
469.0,5334.0,5832.58035463466,6635.764418158778,-0.0,6166.346965297292,0.0,0.0,3975.6108970295963,0.0,-11869.758246862859,0.0,15845.369143892454,0.6533333333333333,0.37513484617469006,0.5,0.0,0.0,0.0,"[0.7795759740609185, 0.09602886441447822, 0.16689240343086809, 0.5625319858250002, 0.6259741228261433, 0.6455424225416024, 0.7051036819071115, 0.7043667814830066]",22.78,0.0,0.0,1450.6558350080325,533.046489962724,105.4752752470128,-1022.7081138457053,-1915.2057682619711,892.637135038009,0.0,0.0,0.0,0.0,0.0,0.0,-1.8,21.824891535775702,0.0,21.1285115733267,0.0,-1.8,22.78,20.0,22.26,22.46,22.87,-1.67,-1.8,0.0,-728.02,-849.47,2111.85,282.0,0.0,251.0,0.0,0.0,0.0,0.0,0.0,0.0,0.0,0.0,0.0,0.0,0.0,0.0,0.0,0.0
470.0,3033.0,0.0,0.0,-0.0,4638.998066034276,-1605.9980660342762,0.0,8176.4087273283985,0.0,8176.4087273283985,0.0,0.0,0.7189115876963996,0.3403712036265251,0.5,0.0,0.0,0.0,"[0.7795759740609185, 0.09602886441447822, 0.16689240343086809, 0.5625319858250002, 0.6259741228261433, 0.6455424225416024, 0.7051036819071115, 0.7043667814830066]",22.78,0.0,0.0,1170.0695786918711,1146.7277632272278,119.31654386457913,-1031.0297229322491,-1770.321879158918,404.67335715160954,0.0,0.0,0.0,0.0,0.0,0.0,-2.0,21.898044669902756,0.0,21.226909546726944,0.0,-2.0,22.78,20.07,22.38,22.38,22.87,-2.04,-2.0,0.0,-733.94,-856.38,1703.38,276.0,0.0,714.0,0.0,0.0,0.0,0.0,0.0,0.0,0.0,0.0,0.0,0.0,0.0,0.0,0.0,0.0
471.0,3734.0,0.0,0.0,-0.0,1054.8110778918524,2679.1889221081474,0.0,7988.482999050353,0.0,7988.482999050353,0.0,0.0,0.6050004940693525,0.30640656502512054,0.5,0.0,0.0,0.0,"[0.7795759740609185, 0.09602886441447822, 0.16689240343086809, 0.5625319858250002, 0.6259741228261433, 0.6455424225416024, 0.7051036819071115, 0.7043667814830066]",22.78,0.0,0.0,650.1327828389456,1670.9240940470734,117.83968393764277,-1101.7634001678723,-1665.0905197303314,355.9294953986215,0.0,0.0,0.0,0.0,0.0,0.0,-3.7,21.951892127956164,0.0,21.30078880256405,0.0,-3.7,22.78,20.13,22.47,22.25,22.81,-4.0,-3.7,0.0,-784.29,-915.13,946.46,230.0,0.0,1131.0,0.0,0.0,0.0,0.0,0.0,0.0,0.0,0.0,0.0,0.0,0.0,0.0,0.0,0.0
472.0,4465.0,12831.483417085426,0.0,-0.0,0.0,0.0,0.0,1585.3537669216744,41511.63,34794.65776692167,0.0,0.0,0.6050004940693525,0.15847009492766445,0.5,33209.304,8302.326,41511.63,"[0.7795759740609185, 0.09602886441447822, 0.16689240343086809, 0.5625319858250002, 0.6259741228261433, 0.6455424225416024, 0.7051036819071115, 0.7043667814830066]",22.78,0.0,0.0,0.858567781350108,1649.430850414369,96.06458641025559,-1193.301100119855,-1603.7271621517061,0.0,0.0,0.0,0.0,0.0,0.0,0.0,-5.9,21.98391607314106,0.0,21.346121841320503,0.0,-5.9,22.78,20.17,22.52,22.08,22.7,-6.63,-5.9,0.0,-849.45,-991.17,1.25,93.0,38.0,1183.0,0.0,0.0,0.0,0.0,0.0,0.0,0.0,0.0,0.0,0.0,0.0,0.0,0.0,0.0
473.0,2562.0,17224.990952959175,4903.408710096888,-0.0,0.0,-9673.457288097488,0.0,9745.402635664543,0.0,0.0,0.0,9745.402635664543,1.0,0.15847009492766445,0.5,0.0,0.0,0.0,"[0.7795759740609185, 0.09602886441447822, 0.16689240343086809, 0.5625319858250002, 0.6259741228261433, 0.6455424225416024, 0.7051036819071115, 0.7043667814830066]",22.24,0.0,0.0,0.0,833.249507237817,122.85413857328717,-1175.1982615187326,-883.8470864271513,0.0,0.0,0.0,0.0,0.0,0.0,0.0,-6.0,21.811356012012002,0.0,21.336202857575863,0.0,-6.0,22.24,20.18,22.49,21.53,22.31,-6.71,-6.0,1377.87,-836.57,-976.13,0.0,170.0,75.0,527.0,0.0,0.0,0.0,0.0,0.0,0.0,0.0,0.0,0.0,0.0,0.0,0.0,0.0,0.0
474.0,4862.0,8961.026812965645,0.0,-0.0,0.0,-4054.221678900817,0.0,996.1517610653061,0.0,996.1517610653061,0.0,0.0,0.48527527637824597,0.24055783416110613,0.42128279883381925,0.0,0.0,0.0,"[0.5850922930972402, 0.09602886441447822, 0.16689240343086809, 0.3509901904074333, 0.6259741228261433, 0.6455424225416024, 0.6519990179085511, 0.7043667814830066]",21.68,0.0,0.0,0.0,2955.110281422021,176.81104427600846,-1151.7732347117192,-165.981738038897,0.0,0.0,0.0,0.0,0.0,0.0,0.0,-6.0,21.60981093446925,0.0,21.29977577281423,0.0,-6.0,21.68,20.18,22.42,21.26,22.09,-6.69,-6.0,183.47,-819.89,-956.67,0.0,117.0,102.0,2142.0,0.0,0.0,0.0,0.0,0.0,0.0,0.0,0.0,0.0,0.0,0.0,0.0,0.0,0.0
475.0,3409.0,8862.793892172538,5409.4799227116755,-0.0,0.0,0.0,0.0,10699.636329018871,0.0,0.0,0.0,10699.636329018871,0.48527527637824597,0.24055783416110613,0.42128279883381925,0.0,0.0,0.0,"[0.5850922930972402, 0.09602886441447822, 0.16689240343086809, 0.3509901904074333, 0.6259741228261433, 0.6455424225416024, 0.6519990179085511, 0.7043667814830066]",22.59,0.0,0.0,0.0,427.8981706223368,107.43297328969588,-1193.5306233729398,-1442.1221598637228,0.0,0.0,0.0,0.0,0.0,0.0,0.0,-6.1,21.870824687485868,0.0,21.2859677539882,0.0,-6.1,22.59,20.18,22.39,21.71,22.38,-6.75,-6.1,797.93,-849.62,-991.36,0.0,81.0,114.0,266.0,0.0,0.0,0.0,0.0,0.0,0.0,0.0,0.0,0.0,0.0,0.0,0.0,0.0,0.0
476.0,4635.0,4658.291457286432,0.0,-0.0,0.0,0.0,0.0,7396.6547909316905,0.0,7396.6547909316905,0.0,0.0,0.48527527637824597,0.2091094719547639,0.42128279883381925,0.0,0.0,0.0,"[0.5850922930972402, 0.09602886441447822, 0.16689240343086809, 0.3509901904074333, 0.6259741228261433, 0.6455424225416024, 0.6519990179085511, 0.7043667814830066]",21.52,0.0,0.0,0.0,1005.6168924491132,256.32106127269833,-1149.2344134793384,-21.018323345057198,0.0,0.0,0.0,0.0,0.0,0.0,0.0,-6.1,21.52178994604391,0.0,21.254726067862308,0.0,-6.1,21.52,20.18,22.33,21.16,21.98,-6.75,-6.1,0.0,-818.08,-954.56,0.0,474.0,124.0,491.0,0.0,0.0,0.0,0.0,0.0,0.0,0.0,0.0,0.0,0.0,0.0,0.0,0.0,0.0
477.0,3848.0,9321.426102315327,5426.81897180375,-0.0,0.0,0.0,0.0,10682.196427901818,0.0,0.0,0.0,10682.196427901818,0.48527527637824597,0.2091094719547639,0.42128279883381925,0.0,0.0,0.0,"[0.5850922930972402, 0.09602886441447822, 0.16689240343086809, 0.3509901904074333, 0.6259741228261433, 0.6455424225416024, 0.6519990179085511, 0.7043667814830066]",21.55,0.0,0.0,0.0,981.735510634997,161.52726131120195,-1154.68551376904,-133.88407233985103,2215.70412845774,0.0,0.0,0.0,0.0,0.0,0.0,-6.2,21.49598677568305,0.0,21.211881635907098,0.0,-6.2,21.55,20.17,22.26,21.23,21.98,-6.84,-6.2,175.6,-821.96,-959.09,0.0,330.0,47.0,557.0,0.0,0.0,0.0,0.0,0.0,0.0,0.0,0.0,0.0,0.0,0.0,0.0,0.0,0.0
478.0,2610.0,0.0,0.0,-0.0,0.0,9679.674500416346,0.0,6362.70705037471,0.0,0.0,0.0,0.0,0.07372448979591836,0.2091094719547639,0.42128279883381925,28278.698001665383,7069.674500416346,35348.37250208173,"[0.5850922930972402, 0.09602886441447822, 0.16689240343086809, 0.3509901904074333, 0.6259741228261433, 0.6455424225416024, 0.6519990179085511, 0.7043667814830066]",22.59,0.0,0.0,0.0,489.21713039799346,147.5142647951547,-1201.8522324594837,-1531.230423082947,0.0,0.0,0.0,0.0,0.0,0.0,0.0,-6.3,21.82600301428258,0.0,21.23497828899309,0.0,-6.3,22.59,20.19,22.28,22.01,22.52,-6.93,-6.3,835.46,-855.54,-998.27,0.0,324.0,48.0,191.0,0.0,0.0,0.0,0.0,0.0,0.0,0.0,0.0,0.0,0.0,0.0,0.0,0.0,0.0
479.0,1734.0,0.0,0.0,-0.0,0.0,1734.0,0.0,8635.385228519863,0.0,8635.385228519863,0.0,0.0,0.0,0.17239439870425427,0.42128279883381925,0.0,0.0,0.0,"[0.5850922930972402, 0.09602886441447822, 0.16689240343086809, 0.3509901904074333, 0.6259741228261433, 0.6455424225416024, 0.6519990179085511, 0.7043667814830066]",21.52,0.0,0.0,0.0,493.22077381977175,131.13142328006998,-1157.5404619281915,-99.51971045066075,2230.7947763119073,0.0,0.0,0.0,0.0,0.0,0.0,-6.3,21.48192318935826,0.0,21.209493070730453,0.0,-6.3,21.52,20.18,22.24,21.17,21.93,-6.89,-6.3,1933.62,-824.0,-961.46,0.0,364.0,0.0,178.0,0.0,0.0,0.0,0.0,0.0,0.0,0.0,0.0,0.0,0.0,0.0,0.0,0.0,0.0
480.0,2228.0,21145.053882490334,0.0,-2811.328613077884,0.0,-16000.0,0.0,3836.7571365472277,0.0,3836.7571365472277,0.0,0.0,0.6533333333333333,0.15608165577675756,0.5,0.0,0.0,0.0,"[0.5850922930972402, 0.09602886441447822, 0.16689240343086809, 0.3509901904074333, 0.6259741228261433, 0.6455424225416024, 0.6519990179085511, 0.7043667814830066]",22.32,0.0,0.0,0.0,394.53447544085134,138.8591787117137,-1194.8805279503351,-1184.6287044351457,70.97272823295955,0.0,0.0,0.0,0.0,0.0,0.0,-6.4,21.733008519789454,0.0,21.22295462707824,0.0,-6.4,22.32,20.19,22.25,21.87,22.4,-7.02,-6.4,1916.61,-850.58,-992.48,0.0,320.0,40.0,123.0,0.0,0.0,0.0,0.0,0.0,0.0,0.0,0.0,0.0,0.0,0.0,0.0,0.0,0.0
481.0,4912.0,11298.965137702677,6330.470312014164,-0.0,0.0,0.0,0.0,12340.250747214392,0.0,0.0,0.0,12340.250747214392,0.6533333333333333,0.15608165577675756,0.5,0.0,0.0,0.0,"[0.5850922930972402, 0.09602886441447822, 0.16689240343086809, 0.3509901904074333, 0.6259741228261433, 0.6455424225416024, 0.6519990179085511, 0.7043667814830066]",21.41,0.0,0.0,0.0,1800.5157100677911,166.4386792077578,-1157.3239435757077,12.175325134076719,1520.25974977682,0.0,0.0,0.0,0.0,0.0,0.0,-6.4,21.432992674074573,0.0,21.19057899139961,0.0,-6.4,21.41,20.18,22.2,21.12,21.88,-6.99,-6.4,1812.87,-823.84,-961.28,0.0,320.0,26.0,1178.0,0.0,0.0,0.0,0.0,0.0,0.0,0.0,0.0,0.0,0.0,0.0,0.0,0.0,0.0
482.0,1611.0,0.0,0.0,-0.0,0.0,1611.0,0.0,2675.0429927704877,0.0,2675.0429927704877,0.0,0.0,0.5848384353741497,0.14470817366463815,0.5,0.0,0.0,0.0,"[0.5850922930972402, 0.09602886441447822, 0.16689240343086809, 0.3509901904074333, 0.6259741228261433, 0.6455424225416024, 0.6519990179085511, 0.7043667814830066]",22.59,0.0,0.0,0.0,506.35553381753556,117.1527723437189,-1206.0130370027555,-1590.1670191220371,0.0,0.0,0.0,0.0,0.0,0.0,0.0,-6.4,21.79632792516699,0.0,21.20274879814368,0.0,-6.4,22.59,20.19,22.21,21.9,22.41,-6.98,-6.4,1094.0,-858.5,-1001.72,0.0,320.0,0.0,211.0,0.0,0.0,0.0,0.0,0.0,0.0,0.0,0.0,0.0,0.0,0.0,0.0,0.0,0.0
483.0,1165.0,0.0,0.0,-0.0,0.0,1165.0,0.0,11085.275679217482,0.0,11085.275679217482,0.0,0.0,0.5353061224489797,0.09757689951830531,0.5,0.0,0.0,0.0,"[0.5850922930972402, 0.09602886441447822, 0.16689240343086809, 0.3509901904074333, 0.6259741228261433, 0.6455424225416024, 0.6519990179085511, 0.7043667814830066]",21.48,0.0,0.0,0.0,481.84199777892826,120.20952893668019,-1156.0153077464834,-106.13511487127116,538.1827508394823,0.0,0.0,0.0,0.0,0.0,0.0,-6.3,21.441919338724116,0.0,21.17769449540902,0.0,-6.3,21.48,20.19,22.17,21.13,21.87,-6.89,-6.3,1292.89,-822.91,-960.2,0.0,320.0,6.0,192.0,0.0,0.0,0.0,0.0,0.0,0.0,0.0,0.0,0.0,0.0,0.0,0.0,0.0,0.0
484.0,702.0,0.0,0.0,-0.0,0.0,702.0,0.0,10307.954764148964,0.0,10307.954764148964,0.0,0.0,0.5054591836734694,0.05375056123535903,0.5,0.0,0.0,0.0,"[0.5850922930972402, 0.09602886441447822, 0.16689240343086809, 0.3509901904074333, 0.6259741228261433, 0.6455424225416024, 0.6519990179085511, 0.7043667814830066]",21.41,0.0,0.0,0.0,245.55679653573367,94.24427068635725,-1153.1631390324358,-73.44519221924203,3220.38439738349,0.0,0.0,0.0,0.0,0.0,0.0,-6.3,21.389807718961176,0.0,21.13857499006639,0.0,-6.3,21.41,20.17,22.11,21.16,21.86,-6.88,-6.3,1289.68,-820.88,-957.83,0.0,240.0,16.0,56.0,0.0,0.0,0.0,0.0,0.0,0.0,0.0,0.0,0.0,0.0,0.0,0.0,0.0,0.0
485.0,1514.0,0.0,3476.3783586809127,-0.0,0.0,4990.378358680913,0.0,8869.571268486307,0.0,2059.7800449529295,0.0,6809.791223533377,0.29328323304928094,0.04499299301702175,0.5,0.0,0.0,0.0,"[0.5850922930972402, 0.09602886441447822, 0.16689240343086809, 0.3509901904074333, 0.6259741228261433, 0.6455424225416024, 0.6519990179085511, 0.7043667814830066]",22.59,0.0,0.0,0.0,264.451183912196,101.49118800225425,-1201.8522324594837,-1633.7092021981273,2187.094455412171,0.0,0.0,0.0,0.0,0.0,0.0,-6.3,21.7743490787897,0.0,21.177428501964307,0.0,-6.3,22.59,20.19,22.16,22.11,22.52,-6.88,-6.3,1404.89,-855.54,-998.27,0.0,240.0,27.0,69.0,0.0,0.0,0.0,0.0,0.0,0.0,0.0,0.0,0.0,0.0,0.0,0.0,0.0,0.0
486.0,771.0,3005.1732294675444,0.0,-0.0,0.0,-2219.1473633202068,0.0,3624.5805124167746,0.0,3624.5805124167746,0.0,0.0,0.17988856669169773,0.02958236158667832,0.5,0.0,0.0,0.0,"[0.5850922930972366, 0.09602886441447822, 0.16689240343086809, 0.3509901904074333, 0.6259741228261433, 0.6455424225416024, 0.6519990179085511, 0.7043667814830066]",22.44,0.0,0.0,0.0,382.4533058172397,168.80852420679517,-1191.5183825454965,-1367.9340599219352,0.0,0.0,0.0,0.0,0.0,0.0,0.0,-6.2,21.759789824244837,0.0,21.217216731677883,0.0,-6.2,22.44,20.22,22.22,21.91,22.41,-6.77,-6.2,1316.85,-848.18,-989.69,0.0,396.0,49.0,73.0,0.0,0.0,0.0,0.0,0.0,0.0,0.0,0.0,0.0,0.0,0.0,0.0,0.0,0.0
487.0,420.0,4220.0707098432695,3778.970356294053,-0.0,0.0,0.0,0.0,7438.557256265707,0.0,0.0,0.0,7438.557256265707,0.17988856669169773,0.02958236158667832,0.5,0.0,0.0,0.0,"[0.5850922930972366, 0.09602886441447822, 0.16689240343086809, 0.3509901904074333, 0.6259741228261433, 0.6455424225416024, 0.6519990179085511, 0.7043667814830066]",21.41,0.0,0.0,0.0,128.7487437213958,33.89908716014381,-1149.0023344891638,0.6447234765930473,989.69552619312,0.0,0.0,0.0,0.0,0.0,0.0,-6.2,21.427092529413173,0.0,21.18898193812376,0.0,-6.2,21.41,20.21,22.17,21.13,21.86,-6.77,-6.2,1458.33,-817.92,-954.37,0.0,94.0,0.0,47.0,0.0,0.0,0.0,0.0,0.0,0.0,0.0,0.0,0.0,0.0,0.0,0.0,0.0,0.0
488.0,707.0,0.0,3523.979088588731,-0.0,0.0,4230.9790885887305,0.0,7517.845662217293,0.0,346.04915818720497,0.0,7171.79650403009,0.0,0.02811106414540619,0.5,0.0,0.0,0.0,"[0.5850922930972366, 0.09602886441447822, 0.16689240343086809, 0.3509901904074333, 0.6259741228261433, 0.6455424225416024, 0.6519990179085511, 0.7043667814830066]",21.41,0.0,0.0,7.1506680088722145,133.10358393455817,31.082749625055875,-1119.8767026862604,-58.15787923249913,1010.5074594195336,0.0,0.0,0.0,0.0,0.0,0.0,-5.5,21.397165883063714,0.0,21.151518643524604,0.0,-5.5,21.41,20.19,22.11,21.2,21.88,-6.06,-5.5,1341.39,-797.19,-930.18,10.41,85.0,0.0,55.0,0.0,0.0,0.0,0.0,0.0,0.0,0.0,0.0,0.0,0.0,0.0,0.0,0.0,0.0
489.0,2230.0,1563.403072229084,0.0,-0.0,674.4139431320615,0.0,0.0,6611.722286999535,0.0,6611.722286999536,0.0,0.0,0.0,0.0,0.5,0.0,0.0,0.0,"[0.5850922930972366, 0.09602886441447822, 0.16689240343086809, 0.3509901904074333, 0.6259741228261433, 0.6455424225416024, 0.6519990179085511, 0.7043667814830066]",21.41,0.0,0.0,646.2986446454622,165.13273130878432,38.08924788307953,-961.7661300419264,-107.75525169126766,238.51283932753944,0.0,0.0,0.0,0.0,0.0,0.0,-1.7,21.370384616484333,0.0,21.11810923792129,0.0,-1.7,21.41,20.18,22.06,21.19,21.85,-1.8,-1.7,628.9,-684.63,-798.85,940.88,104.0,0.0,69.0,0.0,0.0,0.0,0.0,0.0,0.0,0.0,0.0,0.0,0.0,0.0,0.0,0.0,0.0
490.0,6914.0,4059.566679683662,1377.9860849522593,-0.0,4252.717238667015,0.0,0.0,3802.7909123392983,0.0,0.0,0.0,3802.7909123392983,0.0,0.0,0.5,0.0,0.0,0.0,"[0.5850922930972366, 0.09602886441447822, 0.16689240343086809, 0.3509901904074333, 0.6259741228261433, 0.6455424225416024, 0.6519990179085511, 0.7043667814830066]",21.41,0.0,0.0,1149.756593871039,209.3835270231757,41.180350055737016,-803.6555573975926,-125.36577265794602,0.0,0.0,0.0,0.0,0.0,0.0,0.0,2.1,21.35982018893891,0.0,21.10691382728759,0.0,2.1,21.41,20.19,22.03,21.31,21.92,2.22,2.1,414.19,-572.08,-667.52,1673.81,110.0,0.0,99.0,0.0,0.0,0.0,0.0,0.0,0.0,0.0,0.0,0.0,0.0,0.0,0.0,0.0,0.0
491.0,3883.0,0.0,2091.865571525662,-0.0,5974.865571525662,0.0,0.0,5396.009103970338,0.0,-995.0700012358205,0.0,6391.079105206159,0.0,0.004063202505046268,0.5,0.0,0.0,0.0,"[0.5850922930972366, 0.09602886441447822, 0.16689240343086809, 0.3509901904074333, 0.6259741228261433, 0.6455424225416024, 0.6519990179085511, 0.7043667814830066]",21.64,0.0,0.0,1508.7680217801105,587.4117532689762,115.98502263404828,-683.9260998284142,-407.0135020598332,0.0,0.0,0.0,0.0,0.0,0.0,0.0,5.2,21.439096763207747,0.0,21.125825591937918,0.0,5.2,21.64,20.21,22.04,21.58,22.11,5.43,5.2,0.0,-486.85,-568.07,2196.45,310.0,0.0,277.0,0.0,0.0,0.0,0.0,0.0,0.0,0.0,0.0,0.0,0.0,0.0,0.0,0.0,0.0
492.0,6084.0,7018.617724187771,760.7623380728929,-0.0,6848.431995611814,-6987.194293105754,0.0,2476.589442812866,0.0,0.0,0.0,2476.589442812866,0.28531043363515163,0.004063202505046268,0.5,0.0,0.0,0.0,"[0.5850922930972366, 0.09602886441447822, 0.16689240343086809, 0.3509901904074333, 0.6259741228261433, 0.6455424225416024, 0.6519990179085511, 0.7043667814830066]",22.18,0.0,0.0,1664.4822450762667,3616.6245576730335,222.90281222830126,-619.0820044725782,-1066.908940742438,-2949.490237149466,0.0,0.0,0.0,0.0,0.0,0.0,7.3,21.64747700142455,0.0,21.187406617421406,0.0,7.3,22.18,20.27,22.11,22.03,22.44,7.6,7.3,0.0,-440.69,-514.21,2423.14,399.0,0.0,2500.0,0.0,0.0,0.0,0.0,0.0,0.0,0.0,0.0,0.0,0.0,0.0,0.0,0.0,0.0
493.0,3998.0,0.0,474.1991302284987,-0.0,5974.800755490091,-1502.6016252615927,0.0,1584.3963444541525,0.0,0.0,0.0,1584.3963444541525,0.3466666666666667,0.004063202505046268,0.5,0.0,0.0,0.0,"[0.5850922930972366, 0.09602886441447822, 0.16689240343086809, 0.3509901904074333, 0.6259741228261433, 0.6455424225416024, 0.6519990179085511, 0.7043667814830066]",22.59,0.0,0.0,1423.9622536780937,648.4497556115256,114.30208922893476,-598.5355736850518,-1489.7031209237743,-54.116344238192355,0.0,0.0,0.0,0.0,0.0,0.0,8.2,21.84049653723316,0.0,21.282870531509648,0.0,8.2,22.59,20.34,22.22,22.37,22.72,8.35,8.2,0.0,-426.07,-497.15,2072.99,300.0,0.0,328.0,0.0,0.0,0.0,0.0,0.0,0.0,0.0,0.0,0.0,0.0,0.0,0.0,0.0,0.0
494.0,2662.0,39308.235594220336,25302.182085450466,-0.0,4852.487669201231,-16000.0,0.0,4539.768732987419,0.0,-80000.0,0.0,84539.76873298742,1.0,0.330729869171713,0.5,0.0,0.0,0.0,"[0.5850922930972366, 0.09602886441447822, 0.16689240343086809, 0.3509901904074333, 0.6259741228261433, 0.6455424225416024, 0.6519990179085511, 0.7043667814830066]",22.59,0.0,0.0,1255.4412981503222,1239.7246735857261,93.07652097668668,-598.5355736850518,-1368.5566661351945,-582.9460761584039,0.0,0.0,0.0,0.0,0.0,0.0,8.2,21.90157494481556,0.0,21.367561176987316,0.0,8.2,22.59,20.42,22.32,22.28,22.69,8.26,8.2,0.0,-426.07,-497.15,1827.66,188.0,0.0,830.0,0.0,0.0,0.0,0.0,0.0,0.0,0.0,0.0,0.0,0.0,0.0,0.0,0.0,0.0
495.0,3385.0,0.0,0.0,-0.0,1838.2185588376306,1546.7814411623694,0.0,1780.0873704884448,0.0,1780.0873704884448,0.0,0.0,0.9342354829437768,0.32316147048766347,0.5,0.0,0.0,0.0,"[0.5850922930972366, 0.09602886441447822, 0.16689240343086809, 0.3509901904074333, 0.6259741228261433, 0.6455424225416024, 0.6519990179085511, 0.7043667814830066]",22.59,0.0,0.0,799.741920620078,801.0096417887606,109.76847270903711,-660.947641834131,-1268.5287858609618,0.0,0.0,0.0,0.0,0.0,0.0,0.0,6.7,21.952707729750497,0.0,21.43961791752713,0.0,6.7,22.59,20.48,22.4,22.24,22.7,6.52,6.7,75.92,-470.5,-548.99,1164.26,274.0,0.0,456.0,0.0,0.0,0.0,0.0,0.0,0.0,0.0,0.0,0.0,0.0,0.0,0.0,0.0,0.0
496.0,2276.0,2287.4371859296484,0.0,-0.0,0.0,0.0,0.0,4640.7629430721445,0.0,4640.762943072144,0.0,0.0,0.9342354829437768,0.30343033552562204,0.5,0.0,0.0,0.0,"[0.5850922930972366, 0.09602886441447822, 0.16689240343086809, 0.3509901904074333, 0.6259741228261433, 0.6455424225416024, 0.6519990179085511, 0.7043667814830066]",22.46,0.0,0.0,1.7355978778525447,599.8441196839719,99.60218111896359,-751.4212971916742,-1037.786415395777,935.549445600431,0.0,0.0,0.0,0.0,0.0,0.0,4.4,21.94452092030161,0.0,21.483854894883244,0.0,4.4,22.46,20.53,22.44,22.05,22.57,3.71,4.4,902.4,-534.9,-624.14,2.53,202.0,30.0,340.0,0.0,0.0,0.0,0.0,0.0,0.0,0.0,0.0,0.0,0.0,0.0,0.0,0.0,0.0
497.0,2051.0,0.0,0.0,-0.0,0.0,2051.0,0.0,1106.951819208493,0.0,1106.951819208493,0.0,0.0,0.8470331019913958,0.29872390772286483,0.5,0.0,0.0,0.0,"[0.5850922930972366, 0.09602886441447822, 0.16689240343086809, 0.3509901904074333, 0.6259741228261433, 0.6455424225416024, 0.6519990179085511, 0.7043667814830066]",22.38,0.0,0.0,0.0,626.7457939039907,176.43324289935038,-756.3000741846914,-907.8101168470059,0.0,0.0,0.0,0.0,0.0,0.0,0.0,4.2,21.927306499906482,0.0,21.498778325784073,0.0,4.2,22.38,20.56,22.44,21.86,22.43,3.53,4.2,1014.39,-538.37,-628.19,0.0,334.0,84.0,285.0,0.0,0.0,0.0,0.0,0.0,0.0,0.0,0.0,0.0,0.0,0.0,0.0,0.0,0.0
498.0,5610.0,3005.1732294675444,0.0,-0.0,0.0,-2219.1473633202068,0.0,1203.2519953769465,0.0,3624.5805124167746,0.0,0.0,0.17988856669169773,0.02958236158667832,0.5,0.0,0.0,0.0,"[0.5850922930972366, 0.09602886441447822, 0.16689240343086809, 0.3509901904074333, 0.6259741228261433, 0.6455424225416024, 0.6519990179085511, 0.7043667814830066]",21.93,0.0,0.0,0.0,1590.6405075366777,242.9606307708788,-750.2989328173235,-319.6072350369717,0.0,0.0,0.0,0.0,0.0,0.0,0.0,3.9,21.77936104113691,0.0,21.486406025449163,0.0,3.9,21.93,20.58,22.4,21.55,22.19,3.28,3.9,137.88,-534.1,-623.2,0.0,330.0,154.0,1002.0,0.0,0.0,0.0,0.0,0.0,0.0,0.0,0.0,0.0,0.0,0.0,0.0,0.0,0.0
499.0,3905.0,4220.0707098432695,3778.970356294053,-0.0,0.0,0.0,0.0,7438.557256265707,0.0,0.0,0.0,7438.557256265707,0.17988856669169773,0.02958236158667832,0.5,0.0,0.0,0.0,"[0.5850922930972366, 0.09602886441447822, 0.16689240343086809, 0.3509901904074333, 0.6259741228261433, 0.6455424225416024, 0.6519990179085511, 0.7043667814830066]",21.41,0.0,0.0,0.0,956.730299088452,267.8611760506197,-737.0826847052416,8.885235537085293,989.69552619312,0.0,0.0,0.0,0.0,0.0,0.0,3.7,21.427092529413173,0.0,21.18898193812376,0.0,3.7,21.41,20.21,22.17,21.13,21.86,3.1,3.7,1458.33,-524.69,-612.23,0.0,400.0,184.0,487.0,0.0,0.0,0.0,0.0,0.0,0.0,0.0,0.0,0.0,0.0,0.0,0.0,0.0,0.0
500.0,5278.0,0.0,3523.979088588731,-0.0,0.0,4230.9790885887305,0.0,7517.845662217293,0.0,346.04915818720497,0.0,7171.79650403009,0.0,0.02811106414540619,0.5,0.0,0.0,0.0,"[0.5850922930972366, 0.09602886441447822, 0.16689240343086809, 0.3509901904074333, 0.6259741228261433, 0.6455424225416024, 0.6519990179085511, 0.7043667814830066]",21.41,0.0,0.0,0.0,1333.5644562435466,222.35328295316214,-745.4042937917854,-50.67954300743257,1010.5074594195336,0.0,0.0,0.0,0.0,0.0,0.0,3.5,21.397165883063714,0.0,21.151518643524604,0.0,3.5,21.41,20.19,22.11,21.2,21.88,2.89,3.5,1341.39,-530.62,-619.14,0.0,372.0,109.0,792.0,0.0,0.0,0.0,0.0,0.0,0.0,0.0,0.0,0.0,0.0,0.0,0.0,0.0,0.0
501.0,5040.0,1563.403072229084,0.0,-0.0,0.0,0.0,0.0,6611.722286999535,0.0,6611.722286999536,0.0,0.0,0.0,0.0,0.5,0.0,0.0,0.0,"[0.5850922930972366, 0.09602886441447822, 0.16689240343086809, 0.3509901904074333, 0.6259741228261433, 0.6455424225416024, 0.6519990179085511, 0.7043667814830066]",21.41,0.0,0.0,0.0,1392.6357565543456,248.42157794257363,-757.8867074216014,-104.04569263721537,238.51283932753944,0.0,0.0,0.0,0.0,0.0,0.0,3.2,21.370384616484333,0.0,21.11810923792129,0.0,3.2,21.41,20.18,22.06,21.19,21.85,2.64,3.2,628.9,-539.5,-629.51,0.0,540.0,60.0,753.0,0.0,0.0,0.0,0.0,0.0,0.0,0.0,0.0,0.0,0.0,0.0,0.0,0.0,0.0
502.0,3524.0,4059.566679683662,1377.9860849522593,-0.0,0.0,0.0,0.0,3802.7909123392983,0.0,0.0,0.0,3802.7909123392983,0.0,0.0,0.5,0.0,0.0,0.0,"[0.5850922930972366, 0.09602886441447822, 0.16689240343086809, 0.3509901904074333, 0.6259741228261433, 0.6455424225416024, 0.6519990179085511, 0.7043667814830066]",21.41,0.0,0.0,0.0,942.4014699999826,212.35871926156963,-766.2083165081451,-125.15508830310645,0.0,0.0,0.0,0.0,0.0,0.0,0.0,3.0,21.35982018893891,0.0,21.10691382728759,0.0,3.0,21.41,20.19,22.03,21.31,21.92,2.47,3.0,414.19,-545.43,-636.42,0.0,512.0,35.0,433.0,0.0,0.0,0.0,0.0,0.0,0.0,0.0,0.0,0.0,0.0,0.0,0.0,0.0,0.0
503.0,2561.0,0.0,2091.865571525662,-0.0,0.0,0.0,0.0,5396.009103970338,0.0,-995.0700012358205,0.0,6391.079105206159,0.0,0.004063202505046268,0.5,0.0,0.0,0.0,"[0.5850922930972366, 0.09602886441447822, 0.16689240343086809, 0.3509901904074333, 0.6259741228261433, 0.6455424225416024, 0.6519990179085511, 0.7043667814830066]",21.64,0.0,0.0,0.0,862.4690802809707,248.6963425801432,-783.7854088669407,-409.63211064401145,0.0,0.0,0.0,0.0,0.0,0.0,0.0,2.8,21.439096763207747,0.0,21.125825591937918,0.0,2.8,21.64,20.21,22.04,21.58,22.11,2.3,2.8,0.0,-557.94,-651.02,0.0,596.0,53.0,327.0,0.0,0.0,0.0,0.0,0.0,0.0,0.0,0.0,0.0,0.0,0.0,0.0,0.0,0.0
504.0,1149.0,7018.617724187771,760.7623380728929,-0.0,0.0,-6987.194293105754,0.0,2476.589442812866,0.0,0.0,0.0,2476.589442812866,0.28531043363515163,0.004063202505046268,0.5,0.0,0.0,0.0,"[0.5850922930972366, 0.09602886441447822, 0.16689240343086809, 0.3509901904074333, 0.6259741228261433, 0.6455424225416024, 0.6519990179085511, 0.7043667814830066]",22.18,0.0,0.0,0.0,402.1203261347469,88.43986771770042,-827.1222316361753,-1071.7412566487876,-2949.490237149466,0.0,0.0,0.0,0.0,0.0,0.0,2.3,21.64747700142455,0.0,21.187406617421406,0.0,2.3,22.18,20.27,22.11,22.03,22.44,1.81,2.3,0.0,-588.79,-687.01,0.0,240.0,0.0,175.0,0.0,0.0,0.0,0.0,0.0,0.0,0.0,0.0,0.0,0.0,0.0,0.0,0.0,0.0
505.0,1205.0,0.0,474.1991302284987,-0.0,0.0,-1502.6016252615927,0.0,1584.3963444541525,0.0,0.0,0.0,1584.3963444541525,0.3466666666666667,0.004063202505046268,0.5,0.0,0.0,0.0,"[0.5850922930972366, 0.09602886441447822, 0.16689240343086809, 0.3509901904074333, 0.6259741228261433, 0.6455424225416024, 0.6519990179085511, 0.7043667814830066]",22.59,0.0,0.0,0.0,318.0438142774033,86.27609619684017,-860.6662599111842,-1495.4865644615807,-54.116344238192355,0.0,0.0,0.0,0.0,0.0,0.0,1.9,21.84049653723316,0.0,21.282870531509648,0.0,1.9,22.59,20.34,22.22,22.37,22.72,1.43,1.9,0.0,-612.67,-714.88,0.0,240.0,0.0,112.0,0.0,0.0,0.0,0.0,0.0,0.0,0.0,0.0,0.0,0.0,0.0,0.0,0.0,0.0
506.0,805.0,39308.235594220336,25302.182085450466,-0.0,0.0,-16000.0,0.0,4539.768732987419,0.0,-80000.0,0.0,84539.76873298742,1.0,0.330729869171713,0.5,0.0,0.0,0.0,"[0.5850922930972366, 0.09602886441447822, 0.16689240343086809, 0.3509901904074333, 0.6259741228261433, 0.6455424225416024, 0.6519990179085511, 0.7043667814830066]",22.59,0.0,0.0,0.0,220.62182434746552,83.76886887901799,-881.4702826275438,-1374.6705300048534,-582.9460761584039,0.0,0.0,0.0,0.0,0.0,0.0,1.4,21.90157494481556,0.0,21.367561176987316,0.0,1.4,22.59,20.42,22.32,22.28,22.69,0.94,1.4,0.0,-627.48,-732.16,0.0,240.0,0.0,39.0,0.0,0.0,0.0,0.0,0.0,0.0,0.0,0.0,0.0,0.0,0.0,0.0,0.0,0.0
507.0,765.0,0.0,0.0,-0.0,0.0,1546.7814411623694,0.0,1780.0873704884448,0.0,1780.0873704884448,0.0,0.0,0.9342354829437768,0.32316147048766347,0.5,0.0,0.0,0.0,"[0.5850922930972366, 0.09602886441447822, 0.16689240343086809, 0.3509901904074333, 0.6259741228261433, 0.6455424225416024, 0.6519990179085511, 0.7043667814830066]",22.59,0.0,0.0,0.0,286.0146669031772,85.45180228413152,-889.7918917140878,-1273.3191577575633,0.0,0.0,0.0,0.0,0.0,0.0,0.0,1.2,21.952707729750497,0.0,21.43961791752713,0.0,1.2,22.59,20.48,22.4,22.24,22.7,0.78,1.2,75.92,-633.4,-739.07,0.0,240.0,0.0,88.0,0.0,0.0,0.0,0.0,0.0,0.0,0.0,0.0,0.0,0.0,0.0,0.0,0.0,0.0
508.0,789.0,2287.4371859296484,0.0,-0.0,0.0,0.0,0.0,4640.7629430721445,0.0,4640.762943072144,0.0,0.0,0.9342354829437768,0.30343033552562204,0.5,0.0,0.0,0.0,"[0.5850922930972366, 0.09602886441447822, 0.16689240343086809, 0.3509901904074333, 0.6259741228261433, 0.6455424225416024, 0.6519990179085511, 0.7043667814830066]",22.46,0.0,0.0,0.0,233.96730242005972,84.11232467597992,-892.8886516629201,-1040.3943561219698,935.549445600431,0.0,0.0,0.0,0.0,0.0,0.0,1.0,21.94452092030161,0.0,21.483854894883244,0.0,1.0,22.46,20.53,22.44,22.05,22.57,0.59,1.0,902.4,-635.6,-741.64,0.0,240.0,0.0,49.0,0.0,0.0,0.0,0.0,0.0,0.0,0.0,0.0,0.0,0.0,0.0,0.0,0.0,0.0
509.0,674.0,0.0,0.0,-0.0,0.0,2051.0,0.0,1106.951819208493,0.0,1106.951819208493,0.0,0.0,0.8470331019913958,0.29872390772286483,0.5,0.0,0.0,0.0,"[0.5850922930972366, 0.09602886441447822, 0.16689240343086809, 0.3509901904074333, 0.6259741228261433, 0.6455424225416024, 0.6519990179085511, 0.7043667814830066]",22.38,0.0,0.0,0.0,222.51828702093948,86.27609619684017,-901.9282331992094,-910.4621005512106,0.0,0.0,0.0,0.0,0.0,0.0,0.0,0.7,21.927306499906482,0.0,21.498778325784073,0.0,0.7,22.38,20.56,22.44,21.86,22.43,0.35,0.7,1014.39,-642.04,-749.15,0.0,240.0,4.0,40.0,0.0,0.0,0.0,0.0,0.0,0.0,0.0,0.0,0.0,0.0,0.0,0.0,0.0,0.0
510.0,845.0,3005.1732294675444,0.0,-0.0,0.0,-2219.1473633202068,0.0,1203.2519953769465,42705.88,3624.5805124167746,0.0,0.0,0.17988856669169773,0.02958236158667832,0.5,0.0,0.0,0.0,"[0.5850922930972366, 0.09602886441447822, 0.16689240343086809, 0.3509901904074333, 0.6259741228261433, 0.6455424225416024, 0.6519990179085511, 0.7043667814830066]",21.93,0.0,0.0,0.0,366.7196895632339,129.7919456719184,-887.6054827452976,-322.13525442036996,0.0,0.0,0.0,0.0,0.0,0.0,0.0,0.6,21.77936104113691,0.0,21.486406025449163,0.0,0.6,21.93,20.58,22.4,21.55,22.19,0.25,0.6,137.88,-631.84,-737.25,0.0,351.0,10.0,89.0,0.0,0.0,0.0,0.0,0.0,0.0,0.0,0.0,0.0,0.0,0.0,0.0,0.0,0.0
511.0,1200.0,4220.0707098432695,3778.970356294053,-0.0,0.0,0.0,0.0,7438.557256265707,0.0,0.0,0.0,7438.557256265707,0.17988856669169773,0.02958236158667832,0.5,0.0,0.0,0.0,"[0.5850922930972366, 0.09602886441447822, 0.16689240343086809, 0.3509901904074333, 0.6259741228261433, 0.6455424225416024, 0.6519990179085511, 0.7043667814830066]",21.41,0.0,0.0,0.0,386.0355130893571,170.49145761190871,-874.3892346332158,6.3569305178039235,989.69552619312,0.0,0.0,0.0,0.0,0.0,0.0,0.4,21.427092529413173,0.0,21.18898193812376,0.0,0.4,21.41,20.21,22.17,21.13,21.86,0.07,0.4,1458.33,-622.44,-726.27,0.0,450.0,23.0,50.0,0.0,0.0,0.0,0.0,0.0,0.0,0.0,0.0,0.0,0.0,0.0,0.0,0.0,0.0
512.0,1041.0,0.0,3523.979088588731,-0.0,0.0,4230.9790885887305,0.0,7517.845662217293,0.0,346.04915818720497,0.0,7171.79650403009,0.0,0.02811106414540619,0.5,0.0,0.0,0.0,"[0.5850922930972366, 0.09602886441447822, 0.16689240343086809, 0.3509901904074333, 0.6259741228261433, 0.6455424225416024, 0.6519990179085511, 0.7043667814830066]",21.41,0.0,0.0,1.709971082193342,349.0193712774773,120.58733031333834,-866.0676255466717,-52.878397230055995,1010.5074594195336,0.0,0.0,0.0,0.0,0.0,0.0,0.6,21.397165883063714,0.0,21.151518643524604,0.0,0.6,21.41,20.19,22.11,21.2,21.88,0.26,0.6,1341.39,-616.51,-719.36,2.49,224.0,63.0,137.0,0.0,0.0,0.0,0.0,0.0,0.0,0.0,0.0,0.0,0.0,0.0,0.0,0.0,0.0
513.0,2696.0,1563.403072229084,0.0,-0.0,10.084233259047263,0.0,0.0,6611.722286999535,0.0,6611.722286999536,0.0,0.0,0.0,0.0,0.5,0.0,0.0,0.0,"[0.5850922930972366, 0.09602886441447822, 0.16689240343086809, 0.3509901904074333, 0.6259741228261433, 0.6455424225416024, 0.6519990179085511, 0.7043667814830066]",21.41,0.0,0.0,28.424330592231264,1655.8226320175588,114.92030966346628,-828.6203846572242,-105.25105030906653,238.51283932753944,0.0,0.0,0.0,0.0,0.0,0.0,1.5,21.370384616484333,0.0,21.11810923792129,0.0,1.5,21.41,20.18,22.06,21.19,21.85,1.2,1.5,628.9,-589.85,-688.26,41.38,141.0,43.0,1162.0,0.0,0.0,0.0,0.0,0.0,0.0,0.0,0.0,0.0,0.0,0.0,0.0,0.0,0.0
514.0,3769.0,4059.566679683662,1377.9860849522593,-0.0,477.3847895020369,0.0,0.0,3802.7909123392983,0.0,0.0,0.0,3802.7909123392983,0.0,0.0,0.5,0.0,0.0,0.0,"[0.5850922930972366, 0.09602886441447822, 0.16689240343086809, 0.3509901904074333, 0.6259741228261433, 0.6455424225416024, 0.6519990179085511, 0.7043667814830066]",21.41,0.0,0.0,78.64649412413186,569.2899988335588,100.1173648144065,-774.5299255946891,-125.15279929285138,0.0,0.0,0.0,0.0,0.0,0.0,0.0,2.8,21.35982018893891,0.0,21.10691382728759,0.0,2.8,21.41,20.19,22.03,21.31,21.92,2.47,2.8,414.19,-551.35,-643.33,114.49,240.0,12.0,299.0,0.0,0.0,0.0,0.0,0.0,0.0,0.0,0.0,0.0,0.0,0.0,0.0,0.0,0.0
515.0,5261.0,0.0,2091.865571525662,-0.0,1057.51105319504,0.0,0.0,5396.009103970338,0.0,-995.0700012358205,0.0,6391.079105206159,0.0,0.004063202505046268,0.5,0.0,0.0,0.0,"[0.5850922930972366, 0.09602886441447822, 0.16689240343086809, 0.3509901904074333, 0.6259741228261433, 0.6455424225416024, 0.6519990179085511, 0.7043667814830066]",21.64,0.0,0.0,97.10024226061724,1144.8313005537539,89.33285278980149,-742.1773634342213,-408.6847760659998,0.0,0.0,0.0,0.0,0.0,0.0,0.0,3.8,21.439096763207747,0.0,21.125825591937918,0.0,3.8,21.64,20.21,22.04,21.58,22.11,3.43,3.8,0.0,-528.32,-616.46,141.36,184.0,0.0,761.0,0.0,0.0,0.0,0.0,0.0,0.0,0.0,0.0,0.0,0.0,0.0,0.0,0.0,0.0
516.0,7887.0,7018.617724187771,760.7623380728929,-0.0,2537.4496539235506,-6987.194293105754,0.0,2476.589442812866,0.0,0.0,0.0,2476.589442812866,0.28531043363515163,0.004063202505046268,0.5,0.0,0.0,0.0,"[0.5850922930972366, 0.09602886441447822, 0.16689240343086809, 0.3509901904074333, 0.6259741228261433, 0.6455424225416024, 0.6519990179085511, 0.7043667814830066]",22.18,0.0,0.0,140.640168309465,2651.184578158258,137.21059088629642,-731.4237271409206,-1069.7354504628947,-2949.490237149466,0.0,0.0,0.0,0.0,0.0,0.0,4.6,21.64747700142455,0.0,21.187406617421406,0.0,4.6,22.18,20.27,22.11,22.03,22.44,4.21,4.6,0.0,-520.67,-607.53,204.74,212.0,0.0,1875.0,0.0,0.0,0.0,0.0,0.0,0.0,0.0,0.0,0.0,0.0,0.0,0.0,0.0,0.0
517.0,4829.0,0.0,474.1991302284987,-0.0,2058.5699532451504,-1502.6016252615927,0.0,1584.3963444541525,0.0,0.0,0.0,1584.3963444541525,0.3466666666666667,0.004063202505046268,0.5,0.0,0.0,0.0,"[0.5850922930972366, 0.09602886441447822, 0.16689240343086809, 0.3509901904074333, 0.6259741228261433, 0.6455424225416024, 0.6519990179085511, 0.7043667814830066]",22.59,0.0,0.0,141.8258719531353,1898.4996148639434,154.9329100095327,-727.5205145264821,-1492.7630418102465,-54.116344238192355,0.0,0.0,0.0,0.0,0.0,0.0,5.1,21.84049653723316,0.0,21.282870531509648,0.0,5.1,22.59,20.34,22.22,22.37,22.72,4.69,5.1,0.0,-517.89,-604.28,206.47,326.0,0.0,1251.0,0.0,0.0,0.0,0.0,0.0,0.0,0.0,0.0,0.0,0.0,0.0,0.0,0.0,0.0
518.0,3883.0,39308.235594220336,25302.182085450466,-0.0,795.1626983196861,-16000.0,0.0,4539.768732987419,0.0,-80000.0,0.0,84539.76873298742,1.0,0.330729869171713,0.5,0.0,0.0,0.0,"[0.5850922930972366, 0.09602886441447822, 0.16689240343086809, 0.3509901904074333, 0.6259741228261433, 0.6455424225416024, 0.6519990179085511, 0.7043667814830066]",22.59,0.0,0.0,120.33050876293719,2132.8883534336637,144.04536124583905,-719.1989054399381,-1371.370421235341,-582.9460761584039,0.0,0.0,0.0,0.0,0.0,0.0,5.3,21.90157494481556,0.0,21.367561176987316,0.0,5.3,22.59,20.42,22.32,22.28,22.69,4.89,5.3,0.0,-511.96,-597.37,175.18,240.0,18.0,1470.0,0.0,0.0,0.0,0.0,0.0,0.0,0.0,0.0,0.0,0.0,0.0,0.0,0.0,0.0
519.0,2801.0,0.0,0.0,-0.0,24.45262595713139,1546.7814411623694,0.0,1780.0873704884448,0.0,1780.0873704884448,0.0,0.0,0.9342354829437768,0.32316147048766347,0.5,0.0,0.0,0.0,"[0.5850922930972366, 0.09602886441447822, 0.16689240343086809, 0.3509901904074333, 0.6259741228261433, 0.6455424225416024, 0.6519990179085511, 0.7043667814830066]",22.59,0.0,0.0,37.90101270431049,804.2406522694938,82.77284706782835,-740.0029281562978,-1270.3316504955944,0.0,0.0,0.0,0.0,0.0,0.0,0.0,4.8,21.952707729750497,0.0,21.43961791752713,0.0,4.8,22.59,20.48,22.4,22.24,22.7,4.36,4.8,75.92,-526.77,-614.65,55.18,170.0,11.0,512.0,0.0,0.0,0.0,0.0,0.0,0.0,0.0,0.0,0.0,0.0,0.0,0.0,0.0,0.0
520.0,2216.0,2287.4371859296484,0.0,-0.0,0.0,0.0,0.0,4640.7629430721445,0.0,4640.762943072144,0.0,0.0,0.9342354829437768,0.30343033552562204,0.5,0.0,0.0,0.0,"[0.5850922930972366, 0.09602886441447822, 0.16689240343086809, 0.3509901904074333, 0.6259741228261433, 0.6455424225416024, 0.6519990179085511, 0.7043667814830066]",22.46,0.0,0.0,0.8586106824309875,1302.8698566765802,98.60615930777396,-768.0645153647619,-1037.912819448476,935.549445600431,0.0,0.0,0.0,0.0,0.0,0.0,4.0,21.94452092030161,0.0,21.483854894883244,0.0,4.0,22.46,20.53,22.44,22.05,22.57,3.56,4.0,902.4,-546.75,-637.96,1.25,166.0,18.0,887.0,0.0,0.0,0.0,0.0,0.0,0.0,0.0,0.0,0.0,0.0,0.0,0.0,0.0,0.0
521.0,1573.0,0.0,0.0,-0.0,0.0,2051.0,0.0,1106.951819208493,0.0,1106.951819208493,0.0,0.0,0.8470331019913958,0.29872390772286483,0.5,0.0,0.0,0.0,"[0.5850922930972366, 0.09602886441447822, 0.16689240343086809, 0.3509901904074333, 0.6259741228261433, 0.6455424225416024, 0.6519990179085511, 0.7043667814830066]",22.38,0.0,0.0,0.0,286.15514561973083,101.8689893789124,-793.7473150741389,-908.3783299205618,0.0,0.0,0.0,0.0,0.0,0.0,0.0,3.3,21.927306499906482,0.0,21.498778325784073,0.0,3.3,22.38,20.56,22.44,21.86,22.43,2.85,3.3,1014.39,-565.03,-659.29,0.0,162.0,68.0,122.0,0.0,0.0,0.0,0.0,0.0,0.0,0.0,0.0,0.0,0.0,0.0,0.0,0.0,0.0
522.0,1844.0,3005.1732294675444,0.0,-0.0,0.0,-2219.1473633202068,0.0,1203.2519953769465,0.0,3624.5805124167746,0.0,0.0,0.17988856669169773,0.02958236158667832,0.5,0.0,0.0,0.0,"[0.5850922930972366, 0.09602886441447822, 0.16689240343086809, 0.3509901904074333, 0.6259741228261433, 0.6455424225416024, 0.6519990179085511, 0.7043667814830066]",21.93,0.0,0.0,0.0,658.6344625616632,211.6718076676457,-804.3893918798587,-320.52169622820946,0.0,0.0,0.0,0.0,0.0,0.0,0.0,2.6,21.77936104113691,0.0,21.486406025449163,0.0,2.6,21.93,20.58,22.4,21.55,22.19,2.18,2.6,137.88,-572.61,-668.13,0.0,351.0,131.0,295.0,0.0,0.0,0.0,0.0,0.0,0.0,0.0,0.0,0.0,0.0,0.0,0.0,0.0,0.0
523.0,3889.0,4220.0707098432695,3778.970356294053,-0.0,0.0,0.0,0.0,7438.557256265707,0.0,0.0,0.0,7438.557256265707,0.17988856669169773,0.02958236158667832,0.5,0.0,0.0,0.0,"[0.5850922930972366, 0.09602886441447822, 0.16689240343086809, 0.3509901904074333, 0.6259741228261433, 0.6455424225416024, 0.6519990179085511, 0.7043667814830066]",21.41,0.0,0.0,0.0,702.9554976343314,242.89193961148635,-811.9771664841365,7.519327589669068,989.69552619312,0.0,0.0,0.0,0.0,0.0,0.0,1.9,21.427092529413173,0.0,21.18898193812376,0.0,1.9,21.41,20.21,22.17,21.13,21.86,1.46,1.9,1458.33,-578.01,-674.44,0.0,468.0,118.0,268.0,0.0,0.0,0.0,0.0,0.0,0.0,0.0,0.0,0.0,0.0,0.0,0.0,0.0,0.0
524.0,5124.0,0.0,3523.979088588731,-0.0,0.0,4230.9790885887305,0.0,7517.845662217293,0.0,346.04915818720497,0.0,7171.79650403009,0.0,0.02811106414540619,0.5,0.0,0.0,0.0,"[0.5850922930972366, 0.09602886441447822, 0.16689240343086809, 0.3509901904074333, 0.6259741228261433, 0.6455424225416024, 0.6519990179085511, 0.7043667814830066]",21.41,0.0,0.0,0.0,657.5106328292343,173.0673760891233,-836.9419937437682,-52.38209273962638,1010.5074594195336,0.0,0.0,0.0,0.0,0.0,0.0,1.3,21.397165883063714,0.0,21.151518643524604,0.0,1.3,21.41,20.19,22.11,21.2,21.88,0.85,1.3,1341.39,-595.78,-695.17,0.0,240.0,127.0,353.0,0.0,0.0,0.0,0.0,0.0,0.0,0.0,0.0,0.0,0.0,0.0,0.0,0.0,0.0
525.0,4436.0,1563.403072229084,0.0,-0.0,0.0,0.0,0.0,6611.722286999535,0.0,6611.722286999536,0.0,0.0,0.0,0.0,0.5,0.0,0.0,0.0,"[0.5850922930972366, 0.09602886441447822, 0.16689240343086809, 0.3509901904074333, 0.6259741228261433, 0.6455424225416024, 0.6519990179085511, 0.7043667814830066]",21.41,0.0,0.0,0.0,984.5450849660695,199.30739897701577,-866.0676255466717,-106.12972262581997,238.51283932753944,0.0,0.0,0.0,0.0,0.0,0.0,0.6,21.370384616484333,0.0,21.11810923792129,0.0,0.6,21.41,20.18,22.06,21.19,21.85,0.14,0.6,628.9,-616.51,-719.36,0.0,274.0,138.0,579.0,0.0,0.0,0.0,0.0,0.0,0.0,0.0,0.0,0.0,0.0,0.0,0.0,0.0,0.0
526.0,4038.0,4059.566679683662,1377.9860849522593,-0.0,0.0,0.0,0.0,3802.7909123392983,0.0,0.0,0.0,3802.7909123392983,0.0,0.0,0.5,0.0,0.0,0.0,"[0.5850922930972366, 0.09602886441447822, 0.16689240343086809, 0.3509901904074333, 0.6259741228261433, 0.6455424225416024, 0.6519990179085511, 0.7043667814830066]",21.41,0.0,0.0,0.0,497.9268108243181,139.82085494320717,-895.1932573495753,-127.70078059472091,0.0,0.0,0.0,0.0,0.0,0.0,0.0,-0.1,21.35982018893891,0.0,21.10691382728759,0.0,-0.1,21.41,20.19,22.03,21.31,21.92,-0.58,-0.1,414.19,-637.24,-743.55,0.0,260.0,69.0,229.0,0.0,0.0,0.0,0.0,0.0,0.0,0.0,0.0,0.0,0.0,0.0,0.0,0.0,0.0
527.0,2251.0,0.0,2091.865571525662,-0.0,0.0,0.0,0.0,5396.009103970338,0.0,-995.0700012358205,0.0,6391.079105206159,0.0,0.004063202505046268,0.5,0.0,0.0,0.0,"[0.5850922930972366, 0.09602886441447822, 0.16689240343086809, 0.3509901904074333, 0.6259741228261433, 0.6455424225416024, 0.6519990179085511, 0.7043667814830066]",21.64,0.0,0.0,0.0,425.580271799202,130.54754842523468,-929.4135678814587,-412.5328095485813,0.0,0.0,0.0,0.0,0.0,0.0,0.0,-0.7,21.439096763207747,0.0,21.125825591937918,0.0,-0.7,21.64,20.21,22.04,21.58,22.11,-1.17,-0.7,0.0,-661.6,-771.98,0.0,360.0,4.0,129.0,0.0,0.0,0.0,0.0,0.0,0.0,0.0,0.0,0.0,0.0,0.0,0.0,0.0,0.0
528.0,3125.0,7018.617724187771,760.7623380728929,-0.0,0.0,-6987.194293105754,0.0,2476.589442812866,0.0,0.0,0.0,2476.589442812866,0.28531043363515163,0.004063202505046268,0.5,0.0,0.0,0.0,"[0.5850922930972366, 0.09602886441447822, 0.16689240343086809, 0.3509901904074333, 0.6259741228261433, 0.6455424225416024, 0.6519990179085511, 0.7043667814830066]",22.18,0.0,0.0,0.0,470.3227430215311,116.22544169192163,-985.2328042805092,-1074.88169038717,-2949.490237149466,0.0,0.0,0.0,0.0,0.0,0.0,-1.5,21.64747700142455,0.0,21.187406617421406,0.0,-1.5,22.18,20.27,22.11,22.03,22.44,-1.95,-1.5,0.0,-701.34,-818.34,0.0,320.0,0.0,184.0,0.0,0.0,0.0,0.0,0.0,0.0,0.0,0.0,0.0,0.0,0.0,0.0,0.0,0.0
529.0,3564.0,0.0,474.1991302284987,-0.0,0.0,-1502.6016252615927,0.0,1584.3963444541525,0.0,0.0,0.0,1584.3963444541525,0.3466666666666667,0.004063202505046268,0.5,0.0,0.0,0.0,"[0.5850922930972366, 0.09602886441447822, 0.16689240343086809, 0.3509901904074333, 0.6259741228261433, 0.6455424225416024, 0.6519990179085511, 0.7043667814830066]",22.59,0.0,0.0,0.0,302.1697193068439,111.89789865020114,-1031.2592461853337,-1498.884714936853,-54.116344238192355,0.0,0.0,0.0,0.0,0.0,0.0,-2.2,21.84049653723316,0.0,21.282870531509648,0.0,-2.2,22.59,20.34,22.22,22.37,22.72,-2.64,-2.2,0.0,-734.1,-856.57,0.0,320.0,0.0,58.0,0.0,0.0,0.0,0.0,0.0,0.0,0.0,0.0,0.0,0.0,0.0,0.0,0.0,0.0
530.0,1472.0,39308.235594220336,25302.182085450466,-0.0,0.0,-16000.0,0.0,4539.768732987419,0.0,-80000.0,0.0,84539.76873298742,1.0,0.330729869171713,0.5,0.0,0.0,0.0,"[0.5850922930972366, 0.09602886441447822, 0.16689240343086809, 0.3509901904074333, 0.6259741228261433, 0.6455424225416024, 0.6519990179085511, 0.7043667814830066]",22.59,0.0,0.0,0.0,438.36383500558173,121.54900654483176,-1064.5456825315093,-1378.3361632995368,-582.9460761584039,0.0,0.0,0.0,0.0,0.0,0.0,-3.0,21.90157494481556,0.0,21.367561176987316,0.0,-3.0,22.59,20.42,22.32,22.28,22.69,-3.45,-3.0,0.0,-757.8,-884.22,0.0,320.0,10.0,159.0,0.0,0.0,0.0,0.0,0.0,0.0,0.0,0.0,0.0,0.0,0.0,0.0,0.0,0.0
531.0,752.0,0.0,0.0,-0.0,0.0,1546.7814411623694,0.0,1780.0873704884448,0.0,1780.0873704884448,0.0,0.0,0.9342354829437768,0.32316147048766347,0.5,0.0,0.0,0.0,"[0.5850922930972366, 0.09602886441447822, 0.16689240343086809, 0.3509901904074333, 0.6259741228261433, 0.6455424225416024, 0.6519990179085511, 0.7043667814830066]",22.59,0.0,0.0,0.0,435.9054574658934,128.24639458558966,-1085.349705247869,-1277.278576219454,0.0,0.0,0.0,0.0,0.0,0.0,0.0,-3.5,21.952707729750497,0.0,21.43961791752713,0.0,-3.5,22.59,20.48,22.4,22.24,22.7,-3.96,-3.5,75.92,-772.61,-901.5,0.0,320.0,21.0,156.0,0.0,0.0,0.0,0.0,0.0,0.0,0.0,0.0,0.0,0.0,0.0,0.0,0.0,0.0
532.0,621.0,2287.4371859296484,0.0,-0.0,0.0,0.0,0.0,4640.7629430721445,0.0,4640.762943072144,0.0,0.0,0.9342354829437768,0.30343033552562204,0.5,0.0,0.0,0.0,"[0.5850922930972366, 0.09602886441447822, 0.16689240343086809, 0.3509901904074333, 0.6259741228261433, 0.6455424225416024, 0.6519990179085511, 0.7043667814830066]",22.46,0.0,0.0,0.0,322.6796119236729,94.99987343967354,-1096.7680742832454,-1044.5415821723905,935.549445600431,0.0,0.0,0.0,0.0,0.0,0.0,-3.9,21.94452092030161,0.0,21.483854894883244,0.0,-3.9,22.46,20.53,22.44,22.05,22.57,-4.38,-3.9,902.4,-780.74,-910.98,0.0,240.0,14.0,114.0,0.0,0.0,0.0,0.0,0.0,0.0,0.0,0.0,0.0,0.0,0.0,0.0,0.0,0.0
533.0,1112.0,0.0,0.0,-0.0,0.0,2051.0,0.0,1106.951819208493,0.0,1106.951819208493,0.0,0.0,0.8470331019913958,0.29872390772286483,0.5,0.0,0.0,0.0,"[0.5850922930972366, 0.09602886441447822, 0.16689240343086809, 0.3509901904074333, 0.6259741228261433, 0.6455424225416024, 0.6519990179085511, 0.7043667814830066]",22.38,0.0,0.0,0.0,204.60725066035243,95.03421901936971,-1109.9684603628066,-914.761122963036,0.0,0.0,0.0,0.0,0.0,0.0,0.0,-4.3,21.927306499906482,0.0,21.498778325784073,0.0,-4.3,22.38,20.56,22.44,21.86,22.43,-4.79,-4.3,1014.39,-790.13,-921.95,0.0,240.0,19.0,25.0,0.0,0.0,0.0,0.0,0.0,0.0,0.0,0.0,0.0,0.0,0.0,0.0,0.0,0.0
