,load_elec,grid,hp_elec,ev,pv,bat_pow,cool,load_th_sh,load_th_dhw,tes_pow,dh,hp_th,bat_soc,tes_soc,ev_soc,eh_th_in,eh_elec_in,eh_th_out,temp_slack,temp_zone_1,temp_zone_2,temp_update,Qsolar_1,QconvInt_1,QradInt_1,Qvent_1,Qconduc_1,Qheating_1,Qsolar_2,QconvInt_2,QradInt_2,Qvent_2,Qconduc_2,Qheating_2,temp_amb,temp_aggregate_1,temp_aggregate_2,temp_wall_1,temp_wall_2,_Tamb,_Tz_1,_TEW_1,_TIW_1,_T1_1,_T2_1,_Taeq_1,_Tvent_1,_Qheating_1,_Qinfvent_1,_Qenvelope_1,_Qsolar_1,_Qint_people_1,_Qint_lighting_1,_Qint_appliances_1,_Tz_2,_TEW_2,_TIW_2,_T1_2,_T2_2,_Taeq_2,_Tvent_2,_Qheating_2,_Qinfvent_2,_Qenvelope_2,_Qsolar_2,_Qint_people_2,_Qint_lighting_2,_Qint_appliances_2
390.0,1944.0,44475.54279547945,30064.267122318386,-0.0,0.0,-12244.897959183672,0.0,59178.75804041641,0.0,0.0,0.0,59178.75804041641,1.0,0.5,0.8,0.0,0.0,0.0,"[2.0, 2.0, 2.0, 2.0, 2.0, 2.0, 2.0, 2.0]",20.0,0.0,0.0,0.0,273.231403411385,117.166583674446,-1334.225514226645,-1391.9426156778686,10660.625219506524,0.0,0.0,0.0,0.0,0.0,0.0,-6.2,19.413486090077168,0.0,19.0,0.0,-6.2,20.0,18.0,20.0,20.0,20.0,-6.68,-6.2,9656.16,-931.21,-3754.64,0.0,268.0,54.0,54.0,0.0,0.0,0.0,0.0,0.0,0.0,0.0,0.0,0.0,0.0,0.0,0.0,0.0,0.0
391.0,1044.0,4762.235641380627,16150.824463173725,-0.0,0.0,12456.400000000001,0.0,31637.448900666026,0.0,0.0,0.0,31637.448900666022,0.470391156462585,0.5,0.8,0.0,0.0,0.0,"[2.0, 2.0, 2.0, 2.0, 2.0, 2.0, 2.0, 2.0]",24.0,0.0,0.0,0.0,372.73806815664307,116.88204528991554,-1543.0165298117308,-7018.573119860152,0.0,0.0,0.0,0.0,0.0,0.0,0.0,-6.3,20.71926260265518,0.0,19.152905631247457,0.0,-6.3,24.0,17.91,20.4,22.21,22.39,-6.77,-6.3,0.0,-1076.94,-4342.2,0.0,214.0,78.0,153.0,0.0,0.0,0.0,0.0,0.0,0.0,0.0,0.0,0.0,0.0,0.0,0.0,0.0,0.0
392.0,2910.0,0.0,0.0,-0.0,0.0,2910.0,0.0,20541.990830633134,0.0,20541.990830633138,0.0,0.0,0.3466666666666667,0.41266160361125365,0.8,0.0,0.0,0.0,"[2.0, 2.0, 2.0, 2.0, 2.0, 2.0, 2.0, 2.0]",20.11,0.0,0.0,2.6744408913748203,298.8065505057385,121.0552749296961,-1339.9013183806435,-1364.2792714023692,10375.100301630615,0.0,0.0,0.0,0.0,0.0,0.0,-6.2,19.538587811636425,0.0,19.063546700999687,0.0,-6.2,20.11,17.67,20.46,19.1,20.2,-6.67,-6.2,10287.47,-935.18,-3770.62,4.23,228.0,81.0,91.0,0.0,0.0,0.0,0.0,0.0,0.0,0.0,0.0,0.0,0.0,0.0,0.0,0.0,0.0
393.0,2695.0,45302.56903094414,26390.377438073527,-0.0,9.321252284105661,-16000.0,0.0,53708.15543806388,0.0,0.0,0.0,53708.155438063885,1.0,0.41266160361125365,0.8,0.0,0.0,0.0,"[2.0, 2.0, 2.0, 2.0, 2.0, 2.0, 2.0, 2.0]",24.0,0.0,0.0,42.17573083814617,1346.5279125643399,155.04180419306076,-1502.2768194536652,-6847.335431943881,6818.574507668826,0.0,0.0,0.0,0.0,0.0,0.0,-5.5,20.79900574570337,0.0,19.20469814633615,0.0,-5.5,24.0,17.61,20.8,22.09,22.6,-5.92,-5.5,4116.14,-1048.5,-4227.56,66.7,332.0,43.0,810.0,0.0,0.0,0.0,0.0,0.0,0.0,0.0,0.0,0.0,0.0,0.0,0.0,0.0,0.0
394.0,6151.0,29292.972303860974,23041.30484283001,-0.0,45.797400488340124,0.0,0.0,47990.617568722504,0.0,0.0,0.0,47990.617568722504,1.0,0.41266160361125365,0.8,0.0,0.0,0.0,"[2.0, 2.0, 2.0, 2.0, 2.0, 2.0, 2.0, 2.0]",24.0,0.0,0.0,60.2235537486866,4095.462210336146,150.2362670321013,-1476.8145004798744,-6554.114756424388,0.0,0.0,0.0,0.0,0.0,0.0,0.0,-5.0,20.938369127350143,0.0,19.368977948309198,0.0,-5.0,24.0,17.58,21.16,21.7,22.51,-5.38,-5.0,0.0,-1030.73,-4155.9,95.24,184.0,0.0,2912.0,0.0,0.0,0.0,0.0,0.0,0.0,0.0,0.0,0.0,0.0,0.0,0.0,0.0,0.0
395.0,5419.0,781.3292837660496,11724.532250425293,-0.0,366.10961307807383,16000.0,0.0,25090.592738700903,0.0,0.0,0.0,25090.592738700907,0.3197278911564626,0.41266160361125365,0.8,0.0,0.0,0.0,"[2.0, 2.0, 2.0, 2.0, 2.0, 2.0, 2.0, 2.0]",22.2,0.0,0.0,103.92319654293098,152.94940909368302,41.89037327810063,-1354.7106452784515,-3896.312500859456,375.2078761972369,0.0,0.0,0.0,0.0,0.0,0.0,-4.4,20.411855938950097,0.0,19.347782755519134,0.0,-4.4,22.2,17.45,21.25,20.02,21.36,-4.78,-4.4,9255.63,-945.51,-3812.29,164.36,128.0,0.0,45.0,0.0,0.0,0.0,0.0,0.0,0.0,0.0,0.0,0.0,0.0,0.0,0.0,0.0,0.0
396.0,4312.0,24029.0000888911,19499.95062682463,-0.0,562.8206529135936,-659.7251145356099,0.0,42473.64627332485,0.0,0.0,0.0,42473.64627332485,0.3466666666666667,0.41266160361125365,0.8,0.0,0.0,0.0,"[2.0, 2.0, 2.0, 2.0, 2.0, 2.0, 2.0, 2.0]",20.0,0.0,0.0,118.03080326814359,394.5879837414548,99.0193578166122,-1222.1913107419648,-815.7778397330843,9745.77114496222,0.0,0.0,0.0,0.0,0.0,0.0,-4.0,19.683466983874013,0.0,19.217145811673987,0.0,-4.0,20.0,17.26,21.17,19.01,20.62,-4.36,-4.0,0.0,-853.02,-3439.37,186.67,300.0,0.0,132.0,0.0,0.0,0.0,0.0,0.0,0.0,0.0,0.0,0.0,0.0,0.0,0.0,0.0,0.0
397.0,3532.0,3203.9373501653245,0.0,-0.0,344.0823365855021,0.0,0.0,47088.65679204346,0.0,47088.65679204346,0.0,0.0,0.3466666666666667,0.2124547294954226,0.8,0.0,0.0,0.0,"[2.0, 2.0, 2.0, 2.0, 2.0, 2.0, 2.0, 2.0]",24.0,0.0,0.0,104.92127786939093,360.0579532107029,82.64259301807927,-1415.7049349427762,-6497.131641999794,2560.149952748695,0.0,0.0,0.0,0.0,0.0,0.0,-3.8,20.962116494885322,0.0,19.350920182163094,0.0,-3.8,24.0,17.26,21.44,21.97,22.94,-4.2,-3.8,0.0,-988.08,-3983.93,165.93,248.0,0.0,134.0,0.0,0.0,0.0,0.0,0.0,0.0,0.0,0.0,0.0,0.0,0.0,0.0,0.0,0.0
398.0,1675.0,23126.04861374045,5407.928567104383,-0.0,72.5101964326341,-16000.0,0.0,11830.787576437546,0.0,0.0,0.0,11830.787576437546,1.0,0.2124547294954226,0.8,0.0,0.0,0.0,"[2.0, 2.0, 2.0, 2.0, 2.0, 2.0, 2.0, 2.0]",21.69,0.0,0.0,71.00339426700049,191.92106180888842,4.457768024311086,-1302.9721152260802,-3045.1960872943537,573.8763869564418,0.0,0.0,0.0,0.0,0.0,0.0,-3.9,20.302420126947172,0.0,19.359546072675386,0.0,-3.9,21.69,17.19,21.53,20.04,21.59,-4.36,-3.9,8429.25,-909.4,-3666.69,112.29,0.0,0.0,141.0,0.0,0.0,0.0,0.0,0.0,0.0,0.0,0.0,0.0,0.0,0.0,0.0,0.0,0.0
399.0,1629.0,8521.471995924592,18033.665058811246,-0.0,0.4549529110788245,11183.3454699552,0.0,38936.02830881726,0.0,0.0,0.0,38936.02830881726,0.5245176245767347,0.2124547294954226,0.8,0.0,0.0,0.0,"[2.0, 2.0, 2.0, 2.0, 2.0, 2.0, 2.0, 2.0]",20.0,0.0,0.0,25.469669878420966,208.25476919687895,4.837152537018412,-1232.376238331481,-758.7614838296705,1752.1949678624524,0.0,0.0,0.0,0.0,0.0,0.0,-4.2,19.711942481794757,0.0,19.216369392631602,0.0,-4.2,20.0,17.02,21.41,18.93,20.76,-4.7,-4.2,0.0,-860.13,-3468.03,40.28,0.0,0.0,153.0,0.0,0.0,0.0,0.0,0.0,0.0,0.0,0.0,0.0,0.0,0.0,0.0,0.0,0.0
400.0,1951.0,0.0,10385.654530044802,-0.0,0.0,12336.654530044802,0.0,21928.354818853004,0.0,0.0,0.0,21928.354818853004,0.0,0.2124547294954226,0.8,0.0,0.0,0.0,"[2.0, 2.0, 2.0, 2.0, 2.0, 2.0, 2.0, 2.0]",20.0,0.0,0.0,0.0,213.34114298875315,47.4862948405337,-1257.8385573052722,-986.6765354784259,1987.9929774051795,0.0,0.0,0.0,0.0,0.0,0.0,-4.7,19.604025841145738,0.0,19.060118659284633,0.0,-4.7,20.0,16.84,21.28,18.97,20.76,-5.25,-4.7,0.0,-877.9,-3539.68,0.0,142.0,0.0,82.0,0.0,0.0,0.0,0.0,0.0,0.0,0.0,0.0,0.0,0.0,0.0,0.0,0.0,0.0
401.0,1932.0,28386.99646419387,17823.265563505556,-0.0,0.0,-8489.795918367347,0.0,36952.528157806824,0.0,0.0,0.0,36952.528157806824,0.3466666666666667,0.2124547294954226,0.8,0.0,0.0,0.0,"[2.0, 2.0, 2.0, 2.0, 2.0, 2.0, 2.0, 2.0]",20.0,0.0,0.0,0.0,201.30577965023386,49.003832891363004,-1278.208412484305,-1197.0769873058575,10543.650920391905,0.0,0.0,0.0,0.0,0.0,0.0,-5.1,19.50398423823646,0.0,18.914041403825152,0.0,-5.1,20.0,16.67,21.16,18.91,20.7,-5.63,-5.1,8581.99,-892.12,-3597.01,0.0,148.0,0.0,70.0,0.0,0.0,0.0,0.0,0.0,0.0,0.0,0.0,0.0,0.0,0.0,0.0,0.0,0.0
402.0,2696.0,0.0,9424.456397651542,-0.0,0.0,12120.456397651542,0.0,19180.103441569972,0.0,0.0,0.0,19180.103441569972,0.48467447288896504,0.5391213961620893,0.8,0.0,0.0,0.0,"[2.0, 2.0, 2.0, 0.4815458419870602, 1.28210572298525, 2.0, 2.0, 2.0]",24.0,0.0,0.0,0.0,501.1869161683402,57.03413841033475,-1502.2768194536652,-6869.840289966661,0.0,0.0,0.0,0.0,0.0,0.0,0.0,-5.5,20.78849452674885,0.0,19.05797891212783,0.0,-5.5,24.0,16.69,21.42,21.74,22.92,-6.03,-5.5,0.0,-1048.5,-4227.56,0.0,110.0,22.0,308.0,0.0,0.0,0.0,0.0,0.0,0.0,0.0,0.0,0.0,0.0,0.0,0.0,0.0,0.0
403.0,3152.0,0.0,0.0,-0.0,0.0,3152.0,0.0,39838.56597377441,0.0,39838.56597377441,0.0,0.0,0.35066086744678815,0.36973973811032734,0.8,0.0,0.0,0.0,"[2.0, 2.0, 2.0, 0.4815458419870602, 1.28210572298525, 2.0, 2.0, 2.0]",20.24,0.0,0.0,0.0,289.2069154619196,82.29482388143091,-1325.9871981444896,-1435.881225096217,1902.662709350111,0.0,0.0,0.0,0.0,0.0,0.0,-5.8,19.630257000762157,0.0,18.966363757558184,0.0,-5.8,20.24,16.56,21.37,18.74,20.72,-6.34,-5.8,7206.67,-925.46,-3731.46,0.0,88.0,87.0,157.0,0.0,0.0,0.0,0.0,0.0,0.0,0.0,0.0,0.0,0.0,0.0,0.0,0.0,0.0
404.0,2947.0,25002.24980792437,0.0,-0.0,0.0,93.94360234845699,0.0,19821.763945109873,0.0,0.0,0.0,0.0,0.3466666666666667,0.36973973811032734,0.8,88096.72864493282,22024.182161233206,110120.91080616602,"[2.0, 2.0, 2.0, 0.4815458419870602, 1.28210572298525, 2.0, 2.0, 2.0]",20.0,0.0,0.0,0.0,589.2313301150083,120.61265966487089,-1334.225514226645,-1295.8100081684963,1931.1268223287523,0.0,0.0,0.0,0.0,0.0,0.0,-6.2,19.459902173935298,0.0,18.820199115979726,0.0,-6.2,20.0,16.39,21.25,18.8,20.74,-6.73,-6.2,0.0,-931.21,-3754.64,0.0,170.0,99.0,333.0,0.0,0.0,0.0,0.0,0.0,0.0,0.0,0.0,0.0,0.0,0.0,0.0,0.0,0.0
405.0,3055.0,41137.532951269655,21876.845286513308,-0.0,0.0,-16000.0,0.0,42228.33283396959,0.0,0.0,0.0,42228.332833969595,1.0,0.36973973811032734,0.8,0.0,0.0,0.0,"[2.0, 2.0, 2.0, 0.4815458419870602, 1.28210572298525, 2.0, 2.0, 2.0]",20.0,0.0,0.0,0.0,581.422671758469,123.42642813411686,-1354.5953694056775,-1502.7778802369874,2163.7145484503285,0.0,0.0,0.0,0.0,0.0,0.0,-6.6,19.36159596765796,0.0,18.67726059627293,0.0,-6.6,20.0,16.22,21.13,18.73,20.67,-7.14,-6.6,2980.29,-945.43,-3811.97,0.0,180.0,99.0,322.0,0.0,0.0,0.0,0.0,0.0,0.0,0.0,0.0,0.0,0.0,0.0,0.0,0.0,0.0
406.0,3843.0,0.0,0.0,-0.0,0.0,3843.0,0.0,39709.6207698697,0.0,39709.6207698697,0.0,0.0,0.8366071428571429,0.20090631646972487,0.7464285714285714,0.0,0.0,0.0,"[2.0, 2.0, 2.0, 0.4815458419870602, 1.28210572298525, 2.0, 2.0, 2.0]",20.0,0.0,0.0,0.0,346.0166959824304,109.70535492453524,-1374.9652245847103,-1694.311378570541,10937.733160162237,0.0,0.0,0.0,0.0,0.0,0.0,-7.0,19.270589257190384,0.0,18.543961805054195,0.0,-7.0,20.0,16.06,21.03,18.68,20.61,-7.5,-7.0,0.0,-959.65,-3869.29,0.0,194.0,77.0,144.0,0.0,0.0,0.0,0.0,0.0,0.0,0.0,0.0,0.0,0.0,0.0,0.0,0.0,0.0
407.0,3322.0,0.0,355.0000000000009,-0.0,0.0,3677.0000000000014,0.0,20237.350634537193,0.0,19575.793191173194,0.0,661.557443363997,0.6802721088435374,0.11767590324194768,0.7464285714285714,0.0,0.0,0.0,"[2.0, 2.0, 2.0, 0.4815458419870602, 1.28210572298525, 2.0, 2.0, 2.0]",24.0,0.0,0.0,0.0,422.5272200630175,103.1293567042749,-1593.9411677593123,-7344.453004613079,107.85554610559811,0.0,0.0,0.0,0.0,0.0,0.0,-7.3,20.56573005209585,0.0,18.702810062745232,0.0,-7.3,24.0,16.1,21.31,21.54,22.86,-7.81,-7.3,0.0,-1112.48,-4485.51,0.0,202.0,58.0,198.0,0.0,0.0,0.0,0.0,0.0,0.0,0.0,0.0,0.0,0.0,0.0,0.0,0.0,0.0
408.0,966.0,2936.161873833899,17955.48106446473,-0.0,0.0,16000.0,0.0,32947.26944742127,0.0,0.0,0.0,32947.26944742127,0.0,0.11767590324194768,0.7464285714285714,0.0,0.0,0.0,"[2.0, 2.0, 2.0, 0.4815458419870602, 1.28210572298525, 2.0, 2.0, 2.0]",20.0,0.0,0.0,0.0,256.1813053484827,53.87260080444035,-1405.5200073532599,-1558.228888837436,10972.811547720012,0.0,0.0,0.0,0.0,0.0,0.0,-7.6,19.337832867532192,0.0,18.611858747820825,0.0,-7.6,20.0,15.97,21.25,18.39,20.55,-8.07,-7.6,7570.41,-980.97,-3955.27,0.0,160.0,0.0,104.0,0.0,0.0,0.0,0.0,0.0,0.0,0.0,0.0,0.0,0.0,0.0,0.0,0.0,0.0
409.0,1332.0,19921.415770872958,18489.808692018592,-0.0,0.0,0.0,0.0,33575.191704467055,0.0,0.0,0.0,33575.191704467055,0.0,0.11767590324194768,0.7464285714285714,0.0,0.0,0.0,"[2.0, 2.0, 2.0, 0.4815458419870602, 1.28210572298525, 2.0, 2.0, 2.0]",24.0,0.0,0.0,0.0,238.48645567815964,53.461600915674076,-1619.4034867331034,-7230.6718855498,8562.974386437565,0.0,0.0,0.0,0.0,0.0,0.0,-7.8,20.62190657304454,0.0,18.756938604991973,0.0,-7.8,24.0,16.01,21.51,21.5,22.97,-8.27,-7.8,0.0,-1130.25,-4557.16,0.0,160.0,0.0,91.0,0.0,0.0,0.0,0.0,0.0,0.0,0.0,0.0,0.0,0.0,0.0,0.0,0.0,0.0
410.0,1193.0,38128.52641780592,28255.087867349543,-0.0,0.0,-8489.795918367347,0.0,50499.63021971095,0.0,0.0,0.0,50499.630219710954,0.3466666666666667,0.11767590324194768,0.7464285714285714,0.0,0.0,0.0,"[2.0, 2.0, 2.0, 0.4815458419870602, 1.28210572298525, 2.0, 2.0, 2.0]",24.0,0.0,0.0,0.0,262.98701676014537,54.03067768473507,-1634.680878117378,-6939.440495266187,7694.195177788449,0.0,0.0,0.0,0.0,0.0,0.0,-8.1,20.762905771296932,0.0,18.936186577870746,0.0,-8.1,24.0,16.07,21.8,21.26,22.93,-8.56,-8.1,0.0,-1140.91,-4600.15,0.0,160.0,0.0,109.0,0.0,0.0,0.0,0.0,0.0,0.0,0.0,0.0,0.0,0.0,0.0,0.0,0.0,0.0
411.0,957.0,45406.64207428633,28222.6088639149,-0.0,0.0,-16000.0,0.0,50441.581288097135,0.0,0.0,0.0,50441.581288097135,1.0,0.11767590324194768,0.7464285714285714,0.0,0.0,0.0,"[2.0, 2.0, 2.0, 0.4815458419870602, 1.28210572298525, 2.0, 2.0, 2.0]",23.73,0.0,0.0,0.0,200.30283270535722,57.666445931513614,-1620.7696119300442,-6305.754451360453,0.0,0.0,0.0,0.0,0.0,0.0,0.0,-8.1,20.793748779614184,0.0,19.075546040763,0.0,-8.1,23.73,16.11,22.04,21.08,22.92,-8.56,-8.1,7377.52,-1131.21,-4561.01,0.0,160.0,9.0,62.0,0.0,0.0,0.0,0.0,0.0,0.0,0.0,0.0,0.0,0.0,0.0,0.0,0.0,0.0
412.0,655.0,45820.29711248597,44936.19562692354,-0.0,0.0,0.0,0.0,30270.68780679146,0.0,-49614.2893978382,0.0,79884.97720462966,1.0,0.320267584949787,0.7464285714285714,0.0,0.0,0.0,"[2.0, 2.0, 2.0, 0.4815458419870602, 1.28210572298525, 2.0, 2.0, 2.0]",20.03,0.0,0.0,0.0,260.47964939795384,70.94490387627005,-1437.8545172122645,-1048.0646300153676,10402.517032751968,0.0,0.0,0.0,0.0,0.0,0.0,-8.2,19.620147485371596,0.0,18.93990738780733,0.0,-8.2,20.03,15.97,21.91,18.46,20.95,-8.65,-8.2,0.0,-1003.54,-4046.27,0.0,160.0,30.0,104.0,0.0,0.0,0.0,0.0,0.0,0.0,0.0,0.0,0.0,0.0,0.0,0.0,0.0,0.0
413.0,611.0,0.0,0.0,-0.0,0.0,611.0,0.0,34558.93598018992,0.0,34558.93598018992,0.0,0.0,0.9740221088435375,0.17333333333333328,0.7464285714285714,0.0,0.0,0.0,"[2.0, 2.0, 2.0, 0.4815458419870602, 1.28210572298525, 2.0, 2.0, 2.0]",24.0,0.0,0.0,0.0,240.92218397285993,63.13590598971091,-1644.8658057068942,-6733.250962567223,8079.782865351606,0.0,0.0,0.0,0.0,0.0,0.0,-8.3,20.862695439518824,0.0,19.046058363581587,0.0,-8.3,24.0,16.0,22.09,21.5,23.28,-8.75,-8.3,0.0,-1148.02,-4628.82,0.0,160.0,17.0,91.0,0.0,0.0,0.0,0.0,0.0,0.0,0.0,0.0,0.0,0.0,0.0,0.0,0.0,0.0
414.0,3665.0,17079.323372832197,13328.926755968036,-0.0,0.0,0.0,0.0,23568.328584846033,0.0,0.0,0.0,23568.328584846033,0.9740221088435375,0.17333333333333328,0.7464285714285714,0.0,0.0,0.0,"[2.0, 2.0, 2.0, 0.4815458419870602, 1.28210572298525, 2.0, 2.0, 2.0]",24.0,0.0,0.0,0.0,293.0754251064436,67.30913562949151,-1644.8658057068942,-6498.468746281979,0.0,0.0,0.0,0.0,0.0,0.0,0.0,-8.3,20.975649809791285,0.0,19.190586565288303,0.0,-8.3,24.0,16.06,22.32,21.26,23.21,-8.75,-8.3,0.0,-1148.02,-4628.82,0.0,202.0,0.0,109.0,0.0,0.0,0.0,0.0,0.0,0.0,0.0,0.0,0.0,0.0,0.0,0.0,0.0,0.0
415.0,687.0,0.0,0.0,-0.0,0.0,687.0,0.0,21554.607879588755,0.0,21554.60787958876,0.0,0.0,0.9448129251700681,0.08168959234868721,0.7464285714285714,0.0,0.0,0.0,"[2.0, 2.0, 2.0, 0.4815458419870602, 1.28210572298525, 2.0, 2.0, 2.0]",20.25,0.0,0.0,0.0,190.4166413915735,48.75090988289145,-1454.0341474191575,-1157.0728859381063,1851.1797786181053,0.0,0.0,0.0,0.0,0.0,0.0,-8.3,19.786394748661177,0.0,19.05752475436108,0.0,-8.3,20.25,15.93,22.18,18.57,21.19,-8.75,-8.3,2841.41,-1014.83,-4091.8,0.0,148.0,0.0,62.0,0.0,0.0,0.0,0.0,0.0,0.0,0.0,0.0,0.0,0.0,0.0,0.0,0.0,0.0
416.0,1650.0,26647.630320299588,23512.87196878139,-0.0,0.0,-1351.5201999166995,0.0,42023.98326989347,0.0,0.0,0.0,42023.98326989348,1.0,0.08168959234868721,0.7464285714285714,0.0,0.0,0.0,"[2.0, 2.0, 2.0, 0.4815458419870602, 1.28210572298525, 2.0, 2.0, 2.0]",20.0,0.0,0.0,2.67352293527869,141.55879736258436,3.2879991101301624,-1430.9823263270505,-1060.682444362931,2344.3565513831923,0.0,0.0,0.0,0.0,0.0,0.0,-8.1,19.5786725506863,0.0,18.872614187797577,0.0,-8.1,20.0,15.77,21.97,18.59,21.13,-8.54,-8.1,0.0,-998.74,-4026.93,4.23,0.0,0.0,104.0,0.0,0.0,0.0,0.0,0.0,0.0,0.0,0.0,0.0,0.0,0.0,0.0,0.0,0.0
417.0,2320.0,21649.05634289844,19220.811061183947,-0.0,0.0,0.0,0.0,35085.83893108385,0.0,0.0,0.0,35085.838931083854,1.0,0.08168959234868721,0.7464285714285714,0.0,0.0,0.0,"[2.0, 2.0, 2.0, 0.4815458419870602, 1.28210572298525, 2.0, 2.0, 2.0]",20.0,0.0,0.0,16.126629904674356,123.86394769226135,2.8769992213638904,-1410.6124711480177,-1314.3140468209672,10896.033149601297,0.0,0.0,0.0,0.0,0.0,0.0,-7.7,19.45546093989805,0.0,18.702396375077985,0.0,-7.7,20.0,15.62,21.78,18.54,21.04,-8.16,-7.7,4117.61,-984.53,-3969.6,25.5,0.0,0.0,91.0,0.0,0.0,0.0,0.0,0.0,0.0,0.0,0.0,0.0,0.0,0.0,0.0,0.0,0.0
418.0,3778.0,56627.60936184591,0.0,-0.0,0.48173172279253534,0.0,0.0,47310.25774208351,0.0,0.0,0.0,0.0,1.0,0.08168959234868721,0.7464285714285714,210267.8121870379,52566.953046759474,262834.76523379737,"[2.0, 2.0, 2.0, 0.4815458419870602, 1.28210572298525, 2.0, 2.0, 2.0]",24.0,0.0,0.0,24.098394144400945,148.36450877424707,3.4460759904248794,-1599.0336315540708,-7017.675259201914,8440.33640853632,0.0,0.0,0.0,0.0,0.0,0.0,-7.4,20.72311092280761,0.0,18.831335245509695,0.0,-7.4,24.0,15.68,21.98,21.39,23.22,-7.87,-7.4,0.0,-1116.03,-4499.84,38.11,0.0,0.0,109.0,0.0,0.0,0.0,0.0,0.0,0.0,0.0,0.0,0.0,0.0,0.0,0.0,0.0,0.0
419.0,1548.0,65548.34246203848,63674.534185480545,-0.0,1.9334357522574213,0.0,0.0,39267.2036447442,0.0,-80000.0,0.0,119267.20364474421,1.0,0.40835625901535394,0.7464285714285714,0.0,0.0,0.0,"[2.0, 2.0, 2.0, 0.4815458419870602, 1.28210572298525, 2.0, 2.0, 2.0]",24.0,0.0,0.0,29.399280491835135,84.39082150461762,1.960153315654517,-1588.8487039645545,-6749.49495305853,8221.824165074999,0.0,0.0,0.0,0.0,0.0,0.0,-7.2,20.851522910465413,0.0,18.999914236014455,0.0,-7.2,24.0,15.78,22.22,21.15,23.16,-7.67,-7.2,0.0,-1108.93,-4471.18,46.5,0.0,0.0,62.0,0.0,0.0,0.0,0.0,0.0,0.0,0.0,0.0,0.0,0.0,0.0,0.0,0.0,0.0
420.0,3768.0,14067.622500198462,10234.005021996216,-0.0,4.720634298745419,0.0,0.0,19461.754790794097,0.0,0.0,0.0,19461.754790794097,1.0,0.40835625901535394,0.7464285714285714,0.0,0.0,0.0,"[2.0, 2.0, 2.0, 0.4815458419870602, 1.28210572298525, 2.0, 2.0, 2.0]",24.0,0.0,0.0,34.877113130802876,252.88590824388814,49.003832891363004,-1573.5713125802797,-6503.954956519812,0.0,0.0,0.0,0.0,0.0,0.0,0.0,-6.9,20.96870424020625,0.0,19.15455668735978,0.0,-6.9,24.0,15.87,22.44,21.19,23.28,-7.37,-6.9,0.0,-1098.26,-4428.19,55.16,144.0,0.0,110.0,0.0,0.0,0.0,0.0,0.0,0.0,0.0,0.0,0.0,0.0,0.0,0.0,0.0,0.0
421.0,5941.0,0.0,14927.699623993922,-0.0,5098.573681111076,15770.125942882845,0.0,31518.465498465335,0.0,0.0,0.0,31518.465498465335,0.3295014480066818,0.40835625901535394,0.7464285714285714,0.0,0.0,0.0,"[2.0, 2.0, 2.0, 0.4815458419870602, 1.28210572298525, 2.0, 2.0, 2.0]",20.27,0.0,0.0,1074.3354856646015,319.7967972806563,40.97352737239126,-1271.8072971856727,-1162.9326931913622,8715.035034989467,0.0,0.0,0.0,0.0,0.0,0.0,-4.7,19.792151167057426,0.0,19.03470916897197,0.0,-4.7,20.27,15.78,22.29,18.53,21.26,-4.54,-4.7,0.0,-887.65,-3578.99,1699.07,112.0,0.0,176.0,0.0,0.0,0.0,0.0,0.0,0.0,0.0,0.0,0.0,0.0,0.0,0.0,0.0,0.0
422.0,4698.0,8329.633914121701,11338.603820842034,-0.0,3859.522019173784,7749.874057117157,0.0,9578.25154372009,19303.89,0.0,0.0,25021.36354372009,0.0,0.40835625901535394,0.7464285714285714,15443.112000000001,3860.7780000000002,19303.89,"[2.0, 2.0, 2.0, 0.4815458419870602, 1.28210572298525, 2.0, 2.0, 2.0]",24.0,0.0,0.0,1114.9547071573363,335.9872265336643,45.842295285468616,-1410.6124711480177,-6425.162442841414,0.0,0.0,0.0,0.0,0.0,0.0,0.0,-3.7,20.994674512473328,0.0,19.191895986278922,0.0,-3.7,24.0,15.91,22.47,21.66,23.64,-3.54,-3.7,0.0,-984.53,-3969.6,1763.31,127.0,0.0,180.0,0.0,0.0,0.0,0.0,0.0,0.0,0.0,0.0,0.0,0.0,0.0,0.0,0.0,0.0
423.0,7016.0,24256.59521882294,17587.552601360425,-0.0,468.24035863159975,0.0,0.0,38978.84344798328,0.0,0.0,0.0,38978.84344798329,0.0,0.40835625901535394,0.7464285714285714,0.0,0.0,0.0,"[2.0, 2.0, 2.0, 0.4815458419870602, 1.28210572298525, 2.0, 2.0, 2.0]",20.96,0.0,0.0,708.2309682455594,260.62292753293633,79.73397842065644,-1250.9545722699308,-1971.3154149528461,8467.264008767077,0.0,0.0,0.0,0.0,0.0,0.0,-3.6,20.093605535202716,0.0,19.177534306894042,0.0,-3.6,20.96,15.93,22.42,19.29,21.85,-3.8,-3.6,0.0,-873.1,-3520.31,1120.07,246.0,0.0,62.0,0.0,0.0,0.0,0.0,0.0,0.0,0.0,0.0,0.0,0.0,0.0,0.0,0.0,0.0
424.0,4690.0,32124.692246398652,11274.068785166659,-0.0,0.0,-16000.0,0.0,24126.597322162364,0.0,0.0,0.0,24126.59732216236,0.6533333333333333,0.40835625901535394,0.7464285714285714,0.0,0.0,0.0,"[2.0, 2.0, 2.0, 0.4815458419870602, 1.28210572298525, 2.0, 2.0, 2.0]",24.0,0.0,0.0,1.339951426261431,359.05500626582636,94.4667436641243,-1446.259717711325,-6242.563808905546,0.0,0.0,0.0,0.0,0.0,0.0,0.0,-4.4,21.087966372178816,0.0,19.327003258888922,0.0,-4.4,24.0,16.06,22.59,21.6,23.61,-5.28,-4.4,0.0,-1009.41,-4069.92,2.12,246.0,22.0,132.0,0.0,0.0,0.0,0.0,0.0,0.0,0.0,0.0,0.0,0.0,0.0,0.0,0.0,0.0
425.0,8105.0,0.0,4683.854622460948,-0.0,0.0,12788.854622460949,0.0,9755.570592347067,0.0,0.0,0.0,9755.570592347067,0.10958951435115016,0.40835625901535394,0.7464285714285714,0.0,0.0,0.0,"[2.0, 2.0, 2.0, 0.4815458419870602, 1.28210572298525, 2.0, 2.0, 2.0]",20.52,0.0,0.0,0.0,1521.1839591078524,138.03273187334892,-1299.3737745544167,-1260.6519754600722,3983.2911114655376,0.0,0.0,0.0,0.0,0.0,0.0,-5.0,19.991316823182572,0.0,19.222910203542398,0.0,-5.0,20.52,16.01,22.44,18.76,21.44,-5.85,-5.0,0.0,-906.89,-3656.57,0.0,188.0,82.0,1010.0,0.0,0.0,0.0,0.0,0.0,0.0,0.0,0.0,0.0,0.0,0.0,0.0,0.0,0.0
426.0,3246.0,17079.323372832197,13328.926755968036,-0.0,0.0,0.0,0.0,27349.9577047392,0.0,0.0,0.0,23568.328584846033,0.9740221088435375,0.17333333333333328,0.7464285714285714,0.0,0.0,0.0,"[2.0, 2.0, 2.0, 0.4815458419870602, 1.28210572298525, 2.0, 2.0, 2.0]",21.99,0.0,0.0,0.0,461.42723371073185,160.57449500337592,-1400.0502434988073,-3535.6982083142475,8500.821258461106,0.0,0.0,0.0,0.0,0.0,0.0,-5.5,20.37988221426889,0.0,19.166364365271686,0.0,-5.5,21.99,15.97,22.36,19.89,22.24,-6.34,-5.5,2522.75,-977.16,-3939.88,0.0,234.0,141.0,201.0,0.0,0.0,0.0,0.0,0.0,0.0,0.0,0.0,0.0,0.0,0.0,0.0,0.0,0.0
427.0,3963.0,0.0,0.0,-0.0,0.0,687.0,0.0,21554.607879588755,0.0,21554.60787958876,0.0,0.0,0.9448129251700681,0.08168959234868721,0.7464285714285714,0.0,0.0,0.0,"[2.0, 2.0, 2.0, 0.4815458419870602, 1.28210572298525, 2.0, 2.0, 2.0]",20.25,0.0,0.0,0.0,489.29483096480334,140.05611594112136,-1341.9999439344772,-1145.3602666059603,1851.1797786181053,0.0,0.0,0.0,0.0,0.0,0.0,-6.1,19.786394748661177,0.0,19.05752475436108,0.0,-6.1,20.25,15.93,22.18,18.57,21.19,-6.94,-6.1,2841.41,-936.64,-3776.52,0.0,220.0,111.0,232.0,0.0,0.0,0.0,0.0,0.0,0.0,0.0,0.0,0.0,0.0,0.0,0.0,0.0,0.0
428.0,3136.0,26647.630320299588,23512.87196878139,-0.0,0.0,-1351.5201999166995,0.0,42023.98326989347,0.0,0.0,0.0,42023.98326989348,1.0,0.08168959234868721,0.7464285714285714,0.0,0.0,0.0,"[2.0, 2.0, 2.0, 0.4815458419870602, 1.28210572298525, 2.0, 2.0, 2.0]",20.0,0.0,0.0,0.0,924.6454441087433,164.17864787409556,-1359.687833200436,-1053.993470467191,2344.3565513831923,0.0,0.0,0.0,0.0,0.0,0.0,-6.7,19.5786725506863,0.0,18.872614187797577,0.0,-6.7,20.0,15.77,21.97,18.59,21.13,-7.51,-6.7,0.0,-948.98,-3826.3,0.0,314.0,86.0,505.0,0.0,0.0,0.0,0.0,0.0,0.0,0.0,0.0,0.0,0.0,0.0,0.0,0.0,0.0
429.0,3243.0,21649.05634289844,19220.811061183947,-0.0,0.0,0.0,0.0,35085.83893108385,0.0,0.0,0.0,35085.838931083854,1.0,0.08168959234868721,0.7464285714285714,0.0,0.0,0.0,"[2.0, 2.0, 2.0, 0.4815458419870602, 1.28210572298525, 2.0, 2.0, 2.0]",20.0,0.0,0.0,0.0,666.673162072981,145.24103761478818,-1385.1501521742268,-1313.262166675152,10896.033149601297,0.0,0.0,0.0,0.0,0.0,0.0,-7.2,19.45546093989805,0.0,18.702396375077985,0.0,-7.2,20.0,15.62,21.78,18.54,21.04,-8.0,-7.2,4117.61,-966.76,-3897.95,0.0,284.0,79.0,332.0,0.0,0.0,0.0,0.0,0.0,0.0,0.0,0.0,0.0,0.0,0.0,0.0,0.0,0.0
430.0,2880.0,56627.60936184591,0.0,-0.0,0.0,0.0,0.0,47310.25774208351,0.0,0.0,0.0,0.0,1.0,0.08168959234868721,0.7464285714285714,210267.8121870379,52566.953046759474,262834.76523379737,"[2.0, 2.0, 2.0, 0.4815458419870602, 1.28210572298525, 2.0, 2.0, 2.0]",24.0,0.0,0.0,0.0,527.8366492750616,90.1670525201079,-1619.4034867331034,-7022.213591457461,8440.33640853632,0.0,0.0,0.0,0.0,0.0,0.0,-7.8,20.72311092280761,0.0,18.831335245509695,0.0,-7.8,24.0,15.68,21.98,21.39,23.22,-8.57,-7.8,0.0,-1130.25,-4557.16,0.0,194.0,35.0,282.0,0.0,0.0,0.0,0.0,0.0,0.0,0.0,0.0,0.0,0.0,0.0,0.0,0.0,0.0
431.0,1420.0,65548.34246203848,63674.534185480545,-0.0,0.0,0.0,0.0,39267.2036447442,0.0,-80000.0,0.0,119267.20364474421,1.0,0.40835625901535394,0.7464285714285714,0.0,0.0,0.0,"[2.0, 2.0, 2.0, 0.4815458419870602, 1.28210572298525, 2.0, 2.0, 2.0]",24.0,0.0,0.0,0.0,405.76367827007994,101.6750494055635,-1649.9582695016525,-6758.802401193565,8221.824165074999,0.0,0.0,0.0,0.0,0.0,0.0,-8.4,20.851522910465413,0.0,18.999914236014455,0.0,-8.4,24.0,15.78,22.22,21.15,23.16,-9.11,-8.4,0.0,-1151.58,-4643.15,0.0,308.0,0.0,136.0,0.0,0.0,0.0,0.0,0.0,0.0,0.0,0.0,0.0,0.0,0.0,0.0,0.0,0.0
432.0,1657.0,14067.622500198462,10234.005021996216,-0.0,0.0,0.0,0.0,19461.754790794097,0.0,0.0,0.0,19461.754790794097,1.0,0.40835625901535394,0.7464285714285714,0.0,0.0,0.0,"[2.0, 2.0, 2.0, 0.4815458419870602, 1.28210572298525, 2.0, 2.0, 2.0]",24.0,0.0,0.0,0.0,384.12867988774155,56.84444615398108,-1685.6055160649596,-6519.816492420803,0.0,0.0,0.0,0.0,0.0,0.0,0.0,-9.1,20.96870424020625,0.0,19.15455668735978,0.0,-9.1,24.0,15.87,22.44,21.19,23.28,-9.82,-9.1,0.0,-1176.46,-4743.46,0.0,160.0,0.0,198.0,0.0,0.0,0.0,0.0,0.0,0.0,0.0,0.0,0.0,0.0,0.0,0.0,0.0,0.0
433.0,2027.0,0.0,14927.699623993922,-0.0,0.0,15770.125942882845,0.0,31518.465498465335,0.0,0.0,0.0,31518.465498465335,0.3295014480066818,0.40835625901535394,0.7464285714285714,0.0,0.0,0.0,"[2.0, 2.0, 2.0, 0.4815458419870602, 1.28210572298525, 2.0, 2.0, 2.0]",20.27,0.0,0.0,0.0,366.4338302174185,56.43344626521481,-1536.6154145130984,-1202.2372683739238,8715.035034989467,0.0,0.0,0.0,0.0,0.0,0.0,-9.9,19.792151167057426,0.0,19.03470916897197,0.0,-9.9,20.27,15.78,22.29,18.53,21.26,-10.6,-9.9,0.0,-1072.47,-4324.19,0.0,160.0,0.0,185.0,0.0,0.0,0.0,0.0,0.0,0.0,0.0,0.0,0.0,0.0,0.0,0.0,0.0,0.0
434.0,1294.0,8329.633914121701,11338.603820842034,-0.0,0.0,7749.874057117157,0.0,9578.25154372009,0.0,0.0,0.0,25021.36354372009,0.0,0.40835625901535394,0.7464285714285714,15443.112000000001,3860.7780000000002,19303.89,"[2.0, 2.0, 2.0, 0.4815458419870602, 1.28210572298525, 2.0, 2.0, 2.0]",24.0,0.0,0.0,0.0,357.47894678102034,58.488445709046154,-1767.0849367810906,-6475.857036928302,0.0,0.0,0.0,0.0,0.0,0.0,0.0,-10.7,20.994674512473328,0.0,19.191895986278922,0.0,-10.7,24.0,15.91,22.47,21.66,23.64,-11.36,-10.7,0.0,-1233.32,-4972.75,0.0,160.0,4.0,178.0,0.0,0.0,0.0,0.0,0.0,0.0,0.0,0.0,0.0,0.0,0.0,0.0,0.0,0.0
435.0,1220.0,24256.59521882294,17587.552601360425,-0.0,0.0,0.0,0.0,38978.84344798328,0.0,0.0,0.0,38978.84344798329,0.0,0.40835625901535394,0.7464285714285714,0.0,0.0,0.0,"[2.0, 2.0, 2.0, 0.4815458419870602, 1.28210572298525, 2.0, 2.0, 2.0]",20.96,0.0,0.0,0.0,345.7301397124657,65.57028994624959,-1637.9818206715527,-2023.5813145883917,8467.264008767077,0.0,0.0,0.0,0.0,0.0,0.0,-11.2,20.093605535202716,0.0,19.177534306894042,0.0,-11.2,20.96,15.93,22.42,19.29,21.85,-11.87,-11.2,0.0,-1143.22,-4609.44,0.0,160.0,17.0,168.0,0.0,0.0,0.0,0.0,0.0,0.0,0.0,0.0,0.0,0.0,0.0,0.0,0.0,0.0
436.0,884.0,32124.692246398652,11274.068785166659,-0.0,0.0,-16000.0,0.0,24126.597322162364,0.0,0.0,0.0,24126.59732216236,0.6533333333333333,0.40835625901535394,0.7464285714285714,0.0,0.0,0.0,"[2.0, 2.0, 2.0, 0.4815458419870602, 1.28210572298525, 2.0, 2.0, 2.0]",24.0,0.0,0.0,0.0,268.43158588947557,54.15713918897084,-1812.9171109339143,-6287.760664972897,0.0,0.0,0.0,0.0,0.0,0.0,0.0,-11.6,21.087966372178816,0.0,19.327003258888922,0.0,-11.6,24.0,16.06,22.59,21.6,23.61,-12.26,-11.6,0.0,-1265.31,-5101.73,0.0,160.0,0.0,113.0,0.0,0.0,0.0,0.0,0.0,0.0,0.0,0.0,0.0,0.0,0.0,0.0,0.0,0.0
437.0,811.0,0.0,4683.854622460948,-0.0,0.0,12788.854622460949,0.0,9755.570592347067,0.0,0.0,0.0,9755.570592347067,0.10958951435115016,0.40835625901535394,0.7464285714285714,0.0,0.0,0.0,"[2.0, 2.0, 2.0, 0.4815458419870602, 1.28210572298525, 2.0, 2.0, 2.0]",20.52,0.0,0.0,0.0,206.46379250959922,60.63829128105435,-1655.8462401874897,-1304.5143510758487,3983.2911114655376,0.0,0.0,0.0,0.0,0.0,0.0,-12.0,19.991316823182572,0.0,19.222910203542398,0.0,-12.0,20.52,16.01,22.44,18.76,21.44,-12.62,-12.0,0.0,-1155.69,-4659.72,0.0,160.0,14.0,66.0,0.0,0.0,0.0,0.0,0.0,0.0,0.0,0.0,0.0,0.0,0.0,0.0,0.0,0.0
438.0,763.0,56362.489395335964,19857.035548942375,-19460.64139941691,0.0,-16000.0,0.0,27349.9577047392,0.0,0.0,0.0,27349.9577047392,0.6533333333333333,0.40835625901535394,0.5,0.0,0.0,0.0,"[1.7548289180416852, 2.0781539330938372, 1.0396958278199655, 0.4815458419870602, 1.203767708316935, 2.2808936233304067, 2.2118454436724235, 2.227392046063315]",21.99,0.0,0.0,0.0,372.95298535911655,131.33027214885286,-1751.4302453371222,-3578.8534763881153,8500.821258461106,0.0,0.0,0.0,0.0,0.0,0.0,-12.4,20.37988221426889,0.0,19.166364365271686,0.0,-12.4,21.99,15.97,22.36,19.89,22.24,-13.0,-12.4,2522.75,-1222.4,-4928.7,0.0,300.0,58.0,110.0,0.0,0.0,0.0,0.0,0.0,0.0,0.0,0.0,0.0,0.0,0.0,0.0,0.0,0.0
439.0,1013.0,37758.8495422828,28067.25937620404,-0.0,0.0,-8489.795918367347,0.0,37855.53426488247,0.0,0.0,0.0,37855.53426488248,1.0,0.40835625901535394,0.5,0.0,0.0,0.0,"[1.7548289180416852, 2.0781539330938372, 1.0396958278199655, 0.4815458419870602, 1.203767708316935, 2.2808936233304067, 2.2118454436724235, 2.227392046063315]",23.75,0.0,0.0,0.0,228.88682063434064,100.06266522655736,-1856.4489640923107,-6077.928584905875,7614.500197329466,0.0,0.0,0.0,0.0,0.0,0.0,-12.7,20.946234108219315,0.0,19.223390090036887,0.0,-12.7,23.75,15.93,22.51,21.21,23.3,-13.3,-12.7,1539.53,-1295.7,-5224.23,0.0,186.0,69.0,63.0,0.0,0.0,0.0,0.0,0.0,0.0,0.0,0.0,0.0,0.0,0.0,0.0,0.0,0.0
440.0,1072.0,16956.80483651414,15800.020812331568,-0.0,0.0,0.0,0.0,21310.17571862289,0.0,0.0,0.0,21310.17571862289,1.0,0.40835625901535394,0.5,0.0,0.0,0.0,"[1.7548289180416852, 2.0781539330938372, 1.0396958278199655, 0.4815458419870602, 1.203767708316935, 2.2808936233304067, 2.2118454436724235, 2.227392046063315]",23.75,0.0,0.0,2.6724677207117744,275.30893636862936,51.12206308731224,-1856.4489640923107,-5948.754732835828,185.62164566944307,0.0,0.0,0.0,0.0,0.0,0.0,-12.7,21.008324527531514,0.0,19.29483279533943,0.0,-12.7,23.75,15.91,22.68,21.09,23.31,-13.29,-12.7,1874.01,-1295.7,-5224.23,4.23,121.0,15.0,137.0,0.0,0.0,0.0,0.0,0.0,0.0,0.0,0.0,0.0,0.0,0.0,0.0,0.0,0.0
441.0,1927.0,26862.2872075677,32320.975771529862,-0.0,0.0,7520.000000000001,0.0,44517.08404048884,0.0,0.0,0.0,44517.084040488844,0.6802721088435374,0.40835625901535394,0.5,0.0,0.0,0.0,"[1.7548289180416852, 2.0781539330938372, 1.0396958278199655, 0.4815458419870602, 1.203767708316935, 2.2808936233304067, 2.2118454436724235, 2.227392046063315]",20.25,0.0,0.0,16.11919995149763,126.37131505445286,28.95968446999259,-1662.4435180855967,-1029.483044803922,9817.610906677504,0.0,0.0,0.0,0.0,0.0,0.0,-12.4,19.85346687568425,0.0,19.110152287433944,0.0,-12.4,20.25,15.72,22.5,18.53,21.38,-12.99,-12.4,1880.78,-1160.29,-4678.28,25.49,85.0,1.0,48.0,0.0,0.0,0.0,0.0,0.0,0.0,0.0,0.0,0.0,0.0,0.0,0.0,0.0,0.0
442.0,2082.0,31360.620060602458,29122.345854613388,-0.0,0.5288943139412103,0.0,0.0,40389.10435913929,0.0,0.0,0.0,40389.104359139295,0.6802721088435374,0.40835625901535394,0.5,0.0,0.0,0.0,"[1.7548289180416852, 2.0781539330938372, 1.0396958278199655, 0.4815458419870602, 1.203767708316935, 2.2808936233304067, 2.2118454436724235, 2.227392046063315]",23.75,0.0,0.0,24.088673274352765,313.70747654390533,46.82237194329587,-1836.0791089132779,-6143.55249756498,303.4549909405896,0.0,0.0,0.0,0.0,0.0,0.0,-12.3,20.91330172635617,0.0,19.147596688641222,0.0,-12.3,23.75,15.69,22.61,21.24,23.44,-12.87,-12.3,2639.93,-1281.48,-5166.91,38.1,132.0,0.0,161.0,0.0,0.0,0.0,0.0,0.0,0.0,0.0,0.0,0.0,0.0,0.0,0.0,0.0,0.0
443.0,2549.0,0.0,0.0,-0.0,5.000514595030707,16000.0,0.0,19092.957361104898,0.0,6982.556897969375,0.0,0.0,0.0,0.3786685171022188,0.5,53824.00205838012,13456.00051459503,67280.00257297515,"[1.7548289180416852, 2.0781539330938372, 1.0396958278199655, 0.4815458419870602, 1.203767708316935, 2.2808936233304067, 2.2118454436724235, 2.227392046063315]",20.25,0.0,0.0,34.914693136396366,289.7083889343579,33.38583711824472,-1647.1661267013221,-1205.1224318065517,2496.182485282847,0.0,0.0,0.0,0.0,0.0,0.0,-12.1,19.767966264074076,0.0,18.97773708490491,0.0,-12.1,20.25,15.52,22.44,18.45,21.35,-12.66,-12.1,1617.62,-1149.63,-4635.29,55.22,89.0,0.0,166.0,0.0,0.0,0.0,0.0,0.0,0.0,0.0,0.0,0.0,0.0,0.0,0.0,0.0,0.0
444.0,5009.0,71294.87339703772,65937.87814994491,-0.0,8.479119892378954,0.0,0.0,62985.78125366306,0.0,-30347.746953301914,0.0,93333.52820696498,0.0,0.5025884838282016,0.5,0.0,0.0,0.0,"[1.7548289180416852, 2.0781539330938372, 1.0396958278199655, 0.4815458419870602, 1.203767708316935, 2.2808936233304067, 2.2118454436724235, 2.227392046063315]",20.25,0.0,0.0,39.05229300746082,327.1756212322484,45.93714141364545,-1642.073662906564,-1498.5971066970242,10026.44096395387,0.0,0.0,0.0,0.0,0.0,0.0,-12.0,19.626555976681857,0.0,18.780641018326882,0.0,-12.0,20.25,15.34,22.22,18.62,21.4,-12.59,-12.0,1799.01,-1146.07,-4620.96,61.76,128.0,0.0,173.0,0.0,0.0,0.0,0.0,0.0,0.0,0.0,0.0,0.0,0.0,0.0,0.0,0.0,0.0
445.0,5011.0,16367.702397039053,17039.074020198655,-0.0,5764.210135144798,0.0,0.0,26717.431305775623,0.0,0.0,0.0,26717.431305775623,0.0,0.5025884838282016,0.5,0.0,0.0,0.0,"[1.7548289180416852, 2.0781539330938372, 1.0396958278199655, 0.4815458419870602, 1.203767708316935, 2.2808936233304067, 2.2118454436724235, 2.227392046063315]",23.75,0.0,0.0,1132.0664976349415,5668.58449337511,161.01711026820115,-1739.3222968128725,-6555.493879633064,0.0,0.0,0.0,0.0,0.0,0.0,0.0,-10.4,20.70694493552431,0.0,18.847632423847344,0.0,-10.4,23.75,15.34,22.36,21.09,23.3,-10.25,-10.4,1616.83,-1213.95,-4894.63,1790.37,98.0,0.0,4113.0,0.0,0.0,0.0,0.0,0.0,0.0,0.0,0.0,0.0,0.0,0.0,0.0,0.0,0.0
446.0,3090.0,0.0,1315.3778635727995,-0.0,4405.3778635727995,0.0,0.0,36396.70782391668,0.0,34246.40342598494,0.0,2150.304397931737,0.0,0.3569830270850684,0.5,0.0,0.0,0.0,"[1.7548289180416852, 2.0781539330938372, 1.0396958278199655, 0.4815458419870602, 1.203767708316935, 2.2808936233304067, 2.2118454436724235, 2.227392046063315]",23.12,0.0,0.0,1263.1581944971033,524.0397786980287,12.171919782693394,-1671.491891259485,-5570.583955263746,0.0,0.0,0.0,0.0,0.0,0.0,0.0,-9.7,20.544254728248802,0.0,18.87412015771455,0.0,-9.7,23.12,15.34,22.41,19.99,22.53,-9.42,-9.7,507.43,-1166.61,-4703.74,1997.7,0.0,0.0,385.0,0.0,0.0,0.0,0.0,0.0,0.0,0.0,0.0,0.0,0.0,0.0,0.0,0.0,0.0
447.0,2080.0,13399.112377455618,12076.146680912803,-0.0,824.0298653444614,0.0,0.0,19626.26736466652,0.0,0.0,0.0,19626.26736466652,0.0,0.3569830270850684,0.5,0.0,0.0,0.0,"[1.7548289180416852, 2.0781539330938372, 1.0396958278199655, 0.4815458419870602, 1.203767708316935, 2.2808936233304067, 2.2118454436724235, 2.227392046063315]",20.52,0.0,0.0,832.3833011919011,421.59591218563213,46.63267968694221,-1544.1636461669145,-1846.4456785333289,2228.4595978713596,0.0,0.0,0.0,0.0,0.0,0.0,-9.8,19.72907262504678,0.0,18.798349609255872,0.0,-9.8,20.52,15.28,22.32,18.83,21.64,-9.92,-9.8,980.59,-1077.74,-4345.43,1316.42,123.0,0.0,245.0,0.0,0.0,0.0,0.0,0.0,0.0,0.0,0.0,0.0,0.0,0.0,0.0,0.0,0.0
448.0,3125.0,33642.45124328018,21859.44306869643,-0.0,0.0,-8489.795918367347,0.0,34067.42337598328,0.0,0.0,0.0,34067.42337598328,0.3466666666666667,0.3569830270850684,0.5,0.0,0.0,0.0,"[1.7548289180416852, 2.0781539330938372, 1.0396958278199655, 0.4815458419870602, 1.203767708316935, 2.2808936233304067, 2.2118454436724235, 2.227392046063315]",20.6,0.0,0.0,1.339922888287066,1077.3082969324614,63.92629039118452,-1583.745678230238,-2139.1459091199845,1848.9684158497796,0.0,0.0,0.0,0.0,0.0,0.0,-10.5,19.670521674456868,0.0,18.687988248298495,0.0,-10.5,20.6,15.2,22.18,18.95,21.67,-11.44,-10.5,1559.42,-1105.36,-4456.82,2.12,94.0,19.0,740.0,0.0,0.0,0.0,0.0,0.0,0.0,0.0,0.0,0.0,0.0,0.0,0.0,0.0,0.0
449.0,2195.0,55274.57887562953,36803.20598125138,-0.0,0.0,-16000.0,0.0,55953.49828471178,0.0,0.0,0.0,55953.49828471178,1.0,0.3569830270850684,0.5,0.0,0.0,0.0,"[1.7548289180416852, 2.0781539330938372, 1.0396958278199655, 0.4815458419870602, 1.203767708316935, 2.2808936233304067, 2.2118454436724235, 2.227392046063315]",20.25,0.0,0.0,0.0,579.1302215987511,157.31811126930472,-1586.056561164224,-1876.4008268473708,10035.299796096955,0.0,0.0,0.0,0.0,0.0,0.0,-10.9,19.44234115755673,0.0,18.51652035197886,0.0,-10.9,20.25,15.05,21.98,18.38,21.17,-11.81,-10.9,1687.31,-1106.98,-4463.32,0.0,316.0,87.0,250.0,0.0,0.0,0.0,0.0,0.0,0.0,0.0,0.0,0.0,0.0,0.0,0.0,0.0,0.0
450.0,3396.0,7926.965084585665,20491.330259162736,-0.0,0.0,16000.0,0.0,30177.100763631184,0.0,0.0,0.0,30177.100763631184,0.3197278911564626,0.3569830270850684,0.5,0.0,0.0,0.0,"[1.7548289180416852, 2.0781539330938372, 1.0396958278199655, 0.4815458419870602, 1.203767708316935, 2.2808936233304067, 2.2118454436724235, 2.227392046063315]",23.75,0.0,0.0,0.0,506.3449290277057,184.38087317576068,-1790.2469347604542,-6912.483233330441,8028.721170503153,0.0,0.0,0.0,0.0,0.0,0.0,-11.4,20.541641075896184,0.0,18.611097889393005,0.0,-11.4,23.75,15.08,22.14,20.98,23.16,-12.31,-11.4,1673.96,-1249.49,-5037.93,0.0,310.0,141.0,194.0,0.0,0.0,0.0,0.0,0.0,0.0,0.0,0.0,0.0,0.0,0.0,0.0,0.0,0.0
451.0,4262.0,4283.417085427136,0.0,-0.0,0.0,0.0,0.0,14908.60018858585,0.0,14908.60018858585,0.0,0.0,0.3197278911564626,0.29359612152135306,0.3622448979591837,0.0,0.0,0.0,"[1.7548289180416852, 2.0781539330938372, 1.0396958278199655, 0.4815458419870602, 1.203767708316935, 2.2808936233304067, 2.2118454436724235, 2.227392046063315]",23.75,0.0,0.0,0.0,568.8858349475114,166.26526269398587,-1810.6167899394866,-6708.200732662447,7798.740786324317,0.0,0.0,0.0,0.0,0.0,0.0,-11.8,20.641055966674728,0.0,18.738767603056274,0.0,-11.8,23.75,15.14,22.34,20.79,23.12,-12.68,-11.8,0.0,-1263.71,-5095.26,0.0,256.0,135.0,269.0,0.0,0.0,0.0,0.0,0.0,0.0,0.0,0.0,0.0,0.0,0.0,0.0,0.0,0.0
452.0,3760.0,0.0,0.0,-0.0,0.0,3760.0,0.0,32176.775622754638,0.0,32176.77562275464,0.0,0.0,0.15986394557823133,0.15679010271712415,0.3622448979591837,0.0,0.0,0.0,"[1.7548289180416852, 2.0781539330938372, 1.0396958278199655, 0.4815458419870602, 1.203767708316935, 2.2808936233304067, 2.2118454436724235, 2.227392046063315]",23.75,0.0,0.0,0.0,461.6421509132053,114.95350735031994,-1836.0791089132779,-6532.045584913137,506.9236720701417,0.0,0.0,0.0,0.0,0.0,0.0,-12.3,20.727478544682217,0.0,18.849197480738496,0.0,-12.3,23.75,15.18,22.52,20.79,23.2,-13.21,-12.3,0.0,-1281.48,-5166.91,0.0,178.0,90.0,236.0,0.0,0.0,0.0,0.0,0.0,0.0,0.0,0.0,0.0,0.0,0.0,0.0,0.0,0.0
453.0,3431.0,18891.30972548855,2621.163464241369,-0.0,0.0,-12744.68971261974,0.0,40412.30940165341,0.0,36877.0321590676,0.0,3535.2772425858057,0.6802721088435374,0.0,0.3622448979591837,0.0,0.0,0.0,"[1.7548289180416852, 2.0781539330938372, 1.0396958278199655, 0.4815458419870602, 1.203767708316935, 2.2808936233304067, 2.2118454436724235, 2.227392046063315]",20.25,0.0,0.0,0.0,401.96680769304703,129.2752727050215,-1677.7209094698712,-1571.7863843907353,10025.013463727653,0.0,0.0,0.0,0.0,0.0,0.0,-12.7,19.594457849856763,0.0,18.69872842706878,0.0,-12.7,20.25,15.04,22.35,18.27,21.29,-13.59,-12.7,2079.83,-1170.95,-4721.27,0.0,306.0,50.0,129.0,0.0,0.0,0.0,0.0,0.0,0.0,0.0,0.0,0.0,0.0,0.0,0.0,0.0,0.0
454.0,2425.0,103747.02304822643,100803.2879329853,-0.0,0.0,0.0,0.0,51152.83820336194,0.0,-80000.0,0.0,131152.83820336196,0.6802721088435374,0.3266666666666667,0.3622448979591837,0.0,0.0,0.0,"[1.7548289180416852, 2.0781539330938372, 1.0396958278199655, 0.4815458419870602, 1.203767708316935, 2.2808936233304067, 2.2118454436724235, 2.227392046063315]",23.75,0.0,0.0,0.0,520.7443815934341,121.75081320299284,-1881.9112830661013,-6654.933846703648,610.360845999155,0.0,0.0,0.0,0.0,0.0,0.0,-13.2,20.671066941337717,0.0,18.762080327655404,0.0,-13.2,23.75,15.05,22.48,21.0,23.36,-14.08,-13.2,2488.27,-1313.47,-5295.89,0.0,300.0,35.0,221.0,0.0,0.0,0.0,0.0,0.0,0.0,0.0,0.0,0.0,0.0,0.0,0.0,0.0,0.0
455.0,1888.0,1597.6415255728862,15701.653317945022,-0.0,0.0,16000.0,0.0,19830.305080236838,0.0,0.0,0.0,19830.30508023684,0.0,0.3266666666666667,0.3622448979591837,0.0,0.0,0.0,"[1.7548289180416852, 2.0781539330938372, 1.0396958278199655, 0.4815458419870602, 1.203767708316935, 2.2808936233304067, 2.2118454436724235, 2.227392046063315]",20.25,0.0,0.0,0.0,353.8969934064609,74.61228749910754,-1723.5530836226949,-1693.9567145227352,2995.765204978736,0.0,0.0,0.0,0.0,0.0,0.0,-13.6,19.538540838861774,0.0,18.611490517855373,0.0,-13.6,20.25,14.91,22.32,18.22,21.27,-14.51,-13.6,2236.48,-1202.94,-4850.25,0.0,216.0,3.0,146.0,0.0,0.0,0.0,0.0,0.0,0.0,0.0,0.0,0.0,0.0,0.0,0.0,0.0,0.0
456.0,2461.0,56426.676784058734,53683.54340013844,-0.0,0.0,0.0,0.0,66775.73276599064,0.0,0.0,0.0,66775.73276599064,0.0,0.3266666666666667,0.3622448979591837,0.0,0.0,0.0,"[1.7548289180416852, 2.0781539330938372, 1.0396958278199655, 0.4815458419870602, 1.203767708316935, 2.2808936233304067, 2.2118454436724235, 2.227392046063315]",20.25,0.0,0.0,0.0,194.92990264351823,52.449908881787884,-1733.7380112122114,-1969.0128058092769,10755.153920504832,0.0,0.0,0.0,0.0,0.0,0.0,-13.8,19.406801913207463,0.0,18.428190222863353,0.0,-13.8,20.25,14.74,22.12,18.4,21.35,-14.7,-13.8,2153.17,-1210.05,-4878.91,0.0,160.0,0.0,59.0,0.0,0.0,0.0,0.0,0.0,0.0,0.0,0.0,0.0,0.0,0.0,0.0,0.0,0.0
457.0,1098.0,37635.65941682557,27859.685201374094,-0.0,0.0,-8489.795918367347,0.0,33857.24093766768,0.0,0.0,0.0,33857.24093766768,0.3466666666666667,0.3266666666666667,0.3622448979591837,0.0,0.0,0.0,"[1.7548289180416852, 2.0781539330938372, 1.0396958278199655, 0.4815458419870602, 1.203767708316935, 2.2808936233304067, 2.2118454436724235, 2.227392046063315]",23.75,0.0,0.0,0.0,275.23729730113826,54.31521606926557,-1927.7434572189272,-7023.98357058214,1332.0714089534363,0.0,0.0,0.0,0.0,0.0,0.0,-14.1,20.496326222307967,0.0,18.50774221332133,0.0,-14.1,23.75,14.75,22.26,20.89,23.26,-14.99,-14.1,2185.48,-1345.46,-5424.86,0.0,160.0,0.0,118.0,0.0,0.0,0.0,0.0,0.0,0.0,0.0,0.0,0.0,0.0,0.0,0.0,0.0,0.0
458.0,1730.0,72607.73100569502,48892.03512451078,-5622.657226155768,0.0,-16000.0,0.0,58485.171249704654,0.0,0.0,0.0,58485.171249704654,1.0,0.3266666666666667,0.5,0.0,0.0,0.0,"[1.7548289180416852, 2.0781539330938372, 1.0396958278199655, 0.4815458419870602, 1.203767708316935, 2.2808936233304067, 2.2118454436724235, 2.227392046063315]",20.25,0.0,0.0,0.0,158.17906102053962,51.59629372819639,-1759.2003301860022,-2034.2297889568301,10883.360286788711,0.0,0.0,0.0,0.0,0.0,0.0,-14.3,19.376954250505637,0.0,18.374185452073046,0.0,-14.3,20.25,14.62,22.13,18.13,21.19,-15.19,-14.3,2162.33,-1227.82,-4950.56,0.0,160.0,0.0,32.0,0.0,0.0,0.0,0.0,0.0,0.0,0.0,0.0,0.0,0.0,0.0,0.0,0.0,0.0
459.0,950.0,0.0,0.0,-0.0,0.0,950.0,0.0,31648.57595174475,0.0,31648.57595174475,0.0,0.0,0.9596088435374149,0.19210639476299005,0.5,0.0,0.0,0.0,"[1.7548289180416852, 2.0781539330938372, 1.0396958278199655, 0.4815458419870602, 1.203767708316935, 2.2808936233304067, 2.2118454436724235, 2.227392046063315]",23.75,0.0,0.0,0.0,320.15499261811215,55.358523479210724,-1943.0208486032,-7087.545842470134,1365.0446604714937,0.0,0.0,0.0,0.0,0.0,0.0,-14.4,20.466733639774347,0.0,18.454272521316742,0.0,-14.4,23.75,14.63,22.28,20.86,23.27,-15.3,-14.4,2171.58,-1356.12,-5467.85,0.0,160.0,0.0,151.0,0.0,0.0,0.0,0.0,0.0,0.0,0.0,0.0,0.0,0.0,0.0,0.0,0.0,0.0
460.0,809.0,25701.32304510319,24763.816429877672,-0.0,0.0,0.0,0.0,29150.5778792407,0.0,0.0,0.0,29150.5778792407,0.9596088435374149,0.19210639476299005,0.5,0.0,0.0,0.0,"[1.7548289180416852, 2.0781539330938372, 1.0396958278199655, 0.4815458419870602, 1.203767708316935, 2.2808936233304067, 2.2118454436724235, 2.227392046063315]",20.25,0.0,0.0,0.0,277.9595818658033,54.37844682138346,-1769.3852577755188,-2097.297853304023,3539.2752785410257,0.0,0.0,0.0,0.0,0.0,0.0,-14.5,19.347354872629726,0.0,18.321193414451702,0.0,-14.5,20.25,14.5,22.14,18.08,21.19,-15.43,-14.5,1364.03,-1234.93,-4979.23,0.0,160.0,0.0,120.0,0.0,0.0,0.0,0.0,0.0,0.0,0.0,0.0,0.0,0.0,0.0,0.0,0.0,0.0
461.0,797.0,52381.77059417629,51322.86174120541,-0.0,0.0,0.0,0.0,59925.12207006336,0.0,0.0,0.0,59925.122070063364,0.9596088435374149,0.19210639476299005,0.5,0.0,0.0,0.0,"[1.7548289180416852, 2.0781539330938372, 1.0396958278199655, 0.4815458419870602, 1.203767708316935, 2.2808936233304067, 2.2118454436724235, 2.227392046063315]",20.25,0.0,0.0,0.0,324.6682538700569,57.160599914570525,-1774.4777215702768,-2345.1626794524627,11038.021554820032,0.0,0.0,0.0,0.0,0.0,0.0,-14.6,19.22840208110313,0.0,18.155539704287623,0.0,-14.6,20.25,14.35,21.96,18.27,21.27,-15.52,-14.6,1694.72,-1238.48,-4993.56,0.0,160.0,3.0,154.0,0.0,0.0,0.0,0.0,0.0,0.0,0.0,0.0,0.0,0.0,0.0,0.0,0.0,0.0
462.0,1670.0,83494.37265595385,80417.72961399853,-0.0,0.0,-989.1711786755526,0.0,13129.953960629315,0.0,-80000.00000000001,0.0,93129.95396062933,1.0,0.5187730614296568,0.5,0.0,0.0,0.0,"[1.7548289180416852, 2.0781539330938372, 1.0396958278199655, 0.4815458419871028, 1.203767708316935, 2.2808936233304067, 2.2118454436724235, 2.227392046063315]",23.75,0.0,0.0,0.0,266.5689701347047,112.51912339378123,-1958.2982399874743,-7377.765216151367,1672.1492868481541,0.0,0.0,0.0,0.0,0.0,0.0,-14.7,20.327995275585902,0.0,18.249283283703488,0.0,-14.7,23.75,14.37,22.13,20.74,23.18,-15.59,-14.7,1506.12,-1366.78,-5510.85,0.0,304.0,27.0,33.0,0.0,0.0,0.0,0.0,0.0,0.0,0.0,0.0,0.0,0.0,0.0,0.0,0.0,0.0
463.0,1530.0,0.0,0.0,-0.0,0.0,1530.0,0.0,51575.6219047587,0.0,51575.6219047587,0.0,0.0,0.9349489795918368,0.2994889546917372,0.5,0.0,0.0,0.0,"[1.7548289180416852, 2.0781539330938372, 1.0396958278199655, 0.4815458419871028, 1.203767708316935, 2.2808936233304067, 2.2118454436724235, 2.227392046063315]",20.25,0.0,0.0,0.0,341.64671286546803,90.13543714404899,-1779.5701853650346,-2359.399193117127,8660.789668674623,0.0,0.0,0.0,0.0,0.0,0.0,-14.7,19.221848513555074,0.0,18.134559326875184,0.0,-14.7,20.25,14.26,22.01,18.02,21.14,-15.62,-14.7,1574.34,-1242.04,-5007.89,0.0,180.0,50.0,151.0,0.0,0.0,0.0,0.0,0.0,0.0,0.0,0.0,0.0,0.0,0.0,0.0,0.0,0.0
464.0,2677.0,0.0,13323.0,-0.0,0.0,16000.0,0.0,16191.138476693855,0.0,0.0,0.0,16191.138476693857,0.25467687074829937,0.2994889546917372,0.5,0.0,0.0,0.0,"[1.7548289180416852, 2.0781539330938372, 1.0396958278199655, 0.4815458419871028, 1.203767708316935, 2.2808936233304067, 2.2118454436724235, 2.227392046063315]",22.62,0.0,0.0,11.012151731618392,253.96049425625588,114.92189197426096,-1870.1783643538472,-5839.45710677927,2394.376882493644,0.0,0.0,0.0,0.0,0.0,0.0,-14.1,19.93229464017508,0.0,18.150037612834808,0.0,-14.1,22.62,14.23,22.07,19.91,22.56,-14.99,-14.1,1685.95,-1305.28,-5262.87,17.42,228.0,72.0,59.0,0.0,0.0,0.0,0.0,0.0,0.0,0.0,0.0,0.0,0.0,0.0,0.0,0.0,0.0
465.0,2664.0,5782.951203429756,10104.85857881145,-0.0,1024.8221313988429,5990.000000000002,0.0,15940.847778623965,0.0,0.0,0.0,15940.84777862397,0.0,0.2994889546917372,0.5,0.0,0.0,0.0,"[1.7548289180416852, 2.0781539330938372, 1.0396958278199655, 0.4815458419871028, 1.203767708316935, 2.2808936233304067, 2.2118454436724235, 2.227392046063315]",20.25,0.0,0.0,861.3251316537996,572.181232052106,103.47712584092329,-1555.5017783956746,-2466.0920341045953,2468.6112624364628,0.0,0.0,0.0,0.0,0.0,0.0,-10.3,19.154132379931802,0.0,18.034332693271857,0.0,-10.3,20.25,14.13,21.94,18.05,21.15,-10.36,-10.3,0.0,-1085.65,-4377.34,1362.19,252.0,26.0,285.0,0.0,0.0,0.0,0.0,0.0,0.0,0.0,0.0,0.0,0.0,0.0,0.0,0.0,0.0
466.0,4064.0,15723.936784552418,0.0,-0.0,4516.0952471554465,-13878.608347785103,0.0,44425.92741616029,11094.02,53301.14341616029,0.0,0.0,0.5667098408678917,0.07286844696996728,0.5,8875.216,2218.804,11094.02,"[1.7548289180416852, 2.0781539330938372, 1.0396958278199655, 0.4815458419871028, 1.203767708316935, 2.2808936233304067, 2.2118454436724235, 2.227392046063315]",20.25,0.0,0.0,1310.2645013809188,1560.4421680930227,75.81367178934741,-1382.3580093738965,-2571.854799819136,8271.029939453407,0.0,0.0,0.0,0.0,0.0,0.0,-6.9,19.091493009924196,0.0,17.954642936855052,0.0,-6.9,20.25,14.1,21.81,18.32,21.3,-6.59,-6.9,0.0,-964.81,-3890.09,2072.2,117.0,8.0,1084.0,0.0,0.0,0.0,0.0,0.0,0.0,0.0,0.0,0.0,0.0,0.0,0.0,0.0,0.0
467.0,6683.0,0.0,0.0,-0.0,6191.56206569686,13329.015457212814,0.0,11553.819770618702,0.0,0.0,0.0,0.0,0.0,0.07286844696996728,0.5,51350.3100916387,12837.577522909674,64187.88761454837,"[1.7548289180416852, 2.0781539330938372, 1.0396958278199655, 0.4815458419871028, 1.203767708316935, 2.2808936233304067, 2.2118454436724235, 2.227392046063315]",23.75,0.0,0.0,1599.2775617138882,635.6534458492971,105.81666366928515,-1423.5895415378648,-7448.062022404146,0.0,0.0,0.0,0.0,0.0,0.0,0.0,-4.2,20.256988377289098,0.0,18.15327536984611,0.0,-4.2,23.75,14.3,22.01,20.81,23.2,-3.66,-4.2,0.0,-993.58,-4006.12,2529.27,304.0,0.0,307.0,0.0,0.0,0.0,0.0,0.0,0.0,0.0,0.0,0.0,0.0,0.0,0.0,0.0,0.0
468.0,3630.0,9852.013697281991,12972.84928909355,-0.0,6800.0956602979695,0.0,0.0,30111.81009636607,0.0,0.0,0.0,30111.81009636607,0.0,0.07286844696996728,0.5,0.0,0.0,0.0,"[1.7548289180416852, 2.0781539330938372, 1.0396958278199655, 0.4815458419871028, 1.203767708316935, 2.2808936233304067, 2.2118454436724235, 2.227392046063315]",20.63,0.0,0.0,1679.2168557886896,455.6961083114369,99.2406654490248,-1177.9282627990146,-2758.911205955156,860.6617373731033,0.0,0.0,0.0,0.0,0.0,0.0,-2.5,19.373759977089012,0.0,18.20705410229082,0.0,-2.5,20.63,14.43,21.98,18.6,21.53,-1.91,-2.5,0.0,-822.13,-3314.81,2655.7,296.0,0.0,179.0,0.0,0.0,0.0,0.0,0.0,0.0,0.0,0.0,0.0,0.0,0.0,0.0,0.0,0.0
469.0,1352.0,35103.66791119752,23749.9222894875,-0.0,6173.772717845968,-16000.0,0.0,56711.82129158646,0.0,0.0,0.0,56711.82129158646,0.6533333333333333,0.07286844696996728,0.5,0.0,0.0,0.0,"[1.7548289180416852, 2.0781539330938372, 1.0396958278199655, 0.4815458419871028, 1.203767708316935, 2.2808936233304067, 2.2118454436724235, 2.227392046063315]",20.25,0.0,0.0,1592.6910374236445,342.9362160803095,64.27405952783289,-1122.642355841229,-2207.709956200785,8583.695783522478,0.0,0.0,0.0,0.0,0.0,0.0,-1.8,19.249999880594665,0.0,18.209139042133184,0.0,-1.8,20.25,14.54,21.88,18.61,21.45,-1.24,-1.8,0.0,-783.54,-3159.23,2518.86,188.0,0.0,153.0,0.0,0.0,0.0,0.0,0.0,0.0,0.0,0.0,0.0,0.0,0.0,0.0,0.0,0.0
470.0,3273.0,0.0,8582.950455272738,-0.0,4643.150455272738,7212.8,0.0,20331.356200768634,0.0,0.0,0.0,20331.356200768634,0.3466666666666667,0.07286844696996728,0.5,0.0,0.0,0.0,"[1.7548289180416852, 2.0781539330938372, 1.0396958278199655, 0.4815458419871028, 1.203767708316935, 2.2808936233304067, 2.2118454436724235, 2.227392046063315]",23.75,0.0,0.0,1422.1033997765874,329.7546276619312,90.32512940040264,-1311.5553380531846,-7039.64908572849,6473.48248939058,0.0,0.0,0.0,0.0,0.0,0.0,-2.0,20.446995268934675,0.0,18.456546877356757,0.0,-2.0,23.75,14.81,22.11,21.19,23.4,-1.58,-2.0,0.0,-915.39,-3690.85,2249.07,276.0,0.0,97.0,0.0,0.0,0.0,0.0,0.0,0.0,0.0,0.0,0.0,0.0,0.0,0.0,0.0,0.0
471.0,3532.0,17797.349856050612,15232.444302509812,-0.0,1056.0811957394521,0.0,0.0,33614.06153480557,0.0,0.0,0.0,33614.06153480558,0.3466666666666667,0.07286844696996728,0.5,0.0,0.0,0.0,"[1.7548289180416852, 2.0781539330938372, 1.0396958278199655, 0.4815458419871028, 1.203767708316935, 2.2808936233304067, 2.2118454436724235, 2.227392046063315]",23.75,0.0,0.0,893.8100019345032,818.1897898168401,93.54989775841491,-1398.1272225640737,-6669.054787289653,6241.800371313231,0.0,0.0,0.0,0.0,0.0,0.0,-3.7,20.631912009816418,0.0,18.719615427092457,0.0,-3.7,23.75,15.08,22.36,21.03,23.34,-3.7,-3.7,0.0,-975.81,-3934.47,1413.57,230.0,10.0,479.0,0.0,0.0,0.0,0.0,0.0,0.0,0.0,0.0,0.0,0.0,0.0,0.0,0.0,0.0
472.0,3213.0,20915.16224570722,17597.586434478682,-0.0,0.0,0.0,0.0,35142.52776069868,0.0,0.0,0.0,35142.527760698686,0.3466666666666667,0.07286844696996728,0.5,0.0,0.0,0.0,"[1.7548289180416852, 2.0781539330938372, 1.0396958278199655, 0.4815458419871028, 1.203767708316935, 2.2808936233304067, 2.2118454436724235, 2.227392046063315]",23.75,0.0,0.0,1.3399038383106594,2077.6045963118977,89.12374511016277,-1510.161426048754,-6396.8784288916095,0.0,0.0,0.0,0.0,0.0,0.0,0.0,-5.9,20.7723588067747,0.0,18.918820394444825,0.0,-5.9,23.75,15.29,22.55,20.93,23.31,-6.75,-5.9,0.0,-1054.01,-4249.74,2.12,93.0,23.0,1475.0,0.0,0.0,0.0,0.0,0.0,0.0,0.0,0.0,0.0,0.0,0.0,0.0,0.0,0.0
473.0,3347.0,63862.06569759489,60195.75536910691,-0.0,0.0,0.0,0.0,47531.771446889295,0.0,-72105.79248326921,0.0,119637.5639301585,0.3466666666666667,0.36730043294331655,0.5,0.0,0.0,0.0,"[1.7548289180416852, 2.0781539330938372, 1.0396958278199655, 0.4815458419871028, 1.203767708316935, 2.2808936233304067, 2.2118454436724235, 2.227392046063315]",20.99,0.0,0.0,0.0,1229.1114809462856,82.29482388143091,-1374.4522676916688,-2448.8650929862492,8266.381147685595,0.0,0.0,0.0,0.0,0.0,0.0,-6.0,19.898494343640937,0.0,18.83501465072196,0.0,-6.0,20.99,15.26,22.41,18.62,21.53,-6.83,-6.0,1377.87,-959.29,-3867.85,0.0,85.0,50.0,853.0,0.0,0.0,0.0,0.0,0.0,0.0,0.0,0.0,0.0,0.0,0.0,0.0,0.0,0.0
474.0,4521.0,7382.433680586488,2824.5215121835554,-0.0,0.0,0.0,0.0,5613.666128349501,0.0,0.0,0.0,5613.666128349501,0.3466666666666667,0.36730043294331655,0.5,0.0,0.0,0.0,"[1.7548289180416852, 2.0781539330938372, 1.0396958278199655, 0.4815458419871028, 1.203767708316935, 2.2808936233304067, 2.2118454436724235, 1.4005112955900856]",23.75,0.0,0.0,0.0,320.22663168560337,73.03151869616035,-1515.253889843512,-6392.5212520010045,226.11079070654918,0.0,0.0,0.0,0.0,0.0,0.0,-6.0,20.77462146783494,0.0,18.93169755019067,0.0,-6.0,23.75,15.35,22.51,20.89,23.23,-6.8,-6.0,183.47,-1057.56,-4264.07,0.0,117.0,54.0,168.0,0.0,0.0,0.0,0.0,0.0,0.0,0.0,0.0,0.0,0.0,0.0,0.0,0.0,0.0
475.0,2821.0,0.0,5332.6,-0.0,0.0,8153.600000000001,0.0,37152.868109565774,0.0,26605.295791463075,0.0,10547.572318102706,0.0,0.25418267872791234,0.5,0.0,0.0,0.0,"[1.7548289180416852, 2.0781539330938372, 1.0396958278199655, 0.4815458419871028, 1.203767708316935, 2.2808936233304067, 2.2118454436724235, 1.4005112955900856]",20.25,0.0,0.0,0.0,399.9609138032939,77.67897897682509,-1341.6182990158309,-1379.2357261592454,2250.2568602654846,0.0,0.0,0.0,0.0,0.0,0.0,-6.1,19.66609218674521,0.0,18.82397844814352,0.0,-6.1,20.25,15.31,22.34,18.33,21.27,-6.86,-6.1,797.93,-936.37,-3775.45,0.0,81.0,78.0,243.0,0.0,0.0,0.0,0.0,0.0,0.0,0.0,0.0,0.0,0.0,0.0,0.0,0.0,0.0
476.0,3442.0,39332.47713860705,19693.814752914008,-0.0,0.0,-16000.0,0.0,38953.21894116912,0.0,0.0,0.0,38953.21894116912,0.6533333333333333,0.25418267872791234,0.5,0.0,0.0,0.0,"[1.7548289180416852, 2.0781539330938372, 1.0396958278199655, 0.4815458419871028, 1.203767708316935, 2.2808936233304067, 2.2118454436724235, 1.4005112955900856]",20.25,0.0,0.0,0.0,440.43698693581416,124.3116586637673,-1341.6182990158309,-1606.5300707076838,9293.578245288467,0.0,0.0,0.0,0.0,0.0,0.0,-6.1,19.556740252168666,0.0,18.681278991769588,0.0,-6.1,20.25,15.23,22.13,18.53,21.32,-6.86,-6.1,0.0,-936.37,-3775.45,0.0,158.0,118.0,228.0,0.0,0.0,0.0,0.0,0.0,0.0,0.0,0.0,0.0,0.0,0.0,0.0,0.0,0.0
477.0,2871.0,24194.432554417006,12712.664473277575,-0.0,0.0,-8489.795918367347,0.0,25023.7164222973,0.0,0.0,0.0,25023.716422297297,1.0,0.25418267872791234,0.5,0.0,0.0,0.0,"[1.7548289180416852, 2.0781539330938372, 1.0396958278199655, 0.4815458419871028, 1.203767708316935, 2.2808936233304067, 2.2118454436724235, 1.4005112955900856]",23.56,0.0,0.0,0.0,815.1809489822101,172.65156865789254,-1515.7338912113626,-6355.35311711393,0.0,0.0,0.0,0.0,0.0,0.0,0.0,-6.2,20.601793441073738,0.0,18.78598942217605,0.0,-6.2,23.56,15.32,22.25,20.92,23.11,-6.95,-6.2,175.6,-1057.9,-4265.43,0.0,330.0,97.0,415.0,0.0,0.0,0.0,0.0,0.0,0.0,0.0,0.0,0.0,0.0,0.0,0.0,0.0,0.0
478.0,2492.0,0.0,0.0,-0.0,0.0,2492.0,0.0,25617.01832797694,0.0,25617.01832797694,0.0,0.0,0.8940476190476191,0.1452667844763097,0.3201530612244898,0.0,0.0,0.0,"[1.7548289180416852, 2.0781539330938372, 1.0396958278199655, 0.4815458419871028, 1.203767708316935, 2.2808936233304067, 2.2118454436724235, 1.4005112955900856]",20.25,0.0,0.0,0.0,310.48371850680195,92.50659034846979,-1351.8032266053474,-1610.3593884866957,2963.6790778581358,0.0,0.0,0.0,0.0,0.0,0.0,-6.3,19.55544532138422,0.0,18.685451428357045,0.0,-6.3,20.25,15.27,22.1,18.3,21.12,-7.03,-6.3,835.46,-943.48,-3804.11,0.0,162.0,65.0,136.0,0.0,0.0,0.0,0.0,0.0,0.0,0.0,0.0,0.0,0.0,0.0,0.0,0.0,0.0
479.0,2409.0,2421.105527638191,0.0,-0.0,0.0,0.0,0.0,21797.274231982778,0.0,21797.274231982778,0.0,0.0,0.8940476190476191,0.05259129879611081,0.3201530612244898,0.0,0.0,0.0,"[1.7548289180416852, 2.0781539330938372, 1.0396958278199655, 0.4815458419871028, 1.203767708316935, 2.2808936233304067, 2.2118454436724235, 1.4005112955900856]",20.44,0.0,0.0,0.0,340.1422924481531,73.72705696945711,-1361.5081528270139,-2072.5231953601374,9925.754290958534,0.0,0.0,0.0,0.0,0.0,0.0,-6.3,19.524134349475887,0.0,18.571228299765053,0.0,-6.3,20.44,15.21,21.93,18.68,21.32,-6.99,-6.3,1933.62,-950.26,-3831.42,0.0,182.0,20.0,152.0,0.0,0.0,0.0,0.0,0.0,0.0,0.0,0.0,0.0,0.0,0.0,0.0,0.0,0.0
480.0,1511.0,19397.396302565197,17789.40932105237,-0.0,0.0,0.0,0.0,34677.640182593765,0.0,0.0,0.0,34677.64018259376,0.8940476190476191,0.05259129879611081,0.3201530612244898,0.0,0.0,0.0,"[1.7548289180416852, 2.0781539330938372, 1.0396958278199655, 0.4815458419871028, 1.203767708316935, 2.2808936233304067, 2.2118454436724235, 1.4005112955900856]",23.75,0.0,0.0,0.0,254.6768849311677,85.51959223944318,-1535.6237450225449,-6779.084781026978,687.2380734010368,0.0,0.0,0.0,0.0,0.0,0.0,-6.4,20.589650649365655,0.0,18.702062024117815,0.0,-6.4,23.75,15.31,22.09,21.03,23.12,-7.13,-6.4,1916.61,-1071.78,-4321.4,0.0,160.0,56.0,97.0,0.0,0.0,0.0,0.0,0.0,0.0,0.0,0.0,0.0,0.0,0.0,0.0,0.0,0.0
481.0,1136.0,7687.601749768195,22513.163741019354,-0.0,0.0,16000.0,0.0,43885.85239078086,0.0,0.0,0.0,43885.85239078086,0.2137755102040817,0.05259129879611081,0.3201530612244898,0.0,0.0,0.0,"[1.7548289180416852, 2.0781539330938372, 1.0396958278199655, 0.4815458419871028, 1.203767708316935, 2.2808936233304067, 2.2118454436724235, 1.4005112955900856]",20.25,0.0,0.0,0.0,331.4739652817196,68.06790465490614,-1356.8956904001054,-1724.7287684495102,9983.28150211775,0.0,0.0,0.0,0.0,0.0,0.0,-6.4,19.500586550400424,0.0,18.61765349260663,0.0,-6.4,20.25,15.26,21.97,18.33,21.08,-7.08,-6.4,1812.87,-947.04,-3818.44,0.0,160.0,22.0,157.0,0.0,0.0,0.0,0.0,0.0,0.0,0.0,0.0,0.0,0.0,0.0,0.0,0.0,0.0
482.0,949.0,36011.150917015126,18882.095162430047,-0.0,0.0,-16000.0,0.0,36807.65842862219,0.0,0.0,0.0,36807.658428622184,0.867108843537415,0.05259129879611081,0.3201530612244898,0.0,0.0,0.0,"[1.7548289180416852, 2.0781539330938372, 1.0396958278199655, 0.4815458419871028, 1.203767708316935, 2.2808936233304067, 2.2118454436724235, 1.4005112955900856]",23.75,0.0,0.0,0.0,231.68074426649687,53.303524035379375,-1535.6237450225449,-6722.696926383033,7978.169141886635,0.0,0.0,0.0,0.0,0.0,0.0,-6.4,20.616604606786634,0.0,18.74125919823485,0.0,-6.4,23.75,15.35,22.13,21.06,23.15,-7.07,-6.4,1094.0,-1071.78,-4321.4,0.0,160.0,0.0,86.0,0.0,0.0,0.0,0.0,0.0,0.0,0.0,0.0,0.0,0.0,0.0,0.0,0.0,0.0
483.0,751.0,30557.45462834551,22312.975976611528,-7340.691378592254,0.0,0.0,0.0,43708.33445013602,0.0,0.0,0.0,43708.334450136026,0.867108843537415,0.05259129879611081,0.5,0.0,0.0,0.0,"[1.7548289180416852, 2.0781539330938372, 1.0396958278199655, 0.4815458419871028, 1.203767708316935, 2.2808936233304067, 2.2118454436724235, 1.4005112955900856]",23.75,0.0,0.0,0.0,265.70930132481044,54.09390843685296,-1530.5312812277866,-6480.218427988914,7695.850898065717,0.0,0.0,0.0,0.0,0.0,0.0,-6.3,20.73300940987468,0.0,18.898723081808132,0.0,-6.3,23.75,15.47,22.33,20.87,23.09,-6.99,-6.3,1292.89,-1068.22,-4307.07,0.0,160.0,0.0,111.0,0.0,0.0,0.0,0.0,0.0,0.0,0.0,0.0,0.0,0.0,0.0,0.0,0.0,0.0
484.0,874.0,0.0,10057.508841110892,-0.0,0.0,10931.508841110892,0.0,19701.404269123967,0.0,0.0,0.0,19701.404269123967,0.40233380777589756,0.05259129879611081,0.5,0.0,0.0,0.0,"[1.7548289180416852, 2.0781539330938372, 1.0396958278199655, 0.4815458419871028, 1.203767708316935, 2.2808936233304067, 2.2118454436724235, 1.4005112955900856]",23.75,0.0,0.0,0.0,239.84759796049218,53.49321629173303,-1530.5312812277866,-6261.949926651045,208.96276192861865,0.0,0.0,0.0,0.0,0.0,0.0,-6.3,20.837975597782595,0.0,19.041306265984034,0.0,-6.3,23.75,15.58,22.5,20.91,23.18,-6.98,-6.3,1289.68,-1068.22,-4307.07,0.0,160.0,0.0,92.0,0.0,0.0,0.0,0.0,0.0,0.0,0.0,0.0,0.0,0.0,0.0,0.0,0.0,0.0
485.0,594.0,13133.678336204694,12474.00994452367,-0.0,0.0,0.0,0.0,36804.501738474784,0.0,12369.473476845264,0.0,24435.028261629523,0.40233380777589756,0.0,0.5,0.0,0.0,0.0,"[1.7548289180416852, 2.0781539330938372, 1.0396958278199655, 0.4815458419871028, 1.203767708316935, 2.2808936233304067, 2.2118454436724235, 1.4005112955900856]",20.25,0.0,0.0,0.0,226.23617513716667,53.17706253114359,-1351.8032266053474,-1257.741696192618,9629.980527179745,0.0,0.0,0.0,0.0,0.0,0.0,-6.3,19.724916268793194,0.0,18.92535854241496,0.0,-6.3,20.25,15.52,22.33,18.42,21.27,-6.98,-6.3,1404.89,-943.48,-3804.11,0.0,160.0,0.0,82.0,0.0,0.0,0.0,0.0,0.0,0.0,0.0,0.0,0.0,0.0,0.0,0.0,0.0,0.0
486.0,778.0,23154.44365757143,6260.671439283572,-0.0,0.0,-16000.000000000005,0.0,12323.558687411545,0.0,0.0,0.0,12323.558687411545,0.9837426521730999,0.0,0.5,0.0,0.0,0.0,"[1.7548289180416852, 2.0781539330938372, 1.039695827819969, 0.4815458419871028, 1.203767708316935, 1.720974467600545, 1.7149036202896788, 1.4005112955900856]",23.75,0.0,0.0,0.0,307.90471207711926,93.01243636541287,-1525.4388174330284,-6297.09262899164,135.01965767126077,0.0,0.0,0.0,0.0,0.0,0.0,-6.2,20.820729438230025,0.0,19.022302632082624,0.0,-6.2,23.75,15.59,22.45,21.16,23.32,-6.87,-6.2,1316.85,-1064.67,-4292.74,0.0,264.0,12.0,86.0,0.0,0.0,0.0,0.0,0.0,0.0,0.0,0.0,0.0,0.0,0.0,0.0,0.0,0.0
487.0,958.0,13547.775105179415,28522.036229653517,-0.0,0.0,16000.0,0.0,56143.01768898382,0.0,0.0,0.0,56143.01768898383,0.30347054332956247,0.0,0.5,0.0,0.0,0.0,"[1.7548289180416852, 2.0781539330938372, 1.039695827819969, 0.4815458419871028, 1.203767708316935, 1.720974467600545, 1.7149036202896788, 1.4005112955900856]",20.25,0.0,0.0,0.0,255.4649146735708,87.7010531875103,-1346.7107628105891,-1287.3054362368055,9593.829174512191,0.0,0.0,0.0,0.0,0.0,0.0,-6.2,19.71035416335228,0.0,18.90976266783614,0.0,-6.2,20.25,15.53,22.29,18.43,21.25,-6.87,-6.2,1458.33,-939.93,-3789.78,0.0,188.0,45.0,84.0,0.0,0.0,0.0,0.0,0.0,0.0,0.0,0.0,0.0,0.0,0.0,0.0,0.0,0.0
488.0,1276.0,33899.168306666535,32453.6724651332,-0.0,0.0,0.0,0.0,18894.091684396717,0.0,-47153.727805244765,0.0,66047.8194896415,0.30347054332956247,0.1925443885380828,0.5,0.0,0.0,0.0,"[1.7548289180416852, 2.0781539330938372, 1.039695827819969, 0.4815458419871028, 1.203767708316935, 1.720974467600545, 1.7149036202896788, 1.4005112955900856]",23.75,0.0,0.0,10.992824988030085,246.93986564211966,104.74174088328105,-1489.791570869721,-6316.983960682634,158.21738376394308,0.0,0.0,0.0,0.0,0.0,0.0,-5.5,20.80892176571768,0.0,19.01023176750676,0.0,-5.5,23.75,15.61,22.41,21.17,23.31,-6.15,-5.5,1341.39,-1039.79,-4192.42,17.39,170.0,85.0,83.0,0.0,0.0,0.0,0.0,0.0,0.0,0.0,0.0,0.0,0.0,0.0,0.0,0.0,0.0
489.0,4224.0,0.0,0.0,-0.0,678.700186373323,3545.299813626677,0.0,20473.2153957253,0.0,20473.2153957253,0.0,0.0,0.15273500703591125,0.10549840471272014,0.5,0.0,0.0,0.0,"[1.7548289180416852, 2.0781539330938372, 1.039695827819969, 0.4815458419871028, 1.203767708316935, 1.720974467600545, 1.7149036202896788, 1.4005112955900856]",20.25,0.0,0.0,688.6510215511498,340.858683123065,107.55550935252704,-1117.5498920464706,-1266.139872590107,1236.0355172411175,0.0,0.0,0.0,0.0,0.0,0.0,-1.7,19.704347796827992,0.0,18.90639294656679,0.0,-1.7,20.25,15.56,22.26,18.45,21.24,-1.67,-1.7,628.9,-779.99,-3144.9,1089.11,208.0,66.0,134.0,0.0,0.0,0.0,0.0,0.0,0.0,0.0,0.0,0.0,0.0,0.0,0.0,0.0,0.0
490.0,5010.0,0.0,2842.878224474417,-0.0,4260.5508589897845,3592.327365484633,0.0,32658.638900355218,0.0,24813.224788431777,0.0,7845.414111923444,0.0,0.0,0.5,0.0,0.0,0.0,"[1.7548289180416852, 2.0781539330938372, 1.039695827819969, 0.4815458419871028, 1.203767708316935, 1.720974467600545, 1.7149036202896788, 1.4005112955900856]",20.25,0.0,0.0,1209.6888965092749,446.16811233510913,87.00551491421356,-924.0362678456595,-1386.8809429881105,6740.40450745412,0.0,0.0,0.0,0.0,0.0,0.0,2.1,19.633303831357267,0.0,18.82165842273758,0.0,2.1,20.25,15.56,22.08,18.8,21.41,2.48,2.1,414.19,-644.92,-2600.33,1913.13,220.0,19.0,210.0,0.0,0.0,0.0,0.0,0.0,0.0,0.0,0.0,0.0,0.0,0.0,0.0,0.0,0.0
491.0,6499.0,19910.790284504452,3294.5553442318346,-0.0,5982.319011149907,-16000.0,0.0,10065.543459424473,0.0,0.0,0.0,10065.543459424473,0.6533333333333333,0.0,0.5,0.0,0.0,0.0,"[1.7548289180416852, 2.0781539330938372, 1.039695827819969, 0.4815458419871028, 1.203767708316935, 1.720974467600545, 1.7149036202896788, 1.4005112955900856]",23.23,0.0,0.0,1573.9693047195533,2598.6355341752965,153.20811238164202,-918.0724200514413,-5524.049008295323,0.0,0.0,0.0,0.0,0.0,0.0,0.0,5.2,20.62479344222538,0.0,18.999607876489147,0.0,5.2,23.23,15.79,22.21,21.06,23.09,5.79,5.2,0.0,-640.76,-2583.55,2489.25,310.0,0.0,1746.0,0.0,0.0,0.0,0.0,0.0,0.0,0.0,0.0,0.0,0.0,0.0,0.0,0.0,0.0
492.0,3927.0,23204.910299221698,26013.881470927805,-0.0,6851.995723202215,0.0,0.0,4685.717198729201,0.0,-80000.0,0.0,84685.7171987292,0.6533333333333333,0.3266666666666667,0.5,0.0,0.0,0.0,"[1.7548289180416852, 2.0781539330938372, 1.039695827819969, 0.4815458419871028, 1.203767708316935, 1.720974467600545, 1.7149036202896788, 1.4005112955900856]",22.23,0.0,0.0,1736.9459889648708,498.17807533371035,91.241975306112,-760.0757001233084,-3855.1143928317792,0.0,0.0,0.0,0.0,0.0,0.0,0.0,7.3,20.415163922952612,0.0,19.132254301850757,0.0,7.3,22.23,16.01,22.26,20.04,22.31,7.99,7.3,0.0,-530.49,-2138.93,2747.0,266.0,0.0,226.0,0.0,0.0,0.0,0.0,0.0,0.0,0.0,0.0,0.0,0.0,0.0,0.0,0.0,0.0
493.0,2129.0,0.0,3853.0107424961843,-0.0,5982.010742496184,0.0,0.0,12873.69745408835,0.0,0.0,0.0,12873.697454088351,0.6533333333333333,0.3266666666666667,0.5,0.0,0.0,0.0,"[1.7548289180416852, 2.0781539330938372, 1.039695827819969, 0.4815458419871028, 1.203767708316935, 1.720974467600545, 1.7149036202896788, 1.4005112955900856]",21.14,0.0,0.0,1569.0144306435636,320.7281051580416,37.400989877730595,-659.2173187768442,-2152.685118800819,0.0,0.0,0.0,0.0,0.0,0.0,0.0,8.2,20.147809822548087,0.0,19.220545594604296,0.0,8.2,21.14,16.21,22.23,19.7,21.99,8.79,8.2,0.0,-460.1,-1855.1,2481.41,100.0,0.0,183.0,0.0,0.0,0.0,0.0,0.0,0.0,0.0,0.0,0.0,0.0,0.0,0.0,0.0,0.0
494.0,4185.0,44241.07169929866,31867.77341749174,-0.0,4856.646995056923,-8489.795918367347,0.0,46691.997506038686,21669.72,-42448.979591836716,0.0,106476.75309787541,1.0,0.5,0.5,17335.776,4333.944,21669.72,"[1.7548289180416852, 2.0781539330938372, 1.039695827819969, 0.4815458419871028, 1.203767708316935, 1.720974467600545, 1.7149036202896788, 1.4005112955900856]",20.74,0.0,0.0,1525.6028343145108,1726.5731656050837,68.25759691125981,-638.6075715252156,-1525.5963853331375,5069.031798511565,0.0,0.0,0.0,0.0,0.0,0.0,8.2,20.043589906410798,0.0,19.26270183581531,0.0,8.2,20.74,16.39,22.14,19.51,21.76,8.77,8.2,0.0,-445.71,-1797.11,2412.75,94.0,0.0,1219.0,0.0,0.0,0.0,0.0,0.0,0.0,0.0,0.0,0.0,0.0,0.0,0.0,0.0,0.0
495.0,1975.0,1214.6585937302705,1073.6099562939203,-0.0,1840.0246555323013,0.0,0.0,3433.6247928577777,0.0,0.0,0.0,3433.6247928577777,1.0,0.5,0.5,0.0,0.0,0.0,"[1.7548289180416852, 2.0781539330938372, 1.039695827819969, 0.4815458419871028, 1.203767708316935, 1.720974467600545, 1.7149036202896788, 1.4005112955900856]",23.75,0.0,0.0,1095.6845372866007,340.28557058313555,7.903844014735967,-868.5109879092222,-5681.388948846786,0.0,0.0,0.0,0.0,0.0,0.0,0.0,6.7,21.073997854455843,0.0,19.485399092586114,0.0,6.7,23.75,16.67,22.3,21.59,23.29,6.91,6.7,75.92,-606.17,-2444.08,1732.83,0.0,0.0,250.0,0.0,0.0,0.0,0.0,0.0,0.0,0.0,0.0,0.0,0.0,0.0,0.0,0.0,0.0
496.0,3049.0,0.0,8450.852067346064,-0.0,0.0,11499.852067346064,0.0,25174.572805586882,0.0,0.0,0.0,25174.572805586882,0.5110607114223613,0.5,0.4770408163265306,0.0,0.0,0.0,"[1.7548289180416852, 2.0781539330938372, 1.039695827819969, 0.4815458419871028, 1.203767708316935, 1.720974467600545, 1.7149036202896788, 1.4005112955900856]",21.31,0.0,0.0,2.713040748860579,223.2273343025369,5.184921673666793,-861.3725576012267,-2022.0548635081607,7724.733141529578,0.0,0.0,0.0,0.0,0.0,0.0,4.4,20.39705248918221,0.0,19.550063233078816,0.0,4.4,21.31,16.82,22.28,19.8,21.92,3.6,4.4,902.4,-601.19,-2423.99,4.29,0.0,0.0,164.0,0.0,0.0,0.0,0.0,0.0,0.0,0.0,0.0,0.0,0.0,0.0,0.0,0.0,0.0
497.0,5065.0,20240.97834546164,4426.831680195849,-0.0,0.0,-10647.941773538481,0.0,13102.856848118145,0.0,0.0,0.0,13102.856848118145,0.9458516671751827,0.5,0.4770408163265306,0.0,0.0,0.0,"[1.7548289180416852, 2.0781539330938372, 1.039695827819969, 0.4815458419871028, 1.203767708316935, 1.720974467600545, 1.7149036202896788, 1.4005112955900856]",23.75,0.0,0.0,0.0,1789.9021012672931,92.15882121182139,-995.822582778177,-5422.8464768355425,3696.397188846371,0.0,0.0,0.0,0.0,0.0,0.0,4.2,21.20926656197602,0.0,19.693554209172856,0.0,4.2,23.75,16.98,22.41,21.51,23.2,3.42,4.2,1014.39,-695.03,-2802.34,0.0,167.0,1.0,1227.0,0.0,0.0,0.0,0.0,0.0,0.0,0.0,0.0,0.0,0.0,0.0,0.0,0.0,0.0
498.0,4565.0,23154.44365757143,6260.671439283572,-0.0,0.0,-16000.000000000005,0.0,7913.112272860555,0.0,0.0,0.0,12323.558687411545,0.9837426521730999,0.0,0.5,0.0,0.0,0.0,"[1.7548289180416852, 2.0781539330938372, 1.039695827819969, 0.4815458419871028, 1.203767708316935, 1.720974467600545, 1.7149036202896788, 1.4005112955900856]",23.35,0.0,0.0,0.0,582.1390624333808,88.33336070868917,-990.3101093527248,-4666.403046702187,0.0,0.0,0.0,0.0,0.0,0.0,0.0,3.9,21.164443076176646,0.0,19.802300518460434,0.0,3.9,23.35,17.11,22.5,20.93,22.79,3.17,3.9,137.88,-691.18,-2786.83,0.0,110.0,74.0,362.0,0.0,0.0,0.0,0.0,0.0,0.0,0.0,0.0,0.0,0.0,0.0,0.0,0.0,0.0
499.0,3641.0,13547.775105179415,28522.036229653517,-0.0,0.0,16000.0,0.0,56143.01768898382,0.0,0.0,0.0,56143.01768898383,0.30347054332956247,0.0,0.5,0.0,0.0,0.0,"[1.7548289180416852, 2.0781539330938372, 1.039695827819969, 0.4815458419871028, 1.203767708316935, 1.720974467600545, 1.7149036202896788, 1.4005112955900856]",20.25,0.0,0.0,0.0,532.2782714595152,119.82227526339726,-842.5568471295286,-1223.4044134713076,9593.829174512191,0.0,0.0,0.0,0.0,0.0,0.0,3.7,19.71035416335228,0.0,18.90976266783614,0.0,3.7,20.25,15.53,22.29,18.43,21.25,3.0,3.7,1458.33,-588.06,-2371.04,0.0,100.0,137.0,324.0,0.0,0.0,0.0,0.0,0.0,0.0,0.0,0.0,0.0,0.0,0.0,0.0,0.0,0.0
500.0,4454.0,33899.168306666535,32453.6724651332,-0.0,0.0,0.0,0.0,18894.091684396717,0.0,-47153.727805244765,0.0,66047.8194896415,0.30347054332956247,0.1925443885380828,0.5,0.0,0.0,0.0,"[1.7548289180416852, 2.0781539330938372, 1.039695827819969, 0.4815458419871028, 1.203767708316935, 1.720974467600545, 1.7149036202896788, 1.4005112955900856]",23.75,0.0,0.0,0.0,681.4308099761653,117.22981442656388,-1031.4698293414842,-6259.044426386621,158.21738376394308,0.0,0.0,0.0,0.0,0.0,0.0,3.5,20.80892176571768,0.0,19.01023176750676,0.0,3.5,23.75,15.61,22.41,21.17,23.31,2.79,3.5,1341.39,-719.91,-2902.66,0.0,93.0,130.0,438.0,0.0,0.0,0.0,0.0,0.0,0.0,0.0,0.0,0.0,0.0,0.0,0.0,0.0,0.0
501.0,4434.0,0.0,0.0,-0.0,0.0,3545.299813626677,0.0,20473.2153957253,0.0,20473.2153957253,0.0,0.0,0.15273500703591125,0.10549840471272014,0.5,0.0,0.0,0.0,"[1.7548289180416852, 2.0781539330938372, 1.039695827819969, 0.4815458419871028, 1.203767708316935, 1.720974467600545, 1.7149036202896788, 1.4005112955900856]",20.25,0.0,0.0,0.0,719.9009892189324,115.4277379912041,-868.0191661033195,-1238.800773753146,1236.0355172411175,0.0,0.0,0.0,0.0,0.0,0.0,3.2,19.704347796827992,0.0,18.90639294656679,0.0,3.2,20.25,15.56,22.26,18.45,21.24,2.55,3.2,628.9,-605.83,-2442.69,0.0,135.0,103.0,447.0,0.0,0.0,0.0,0.0,0.0,0.0,0.0,0.0,0.0,0.0,0.0,0.0,0.0,0.0
502.0,3178.0,0.0,2842.878224474417,-0.0,0.0,3592.327365484633,0.0,32658.638900355218,0.0,24813.224788431777,0.0,7845.414111923444,0.0,0.0,0.5,0.0,0.0,0.0,"[1.7548289180416852, 2.0781539330938372, 1.039695827819969, 0.4815458419871028, 1.203767708316935, 1.720974467600545, 1.7149036202896788, 1.4005112955900856]",20.25,0.0,0.0,0.0,677.3473831291676,113.3411231713138,-878.204093692836,-1387.5388087804,6740.40450745412,0.0,0.0,0.0,0.0,0.0,0.0,3.0,19.633303831357267,0.0,18.82165842273758,0.0,3.0,20.25,15.56,22.08,18.8,21.41,2.38,3.0,414.19,-612.94,-2471.35,0.0,256.0,37.0,359.0,0.0,0.0,0.0,0.0,0.0,0.0,0.0,0.0,0.0,0.0,0.0,0.0,0.0,0.0
503.0,2387.0,19910.790284504452,3294.5553442318346,-0.0,0.0,-16000.0,0.0,10065.543459424473,0.0,0.0,0.0,10065.543459424473,0.6533333333333333,0.0,0.5,0.0,0.0,0.0,"[1.7548289180416852, 2.0781539330938372, 1.039695827819969, 0.4815458419871028, 1.203767708316935, 1.720974467600545, 1.7149036202896788, 1.4005112955900856]",23.23,0.0,0.0,0.0,387.6389941948097,124.84912005676935,-1040.2915511256376,-5547.173592718995,0.0,0.0,0.0,0.0,0.0,0.0,0.0,2.8,20.62479344222538,0.0,18.999607876489147,0.0,2.8,23.23,15.79,22.21,21.06,23.09,2.22,2.8,0.0,-726.06,-2927.48,0.0,298.0,47.0,123.0,0.0,0.0,0.0,0.0,0.0,0.0,0.0,0.0,0.0,0.0,0.0,0.0,0.0,0.0
504.0,1138.0,23204.910299221698,26013.881470927805,-0.0,0.0,0.0,0.0,4685.717198729201,0.0,-80000.0,0.0,84685.7171987292,0.6533333333333333,0.3266666666666667,0.5,0.0,0.0,0.0,"[1.7548289180416852, 2.0781539330938372, 1.039695827819969, 0.4815458419871028, 1.203767708316935, 1.720974467600545, 1.7149036202896788, 1.4005112955900856]",22.23,0.0,0.0,0.0,217.9260433081891,29.022915222110473,-1014.6988898612176,-3895.6791785132623,0.0,0.0,0.0,0.0,0.0,0.0,0.0,2.3,20.415163922952612,0.0,19.132254301850757,0.0,2.3,22.23,16.01,22.26,20.04,22.31,1.73,2.3,0.0,-708.2,-2855.46,0.0,80.0,0.0,118.0,0.0,0.0,0.0,0.0,0.0,0.0,0.0,0.0,0.0,0.0,0.0,0.0,0.0,0.0
505.0,1499.0,0.0,3853.0107424961843,-0.0,0.0,0.0,0.0,12873.69745408835,0.0,0.0,0.0,12873.697454088351,0.6533333333333333,0.3266666666666667,0.5,0.0,0.0,0.0,"[1.7548289180416852, 2.0781539330938372, 1.039695827819969, 0.4815458419871028, 1.203767708316935, 1.720974467600545, 1.7149036202896788, 1.4005112955900856]",21.14,0.0,0.0,0.0,356.7625561061084,32.24768358012275,-980.04253784661,-2200.878372629696,0.0,0.0,0.0,0.0,0.0,0.0,0.0,1.9,20.147809822548087,0.0,19.220545594604296,0.0,1.9,21.14,16.21,22.23,19.7,21.99,1.35,1.9,0.0,-684.01,-2757.94,0.0,80.0,0.0,220.0,0.0,0.0,0.0,0.0,0.0,0.0,0.0,0.0,0.0,0.0,0.0,0.0,0.0,0.0
506.0,1366.0,44241.07169929866,31867.77341749174,-0.0,0.0,-8489.795918367347,0.0,46691.997506038686,0.0,-42448.979591836716,0.0,106476.75309787541,1.0,0.5,0.5,17335.776,4333.944,21669.72,"[1.7548289180416852, 2.0781539330938372, 1.039695827819969, 0.4815458419871028, 1.203767708316935, 1.720974467600545, 1.7149036202896788, 1.4005112955900856]",20.74,0.0,0.0,0.0,227.4540392845169,29.244222854523077,-984.8951095687723,-1576.8210713349415,5069.031798511565,0.0,0.0,0.0,0.0,0.0,0.0,1.4,20.043589906410798,0.0,19.26270183581531,0.0,1.4,20.74,16.39,22.14,19.51,21.76,0.86,1.4,0.0,-687.4,-2771.59,0.0,80.0,0.0,125.0,0.0,0.0,0.0,0.0,0.0,0.0,0.0,0.0,0.0,0.0,0.0,0.0,0.0,0.0
507.0,820.0,1214.6585937302705,1073.6099562939203,-0.0,0.0,0.0,0.0,3433.6247928577777,0.0,0.0,0.0,3433.6247928577777,1.0,0.5,0.5,0.0,0.0,0.0,"[1.7548289180416852, 2.0781539330938372, 1.039695827819969, 0.4815458419871028, 1.203767708316935, 1.720974467600545, 1.7149036202896788, 1.4005112955900856]",23.75,0.0,0.0,0.0,151.23007147389455,27.473761795222227,-1148.5964966209226,-5721.562617637054,0.0,0.0,0.0,0.0,0.0,0.0,0.0,1.2,21.073997854455843,0.0,19.485399092586114,0.0,1.2,23.75,16.67,22.3,21.59,23.29,0.71,1.2,75.92,-801.66,-3232.26,0.0,80.0,0.0,69.0,0.0,0.0,0.0,0.0,0.0,0.0,0.0,0.0,0.0,0.0,0.0,0.0,0.0,0.0
508.0,704.0,0.0,8450.852067346064,-0.0,0.0,11499.852067346064,0.0,25174.572805586882,0.0,0.0,0.0,25174.572805586882,0.5110607114223613,0.5,0.4770408163265306,0.0,0.0,0.0,"[1.7548289180416852, 2.0781539330938372, 1.039695827819969, 0.4815458419871028, 1.203767708316935, 1.720974467600545, 1.7149036202896788, 1.4005112955900856]",21.31,0.0,0.0,0.0,276.5984395834708,54.34683144532451,-1034.5163266230052,-2042.0037991507259,7724.733141529578,0.0,0.0,0.0,0.0,0.0,0.0,1.0,20.39705248918221,0.0,19.550063233078816,0.0,1.0,21.31,16.82,22.28,19.8,21.92,0.52,1.0,902.4,-722.03,-2911.23,0.0,160.0,0.0,119.0,0.0,0.0,0.0,0.0,0.0,0.0,0.0,0.0,0.0,0.0,0.0,0.0,0.0,0.0
509.0,829.0,20240.97834546164,4426.831680195849,-0.0,0.0,-10647.941773538481,0.0,13102.856848118145,0.0,0.0,0.0,13102.856848118145,0.9458516671751827,0.5,0.4770408163265306,0.0,0.0,0.0,"[1.7548289180416852, 2.0781539330938372, 1.039695827819969, 0.4815458419871028, 1.203767708316935, 1.720974467600545, 1.7149036202896788, 1.4005112955900856]",23.75,0.0,0.0,0.0,257.1842522933593,68.6053660479082,-1174.0588155947137,-5443.078270808188,3696.397188846371,0.0,0.0,0.0,0.0,0.0,0.0,0.7,21.20926656197602,0.0,19.693554209172856,0.0,0.7,23.75,16.98,22.41,21.51,23.2,0.3,0.7,1014.39,-819.43,-3303.92,0.0,160.0,26.0,102.0,0.0,0.0,0.0,0.0,0.0,0.0,0.0,0.0,0.0,0.0,0.0,0.0,0.0,0.0
510.0,2253.0,23154.44365757143,6260.671439283572,-0.0,0.0,-16000.000000000005,0.0,7913.112272860555,0.0,0.0,0.0,12323.558687411545,0.9837426521730999,0.0,0.5,0.0,0.0,0.0,"[1.7548289180416852, 2.0781539330938372, 1.039695827819969, 0.4815458419871028, 1.203767708316935, 1.720974467600545, 1.7149036202896788, 1.4005112955900856]",23.35,0.0,0.0,0.0,263.8466855700397,96.01589709101253,-1158.3614145797449,-4685.727730070342,0.0,0.0,0.0,0.0,0.0,0.0,0.0,0.6,21.164443076176646,0.0,19.802300518460434,0.0,0.6,23.35,17.11,22.5,20.93,22.79,0.19,0.6,137.88,-808.47,-3259.74,0.0,234.0,35.0,67.0,0.0,0.0,0.0,0.0,0.0,0.0,0.0,0.0,0.0,0.0,0.0,0.0,0.0,0.0
511.0,5873.0,13547.775105179415,28522.036229653517,-0.0,0.0,16000.0,0.0,56143.01768898382,0.0,0.0,0.0,56143.01768898383,0.30347054332956247,0.0,0.5,0.0,0.0,0.0,"[1.7548289180416852, 2.0781539330938372, 1.039695827819969, 0.4815458419871028, 1.203767708316935, 1.720974467600545, 1.7149036202896788, 1.4005112955900856]",20.25,0.0,0.0,0.0,382.62425947042675,121.37142869028553,-1010.6081523565488,-1242.7316757807046,9593.829174512191,0.0,0.0,0.0,0.0,0.0,0.0,0.4,19.71035416335228,0.0,18.90976266783614,0.0,0.4,20.25,15.53,22.29,18.43,21.25,0.01,0.4,1458.33,-705.35,-2843.95,0.0,300.0,40.0,119.0,0.0,0.0,0.0,0.0,0.0,0.0,0.0,0.0,0.0,0.0,0.0,0.0,0.0,0.0
512.0,1526.0,33899.168306666535,32453.6724651332,-0.0,0.0,0.0,0.0,18894.091684396717,0.0,-47153.727805244765,0.0,66047.8194896415,0.30347054332956247,0.1925443885380828,0.5,0.0,0.0,0.0,"[1.7548289180416852, 2.0781539330938372, 1.039695827819969, 0.4815458419871028, 1.203767708316935, 1.720974467600545, 1.7149036202896788, 1.4005112955900856]",23.75,0.0,0.0,2.6697777592374368,305.6122619174013,99.08258856873009,-1179.1512793894715,-6275.812847071849,158.21738376394308,0.0,0.0,0.0,0.0,0.0,0.0,0.6,20.80892176571768,0.0,19.01023176750676,0.0,0.6,23.75,15.61,22.41,21.17,23.31,0.21,0.6,1341.39,-822.98,-3318.25,4.22,224.0,44.0,102.0,0.0,0.0,0.0,0.0,0.0,0.0,0.0,0.0,0.0,0.0,0.0,0.0,0.0,0.0
513.0,4743.0,0.0,0.0,-0.0,10.07647639882843,3545.299813626677,0.0,20473.2153957253,0.0,20473.2153957253,0.0,0.0,0.15273500703591125,0.10549840471272014,0.5,0.0,0.0,0.0,"[1.7548289180416852, 2.0781539330938372, 1.039695827819969, 0.4815458419871028, 1.203767708316935, 1.720974467600545, 1.7149036202896788, 1.4005112955900856]",20.25,0.0,0.0,43.31632262757448,250.163623679223,56.528292393391645,-954.5910506142087,-1247.7458862208246,1236.0355172411175,0.0,0.0,0.0,0.0,0.0,0.0,1.5,19.704347796827992,0.0,18.90639294656679,0.0,1.5,20.25,15.56,22.26,18.45,21.24,1.17,1.5,628.9,-666.25,-2686.31,68.51,141.0,15.0,108.0,0.0,0.0,0.0,0.0,0.0,0.0,0.0,0.0,0.0,0.0,0.0,0.0,0.0,0.0
514.0,2916.0,0.0,2842.878224474417,-0.0,477.4163657387999,3592.327365484633,0.0,32658.638900355218,13356.89,24813.224788431777,0.0,7845.414111923444,0.0,0.0,0.5,0.0,0.0,0.0,"[1.7548289180416852, 2.0781539330938372, 1.039695827819969, 0.4815458419871028, 1.203767708316935, 1.720974467600545, 1.7149036202896788, 1.4005112955900856]",20.25,0.0,0.0,115.81022075292253,404.9040094601857,47.04367957570848,-888.3890212823522,-1386.9635449001823,6740.40450745412,0.0,0.0,0.0,0.0,0.0,0.0,2.8,19.633303831357267,0.0,18.82165842273758,0.0,2.8,20.25,15.56,22.08,18.8,21.41,2.47,2.8,414.19,-620.05,-2500.01,183.15,120.0,3.0,234.0,0.0,0.0,0.0,0.0,0.0,0.0,0.0,0.0,0.0,0.0,0.0,0.0,0.0,0.0
515.0,6464.0,19910.790284504452,3294.5553442318346,-0.0,1057.761188447206,-16000.0,0.0,10065.543459424473,0.0,0.0,0.0,10065.543459424473,0.6533333333333333,0.0,0.5,0.0,0.0,0.0,"[1.7548289180416852, 2.0781539330938372, 1.039695827819969, 0.4815458419871028, 1.203767708316935, 1.720974467600545, 1.7149036202896788, 1.4005112955900856]",23.23,0.0,0.0,143.55642864842935,471.528342226989,38.50752803979364,-989.3669131780558,-5539.253922941545,0.0,0.0,0.0,0.0,0.0,0.0,0.0,3.8,20.62479344222538,0.0,18.999607876489147,0.0,3.8,23.23,15.79,22.21,21.06,23.09,3.44,3.8,0.0,-690.52,-2784.18,227.04,92.0,0.0,298.0,0.0,0.0,0.0,0.0,0.0,0.0,0.0,0.0,0.0,0.0,0.0,0.0,0.0,0.0
516.0,4800.0,23204.910299221698,26013.881470927805,-0.0,2538.287350104818,0.0,0.0,4685.717198729201,0.0,-80000.0,0.0,84685.7171987292,0.6533333333333333,0.3266666666666667,0.5,0.0,0.0,0.0,"[1.7548289180416852, 2.0781539330938372, 1.039695827819969, 0.4815458419871028, 1.203767708316935, 1.720974467600545, 1.7149036202896788, 1.4005112955900856]",22.23,0.0,0.0,200.47766499428306,389.00013647714235,40.78383511603759,-897.5722225817794,-3879.442753347565,0.0,0.0,0.0,0.0,0.0,0.0,0.0,4.6,20.415163922952612,0.0,19.132254301850757,0.0,4.6,22.23,16.01,22.26,20.04,22.31,4.24,4.6,0.0,-626.45,-2525.86,317.06,106.0,0.0,230.0,0.0,0.0,0.0,0.0,0.0,0.0,0.0,0.0,0.0,0.0,0.0,0.0,0.0,0.0
517.0,2726.0,0.0,3853.0107424961843,-0.0,2060.407385204369,0.0,0.0,12873.69745408835,0.0,0.0,0.0,12873.697454088351,0.6533333333333333,0.3266666666666667,0.5,0.0,0.0,0.0,"[1.7548289180416852, 2.0781539330938372, 1.039695827819969, 0.4815458419871028, 1.203767708316935, 1.720974467600545, 1.7149036202896788, 1.4005112955900856]",21.14,0.0,0.0,202.32911314355962,398.2415761835054,106.89158645528921,-817.0836964143479,-2179.1065131505716,0.0,0.0,0.0,0.0,0.0,0.0,0.0,5.1,20.147809822548087,0.0,19.220545594604296,0.0,5.1,21.14,16.21,22.23,19.7,21.99,4.71,5.1,0.0,-570.28,-2299.35,319.99,326.0,0.0,121.0,0.0,0.0,0.0,0.0,0.0,0.0,0.0,0.0,0.0,0.0,0.0,0.0,0.0,0.0
518.0,1345.0,44241.07169929866,31867.77341749174,-0.0,795.843838279366,-8489.795918367347,0.0,46691.997506038686,0.0,-42448.979591836716,0.0,106476.75309787541,1.0,0.5,0.5,17335.776,4333.944,21669.72,"[1.7548289180416852, 2.0781539330938372, 1.039695827819969, 0.4815458419871028, 1.203767708316935, 1.720974467600545, 1.7149036202896788, 1.4005112955900856]",20.74,0.0,0.0,174.0556023394049,366.57710835240096,80.39790131789427,-786.289021573203,-1550.6567080223679,5069.031798511565,0.0,0.0,0.0,0.0,0.0,0.0,5.3,20.043589906410798,0.0,19.26270183581531,0.0,5.3,20.74,16.39,22.14,19.51,21.76,4.9,5.3,0.0,-548.79,-2212.7,275.27,240.0,0.0,143.0,0.0,0.0,0.0,0.0,0.0,0.0,0.0,0.0,0.0,0.0,0.0,0.0,0.0,0.0
519.0,2497.0,1214.6585937302705,1073.6099562939203,-0.0,24.464206112018026,0.0,0.0,3433.6247928577777,0.0,0.0,0.0,3433.6247928577777,1.0,0.5,0.5,0.0,0.0,0.0,"[1.7548289180416852, 2.0781539330938372, 1.039695827819969, 0.4815458419871028, 1.203767708316935, 1.720974467600545, 1.7149036202896788, 1.4005112955900856]",23.75,0.0,0.0,59.32666718539318,302.81833828524503,57.950984316044135,-965.2678000096279,-5698.216322907336,0.0,0.0,0.0,0.0,0.0,0.0,0.0,4.8,21.073997854455843,0.0,19.485399092586114,0.0,4.8,23.75,16.67,22.3,21.59,23.29,4.31,4.8,75.92,-673.7,-2716.36,93.83,170.0,0.0,133.0,0.0,0.0,0.0,0.0,0.0,0.0,0.0,0.0,0.0,0.0,0.0,0.0,0.0,0.0
520.0,3754.0,0.0,8450.852067346064,-0.0,0.0,11499.852067346064,0.0,25174.572805586882,0.0,0.0,0.0,25174.572805586882,0.5110607114223613,0.5,0.4770408163265306,0.0,0.0,0.0,"[1.7548289180416852, 2.0781539330938372, 1.039695827819969, 0.4815458419871028, 1.203767708316935, 1.720974467600545, 1.7149036202896788, 1.4005112955900856]",21.31,0.0,0.0,1.3399530908224766,211.9083616389295,29.78168424752513,-881.7424127802595,-2022.776293620669,7724.733141529578,0.0,0.0,0.0,0.0,0.0,0.0,4.0,20.39705248918221,0.0,19.550063233078816,0.0,4.0,21.31,16.82,22.28,19.8,21.92,3.49,4.0,902.4,-615.41,-2481.31,2.12,83.0,0.0,112.0,0.0,0.0,0.0,0.0,0.0,0.0,0.0,0.0,0.0,0.0,0.0,0.0,0.0,0.0
521.0,3707.0,20240.97834546164,4426.831680195849,-0.0,0.0,-10647.941773538481,0.0,13102.856848118145,0.0,0.0,0.0,13102.856848118145,0.9458516671751827,0.5,0.4770408163265306,0.0,0.0,0.0,"[1.7548289180416852, 2.0781539330938372, 1.039695827819969, 0.4815458419871028, 1.203767708316935, 1.720974467600545, 1.7149036202896788, 1.4005112955900856]",23.75,0.0,0.0,0.0,616.8840101666063,57.82452281180834,-1041.6547569310007,-5427.022135694955,3696.397188846371,0.0,0.0,0.0,0.0,0.0,0.0,3.3,21.20926656197602,0.0,19.693554209172856,0.0,3.3,23.75,16.98,22.41,21.51,23.2,2.78,3.3,1014.39,-727.02,-2931.32,0.0,81.0,34.0,407.0,0.0,0.0,0.0,0.0,0.0,0.0,0.0,0.0,0.0,0.0,0.0,0.0,0.0,0.0
522.0,7557.0,23154.44365757143,6260.671439283572,-0.0,0.0,-16000.000000000005,0.0,7913.112272860555,0.0,0.0,0.0,12323.558687411545,0.9837426521730999,0.0,0.5,0.0,0.0,0.0,"[1.7548289180416852, 2.0781539330938372, 1.039695827819969, 0.4815458419871028, 1.203767708316935, 1.720974467600545, 1.7149036202896788, 1.4005112955900856]",23.35,0.0,0.0,0.0,708.7969337577985,111.47581598383609,-1056.512138684581,-4673.280630899717,0.0,0.0,0.0,0.0,0.0,0.0,0.0,2.6,21.164443076176646,0.0,19.802300518460434,0.0,2.6,23.35,17.11,22.5,20.93,22.79,2.11,2.6,137.88,-737.39,-2973.13,0.0,117.0,106.0,448.0,0.0,0.0,0.0,0.0,0.0,0.0,0.0,0.0,0.0,0.0,0.0,0.0,0.0,0.0
523.0,4395.0,13547.775105179415,28522.036229653517,-0.0,0.0,16000.0,0.0,56143.01768898382,0.0,0.0,0.0,56143.01768898383,0.30347054332956247,0.0,0.5,0.0,0.0,0.0,"[1.7548289180416852, 2.0781539330938372, 1.039695827819969, 0.4815458419871028, 1.203767708316935, 1.720974467600545, 1.7149036202896788, 1.4005112955900856]",20.25,0.0,0.0,0.0,446.6695858075473,116.50266077720816,-934.221195435176,-1233.8276700349788,9593.829174512191,0.0,0.0,0.0,0.0,0.0,0.0,1.9,19.71035416335228,0.0,18.90976266783614,0.0,1.9,20.25,15.53,22.29,18.43,21.25,1.39,1.9,1458.33,-652.03,-2628.99,0.0,156.0,105.0,235.0,0.0,0.0,0.0,0.0,0.0,0.0,0.0,0.0,0.0,0.0,0.0,0.0,0.0,0.0
524.0,3661.0,33899.168306666535,32453.6724651332,-0.0,0.0,0.0,0.0,18894.091684396717,0.0,-47153.727805244765,0.0,66047.8194896415,0.30347054332956247,0.1925443885380828,0.5,0.0,0.0,0.0,"[1.7548289180416852, 2.0781539330938372, 1.039695827819969, 0.4815458419871028, 1.203767708316935, 1.720974467600545, 1.7149036202896788, 1.4005112955900856]",23.75,0.0,0.0,0.0,448.60384062980944,91.62135981881933,-1143.5040328261643,-6272.082874899252,158.21738376394308,0.0,0.0,0.0,0.0,0.0,0.0,1.3,20.80892176571768,0.0,19.01023176750676,0.0,1.3,23.75,15.61,22.41,21.17,23.31,0.78,1.3,1341.39,-798.1,-3217.93,0.0,120.0,80.0,258.0,0.0,0.0,0.0,0.0,0.0,0.0,0.0,0.0,0.0,0.0,0.0,0.0,0.0,0.0
525.0,3221.0,0.0,0.0,-0.0,0.0,3545.299813626677,0.0,20473.2153957253,0.0,20473.2153957253,0.0,0.0,0.15273500703591125,0.10549840471272014,0.5,0.0,0.0,0.0,"[1.7548289180416852, 2.0781539330938372, 1.039695827819969, 0.4815458419871028, 1.203767708316935, 1.720974467600545, 1.7149036202896788, 1.4005112955900856]",20.25,0.0,0.0,0.0,384.34359709021516,78.24805574588609,-1000.4232247670323,-1254.8592505502065,1236.0355172411175,0.0,0.0,0.0,0.0,0.0,0.0,0.6,19.704347796827992,0.0,18.90639294656679,0.0,0.6,20.25,15.56,22.26,18.45,21.24,0.07,0.6,628.9,-698.24,-2815.29,0.0,137.0,50.0,205.0,0.0,0.0,0.0,0.0,0.0,0.0,0.0,0.0,0.0,0.0,0.0,0.0,0.0,0.0
526.0,1935.0,0.0,2842.878224474417,-0.0,0.0,3592.327365484633,0.0,32658.638900355218,0.0,24813.224788431777,0.0,7845.414111923444,0.0,0.0,0.5,0.0,0.0,0.0,"[1.7548289180416852, 2.0781539330938372, 1.039695827819969, 0.4815458419871028, 1.203767708316935, 1.720974467600545, 1.7149036202896788, 1.4005112955900856]",20.25,0.0,0.0,0.0,366.2189130149451,61.586752562822674,-1036.0704713303398,-1407.2351917864953,6740.40450745412,0.0,0.0,0.0,0.0,0.0,0.0,-0.1,19.633303831357267,0.0,18.82165842273758,0.0,-0.1,20.25,15.56,22.08,18.8,21.41,-0.66,-0.1,414.19,-723.12,-2915.61,0.0,130.0,25.0,198.0,0.0,0.0,0.0,0.0,0.0,0.0,0.0,0.0,0.0,0.0,0.0,0.0,0.0,0.0
527.0,1627.0,19910.790284504452,3294.5553442318346,-0.0,0.0,-16000.0,0.0,10065.543459424473,0.0,0.0,0.0,10065.543459424473,0.6533333333333333,0.0,0.5,0.0,0.0,0.0,"[1.7548289180416852, 2.0781539330938372, 1.039695827819969, 0.4815458419871028, 1.203767708316935, 1.720974467600545, 1.7149036202896788, 1.4005112955900856]",23.23,0.0,0.0,0.0,270.2225625767552,49.572909660423974,-1218.5277839421744,-5569.65097951976,0.0,0.0,0.0,0.0,0.0,0.0,0.0,-0.7,20.62479344222538,0.0,18.999607876489147,0.0,-0.7,23.23,15.79,22.21,21.06,23.09,-1.25,-0.7,0.0,-850.46,-3429.06,0.0,120.0,13.0,134.0,0.0,0.0,0.0,0.0,0.0,0.0,0.0,0.0,0.0,0.0,0.0,0.0,0.0,0.0
528.0,2735.0,23204.910299221698,26013.881470927805,-0.0,0.0,0.0,0.0,4685.717198729201,0.0,-80000.0,0.0,84685.7171987292,0.6533333333333333,0.3266666666666667,0.5,0.0,0.0,0.0,"[1.7548289180416852, 2.0781539330938372, 1.039695827819969, 0.4815458419871028, 1.203767708316935, 1.720974467600545, 1.7149036202896788, 1.4005112955900856]",22.23,0.0,0.0,0.0,1452.4104543163137,96.93274299672193,-1208.2125140620287,-3920.0028739908166,0.0,0.0,0.0,0.0,0.0,0.0,0.0,-1.5,20.415163922952612,0.0,19.132254301850757,0.0,-1.5,22.23,16.01,22.26,20.04,22.31,-2.02,-1.5,0.0,-843.26,-3400.03,0.0,160.0,27.0,980.0,0.0,0.0,0.0,0.0,0.0,0.0,0.0,0.0,0.0,0.0,0.0,0.0,0.0,0.0
529.0,1363.0,0.0,3853.0107424961843,-0.0,0.0,0.0,0.0,12873.69745408835,0.0,0.0,0.0,12873.697454088351,0.6533333333333333,0.3266666666666667,0.5,0.0,0.0,0.0,"[1.7548289180416852, 2.0781539330938372, 1.039695827819969, 0.4815458419871028, 1.203767708316935, 1.720974467600545, 1.7149036202896788, 1.4005112955900856]",21.14,0.0,0.0,0.0,289.4218326643932,56.90767690609897,-1188.8335534316955,-2227.210731286396,0.0,0.0,0.0,0.0,0.0,0.0,0.0,-2.2,20.147809822548087,0.0,19.220545594604296,0.0,-2.2,21.14,16.21,22.23,19.7,21.99,-2.71,-2.2,0.0,-829.74,-3345.5,0.0,160.0,4.0,128.0,0.0,0.0,0.0,0.0,0.0,0.0,0.0,0.0,0.0,0.0,0.0,0.0,0.0,0.0
530.0,819.0,44241.07169929866,31867.77341749174,-0.0,0.0,-8489.795918367347,0.0,46691.997506038686,0.0,-42448.979591836716,0.0,106476.75309787541,1.0,0.5,0.5,17335.776,4333.944,21669.72,"[1.7548289180416852, 2.0781539330938372, 1.039695827819969, 0.4815458419871028, 1.203767708316935, 1.720974467600545, 1.7149036202896788, 1.4005112955900856]",20.74,0.0,0.0,0.0,245.2921670898223,53.6196777959688,-1208.9635165381324,-1605.2502689028806,5069.031798511565,0.0,0.0,0.0,0.0,0.0,0.0,-3.0,20.043589906410798,0.0,19.26270183581531,0.0,-3.0,20.74,16.39,22.14,19.51,21.76,-3.52,-3.0,0.0,-843.79,-3402.14,0.0,160.0,0.0,96.0,0.0,0.0,0.0,0.0,0.0,0.0,0.0,0.0,0.0,0.0,0.0,0.0,0.0,0.0
531.0,727.0,1214.6585937302705,1073.6099562939203,-0.0,0.0,0.0,0.0,3433.6247928577777,0.0,0.0,0.0,3433.6247928577777,1.0,0.5,0.5,0.0,0.0,0.0,"[1.7548289180416852, 2.0781539330938372, 1.039695827819969, 0.4815458419871028, 1.203767708316935, 1.720974467600545, 1.7149036202896788, 1.4005112955900856]",23.75,0.0,0.0,0.0,208.54132546684372,52.76606264237733,-1387.9422949745574,-5752.326132016542,0.0,0.0,0.0,0.0,0.0,0.0,0.0,-3.5,21.073997854455843,0.0,19.485399092586114,0.0,-3.5,23.75,16.67,22.3,21.59,23.29,-4.04,-3.5,75.92,-968.7,-3905.81,0.0,160.0,0.0,69.0,0.0,0.0,0.0,0.0,0.0,0.0,0.0,0.0,0.0,0.0,0.0,0.0,0.0,0.0
532.0,1025.0,0.0,8450.852067346064,-0.0,0.0,11499.852067346064,0.0,25174.572805586882,0.0,0.0,0.0,25174.572805586882,0.5110607114223613,0.5,0.4770408163265306,0.0,0.0,0.0,"[1.7548289180416852, 2.0781539330938372, 1.039695827819969, 0.4815458419871028, 1.203767708316935, 1.720974467600545, 1.7149036202896788, 1.4005112955900856]",21.31,0.0,0.0,0.0,275.23729730113826,54.31521606926557,-1284.0470525661563,-2074.2508504404295,7724.733141529578,0.0,0.0,0.0,0.0,0.0,0.0,-3.9,20.39705248918221,0.0,19.550063233078816,0.0,-3.9,21.31,16.82,22.28,19.8,21.92,-4.46,-3.9,902.4,-896.19,-3613.44,0.0,160.0,0.0,118.0,0.0,0.0,0.0,0.0,0.0,0.0,0.0,0.0,0.0,0.0,0.0,0.0,0.0,0.0
533.0,1426.0,20240.97834546164,4426.831680195849,-0.0,0.0,-10647.941773538481,0.0,13102.856848118145,0.0,0.0,0.0,13102.856848118145,0.9458516671751827,0.5,0.4770408163265306,0.0,0.0,0.0,"[1.7548289180416852, 2.0781539330938372, 1.039695827819969, 0.4815458419871028, 1.203767708316935, 1.720974467600545, 1.7149036202896788, 1.4005112955900856]",23.75,0.0,0.0,0.0,255.96638814600914,58.39359958086933,-1428.6820053326228,-5476.58978934017,3696.397188846371,0.0,0.0,0.0,0.0,0.0,0.0,-4.3,21.20926656197602,0.0,19.693554209172856,0.0,-4.3,23.75,16.98,22.41,21.51,23.2,-4.87,-4.3,1014.39,-997.14,-4020.45,0.0,160.0,8.0,103.0,0.0,0.0,0.0,0.0,0.0,0.0,0.0,0.0,0.0,0.0,0.0,0.0,0.0,0.0
