Szenario,Szenario,Szenario,Szenario,Szenario,Szenario,Szenario,Szenario,Ergebnisswert nach Indikator,Ergebnisswert nach Indikator,Ergebnisswert nach Indikator,Ergebnisswert nach Indikator,Ergebnisswert nach Indikator,Ergebnisswert nach Indikator,Ergebnisswert nach Indikator,Ergebnisswert nach Indikator,Ergebnisswert nach Indikator,Variation gegenüber Basisszenario S0,Variation gegenüber Basisszenario S0,Variation gegenüber Basisszenario S0,Variation gegenüber Basisszenario S0,Variation gegenüber Basisszenario S0,Variation gegenüber Basisszenario S0,Variation gegenüber Basisszenario S0,Variation gegenüber Basisszenario S0,Variation gegenüber Basisszenario S0,Ranking nach KPI,Ranking nach KPI,Ranking nach KPI,Ranking nach KPI,Ranking nach KPI,Ranking nach KPI,Ranking nach KPI,Ranking nach KPI,Ranking nach KPI,Ranking nach gewichteter Summe von KPI-Rängen,Ranking nach gewichteter Summe von KPI-Rängen,Ranking nach gewichteter Summe von KPI-Rängen,Ranking nach gewichteter Summe von KPI-Rängen,Ranking nach gewichteter Summe von KPI-Rängen,Ranking nach gewichteter Summe von KPI-Rängen
Id,Parameterkonfiguration,Parameterkonfiguration,Parameterkonfiguration,Parameterkonfiguration,Parameterkonfiguration,Parameterkonfiguration,Parameterkonfiguration,Effizienz,Effizienz,Effizienz,Effizienz,Flexibilitaet,Flexibilitaet,Flexibilitaet,Flexibilitaet,Flexibilitaet,Effizienz,Effizienz,Effizienz,Effizienz,Flexibilitaet,Flexibilitaet,Flexibilitaet,Flexibilitaet,Flexibilitaet,Effizienz,Effizienz,Effizienz,Effizienz,Flexibilitaet,Flexibilitaet,Flexibilitaet,Flexibilitaet,Flexibilitaet,Effizienz,Effizienz,Flexibilitaet,Flexibilitaet,Global,Global
,Jahr,Gebaeudemix,Gebaeudemix,Gebaeudemix,Waermesystem,PV-Potential,Steuerung,Unweltfaktoren,Unweltfaktoren,Wirtschaftlichkeit,Wirtschaftlichkeit,Quartiersintern,Quartiersintern,Verteilnetz,Verteilnetz,Verteilnetz,Unweltfaktoren,Unweltfaktoren,Wirtschaftlichkeit,Wirtschaftlichkeit,Quartiersintern,Quartiersintern,Verteilnetz,Verteilnetz,Verteilnetz,Unweltfaktoren,Unweltfaktoren,Wirtschaftlichkeit,Wirtschaftlichkeit,Quartiersintern,Quartiersintern,Verteilnetz,Verteilnetz,Verteilnetz,Summe,Rang,Summe,Rang,Summe,Rang
,,Unsaniert,KfW-70,KfW-40,,,,CO2,PED,OPC,EAC,SCR,SSR,FLR,GII,HLR,CO2,PED,OPC,EAC,SCR,SSR,FLR,GII,HLR,CO2,PED,OPC,EAC,SCR,SSR,FLR,GII,HLR,,,,,,
,[-],[%],[%],[%],[-],[-],[-],[t],[MWh],[k€],[k€],[%],[%],[%],[%],[%],[%],[%],[%],[%],[%],[%],[%],[%],[%],Rang,Rang,Rang,Rang,Rang,Rang,Rang,Rang,Rang,,,,,,
S0,2020,100,0,0,GK,Kein,Konventionell,1275.0,6914.0,491.0,524.0,,0.0,17.07,10.81,0.31,0,0,0,0,0,0,0,0,0,,,,,,,,,,,,,,,
