measure_id,measure_component,measure_description,measure_cost
[-],[-],[-],Euro/m2
DE.Roof.Insulation12cm.01,Roof,"insulate cavity between rafters (heighten rafters and clear interspace if necessary), total insulation thickness 12 cm",313
DE.Roof.Insulation16cm.01,Roof,"insulate cavity between rafters + add insulation layer, total insulation thickness 16 cm",332
DE.Roof.Insulation20cm.01,Roof,"insulate cavity between rafters + add insulation layer, total insulation thickness 22 cm",351
DE.Roof.Insulation30cm.01,Roof,"insulate cavity between rafters + insulation layer, total insulation thickness 30 cm",287.97
DE.Roof.Ijoists-Insulation30cm.01,Roof,"insulation between wood I-joists, total insulation thickness 30 cm",238.5
DE.Roof.FlatRoofInsulation12cm.01,Roof,12 cm insulation on ceiling + roofing,261
DE.Roof.FlatRoofInsulation20cm.01,Roof,20 cm insulation on ceiling + roofing,317
DE.Roof.FlatRoofInsulation30cm.01,Roof,30 cm insulation on ceiling + roofing,387
DE.Roof.FlatRoofInsulation30cm.02,Roof,30 cm insulation (WLS 032) on celing + roofing,269
DE.Ceiling.Insulation12cm.01,Ceiling,add 12 cm insulation above (+ flooring if necessary),84
DE.Ceiling.Insulation30cm.01,Ceiling,add 30 cm insulation above (+ flooring if necessary),139
DE.Wall.Insulation08cm.02,Wall,"add 8 cm of insulation on inner surface (air-tight cladding, water pipes must not be conducted in outer brickwork)",192.93
DE.Wall.Insulation08cm.03,Wall,"fill 8 cm cavity by insulation beads (perlite, polystyrene, mineral wool, ...) ",40
DE.Wall.Insulation08cm.04,Wall,"add 8 cm of insulation on inner surface (air-tight cladding, water pipes must not be conducted in outer wall)",192.93
DE.Wall.Insulation12cm.01,Wall,"add 12 cm of insulation + plaster (external insulated render system), alternative: curtain wall (e.g. cellulose between timbers)",222
DE.Wall.Insulation24cm.01,Wall,"add 24 cm of insulation + plaster (external insulated render system), alternative: curtain wall (e.g. cellulose between timbers)",280
DE.Wall.Insulation24cm.02,Wall,"add 24 cm of insulation + plaster (external insulated render system), alternative: curtain wall",280
DE.Wall.Insulation24cm.03,Wall,"if external insulation is possible: add 24 cm of insulation, creation of historical facade appearance (e.g. wooden shingles, plaster, strip tiles, ...)",280
DE.Wall.Insulation24cm.04,Wall,add 24 cm of insulation + external clinker cladding (strip tiles),280
DE.Wall.Masonry-Insulation12cm.01,Wall,12 cm of external insulation brickwork + plaster (external insulated render system),138.98
DE.Wall.Masonry-Insulation24cm.01,Wall,24 cm of external insulation brickwork + plaster (external insulated render system),175.57
DE.Floor.Insulation06cm.02,Floor,"add 6 cm of insulation on top, including floor renovation",32
DE.Floor.Insulation08cm.01,Floor,add 8 cm of insulation below / alternatively: on top of ceiling (in case of floor renovation),69
DE.Floor.Insulation08cm.03,Floor,add 8 cm of insulation below / alternatively: on top of ceiling (in case of floor renovation),45.54
DE.Floor.Insulation12cm.01,Floor,add 12 cm insulation below (in case of sufficient cellar height) / alternatively: on top of ceiling (in case of floor renovation) or combination of both,78
DE.Floor.Insulation12cm.02,Floor,"add 12 cm of insulation on top, including floor renovation (as far as room height is sufficient)",324.69
DE.Floor.Insulation20cm.01,Floor,add 20 cm insulation below (in case of sufficient cellar height) / alternatively: on top of ceiling (in case of floor renovation) or combination of both,76.95
DE.Floor.Slab-Insulation12cm.01,Floor,(bottom) slab + 12 cm external insulation,275.98
DE.Floor.Slab-Insulation24cm.01,Floor,(bottom) slab + 24 cm external insulation,304.09
DE.Window.2p-LowE-arg.01,Window,"windows with double glazing, argon filled, low-E",600
DE.Window.2p-LowE-arg.02,Window,"windows with double glazing, argon filled, low-E, historical impression (divisions)",591.28
DE.Window.3p-LowE-arg.01,Window,"windows with triple glazing, argon filled, low-E",690
DE.Window.3pInsulatedFrame.01,Window,"windows with triple glazing, argon filled, low-E, insulated frame",940
DE.Window.3pInsulatedFrame.02,Window,"windows with triple glazing, argon filled, low-E, insulated frame, historical impression (divisions)",702
DE.Window.3pInsulatedFrame.03,Window,"windows with triple glazing, Argon or Krypton filled, low-E, insulated frame, improved version",464
