Tabula Building Type Code,first year,last year,SFH,TH,MF,AB,HH
,,,single family house,terraced house,multi family house,apartment block,
2,1900,1918,0,0,5,10,0
3,1919,1948,0,0,5,10,0
4,1949,1957,0,0,10,20,0
5,1958,1968,0,0,10,20,0
6,1969,1977,0,0,0,10,0
7,1978,1983,0,0,0,0,0
8,1984,1994,0,0,0,0,0
9,1994,,0,0,0,0,0
10,,,,,,,
11,,,,,,,
12,,,,,,,
