Zone-ID,Zone-Volume,Zone-Area
[-],m3,m2
MFH1-Zone_1,168.846782558,56.2822608528
MFH1-Zone_2,229.753627017,76.5845423389
MFH1-Zone_3,229.753627017,76.5845423389
MFH1-Zone_4,168.846782558,56.2822608528
MFH1-Zone_5,229.753627017,76.5845423389
MFH1-Zone_6,229.753627017,76.5845423389
MFH2-Zone_1,287.549335009,95.8497783364
MFH2-Zone_2,296.473849902,98.8246166338
MFH2-Zone_3,319.062161236,106.354053745
MFH2-Zone_4,299.011951138,99.6706503794
MFH2-Zone_5,287.549335009,95.8497783364
MFH2-Zone_6,296.473849902,98.8246166338
MFH2-Zone_7,319.062161236,106.354053745
MFH2-Zone_8,299.011951138,99.6706503794
