,import_elec,import_th,consum_elec,consum_th,consum_cold,pow_elec_hp,pow_th_hp,pow_th_gb,pow_th_chp,pow_gas_gb,pow_elec_eh,pow_elec_ac,pow_elec_chp,pow_th_eh_in,pow_th_eh_out,consum_dhw,gen_pv,trans_to_hub,trans_to_bul,dh_to_bul_1,dh_to_bul_2,temp_zone_1,temp_zone_2,temp_amb,pow_elec_bat,pow_th_tes,soc_bat_avg,soc_tes_avg,soc_ev_1,soc_ev_2,consum_ev_drive,consum_ev_charge,soc_ev_1_driving,soc_ev_2_driving,obj_cost,obj_co2,obj_peak,emi_factor_elec,emi_factor_dh,price_elec,price_dh,slack_ext,restload_avg,renovation_cost_construction,renovation_cost_hp,renovation_cost_pv,renovation_cost_total
8.0,1584880.635561807,0.0,69287.0,2555180.641728059,0.0,1532993.3079175313,2549893.1502058436,0.0,0.0,0.0,5701.404,0.0,0.0,22805.616,28507.02,28507.02,0.0,0.0,1584880.6355618073,0.0,,20.0,,-9.4,31025.479533533675,28093.107522217724,0.46267700248830274,0.49431221503032524,0.8,,0.0,0.0,0.09882005899705015,,285.29436320748084,7924.403177809036,1584880.635561807,5.0,77.0,0.01,91.52000000000001,,,6874835.890880003,710665.810657836,1644606.4381736678,9230108.139711503
9.0,969849.1530718814,0.0,82052.0,1846293.0455109489,0.0,798515.6938126937,1389105.1709944957,0.0,0.0,0.0,62493.70143980279,0.0,0.0,249974.80575921116,312468.50719901395,0.0,309.1126808240767,0.0,969849.1530718814,0.0,,23.874861641922507,,-8.6,-22247.624734849476,400943.54322063003,0.5237513095757896,0.40355176565028245,0.8,,0.0,0.0,0.13126843657817108,,174.58254604446935,4849.2457653594065,969849.1530718814,5.0,79.0,0.01,91.52000000000001,,,,,,
10.0,899091.3992472846,0.0,109330.0,1609516.018153971,20612.51633817016,707122.0007135663,1297527.9807911962,0.0,0.0,0.0,48317.203818633105,10306.25816908508,0.0,193268.81527453242,241586.01909316552,42916.92,15448.341916689384,0.0,899091.3992472844,0.0,,20.10015651476035,,-7.6,-45275.07963553839,310561.1355260043,0.5583193017879785,0.33203503264535267,0.8,,0.0,0.0,0.2713864306784661,,161.8544336924962,4495.456996236423,899091.3992472846,5.0,82.0,0.02,91.52000000000001,,,,,,
11.0,987298.3759243881,0.0,155740.0,1500662.8018032135,47858.56247580224,791481.4699476726,1512686.2146008417,0.0,0.0,0.0,68880.64705100107,23929.28123790112,0.0,275522.5882040043,344403.2352550053,33791.04,42875.801929513436,0.0,987298.375924388,0.0,,24.0,,-6.8,-9135.568975605747,-40900.77594352971,0.5662601393542311,0.35334623058335635,0.8,,0.0,0.0,0.34513274336283184,,177.79269153646382,3949.1935036975524,987298.3759243881,4.0,85.0,0.08,91.52000000000001,,,,,,
12.0,757523.6815798966,0.0,155636.0,1323611.9653451974,0.0,534782.3008701187,1052670.010505462,0.0,0.0,0.0,163435.53173050145,0.0,0.0,653742.1269220058,817177.6586525071,38034.24,92453.65374194663,0.0,757523.6815798966,0.0,,21.728536212606752,,-6.2,7664.115686676273,161123.53148228565,0.562821957111172,0.3488979637242076,0.8,,34200.0,0.0,0.38495575221238937,,136.42243981572358,3030.0947263195862,757523.6815798966,4.0,86.0,0.09,91.52000000000001,,,,,,
13.0,1033628.490819426,0.0,139377.0,1533818.544986498,9572.110911065913,864864.4173392907,1710651.4621835365,0.0,0.0,0.0,118064.00701633445,4786.055455532956,0.0,472256.0280653378,590320.0350816722,0.0,18108.070853137448,0.0,1033628.4908194258,0.0,,20.0,,-6.1,75737.00513715866,-283090.5235117403,0.4384464732799416,0.3892519852712435,0.7956655228463068,,74100.0,0.0,0.35250737463126847,,186.1564911965786,4134.5139632777045,1033628.490819426,4.0,87.0,0.1,91.53,,,,,,
14.0,888860.9069362672,0.0,110966.0,1414221.0485139056,0.0,615911.4387877394,1188878.6016789996,0.0,0.0,0.0,161952.36578452017,0.0,0.0,647809.4631380807,809761.8289226007,31023.07,209.14370235410638,0.0,888860.9069362672,0.0,,24.0,,-6.6,4204.058468319781,109987.92622883752,0.468858023906925,0.38046744703088653,0.7903377280115587,,28350.0,0.0,0.29646017699115046,,160.16384682084598,4444.304534681336,888860.9069362672,5.0,88.0,0.19,91.53999999999999,,,,,,
15.0,464994.6569195322,0.0,93163.0,1112982.3433005246,0.0,349804.93067177397,651876.2129896855,0.0,0.0,0.0,72160.75508858259,0.0,0.0,288643.02035433037,360803.775442913,19304.77,0.0,0.0,464994.6569195323,0.0,,24.0,,-7.3,52459.00212542188,415080.1253311155,0.3859398770297944,0.33706353239335635,0.7866353621094456,,52950.0,0.0,0.2743362831858407,,83.78738723033051,2324.9732845976614,464994.6569195322,5.0,89.0,0.19,91.53999999999999,,,,,,
16.0,517166.2633084337,0.0,87131.0,1092993.3111083533,7024.106329030815,435098.7580964042,814972.7807399038,0.0,0.0,0.0,16645.046523300043,3512.0531645154074,0.0,66580.18609320017,83225.23261650022,0.0,0.0,0.0,517166.2633084337,0.0,,21.005717106116418,,-7.2,24294.37262781275,263039.9884974793,0.386910363422639,0.32430338498960315,0.7769730901210042,,114750.0,0.0,0.20501474926253688,,93.22956228661135,2585.8313165421687,517166.2633084337,5.0,96.0,0.27,91.55,,,,,,
17.0,806912.9017582108,0.0,122923.0,1008274.7947275323,0.0,428905.29958240094,811549.7376445916,0.0,0.0,0.0,204081.63265306124,0.0,0.0,816326.530612245,1020408.1632653062,0.0,0.0,0.0,806912.901758211,0.0,,20.15018047882329,,-7.0,-46968.40501395772,13051.587695185073,0.4426067976462694,0.31814071500884056,0.7764312804767926,,54000.0,0.0,0.19174041297935104,,150.51346356495907,3227.6516070328435,806912.9017582108,4.0,99.0,6.53,91.56,,,,,,
18.0,1031832.4369659992,0.0,146883.0,1126391.8359621416,0.0,635647.7487058608,1208795.636903132,0.0,0.0,0.0,223845.41628492542,0.0,0.0,895381.6651397017,1119227.081424627,0.0,0.0,0.0,1031832.4369659992,0.0,,20.0,,-6.9,-20297.10979038391,-283864.6755974233,0.3984672612863641,0.3439425006068821,0.7704713743904642,,42600.0,0.0,0.11946902654867256,,198.36978600671335,4127.329747863997,1031832.4369659992,4.0,97.0,12.25,91.56,,,,,,
19.0,887693.6248048117,0.0,155233.0,1000544.5750109135,0.0,530967.8137931162,1014790.2671362539,0.0,0.0,0.0,196418.27391079313,0.0,0.0,785673.0956431725,982091.3695539656,0.0,0.0,0.0,887693.6248048118,0.0,,24.0,,-6.8,-636.068976878368,-191022.13864505442,0.3307161647774686,0.36816381359318767,0.7660465956294022,,54450.0,0.0,0.07374631268436578,,168.78606582038688,3550.7744992192465,887693.6248048117,4.0,94.0,10.14,91.55,,,,,,
20.0,564012.3328331308,0.0,163615.0,312997.57598231063,0.0,252933.92235430854,488232.08823274897,0.0,0.0,0.0,5635.3060000000005,0.0,0.0,22541.224000000002,28176.53,28176.53,0.0,0.0,564012.3328331306,0.0,,21.14054804577067,,-6.6,-139008.04281465654,-152693.2882504383,0.623588023893904,0.3828937707549214,0.7606284991872856,,69000.0,0.0,0.045722713864306784,,101.92830878960339,2256.0493313325233,564012.3328331308,4.0,91.0,0.72,91.53999999999999,,,,,,
21.0,948662.7496842399,0.0,149252.0,1629722.6602000904,96019.39544158969,807467.5358807159,1566332.4292114351,0.0,0.0,0.0,443.33664697180785,48009.697720794844,0.0,1773.3465878872314,2216.683234859039,0.0,0.0,0.0,948662.7496842401,0.0,,20.46955500855207,,-6.5,13243.436591865808,62991.22800638121,0.5384072293205941,0.3705935542645841,0.7606284991872856,,20250.0,4.3407372065952843e-10,0.045722713864306784,,171.10081353304952,3794.6509987369595,948662.7496842399,4.0,94.0,0.36,91.55,,,,,,
22.0,936761.473570032,0.0,110385.0,1176738.427667465,32362.99153560264,386817.2334896453,757726.6712501213,0.0,0.0,0.0,403634.67231842724,16181.49576780132,0.0,1614538.689273709,2018173.361592137,0.0,0.0,0.0,936761.4735700322,0.0,,23.53044499144793,,-6.3,-31240.76039410923,55740.551330759336,0.5409121015032534,0.3605621409307541,0.7606284991872856,,32400.0,0.0,0.045722713864306784,,168.79504992258407,3747.0458942801283,936761.473570032,4.0,95.0,0.19,91.55,,,,,,
23.0,474983.36944718205,0.0,79276.0,1073679.4057105398,0.0,405720.6530592021,798623.9698344832,0.0,0.0,0.0,43212.780859700164,0.0,0.0,172851.12343880066,216063.9042985008,0.0,0.0,0.0,474983.36944718205,0.0,,22.493138965246306,,-6.2,55600.981318956074,236163.93310232653,0.4715600881899288,0.3388383872337929,0.7518692432725304,,53100.0,0.0,0.016224188790560472,,85.58250350699326,2374.91684723591,474983.36944718205,5.0,91.0,0.18,91.55,,,,,,
24.0,664157.5085786314,0.0,60882.0,1025972.1812336121,60068.01926343019,513905.0986505329,1016474.363848442,0.0,0.0,0.0,110693.90400406046,30034.009631715096,0.0,442775.61601624184,553469.5200203023,291453.74,0.0,0.0,664157.5085786314,0.0,,23.53044499144793,,-6.1,24644.281618854377,195497.96898151582,0.44228420230239635,0.32679379565347744,0.7518692432725295,,21000.0,0.0,0.016224188790560472,,119.56827626941102,2656.630034314526,664157.5085786314,4.0,85.0,0.03,91.53999999999999,,,,,,
25.0,454298.23923965223,0.0,52437.0,826959.4254442044,0.0,409804.69695773,814476.6243156301,0.0,0.0,0.0,24016.06615391538,0.0,0.0,96064.26461566152,120080.33076957689,0.0,0.0,0.0,454298.23923965223,0.0,,21.37924723261506,,-6.0,34231.015068191395,-9131.658409949763,0.4055315626435455,0.3253448056696578,0.7518692432725295,,0.0,0.0,0.016224188790560472,,81.77822604552979,2271.491196198261,454298.23923965223,5.0,82.0,0.01,91.53999999999999,,,,,,
26.0,824876.4314098438,0.0,38667.0,1140558.053349784,0.0,578326.1395833917,1165948.8742840278,0.0,0.0,0.0,235463.54865306124,0.0,0.0,941854.194612245,1177317.743265306,156909.58,0.0,0.0,824876.4314098436,0.0,,23.53044499144793,,-5.7,31704.638983658137,-83536.62632199863,0.3531420528349874,0.32801837081182256,0.7467220516525185,,36000.0,0.0,0.011799410029498525,,148.486006418086,4124.382157049219,824876.4314098438,5.0,80.0,0.01,91.53999999999999,,,,,,
27.0,578911.9310091231,0.0,35396.0,949328.1968331547,0.0,454137.64100074477,924234.4134856819,0.0,0.0,0.0,0.0,0.0,0.0,0.0,0.0,0.0,0.0,0.0,578911.9310091231,0.0,,23.53044499144793,,-5.5,-86483.73035333272,25093.783347472898,0.5237979678375195,0.35880495167557924,0.7467220516525186,,7200.0,0.0,0.011799410029498525,,104.20414758164216,2894.5596550456157,578911.9310091231,5.0,81.0,0.0,91.53999999999999,,,,,,
28.0,233244.71072142338,0.0,34490.0,733692.5692798181,19595.575273532275,275807.9530942864,563937.6057672759,0.0,0.0,0.0,21709.59021592139,9797.787636766137,0.0,86838.36086368556,108547.95107960695,0.0,0.0,0.0,233244.71072142338,0.0,,22.01155241182373,,-5.4,99929.05614239139,150216.33231821345,0.38137067382387113,0.3424914844376214,0.7334477153693327,,88200.0,0.0,0.0,,42.02603197778607,1166.2235536071169,233244.71072142338,5.0,90.0,0.18,91.57,,,,,,
29.0,484227.840795303,0.0,38411.0,779763.5720806936,0.0,269479.42938636796,556135.8922310143,0.0,0.0,0.0,161680.60116797328,0.0,0.0,646722.4046718931,808403.0058398664,8751.93,0.0,0.0,484227.84079530294,0.0,,21.285764159904964,,-5.2,-12235.671036985175,86692.03019850317,0.4370938904278043,0.3317355888032358,0.7334477153693327,,0.0,0.0,0.0,,89.64510016643445,2421.139203976515,484227.840795303,5.0,105.0,5.13,92.05,,,,,,
30.0,320088.6511355899,0.0,52131.0,703536.66167603,0.0,267556.6469969367,554718.4659699412,0.0,0.0,0.0,14287.833999999999,0.0,0.0,57151.335999999996,71439.17,23279.17,0.0,0.0,320088.65113558987,0.0,,20.930984104352383,,-5.1,15487.27311702472,158772.7317060888,0.44378981248078714,0.30528473447150806,0.7334477153693327,,0.0,0.0,0.0,,64.37622951638984,1600.4432556779498,320088.6511355899,5.0,119.0,21.12,94.75999999999999,,,,,,
31.0,565963.9563468128,0.0,54227.0,669595.1470411624,480.4630651753914,432247.5159838563,900288.6501484995,0.0,0.0,0.0,75274.20040215363,240.2315325876957,0.0,301096.8016086145,376371.00201076816,187551.86,0.0,0.0,565963.9563468127,0.0,,20.719942193463325,,-5.0,-1385.420179068678,-114639.46066927494,0.4029261073429537,0.32626607530094176,0.7334477153693327,,0.0,0.0,0.0,,131.98279462007673,11885.243083283069,565963.9563468128,21.0,129.0,53.2,96.11,,,,,,
32.0,207806.25538134738,0.0,65818.0,165863.32676515795,906.882340326458,64182.17963048885,134902.90380388807,0.0,0.0,0.0,0.0,453.441170163229,0.0,0.0,0.0,0.0,0.0,0.0,207806.25538134735,0.0,,20.58803595825043,,-4.8,-76767.04447395181,30960.422961269905,0.5630995019954385,0.3326583669691076,0.7334477153693327,,0.0,0.0,0.01032448377581121,,52.84928686858426,8935.668981397937,207806.25538134738,43.0,169.0,74.32,91.72,,,,,,
33.0,357000.4656573031,0.0,91985.0,962317.4296343257,3487.830550192019,325386.3040505232,714941.3366815979,0.0,0.0,0.0,10051.623616457378,1743.9152750960095,0.0,40206.49446582951,50258.118082286885,20334.97,293.81152601583824,0.0,357000.4656573031,0.0,,20.502807421452257,,-3.8,71913.65281194811,258257.9022979164,0.49122639179612254,0.29495264854710923,0.7334477153693327,,0.0,0.0,0.03392330383480826,,90.79235842596532,14280.018626292123,357000.4656573031,40.0,168.0,74.32,91.74000000000001,,,,,,
34.0,602179.9090550625,0.0,106474.0,818082.412351797,211.48100671433778,309418.963539761,712305.416306412,0.0,0.0,0.0,161358.21045763316,105.74050335716889,0.0,645432.8418305326,806791.0522881658,84460.0,4939.076712440339,0.0,602179.9090550625,0.0,,21.156455727387282,,-2.7,-26856.912224833264,43325.40663351526,0.5436009198357239,0.2991379488681221,0.7334477153693327,,0.0,0.0,0.05752212389380531,,153.14639447088348,23485.016453147437,602179.9090550625,39.0,166.0,74.32,91.75,,,,,,
35.0,659453.9563235211,0.0,149396.0,747709.9758344915,7806.114066580512,201535.32131347695,483162.2464353992,0.0,0.0,0.0,230390.7448342873,3903.057033290256,0.0,921562.9793371492,1151953.7241714364,0.0,24062.603974953952,0.0,659453.9563235211,0.0,,20.575946570245634,,-1.7,28212.313323536273,57196.059048234136,0.48005885903347867,0.30170065645041444,0.8069387755102041,,0.0,-127109.53769262956,0.08997050147492625,,167.71233017219788,25059.250340293802,659453.9563235211,38.0,165.0,74.32,91.78,,,,,,
36.0,626388.0675999192,0.0,155092.0,1095950.3610486859,215250.45992440174,485906.92535612604,1197342.8989785737,0.0,0.0,0.0,0.0,107625.22996220086,0.0,0.0,0.0,0.0,33984.432958609716,0.0,626388.0675999194,0.0,,20.502807421452257,,-1.0,-16241.634864404405,-101392.53792988746,0.43385329252156685,0.3198001756337945,0.8069387755102041,,0.0,0.0,0.10176991150442477,,159.30301335201145,23802.746568796927,626388.0675999192,38.0,164.0,74.32,91.84,,,,,,
37.0,356694.7035610833,0.0,133187.0,602879.1092536992,7360.282805437386,297295.2023456486,741079.7463287758,0.0,0.0,0.0,15460.862000000001,3680.141402718694,0.0,61843.448000000004,77304.31,77304.31,9941.227623027782,0.0,356694.7035610833,0.0,,23.497192578547743,,-0.7,81090.60667934295,-76357.18907507643,0.3408931898864773,0.34591630150335273,0.7996243453133466,,90000.0,0.0,0.14454277286135692,,90.7145970096547,13554.398735321167,356694.7035610833,38.0,162.0,74.32,91.84,,,,,,
38.0,617440.147966105,0.0,105852.0,650714.1964072731,1217.1524131165013,251927.77916282526,613580.3110552919,0.0,0.0,0.0,201904.0959766313,608.5762065582506,0.0,807616.3839065252,1009520.4798831565,47083.2,9.963167547039804,0.0,617440.1479661049,0.0,,23.497192578547743,,-1.3,-54679.035254364935,-98438.26502698692,0.43022751059012604,0.37162002046065634,0.7996243453133466,,8550.0,0.0,0.19911504424778761,,152.49536774466864,23462.72562271199,617440.147966105,38.0,161.0,66.98,91.84,,,,,,
39.0,426499.5102130392,0.0,91064.0,627382.3459668093,0.0,283925.66727997904,675271.9605941274,0.0,0.0,0.0,29740.134057853385,0.0,0.0,118960.53623141354,148700.6702892669,0.0,0.0,0.0,426499.51021303906,0.0,,23.497192578547743,,-1.9,-19637.211324141485,-74655.73527938605,0.4628085166323443,0.3769282506141012,0.7942062488712299,,176550.0,0.0,0.24041297935103245,,108.45882544717587,15780.48187788245,426499.5102130392,37.0,164.0,74.3,91.84,,,,,,
40.0,541230.4674112222,0.0,89856.0,621218.5632157617,1515.8479253450298,275604.32336336235,650226.1287734734,0.0,0.0,0.0,227942.24263770095,757.9239626725149,0.0,911768.9705508038,1139711.2131885048,0.0,0.0,0.0,541230.467411222,0.0,,23.43829490622285,,-2.1,54878.25092689728,-234155.5839316425,0.3757030655016462,0.39343207005826464,0.7942062488712299,,24750.0,0.0,0.25073746312684364,,137.64573247202202,19484.296826804,541230.4674112222,36.0,164.0,74.32,91.84,,,,,,
41.0,860486.9065935303,0.0,116208.0,444263.73966812796,3121.1103295595813,162716.90630534652,380791.31448613707,0.0,0.0,0.0,183779.58893559,1560.5551647797906,0.0,735118.35574236,918897.94467795,0.0,0.0,0.0,860486.9065935304,0.0,,21.69995722844034,,-2.3,-33479.97681962629,-101929.20486004007,0.4385409533311579,0.4172804835722239,1.0,,19800.0,-360000.0,0.2345132743362832,,218.83903008486664,30117.041730773562,860486.9065935303,35.0,164.0,74.32,91.85,,,,,,
42.0,755402.5116652637,0.0,156438.0,875883.9546845168,92296.5727474742,399519.6556360936,927341.3829291628,0.0,0.0,0.0,104972.84347084383,46148.28637373709,0.0,419891.3738833753,524864.217354219,66075.19,0.0,0.0,755402.5116652636,0.0,,21.174554556925756,,-2.5,-90695.0,-81179.3011684051,0.5307199836734535,0.43256410122077715,0.9679429293841431,,164700.0,0.0,0.1799410029498525,,192.11396676670986,25683.685396618963,755402.5116652637,34.0,165.0,74.32,91.77000000000001,,,,,,
43.0,440698.0219815094,0.0,164162.0,589643.696241008,2483.976887030207,334487.64668356493,770015.3852712143,0.0,0.0,0.0,7219.034,1241.9884435151034,0.0,28876.136,36095.17,36095.17,0.0,0.0,440698.0219815093,0.0,,20.960405853682726,,-2.7,67374.14881196269,-151495.55303020633,0.367728089864804,0.44723929142573937,0.9506953223767384,,74100.0,0.0,0.11799410029498525,,112.07391397011766,15424.430769352828,440698.0219815094,35.0,166.0,74.31,91.75999999999999,,,,,,
44.0,551376.3018025853,0.0,166276.0,249476.30040136192,1122.8302485575969,155771.35805044897,355627.1938325,0.0,0.0,0.0,98346.22015234554,561.4151242787984,0.0,393384.8806093822,491731.1007617276,0.0,0.0,0.0,551376.3018025851,0.0,,23.497192578547743,,-2.9,-128225.84209077779,-194662.4915682489,0.6025944781580663,0.4711101178917921,0.9485280837998916,,31500.0,0.0,0.1135693215339233,,128.9448619395526,12681.65494145946,551376.3018025853,23.0,125.0,53.86,95.97999999999999,,,,,,
45.0,634174.1683141501,0.0,158556.0,1141236.124291529,183314.51858469445,425676.6406346051,963706.7923565499,0.0,0.0,0.0,0.0,91657.25929234724,0.0,0.0,0.0,0.0,0.0,0.0,634174.1683141501,0.0,,21.7936642964537,,-3.1,-46770.65683797712,177529.33193497855,0.6104495446966497,0.43669701166495944,0.9384143037746072,,117150.0,0.0,0.045722713864306784,,128.895899709851,3170.87084157075,634174.1683141501,5.0,94.0,23.25,95.03,,,,,,
46.0,514187.37666243914,0.0,111584.0,807305.7017531468,55936.73567884945,301475.3366102247,676774.2561931399,0.0,0.0,0.0,78203.09832984602,27968.367839424725,0.0,312812.3933193841,391015.4916492301,0.0,0.0,0.0,514187.37666243914,0.0,,21.29944102373686,,-3.3,-20354.00483905666,60148.65706314597,0.6241615816327954,0.42198175874735305,0.9384143037746072,,43500.0,0.0,0.045722713864306784,,104.47773306404102,2056.7495066497568,514187.37666243914,4.0,99.0,23.19,94.97999999999999,,,,,,
47.0,441008.18774699885,0.0,77971.0,764142.6270083634,34664.346722853166,239648.54069653674,535696.2236143949,0.0,0.0,0.0,194808.68673567075,17332.173361426583,0.0,779234.746942683,974043.4336783537,17220.08,0.0,0.0,441008.18774699885,0.0,,22.033344902726768,,-3.4,73625.08062394356,69994.26373186504,0.5061019995633544,0.39899861574597867,0.9384143037746072,,13500.0,0.0,0.045722713864306784,,84.57214016424197,2205.040938734994,441008.18774699885,5.0,95.0,11.77,93.72,,,,,,
48.0,509476.92109610536,0.0,59497.0,794057.0152764936,943.35376004504,321852.1102116286,682629.4587746359,0.0,0.0,0.0,161731.7818687261,471.67688002252,0.0,646927.1274749044,808658.9093436304,0.0,0.0,0.0,509476.9210961054,0.0,,23.497192578547743,,-4.6,36151.35558972982,-34131.04717999567,0.48450891825653464,0.380357494646926,0.9384143037746072,,73500.0,0.0,0.045722713864306784,,96.64777193193117,2547.3846054805267,509476.92109610536,5.0,92.0,9.7,93.50999999999999,,,,,,
49.0,366885.6839470293,0.0,59857.0,752492.6090559593,1098.564624770949,184482.15925849468,370171.14496057184,0.0,0.0,0.0,118487.71052479325,549.2823123854745,0.0,473950.842099173,592438.5526239662,0.0,0.0,0.0,366885.68394702935,0.0,,21.755298793546594,,-5.8,-2224.3857440063457,275682.5246230736,0.4823055970193219,0.3653754797523218,0.9251399674914214,,93000.0,0.0,0.0,,66.05042968098368,1834.4284197351465,366885.6839470293,5.0,93.0,0.03,92.62,,,,,,
50.0,374206.0314910522,0.0,44749.0,621549.1895968361,751.8706318879288,361800.1263766443,684577.2200218198,0.0,0.0,0.0,3160.0466456069535,375.9353159439644,0.0,12640.186582427814,15800.233228034767,0.0,0.0,0.0,374206.0314910522,0.0,,21.260426788619718,,-7.0,37374.17168865432,-65872.07240603017,0.46044412388933764,0.38659863715975334,0.9251399674914214,,0.0,0.0,0.0,,67.36082772870431,1871.030157455261,374206.0314910522,5.0,93.0,0.01,92.62,,,,,,
51.0,391907.5320341359,0.0,34388.0,723353.4609447626,0.0,312844.0887368967,574050.8120969564,0.0,0.0,0.0,47868.78567732812,0.0,0.0,191475.14270931247,239343.92838664056,0.0,0.0,0.0,391907.53203413583,0.0,,20.977715260960526,,-7.6,5152.880040259527,106220.7417382109,0.4496813530477342,0.3787503890052429,0.9251399674914214,,0.0,0.0,0.0,,70.5472748414648,1959.5376601706794,391907.5320341359,5.0,95.0,0.01,92.62,,,,,,
52.0,431125.7833510137,0.0,35471.0,658124.5117260858,0.0,356517.34259413794,630397.1827808667,0.0,0.0,0.0,35035.3887713984,0.0,0.0,140141.5550855936,175176.943856992,24354.83,0.0,0.0,431125.7833510137,0.0,,23.497192578547743,,-8.3,-1946.4230687222625,20063.212450960687,0.453055147052715,0.38273890291557916,0.9251399674914214,,0.0,0.0,0.0,,77.60695226101598,2155.6289167550685,431125.7833510137,5.0,100.0,0.01,92.64,,,,,,
53.0,399750.52824541036,0.0,39869.0,684531.9166572622,0.0,373313.7397117578,638743.2370765011,0.0,0.0,0.0,0.0,0.0,0.0,0.0,0.0,0.0,0.0,0.0,399750.5282454104,0.0,,21.645435885977378,,-8.9,15430.964107574495,45788.679580761054,0.40623171614110704,0.37304199694223755,0.9251399674914214,,0.0,0.0,0.0,,71.95909258945632,1599.0021129816414,399750.52824541036,4.0,110.0,0.01,92.86,,,,,,
54.0,516775.6046612339,0.0,46611.0,723331.6117531549,45080.29499426819,369557.47192714206,614700.7044371918,0.0,0.0,0.0,0.0,22540.147497134094,0.0,0.0,0.0,0.0,0.0,0.0,516775.60466123384,0.0,,21.08582931202267,,-9.4,20149.91656289231,108630.90731596237,0.4147450133138548,0.3592253439637498,0.9934642789062912,,0.0,-118173.17127367793,0.0,,93.0247765950687,2067.1024186449354,516775.6046612339,4.0,120.0,0.01,92.92,,,,,,
55.0,447525.52754657343,0.0,55714.0,728601.9956636104,251.3552368969759,397462.50322495506,642170.6730273867,0.0,0.0,0.0,69348.35355834059,125.67761844848795,0.0,277393.41423336236,346741.76779170294,106500.85,0.0,0.0,447525.5275465734,0.0,,23.497192578547743,,-9.9,77236.95687445506,128388.63743371752,0.3174376410672114,0.33475118119069536,0.9934642789062912,,0.0,0.0,0.0,,80.55907021365869,1790.1021101862937,447525.52754657343,4.0,127.0,0.01,92.92,,,,,,
56.0,512264.7827882209,0.0,69299.0,290337.96887391224,1172.659517816059,304106.89681525185,497136.5383077375,0.0,0.0,0.0,37500.78241752896,586.3297589080295,0.0,150003.12967011583,187503.91208764474,27318.12,0.0,0.0,512264.7827882209,0.0,,21.657266000312614,,-9.7,-98796.7796414991,-213777.51600960124,0.34625505671723866,0.3567452170191559,0.9934642789062912,,0.0,0.0,0.0,,92.27937797147011,2049.0591311528838,512264.7827882209,4.0,126.0,0.14,92.92,,,,,,
57.0,278211.6672497127,0.0,76362.0,550718.6785262089,729.7470377651819,313700.7259028955,584594.5076330957,0.0,0.0,0.0,14392.756645899524,364.87351888259093,0.0,57571.0265835981,71963.78322949763,0.0,134134.13055538983,0.0,278211.66724971274,0.0,,21.0887022865474,,-7.3,4000.617792650375,-46829.31008819649,0.36321764848013033,0.36582367157516904,0.9934642789062912,,0.0,-10499.87471270929,0.0,,50.11704973836324,834.6350017491379,278211.6672497127,3.0,126.0,0.14,92.92,,,,,,
58.0,168771.41813898378,0.0,114096.0,462582.1618752016,5361.5994902825,158373.68442504772,326842.3511738834,0.0,0.0,0.0,123784.02151215458,2680.79974514125,0.0,495136.0860486183,618920.1075607729,0.0,301358.1891124045,0.0,168771.41813898378,0.0,,22.9112977134526,,-5.2,-27778.38789863843,24334.191340379235,0.4221397947251189,0.37281802256056357,0.9934642789062912,,0.0,-45253.65632485262,0.028023598820058997,,30.38391840756125,506.31425441695126,168771.41813898378,3.0,128.0,0.03,92.91,,,,,,
59.0,560587.8675760829,0.0,155896.0,720996.5874510464,16001.161105884572,431343.93384382996,964200.8074303974,0.0,0.0,0.0,290464.84042685287,8000.580552942285,0.0,1161859.3617074115,1452324.2021342642,239569.1,433629.07983900723,0.0,560587.8675760829,0.0,,22.9112977134526,,-3.4,-80461.87205773503,-269844.858363518,0.49968033210702906,0.41502644285350787,0.9934642789062912,,0.0,-33247.36174879277,0.08407079646017698,,100.91702792104645,1681.7636027282488,560587.8675760829,3.0,129.0,0.02,92.91,,,,,,
60.0,95782.79988043221,0.0,148380.0,527621.4296923765,30028.175140848805,220248.83269483614,513328.2568534214,0.0,0.0,0.0,59850.41976340567,15014.087570424403,0.0,239401.67905362268,299252.09881702834,11802.45,474310.68080396485,0.0,95782.79988043221,0.0,,21.756491427167603,,-2.4,-78771.228752276,-28005.80394810975,0.5849100950263014,0.4168263559099182,0.9934642789062912,,0.0,-62364.08547447704,0.13716814159292035,,17.241861806476603,287.3483996412966,95782.79988043221,3.0,129.0,0.01,92.91,,,,,,
61.0,353452.4269396724,0.0,136052.0,615530.6477033781,25793.016242432343,303800.65525160864,716749.0029634201,0.0,0.0,0.0,187662.11492693113,12896.508121216171,0.0,750648.4597077245,938310.5746346555,0.0,394716.8510462536,0.0,353452.4269396723,0.0,,21.372319270894323,,-2.1,-85345.89673822472,-270114.25869427965,0.6867043495302314,0.44535259485348827,1.0,,34650.0,-33541.348934463,0.13274336283185842,,63.624971373410425,1060.357280819017,353452.4269396724,3.0,132.0,0.01,92.92,,,,,,
62.0,301230.6871707135,0.0,106914.0,526045.7831499402,8123.904549331363,284941.8304094383,653240.8014575507,0.0,0.0,0.0,59796.95150090505,4061.952274665681,0.0,239187.8060036202,298984.75750452525,34678.2,211984.8747040524,0.0,301230.6871707135,0.0,,22.9112977134526,,-2.8,-48226.52887580407,-147027.63865842525,0.748668590384392,0.4587429612118832,0.9976521582084161,,26400.0,-11830.097652764962,0.15634218289085547,,54.224535997600135,1204.922748682854,301230.6871707135,4.0,133.0,0.01,92.92,,,,,,
63.0,557353.1812297283,0.0,89363.0,642963.9049084915,729.0768314974939,272054.54702616774,582198.905367651,0.0,0.0,0.0,226811.03293550268,364.53841574874696,0.0,907244.1317420107,1134055.1646775133,0.0,0.0,0.0,557353.1812297283,0.0,,21.70070131096609,,-4.4,33662.1646380907,-143364.9301011121,0.7059593968646983,0.4720957137872129,0.9950334115947264,,6150.0,0.0,0.17699115044247787,,100.40160206672326,1672.059543689185,557353.1812297283,3.0,130.0,0.14,92.92,,,,,,
64.0,435983.47549953253,0.0,87401.0,613298.5287315579,60167.96338928188,258346.09461925187,535622.4594119595,0.0,0.0,0.0,105649.56058224404,30083.98169464094,0.0,422598.24232897616,528247.8029112202,80096.1,0.0,0.0,435983.4754995326,0.0,,22.209105954854156,,-5.1,17593.09707946102,61085.642795578766,0.7226726249665658,0.4742594231375212,0.99349828426946,,16950.0,0.0,0.17551622418879056,,78.5424231112408,1307.9504264985976,435983.47549953253,3.0,130.0,0.15,92.92,,,,,,
65.0,348384.10240858234,0.0,106872.0,463504.69316813274,2076.6828175958553,249433.36806924248,498120.52888363064,0.0,0.0,0.0,18493.870211303834,1038.3414087979277,0.0,73975.48084521534,92469.35105651917,34277.95,0.0,0.0,348384.10240858234,0.0,,21.412852507524256,,-5.9,28157.05638400682,-17667.92790567149,0.7178747769903856,0.4812876751316989,0.99349828426946,,7650.0,0.0,0.2669616519174042,,62.775331413002455,1045.152307225747,348384.10240858234,3.0,129.0,0.19,92.92,,,,,,
66.0,776886.9696997916,0.0,152936.0,818170.989551754,102968.44936085271,590882.4931710566,1134932.7834746714,0.0,0.0,0.0,34114.054,51484.224680426356,0.0,136456.216,170570.27,170570.27,0.0,0.0,776886.9696997916,0.0,,21.137964051728222,,-6.7,4930.012319764005,-180305.57792291648,0.6639137299498385,0.5197374413242132,0.9882607910420805,,47250.0,0.0,0.2271386430678466,,139.98726307020544,2330.6609090993747,776886.9696997916,3.0,128.0,0.19,92.91,,,,,,
67.0,591259.2076619011,0.0,165993.0,704325.2578700848,84814.53940045096,396372.3414069266,734877.8039298998,0.0,0.0,0.0,20470.634394364613,42407.26970022548,0.0,81882.53757745845,102353.17197182306,0.0,0.0,0.0,591259.2076619013,0.0,,22.9112977134526,,-7.4,-5466.935822300593,-48976.117014742835,0.6218990186699105,0.5293404422382453,0.9765215820841611,,104250.0,0.0,0.1873156342182891,,106.53308403652134,1773.7776229857031,591259.2076619011,3.0,126.0,0.18,92.91,,,,,,
68.0,655335.7956260258,0.0,173720.0,472628.99673695955,34751.42697039581,418721.1857994115,744378.3772972581,0.0,0.0,0.0,26353.757442254227,17375.713485197903,0.0,105415.02976901691,131768.78721127115,71624.38,0.0,0.0,655335.7956260256,0.0,,21.676672336507483,,-8.2,-33264.17340623064,-225275.86985832723,0.5368574479872824,0.5436895078541002,0.9734513274336283,,27300.0,0.0,0.17699115044247787,,118.05219022407226,1966.0073868780773,655335.7956260258,3.0,121.0,0.14,92.9,,,,,,
69.0,731081.8013758871,0.0,146762.0,871612.2531693649,106.1862058906581,472472.27481776127,808404.4012926267,0.0,0.0,0.0,59328.635713821466,53.09310294532905,0.0,237314.54285528586,296643.1785691073,0.0,0.0,0.0,731081.8013758871,0.0,,21.272903598985828,,-8.9,-38846.22679029079,9812.079734299383,0.5819029531673385,0.5284566307488532,0.966046595629402,,117600.0,-10017.255047135104,0.17256637168141592,,131.59472424765968,2924.3272055035486,731081.8013758871,4.0,115.0,0.0,92.86,,,,,,
70.0,851547.0194630324,0.0,118656.0,1055835.6488761008,109613.28614190963,711811.8722265651,1163629.2823047766,0.0,0.0,0.0,31222.13684548287,54806.643070954815,0.0,124888.54738193148,156110.6842274143,0.0,0.0,0.0,851547.0194630323,0.0,,22.727096401014172,,-9.7,14400.72470633054,-135893.5565896096,0.4972670642966834,0.5233473444742786,0.9621636265125517,,41400.0,0.0,0.140117994100295,,153.27846350334582,3406.1880778521295,851547.0194630324,4.0,112.0,0.0,92.46000000000001,,,,,,
71.0,352940.30506174744,0.0,78694.0,778775.468102856,57251.37702371447,260274.6422995383,408113.1326755139,0.0,0.0,0.0,78798.04011557838,28625.688511857235,0.0,315192.1604623135,393990.20057789184,0.0,0.0,0.0,352940.3050617475,0.0,,22.422136241481244,,-10.4,66591.07887867794,299744.0993233218,0.42704191539022024,0.4985326323526994,0.9448257178977784,,119550.0,0.0,0.016224188790560472,,63.52925491111454,1411.7612202469898,352940.30506174744,4.0,104.0,0.0,92.21000000000001,,,,,,
72.0,406823.5306974259,0.0,56776.0,819831.8619933147,2748.255071829202,288274.5657278506,438276.23134779057,0.0,0.0,0.0,73625.19004068863,1374.127535914601,0.0,294500.7601627545,368125.9502034431,0.0,0.0,0.0,406823.53069742594,0.0,,22.727096401014172,,-10.9,13886.342724600501,315292.95960890397,0.43969702085598367,0.47311632286616845,0.9448257178977779,,0.0,0.0,0.016224188790560472,,73.22823552553666,1627.2941227897036,406823.5306974259,4.0,95.0,0.0,92.18,,,,,,
73.0,710324.205050574,0.0,46701.0,765054.3965506839,216.59384959552884,251849.39994125217,368491.7381289891,0.0,0.0,0.0,370387.3849906389,108.29692479776442,0.0,1481549.5399625555,1851936.924953194,0.0,0.0,0.0,710324.205050574,0.0,,22.727096401014172,,-11.5,-37834.79909343011,63214.011930120214,0.5317056229911211,0.4713386596510036,0.9448257178977779,,24750.0,0.0,0.016224188790560472,,127.85835690910332,2841.296820202296,710324.205050574,4.0,90.0,0.0,92.17,,,,,,
74.0,548415.8114343017,0.0,40106.0,744172.9220857673,0.0,340169.79535124224,475016.5231368279,0.0,0.0,0.0,168182.08420630117,0.0,0.0,672728.3368252047,840910.4210315058,0.0,0.0,0.0,548415.8114343018,0.0,,21.58400144865683,,-12.2,2784.147180413247,117792.52316326817,0.5437755240729186,0.44848656779338986,0.9448257178977779,,0.0,0.0,0.016224188790560472,,98.71484605817429,2742.0790571715083,548415.8114343017,5.0,90.0,0.0,92.17,,,,,,
75.0,538822.4695814288,0.0,39167.0,878779.8007788364,4072.760759766304,453482.83943809685,615955.2331221818,0.0,0.0,0.0,50283.06239231166,2036.380379883152,0.0,201132.24956924663,251415.31196155827,0.0,0.0,0.0,538822.4695814289,0.0,,22.727096401014172,,-12.6,6804.544596886768,217569.81150357338,0.5706739785045001,0.42892973587397104,0.9448257178977779,,31200.0,0.0,0.016224188790560472,,96.98804452465718,2694.112347907144,538822.4695814288,5.0,90.0,0.0,92.17,,,,,,
76.0,506656.9360806622,0.0,36601.0,791860.9291878558,11389.59383998731,490267.76666605193,647223.8551218587,0.0,0.0,0.0,17679.784960206638,5694.796919993655,0.0,70719.13984082655,88398.92480103318,0.0,0.0,0.0,506656.936080662,0.0,,21.549061348426093,,-13.0,40424.90022599972,128725.2676018109,0.49921730411932247,0.42118865895758606,0.9347119378724935,,134400.0,0.0,0.0,,91.19824849451919,2026.6277443226488,506656.9360806622,4.0,94.0,0.0,92.17,,,,,,
77.0,617794.5562922867,0.0,43581.0,857463.1735100367,0.0,623157.2566650019,798894.0675642305,0.0,0.0,0.0,9156.104,0.0,0.0,36624.416,45780.52,45780.52,0.0,0.0,617794.5562922867,0.0,,21.272903598985828,,-13.4,61188.77715417657,95193.5219458062,0.4326831141441521,0.38879700558368085,0.9347119378724935,,0.0,0.0,0.0,,111.20302013261161,2471.178225169147,617794.5562922867,4.0,98.0,0.0,92.18,,,,,,
78.0,563263.7369989803,0.0,48451.0,763974.4798990503,0.0,505923.83092860214,629307.0910432385,0.0,0.0,0.0,52458.56596277229,0.0,0.0,209834.26385108917,262292.8298138614,38019.6,0.0,0.0,563263.7369989804,0.0,,21.272903598985828,,-13.8,46385.978577388974,124713.88748931624,0.3784045896869644,0.3607731637477798,0.9347119378724935,,0.0,0.0,0.0,,101.38747265981644,2253.0549479959213,563263.7369989803,4.0,102.0,0.0,92.18,,,,,,
79.0,590825.3801195689,0.0,58440.0,696009.1651520509,2947.4098542593183,531500.923643588,645920.9678904169,0.0,0.0,0.0,48343.262,1473.7049271296592,0.0,193373.048,241716.31,241716.31,0.0,0.0,590825.3801195688,0.0,,21.272903598985828,,-14.1,50412.93242461571,243461.24526163406,0.305814305525813,0.32315794281158416,0.9347119378724927,,0.0,0.0,0.07817109144542772,,106.3485684215224,2363.3015204782755,590825.3801195689,4.0,97.0,0.0,92.15,,,,,,
80.0,685643.9263671205,0.0,68235.0,588443.6545201299,1559.4598894776925,477925.709678237,576256.0180415012,0.0,0.0,0.0,35259.68298996873,779.7299447388463,0.0,141038.73195987492,176298.41494984366,0.0,0.0,0.0,685643.9263671205,0.0,,22.444800961435828,,-14.2,-60881.00096488395,-19546.078212342843,0.3739257676536793,0.35202062719740285,0.9347119378724927,,0.0,-39914.31310219529,0.1710914454277286,,123.53932265282776,2742.575705468482,685643.9263671205,4.0,87.0,0.18,92.13,,,,,,
81.0,493646.3746121907,0.0,74796.0,777575.3648680246,1556.34689238007,441830.3545039611,629612.6633700945,0.0,0.0,0.0,105899.6969047281,778.1734461900351,0.0,423598.7876189124,529498.4845236405,0.0,130649.16244251488,0.0,493646.37461219076,0.0,,21.272903598985828,,-11.9,2908.1809179057054,52652.974283674994,0.3945070021095245,0.3542813849343902,0.9347119378724927,,0.0,-2209.4346908612283,0.2079646017699115,,88.94520377762453,1480.939123836572,493646.3746121907,3.0,83.0,0.18,92.11,,,,,,
82.0,195023.29858035778,0.0,101789.0,604287.585579848,3926.255216222638,110233.42430440661,177050.6216486454,0.0,0.0,0.0,193719.14981700171,1963.127608111319,0.0,774876.5992680069,968595.7490850085,0.0,304446.39366620925,0.0,195023.2985803578,0.0,,22.727096401014172,,-10.0,-60697.651060296834,252889.72909590125,0.41099640065189597,0.3367493293152447,0.9347119378724927,,0.0,-32055.35057196007,0.32005899705014756,,35.13929793820886,585.0698957410734,195023.29858035778,3.0,81.0,0.18,92.1,,,,,,
83.0,248075.67675251226,0.0,152565.0,749731.7340318585,119016.00971426154,349678.7870181527,611637.996715011,0.0,0.0,0.0,42103.87086296719,59508.00485713077,0.0,168415.48345186876,210519.35431483595,0.0,418558.26530197123,0.0,248075.67675251223,0.0,,22.727096401014172,,-8.5,-58180.99850565195,100200.25354017704,0.46919930286937983,0.3464452848059199,0.9347119378724926,,0.0,-62864.90728394912,0.3554572271386431,,44.69827543726766,744.2270302575369,248075.67675251226,3.0,83.0,0.18,92.1,,,,,,
84.0,165106.86230672244,0.0,155654.0,632655.7956088375,48557.54615058215,275412.92833068315,507992.3932379986,0.0,0.0,0.0,72259.87890280178,24278.77307529108,0.0,289039.5156112071,361299.39451400883,0.0,503248.532879148,0.0,165106.86230672244,0.0,,21.566837133934904,,-7.5,-122798.96773188154,59629.51135831738,0.6450823504193957,0.3436295510161046,0.9332671121545949,,19800.0,-41404.085908970344,0.3820058997050148,,29.72749055832538,495.32058692016733,165106.86230672244,3.0,84.0,0.05,92.09,,,,,,
85.0,148656.77551330318,0.0,130732.0,622136.3331862035,92616.27808057862,247669.70346516743,463904.0291016244,0.0,0.0,0.0,44901.7481007552,46308.139040289316,0.0,179606.9924030208,224508.74050377595,0.0,415184.38407903607,0.0,148656.77551330318,0.0,,22.727096401014172,,-7.2,-95632.0602280304,117820.73079389967,0.7591393348508981,0.33822165025496026,0.9268556980314235,,76050.0,-44162.36392081966,0.37315634218289084,,26.76565243117024,594.6271020532128,148656.77551330318,4.0,87.0,0.05,92.1,,,,,,
86.0,441861.04426685604,0.0,104264.0,659756.3891879893,8540.131995752337,406900.7460955305,742760.2296802473,0.0,0.0,0.0,164523.13401063363,4270.065997876169,0.0,658092.5360425345,822615.6700531681,17200.35,321613.6305171841,0.0,441861.04426685604,0.0,,21.67223820829747,,-7.7,-61967.06421030452,-214218.3181018287,0.8475222159554157,0.3543692114289779,0.9268556980314233,,36000.0,-23610.42524623727,0.40117994100294985,,79.5614996306901,1767.444177067424,441861.04426685604,4.0,97.0,0.06,92.14,,,,,,
87.0,429421.6121586406,0.0,100857.0,709340.5913157094,29596.633976736284,425195.39865918277,707245.6408912244,0.0,0.0,0.0,12088.379675866185,14798.316988368142,0.0,48353.51870346474,60441.89837933092,31675.1,33.78415046536309,0.0,429421.61215864064,0.0,,22.727096401014172,,-9.4,110832.49008673619,22257.00671620565,0.6284387916425673,0.34695655328855207,0.9251399674914197,,26700.0,0.0,0.3790560471976401,,77.37318607874386,1717.6864486345623,429421.6121586406,4.0,105.0,0.18,92.27000000000001,,,,,,
88.0,459847.20805387374,0.0,97938.0,700889.4705700348,38183.80724463027,381871.2863485967,642463.7894693059,0.0,0.0,0.0,0.0,19091.903622315134,0.0,0.0,0.0,0.0,0.0,0.0,459847.2080538736,0.0,,21.514948162671786,,-9.2,22261.314334992294,58425.68110072892,0.599182624820571,0.34663047156805243,0.913942568177711,,100950.0,0.0,0.29646017699115046,,82.85986841922751,1379.5416241616213,459847.20805387374,3.0,110.0,0.19,92.39,,,,,,
89.0,525405.0832361529,0.0,124198.0,643500.1854837426,2797.163828317637,365874.1497348069,622526.0397506081,0.0,0.0,0.0,101193.99557193619,1398.5819141588186,0.0,404775.98228774476,505969.9778596809,0.0,0.0,0.0,525405.0832361528,0.0,,21.87624192384955,,-9.0,68488.08748677095,-70100.45028160774,0.5156585815405423,0.360181745110652,0.9104208054903352,,72300.0,0.0,0.2920353982300885,,99.89526847568975,1576.2152497084587,525405.0832361529,3.0,113.0,10.13,92.99000000000001,,,,,,
90.0,541998.5612701878,0.0,149732.0,626822.796911801,33199.572367585664,289142.33172997605,497481.6675909915,0.0,0.0,0.0,5307.198,16599.786183792836,0.0,21228.792,26535.99,26535.99,0.0,0.0,541998.561270188,0.0,,21.272903598985828,,-8.8,-95107.03873386083,150569.9213208089,0.6665947655379507,0.3337024407328913,0.8949792306303022,,150300.0,0.0,0.16666666666666666,,97.70608064017676,1625.9956838105634,541998.5612701878,3.0,111.0,0.27,92.39,,,,,,
91.0,899425.3830807022,0.0,166666.0,733701.98203023,35984.88010570766,696800.9756973992,1205518.5037644454,0.0,0.0,0.0,71758.58699030144,17992.44005285383,0.0,287034.34796120576,358792.9349515072,326830.81,0.0,0.0,899425.3830807024,0.0,,21.272903598985828,,-8.7,40297.30652240173,-216105.05622548633,0.593762790211777,0.34948863599579677,0.8866714827523899,,100350.0,0.0,0.1209439528023599,,162.0674597773117,2698.276149242107,899425.3830807022,3.0,109.0,0.19,92.38,,,,,,
92.0,543384.0309720926,0.0,169348.0,414719.4608646483,49747.41873760061,304817.3860084496,533169.0175773683,0.0,0.0,0.0,0.0,24873.709368800304,0.0,0.0,0.0,0.0,0.0,0.0,543384.0309720926,0.0,,22.642638170232143,,-8.5,-59317.21835312285,-118449.55671272005,0.6865025778605416,0.37002851849456875,0.8704171934260388,,145350.0,-7184.506455661256,0.08849557522123894,,97.90693470055166,1630.152092916278,543384.0309720926,3.0,105.0,0.18,92.27000000000001,,,,,,
93.0,951537.8715288208,0.0,148804.0,926208.5884073353,16909.085758467278,479077.74743292015,847109.5967371387,0.0,0.0,0.0,209507.41149402794,8454.542879233639,0.0,838029.6459761118,1047537.0574701396,0.0,0.0,0.0,951537.8715288208,0.0,,21.54656220348199,,-8.3,-30309.390591168703,-109457.67867442801,0.6893709045622385,0.3746179907523547,0.8668051291312944,,81300.0,-79081.63265306118,0.08407079646017698,,171.27681687518776,3806.151486115283,951537.8715288208,4.0,105.0,0.0,92.2,,,,,,
94.0,331147.6341649077,0.0,112642.0,638363.3747399142,246.52029294830618,129962.31809436926,232278.4851023626,0.0,0.0,0.0,151274.01291662513,123.26014647415309,0.0,605096.0516665005,756370.0645831255,0.0,0.0,0.0,331147.6341649077,0.0,,21.357361829767857,,-8.1,64386.435016911215,269938.27801258874,0.5668763305117197,0.3450581478139936,0.853891999277583,,194700.0,0.0,0.045722713864306784,,59.60657414968338,1324.5905366596307,331147.6341649077,4.0,105.0,0.0,92.22,,,,,,
95.0,293953.3427815727,0.0,75289.0,734667.007717183,36152.35310825429,240018.80199814157,433556.1034809422,0.0,0.0,0.0,14312.261765608077,18076.176554127145,0.0,57249.047062432306,71561.30882804038,0.0,0.0,0.0,293953.3427815727,0.0,,22.642638170232143,,-7.9,37136.4876960848,288229.8686471938,0.5556419734740147,0.3146585626580183,0.8538919992775814,,77550.0,0.0,0.045722713864306784,,52.911601700683086,1175.8133711262908,293953.3427815727,4.0,100.0,0.0,92.18,,,,,,
96.0,359715.66221092385,0.0,58923.0,627463.5180196904,0.0,294549.25483780727,548904.9351416049,0.0,0.0,0.0,29681.231029373914,0.0,0.0,118724.92411749566,148406.15514686957,0.0,0.0,0.0,359715.6622109239,0.0,,22.642638170232143,,-7.3,25236.401967311966,51845.47495164901,0.5570943802936288,0.3329525455344863,0.8488351092649392,,78600.0,0.0,0.004424778761061947,,64.74881919796628,1438.8626488436953,359715.66221092385,4.0,97.0,0.0,92.18,,,,,,
97.0,592320.8698591806,0.0,49623.0,775672.502411542,0.0,344531.80767402827,665041.2185031666,0.0,0.0,0.0,225180.21515428176,0.0,0.0,900720.860617127,1125901.0757714089,0.0,0.0,0.0,592320.8698591806,0.0,,22.078673683467006,,-6.6,29975.75731842532,-92030.9097304788,0.5262327686466354,0.34932503124715214,0.8488351092649392,,0.0,0.0,0.004424778761061947,,106.61775657465252,2369.2834794367227,592320.8698591806,4.0,95.0,0.0,92.17,,,,,,
98.0,516361.1851013439,0.0,42000.0,937724.1881178257,189704.60215282068,462955.2621806601,924525.5429613327,0.0,0.0,0.0,43753.73010800975,94852.30107641034,0.0,175014.920432039,218768.65054004875,0.0,0.0,0.0,516361.18510134396,0.0,,21.528786976578377,,-5.9,48309.45484544415,-26179.711940714915,0.4831690981734306,0.3409071246986941,0.8488351092649392,,0.0,-13379.841732611427,0.004424778761061947,,92.9450133182419,2065.444740405376,516361.1851013439,4.0,95.0,0.0,92.17,,,,,,
99.0,509609.9389282332,0.0,39737.0,750431.4783598883,0.0,344535.8085790922,701179.162919002,0.0,0.0,0.0,163341.31553005715,0.0,0.0,653365.2621202286,816706.5776502858,0.0,0.0,0.0,509609.93892823317,0.0,,21.357361829767857,,-5.5,40552.23487555733,-97754.86853616459,0.4514204767024053,0.3468013442789356,0.8488351092649392,,0.0,0.0,0.004424778761061947,,91.72978900708199,2038.439755712933,509609.9389282332,4.0,96.0,0.0,92.18,,,,,,
100.0,532079.7069586957,0.0,38490.0,794001.7159477342,16872.25050033588,480267.10699814843,1000304.2457882782,0.0,0.0,0.0,31489.534000000003,8436.12525016794,0.0,125958.13600000001,157447.67,157447.67,0.0,0.0,532079.7069586958,0.0,,21.357361829767857,,-5.0,26720.71033351399,-80344.39384054387,0.41255836372909827,0.3503777113124483,0.8432364096080854,,37200.0,-5893.377759267871,0.0,,95.77434725256522,2128.3188278347825,532079.7069586957,4.0,99.0,0.0,92.19,,,,,,
101.0,569923.9438897872,0.0,44220.0,854516.3450285344,1273.6714078039533,469599.4214247334,995992.8449040384,0.0,0.0,0.0,13878.878,636.8357039019767,0.0,55515.512,69394.39,31574.39,0.0,0.0,569923.943889787,0.0,,22.642638170232143,,-4.6,-39376.02474560458,-123024.58787550335,0.48978754464663055,0.36371648009863167,0.8432364096080854,,0.0,0.0,0.0,,102.5863099001617,2279.695775559149,569923.9438897872,4.0,101.0,0.0,92.19,,,,,,
102.0,453412.44993582927,0.0,54562.0,543608.867407896,6227.9703861709995,243891.0417896137,524253.86717847775,0.0,0.0,0.0,102452.2459774022,3113.9851930854998,0.0,409808.9839096088,512261.22988701094,72848.51000000001,0.0,0.0,453412.44993582927,0.0,,22.642638170232143,,-4.3,-19263.42353429454,-1460.4813502436482,0.572475140262736,0.36720485119215746,0.8432364096080854,,0.0,-30976.676384839655,0.0,,81.61424098844927,1813.649799743317,453412.44993582927,4.0,106.0,0.0,92.33,,,,,,
103.0,384125.87728865905,0.0,52001.0,702071.3450966289,21737.00537640811,324861.5918312717,707594.4243802192,0.0,0.0,0.0,13928.730000000001,10868.502688204055,0.0,55714.920000000006,69643.65,69643.65,0.0,0.0,384125.8772886591,0.0,,21.560700796008383,,-4.0,8586.073929055894,50191.84071640903,0.578581521857887,0.3463659044416252,0.8432364096080854,,0.0,0.0,0.048672566371681415,,69.14265791195862,1536.5035091546363,384125.87728865905,4.0,114.0,0.0,92.4,,,,,,
104.0,313383.7252950036,0.0,69012.0,382705.75808000384,3857.6671862729404,250459.4046282015,552699.0725812773,0.0,0.0,0.0,1621.508,1928.8335931364702,0.0,6486.032,8107.54,8107.54,0.0,0.0,313383.72529500356,0.0,,22.642638170232143,,-3.7,9276.105959672956,-163507.2825012733,0.5406200804619181,0.36207099588665,0.8432364096080854,,0.0,0.0,0.10914454277286137,,56.456078111894904,940.1511758850108,313383.7252950036,3.0,117.0,0.15,92.41,,,,,,
105.0,158036.3126624078,0.0,75074.0,568963.8945461016,3970.9551175999463,92663.93578741577,217736.22553668928,0.0,0.0,0.0,6842.622,1985.4775587999732,0.0,27370.488,34213.11,34213.11,240.7748290297899,0.0,158036.31266240784,0.0,,22.64263817023214,,-2.2,17093.651859290192,378598.1570094122,0.5269993180651839,0.31756577860219576,0.8432364096080854,,0.0,0.0,0.2876106194690266,,28.47498281551264,474.1089379872235,158036.3126624078,3.0,117.0,0.18,92.41,,,,,,
106.0,303401.6097799864,0.0,101266.0,541730.1412858928,2901.9998847870793,206930.2295335886,505959.6855883515,0.0,0.0,0.0,34173.608,1450.9999423935396,0.0,136694.432,170868.04,170868.04,810.2856416094746,0.0,303401.6097799864,0.0,,22.44977081662876,,-1.2,39674.950160892746,172464.88769754168,0.4357750116749354,0.30555569136298066,0.8432364096080854,,0.0,0.0,0.32890855457227136,,54.666902050157944,910.2048293399591,303401.6097799864,3.0,115.0,0.18,92.4,,,,,,
107.0,672173.1228510649,0.0,161982.0,777025.6665697782,59957.218980025755,388974.2136475189,999277.4013212877,0.0,0.0,0.0,60280.321877466245,29978.609490012874,0.0,241121.28750986498,301401.60938733123,11330.21,9199.630676643726,0.0,672173.1228510648,0.0,,21.67041467260228,,0.1,-48918.209531325134,-265400.41864122933,0.4469032551836456,0.33037976684417786,0.8432364096080854,,2400.0,-17857.142857142913,0.38790560471976393,,121.11215327530488,2688.6924914042597,672173.1228510649,4.0,114.0,0.18,92.39,,,,,,
108.0,305409.07750791626,0.0,137681.0,479188.33826178417,11118.929564312995,130994.64062827024,350263.05622889806,0.0,0.0,0.0,45806.98926057288,5559.464782156498,0.0,183227.95704229153,229034.94630286438,42255.82,22177.338456027122,0.0,305409.0775079163,0.0,,21.425868427464906,,1.2,657.7449434264599,129109.69529837059,0.44560790171241477,0.31037517295992045,0.8426042983565052,,13350.0,-12234.485630987123,0.3820058997050147,,55.02860758537635,1221.636310031665,305409.07750791626,4.0,114.0,0.18,92.39,,,,,,
109.0,231002.4060648725,0.0,133176.0,435064.24476261076,5933.874416125195,149388.4915106827,410839.2114511682,0.0,0.0,0.0,12029.785530131165,2966.937208062597,0.0,48119.14212052466,60148.927650655816,0.0,23304.48281474619,0.0,231002.40606487248,0.0,,22.642638170232143,,2.0,44885.11926462601,13398.22633432466,0.40914262154811804,0.3147926347078882,0.8426042983565052,,11700.0,-3442.7190731064643,0.3820058997050147,,41.59429323604095,924.00962425949,231002.4060648725,4.0,114.0,0.06,92.39,,,,,,
110.0,587059.6910957776,0.0,104309.0,716147.1412220213,82801.27547304519,355477.7519811759,987780.0904333848,0.0,0.0,0.0,94285.40924866838,41400.63773652259,0.0,377141.6369946735,471427.0462433419,239968.27,6150.404844661109,0.0,587059.6910957776,0.0,,21.722172499616395,,2.3,-36202.636255115416,-121320.91293516495,0.4382135244801778,0.3147094685227984,0.8126241647101263,,385500.0,0.0,0.3510324483775811,,105.70009738179476,2348.2387643831103,587059.6910957776,4.0,115.0,0.05,92.39,,,,,,
111.0,592436.8835392311,0.0,93976.0,394831.364884219,989.2285432127859,297923.3464861477,810810.2191598973,0.0,0.0,0.0,129938.81994438589,494.61427160639295,0.0,519755.27977754356,649694.0997219294,375736.84,2.5110413681686152,0.0,592436.8835392311,0.0,,21.47327966621544,,1.7,-67639.0437323695,-164701.68902562567,0.5365696229770874,0.33398748484348506,0.7828246342784846,,163350.0,0.0,0.31710914454277284,,106.68603398774476,2369.7475341569248,592436.8835392311,4.0,114.0,0.08,92.39,,,,,,
112.0,656450.7435052881,0.0,104311.0,578684.083443518,26159.27387443841,210420.38659259098,556619.4217588666,0.0,0.0,0.0,339305.73746015225,13079.636937219206,0.0,1357222.949840609,1696528.6873007612,0.0,0.0,0.0,656450.7435052881,0.0,,21.397557288636783,,0.9,868.6342649815224,-283310.50202948524,0.5018320031678571,0.3851701590659524,0.7748780928300468,,127800.0,0.0,0.3023598820058997,,118.27929496478284,1969.3522305158644,656450.7435052881,3.0,116.0,0.18,92.4,,,,,,
113.0,268000.0752060317,0.0,114721.0,432533.7612951026,5397.895479599392,172003.60620639406,456636.303078028,0.0,0.0,0.0,0.0,2698.947739799696,0.0,0.0,0.0,0.0,0.0,0.0,268000.0752060317,0.0,,22.642638170232143,,1.0,20064.531376392486,-24102.54178292554,0.4870762967036678,0.39004448253661295,0.7693696947805615,,113400.0,0.0,0.24778761061946902,,48.29093355137485,804.0002256180951,268000.0752060317,3.0,115.0,0.19,92.4,,,,,,
114.0,335214.09340765106,0.0,151296.0,378674.05473755713,7077.990227251956,119490.59427212381,318363.5547165158,0.0,0.0,0.0,29972.735267814234,3538.995113625978,0.0,119890.94107125694,149863.67633907116,0.0,0.0,0.0,335214.0934076511,0.0,,21.81854642591506,,1.1,-32778.69340067477,33335.0382800084,0.5138576482366178,0.3856054030468358,0.7609716452952806,,86700.0,0.0,0.21091445427728614,,60.40222749112465,1005.6422802229531,335214.09340765106,3.0,112.0,0.19,92.39,,,,,,
115.0,329428.6922077931,0.0,167812.0,476326.6674771688,7842.627722606237,175103.09386560385,469872.77785851044,0.0,0.0,0.0,9647.670867460465,3921.3138613031183,0.0,38590.68346984186,48238.35433730233,0.0,0.0,0.0,329428.6922077931,0.0,,21.471837521991688,,1.3,24781.215986310206,-2229.0141620555914,0.439892462051611,0.38625656794647395,0.728824273072055,,180900.0,0.0,0.1430678466076696,,59.35975604892224,988.2860766233794,329428.6922077931,3.0,107.0,0.19,92.38,,,,,,
116.0,643147.6956253788,0.0,165920.0,263239.6384737598,3123.5991698382995,111903.01569645818,301348.083952066,0.0,0.0,0.0,3305.5848727018183,1561.7995849191498,0.0,13222.339490807273,16527.92436350909,0.0,0.0,0.0,643147.6956253789,0.0,,22.642638170232143,,1.4,-36025.877520377486,-41083.47186373797,0.5228980712247561,0.40229767218640416,0.7064294744446394,,72150.0,-322777.4790577145,0.1032448377581121,,115.888783274737,1929.4430868761365,643147.6956253788,3.0,104.0,0.19,92.28999999999999,,,,,,
117.0,635109.0978391848,0.0,152164.0,927686.2356251157,201048.88222738664,405014.4314522033,1098401.733030524,0.0,0.0,0.0,3782.916782975183,100524.44111369329,0.0,15131.667131900733,18914.583914875915,0.0,0.0,0.0,635109.097839185,0.0,,21.817396134633047,,1.6,-24739.218947073,-174120.12251008628,0.492082007516634,0.4227612161014039,0.6988441394256761,,90300.0,-46232.985167737446,0.0663716814159292,,114.43395724866431,2540.436391356739,635109.0978391848,4.0,104.0,0.18,92.28,,,,,,
118.0,247182.9720610014,0.0,109106.0,433571.05299295945,317.3413572388604,92311.21123925773,251228.62742580738,0.0,0.0,0.0,0.0,158.6706786194302,0.0,0.0,0.0,0.0,0.0,0.0,247182.97206100146,0.0,,22.642638170232143,,1.7,7896.2265083663115,182342.42556715233,0.5192668903461674,0.40036591334925864,0.686021311179332,,97650.0,-52426.072469804996,0.04424778761061947,,44.50035046014208,988.7318882440056,247182.9720610014,4.0,104.0,0.03,92.25999999999999,,,,,,
119.0,195426.1201400894,0.0,82128.0,404218.3722540242,2396.0156926429654,82123.09206590784,225067.06576409948,0.0,0.0,0.0,5306.0,1198.0078463214827,0.0,21224.0,26530.0,0.0,0.0,0.0,195426.1201400894,0.0,,22.642638170232143,,1.9,26440.880535682023,174375.90648992488,0.5243958486377808,0.3824019309550701,0.6809644211666898,,116250.0,-51332.77800916311,0.03982300884955752,,35.17865588641749,781.7044805603575,195426.1201400894,4.0,102.0,0.01,92.2,,,,,,
120.0,315097.9916789131,0.0,57123.0,533744.94353077,1999.275617775705,190039.77696901068,513577.3852122421,0.0,0.0,0.0,0.0,999.6378088878525,0.0,0.0,0.0,0.0,0.0,0.0,315097.9916789131,0.0,,22.642638170232143,,1.5,-16318.075438720296,20167.558318528078,0.5671337347449443,0.37866023019661066,0.680693516344584,,19800.0,-50041.6493127876,0.011799410029498525,,56.71763850220436,1260.3919667156524,315097.9916789131,4.0,95.0,0.0,92.18,,,,,,
121.0,208984.3035578351,0.0,49911.0,594266.6580481472,20.8730752580342,211765.59100252998,566234.3341141043,0.0,0.0,0.0,0.0,10.4365376290171,0.0,0.0,0.0,0.0,0.0,0.0,208984.3035578351,0.0,,22.642638170232143,,1.2,53737.208962484,28032.323934043452,0.5332858438631222,0.37010031069296606,0.680693516344584,,21600.0,0.0,0.011799410029498525,,37.61717464041032,1044.9215177891756,208984.3035578351,5.0,91.0,0.0,92.17,,,,,,
122.0,318067.29425336706,0.0,40161.0,512109.1700656065,15406.487422649356,213520.11778531867,562783.5049828438,0.0,0.0,0.0,0.0,7703.243711324678,0.0,0.0,0.0,0.0,0.0,0.0,318067.29425336706,0.0,,21.792780907575636,,0.8,-1675.4734828287746,-50674.33491723716,0.5670396327400705,0.39334776112003134,0.680693516344584,,0.0,-61120.36651395279,0.011799410029498525,,57.25211296560607,1590.3364712668351,318067.29425336706,5.0,91.0,0.0,92.17,,,,,,
123.0,398983.66765249596,0.0,37141.0,565987.4734009615,12378.61263130031,240907.31333173666,632672.3871057064,0.0,0.0,0.0,42692.102,6189.306315650155,0.0,170768.408,213460.50999999998,213460.50999999998,0.0,0.0,398983.66765249596,0.0,,21.916179472112955,,0.7,64014.428318042956,104083.49429525482,0.46537834304604364,0.3736782145876972,0.6713021491782484,,15600.0,-140262.7623005397,0.0,,71.81706017744928,1994.91833826248,398983.66765249596,5.0,92.0,0.0,92.17,,,,,,
124.0,335620.2646481954,0.0,36057.0,661897.3992470732,49172.562563610634,269782.8546009474,703361.6799734137,0.0,0.0,0.0,0.0,24586.281281805317,0.0,0.0,0.0,0.0,0.0,0.0,335620.2646481954,0.0,,21.522164575306892,,0.5,20367.079031095418,-41464.28072634049,0.4009220892846319,0.3632905967702293,0.6713021491782484,,9450.0,-48469.38775510243,0.0,,60.41164763667517,1678.101323240977,335620.2646481954,5.0,94.0,0.0,92.18,,,,,,
125.0,267607.7255593485,0.0,38154.0,499100.06824014394,0.0,166173.27964497337,430068.64774264715,0.0,0.0,0.0,50812.14431195459,0.0,0.0,203248.57724781835,254060.7215597729,0.0,0.0,0.0,267607.7255593484,0.0,,21.359862058851345,,0.3,-11130.262974623713,23300.4906167374,0.4583586066836814,0.35883572404976505,0.6713021491782484,,0.0,0.0,0.0,,48.169390600682725,1070.4309022373939,267607.7255593485,4.0,94.0,0.0,92.18,,,,,,
126.0,153503.17700743655,0.0,51065.0,459787.596737831,2045.251071310964,157780.23361071813,406842.6610219398,0.0,0.0,0.0,0.0,1022.625535655482,0.0,0.0,0.0,0.0,0.0,0.0,153503.17700743655,0.0,,21.74607073876155,,0.2,56109.57248831876,52944.93571589131,0.3747241482687679,0.34819288140177573,0.6713021491782484,,0.0,0.0,0.0,,27.633641924878727,614.0127080297462,153503.17700743655,4.0,97.0,0.02,92.19,,,,,,
127.0,193414.82547163178,0.0,52400.0,486575.90792608523,2918.7998159454196,208194.44135158305,534852.9363231075,0.0,0.0,0.0,0.0,1459.3999079727098,0.0,0.0,0.0,0.0,0.0,0.0,193414.8254716318,0.0,,21.357361829767857,,0.1,68146.69000730941,-48277.02839702209,0.3228104415722988,0.34492776503423334,0.6713021491782484,,0.0,0.0,0.017699115044247787,,34.85141740173333,773.6593018865271,193414.82547163178,4.0,103.0,0.19,92.4,,,,,,
128.0,258027.2860441427,0.0,63897.0,243730.01347276822,2345.0439434412574,144680.2916451708,373063.9352175043,0.0,0.0,0.0,0.0,1172.5219717206287,0.0,0.0,0.0,0.0,0.0,0.0,258027.28604414273,0.0,,21.9176316020623,,0.2,-15578.640549416286,-129333.92174473594,0.3968026941088497,0.37183487042102564,0.6713021491782467,,0.0,-32581.217419334906,0.11799410029498528,,51.89444776919798,1032.109144176571,258027.2860441427,4.0,105.0,21.12,94.09,,,,,,
129.0,92167.76925199773,0.0,87267.0,335430.3576542017,5986.788495930454,63981.3846714237,180837.37526064718,0.0,0.0,0.0,20402.211848808147,2993.394247965227,0.0,81608.84739523259,102011.05924404072,31157.68,67493.89806428684,0.0,92167.76925199771,0.0,,21.380533452045817,,2.8,14881.710549952884,166765.51812962745,0.38304859896614696,0.3568176149879952,0.6713021491782467,,0.0,-2431.942499745627,0.29646017699115046,,21.212412093347275,921.6776925199772,92167.76925199773,10.0,118.0,50.15,95.92,,,,,,
130.0,103002.994100072,0.0,105890.0,398078.4141323013,13058.019977160058,107526.6636591822,329541.13405043713,0.0,0.0,0.0,0.0,6529.009988580028,0.0,0.0,0.0,0.0,223464.61360396835,0.0,103002.99410007198,0.0,,22.619466547954183,,5.3,-60979.56547905446,68537.28008186395,0.4551961331239358,0.3445949209794324,0.6713021491782467,,0.0,-51556.363595303315,0.33185840707964603,,24.27883573932797,1957.056887901368,103002.994100072,19.0,116.0,55.71,95.71000000000001,,,,,,
131.0,276753.3643287764,0.0,152630.0,307340.8306714547,36146.05737985302,63042.419298364344,202223.58701746998,0.0,0.0,0.0,212092.9499316156,18073.0286899265,0.0,848371.7997264625,1060464.749658078,0.0,260321.88462975802,0.0,276753.36432877637,0.0,,21.84508226053284,,6.8,-58541.30599944531,-85766.41128446933,0.5024408739717392,0.3523270174583029,0.6713021491782437,,0.0,-49384.806907465245,0.35693215339233036,,65.2335355059359,5258.313922246753,276753.3643287764,19.0,116.0,55.71,95.25999999999999,,,,,,
132.0,70947.65326201018,0.0,140791.0,264153.80554728693,29439.504921120126,73782.14879680473,243707.70803466561,0.0,0.0,0.0,17217.122103099566,14719.752460560067,0.0,68868.48841239826,86085.61051549783,54020.16,273337.72312448727,0.0,70947.65326201018,0.0,,22.619466547954183,,7.8,-75225.9574324698,57890.444419831685,0.5768302508936232,0.34493715866384606,0.6713021491782437,,0.0,-36914.40978781324,0.3997050147492625,,16.72307135038842,1348.0054119781935,70947.65326201018,19.0,116.0,55.71,95.56,,,,,,
133.0,273922.58339425834,0.0,129217.0,472767.89220946573,120959.90530799485,244185.75630724817,815874.5872742326,0.0,0.0,0.0,57787.378000000004,60479.95265399743,0.0,231149.51200000002,288936.89,288936.89,241511.58988416725,0.0,273922.5833942584,0.0,,22.619466547954183,,8.2,-37328.77470113402,-111957.18306476688,0.6145264093907696,0.37343634666194664,0.6713021491782437,,2850.0,-45545.65135307216,0.3997050147492625,,63.04054334235461,5478.451667885167,273922.58339425834,20.0,116.0,50.14,94.47,,,,,,
134.0,111331.61238546981,0.0,109216.0,276683.8716650175,19886.933929930296,77826.46186762494,260034.13718926057,0.0,0.0,0.0,11695.9380159008,9943.46696496515,0.0,46783.7520636032,58479.69007950399,0.0,203135.81045397796,0.0,111331.61238546984,0.0,,22.406096153908937,,8.2,-95656.6705413167,6123.39026144619,0.7490345715241,0.3732297210862311,0.6706700379266635,,6300.0,-19515.694352677987,0.415929203539823,,25.622970590515877,2337.963860094866,111331.61238546981,21.0,116.0,50.15,94.28999999999999,,,,,,
135.0,215941.35395415744,0.0,98694.0,394071.4044778074,78769.23845118097,195347.03895759414,634071.4044778072,0.0,0.0,0.0,0.0,39384.619225590504,0.0,0.0,0.0,0.0,91176.58875509926,0.0,215941.35395415747,0.0,,21.876638774351886,,7.2,-2253.58310412808,-240000.0,0.751383262527316,0.4052050297282063,0.6685931009571854,,19800.0,-9743.613877763764,0.35250737463126847,,53.890324292799534,7557.947388395511,215941.35395415744,35.0,179.0,69.56,92.43,,,,,,
136.0,317222.9942952052,0.0,98868.0,333912.4824290233,8398.858143262274,132963.1958008642,413835.3548243599,0.0,0.0,0.0,142754.57497206607,4199.429071631136,0.0,571018.2998882643,713772.8748603303,82560.87,0.0,0.0,317222.9942952053,0.0,,21.66530828525304,,5.8,58948.89144920106,-127492.33727019595,0.6645522689756842,0.4038037995947144,0.6551381614592623,,128550.0,0.0,0.3569321533923304,,80.67615190915659,12054.4737832178,317222.9942952052,38.0,176.0,74.32,94.03,,,,,,
137.0,104665.61955518067,0.0,119554.0,266802.0815412639,7883.45450209246,75563.74225247627,232303.50221731846,0.0,0.0,0.0,20534.526579947833,3941.7272510462303,0.0,82138.10631979133,102672.63289973915,0.0,0.0,0.0,104665.61955518067,0.0,,21.51845193836912,,5.4,111509.97737501937,16017.505401992266,0.5039860747469308,0.4012196816255154,0.6418638251760764,,155550.0,0.0,0.22861356932153393,,26.927323942961333,3767.962303986504,104665.61955518067,36.0,175.0,77.27,94.12,,,,,,
138.0,406558.15687183046,0.0,155108.0,315251.23756835156,19892.58722920253,79837.89034138125,242398.91986510635,0.0,0.0,0.0,171043.5356928154,9946.293614601263,0.0,684174.1427712616,855217.6784640771,25655.4,0.0,0.0,406558.1568718306,0.0,,21.44948949167571,,5.0,1464.059946725305,-55944.57242028871,0.4716326513921886,0.3982449456135885,0.630576124255,,140700.0,0.0,0.15781710914454278,,104.59521701841581,14229.535490514067,406558.15687183046,35.0,178.0,77.27,91.13,,,,,,
139.0,398766.6208346384,0.0,172447.0,333922.47735830786,47303.15049776762,174222.9779811362,522321.46601433237,0.0,0.0,0.0,13037.962,23651.575248883808,0.0,52151.848,65189.81,65189.81,0.0,0.0,398766.6208346385,0.0,,21.380533452045817,,4.6,-37064.84774932919,-136247.14065602457,0.4623465720064753,0.3999483134527208,0.6238938053097227,,74850.0,0.0,0.1415929203539823,,101.41432701066525,14355.598350046985,398766.6208346384,36.0,180.0,74.32,89.59,,,,,,
140.0,684500.7545366338,0.0,170389.0,203107.93496584945,9550.612101079365,139816.79553060292,413839.8722038252,0.0,0.0,0.0,13873.259966634403,4775.3060505396825,0.0,55493.03986653761,69366.29983317202,36742.15,0.0,0.0,684500.7545366338,0.0,,22.619466547954183,,4.2,-71114.96818850888,-187210.5642079467,0.5152694353415193,0.43749586967712933,0.6199205345855039,,28350.0,-285884.2270782044,0.14749262536873156,,170.817163294617,23273.02565424555,684500.7545366338,34.0,181.0,69.55,90.75999999999999,,,,,,
141.0,722521.4991083612,0.0,150246.0,487630.4805790756,42004.26160023664,127465.7579522167,372421.69638282695,0.0,0.0,0.0,180560.05338996273,21002.13080011832,0.0,722240.2135598509,902800.2669498136,0.0,0.0,0.0,722521.4991083611,0.0,,22.619466547954183,,3.8,-38229.7499915872,-47295.26385471773,0.5290233028732798,0.43402345138691506,0.5865089398591178,,429300.0,-222407.33027905278,0.10471976401179942,,166.20162043989632,7225.214991083612,722521.4991083612,10.0,105.0,50.03,95.86,,,,,,
142.0,309508.2090053085,0.0,111684.0,483655.03208100697,9711.627752328597,201367.71901102806,580665.1488511071,0.0,0.0,0.0,0.0,4855.813876164299,0.0,0.0,0.0,0.0,0.0,0.0,309508.2090053085,0.0,,21.762965459782954,,3.4,5091.051050746102,-97010.11677010024,0.5161637370196308,0.4271898876957241,0.5760339534043574,,202500.0,0.0,0.06489675516224189,,62.24829099514765,1238.032836021234,309508.2090053085,4.0,89.0,21.12,93.89,,,,,,
143.0,278356.90733426553,0.0,78249.0,461954.986171548,30062.494152210365,79010.47364620355,224822.1460463787,0.0,0.0,0.0,128580.98522536902,15031.247076105183,0.0,514323.9409014761,642904.9261268451,0.0,0.0,0.0,278356.90733426553,0.0,,21.45199585817617,,3.0,8875.336073978411,121409.95342233729,0.546028899888722,0.4281782812809052,0.5736861116127735,,166800.0,0.0,0.030973451327433628,,50.15713113256131,1113.4276293370622,278356.90733426553,4.0,90.0,0.19,92.24000000000001,,,,,,
144.0,171856.26426744362,0.0,59297.0,424097.45405988034,69.37821064392885,143634.82599846867,401862.4022622201,0.0,0.0,0.0,0.0,34.689105321964426,0.0,0.0,0.0,0.0,0.0,0.0,171856.2642674436,0.0,,22.619466547954183,,2.5,31934.843052362245,22235.051797660446,0.485916712122147,0.4431065214066498,0.5730540003611932,,4200.0,0.0,0.019174041297935103,,30.949594631923926,687.4250570697745,171856.26426744362,4.0,89.0,0.09,92.22999999999999,,,,,,
145.0,387203.88454667677,0.0,46825.0,635835.0044342383,151336.00665352194,228678.99244522984,631079.2277294697,0.0,0.0,0.0,3444.3297420772033,75668.00332676097,0.0,13777.318968308813,17221.648710386016,0.0,0.0,0.0,387203.88454667677,0.0,,22.619466547954183,,2.1,10661.30030890303,1655.8799368993405,0.5392625418162496,0.4419488298098535,0.5730540003611932,,0.0,-116980.84324553938,0.019174041297935103,,69.73154756801102,1548.815538186707,387203.88454667677,4.0,89.0,0.09,92.24000000000001,,,,,,
146.0,197503.0775867435,0.0,41176.0,423594.33161454706,404.7710247869376,166638.87146284393,451925.68706441054,0.0,0.0,0.0,0.0,202.3855123934688,0.0,0.0,0.0,0.0,0.0,0.0,197503.0775867435,0.0,,22.39794814949869,,1.6,11299.309264034157,-28331.355449863346,0.5594355859981176,0.4478782086483101,0.5698934441032919,,5250.0,0.0,0.0,,35.56832924259663,987.5153879337174,197503.0775867435,5.0,88.0,0.09,92.22999999999999,,,,,,
147.0,197959.69036769695,0.0,37896.0,492555.27659546986,299.5923543921439,132684.43865591649,357311.2047996524,0.0,0.0,0.0,6622.705344673866,149.79617719607194,0.0,26490.821378695466,33113.52672336933,0.0,0.0,0.0,197959.69036769698,0.0,,21.74678866824471,,1.4,18995.46630116009,129283.63698561091,0.5488949021130104,0.45204394776814805,0.5698934441032919,,1800.0,-38762.21421642823,0.0,,35.63670345999281,791.8387614707879,197959.69036769695,4.0,88.0,0.02,92.22,,,,,,
148.0,211879.96881025218,0.0,34853.0,460141.0267827416,1.0523197242373625,135584.3281182194,362535.29851037485,0.0,0.0,0.0,0.0,0.5261598621186813,0.0,0.0,0.0,0.0,0.0,0.0,211879.9688102522,0.0,,21.522065277243996,,1.2,41505.00443235727,97605.72827236689,0.49446585248344055,0.4436425194746577,0.5698934441032919,,16500.0,-81888.24528033884,0.0,,38.14051318553349,847.5198752410087,211879.96881025218,4.0,91.0,0.01,92.22999999999999,,,,,,
149.0,223910.4976308133,0.0,38253.0,464918.0893179673,386.28997832834455,108402.66122617874,286754.6609239167,0.0,0.0,0.0,36492.67435708546,193.14498916417227,0.0,145970.69742834184,182463.3717854273,36801.43,0.0,0.0,223910.49763081333,0.0,,22.619466547954183,,0.9,37564.80401828122,181385.42287267392,0.4521999823327967,0.42694845496589967,0.5698934441032919,,0.0,-77207.41357767631,0.0,,40.30388957354639,895.6419905232532,223910.4976308133,4.0,96.0,0.0,92.28,,,,,,
150.0,243495.24346199952,0.0,45916.0,553599.7752527558,51052.205414158816,204327.96480695857,538555.3801337309,0.0,0.0,0.0,0.0,25526.102707079408,0.0,0.0,0.0,0.0,0.0,0.0,243495.2434619995,0.0,,21.757939938143718,,0.8,7966.19756226907,15044.395119024717,0.44033524517446393,0.4288375420396379,0.5698934441032919,,0.0,0.0,0.004424778761061947,,43.82914382315992,973.980973847998,243495.24346199952,4.0,100.0,0.0,92.46000000000001,,,,,,
151.0,225316.24536260578,0.0,54961.0,400428.4231904916,2184.9497877837275,117782.6611305616,308198.74907457375,0.0,0.0,0.0,9408.512,1092.4748938918638,0.0,37634.048,47042.56,47042.56,0.0,0.0,225316.24536260575,0.0,,21.50189700504735,,0.6,9571.393295208836,129863.7221159179,0.4785650290904293,0.40958981612594425,0.5698934441032907,,0.0,-51608.88430043996,0.0855457227138643,,40.559177327722665,901.2649814504231,225316.24536260578,4.0,104.0,0.01,92.52000000000001,,,,,,
