,0
import_elec,68382748.56473494
import_th,0.0
consum_elec,13812519.0
consum_th,100115255.29768959
consum_cold,3463853.571139198
pow_elec_hp,46309423.55638646
pow_th_hp,93908028.54330549
pow_th_gb,0.0
pow_th_chp,0.0
pow_gas_gb,0.0
pow_elec_eh,10345833.888358528
pow_elec_ac,1731926.785569599
pow_elec_chp,0.0
pow_th_eh_in,41383335.55343411
pow_th_eh_out,51729169.44179264
consum_dhw,4862385.2299999995
gen_pv,5708830.736704492
trans_to_hub,0.0
trans_to_bul,68382748.56473492
dh_to_bul_1,0.0
dh_to_bul_2,0.0
temp_zone_1,3166.6194665479543
temp_zone_2,0.0
temp_amb,-537.8
pow_elec_bat,-158505.1233799304
pow_th_tes,1661113.780261456
soc_bat_avg,72.77114002898185
soc_tes_avg,55.01837929730007
soc_ev_1,116.9079830207921
soc_ev_2,0.0
consum_ev_drive,6561000.0
consum_ev_charge,-3123383.9904908314
soc_ev_1_driving,18.71828908554572
soc_ev_2_driving,0.0
obj_cost,13178.943009455084
obj_co2,594034.8560344776
obj_peak,68382748.56473494
emi_factor_elec,1294.0
emi_factor_dh,15986.0
price_elec,1985.77
price_dh,13319.09
slack_ext,0.0
restload_avg,0.0
renovation_cost_construction,6874835.890880003
renovation_cost_hp,710665.810657836
renovation_cost_pv,1644606.4381736678
renovation_cost_total,9230108.139711503
