,building_code,power_th_kW,power_th_Wm2
0,DE.N.AB.05.Gen.ReEx.001_001,398.196819021673,102.4295229405054
1,DE.N.AB.05.Gen.ReEx.001_002,566.5595518496021,145.7380416948602
2,DE.N.AB.06.Gen.ReEx.001_001,649.0951606166183,195.4729090225434
3,DE.N.AB.06.Gen.ReEx.001_002,470.17897457195403,141.59287805120528
4,DE.N.MFH.06.Gen.ReEx.001_003,314.83661362679834,671.579807224399
5,DE.N.MFH.06.Gen.ReEx.001_004,60.60823090795713,129.283769001615
6,DE.N.MFH.07.Gen.ReEx.001_001,144.08244564495962,222.3494531558019
7,DE.N.MFH.07.Gen.ReEx.001_002,126.47238819292498,195.17343856932868
8,DE.N.MFH.06.Gen.ReEx.001_005,138.50392184604402,295.4435192961689
9,DE.N.MFH.06.Gen.ReEx.001_006,181.33124298344524,386.79872650052306
10,DE.N.MFH.06.Gen.ReEx.001_007,78.49682210635058,167.44202667736894
11,DE.N.MFH.07.Gen.ReEx.001_003,124.44827925371249,192.04981366313655
12,DE.N.MFH.07.Gen.ReEx.001_004,137.60812746459402,212.35822139597843
13,DE.N.MFH.07.Gen.ReEx.001_005,114.2539892093899,176.31788458239183
14,DE.N.MFH.07.Gen.ReEx.001_006,129.7276138345189,200.19693492981312
15,DE.N.MFH.06.Gen.ReEx.001_008,146.91328784593935,313.381586702089
16,DE.N.MFH.06.Gen.ReEx.001_009,106.9092022668863,228.04863964779497
17,DE.N.MFH.07.Gen.ReEx.001_007,95.20002362535368,146.91361670579272
18,DE.N.MFH.07.Gen.ReEx.001_008,125.71626762167911,194.00658583592457
19,DE.N.MFH.06.Gen.ReEx.001_001,231.97070144096483,494.8180491488157
20,DE.N.MFH.06.Gen.ReEx.001_002,131.2395323998639,279.94780802018744
