,load_elec,grid,hp_elec,ev,pv,bat_pow,cool,load_th_sh,load_th_dhw,tes_pow,dh,hp_th,bat_soc,tes_soc,ev_soc,eh_th_in,eh_elec_in,eh_th_out,temp_slack,temp_zone_1,temp_zone_2,temp_update,Qsolar_1,QconvInt_1,QradInt_1,Qvent_1,Qconduc_1,Qheating_1,Qsolar_2,QconvInt_2,QradInt_2,Qvent_2,Qconduc_2,Qheating_2,temp_amb,temp_aggregate_1,temp_aggregate_2,temp_wall_1,temp_wall_2,_Tamb,_Tz_1,_TEW_1,_TIW_1,_T1_1,_T2_1,_Taeq_1,_Tvent_1,_Qheating_1,_Qinfvent_1,_Qenvelope_1,_Qsolar_1,_Qint_people_1,_Qint_lighting_1,_Qint_appliances_1,_Tz_2,_TEW_2,_TIW_2,_T1_2,_T2_2,_Taeq_2,_Tvent_2,_Qheating_2,_Qinfvent_2,_Qenvelope_2,_Qsolar_2,_Qint_people_2,_Qint_lighting_2,_Qint_appliances_2
8.0,1433.0,19909.19966186714,18376.653663557805,-0.0,0.0,0.0,0.0,30566.671790671597,0.0,0.0,0.0,30566.671790671604,0.5,0.5,0.8,0.0,0.0,0.0,"[2.0, 2.0, 2.0, 2.0, 2.0, 2.0, 2.0, 2.0]",20.0,0.0,0.0,1.0987170749361859,43.55760367743668,0.9704246364458015,-1247.6837248037693,-1753.680427795395,11086.887735596141,0.0,0.0,0.0,0.0,0.0,0.0,-9.4,19.165290701529738,0.0,19.0,0.0,-9.4,20.0,18.0,20.0,20.0,20.0,-10.72,-9.4,1939.24,-870.79,-819.76,1.81,0.0,0.0,32.0,0.0,0.0,0.0,0.0,0.0,0.0,0.0,0.0,0.0,0.0,0.0,0.0,0.0,0.0
9.0,1811.0,0.0,0.0,-0.0,7.040922578023344,1803.9590774219766,0.0,57726.091022101056,0.0,57726.09102210106,0.0,0.0,0.42330105963341935,0.2545659395318832,0.8,0.0,0.0,0.0,"[2.0, 2.0, 2.0, 2.0, 2.0, 2.0, 2.0, 2.0]",23.95,0.0,0.0,32.8420880276569,83.03168201011367,1.8498719632248068,-1381.1905436033971,-6869.402151211856,0.0,0.0,0.0,0.0,0.0,0.0,0.0,-8.6,20.630191743433723,0.0,19.472765203006105,0.0,-8.6,23.95,18.27,20.68,21.89,22.8,-9.71,-8.6,2374.74,-963.97,-907.48,54.15,0.0,0.0,61.0,0.0,0.0,0.0,0.0,0.0,0.0,0.0,0.0,0.0,0.0,0.0,0.0,0.0,0.0
10.0,2035.0,15863.947291015664,0.0,-0.0,373.61180135567236,-14123.239355916261,0.0,38962.19514331595,0.0,38962.19514331595,0.0,0.0,1.0,0.08891034793615216,0.8,0.0,0.0,0.0,"[2.0, 2.0, 2.0, 2.0, 2.0, 2.0, 2.0, 2.0]",20.0,0.0,0.0,87.69615392913784,42.196428562516786,0.940098866556867,-1171.2949253259876,-1014.3824991684136,10292.729408532114,0.0,0.0,0.0,0.0,0.0,0.0,-7.6,19.52294331088615,0.0,19.534672969617986,0.0,-7.6,20.0,18.38,20.69,19.25,20.26,-8.62,-7.6,1526.22,-817.48,-769.57,144.59,0.0,0.0,31.0,0.0,0.0,0.0,0.0,0.0,0.0,0.0,0.0,0.0,0.0,0.0,0.0,0.0,0.0
11.0,2395.0,0.0,0.0,-0.0,1061.4991243777322,1333.5008756222678,0.0,10302.741072927449,0.0,10302.741072927449,0.0,0.0,0.9433035341997336,0.045106176707719124,0.8,0.0,0.0,0.0,"[2.0, 2.0, 2.0, 2.0, 2.0, 2.0, 2.0, 2.0]",24.0,0.0,0.0,119.89899309269732,55.808179711715745,1.2433565654461827,-1307.0972355087106,-6284.729497899834,0.0,0.0,0.0,0.0,0.0,0.0,0.0,-6.8,20.96696532475974,0.0,19.947296741270407,0.0,-6.8,24.0,18.63,21.26,22.09,23.14,-7.69,-6.8,6896.27,-912.26,-858.8,197.68,0.0,0.0,41.0,0.0,0.0,0.0,0.0,0.0,0.0,0.0,0.0,0.0,0.0,0.0,0.0,0.0,0.0
12.0,4943.0,0.0,9080.265972501964,-0.0,2494.6212878857523,11528.64468461621,0.0,18111.33762594384,0.0,237.66517808268307,0.0,17873.672447861158,0.45314006971775184,0.04409569550838799,0.8,0.0,0.0,0.0,"[2.0, 2.0, 2.0, 2.0, 2.0, 2.0, 2.0, 2.0]",20.4,0.0,0.0,172.8512769934615,249.2383276213852,44.91246520550725,-1129.060717116687,-956.1407707177054,777.4702878347191,0.0,0.0,0.0,0.0,0.0,0.0,-6.2,19.955348602219612,0.0,19.996050853910273,0.0,-6.2,20.4,18.74,21.25,19.66,20.79,-6.96,-6.2,0.0,-788.0,-741.82,284.99,137.0,0.0,111.0,0.0,0.0,0.0,0.0,0.0,0.0,0.0,0.0,0.0,0.0,0.0,0.0,0.0,0.0
13.0,6237.0,124487.19780672445,0.0,-0.0,436.24519864361787,0.0,0.0,26257.60631470097,0.0,-80000.0,0.0,0.0,0.45314006971775184,0.3707623621750547,0.8,472256.0280653378,118064.00701633445,590320.0350816722,"[2.0, 2.0, 2.0, 2.0, 2.0, 2.0, 2.0, 2.0]",20.0,0.0,0.0,92.72426793972254,2453.7688874274404,94.88933398246604,-1107.6375924278361,-412.8808811863018,6718.418829822075,0.0,0.0,0.0,0.0,0.0,0.0,-6.1,19.81400766808037,0.0,19.946807036393054,0.0,-6.1,20.0,18.79,21.11,19.61,20.71,-7.05,-6.1,0.0,-773.05,-727.75,152.88,140.0,0.0,1729.0,0.0,0.0,0.0,0.0,0.0,0.0,0.0,0.0,0.0,0.0,0.0,0.0,0.0,0.0
14.0,7255.0,0.0,0.0,-0.0,4.699060397696799,7250.3009396023035,0.0,21363.490571702223,0.0,21363.490571702223,0.0,0.0,0.14487897534690564,0.2799311947783616,0.8,0.0,0.0,0.0,"[2.0, 2.0, 2.0, 2.0, 2.0, 2.0, 2.0, 2.0]",23.8,0.0,0.0,30.035614896991365,926.673690078361,67.47483800287213,-1290.2971157079783,-5564.870284335462,0.0,0.0,0.0,0.0,0.0,0.0,0.0,-6.6,21.12033660804695,0.0,20.23300428937793,0.0,-6.6,23.8,18.99,21.48,21.89,22.85,-7.71,-6.6,7658.1,-900.53,-847.76,49.52,163.0,0.0,595.0,0.0,0.0,0.0,0.0,0.0,0.0,0.0,0.0,0.0,0.0,0.0,0.0,0.0,0.0
15.0,2238.0,9680.684385130955,7394.2809632052995,-0.0,0.0,0.0,0.0,13779.55382967087,0.0,0.0,0.0,13779.55382967087,0.14487897534690564,0.2799311947783616,0.8,0.0,0.0,0.0,"[2.0, 2.0, 2.0, 2.0, 2.0, 2.0, 2.0, 2.0]",20.97,0.0,0.0,3.297354263282574,1562.5573911325191,79.72644903800038,-1199.8727421152762,-1353.2244353695726,0.0,0.0,0.0,0.0,0.0,0.0,0.0,-7.3,20.332351513386012,0.0,20.282103894832733,0.0,-7.3,20.97,19.09,21.47,20.09,21.12,-8.48,-7.3,0.0,-837.42,-788.35,5.44,128.0,15.0,1079.0,0.0,0.0,0.0,0.0,0.0,0.0,0.0,0.0,0.0,0.0,0.0,0.0,0.0,0.0
16.0,3083.0,35907.58444552768,0.0,-0.0,0.0,-16000.0,0.0,14980.541870970032,0.0,0.0,0.0,0.0,0.798212308680239,0.2799311947783616,0.8,66580.18609320017,16645.046523300043,83225.23261650022,"[2.0, 2.0, 2.0, 2.0, 2.0, 2.0, 2.0, 2.0]",20.53,0.0,0.0,0.0,1009.7770128839967,78.99863056066603,-1176.8490777059494,-769.6596613387295,8010.910500733914,0.0,0.0,0.0,0.0,0.0,0.0,-7.2,20.172723026290925,0.0,20.22202415007701,0.0,-7.2,20.53,19.13,21.32,19.92,20.88,-8.36,-7.2,0.0,-821.35,-773.22,0.0,106.0,48.0,681.0,0.0,0.0,0.0,0.0,0.0,0.0,0.0,0.0,0.0,0.0,0.0,0.0,0.0,0.0
17.0,5915.0,10479.98961849246,4512.589670399996,-0.0,0.0,0.0,0.0,8538.460510225601,0.0,0.0,0.0,8538.460510225601,0.798212308680239,0.2799311947783616,0.7805194805194796,0.0,0.0,0.0,"[2.0, 2.0, 2.0, 2.0, 2.0, 2.0, 2.0, 2.0]",24.0,0.0,0.0,0.0,585.9500665752543,106.77703577892711,-1315.5848798951308,-5394.803586878043,0.0,0.0,0.0,0.0,0.0,0.0,0.0,-7.0,21.39907774980032,0.0,20.53839735700599,0.0,-7.0,24.0,19.33,21.74,22.27,23.21,-8.15,-7.0,6158.24,-918.18,-864.37,0.0,92.0,124.0,369.0,0.0,0.0,0.0,0.0,0.0,0.0,0.0,0.0,0.0,0.0,0.0,0.0,0.0,0.0
18.0,4528.0,40432.18357900898,0.0,-0.0,0.0,-75.01718017573567,0.0,32064.30493284436,0.0,0.0,0.0,0.0,0.8012755102040815,0.2799311947783616,0.7735621521335798,142508.0219237528,35627.0054809382,178135.02740469098,"[2.0, 2.0, 2.0, 2.0, 2.0, 2.0, 2.0, 2.0]",21.08,0.0,0.0,0.0,441.45058200717904,130.94667438040534,-1187.284514611108,-1063.1890755607922,7709.315456365119,0.0,0.0,0.0,0.0,0.0,0.0,-6.9,20.576307924075675,0.0,20.576581710345724,0.0,-6.9,21.08,19.43,21.73,20.34,21.33,-8.06,-6.9,4968.09,-828.64,-780.08,0.0,142.0,148.0,234.0,0.0,0.0,0.0,0.0,0.0,0.0,0.0,0.0,0.0,0.0,0.0,0.0,0.0,0.0
19.0,6745.0,0.0,0.0,-0.0,0.0,6745.0,0.0,11335.379552336339,0.0,11335.379552336339,0.0,0.0,0.5144982993197278,0.23173655382455063,0.7638218923933201,0.0,0.0,0.0,"[2.0, 2.0, 2.0, 2.0, 2.0, 2.0, 2.0, 2.0]",24.0,0.0,0.0,0.0,481.06794193090013,110.53743124515461,-1307.0972355087106,-4915.923294134999,0.0,0.0,0.0,0.0,0.0,0.0,0.0,-6.8,21.6313602146721,0.0,20.87436281887063,0.0,-6.8,24.0,19.63,22.12,22.44,23.44,-7.94,-6.8,0.0,-912.26,-858.8,0.0,83.0,140.0,295.0,0.0,0.0,0.0,0.0,0.0,0.0,0.0,0.0,0.0,0.0,0.0,0.0,0.0,0.0
20.0,6973.0,23088.442211055273,0.0,-0.0,0.0,-16000.0,0.0,0.0,0.0,0.0,0.0,0.0,0.871360544217687,0.23173655382455063,0.7638218923933201,0.0,0.0,0.0,"[1.2153519235612826, 2.0, 1.1200603603914914, 1.0716276324943266, 2.0, 0.9375956045080827, 1.427509622889719, 0.732598800940341]",21.26,0.0,0.0,0.0,980.4759275154579,102.31914760525419,-1182.5031862647465,-882.4484400210365,0.0,0.0,0.0,0.0,0.0,0.0,0.0,-6.6,20.851280078304338,0.0,20.89299918583009,0.0,-6.6,21.26,19.72,22.07,20.59,21.62,-7.74,-6.6,0.0,-825.3,-776.94,0.0,129.0,80.0,644.0,0.0,0.0,0.0,0.0,0.0,0.0,0.0,0.0,0.0,0.0,0.0,0.0,0.0,0.0
21.0,5128.0,0.0,0.0,-0.0,0.0,5128.0,0.0,19742.42107930368,0.0,19742.421079303684,0.0,0.0,0.6533333333333333,0.14779768869145676,0.7638218923933201,0.0,0.0,0.0,"[1.2153519235612826, 2.0, 1.1200603603914914, 1.0716276324943266, 2.0, 0.9375956045080827, 1.427509622889719, 0.732598800940341]",20.78,0.0,0.0,0.0,625.5674264989755,86.36779264367632,-1157.911950407179,-278.1885405620764,5737.938862462087,0.0,0.0,0.0,0.0,0.0,0.0,-6.5,20.664769572815494,0.0,20.808422434429286,0.0,-6.5,20.78,19.74,21.88,20.39,21.36,-7.67,-6.5,869.31,-808.14,-760.78,0.0,135.0,62.0,382.0,0.0,0.0,0.0,0.0,0.0,0.0,0.0,0.0,0.0,0.0,0.0,0.0,0.0,0.0
22.0,3300.0,0.0,8880.400000000001,-0.0,0.0,12180.400000000001,0.0,17395.594996285767,0.0,0.0,0.0,17395.594996285767,0.13545918367346937,0.14779768869145676,0.7638218923933201,0.0,0.0,0.0,"[1.2153519235612826, 2.0, 1.1200603603914914, 1.0716276324943266, 2.0, 0.9375956045080827, 1.427509622889719, 0.732598800940341]",23.22,0.0,0.0,0.0,482.2141946592538,69.41568727576376,-1252.5790553361578,-3567.740953144604,0.0,0.0,0.0,0.0,0.0,0.0,0.0,-6.3,21.500336066909632,0.0,20.99045013206159,0.0,-6.3,23.22,19.88,22.1,22.03,22.95,-7.55,-6.3,1167.04,-874.21,-822.98,0.0,157.0,25.0,269.0,0.0,0.0,0.0,0.0,0.0,0.0,0.0,0.0,0.0,0.0,0.0,0.0,0.0,0.0
23.0,3186.0,0.0,0.0,-0.0,0.0,3186.0,0.0,9881.90507329124,0.0,9881.905073291242,0.0,0.0,0.0,0.10578278616895999,0.7638218923933201,0.0,0.0,0.0,"[1.2153519235612826, 2.0, 1.1200603603914914, 1.0716276324943266, 2.0, 0.9375956045080827, 1.427509622889719, 0.732598800940341]",21.14,0.0,0.0,0.0,289.1422507271948,31.05358836626565,-1160.341888466943,-548.4728650095532,654.2067818451353,0.0,0.0,0.0,0.0,0.0,0.0,-6.2,20.890910478547045,0.0,20.97522211074735,0.0,-6.2,21.14,19.93,22.02,20.63,21.56,-7.41,-6.2,3681.82,-809.83,-762.38,0.0,80.0,3.0,170.0,0.0,0.0,0.0,0.0,0.0,0.0,0.0,0.0,0.0,0.0,0.0,0.0,0.0,0.0
24.0,2185.0,28399.29280081881,0.0,-0.0,0.0,-3905.6643065389417,0.0,19949.968827248184,0.0,0.0,0.0,0.0,0.1594812925170068,0.10578278616895999,0.7638218923933201,88666.5281211031,22166.632030275774,110833.16015137886,"[1.2153519235612826, 2.0, 1.1200603603914914, 1.0716276324943266, 2.0, 0.9375956045080827, 1.427509622889719, 0.732598800940341]",20.78,0.0,0.0,0.0,55.808179711715745,1.2433565654461827,-1140.9366616343384,-113.5618045421489,6206.358578047224,0.0,0.0,0.0,0.0,0.0,0.0,-6.1,20.74448425621275,0.0,20.900055720576276,0.0,-6.1,20.78,19.95,21.85,20.53,21.41,-7.34,-6.1,1015.67,-796.29,-749.63,0.0,0.0,0.0,41.0,0.0,0.0,0.0,0.0,0.0,0.0,0.0,0.0,0.0,0.0,0.0,0.0,0.0,0.0
25.0,1690.0,0.0,0.0,-0.0,0.0,1690.0,0.0,16576.715024550158,0.0,16576.715024550154,0.0,0.0,0.08762755102040816,0.035303555622403095,0.7638218923933201,0.0,0.0,0.0,"[1.2153519235612826, 2.0, 1.1200603603914914, 1.0716276324943266, 2.0, 0.9375956045080827, 1.427509622889719, 0.732598800940341]",23.22,0.0,0.0,0.0,55.808179711715745,1.2433565654461827,-1239.8475887565273,-3399.1821459595076,4582.049213630171,0.0,0.0,0.0,0.0,0.0,0.0,-6.0,21.581918934875063,0.0,21.087301780881447,0.0,-6.0,23.22,20.08,22.1,22.15,22.99,-7.14,-6.0,4104.49,-865.32,-814.61,0.0,0.0,0.0,41.0,0.0,0.0,0.0,0.0,0.0,0.0,0.0,0.0,0.0,0.0,0.0,0.0,0.0,0.0
26.0,2061.0,0.0,0.0,-0.0,0.0,2061.0,0.0,3712.2241251913765,0.0,3712.2241251913765,0.0,0.0,0.0,0.019520289784004385,0.76382189239332,0.0,0.0,0.0,"[1.2153519235612826, 2.0, 1.1200603603914914, 1.0716276324943266, 2.0, 0.9375956045080827, 1.427509622889719, 0.732598800940341]",23.22,0.0,0.0,0.0,55.808179711715745,1.2433565654461827,-1227.1161221768973,-3122.15096226875,0.0,0.0,0.0,0.0,0.0,0.0,0.0,-5.7,21.716185663895477,0.0,21.286571686428665,0.0,-5.7,23.22,20.22,22.35,22.08,22.96,-6.82,-5.7,3343.69,-856.44,-806.25,0.0,0.0,0.0,41.0,0.0,0.0,0.0,0.0,0.0,0.0,0.0,0.0,0.0,0.0,0.0,0.0,0.0,0.0
27.0,1076.0,53876.96361489383,52531.57879681936,-0.0,0.0,0.0,0.0,26909.202266886296,0.0,-80000.0,0.0,106909.20226688629,0.0,0.3461869564506711,0.76382189239332,0.0,0.0,0.0,"[1.2153519235612826, 2.0, 1.1200603603914914, 1.0716276324943266, 2.0, 0.9375956045080827, 1.427509622889719, 0.732598800940341]",21.13,0.0,0.0,0.0,55.808179711715745,1.2433565654461827,-1130.2308271405543,-124.56097620991282,4387.045108706543,0.0,0.0,0.0,0.0,0.0,0.0,-5.5,21.086661083962117,0.0,21.245418467198252,0.0,-5.5,21.13,20.26,22.23,20.79,21.69,-6.59,-5.5,3031.45,-788.82,-742.59,0.0,0.0,0.0,41.0,0.0,0.0,0.0,0.0,0.0,0.0,0.0,0.0,0.0,0.0,0.0,0.0,0.0,0.0
28.0,2134.0,33712.904425679946,0.0,-0.0,0.0,-9700.749687630154,0.0,19538.631194329242,0.0,0.0,0.0,0.0,0.3961139455782313,0.3461869564506711,0.76382189239332,86838.36086368556,21709.59021592139,108547.95107960695,"[1.2153519235612826, 2.0, 1.1200603603914914, 1.0716276324943266, 2.0, 0.9375956045080827, 1.427509622889719, 0.732598800940341]",22.68,0.0,0.0,0.0,117.06105988311108,35.35984769049389,-1191.667796168808,-2243.400261190382,0.0,0.0,0.0,0.0,0.0,0.0,0.0,-5.4,21.606865511613574,0.0,21.34067538320068,0.0,-5.4,22.68,20.35,22.33,21.91,22.77,-6.47,-5.4,835.04,-831.7,-782.96,0.0,80.0,18.0,42.0,0.0,0.0,0.0,0.0,0.0,0.0,0.0,0.0,0.0,0.0,0.0,0.0,0.0,0.0
29.0,1163.0,0.0,0.0,-0.0,0.0,1163.0,0.0,21473.97035018827,0.0,21473.97035018827,0.0,0.0,0.3466666666666667,0.25488606210463255,0.76382189239332,0.0,0.0,0.0,"[1.2153519235612826, 2.0, 1.1200603603914914, 1.0716276324943266, 2.0, 0.9375956045080827, 1.427509622889719, 0.732598800940341]",21.09,0.0,0.0,0.0,115.98644795027957,36.42124963660648,-1115.5339637176633,19.30813481625762,3735.1481546542436,0.0,0.0,0.0,0.0,0.0,0.0,-5.2,21.10997034953038,0.0,21.28438456977507,0.0,-5.2,21.09,20.37,22.19,20.84,21.67,-6.27,-5.2,1467.65,-778.56,-732.94,0.0,80.0,20.0,41.0,0.0,0.0,0.0,0.0,0.0,0.0,0.0,0.0,0.0,0.0,0.0,0.0,0.0,0.0
30.0,1520.0,3400.2968387092333,1863.2953545156868,-0.0,0.0,0.0,0.0,3863.1233882882884,0.0,0.0,0.0,3863.1233882882884,0.3466666666666667,0.25488606210463255,0.76382189239332,0.0,0.0,0.0,"[1.2153519235612826, 2.0, 1.1200603603914914, 1.0716276324943266, 2.0, 0.9375956045080827, 1.427509622889719, 0.732598800940341]",22.44,0.0,0.0,0.0,180.5348047156915,61.25805517564123,-1168.7334472233647,-1852.2701216053015,0.0,0.0,0.0,0.0,0.0,0.0,0.0,-5.1,21.55597208973191,0.0,21.35384233897191,0.0,-5.1,22.44,20.45,22.26,21.8,22.6,-6.18,-5.1,3575.62,-815.69,-767.89,0.0,169.0,16.0,42.0,0.0,0.0,0.0,0.0,0.0,0.0,0.0,0.0,0.0,0.0,0.0,0.0,0.0,0.0
31.0,1515.0,26116.07753254552,0.0,-0.0,0.0,-16000.0,0.0,7623.447430394509,0.0,0.0,0.0,0.0,1.0,0.25488606210463255,0.76382189239332,33881.988579531164,8470.497144882791,42352.48572441396,"[1.2153519235612826, 2.0, 1.1200603603914914, 1.0716276324943266, 2.0, 0.9375956045080827, 1.427509622889719, 0.732598800940341]",21.09,0.0,0.0,0.0,153.9560695769925,42.78966131328206,-1107.1810136046713,52.04534962099794,5242.013092691586,0.0,0.0,0.0,0.0,0.0,0.0,-5.0,21.128923301879105,0.0,21.296625677476776,0.0,-5.0,21.09,20.46,22.13,20.88,21.66,-6.06,-5.0,2918.26,-772.73,-727.45,0.0,137.0,0.0,41.0,0.0,0.0,0.0,0.0,0.0,0.0,0.0,0.0,0.0,0.0,0.0,0.0,0.0,0.0
32.0,2179.0,0.0,0.0,-0.0,0.0,2179.0,0.0,0.0,0.0,0.0,0.0,0.0,0.8147108843537416,0.25488606210463255,0.76382189239332,0.0,0.0,0.0,"[1.2153519235612826, 1.4074810103772641, 0.7400115701037464, 0.8331239798931804, 0.571754702811198, 0.9144446037401153, 1.272361887890753, 0.732598800940341]",23.22,0.0,0.0,1.0987126643951202,55.808179711715745,1.2433565654461827,-1188.9217224380063,-2839.7505184735496,0.0,0.0,0.0,0.0,0.0,0.0,0.0,-4.8,21.85272584384157,0.0,21.44763609637609,0.0,-4.8,23.22,20.56,22.33,22.34,23.08,-5.87,-4.8,372.86,-829.78,-781.15,1.81,0.0,0.0,41.0,0.0,0.0,0.0,0.0,0.0,0.0,0.0,0.0,0.0,0.0,0.0,0.0,0.0,0.0
33.0,1089.0,0.0,10322.064294128488,-0.0,6.684058455219355,11404.380235673269,0.0,26066.73005999993,0.0,3387.009518929579,0.0,22679.720541070357,0.3298307722928034,0.24048551142891156,0.76382189239332,0.0,0.0,0.0,"[1.2153519235612826, 1.4074810103772641, 0.7400115701037464, 0.8331239798931804, 0.571754702811198, 0.9144446037401153, 1.272361887890753, 0.732598800940341]",21.29,0.0,0.0,32.82238745343785,55.808179711715745,1.2433565654461827,-1064.7122481440636,-64.36742282581872,5007.990841152502,0.0,0.0,0.0,0.0,0.0,0.0,-3.8,21.27104962179725,0.0,21.412804369071694,0.0,-3.8,21.29,20.59,22.24,21.02,21.77,-4.62,-3.8,2727.59,-743.09,-699.54,54.12,0.0,0.0,41.0,0.0,0.0,0.0,0.0,0.0,0.0,0.0,0.0,0.0,0.0,0.0,0.0,0.0,0.0
34.0,3714.0,3615.6259010083168,0.0,-0.0,116.45222849672467,0.0,0.0,4036.228562212121,0.0,4036.228562212121,0.0,0.0,0.3298307722928034,0.22332467570522058,0.76382189239332,0.0,0.0,0.0,"[1.2153519235612826, 1.4074810103772641, 0.7400115701037464, 0.8331239798931804, 0.571754702811198, 0.9144446037401153, 1.272361887890753, 0.732598800940341]",23.22,0.0,0.0,63.84773889877171,55.808179711715745,1.2433565654461827,-1099.8014563805943,-2674.4694188419453,0.0,0.0,0.0,0.0,0.0,0.0,0.0,-2.7,21.931614487827314,0.0,21.556171841727664,0.0,-2.7,23.22,20.69,22.42,22.38,23.12,-3.39,-2.7,0.0,-767.58,-722.6,105.27,0.0,0.0,41.0,0.0,0.0,0.0,0.0,0.0,0.0,0.0,0.0,0.0,0.0,0.0,0.0,0.0,0.0
35.0,3771.0,0.0,4565.267506292592,-0.0,578.647741965856,7757.619764326736,0.0,10944.805553404294,0.0,0.0,0.0,10944.805553404294,0.0,0.22332467570522058,0.76382189239332,0.0,0.0,0.0,"[1.2153519235612826, 1.4074810103772641, 0.7400115701037464, 0.8331239798931804, 0.571754702811198, 0.9144446037401153, 1.272361887890753, 0.732598800940341]",21.44,0.0,0.0,98.28214138086288,55.808179711715745,1.2433565654461827,-982.1947902828738,-114.97326703078853,4586.43434166447,0.0,0.0,0.0,0.0,0.0,0.0,-1.7,21.40088860343791,0.0,21.52953718331444,0.0,-1.7,21.44,20.72,22.34,21.17,21.92,-2.22,-1.7,1450.77,-685.5,-645.33,162.04,0.0,0.0,41.0,0.0,0.0,0.0,0.0,0.0,0.0,0.0,0.0,0.0,0.0,0.0,0.0,0.0,0.0
36.0,3335.0,53616.31247101091,34836.09978178664,-0.0,822.8688731307767,-16000.0,0.0,9631.170082321914,0.0,-76209.87174119403,0.0,85841.04182351594,0.6533333333333333,0.5345149853150962,0.76382189239332,0.0,0.0,0.0,"[1.2153519235612826, 1.4074810103772641, 0.7400115701037464, 0.8331239798931804, 0.571754702811198, 0.9144446037401153, 1.272361887890753, 0.732598800940341]",23.22,0.0,0.0,109.57469803834701,55.808179711715745,1.2433565654461827,-1027.6564790960224,-2507.326212183478,3362.40511338316,0.0,0.0,0.0,0.0,0.0,0.0,-1.0,22.011882294308887,0.0,21.66642606637042,0.0,-1.0,23.22,20.82,22.52,22.42,23.16,-1.8,-1.0,647.3,-717.23,-675.2,180.66,0.0,0.0,41.0,0.0,0.0,0.0,0.0,0.0,0.0,0.0,0.0,0.0,0.0,0.0,0.0,0.0,0.0
37.0,3077.0,2855.036378212227,0.0,-0.0,236.23880367883393,0.0,0.0,9309.237283533703,0.0,9309.237283533703,0.0,0.0,0.6533333333333333,0.4949348948238815,0.76382189239332,0.0,0.0,0.0,"[1.2153519235612826, 1.4074810103772641, 0.7400115701037464, 0.8331239798931804, 0.571754702811198, 0.9144446037401153, 1.272361887890753, 0.732598800940341]",23.22,0.0,0.0,78.42092959758726,62.61405528631523,1.394985414890837,-1014.9250125163923,-2303.4719052879577,0.0,0.0,0.0,0.0,0.0,0.0,0.0,-0.7,22.110743113314857,0.0,21.81249599061205,0.0,-0.7,23.22,20.93,22.7,22.37,23.14,-1.68,-0.7,898.48,-708.34,-666.83,129.3,0.0,0.0,46.0,0.0,0.0,0.0,0.0,0.0,0.0,0.0,0.0,0.0,0.0,0.0,0.0,0.0,0.0
38.0,5484.0,45733.96389214818,40021.5224556366,-0.0,0.2283829491556461,0.0,0.0,17474.039102947132,0.0,-80000.0,0.0,97474.0391029471,0.6533333333333333,0.8216015614905482,0.76382189239332,0.0,0.0,0.0,"[1.2153519235612826, 1.4074810103772641, 0.7400115701037464, 0.8331239798931804, 0.571754702811198, 0.9144446037401153, 1.272361887890753, 0.732598800940341]",21.68,0.0,0.0,19.03634067818519,55.808179711715745,1.2433565654461827,-975.0683599460712,-92.82240457989154,4162.501167905159,0.0,0.0,0.0,0.0,0.0,0.0,-1.3,21.64392065330351,0.0,21.778868435644128,0.0,-1.3,21.68,20.96,22.6,21.41,22.18,-2.38,-1.3,3256.55,-680.53,-640.65,31.39,0.0,0.0,41.0,0.0,0.0,0.0,0.0,0.0,0.0,0.0,0.0,0.0,0.0,0.0,0.0,0.0,0.0
39.0,3647.0,0.0,0.0,-0.0,0.0,3647.0,0.0,11144.5972069651,0.0,11144.5972069651,0.0,0.0,0.4982738095238095,0.7742180699643361,0.6768552875695724,0.0,0.0,0.0,"[1.2153519235612826, 1.4074810103772641, 0.7400115701037464, 0.8331239798931804, 0.571754702811198, 0.9144446037401153, 1.272361887890753, 0.732598800940341]",23.22,0.0,0.0,2.187856562986499,55.808179711715745,1.2433565654461827,-1065.8508788349134,-2189.901472898215,1332.0597779559164,0.0,0.0,0.0,0.0,0.0,0.0,-1.9,22.16660336946306,0.0,21.883718338362407,0.0,-1.9,23.22,21.04,22.72,22.49,23.22,-3.08,-1.9,463.86,-743.89,-700.29,3.61,0.0,0.0,41.0,0.0,0.0,0.0,0.0,0.0,0.0,0.0,0.0,0.0,0.0,0.0,0.0,0.0,0.0
40.0,2896.0,0.0,0.0,-0.0,0.0,2896.0,0.0,0.0,0.0,0.0,0.0,0.0,0.3751445578231293,0.7742180699643361,0.6768552875695715,0.0,0.0,0.0,"[1.2153519235612826, 1.4074810103772641, 0.7400115701037464, 0.8331239798931804, 0.571754702811198, 0.9144446037401153, 1.272361887890753, 0.732598800940341]",22.31,0.0,0.0,0.0,55.808179711715745,1.2433565654461827,-1035.9420393054338,-833.2518500318754,0.0,0.0,0.0,0.0,0.0,0.0,0.0,-2.1,21.91985033271722,0.0,21.904465973378443,0.0,-2.1,22.31,21.09,22.72,21.86,22.59,-3.33,-2.1,3253.92,-723.01,-680.64,0.0,0.0,0.0,41.0,0.0,0.0,0.0,0.0,0.0,0.0,0.0,0.0,0.0,0.0,0.0,0.0,0.0,0.0
41.0,4636.0,20038.776138083165,0.0,-0.0,0.0,-15302.582257392753,0.0,4158.514059025478,0.0,4158.514059025478,0.0,0.0,1.0,0.7565373129106563,0.6768552875695715,0.0,0.0,0.0,"[1.2153519235612826, 1.4074810103772641, 0.7400115701037464, 0.8331239798931804, 0.571754702811198, 0.9144446037401153, 1.272361887890753, 0.732598800940341]",21.43,0.0,0.0,0.0,55.808179711715745,1.2433565654461827,-1007.1079900292532,346.1567427632023,0.0,0.0,0.0,0.0,0.0,0.0,0.0,-2.3,21.6123890588515,0.0,21.819916886736955,0.0,-2.3,21.43,21.09,22.55,21.36,22.05,-3.51,-2.3,0.0,-702.89,-661.7,0.0,0.0,0.0,41.0,0.0,0.0,0.0,0.0,0.0,0.0,0.0,0.0,0.0,0.0,0.0,0.0,0.0,0.0
42.0,4963.0,4987.939698492462,0.0,-0.0,0.0,0.0,0.0,14.0178270717467,0.0,14.0178270717467,0.0,0.0,1.0,0.7564777133057594,0.6768552875695715,0.0,0.0,0.0,"[1.2153519235612826, 1.4074810103772641, 0.7400115701037464, 0.8331239798931804, 0.571754702811198, 0.9144446037401153, 1.272361887890753, 0.732598800940341]",21.14,0.0,0.0,0.0,55.808179711715745,1.2433565654461827,-1003.1571374822661,629.2782165026128,0.0,0.0,0.0,0.0,0.0,0.0,0.0,-2.5,21.45671050878049,0.0,21.705951920532794,0.0,-2.5,21.14,21.06,22.35,21.21,21.84,-3.85,-2.5,2367.12,-700.13,-659.1,0.0,0.0,0.0,41.0,0.0,0.0,0.0,0.0,0.0,0.0,0.0,0.0,0.0,0.0,0.0,0.0,0.0,0.0
43.0,8000.0,1793.388803952184,0.0,-0.0,0.0,6215.578140067577,0.0,0.0,0.0,0.0,0.0,0.0,0.7357322219359024,0.7564777133057594,0.6685064935064917,0.0,0.0,0.0,"[1.2153519235612826, 1.4074810103772641, 0.7400115701037464, 0.8331239798931804, 0.571754702811198, 0.9144446037401153, 1.272361887890753, 0.732598800940341]",20.98,0.0,0.0,0.0,55.808179711715745,1.2433565654461827,-1005.1184063269277,703.8120362228414,0.0,0.0,0.0,0.0,0.0,0.0,0.0,-2.7,21.339137206597222,0.0,21.589436076266892,0.0,-2.7,20.98,21.02,22.16,21.11,21.67,-4.08,-2.7,0.0,-701.5,-660.39,0.0,0.0,0.0,41.0,0.0,0.0,0.0,0.0,0.0,0.0,0.0,0.0,0.0,0.0,0.0,0.0,0.0,0.0
44.0,6423.0,6036.176934607104,0.0,-0.0,0.0,417.0039500659312,0.0,471.39156262427525,0.0,471.39156262427525,0.0,0.0,0.7180024621541876,0.7524692816507912,0.6685064935064917,0.0,0.0,0.0,"[1.2153519235612826, 0.8361951188405534, 0.6572531129192996, 0.37408488530625306, 0.34796872740012574, 0.9144446037401153, 0.6046423082858432, 0.37032170430147104]",20.87,0.0,0.0,0.0,55.808179711715745,1.2433565654461827,-1008.5742731916367,729.449704426026,55.11325268523686,0.0,0.0,0.0,0.0,0.0,0.0,-2.9,21.2330153210529,0.0,21.476142378522532,0.0,-2.9,20.87,20.97,21.98,21.02,21.52,-4.2,-2.9,0.0,-703.91,-662.66,0.0,0.0,0.0,41.0,0.0,0.0,0.0,0.0,0.0,0.0,0.0,0.0,0.0,0.0,0.0,0.0,0.0,0.0
45.0,6518.0,0.0,5428.401909866494,-0.0,0.0,11946.401909866494,0.0,12289.58155744834,0.0,0.0,0.0,12289.58155744834,0.21007721088435374,0.7524692816507912,0.6302411873840428,0.0,0.0,0.0,"[1.2153519235612826, 0.8361951188405534, 0.6572531129192996, 0.37408488530625306, 0.34796872740012574, 0.9144446037401153, 0.6046423082858432, 0.37032170430147104]",20.78,0.0,0.0,0.0,55.808179711715745,1.2433565654461827,-1013.6219958380354,707.7426703391243,5257.73943736965,0.0,0.0,0.0,0.0,0.0,0.0,-3.1,21.141490515827858,0.0,21.36972290031178,0.0,-3.1,20.78,20.93,21.81,20.95,21.4,-4.41,-3.1,0.0,-707.43,-665.98,0.0,0.0,0.0,41.0,0.0,0.0,0.0,0.0,0.0,0.0,0.0,0.0,0.0,0.0,0.0,0.0,0.0,0.0
46.0,4085.0,4105.527638190954,0.0,-0.0,0.0,0.0,0.0,10741.830051307377,0.0,10741.830051307377,0.0,0.0,0.21007721088435374,0.7067982355142802,0.6302411873840428,0.0,0.0,0.0,"[1.2153519235612826, 0.8361951188405534, 0.6572531129192996, 0.37408488530625306, 0.34796872740012574, 0.9144446037401153, 0.6046423082858432, 0.37032170430147104]",23.22,0.0,0.0,0.0,55.808179711715745,1.2433565654461827,-1125.2643895398548,-2628.5332479811673,0.0,0.0,0.0,0.0,0.0,0.0,0.0,-3.3,21.9546014352009,0.0,21.52765792338817,0.0,-3.3,23.22,21.0,22.06,22.52,22.95,-4.7,-3.3,203.14,-785.35,-739.33,0.0,0.0,0.0,41.0,0.0,0.0,0.0,0.0,0.0,0.0,0.0,0.0,0.0,0.0,0.0,0.0,0.0,0.0
47.0,1497.0,0.0,0.0,-0.0,0.0,4941.0160000000005,0.0,19690.822533844323,17220.08,33466.88653384432,0.0,0.0,0.0,0.5645070512717448,0.6302411873840428,13776.064000000002,3444.0160000000005,17220.08,"[1.2153519235612826, 0.8361951188405534, 0.6572531129192996, 0.37408488530625306, 0.34796872740012574, 0.9144446037401153, 0.6046423082858432, 0.37032170430147104]",21.42,0.0,0.0,0.0,57.169354826635654,1.2736823353351134,-1053.373978113888,-27.13114587374011,4718.951950529946,0.0,0.0,0.0,0.0,0.0,0.0,-3.4,21.42210984154375,0.0,21.514957652391285,0.0,-3.4,21.42,21.0,22.03,21.26,21.73,-4.79,-3.4,792.69,-735.18,-692.09,0.0,0.0,0.0,42.0,0.0,0.0,0.0,0.0,0.0,0.0,0.0,0.0,0.0,0.0,0.0,0.0,0.0,0.0
48.0,1389.0,1395.9798994974874,0.0,-0.0,0.0,0.0,0.0,9189.277999036709,0.0,9189.277999036707,0.0,0.0,0.0,0.525436991752031,0.6177179962894231,0.0,0.0,0.0,"[1.2153519235612826, 0.8361951188405534, 0.6572531129192996, 0.37408488530625306, 0.34796872740012574, 0.9144446037401153, 0.6046423082858432, 0.37032170430147104]",23.22,0.0,0.0,0.0,288.7124059540622,29.41599679226336,-1180.434078051586,-2448.939256185372,131.62167437323683,0.0,0.0,0.0,0.0,0.0,0.0,-4.6,22.04241781613184,0.0,21.66185206131528,0.0,-4.6,23.22,21.08,22.25,22.52,23.0,-5.94,-4.6,2851.85,-823.86,-775.58,0.0,80.0,0.0,170.0,0.0,0.0,0.0,0.0,0.0,0.0,0.0,0.0,0.0,0.0,0.0,0.0,0.0,0.0
49.0,3841.0,28992.72256640377,9006.758953571747,-0.0,0.0,-16000.0,0.0,18072.43739789443,0.0,0.0,0.0,18072.437397894428,0.6533333333333333,0.525436991752031,0.6177179962894231,0.0,0.0,0.0,"[1.2153519235612826, 0.8361951188405534, 0.6572531129192996, 0.37408488530625306, 0.34796872740012574, 0.9144446037401153, 0.6046423082858432, 0.37032170430147104]",21.67,0.0,0.0,0.0,222.01482532298726,27.930034067705726,-1165.8424771663174,-209.08493231769364,4307.881166399893,0.0,0.0,0.0,0.0,0.0,0.0,-5.8,21.585358592943102,0.0,21.651896340563788,0.0,-5.8,21.67,21.09,22.22,21.45,21.96,-7.13,-5.8,593.6,-813.67,-765.99,0.0,80.0,0.0,121.0,0.0,0.0,0.0,0.0,0.0,0.0,0.0,0.0,0.0,0.0,0.0,0.0,0.0,0.0
50.0,1671.0,12827.540109520049,0.0,-0.0,0.0,-7932.355763365494,0.0,2844.041981046257,0.0,0.0,0.0,0.0,0.9772378603374243,0.525436991752031,0.6177179962894231,12640.186582427814,3160.0466456069535,15800.233228034767,"[1.2153519235612826, 0.8361951188405534, 0.6572531129192996, 0.37408488530625306, 0.34796872740012574, 0.9144446037401153, 0.6046423082858432, 0.37032170430147104]",23.22,0.0,0.0,0.0,207.04189905886844,27.59645059892748,-1282.2858106886285,-2289.1257715136517,0.0,0.0,0.0,0.0,0.0,0.0,0.0,-7.0,22.121278400385034,0.0,21.78119019694357,0.0,-7.0,23.22,21.15,22.41,22.54,23.06,-8.4,-7.0,3092.48,-894.94,-842.5,0.0,80.0,0.0,110.0,0.0,0.0,0.0,0.0,0.0,0.0,0.0,0.0,0.0,0.0,0.0,0.0,0.0,0.0
51.0,780.0,0.0,5217.9611877598945,-0.0,0.0,5997.9611877598945,0.0,9574.657042163555,0.0,0.0,0.0,9574.657042163555,0.7222225037149799,0.525436991752031,0.6177179962894231,0.0,0.0,0.0,"[1.2153519235612826, 0.8361951188405534, 0.6572531129192996, 0.37408488530625306, 0.34796872740012574, 0.9144446037401153, 0.6046423082858432, 0.37032170430147104]",21.6,0.0,0.0,0.0,209.90753087975241,28.20296599670611,-1238.9969860798897,33.37393148066056,0.0,0.0,0.0,0.0,0.0,0.0,0.0,-7.6,21.627774463834008,0.0,21.749334470226096,0.0,-7.6,21.6,21.15,22.35,21.45,22.0,-9.03,-7.6,1577.47,-864.73,-814.05,0.0,80.0,1.0,112.0,0.0,0.0,0.0,0.0,0.0,0.0,0.0,0.0,0.0,0.0,0.0,0.0,0.0,0.0
52.0,1315.0,0.0,1699.643188435678,-0.0,0.0,3014.643188435678,0.0,3005.3244252476334,0.0,0.0,0.0,3005.3244252476334,0.5940488987644834,0.525436991752031,0.6177179962894231,0.0,0.0,0.0,"[1.2153519235612826, 0.8361951188405534, 0.6572531129192996, 0.37408488530625306, 0.34796872740012574, 0.9144446037401153, 0.6046423082858432, 0.37032170430147104]",21.13,0.0,0.0,0.0,1030.4812027898836,50.82599033384886,-1248.7450947737284,588.1178961917325,0.0,0.0,0.0,0.0,0.0,0.0,0.0,-8.3,21.42682805767062,0.0,21.6497675722304,0.0,-8.3,21.13,21.11,22.19,21.22,21.75,-9.77,-8.3,727.19,-871.53,-820.46,0.0,80.0,9.0,714.0,0.0,0.0,0.0,0.0,0.0,0.0,0.0,0.0,0.0,0.0,0.0,0.0,0.0,0.0
53.0,2275.0,2286.43216080402,0.0,-0.0,0.0,0.0,0.0,12096.319683667043,0.0,12096.319683667045,0.0,0.0,0.5940488987644834,0.4740070611241949,0.6177179962894231,0.0,0.0,0.0,"[1.2153519235612826, 0.8361951188405534, 0.6572531129192996, 0.37408488530625306, 0.34796872740012574, 0.9144446037401153, 0.6046423082858432, 0.37032170430147104]",21.33,0.0,0.0,0.0,2181.17566046585,93.82793203635345,-1282.8119521088065,171.1310846007349,0.0,0.0,0.0,0.0,0.0,0.0,0.0,-8.9,21.4276671326673,0.0,21.55846435979941,0.0,-8.9,21.33,21.06,22.05,21.28,21.74,-10.42,-8.9,2463.39,-895.31,-842.84,0.0,80.0,41.0,1556.0,0.0,0.0,0.0,0.0,0.0,0.0,0.0,0.0,0.0,0.0,0.0,0.0,0.0,0.0
54.0,2435.0,5596.456019996274,3133.4737398962925,-0.0,0.0,0.0,0.0,5212.040512143756,0.0,0.0,0.0,5212.040512143756,0.5940488987644834,0.4740070611241949,0.6177179962894231,0.0,0.0,0.0,"[1.2153519235612826, 0.8361951188405534, 0.6572531129192996, 0.37408488530625306, 0.34796872740012574, 0.9144446037401153, 0.6046423082858432, 0.37032170430147104]",21.89,0.0,0.0,0.0,757.9596166238159,118.27050256683205,-1327.8787878248615,-708.6966748048857,0.0,0.0,0.0,0.0,0.0,0.0,0.0,-9.4,21.563209756436237,0.0,21.51360638998579,0.0,-9.4,21.89,21.04,21.99,21.5,21.9,-10.93,-9.4,1900.77,-926.76,-872.45,0.0,147.0,109.0,468.0,0.0,0.0,0.0,0.0,0.0,0.0,0.0,0.0,0.0,0.0,0.0,0.0,0.0,0.0
55.0,1396.0,0.0,0.0,-0.0,0.0,1396.0,0.0,13370.370798844942,0.0,13370.370798844942,0.0,0.0,0.5346951572678847,0.4171602465032555,0.6177179962894231,0.0,0.0,0.0,"[1.2153519235612826, 0.8361951188405534, 0.6572531129192996, 0.37408488530625306, 0.34796872740012574, 0.9144446037401153, 0.6046423082858432, 0.37032170430147104]",21.32,0.0,0.0,0.0,322.31193905392706,94.64672782335458,-1325.062006483947,49.33503736154848,4763.0066694084335,0.0,0.0,0.0,0.0,0.0,0.0,-9.9,21.364680424903057,0.0,21.46407011307492,0.0,-9.9,21.32,21.01,21.92,21.26,21.68,-11.47,-9.9,627.37,-924.8,-870.6,0.0,108.0,104.0,169.0,0.0,0.0,0.0,0.0,0.0,0.0,0.0,0.0,0.0,0.0,0.0,0.0,0.0,0.0
56.0,1400.0,1407.035175879397,0.0,-0.0,0.0,0.0,0.0,3576.783267211177,0.0,3576.783267211177,0.0,0.0,0.4751713477440752,0.3867454228024802,0.6177179962894231,0.0,0.0,0.0,"[1.2153519235612826, 0.8361951188405534, 0.6572531129192996, 0.37408488530625306, 0.34796872740012574, 0.9144446037401153, 0.6046423082858432, 0.37032170430147104]",23.22,0.0,0.0,4.497684476132569,178.3139400545064,86.45876995334314,-1396.869009905301,-2509.4792777934567,0.0,0.0,0.0,0.0,0.0,0.0,0.0,-9.7,22.015878421312987,0.0,21.617414856121997,0.0,-9.7,23.22,21.07,22.16,22.55,22.99,-11.29,-9.7,3017.94,-974.91,-917.78,7.42,136.0,80.0,51.0,0.0,0.0,0.0,0.0,0.0,0.0,0.0,0.0,0.0,0.0,0.0,0.0,0.0,0.0
57.0,4467.0,0.0,0.0,-0.0,8193.69076151323,0.0,0.0,3354.0216853619054,0.0,0.0,0.0,0.0,0.4751713477440752,0.3867454228024802,0.6177179962894231,14906.763046052918,3726.6907615132295,18633.453807566148,"[1.2153519235612826, 0.8361951188405534, 0.6572531129192996, 0.37408488530625306, 0.34796872740012574, 0.9144446037401153, 0.6046423082858432, 0.37032170430147104]",21.45,0.0,0.0,876.7426782813076,268.7246240033964,73.66129506021413,-1220.016818903333,46.434384364581234,0.0,0.0,0.0,0.0,0.0,0.0,0.0,-7.3,21.486051714422413,0.0,21.598489340368786,0.0,-7.3,21.45,21.06,22.13,21.35,21.84,-7.63,-7.3,1459.52,-851.48,-801.58,1445.54,143.0,49.0,117.0,0.0,0.0,0.0,0.0,0.0,0.0,0.0,0.0,0.0,0.0,0.0,0.0,0.0,0.0
58.0,4218.0,0.0,0.0,-9908.929203394691,14126.929203394691,0.0,0.0,1714.3019682629579,0.0,1714.3019682629579,0.0,0.0,0.4751713477440752,0.37945672395782476,0.6618577718318177,0.0,0.0,0.0,"[1.2153519235612826, 0.8361951188405534, 0.6572531129192996, 0.37408488530625306, 0.34796872740012574, 0.9144446037401153, 0.6046423082858432, 0.37032170430147104]",21.49,0.0,0.0,1210.7105972776037,533.2224410709889,64.19965485486756,-1132.5852075166858,11.589864088507666,0.0,0.0,0.0,0.0,0.0,0.0,0.0,-5.2,21.507521904487493,0.0,21.6175604047013,0.0,-5.2,21.49,21.05,22.18,21.52,22.3,-4.94,-5.2,884.11,-790.46,-744.14,1996.17,150.0,17.0,311.0,0.0,0.0,0.0,0.0,0.0,0.0,0.0,0.0,0.0,0.0,0.0,0.0,0.0,0.0
59.0,6373.0,0.0,11362.330774866306,-0.0,17735.330774866306,0.0,0.0,8852.410313002449,0.0,-16546.274235054407,0.0,25398.684548056855,0.4751713477440752,0.44702067708429694,0.6618577718318177,0.0,0.0,0.0,"[1.2153519235612826, 0.8361951188405534, 0.6572531129192996, 0.37408488530625306, 0.34796872740012574, 0.9144446037401153, 0.6046423082858432, 0.37032170430147104]",21.85,0.0,0.0,1498.455995577611,1827.1984897911552,72.02370348621184,-1071.4281602380408,-423.4750157786835,851.9959799960816,0.0,0.0,0.0,0.0,0.0,0.0,-3.4,21.6542521122518,0.0,21.686293722488024,0.0,-3.4,21.85,21.07,22.3,21.75,22.65,-2.59,-3.4,0.0,-747.78,-703.96,2470.6,109.0,0.0,1285.0,0.0,0.0,0.0,0.0,0.0,0.0,0.0,0.0,0.0,0.0,0.0,0.0,0.0,0.0
60.0,5369.0,0.0,0.0,-0.0,18299.030672620345,0.0,0.0,7793.723340920809,0.0,-3843.304264437498,0.0,0.0,0.4751713477440752,0.4627141694974167,0.6618577718318177,51720.12269048138,12930.030672620345,64650.15336310172,"[1.2153519235612826, 0.8361951188405534, 0.6572531129192996, 0.37408488530625306, 0.34796872740012574, 0.9144446037401153, 0.6046423082858432, 0.37032170430147104]",23.22,0.0,0.0,1544.3277925280968,769.4221439073519,52.76683960674047,-1087.0699898009639,-2169.660005865739,0.0,0.0,0.0,0.0,0.0,0.0,0.0,-2.4,22.175575450380798,0.0,21.876976535408314,0.0,-2.4,23.22,21.14,22.61,22.51,23.52,-1.48,-2.4,194.26,-758.69,-714.23,2546.23,124.0,0.0,500.0,0.0,0.0,0.0,0.0,0.0,0.0,0.0,0.0,0.0,0.0,0.0,0.0,0.0,0.0
61.0,6009.0,0.0,0.0,-10163.028673492534,16172.028673492534,0.0,0.0,3465.2740406551484,0.0,3465.2740406551484,0.0,0.0,0.4751713477440752,0.44798086150143396,0.6925190554033493,0.0,0.0,0.0,"[1.2153519235612826, 0.8361951188405534, 0.6572531129192996, 0.37408488530625306, 0.34796872740012574, 0.9144446037401153, 0.6046423082858432, 0.37032170430147104]",22.82,0.0,0.0,1393.5167646643454,610.3079370527681,44.91246520550725,-1057.4182849997544,-1362.16020536553,0.0,0.0,0.0,0.0,0.0,0.0,0.0,-2.1,22.16846211147144,0.0,22.048780877064836,0.0,-2.1,22.82,21.22,22.87,22.33,23.46,-1.36,-2.1,0.0,-738.0,-694.75,2297.58,109.0,0.0,391.0,0.0,0.0,0.0,0.0,0.0,0.0,0.0,0.0,0.0,0.0,0.0,0.0,0.0,0.0
62.0,5583.0,0.0,3456.8681444236317,-0.0,9039.868144423632,0.0,0.0,5352.010544280323,0.0,-2573.001076342616,0.0,7925.0116206229395,0.4751713477440752,0.4584872825631663,0.6925190554033493,0.0,0.0,0.0,"[1.2153519235612826, 0.8361951188405534, 0.6572531129192996, 0.37408488530625306, 0.34796872740012574, 0.9144446037401153, 0.6046423082858432, 0.37032170430147104]",22.67,0.0,0.0,793.0813815208235,723.8585979552963,65.9888752783145,-1080.8147098951067,-990.303028060819,0.0,0.0,0.0,0.0,0.0,0.0,0.0,-2.8,22.201028255748675,0.0,22.165845838683342,0.0,-2.8,22.67,21.29,23.04,22.29,23.43,-3.02,-2.8,932.82,-754.33,-710.12,1307.6,166.0,4.0,444.0,0.0,0.0,0.0,0.0,0.0,0.0,0.0,0.0,0.0,0.0,0.0,0.0,0.0,0.0
63.0,3114.0,92.03005131593085,0.0,-0.0,0.0,3022.430098940649,0.0,8192.477039653773,0.0,8192.477039653773,0.0,0.0,0.3466666666666667,0.4236553223605567,0.6925190554033493,0.0,0.0,0.0,"[1.2153519235612826, 0.8361951188405534, 0.6572531129192996, 0.37408488530625306, 0.34796872740012574, 0.9144446037401153, 0.6046423082858432, 0.37032170430147104]",22.45,0.0,0.0,15.239618670329206,461.581645548889,58.134500877081294,-1139.424251470438,-627.0704028946689,0.0,0.0,0.0,0.0,0.0,0.0,0.0,-4.4,22.159867379535008,0.0,22.196626532137646,0.0,-4.4,22.45,21.33,23.06,22.13,23.09,-6.09,-4.4,0.0,-795.23,-748.63,25.13,108.0,31.0,279.0,0.0,0.0,0.0,0.0,0.0,0.0,0.0,0.0,0.0,0.0,0.0,0.0,0.0,0.0
64.0,3901.0,20001.00502512563,0.0,-0.0,0.0,-16000.0,0.0,2069.9519429917855,0.0,2069.9519429917855,0.0,0.0,1.0,0.41485450627640796,0.6806915971473196,0.0,0.0,0.0,"[1.2153519235612826, 0.8361951188405534, 0.6572531129192996, 0.37408488530625306, 0.34796872740012574, 0.9144446037401153, 0.6046423082858432, 0.37032170430147104]",21.85,0.0,0.0,0.0,500.6258791084333,77.39136475655269,-1143.7172484090847,144.31393023873926,0.0,0.0,0.0,0.0,0.0,0.0,0.0,-5.1,21.935462950552168,0.0,22.113327454742404,0.0,-5.1,21.85,21.33,22.9,21.7,22.44,-6.87,-5.1,0.0,-798.23,-751.45,0.0,138.0,49.0,290.0,0.0,0.0,0.0,0.0,0.0,0.0,0.0,0.0,0.0,0.0,0.0,0.0,0.0,0.0
65.0,3259.0,1468.7281314416878,0.0,-0.0,0.0,1797.6155092155207,0.0,10825.641279724343,0.0,10825.641279724343,0.0,0.0,0.9235707691660068,0.36882711988302214,0.6806915971473196,0.0,0.0,0.0,"[1.2153519235612826, 0.8361951188405534, 0.6572531129192996, 0.37408488530625306, 0.34796872740012574, 0.9144446037401153, 0.6046423082858432, 0.37032170430147104]",21.64,0.0,0.0,0.0,428.41195722215673,90.37079426901526,-1168.89854197008,318.6179271466262,3436.81727651511,0.0,0.0,0.0,0.0,0.0,0.0,-5.9,21.813699758664853,0.0,22.01267820136621,0.0,-5.9,21.64,21.3,22.72,21.59,22.27,-7.62,-5.9,0.0,-815.81,-768.0,0.0,117.0,87.0,244.0,0.0,0.0,0.0,0.0,0.0,0.0,0.0,0.0,0.0,0.0,0.0,0.0,0.0,0.0
66.0,7532.0,0.0,1.1359029855208775,-0.0,0.0,7533.135902985521,0.0,2.181776498734735,0.0,0.0,0.0,2.181776498734735,0.6032843787329489,0.36882711988302214,0.6806915971473196,0.0,0.0,0.0,"[1.2153519235612826, 0.8361951188405534, 0.6572531129192996, 0.37408488530625306, 0.34796872740012574, 0.9144446037401153, 0.6046423082858432, 0.37032170430147104]",23.15,0.0,0.0,0.0,1410.6789046256672,97.31539557358053,-1266.6954317307966,-1779.2182306362256,0.0,0.0,0.0,0.0,0.0,0.0,0.0,-6.7,22.301304920518664,0.0,22.08230812410075,0.0,-6.7,23.15,21.35,22.81,22.59,23.22,-8.36,-6.7,0.0,-884.06,-832.25,0.0,82.0,78.0,985.0,0.0,0.0,0.0,0.0,0.0,0.0,0.0,0.0,0.0,0.0,0.0,0.0,0.0,0.0
67.0,4931.0,5015.862739339075,59.78342564238047,-0.0,0.0,0.0,0.0,110.83899646361974,0.0,0.0,0.0,110.83899646361974,0.6032843787329489,0.36882711988302214,0.6806915971473196,0.0,0.0,0.0,"[1.2153519235612826, 0.8361951188405534, 0.6572531129192996, 0.37408488530625306, 0.34796872740012574, 0.9144446037401153, 0.6046423082858432, 0.37032170430147104]",22.4,0.0,0.0,0.0,964.5716709095516,104.19934533836793,-1264.6149819067366,-706.9211987506906,0.0,0.0,0.0,0.0,0.0,0.0,0.0,-7.4,22.072631166346746,0.0,22.063411981304185,0.0,-7.4,22.4,21.37,22.76,21.94,22.55,-9.08,-7.4,0.0,-882.61,-830.89,0.0,133.0,82.0,630.0,0.0,0.0,0.0,0.0,0.0,0.0,0.0,0.0,0.0,0.0,0.0,0.0,0.0,0.0
68.0,8003.0,8043.21608040201,0.0,-0.0,0.0,0.0,0.0,305.82504120704624,0.0,305.82504120704624,0.0,0.0,0.6032843787329489,0.36752684334727787,0.6806915971473196,0.0,0.0,0.0,"[0.04202201038131648, 0.8361951188405499, 0.6572531129192996, 0.23295350352031008, 0.20688296502580172, 0.8606311594657186, 0.4828738319743273, 0.23131071710898254]",21.96,0.0,0.0,0.0,1397.7119206361672,112.50860628793515,-1279.8509629468547,-139.25238015431754,0.0,0.0,0.0,0.0,0.0,0.0,0.0,-8.2,21.907304599772466,0.0,22.003834874620857,0.0,-8.2,21.96,21.35,22.65,21.75,22.34,-9.85,-8.2,0.0,-893.24,-840.9,0.0,151.0,70.0,940.0,0.0,0.0,0.0,0.0,0.0,0.0,0.0,0.0,0.0,0.0,0.0,0.0,0.0,0.0
69.0,6972.0,2807.157167195708,1500.3194436029912,-0.0,0.0,5679.198062243262,0.0,2567.060346602096,0.0,0.0,0.0,2567.060346602096,0.36182187608655175,0.36752684334727787,0.6806915971473196,0.0,0.0,0.0,"[0.04202201038131648, 0.8361951188405499, 0.6572531129192996, 0.23295350352031008, 0.20688296502580172, 0.8606311594657186, 0.4828738319743273, 0.23131071710898254]",22.0,0.0,0.0,0.0,1318.763763970813,104.68455765659084,-1311.3018937625866,-280.7139490836656,89.85547886228565,0.0,0.0,0.0,0.0,0.0,0.0,-8.9,21.880125843825752,0.0,21.940518453638035,0.0,-8.9,22.0,21.33,22.55,21.75,22.29,-10.51,-8.9,0.0,-915.19,-861.56,0.0,162.0,53.0,878.0,0.0,0.0,0.0,0.0,0.0,0.0,0.0,0.0,0.0,0.0,0.0,0.0,0.0,0.0
70.0,3458.0,0.0,5052.050525555697,-0.0,0.0,8510.050525555698,0.0,8258.802861535707,0.0,0.0,0.0,8258.802861535707,0.0,0.36752684334727787,0.6765172001157794,0.0,0.0,0.0,"[0.04202201038131648, 0.8361951188405499, 0.6572531129192996, 0.23295350352031008, 0.20688296502580172, 0.8606311594657186, 0.4828738319743273, 0.23131071710898254]",21.96,0.0,0.0,0.0,945.7301416872392,75.1775835546607,-1343.5082958450062,-293.37294367990694,620.2673352401683,0.0,0.0,0.0,0.0,0.0,0.0,-9.7,21.833290261381524,0.0,21.885070777217635,0.0,-9.7,21.96,21.31,22.46,21.72,22.23,-11.32,-9.7,1979.62,-937.67,-882.72,0.0,92.0,51.0,641.0,0.0,0.0,0.0,0.0,0.0,0.0,0.0,0.0,0.0,0.0,0.0,0.0,0.0,0.0
71.0,1765.0,17115.063211464134,0.0,-0.0,0.0,0.0,0.0,13738.039105866123,0.0,0.0,0.0,0.0,0.0,0.36752684334727787,0.6632982761825698,61057.95158162724,15264.48789540681,76322.43947703404,"[0.04202201038131648, 0.8361951188405499, 0.6572531129192996, 0.23295350352031008, 0.20688296502580172, 0.8606311594657186, 0.4828738319743273, 0.23131071710898254]",21.96,0.0,0.0,0.0,502.6318213830522,56.52723507296795,-1373.215051197477,-346.18261263986136,1163.4672004689112,0.0,0.0,0.0,0.0,0.0,0.0,-10.4,21.808028021702423,0.0,21.845497694920986,0.0,-10.4,21.96,21.29,22.4,21.75,22.25,-12.01,-10.4,105.6,-958.4,-902.24,0.0,103.0,29.0,312.0,0.0,0.0,0.0,0.0,0.0,0.0,0.0,0.0,0.0,0.0,0.0,0.0,0.0,0.0
72.0,2020.0,18110.552763819094,0.0,-0.0,0.0,-16000.0,0.0,7878.538096543887,0.0,7878.538096543887,0.0,0.0,0.6533333333333333,0.3340296575626525,0.6632982761825698,0.0,0.0,0.0,"[0.04202201038131648, 0.8361951188405499, 0.6572531129192996, 0.23295350352031008, 0.20688296502580172, 0.8606311594657186, 0.4828738319743273, 0.23131071710898254]",21.96,0.0,0.0,0.0,158.68436208145107,44.427252887284354,-1394.4341621635274,-378.18957945036954,1745.235303765708,0.0,0.0,0.0,0.0,0.0,0.0,-10.9,21.792798494173187,0.0,21.82232086899552,0.0,-10.9,21.96,21.28,22.36,21.79,22.29,-12.58,-10.9,1127.83,-973.21,-916.18,0.0,80.0,33.0,71.0,0.0,0.0,0.0,0.0,0.0,0.0,0.0,0.0,0.0,0.0,0.0,0.0,0.0,0.0
73.0,1157.0,0.0,106.22332297916023,-0.0,0.0,1263.2233229791602,0.0,10964.949722280531,0.0,10809.529789084112,0.0,155.41993319641946,0.5996248587168724,0.28807077240498197,0.6632982761825698,0.0,0.0,0.0,"[0.04202201038131648, 0.8361951188405499, 0.6572531129192996, 0.23295350352031008, 0.20688296502580172, 0.8606311594657186, 0.4828738319743273, 0.23131071710898254]",22.04,0.0,0.0,0.0,190.34959370221912,51.64478612085,-1423.4637741279787,-506.79858293611585,1518.0320227070995,0.0,0.0,0.0,0.0,0.0,0.0,-11.5,21.81481037133279,0.0,21.819288574899147,0.0,-11.5,22.04,21.27,22.37,21.87,22.38,-13.21,-11.5,2440.87,-993.47,-935.25,0.0,80.0,45.0,93.0,0.0,0.0,0.0,0.0,0.0,0.0,0.0,0.0,0.0,0.0,0.0,0.0,0.0,0.0
74.0,988.0,0.0,9942.872177277772,-0.0,0.0,10930.872177277772,0.0,13884.326698576011,0.0,0.0,0.0,13884.32669857601,0.1348768919958788,0.28807077240498197,0.6632982761825698,0.0,0.0,0.0,"[0.04202201038131648, 0.8361951188405499, 0.6572531129192996, 0.23295350352031008, 0.20688296502580172, 0.8606311594657186, 0.4828738319743273, 0.23131071710898254]",21.96,0.0,0.0,0.0,340.86690509415087,42.516729384281675,-1449.6038506752589,-400.58304296409136,1469.2316322879535,0.0,0.0,0.0,0.0,0.0,0.0,-12.2,21.782666064389236,0.0,21.80867983016839,0.0,-12.2,21.96,21.26,22.35,21.81,22.32,-13.96,-12.2,2553.71,-1011.72,-952.43,0.0,80.0,22.0,206.0,0.0,0.0,0.0,0.0,0.0,0.0,0.0,0.0,0.0,0.0,0.0,0.0,0.0,0.0
75.0,852.0,0.0,0.0,-0.0,0.0,852.0,0.0,6249.886270259103,0.0,6249.886270259103,0.0,0.0,0.09865240219996044,0.261498126698098,0.6632982761825698,0.0,0.0,0.0,"[0.04202201038131648, 0.8361951188405499, 0.6572531129192996, 0.23295350352031008, 0.20688296502580172, 0.8606311594657186, 0.4828738319743273, 0.23131071710898254]",21.96,0.0,0.0,0.0,133.46680205767194,30.841307977043126,-1466.579139448099,-422.68046001946163,1726.713012592752,0.0,0.0,0.0,0.0,0.0,0.0,-12.6,21.77214981193165,0.0,21.793609413669074,0.0,-12.6,21.96,21.25,22.34,21.8,22.3,-14.35,-12.6,838.34,-1023.56,-963.58,0.0,80.0,9.0,55.0,0.0,0.0,0.0,0.0,0.0,0.0,0.0,0.0,0.0,0.0,0.0,0.0,0.0,0.0
76.0,614.0,0.0,0.0,-0.0,0.0,614.0,0.0,14215.606185024939,0.0,14215.606185024935,0.0,0.0,0.07254696002308969,0.2010576242107471,0.6632982761825698,0.0,0.0,0.0,"[0.04202201038131648, 0.8361951188405499, 0.6572531129192996, 0.23295350352031008, 0.20688296502580172, 0.8606311594657186, 0.4828738319743273, 0.23131071710898254]",21.96,0.0,0.0,0.0,86.25551780860815,41.72825936716947,-1483.5544282209396,-436.274453835409,1794.2284439838527,0.0,0.0,0.0,0.0,0.0,0.0,-13.0,21.76576018693396,0.0,21.785189155453295,0.0,-13.0,21.96,21.24,22.33,21.81,22.32,-14.74,-13.0,1226.21,-1035.41,-974.73,0.0,80.0,31.0,18.0,0.0,0.0,0.0,0.0,0.0,0.0,0.0,0.0,0.0,0.0,0.0,0.0,0.0,0.0
77.0,2054.0,18144.72361809045,0.0,-0.0,0.0,-16000.0,0.0,9210.559112351411,0.0,9210.559112351413,0.0,0.0,0.725880293356423,0.16189708376707612,0.6632982761825698,0.0,0.0,0.0,"[0.04202201038131648, 0.8361951188405499, 0.6572531129192996, 0.23295350352031008, 0.20688296502580172, 0.8606311594657186, 0.4828738319743273, 0.23131071710898254]",21.96,0.0,0.0,0.0,651.3581128869314,60.28763053919542,-1500.5297169937799,-446.3977338128982,1238.7250781198852,0.0,0.0,0.0,0.0,0.0,0.0,-13.4,21.76107187066913,0.0,21.779496473060075,0.0,-13.4,21.96,21.23,22.33,21.82,22.33,-15.16,-13.4,28.88,-1047.26,-985.89,0.0,80.0,42.0,432.0,0.0,0.0,0.0,0.0,0.0,0.0,0.0,0.0,0.0,0.0,0.0,0.0,0.0,0.0
78.0,3311.0,0.0,0.0,-0.0,0.0,3311.0,0.0,7336.112056083266,0.0,7336.112056083266,0.0,0.0,0.5851064838326134,0.1307061311476745,0.6632982761825698,0.0,0.0,0.0,"[0.04202201038131648, 0.8361951188405499, 0.6572531129192996, 0.23295350352031008, 0.20688296502580172, 0.8606311594657186, 0.4828738319743273, 0.23131071710898254]",21.96,0.0,0.0,0.0,307.3390127898081,91.88708276346185,-1517.5050057666201,-473.82011738446124,1597.3472234429814,0.0,0.0,0.0,0.0,0.0,0.0,-13.8,21.74797175942387,0.0,21.760504715831985,0.0,-13.8,21.96,21.21,22.31,21.76,22.26,-15.55,-13.8,3035.1,-1059.11,-997.04,0.0,160.0,72.0,134.0,0.0,0.0,0.0,0.0,0.0,0.0,0.0,0.0,0.0,0.0,0.0,0.0,0.0,0.0
79.0,1112.0,0.0,11639.704499743068,-0.0,0.0,12751.704499743068,0.0,14145.46779127348,0.0,0.0,0.0,14145.467791273482,0.0429421768707483,0.1307061311476745,0.6632982761825698,0.0,0.0,0.0,"[0.04202201038131648, 0.8361951188405499, 0.6572531129192996, 0.23295350352031008, 0.20688296502580172, 0.8606311594657186, 0.4828738319743273, 0.23131071710898254]",21.96,0.0,0.0,0.0,175.16174505153398,99.92341178402863,-1530.2364723462508,-484.0766662698999,1744.93517825249,0.0,0.0,0.0,0.0,0.0,0.0,-14.1,21.743171543770423,0.0,21.754743903758488,0.0,-14.1,21.96,21.2,22.31,21.8,22.31,-15.89,-14.1,1119.76,-1067.99,-1005.41,0.0,117.0,115.0,55.0,0.0,0.0,0.0,0.0,0.0,0.0,0.0,0.0,0.0,0.0,0.0,0.0,0.0,0.0
80.0,1010.0,31089.01062615089,0.0,-0.0,0.0,-15174.370316961022,0.0,13274.275730453199,0.0,0.0,0.0,0.0,0.6196201212759084,0.07426788399438708,0.6632982761825698,58996.781024236465,14749.195256059116,73745.97628029558,"[0.04202201038131648, 0.8361951188405499, 0.6572531129192996, 0.23295350352031008, 0.20688296502580172, 0.8606311594657186, 0.4828738319743273, 0.23131071710898254]",21.96,0.0,0.0,3.342565576086533,117.92074942937627,84.73020106967404,-1534.4802945394608,-488.4233932675353,1821.5625852373382,0.0,0.0,0.0,0.0,0.0,0.0,-14.2,21.741097989479545,0.0,21.75328400487313,0.0,-14.2,21.96,21.19,22.32,21.81,22.33,-15.95,-14.2,1570.12,-1070.95,-1008.19,5.51,95.0,101.0,26.0,0.0,0.0,0.0,0.0,0.0,0.0,0.0,0.0,0.0,0.0,0.0,0.0,0.0,0.0
81.0,2474.0,0.0,3821.251238731135,-1687.0231088504156,7982.2743475815505,0.0,0.0,4861.743652873105,0.0,-583.5774874656444,0.0,5445.3211403387495,0.6196201212759084,0.07665082540153846,0.6708131973038125,0.0,0.0,0.0,"[0.04202201038131648, 0.8361951188405499, 0.6572531129192996, 0.23295350352031008, 0.20688296502580172, 0.8606311594657186, 0.4828738319743273, 0.23131071710898254]",21.96,0.0,0.0,825.365759326723,344.73550805234424,68.7788461080962,-1436.8723840956286,-487.7991923485344,824.5947179507177,0.0,0.0,0.0,0.0,0.0,0.0,-11.9,21.739489202181236,0.0,21.75245698869111,0.0,-11.9,21.96,21.18,22.33,21.81,22.34,-12.35,-11.9,646.88,-1002.83,-944.06,1360.83,122.0,48.0,184.0,0.0,0.0,0.0,0.0,0.0,0.0,0.0,0.0,0.0,0.0,0.0,0.0,0.0,0.0
82.0,5100.0,0.0,9184.907202560413,-0.0,14284.907202560413,0.0,0.0,11156.707058868054,0.0,-3595.5655867476016,0.0,14752.272645615656,0.6196201212759084,0.09133271821409117,0.6708131973038125,0.0,0.0,0.0,"[0.04202201038131648, 0.8361951188405499, 0.6572531129192996, 0.23295350352031008, 0.20688296502580172, 0.8606311594657186, 0.4828738319743273, 0.23131071710898254]",22.04,0.0,0.0,1185.6710301131186,447.5400496265575,51.34152842196069,-1359.8064412298272,-535.9827054071021,74.50866731838725,0.0,0.0,0.0,0.0,0.0,0.0,-10.0,21.79876674263393,0.0,21.810735261948075,0.0,-10.0,22.04,21.19,22.43,21.91,22.71,-9.67,-10.0,203.12,-949.04,-893.43,1954.89,144.0,0.0,253.0,0.0,0.0,0.0,0.0,0.0,0.0,0.0,0.0,0.0,0.0,0.0,0.0,0.0,0.0
83.0,7720.0,0.0,0.0,-7541.411757219738,17246.0926697521,0.0,0.0,1786.2128212791238,0.0,0.0,0.0,0.0,0.6196201212759084,0.09133271821409117,0.7044067587677914,7938.723650129443,1984.6809125323607,9923.404562661803,"[0.04202201038131648, 0.8361951188405499, 0.6572531129192996, 0.23295350352031008, 0.20688296502580172, 0.8606311594657186, 0.4828738319743273, 0.23131071710898254]",22.0,0.0,0.0,1410.9249737770674,618.6899101288537,52.281627288517555,-1294.4049328684157,-390.15179851868743,-375.03852941354,0.0,0.0,0.0,0.0,0.0,0.0,-8.5,21.827356165271013,0.0,21.87823999226022,0.0,-8.5,22.0,21.2,22.56,21.9,22.85,-7.67,-8.5,1426.86,-903.4,-850.46,2326.28,134.0,0.0,384.0,0.0,0.0,0.0,0.0,0.0,0.0,0.0,0.0,0.0,0.0,0.0,0.0,0.0,0.0
84.0,8140.0,0.0,11215.153013193452,-0.0,19355.153013193452,0.0,0.0,2547.883841543515,0.0,-18138.190898063316,0.0,20686.074739606833,0.6196201212759084,0.16539699771451638,0.7044067587677914,0.0,0.0,0.0,"[0.04202201038131648, 0.8361951188405499, 0.6572531129192996, 0.23295350352031008, 0.20688296502580172, 0.8606311594657186, 0.4828738319743273, 0.23131071710898254]",22.04,0.0,0.0,1574.6874360205782,4414.004334503135,139.71082187830652,-1253.7108863995747,-345.86686281447135,-4593.950038438398,0.0,0.0,0.0,0.0,0.0,0.0,-7.5,21.889264131862774,0.0,21.959730333489127,0.0,-7.5,22.04,21.22,22.7,21.97,23.05,-6.35,-7.5,0.0,-875.0,-823.72,2596.29,144.0,0.0,3167.0,0.0,0.0,0.0,0.0,0.0,0.0,0.0,0.0,0.0,0.0,0.0,0.0,0.0,0.0
85.0,4142.0,0.0,0.0,-0.0,17128.043386217505,-2443.3907921511072,0.0,9488.387334659752,0.0,0.0,0.0,0.0,0.719391911955412,0.16539699771451638,0.7044067587677914,42170.61037626559,10542.652594066398,52713.26297033198,"[0.04202201038131648, 0.8361951188405499, 0.6572531129192996, 0.23295350352031008, 0.20688296502580172, 0.8606311594657186, 0.4828738319743273, 0.23131071710898254]",22.04,0.0,0.0,1465.021972407105,49.00230413711627,1.091727716001525,-1240.9794198199447,-221.96237028721498,-122.2822802549355,0.0,0.0,0.0,0.0,0.0,0.0,-7.2,21.949318568092643,0.0,22.056543103068606,0.0,-7.2,22.04,21.25,22.86,22.07,23.26,-6.21,-7.2,0.0,-866.11,-815.36,2415.47,0.0,0.0,36.0,0.0,0.0,0.0,0.0,0.0,0.0,0.0,0.0,0.0,0.0,0.0,0.0,0.0,0.0
86.0,3906.0,0.0,0.0,-0.0,14218.104809255217,-6872.034809255218,0.0,3982.857354165371,17200.35,17743.13735416537,0.0,0.0,1.0,0.08995848855565003,0.7044067587677914,13760.279999999999,3440.0699999999997,17200.35,"[0.04202201038131648, 0.8361951188405499, 0.6572531129192996, 0.23295350352031008, 0.20688296502580172, 0.8606311594657186, 0.4828738319743273, 0.23131071710898254]",22.04,0.0,0.0,1359.7562964495705,73.50345620567438,1.6375915740022873,-1262.198530785995,-142.2770785030718,-99.63962912328492,0.0,0.0,0.0,0.0,0.0,0.0,-7.7,21.988463772162756,0.0,22.118748349248577,0.0,-7.7,22.04,21.28,22.96,22.03,23.2,-7.1,-7.7,0.0,-880.92,-829.3,2241.92,0.0,0.0,54.0,0.0,0.0,0.0,0.0,0.0,0.0,0.0,0.0,0.0,0.0,0.0,0.0,0.0,0.0
87.0,5219.0,11026.72177489883,0.0,-0.0,0.7715098418505906,0.0,0.0,5178.023708279566,0.0,0.0,0.0,0.0,1.0,0.08995848855565003,0.7044067587677914,23013.43870346474,5753.359675866185,28766.798379330925,"[0.04202201038131648, 0.8361951188405499, 0.6572531129192996, 0.23295350352031008, 0.20688296502580172, 0.8606311594657186, 0.4828738319743273, 0.23131071710898254]",22.04,0.0,0.0,23.43527584983445,73.50345620567438,1.6375915740022873,-1334.3435080705665,-91.11001685685947,1325.6573111986984,0.0,0.0,0.0,0.0,0.0,0.0,-9.4,22.015314696056887,0.0,22.160382161459403,0.0,-9.4,22.04,21.3,23.02,22.04,23.17,-10.91,-9.4,0.0,-931.27,-876.7,38.64,0.0,0.0,54.0,0.0,0.0,0.0,0.0,0.0,0.0,0.0,0.0,0.0,0.0,0.0,0.0,0.0,0.0
88.0,3380.0,3396.9849246231156,0.0,-0.0,0.0,0.0,0.0,3067.3059329856887,0.0,3067.3059329856887,0.0,0.0,1.0,0.0769172218337721,0.7044067587677914,0.0,0.0,0.0,"[0.04202201038131648, 0.8361951188405499, 0.6572531129192996, 0.23295350352031008, 0.20688296502580172, 0.8606311594657186, 0.4828738319743273, 0.23131071710898254]",22.04,0.0,0.0,0.0,109.1805723756801,41.72825936716947,-1325.8558636841465,-159.89700551386107,1337.2273765584393,0.0,0.0,0.0,0.0,0.0,0.0,-9.2,21.981898474838633,0.0,22.103249031378425,0.0,-9.2,22.04,21.29,22.91,21.88,22.64,-10.84,-9.2,0.0,-925.35,-871.12,0.0,116.0,11.0,18.0,0.0,0.0,0.0,0.0,0.0,0.0,0.0,0.0,0.0,0.0,0.0,0.0,0.0,0.0
89.0,3793.0,3812.0603015075376,0.0,-0.0,0.0,0.0,0.0,5972.478320877645,0.0,5972.478320877646,0.0,0.0,1.0,0.05152403169398619,0.6939707661889416,0.0,0.0,0.0,"[0.04202201038131648, 0.8361951188405499, 0.6572531129192996, 0.23295350352031008, 0.20688296502580172, 0.8606311594657186, 0.4828738319743273, 0.23131071710898254]",22.04,0.0,0.0,0.0,174.37369630079093,102.6830568439214,-1317.3682192977262,-217.23038479339695,1263.4066665014427,0.0,0.0,0.0,0.0,0.0,0.0,-9.0,21.953917099281075,0.0,22.05542073440487,0.0,-9.0,22.04,21.29,22.82,21.88,22.59,-10.54,-9.0,0.0,-919.43,-865.55,0.0,155.0,100.0,36.0,0.0,0.0,0.0,0.0,0.0,0.0,0.0,0.0,0.0,0.0,0.0,0.0,0.0,0.0
90.0,7295.0,10715.029758209766,3366.454609418718,-0.0,0.0,0.0,0.0,5792.128198395443,0.0,0.0,0.0,5792.128198395443,1.0,0.05152403169398619,0.643878001810463,0.0,0.0,0.0,"[0.04202201038131648, 0.8361951188405499, 0.6572531129192996, 0.23295350352031008, 0.20688296502580172, 0.8606311594657186, 0.4828738319743273, 0.23131071710898254]",22.04,0.0,0.0,0.0,282.19309356155117,135.28325947452254,-1308.880574911306,-262.48386664675695,1161.6148877514677,0.0,0.0,0.0,0.0,0.0,0.0,-8.8,21.931829835758077,0.0,22.0174560856886,0.0,-8.8,22.04,21.29,22.74,21.89,22.56,-10.3,-8.8,149.07,-913.5,-859.97,0.0,143.0,162.0,115.0,0.0,0.0,0.0,0.0,0.0,0.0,0.0,0.0,0.0,0.0,0.0,0.0,0.0,0.0
91.0,6415.0,8371.770870582277,0.0,-0.0,0.0,0.0,0.0,1723.420814606429,0.0,0.0,0.0,0.0,1.0,0.05152403169398619,0.643878001810463,7659.648064917466,1914.9120162293666,9574.560081146832,"[0.04202201038131648, 0.8361951188405499, 0.6572531129192996, 0.23295350352031008, 0.20688296502580172, 0.8606311594657186, 0.4828738319743273, 0.23131071710898254]",22.04,0.0,0.0,0.0,404.125727540165,123.09229997917214,-1304.636752718096,-301.31008382802946,1085.7593129659165,0.0,0.0,0.0,0.0,0.0,0.0,-8.7,21.912909440851568,0.0,21.98495985639641,0.0,-8.7,22.04,21.29,22.68,21.88,22.52,-10.16,-8.7,100.79,-910.54,-857.18,0.0,144.0,134.0,207.0,0.0,0.0,0.0,0.0,0.0,0.0,0.0,0.0,0.0,0.0,0.0,0.0,0.0,0.0
92.0,6736.0,6769.849246231156,0.0,-0.0,0.0,0.0,0.0,1346.649742522449,0.0,1346.649742522449,0.0,0.0,1.0,0.04007292844124428,0.607699894203784,0.0,0.0,0.0,"[0.04202201038131648, 0.7053978576958748, 0.646760184017424, 0.23295350352031008, 0.20688296502580172, 0.860631159465715, 0.4828738319743273, 0.14086443535692794]",22.04,0.0,0.0,0.0,459.8622664563586,111.62915896115612,-1296.1491083316757,-338.4864149914986,896.3341933327124,0.0,0.0,0.0,0.0,0.0,0.0,-8.5,21.894742299163457,0.0,21.9540999873279,0.0,-8.5,22.04,21.29,22.62,21.86,22.48,-9.92,-8.5,0.0,-904.62,-851.6,0.0,130.0,118.0,257.0,0.0,0.0,0.0,0.0,0.0,0.0,0.0,0.0,0.0,0.0,0.0,0.0,0.0,0.0
93.0,4549.0,7109.671343795876,2525.122987076897,-0.0,0.0,0.0,0.0,4464.945255245646,0.0,0.0,0.0,4464.945255245647,1.0,0.04007292844124428,0.6014382986564741,0.0,0.0,0.0,"[0.04202201038131648, 0.7053978576958748, 0.646760184017424, 0.23295350352031008, 0.20688296502580172, 0.860631159465715, 0.4828738319743273, 0.14086443535692794]",21.96,0.0,0.0,0.0,362.7889885239134,88.4299449961237,-1284.0947851400647,-261.06864951650516,1272.1809231981238,0.0,0.0,0.0,0.0,0.0,0.0,-8.3,21.848097221837733,0.0,21.917626487718806,0.0,-8.3,21.96,21.28,22.55,21.8,22.38,-9.68,-8.3,279.12,-896.2,-843.68,0.0,155.0,66.0,178.0,0.0,0.0,0.0,0.0,0.0,0.0,0.0,0.0,0.0,0.0,0.0,0.0,0.0,0.0
94.0,3289.0,3305.527638190955,0.0,-0.0,0.0,0.0,0.0,9425.152769380655,0.0,9425.152769380655,0.0,0.0,1.0,0.0,0.6014382986564741,0.0,0.0,0.0,"[0.04202201038131648, 0.7053978576958748, 0.646760184017424, 0.23295350352031008, 0.20688296502580172, 0.860631159465715, 0.4828738319743273, 0.14086443535692794]",22.04,0.0,0.0,0.0,500.76916069947754,54.28312810118703,-1279.1738195588352,-410.3347360656801,964.3710030617273,0.0,0.0,0.0,0.0,0.0,0.0,-8.1,21.859623941697453,0.0,21.895585774384024,0.0,-8.1,22.04,21.28,22.51,21.86,22.42,-9.45,-8.1,1231.71,-892.77,-840.45,0.0,84.0,35.0,320.0,0.0,0.0,0.0,0.0,0.0,0.0,0.0,0.0,0.0,0.0,0.0,0.0,0.0,0.0
95.0,2134.0,0.0,1844.215668120748,-0.0,0.0,3978.215668120748,0.0,3331.2846843353755,0.0,0.0,0.0,3331.2846843353755,0.8308581773758186,0.0,0.6014382986564741,0.0,0.0,0.0,"[0.04202201038131648, 0.7053978576958748, 0.646760184017424, 0.23295350352031008, 0.20688296502580172, 0.860631159465715, 0.4828738319743273, 0.14086443535692794]",21.96,0.0,0.0,0.0,318.8015400733441,47.611458725622136,-1267.1194963672244,-327.04087167948086,1403.6524145411438,0.0,0.0,0.0,0.0,0.0,0.0,-7.9,21.81583083463707,0.0,21.864246862165864,0.0,-7.9,21.96,21.27,22.46,21.77,22.32,-9.21,-7.9,587.28,-884.36,-832.53,0.0,141.0,0.0,160.0,0.0,0.0,0.0,0.0,0.0,0.0,0.0,0.0,0.0,0.0,0.0,0.0,0.0,0.0
96.0,2365.0,53181.16242876409,50550.25661662027,-0.0,0.0,0.0,0.0,14202.531066718833,0.0,-80000.0,0.0,94202.53106671885,0.8308581773758186,0.3266666666666667,0.6014382986564741,0.0,0.0,0.0,"[0.04202201038131648, 0.7053978576958748, 0.646760184017424, 0.23295350352031008, 0.20688296502580172, 0.860631159465715, 0.4828738319743273, 0.14086443535692794]",22.04,0.0,0.0,0.0,109.0372907846359,25.41299516692443,-1245.2232420131547,-467.0093849017009,1406.0481391006426,0.0,0.0,0.0,0.0,0.0,0.0,-7.3,21.831694449073208,0.0,21.84958059638248,0.0,-7.3,22.04,21.27,22.43,21.84,22.38,-8.64,-7.3,1808.61,-869.07,-818.14,0.0,80.0,0.0,38.0,0.0,0.0,0.0,0.0,0.0,0.0,0.0,0.0,0.0,0.0,0.0,0.0,0.0,0.0
97.0,1947.0,0.0,4005.482132847092,-0.0,0.0,5952.482132847092,0.0,7731.682994104286,0.0,0.0,0.0,7731.682994104285,0.5777764540404831,0.3266666666666667,0.6014382986564741,0.0,0.0,0.0,"[0.04202201038131648, 0.7053978576958748, 0.646760184017424, 0.23295350352031008, 0.20688296502580172, 0.860631159465715, 0.4828738319743273, 0.14086443535692794]",21.96,0.0,0.0,0.0,132.1772677382741,25.928533255036257,-1211.9498078554932,-362.98839474283415,1418.3133281553849,0.0,0.0,0.0,0.0,0.0,0.0,-6.6,21.797707151805557,0.0,21.834050393164237,0.0,-6.6,21.96,21.27,22.4,21.8,22.32,-7.93,-6.6,706.7,-845.85,-796.28,0.0,80.0,0.0,55.0,0.0,0.0,0.0,0.0,0.0,0.0,0.0,0.0,0.0,0.0,0.0,0.0,0.0,0.0
98.0,1059.0,0.0,0.0,-0.0,0.0,1059.0,0.0,5343.018470702043,0.0,5343.018470702042,0.0,0.0,0.5327509438364014,0.3039497514000764,0.6014382986564735,0.0,0.0,0.0,"[0.04202201038131648, 0.7053978576958748, 0.646760184017424, 0.23295350352031008, 0.20688296502580172, 0.860631159465715, 0.4828738319743273, 0.14086443535692794]",21.96,0.0,0.0,0.0,140.34431842779352,26.110487874369845,-1182.2430525030225,-380.7494556905398,1398.0290209087907,0.0,0.0,0.0,0.0,0.0,0.0,-5.9,21.788695503749558,0.0,21.819087760889765,0.0,-5.9,21.96,21.26,22.38,21.79,22.31,-7.19,-5.9,2229.89,-825.12,-776.77,0.0,80.0,0.0,61.0,0.0,0.0,0.0,0.0,0.0,0.0,0.0,0.0,0.0,0.0,0.0,0.0,0.0,0.0
99.0,538.0,540.7035175879397,0.0,-0.0,0.0,0.0,0.0,12493.828775953076,0.0,12493.828775953076,0.0,0.0,0.5327509438364014,0.25082973109415346,0.6014382986564735,0.0,0.0,0.0,"[0.04202201038131648, 0.7053978576958748, 0.646760184017424, 0.23295350352031008, 0.20688296502580172, 0.860631159465715, 0.4828738319743273, 0.14086443535692794]",21.96,0.0,0.0,0.0,99.50906498019663,25.200714777701908,-1165.2677637301822,-395.9815317189686,1437.9788723735362,0.0,0.0,0.0,0.0,0.0,0.0,-5.5,21.781083854450955,0.0,21.80628145575129,0.0,-5.5,21.96,21.26,22.35,21.79,22.29,-6.78,-5.5,1851.29,-813.27,-765.61,0.0,80.0,0.0,31.0,0.0,0.0,0.0,0.0,0.0,0.0,0.0,0.0,0.0,0.0,0.0,0.0,0.0,0.0
100.0,581.0,0.0,3795.7021990321596,-0.0,0.0,4376.702199032159,0.0,7905.719484250273,0.0,0.0,0.0,7905.719484250274,0.3466666666666667,0.25082973109415346,0.6014382986564735,0.0,0.0,0.0,"[0.04202201038131648, 0.7053978576958748, 0.646760184017424, 0.23295350352031008, 0.20688296502580172, 0.860631159465715, 0.4828738319743273, 0.14086443535692794]",21.96,0.0,0.0,0.0,119.92669170399508,25.655601326035878,-1144.0486527641317,-407.11953520740343,1407.0512327913436,0.0,0.0,0.0,0.0,0.0,0.0,-5.0,21.7753970515662,0.0,21.79655641081929,0.0,-5.0,21.96,21.26,22.33,21.79,22.29,-6.25,-5.0,861.81,-798.46,-751.67,0.0,80.0,0.0,46.0,0.0,0.0,0.0,0.0,0.0,0.0,0.0,0.0,0.0,0.0,0.0,0.0,0.0,0.0
101.0,1894.0,17983.91959798995,0.0,-0.0,0.0,-16000.0,0.0,11946.703674029017,0.0,11946.703674029019,0.0,0.0,1.0,0.20003592295627498,0.6014382986564735,0.0,0.0,0.0,"[0.04202201038131648, 0.7053978576958748, 0.646760184017424, 0.23295350352031008, 0.20688296502580172, 0.860631159465715, 0.4828738319743273, 0.14086443535692794]",21.96,0.0,0.0,0.0,121.28786681891498,25.685927095924807,-1127.0733639912912,-416.71433990717713,1398.2809799113018,0.0,0.0,0.0,0.0,0.0,0.0,-4.6,21.770421842019655,0.0,21.78792601621725,0.0,-4.6,21.96,21.26,22.31,21.79,22.27,-5.65,-4.6,1059.4,-786.61,-740.52,0.0,80.0,0.0,47.0,0.0,0.0,0.0,0.0,0.0,0.0,0.0,0.0,0.0,0.0,0.0,0.0,0.0,0.0
102.0,1681.0,7450.462039017771,5732.209728822681,-0.0,0.0,0.0,0.0,12321.621555931046,0.0,0.0,0.0,12321.621555931046,1.0,0.20003592295627498,0.6014382986564735,0.0,0.0,0.0,"[0.04202201038131648, 0.7053978576958748, 0.646760184017424, 0.23295350352031008, 0.20688296502580172, 0.860631159465715, 0.4828738319743273, 0.14086443535692794]",21.96,0.0,0.0,0.0,42.196428562516786,0.940098866556867,-1114.341897411661,-424.51734829274494,1668.9620957780583,0.0,0.0,0.0,0.0,0.0,0.0,-4.3,21.7664923277132,0.0,21.780890778165443,0.0,-4.3,21.96,21.26,22.3,21.79,22.26,-5.38,-4.3,1771.28,-777.73,-732.15,0.0,0.0,0.0,31.0,0.0,0.0,0.0,0.0,0.0,0.0,0.0,0.0,0.0,0.0,0.0,0.0,0.0,0.0
103.0,1311.0,4398.10721333527,3065.1166772685942,-0.0,0.0,0.0,0.0,6676.256982809327,0.0,0.0,0.0,6676.256982809328,1.0,0.20003592295627498,0.6014382986564735,0.0,0.0,0.0,"[0.04202201038131648, 0.7053978576958748, 0.646760184017424, 0.23295350352031008, 0.20688296502580172, 0.860631159465715, 0.4828738319743273, 0.14086443535692794]",22.04,0.0,0.0,0.0,156.46349742026592,41.12174396939084,-1105.1771096372213,-541.0622132524368,1451.0027790465506,0.0,0.0,0.0,0.0,0.0,0.0,-4.0,21.793852845453014,0.0,21.784345802477525,0.0,-4.0,22.04,21.27,22.3,21.84,22.31,-5.06,-4.0,708.96,-771.33,-726.13,0.0,131.0,0.0,46.0,0.0,0.0,0.0,0.0,0.0,0.0,0.0,0.0,0.0,0.0,0.0,0.0,0.0,0.0
104.0,762.0,0.0,0.0,-0.0,0.0,762.0,0.0,10020.13008459896,0.0,10020.13008459896,0.0,0.0,0.9676020408163265,0.11483073516206611,0.6014382986564735,0.0,0.0,0.0,"[0.04202201038131648, 0.7053978576958748, 0.646760184017424, 0.23295350352031008, 0.20688296502580172, 0.8606311594657114, 0.4828738319743273, 0.14086443535692794]",22.04,0.0,0.0,1.098512041959532,172.8692395948268,42.061842835947715,-1092.445643057591,-534.4788522036587,1240.050015579046,0.0,0.0,0.0,0.0,0.0,0.0,-3.7,21.796859029717037,0.0,21.78807849763583,0.0,-3.7,22.04,21.27,22.3,21.84,22.3,-4.7,-3.7,1037.94,-762.45,-717.77,1.81,133.0,0.0,57.0,0.0,0.0,0.0,0.0,0.0,0.0,0.0,0.0,0.0,0.0,0.0,0.0,0.0,0.0
105.0,1138.0,0.0,0.0,-0.0,5.4413611965551105,1132.5586388034449,0.0,9123.323933176935,0.0,9123.323933176933,0.0,0.0,0.91944903746584,0.07604109258903494,0.6014382986564735,0.0,0.0,0.0,"[0.04202201038131648, 0.7053978576958748, 0.646760184017424, 0.23295350352031008, 0.20688296502580172, 0.8606311594657114, 0.4828738319743273, 0.14086443535692794]",21.96,0.0,0.0,31.446170581187335,281.5483264018522,53.6766127034084,-1025.2216313542488,-415.934444883123,1248.9929878800147,0.0,0.0,0.0,0.0,0.0,0.0,-2.2,21.769370825070794,0.0,21.78259046298288,0.0,-2.2,21.96,21.28,22.29,21.78,22.25,-2.96,-2.2,1132.29,-715.53,-673.6,51.85,165.0,0.0,120.0,0.0,0.0,0.0,0.0,0.0,0.0,0.0,0.0,0.0,0.0,0.0,0.0,0.0,0.0
106.0,1309.0,0.0,5759.037837975804,-0.0,18.561467960557874,7049.476370015246,0.0,14081.272612326014,0.0,0.0,0.0,14081.272612326014,0.6197264026862802,0.07604109258903494,0.6014382986564729,0.0,0.0,0.0,"[0.04202201038131648, 0.7053978576958748, 0.646760184017424, 0.23295350352031008, 0.20688296502580172, 0.8606311594657114, 0.4828738319743273, 0.14086443535692794]",22.04,0.0,0.0,40.07681958102744,182.39746539926608,4.063653165116792,-986.3500882273385,-531.8755204152142,1116.5011867001476,0.0,0.0,0.0,0.0,0.0,0.0,-1.2,21.796607152568434,0.0,21.7853372947216,0.0,-1.2,22.04,21.28,22.29,21.83,22.29,-1.85,-1.2,2132.34,-688.4,-648.06,66.08,0.0,0.0,134.0,0.0,0.0,0.0,0.0,0.0,0.0,0.0,0.0,0.0,0.0,0.0,0.0,0.0,0.0
107.0,1938.0,2938.985488486064,1203.0025321513674,-0.0,216.71197110773414,0.0,0.0,6884.907422492056,0.0,3794.3857325362837,0.0,3090.5216899557718,0.6197264026862802,0.059908500188795635,0.6014382986564729,0.0,0.0,0.0,"[0.04202201038131648, 0.7053978576958748, 0.646760184017424, 0.23295350352031008, 0.20688296502580172, 0.8606311594657114, 0.4828738319743273, 0.14086443535692794]",21.96,0.0,0.0,74.40334285907106,63.97523040123512,1.425311184779768,-927.6137209104165,-411.51700461939686,1368.4778300822804,0.0,0.0,0.0,0.0,0.0,0.0,0.1,21.770171910171886,0.0,21.78095926692829,0.0,0.1,21.96,21.29,22.27,21.77,22.23,-0.43,0.1,1775.7,-647.41,-609.47,122.67,0.0,0.0,47.0,0.0,0.0,0.0,0.0,0.0,0.0,0.0,0.0,0.0,0.0,0.0,0.0,0.0,0.0
108.0,2270.0,0.0,0.0,-0.0,530.2973122603104,1739.7026877396897,0.0,5579.707365697828,0.0,5579.707365697828,0.0,0.0,0.5457594516769396,0.03618525458633889,0.6014382986564729,0.0,0.0,0.0,"[0.04202201038131648, 0.7053978576958748, 0.646760184017424, 0.23295350352031008, 0.20688296502580172, 0.8606311594657114, 0.4828738319743273, 0.14086443535692794]",22.04,0.0,0.0,96.31601592399666,44.91877879235657,1.0007504063347323,-884.4983555902961,-518.7363915314342,1255.742038502639,0.0,0.0,0.0,0.0,0.0,0.0,1.2,21.801682687526498,0.0,21.790085869127164,0.0,1.2,22.04,21.3,22.28,21.84,22.3,0.6,1.2,1361.93,-617.31,-581.14,158.8,0.0,0.0,33.0,0.0,0.0,0.0,0.0,0.0,0.0,0.0,0.0,0.0,0.0,0.0,0.0,0.0,0.0
109.0,3341.0,0.0,0.0,-0.0,564.3975068139447,2776.602493186055,0.0,2290.741484504891,0.0,2290.741484504891,0.0,0.0,0.4277066245856958,0.0264457074583419,0.6014382986564729,0.0,0.0,0.0,"[0.04202201038131648, 0.7053978576958748, 0.646760184017424, 0.23295350352031008, 0.20688296502580172, 0.8606311594657114, 0.4828738319743273, 0.14086443535692794]",22.04,0.0,0.0,101.63020653867096,183.68699971866386,52.64553652718474,-850.5477780446154,-500.6788680072096,837.4706045726133,0.0,0.0,0.0,0.0,0.0,0.0,2.0,21.810018101808442,0.0,21.80126025422506,0.0,2.0,22.04,21.32,22.28,21.84,22.3,1.4,2.0,505.81,-593.62,-558.83,167.56,169.0,0.0,46.0,0.0,0.0,0.0,0.0,0.0,0.0,0.0,0.0,0.0,0.0,0.0,0.0,0.0,0.0
110.0,3679.0,0.0,0.0,-0.0,150.37939994682185,3528.6206000531784,0.0,6220.0303942020155,0.0,6220.0303942020155,0.0,0.0,0.277680238529013,0.0,0.6014382986564729,0.0,0.0,0.0,"[0.04202201038131648, 0.7053978576958748, 0.646760184017424, 0.23295350352031008, 0.20688296502580172, 0.8606311594657114, 0.4828738319743273, 0.14086443535692794]",21.96,0.0,0.0,77.1656470361268,145.6457372964289,3.2448573781156473,-834.2496326597943,-374.0513445407524,1151.3427553829965,0.0,0.0,0.0,0.0,0.0,0.0,2.3,21.787322408341076,0.0,21.802210024654322,0.0,2.3,21.96,21.33,22.28,21.79,22.24,1.51,2.3,1762.82,-582.24,-548.12,127.23,0.0,0.0,107.0,0.0,0.0,0.0,0.0,0.0,0.0,0.0,0.0,0.0,0.0,0.0,0.0,0.0,0.0
111.0,2042.0,35802.349078946776,33581.400294332,-0.0,0.06296077995896553,0.0,0.0,11393.11454938148,0.0,-80000.0,0.0,91393.11454938148,0.277680238529013,0.3266666666666667,0.6014382986564729,0.0,0.0,0.0,"[0.04202201038131648, 0.7053978576958748, 0.646760184017424, 0.23295350352031008, 0.20688296502580172, 0.8606311594657114, 0.4828738319743273, 0.14086443535692794]",22.04,0.0,0.0,19.105017665605704,62.61405528631523,1.394985414890837,-863.2792446242457,-488.2240064778035,1267.3979349413887,0.0,0.0,0.0,0.0,0.0,0.0,1.7,21.81647077510964,0.0,21.807321410341963,0.0,1.7,22.04,21.34,22.27,21.84,22.28,0.63,1.7,1632.6,-602.51,-567.2,31.5,0.0,0.0,46.0,0.0,0.0,0.0,0.0,0.0,0.0,0.0,0.0,0.0,0.0,0.0,0.0,0.0,0.0
112.0,2330.0,0.0,59.039210202386585,-0.0,0.0,2389.0392102023866,0.0,5572.047120555378,0.0,5415.872276586577,0.0,156.17484396880056,0.17610544217687074,0.3036399988240367,0.5944809702705731,0.0,0.0,0.0,"[0.04202201038131648, 0.7053978576958748, 0.646760184017424, 0.23295350352031008, 0.20688296502580172, 0.8606311594657114, 0.4828738319743273, 0.14086443535692794]",22.04,0.0,0.0,0.0,62.61405528631523,1.394985414890837,-897.2298221699265,-481.2086386714063,1314.5090957206205,0.0,0.0,0.0,0.0,0.0,0.0,0.9,21.820373343392387,0.0,21.81165645857475,0.0,0.9,22.04,21.35,22.27,21.84,22.27,-0.3,0.9,504.54,-626.2,-589.5,0.0,0.0,0.0,46.0,0.0,0.0,0.0,0.0,0.0,0.0,0.0,0.0,0.0,0.0,0.0,0.0,0.0,0.0
113.0,5300.0,5326.633165829146,0.0,-0.0,0.0,0.0,0.0,5583.591847248154,0.0,5583.5918472481535,0.0,0.0,0.17610544217687074,0.27990023756872995,0.5464754044078644,0.0,0.0,0.0,"[0.04202201038131648, 0.7053978576958748, 0.646760184017424, 0.23295350352031008, 0.20688296502580172, 0.8606311594657114, 0.4828738319743273, 0.14086443535692794]",22.04,0.0,0.0,0.0,63.97523040123512,1.425311184779768,-892.9859999767162,-475.4311986854752,1303.098064734512,0.0,0.0,0.0,0.0,0.0,0.0,1.0,21.823142895726964,0.0,21.81457781739745,0.0,1.0,22.04,21.36,22.27,21.85,22.26,-0.24,1.0,3.85,-623.24,-586.72,0.0,0.0,0.0,47.0,0.0,0.0,0.0,0.0,0.0,0.0,0.0,0.0,0.0,0.0,0.0,0.0,0.0,0.0
114.0,4142.0,0.0,0.0,-0.0,0.0,4142.0,0.0,4433.546184121951,0.0,4433.546184121951,0.0,0.0,0.0,0.26105012624168084,0.520037556541445,0.0,0.0,0.0,"[0.04202201038131648, 0.7053978576958748, 0.646760184017424, 0.23295350352031008, 0.20688296502580172, 0.8606311594657114, 0.4828738319743273, 0.14086443535692794]",22.04,0.0,0.0,0.0,42.196428562516786,0.940098866556867,-888.7421777835067,-469.9152061931543,1142.3888678707117,0.0,0.0,0.0,0.0,0.0,0.0,1.1,21.825772095242147,0.0,21.817360759120714,0.0,1.1,22.04,21.37,22.27,21.85,22.26,-0.15,1.1,0.0,-620.28,-583.93,0.0,0.0,0.0,31.0,0.0,0.0,0.0,0.0,0.0,0.0,0.0,0.0,0.0,0.0,0.0,0.0,0.0,0.0
115.0,5810.0,20821.79517928929,8570.118523259565,-0.0,0.0,-6337.567680133275,0.0,5728.637808431601,0.0,-17268.47382565162,0.0,22997.111634083227,0.25878401360544206,0.3315630610297583,0.5200375565414447,0.0,0.0,0.0,"[0.04202201038131648, 0.7053978576958748, 0.646760184017424, 0.23295350352031008, 0.20688296502580172, 0.8606311594657114, 0.4828738319743273, 0.14086443535692794]",21.96,0.0,0.0,0.0,62.61405528631523,1.394985414890837,-876.6878545918952,-352.6683765419644,1338.6125491029447,0.0,0.0,0.0,0.0,0.0,0.0,1.3,21.798486047208954,0.0,21.81196222438375,0.0,1.3,21.96,21.37,22.25,21.8,22.21,0.03,1.3,0.0,-611.86,-576.01,0.0,0.0,0.0,46.0,0.0,0.0,0.0,0.0,0.0,0.0,0.0,0.0,0.0,0.0,0.0,0.0,0.0,0.0
116.0,3611.0,23031.743590655093,0.0,-0.0,0.0,-16000.0,0.0,2975.0263854316354,0.0,0.0,0.0,0.0,0.7585884353741496,0.3189141393229911,0.47968505190322575,13222.339490807273,3305.5848727018183,16527.92436350909,"[0.04202201038131648, 0.7053978576958748, 0.646760184017424, 0.23295350352031008, 0.016683207570913794, 0.09599753428666702, 0.4828738319743273, 0.14086443535692794]",22.04,0.0,0.0,0.0,63.97523040123512,1.425311184779768,-876.010711203876,-470.250074024373,1107.7559682107528,0.0,0.0,0.0,0.0,0.0,0.0,1.4,21.825439824347765,0.0,21.814485539880277,0.0,1.4,22.04,21.38,22.25,21.86,22.26,0.17,1.4,0.0,-611.39,-575.56,0.0,0.0,0.0,47.0,0.0,0.0,0.0,0.0,0.0,0.0,0.0,0.0,0.0,0.0,0.0,0.0,0.0,0.0
117.0,4760.0,6522.937250175318,1730.3225639244413,-0.0,0.0,0.0,0.0,4692.645879559775,0.0,0.0,0.0,4692.645879559775,0.7585884353741496,0.3189141393229911,0.4748149220330959,0.0,0.0,0.0,"[0.04202201038131648, 0.7053978576958748, 0.646760184017424, 0.23295350352031008, 0.016683207570913794, 0.09599753428666702, 0.4828738319743273, 0.14086443535692794]",21.96,0.0,0.0,0.0,42.196428562516786,0.940098866556867,-863.9563880122647,-352.54698655156034,1173.420541547693,0.0,0.0,0.0,0.0,0.0,0.0,1.6,21.79837519035498,0.0,21.809561619470237,0.0,1.6,21.96,21.38,22.24,21.8,22.2,0.35,1.6,0.0,-602.98,-567.64,0.0,0.0,0.0,31.0,0.0,0.0,0.0,0.0,0.0,0.0,0.0,0.0,0.0,0.0,0.0,0.0,0.0,0.0
118.0,2919.0,0.0,0.0,-0.0,0.0,2919.0,0.0,5037.181434253343,0.0,5037.181434253343,0.0,0.0,0.6344812925170067,0.29749755159232216,0.4748149220330954,0.0,0.0,0.0,"[0.04202201038131648, 0.7053978576958748, 0.646760184017424, 0.23295350352031008, 0.016683207570913794, 0.09599753428666702, 0.4828738319743273, 0.14086443535692794]",21.96,0.0,0.0,0.0,64.26179358332352,2.5170389007812966,-859.7125658190549,-357.3812958922537,1323.644474777497,0.0,0.0,0.0,0.0,0.0,0.0,1.7,21.795995006503432,0.0,21.804864108857025,0.0,1.7,21.96,21.38,22.23,21.81,22.2,0.41,1.7,0.0,-600.02,-564.85,0.0,0.0,2.0,47.0,0.0,0.0,0.0,0.0,0.0,0.0,0.0,0.0,0.0,0.0,0.0,0.0,0.0,0.0
119.0,1691.0,0.0,0.0,-0.0,0.0,1691.0,0.0,7225.910010013875,0.0,7225.910010013874,0.0,0.0,0.5625850340136054,0.26677514508716116,0.4615959980998857,0.0,0.0,0.0,"[0.04202201038131648, 0.7053978576958748, 0.646760184017424, 0.23295350352031008, 0.016683207570913794, 0.09599753428666702, 0.4828738319743273, 0.14086443535692794]",22.04,0.0,0.0,0.0,204.74939360216123,41.91021398650306,-854.7916002378267,-472.78485760538166,910.1248987349858,0.0,0.0,0.0,0.0,0.0,0.0,1.9,21.82397165580723,0.0,21.809212974183524,0.0,1.9,22.04,21.39,22.23,21.86,22.24,0.62,1.9,0.0,-596.58,-561.62,0.0,130.0,0.0,82.0,0.0,0.0,0.0,0.0,0.0,0.0,0.0,0.0,0.0,0.0,0.0,0.0,0.0,0.0
120.0,1878.0,1887.4371859296482,0.0,-0.0,0.0,0.0,0.0,5343.671106411994,0.0,5343.671106411994,0.0,0.0,0.5625850340136054,0.24405545500887887,0.4595087995841158,0.0,0.0,0.0,"[0.04202201038131648, 0.7053978576958748, 0.646760184017424, 0.23295350352031008, 0.016683207570913794, 0.09599753428666702, 0.4828738319743273, 0.14086443535692794]",21.96,0.0,0.0,0.0,119.92669170399508,25.655601326035878,-868.2002102054751,-355.8844551635752,1079.9677101888537,0.0,0.0,0.0,0.0,0.0,0.0,1.5,21.796870765263698,0.0,21.804348256683145,0.0,1.5,21.96,21.39,22.22,21.8,22.17,0.13,1.5,91.92,-605.94,-570.43,0.0,80.0,0.0,46.0,0.0,0.0,0.0,0.0,0.0,0.0,0.0,0.0,0.0,0.0,0.0,0.0,0.0,0.0
121.0,1526.0,1533.6683417085428,0.0,-0.0,0.0,0.0,0.0,5838.224049897717,0.0,5838.224049897717,0.0,0.0,0.5625850340136054,0.21923307384434776,0.4595087995841158,0.0,0.0,0.0,"[0.04202201038131648, 0.7053978576958748, 0.646760184017424, 0.23295350352031008, 0.016683207570913794, 0.09599753428666702, 0.4828738319743273, 0.14086443535692794]",21.96,0.0,0.0,0.0,121.28786681891498,25.685927095924807,-880.9316767851054,-360.59452451980985,1269.2051604075496,0.0,0.0,0.0,0.0,0.0,0.0,1.2,21.79476890395915,0.0,21.800427070695804,0.0,1.2,21.96,21.39,22.21,21.81,22.18,-0.21,1.2,0.0,-614.83,-578.8,0.0,80.0,0.0,47.0,0.0,0.0,0.0,0.0,0.0,0.0,0.0,0.0,0.0,0.0,0.0,0.0,0.0,0.0
122.0,959.0,963.8190954773869,0.0,-0.0,0.0,0.0,0.0,8756.69398162474,0.0,8756.69398162474,0.0,0.0,0.5625850340136054,0.18200223208573918,0.4595087995841158,0.0,0.0,0.0,"[0.04202201038131648, 0.7053978576958748, 0.646760184017424, 0.23295350352031008, 0.016683207570913794, 0.09599753428666702, 0.4828738319743273, 0.14086443535692794]",22.04,0.0,0.0,0.0,114.4819912443155,25.53429824648015,-901.4736443631365,-475.85095560790523,1238.7667200187361,0.0,0.0,0.0,0.0,0.0,0.0,0.8,21.8231436234146,0.0,21.805840520951584,0.0,0.8,22.04,21.4,22.21,21.87,22.24,-0.62,0.8,611.4,-629.16,-592.29,0.0,80.0,0.0,42.0,0.0,0.0,0.0,0.0,0.0,0.0,0.0,0.0,0.0,0.0,0.0,0.0,0.0,0.0
123.0,1056.0,0.0,0.0,-0.0,0.0,1056.0,0.0,3849.208663462803,0.0,3849.2086634628035,0.0,0.0,0.5176870748299319,0.16563654899278507,0.4595087995841158,0.0,0.0,0.0,"[0.04202201038131648, 0.7053978576958748, 0.646760184017424, 0.23295350352031008, 0.016683207570913794, 0.09599753428666702, 0.4828738319743273, 0.14086443535692794]",22.04,0.0,0.0,0.0,177.0960465306307,26.929283661370995,-905.7174665563466,-467.2928904436077,1170.5231119269258,0.0,0.0,0.0,0.0,0.0,0.0,0.7,21.827358146918172,0.0,21.812067106156015,0.0,0.7,22.04,21.4,22.22,21.87,22.24,-0.74,0.7,1510.06,-632.12,-595.08,0.0,80.0,0.0,88.0,0.0,0.0,0.0,0.0,0.0,0.0,0.0,0.0,0.0,0.0,0.0,0.0,0.0,0.0
124.0,1145.0,0.0,0.0,-0.0,0.0,1145.0,0.0,7643.1990382482645,0.0,7643.199038248265,0.0,0.0,0.4690051020408163,0.13313995444240978,0.4595087995841158,0.0,0.0,0.0,"[0.04202201038131648, 0.7053978576958748, 0.646760184017424, 0.23295350352031008, 0.016683207570913794, 0.09599753428666702, 0.4828738319743273, 0.14086443535692794]",22.04,0.0,0.0,0.0,121.28786681891498,25.685927095924807,-914.2051109427669,-461.89884467858343,1057.411548544378,0.0,0.0,0.0,0.0,0.0,0.0,0.5,21.830057190979034,0.0,21.815920729487253,0.0,0.5,22.04,21.41,22.22,21.86,22.23,-0.89,0.5,1715.43,-638.05,-600.66,0.0,80.0,0.0,47.0,0.0,0.0,0.0,0.0,0.0,0.0,0.0,0.0,0.0,0.0,0.0,0.0,0.0,0.0
125.0,987.0,4166.029643812082,3158.199495593022,-0.0,0.0,0.0,0.0,8173.652161605437,0.0,0.0,0.0,8173.652161605436,0.4690051020408163,0.13313995444240978,0.45950879958411583,0.0,0.0,0.0,"[0.04202201038131648, 0.7053978576958748, 0.646760184017424, 0.23295350352031008, 0.016683207570913794, 0.09599753428666702, 0.4828738319743273, 0.14086443535692794]",21.96,0.0,0.0,0.0,99.50906498019663,25.200714777701908,-919.1260765239963,-344.21870294044066,1140.074356388817,0.0,0.0,0.0,0.0,0.0,0.0,0.3,21.803185713220167,0.0,21.812125363603677,0.0,0.3,21.96,21.41,22.22,21.82,22.19,-1.1,0.3,544.41,-641.48,-603.89,0.0,80.0,0.0,31.0,0.0,0.0,0.0,0.0,0.0,0.0,0.0,0.0,0.0,0.0,0.0,0.0,0.0,0.0
126.0,1290.0,0.0,0.0,-0.0,0.0,1290.0,0.0,4113.381775821044,0.0,4113.381775821044,0.0,0.0,0.4141581632653061,0.11565108634793256,0.45950879958411583,0.0,0.0,0.0,"[0.04202201038131648, 0.7053978576958748, 0.646760184017424, 0.23295350352031008, 0.016683207570913794, 0.09599753428666702, 0.4828738319743273, 0.14086443535692794]",21.96,0.0,0.0,0.0,153.597865599382,39.9087131738336,-923.3698987172064,-349.26495978962487,1081.4076941666924,0.0,0.0,0.0,0.0,0.0,0.0,0.2,21.800770642376083,0.0,21.80823909373214,0.0,0.2,21.96,21.41,22.21,21.82,22.19,-1.16,0.2,9.62,-644.44,-606.68,0.0,127.0,0.0,46.0,0.0,0.0,0.0,0.0,0.0,0.0,0.0,0.0,0.0,0.0,0.0,0.0,0.0,0.0
127.0,2307.0,5723.156873779325,3387.541089410428,-0.0,0.0,0.0,0.0,8702.616106482175,0.0,0.0,0.0,8702.616106482177,0.4141581632653061,0.11565108634793256,0.45950879958411583,0.0,0.0,0.0,"[0.04202201038131648, 0.7053978576958748, 0.646760184017424, 0.23295350352031008, 0.016683207570913794, 0.09599753428666702, 0.4828738319743273, 0.14086443535692794]",21.96,0.0,0.0,0.0,165.70516004261688,44.48790442706222,-927.6137209104165,-354.36767170959286,1074.329286336769,0.0,0.0,0.0,0.0,0.0,0.0,0.1,21.798369692725768,0.0,21.804418430504867,0.0,0.1,21.96,21.4,22.2,21.82,22.19,-1.3,0.1,822.48,-647.41,-609.47,0.0,142.0,0.0,47.0,0.0,0.0,0.0,0.0,0.0,0.0,0.0,0.0,0.0,0.0,0.0,0.0,0.0,0.0
128.0,866.0,10432.893406875393,0.0,-0.0,0.0,-9514.728939841016,0.0,5484.826271266993,0.0,5484.826271266993,0.0,0.0,1.0,0.09233124675921235,0.45950879958411583,0.0,0.0,0.0,"[0.04202201038131648, 0.7053978576958748, 0.646760184017424, 0.23295350352031008, 0.016683207570913794, 0.09599753428666702, 0.48287383197433087, 0.14086443535692794]",21.96,0.0,0.0,2.210590729229025,122.07591556965805,26.56537442270382,-923.3698987172064,-358.5480639634144,1132.4595314949527,0.0,0.0,0.0,0.0,0.0,0.0,0.2,21.79623033751541,0.0,21.80108548915181,0.0,0.2,21.96,21.4,22.2,21.82,22.19,-1.1,0.2,857.49,-644.44,-606.68,3.64,83.0,0.0,46.0,0.0,0.0,0.0,0.0,0.0,0.0,0.0,0.0,0.0,0.0,0.0,0.0,0.0,0.0
129.0,2177.0,464.0486877984823,2366.086705316708,-0.0,4081.358260957218,0.0,0.0,6687.521872587582,0.0,0.0,0.0,6687.521872587582,1.0,0.09233124675921235,0.45950879958411583,0.0,0.0,0.0,"[0.04202201038131648, 0.7053978576958748, 0.646760184017424, 0.23295350352031008, 0.016683207570913794, 0.09599753428666702, 0.48287383197433087, 0.14086443535692794]",21.96,0.0,0.0,441.53231128750195,1134.790201070061,65.5036629600916,-813.0305216937437,-358.27635292878415,-314.41210479709196,0.0,0.0,0.0,0.0,0.0,0.0,2.8,21.79463347324752,0.0,21.79858811740324,0.0,2.8,21.96,21.4,22.2,21.82,22.19,2.16,2.8,204.05,-567.44,-534.18,727.98,140.0,0.0,760.0,0.0,0.0,0.0,0.0,0.0,0.0,0.0,0.0,0.0,0.0,0.0,0.0,0.0,0.0
130.0,2315.0,0.0,0.0,-7884.146499345581,10199.146499345581,0.0,0.0,1598.933971366449,0.0,1598.933971366449,0.0,0.0,1.0,0.08553305810544344,0.49462908853574616,0.0,0.0,0.0,"[0.04202201038131648, 0.7053978576958748, 0.646760184017424, 0.23295350352031008, 0.016683207570913794, 0.09599753428666702, 0.48287383197433087, 0.14086443535692794]",22.04,0.0,0.0,833.295165861924,327.6849987180845,31.72075530382214,-710.5016456686819,-450.9025920497501,-68.45212909264812,0.0,0.0,0.0,0.0,0.0,0.0,5.3,21.83214171217863,0.0,21.819448787325555,0.0,5.3,22.04,21.41,22.23,21.85,22.33,5.23,5.3,0.0,-495.88,-466.82,1373.91,85.0,0.0,196.0,0.0,0.0,0.0,0.0,0.0,0.0,0.0,0.0,0.0,0.0,0.0,0.0,0.0,0.0
131.0,5592.0,0.0,1650.6981403463005,-2895.3956458097064,10138.093786156007,0.0,0.0,5295.007754129079,0.0,0.0,0.0,5295.007754129079,1.0,0.08553305810544344,0.5075267600488985,0.0,0.0,0.0,"[0.04202201038131648, 0.7053978576958748, 0.646760184017424, 0.23295350352031008, 0.016683207570913794, 0.09599753428666702, 0.48287383197433087, 0.14086443535692794]",22.04,0.0,0.0,748.9973924774866,155.17396310086815,3.4571377673381667,-646.8443127705305,-373.4177736208575,0.0,0.0,0.0,0.0,0.0,0.0,0.0,6.8,21.868911130749762,0.0,21.878381146112062,0.0,6.8,22.04,21.43,22.33,21.93,22.56,6.79,6.8,0.0,-451.45,-424.99,1234.92,0.0,0.0,114.0,0.0,0.0,0.0,0.0,0.0,0.0,0.0,0.0,0.0,0.0,0.0,0.0,0.0,0.0
132.0,5065.0,0.0,11160.66314213762,-0.0,10014.059578255987,9765.691563881635,0.0,2692.6754923602302,17770.44,-19955.44011765766,0.0,36864.46761001789,0.5847920253451686,0.16701777191921224,0.5075267600488985,14216.351999999999,3554.0879999999997,17770.44,"[0.04202201038131648, 0.7053978576958748, 0.646760184017424, 0.23295350352031008, 0.016683207570913794, 0.09599753428666702, 0.48287383197433087, 0.14086443535692794]",22.0,0.0,0.0,724.6483979379304,2739.329098378529,109.87026430759809,-602.8130772015572,-263.32040525544573,-2658.742995529357,0.0,0.0,0.0,0.0,0.0,0.0,7.8,21.884231128305352,0.0,21.91944267009239,0.0,7.8,22.0,21.45,22.39,21.91,22.54,7.83,7.8,0.0,-420.72,-396.06,1194.77,170.0,0.0,1923.0,0.0,0.0,0.0,0.0,0.0,0.0,0.0,0.0,0.0,0.0,0.0,0.0,0.0,0.0
133.0,2628.0,0.0,6787.381662387375,-0.0,9415.381662387375,0.0,0.0,2309.3995999843664,0.0,-20368.63165055758,0.0,22678.031250541953,0.5847920253451686,0.2501896844923224,0.5075267600488985,0.0,0.0,0.0,"[0.04202201038131648, 0.7053978576958748, 0.646760184017424, 0.23295350352031008, 0.016683207570913794, 0.09599753428666702, 0.48287383197433087, 0.14086443535692794]",22.04,0.0,0.0,722.3433336878958,341.8698762314603,53.009445765851915,-587.4308020655891,-257.7526163942269,-304.47658287517703,0.0,0.0,0.0,0.0,0.0,0.0,8.2,21.92425520272859,0.0,21.963921322905215,0.0,8.2,22.04,21.47,22.45,21.97,22.61,8.27,8.2,0.0,-409.98,-385.96,1190.97,158.0,0.0,168.0,0.0,0.0,0.0,0.0,0.0,0.0,0.0,0.0,0.0,0.0,0.0,0.0,0.0,0.0
134.0,1523.0,0.0,0.0,-0.0,8370.867101084583,-6847.867101084583,0.0,0.0,0.0,0.0,0.0,0.0,0.8644132653061224,0.2501896844923224,0.5075267600488985,0.0,0.0,0.0,"[0.04202201038131648, 0.7053978576958748, 0.646760184017424, 0.23295350352031008, 0.016683207570913794, 0.09599753428666702, 0.48287383197433087, 0.14086443535692794]",22.04,0.0,0.0,719.2727203738611,141.56221195166918,3.1538800684488546,-587.4308020655891,-208.69754300172957,-104.79307674272474,0.0,0.0,0.0,0.0,0.0,0.0,8.2,21.948199026895555,0.0,21.999896433475673,0.0,8.2,22.04,21.5,22.5,21.97,22.62,8.01,8.2,0.0,-409.98,-385.96,1185.91,0.0,0.0,104.0,0.0,0.0,0.0,0.0,0.0,0.0,0.0,0.0,0.0,0.0,0.0,0.0,0.0,0.0
135.0,4431.0,331.04334350788764,1272.3646651355696,-0.0,5373.976538345221,0.0,0.0,4129.932322166291,0.0,0.0,0.0,4129.932322166291,0.8644132653061224,0.2501896844923224,0.5075267600488985,0.0,0.0,0.0,"[0.04202201038131648, 0.7053978576958748, 0.646760184017424, 0.23295350352031008, 0.016683207570913794, 0.09599753428666702, 0.48287383197433087, 0.14086443535692794]",22.04,0.0,0.0,777.0492195870489,1068.5224652121187,23.805729362811068,-629.8690239976901,-172.5500900199642,-1107.9196878394937,0.0,0.0,0.0,0.0,0.0,0.0,7.2,21.966433627382298,0.0,22.02662087158629,0.0,7.2,22.04,21.52,22.53,21.97,22.61,6.71,7.2,0.0,-439.6,-413.84,1281.17,0.0,0.0,785.0,0.0,0.0,0.0,0.0,0.0,0.0,0.0,0.0,0.0,0.0,0.0,0.0,0.0,0.0
136.0,4451.0,4473.366834170854,0.0,-0.0,0.0,0.0,0.0,1572.4296144666996,0.0,1572.4296144666996,0.0,0.0,0.8644132653061224,0.24350418443081429,0.5075267600488985,0.0,0.0,0.0,"[0.04202201038131648, 0.7053978576958748, 0.646760184017424, 0.23295350352031008, 0.016683207570913794, 0.09599753428666702, 0.48287383197433087, 0.14086443535692794]",22.04,0.0,0.0,0.0,234.12211976622217,5.216032420896185,-689.2825347026316,-135.50285345448978,585.7451533579099,0.0,0.0,0.0,0.0,0.0,0.0,5.8,21.98573836153811,0.0,22.055330263235003,0.0,5.8,22.04,21.54,22.57,22.01,22.66,4.21,5.8,0.0,-481.07,-452.88,0.0,0.0,0.0,172.0,0.0,0.0,0.0,0.0,0.0,0.0,0.0,0.0,0.0,0.0,0.0,0.0,0.0,0.0
137.0,3222.0,0.0,0.0,-0.0,0.0,3222.0,0.0,2294.573280759067,0.0,2294.573280759067,0.0,0.0,0.727423469387755,0.23374834565207675,0.42334308657951075,0.0,0.0,0.0,"[0.04202201038131648, 0.7053978576958748, 0.646760184017424, 0.23295350352031008, 0.016683207570913794, 0.09599753428666702, 0.48287383197433087, 0.14086443535692794]",22.04,0.0,0.0,0.0,240.56979136321112,69.80992228431987,-706.2578234754719,-175.75530828143235,479.7862536976308,0.0,0.0,0.0,0.0,0.0,0.0,5.4,21.9664216258054,0.0,22.021474756026898,0.0,5.4,22.04,21.54,22.5,21.89,22.33,3.8,5.4,0.0,-492.92,-464.03,0.0,162.0,33.0,88.0,0.0,0.0,0.0,0.0,0.0,0.0,0.0,0.0,0.0,0.0,0.0,0.0,0.0,0.0
138.0,5107.0,0.0,0.0,-0.0,0.0,5107.0,0.0,488.964065154298,0.0,488.964065154298,0.0,0.0,0.5102891156462585,0.2316694168036316,0.4087326969691211,0.0,0.0,0.0,"[0.04202201038131648, 0.7053978576958748, 0.646760184017424, 0.23295350352031008, 0.016683207570913794, 0.09599753428666702, 0.48287383197433087, 0.14086443535692794]",22.0,0.0,0.0,0.0,501.34228706365434,97.70963058213664,-721.2594470799945,-142.9733708887443,193.41037961475948,0.0,0.0,0.0,0.0,0.0,0.0,5.0,21.935975777428304,0.0,21.99226607309663,0.0,5.0,22.0,21.54,22.44,21.88,22.29,3.47,5.0,246.32,-503.39,-473.89,0.0,101.0,106.0,304.0,0.0,0.0,0.0,0.0,0.0,0.0,0.0,0.0,0.0,0.0,0.0,0.0,0.0,0.0
139.0,5401.0,0.0,0.0,-0.0,0.0,5401.0,0.0,718.7591689900485,0.0,718.7591689900485,0.0,0.0,0.2806547619047619,0.2286134679558848,0.4087326969691211,0.0,0.0,0.0,"[0.04202201038131648, 0.7053978576958748, 0.646760184017424, 0.23295350352031008, 0.016683207570913794, 0.09599753428666702, 0.48287383197433087, 0.14086443535692794]",21.96,0.0,0.0,0.0,748.4313908193765,95.6171524598004,-736.641722215962,-130.17476201629302,28.229182372157535,0.0,0.0,0.0,0.0,0.0,0.0,4.6,21.90480671207386,0.0,21.958379552594785,0.0,4.6,21.96,21.54,22.38,21.84,22.22,3.14,4.6,0.0,-514.12,-483.99,0.0,101.0,92.0,487.0,0.0,0.0,0.0,0.0,0.0,0.0,0.0,0.0,0.0,0.0,0.0,0.0,0.0,0.0
140.0,4387.0,0.0,0.0,-0.0,0.0,4387.0,0.0,2765.815748155943,0.0,2765.815748155943,0.0,0.0,0.09413265306122451,0.26186323944461715,0.4087326969691211,0.0,0.0,0.0,"[0.04202201038131648, 0.48935405492853334, 0.32498371719989905, 0.23295350352031008, 0.016683207570913794, 0.09599753428666702, 0.482873831974338, 0.13946089565620667]",21.96,0.0,0.0,0.0,1265.1048081247604,114.05522055227061,-753.6170109888025,-174.80810183604962,-271.0348880185933,0.0,0.0,0.0,0.0,0.0,0.0,4.2,21.883324133315405,0.0,21.922992858192934,0.0,4.2,21.96,21.53,22.31,21.81,22.16,2.8,4.2,0.0,-525.97,-495.15,0.0,144.0,82.0,845.0,0.0,0.0,0.0,0.0,0.0,0.0,0.0,0.0,0.0,0.0,0.0,0.0,0.0,0.0
141.0,3510.0,3527.638190954774,0.0,-0.0,0.0,0.0,0.0,3057.1748117341394,0.0,3057.1748117341394,0.0,0.0,0.09413265306122451,0.24886504721785635,0.4087326969691211,0.0,0.0,0.0,"[0.04202201038131648, 0.48935405492853334, 0.32498371719989905, 0.23295350352031008, 0.016683207570913794, 0.09599753428666702, 0.482873831974338, 0.13946089565620667]",22.04,0.0,0.0,0.0,970.8044201199743,77.9069028446645,-774.1589785668334,-330.74537029627015,60.6427338609158,0.0,0.0,0.0,0.0,0.0,0.0,3.8,21.891916393167698,0.0,21.89660264536716,0.0,3.8,22.04,21.53,22.27,21.84,22.16,2.47,3.8,0.0,-540.31,-508.64,0.0,109.0,46.0,651.0,0.0,0.0,0.0,0.0,0.0,0.0,0.0,0.0,0.0,0.0,0.0,0.0,0.0,0.0
142.0,3586.0,10049.699759889249,1113.2328707553545,-0.0,0.0,-5300.218390334447,0.0,3210.1249086885755,0.0,0.0,0.0,3210.124908688576,0.3105582373332144,0.24886504721785635,0.4087326969691211,0.0,0.0,0.0,"[0.04202201038131648, 0.48935405492853334, 0.32498371719989905, 0.23295350352031008, 0.016683207570913794, 0.09599753428666702, 0.482873831974338, 0.13946089565620667]",22.04,0.0,0.0,0.0,560.2310209828205,50.94729341340458,-791.134267339674,-359.3640604827655,369.04422110205593,0.0,0.0,0.0,0.0,0.0,0.0,3.4,21.87824517714523,0.0,21.874331785573183,0.0,3.4,22.04,21.52,22.23,21.83,22.14,2.06,3.4,0.0,-552.15,-519.8,0.0,81.0,28.0,366.0,0.0,0.0,0.0,0.0,0.0,0.0,0.0,0.0,0.0,0.0,0.0,0.0,0.0,0.0
143.0,2560.0,0.0,0.0,-0.0,0.0,2560.0,0.0,4389.517942220127,0.0,4389.517942220127,0.0,0.0,0.20171469991824842,0.23020213079685242,0.40455829993758124,0.0,0.0,0.0,"[0.04202201038131648, 0.48935405492853334, 0.32498371719989905, 0.23295350352031008, 0.016683207570913794, 0.09599753428666702, 0.482873831974338, 0.13946089565620667]",21.96,0.0,0.0,0.0,227.67444816923316,35.23854461093816,-804.5428773073236,-260.81353502182503,804.4560939952186,0.0,0.0,0.0,0.0,0.0,0.0,3.0,21.842198453707923,0.0,21.856131645658913,0.0,3.0,21.96,21.51,22.2,21.81,22.12,1.65,3.0,0.0,-561.51,-528.61,0.0,105.0,0.0,112.0,0.0,0.0,0.0,0.0,0.0,0.0,0.0,0.0,0.0,0.0,0.0,0.0,0.0,0.0
144.0,1644.0,33495.83747276991,31684.35828540606,-0.0,0.0,0.0,0.0,8646.693071817468,0.0,-80000.0,0.0,88646.69307181747,0.20171469991824842,0.5568687974635191,0.40455829993758124,0.0,0.0,0.0,"[0.04202201038131648, 0.48935405492853334, 0.32498371719989905, 0.23295350352031008, 0.016683207570913794, 0.09599753428666702, 0.482873831974338, 0.13946089565620667]",21.96,0.0,0.0,0.0,219.3641158886696,33.297695338046566,-825.7619882733741,-273.171212113073,1021.3588937141997,0.0,0.0,0.0,0.0,0.0,0.0,2.5,21.836426240081856,0.0,21.847232584701928,0.0,2.5,21.96,21.51,22.19,21.84,22.15,1.23,2.5,0.0,-576.32,-542.55,0.0,80.0,10.0,118.0,0.0,0.0,0.0,0.0,0.0,0.0,0.0,0.0,0.0,0.0,0.0,0.0,0.0,0.0
145.0,531.0,0.0,0.0,-0.0,0.0,3975.3297420772033,0.0,3099.8967678694817,0.0,0.0,0.0,0.0,0.032695578231292516,0.5568687974635191,0.40455829993758124,13777.318968308813,3444.3297420772033,17221.648710386016,"[0.04202201038131648, 0.48935405492853334, 0.32498371719989905, 0.23295350352031008, 0.016683207570913794, 0.09599753428666702, 0.482873831974338, 0.13946089565620667]",22.04,0.0,0.0,0.0,226.09835066774698,28.02101137737252,-846.3039558514051,-394.8145192173416,815.4138698549265,0.0,0.0,0.0,0.0,0.0,0.0,2.1,21.861647439300363,0.0,21.848479765743612,0.0,2.1,22.04,21.51,22.19,21.9,22.21,0.92,2.1,1045.06,-590.66,-556.04,0.0,80.0,0.0,124.0,0.0,0.0,0.0,0.0,0.0,0.0,0.0,0.0,0.0,0.0,0.0,0.0,0.0,0.0
146.0,769.0,0.0,0.0,-0.0,0.0,769.0,0.0,9904.577102524749,0.0,9904.577102524749,0.0,0.0,0.0,0.5147575002589071,0.40455829993758124,0.0,0.0,0.0,"[0.04202201038131648, 0.48935405492853334, 0.32498371719989905, 0.23295350352031008, 0.016683207570913794, 0.09599753428666702, 0.482873831974338, 0.13946089565620667]",21.96,0.0,0.0,0.0,284.6288806093025,29.325019482596566,-863.9563880122649,-282.0627048190414,833.7401120074904,0.0,0.0,0.0,0.0,0.0,0.0,1.6,21.832500133368278,0.0,21.84175790750499,0.0,1.6,21.96,21.5,22.18,21.84,22.15,0.5,1.6,165.76,-602.98,-567.64,0.0,80.0,0.0,167.0,0.0,0.0,0.0,0.0,0.0,0.0,0.0,0.0,0.0,0.0,0.0,0.0,0.0,0.0
147.0,363.0,44634.56594350578,0.0,-21425.68776911439,0.0,-16000.0,0.0,5960.434810206478,0.0,0.0,0.0,0.0,0.6533333333333333,0.5147575002589071,0.4999999999999999,26490.821378695466,6622.705344673866,33113.52672336933,"[0.04202201038131648, 0.48935405492853334, 0.32498371719989905, 0.23295350352031008, 0.016683207570913794, 0.09599753428666702, 0.482873831974338, 0.13946089565620667]",21.96,0.0,0.0,0.0,57.31263641767984,24.260615911145038,-872.4440323986853,-294.1340715878095,1086.3905139270187,0.0,0.0,0.0,0.0,0.0,0.0,1.4,21.826763814857532,0.0,21.83332373014408,0.0,1.4,21.96,21.5,22.17,21.84,22.15,0.27,1.4,726.7,-608.9,-573.22,0.0,80.0,0.0,0.0,0.0,0.0,0.0,0.0,0.0,0.0,0.0,0.0,0.0,0.0,0.0,0.0,0.0,0.0
148.0,599.0,12229.317156806826,3079.3746526554464,-0.0,0.0,-8489.795918367347,0.0,8233.857293243529,0.0,0.0,0.0,8233.857293243529,1.0,0.5147575002589071,0.4999999999999999,0.0,0.0,0.0,"[0.04202201038131648, 0.48935405492853334, 0.32498371719989905, 0.23295350352031008, 0.016683207570913794, 0.09599753428666702, 0.482873831974338, 0.13946089565620667]",21.96,0.0,0.0,0.0,183.32879574105337,35.20821884104923,-880.9316767851054,-297.41062751142664,1135.0019151726124,0.0,0.0,0.0,0.0,0.0,0.0,1.2,21.82522933370267,0.0,21.831628936199053,0.0,1.2,21.96,21.49,22.17,21.86,22.17,0.16,1.2,144.88,-614.83,-578.8,0.0,80.0,15.0,91.0,0.0,0.0,0.0,0.0,0.0,0.0,0.0,0.0,0.0,0.0,0.0,0.0,0.0,0.0
149.0,699.0,0.0,0.0,-0.0,0.0,699.0,0.0,5741.50375398301,0.0,5741.503753983009,0.0,0.0,0.9702806122448979,0.49034634484231265,0.4999999999999999,0.0,0.0,0.0,"[0.04202201038131648, 0.48935405492853334, 0.32498371719989905, 0.23295350352031008, 0.016683207570913794, 0.09599753428666702, 0.482873831974338, 0.13946089565620667]",22.04,0.0,0.0,0.0,62.04092892213842,42.274123225170236,-897.2298221699265,-415.19806053603776,1037.3416639732036,0.0,0.0,0.0,0.0,0.0,0.0,0.9,21.852300652625797,0.0,21.836085994216887,0.0,0.9,22.04,21.49,22.18,21.9,22.22,-0.1,0.9,0.0,-626.2,-589.5,0.0,80.0,33.0,0.0,0.0,0.0,0.0,0.0,0.0,0.0,0.0,0.0,0.0,0.0,0.0,0.0,0.0,0.0
150.0,702.0,0.0,1582.9116098620966,-0.0,0.0,2284.9116098620966,0.0,4172.14337045237,0.0,0.0,0.0,4172.14337045237,0.8731330097847748,0.49034634484231265,0.4999999999999999,0.0,0.0,0.0,"[0.04202201038131648, 0.48935405492853334, 0.32498371719989905, 0.23295350352031008, 0.016683207570913794, 0.09599753428666702, 0.482873831974338, 0.13946089565620667]",21.96,0.0,0.0,0.0,236.19970283636303,69.23373265643015,-897.9069655579458,-293.6490239975861,1063.262570853693,0.0,0.0,0.0,0.0,0.0,0.0,0.8,21.827218980414344,0.0,21.836005852129432,0.0,0.8,21.96,21.49,22.18,21.86,22.18,-0.14,0.8,0.0,-626.67,-589.95,0.0,149.0,39.0,91.0,0.0,0.0,0.0,0.0,0.0,0.0,0.0,0.0,0.0,0.0,0.0,0.0,0.0,0.0
151.0,1263.0,841.4430163079643,0.0,-0.0,0.0,3901.0001987735764,0.0,7617.279697308203,17376.18,21518.223697308204,0.0,0.0,0.7072741577961024,0.39885729851021995,0.4999999999999999,13900.944000000001,3475.2360000000003,17376.18,"[0.04202201038131648, 0.48935405492853334, 0.32498371719989905, 0.23295350352031008, 0.016683207570913794, 0.09599753428666702, 0.482873831974338, 0.13946089565620667]",22.04,0.0,0.0,0.0,116.63121510997848,80.42394174544583,-909.9612887495566,-411.59637151196307,955.9102907391957,0.0,0.0,0.0,0.0,0.0,0.0,0.6,21.85416507922778,0.0,21.840190914936592,0.0,0.6,22.04,21.49,22.19,21.91,22.23,-0.32,0.6,675.19,-635.09,-597.87,0.0,150.0,64.0,0.0,0.0,0.0,0.0,0.0,0.0,0.0,0.0,0.0,0.0,0.0,0.0,0.0,0.0,0.0
