scenario,year,calc_type,maxPV,RenVar,heat_demand_sh,heat_demand_dhw,elec_consum_grid_building,elec_consum_grid_ev,elec_consum_grid_total,elec_consum_pv,gas_consum,primary_energy_consum,grid_index_local,grid_index_external,cost_operating_ev,cost_operating_building,cost_operating,cost_operating_discounted,cost_renovation,cost_EAC,cost_EAC_temporary,co2_emission,self_sufficiency,self_consumption,flexible_load_ratio,grid_interaction_index,high_load_rate,scenario_nr,1 - self_consumption,1 - self_sufficiency,1 - flexible_load_ratio,co2_emission_abs_var,co2_emission_rel_var,primary_energy_consum_abs_var,primary_energy_consum_rel_var,cost_operating_abs_var,cost_operating_rel_var,cost_EAC_abs_var,cost_EAC_rel_var,self_consumption_abs_var,self_consumption_rel_var,self_sufficiency_abs_var,self_sufficiency_rel_var,flexible_load_ratio_abs_var,flexible_load_ratio_rel_var,grid_interaction_index_abs_var,grid_interaction_index_rel_var,high_load_rate_abs_var,high_load_rate_rel_var,co2_emission_rank,primary_energy_consum_rank,cost_operating_rank,cost_EAC_rank,self_consumption_rank,self_sufficiency_rank,flexible_load_ratio_rank,grid_interaction_index_rank,high_load_rate_rank,efficiency_sum,efficiency_rank,flexibility_sum,flexibility_rank,overall_sum,overall_rank,custom_order,CO2,PED,OPC,EAC,SCR,SSR,FLR,GII,HLR,CO2_var,PED_var,OPC_var,EAC_var,SCR_var,SSR_var,FLR_var,GII_var,HLR_var
S0,2020,RB,0,100-0-0,4176741.6044999934,301956.78588000004,899293.6069341792,35582.36810179092,934875.97503597,0.0,4755931.144490837,6914.301014004667,,56.63358696214789,18685.96100427956,472261.0148514572,490.9469758557368,340.87337439742527,1075200.0,523.8173812081088,527.4490050118188,1274.7974454848445,0.0,,17.06639979829142,10.80681893309376,0.30821917808219,0,,100.0,82.93360020170857,0.0,0.0,0.0,0.0,0.0,0.0,0.0,0.0,0.0,0.0,0.0,0.0,0.0,0.0,0.0,0.0,0.0,0.0,,,,,,,,,,,,,,,,0,1275.0,6914.0,491.0,524.0,,0.0,17.07,10.81,0.31,0.0,0.0,0.0,0.0,0.0,0.0,0.0,0.0,0.0
S116,2045,RB,0,100-0-0,3932637.470442804,301956.78588000004,875112.6286135124,451101.1404982746,1326213.769111787,0.0,4512585.3724331865,7351.028694077721,,27.136108103309866,214799.14072733928,416699.10312839056,631.4982438557298,438.46066458387656,1075200.0,607.2690504493878,595.8451697591765,1006.7778890526365,0.0,,40.802900643438115,21.591921417580682,6.46118721461187,116,,100.0,59.197099356561885,-268.019556432208,-0.21024481762298475,436.7276800730542,0.0631629544603971,140.551267999993,0.286286044954259,83.45166924127898,0.159314433302709,,,0.0,0.0,23.736500845146693,23.736500845146693,10.785102484486922,10.785102484486922,6.15296803652968,6.15296803652968,5,5,5,1,5,5,5,1,1,4.0,4,3.4000000000000004,4,3.7,5,8,1007.0,7351.0,631.0,607.0,,0.0,40.8,21.59,6.46,-21.0,6.3,28.6,15.9,,0.0,23.74,10.79,6.15
S22,2045,RB,2,0-100-0,1559964.5267337612,301956.78588000004,979331.814115652,450418.9974000679,1429750.81151572,646932.0925239698,0.0,2573.551460728296,28.81126408967544,13.329889780454748,103316.66389421734,224638.1623864555,327.9548262806728,227.7049738199504,10175648.886048216,705.2552270649011,757.0840607998789,114.85357581800923,29.61899664876429,57.926983162869305,61.99690080240927,44.22032446825334,13.230593607305929,22,42.073016837130695,70.3810033512357,38.00309919759073,-1159.9438696668353,-0.9099044509190032,-4340.749553276371,-0.6277929677178271,-162.992149575064,-0.33199542433470186,181.43784585679225,0.3463761462789421,,,29.61899664876429,29.61899664876429,44.93050100411785,44.93050100411785,33.41350553515958,33.41350553515958,12.922374429223739,12.922374429223739,4,4,4,4,1,4,2,3,5,4.0,4,3.0,3,3.5,4,9,115.0,2574.0,328.0,705.0,57.93,29.62,62.0,44.22,13.23,-91.0,-62.8,-33.2,34.6,,29.62,44.93,33.41,12.92
S36,2045,RB,2,0-0-100,889294.4221112891,301956.78588000004,745806.1173075623,450436.9627836783,1196243.0800912406,626152.4525356073,0.0,2153.237544164233,31.277592937513,11.491568295985116,100495.83237741368,166394.8848420437,266.8907172194574,185.30705727511892,12363288.708361996,735.8779585308395,801.6368532738699,90.70502816682176,32.55231112120522,56.202862764362685,56.952000507482495,40.57670530256866,8.86986301369863,36,43.797137235637315,67.44768887879478,43.047999492517505,-1184.0924173180229,-0.9288474977039792,-4761.063469840434,-0.688582036014497,-224.05625863627944,-0.4563756773238943,212.06057732273064,0.4048368475930364,,,32.55231112120522,32.55231112120522,39.885600709191074,39.885600709191074,29.769886369474904,29.769886369474904,8.56164383561644,8.56164383561644,3,3,3,5,3,3,4,2,3,3.5,3,3.0,3,3.25,3,10,91.0,2153.0,267.0,736.0,56.2,32.55,56.95,40.58,8.87,-92.9,-68.9,-45.6,40.5,,32.55,39.89,29.77,8.56
S26,2045,cost,2,0-100-0,1602532.896200344,301956.78588000004,642502.4367948277,446883.6648271778,1089386.1016220057,864796.6781165933,0.0,1960.8949829196097,59.09174648188552,14.485375055274597,101505.77797215566,145938.89826133166,247.4446762334873,171.80531892953832,10175648.886048216,657.4526955907362,717.9055776398261,81.57270158986303,37.94931689460445,76.30700806102202,63.03683754974714,52.73412978903668,10.43378995433789,26,23.692991938977983,62.05068310539555,36.96316245025286,-1193.2247438949814,-0.9360112448618545,-4953.406031085057,-0.7164001134824927,-243.50229962224952,-0.4959849262699235,133.63531438262737,0.25511813692477503,,,37.94931689460445,37.94931689460445,45.97043775145572,45.97043775145572,41.92731085594292,41.92731085594292,10.1255707762557,10.1255707762557,2,2,2,2,2,2,1,5,4,2.0,2,2.8,1,2.4,2,11,82.0,1961.0,247.0,657.0,76.31,37.95,63.04,52.73,10.43,-93.6,-71.6,-49.6,25.5,,37.95,45.97,41.93,10.13
S40,2045,cost,2,0-0-100,907708.5729991152,301956.78588000004,415825.8568525527,445823.7941947092,861649.6510472619,851994.366501134,0.0,1550.9693718850715,63.384788053486034,17.600275485870878,98680.78380755067,92040.89601313428,190.72167982068493,132.42151549646323,12363288.708361996,690.6529427349714,764.570876533095,60.2178803029904,41.75177192681817,75.16797101517436,58.71696026605091,45.371833219955,7.6255707762556995,40,24.83202898482564,58.24822807318183,41.28303973394909,-1214.5795651818542,-0.9527627855576007,-5363.331642119596,-0.7756867442213409,-300.2252960350519,-0.6115228544014336,166.83556152686253,0.31849947617637375,,,41.75177192681817,41.75177192681817,41.65056046775949,41.65056046775949,34.56501428686124,34.56501428686124,7.317351598173509,7.317351598173509,1,1,1,3,4,1,3,4,2,1.5,1,2.8000000000000003,2,2.1500000000000004,1,12,60.0,1551.0,191.0,691.0,75.17,41.75,58.72,45.37,7.63,-95.3,-77.6,-61.2,31.8,,41.75,41.65,34.57,7.32
