15min_step,F_el_TT(t),,,,,,,,,
TIME,UWH,UWB,USH,USB,SWX,SSX,WWH,WWB,WSB,WSH
1,0.007687511,0.005652712,0.006662503,0.006123107,0.007182761,0.005509642,0.006022539,0.00748617,0.006116755,0.008312106
2,0.007734964,0.005652712,0.006246096,0.005961972,0.007182761,0.005023497,0.006751072,0.005929312,0.00647446,0.007909907
3,0.009206031,0.005652712,0.00520508,0.006123107,0.006650705,0.004861449,0.006071108,0.005896187,0.006045214,0.007641775
4,0.009253485,0.007949126,0.006870706,0.006123107,0.006650705,0.005185545,0.006265383,0.005962437,0.006152525,0.007507709
5,0.009206031,0.008125773,0.005621487,0.0051563,0.007714818,0.005185545,0.005779695,0.005796813,0.005115181,0.008043974
6,0.009111124,0.007242537,0.006662503,0.004511763,0.006916733,0.006157835,0.006022539,0.00612806,0.005973673,0.007373643
7,0.008209502,0.0063593,0.006454299,0.004834032,0.007182761,0.005185545,0.006993916,0.006459306,0.006903706,0.006837378
8,0.008494225,0.005829359,0.006454299,0.005478569,0.007182761,0.004213256,0.006702503,0.006459306,0.00651023,0.006301113
9,0.007924779,0.0063593,0.006454299,0.004995166,0.00585262,0.004213256,0.006168246,0.006326808,0.005615968,0.005630782
10,0.008778947,0.005652712,0.006454299,0.005639704,0.006650705,0.005833738,0.006119677,0.005730564,0.006188296,0.005764848
11,0.007877326,0.004416181,0.006870706,0.004834032,0.007182761,0.005833738,0.005925401,0.005796813,0.006689083,0.005094517
12,0.007592603,0.004416181,0.007078909,0.004511763,0.00585262,0.004861449,0.006022539,0.005333068,0.007118329,0.005094517
13,0.007734964,0.004592828,0.006454299,0.004834032,0.009310987,0.004375304,0.005779695,0.005796813,0.006224066,0.005094517
14,0.009111124,0.004592828,0.00582969,0.004511763,0.00744879,0.0046994,0.005828264,0.005465567,0.007583345,0.005228583
15,0.008399317,0.004592828,0.00520508,0.004350628,0.006650705,0.004861449,0.005779695,0.004935573,0.007046788,0.00496045
16,0.007592603,0.004946123,0.00520508,0.0051563,0.006916733,0.005023497,0.005828264,0.00612806,0.007583345,0.005764848
17,0.007640057,0.004769475,0.006454299,0.006284241,0.006118649,0.005185545,0.006556797,0.006293683,0.00651023,0.006167047
18,0.007592603,0.004769475,0.006246096,0.005800838,0.00585262,0.004375304,0.006508228,0.006094935,0.006689083,0.005362649
19,0.007592603,0.00512277,0.006454299,0.005639704,0.006384677,0.004375304,0.006313952,0.00520057,0.005973673,0.005362649
20,0.007592603,0.00512277,0.005621487,0.005961972,0.00744879,0.004051207,0.005342575,0.005564941,0.005615968,0.005228583
21,0.007592603,0.004769475,0.00520508,0.005317435,0.008512902,0.004213256,0.005099731,0.006525556,0.005973673,0.005362649
22,0.008019687,0.004946123,0.00582969,0.005478569,0.007980846,0.004213256,0.006022539,0.006293683,0.007583345,0.005362649
23,0.007877326,0.005652712,0.006662503,0.004834032,0.00744879,0.005023497,0.005585419,0.007784292,0.006867935,0.005898914
24,0.007545149,0.006182653,0.00520508,0.004511763,0.008778931,0.005023497,0.005439713,0.008281162,0.005508656,0.00710551
25,0.008209502,0.006889242,0.00582969,0.004995166,0.009843043,0.0046994,0.005391144,0.008943655,0.004471312,0.006703311
26,0.010012745,0.007949126,0.006662503,0.005961972,0.010907156,0.004537352,0.006556797,0.008413661,0.005222492,0.006837378
27,0.009728023,0.008832362,0.007287112,0.005478569,0.011705241,0.0046994,0.012870749,0.010599887,0.004685935,0.006971444
28,0.009870384,0.01148207,0.007703519,0.004834032,0.009044959,0.004375304,0.007528174,0.01225612,0.006009443,0.006703311
29,0.010155107,0.014661721,0.009785551,0.0051563,0.008512902,0.004537352,0.009228084,0.012984862,0.00718987,0.006301113
30,0.009111124,0.012012012,0.007495315,0.005800838,0.009044959,0.005023497,0.010927994,0.010633012,0.008119903,0.006703311
31,0.008921309,0.010598834,0.007703519,0.005639704,0.012769354,0.005023497,0.008013862,0.010136142,0.006832165,0.006301113
32,0.007734964,0.009892245,0.007287112,0.009668063,0.0103751,0.005509642,0.007771018,0.007817417,0.00865646,0.006301113
33,0.008019687,0.010068892,0.006662503,0.008217854,0.011971269,0.005185545,0.009228084,0.011461128,0.013092002,0.008714305
34,0.009111124,0.011835365,0.007078909,0.008217854,0.010907156,0.005023497,0.011170839,0.01218987,0.009693805,0.006703311
35,0.009680569,0.014131779,0.008744535,0.008378988,0.011705241,0.006481932,0.008013862,0.010368015,0.0093361,0.01313849
36,0.010582191,0.012365306,0.008119925,0.011279407,0.017823889,0.007778318,0.00898524,0.011361754,0.009693805,0.007507709
37,0.009633115,0.015898251,0.009160941,0.013535288,0.013833466,0.00761627,0.011899371,0.010401139,0.008119903,0.007507709
38,0.00982293,0.012188659,0.008952738,0.011440541,0.0103751,0.011829525,0.012142216,0.0094074,0.008978395,0.009384636
39,0.009490754,0.012718601,0.01103477,0.012246213,0.014365523,0.007454221,0.021126338,0.010268641,0.008012591,0.016087947
40,0.009016216,0.016428193,0.02206954,0.013051885,0.007980846,0.005509642,0.009082377,0.012786114,0.011339247,0.015417616
41,0.010155107,0.01024554,0.02144493,0.016919111,0.008512902,0.013936153,0.008159569,0.012620491,0.011875805,0.014747285
42,0.009633115,0.016251546,0.023943369,0.020464067,0.009843043,0.015394588,0.006022539,0.010931134,0.019959937,0.015819815
43,0.007497696,0.008125773,0.019571101,0.014018692,0.008778931,0.010695187,0.013356437,0.008148663,0.025110889,0.009920901
44,0.010250014,0.007242537,0.012283989,0.017563648,0.008512902,0.013612056,0.008013862,0.008612408,0.0137001,0.013540689
45,0.012765064,0.00830242,0.014366021,0.024009024,0.007980846,0.020904229,0.017727635,0.009639273,0.009049936,0.017964875
46,0.016522575,0.00830242,0.013533208,0.024170158,0.008778931,0.017825312,0.018699012,0.012421743,0.011375018,0.023863789
47,0.019454105,0.00830242,0.01041016,0.013696423,0.009310987,0.01701507,0.018461766,0.011096757,0.012483903,0.017562676
48,0.010250014,0.010068892,0.01041016,0.019658395,0.0103751,0.013450008,0.018218921,0.008281162,0.014236658,0.01742861
49,0.009206031,0.012188659,0.009785551,0.014502095,0.009577015,0.017501215,0.019433143,0.011096757,0.009049936,0.017026411
50,0.007877326,0.013248543,0.014157818,0.010957138,0.007714818,0.02560363,0.01408497,0.007949916,0.013127772,0.011797828
51,0.010534737,0.016428193,0.014574224,0.009668063,0.007182761,0.021066278,0.014570659,0.007121799,0.019888396,0.018098941
52,0.010819459,0.018194665,0.01041016,0.008056719,0.007182761,0.022686761,0.008499551,0.006923051,0.01223351,0.009920901
53,0.013002333,0.016074898,0.012075786,0.009829198,0.007714818,0.023010857,0.011899371,0.006856802,0.016204035,0.009518702
54,0.013144694,0.01024554,0.01561524,0.012407348,0.010109072,0.014098201,0.007528174,0.006293683,0.013378166,0.008043974
55,0.017130811,0.009892245,0.01623985,0.009345794,0.014631551,0.010046994,0.007528174,0.005598066,0.008119903,0.010859365
56,0.019171323,0.008832362,0.013325005,0.016113439,0.018621974,0.016690974,0.010199461,0.007088675,0.008692231,0.009518702
57,0.015327567,0.007242537,0.010826567,0.013535288,0.014365523,0.018635553,0.008499551,0.008281162,0.008155673,0.008982437
58,0.01157872,0.007949126,0.01103477,0.010312601,0.014099495,0.014908443,0.006799641,0.010732386,0.008298755,0.005764848
59,0.013429417,0.010068892,0.012283989,0.011440541,0.015695664,0.018149409,0.006799641,0.009274901,0.007583345,0.006167047
60,0.011341451,0.010422187,0.011867583,0.009023526,0.007980846,0.016528926,0.005828264,0.007254298,0.00794105,0.006301113
61,0.007497696,0.007595831,0.010826567,0.006767644,0.009044959,0.008102415,0.009956617,0.008281162,0.008692231,0.011261563
62,0.012195619,0.005476064,0.011451176,0.008701257,0.009044959,0.008750608,0.010927994,0.011394879,0.008119903,0.018635206
63,0.016703727,0.008125773,0.011242973,0.014663229,0.009577015,0.00761627,0.007285329,0.013249859,0.0093361,0.019439603
64,0.012148165,0.005829359,0.011867583,0.012246213,0.009577015,0.00664398,0.005828264,0.011858624,0.010874231,0.01421102
65,0.008778947,0.011128776,0.01041016,0.011118273,0.009310987,0.011667477,0.006313952,0.010401139,0.014236658,0.012200027
66,0.015422475,0.012188659,0.009369144,0.012729617,0.009843043,0.014098201,0.009470928,0.010434264,0.020675347,0.012602225
67,0.009965292,0.012895248,0.008536331,0.011440541,0.012503325,0.01328796,0.015056348,0.010599887,0.019781085,0.009920901
68,0.00830441,0.017488076,0.009577347,0.011601676,0.011705241,0.013450008,0.018213324,0.008579284,0.020675347,0.010189033
69,0.008873855,0.022964141,0.009785551,0.009345794,0.009310987,0.017177119,0.013842126,0.009109278,0.01441551,0.012736292
70,0.009111124,0.021374315,0.011451176,0.007734451,0.010109072,0.020418085,0.011170839,0.009241777,0.018350265,0.011663762
71,0.010250014,0.015368309,0.015198834,0.008540122,0.009044959,0.020418085,0.015784881,0.009738647,0.018171412,0.010591232
72,0.010487283,0.01342519,0.009577347,0.012729617,0.007714818,0.018149409,0.017970479,0.012554242,0.014236658,0.012736292
73,0.012575249,0.017311429,0.01165938,0.012407348,0.008512902,0.016690974,0.017484791,0.015237338,0.011088854,0.02238906
74,0.007734964,0.015015015,0.012492192,0.020464067,0.009310987,0.017177119,0.020884611,0.01788731,0.014594363,0.027751709
75,0.013002333,0.011658718,0.019154695,0.032549146,0.010109072,0.027062064,0.020398923,0.028652821,0.013843182,0.019305537
76,0.016798634,0.010775481,0.019987508,0.023847889,0.021548284,0.026737968,0.017727635,0.031269668,0.018171412,0.02238906
77,0.017415533,0.010068892,0.018530085,0.017724782,0.014631551,0.016528926,0.012627904,0.033323396,0.0115181,0.01635608
78,0.020974566,0.01660484,0.014574224,0.013857557,0.011971269,0.010533139,0.013599282,0.028321574,0.010301903,0.01635608
79,0.012765064,0.012718601,0.013949615,0.009829198,0.009577015,0.011019284,0.013113593,0.026234721,0.010337673,0.013674755
80,0.012622703,0.020137785,0.013116802,0.010957138,0.0103751,0.013450008,0.011656527,0.027957203,0.010444985,0.014881351
81,0.012859971,0.019254549,0.013116802,0.010796004,0.009310987,0.010695187,0.010927994,0.018052933,0.011375018,0.011931894
82,0.015754651,0.014661721,0.010201957,0.012407348,0.0103751,0.009398801,0.01238506,0.015469211,0.012054657,0.01421102
83,0.011104182,0.012718601,0.008744535,0.011601676,0.011971269,0.011829525,0.012627904,0.01126238,0.026577479,0.012065961
84,0.016086828,0.015015015,0.009160941,0.009345794,0.018888002,0.01231567,0.01408497,0.012653616,0.022463872,0.009786835
85,0.010961821,0.013955132,0.009785551,0.010312601,0.023144453,0.011667477,0.014327815,0.013448607,0.017169838,0.013674755
86,0.008921309,0.013248543,0.016031647,0.012568482,0.025538707,0.010209042,0.013113593,0.009473649,0.020210331,0.013004424
87,0.00830441,0.015721604,0.018738289,0.019980664,0.019952115,0.010857235,0.013356437,0.013912352,0.012197739,0.010457166
88,0.00906367,0.012188659,0.017072663,0.014824364,0.017291833,0.010695187,0.013356437,0.009771771,0.010659608,0.009786835
89,0.008162048,0.009009009,0.015823444,0.013857557,0.012769354,0.00761627,0.013842126,0.007585544,0.009765346,0.008982437
90,0.009395846,0.010068892,0.014366021,0.013535288,0.012769354,0.008264463,0.011656527,0.008943655,0.008513378,0.007775841
91,0.009158577,0.010952129,0.009369144,0.012890751,0.013833466,0.009884946,0.014813503,0.008744907,0.006724853,0.007239576
92,0.008778947,0.01024554,0.008328128,0.009668063,0.012769354,0.008750608,0.011899371,0.009573023,0.005651738,0.00710551
93,0.008778947,0.009715598,0.007911722,0.009506929,0.010907156,0.006157835,0.012870749,0.008778032,0.005651738,0.006569245
94,0.008826401,0.010422187,0.007495315,0.009506929,0.010109072,0.006806028,0.009470928,0.007916791,0.006188296,0.008714305
95,0.008873855,0.008479067,0.007078909,0.007089913,0.010109072,0.006319883,0.008742395,0.007916791,0.00647446,0.005898914
96,0.007782418,0.007242537,0.006870706,0.006284241,0.008246874,0.005023497,0.008013862,0.008248037,0.00647446,0.00496045
