MFH_AB1,VOLUME, m3,52.5,,,,,,,,,,,,,,,
COMPONENT,AREA,DIRECTION,ORIENTATION,INCLINATION,LAYER_NR,LAYERS,THICKNESS,CONDUCTIVITY,DENSITY,CAPACITY,HBACK,HFRONT,UVALUE,SHGC,LW-BACK,LW-FRONT,SW-BACK,SW-FRONT
,m2,,DEG,DEG,,,m,kJ/hmK,kg/m3,kJ/kgK,W/m2K,W/m2K,W/m2K,%,%,%,%,%
MFH_AB1_EW1,3.50,S,0,90,1,Beton 2100,0.240,7.326,2100,0.920,,2.7,0.6,,,0,,0
,,,,,2,Daemmung 047,0.062,0.1692,75,0.840,,,,,,,,
,,,,,3,Fassadenplatte,0.025,1.62,1300,1.050,20,,,,0,,0,
MFH_AB1_IC1,17.50,,,,1,Beton 2400,0.150,7.326,2400,1.050,,1.7,2.20,,,0,,0
,,,,,2,Steinwolle 060,0.012,0.216,50,0.840,,,,,,,,
,,,,,3,Estrich,0.045,5.04,2200,1.050,,,,,,,,
,,,,,4,PVC-Belag,0.002,0.756,1300,1.470,1.7,,,,0,,0,
MFH_AB1_IF1,17.50,,,,1,PVC-Belag,0.002,0.756,1300,1.470,,1.7,1.90,,,0,,0
,,,,,2,Estrich,0.045,5.04,2200,1.050,,,,,,,,
,,,,,3,Steinwolle 060,0.012,0.216,50,0.840,,,,,,,,
,,,,,4,Beton 2400,0.150,7.326,2400,1.050,1.7,,,,0,,0,
MFH_AB1_ID1,2.00,,,,1,Buche,0.756,2.52,700,2.520,2.7,2.7,2.77,,0,0,0,0
MFH_AB1_W1,7.00,S,0,90,1,Fenster,0.006,,,,20,2.7,2.1,1,0,0,0.85,0.85
MFH_AB1_IW1,38.50,,,,1,Hohlblocksteine,0.240,2.016,1300,1.050,2.7,2.7,1.67,,0,0,0,0