MFH_AB1,VOLUME, m3,52.5,,,,,,,,,,,,,,,
COMPONENT,AREA,DIRECTION,ORIENTATION,INCLINATION,LAYER_NR,LAYERS,THICKNESS,CONDUCTIVITY,DENSITY,CAPACITY,HBACK,HFRONT,UVALUE,SHGC,LW-BACK,LW-FRONT,SW-BACK,SW-FRONT
,m2,,DEG,DEG,,,m,kJ/hmK,kg/m3,kJ/kgK,W/m2K,W/m2K,W/m2K,%,%,%,%,%
MFH_AB1_EW2,3.50,S,0,90,1,Brettschalung,0.010,0.504,500,2.520,,2.7,0.597,,,0,,0
,,,,,2,Daemmung 047,0.064,0.1692,75,0.840,,,,,,,,
,,,,,3,Brettschalung,0.010,0.504,500,2.520,20,,,,0,,0,
MFH_AB1_IC2,17.50,,,,1,Metalldecke,0.001,208.8,7800,0.480,,1.7,0.80,,,0,,0
,,,,,2,Steinwolle 047,0.020,0.1692,75,0.840,,,,,,,,
,,,,,3,Luft,0.200,3.906,1,1.200,,,,,,,,
,,,,,4,Beton 2100,0.120,7.326,2100,0.920,,,,,,,,
,,,,,5,Steinwolle 047,0.020,0.1692,75,0.840,,,,,,,,
,,,,,6,Estrich,0.030,5.04,2200,1.050,1.7,,,,0,,0,
MFH_AB1_IF2,17.50,,,,1,Estrich,0.030,5.04,2200,1.050,,1.7,0.75,,,0,,0
,,,,,2,Steinwolle 047,0.020,0.1692,75,0.840,,,,,,,,
,,,,,3,Beton 2100,0.120,7.326,2100,0.920,,,,,,,,
,,,,,4,Luft,0.200,3.906,1,1.200,,,,,,,,
,,,,,5,Steinwolle 047,0.020,0.1692,75,0.840,,,,,,,,
,,,,,6,Metalldecke,0.001,208.8,7800,0.480,1.7,,,,0,,0,
MFH_AB1_ID1,2.00,,,,1,Tischlerplatte,0.040,0.504,500,2.520,2.7,2.7,2.19,,0,0,0,0
MFH_AB1_W1,7.00,S,0,90,1,Fenster,0.006,,,,20,2.7,2.1,1,0,0,0,0
MFH_AB1_IW1,38.50,,,,1,Porenbeton,0.120,1.44,1200,1.050,2.7,2.7,2.13,,0,0,0,0