Zone-ID,Zone-Volume,Zone-Area,number_occupants,bid_gh,heated_area,energy_standard,windowtype
MFH1-Zone_1,168.846782558,56.2822608528,1,MFH1,56.2822608528,AB1,3416-GU
MFH1-Zone_2,229.753627017,76.58454233890001,3,MFH1,76.58454233890001,AB1,3416-GU
MFH1-Zone_3,229.753627017,76.58454233890001,1,MFH1,76.58454233890001,AB1,3416-GU
MFH1-Zone_4,168.846782558,56.2822608528,2,MFH1,56.2822608528,AB1,3416-GU
MFH1-Zone_5,229.753627017,76.58454233890001,1,MFH1,76.58454233890001,AB1,3416-GU
MFH1-Zone_6,229.753627017,76.58454233890001,1,MFH1,76.58454233890001,AB1,3416-GU
MFH2-Zone_1,287.549335009,95.8497783364,1,MFH2,95.8497783364,AB1,3416-GU
MFH2-Zone_2,296.473849902,98.82461663379999,3,MFH2,98.82461663379999,AB1,3416-GU
MFH2-Zone_3,319.062161236,106.354053745,1,MFH2,106.354053745,AB1,3416-GU
MFH2-Zone_4,299.011951138,99.6706503794,1,MFH2,99.6706503794,AB1,3416-GU
MFH2-Zone_5,287.549335009,95.8497783364,1,MFH2,95.8497783364,AB1,3416-GU
MFH2-Zone_6,296.473849902,98.82461663379999,4,MFH2,98.82461663379999,AB1,3416-GU
MFH2-Zone_7,319.062161236,106.354053745,1,MFH2,106.354053745,AB1,3416-GU
MFH2-Zone_8,299.011951138,99.6706503794,5,MFH2,99.6706503794,AB1,3416-GU
