,0
import_elec,1346323642.561598
import_th,0.0
consum_elec,841569464.0
consum_th,4325425010.688905
consum_cold,151817752.3331012
pow_elec_hp,1556369964.5823483
pow_th_hp,4572600370.893436
pow_th_gb,0.0
pow_th_chp,0.0
pow_gas_gb,0.0
pow_elec_eh,60415549.466000006
pow_elec_ac,76402172.58570597
pow_elec_chp,0.0
pow_th_eh_in,241662197.86400002
pow_th_eh_out,302077747.33000004
consum_dhw,301956785.88
gen_pv,1162927412.7139301
trans_to_hub,457013674.6706612
trans_to_bul,1801052248.8589063
dh_to_bul_1,0.0
dh_to_bul_2,0.0
temp_zone_1,200153.28807218393
temp_zone_2,0.0
temp_amb,86002.3
pow_elec_bat,31972590.508808453
pow_th_tes,7712009.586538557
soc_bat_avg,3734.954848200802
soc_tes_avg,2712.8095606578872
soc_ev_1,3588.8941613476222
soc_ev_2,0.0
consum_ev_drive,53475600.0
consum_ev_charge,-48302368.54439879
soc_ev_1_driving,1099.7833333333333
soc_ev_2_driving,0.0
obj_cost,393117.16690860194
obj_co2,341456236.9689354
obj_peak,1346323642.561598
emi_factor_elec,2095054.0
emi_factor_dh,1656539.0
price_elec,559990.1799999999
price_dh,692825.63
slack_ext,0.0
restload_avg,0.0
renovation_cost_construction,0.0
renovation_cost_hp,1465464.040073076
renovation_cost_pv,1659816.2348383616
renovation_cost_total,3125280.2749114363
