angle_irr,irr_comp,3416-GU,3203-GU,11300-SG
0,dir,0.7587717362284632,0.767150975520924,0.686133266411757
0,diff,0.5979234449958102,0.6045808322632444,0.5011931154667515
10,dir,0.7575571723391209,0.7659724469851529,0.6846880494179277
10,diff,0.5979234449958102,0.6045808322632444,0.5011931154667515
20,dir,0.7511746282133431,0.7596622998356418,0.6769832817794221
20,diff,0.5979234449958102,0.6045808322632444,0.5011931154667515
30,dir,0.7455523491968515,0.7542148695190234,0.6703527443988175
30,diff,0.5979234449958102,0.6045808322632444,0.5011931154667515
40,dir,0.7375872972166754,0.7464759622363323,0.6609825165472638
40,diff,0.5979234449958102,0.6045808322632444,0.5011931154667515
50,dir,0.7084802556501956,0.7173554947840485,0.6263745402813471
50,diff,0.5979234449958102,0.6045808322632444,0.5011931154667515
60,dir,0.6265232398820281,0.6345749842701794,0.5328860522847572
60,diff,0.5979234449958102,0.6045808322632444,0.5011931154667515
70,dir,0.46698340796206944,0.4727877025881916,0.36882530145469977
70,diff,0.5979234449958102,0.6045808322632444,0.5011931154667515
80,dir,0.24106136227755,0.2432416043876488,0.1714288571274704
80,diff,0.5979234449958102,0.6045808322632444,0.5011931154667515
90,dir,0.0,0.0,0.0
90,diff,0.5979234449958102,0.6045808322632444,0.5011931154667515
