Szenario,Parameterkonfiguration,Parameterkonfiguration,Parameterkonfiguration,Parameterkonfiguration,Parameterkonfiguration,Parameterkonfiguration,Parameterkonfiguration,Effizienz,Effizienz,Effizienz,Effizienz,Flexibilitaet,Flexibilitaet,Flexibilitaet,Flexibilitaet,Flexibilitaet,Ranking,Ranking,Ranking
Id,Jahr,Gebaeudemix,Gebaeudemix,Gebaeudemix,Waermesystem,PV-Potential,Steuerung,Unweltfaktoren,Unweltfaktoren,Wirtschaftlichkeit,Wirtschaftlichkeit,Quartiersintern,Quartiersintern,Verteilnetz,Verteilnetz,Verteilnetz,Effizienz,Flexibilitaet,Global
,,Unsaniert,KfW-70,KfW-40,,,,CO2,PED,OPC,EAC,SCR,SSR,FLR,GII,HLR,,,
,[-],%,%,%,[-],[-],[-],[t],[MWh],[k€],[k€],[%],[%],[%],[%],[%],,,
S0,2020,100,0,0,GK,Kein,Konventionell,1275.0,6914.0,491.0,524.0,,0.0,17.07,10.81,0.31,,,
% Variation gegenüber Basisszenario S0,,,,,,,,,,,,,,,,,,,
S116,2045,100,0,0,GK,Kein,Konventionell,-21.0,6.3,28.6,15.9,,0.0,23.74,10.79,6.15,1,1,1
