,0
import_elec,820428160.898349
import_th,0.0
consum_elec,841569464.0
consum_th,1602532896.2003438
consum_cold,427661380.2656902
pow_elec_hp,612665019.7020597
pow_th_hp,1796168977.4263344
pow_th_gb,0.0
pow_th_chp,0.0
pow_gas_gb,0.0
pow_elec_eh,62350938.35723666
pow_elec_ac,213830690.1328451
pow_elec_chp,0.0
pow_th_eh_in,249403753.42894664
pow_th_eh_out,311754691.7861833
consum_dhw,301956785.88
gen_pv,1132297074.3405495
trans_to_hub,414047397.76441485
trans_to_bul,1232405321.673942
dh_to_bul_1,0.0
dh_to_bul_2,0.0
temp_zone_1,199231.09986159977
temp_zone_2,0.0
temp_amb,91211.9
pow_elec_bat,18976115.2447672
pow_th_tes,46165724.41489651
soc_bat_avg,3636.0385995341985
soc_tes_avg,2685.949015580781
soc_ev_1,3136.887146988162
soc_ev_2,0.0
consum_ev_drive,432987750.0
consum_ev_charge,-446883664.82717776
soc_ev_1_driving,1237.6814159292035
soc_ev_2_driving,0.0
obj_cost,247444.67623348732
obj_co2,81572701.589863
obj_peak,820428160.898349
emi_factor_elec,713193.0
emi_factor_dh,1117751.0
price_elec,636819.47
price_dh,752735.6499999999
slack_ext,0.0
restload_avg,0.0
renovation_cost_construction,6640156.578815999
renovation_cost_hp,815685.8690585487
renovation_cost_pv,1644606.4381736678
renovation_cost_total,9100448.886048215
