,0
import_elec,54468149.998130776
import_th,0.0
consum_elec,13812519.0
consum_th,72420042.98393068
consum_cold,2692265.991228058
pow_elec_hp,33342025.693208337
pow_th_hp,66912569.918870255
pow_th_gb,0.0
pow_th_chp,0.0
pow_gas_gb,0.0
pow_elec_eh,9703153.31082863
pow_elec_ac,1346132.995614029
pow_elec_chp,0.0
pow_th_eh_in,38812613.24331452
pow_th_eh_out,48515766.55414314
consum_dhw,4862385.2299999995
gen_pv,5708830.736704492
trans_to_hub,0.0
trans_to_bul,54468149.998130776
dh_to_bul_1,0.0
dh_to_bul_2,0.0
temp_zone_1,3166.423390609618
temp_zone_2,0.0
temp_amb,-537.8
pow_elec_bat,-80143.83215100966
pow_th_tes,1539772.6107146482
soc_bat_avg,70.97442193006998
soc_tes_avg,56.836071135907495
soc_ev_1,109.92579190535075
soc_ev_2,0.0
consum_ev_drive,6561000.0
consum_ev_charge,-2966798.148656646
soc_ev_1_driving,18.71828908554572
soc_ev_2_driving,0.0
obj_cost,10508.830938573243
obj_co2,485547.48420647654
obj_peak,54468149.998130776
emi_factor_elec,1294.0
emi_factor_dh,15986.0
price_elec,1985.77
price_dh,13319.09
slack_ext,0.0
restload_avg,0.0
renovation_cost_construction,9186726.659520004
renovation_cost_hp,456755.6106683336
renovation_cost_pv,1644606.4381736678
renovation_cost_total,11288088.708361996
