,building_code,power_th_kW,power_th_Wm2
0,DE.N.AB.05.Gen.ReEx.001_001,410.79964349785075,105.67139037171546
1,DE.N.AB.05.Gen.ReEx.001_002,660.123386686123,169.8057853557342
2,DE.N.AB.06.Gen.ReEx.001_001,537.3620756836627,161.82485174052684
3,DE.N.AB.06.Gen.ReEx.001_002,463.303817540748,139.52244673940814
4,DE.N.MFH.06.Gen.ReEx.001_003,97.2976352062969,207.5461501840804
5,DE.N.MFH.06.Gen.ReEx.001_004,78.51767478809818,167.486507653793
6,DE.N.MFH.07.Gen.ReEx.001_001,144.08244564495962,222.3494531558019
7,DE.N.MFH.07.Gen.ReEx.001_002,126.47238819292498,195.17343856932868
8,DE.N.MFH.06.Gen.ReEx.001_005,116.77037808777789,249.08357100635212
9,DE.N.MFH.06.Gen.ReEx.001_006,118.2820367067098,252.3080987771113
10,DE.N.MFH.06.Gen.ReEx.001_007,101.59984526214954,216.72321941584795
11,DE.N.MFH.07.Gen.ReEx.001_003,133.87251813598274,206.59339218515856
12,DE.N.MFH.07.Gen.ReEx.001_004,161.3577510608675,249.00887509393135
13,DE.N.MFH.07.Gen.ReEx.001_005,163.01017154985593,251.55890671274065
14,DE.N.MFH.07.Gen.ReEx.001_006,166.69975687399952,257.2527112253079
15,DE.N.MFH.06.Gen.ReEx.001_008,59.07542036925819,126.01412194807632
16,DE.N.MFH.06.Gen.ReEx.001_009,104.7274733556267,223.39478104869173
17,DE.N.MFH.07.Gen.ReEx.001_007,95.20002362535368,146.91361670579272
18,DE.N.MFH.07.Gen.ReEx.001_008,131.8031454374014,203.39991579845895
19,DE.N.MFH.06.Gen.ReEx.001_001,159.65675094822365,340.56474178375345
20,DE.N.MFH.06.Gen.ReEx.001_002,131.2395323998639,279.94780802018744
