,load_elec,grid,hp_elec,ev,pv,bat_pow,cool,load_th_sh,load_th_dhw,tes_pow,dh,hp_th,bat_soc,tes_soc,ev_soc,eh_th_in,eh_elec_in,eh_th_out,temp_slack,temp_zone_1,temp_zone_2,temp_update,Qsolar_1,QconvInt_1,QradInt_1,Qvent_1,Qconduc_1,Qheating_1,Qsolar_2,QconvInt_2,QradInt_2,Qvent_2,Qconduc_2,Qheating_2,temp_amb,temp_aggregate_1,temp_aggregate_2,temp_wall_1,temp_wall_2,_Tamb,_Tz_1,_TEW_1,_TIW_1,_T1_1,_T2_1,_Taeq_1,_Tvent_1,_Qheating_1,_Qinfvent_1,_Qenvelope_1,_Qsolar_1,_Qint_people_1,_Qint_lighting_1,_Qint_appliances_1,_Tz_2,_TEW_2,_TIW_2,_T1_2,_T2_2,_Taeq_2,_Tvent_2,_Qheating_2,_Qinfvent_2,_Qenvelope_2,_Qsolar_2,_Qint_people_2,_Qint_lighting_2,_Qint_appliances_2
8.0,4420.0,39897.33266274514,35224.96559591402,-0.0,0.0,-52.88040351739041,0.0,58591.18759707565,0.0,0.0,0.0,58591.187597075645,0.5019193627943349,0.5,0.8,0.0,0.0,0.0,"[2.0, 2.0, 2.0, 2.0, 2.0, 2.0, 2.0, 2.0, 2.0]",20.0,0.0,0.0,1.0030283909529314,874.1974993932969,87.49254344077045,-2047.9325874962904,-1445.8774816599496,2539.3501223018957,0.0,0.0,0.0,0.0,0.0,0.0,-9.4,19.480147761413434,0.0,19.0,0.0,-9.4,20.0,18.0,20.0,20.0,20.0,-9.94,-9.4,1939.24,-1426.55,-1126.98,1.59,88.0,73.0,587.0,0.0,0.0,0.0,0.0,0.0,0.0,0.0,0.0,0.0,0.0,0.0,0.0,0.0,0.0
9.0,5806.0,54951.70096318994,48886.81283643134,-0.0,15.870378057347668,0.0,0.0,85043.94469729248,0.0,0.0,0.0,85043.94469729248,0.5019193627943349,0.5,0.8,0.0,0.0,0.0,"[2.0, 2.0, 2.0, 2.0, 2.0, 2.0, 2.0, 2.0, 2.0]",20.0,0.0,0.0,30.997993131129924,2018.14080736858,137.92423964197687,-1992.2065306936704,-1393.5858443273332,12024.910820401348,0.0,0.0,0.0,0.0,0.0,0.0,-8.6,19.49907557689494,0.0,19.029301131922992,0.0,-8.6,20.0,18.04,20.02,19.44,20.08,-9.11,-8.6,2374.74,-1387.73,-1096.31,49.26,112.0,103.0,1410.0,0.0,0.0,0.0,0.0,0.0,0.0,0.0,0.0,0.0,0.0,0.0,0.0,0.0,0.0
10.0,2804.0,0.0,0.0,-0.0,824.9669833934568,10562.417016606543,0.0,45666.46400000001,42916.92,80000.0,0.0,0.0,0.10273504621812388,0.19765684051398336,0.7999999999999992,34333.536,8583.384,42916.92,"[2.0, 2.0, 2.0, 2.0, 2.0, 2.0, 2.0, 2.0, 2.0]",24.0,0.0,0.0,85.73857746262468,1275.3708160949254,74.62506761650756,-2201.179243703496,-8624.904891141498,0.0,0.0,0.0,0.0,0.0,0.0,0.0,-7.6,20.825789118589,0.0,19.331418949709736,0.0,-7.6,24.0,18.26,20.4,22.22,22.31,-8.15,-7.6,1526.22,-1533.3,-1211.31,136.26,95.0,30.0,882.0,0.0,0.0,0.0,0.0,0.0,0.0,0.0,0.0,0.0,0.0,0.0,0.0,0.0,0.0
11.0,5046.0,0.0,0.0,-0.0,2327.6306770684423,2718.3693229315577,0.0,31961.199469939387,0.0,31961.19946993939,0.0,0.0,0.0,0.07686621515517991,0.7999999999999992,0.0,0.0,0.0,"[2.0, 2.0, 2.0, 2.0, 2.0, 2.0, 2.0, 2.0, 2.0]",20.52,0.0,0.0,119.19965623659125,1916.501620313739,86.83186619795991,-1903.3800243416704,-1609.337449505572,0.0,0.0,0.0,0.0,0.0,0.0,0.0,-6.8,19.943455461285936,0.0,19.41905710956611,0.0,-6.8,20.52,18.34,20.49,19.64,20.4,-7.33,-6.8,6896.27,-1325.86,-1047.43,189.44,143.0,0.0,1330.0,0.0,0.0,0.0,0.0,0.0,0.0,0.0,0.0,0.0,0.0,0.0,0.0,0.0,0.0
12.0,4669.0,77593.753229573,0.0,-0.0,5310.644728485764,-16000.0,0.0,55662.68627271979,0.0,0.0,0.0,0.0,0.5807407407407407,0.07686621515517991,0.7999999999999992,247389.71676764364,61847.42919191091,309237.14595955453,"[2.0, 2.0, 2.0, 2.0, 2.0, 2.0, 2.0, 2.0, 2.0]",20.01,0.0,0.0,181.51141060338773,1115.5905686485441,25.734951648525797,-1825.635586875095,-632.6521406295711,11923.530752005952,0.0,0.0,0.0,0.0,0.0,0.0,-6.2,19.78805333894426,0.0,19.40878600220577,0.0,-6.2,20.01,18.37,20.45,19.44,20.22,-6.7,-6.2,0.0,-1271.7,-1004.65,288.47,0.0,0.0,818.0,0.0,0.0,0.0,0.0,0.0,0.0,0.0,0.0,0.0,0.0,0.0,0.0,0.0,0.0
13.0,1214.0,75824.71781970718,63645.56747577275,-0.0,964.9936533273801,-11551.020408163267,0.0,45887.22680819836,0.0,-80000.0,0.0,125887.22680819835,1.0,0.3672365855255503,0.7999999999999992,0.0,0.0,0.0,"[2.0, 2.0, 2.0, 2.0, 2.0, 2.0, 2.0, 2.0, 2.0]",24.0,0.0,0.0,88.0606128079114,70.91773786029864,1.635962696483302,-2096.6928871985833,-7896.516445587658,3501.5973211531323,0.0,0.0,0.0,0.0,0.0,0.0,-6.1,21.094453935740546,0.0,19.690545867344916,0.0,-6.1,24.0,18.58,20.8,22.41,22.57,-6.63,-6.1,0.0,-1460.52,-1153.81,139.95,0.0,0.0,52.0,0.0,0.0,0.0,0.0,0.0,0.0,0.0,0.0,0.0,0.0,0.0,0.0,0.0,0.0
14.0,2210.0,39725.38126600016,37327.39695568176,-0.0,10.64259601160123,0.0,0.0,72052.15019927842,0.0,0.0,0.0,72052.15019927842,1.0,0.3672365855255503,0.7999999999999992,0.0,0.0,0.0,"[2.0, 2.0, 2.0, 2.0, 2.0, 2.0, 2.0, 2.0, 2.0]",21.66,0.0,0.0,27.582846503100743,84.55576437189454,1.9505709073454736,-1968.4541506015269,-2979.7286617052623,11162.39997929503,0.0,0.0,0.0,0.0,0.0,0.0,-6.6,20.571213900347182,0.0,19.842237435462998,0.0,-6.6,21.66,18.72,20.97,20.66,21.32,-7.11,-6.6,7658.1,-1371.19,-1083.24,43.84,0.0,0.0,62.0,0.0,0.0,0.0,0.0,0.0,0.0,0.0,0.0,0.0,0.0,0.0,0.0,0.0,0.0
15.0,3765.0,0.0,0.0,-0.0,0.0,3765.0,0.0,38330.75987479833,0.0,38330.75987479833,0.0,0.0,0.8577097505668934,0.2223735474499708,0.7820408163265298,0.0,0.0,0.0,"[2.0, 2.0, 2.0, 2.0, 2.0, 2.0, 2.0, 2.0, 2.0]",24.0,0.0,0.0,3.0080433625495084,117.2870279997247,2.7056306134146912,-2180.2819724025135,-7018.30033871182,9075.758211610944,0.0,0.0,0.0,0.0,0.0,0.0,-7.3,21.419877831734404,0.0,20.1150678789187,0.0,-7.3,24.0,18.93,21.3,22.51,22.81,-7.79,-7.3,0.0,-1518.74,-1199.81,4.78,0.0,0.0,86.0,0.0,0.0,0.0,0.0,0.0,0.0,0.0,0.0,0.0,0.0,0.0,0.0,0.0,0.0
16.0,3306.0,0.0,0.0,-0.0,0.0,3306.0,0.0,28138.583493698712,0.0,28138.583493698716,0.0,0.0,0.732766439909297,0.11602969448814648,0.7648979591836726,0.0,0.0,0.0,"[2.0, 2.0, 2.0, 2.0, 2.0, 2.0, 2.0, 2.0, 2.0]",24.0,0.0,0.0,0.0,327.02551993068886,39.13726143125439,-2173.316215302186,-6438.240294884303,8249.088334690116,0.0,0.0,0.0,0.0,0.0,0.0,-7.2,21.634379427996684,0.0,20.392747741126414,0.0,-7.2,24.0,19.15,21.64,22.45,22.88,-7.68,-7.2,0.0,-1513.89,-1195.97,0.0,106.0,0.0,184.0,0.0,0.0,0.0,0.0,0.0,0.0,0.0,0.0,0.0,0.0,0.0,0.0,0.0,0.0
17.0,2714.0,0.0,0.0,-0.0,0.0,3461.8613222330523,0.0,673.075190009747,0.0,0.0,0.0,0.0,0.6019326786759995,0.11602969448814648,0.7648979591836726,2991.4452889322097,747.8613222330524,3739.306611165262,"[2.0, 2.0, 2.0, 2.0, 2.0, 2.0, 2.0, 2.0, 2.0]",24.0,0.0,0.0,0.0,105.01280413928838,2.4224832236387353,-2159.384701101531,-5919.663180975416,0.0,0.0,0.0,0.0,0.0,0.0,0.0,-7.0,21.826095473774615,0.0,20.64319151315486,0.0,-7.0,24.0,19.35,21.94,22.51,23.03,-7.47,-7.0,6158.24,-1504.19,-1188.31,0.0,0.0,0.0,77.0,0.0,0.0,0.0,0.0,0.0,0.0,0.0,0.0,0.0,0.0,0.0,0.0,0.0,0.0
18.0,3649.0,0.0,10991.423760917105,-0.0,0.0,14640.423760917105,0.0,20902.119314668013,0.0,0.0,0.0,20902.119314668013,0.04862868166477108,0.11602969448814648,0.7608163265306108,0.0,0.0,0.0,"[2.0, 2.0, 2.0, 2.0, 2.0, 2.0, 2.0, 2.0, 2.0]",21.05,0.0,0.0,0.0,405.33650374201056,97.93753604139464,-1947.0183653809167,-102.10742358195573,0.0,0.0,0.0,0.0,0.0,0.0,0.0,-6.9,21.027721281483664,0.0,20.6610868398637,0.0,-6.9,21.05,19.41,21.91,20.48,21.48,-7.38,-6.9,4968.09,-1356.26,-1071.44,0.0,284.0,7.0,147.0,0.0,0.0,0.0,0.0,0.0,0.0,0.0,0.0,0.0,0.0,0.0,0.0,0.0,0.0
19.0,4303.0,5685.062551007684,1353.6372382526456,-0.0,0.0,0.0,0.0,2587.0831695030174,0.0,0.0,0.0,2587.0831695030174,0.04862868166477108,0.11602969448814648,0.7526530612244884,0.0,0.0,0.0,"[2.0, 2.0, 2.0, 2.0, 2.0, 2.0, 2.0, 2.0, 2.0]",20.48,0.0,0.0,0.0,417.6107276024469,95.7038177442732,-1899.984341984592,865.9545022674591,0.0,0.0,0.0,0.0,0.0,0.0,0.0,-6.8,20.81024075702365,0.0,20.5966805556155,0.0,-6.8,20.48,19.41,21.78,20.26,21.23,-7.27,-6.8,0.0,-1323.49,-1045.56,0.0,166.0,65.0,212.0,0.0,0.0,0.0,0.0,0.0,0.0,0.0,0.0,0.0,0.0,0.0,0.0,0.0,0.0
20.0,5285.0,35495.267585141795,14032.79124721609,-0.0,0.0,-15999.999999999998,0.0,27087.14952344488,0.0,0.0,0.0,27087.14952344488,0.6293694224055117,0.013659514883290563,0.7371428571428558,0.0,0.0,0.0,"[1.7819842990597756, 1.5764050863695935, 2.0, 1.1180029467803827, 2.0, 1.354670280134794, 1.8998080857170478, 0.8640462426860225, 1.9985118492732035]",20.28,0.0,0.0,0.0,534.6106392545591,122.44551566755797,-1872.4034182530042,1059.025146292543,0.0,0.0,0.0,0.0,0.0,0.0,0.0,-6.6,20.68550660636788,0.0,20.517830739459914,0.0,-6.6,20.28,19.4,21.64,20.14,21.08,-7.07,-6.6,0.0,-1304.28,-1030.38,0.0,258.0,59.0,250.0,0.0,0.0,0.0,0.0,0.0,0.0,0.0,0.0,0.0,0.0,0.0,0.0,0.0,0.0
21.0,4590.0,7667.363523706714,3039.0267060881797,-0.0,0.0,0.0,0.0,9509.437623491516,0.0,3614.307638118683,0.0,5895.129985372835,0.6293694224055117,0.0,0.7371428571428558,0.0,0.0,0.0,"[1.7819842990597756, 1.5764050863695935, 2.0, 1.1180029467803827, 2.0, 1.354670280134794, 1.8998080857170478, 0.8640462426860225, 1.9985118492732035]",20.22,0.0,0.0,0.0,752.2448307448682,127.10171718831813,-1861.112075754865,993.3696965925113,0.3943904710630895,0.0,0.0,0.0,0.0,0.0,0.0,-6.5,20.599050091597864,0.0,20.440016817749203,0.0,-6.5,20.22,19.38,21.5,20.1,20.98,-6.98,-6.5,869.31,-1296.42,-1024.17,0.0,270.0,52.0,404.0,0.0,0.0,0.0,0.0,0.0,0.0,0.0,0.0,0.0,0.0,0.0,0.0,0.0,0.0
22.0,3344.0,0.0,12153.83453308945,-0.0,0.0,15497.83453308945,0.0,23807.84460041169,0.0,0.0,0.0,23807.84460041169,0.04366139016479185,0.0,0.7371428571428558,0.0,0.0,0.0,"[1.7819842990597756, 1.5764050863695935, 2.0, 1.1180029467803827, 2.0, 1.354670280134794, 1.8998080857170478, 0.8640462426860225, 1.9985118492732035]",20.22,0.0,0.0,0.0,575.3093815286372,136.6972676196144,-1847.1805615542098,819.1009715494496,328.97733192237496,0.0,0.0,0.0,0.0,0.0,0.0,-6.3,20.534505142653902,0.0,20.367218784151284,0.0,-6.3,20.22,19.37,21.37,20.07,20.9,-6.81,-6.3,1167.04,-1286.71,-1016.5,0.0,314.0,53.0,251.0,0.0,0.0,0.0,0.0,0.0,0.0,0.0,0.0,0.0,0.0,0.0,0.0,0.0,0.0
23.0,2137.0,58848.899166366034,0.0,-0.0,0.0,0.0,0.0,50775.88920348076,0.0,0.0,0.0,0.0,0.04366139016479185,0.0,0.7371428571428558,225670.61868213682,56417.654670534204,282088.273352671,"[1.7819842990597756, 1.5764050863695935, 2.0, 1.1180029467803827, 2.0, 1.354670280134794, 1.8998080857170478, 0.8640462426860225, 1.9985118492732035]",20.22,0.0,0.0,0.0,323.5801237593384,71.47898550788584,-1840.2148044538824,669.7970881323154,10417.271744236965,0.0,0.0,0.0,0.0,0.0,0.0,-6.2,20.479219688088456,0.0,20.304948357463196,0.0,-6.2,20.22,19.35,21.26,20.09,20.85,-6.7,-6.2,3681.82,-1281.86,-1012.67,0.0,160.0,29.0,150.0,0.0,0.0,0.0,0.0,0.0,0.0,0.0,0.0,0.0,0.0,0.0,0.0,0.0,0.0
24.0,847.0,0.0,308.28038376039234,-0.0,0.0,1155.2803837603924,0.0,609.7606499578429,0.0,0.0,0.0,609.7606499578429,0.0,0.0,0.7371428571428558,0.0,0.0,0.0,"[1.7819842990597756, 1.5764050863695935, 2.0, 1.1180029467803827, 2.0, 1.354670280134794, 1.8998080857170478, 0.8640462426860225, 1.9985118492732035]",23.78,0.0,0.0,0.0,243.04398825401944,53.2946309200522,-2081.5064430305106,-5921.624857206856,0.0,0.0,0.0,0.0,0.0,0.0,0.0,-6.1,21.60681454198486,0.0,20.506710886261647,0.0,-6.1,23.78,19.51,21.51,22.64,22.86,-6.61,-6.1,1015.67,-1449.94,-1145.45,0.0,160.0,0.0,94.0,0.0,0.0,0.0,0.0,0.0,0.0,0.0,0.0,0.0,0.0,0.0,0.0,0.0,0.0
25.0,790.0,2089.1497714444317,1288.70402258721,-0.0,0.0,0.0,0.0,2561.267134932494,0.0,0.0,0.0,2561.267134932494,0.0,0.0,0.7371428571428558,0.0,0.0,0.0,"[1.7819842990597756, 1.5764050863695935, 2.0, 1.1180029467803827, 2.0, 1.354670280134794, 1.8998080857170478, 0.8640462426860225, 1.9985118492732035]",20.93,0.0,0.0,0.0,262.1372253702537,53.73508241525925,-1875.8396572865565,-262.3428217379324,0.0,0.0,0.0,0.0,0.0,0.0,0.0,-6.0,20.846100110733495,0.0,20.533368365917926,0.0,-6.0,20.93,19.55,21.52,20.45,21.22,-6.47,-6.0,4104.49,-1306.68,-1032.27,0.0,160.0,0.0,108.0,0.0,0.0,0.0,0.0,0.0,0.0,0.0,0.0,0.0,0.0,0.0,0.0,0.0,0.0
26.0,610.0,81050.84353128968,80035.58931363323,-0.0,0.0,0.0,0.0,81357.75106086751,0.0,-80000.0,0.0,161357.7510608675,0.0,0.29037037037037033,0.7371428571428558,0.0,0.0,0.0,"[1.7819842990597756, 1.5764050863695935, 2.0, 1.1180029467803827, 2.0, 1.354670280134794, 1.8998080857170478, 0.8640462426860225, 1.9985118492732035]",20.25,0.0,0.0,0.0,206.22131667271057,52.44518875072433,-1807.8584718255888,920.2570580955911,10173.092388528923,0.0,0.0,0.0,0.0,0.0,0.0,-5.7,20.607107648149018,0.0,20.471270662791888,0.0,-5.7,20.25,19.53,21.41,20.14,20.93,-6.16,-5.7,3343.69,-1259.32,-994.86,0.0,160.0,0.0,67.0,0.0,0.0,0.0,0.0,0.0,0.0,0.0,0.0,0.0,0.0,0.0,0.0,0.0,0.0
27.0,2098.0,65870.55487777336,63443.202103384494,-0.0,0.0,0.0,0.0,49115.900977648686,0.0,-80000.0,0.0,129115.90097764871,0.0,0.5807407407407407,0.7371428571428558,0.0,0.0,0.0,"[1.7819842990597756, 1.5764050863695935, 2.0, 1.1180029467803827, 2.0, 1.354670280134794, 1.8998080857170478, 0.8640462426860225, 1.9985118492732035]",23.78,0.0,0.0,0.0,174.85385569604003,51.72158986574133,-2039.7119004285455,-5627.084637858212,7445.103674753114,0.0,0.0,0.0,0.0,0.0,0.0,-5.5,21.715430710635854,0.0,20.660955675031083,0.0,-5.5,23.78,19.68,21.65,22.7,22.94,-5.95,-5.5,3031.45,-1420.83,-1122.45,0.0,160.0,0.0,44.0,0.0,0.0,0.0,0.0,0.0,0.0,0.0,0.0,0.0,0.0,0.0,0.0,0.0,0.0
28.0,686.0,1341.3950217560105,0.0,-0.0,0.0,-648.6880466472304,0.0,25438.354048687866,0.0,25438.354048687866,0.0,0.0,0.023544973544973546,0.4846018365506882,0.7371428571428558,0.0,0.0,0.0,"[1.7819842990597756, 1.5764050863695935, 2.0, 1.1180029467803827, 2.0, 1.354670280134794, 1.8998080857170478, 0.8640462426860225, 1.9985118492732035]",23.78,0.0,0.0,0.0,258.045817416775,53.6406999520006,-2032.7461433282183,-5164.423750534775,6890.54712488715,0.0,0.0,0.0,0.0,0.0,0.0,-5.4,21.886511808570788,0.0,20.88093909244288,0.0,-5.4,23.78,19.84,21.92,22.55,22.92,-5.84,-5.4,835.04,-1415.97,-1118.62,0.0,160.0,0.0,105.0,0.0,0.0,0.0,0.0,0.0,0.0,0.0,0.0,0.0,0.0,0.0,0.0,0.0,0.0
29.0,623.0,0.0,0.0,-0.0,0.0,623.0,0.0,39859.19299616797,0.0,39859.19299616797,0.0,0.0,0.0,0.33396240723788406,0.7371428571428558,0.0,0.0,0.0,"[1.7819842990597756, 1.5764050863695935, 2.0, 1.1180029467803827, 2.0, 1.354670280134794, 1.8998080857170478, 0.8640462426860225, 1.9985118492732035]",23.78,0.0,0.0,0.0,255.3182121144558,53.57777830982816,-2018.8146291275627,-4750.249086751978,1014.7004512721551,0.0,0.0,0.0,0.0,0.0,0.0,-5.2,22.039610416412167,0.0,21.07953907783576,0.0,-5.2,23.78,20.0,22.16,22.6,23.04,-5.64,-5.2,1467.65,-1406.27,-1110.95,0.0,160.0,0.0,103.0,0.0,0.0,0.0,0.0,0.0,0.0,0.0,0.0,0.0,0.0,0.0,0.0,0.0,0.0
30.0,677.0,16760.804020100502,0.0,-0.0,0.0,-16000.0,0.0,27536.253073100415,0.0,27536.253073100415,0.0,0.0,0.5807407407407407,0.22989493530628763,0.7371428571428558,0.0,0.0,0.0,"[1.7819842990597756, 1.5764050863695935, 2.0, 1.1180029467803827, 2.0, 1.354670280134794, 1.8998080857170478, 0.8640462426860225, 1.9985118492732035]",21.77,0.0,0.0,0.0,353.2966657372368,115.0836835333831,-1871.4119307447834,-721.8778333499988,7586.298539526039,0.0,0.0,0.0,0.0,0.0,0.0,-5.1,21.512511861221036,0.0,21.11532685835614,0.0,-5.1,21.77,20.06,22.17,21.22,21.99,-5.54,-5.1,3575.62,-1303.59,-1029.84,0.0,338.0,11.0,80.0,0.0,0.0,0.0,0.0,0.0,0.0,0.0,0.0,0.0,0.0,0.0,0.0,0.0,0.0
31.0,798.0,0.0,0.0,-0.0,0.0,798.0,0.0,4929.41745925565,0.0,4929.41745925565,0.0,0.0,0.5505820105820105,0.21126523969307656,0.7371428571428558,0.0,0.0,0.0,"[1.7819842990597756, 1.5764050863695935, 2.0, 1.1180029467803827, 2.0, 1.354670280134794, 1.8998080857170478, 0.8640462426860225, 1.9985118492732035]",23.78,0.0,0.0,0.0,139.6821031135032,45.744033859360044,-2004.883114926908,-4380.165594060899,0.0,0.0,0.0,0.0,0.0,0.0,0.0,-5.0,22.17640007848518,0.0,21.26683818367449,0.0,-5.0,23.78,20.19,22.35,22.8,23.23,-5.44,-5.0,2918.26,-1396.56,-1103.29,0.0,137.0,3.0,30.0,0.0,0.0,0.0,0.0,0.0,0.0,0.0,0.0,0.0,0.0,0.0,0.0,0.0,0.0
32.0,1029.0,1034.1708542713568,0.0,-0.0,0.0,0.0,0.0,0.0,0.0,0.0,0.0,0.0,0.5116931216931216,0.21126523969307656,0.7371428571428558,0.0,0.0,0.0,"[1.0607815599007822, 1.2787444082691763, 1.4678760669431838, 0.5943337609246839, 1.461007606149174, 0.949551789723273, 1.2201487308595595, 0.8640462426860225, 1.2087990263817936]",21.49,0.0,0.0,1.0030091338307638,192.29617381350207,38.41366254627139,-1831.1023264250769,121.53174653423564,0.0,0.0,0.0,0.0,0.0,0.0,0.0,-4.8,21.545511039789833,0.0,21.267876886926032,0.0,-4.8,21.49,20.22,22.32,21.09,21.93,-5.24,-4.8,372.86,-1275.51,-1007.65,1.59,114.0,0.0,81.0,0.0,0.0,0.0,0.0,0.0,0.0,0.0,0.0,0.0,0.0,0.0,0.0,0.0,0.0
33.0,2835.0,26794.567075961477,10387.3145194272,-0.0,15.073048524836931,-13453.352769679303,0.0,22823.088847336232,0.0,0.0,0.0,22823.088847336232,1.0,0.21126523969307656,0.7371428571428558,0.0,0.0,0.0,"[1.0607815599007822, 1.2787444082691763, 1.4678760669431838, 0.5943337609246839, 1.461007606149174, 0.949551789723273, 1.2201487308595595, 0.8640462426860225, 1.2087990263817936]",20.94,0.0,0.0,30.970287909466876,129.56125186016098,2.988778003190648,-1723.2738650567462,1034.8514428362241,6260.004612713951,0.0,0.0,0.0,0.0,0.0,0.0,-3.8,21.334562611173457,0.0,21.198866346685975,0.0,-3.8,20.94,20.21,22.19,20.83,21.67,-4.19,-3.8,2727.59,-1200.4,-948.32,49.22,0.0,0.0,95.0,0.0,0.0,0.0,0.0,0.0,0.0,0.0,0.0,0.0,0.0,0.0,0.0,0.0,0.0
34.0,8727.0,8510.389539131182,0.0,-0.0,259.1624085644748,0.0,0.0,23623.338623715186,0.0,23623.33862371519,0.0,0.0,1.0,0.12198580422930033,0.7371428571428558,0.0,0.0,0.0,"[1.0607815599007822, 1.2787444082691763, 1.4678760669431838, 0.5943337609246839, 1.461007606149174, 0.949551789723273, 1.2201487308595595, 0.8640462426860225, 1.2087990263817936]",23.06,0.0,0.0,60.87909435935218,117.2870279997247,2.7056306134146912,-1794.4334706086509,-2972.9332817376594,0.0,0.0,0.0,0.0,0.0,0.0,0.0,-2.7,21.974188518072637,0.0,21.283515899818383,0.0,-2.7,23.06,20.29,22.28,22.37,22.85,-3.09,-2.7,0.0,-1249.97,-987.48,96.75,0.0,0.0,86.0,0.0,0.0,0.0,0.0,0.0,0.0,0.0,0.0,0.0,0.0,0.0,0.0,0.0,0.0
35.0,9228.0,0.0,0.0,-0.0,1280.0088345035792,7947.991165496421,0.0,21272.506491461183,0.0,21272.506491461187,0.0,0.0,0.699622404932108,0.04159084394411065,0.7371428571428558,0.0,0.0,0.0,"[1.0607815599007822, 1.2787444082691763, 1.4678760669431838, 0.5943337609246839, 1.461007606149174, 0.949551789723273, 1.2201487308595595, 0.8640462426860225, 1.2087990263817936]",21.36,0.0,0.0,94.97277001601803,68.19013255797947,1.5730410543108668,-1606.635870407611,319.0601594559952,5705.655273398808,0.0,0.0,0.0,0.0,0.0,0.0,-1.7,21.494500589216692,0.0,21.269147344275957,0.0,-1.7,21.36,20.31,22.23,21.06,21.84,-2.07,-1.7,1450.77,-1119.15,-884.13,150.94,0.0,0.0,50.0,0.0,0.0,0.0,0.0,0.0,0.0,0.0,0.0,0.0,0.0,0.0,0.0,0.0,0.0
36.0,2331.0,110535.5405000774,0.0,-0.0,1816.8229742373,0.0,0.0,18521.817194632844,0.0,-80000.0,0.0,0.0,0.699622404932108,0.331961214314481,0.7371428571428558,437874.74308725726,109468.68577181431,547343.4288590716,"[1.0607815599007822, 1.2787444082691763, 1.4678760669431838, 0.5943337609246839, 1.461007606149174, 0.949551789723273, 1.2201487308595595, 0.8640462426860225, 1.2087990263817936]",23.06,0.0,0.0,105.59844370302436,215.69615614392458,40.74176330665148,-1676.015599903083,-2843.0932267949693,0.0,0.0,0.0,0.0,0.0,0.0,0.0,-1.0,22.021418936874788,0.0,21.358080662017315,0.0,-1.0,23.06,20.4,22.32,22.39,22.86,-1.5,-1.0,647.3,-1167.48,-922.31,167.83,120.0,0.0,95.0,0.0,0.0,0.0,0.0,0.0,0.0,0.0,0.0,0.0,0.0,0.0,0.0,0.0,0.0
37.0,4530.0,10643.766763876747,6585.261577846077,-0.0,524.7136477887145,0.0,0.0,16415.347241106374,0.0,0.0,0.0,16415.347241106378,0.699622404932108,0.331961214314481,0.7371428571428558,0.0,0.0,0.0,"[1.0607815599007822, 1.2787444082691763, 1.4678760669431838, 0.5943337609246839, 1.461007606149174, 0.949551789723273, 1.2201487308595595, 0.8640462426860225, 1.2087990263817936]",21.52,0.0,0.0,73.83216264874454,1746.6005216140154,65.02951718521128,-1547.9803719594943,153.43423580866695,3671.440156596915,0.0,0.0,0.0,0.0,0.0,0.0,-0.7,21.59084059022735,0.0,21.35141320539286,0.0,-0.7,21.52,20.42,22.28,21.21,21.95,-1.23,-0.7,898.48,-1078.29,-851.85,117.34,83.0,0.0,1237.0,0.0,0.0,0.0,0.0,0.0,0.0,0.0,0.0,0.0,0.0,0.0,0.0,0.0,0.0
38.0,2643.0,347.26466261115263,1689.350956570654,-0.0,0.5174970491936491,3986.3051202233637,0.0,4114.482685707459,0.0,0.0,0.0,4114.482685707459,0.5489683943416559,0.331961214314481,0.7371428571428547,0.0,0.0,0.0,"[1.0607815599007822, 1.2787444082691763, 1.4678760669431838, 0.5943337609246839, 1.461007606149174, 0.949551789723273, 1.2201487308595595, 0.8640462426860225, 1.2087990263817936]",23.06,0.0,0.0,17.383706517841603,860.7748101424103,44.296836089394034,-1696.9128712040658,-2750.8952370618426,0.0,0.0,0.0,0.0,0.0,0.0,0.0,-1.3,22.05566345954202,0.0,21.41624263806407,0.0,-1.3,23.06,20.49,22.34,22.25,22.74,-1.78,-1.3,3256.55,-1182.04,-933.81,27.63,82.0,0.0,588.0,0.0,0.0,0.0,0.0,0.0,0.0,0.0,0.0,0.0,0.0,0.0,0.0,0.0,0.0
39.0,2019.0,0.0,0.0,-0.0,0.0,2019.0,0.0,27663.65923200969,0.0,27663.659232009693,0.0,0.0,0.47266453946637244,0.22741223762510196,0.7371428571428547,0.0,0.0,0.0,"[1.0607815599007822, 1.2787444082691763, 1.4678760669431838, 0.5943337609246839, 1.461007606149174, 0.949551789723273, 1.2201487308595595, 0.8640462426860225, 1.2087990263817936]",21.76,0.0,0.0,1.9954152961958453,201.41211785020045,29.38440689452701,-1647.7779990409529,-206.56478455646013,5153.351455776381,0.0,0.0,0.0,0.0,0.0,0.0,-1.9,21.691065544176656,0.0,21.41186586868564,0.0,-1.9,21.76,20.52,22.31,21.33,22.03,-2.39,-1.9,463.86,-1147.81,-906.77,3.17,83.0,0.0,104.0,0.0,0.0,0.0,0.0,0.0,0.0,0.0,0.0,0.0,0.0,0.0,0.0,0.0,0.0
40.0,2683.0,15414.949714593455,12654.874966020487,-0.0,0.0,0.0,0.0,29856.318140623574,0.0,0.0,0.0,29856.318140623574,0.47266453946637244,0.22741223762510196,0.7371428571428547,0.0,0.0,0.0,"[1.0607815599007822, 1.2787444082691763, 1.4678760669431838, 0.5943337609246839, 1.461007606149174, 0.949551789723273, 1.2201487308595595, 0.8640462426860225, 1.2087990263817936]",23.06,0.0,0.0,0.0,375.47640359030595,70.75538662290283,-1752.6389280066858,-2615.889600063168,0.0,0.0,0.0,0.0,0.0,0.0,0.0,-2.1,22.106013241265842,0.0,21.492249350941456,0.0,-2.1,23.06,20.59,22.39,22.41,22.86,-2.6,-2.1,3253.92,-1220.86,-964.48,0.0,163.0,24.0,187.0,0.0,0.0,0.0,0.0,0.0,0.0,0.0,0.0,0.0,0.0,0.0,0.0,0.0,0.0
41.0,3705.0,0.0,0.0,-0.0,0.0,3705.0,0.0,178.70470853466497,0.0,178.70470853466497,0.0,0.0,0.33264186372941096,0.2267368607976845,0.7371428571428547,0.0,0.0,0.0,"[1.0607815599007822, 1.2787444082691763, 1.4678760669431838, 0.5943337609246839, 1.461007606149174, 0.949551789723273, 1.2201487308595595, 0.8640462426860225, 1.2087990263817936]",21.61,0.0,0.0,0.0,1619.049084187142,181.34017274095686,-1665.3373715883747,199.85604316363302,0.0,0.0,0.0,0.0,0.0,0.0,0.0,-2.3,21.693607744608,0.0,21.477561054628353,0.0,-2.3,21.61,20.61,22.35,21.32,22.01,-2.8,-2.3,0.0,-1160.04,-916.43,0.0,298.0,98.0,1020.0,0.0,0.0,0.0,0.0,0.0,0.0,0.0,0.0,0.0,0.0,0.0,0.0,0.0,0.0
42.0,3952.0,0.0,0.0,-0.0,0.0,3952.0,0.0,18600.59417396287,0.0,18600.59417396287,0.0,0.0,0.18328434294331875,0.1564398306617704,0.7371428571428547,0.0,0.0,0.0,"[1.0607815599007822, 1.2787444082691763, 1.4678760669431838, 0.5943337609246839, 1.461007606149174, 0.949551789723273, 1.2201487308595595, 0.8640462426860225, 1.2087990263817936]",21.73,0.0,0.0,0.0,2138.7296733658486,156.8007322937073,-1687.456967014251,-123.24644067688091,3141.1621268469958,0.0,0.0,0.0,0.0,0.0,0.0,-2.5,21.691829507300703,0.0,21.440867433522136,0.0,-2.5,21.73,20.61,22.28,21.39,22.03,-3.05,-2.5,2367.12,-1175.45,-928.61,0.0,81.0,148.0,1510.0,0.0,0.0,0.0,0.0,0.0,0.0,0.0,0.0,0.0,0.0,0.0,0.0,0.0,0.0
43.0,5226.0,5252.261306532663,0.0,-0.0,0.0,0.0,0.0,9978.808748772713,0.0,9978.808748772713,0.0,0.0,0.18328434294331875,0.11872702359913731,0.7334693877550995,0.0,0.0,0.0,"[1.0607815599007822, 1.2787444082691763, 1.4678760669431838, 0.5943337609246839, 1.461007606149174, 0.949551789723273, 1.2201487308595595, 0.8640462426860225, 1.2087990263817936]",23.06,0.0,0.0,0.0,2541.9845835876686,163.78503457484757,-1794.4334706086509,-2639.0381062849287,0.0,0.0,0.0,0.0,0.0,0.0,0.0,-2.7,22.09778156982894,0.0,21.498121731875344,0.0,-2.7,23.06,20.66,22.34,22.28,22.72,-3.27,-2.7,0.0,-1249.97,-987.48,0.0,128.0,119.0,1784.0,0.0,0.0,0.0,0.0,0.0,0.0,0.0,0.0,0.0,0.0,0.0,0.0,0.0,0.0
44.0,4804.0,34410.50773963066,0.0,-0.0,0.0,-16000.0,0.0,104.34192691528557,0.0,-11986.667753923968,0.0,0.0,0.5807407407407407,0.16223418803930578,0.7244897959183647,53737.82080373004,13434.45520093251,67172.27600466255,"[0.4159997025940285, 0.7925243724800772, 1.4678760669431838, 0.13076996400407737, 0.7891573879102118, 0.2873875999314066, 1.2201487308595595, 0.8640462426860225, 1.050536973944098]",22.42,0.0,0.0,0.0,1389.4277851840093,145.44337588158285,-1763.451046802337,-1338.9064964199865,0.0,0.0,0.0,0.0,0.0,0.0,0.0,-2.9,21.933670137559204,0.0,21.516871576442973,0.0,-2.9,22.42,20.69,22.34,21.72,22.3,-3.44,-2.9,0.0,-1228.39,-970.43,0.0,167.0,113.0,919.0,0.0,0.0,0.0,0.0,0.0,0.0,0.0,0.0,0.0,0.0,0.0,0.0,0.0,0.0
45.0,4030.0,1438.453706330671,10403.661437799015,-0.0,0.0,13002.399999999998,0.0,23553.275505176396,0.0,0.0,0.0,23553.275505176396,0.08934240362811792,0.16223418803930578,0.7093877551020382,0.0,0.0,0.0,"[0.4159997025940285, 0.7925243724800772, 1.4678760669431838, 0.13076996400407737, 0.7891573879102118, 0.2873875999314066, 1.2201487308595595, 0.8640462426860225, 1.050536973944098]",21.83,0.0,0.0,0.0,802.4184124901606,88.1217598624948,-1736.641312464255,-237.66621998533418,423.99771417514864,0.0,0.0,0.0,0.0,0.0,0.0,-3.1,21.75593977294181,0.0,21.498026166550204,0.0,-3.1,21.83,20.69,22.3,21.47,22.08,-3.64,-3.1,0.0,-1209.71,-955.67,0.0,107.0,67.0,525.0,0.0,0.0,0.0,0.0,0.0,0.0,0.0,0.0,0.0,0.0,0.0,0.0,0.0,0.0
46.0,2364.0,0.0,0.0,-0.0,0.0,2364.0,0.0,21289.875781082184,0.0,21289.875781082184,0.0,0.0,0.0,0.0817735841803406,0.7093877551020382,0.0,0.0,0.0,"[0.4159997025940285, 0.7925243724800772, 1.4678760669431838, 0.13076996400407737, 0.7891573879102118, 0.2873875999314066, 1.2201487308595595, 0.8640462426860225, 1.050536973944098]",21.58,0.0,0.0,0.0,715.7092755111719,111.02523761326107,-1733.3590175620773,161.95779931471,755.147624817155,0.0,0.0,0.0,0.0,0.0,0.0,-3.3,21.656631334552028,0.0,21.461704229843484,0.0,-3.3,21.58,20.68,22.24,21.37,21.98,-3.87,-3.3,203.14,-1207.43,-953.87,0.0,268.0,26.0,381.0,0.0,0.0,0.0,0.0,0.0,0.0,0.0,0.0,0.0,0.0,0.0,0.0,0.0,0.0
47.0,1455.0,16609.187485135168,13359.354792190958,-0.0,0.0,-1711.786755518534,0.0,29862.714337008223,0.0,0.0,0.0,29862.71433700822,0.062131519274376414,0.0817735841803406,0.7093877551020382,0.0,0.0,0.0,"[0.4159997025940285, 0.7925243724800772, 1.4678760669431838, 0.13076996400407737, 0.7891573879102118, 0.2873875999314066, 1.2201487308595595, 0.8640462426860225, 1.050536973944098]",21.58,0.0,0.0,0.0,238.09123125770307,56.09464399672553,-1740.3247746624045,81.438553022035,3619.300615786272,0.0,0.0,0.0,0.0,0.0,0.0,-3.4,21.626895776952928,0.0,21.427585930849407,0.0,-3.4,21.58,20.67,22.18,21.4,21.97,-3.97,-3.4,792.69,-1212.28,-957.7,0.0,166.0,2.0,87.0,0.0,0.0,0.0,0.0,0.0,0.0,0.0,0.0,0.0,0.0,0.0,0.0,0.0,0.0
48.0,1644.0,0.0,0.0,-0.0,0.0,1644.0,0.0,21637.29037411812,0.0,21637.29037411812,0.0,0.0,0.0,0.0,0.7093877551020382,0.0,0.0,0.0,"[0.4159997025940285, 0.7925243724800772, 1.4678760669431838, 0.13076996400407737, 0.7891573879102118, 0.2873875999314066, 1.2201487308595595, 0.8640462426860225, 1.050536973944098]",22.42,0.0,0.0,0.0,426.5113343784358,71.0385340126788,-1881.868917507905,-1490.1901853026857,631.9104942014463,0.0,0.0,0.0,0.0,0.0,0.0,-4.6,21.87856946723708,0.0,21.46135773587526,0.0,-4.6,22.42,20.7,22.22,22.02,22.45,-5.15,-4.6,2851.85,-1310.88,-1035.59,0.0,160.0,24.0,226.0,0.0,0.0,0.0,0.0,0.0,0.0,0.0,0.0,0.0,0.0,0.0,0.0,0.0,0.0
49.0,1546.0,28288.601874788186,22608.031002023992,-0.0,0.0,-3993.1278633902543,0.0,34203.86322407181,0.0,-11160.093675397164,0.0,45363.956899468976,0.14493575207860923,0.040507006673663776,0.6922448979591811,0.0,0.0,0.0,"[0.4159997025940285, 0.7925243724800772, 1.4678760669431838, 0.13076996400407737, 0.7891573879102118, 0.2873875999314066, 1.2201487308595595, 0.8640462426860225, 1.050536973944098]",21.58,0.0,0.0,0.0,340.7353255291879,58.92611789448511,-1907.5029450702655,97.84010597470107,3664.8689597087973,0.0,0.0,0.0,0.0,0.0,0.0,-5.8,21.63415043940506,0.0,21.440906685356175,0.0,-5.8,21.58,20.7,22.18,21.38,21.96,-6.35,-5.8,593.6,-1328.73,-1049.7,0.0,160.0,6.0,165.0,0.0,0.0,0.0,0.0,0.0,0.0,0.0,0.0,0.0,0.0,0.0,0.0,0.0,0.0
50.0,1895.0,12751.473658896242,0.0,-0.0,0.0,0.0,0.0,9713.44466154158,0.0,0.0,0.0,0.0,0.14493575207860923,0.040507006673663776,0.6922448979591811,43170.86516240704,10792.71629060176,53963.581453008796,"[0.4159997025940285, 0.7925243724800772, 1.4678760669431838, 0.13076996400407737, 0.7891573879102118, 0.2873875999314066, 1.2201487308595595, 0.8640462426860225, 1.050536973944098]",22.42,0.0,0.0,0.0,185.76427690531676,51.97327643443108,-2049.047087915765,-1478.0566002081873,1044.967610679874,0.0,0.0,0.0,0.0,0.0,0.0,-7.0,21.884268969910213,0.0,21.47123199615516,0.0,-7.0,22.42,20.72,22.22,22.04,22.46,-7.58,-7.0,3092.48,-1427.33,-1127.59,0.0,160.0,0.0,52.0,0.0,0.0,0.0,0.0,0.0,0.0,0.0,0.0,0.0,0.0,0.0,0.0,0.0,0.0
51.0,2383.0,0.0,0.0,-0.0,0.0,2383.0,0.0,5509.08151184211,0.0,5509.08151184211,0.0,0.0,0.05487528344671202,0.01968659279670947,0.6922448979591811,0.0,0.0,0.0,"[0.4159997025940285, 0.7925243724800772, 1.4678760669431838, 0.13076996400407737, 0.7891573879102118, 0.2873875999314066, 1.2201487308595595, 0.8640462426860225, 1.050536973944098]",21.58,0.0,0.0,0.0,273.0476465795304,53.986768983948984,-2032.8865728761607,114.86922586034507,1596.0793491897396,0.0,0.0,0.0,0.0,0.0,0.0,-7.6,21.641368574313585,0.0,21.451244459775843,0.0,-7.6,21.58,20.71,22.19,21.42,21.99,-8.19,-7.6,1577.47,-1416.07,-1118.7,0.0,160.0,0.0,116.0,0.0,0.0,0.0,0.0,0.0,0.0,0.0,0.0,0.0,0.0,0.0,0.0,0.0,0.0
52.0,1452.0,0.0,0.0,-0.0,0.0,1452.0,0.0,5209.072454009324,0.0,5209.072454009325,0.0,0.0,0.0,0.0,0.6922448979591811,0.0,0.0,0.0,"[0.4159997025940285, 0.7925243724800772, 1.4678760669431838, 0.13076996400407737, 0.7891573879102118, 0.2873875999314066, 1.2201487308595595, 0.8640462426860225, 1.050536973944098]",21.58,0.0,0.0,0.0,128.48456555661397,50.65192194880994,-2081.6468725784534,47.66223954658308,1859.6297495807592,0.0,0.0,0.0,0.0,0.0,0.0,-8.3,21.616867906856868,0.0,21.420605751820304,0.0,-8.3,21.58,20.69,22.15,21.46,22.0,-8.9,-8.3,727.19,-1450.04,-1145.53,0.0,160.0,0.0,10.0,0.0,0.0,0.0,0.0,0.0,0.0,0.0,0.0,0.0,0.0,0.0,0.0,0.0,0.0
53.0,740.0,74120.24762518473,57009.6463870588,-0.0,0.0,-16000.0,0.0,32035.902980358267,0.0,-65508.125551709425,0.0,97544.02853206769,0.5807407407407407,0.23777023348398235,0.6922448979591811,0.0,0.0,0.0,"[0.4159997025940285, 0.7925243724800772, 1.4678760669431838, 0.13076996400407737, 0.7891573879102118, 0.2873875999314066, 1.2201487308595595, 0.8640462426860225, 1.050536973944098]",21.58,0.0,0.0,0.0,288.04947574228595,54.33283801589738,-2123.4414151804185,-8.89739494318502,1795.0855834472911,0.0,0.0,0.0,0.0,0.0,0.0,-8.9,21.596258076260387,0.0,21.394241837954006,0.0,-8.9,21.58,20.67,22.12,21.47,22.0,-9.53,-8.9,2463.39,-1479.15,-1168.53,0.0,160.0,0.0,127.0,0.0,0.0,0.0,0.0,0.0,0.0,0.0,0.0,0.0,0.0,0.0,0.0,0.0,0.0
54.0,673.0,0.0,0.0,-0.0,0.0,15366.399999999998,0.0,13224.059999999994,0.0,0.0,0.0,0.0,0.0,0.23777023348398235,0.6922448979591811,58773.59999999999,14693.399999999998,73466.99999999999,"[0.4159997025940285, 0.7925243724800772, 1.4678760669431838, 0.13076996400407737, 0.7891573879102118, 0.2873875999314066, 1.2201487308595595, 0.8640462426860225, 1.050536973944098]",21.58,0.0,0.0,0.0,281.94825335551934,94.13077668996229,-2158.2702006820555,-64.05681922602403,3111.78901914011,0.0,0.0,0.0,0.0,0.0,0.0,-9.4,21.576106439183175,0.0,21.367985886789747,0.0,-9.4,21.58,20.65,22.09,21.45,21.97,-10.03,-9.4,1900.77,-1503.41,-1187.69,0.0,294.0,0.0,52.0,0.0,0.0,0.0,0.0,0.0,0.0,0.0,0.0,0.0,0.0,0.0,0.0,0.0,0.0
55.0,1927.0,10932.886472496226,5264.216625723084,-0.0,0.0,-3687.005414410662,0.0,8505.269065819897,0.0,0.0,0.0,8505.269065819897,0.1338246409674981,0.23777023348398235,0.6922448979591811,0.0,0.0,0.0,"[0.4159997025940285, 0.7925243724800772, 1.4678760669431838, 0.13076996400407737, 0.7891573879102118, 0.2873875999314066, 1.2201487308595595, 0.8640462426860225, 1.050536973944098]",22.05,0.0,0.0,0.0,1834.529903070357,97.59146700944626,-2225.4776611217935,-954.0859213988621,0.0,0.0,0.0,0.0,0.0,0.0,0.0,-9.9,21.712208266587666,0.0,21.37842763443237,0.0,-9.9,22.05,20.65,22.11,21.79,22.23,-10.54,-9.9,627.37,-1550.23,-1224.68,0.0,108.0,41.0,1284.0,0.0,0.0,0.0,0.0,0.0,0.0,0.0,0.0,0.0,0.0,0.0,0.0,0.0,0.0
56.0,3541.0,57757.3618109525,53927.57500189774,-0.0,0.0,0.0,0.0,8157.711109265967,0.0,-80000.00000000001,0.0,88157.71110926598,0.0,0.49731025196748213,0.6922448979591811,0.0,0.0,0.0,"[0.4159997025940285, 0.5680730131095828, 1.3627415673322432, 0.13076996400407737, 0.7891573879102118, 0.2873875999314066, 1.2201487308595595, 0.8640462426860225, 1.050536973944098]",21.58,0.0,0.0,4.150418215222064,258.8353873727094,90.41839980178865,-2179.1674719830385,-118.05888122732262,1952.2490132919531,0.0,0.0,0.0,0.0,0.0,0.0,-9.7,21.556297658564308,0.0,21.34021266018162,0.0,-9.7,21.58,20.62,22.06,21.28,21.84,-10.36,-9.7,3017.94,-1517.97,-1199.19,6.6,136.0,78.0,110.0,0.0,0.0,0.0,0.0,0.0,0.0,0.0,0.0,0.0,0.0,0.0,0.0,0.0,0.0
57.0,2709.0,0.0,2294.163151599397,-0.0,14362.861368645008,-9359.69821704561,0.0,4275.269603470374,0.0,0.0,0.0,4275.269603470375,0.3397223797298036,0.49731025196748213,0.6922448979591811,0.0,0.0,0.0,"[0.4159997025940285, 0.5680730131095828, 1.3627415673322432, 0.13076996400407737, 0.7891573879102118, 0.2873875999314066, 1.2201487308595595, 0.8640462426860225, 1.050536973944098]",21.58,0.0,0.0,1142.2271471966924,413.447540562065,72.98910492002427,-2011.9893015751782,-154.78755773607824,2391.597885207688,0.0,0.0,0.0,0.0,0.0,0.0,-7.3,21.541097260083465,0.0,21.319680599147254,0.0,-7.3,21.58,20.6,22.04,21.45,21.96,-7.13,-7.3,1459.52,-1401.51,-1107.2,1815.32,143.0,37.0,224.0,0.0,0.0,0.0,0.0,0.0,0.0,0.0,0.0,0.0,0.0,0.0,0.0,0.0,0.0
58.0,2894.0,0.0,0.0,-0.0,26465.903396543523,0.0,0.0,21214.713056889163,0.0,0.0,0.0,0.0,0.3397223797298036,0.49731025196748213,0.6922448979591811,94287.61358617409,23571.903396543523,117859.51698271761,"[0.4159997025940285, 0.5680730131095828, 1.3627415673322432, 0.13076996400407737, 0.7891573879102118, 0.2873875999314066, 1.2201487308595595, 0.8640462426860225, 1.050536973944098]",22.28,0.0,0.0,1576.2834600517713,446.17880418989506,66.82278398712567,-1914.0584130560987,-1389.3947488238605,0.0,0.0,0.0,0.0,0.0,0.0,0.0,-5.2,21.77772338427098,0.0,21.378580665165902,0.0,-5.2,22.28,20.64,22.12,22.1,22.5,-4.81,-5.2,884.11,-1333.3,-1053.31,2505.15,150.0,21.0,246.0,0.0,0.0,0.0,0.0,0.0,0.0,0.0,0.0,0.0,0.0,0.0,0.0,0.0,0.0
59.0,3765.0,0.0,0.0,-0.0,33683.59204005322,8989.054167650604,0.0,7939.541134405479,0.0,-27077.34045252794,0.0,0.0,0.0,0.5955909691655465,0.6922448979591811,155630.5848308153,38907.64620770382,194538.2310385191,"[0.4159997025940285, 0.5680730131095828, 1.3627415673322432, 0.13076996400407737, 0.7891573879102118, 0.2873875999314066, 1.2201487308595595, 0.8640462426860225, 1.050536973944098]",21.84,0.0,0.0,1949.8764056127668,1257.9284979774634,61.50590522355493,-1758.2923953168188,-437.4448750235484,433.1049447449756,0.0,0.0,0.0,0.0,0.0,0.0,-3.4,21.69245715414039,0.0,21.421292192774743,0.0,-3.4,21.84,20.67,22.17,21.81,22.32,-2.81,-3.4,0.0,-1224.79,-967.59,3098.9,109.0,0.0,865.0,0.0,0.0,0.0,0.0,0.0,0.0,0.0,0.0,0.0,0.0,0.0,0.0,0.0,0.0
60.0,9375.0,15686.34765535725,41080.25088928774,-0.0,34847.334972207274,0.0,0.0,15744.678062912177,0.0,-80000.0,0.0,95744.67806291216,0.0,0.8859613395359169,0.6922448979591811,0.0,0.0,0.0,"[0.4159997025940285, 0.5680730131095828, 1.3627415673322432, 0.13076996400407737, 0.7891573879102118, 0.2873875999314066, 1.2201487308595595, 0.8640462426860225, 1.050536973944098]",22.42,0.0,0.0,2009.6180010532175,6057.006469234252,176.68397122019667,-1728.6222613006994,-1410.4681468136755,-5140.191953091651,0.0,0.0,0.0,0.0,0.0,0.0,-2.4,21.906374288131747,0.0,21.49510526189431,0.0,-2.4,22.42,20.72,22.27,22.23,22.68,-1.78,-2.4,194.26,-1204.13,-951.26,3193.84,124.0,0.0,4376.0,0.0,0.0,0.0,0.0,0.0,0.0,0.0,0.0,0.0,0.0,0.0,0.0,0.0,0.0
61.0,8845.0,0.0,1516.7259315199335,-4845.480437456143,30778.04844247448,-15570.842073498403,0.0,3578.3721344686633,0.0,0.0,0.0,3578.3721344686633,0.5651638974825346,0.8859613395359169,0.6971526514615836,0.0,0.0,0.0,"[0.4159997025940285, 0.5680730131095828, 1.3627415673322432, 0.13076996400407737, 0.7891573879102118, 0.2873875999314066, 1.2201487308595595, 0.8640462426860225, 1.050536973944098]",22.42,0.0,0.0,1724.9560959361438,5973.096716644486,202.76499190067085,-1707.7249899997169,-1233.4576485946588,-4985.688705362429,0.0,0.0,0.0,0.0,0.0,0.0,-2.1,21.971780835836817,0.0,21.579606242457675,0.0,-2.1,22.42,20.79,22.37,22.28,22.75,-1.65,-2.1,0.0,-1189.57,-939.76,2741.44,218.0,0.0,4265.0,0.0,0.0,0.0,0.0,0.0,0.0,0.0,0.0,0.0,0.0,0.0,0.0,0.0,0.0
62.0,5224.0,0.0,0.0,-0.0,17204.178334664863,-11980.178334664863,0.0,6164.426110980627,0.0,6164.426110980626,0.0,0.0,1.0,0.8626641887007672,0.6971526514615836,0.0,0.0,0.0,"[0.4159997025940285, 0.5680730131095828, 1.3627415673322432, 0.13076996400407737, 0.7891573879102118, 0.2873875999314066, 1.2201487308595595, 0.8640462426860225, 1.050536973944098]",22.42,0.0,0.0,881.9827491849434,1258.4309515857854,127.9826201787322,-1756.4852897020096,-1091.9484860756354,569.0107357259304,0.0,0.0,0.0,0.0,0.0,0.0,-2.8,22.024738028019694,0.0,21.649164552452092,0.0,-2.8,22.42,20.85,22.45,22.25,22.75,-2.88,-2.8,932.82,-1223.54,-966.59,1401.72,332.0,0.0,748.0,0.0,0.0,0.0,0.0,0.0,0.0,0.0,0.0,0.0,0.0,0.0,0.0,0.0,0.0
63.0,3857.0,14883.352824501582,10951.936060379074,-0.0,0.0,0.0,0.0,26184.188293000345,0.0,2746.9575769266917,0.0,23437.23071607365,1.0,0.8522826407909914,0.6971526514615836,0.0,0.0,0.0,"[0.4159997025940285, 0.5680730131095828, 1.3627415673322432, 0.13076996400407737, 0.7891573879102118, 0.2873875999314066, 1.2201487308595595, 0.8640462426860225, 1.050536973944098]",22.42,0.0,0.0,13.963807232061356,680.2504065810226,91.33076361328897,-1867.9374033072497,-1024.6388298371944,2115.2871332320024,0.0,0.0,0.0,0.0,0.0,0.0,-4.4,22.050757356914264,0.0,21.685049389013926,0.0,-4.4,22.42,20.88,22.49,22.09,22.62,-5.12,-4.4,0.0,-1301.17,-1027.92,22.19,216.0,20.0,383.0,0.0,0.0,0.0,0.0,0.0,0.0,0.0,0.0,0.0,0.0,0.0,0.0,0.0,0.0
64.0,4636.0,0.0,0.0,-0.0,0.0,13573.802000000001,0.0,12078.921842280499,44689.01,47830.12984228051,0.0,0.0,0.48700672713529847,0.6715187336017225,0.6971526514615836,35751.208000000006,8937.802000000001,44689.01,"[0.4159997025940285, 0.5680730131095828, 1.3627415673322432, 0.13076996400407737, 0.7891573879102118, 0.2873875999314066, 1.2201487308595595, 0.8640462426860225, 1.050536973944098]",22.42,0.0,0.0,0.0,293.7200236076337,100.29709762286095,-1916.6977030095425,-996.1828669230348,2528.3316187177156,0.0,0.0,0.0,0.0,0.0,0.0,-5.1,22.06163624916185,0.0,21.70129903628515,0.0,-5.1,22.42,20.9,22.5,22.02,22.54,-5.83,-5.1,0.0,-1335.14,-1054.76,0.0,276.0,20.0,68.0,0.0,0.0,0.0,0.0,0.0,0.0,0.0,0.0,0.0,0.0,0.0,0.0,0.0,0.0
65.0,4058.0,4078.391959798995,0.0,-0.0,0.0,0.0,0.0,8093.453822201191,0.0,8093.4538222011915,0.0,0.0,0.48700672713529847,0.6409312286047415,0.6971526514615836,0.0,0.0,0.0,"[0.4159997025940285, 0.5680730131095828, 1.3627415673322432, 0.13076996400407737, 0.7891573879102118, 0.2873875999314066, 1.2201487308595595, 0.8640462426860225, 1.050536973944098]",22.42,0.0,0.0,0.0,308.43473642277655,119.64550259088462,-1972.4237598121626,-959.8285705771434,266.1619090855207,0.0,0.0,0.0,0.0,0.0,0.0,-5.9,22.0754721621461,0.0,21.720795978682226,0.0,-5.9,22.42,20.93,22.52,22.07,22.58,-6.61,-5.9,0.0,-1373.95,-1085.42,0.0,234.0,76.0,95.0,0.0,0.0,0.0,0.0,0.0,0.0,0.0,0.0,0.0,0.0,0.0,0.0,0.0,0.0
66.0,5779.0,81031.38161660418,65826.60621622627,-0.0,0.0,-9020.618492294881,0.0,46435.923018699235,0.0,-80000.0,0.0,126435.92301869922,0.8144217687074831,0.9313015989751118,0.6971526514615836,0.0,0.0,0.0,"[0.4159997025940285, 0.5680730131095828, 1.3627415673322432, 0.13076996400407737, 0.7891573879102118, 0.2873875999314066, 1.2201487308595595, 0.8640462426860225, 1.050536973944098]",21.58,0.0,0.0,0.0,296.59118708375917,104.70161257493136,-1970.1947589732129,582.3222304398826,3245.7685562028855,0.0,0.0,0.0,0.0,0.0,0.0,-6.7,21.813874610743426,0.0,21.678875121327504,0.0,-6.7,21.58,20.9,22.45,21.49,22.12,-7.38,-6.7,0.0,-1372.4,-1084.2,0.0,164.0,87.0,122.0,0.0,0.0,0.0,0.0,0.0,0.0,0.0,0.0,0.0,0.0,0.0,0.0,0.0,0.0
67.0,5034.0,0.0,0.0,-0.0,0.0,5034.0,0.0,3596.463724526997,0.0,3596.463724526997,0.0,0.0,0.6241723356009071,0.9177095214069826,0.6971526514615836,0.0,0.0,0.0,"[0.4159997025940285, 0.5680730131095828, 1.3627415673322432, 0.13076996400407737, 0.7891573879102118, 0.2873875999314066, 1.2201487308595595, 0.8640462426860225, 1.050536973944098]",22.42,0.0,0.0,0.0,918.7723123601443,130.8770157186642,-2076.9101163170753,-1036.6737260874859,2076.2894664164282,0.0,0.0,0.0,0.0,0.0,0.0,-7.4,22.047789539423274,0.0,21.68901441700253,0.0,-7.4,22.42,20.92,22.46,22.13,22.6,-8.09,-7.4,0.0,-1446.74,-1142.92,0.0,266.0,54.0,528.0,0.0,0.0,0.0,0.0,0.0,0.0,0.0,0.0,0.0,0.0,0.0,0.0,0.0,0.0
68.0,4820.0,0.0,0.0,-0.0,0.0,4820.0,0.0,4459.699195800057,0.0,4459.699195800057,0.0,0.0,0.4420105820105821,0.8840005327765967,0.625315916767706,0.0,0.0,0.0,"[0.4159997025940285, 0.5680730131095828, 0.9880775428389903, 0.13076996400407737, 0.7891573879102118, 0.2873875999314066, 1.0303124728929411, 0.7660057400485449, 0.9056790351215263]",22.42,0.0,0.0,0.0,699.9896554793851,118.544373852867,-2132.6361731196953,-1011.3918717142905,87.37988529738689,0.0,0.0,0.0,0.0,0.0,0.0,-8.2,22.057536022834032,0.0,21.701720171349635,0.0,-8.2,22.42,20.93,22.48,22.03,22.53,-8.88,-8.2,0.0,-1485.56,-1173.59,0.0,302.0,22.0,352.0,0.0,0.0,0.0,0.0,0.0,0.0,0.0,0.0,0.0,0.0,0.0,0.0,0.0,0.0
69.0,3172.0,28683.793422374452,0.0,-0.0,0.0,-6136.541024573095,0.0,17308.65008762053,0.0,0.0,0.0,0.0,0.6647442932728648,0.8840005327765967,0.5861322432983183,76927.33372275795,19231.833430689487,96159.16715344743,"[0.4159997025940285, 0.5680730131095828, 0.9880775428389903, 0.13076996400407737, 0.7891573879102118, 0.2873875999314066, 1.0303124728929411, 0.7660057400485449, 0.9056790351215263]",21.58,0.0,0.0,0.0,810.4576702233118,119.20505109567758,-2123.4414151804185,525.2076998801739,2929.128963836851,0.0,0.0,0.0,0.0,0.0,0.0,-8.9,21.793837389760796,0.0,21.655561430792567,0.0,-8.9,21.58,20.9,22.41,21.47,22.08,-9.56,-8.9,0.0,-1479.15,-1168.53,0.0,324.0,7.0,423.0,0.0,0.0,0.0,0.0,0.0,0.0,0.0,0.0,0.0,0.0,0.0,0.0,0.0,0.0
70.0,2250.0,0.0,0.0,-0.0,0.0,2250.0,0.0,21778.63515350711,0.0,21778.63515350711,0.0,0.0,0.5797102796674226,0.8016927657565396,0.5836832637064815,0.0,0.0,0.0,"[0.4159997025940285, 0.5680730131095828, 0.9880775428389903, 0.13076996400407737, 0.7891573879102118, 0.2873875999314066, 1.0303124728929411, 0.7660057400485449, 0.9056790351215263]",22.42,0.0,0.0,0.0,662.5209721159479,75.19136239605949,-2237.122529624608,-1101.79164139948,358.9951284276951,0.0,0.0,0.0,0.0,0.0,0.0,-9.7,22.02484015811785,0.0,21.66060685479085,0.0,-9.7,22.42,20.9,22.42,22.09,22.56,-10.36,-9.7,1979.62,-1558.34,-1231.09,0.0,184.0,9.0,388.0,0.0,0.0,0.0,0.0,0.0,0.0,0.0,0.0,0.0,0.0,0.0,0.0,0.0,0.0
71.0,1804.0,15963.315229343332,14079.498653196615,-0.0,0.0,0.0,0.0,22076.788776233938,0.0,0.0,0.0,22076.788776233938,0.5797102796674226,0.8016927657565396,0.5747036718697468,0.0,0.0,0.0,"[0.4159997025940285, 0.5680730131095828, 0.9880775428389903, 0.13076996400407737, 0.7891573879102118, 0.2873875999314066, 1.0303124728929411, 0.7660057400485449, 0.9056790351215263]",21.58,0.0,0.0,0.0,608.1842033302737,88.93974121073646,-2227.9277716853308,442.0346154484606,3346.4700988804934,0.0,0.0,0.0,0.0,0.0,0.0,-10.4,21.76382090464715,0.0,21.61672185885557,0.0,-10.4,21.58,20.87,22.37,21.46,22.06,-11.06,-10.4,105.6,-1551.93,-1226.03,0.0,206.0,24.0,335.0,0.0,0.0,0.0,0.0,0.0,0.0,0.0,0.0,0.0,0.0,0.0,0.0,0.0,0.0
72.0,1233.0,0.0,0.0,-0.0,0.0,1233.0,0.0,28919.380089292412,0.0,28919.380089292416,0.0,0.0,0.5331116402116403,0.6923980564243687,0.5747036718697462,0.0,0.0,0.0,"[0.4159997025940285, 0.5680730131095828, 0.9880775428389903, 0.13076996400407737, 0.7891573879102118, 0.2873875999314066, 1.0303124728929411, 0.7660057400485449, 0.9056790351215263]",22.42,0.0,0.0,0.0,241.68018560285986,53.263170098965986,-2320.7116148285386,-1172.9157947963972,954.407297375445,0.0,0.0,0.0,0.0,0.0,0.0,-10.9,21.99914354053492,0.0,21.626200673544716,0.0,-10.9,22.42,20.87,22.39,22.1,22.55,-11.59,-10.9,1127.83,-1616.57,-1277.09,0.0,160.0,0.0,93.0,0.0,0.0,0.0,0.0,0.0,0.0,0.0,0.0,0.0,0.0,0.0,0.0,0.0,0.0
73.0,893.0,897.4874371859297,0.0,-0.0,0.0,0.0,0.0,8855.413825543641,0.0,8855.413825543641,0.0,0.0,0.5331116402116403,0.658930883992231,0.5747036718697462,0.0,0.0,0.0,"[0.4159997025940285, 0.5680730131095828, 0.9880775428389903, 0.13076996400407737, 0.7891573879102118, 0.2873875999314066, 1.0303124728929411, 0.7660057400485449, 0.9056790351215263]",21.58,0.0,0.0,0.0,203.49371137039137,52.38226710855189,-2304.5510997889337,387.93194121724514,1665.6881308694196,0.0,0.0,0.0,0.0,0.0,0.0,-11.5,21.74437917049952,0.0,21.589432254237913,0.0,-11.5,21.58,20.84,22.34,21.49,22.08,-12.2,-11.5,2440.87,-1605.31,-1268.19,0.0,160.0,0.0,65.0,0.0,0.0,0.0,0.0,0.0,0.0,0.0,0.0,0.0,0.0,0.0,0.0,0.0,0.0
74.0,785.0,15486.648777552957,0.0,-0.0,0.0,0.0,0.0,13161.793980298668,0.0,0.0,0.0,0.0,0.5331116402116403,0.658930883992231,0.5747036718697462,58496.86213466077,14624.215533665192,73121.07766832596,"[0.4159997025940285, 0.5680730131095828, 0.9880775428389903, 0.13076996400407737, 0.7891573879102118, 0.2873875999314066, 1.0303124728929411, 0.7660057400485449, 0.9056790351215263]",21.58,0.0,0.0,0.0,236.22497499822148,53.137326814621105,-2353.311399491226,294.8952054371419,1774.0701215876659,0.0,0.0,0.0,0.0,0.0,0.0,-12.2,21.710326276742194,0.0,21.544943048164615,0.0,-12.2,21.58,20.8,22.29,21.54,22.1,-12.92,-12.2,2553.71,-1639.27,-1295.03,0.0,160.0,0.0,89.0,0.0,0.0,0.0,0.0,0.0,0.0,0.0,0.0,0.0,0.0,0.0,0.0,0.0,0.0
75.0,739.0,8439.454046847037,7658.256776612801,-0.0,0.0,0.0,0.0,35957.72800593788,0.0,25555.695276335588,0.0,10402.032729602295,0.5331116402116403,0.5623485133333663,0.5534791820738278,0.0,0.0,0.0,"[0.4159997025940285, 0.5680730131095828, 0.9880775428389903, 0.13076996400407737, 0.7891573879102118, 0.2873875999314066, 1.0303124728929411, 0.7660057400485449, 0.9056790351215263]",21.58,0.0,0.0,0.0,307.14271285852016,54.773289511104416,-2381.1744278925366,210.3794076874986,4063.35454973869,0.0,0.0,0.0,0.0,0.0,0.0,-12.6,21.679262458415685,0.0,21.50365519091475,0.0,-12.6,21.58,20.76,22.24,21.52,22.07,-13.32,-12.6,838.34,-1658.68,-1310.36,0.0,160.0,0.0,141.0,0.0,0.0,0.0,0.0,0.0,0.0,0.0,0.0,0.0,0.0,0.0,0.0,0.0,0.0
76.0,1904.0,0.0,0.0,-0.0,0.0,1904.0,0.0,15939.54845699537,0.0,15939.54845699537,0.0,0.0,0.46115396825396826,0.5021083453175108,0.5534791820738278,0.0,0.0,0.0,"[0.4159997025940285, 0.5680730131095828, 0.9880775428389903, 0.13076996400407737, 0.7891573879102118, 0.2873875999314066, 1.0303124728929411, 0.7660057400485449, 0.9056790351215263]",22.42,0.0,0.0,0.0,342.6015817886696,55.59127085934606,-2466.9925139354164,-1376.4245208418945,1201.1672011717098,0.0,0.0,0.0,0.0,0.0,0.0,-13.0,21.924929867483016,0.0,21.524669605085087,0.0,-13.0,22.42,20.77,22.28,22.1,22.53,-13.71,-13.0,1226.21,-1718.46,-1357.58,0.0,160.0,0.0,167.0,0.0,0.0,0.0,0.0,0.0,0.0,0.0,0.0,0.0,0.0,0.0,0.0,0.0,0.0
77.0,2160.0,2170.854271356784,0.0,-0.0,0.0,0.0,0.0,31038.472539666538,0.0,31038.472539666538,0.0,0.0,0.46115396825396826,0.38480497215172643,0.5534791820738278,0.0,0.0,0.0,"[0.4159997025940285, 0.5680730131095828, 0.9880775428389903, 0.13076996400407737, 0.7891573879102118, 0.2873875999314066, 1.0303124728929411, 0.7660057400485449, 0.9056790351215263]",21.58,0.0,0.0,0.0,351.6457467384647,69.87448363248875,-2436.9004846951566,200.5793105200855,1821.3971814467513,0.0,0.0,0.0,0.0,0.0,0.0,-13.4,21.676039871762136,0.0,21.494124957882292,0.0,-13.4,21.58,20.74,22.25,21.46,22.04,-14.12,-13.4,28.88,-1697.5,-1341.02,0.0,160.0,25.0,171.0,0.0,0.0,0.0,0.0,0.0,0.0,0.0,0.0,0.0,0.0,0.0,0.0,0.0,0.0
78.0,1207.0,0.0,0.0,-0.0,0.0,1207.0,0.0,11156.367779347838,0.0,11156.36777934784,0.0,0.0,0.4155379440665155,0.34264182861677617,0.5534791820738278,0.0,0.0,0.0,"[0.4159997025940285, 0.5680730131095828, 0.9880775428389903, 0.13076996400407737, 0.7891573879102118, 0.2873875999314066, 1.0303124728929411, 0.7660057400485449, 0.9056790351215263]",21.58,0.0,0.0,0.0,375.2610663295966,129.36689630652577,-2464.763513096467,121.65430742411594,1850.6936379873835,0.0,0.0,0.0,0.0,0.0,0.0,-13.8,21.64704414114967,0.0,21.45508751945878,0.0,-13.8,21.58,20.7,22.21,21.5,22.06,-14.52,-13.8,3035.1,-1716.91,-1356.36,0.0,320.0,45.0,102.0,0.0,0.0,0.0,0.0,0.0,0.0,0.0,0.0,0.0,0.0,0.0,0.0,0.0,0.0
79.0,1301.0,0.0,0.0,-0.0,0.0,10062.134,0.0,27477.022077506954,43805.67,62521.55807750696,0.0,0.0,0.03526077097505669,0.10635476105250191,0.5534791820738278,35044.536,8761.134,43805.67,"[0.4159997025940285, 0.5680730131095828, 0.9880775428389903, 0.13076996400407737, 0.7891573879102118, 0.2873875999314066, 1.0303124728929411, 0.7660057400485449, 0.9056790351215263]",21.58,0.0,0.0,0.0,176.7201119555215,60.34185484336489,-2485.6607843974493,53.30510571273683,4450.29492324103,0.0,0.0,0.0,0.0,0.0,0.0,-14.1,21.621919115570687,0.0,21.420671087361043,0.0,-14.1,21.58,20.67,22.18,21.5,22.05,-14.83,-14.1,1119.76,-1731.47,-1367.86,0.0,117.0,38.0,64.0,0.0,0.0,0.0,0.0,0.0,0.0,0.0,0.0,0.0,0.0,0.0,0.0,0.0,0.0
80.0,933.0,3366.8716659902166,537.3499126192947,-0.0,0.0,-1879.6873950409708,0.0,14394.68808192705,0.0,13746.781692564955,0.0,647.9063893620951,0.06822569063482042,0.0,0.5534791820738278,0.0,0.0,0.0,"[0.4159997025940285, 0.5680730131095828, 0.9880775428389903, 0.13076996400407737, 0.7891573879102118, 0.2873875999314066, 1.0303124728929411, 0.7660057400485449, 0.9056790351215298]",22.42,0.0,0.0,3.0693484109712306,197.75138441814042,32.87655803509714,-2550.5815991393465,-1515.6122978790138,1586.2149095942648,0.0,0.0,0.0,0.0,0.0,0.0,-14.2,21.874051127002183,0.0,21.449311924658097,0.0,-14.2,22.42,20.67,22.23,22.09,22.51,-14.93,-14.2,1570.12,-1776.69,-1403.58,4.88,95.0,0.0,95.0,0.0,0.0,0.0,0.0,0.0,0.0,0.0,0.0,0.0,0.0,0.0,0.0,0.0,0.0
81.0,3497.0,0.0,9370.184450681543,-1123.6828445714364,13990.86729525298,0.0,0.0,13352.606329834596,0.0,0.0,0.0,13352.606329834596,0.06822569063482042,0.0,0.5564157399076411,0.0,0.0,0.0,"[0.4159997025940285, 0.5680730131095828, 0.9880775428389903, 0.13076996400407737, 0.7891573879102118, 0.2873875999314066, 1.0303124728929411, 0.7660057400485449, 0.9056790351215298]",21.58,0.0,0.0,1073.9329935378894,148.94160532400778,39.79793867406495,-2332.4141281902444,80.63257200805445,964.728353836124,0.0,0.0,0.0,0.0,0.0,0.0,-11.9,21.630514208683316,0.0,21.42523425788262,0.0,-11.9,21.58,20.65,22.2,21.44,22.03,-11.81,-11.9,646.88,-1624.72,-1283.53,1706.78,122.0,0.0,45.0,0.0,0.0,0.0,0.0,0.0,0.0,0.0,0.0,0.0,0.0,0.0,0.0,0.0,0.0
82.0,1909.0,0.0,0.0,-552.3808664475109,26754.697806074364,0.0,0.0,21863.985245664157,0.0,0.0,0.0,0.0,0.06822569063482042,0.0,0.557859295238624,97173.26775850741,24293.316939626853,121466.58469813426,"[0.4159997025940285, 0.5680730131095828, 0.9880775428389903, 0.13076996400407737, 0.7891573879102118, 0.2873875999314066, 1.0303124728929411, 0.7660057400485449, 0.9056790351215298]",21.58,0.0,0.0,1543.7222982654434,262.92679532618826,48.984498431240425,-2200.064743284021,79.09870178684228,2478.8151328563276,0.0,0.0,0.0,0.0,0.0,0.0,-10.0,21.628838745182765,0.0,21.42142160829954,0.0,-10.0,21.58,20.64,22.21,21.65,22.21,-9.59,-10.0,203.12,-1532.52,-1210.69,2453.4,144.0,0.0,117.0,0.0,0.0,0.0,0.0,0.0,0.0,0.0,0.0,0.0,0.0,0.0,0.0,0.0,0.0
83.0,3098.0,0.0,13591.200485882946,-0.0,32689.200485882946,-16000.0,0.0,9547.024236585028,0.0,-14225.920954127914,0.0,23772.945190712944,0.6489664313755611,0.051634824203871686,0.557859295238624,0.0,0.0,0.0,"[0.4159997025940285, 0.5680730131095828, 0.9880775428389903, 0.13076996400407737, 0.7891573879102118, 0.2873875999314066, 1.0303124728929411, 0.7660057400485449, 0.9056790351215298]",22.42,0.0,0.0,1838.7176812622022,45.005487488266446,1.0382070958451697,-2153.533444420678,-1407.9547076101057,0.0,0.0,0.0,0.0,0.0,0.0,0.0,-8.5,21.91036712883941,0.0,21.489310941085336,0.0,-8.5,22.42,20.68,22.3,22.3,22.75,-7.91,-8.5,1426.86,-1500.11,-1185.09,2922.23,0.0,0.0,33.0,0.0,0.0,0.0,0.0,0.0,0.0,0.0,0.0,0.0,0.0,0.0,0.0,0.0,0.0
84.0,9132.0,0.0,27757.19255155311,-0.0,36889.19255155311,0.0,0.0,10767.833888222573,0.0,-40429.627172506116,0.0,51197.46106072869,0.6489664313755611,0.19837939690407908,0.557859295238624,0.0,0.0,0.0,"[0.4159997025940285, 0.5680730131095828, 0.9880775428389903, 0.13076996400407737, 0.7891573879102118, 0.2873875999314066, 1.0303124728929411, 0.7660057400485449, 0.9056790351215298]",21.81,0.0,0.0,2046.9278012649836,594.3308395579685,56.62947795519124,-2041.9124788109698,-137.1469195125413,829.5702062026647,0.0,0.0,0.0,0.0,0.0,0.0,-7.5,21.777144633629913,0.0,21.528281086819334,0.0,-7.5,21.81,20.7,22.35,21.89,22.47,-6.79,-7.5,0.0,-1422.36,-1123.66,3253.14,144.0,0.0,360.0,0.0,0.0,0.0,0.0,0.0,0.0,0.0,0.0,0.0,0.0,0.0,0.0,0.0,0.0
85.0,7973.0,0.0,0.0,-17414.573850936475,32532.03765767112,0.0,0.0,6430.01742606118,0.0,0.0,0.0,0.0,0.6489664313755611,0.19837939690407908,0.6033693815690713,28577.85522693859,7144.463806734648,35722.31903367324,"[0.4159997025940285, 0.5680730131095828, 0.9880775428389903, 0.13076996400407737, 0.7891573879102118, 0.2873875999314066, 1.0303124728929411, 0.7660057400485449, 0.9056790351215298]",22.33,0.0,0.0,1823.2566196325681,2802.1837736115376,162.9985140476921,-2057.001829069272,-1016.7072693543506,-1515.1471953228338,0.0,0.0,0.0,0.0,0.0,0.0,-7.2,21.968592341841134,0.0,21.592870845122967,0.0,-7.2,22.33,20.75,22.43,22.29,22.8,-6.61,-7.2,0.0,-1432.87,-1131.97,2897.66,330.0,0.0,1881.0,0.0,0.0,0.0,0.0,0.0,0.0,0.0,0.0,0.0,0.0,0.0,0.0,0.0,0.0
86.0,5428.0,0.0,0.0,-0.0,26769.13633506964,-9671.333013122297,0.0,10502.822989752607,0.0,0.0,0.0,0.0,1.0,0.19837939690407908,0.6033693815690713,46679.213287789375,11669.803321947344,58349.01660973672,"[0.4159997025940285, 0.5680730131095828, 0.9880775428389903, 0.13076996400407737, 0.7891573879102118, 0.2873875999314066, 1.0303124728929411, 0.7660057400485449, 0.9056790351215298]",22.42,0.0,0.0,1535.6598544759233,94.10238293001169,2.1707966549489948,-2097.807387618058,-1059.9121623932256,1485.756302846107,0.0,0.0,0.0,0.0,0.0,0.0,-7.7,22.038802713728124,0.0,21.653151660133684,0.0,-7.7,22.42,20.8,22.51,22.25,22.79,-7.31,-7.7,0.0,-1461.29,-1154.42,2440.59,0.0,0.0,69.0,0.0,0.0,0.0,0.0,0.0,0.0,0.0,0.0,0.0,0.0,0.0,0.0,0.0,0.0
87.0,4103.0,66518.00136754283,62084.15846558289,-0.0,1.747104877759015,0.0,0.0,23267.22862393618,0.0,-80000.0,0.0,103267.22862393617,1.0,0.4887497672744494,0.6033693815690713,0.0,0.0,0.0,"[0.4159997025940285, 0.5680730131095828, 0.9880775428389903, 0.13076996400407737, 0.7891573879102118, 0.2873875999314066, 1.0303124728929411, 0.7660057400485449, 0.9056790351215298]",22.42,0.0,0.0,21.54900085993842,567.3419028823891,13.08770157186642,-2216.2252583236254,-939.6072873463957,2554.5248398035274,0.0,0.0,0.0,0.0,0.0,0.0,-9.4,22.084677289696593,0.0,21.71222502234585,0.0,-9.4,22.42,20.84,22.58,22.3,22.85,-10.06,-9.4,0.0,-1543.78,-1219.59,34.25,0.0,0.0,416.0,0.0,0.0,0.0,0.0,0.0,0.0,0.0,0.0,0.0,0.0,0.0,0.0,0.0,0.0
88.0,4606.0,0.0,2163.6834063768842,-0.0,0.0,6769.683406376884,0.0,3640.201005329809,0.0,0.0,0.0,3640.20100532981,0.7441540662744942,0.4887497672744494,0.6033693815690713,0.0,0.0,0.0,"[0.4159997025940285, 0.5680730131095828, 0.9880775428389903, 0.13076996400407737, 0.7891573879102118, 0.2873875999314066, 1.0303124728929411, 0.7660057400485449, 0.9056790351215298]",22.42,0.0,0.0,0.0,2640.6808280794808,107.31286072508742,-2202.2937441229706,-924.259295473901,0.0,0.0,0.0,0.0,0.0,0.0,0.0,-9.2,22.090262503234314,0.0,21.720630729002394,0.0,-9.2,22.42,20.85,22.59,22.03,22.61,-9.87,-9.2,0.0,-1534.08,-1211.92,0.0,116.0,21.0,1873.0,0.0,0.0,0.0,0.0,0.0,0.0,0.0,0.0,0.0,0.0,0.0,0.0,0.0,0.0
89.0,3466.0,3483.4170854271356,0.0,-0.0,0.0,0.0,0.0,2792.6705440914784,0.0,2792.6705440914784,0.0,0.0,0.7441540662744942,0.4781954568281475,0.5682673407527448,0.0,0.0,0.0,"[0.4159997025940285, 0.5680730131095828, 0.9880775428389903, 0.13076996400407737, 0.7891573879102118, 0.2873875999314066, 1.0303124728929411, 0.7660057400485449, 0.9056790351215298]",22.27,0.0,0.0,0.0,701.8559117388666,78.71497435771583,-2178.347339934331,-702.8689404144055,247.46113701187195,0.0,0.0,0.0,0.0,0.0,0.0,-9.0,22.028187820383277,0.0,21.69347741847383,0.0,-9.0,22.27,20.84,22.55,21.74,22.37,-9.63,-9.0,0.0,-1517.4,-1198.74,0.0,155.0,29.0,430.0,0.0,0.0,0.0,0.0,0.0,0.0,0.0,0.0,0.0,0.0,0.0,0.0,0.0,0.0
90.0,2532.0,0.0,0.0,-0.0,0.0,2532.0,0.0,10124.246192274459,0.0,10124.24619227446,0.0,0.0,0.6484624562971699,0.43993299956331583,0.5633693815690713,0.0,0.0,0.0,"[0.4159997025940285, 0.5680730131095828, 0.9880775428389903, 0.13076996400407737, 0.7891573879102118, 0.2873875999314066, 1.0303124728929411, 0.7660057400485449, 0.9056790351215298]",21.58,0.0,0.0,0.0,538.0560354259096,129.74442615956036,-2116.475658080091,538.4256322354216,3171.8024641509505,0.0,0.0,0.0,0.0,0.0,0.0,-8.8,21.798654487356355,0.0,21.642274447476026,0.0,-8.8,21.58,20.81,22.47,21.44,22.11,-9.42,-8.8,149.07,-1474.3,-1164.7,0.0,286.0,57.0,238.0,0.0,0.0,0.0,0.0,0.0,0.0,0.0,0.0,0.0,0.0,0.0,0.0,0.0,0.0
91.0,2902.0,0.0,0.0,-0.0,0.0,2902.0,0.0,16162.372687916119,0.0,16162.372687916117,0.0,0.0,0.5387874751936174,0.37885071427262756,0.5596959121813162,0.0,0.0,0.0,"[0.4159997025940285, 0.5680730131095828, 0.9880775428389903, 0.13076996400407737, 0.7891573879102118, 0.2873875999314066, 1.0303124728929411, 0.7660057400485449, 0.9056790351215298]",22.42,0.0,0.0,0.0,838.2361768548254,132.19837020428534,-2167.464958621333,-1084.0814329790226,2293.5915341289874,0.0,0.0,0.0,0.0,0.0,0.0,-8.7,22.03085783789003,0.0,21.650380734515707,0.0,-8.7,22.42,20.82,22.48,22.1,22.6,-9.3,-8.7,100.79,-1509.82,-1192.75,0.0,288.0,48.0,458.0,0.0,0.0,0.0,0.0,0.0,0.0,0.0,0.0,0.0,0.0,0.0,0.0,0.0,0.0
92.0,3709.0,0.0,0.0,-0.0,0.0,3708.9999999999927,0.0,7223.914836155987,0.0,7223.914836155987,0.0,0.0,0.3986136278769129,0.6419198192002316,0.5262265244262142,0.0,0.0,0.0,"[0.4159997025940285, 0.5680730131095828, 0.6102180942877027, 0.13076996400407737, 0.7891573879102083, 0.2873875999314066, 1.0303124728929411, 0.16440045559137317, 0.9056790351215298]",22.42,0.0,0.0,0.0,752.9626216138996,133.70848961642375,-2153.533444420678,-1053.8324431604792,84.01215742239192,0.0,0.0,0.0,0.0,0.0,0.0,-8.5,22.0419390652187,0.0,21.665266546020106,0.0,-8.5,22.42,20.84,22.49,22.02,22.55,-9.08,-8.5,0.0,-1500.11,-1185.09,0.0,260.0,69.0,408.0,0.0,0.0,0.0,0.0,0.0,0.0,0.0,0.0,0.0,0.0,0.0,0.0,0.0,0.0
93.0,4033.0,0.0,0.0,-0.0,0.0,4032.9999999999964,0.0,9502.391936307113,0.0,9502.391936307113,0.0,0.0,0.2461948826010249,0.6060075291915124,0.5262265244262142,0.0,0.0,0.0,"[0.4159997025940285, 0.5680730131095828, 0.6102180942877027, 0.13076996400407737, 0.7891573879102083, 0.2873875999314066, 1.0303124728929411, 0.16440045559137317, 0.9056790351215298]",21.58,0.0,0.0,0.0,586.0044654772047,162.21199352053668,-2081.6468725784534,484.5941265025791,3113.454165469283,0.0,0.0,0.0,0.0,0.0,0.0,-8.3,21.77846762759125,0.0,21.620411627050096,0.0,-8.3,21.58,20.81,22.43,21.44,22.09,-8.87,-8.3,279.12,-1450.04,-1145.53,0.0,310.0,100.0,256.0,0.0,0.0,0.0,0.0,0.0,0.0,0.0,0.0,0.0,0.0,0.0,0.0,0.0,0.0
94.0,3725.0,11292.296742739998,7510.835259026298,-0.0,0.0,0.0,0.0,13423.932886094206,0.0,0.0,0.0,13423.932886094208,0.2461948826010249,0.6060075291915124,0.5147979529976427,0.0,0.0,0.0,"[0.4159997025940285, 0.5680730131095828, 0.6102180942877027, 0.13076996400407737, 0.7891573879102083, 0.2873875999314066, 1.0303124728929411, 0.16440045559137317, 0.9056790351215298]",22.42,0.0,0.0,0.0,457.51989992059066,87.64984754620157,-2125.670416019368,-1130.6659255200402,470.13598238917785,0.0,0.0,0.0,0.0,0.0,0.0,-8.1,22.01330397592445,0.0,21.631692828551714,0.0,-8.1,22.42,20.82,22.44,22.09,22.58,-8.65,-8.1,1231.71,-1480.7,-1169.76,0.0,168.0,48.0,242.0,0.0,0.0,0.0,0.0,0.0,0.0,0.0,0.0,0.0,0.0,0.0,0.0,0.0,0.0
95.0,2086.0,0.0,0.0,-0.0,0.0,2086.0,0.0,20266.188305280295,0.0,20266.1883052803,0.0,0.0,0.16735890376504609,0.5294157366545498,0.5147979529976427,0.0,0.0,0.0,"[0.4159997025940285, 0.5680730131095828, 0.6102180942877027, 0.13076996400407737, 0.7891573879102083, 0.2873875999314066, 1.0303124728929411, 0.16440045559137317, 0.9056790351215298]",21.58,0.0,0.0,0.0,386.8174993210015,94.09931586887612,-2053.7838441771432,421.7402631455105,1160.009857597321,0.0,0.0,0.0,0.0,0.0,0.0,-7.9,21.75500363944977,0.0,21.593092380696536,0.0,-7.9,21.58,20.8,22.38,21.45,22.08,-8.44,-7.9,587.28,-1430.63,-1130.2,0.0,282.0,2.0,135.0,0.0,0.0,0.0,0.0,0.0,0.0,0.0,0.0,0.0,0.0,0.0,0.0,0.0,0.0
96.0,1357.0,0.0,0.0,-0.0,0.0,1357.0,0.0,27426.626183534143,0.0,27426.626183534147,0.0,0.0,0.1160739453372305,0.42576257647490445,0.46541019789560195,0.0,0.0,0.0,"[0.4159997025940285, 0.5680730131095828, 0.6102180942877027, 0.13076996400407737, 0.7891573879102083, 0.2873875999314066, 1.0303124728929411, 0.16440045559137317, 0.9056790351215298]",21.58,0.0,0.0,0.0,400.4555258325974,46.5934760286879,-2011.9893015751782,323.9459065369775,1245.392874918802,0.0,0.0,0.0,0.0,0.0,0.0,-7.3,21.71853738927989,0.0,21.548393041706,0.0,-7.3,21.58,20.78,22.32,21.5,22.09,-7.85,-7.3,1808.61,-1401.51,-1107.2,0.0,80.0,24.0,249.0,0.0,0.0,0.0,0.0,0.0,0.0,0.0,0.0,0.0,0.0,0.0,0.0,0.0,0.0
97.0,936.0,22238.351147981764,0.0,-0.0,0.0,0.0,0.0,19072.043453017657,0.0,0.0,0.0,0.0,0.1160739453372305,0.42576257647490445,0.4654101978956019,84764.63756896742,21191.159392241854,105955.79696120926,"[0.4159997025940285, 0.5680730131095828, 0.6102180942877027, 0.13076996400407737, 0.7891573879102083, 0.2873875999314066, 1.0303124728929411, 0.16440045559137317, 0.9056790351215298]",21.58,0.0,0.0,0.0,389.2579882757082,45.20919990089434,-1963.2290018728854,233.40330370749732,1299.6263143527958,0.0,0.0,0.0,0.0,0.0,0.0,-6.6,21.68469413128304,0.0,21.50686637929392,0.0,-6.6,21.58,20.75,22.26,21.47,22.04,-7.15,-6.6,706.7,-1367.55,-1080.36,0.0,80.0,22.0,241.0,0.0,0.0,0.0,0.0,0.0,0.0,0.0,0.0,0.0,0.0,0.0,0.0,0.0,0.0
98.0,733.0,14039.089107936918,0.0,-13235.893662397233,0.0,0.0,0.0,9016.199705112687,0.0,9016.19970511269,0.0,0.0,0.1160739453372305,0.39168774765739617,0.5,0.0,0.0,0.0,"[0.4159997025940285, 0.5680730131095828, 0.6102180942877027, 0.13076996400407737, 0.7891573879102083, 0.2873875999314066, 1.0303124728929411, 0.16440045559137317, 0.9056790351215298]",21.58,0.0,0.0,0.0,200.6225478942659,28.47204308302671,-1914.4687021705927,152.79895036941474,3784.5678225473903,0.0,0.0,0.0,0.0,0.0,0.0,-5.9,21.654521427183447,0.0,21.469945332855218,0.0,-5.9,21.58,20.73,22.21,21.46,22.01,-6.43,-5.9,2229.89,-1333.58,-1053.53,0.0,80.0,0.0,105.0,0.0,0.0,0.0,0.0,0.0,0.0,0.0,0.0,0.0,0.0,0.0,0.0,0.0,0.0
99.0,459.0,0.0,0.0,-0.0,0.0,459.0,0.0,12552.74738819165,0.0,12552.747388191652,0.0,0.0,0.0987270065617203,0.34424728133769983,0.5,0.0,0.0,0.0,"[0.4159997025940285, 0.5680730131095828, 0.6102180942877027, 0.13076996400407737, 0.7891573879102083, 0.2873875999314066, 1.0303124728929411, 0.16440045559137317, 0.9056790351215298]",22.42,0.0,0.0,0.0,95.60974375497756,26.049559859387973,-1944.5607314108524,-1423.7870300447325,3249.147568497506,0.0,0.0,0.0,0.0,0.0,0.0,-5.5,21.903567739980883,0.0,21.49878356954313,0.0,-5.5,22.42,20.75,22.24,22.06,22.48,-6.02,-5.5,1851.29,-1354.55,-1070.09,0.0,80.0,0.0,28.0,0.0,0.0,0.0,0.0,0.0,0.0,0.0,0.0,0.0,0.0,0.0,0.0,0.0,0.0
100.0,558.0,71677.50509036939,54761.117564917535,-0.0,0.0,-16000.0,0.0,34056.9020990839,0.0,-80000.0,0.0,114056.90209908389,0.679467747302461,0.6346176517080702,0.5,0.0,0.0,0.0,"[0.4159997025940285, 0.5680730131095828, 0.6102180942877027, 0.13076996400407737, 0.7891573879102083, 0.2873875999314066, 1.0303124728929411, 0.16440045559137317, 0.9056790351215298]",22.42,0.0,0.0,0.0,244.33601181827592,58.39128393601942,-1909.7319459092098,-1341.2911638282178,2953.808023377634,0.0,0.0,0.0,0.0,0.0,0.0,-5.0,21.933826177337792,0.0,21.53764789967999,0.0,-5.0,22.42,20.78,22.29,22.02,22.47,-5.51,-5.0,861.81,-1330.28,-1050.92,0.0,160.0,9.0,94.0,0.0,0.0,0.0,0.0,0.0,0.0,0.0,0.0,0.0,0.0,0.0,0.0,0.0,0.0
101.0,539.0,21505.581176490065,12894.17852045184,-0.0,0.0,-7964.8747501557755,0.0,27347.79678459153,0.0,0.0,0.0,27347.796784591534,0.9685632011970039,0.6346176517080702,0.5,0.0,0.0,0.0,"[0.4159997025940285, 0.5680730131095828, 0.6102180942877027, 0.13076996400407737, 0.7891573879102083, 0.2873875999314066, 1.0303124728929411, 0.16440045559137317, 0.9056790351215298]",22.42,0.0,0.0,0.0,187.48697499099197,58.768813789054036,-1881.868917507905,-1269.1324487247396,660.9885604760633,0.0,0.0,0.0,0.0,0.0,0.0,-4.6,21.96027604669344,0.0,21.57222498435257,0.0,-4.6,22.42,20.81,22.33,22.02,22.48,-5.03,-4.6,1059.4,-1310.88,-1035.59,0.0,160.0,12.0,52.0,0.0,0.0,0.0,0.0,0.0,0.0,0.0,0.0,0.0,0.0,0.0,0.0,0.0,0.0
102.0,1629.0,15425.297587529249,13719.171099591602,-0.0,0.0,0.0,0.0,23667.678425823113,0.0,-5822.246463047467,0.0,29489.924888870588,0.9685632011970039,0.6557502499813536,0.5,0.0,0.0,0.0,"[0.4159997025940285, 0.5680730131095828, 0.6102180942877027, 0.13076996400407737, 0.7891573879102083, 0.2873875999314066, 1.0303124728929411, 0.16440045559137317, 0.9056790351215298]",21.58,0.0,0.0,0.0,312.09546985483655,73.36663477305888,-1803.0165885653525,306.0614829236571,1118.41890204155,0.0,0.0,0.0,0.0,0.0,0.0,-4.3,21.71036854903853,0.0,21.54504314799197,0.0,-4.3,21.58,20.8,22.29,21.44,22.03,-4.74,-4.3,1771.28,-1255.95,-992.2,0.0,222.0,0.0,112.0,0.0,0.0,0.0,0.0,0.0,0.0,0.0,0.0,0.0,0.0,0.0,0.0,0.0,0.0
103.0,816.0,0.0,0.0,-0.0,0.0,816.0,0.0,4919.272752165698,0.0,4919.272752165698,0.0,0.0,0.9377241989294302,0.6371588941530629,0.5,0.0,0.0,0.0,"[0.4159997025940285, 0.5680730131095828, 0.6102180942877027, 0.13076996400407737, 0.7891573879102083, 0.2873875999314066, 1.0303124728929411, 0.16440045559137317, 0.9056790351215298]",21.58,0.0,0.0,0.0,231.77467161022707,89.06558449508134,-1782.1193172643698,223.4161004413992,1246.2708620082103,0.0,0.0,0.0,0.0,0.0,0.0,-4.0,21.679644296915423,0.0,21.508491577790956,0.0,-4.0,21.58,20.78,22.23,21.47,22.03,-4.43,-4.0,708.96,-1241.39,-980.7,0.0,262.0,10.0,31.0,0.0,0.0,0.0,0.0,0.0,0.0,0.0,0.0,0.0,0.0,0.0,0.0,0.0,0.0
104.0,936.0,3644.578678824442,0.0,-0.0,0.0,-2690.3557854303194,0.0,15527.935799001687,0.0,15527.935799001687,0.0,0.0,1.0,0.519789764908908,0.5,0.0,0.0,0.0,"[0.4159997025940285, 0.5680730131095828, 0.6102180942877027, 0.1307699640040738, 0.7130425981147255, 0.2873875999314066, 0.7930227203300895, 0.16440045559137673, 0.9056790351215334]",21.58,0.0,0.0,1.0027857512136156,307.21449194542333,103.82070958451729,-1761.2220459633872,152.98487571935507,3455.278578417473,0.0,0.0,0.0,0.0,0.0,0.0,-3.7,21.653432190371355,0.0,21.47734969496537,0.0,-3.7,21.58,20.77,22.18,21.48,22.01,-4.11,-3.7,1037.94,-1226.84,-969.2,1.59,266.0,31.0,82.0,0.0,0.0,0.0,0.0,0.0,0.0,0.0,0.0,0.0,0.0,0.0,0.0,0.0,0.0
105.0,1389.0,1383.6186961234187,0.0,-0.0,12.299397357198357,0.0,0.0,11613.244071821786,0.0,11613.244071821786,0.0,0.0,1.0,0.4758999536019474,0.5,0.0,0.0,0.0,"[0.4159997025940285, 0.5680730131095828, 0.6102180942877027, 0.1307699640040738, 0.7130425981147255, 0.2873875999314066, 0.7930227203300895, 0.16440045559137673, 0.9056790351215334]",22.42,0.0,0.0,29.57044340769639,141.8354757205973,3.271925392966604,-1714.6907471000443,-1417.7496885529995,707.9918372780784,0.0,0.0,0.0,0.0,0.0,0.0,-2.2,21.904072221672074,0.0,21.508786353359383,0.0,-2.2,22.42,20.8,22.22,22.06,22.46,-2.57,-2.2,1132.29,-1194.42,-943.59,47.0,0.0,0.0,104.0,0.0,0.0,0.0,0.0,0.0,0.0,0.0,0.0,0.0,0.0,0.0,0.0,0.0,0.0
106.0,2177.0,0.0,6303.4862353290155,-0.0,41.70114680921977,8438.785088519795,0.0,15412.489131849565,0.0,0.0,0.0,15412.489131849563,0.6810738817641802,0.4758999536019474,0.5,0.0,0.0,0.0,"[0.4159997025940285, 0.5680730131095828, 0.6102180942877027, 0.1307699640040738, 0.7130425981147255, 0.2873875999314066, 0.7930227203300895, 0.16440045559137673, 0.9056790351215334]",21.58,0.0,0.0,37.225357446382574,257.32802654774355,36.33724835458105,-1587.0781184551995,175.39854620339926,3332.5487617390586,0.0,0.0,0.0,0.0,0.0,0.0,-1.2,21.660436189901148,0.0,21.489694274475426,0.0,-1.2,21.58,20.79,22.19,21.42,21.96,-1.54,-1.2,2132.34,-1105.53,-873.37,59.16,102.0,0.0,135.0,0.0,0.0,0.0,0.0,0.0,0.0,0.0,0.0,0.0,0.0,0.0,0.0,0.0,0.0
107.0,4977.0,4517.210143186494,0.0,-0.0,482.37590752943805,0.0,0.0,10696.562604637058,0.0,10696.562604637058,0.0,0.0,0.6810738817641802,0.43547454693287313,0.5,0.0,0.0,0.0,"[0.4159997025940285, 0.5680730131095828, 0.6102180942877027, 0.1307699640040738, 0.7130425981147255, 0.2873875999314066, 0.7930227203300895, 0.16440045559137673, 0.9056790351215334]",22.42,0.0,0.0,70.42686411299205,1709.275396424384,76.98462919797387,-1554.4783337925114,-1397.1792521723298,0.0,0.0,0.0,0.0,0.0,0.0,0.0,0.1,21.91052011049589,0.0,21.52152308907705,0.0,0.1,22.42,20.82,22.22,22.05,22.45,-0.24,0.1,1775.7,-1082.82,-855.43,111.93,126.0,0.0,1187.0,0.0,0.0,0.0,0.0,0.0,0.0,0.0,0.0,0.0,0.0,0.0,0.0,0.0,0.0
108.0,2955.0,0.0,0.0,-0.0,1175.2267691331335,1779.7732308668665,0.0,11636.789644789493,0.0,11636.789644789491,0.0,0.0,0.6138110990405646,0.3914957500893754,0.5,0.0,0.0,0.0,"[0.4159997025940285, 0.5680730131095828, 0.6102180942877027, 0.1307699640040738, 0.7130425981147255, 0.2873875999314066, 0.7930227203300895, 0.16440045559137673, 0.9056790351215334]",22.01,0.0,0.0,91.89415892928399,424.07084542372917,54.49014212132847,-1449.5025418061919,-612.1825155989221,1400.635314332813,0.0,0.0,0.0,0.0,0.0,0.0,1.2,21.793133359579095,0.0,21.516444926151795,0.0,1.2,22.01,20.83,22.2,21.58,22.08,0.8,1.2,1361.93,-1009.7,-797.66,146.05,150.0,0.0,232.0,0.0,0.0,0.0,0.0,0.0,0.0,0.0,0.0,0.0,0.0,0.0,0.0,0.0,0.0
109.0,5022.0,0.0,0.0,-0.0,1246.4972712259064,3775.5027287740936,0.0,9656.898172731278,0.0,9656.898172731278,0.0,0.0,0.47112392108236,0.3549995362846465,0.4946938775510204,0.0,0.0,0.0,"[0.4159997025940285, 0.5680730131095828, 0.6102180942877027, 0.1307699640040738, 0.7130425981147255, 0.2873875999314066, 0.7930227203300895, 0.16440045559137673, 0.9056790351215334]",21.97,0.0,0.0,96.85379800653617,759.5662976089883,67.89245190405705,-1391.371744235367,-539.8385627186319,0.0,0.0,0.0,0.0,0.0,0.0,0.0,2.0,21.78495267885663,0.0,21.521375002531606,0.0,2.0,21.97,20.85,22.2,21.7,22.17,1.6,2.0,505.81,-969.2,-765.67,153.93,169.0,0.0,468.0,0.0,0.0,0.0,0.0,0.0,0.0,0.0,0.0,0.0,0.0,0.0,0.0,0.0,0.0
110.0,4442.0,5677.54872512243,3150.6541931451325,-0.0,331.55425980906904,1611.938951839245,0.0,8754.847431335236,0.0,0.0,0.0,8754.847431335234,0.4102040816326531,0.3549995362846465,0.4946938775510202,0.0,0.0,0.0,"[0.4159997025940285, 0.5680730131095828, 0.6102180942877027, 0.1307699640040738, 0.7130425981147255, 0.2873875999314066, 0.7930227203300895, 0.16440045559137673, 0.9056790351215334]",21.6,0.0,0.0,73.19729345314404,393.27761714228365,58.54858804145049,-1344.4312308358117,132.84194866453558,2894.6680737032148,0.0,0.0,0.0,0.0,0.0,0.0,2.3,21.659577452627072,0.0,21.495552633965815,0.0,2.3,21.6,20.84,22.15,21.41,21.92,1.86,2.3,1762.82,-936.51,-739.84,116.33,166.0,0.0,201.0,0.0,0.0,0.0,0.0,0.0,0.0,0.0,0.0,0.0,0.0,0.0,0.0,0.0,0.0
111.0,1490.0,5602.293773777887,4084.425010589466,-0.0,0.14270568046892307,0.0,0.0,11115.92487476369,0.0,0.0,0.0,11115.924874763688,0.4102040816326531,0.3549995362846465,0.4946938775510202,0.0,0.0,0.0,"[0.4159997025940285, 0.5680730131095828, 0.6102180942877027, 0.1307699640040738, 0.7130425981147255, 0.2873875999314066, 0.7930227203300895, 0.16440045559137673, 0.9056790351215334]",22.42,0.0,0.0,17.52911704733192,142.98394111104747,41.15075398077229,-1443.0262201872713,-1405.4340714498394,2650.221888971202,0.0,0.0,0.0,0.0,0.0,0.0,1.7,21.906730736780453,0.0,21.5301628948123,0.0,1.7,22.42,20.88,22.18,22.04,22.41,1.23,1.7,1632.6,-1005.19,-794.1,27.86,127.0,0.0,38.0,0.0,0.0,0.0,0.0,0.0,0.0,0.0,0.0,0.0,0.0,0.0,0.0,0.0,0.0
112.0,2982.0,2996.9849246231156,0.0,-0.0,0.0,0.0,0.0,17866.497363233928,0.0,17866.497363233928,0.0,0.0,0.4102040816326531,0.28747687051278736,0.40163265306122425,0.0,0.0,0.0,"[0.4159997025940285, 0.5680730131095828, 0.6102180942877027, 0.1307699640040738, 0.7130425981147255, 0.2873875999314066, 0.7930227203300895, 0.16440045559137673, 0.9056790351215334]",22.42,0.0,0.0,0.0,198.97162889549378,31.712507654907096,-1498.7522769898915,-1318.465918201944,340.222892915396,0.0,0.0,0.0,0.0,0.0,0.0,0.9,21.939311138433023,0.0,21.573743818304166,0.0,0.9,22.42,20.92,22.23,22.02,22.41,0.41,0.9,504.54,-1044.0,-824.76,0.0,91.0,0.0,98.0,0.0,0.0,0.0,0.0,0.0,0.0,0.0,0.0,0.0,0.0,0.0,0.0,0.0,0.0
113.0,2489.0,0.0,0.0,-0.0,0.0,2489.0,0.0,18267.56790970317,0.0,18267.56790970317,0.0,0.0,0.31613756613756616,0.21843844303847454,0.38734693877550996,0.0,0.0,0.0,"[0.4159997025940285, 0.5680730131095828, 0.6102180942877027, 0.1307699640040738, 0.7130425981147255, 0.2873875999314066, 0.7930227203300895, 0.16440045559137673, 0.9056790351215334]",21.58,0.0,0.0,0.0,235.36362595538387,45.964259606963566,-1433.8314622479938,266.47283852620006,3139.67468674892,0.0,0.0,0.0,0.0,0.0,0.0,1.0,21.693109077385838,0.0,21.551802422007988,0.0,1.0,21.58,20.91,22.19,21.43,21.94,0.49,1.0,3.85,-998.78,-789.04,0.0,136.0,0.0,101.0,0.0,0.0,0.0,0.0,0.0,0.0,0.0,0.0,0.0,0.0,0.0,0.0,0.0,0.0
114.0,4523.0,0.0,0.0,-0.0,0.0,4523.0,0.0,4962.023627966425,0.0,4962.023627966425,0.0,0.0,0.14520030234315948,0.1996855192744291,0.38734693877550996,0.0,0.0,0.0,"[0.4159997025940285, 0.5680730131095828, 0.6102180942877027, 0.1307699640040738, 0.7130425981147255, 0.2873875999314066, 0.7930227203300895, 0.16440045559137673, 0.9056790351215334]",22.42,0.0,0.0,0.0,152.745896929874,3.52361196165634,-1484.8207627892364,-1313.4569080446713,2642.3407952678954,0.0,0.0,0.0,0.0,0.0,0.0,1.1,21.941073433499763,0.0,21.58079011352544,0.0,1.1,22.42,20.94,22.22,22.08,22.43,0.59,1.1,0.0,-1034.3,-817.1,0.0,0.0,0.0,112.0,0.0,0.0,0.0,0.0,0.0,0.0,0.0,0.0,0.0,0.0,0.0,0.0,0.0,0.0
115.0,3842.0,0.0,0.0,-0.0,0.0,3842.0,0.0,18475.248971012534,0.0,18475.248971012534,0.0,0.0,0.0,0.12986220494709527,0.3510204081632651,0.0,0.0,0.0,"[0.4159997025940285, 0.5680730131095828, 0.6102180942877027, 0.1307699640040738, 0.7130425981147255, 0.2873875999314066, 0.7930227203300895, 0.16440045559137673, 0.9056790351215334]",22.42,0.0,0.0,0.0,57.27971134870277,1.3213544856211261,-1470.8892485885813,-1236.8751991607257,2649.2881194120528,0.0,0.0,0.0,0.0,0.0,0.0,1.3,21.969304677715343,0.0,21.61831252633981,0.0,1.3,22.42,20.97,22.26,22.03,22.42,0.78,1.3,0.0,-1024.59,-809.43,0.0,0.0,0.0,42.0,0.0,0.0,0.0,0.0,0.0,0.0,0.0,0.0,0.0,0.0,0.0,0.0,0.0,0.0
116.0,4419.0,4441.206030150754,0.0,-0.0,0.0,0.0,0.0,2156.0854761647083,0.0,2156.0854761647083,0.0,0.0,0.0,0.1135652625724565,0.3510204081632646,0.0,0.0,0.0,"[0.4159997025940285, 0.5680730131095828, 0.6102180942877062, 0.1307699640040738, 0.21387848712456758, 0.2873875999314066, 0.7930227203300895, 0.16440045559137673, 0.9056790351215334]",22.42,0.0,0.0,0.0,94.10238293001169,2.1707966549489948,-1463.923491488254,-1165.265793807122,283.81616594275545,0.0,0.0,0.0,0.0,0.0,0.0,1.4,21.99573416364796,0.0,21.653765768141362,0.0,1.4,22.42,21.01,22.3,22.05,22.44,0.89,1.4,0.0,-1019.74,-805.6,0.0,0.0,0.0,69.0,0.0,0.0,0.0,0.0,0.0,0.0,0.0,0.0,0.0,0.0,0.0,0.0,0.0,0.0
117.0,4414.0,19465.98617835884,3403.635839303777,-0.0,0.0,-11551.020408163267,0.0,9230.682203326052,0.0,0.0,0.0,9230.682203326052,0.41925925925925933,0.1135652625724565,0.3510204081632646,0.0,0.0,0.0,"[0.4159997025940285, 0.5680730131095828, 0.6102180942877062, 0.1307699640040738, 0.21387848712456758, 0.2873875999314066, 0.7930227203300895, 0.16440045559137673, 0.9056790351215334]",21.58,0.0,0.0,0.0,329.53778797229864,37.406916271512436,-1392.0369196460288,407.1479333682789,2870.7804068324167,0.0,0.0,0.0,0.0,0.0,0.0,1.6,21.744846141800686,0.0,21.62599831233328,0.0,1.6,21.58,21.0,22.25,21.47,21.98,1.09,1.6,0.0,-969.67,-766.04,0.0,100.0,0.0,189.0,0.0,0.0,0.0,0.0,0.0,0.0,0.0,0.0,0.0,0.0,0.0,0.0,0.0,0.0
118.0,3117.0,36945.048788890796,17643.32354494634,-0.0,0.0,-16000.0,0.0,12162.32683391234,0.0,-35854.678878837534,0.0,48017.00571274987,1.0,0.24370446739194088,0.3461224489795911,0.0,0.0,0.0,"[0.4159997025940285, 0.5680730131095828, 0.6102180942877062, 0.1307699640040738, 0.21387848712456758, 0.2873875999314066, 0.7930227203300895, 0.16440045559137673, 0.9056790351215334]",22.42,0.0,0.0,0.0,331.18870697107076,51.15529508618943,-1443.0262201872597,-1188.4101182907705,2253.9214595220424,0.0,0.0,0.0,0.0,0.0,0.0,1.7,21.98703490623239,0.0,21.647818732747435,0.0,1.7,22.42,21.02,22.27,22.09,22.45,1.17,1.7,0.0,-1005.19,-794.1,0.0,146.0,0.0,166.0,0.0,0.0,0.0,0.0,0.0,0.0,0.0,0.0,0.0,0.0,0.0,0.0,0.0,0.0
119.0,1503.0,0.0,0.0,-0.0,0.0,1503.0,0.0,9704.945760996321,0.0,9704.945760996323,0.0,0.0,0.9431972789115646,0.20702666784169022,0.3240816326530605,0.0,0.0,0.0,"[0.4159997025940285, 0.5680730131095828, 0.6102180942877062, 0.1307699640040738, 0.21387848712456758, 0.2873875999314066, 0.7930227203300895, 0.16440045559137673, 0.9056790351215334]",22.42,0.0,0.0,0.0,232.0617879578396,48.040673798653906,-1429.0947059866162,-1124.740578612918,28.963056187927943,0.0,0.0,0.0,0.0,0.0,0.0,1.9,22.010484854978436,0.0,21.679390779609655,0.0,1.9,22.42,21.05,22.31,22.05,22.43,1.37,1.9,0.0,-995.48,-786.43,0.0,130.0,7.0,101.0,0.0,0.0,0.0,0.0,0.0,0.0,0.0,0.0,0.0,0.0,0.0,0.0,0.0,0.0
120.0,1669.0,4950.451201436899,6948.845758149666,-0.0,0.0,3692.146812719952,0.0,18779.068738307542,0.0,0.0,0.0,18779.06873830754,0.8036603623310675,0.20702666784169022,0.3240816326530605,0.0,0.0,0.0,"[0.4159997025940285, 0.5680730131095828, 0.6102180942877062, 0.1307699640040738, 0.21387848712456758, 0.2873875999314066, 0.7930227203300895, 0.16440045559137673, 0.9056790351215334]",21.58,0.0,0.0,0.0,613.9983093694277,61.85197425550332,-1399.0026767463564,443.118299938089,285.87299602234077,0.0,0.0,0.0,0.0,0.0,0.0,1.5,21.75822523197587,0.0,21.649783563510823,0.0,1.5,21.58,21.04,22.26,21.48,21.98,0.94,1.5,91.92,-974.52,-769.87,0.0,160.0,0.0,366.0,0.0,0.0,0.0,0.0,0.0,0.0,0.0,0.0,0.0,0.0,0.0,0.0,0.0,0.0
121.0,998.0,1003.0150753768844,0.0,-0.0,0.0,0.0,0.0,15592.492697055959,0.0,15592.492697055957,0.0,0.0,0.8036603623310675,0.14809812401305847,0.3240816326530605,0.0,0.0,0.0,"[0.4159997025940285, 0.5680730131095828, 0.6102180942877062, 0.1307699640040738, 0.21387848712456758, 0.2873875999314066, 0.7930227203300895, 0.16440045559137673, 0.9056790351215334]",21.58,0.0,0.0,0.0,253.95440946329623,53.546317488741934,-1419.8999480473392,346.61247941642995,770.8415802505804,0.0,0.0,0.0,0.0,0.0,0.0,1.2,21.722687908528815,0.0,21.60728439205721,0.0,1.2,21.58,21.02,22.19,21.49,21.96,0.62,1.2,0.0,-989.08,-781.37,0.0,160.0,0.0,102.0,0.0,0.0,0.0,0.0,0.0,0.0,0.0,0.0,0.0,0.0,0.0,0.0,0.0,0.0
122.0,626.0,629.1457286432161,0.0,-0.0,0.0,0.0,0.0,5525.396954671345,0.0,5525.396954671347,0.0,0.0,0.8036603623310675,0.1272160493544366,0.3240816326530605,0.0,0.0,0.0,"[0.4159997025940285, 0.5680730131095828, 0.6102180942877062, 0.1307699640040738, 0.21387848712456758, 0.2873875999314066, 0.7930227203300895, 0.16440045559137673, 0.9056790351215334]",21.58,0.0,0.0,0.0,258.045817416775,53.6406999520006,-1447.762976448649,269.751881682402,871.3883257903976,0.0,0.0,0.0,0.0,0.0,0.0,0.8,21.6944598395554,0.0,21.573305844553712,0.0,0.8,21.58,21.0,22.14,21.51,21.96,0.21,0.8,611.4,-1008.49,-796.7,0.0,160.0,0.0,105.0,0.0,0.0,0.0,0.0,0.0,0.0,0.0,0.0,0.0,0.0,0.0,0.0,0.0,0.0
123.0,545.0,18028.249719626292,6886.950401532537,-10506.158069495623,0.0,0.0,0.0,18086.55490842745,0.0,0.0,0.0,18086.554908427453,0.8036603623310675,0.1272160493544366,0.3515377257413424,0.0,0.0,0.0,"[0.4159997025940285, 0.5680730131095828, 0.6102180942877062, 0.1307699640040738, 0.21387848712456758, 0.2873875999314066, 0.7930227203300895, 0.16440045559137673, 0.9056790351215334]",21.58,0.0,0.0,0.0,165.30723713792287,51.501364118137815,-1454.7287335489766,201.2318267032116,3290.854963690702,0.0,0.0,0.0,0.0,0.0,0.0,0.7,21.66916802368953,0.0,21.5424418919442,0.0,0.7,21.58,20.99,22.1,21.51,21.93,0.11,0.7,1510.06,-1013.34,-800.54,0.0,160.0,0.0,37.0,0.0,0.0,0.0,0.0,0.0,0.0,0.0,0.0,0.0,0.0,0.0,0.0,0.0,0.0
124.0,461.0,0.0,0.0,-0.0,0.0,461.0,0.0,12986.966149454805,0.0,12986.966149454807,0.0,0.0,0.7862378377656858,0.07813454463238514,0.3515377257413424,0.0,0.0,0.0,"[0.4159997025940285, 0.5680730131095828, 0.6102180942877062, 0.1307699640040738, 0.21387848712456758, 0.2873875999314066, 0.7930227203300895, 0.16440045559137673, 0.9056790351215334]",22.42,0.0,0.0,0.0,143.19927837175683,3.3033862140528196,-1526.6153053912012,-1366.2777723218835,2746.7022568699417,0.0,0.0,0.0,0.0,0.0,0.0,0.5,21.92186470291332,0.0,21.57541903254606,0.0,0.5,22.42,21.01,22.14,22.11,22.4,-0.07,0.5,1715.43,-1063.41,-840.1,0.0,0.0,0.0,105.0,0.0,0.0,0.0,0.0,0.0,0.0,0.0,0.0,0.0,0.0,0.0,0.0,0.0,0.0
125.0,660.0,6623.757047757917,5930.638262519127,-0.0,0.0,0.0,0.0,15348.927235844902,0.0,0.0,0.0,15348.927235844903,0.7862378377656858,0.07813454463238514,0.3515377257413424,0.0,0.0,0.0,"[0.4159997025940285, 0.5680730131095828, 0.6102180942877062, 0.1307699640040738, 0.21387848712456758, 0.2873875999314066, 0.7930227203300895, 0.16440045559137673, 0.9056790351215334]",22.42,0.0,0.0,0.0,50.4606980929048,1.1640503801900404,-1540.5468195918563,-1281.175581428895,520.9026746869887,0.0,0.0,0.0,0.0,0.0,0.0,0.3,21.953444345324883,0.0,21.615233992295405,0.0,0.3,22.42,21.04,22.19,22.06,22.39,-0.27,0.3,544.41,-1073.12,-847.76,0.0,0.0,0.0,37.0,0.0,0.0,0.0,0.0,0.0,0.0,0.0,0.0,0.0,0.0,0.0,0.0,0.0,0.0
126.0,672.0,0.0,0.0,-0.0,0.0,672.0,0.0,6924.2325856334055,0.0,6924.2325856334055,0.0,0.0,0.7608410123688604,0.05196586517042971,0.3515377257413424,0.0,0.0,0.0,"[0.4159997025940285, 0.5680730131095828, 0.6102180942877062, 0.1307699640040738, 0.21387848712456758, 0.2873875999314066, 0.7930227203300895, 0.16440045559137673, 0.9056790351215334]",21.58,0.0,0.0,0.0,143.19927837175683,3.3033862140528196,-1489.5575190506142,306.3047470761898,1037.0619511312818,0.0,0.0,0.0,0.0,0.0,0.0,0.2,21.708267548117316,0.0,21.59256187990492,0.0,0.2,21.58,21.02,22.16,21.48,21.94,-0.36,0.2,9.62,-1037.6,-819.7,0.0,0.0,0.0,105.0,0.0,0.0,0.0,0.0,0.0,0.0,0.0,0.0,0.0,0.0,0.0,0.0,0.0,0.0
127.0,793.0,0.0,0.0,-0.0,0.0,793.0,0.0,13750.167924095702,0.0,13750.167924095702,0.0,0.0,0.730871246684809,0.0,0.3515377257413424,0.0,0.0,0.0,"[0.4159997025940285, 0.5680730131095828, 0.6102180942877062, 0.1307699640040738, 0.21387848712456758, 0.2873875999314066, 0.7930227203300895, 0.16440045559137673, 0.9056790351215334]",21.58,0.0,0.0,0.0,70.91773786029864,1.635962696483302,-1496.5232761509417,234.40382654520585,1189.7201859500833,0.0,0.0,0.0,0.0,0.0,0.0,0.1,21.68173053268956,0.0,21.559782850673614,0.0,0.1,21.58,21.0,22.11,21.52,21.95,-0.48,0.1,822.48,-1042.45,-823.54,0.0,0.0,0.0,52.0,0.0,0.0,0.0,0.0,0.0,0.0,0.0,0.0,0.0,0.0,0.0,0.0,0.0,0.0
128.0,854.0,0.0,2274.8606305174026,-0.0,0.0,3128.8606305174026,0.0,5865.819381768728,0.0,0.0,0.0,5865.819381768728,0.49437384452929856,0.0,0.3515377257413424,0.0,0.0,0.0,"[0.4159997025940285, 0.5680730131095828, 0.6102180942877027, 0.13076996400407026, 0.21387848712456758, 0.2873875999314066, 0.7581664670345845, 0.16440045559137673, 0.9056790351215334]",21.58,0.0,0.0,2.022467701417405,122.74223860436305,2.831473897759562,-1489.5575190506142,172.18770725814966,1189.987936451207,0.0,0.0,0.0,0.0,0.0,0.0,0.2,21.658647186904847,0.0,21.53099949274656,0.0,0.2,21.58,20.99,22.08,21.52,21.93,-0.34,0.2,857.49,-1037.6,-819.7,3.21,0.0,0.0,90.0,0.0,0.0,0.0,0.0,0.0,0.0,0.0,0.0,0.0,0.0,0.0,0.0,0.0,0.0
129.0,974.0,0.0,3235.3214524431696,-2954.211933466213,7163.533385909383,0.0,0.0,9144.33225521608,0.0,0.0,0.0,9144.332255216083,0.49437384452929856,0.0,0.35925806626080076,0.0,0.0,0.0,"[0.4159997025940285, 0.5680730131095828, 0.6102180942877027, 0.13076996400407026, 0.21387848712456758, 0.2873875999314066, 0.7581664670345845, 0.16440045559137673, 0.9056790351215334]",21.58,0.0,0.0,562.5404423515445,70.91773786029864,1.635962696483302,-1308.4478344420986,119.05207888342275,539.7171782963188,0.0,0.0,0.0,0.0,0.0,0.0,2.8,21.63751419519302,0.0,21.504519497172637,0.0,2.8,21.58,20.97,22.04,21.51,21.91,2.62,2.8,204.05,-911.44,-720.04,894.03,0.0,0.0,52.0,0.0,0.0,0.0,0.0,0.0,0.0,0.0,0.0,0.0,0.0,0.0,0.0,0.0,0.0
130.0,2471.0,0.0,853.8754660140274,-15928.26889940696,19253.144365420987,0.0,0.0,2616.90523849969,0.0,0.0,0.0,2616.90523849969,0.49437384452929856,0.0,0.40088394231791763,0.0,0.0,0.0,"[0.4159997025940285, 0.5680730131095828, 0.6102180942877027, 0.13076996400407026, 0.21387848712456758, 0.2873875999314066, 0.7581664670345845, 0.16440045559137673, 0.9056790351215334]",21.58,0.0,0.0,1072.508084065674,122.74223860436305,2.831473897759562,-1134.3039069339106,104.23390515113014,994.8211447691755,0.0,0.0,0.0,0.0,0.0,0.0,5.3,21.63064058886271,0.0,21.49691733604384,0.0,5.3,21.58,20.97,22.03,21.58,21.97,5.41,5.3,0.0,-790.14,-624.21,1704.51,0.0,0.0,90.0,0.0,0.0,0.0,0.0,0.0,0.0,0.0,0.0,0.0,0.0,0.0,0.0,0.0,0.0
131.0,3177.0,0.0,16327.418722157678,-0.0,19504.418722157676,0.0,0.0,7474.593507809516,0.0,-44899.49393170261,0.0,52374.08743951213,0.49437384452929856,0.16296853352988352,0.40088394231791763,0.0,0.0,0.0,"[0.4159997025940285, 0.5680730131095828, 0.6102180942877027, 0.13076996400407026, 0.21387848712456758, 0.2873875999314066, 0.7581664670345845, 0.16440045559137673, 0.9056790351215334]",22.02,0.0,0.0,947.504686997686,995.5759353465003,22.966399392938673,-1060.4959679575838,-681.8298817353954,0.0,0.0,0.0,0.0,0.0,0.0,0.0,6.8,21.779815158808148,0.0,21.53544135089536,0.0,6.8,22.02,21.0,22.07,21.96,22.29,6.82,6.8,0.0,-738.72,-583.59,1505.85,0.0,0.0,730.0,0.0,0.0,0.0,0.0,0.0,0.0,0.0,0.0,0.0,0.0,0.0,0.0,0.0,0.0
132.0,5678.0,0.0,2027.78123648558,-11650.941141572997,19356.722378058577,0.0,0.0,6697.906276768704,0.0,0.0,0.0,6697.906276768704,0.49437384452929856,0.16296853352988352,0.431331735167895,0.0,0.0,0.0,"[0.4159997025940285, 0.5680730131095828, 0.6102180942877027, 0.13076996400407026, 0.21387848712456758, 0.2873875999314066, 0.7581664670345845, 0.16440045559137673, 0.9056790351215334]",22.12,0.0,0.0,904.2833289845254,3491.9807987506765,131.2230847506126,-997.1865210654113,-791.4773717694197,-1937.8677710008064,0.0,0.0,0.0,0.0,0.0,0.0,7.8,21.82994628189898,0.0,21.56992881706645,0.0,7.8,22.12,21.03,22.11,21.9,22.25,7.8,7.8,0.0,-694.62,-548.75,1437.16,170.0,0.0,2471.0,0.0,0.0,0.0,0.0,0.0,0.0,0.0,0.0,0.0,0.0,0.0,0.0,0.0,0.0
133.0,3323.0,0.0,1923.2242276691954,-2080.6213766712135,18161.691404849546,-10834.845800509136,0.0,6425.885754822932,0.0,0.0,0.0,6425.885754822932,0.8876386180292598,0.16296853352988352,0.4367690923655958,0.0,0.0,0.0,"[0.4159997025940285, 0.5680730131095828, 0.6102180942877027, 0.13076996400407026, 0.21387848712456758, 0.2873875999314066, 0.7581664670345845, 0.16440045559137673, 0.9056790351215334]",22.42,0.0,0.0,866.3484740428687,532.0983712129494,59.36656938969216,-990.2520086659824,-1282.273253796869,797.6173153593201,0.0,0.0,0.0,0.0,0.0,0.0,8.2,21.948799595413913,0.0,21.619631303415968,0.0,8.2,22.42,21.08,22.16,22.08,22.4,8.21,8.2,0.0,-689.79,-544.94,1376.87,158.0,0.0,307.0,0.0,0.0,0.0,0.0,0.0,0.0,0.0,0.0,0.0,0.0,0.0,0.0,0.0,0.0
134.0,1030.0,0.0,1466.708094130372,-13583.191185325997,16079.89927945637,0.0,0.0,4900.571921339679,0.0,0.0,0.0,4900.571921339679,0.8876386180292598,0.16296853352988352,0.47226649866324777,0.0,0.0,0.0,"[0.4159997025940285, 0.5680730131095828, 0.6102180942877027, 0.13076996400407026, 0.21387848712456758, 0.2873875999314066, 0.7581664670345845, 0.16440045559137673, 0.9056790351215334]",22.42,0.0,0.0,795.1534233159293,243.54644186234145,51.81597232899999,-990.2520086659824,-1160.924202892061,1044.7184056686249,0.0,0.0,0.0,0.0,0.0,0.0,8.2,21.993740652965496,0.0,21.679484240457207,0.0,8.2,22.42,21.13,22.23,22.15,22.47,8.1,8.2,0.0,-689.79,-544.94,1263.72,155.0,0.0,97.0,0.0,0.0,0.0,0.0,0.0,0.0,0.0,0.0,0.0,0.0,0.0,0.0,0.0,0.0
135.0,1698.0,0.0,2370.641549229197,-5379.413664549075,9448.055213778272,0.0,0.0,7694.798061205865,0.0,0.0,0.0,7694.798061205865,0.8876386180292598,0.16296853352988352,0.48550837317599044,0.0,0.0,0.0,"[0.4159997025940285, 0.5680730131095828, 0.6102180942877027, 0.13076996400407026, 0.21387848712456758, 0.2873875999314066, 0.7581664670345845, 0.16440045559137673, 0.9056790351215334]",22.42,0.0,0.0,776.3949898711561,654.697051643506,61.00253208617545,-1059.9095796692577,-1049.0386899108653,602.2704315448337,0.0,0.0,0.0,0.0,0.0,0.0,7.2,22.035635591219325,0.0,21.73563565845423,0.0,7.2,22.42,21.18,22.29,22.19,22.51,7.08,7.2,0.0,-738.31,-583.27,1233.91,154.0,0.0,399.0,0.0,0.0,0.0,0.0,0.0,0.0,0.0,0.0,0.0,0.0,0.0,0.0,0.0,0.0
136.0,2468.0,52097.610773541666,40593.05871967396,-0.0,0.0,0.0,0.0,11237.794952367098,43880.32,-80000.0,0.0,126342.05095236709,0.8636930397979672,0.4533389039002539,0.48550837317599044,35104.256,8776.064,43880.32,"[0.4159997025940285, 0.5680730131095828, 0.6102180942877027, 0.13076996400407026, 0.21387848712456758, 0.2873875999314066, 0.7581664670345845, 0.16440045559137673, 0.9056790351215334]",22.42,0.0,0.0,0.0,517.7425538323221,73.20933066762777,-1157.430179073843,-961.4570946365394,1534.8464405361744,0.0,0.0,0.0,0.0,0.0,0.0,5.8,22.06899528388324,0.0,21.780673421928526,0.0,5.8,22.42,21.23,22.34,22.17,22.51,5.15,5.8,0.0,-806.24,-636.93,0.0,130.0,40.0,307.0,0.0,0.0,0.0,0.0,0.0,0.0,0.0,0.0,0.0,0.0,0.0,0.0,0.0,0.0
137.0,4458.0,6992.63126232639,2499.6681060147585,-0.0,0.0,0.0,0.0,7684.659839476522,0.0,0.0,0.0,7684.659839476523,0.8636930397979672,0.4533389039002539,0.4716308221555823,0.0,0.0,0.0,"[0.4159997025940285, 0.5680730131095828, 0.6102180942877027, 0.13076996400407026, 0.21387848712456758, 0.2873875999314066, 0.7581664670345845, 0.16440045559137673, 0.9056790351215334]",22.42,0.0,0.0,0.0,845.5576437189454,103.82070958451729,-1185.2932074751532,-918.9471648170673,0.0,0.0,0.0,0.0,0.0,0.0,0.0,5.4,22.084921040641706,0.0,21.803408064904986,0.0,5.4,22.42,21.25,22.36,22.08,22.43,4.74,5.4,0.0,-825.65,-652.27,0.0,162.0,64.0,528.0,0.0,0.0,0.0,0.0,0.0,0.0,0.0,0.0,0.0,0.0,0.0,0.0,0.0,0.0
138.0,6126.0,6796.574852599321,636.5919783363246,-0.0,0.0,0.0,0.0,1932.7816314246388,0.0,0.0,0.0,1932.7816314246388,0.8636930397979672,0.4533389039002539,0.4630593935841537,0.0,0.0,0.0,"[0.4159997025940285, 0.5680730131095828, 0.6102180942877027, 0.13076996400407026, 0.21387848712456758, 0.2873875999314066, 0.7581664670345845, 0.16440045559137673, 0.9056790351215334]",21.99,0.0,0.0,0.0,1951.099140201051,125.780362702697,-1183.1478088145107,-106.55164851542055,389.3565985009419,0.0,0.0,0.0,0.0,0.0,0.0,5.0,21.954591191669277,0.0,21.789747891627492,0.0,5.0,21.99,21.25,22.33,21.76,22.17,4.37,5.0,246.32,-824.16,-651.09,0.0,101.0,90.0,1368.0,0.0,0.0,0.0,0.0,0.0,0.0,0.0,0.0,0.0,0.0,0.0,0.0,0.0,0.0
139.0,10090.0,0.0,1669.7178330542085,-0.0,0.0,11759.717833054208,0.0,5005.823436708661,0.0,0.0,0.0,5005.823436708661,0.41925925925925933,0.4533389039002539,0.4630593935841537,0.0,0.0,0.0,"[0.4159997025940285, 0.5680730131095828, 0.6102180942877027, 0.13076996400407026, 0.21387848712456758, 0.2873875999314066, 0.7581664670345845, 0.16440045559137673, 0.9056790351215334]",22.42,0.0,0.0,0.0,619.381740887163,132.48151759406133,-1241.019264277773,-961.384917964858,0.0,0.0,0.0,0.0,0.0,0.0,0.0,4.6,22.069596188874467,0.0,21.788928076171686,0.0,4.6,22.42,21.26,22.32,21.99,22.34,4.0,4.6,0.0,-864.47,-682.93,0.0,202.0,103.0,337.0,0.0,0.0,0.0,0.0,0.0,0.0,0.0,0.0,0.0,0.0,0.0,0.0,0.0,0.0
140.0,5147.0,0.0,0.0,-0.0,0.0,5147.0,0.0,5721.149222758564,0.0,5721.149222758564,0.0,0.0,0.805479969765684,0.6085914460936575,0.4434675568494598,0.0,0.0,0.0,"[0.3126020419695337, 0.37764924426393875, 0.6102180942877027, 0.13076996400407026, 0.21387848712457114, 0.2873875999314066, 0.7581664670345845, 0.16440045559137673, 0.9056790351215369]",21.87,0.0,0.0,0.0,520.9726127429632,153.5917285429131,-1231.1857605727769,64.39803422297524,0.0,0.0,0.0,0.0,0.0,0.0,0.0,4.2,21.907771479721756,0.0,21.772635325905476,0.0,4.2,21.87,21.26,22.29,21.72,22.12,3.63,4.2,0.0,-857.62,-677.52,0.0,288.0,99.0,220.0,0.0,0.0,0.0,0.0,0.0,0.0,0.0,0.0,0.0,0.0,0.0,0.0,0.0,0.0
141.0,6175.0,0.0,1282.2865363847745,-0.0,0.0,7457.286536384774,0.0,3746.5067858326124,0.0,0.0,0.0,3746.506785832613,0.5236475231902957,0.6085914460936575,0.4434675568494598,0.0,0.0,0.0,"[0.3126020419695337, 0.37764924426393875, 0.6102180942877027, 0.13076996400407026, 0.21387848712457114, 0.2873875999314066, 0.7581664670345845, 0.16440045559137673, 0.9056790351215369]",21.69,0.0,0.0,0.0,494.6296878495121,134.93546163878625,-1245.9926933253466,357.2825220513625,271.88309618878435,0.0,0.0,0.0,0.0,0.0,0.0,3.8,21.828767120774287,0.0,21.73907888939549,0.0,3.8,21.69,21.24,22.24,21.63,22.03,3.25,3.8,0.0,-867.94,-685.67,0.0,218.0,104.0,237.0,0.0,0.0,0.0,0.0,0.0,0.0,0.0,0.0,0.0,0.0,0.0,0.0,0.0,0.0
142.0,4716.0,0.0,4178.180917399894,-0.0,0.0,8894.180917399894,0.0,12048.227274183882,0.0,0.0,0.0,12048.227274183882,0.1875106782394305,0.6085914460936575,0.4434675568494598,0.0,0.0,0.0,"[0.3126020419695337, 0.37764924426393875, 0.6102180942877027, 0.13076996400407026, 0.21387848712457114, 0.2873875999314066, 0.7581664670345845, 0.16440045559137673, 0.9056790351215369]",21.69,0.0,0.0,0.0,1528.8945510368028,103.82070958451729,-1273.8557217266568,283.31802144152044,0.0,0.0,0.0,0.0,0.0,0.0,0.0,3.4,21.801609885733985,0.0,21.70598759370207,0.0,3.4,21.69,21.22,22.19,21.64,22.01,2.85,3.4,0.0,-887.34,-701.0,0.0,162.0,36.0,1032.0,0.0,0.0,0.0,0.0,0.0,0.0,0.0,0.0,0.0,0.0,0.0,0.0,0.0,0.0
143.0,3103.0,0.0,1858.5325462153307,-0.0,0.0,4961.5325462153305,0.0,5288.4036287162335,0.0,0.0,0.0,5288.4036287162335,0.0,0.6085914460936575,0.4434675568494598,0.0,0.0,0.0,"[0.3126020419695337, 0.37764924426393875, 0.6102180942877027, 0.13076996400407026, 0.21387848712457114, 0.2873875999314066, 0.7581664670345845, 0.16440045559137673, 0.9056790351215369]",21.92,0.0,0.0,0.0,895.3723300297219,83.24533259413111,-1318.0124202135255,-237.9690230066057,1643.0805741425488,0.0,0.0,0.0,0.0,0.0,0.0,3.0,21.843019653171545,0.0,21.67839358617485,0.0,3.0,21.92,21.2,22.15,21.69,22.04,2.45,3.0,0.0,-918.1,-725.3,0.0,210.0,0.0,546.0,0.0,0.0,0.0,0.0,0.0,0.0,0.0,0.0,0.0,0.0,0.0,0.0,0.0,0.0
144.0,2068.0,49074.97303196556,30761.59816680573,-0.0,0.0,-16000.0,0.0,6064.989119487307,0.0,-80000.0,0.0,86064.9891194873,0.5807407407407407,0.8989618164640278,0.4434675568494598,0.0,0.0,0.0,"[0.3126020419695337, 0.37764924426393875, 0.6102180942877027, 0.13076996400407026, 0.21387848712457114, 0.2873875999314066, 0.7581664670345845, 0.16440045559137673, 0.9056790351215369]",22.31,0.0,0.0,0.0,536.5486746009437,61.19129701269276,-1380.0977334981278,-978.8261111271875,76.72531887619,0.0,0.0,0.0,0.0,0.0,0.0,2.5,21.96070549050682,0.0,21.692085223137866,0.0,2.5,22.31,21.21,22.17,22.01,22.29,1.98,2.5,0.0,-961.35,-759.47,0.0,160.0,2.0,309.0,0.0,0.0,0.0,0.0,0.0,0.0,0.0,0.0,0.0,0.0,0.0,0.0,0.0,0.0
145.0,1463.0,2805.8018330869927,1328.7728239215576,-0.0,0.0,0.0,0.0,3666.978407512286,0.0,0.0,0.0,3666.978407512286,0.5807407407407407,0.8989618164640278,0.4434675568494598,0.0,0.0,0.0,"[0.3126020419695337, 0.37764924426393875, 0.6102180942877027, 0.13076996400407026, 0.21387848712457114, 0.2873875999314066, 0.7581664670345845, 0.16440045559137673, 0.9056790351215369]",21.69,0.0,0.0,0.0,734.0129426714716,64.62052651109046,-1364.4105640309147,201.30570850535474,370.57164393776543,0.0,0.0,0.0,0.0,0.0,0.0,2.1,21.77189114346167,0.0,21.668578276116587,0.0,2.1,21.69,21.2,22.14,21.58,21.95,1.62,2.1,1045.06,-950.42,-750.83,0.0,160.0,0.0,454.0,0.0,0.0,0.0,0.0,0.0,0.0,0.0,0.0,0.0,0.0,0.0,0.0,0.0,0.0
146.0,1323.0,0.0,0.0,-0.0,0.0,1323.0,0.0,12363.620151009989,0.0,12363.620151009987,0.0,0.0,0.5307407407407406,0.8522361167247611,0.4434675568494598,0.0,0.0,0.0,"[0.3126020419695337, 0.37764924426393875, 0.6102180942877027, 0.13076996400407026, 0.21387848712457114, 0.2873875999314066, 0.7581664670345845, 0.16440045559137673, 0.9056790351215369]",21.69,0.0,0.0,0.0,680.8246392762477,63.39355448872797,-1399.239349532552,132.05471388660334,2219.185960025836,0.0,0.0,0.0,0.0,0.0,0.0,1.6,21.746509917063598,0.0,21.63625366979547,0.0,1.6,21.69,21.17,22.1,21.59,21.95,1.15,1.6,165.76,-974.68,-770.0,0.0,160.0,0.0,415.0,0.0,0.0,0.0,0.0,0.0,0.0,0.0,0.0,0.0,0.0,0.0,0.0,0.0,0.0
147.0,952.0,0.0,0.0,-0.0,0.0,952.0,0.0,6504.530016645556,0.0,6504.530016645556,0.0,0.0,0.4947619047619046,0.827653614772208,0.4434675568494598,0.0,0.0,0.0,"[0.3126020419695337, 0.37764924426393875, 0.6102180942877027, 0.13076996400407026, 0.21387848712457114, 0.2873875999314066, 0.7581664670345845, 0.16440045559137673, 0.9056790351215369]",22.31,0.0,0.0,0.0,384.8794639746167,56.566556313018815,-1456.7210616017305,-1062.0671586842677,392.4470646231554,0.0,0.0,0.0,0.0,0.0,0.0,1.4,21.930436534115014,0.0,21.65224561554026,0.0,1.4,22.31,21.18,22.13,22.04,22.3,0.94,1.4,726.7,-1014.73,-801.63,0.0,160.0,0.0,198.0,0.0,0.0,0.0,0.0,0.0,0.0,0.0,0.0,0.0,0.0,0.0,0.0,0.0,0.0
148.0,677.0,0.0,0.0,-0.0,0.0,677.0,0.0,16491.41487092537,0.0,16491.414870925375,0.0,0.0,0.46917611489040045,0.7653277838163298,0.4434675568494598,0.0,0.0,0.0,"[0.3126020419695337, 0.37764924426393875, 0.6102180942877027, 0.13076996400407026, 0.21387848712457114, 0.2873875999314066, 0.7581664670345845, 0.16440045559137673, 0.9056790351215369]",21.69,0.0,0.0,0.0,226.6783564401044,52.917101067017605,-1427.1023779338623,130.28620640881437,2712.4512420074484,0.0,0.0,0.0,0.0,0.0,0.0,1.2,21.746042071927278,0.0,21.633600014299265,0.0,1.2,21.69,21.16,22.1,21.58,21.95,0.77,1.2,144.88,-994.09,-785.33,0.0,160.0,0.0,82.0,0.0,0.0,0.0,0.0,0.0,0.0,0.0,0.0,0.0,0.0,0.0,0.0,0.0,0.0
149.0,572.0,0.0,0.0,-0.0,0.0,572.0,0.0,17897.627432456287,0.0,17897.627432456287,0.0,0.0,0.44755857898715024,0.6976874685009243,0.4434675568494598,0.0,0.0,0.0,"[0.3126020419695337, 0.37764924426393875, 0.6102180942877027, 0.13076996400407026, 0.21387848712457114, 0.2873875999314066, 0.7581664670345845, 0.16440045559137673, 0.9056790351215369]",22.31,0.0,0.0,0.0,219.8593431843064,52.7597969615865,-1491.549847103368,-1052.1436139216116,585.8198227146977,0.0,0.0,0.0,0.0,0.0,0.0,0.9,21.93433110966077,0.0,21.65500315365746,0.0,0.9,22.31,21.17,22.14,22.08,22.33,0.49,0.9,0.0,-1038.99,-820.8,0.0,160.0,0.0,77.0,0.0,0.0,0.0,0.0,0.0,0.0,0.0,0.0,0.0,0.0,0.0,0.0,0.0,0.0
150.0,584.0,0.0,0.0,-0.0,0.0,584.0,0.0,17540.884624236318,0.0,17540.88462423632,0.0,0.0,0.425487528344671,0.6313953875325331,0.4434675568494598,0.0,0.0,0.0,"[0.3126020419695337, 0.37764924426393875, 0.6102180942877027, 0.13076996400407026, 0.21387848712457114, 0.2873875999314066, 0.7581664670345845, 0.16440045559137673, 0.9056790351215369]",21.69,0.0,0.0,0.0,320.27828576179417,96.20719088165269,-1454.9654063351725,143.2454405018688,2594.5516551786054,0.0,0.0,0.0,0.0,0.0,0.0,0.8,21.751016847494128,0.0,21.637664194683435,0.0,0.8,21.69,21.16,22.12,21.6,21.97,0.41,0.8,0.0,-1013.5,-800.67,0.0,298.0,0.0,78.0,0.0,0.0,0.0,0.0,0.0,0.0,0.0,0.0,0.0,0.0,0.0,0.0,0.0,0.0
151.0,644.0,0.0,3981.785234125793,-0.0,0.0,4625.785234125793,0.0,10419.031260304544,0.0,0.0,0.0,10419.031260304544,0.2506657129960016,0.6313953875325331,0.4434675568494598,0.0,0.0,0.0,"[0.3126020419695337, 0.37764924426393875, 0.6102180942877027, 0.13076996400407026, 0.21387848712457114, 0.2873875999314066, 0.7581664670345845, 0.16440045559137673, 0.9056790351215369]",22.31,0.0,0.0,0.0,177.22256556384352,48.79573350472313,-1512.4471184043505,-1040.8091153652626,641.6092240454461,0.0,0.0,0.0,0.0,0.0,0.0,0.6,21.9386570582707,0.0,21.65829358289291,0.0,0.6,22.31,21.17,22.15,22.08,22.34,0.22,0.6,675.19,-1053.54,-832.3,0.0,150.0,0.0,51.0,0.0,0.0,0.0,0.0,0.0,0.0,0.0,0.0,0.0,0.0,0.0,0.0,0.0,0.0
