,load_elec,grid,hp_elec,ev,pv,bat_pow,cool,load_th_sh,load_th_dhw,tes_pow,dh,hp_th,bat_soc,tes_soc,ev_soc,eh_th_in,eh_elec_in,eh_th_out,temp_slack,temp_zone_1,temp_zone_2,temp_update,Qsolar_1,QconvInt_1,QradInt_1,Qvent_1,Qconduc_1,Qheating_1,Qsolar_2,QconvInt_2,QradInt_2,Qvent_2,Qconduc_2,Qheating_2,temp_amb,temp_aggregate_1,temp_aggregate_2,temp_wall_1,temp_wall_2,_Tamb,_Tz_1,_TEW_1,_TIW_1,_T1_1,_T2_1,_Taeq_1,_Tvent_1,_Qheating_1,_Qinfvent_1,_Qenvelope_1,_Qsolar_1,_Qint_people_1,_Qint_lighting_1,_Qint_appliances_1,_Tz_2,_TEW_2,_TIW_2,_T1_2,_T2_2,_Taeq_2,_Tvent_2,_Qheating_2,_Qinfvent_2,_Qenvelope_2,_Qsolar_2,_Qint_people_2,_Qint_lighting_2,_Qint_appliances_2
8.0,2373.0,2384.924623115578,0.0,-0.0,0.0,0.0,0.0,51154.9307953083,0.0,51154.9307953083,0.0,0.0,0.5,0.30667070750072445,0.8,0.0,0.0,0.0,"[2.0, 2.0, 2.0, 2.0, 2.0, 2.0, 2.0, 2.0, 2.0]",20.0,0.0,0.0,0.708057422145101,1398.3283919599978,58.48566639927808,-2047.9325874962904,-1445.8778509010908,2041.7908903347313,0.0,0.0,0.0,0.0,0.0,0.0,-9.4,19.480147761413434,0.0,19.0,0.0,-9.4,20.0,18.0,20.0,20.0,20.0,-9.94,-9.4,1939.24,-1426.55,-1126.98,1.13,88.0,0.0,979.0,0.0,0.0,0.0,0.0,0.0,0.0,0.0,0.0,0.0,0.0,0.0,0.0,0.0,0.0
9.0,3106.0,51853.239574356565,57583.82095869696,-0.0,14.100415118761624,9081.747167093416,0.0,100173.33920817122,0.0,0.0,0.0,100173.33920817122,0.15677448348097447,0.30667070750072445,0.8,0.0,0.0,0.0,"[2.0, 2.0, 2.0, 2.0, 2.0, 2.0, 2.0, 2.0, 2.0]",20.0,0.0,0.0,20.89669088075737,147.21890723833252,36.77769984978809,-1992.2065306936704,-1410.074527579116,14014.285547134737,0.0,0.0,0.0,0.0,0.0,0.0,-8.6,19.492981225483177,0.0,19.021650749837427,0.0,-8.6,20.0,18.04,20.01,19.38,20.04,-9.12,-8.6,2374.74,-1387.73,-1096.31,33.21,112.0,0.0,49.0,0.0,0.0,0.0,0.0,0.0,0.0,0.0,0.0,0.0,0.0,0.0,0.0,0.0,0.0
10.0,4604.0,3949.1391036253517,0.0,-0.0,674.6065918927753,0.0,0.0,45616.19014105678,0.0,45616.19014105678,0.0,0.0,0.15677448348097447,0.13427391936369956,0.8,0.0,0.0,0.0,"[2.0, 2.0, 2.0, 2.0, 2.0, 2.0, 2.0, 2.0, 2.0]",24.0,0.0,0.0,56.18406932352229,763.7294846493701,45.93279878587734,-2201.179243703496,-8594.109029663186,9932.30597985721,0.0,0.0,0.0,0.0,0.0,0.0,-7.6,20.83719393945522,0.0,19.34557734992009,0.0,-7.6,24.0,18.27,20.42,22.38,22.44,-8.18,-7.6,1526.22,-1533.3,-1211.31,89.29,95.0,0.0,510.0,0.0,0.0,0.0,0.0,0.0,0.0,0.0,0.0,0.0,0.0,0.0,0.0,0.0,0.0
11.0,5950.0,0.0,0.0,-0.0,1801.747167093415,4148.252832906584,0.0,10115.48970865901,0.0,10115.48970865901,0.0,0.0,0.0,0.09604455538539643,0.8,0.0,0.0,0.0,"[2.0, 2.0, 2.0, 2.0, 2.0, 2.0, 2.0, 2.0, 2.0]",24.0,0.0,0.0,74.79975986062064,2558.8526690099056,101.64991292956829,-2145.4531869008756,-7871.773697991692,7289.560625395754,0.0,0.0,0.0,0.0,0.0,0.0,-6.8,21.103976539778746,0.0,19.686340539171553,0.0,-6.8,24.0,18.52,20.86,22.17,22.44,-7.37,-6.8,6896.27,-1494.48,-1180.64,118.88,143.0,0.0,1801.0,0.0,0.0,0.0,0.0,0.0,0.0,0.0,0.0,0.0,0.0,0.0,0.0,0.0,0.0
12.0,9020.0,33805.85717127658,28400.432324260073,-0.0,3783.6044388398764,0.0,0.0,56777.5456236732,0.0,873.8940920205711,0.0,55903.65153165263,0.0,0.09274185662492564,0.8,0.0,0.0,0.0,"[2.0, 2.0, 2.0, 2.0, 2.0, 2.0, 2.0, 2.0, 2.0]",24.0,0.0,0.0,137.25182890290023,1010.721322683062,64.14861419479719,-2103.6586442989105,-7268.238083236429,0.0,0.0,0.0,0.0,0.0,0.0,0.0,-6.2,21.32690265430677,0.0,19.974474483082304,0.0,-6.2,24.0,18.74,21.21,22.09,22.5,-6.74,-6.2,0.0,-1465.37,-1157.64,218.13,137.0,0.0,669.0,0.0,0.0,0.0,0.0,0.0,0.0,0.0,0.0,0.0,0.0,0.0,0.0,0.0,0.0
13.0,2565.0,92365.10087282372,0.0,-0.0,808.190048281846,-16000.0,0.0,66731.81887506729,0.0,0.0,0.0,0.0,0.5807407407407407,0.09274185662492564,0.7988226059654632,296585.86166696576,74146.46541674144,370732.3270837072,"[2.0, 2.0, 2.0, 2.0, 2.0, 2.0, 2.0, 2.0, 2.0]",20.98,0.0,0.0,59.622896434681415,258.6918291989032,47.69460476670551,-1886.3866793854604,-1207.0135169827522,78.59230761424783,0.0,0.0,0.0,0.0,0.0,0.0,-6.1,20.548206738184252,0.0,20.04022183622701,0.0,-6.1,20.98,18.83,21.25,20.16,21.05,-6.66,-6.1,0.0,-1314.02,-1038.08,94.76,140.0,0.0,116.0,0.0,0.0,0.0,0.0,0.0,0.0,0.0,0.0,0.0,0.0,0.0,0.0,0.0,0.0
14.0,2268.0,8406.833202070602,6106.498130006749,-0.0,9.699093946500922,0.0,0.0,11787.222156885142,0.0,0.0,0.0,11787.222156885142,0.5807407407407407,0.09274185662492564,0.7988226059654631,0.0,0.0,0.0,"[2.0, 2.0, 2.0, 2.0, 2.0, 2.0, 2.0, 2.0, 2.0]",20.0,0.0,0.0,19.03010188044078,205.64708397748547,53.32609174113842,-1852.89138868712,606.1748353534889,11787.222156885142,0.0,0.0,0.0,0.0,0.0,0.0,-6.6,20.23777270359987,0.0,19.997424174446955,0.0,-6.6,20.0,18.84,21.15,19.72,20.66,-7.12,-6.6,7658.1,-1290.69,-1019.65,30.24,163.0,0.0,65.0,0.0,0.0,0.0,0.0,0.0,0.0,0.0,0.0,0.0,0.0,0.0,0.0,0.0,0.0
15.0,6980.0,0.0,0.0,-0.0,0.0,6980.0,0.0,24539.495262955323,0.0,24539.495262955323,0.0,0.0,0.31694633408919115,0.0,0.7988226059654631,0.0,0.0,0.0,"[2.0, 2.0, 2.0, 2.0, 2.0, 2.0, 2.0, 2.0, 2.0]",24.0,0.0,0.0,2.1038771853824842,266.44397058444184,44.296836089394034,-2180.2819724025135,-6779.032180355451,1973.222244862152,0.0,0.0,0.0,0.0,0.0,0.0,-7.3,21.508381578002773,0.0,20.233598953379797,0.0,-7.3,24.0,19.03,21.43,22.65,22.95,-7.79,-7.3,0.0,-1518.74,-1199.81,3.34,128.0,0.0,128.0,0.0,0.0,0.0,0.0,0.0,0.0,0.0,0.0,0.0,0.0,0.0,0.0,0.0,0.0
16.0,2315.0,44557.12841467923,26019.342772605836,-0.0,0.0,-16000.0,0.0,48736.190894199055,0.0,0.0,0.0,48736.19089419906,0.8976870748299318,0.0,0.7811616954474085,0.0,0.0,0.0,"[2.0, 2.0, 2.0, 2.0, 2.0, 2.0, 2.0, 2.0, 2.0]",21.53,0.0,0.0,0.0,216.4139470129559,46.71931931303278,-2001.2685804656312,-1745.4947533530462,0.0,0.0,0.0,0.0,0.0,0.0,0.0,-7.2,20.899047241502416,0.0,20.322749654960546,0.0,-7.2,21.53,19.13,21.51,20.71,21.52,-7.68,-7.2,0.0,-1394.05,-1101.3,0.0,106.0,18.0,101.0,0.0,0.0,0.0,0.0,0.0,0.0,0.0,0.0,0.0,0.0,0.0,0.0,0.0,0.0
17.0,1689.0,28103.96839157993,26274.44854962203,-0.0,0.0,0.0,0.0,49714.98801241909,0.0,0.0,0.0,49714.98801241909,0.8976870748299318,0.0,0.7682103610675027,0.0,0.0,0.0,"[2.0, 2.0, 2.0, 2.0, 2.0, 2.0, 2.0, 2.0, 2.0]",20.24,0.0,0.0,0.0,252.51882772523342,79.9734072011645,-1897.4650408204973,678.8656708969614,245.09749851309513,0.0,0.0,0.0,0.0,0.0,0.0,-7.0,20.504854508865613,0.0,20.279454963583433,0.0,-7.0,20.24,19.14,21.42,19.97,20.9,-7.47,-7.0,6158.24,-1321.74,-1044.17,0.0,92.0,83.0,128.0,0.0,0.0,0.0,0.0,0.0,0.0,0.0,0.0,0.0,0.0,0.0,0.0,0.0,0.0
18.0,4177.0,18781.26873478356,0.0,-0.0,0.0,16000.0,0.0,27459.32615199867,0.0,0.0,0.0,0.0,0.29300075585789853,0.0,0.7552590266875969,122041.44956443858,30510.362391109644,152551.8119555482,"[2.0, 2.0, 2.0, 2.0, 2.0, 2.0, 2.0, 2.0, 2.0]",20.0,0.0,0.0,0.0,367.93959946547665,99.22742970592952,-1873.7886599881024,975.4787395734047,11254.48351465937,0.0,0.0,0.0,0.0,0.0,0.0,-6.9,20.37450476037009,0.0,20.207553909663666,0.0,-6.9,20.0,19.13,21.28,19.88,20.77,-7.38,-6.9,4968.09,-1305.25,-1031.14,0.0,142.0,86.0,186.0,0.0,0.0,0.0,0.0,0.0,0.0,0.0,0.0,0.0,0.0,0.0,0.0,0.0,0.0
19.0,4787.0,0.0,0.0,-0.0,0.0,4787.0,0.0,0.0,0.0,0.0,0.0,0.0,0.11208616780045333,0.0,0.7552590266875969,0.0,0.0,0.0,"[2.0, 2.0, 2.0, 2.0, 2.0, 2.0, 2.0, 2.0, 2.0]",24.0,0.0,0.0,0.0,1068.3599294662802,90.48132144396112,-2145.4531869008756,-6441.744229481257,0.0,0.0,0.0,0.0,0.0,0.0,0.0,-6.8,21.632880625765004,0.0,20.42663000100121,0.0,-6.8,24.0,19.3,21.55,22.74,23.01,-7.27,-6.8,0.0,-1494.48,-1180.64,0.0,83.0,73.0,732.0,0.0,0.0,0.0,0.0,0.0,0.0,0.0,0.0,0.0,0.0,0.0,0.0,0.0,0.0
20.0,5722.0,0.0,0.0,-0.0,0.0,5722.0,0.0,29633.02975314392,0.0,29633.02975314392,0.0,0.0,0.4765759637188206,0.17837857236151197,0.7552590266875969,0.0,0.0,0.0,"[2.0, 1.0643169159772512, 1.8541183396538656, 1.2413293386510738, 2.0, 1.1169447995893833, 1.200143698028537, 0.9513360256613552, 1.8349593447115105]",21.25,0.0,0.0,0.0,544.3008159864826,73.52393887848997,-1939.9043235916276,-945.6303068600437,9711.548340397212,0.0,0.0,0.0,0.0,0.0,0.0,-6.6,20.913524384314417,0.0,20.47252395473994,0.0,-6.6,21.25,19.37,21.58,20.53,21.35,-7.07,-6.6,0.0,-1351.3,-1067.53,0.0,129.0,40.0,327.0,0.0,0.0,0.0,0.0,0.0,0.0,0.0,0.0,0.0,0.0,0.0,0.0,0.0,0.0
21.0,5185.0,19704.388246940667,0.0,-0.0,0.0,-14420.866305705964,0.0,16681.048032408373,0.0,16681.04803240837,0.0,0.0,1.0,0.11533606279080763,0.7470172684458387,0.0,0.0,0.0,"[2.0, 1.0643169159772512, 1.8541183396538656, 1.2413293386510738, 2.0, 1.1169447995893833, 1.200143698028537, 0.9513360256613552, 1.8349593447115105]",24.0,0.0,0.0,0.0,749.0147718342271,63.70816269959015,-2124.5559155998935,-5925.898268642021,0.0,0.0,0.0,0.0,0.0,0.0,0.0,-6.5,21.82354426022468,0.0,20.681943942169397,0.0,-6.5,24.0,19.54,21.83,22.73,23.08,-6.98,-6.5,869.31,-1479.93,-1169.14,0.0,135.0,11.0,477.0,0.0,0.0,0.0,0.0,0.0,0.0,0.0,0.0,0.0,0.0,0.0,0.0,0.0,0.0
22.0,4232.0,4253.266331658291,0.0,-0.0,0.0,0.0,0.0,3971.703330864639,0.0,3971.703330864639,0.0,0.0,1.0,0.10032584612087324,0.7470172684458387,0.0,0.0,0.0,"[2.0, 1.0643169159772512, 1.8541183396538656, 1.2413293386510738, 2.0, 1.1169447995893833, 1.200143698028537, 0.9513360256613552, 1.8349593447115105]",21.32,0.0,0.0,0.0,451.921131142146,71.85651536092043,-1923.9837697122487,-601.8037807218218,0.0,0.0,0.0,0.0,0.0,0.0,0.0,-6.3,21.112057572843934,0.0,20.713896212369754,0.0,-6.3,21.32,19.59,21.83,20.68,21.54,-6.81,-6.3,1167.04,-1340.21,-1058.77,0.0,157.0,26.0,246.0,0.0,0.0,0.0,0.0,0.0,0.0,0.0,0.0,0.0,0.0,0.0,0.0,0.0,0.0
23.0,2463.0,59973.7154898363,57210.84691238712,-0.0,0.0,0.0,0.0,32614.31562394855,0.0,-80000.0,0.0,112614.31562394854,1.0,0.3906962164912436,0.7470172684458387,0.0,0.0,0.0,"[2.0, 1.0643169159772512, 1.8541183396538656, 1.2413293386510738, 2.0, 1.1169447995893833, 1.200143698028537, 0.9513360256613552, 1.8349593447115105]",20.58,0.0,0.0,0.0,144.13240650149766,57.00700780822586,-1865.2599204809007,722.0195435294436,10200.021121508471,0.0,0.0,0.0,0.0,0.0,0.0,-6.2,20.858262267326594,0.0,20.65867575940878,0.0,-6.2,20.58,19.59,21.73,20.36,21.24,-6.7,-6.2,3681.82,-1299.31,-1026.45,0.0,80.0,53.0,58.0,0.0,0.0,0.0,0.0,0.0,0.0,0.0,0.0,0.0,0.0,0.0,0.0,0.0,0.0
24.0,972.0,976.8844221105528,0.0,-0.0,0.0,0.0,0.0,38172.913733406785,0.0,38172.913733406785,0.0,0.0,1.0,0.24642972467942656,0.7470172684458387,0.0,0.0,0.0,"[2.0, 1.0643169159772512, 1.8541183396538656, 1.2413293386510738, 2.0, 1.1169447995893833, 1.200143698028537, 0.9513360256613552, 1.8349593447115105]",24.0,0.0,0.0,0.0,146.07044184788234,27.21361023957801,-2096.6928871985833,-5620.075240668027,5919.189197384422,0.0,0.0,0.0,0.0,0.0,0.0,-6.1,21.93647993799236,0.0,20.84912032166052,0.0,-6.1,24.0,19.75,21.95,22.88,23.2,-6.61,-6.1,1015.67,-1460.52,-1153.81,0.0,80.0,0.0,65.0,0.0,0.0,0.0,0.0,0.0,0.0,0.0,0.0,0.0,0.0,0.0,0.0,0.0,0.0
25.0,739.0,742.713567839196,0.0,-0.0,0.0,0.0,0.0,8338.156524467671,0.0,8338.156524467671,0.0,0.0,1.0,0.2149174173307203,0.7470172684458387,0.0,0.0,0.0,"[2.0, 1.0643169159772512, 1.8541183396538656, 1.2413293386510738, 2.0, 1.1169447995893833, 1.200143698028537, 0.9513360256613552, 1.8349593447115105]",23.4,0.0,0.0,0.0,173.34649487107413,27.84282666130236,-2047.8097398870677,-4074.7183432638426,0.0,0.0,0.0,0.0,0.0,0.0,0.0,-6.0,21.905960048832494,0.0,21.024051470327176,0.0,-6.0,23.4,19.89,22.16,22.29,22.84,-6.47,-6.0,4104.49,-1426.47,-1126.91,0.0,80.0,0.0,85.0,0.0,0.0,0.0,0.0,0.0,0.0,0.0,0.0,0.0,0.0,0.0,0.0,0.0,0.0
26.0,866.0,67606.5813524933,66402.54844573083,-0.0,0.0,0.0,0.0,57212.63986526443,0.0,-76659.87827071831,0.0,133872.51813598274,1.0,0.4931643829059201,0.7470172684458379,0.0,0.0,0.0,"[2.0, 1.0643169159772512, 1.8541183396538656, 1.2413293386510738, 2.0, 1.1169447995893833, 1.200143698028537, 0.9513360256613552, 1.8349593447115105]",21.21,0.0,0.0,0.0,101.06495435961588,26.17540314373284,-1874.2769306464702,205.47579192778855,0.0,0.0,0.0,0.0,0.0,0.0,0.0,-5.7,21.296691993697006,0.0,21.017535690902214,0.0,-5.7,21.21,19.92,22.11,20.81,21.69,-6.16,-5.7,3343.69,-1305.59,-1031.41,0.0,80.0,0.0,32.0,0.0,0.0,0.0,0.0,0.0,0.0,0.0,0.0,0.0,0.0,0.0,0.0,0.0,0.0
27.0,896.0,51243.302135869846,50091.0856251905,-0.0,0.0,0.0,0.0,21942.45304494167,0.0,-80000.0,0.0,101942.45304494168,1.0,0.7835347532762904,0.7470172684458379,0.0,0.0,0.0,"[2.0, 1.0643169159772512, 1.8541183396538656, 1.2413293386510738, 2.0, 1.1169447995893833, 1.200143698028537, 0.9513360256613552, 1.8349593447115105]",20.64,0.0,0.0,0.0,137.88762594092478,27.024845313060712,-1820.5622586837187,1150.670804510967,0.0,0.0,0.0,0.0,0.0,0.0,0.0,-5.5,21.074794953367967,0.0,20.943347014788504,0.0,-5.5,20.64,19.91,21.98,20.54,21.42,-5.95,-5.5,3031.45,-1268.17,-1001.85,0.0,80.0,0.0,59.0,0.0,0.0,0.0,0.0,0.0,0.0,0.0,0.0,0.0,0.0,0.0,0.0,0.0,0.0
28.0,1662.0,24350.227268570714,22566.47613222786,-0.0,0.0,0.0,0.0,46141.10788988916,0.0,0.0,0.0,46141.107889889165,1.0,0.7835347532762904,0.7470172684458379,0.0,0.0,0.0,"[2.0, 1.0643169159772512, 1.8541183396538656, 1.2413293386510738, 2.0, 1.1169447995893833, 1.200143698028537, 0.9513360256613552, 1.8349593447115105]",20.45,0.0,0.0,0.0,1542.6043566353019,59.429491031864586,-1800.5195993693376,1314.3833185736553,8492.105619642043,0.0,0.0,0.0,0.0,0.0,0.0,-5.4,20.94747243088221,0.0,20.855815579951415,0.0,-5.4,20.45,19.88,21.83,20.43,21.27,-5.84,-5.4,835.04,-1254.21,-990.82,0.0,80.0,0.0,1089.0,0.0,0.0,0.0,0.0,0.0,0.0,0.0,0.0,0.0,0.0,0.0,0.0,0.0,0.0
29.0,849.0,0.0,13324.343528433486,-0.0,0.0,14173.343528433486,0.0,27498.00121460682,0.0,0.0,0.0,27498.00121460682,0.46434831714159164,0.7835347532762904,0.7470172684458379,0.0,0.0,0.0,"[2.0, 1.0643169159772512, 1.8541183396538656, 1.2413293386510738, 2.0, 1.1169447995893833, 1.200143698028537, 0.9513360256613552, 1.8349593447115105]",24.0,0.0,0.0,0.0,294.7249308242776,30.642839737975706,-2034.0010732956355,-5351.339769337408,0.0,0.0,0.0,0.0,0.0,0.0,0.0,-5.2,22.035396575577654,0.0,21.01277705583496,0.0,-5.2,24.0,20.01,22.02,22.83,23.14,-5.64,-5.2,1467.65,-1416.85,-1119.31,0.0,80.0,0.0,174.0,0.0,0.0,0.0,0.0,0.0,0.0,0.0,0.0,0.0,0.0,0.0,0.0,0.0,0.0
30.0,1324.0,25565.475501739915,9355.89767813221,-0.0,0.0,-14757.750446099006,0.0,19397.347313313636,0.0,0.0,0.0,19397.347313313636,1.0,0.7835347532762904,0.7470172684458379,0.0,0.0,0.0,"[2.0, 1.0643169159772512, 1.8541183396538656, 1.2413293386510738, 2.0, 1.1169447995893833, 1.200143698028537, 0.9513360256613552, 1.8349593447115105]",21.39,0.0,0.0,0.0,280.87156705197225,56.84970370279477,-1845.0551851523962,-183.67649176705902,0.0,0.0,0.0,0.0,0.0,0.0,0.0,-5.1,21.333023109297827,0.0,21.031002336035062,0.0,-5.1,21.39,20.04,22.02,20.92,21.7,-5.54,-5.1,3575.62,-1285.23,-1015.33,0.0,169.0,0.0,117.0,0.0,0.0,0.0,0.0,0.0,0.0,0.0,0.0,0.0,0.0,0.0,0.0,0.0,0.0
31.0,979.0,0.0,0.0,-0.0,0.0,979.0,0.0,31356.193964467406,0.0,31356.193964467413,0.0,0.0,0.9630007558578987,0.6650306188678724,0.7470172684458379,0.0,0.0,0.0,"[2.0, 1.0643169159772512, 1.8541183396538656, 1.2413293386510738, 2.0, 1.1169447995893833, 1.200143698028537, 0.9513360256613552, 1.8349593447115105]",20.76,0.0,0.0,0.0,178.80170547571248,44.95751333220459,-1794.3809768564217,903.233197367776,4740.378271209961,0.0,0.0,0.0,0.0,0.0,0.0,-5.0,21.107219166805486,0.0,20.969131589996344,0.0,-5.0,20.76,20.03,21.91,20.64,21.43,-5.44,-5.0,2918.26,-1249.93,-987.45,0.0,137.0,0.0,59.0,0.0,0.0,0.0,0.0,0.0,0.0,0.0,0.0,0.0,0.0,0.0,0.0,0.0,0.0
32.0,1971.0,5067.976701500005,0.0,-0.0,0.0,-3071.6368179925043,0.0,15.144746803535693,0.0,15.144746803535693,0.0,0.0,1.0,0.6649161461029175,0.7470172684458379,0.0,0.0,0.0,"[1.086201276597933, 1.0643169159772476, 1.8541183396538656, 0.4852876823530785, 1.0109604834082795, 1.1169447995893833, 1.200143698028537, 0.9513360256613552, 1.8349593447115105]",22.27,0.0,0.0,0.7081151935116048,170.47533139494865,37.91028940889191,-1885.2838020040358,-1973.2771442475932,0.0,0.0,0.0,0.0,0.0,0.0,0.0,-4.8,21.548873415129243,0.0,21.014620931102314,0.0,-4.8,22.27,20.08,21.95,21.76,22.27,-5.24,-4.8,372.86,-1313.25,-1037.47,1.13,114.0,0.0,65.0,0.0,0.0,0.0,0.0,0.0,0.0,0.0,0.0,0.0,0.0,0.0,0.0,0.0,0.0
33.0,1209.0,23995.668538813225,22680.09956923113,-0.0,13.40937311197248,0.0,0.0,43808.451622772714,0.0,-6024.440850722787,0.0,49832.89247349551,1.0,0.686782635116652,0.7470172684458379,0.0,0.0,0.0,"[1.086201276597933, 1.0643169159772476, 1.8541183396538656, 0.4852876823530785, 1.0109604834082795, 1.1169447995893833, 1.200143698028537, 0.9513360256613552, 1.8349593447115105]",20.91,0.0,0.0,20.885240595916297,158.7035611428343,36.14848342806374,-1721.503189336031,600.1240035414667,6781.5830304074225,0.0,0.0,0.0,0.0,0.0,0.0,-3.8,21.148332747878527,0.0,20.979634464174644,0.0,-3.8,20.91,20.08,21.88,20.72,21.46,-4.2,-3.8,2727.59,-1199.17,-947.34,33.19,109.0,0.0,59.0,0.0,0.0,0.0,0.0,0.0,0.0,0.0,0.0,0.0,0.0,0.0,0.0,0.0,0.0
34.0,6916.0,0.0,0.0,-0.0,221.9314018873846,6694.068598112615,0.0,6029.144362187845,0.0,6029.144362187845,0.0,0.0,0.7470117687788127,0.6639967531733874,0.7470172684458377,0.0,0.0,0.0,"[1.086201276597933, 1.0643169159772476, 1.8541183396538656, 0.4852876823530785, 1.0109604834082795, 1.1169447995893833, 1.200143698028537, 0.9513360256613552, 1.8349593447115105]",23.09,0.0,0.0,40.89481748118638,79.10055376725617,1.824727623000603,-1796.2041463293656,-3452.993433236145,716.2085813894415,0.0,0.0,0.0,0.0,0.0,0.0,-2.7,21.82205988393764,0.0,21.087697431857798,0.0,-2.7,23.09,20.17,22.0,22.35,22.73,-3.11,-2.7,0.0,-1251.2,-988.45,64.99,0.0,0.0,58.0,0.0,0.0,0.0,0.0,0.0,0.0,0.0,0.0,0.0,0.0,0.0,0.0,0.0,0.0
35.0,10480.0,12468.54403670935,2991.947815016634,-0.0,1065.7464984908304,0.0,0.0,7172.917472229976,0.0,0.0,0.0,7172.917472229976,0.7470117687788127,0.6639967531733874,0.7470172684458377,0.0,0.0,0.0,"[1.086201276597933, 1.0643169159772476, 1.8541183396538656, 0.4852876823530785, 1.0109604834082795, 1.1169447995893833, 1.200143698028537, 0.9513360256613552, 1.8349593447115105]",21.45,0.0,0.0,63.84811508954051,45.005487488266446,1.0382070958451697,-1612.9126086984513,-228.82770021424474,6140.543340256334,0.0,0.0,0.0,0.0,0.0,0.0,-1.7,21.38200930300334,0.0,21.099235491392506,0.0,-1.7,21.45,20.2,21.99,21.09,21.77,-2.1,-1.7,1450.77,-1123.53,-887.58,101.47,0.0,0.0,33.0,0.0,0.0,0.0,0.0,0.0,0.0,0.0,0.0,0.0,0.0,0.0,0.0,0.0,0.0
36.0,10316.0,0.0,0.0,-0.0,1505.0575366072612,8810.94246339274,0.0,6712.352356041905,0.0,6712.352356041905,0.0,0.0,0.41402074597485433,0.6386288304370233,0.7470172684458377,0.0,0.0,0.0,"[1.086201276597933, 1.0643169159772476, 1.8541183396538656, 0.4852876823530785, 1.0109604834082795, 1.1169447995893833, 1.200143698028537, 0.9513360256613552, 1.8349593447115105]",23.09,0.0,0.0,71.49870397858781,96.82998823233085,2.2337182971214298,-1677.7862756237978,-3219.743842688472,0.0,0.0,0.0,0.0,0.0,0.0,0.0,-1.0,21.907547176895967,0.0,21.207159451703202,0.0,-1.0,23.09,20.3,22.12,22.36,22.76,-1.53,-1.0,647.3,-1168.72,-923.28,113.63,0.0,0.0,71.0,0.0,0.0,0.0,0.0,0.0,0.0,0.0,0.0,0.0,0.0,0.0,0.0,0.0,0.0
37.0,4457.0,0.0,5679.280329880543,-0.0,448.4915814933415,9687.788748387202,0.0,14156.971229238145,0.0,0.0,0.0,14156.971229238145,0.047891163647295676,0.6386288304370233,0.7470172684458377,0.0,0.0,0.0,"[1.086201276597933, 1.0643169159772476, 1.8541183396538656, 0.4852876823530785, 1.0109604834082795, 1.1169447995893833, 1.200143698028537, 0.9513360256613552, 1.8349593447115105]",21.34,0.0,0.0,50.294788822187115,1267.9057910569993,53.986768983948984,-1535.137905413301,194.57172063758176,4697.4627702341595,0.0,0.0,0.0,0.0,0.0,0.0,-0.7,21.42161006218916,0.0,21.201647127169043,0.0,-0.7,21.34,20.32,22.08,21.04,21.75,-1.25,-0.7,898.48,-1069.35,-844.79,79.93,83.0,0.0,886.0,0.0,0.0,0.0,0.0,0.0,0.0,0.0,0.0,0.0,0.0,0.0,0.0,0.0,0.0
38.0,3495.0,15208.692614737214,11638.058233897222,-0.0,0.40908223369307073,0.0,0.0,28344.962254515733,0.0,0.0,0.0,28344.962254515736,0.047891163647295676,0.6386288304370233,0.7246467817896368,0.0,0.0,0.0,"[1.086201276597933, 1.0643169159772476, 1.8541183396538656, 0.4852876823530785, 1.0109604834082795, 1.1169447995893833, 1.200143698028537, 0.9513360256613552, 1.8349593447115105]",23.09,0.0,0.0,12.085814163996906,234.78939326015882,29.85631921082027,-1698.6835469247806,-3079.788389524278,4504.242228232746,0.0,0.0,0.0,0.0,0.0,0.0,-1.3,21.959443457235725,0.0,21.285380335434215,0.0,-1.3,23.09,20.4,22.17,22.29,22.71,-1.78,-1.3,3256.55,-1183.27,-934.78,19.21,82.0,0.0,129.0,0.0,0.0,0.0,0.0,0.0,0.0,0.0,0.0,0.0,0.0,0.0,0.0,0.0,0.0
39.0,3168.0,1910.3515677312125,0.0,-0.0,0.0,1267.2001901074436,0.0,9078.997031551411,0.0,9078.997031551411,0.0,0.0,0.0,0.6043166723434806,0.6893249607535301,0.0,0.0,0.0,"[1.086201276597933, 1.0643169159772476, 1.8541183396538656, 0.4852876823530785, 1.0109604834082795, 1.1169447995893833, 1.200143698028537, 0.9513360256613552, 1.8349593447115105]",23.09,0.0,0.0,1.397481652880478,228.6881708733922,30.013623316251355,-1740.4780895267456,-2852.8765432311056,0.0,0.0,0.0,0.0,0.0,0.0,0.0,-1.9,22.04367903336665,0.0,21.39678282316656,0.0,-1.9,23.09,20.5,22.3,22.31,22.76,-2.39,-1.9,463.86,-1212.39,-957.78,2.22,83.0,0.0,124.0,0.0,0.0,0.0,0.0,0.0,0.0,0.0,0.0,0.0,0.0,0.0,0.0,0.0,0.0
40.0,2560.0,14181.930058455546,0.0,-0.0,0.0,-11551.020408163267,0.0,18463.948964888015,0.0,18463.94896488802,0.0,0.0,0.41925925925925933,0.5345360640105705,0.6893249607535293,0.0,0.0,0.0,"[1.086201276597933, 1.0643169159772476, 1.8541183396538656, 0.4852876823530785, 1.0109604834082795, 1.1169447995893833, 1.200143698028537, 0.9513360256613552, 1.8349593447115105]",21.48,0.0,0.0,0.0,269.4586922343736,64.3688399424007,-1642.687910853952,259.8222804548799,0.0,0.0,0.0,0.0,0.0,0.0,0.0,-2.1,21.590476179727073,0.0,21.382509947058686,0.0,-2.1,21.48,20.51,22.25,21.2,21.9,-2.6,-2.1,3253.92,-1144.27,-903.97,0.0,163.0,17.0,110.0,0.0,0.0,0.0,0.0,0.0,0.0,0.0,0.0,0.0,0.0,0.0,0.0,0.0,0.0
41.0,2147.0,19648.4350062186,1403.192831187505,-0.0,0.0,-16000.0,0.0,3283.7623010280736,0.0,0.0,0.0,3283.7623010280736,1.0,0.5345360640105705,0.6893249607535293,0.0,0.0,0.0,"[1.086201276597933, 1.0643169159772476, 1.8541183396538656, 0.4852876823530785, 1.0109604834082795, 1.1169447995893833, 1.200143698028537, 0.9513360256613552, 1.8349593447115105]",21.09,0.0,0.0,0.0,271.89918118908025,98.53529164203279,-1629.4335916976672,882.5738219841749,0.0,0.0,0.0,0.0,0.0,0.0,0.0,-2.3,21.430449269696,0.0,21.32105998142513,0.0,-2.3,21.09,20.49,22.15,21.02,21.72,-2.8,-2.3,0.0,-1135.03,-896.68,0.0,149.0,85.0,112.0,0.0,0.0,0.0,0.0,0.0,0.0,0.0,0.0,0.0,0.0,0.0,0.0,0.0,0.0
42.0,3173.0,0.0,12827.0,-0.0,0.0,16000.0,0.0,27221.333529161122,0.0,-2551.939828050254,0.0,29773.273357211376,0.3953136810279667,0.5437986604234937,0.6893249607535293,0.0,0.0,0.0,"[1.086201276597933, 1.0643169159772476, 1.8541183396538656, 0.4852876823530785, 1.0109604834082795, 1.1169447995893833, 1.200143698028537, 0.9513360256613552, 1.8349593447115105]",20.95,0.0,0.0,0.0,151.7409897132301,41.71704876032422,-1633.42655129546,1002.3339525353194,6218.466513064055,0.0,0.0,0.0,0.0,0.0,0.0,-2.5,21.332127294067387,0.0,21.25153011182491,0.0,-2.5,20.95,20.47,22.04,20.94,21.61,-3.05,-2.5,2367.12,-1137.82,-898.87,0.0,81.0,25.0,66.0,0.0,0.0,0.0,0.0,0.0,0.0,0.0,0.0,0.0,0.0,0.0,0.0,0.0,0.0
43.0,5329.0,12611.089447236182,0.0,-0.0,0.0,0.0,0.0,17965.64372099204,36095.17,46841.77972099204,0.0,0.0,0.3953136810279667,0.3667700144635842,0.6793171114599658,28876.136,7219.034,36095.17,"[1.086201276597933, 1.0643169159772476, 1.8541183396538656, 0.4852876823530785, 1.0109604834082795, 1.1169447995893833, 1.200143698028537, 0.9513360256613552, 1.8349593447115105]",23.09,0.0,0.0,0.0,88.6471723253733,2.044953370604124,-1796.2041463293656,-3019.9868033564994,0.0,0.0,0.0,0.0,0.0,0.0,0.0,-2.7,21.982304195834796,0.0,21.340389295812457,0.0,-2.7,23.09,20.54,22.14,22.47,22.79,-3.27,-2.7,0.0,-1251.2,-988.45,0.0,0.0,0.0,65.0,0.0,0.0,0.0,0.0,0.0,0.0,0.0,0.0,0.0,0.0,0.0,0.0,0.0,0.0
44.0,4389.0,5074.0955924981035,0.0,-0.0,0.0,-659.725114535613,0.0,10128.31899193805,0.0,10128.31899193805,0.0,0.0,1.0,0.6188625352801448,0.6793171114599658,0.0,0.0,0.0,"[1.0862012765979294, 1.0643169159772476, 1.0637640458542634, 0.4852876823530785, 1.0109604834082795, 1.1169447995893833, 1.2001436980285405, 0.5663170515347993, 1.8349593447115105]",21.34,0.0,0.0,0.0,70.91773786029864,1.635962696483302,-1688.374600519577,377.0210913225916,91.57024253021714,0.0,0.0,0.0,0.0,0.0,0.0,-2.9,21.490045914507764,0.0,21.323861137736003,0.0,-2.9,21.34,20.54,22.1,21.12,21.76,-3.44,-2.9,0.0,-1176.09,-929.11,0.0,0.0,0.0,52.0,0.0,0.0,0.0,0.0,0.0,0.0,0.0,0.0,0.0,0.0,0.0,0.0,0.0,0.0
45.0,4520.0,39712.68440205608,50994.1209800458,-0.0,0.0,16000.0,0.0,35447.680392934155,0.0,-80000.0,0.0,115447.68039293415,0.3953136810279667,0.9092329056505152,0.675784929356355,0.0,0.0,0.0,"[1.0862012765979294, 1.0643169159772476, 1.0637640458542634, 0.4852876823530785, 1.0109604834082795, 1.1169447995893833, 1.2001436980285405, 0.5663170515347993, 1.8349593447115105]",20.91,0.0,0.0,0.0,40.91407953478768,0.9438246325865193,-1672.742889633739,1057.0806530905315,6446.969303715438,0.0,0.0,0.0,0.0,0.0,0.0,-3.1,21.317075515190652,0.0,21.255556082189145,0.0,-3.1,20.91,20.51,22.0,20.92,21.56,-3.64,-3.1,0.0,-1165.2,-920.51,0.0,0.0,0.0,30.0,0.0,0.0,0.0,0.0,0.0,0.0,0.0,0.0,0.0,0.0,0.0,0.0,0.0,0.0
46.0,2776.0,0.0,0.0,-0.0,0.0,2776.0,0.0,16750.608363678868,0.0,16750.608363678868,0.0,0.0,0.29040060468631895,0.8459275074506706,0.675784929356355,0.0,0.0,0.0,"[1.0862012765979294, 1.0643169159772476, 1.0637640458542634, 0.4852876823530785, 1.0109604834082795, 1.1169447995893833, 1.2001436980285405, 0.5663170515347993, 1.8349593447115105]",23.09,0.0,0.0,0.0,68.19013255797947,1.5730410543108668,-1837.9986889313307,-3032.205230496416,39.40944750179556,0.0,0.0,0.0,0.0,0.0,0.0,-3.3,21.978088451367935,0.0,21.344680702724848,0.0,-3.3,23.09,20.58,22.11,22.49,22.78,-3.87,-3.3,203.14,-1280.32,-1011.45,0.0,0.0,0.0,50.0,0.0,0.0,0.0,0.0,0.0,0.0,0.0,0.0,0.0,0.0,0.0,0.0,0.0,0.0
47.0,1654.0,17524.928068016176,15783.303427676094,-0.0,0.0,0.0,0.0,35281.06625557435,0.0,0.0,0.0,35281.06625557435,0.29040060468631895,0.8459275074506706,0.675784929356355,0.0,0.0,0.0,"[1.0862012765979294, 1.0643169159772476, 1.0637640458542634, 0.4852876823530785, 1.0109604834082795, 1.1169447995893833, 1.2001436980285405, 0.5663170515347993, 1.8349593447115105]",21.33,0.0,0.0,0.0,85.91956702305413,1.9820317284316935,-1722.2890125261072,392.1920811416401,6003.562234212572,0.0,0.0,0.0,0.0,0.0,0.0,-3.4,21.48279120153816,0.0,21.32776023988002,0.0,-3.4,21.33,20.58,22.08,21.13,21.74,-3.97,-3.4,792.69,-1199.72,-947.77,0.0,0.0,0.0,63.0,0.0,0.0,0.0,0.0,0.0,0.0,0.0,0.0,0.0,0.0,0.0,0.0,0.0,0.0
48.0,1781.0,4563.259164804947,2759.4428689809233,-0.0,0.0,0.0,0.0,5852.6165664515775,0.0,0.0,0.0,5852.6165664515775,0.29040060468631895,0.8459275074506706,0.5757064364207193,0.0,0.0,0.0,"[1.0862012765979294, 1.0643169159772476, 1.0637640458542634, 0.4852876823530785, 1.0109604834082795, 1.1169447995893833, 1.2001436980285405, 0.5663170515347993, 1.8349593447115105]",23.09,0.0,0.0,0.0,378.132229805722,38.75973157821978,-1928.553531235588,-2891.9789202907555,0.0,0.0,0.0,0.0,0.0,0.0,0.0,-4.6,22.030595871753825,0.0,21.41526573152817,0.0,-4.6,23.09,20.64,22.19,22.49,22.8,-5.15,-4.6,2851.85,-1343.4,-1061.28,0.0,80.0,11.0,234.0,0.0,0.0,0.0,0.0,0.0,0.0,0.0,0.0,0.0,0.0,0.0,0.0,0.0,0.0
49.0,1652.0,1660.3015075376884,0.0,-0.0,0.0,0.0,0.0,25170.901545023822,0.0,25170.901545023822,0.0,0.0,0.29040060468631895,0.750799383697746,0.5757064364207193,0.0,0.0,0.0,"[1.0862012765979294, 1.0643169159772476, 1.0637640458542634, 0.4852876823530785, 1.0109604834082795, 1.1169447995893833, 1.2001436980285405, 0.5663170515347993, 1.8349593447115105]",21.46,0.0,0.0,0.0,343.8218262660228,31.775429297079533,-1898.585180114147,273.4038741214537,5659.883146963162,0.0,0.0,0.0,0.0,0.0,0.0,-5.8,21.571003138183993,0.0,21.397837769573208,0.0,-5.8,21.46,20.64,22.15,21.23,21.84,-6.35,-5.8,593.6,-1322.52,-1044.79,0.0,80.0,0.0,210.0,0.0,0.0,0.0,0.0,0.0,0.0,0.0,0.0,0.0,0.0,0.0,0.0,0.0,0.0
50.0,1202.0,0.0,3735.24917939007,-0.0,0.0,4937.24917939007,0.0,7067.621907499441,0.0,0.0,0.0,7067.621907499441,0.10380766517800188,0.750799383697746,0.5757064364207193,0.0,0.0,0.0,"[1.0862012765979294, 1.0643169159772476, 1.0637640458542634, 0.4852876823530785, 1.0109604834082795, 1.1169447995893833, 1.2001436980285405, 0.5663170515347993, 1.8349593447115105]",23.09,0.0,0.0,0.0,147.43424449904194,27.245071060664234,-2095.7317016434486,-2768.8117001200835,4692.436054595779,0.0,0.0,0.0,0.0,0.0,0.0,-7.0,22.077365804562852,0.0,21.47698655228762,0.0,-7.0,23.09,20.7,22.26,22.5,22.83,-7.58,-7.0,3092.48,-1459.85,-1153.28,0.0,80.0,0.0,66.0,0.0,0.0,0.0,0.0,0.0,0.0,0.0,0.0,0.0,0.0,0.0,0.0,0.0,0.0
51.0,794.0,0.0,0.0,-0.0,0.0,794.0,0.0,22131.451635940182,0.0,22131.451635940182,0.0,0.0,0.07380010659901473,0.6671582210524695,0.5757064364207193,0.0,0.0,0.0,"[1.0862012765979294, 1.0643169159772476, 1.0637640458542634, 0.4852876823530785, 1.0109604834082795, 1.1169447995893833, 1.2001436980285405, 0.5663170515347993, 1.8349593447115105]",23.09,0.0,0.0,0.0,101.06495435961588,26.17540314373284,-2137.5262442454136,-2565.481942548039,0.0,0.0,0.0,0.0,0.0,0.0,0.0,-7.6,22.152880480763812,0.0,21.572207836254286,0.0,-7.6,23.09,20.76,22.38,22.45,22.84,-8.19,-7.6,1577.47,-1488.96,-1176.28,0.0,80.0,0.0,32.0,0.0,0.0,0.0,0.0,0.0,0.0,0.0,0.0,0.0,0.0,0.0,0.0,0.0,0.0
52.0,664.0,5159.518793424123,6422.472020066933,-0.0,0.0,1952.7508206099299,0.0,11356.272989356978,0.0,0.0,0.0,11356.272989356978,0.0,0.6671582210524695,0.5757064364207193,0.0,0.0,0.0,"[1.0862012765979294, 1.0643169159772476, 1.0637640458542634, 0.4852876823530785, 1.0109604834082795, 1.1169447995893833, 1.2001436980285405, 0.5663170515347993, 1.8349593447115105]",21.39,0.0,0.0,0.0,146.07044184788234,27.21361023957801,-2068.324724389861,688.3937670092693,0.0,0.0,0.0,0.0,0.0,0.0,0.0,-8.3,21.662521671323145,0.0,21.53702129362936,0.0,-8.3,21.39,20.74,22.33,21.27,21.93,-8.9,-8.3,727.19,-1440.76,-1138.2,0.0,80.0,0.0,65.0,0.0,0.0,0.0,0.0,0.0,0.0,0.0,0.0,0.0,0.0,0.0,0.0,0.0,0.0
53.0,637.0,640.2010050251256,0.0,-0.0,0.0,0.0,0.0,10884.438468143439,0.0,10884.438468143439,0.0,0.0,0.0,0.6260227771063491,0.5757064364207188,0.0,0.0,0.0,"[1.0862012765979294, 1.0643169159772476, 1.0637640458542634, 0.4852876823530785, 1.0109604834082795, 1.1169447995893833, 1.2001436980285405, 0.5663170515347993, 1.8349593447115105]",20.95,0.0,0.0,0.0,120.58886599726895,39.01141814690952,-2078.962895762354,1377.2025491196848,460.22163892797687,0.0,0.0,0.0,0.0,0.0,0.0,-8.9,21.470114906563353,0.0,21.449518566758645,0.0,-8.9,20.95,20.69,22.21,21.04,21.71,-9.53,-8.9,2463.39,-1448.17,-1144.05,0.0,80.0,22.0,44.0,0.0,0.0,0.0,0.0,0.0,0.0,0.0,0.0,0.0,0.0,0.0,0.0,0.0,0.0
54.0,833.0,14146.757527747026,0.0,-0.0,0.0,-13243.02374010829,0.0,13998.431264213299,0.0,13998.4312642133,0.0,0.0,0.48067271352985647,0.573118652902973,0.5757064364207188,0.0,0.0,0.0,"[1.0862012765979294, 1.0643169159772476, 1.0637640458542634, 0.4852876823530785, 1.0109604834082795, 1.1169447995893833, 1.2001436980285405, 0.5663170515347993, 1.8349593447115105]",20.91,0.0,0.0,0.0,186.98452138267004,84.15769640563143,-2111.5855869543725,1251.1193978262193,6470.344435054393,0.0,0.0,0.0,0.0,0.0,0.0,-9.4,21.392042775286992,0.0,21.36250466999127,0.0,-9.4,20.91,20.63,22.09,21.03,21.66,-10.03,-9.4,1900.77,-1470.89,-1162.0,0.0,147.0,64.0,53.0,0.0,0.0,0.0,0.0,0.0,0.0,0.0,0.0,0.0,0.0,0.0,0.0,0.0,0.0
55.0,1625.0,0.0,0.0,-0.0,0.0,1625.0,0.0,10717.701057500331,0.0,10717.701057500333,0.0,0.0,0.41925925925925933,0.5326133579010821,0.5757064364207188,0.0,0.0,0.0,"[1.0862012765979294, 1.0643169159772476, 1.0637640458542634, 0.4852876823530785, 1.0109604834082795, 1.1169447995893833, 1.2001436980285405, 0.5663170515347993, 1.8349593447115105]",23.09,0.0,0.0,0.0,260.98875997980355,83.81162737368305,-2297.738657552947,-2856.954350660272,859.6738448111938,0.0,0.0,0.0,0.0,0.0,0.0,-9.9,22.04624597247308,0.0,21.43947916221343,0.0,-9.9,23.09,20.68,22.2,22.58,22.86,-10.54,-9.9,627.37,-1600.56,-1264.44,0.0,108.0,81.0,126.0,0.0,0.0,0.0,0.0,0.0,0.0,0.0,0.0,0.0,0.0,0.0,0.0,0.0,0.0
56.0,990.0,994.9748743718593,0.0,-0.0,0.0,0.0,0.0,5261.367200881605,0.0,5261.367200881605,0.0,0.0,1.0,0.492844898332816,0.5757064364207188,0.0,0.0,0.0,"[1.0862012765979294, 1.0643169159772476, 1.0637640458542634, 0.4852876823530785, 1.0109604834082795, 1.0140677291929379, 1.2001436980285405, 0.5663170515347993, 1.6950813404631724]",21.62,0.0,0.0,2.8762861326762805,194.16243007298368,65.281203753901,-2181.822883140634,10.64505339796522,0.0,0.0,0.0,0.0,0.0,0.0,0.0,-9.7,21.642044757473435,0.0,21.4317026938102,0.0,-9.7,21.62,20.67,22.19,21.41,21.99,-10.36,-9.7,3017.94,-1519.82,-1200.66,4.57,136.0,36.0,67.0,0.0,0.0,0.0,0.0,0.0,0.0,0.0,0.0,0.0,0.0,0.0,0.0,0.0,0.0
57.0,4480.0,11589.155542884644,0.0,-0.0,9.993085696223778,4395.204523975728,0.0,10310.76663735795,0.0,0.0,0.0,0.0,0.8338924972042431,0.492844898332816,0.5757064364207188,45825.62949936869,11456.407374842172,57282.03687421086,"[1.0862012765979294, 1.0643169159772476, 1.0637640458542634, 0.4852876823530785, 1.0109604834082795, 1.0140677291929379, 1.2001436980285405, 0.5663170515347993, 1.6950813404631724]",20.91,0.0,0.0,30.089640455603586,2390.889605656567,112.97580852060653,-1965.3046878474947,1242.8123698070299,0.0,0.0,0.0,0.0,0.0,0.0,0.0,-7.3,21.387927104804696,0.0,21.354560006691862,0.0,-7.3,20.91,20.62,22.09,20.99,21.63,-7.94,-7.3,1459.52,-1369.0,-1081.51,47.82,143.0,27.0,1675.0,0.0,0.0,0.0,0.0,0.0,0.0,0.0,0.0,0.0,0.0,0.0,0.0,0.0,0.0
58.0,4703.0,0.0,0.0,-0.0,43.35258913698439,4659.6474108630155,0.0,28040.978038094992,0.0,28040.978038094992,0.0,0.0,0.6577909321678479,0.38686992464387043,0.5757064364207188,0.0,0.0,0.0,"[1.0862012765979294, 1.0643169159772476, 1.0637640458542634, 0.4852876823530785, 1.0109604834082795, 1.0140677291929379, 1.2001436980285405, 0.5663170515347993, 1.6950813404631724]",21.58,0.0,0.0,54.328418368597085,2059.413782337883,92.77796138325498,-1865.4430290700811,-188.6772083923637,3926.4248222542,0.0,0.0,0.0,0.0,0.0,0.0,-5.2,21.524139735977247,0.0,21.29808649556062,0.0,-5.2,21.58,20.58,22.02,21.27,21.82,-5.91,-5.2,884.11,-1299.43,-1026.55,86.34,150.0,1.0,1431.0,0.0,0.0,0.0,0.0,0.0,0.0,0.0,0.0,0.0,0.0,0.0,0.0,0.0,0.0
59.0,4566.0,9287.54608020763,0.0,-0.0,143.75725552644923,0.0,0.0,4336.979044799736,0.0,0.0,0.0,0.0,0.6577909321678479,0.38686992464387043,0.5757064364207188,19275.462421332166,4818.8656053330415,24094.328026665207,"[1.0862012765979294, 1.0643169159772476, 1.0637640458542634, 0.4852876823530785, 1.0109604834082795, 1.0140677291929379, 1.2001436980285405, 0.5663170515347993, 1.6950813404631724]",23.09,0.0,0.0,91.73372591879046,559.6615405837537,45.39796482741164,-1844.964446031658,-2997.6217614696225,0.0,0.0,0.0,0.0,0.0,0.0,0.0,-3.4,21.991012971014975,0.0,21.369552966984195,0.0,-3.4,23.09,20.63,22.11,22.31,22.64,-4.14,-3.4,0.0,-1285.17,-1015.28,145.79,109.0,0.0,353.0,0.0,0.0,0.0,0.0,0.0,0.0,0.0,0.0,0.0,0.0,0.0,0.0,0.0,0.0
60.0,4144.0,0.0,0.0,-0.0,13572.20901170215,-9428.20901170215,0.0,6455.8816179243895,0.0,6455.88161792439,0.0,0.0,1.0,0.3624712790734835,0.5757064364207188,0.0,0.0,0.0,"[1.0862012765979294, 1.0643169159772476, 1.0637640458542634, 0.4852876823530785, 1.0109604834082795, 1.0140677291929379, 1.2001436980285405, 0.5663170515347993, 1.6950813404631724]",21.55,0.0,0.0,1949.9131597865749,720.4466952467787,53.57777830982816,-1668.4388578641474,10.175613770858474,0.0,0.0,0.0,0.0,0.0,0.0,0.0,-2.4,21.567465157195944,0.0,21.364335111894526,0.0,-2.4,21.55,20.63,22.1,21.28,21.86,-1.84,-2.4,194.26,-1162.2,-918.14,3098.95,124.0,0.0,463.0,0.0,0.0,0.0,0.0,0.0,0.0,0.0,0.0,0.0,0.0,0.0,0.0,0.0,0.0
61.0,2293.0,30646.625758001202,40077.23906678412,-0.0,11876.84643757292,0.0,0.0,23016.881790519266,0.0,-71536.30842183808,0.0,94553.19021235737,1.0,0.6221215837157106,0.5633437990580815,0.0,0.0,0.0,"[1.0862012765979294, 1.0643169159772476, 1.0637640458542634, 0.4852876823530785, 1.0109604834082795, 1.0140677291929379, 1.2001436980285405, 0.5663170515347993, 1.6950813404631724]",21.96,0.0,0.0,1650.476639788543,292.35622095647403,39.23164389451304,-1676.1855248307143,-694.7612115647973,3385.312084959352,0.0,0.0,0.0,0.0,0.0,0.0,-2.1,21.718069696021068,0.0,21.414590670326128,0.0,-2.1,21.96,20.67,22.16,21.95,22.43,-1.72,-2.1,0.0,-1167.6,-922.4,2623.07,109.0,0.0,157.0,0.0,0.0,0.0,0.0,0.0,0.0,0.0,0.0,0.0,0.0,0.0,0.0,0.0,0.0
62.0,2620.0,0.0,13688.262748872812,-0.0,4310.8627488728125,11997.4,0.0,28211.482697321037,0.0,-3169.419558366272,0.0,31380.902255687306,0.546583522297808,0.6336254028534845,0.5633437990580815,0.0,0.0,0.0,"[1.0862012765979294, 1.0643169159772476, 1.0637640458542634, 0.4852876823530785, 1.0109604834082795, 1.0140677291929379, 1.2001436980285405, 0.5663170515347993, 1.6950813404631724]",23.09,0.0,0.0,807.576570238616,1416.1296055119758,82.14420385611352,-1803.1699034296932,-2631.7900908139786,2115.7051754744075,0.0,0.0,0.0,0.0,0.0,0.0,-2.8,22.125734261301737,0.0,21.544151126789146,0.0,-2.8,23.09,20.77,22.32,22.74,23.07,-2.94,-2.8,932.82,-1256.06,-992.28,1283.46,166.0,0.0,951.0,0.0,0.0,0.0,0.0,0.0,0.0,0.0,0.0,0.0,0.0,0.0,0.0,0.0,0.0
63.0,1565.0,0.0,0.0,-0.0,0.0,1565.0,0.0,8211.814935944352,0.0,8211.814935944352,0.0,0.0,0.4874376417233561,0.602590576942886,0.5633437990580815,0.0,0.0,0.0,"[1.0862012765979294, 1.0643169159772476, 1.0637640458542634, 0.4852876823530785, 1.0109604834082795, 1.0140677291929379, 1.2001436980285405, 0.5663170515347993, 1.6950813404631724]",23.09,0.0,0.0,9.580793792445723,143.8452901538851,38.88557486256465,-1914.6220170349334,-2429.9023886424134,0.0,0.0,0.0,0.0,0.0,0.0,0.0,-4.4,22.20150048207575,0.0,21.64158477352445,0.0,-4.4,23.09,20.84,22.44,22.47,22.89,-5.12,-4.4,0.0,-1333.69,-1053.62,15.23,108.0,6.0,48.0,0.0,0.0,0.0,0.0,0.0,0.0,0.0,0.0,0.0,0.0,0.0,0.0,0.0,0.0
64.0,1804.0,0.0,0.0,-0.0,0.0,1804.0,0.0,37711.24260479994,0.0,37711.24260479995,0.0,0.0,0.41925925925925933,0.4600688739768998,0.5633437990580815,0.0,0.0,0.0,"[1.0862012765979294, 1.0643169159772476, 1.0637640458542634, 0.4852876823530785, 1.0109604834082795, 1.0140677291929379, 1.2001436980285405, 0.5663170515347993, 1.6950813404631724]",21.55,0.0,0.0,0.0,316.7611105035404,73.20933066762777,-1856.309269915987,529.0185910156408,5099.863860160233,0.0,0.0,0.0,0.0,0.0,0.0,-5.1,21.758429642388542,0.0,21.61367808181985,0.0,-5.1,21.55,20.83,22.39,21.39,22.03,-5.83,-5.1,0.0,-1293.07,-1021.53,0.0,138.0,44.0,155.0,0.0,0.0,0.0,0.0,0.0,0.0,0.0,0.0,0.0,0.0,0.0,0.0,0.0,0.0
65.0,2743.0,18837.18592964824,0.0,-0.0,0.0,-16000.0,0.0,7067.996425213213,0.0,7067.996425213213,0.0,0.0,1.0,0.43335686934646434,0.5633437990580815,0.0,0.0,0.0,"[1.0862012765979294, 1.0643169159772476, 1.0637640458542634, 0.4852876823530785, 1.0109604834082795, 1.0140677291929379, 1.2001436980285405, 0.5663170515347993, 1.6950813404631724]",23.09,0.0,0.0,0.0,238.3065685184125,78.65205271554339,-2019.1083735398463,-2366.1083911529913,0.0,0.0,0.0,0.0,0.0,0.0,0.0,-5.9,22.225837350971393,0.0,21.676549129326723,0.0,-5.9,23.09,20.88,22.47,22.57,22.94,-6.61,-5.9,0.0,-1406.47,-1111.11,0.0,117.0,68.0,106.0,0.0,0.0,0.0,0.0,0.0,0.0,0.0,0.0,0.0,0.0,0.0,0.0,0.0,0.0
66.0,4063.0,0.0,3146.6072888713356,-0.0,0.0,7209.607288871335,0.0,6043.8205736899345,0.0,0.0,0.0,6043.8205736899345,0.7275280692036532,0.43335686934646434,0.5633437990580815,0.0,0.0,0.0,"[1.0862012765979294, 1.0643169159772476, 1.0637640458542634, 0.4852876823530785, 1.0109604834082795, 1.0140677291929379, 1.2001436980285405, 0.5663170515347993, 1.6950813404631724]",21.58,0.0,0.0,0.0,486.87754646397343,61.56882686572736,-1969.8213454200265,532.3010016619179,0.0,0.0,0.0,0.0,0.0,0.0,0.0,-6.7,21.79000878644104,0.0,21.646751085262466,0.0,-6.7,21.58,20.87,22.43,21.43,22.07,-7.38,-6.7,0.0,-1372.14,-1083.99,0.0,82.0,46.0,309.0,0.0,0.0,0.0,0.0,0.0,0.0,0.0,0.0,0.0,0.0,0.0,0.0,0.0,0.0
67.0,6785.0,0.0,3625.735126671444,-0.0,0.0,10410.735126671443,0.0,6722.144784528212,0.0,0.0,0.0,6722.144784528212,0.3340762503574157,0.43335686934646434,0.5633437990580815,0.0,0.0,0.0,"[1.0862012765979294, 1.0643169159772476, 1.0637640458542634, 0.4852876823530785, 1.0109604834082795, 1.0140677291929379, 1.2001436980285405, 0.5663170515347993, 1.6950813404631724]",21.25,0.0,0.0,0.0,444.5996642780261,60.59354141205463,-1995.5242202091026,1018.445975406756,539.8143137511845,0.0,0.0,0.0,0.0,0.0,0.0,-7.4,21.639006331306554,0.0,21.571850513551674,0.0,-7.4,21.25,20.82,22.32,21.25,21.89,-8.09,-7.4,0.0,-1390.05,-1098.14,0.0,133.0,19.0,254.0,0.0,0.0,0.0,0.0,0.0,0.0,0.0,0.0,0.0,0.0,0.0,0.0,0.0,0.0
68.0,4614.0,43888.69593250316,32057.072452840643,-0.0,0.0,0.0,0.0,8677.75428911652,34990.9,-20318.740450014284,0.0,56989.21473913081,0.41925925925925933,0.5071063717205903,0.5397959183673436,27992.72,6998.18,34990.9,"[0.8364416791878995, 0.4667172067489638, 1.0637640458542634, 0.33153228456093586, 1.0081272195849067, 0.5290496445106747, 0.8868488480046786, 0.5663170515347993, 1.695081340463176]",21.27,0.0,0.0,0.0,876.996883782519,73.68124298392105,-2052.8531437704255,819.6381258265969,0.0,0.0,0.0,0.0,0.0,0.0,0.0,-8.2,21.588886034929537,0.0,21.501574489242103,0.0,-8.2,21.27,20.78,22.22,21.28,21.88,-8.88,-8.2,0.0,-1429.98,-1129.68,0.0,151.0,15.0,562.0,0.0,0.0,0.0,0.0,0.0,0.0,0.0,0.0,0.0,0.0,0.0,0.0,0.0,0.0
69.0,4094.0,23238.891958102697,13044.074584643398,-0.0,0.0,-5984.622913668782,0.0,22318.53140818118,0.0,0.0,0.0,22318.531408181185,0.6364789057553855,0.5071063717205903,0.5397959183673436,0.0,0.0,0.0,"[0.8364416791878995, 0.4667172067489638, 1.0637640458542634, 0.33153228456093586, 1.0081272195849067, 0.5290496445106747, 0.8868488480046786, 0.5663170515347993, 1.695081340463176]",21.16,0.0,0.0,0.0,771.0509515134901,88.02737739923616,-2094.1544483430735,865.4325005117937,377.95351217568447,0.0,0.0,0.0,0.0,0.0,0.0,-8.9,21.499031631139193,0.0,21.424999176201155,0.0,-8.9,21.16,20.73,22.12,21.15,21.74,-9.56,-8.9,0.0,-1458.75,-1152.41,0.0,162.0,39.0,476.0,0.0,0.0,0.0,0.0,0.0,0.0,0.0,0.0,0.0,0.0,0.0,0.0,0.0,0.0
70.0,6129.0,31508.21814649321,0.0,-0.0,0.0,0.0,0.0,22699.509350184657,0.0,0.0,0.0,0.0,0.6364789057553855,0.5071063717205903,0.5397959183673436,100886.70822304298,25221.677055760745,126108.38527880372,"[0.8364416791878995, 0.4667172067489638, 1.0637640458542634, 0.33153228456093586, 1.0081272195849067, 0.5290496445106747, 0.8868488480046786, 0.5663170515347993, 1.695081340463176]",21.16,0.0,0.0,0.0,3090.1614702669203,122.35113320429929,-2149.880505145694,717.6751971603318,2753.8718505706815,0.0,0.0,0.0,0.0,0.0,0.0,-9.7,21.44477863588472,0.0,21.355658356161825,0.0,-9.7,21.16,20.68,22.04,21.15,21.71,-10.36,-9.7,1979.62,-1497.57,-1183.08,0.0,92.0,42.0,2213.0,0.0,0.0,0.0,0.0,0.0,0.0,0.0,0.0,0.0,0.0,0.0,0.0,0.0,0.0
71.0,3826.0,0.0,10113.2318462875,-0.0,0.0,13939.2318462875,0.0,15857.644424354605,0.0,0.0,0.0,15857.644424354607,0.10967498110355253,0.5071063717205903,0.5397959183673436,0.0,0.0,0.0,"[0.8364416791878995, 0.4667172067489638, 1.0637640458542634, 0.33153228456093586, 1.0081272195849067, 0.5290496445106747, 0.8868488480046786, 0.5663170515347993, 1.695081340463176]",22.84,0.0,0.0,0.0,1730.737343408422,96.52179909251484,-2315.169796164246,-2511.2359011140425,3008.2583319442074,0.0,0.0,0.0,0.0,0.0,0.0,-10.4,21.924497753818954,0.0,21.38330813723043,0.0,-10.4,22.84,20.68,22.08,22.11,22.46,-11.06,-10.4,105.6,-1612.7,-1274.04,0.0,103.0,46.0,1210.0,0.0,0.0,0.0,0.0,0.0,0.0,0.0,0.0,0.0,0.0,0.0,0.0,0.0,0.0
72.0,1646.0,20393.500655100277,18645.533151824777,-0.0,0.0,0.0,0.0,28347.606666648622,0.0,0.0,0.0,28347.606666648626,0.10967498110355253,0.5071063717205903,0.5397959183673436,0.0,0.0,0.0,"[0.8364416791878995, 0.4667172067489638, 1.0637640458542634, 0.33153228456093586, 1.0081272195849067, 0.5290496445106747, 0.8868488480046786, 0.5663170515347993, 1.695081340463176]",22.84,0.0,0.0,0.0,248.28386159794846,34.63836401592531,-2349.998581665883,-2368.6457258374776,4438.9919862769375,0.0,0.0,0.0,0.0,0.0,0.0,-10.9,21.977504974287957,0.0,21.44695512461847,0.0,-10.9,22.84,20.71,22.18,22.15,22.53,-11.59,-10.9,1127.83,-1636.97,-1293.2,0.0,80.0,9.0,139.0,0.0,0.0,0.0,0.0,0.0,0.0,0.0,0.0,0.0,0.0,0.0,0.0,0.0,0.0
73.0,1022.0,16574.4422211008,0.0,-0.0,0.0,0.0,0.0,13922.61300899576,0.0,0.0,0.0,0.0,0.10967498110355253,0.5071063717205903,0.5397959183673436,61878.28003998118,15469.570009995296,77347.85004997648,"[0.8364416791878995, 0.4667172067489638, 1.0637640458542634, 0.33153228456093586, 1.0081272195849067, 0.5290496445106747, 0.8868488480046786, 0.5663170515347993, 1.695081340463176]",22.84,0.0,0.0,0.0,285.17831226616045,30.42261399037218,-2391.7931242678487,-2203.8661236531493,0.0,0.0,0.0,0.0,0.0,0.0,0.0,-11.5,22.03876171221293,0.0,21.52129112206824,0.0,-11.5,22.84,20.75,22.29,22.31,22.69,-12.2,-11.5,2440.87,-1666.08,-1316.2,0.0,80.0,0.0,167.0,0.0,0.0,0.0,0.0,0.0,0.0,0.0,0.0,0.0,0.0,0.0,0.0,0.0,0.0
74.0,1236.0,1242.211055276382,0.0,-0.0,0.0,0.0,0.0,16523.6674567309,0.0,16523.667456730902,0.0,0.0,0.10967498110355253,0.4446586489060366,0.5397959183673436,0.0,0.0,0.0,"[0.8364416791878995, 0.4667172067489638, 1.0637640458542634, 0.33153228456093586, 1.0081272195849067, 0.5290496445106747, 0.8868488480046786, 0.5663170515347993, 1.695081340463176]",21.25,0.0,0.0,0.0,544.3008159864825,36.40016999675348,-2330.2004551318305,814.243493017562,698.9934034027133,0.0,0.0,0.0,0.0,0.0,0.0,-12.2,21.57048375646909,0.0,21.473543287306214,0.0,-12.2,21.25,20.72,22.23,21.18,21.83,-12.92,-12.2,2553.71,-1623.18,-1282.31,0.0,80.0,0.0,357.0,0.0,0.0,0.0,0.0,0.0,0.0,0.0,0.0,0.0,0.0,0.0,0.0,0.0,0.0
75.0,2902.0,0.0,0.0,-0.0,0.0,2902.0,0.0,23234.8415070526,0.0,23234.8415070526,0.0,0.0,0.0,0.3568474565135476,0.5397959183673436,0.0,0.0,0.0,"[0.8364416791878995, 0.4667172067489638, 1.0637640458542634, 0.33153228456093586, 1.0081272195849067, 0.5290496445106747, 0.8868488480046786, 0.5663170515347993, 1.695081340463176]",21.16,0.0,0.0,0.0,2894.132783934455,90.60716472830599,-2351.8874610551916,831.4560058200992,0.0,0.0,0.0,0.0,0.0,0.0,0.0,-12.6,21.488341474168006,0.0,21.39891634170162,0.0,-12.6,21.16,20.66,22.14,21.18,21.79,-13.32,-12.6,838.34,-1638.28,-1294.24,0.0,80.0,0.0,2080.0,0.0,0.0,0.0,0.0,0.0,0.0,0.0,0.0,0.0,0.0,0.0,0.0,0.0,0.0
76.0,856.0,140261.56768832437,0.0,-0.0,0.0,-16000.0,0.0,30433.833864894445,0.0,-80000.0,0.0,0.0,0.5807407407407407,0.6472178268839179,0.5397959183673436,490817.03939953103,122704.25984988276,613521.2992494138,"[0.8364416791878995, 0.4667172067489638, 1.0637640458542634, 0.33153228456093586, 1.0081272195849067, 0.5290496445106747, 0.8868488480046786, 0.5663170515347993, 1.695081340463176]",21.7,0.0,0.0,0.0,304.27154938239477,30.863065485579227,-2417.259130457375,-351.57615499817507,5503.488164885081,0.0,0.0,0.0,0.0,0.0,0.0,-13.0,21.58968647933379,0.0,21.33952847692753,0.0,-13.0,21.7,20.61,22.07,21.32,21.88,-13.71,-13.0,1226.21,-1683.82,-1330.22,0.0,80.0,0.0,181.0,0.0,0.0,0.0,0.0,0.0,0.0,0.0,0.0,0.0,0.0,0.0,0.0,0.0,0.0
77.0,956.0,8848.813335358162,0.0,-0.0,0.0,-7848.569268681372,0.0,14406.894557744135,0.0,14406.894557744137,0.0,0.0,0.8656147364188053,0.5927700016467897,0.5397959183673436,0.0,0.0,0.0,"[0.8364416791878995, 0.4667172067489638, 1.0637640458542634, 0.33153228456093586, 1.0081272195849067, 0.5290496445106747, 0.8868488480046786, 0.5663170515347993, 1.695081340463176]",22.84,0.0,0.0,0.0,126.97720473164811,26.773158744370967,-2524.142509174071,-2434.8114818765557,3112.277188024771,0.0,0.0,0.0,0.0,0.0,0.0,-13.4,21.95429782141773,0.0,21.405822879012177,0.0,-13.4,22.84,20.64,22.17,22.34,22.68,-14.12,-13.4,28.88,-1758.27,-1389.03,0.0,80.0,0.0,51.0,0.0,0.0,0.0,0.0,0.0,0.0,0.0,0.0,0.0,0.0,0.0,0.0,0.0,0.0
78.0,836.0,38106.76507203298,0.0,-0.0,0.0,0.0,0.0,33372.20812200552,0.0,0.0,0.0,0.0,0.8656147364188053,0.5927700016467897,0.5397959183673436,148320.92498669124,37080.23124667281,185401.15623336405,"[0.8364416791878995, 0.4667172067489638, 1.0637640458542634, 0.33153228456093586, 1.0081272195849067, 0.5290496445106747, 0.8868488480046786, 0.5663170515347993, 1.695081340463176]",22.21,0.0,0.0,0.0,58.64351399986235,1.3528153067073456,-2508.3208740965606,-1126.1344592681767,5270.0405703313245,0.0,0.0,0.0,0.0,0.0,0.0,-13.8,21.81111677419339,0.0,21.43752265600729,0.0,-13.8,22.21,20.65,22.22,21.86,22.34,-14.52,-13.8,3035.1,-1747.25,-1380.33,0.0,0.0,0.0,43.0,0.0,0.0,0.0,0.0,0.0,0.0,0.0,0.0,0.0,0.0,0.0,0.0,0.0,0.0
79.0,1286.0,0.0,0.0,-0.0,0.0,1286.0,0.0,8740.970707397251,0.0,8740.97070739725,0.0,0.0,0.817013073531428,0.5597353428886747,0.5397959183673436,0.0,0.0,0.0,"[0.8364416791878995, 0.4667172067489638, 1.0637640458542634, 0.33153228456093586, 1.0081272195849067, 0.5290496445106747, 0.8868488480046786, 0.5663170515347993, 1.695081340463176]",22.84,0.0,0.0,0.0,95.46618558117126,2.2022574760352143,-2572.9028088763644,-2215.256208767585,168.06942259918281,0.0,0.0,0.0,0.0,0.0,0.0,-14.1,22.035864277792218,0.0,21.50237249355437,0.0,-14.1,22.84,20.68,22.32,22.35,22.75,-14.83,-14.1,1119.76,-1792.24,-1415.87,0.0,0.0,0.0,70.0,0.0,0.0,0.0,0.0,0.0,0.0,0.0,0.0,0.0,0.0,0.0,0.0,0.0,0.0
80.0,7057.0,0.0,0.0,-0.0,0.0,7057.0,0.0,14883.788344966348,0.0,14883.788344966348,0.0,0.0,0.5503086139698257,0.5034851979719462,0.5397959183673436,0.0,0.0,0.0,"[0.8364416791878995, 0.46671720674896733, 1.063764045854267, 0.33153228456093586, 1.0081272195849067, 0.5290496445106747, 0.886848848004675, 0.5663170515347993, 1.695081340463176]",21.16,0.0,0.0,2.1426244408966504,72.28154051145825,1.6674235175695173,-2463.339574660432,965.3678009393749,1421.9814541452422,0.0,0.0,0.0,0.0,0.0,0.0,-14.2,21.5386783584519,0.0,21.448389214040613,0.0,-14.2,21.16,20.64,22.26,21.13,21.81,-14.93,-14.2,1570.12,-1715.92,-1355.57,3.41,0.0,0.0,53.0,0.0,0.0,0.0,0.0,0.0,0.0,0.0,0.0,0.0,0.0,0.0,0.0,0.0,0.0
81.0,1707.0,0.0,0.0,-0.0,12.433445652915026,1694.566554347085,0.0,14820.183749029682,0.0,14820.183749029684,0.0,0.0,0.4862660382197469,0.44747543323638433,0.5397959183673436,0.0,0.0,0.0,"[0.8364416791878995, 0.46671720674896733, 1.063764045854267, 0.33153228456093586, 1.0081272195849067, 0.5290496445106747, 0.886848848004675, 0.5663170515347993, 1.695081340463176]",21.16,0.0,0.0,30.972388861495396,72.28154051145825,1.6674235175695173,-2303.1271613528993,819.1238829966799,5247.538135142047,0.0,0.0,0.0,0.0,0.0,0.0,-11.9,21.483404855797914,0.0,21.37719328503443,0.0,-11.9,21.16,20.59,22.17,21.21,21.84,-12.57,-11.9,646.88,-1604.32,-1267.41,49.22,0.0,0.0,53.0,0.0,0.0,0.0,0.0,0.0,0.0,0.0,0.0,0.0,0.0,0.0,0.0,0.0,0.0
82.0,2244.0,39126.07454074755,0.0,-0.0,40.50044833345477,-5790.4192041819315,0.0,27842.872870975792,0.0,0.0,0.0,0.0,0.6964368093344985,0.44747543323638433,0.5397959183673436,123746.10164878133,30936.525412195333,154682.62706097667,"[0.8364416791878995, 0.46671720674896733, 1.063764045854267, 0.33153228456093586, 1.0081272195849067, 0.5290496445106747, 0.886848848004675, 0.5663170515347993, 1.695081340463176]",22.59,0.0,0.0,52.9695241371168,58.64351399986235,1.3528153067073456,-2270.4683580498386,-1905.5834171525632,4715.344549550294,0.0,0.0,0.0,0.0,0.0,0.0,-10.0,21.906474405474814,0.0,21.417486577334408,0.0,-10.0,22.59,20.61,22.23,22.21,22.62,-10.66,-10.0,203.12,-1581.57,-1249.44,84.18,0.0,0.0,43.0,0.0,0.0,0.0,0.0,0.0,0.0,0.0,0.0,0.0,0.0,0.0,0.0,0.0,0.0
83.0,7400.0,0.0,0.0,-0.0,65.88202500917168,7334.117974990828,0.0,16156.094656096198,0.0,16156.0946560962,0.0,0.0,0.41925925925925933,0.3864168744453934,0.5397959183673436,0.0,0.0,0.0,"[0.8364416791878995, 0.46671720674896733, 1.063764045854267, 0.33153228456093586, 1.0081272195849067, 0.5290496445106747, 0.886848848004675, 0.5663170515347993, 1.695081340463176]",22.84,0.0,0.0,76.92327353347778,159.56491018567195,3.680916067087431,-2182.820411258023,-2217.6557604937443,0.0,0.0,0.0,0.0,0.0,0.0,0.0,-8.5,22.03214585857068,0.0,21.492164498742717,0.0,-8.5,22.84,20.66,22.33,22.3,22.73,-9.17,-8.5,1426.86,-1520.51,-1201.2,122.25,0.0,0.0,117.0,0.0,0.0,0.0,0.0,0.0,0.0,0.0,0.0,0.0,0.0,0.0,0.0,0.0,0.0
84.0,6627.0,0.0,0.0,-7843.341962555078,14470.341962555078,0.0,0.0,9313.044473461698,0.0,9313.044473461698,0.0,0.0,0.41925925925925933,0.35122018331364097,0.5693592842262051,0.0,0.0,0.0,"[0.8364416791878995, 0.46671720674896733, 1.063764045854267, 0.33153228456093586, 1.0081272195849067, 0.5290496445106747, 0.886848848004675, 0.5663170515347993, 1.695081340463176]",21.3,0.0,0.0,1982.2470890928128,43.64168483710685,1.0067462747589542,-2006.0123273379475,725.4808892530583,3360.4341066187,0.0,0.0,0.0,0.0,0.0,0.0,-7.5,21.580615466153557,0.0,21.452717597437168,0.0,-7.5,21.3,20.63,22.27,21.19,21.87,-6.85,-7.5,0.0,-1397.35,-1103.91,3150.34,0.0,0.0,32.0,0.0,0.0,0.0,0.0,0.0,0.0,0.0,0.0,0.0,0.0,0.0,0.0,0.0,0.0
85.0,6233.0,17002.310791176802,0.0,-0.0,12372.549014060305,-16000.0,0.0,6351.1634261531,0.0,0.0,0.0,0.0,1.0,0.35122018331364097,0.5569966468635678,28227.393005124904,7056.848251281226,35284.24125640613,"[0.8364416791878995, 0.46671720674896733, 1.063764045854267, 0.33153228456093586, 1.0081272195849067, 0.5290496445106747, 0.886848848004675, 0.5663170515347993, 1.695081340463176]",22.84,0.0,0.0,1766.1697302047182,79.10055376725617,1.824727623000603,-2092.2655689537655,-2078.594757980588,0.0,0.0,0.0,0.0,0.0,0.0,0.0,-7.2,22.082332517198356,0.0,21.55724652786068,0.0,-7.2,22.84,20.71,22.41,22.69,23.1,-6.67,-7.2,0.0,-1457.43,-1151.37,2806.94,0.0,0.0,58.0,0.0,0.0,0.0,0.0,0.0,0.0,0.0,0.0,0.0,0.0,0.0,0.0,0.0,0.0
86.0,3456.0,0.0,0.0,-0.0,6174.338594559131,0.0,0.0,4248.140578747152,0.0,1801.6358436439357,0.0,0.0,1.0,0.34441127989850895,0.5569966468635678,10873.354378236523,2718.338594559131,13591.692972795654,"[0.8364416791878995, 0.46671720674896733, 1.063764045854267, 0.33153228456093586, 1.0081272195849067, 0.5290496445106747, 0.886848848004675, 0.5663170515347993, 1.695081340463176]",21.99,0.0,0.0,1480.795414111781,76.372948464937,1.761805980828168,-2068.408629205651,-318.80379504588785,0.0,0.0,0.0,0.0,0.0,0.0,0.0,-7.7,21.890700223810732,0.0,21.60635857584284,0.0,-7.7,21.99,20.75,22.47,21.98,22.58,-7.36,-7.7,0.0,-1440.82,-1138.24,2353.4,0.0,0.0,56.0,0.0,0.0,0.0,0.0,0.0,0.0,0.0,0.0,0.0,0.0,0.0,0.0,0.0,0.0
87.0,5204.0,0.0,0.0,-0.0,1.4857567056773169,5202.514243294323,0.0,15634.815187450266,0.0,15634.815187450267,0.0,0.0,0.8033819258014239,0.28532278712658804,0.5487548886218095,0.0,0.0,0.0,"[0.8364416791878995, 0.46671720674896733, 1.063764045854267, 0.33153228456093586, 1.0081272195849067, 0.5290496445106747, 0.886848848004675, 0.5663170515347993, 1.695081340463176]",21.7,0.0,0.0,14.551162938169863,91.3747776276925,2.1078750127765598,-2166.4805411102748,258.7984158763319,344.15085785094476,0.0,0.0,0.0,0.0,0.0,0.0,-9.4,21.813471788326055,0.0,21.61120454926556,0.0,-9.4,21.7,20.76,22.47,21.79,22.43,-10.06,-9.4,0.0,-1509.13,-1192.21,23.13,0.0,0.0,67.0,0.0,0.0,0.0,0.0,0.0,0.0,0.0,0.0,0.0,0.0,0.0,0.0,0.0,0.0
88.0,2868.0,12170.961830942564,9242.107021787851,-0.0,0.0,0.0,0.0,15549.006464126693,0.0,0.0,0.0,15549.006464126693,0.8033819258014239,0.28532278712658804,0.5487548886218095,0.0,0.0,0.0,"[0.8364416791878995, 0.46671720674896733, 1.063764045854267, 0.33153228456093586, 1.0081272195849067, 0.5290496445106747, 0.886848848004675, 0.5663170515347993, 1.695081340463176]",21.16,0.0,0.0,0.0,170.3317732211424,43.006942424859126,-2115.051719644056,1150.904458123752,2783.861765252042,0.0,0.0,0.0,0.0,0.0,0.0,-9.2,21.604781170849254,0.0,21.534920995637407,0.0,-9.2,21.16,20.71,22.36,21.19,21.9,-9.87,-9.2,0.0,-1473.31,-1163.91,0.0,116.0,8.0,63.0,0.0,0.0,0.0,0.0,0.0,0.0,0.0,0.0,0.0,0.0,0.0,0.0,0.0,0.0
89.0,7064.0,10784.488837498106,3666.5663933106152,-0.0,0.0,0.0,0.0,6238.57426922551,0.0,0.0,0.0,6238.574269225511,0.8033819258014239,0.28532278712658804,0.5393357363455145,0.0,0.0,0.0,"[0.8364416791878995, 0.46671720674896733, 1.063764045854267, 0.33153228456093586, 1.0081272195849067, 0.5290496445106747, 0.886848848004675, 0.5663170515347993, 1.695081340463176]",21.91,0.0,0.0,0.0,419.7641002095409,89.09704531616757,-2153.39876762485,-376.0448175120791,0.0,0.0,0.0,0.0,0.0,0.0,0.0,-9.0,21.790738127523916,0.0,21.51267154695438,0.0,-9.0,21.91,20.7,22.32,21.74,22.29,-9.63,-9.0,0.0,-1500.02,-1185.01,0.0,155.0,59.0,220.0,0.0,0.0,0.0,0.0,0.0,0.0,0.0,0.0,0.0,0.0,0.0,0.0,0.0,0.0
90.0,6334.0,2464.8803127068613,0.0,-0.0,0.0,3881.444088856673,0.0,6029.811181806246,0.0,6029.811181806246,0.0,0.0,0.6566909171522677,0.2625343850789454,0.5393357363455145,0.0,0.0,0.0,"[0.8364416791878995, 0.46671720674896733, 1.063764045854267, 0.33153228456093586, 1.0081272195849067, 0.5290496445106747, 0.886848848004675, 0.5663170515347993, 1.695081340463176]",21.16,0.0,0.0,0.0,617.300147366972,96.2701125238251,-2087.188691242746,958.3584587623911,4946.977038049189,0.0,0.0,0.0,0.0,0.0,0.0,-8.8,21.533332073187623,0.0,21.447134384743727,0.0,-8.8,21.16,20.66,22.23,21.14,21.81,-9.42,-8.8,149.07,-1453.9,-1148.58,0.0,143.0,70.0,370.0,0.0,0.0,0.0,0.0,0.0,0.0,0.0,0.0,0.0,0.0,0.0,0.0,0.0,0.0
91.0,8514.0,22962.588943149487,14333.77599843374,-0.0,0.0,0.0,0.0,24798.518942416937,0.0,0.0,0.0,24798.518942416937,0.6566909171522677,0.2625343850789454,0.5210861288101927,0.0,0.0,0.0,"[0.8364416791878995, 0.46671720674896733, 1.063764045854267, 0.33153228456093586, 1.0081272195849067, 0.5290496445106747, 0.886848848004675, 0.5663170515347993, 1.695081340463176]",22.84,0.0,0.0,0.0,766.8159853862049,111.27692418195079,-2196.751925458678,-2230.003194402542,2642.0501618500457,0.0,0.0,0.0,0.0,0.0,0.0,-8.7,22.02764290470769,0.0,21.495765017644324,0.0,-8.7,22.84,20.69,22.3,22.35,22.74,-9.3,-8.7,100.79,-1530.22,-1208.87,0.0,144.0,90.0,477.0,0.0,0.0,0.0,0.0,0.0,0.0,0.0,0.0,0.0,0.0,0.0,0.0,0.0,0.0
92.0,5272.0,6992.981092687305,1686.0161872238689,-0.0,0.0,0.0,0.0,2949.0824192579753,0.0,0.0,0.0,2949.0824192579753,0.6566909171522677,0.25138894887615637,0.45044248673797915,0.0,0.0,0.0,"[0.4972077302678173, 0.4667172067489709, 1.063764045854267, 0.33153228456093586, 1.0081272195849067, 0.5290496445106747, 0.8682459166478367, 0.5663170515347993, 1.695081340463176]",22.5,0.0,0.0,0.0,886.9741768620551,96.36449498708375,-2159.190198374401,-1475.0052327855044,0.0,0.0,0.0,0.0,0.0,0.0,0.0,-8.5,21.967399324355878,0.0,21.536445539515828,0.0,-8.5,22.5,20.72,22.35,22.01,22.5,-9.08,-8.5,0.0,-1504.05,-1188.2,0.0,130.0,66.0,575.0,0.0,0.0,0.0,0.0,0.0,0.0,0.0,0.0,0.0,0.0,0.0,0.0,0.0,0.0
93.0,4605.0,44757.31929868674,39928.53270219331,-0.0,0.0,0.0,0.0,27787.20141540498,0.0,-42814.79046775297,0.0,70601.99188315796,0.6566909171522677,0.40679078094429677,0.4451442135825631,0.0,0.0,0.0,"[0.4972077302678173, 0.4667172067489709, 1.063764045854267, 0.33153228456093586, 1.0081272195849067, 0.5290496445106747, 0.8682459166478367, 0.5663170515347993, 1.695081340463176]",21.51,0.0,0.0,0.0,663.597658419495,104.29262190081052,-2076.72294604647,373.1193847934951,917.1167276604853,0.0,0.0,0.0,0.0,0.0,0.0,-8.3,21.666511104838737,0.0,21.496248819376216,0.0,-8.3,21.51,20.7,22.29,21.32,21.96,-8.87,-8.3,279.12,-1446.61,-1142.82,0.0,155.0,76.0,397.0,0.0,0.0,0.0,0.0,0.0,0.0,0.0,0.0,0.0,0.0,0.0,0.0,0.0,0.0
94.0,4561.0,0.0,10791.041667849002,-0.0,0.0,15352.041667849004,0.0,19286.56589107913,0.0,0.0,0.0,19286.56589107913,0.0764928193499622,0.40679078094429677,0.4451442135825631,0.0,0.0,0.0,"[0.4972077302678173, 0.4667172067489709, 1.063764045854267, 0.33153228456093586, 1.0081272195849067, 0.5290496445106747, 0.8682459166478367, 0.5663170515347993, 1.695081340463176]",21.5,0.0,0.0,0.0,505.3965508849826,65.40704703824588,-2062.0586044240754,290.8510341823655,1206.5784784234163,0.0,0.0,0.0,0.0,0.0,0.0,-8.1,21.625447563146157,0.0,21.44932851318687,0.0,-8.1,21.5,20.67,22.23,21.38,21.98,-8.65,-8.1,1231.71,-1436.39,-1134.75,0.0,84.0,51.0,321.0,0.0,0.0,0.0,0.0,0.0,0.0,0.0,0.0,0.0,0.0,0.0,0.0,0.0,0.0
95.0,2024.0,0.0,0.0,-0.0,0.0,2024.0,0.0,16751.476424002132,0.0,16751.476424002132,0.0,0.0,0.0,0.3434821020931927,0.4451442135825631,0.0,0.0,0.0,"[0.4972077302678173, 0.4667172067489709, 1.063764045854267, 0.33153228456093586, 1.0081272195849067, 0.5290496445106747, 0.8682459166478367, 0.5663170515347993, 1.695081340463176]",21.5,0.0,0.0,0.0,224.81210018062285,61.28567947595141,-2048.12709022342,200.46840558402047,4255.741941389553,0.0,0.0,0.0,0.0,0.0,0.0,-7.9,21.591908379167645,0.0,21.407931055417308,0.0,-7.9,21.5,20.65,22.17,21.38,21.96,-8.44,-7.9,587.28,-1426.69,-1127.08,0.0,141.0,25.0,88.0,0.0,0.0,0.0,0.0,0.0,0.0,0.0,0.0,0.0,0.0,0.0,0.0,0.0,0.0
96.0,823.0,18018.236614984988,0.0,-0.0,0.0,0.0,0.0,15394.630888719053,0.0,0.0,0.0,0.0,0.0,0.3434821020931927,0.43101548516812044,68420.58172764025,17105.145431910063,85525.72715955031,"[0.4972077302678173, 0.4667172067489709, 1.063764045854267, 0.33153228456093586, 1.0081272195849067, 0.5290496445106747, 0.8682459166478367, 0.5663170515347993, 1.695081340463176]",22.5,0.0,0.0,0.0,136.45204420286206,32.05857668685549,-2075.601113170471,-1675.2996425931326,897.0209116529754,0.0,0.0,0.0,0.0,0.0,0.0,-7.3,21.892696739421964,0.0,21.44560981109366,0.0,-7.3,22.5,20.67,22.22,22.11,22.52,-7.85,-7.3,1808.61,-1445.83,-1142.2,0.0,80.0,9.0,57.0,0.0,0.0,0.0,0.0,0.0,0.0,0.0,0.0,0.0,0.0,0.0,0.0,0.0,0.0
97.0,788.0,791.9597989949749,0.0,-0.0,0.0,0.0,0.0,17141.71068606805,0.0,17141.710686068047,0.0,0.0,0.0,0.27869861499542986,0.43101548516812044,0.0,0.0,0.0,"[0.4972077302678173, 0.4667172067489709, 1.063764045854267, 0.33153228456093586, 1.0081272195849067, 0.5290496445106747, 0.8682459166478367, 0.5663170515347993, 1.695081340463176]",21.5,0.0,0.0,0.0,114.70298087121182,26.490011354595016,-1957.5722479191627,231.18124482598628,4276.094293184604,0.0,0.0,0.0,0.0,0.0,0.0,-6.6,21.6026235933456,0.0,21.422300844635117,0.0,-6.6,21.5,20.66,22.18,21.35,21.94,-7.15,-6.6,706.7,-1363.61,-1077.25,0.0,80.0,0.0,42.0,0.0,0.0,0.0,0.0,0.0,0.0,0.0,0.0,0.0,0.0,0.0,0.0,0.0,0.0
98.0,829.0,6615.036900364353,0.0,-0.0,0.0,0.0,0.0,5177.665544276275,0.0,0.0,0.0,0.0,0.0,0.27869861499542986,0.43101548516812044,23011.846863450122,5752.961715862531,28764.808579312652,"[0.4972077302678173, 0.4667172067489709, 1.063764045854267, 0.33153228456093586, 1.0081272195849067, 0.5290496445106747, 0.8682459166478367, 0.5663170515347993, 1.695081340463176]",22.5,0.0,0.0,0.0,120.15819147585016,26.615854638939883,-1978.0805137658854,-1646.0760936717227,791.4995384116048,0.0,0.0,0.0,0.0,0.0,0.0,-5.9,21.90279618230983,0.0,21.459891035179538,0.0,-5.9,22.5,20.69,22.23,22.11,22.53,-6.43,-5.9,2229.89,-1377.89,-1088.54,0.0,80.0,0.0,46.0,0.0,0.0,0.0,0.0,0.0,0.0,0.0,0.0,0.0,0.0,0.0,0.0,0.0,0.0
99.0,2423.0,25476.72313199958,6926.339516339584,-0.0,0.0,-16000.0,0.0,14096.08180986768,0.0,0.0,0.0,14096.08180986768,0.5807407407407407,0.27869861499542986,0.43101548516812044,0.0,0.0,0.0,"[0.4972077302678173, 0.4667172067489709, 1.063764045854267, 0.33153228456093586, 1.0081272195849067, 0.5290496445106747, 0.8682459166478367, 0.5663170515347993, 1.695081340463176]",21.5,0.0,0.0,0.0,219.71578501050016,28.91249457823375,-1880.9489198155597,257.8950041318615,4065.550603823486,0.0,0.0,0.0,0.0,0.0,0.0,-5.5,21.611944252546895,0.0,21.43631868599435,0.0,-5.5,21.5,20.68,22.19,21.34,21.94,-6.02,-5.5,1851.29,-1310.23,-1035.09,0.0,80.0,0.0,119.0,0.0,0.0,0.0,0.0,0.0,0.0,0.0,0.0,0.0,0.0,0.0,0.0,0.0,0.0
100.0,788.0,791.9597989949749,0.0,-0.0,0.0,0.0,0.0,31900.695893011107,0.0,31900.69589301111,0.0,0.0,0.5807407407407407,0.1581366501692352,0.43101548516812044,0.0,0.0,0.0,"[0.4972077302678173, 0.4667172067489709, 1.063764045854267, 0.33153228456093586, 1.0081272195849067, 0.5290496445106747, 0.8682459166478367, 0.5663170515347993, 1.695081340463176]",22.5,0.0,0.0,0.0,119.36862151991565,28.84957293606132,-1915.3886998629378,-1624.3448003484152,705.843148613016,0.0,0.0,0.0,0.0,0.0,0.0,-5.0,21.910375577383824,0.0,21.47222745619493,0.0,-5.0,22.5,20.71,22.24,22.1,22.52,-5.51,-5.0,861.81,-1334.22,-1054.04,0.0,80.0,4.0,45.0,0.0,0.0,0.0,0.0,0.0,0.0,0.0,0.0,0.0,0.0,0.0,0.0,0.0,0.0
101.0,2116.0,9582.615183848686,7418.702107929443,-0.0,0.0,0.0,0.0,15734.632286288968,0.0,0.0,0.0,15734.632286288968,0.5807407407407407,0.1581366501692352,0.4310154851681194,0.0,0.0,0.0,"[0.4972077302678173, 0.4667172067489709, 1.063764045854267, 0.33153228456093586, 1.0081272195849067, 0.5290496445106747, 0.8682459166478367, 0.5663170515347993, 1.695081340463176]",21.5,0.0,0.0,0.0,119.72751695443132,35.61364946959805,-1818.2571059126124,278.51786480301695,4076.155639720658,0.0,0.0,0.0,0.0,0.0,0.0,-4.6,21.619075326062273,0.0,21.448433648183496,0.0,-4.6,21.5,20.7,22.2,21.34,21.93,-5.03,-4.6,1059.4,-1266.56,-1000.59,0.0,80.0,16.0,44.0,0.0,0.0,0.0,0.0,0.0,0.0,0.0,0.0,0.0,0.0,0.0,0.0,0.0,0.0
102.0,2985.0,0.0,0.0,-0.0,0.0,2985.0,0.0,27923.43711265971,0.0,27923.43711265971,0.0,0.0,0.4679289493575207,0.05260589766485231,0.4310154851681194,0.0,0.0,0.0,"[0.4972077302678173, 0.4667172067489709, 1.063764045854267, 0.33153228456093586, 1.0081272195849067, 0.5290496445106747, 0.8682459166478367, 0.5663170515347993, 1.695081340463176]",22.5,0.0,0.0,0.0,171.83913404610828,45.4923472906703,-1866.6284001606452,-1601.8330190958523,3255.4244717474,0.0,0.0,0.0,0.0,0.0,0.0,-4.3,21.91831790160305,0.0,21.485712415506107,0.0,-4.3,22.5,20.73,22.24,22.11,22.52,-4.74,-4.3,1771.28,-1300.26,-1027.2,0.0,111.0,15.0,66.0,0.0,0.0,0.0,0.0,0.0,0.0,0.0,0.0,0.0,0.0,0.0,0.0,0.0,0.0
103.0,6479.0,21244.321984767656,0.0,-0.0,0.0,-14659.100374843818,0.0,7524.685175052693,0.0,7524.685175052695,0.0,0.0,1.0,0.024167934040314535,0.4310154851681194,0.0,0.0,0.0,"[0.4972077302678173, 0.4667172067489709, 1.063764045854267, 0.33153228456093586, 1.0081272195849067, 0.5290496445106747, 0.8682459166478367, 0.5663170515347993, 1.695081340463176]",22.5,0.0,0.0,0.0,64.0987246045007,1.4786585910522116,-1845.7311288596625,-1503.906277377679,3255.7577045214384,0.0,0.0,0.0,0.0,0.0,0.0,-4.0,21.954385795899146,0.0,21.5327298393172,0.0,-4.0,22.5,20.77,22.3,22.06,22.5,-4.43,-4.0,708.96,-1285.7,-1015.7,0.0,0.0,0.0,47.0,0.0,0.0,0.0,0.0,0.0,0.0,0.0,0.0,0.0,0.0,0.0,0.0,0.0,0.0
104.0,2201.0,2212.0603015075376,0.0,-0.0,0.0,0.0,0.0,1814.4591989724643,0.0,1814.4591989724643,0.0,0.0,0.9168178382464097,0.010453200865919488,0.4310154851681194,0.0,0.0,0.0,"[0.4972077302678173, 0.4667172067489709, 0.9039111257568635, 0.23062662874677997, 0.9321808631870283, 0.5290496445106747, 0.7810520261123237, 0.5663170515347993, 0.9705538440907482]",22.49,0.0,0.0,0.7081498563315074,53.18830339522399,1.2269720223624754,-1824.10103013694,-1396.1742043335908,505.29539617828783,0.0,0.0,0.0,0.0,0.0,0.0,-3.7,21.98354928137052,0.0,21.575008198192663,0.0,-3.7,22.49,20.8,22.35,22.06,22.52,-4.11,-3.7,1037.94,-1270.64,-1003.8,1.13,0.0,0.0,39.0,0.0,0.0,0.0,0.0,0.0,0.0,0.0,0.0,0.0,0.0,0.0,0.0,0.0,0.0
105.0,2936.0,17771.901684084405,14758.075004718878,-0.0,11.03282905489477,0.0,0.0,18559.97650301789,0.0,-16117.673657307347,0.0,34677.65016032523,0.9168178382464097,0.06895438673318319,0.4310154851681194,0.0,0.0,0.0,"[0.4972077302678173, 0.4667172067489709, 0.9039111257568635, 0.23062662874677997, 0.9321808631870283, 0.5290496445106747, 0.7810520261123237, 0.5663170515347993, 0.9705538440907482]",21.5,0.0,0.0,20.02242716289276,72.28154051145825,1.6674235175695173,-1651.0789355047518,468.04736703040516,3777.0885779342675,0.0,0.0,0.0,0.0,0.0,0.0,-2.2,21.687953626050554,0.0,21.543076066799337,0.0,-2.2,21.5,20.79,22.29,21.37,21.98,-2.58,-2.2,1132.29,-1150.11,-908.59,31.82,0.0,0.0,53.0,0.0,0.0,0.0,0.0,0.0,0.0,0.0,0.0,0.0,0.0,0.0,0.0,0.0,0.0
106.0,7982.0,0.0,0.0,-0.0,37.33788356090562,7944.6621164390945,0.0,2735.2009404909204,0.0,2735.2009404909204,0.0,0.0,0.6165660575797773,0.058617270555968826,0.4310154851681186,0.0,0.0,0.0,"[0.4972077302678173, 0.4667172067489709, 0.9039111257568635, 0.23062662874677997, 0.9321808631870283, 0.5290496445106747, 0.7810520261123237, 0.5663170515347993, 0.9705538440907482]",22.5,0.0,0.0,25.595790723638007,80.46435641841576,1.856188444086823,-1650.6899300504922,-1428.000483108377,281.88308766382227,0.0,0.0,0.0,0.0,0.0,0.0,-1.2,21.981021303000173,0.0,21.573865105698,0.0,-1.2,22.5,20.82,22.32,22.13,22.55,-1.55,-1.2,2132.34,-1149.84,-908.37,40.68,0.0,0.0,59.0,0.0,0.0,0.0,0.0,0.0,0.0,0.0,0.0,0.0,0.0,0.0,0.0,0.0,0.0
107.0,8427.0,40000.62270181907,36948.01619872933,-0.0,416.0322221571689,5158.3643882621955,0.0,14919.704997464192,0.0,-80000.0,0.0,94919.70499746418,0.42161653421385914,0.34898764092633916,0.4310154851681186,0.0,0.0,0.0,"[0.4972077302678173, 0.4667172067489709, 0.9039111257568635, 0.23062662874677997, 0.9321808631870283, 0.5290496445106747, 0.7810520261123237, 0.5663170515347993, 0.9705538440907482]",21.5,0.0,0.0,47.97719224356009,60.007316651021945,1.384276127793561,-1490.8665221972187,460.63186719457593,919.7395183404458,0.0,0.0,0.0,0.0,0.0,0.0,0.1,21.684055720609088,0.0,21.544674182867062,0.0,0.1,21.5,20.82,22.27,21.36,21.96,-0.26,0.1,1775.7,-1038.51,-820.42,76.25,0.0,0.0,44.0,0.0,0.0,0.0,0.0,0.0,0.0,0.0,0.0,0.0,0.0,0.0,0.0,0.0,0.0
108.0,4278.0,0.0,0.0,-0.0,993.1964347406765,3284.8035652593235,0.0,14184.99687485959,0.0,14184.996874859587,0.0,0.0,0.29747429818742965,0.29537843127078517,0.4310154851681186,0.0,0.0,0.0,"[0.4972077302678173, 0.4667172067489709, 0.9039111257568635, 0.23062662874677997, 0.9321808631870283, 0.5290496445106747, 0.7810520261123237, 0.5663170515347993, 0.9705538440907482]",21.5,0.0,0.0,62.52890593542395,68.19013255797947,1.5730410543108668,-1414.243194093616,372.159176376341,3596.697735706379,0.0,0.0,0.0,0.0,0.0,0.0,1.2,21.6508127454953,0.0,21.50688156514861,0.0,1.2,21.5,20.81,22.2,21.42,21.97,0.77,1.2,1361.93,-985.14,-778.26,99.38,0.0,0.0,50.0,0.0,0.0,0.0,0.0,0.0,0.0,0.0,0.0,0.0,0.0,0.0,0.0,0.0,0.0
109.0,3642.0,0.0,0.0,-0.0,1036.0300699606153,2605.969930039385,0.0,4709.003030651416,0.0,4709.003030651416,0.0,0.0,0.19898715041572201,0.27758174559183046,0.4310154851681186,0.0,0.0,0.0,"[0.4972077302678173, 0.4667172067489709, 0.9039111257568635, 0.23062662874677997, 0.9321808631870283, 0.5290496445106747, 0.7810520261123237, 0.5663170515347993, 0.9705538440907482]",22.5,0.0,0.0,65.4992111156609,91.3747776276925,2.1078750127765598,-1427.7857028400115,-1509.0335140907853,2671.708600012694,0.0,0.0,0.0,0.0,0.0,0.0,2.0,21.949487873689115,0.0,21.545335134622498,0.0,2.0,22.5,20.85,22.24,22.12,22.5,1.57,2.0,505.81,-994.57,-785.71,104.1,0.0,0.0,67.0,0.0,0.0,0.0,0.0,0.0,0.0,0.0,0.0,0.0,0.0,0.0,0.0,0.0,0.0
110.0,1747.0,8804.467451339566,7284.427218758265,-0.0,270.98210467539667,0.0,0.0,20241.526049938213,0.0,0.0,0.0,20241.526049938213,0.19898715041572201,0.27758174559183046,0.4310154851681186,0.0,0.0,0.0,"[0.4972077302678173, 0.4667172067489709, 0.9039111257568635, 0.23062662874677997, 0.9321808631870283, 0.5290496445106747, 0.7810520261123237, 0.5663170515347993, 0.9705538440907482]",22.46,0.0,0.0,50.456490485064535,54.55210604638358,1.2584328434486907,-1404.1930331671367,-1341.504339735036,2742.8387766875985,0.0,0.0,0.0,0.0,0.0,0.0,2.3,21.97260512802599,0.0,21.591343158274277,0.0,2.3,22.46,20.89,22.29,22.04,22.46,1.84,2.3,1762.82,-978.14,-772.73,80.19,0.0,0.0,40.0,0.0,0.0,0.0,0.0,0.0,0.0,0.0,0.0,0.0,0.0,0.0,0.0,0.0,0.0
111.0,1426.0,24713.412186984337,0.0,-0.0,0.056873950587138455,-16000.0,0.0,13819.920079813313,35819.51,42475.52807981332,0.0,0.0,0.7797278911564627,0.11705442858573323,0.42983809113358173,28655.608000000004,7163.902000000001,35819.51,"[0.4972077302678173, 0.4667172067489709, 0.9039111257568635, 0.23062662874677997, 0.9321808631870283, 0.5290496445106747, 0.7810520261123237, 0.5663170515347993, 0.9705538440907482]",22.5,0.0,0.0,11.960161441850925,53.18830339522399,1.2269720223624754,-1448.682974140994,-1331.0832104397357,2713.193212541045,0.0,0.0,0.0,0.0,0.0,0.0,1.7,22.015483705089522,0.0,21.635861933635617,0.0,1.7,22.5,20.94,22.33,22.09,22.5,1.22,1.7,1632.6,-1009.13,-797.21,19.01,0.0,0.0,39.0,0.0,0.0,0.0,0.0,0.0,0.0,0.0,0.0,0.0,0.0,0.0,0.0,0.0,0.0
112.0,2021.0,37817.14964257959,35607.06389436669,-0.0,0.0,0.0,0.0,14190.413944003538,0.0,-80000.0,0.0,94190.41394400357,0.7797278911564627,0.40742479895610356,0.42395112096089727,0.0,0.0,0.0,"[0.4972077302678173, 0.4667172067489709, 0.9039111257568635, 0.23062662874677997, 0.9321808631870283, 0.5290496445106747, 0.7810520261123237, 0.5663170515347993, 0.9705538440907482]",22.5,0.0,0.0,0.0,53.18830339522399,1.2269720223624754,-1504.4090309436142,-1253.9935058600759,2704.1030890619427,0.0,0.0,0.0,0.0,0.0,0.0,0.9,22.04440757110024,0.0,21.67578235313734,0.0,0.9,22.5,20.98,22.37,22.1,22.52,0.41,0.9,504.54,-1047.94,-827.88,0.0,0.0,0.0,39.0,0.0,0.0,0.0,0.0,0.0,0.0,0.0,0.0,0.0,0.0,0.0,0.0,0.0,0.0
113.0,2796.0,6154.46123107243,3327.6889249170667,-0.0,0.0,0.0,0.0,8834.370406423139,0.0,0.0,0.0,8834.370406423139,0.7797278911564627,0.40742479895610356,0.4139432716673337,0.0,0.0,0.0,"[0.4972077302678173, 0.4667172067489709, 0.9039111257568635, 0.23062662874677997, 0.9321808631870283, 0.5290496445106747, 0.7810520261123237, 0.5663170515347993, 0.9705538440907482]",22.5,0.0,0.0,0.0,95.46618558117126,2.2022574760352143,-1497.4432738432865,-1183.8012423311234,0.0,0.0,0.0,0.0,0.0,0.0,0.0,1.0,22.070328467117086,0.0,21.71149927414674,0.0,1.0,22.5,21.01,22.41,22.11,22.54,0.49,1.0,3.85,-1043.09,-824.04,0.0,0.0,0.0,70.0,0.0,0.0,0.0,0.0,0.0,0.0,0.0,0.0,0.0,0.0,0.0,0.0,0.0,0.0
114.0,4790.0,0.0,0.0,-0.0,0.0,4790.0,0.0,7599.859908445775,0.0,7599.859908445774,0.0,0.0,0.5986999244142102,0.378702728251471,0.4139432716673337,0.0,0.0,0.0,"[0.4972077302678173, 0.4667172067489709, 0.9039111257568635, 0.23062662874677997, 0.9321808631870283, 0.5290496445106747, 0.7810520261123237, 0.5663170515347993, 0.9705538440907482]",21.54,0.0,0.0,0.0,65.46252725566029,1.5101194121384316,-1423.904349565838,611.5373073356832,640.9253291524795,0.0,0.0,0.0,0.0,0.0,0.0,1.1,21.778163445626316,0.0,21.675077114496165,0.0,1.1,21.54,21.0,22.35,21.44,22.0,0.59,1.1,0.0,-991.87,-783.57,0.0,0.0,0.0,48.0,0.0,0.0,0.0,0.0,0.0,0.0,0.0,0.0,0.0,0.0,0.0,0.0,0.0,0.0
115.0,4748.0,0.0,0.0,-0.0,0.0,4748.0,0.0,6410.010473620281,0.0,6410.01047362028,0.0,0.0,0.41925925925925933,0.3544774430148108,0.4139432716673337,0.0,0.0,0.0,"[0.4972077302678173, 0.4667172067489709, 0.9039111257568635, 0.23062662874677997, 0.9321808631870283, 0.5290496445106747, 0.7810520261123237, 0.5663170515347993, 0.9705538440907482]",21.5,0.0,0.0,0.0,281.37402066029426,49.70809731622343,-1407.2774369932886,578.1744382859983,502.71338657290204,0.0,0.0,0.0,0.0,0.0,0.0,1.3,21.727012771911912,0.0,21.627354761869732,0.0,1.3,21.5,20.98,22.27,21.46,21.99,0.78,1.3,0.0,-980.28,-774.42,0.0,145.0,0.0,130.0,0.0,0.0,0.0,0.0,0.0,0.0,0.0,0.0,0.0,0.0,0.0,0.0,0.0,0.0
116.0,4679.0,0.0,0.0,-0.0,0.0,4679.0,0.0,5206.377662843581,0.0,5206.377662843581,0.0,0.0,0.8231670445956161,0.31512462621327203,0.4021693313219643,0.0,0.0,0.0,"[0.4972077302678173, 0.35830786106179957, 0.693346267460484, 0.23062662874677997, 0.5308116877897682, 0.16469724178424272, 0.7810520261123237, 0.4105161506380597, 0.6623158328378835]",21.5,0.0,0.0,0.0,586.0044654772047,45.17773907980812,-1400.3116798929611,476.2393636351816,1454.973831323936,0.0,0.0,0.0,0.0,0.0,0.0,1.4,21.689249579323267,0.0,21.582743975571958,0.0,1.4,21.5,20.97,22.2,21.45,21.94,0.89,1.4,0.0,-975.43,-770.59,0.0,93.0,7.0,380.0,0.0,0.0,0.0,0.0,0.0,0.0,0.0,0.0,0.0,0.0,0.0,0.0,0.0,0.0
117.0,4602.0,27281.203327700023,0.0,-0.0,0.0,-4871.928363182006,0.0,15903.782053091558,0.0,0.0,0.0,0.0,1.0,0.31512462621327203,0.39628236114927984,70683.47579151807,17670.868947879517,88354.34473939758,"[0.4972077302678173, 0.35830786106179957, 0.693346267460484, 0.23062662874677997, 0.5308116877897682, 0.16469724178424272, 0.7810520261123237, 0.4105161506380597, 0.6623158328378835]",21.93,0.0,0.0,0.0,596.3406539912562,68.3329033992641,-1416.212253487429,-399.8294785399146,0.0,0.0,0.0,0.0,0.0,0.0,0.0,1.6,21.793584960376634,0.0,21.569451228986708,0.0,1.6,21.93,20.96,22.17,21.71,22.13,1.09,1.6,0.0,-986.51,-779.34,0.0,100.0,44.0,380.0,0.0,0.0,0.0,0.0,0.0,0.0,0.0,0.0,0.0,0.0,0.0,0.0,0.0,0.0
118.0,2998.0,28522.01078392292,25381.400730003304,-0.0,0.0,0.0,0.0,19449.410121856687,0.0,-49627.07995924551,0.0,69076.4900811022,1.0,0.4952525460653483,0.3409448415260459,0.0,0.0,0.0,"[0.4972077302678173, 0.35830786106179957, 0.693346267460484, 0.23062662874677997, 0.5308116877897682, 0.16469724178424272, 0.7810520261123237, 0.4105161506380597, 0.6623158328378835]",21.5,0.0,0.0,0.0,347.41078061117963,61.66320932898602,-1379.4144085919788,361.03662629011694,3303.520468053286,0.0,0.0,0.0,0.0,0.0,0.0,1.7,21.64649867070099,0.0,21.53332320680721,0.0,1.7,21.5,20.95,22.12,21.38,21.86,1.17,1.7,0.0,-960.87,-759.09,0.0,146.0,18.0,176.0,0.0,0.0,0.0,0.0,0.0,0.0,0.0,0.0,0.0,0.0,0.0,0.0,0.0,0.0
119.0,1800.0,0.0,5729.331136007607,-0.0,0.0,7529.331136007607,0.0,15701.841164690346,0.0,0.0,0.0,15701.841164690344,0.7154447794403777,0.4952525460653483,0.3409448415260459,0.0,0.0,0.0,"[0.4972077302678173, 0.35830786106179957, 0.693346267460484, 0.23062662874677997, 0.5308116877897682, 0.16469724178424272, 0.7810520261123237, 0.4105161506380597, 0.6623158328378835]",22.5,0.0,0.0,0.0,178.94526364951875,52.44518875072433,-1434.751459940339,-1521.1268325374945,2729.4387307350817,0.0,0.0,0.0,0.0,0.0,0.0,1.9,21.94511345019772,0.0,21.569586674962398,0.0,1.9,22.5,20.98,22.16,22.14,22.44,1.37,1.9,0.0,-999.42,-789.54,0.0,130.0,17.0,61.0,0.0,0.0,0.0,0.0,0.0,0.0,0.0,0.0,0.0,0.0,0.0,0.0,0.0,0.0
120.0,1741.0,0.0,0.0,-0.0,0.0,1741.0,0.0,6955.3122501736,0.0,6955.312250173601,0.0,0.0,0.6496473493572332,0.46896640755373226,0.3409448415260459,0.0,0.0,0.0,"[0.4972077302678173, 0.35830786106179957, 0.693346267460484, 0.23062662874677997, 0.5308116877897682, 0.16469724178424272, 0.7810520261123237, 0.4105161506380597, 0.6623158328378835]",22.5,0.0,0.0,0.0,223.80719296397893,29.006877041492405,-1462.6144883416491,-1420.7537063618677,2633.2924097527684,0.0,0.0,0.0,0.0,0.0,0.0,1.5,21.98245814432493,0.0,21.61792983537698,0.0,1.5,22.5,21.02,22.22,22.1,22.44,0.94,1.5,91.92,-1018.83,-804.88,0.0,80.0,0.0,122.0,0.0,0.0,0.0,0.0,0.0,0.0,0.0,0.0,0.0,0.0,0.0,0.0,0.0,0.0
121.0,2943.0,0.0,0.0,-0.0,0.0,2943.0,0.0,12362.629778152985,0.0,12362.629778152983,0.0,0.0,0.5384228595613149,0.42224445072019867,0.3409448415260459,0.0,0.0,0.0,"[0.4972077302678173, 0.35830786106179957, 0.693346267460484, 0.23062662874677997, 0.5308116877897682, 0.16469724178424272, 0.7810520261123237, 0.4105161506380597, 0.6623158328378835]",22.5,0.0,0.0,0.0,2189.046813284948,74.34192022673162,-1483.5117596426317,-1333.1270654419295,0.0,0.0,0.0,0.0,0.0,0.0,0.0,1.2,22.01502990681566,0.0,21.66026454826503,0.0,1.2,22.5,21.05,22.27,22.11,22.46,0.62,1.2,0.0,-1033.39,-816.38,0.0,80.0,0.0,1563.0,0.0,0.0,0.0,0.0,0.0,0.0,0.0,0.0,0.0,0.0,0.0,0.0,0.0,0.0
122.0,1699.0,47812.24992184301,3675.8813220012157,-42198.307350232586,0.0,0.0,0.0,9688.66725887061,0.0,0.0,0.0,9688.66725887061,0.5384228595613149,0.42224445072019867,0.4999999999999995,0.0,0.0,0.0,"[0.4972077302678173, 0.35830786106179957, 0.693346267460484, 0.23062662874677997, 0.5308116877897682, 0.16469724178424272, 0.7810520261123237, 0.4105161506380597, 0.6623158328378835]",22.29,0.0,0.0,0.0,508.84194705633314,35.58218864851183,-1496.9390535859457,-930.954826488846,1888.0427249107188,0.0,0.0,0.0,0.0,0.0,0.0,0.8,21.956650014552224,0.0,21.659452429508804,0.0,0.8,22.29,21.06,22.26,21.78,22.21,0.21,0.8,611.4,-1042.74,-823.76,0.0,80.0,0.0,331.0,0.0,0.0,0.0,0.0,0.0,0.0,0.0,0.0,0.0,0.0,0.0,0.0,0.0,0.0
123.0,1252.0,1258.2914572864322,0.0,-0.0,0.0,0.0,0.0,6031.890108030636,0.0,6031.890108030636,0.0,0.0,0.5384228595613149,0.39944819180851826,0.49999999999999956,0.0,0.0,0.0,"[0.4972077302678173, 0.35830786106179957, 0.693346267460484, 0.23062662874677997, 0.5308116877897682, 0.16469724178424272, 0.7810520261123237, 0.4105161506380597, 0.6623158328378835]",22.29,0.0,0.0,0.0,245.6280353825324,29.51025017887188,-1503.936089755032,-897.7579013880805,0.0,0.0,0.0,0.0,0.0,0.0,0.0,0.7,21.96943173953151,0.0,21.676579980577884,0.0,0.7,22.29,21.07,22.28,21.96,22.35,0.11,0.7,1510.06,-1047.61,-827.62,0.0,80.0,0.0,138.0,0.0,0.0,0.0,0.0,0.0,0.0,0.0,0.0,0.0,0.0,0.0,0.0,0.0,0.0
124.0,2754.0,0.0,0.0,-0.0,0.0,2754.0,0.0,9711.369839531384,0.0,9711.369839531382,0.0,0.0,0.4343412269082536,0.36274611380575417,0.49999999999999956,0.0,0.0,0.0,"[0.4972077302678173, 0.35830786106179957, 0.693346267460484, 0.23062662874677997, 0.5308116877897682, 0.16469724178424272, 0.7810520261123237, 0.4105161506380597, 0.6623158328378835]",21.5,0.0,0.0,0.0,252.44704863833036,29.667554284302966,-1463.0034937959085,567.9978052896747,3186.068845818017,0.0,0.0,0.0,0.0,0.0,0.0,0.5,21.72367349364718,0.0,21.638849806642412,0.0,0.5,21.5,21.05,22.23,21.43,21.92,-0.07,0.5,1715.43,-1019.1,-805.09,0.0,80.0,0.0,143.0,0.0,0.0,0.0,0.0,0.0,0.0,0.0,0.0,0.0,0.0,0.0,0.0,0.0,0.0
125.0,2752.0,0.0,0.0,-0.0,0.0,2752.0,0.0,9030.599268326647,0.0,9030.599268326647,0.0,0.0,0.3303351800450639,0.3286168648702793,0.49999999999999956,0.0,0.0,0.0,"[0.4972077302678173, 0.35830786106179957, 0.693346267460484, 0.23062662874677997, 0.5308116877897682, 0.16469724178424272, 0.7810520261123237, 0.4105161506380597, 0.6623158328378835]",22.45,0.0,0.0,0.0,279.7231016615221,30.296770706027317,-1543.1627371222746,-1254.8524446353379,0.0,0.0,0.0,0.0,0.0,0.0,0.0,0.3,22.000753786034977,0.0,21.662391411608645,0.0,0.3,22.45,21.07,22.25,22.15,22.47,-0.27,0.3,544.41,-1074.94,-849.2,0.0,80.0,0.0,163.0,0.0,0.0,0.0,0.0,0.0,0.0,0.0,0.0,0.0,0.0,0.0,0.0,0.0,0.0
126.0,4766.0,20870.35175879397,0.0,-0.0,0.0,-16000.0,0.0,15383.648392376957,0.0,15383.64839237696,0.0,0.0,0.9110759207858046,0.27047760412811395,0.49999999999999956,0.0,0.0,0.0,"[0.4972077302678173, 0.35830786106179957, 0.693346267460484, 0.23062662874677997, 0.5308116877897682, 0.16469724178424272, 0.7810520261123237, 0.4105161506380597, 0.6623158328378835]",21.53,0.0,0.0,0.0,260.98875997980355,46.68785849194655,-1485.9497035723064,486.76311294176827,616.3956192922195,0.0,0.0,0.0,0.0,0.0,0.0,0.2,21.72319814188674,0.0,21.62994008391555,0.0,0.2,21.53,21.05,22.21,21.44,21.92,-0.36,0.2,9.62,-1035.09,-817.72,0.0,127.0,5.0,124.0,0.0,0.0,0.0,0.0,0.0,0.0,0.0,0.0,0.0,0.0,0.0,0.0,0.0,0.0
127.0,1808.0,0.0,0.0,-0.0,0.0,1808.0,0.0,10509.879218136412,0.0,10509.879218136413,0.0,0.0,0.8427463667419648,0.23075772802026656,0.49999999999999956,0.0,0.0,0.0,"[0.4972077302678173, 0.35830786106179957, 0.693346267460484, 0.23062662874677997, 0.5308116877897682, 0.16469724178424272, 0.7810520261123237, 0.4105161506380597, 0.6623158328378835]",21.5,0.0,0.0,0.0,307.71694555374523,70.25201348552335,-1490.8665221972187,450.122323080924,669.4071170045328,0.0,0.0,0.0,0.0,0.0,0.0,0.1,21.68027441711973,0.0,21.586901626449816,0.0,0.1,21.5,21.03,22.15,21.47,21.92,-0.48,0.1,822.48,-1038.51,-820.42,0.0,142.0,37.0,147.0,0.0,0.0,0.0,0.0,0.0,0.0,0.0,0.0,0.0,0.0,0.0,0.0,0.0,0.0
128.0,1747.0,0.0,0.0,-0.0,0.0,1747.0,0.0,4178.267271251945,0.0,4178.267271251945,0.0,0.0,0.7106979918364471,0.1991759648210833,0.49999999999999956,0.0,0.0,0.0,"[0.4972077302678173, 0.35830786106179957, 0.693346267460484, 0.23062662874678352, 0.5308116877897682, 0.16469724178424272, 0.531240326233295, 0.4105161506380597, 0.6623158328378835]",21.5,0.0,0.0,1.421046593277419,722.8154051145825,64.49468322674558,-1483.9007650968913,364.99192266270177,336.22885312467497,0.0,0.0,0.0,0.0,0.0,0.0,0.2,21.648715545322382,0.0,21.547661470135004,0.0,0.2,21.5,21.0,22.09,21.47,21.9,-0.34,0.2,857.49,-1033.66,-816.59,2.26,83.0,41.0,482.0,0.0,0.0,0.0,0.0,0.0,0.0,0.0,0.0,0.0,0.0,0.0,0.0,0.0,0.0
129.0,7768.0,11338.72410606735,3577.7435541439354,-0.0,63.71306860692185,0.0,0.0,10112.156168699743,0.0,0.0,0.0,10112.156168699745,0.7106979918364471,0.1991759648210833,0.49999999999999956,0.0,0.0,0.0,"[0.4972077302678173, 0.35830786106179957, 0.693346267460484, 0.23062662874678352, 0.5308116877897682, 0.16469724178424272, 0.531240326233295, 0.4105161506380597, 0.6623158328378835]",21.5,0.0,0.0,44.608281965856186,1901.3562329771771,104.16677861646569,-1302.7910804883757,280.17335557444034,400.8720779861235,0.0,0.0,0.0,0.0,0.0,0.0,2.8,21.61605665661337,0.0,21.50681354722081,0.0,2.8,21.5,20.98,22.04,21.41,21.84,2.23,2.8,204.05,-907.5,-716.93,70.89,140.0,33.0,1317.0,0.0,0.0,0.0,0.0,0.0,0.0,0.0,0.0,0.0,0.0,0.0,0.0,0.0,0.0
130.0,5658.0,0.0,0.0,-0.0,163.67225525058439,5494.327744749416,0.0,7375.840882056005,0.0,7375.840882056005,0.0,0.0,0.5030514406365447,0.17130052686924654,0.49999999999999956,0.0,0.0,0.0,"[0.4972077302678173, 0.35830786106179957, 0.693346267460484, 0.23062662874678352, 0.5308116877897682, 0.16469724178424272, 0.531240326233295, 0.4105161506380597, 0.6623158328378835]",22.03,0.0,0.0,76.50692107222085,1070.010848465053,54.521602942414695,-1165.2273471178273,-775.7815391572061,0.0,0.0,0.0,0.0,0.0,0.0,0.0,5.3,21.749651714586435,0.0,21.495999633814094,0.0,5.3,22.03,20.97,22.02,21.66,22.02,4.68,5.3,0.0,-811.68,-641.22,121.59,85.0,8.0,739.0,0.0,0.0,0.0,0.0,0.0,0.0,0.0,0.0,0.0,0.0,0.0,0.0,0.0,0.0
131.0,5461.0,0.0,2109.95670241271,-0.0,1093.272202622769,6477.684499789941,0.0,6768.189063209398,0.0,0.0,0.0,6768.189063209398,0.25824099090903374,0.17130052686924654,0.49999999999999956,0.0,0.0,0.0,"[0.4972077302678173, 0.35830786106179957, 0.693346267460484, 0.23062662874678352, 0.5308116877897682, 0.16469724178424272, 0.531240326233295, 0.4105161506380597, 0.6623158328378835]",21.75,0.0,0.0,141.10732334210184,723.6767541574201,52.16204136094837,-1041.5941450826442,-260.4096960210114,2398.071347034736,0.0,0.0,0.0,0.0,0.0,0.0,6.8,21.66450160401195,0.0,21.485181050995067,0.0,6.8,21.75,20.97,22.0,21.5,21.88,6.23,6.8,0.0,-725.56,-573.19,224.26,119.0,0.0,468.0,0.0,0.0,0.0,0.0,0.0,0.0,0.0,0.0,0.0,0.0,0.0,0.0,0.0,0.0
132.0,3644.0,0.0,0.0,-0.0,8385.967663820307,-4741.967663820307,0.0,3167.9440666020782,0.0,3167.9440666020782,0.0,0.0,0.4303568542625116,0.15932794914210338,0.49999999999999956,0.0,0.0,0.0,"[0.4972077302678173, 0.35830786106179957, 0.693346267460484, 0.23062662874678352, 0.5308116877897682, 0.16469724178424272, 0.531240326233295, 0.4105161506380597, 0.6623158328378835]",22.5,0.0,0.0,808.4337513848044,1444.9130193601331,84.00039230020033,-1023.7717910210152,-1626.8597233333876,0.0,0.0,0.0,0.0,0.0,0.0,0.0,7.8,21.902836920732415,0.0,21.532318624919682,0.0,7.8,22.5,21.01,22.05,22.08,22.34,7.71,7.8,0.0,-713.14,-563.38,1284.83,170.0,0.0,970.0,0.0,0.0,0.0,0.0,0.0,0.0,0.0,0.0,0.0,0.0,0.0,0.0,0.0,0.0
133.0,3858.0,0.0,1000.3682652318638,-0.0,7782.187986055384,-2923.8197208235197,0.0,3342.4351111263427,0.0,0.0,0.0,3342.4351111263427,0.5364806811664764,0.15932794914210338,0.49999999999999956,0.0,0.0,0.0,"[0.4972077302678173, 0.35830786106179957, 0.693346267460484, 0.23062662874678352, 0.5308116877897682, 0.16469724178424272, 0.531240326233295, 0.4105161506380597, 0.6623158328378835]",22.39,0.0,0.0,775.7029430635314,1119.8973138627323,72.92618327785185,-988.1781914864542,-1297.494439716067,0.0,0.0,0.0,0.0,0.0,0.0,0.0,8.2,21.91342489699284,0.0,21.586338925125972,0.0,8.2,22.39,21.06,22.11,22.01,22.32,8.12,8.2,0.0,-688.35,-543.79,1232.81,158.0,0.0,738.0,0.0,0.0,0.0,0.0,0.0,0.0,0.0,0.0,0.0,0.0,0.0,0.0,0.0,0.0
134.0,4035.0,0.0,0.0,-0.0,4589.010752160074,-554.0107521600739,0.0,242.89452844961227,0.0,242.89452844961227,0.0,0.0,0.5565892195782124,0.15840998040268686,0.49999999999999956,0.0,0.0,0.0,"[0.4972077302678173, 0.35830786106179957, 0.693346267460484, 0.23062662874678352, 0.5308116877897682, 0.16469724178424272, 0.531240326233295, 0.4105161506380597, 0.6623158328378835]",22.27,0.0,0.0,714.2363689989437,465.84627400135446,56.94408616605342,-980.3529572986824,-990.8797772465131,0.0,0.0,0.0,0.0,0.0,0.0,0.0,8.2,21.914494927833605,0.0,21.629317136736006,0.0,8.2,22.27,21.1,22.16,21.98,22.31,8.02,8.2,0.0,-682.9,-539.49,1135.12,155.0,0.0,260.0,0.0,0.0,0.0,0.0,0.0,0.0,0.0,0.0,0.0,0.0,0.0,0.0,0.0,0.0
135.0,4738.0,17034.300356212872,0.0,-0.0,5.290606168464294,-12216.419460600271,0.0,4455.998470921676,0.0,4455.998470921675,0.0,0.0,1.0,0.1415694721981454,0.49999999999999956,0.0,0.0,0.0,"[0.4972077302678173, 0.35830786106179957, 0.693346267460484, 0.23062662874678352, 0.5308116877897682, 0.16469724178424272, 0.531240326233295, 0.4105161506380597, 0.6623158328378835]",22.01,0.0,0.0,28.26521107284934,188.20476586002331,4.341593309897994,-1031.436808376836,-421.44390539491457,0.0,0.0,0.0,0.0,0.0,0.0,0.0,7.2,21.85909077539982,0.0,21.654282025716455,0.0,7.2,22.01,21.13,22.18,21.86,22.22,6.54,7.2,0.0,-718.48,-567.6,44.92,0.0,0.0,138.0,0.0,0.0,0.0,0.0,0.0,0.0,0.0,0.0,0.0,0.0,0.0,0.0,0.0,0.0
136.0,2752.0,0.0,2328.6875057811208,-0.0,0.0,5080.687505781121,0.0,7247.819326434391,0.0,0.0,0.0,7247.819326434391,0.8079861108926258,0.1415694721981454,0.4264128728414438,0.0,0.0,0.0,"[0.4972077302678173, 0.35830786106179957, 0.693346267460484, 0.23062662874678352, 0.5308116877897682, 0.16469724178424272, 0.531240326233295, 0.4105161506380597, 0.6623158328378835]",21.55,0.0,0.0,0.0,197.75138441814042,4.561819057501515,-1097.2207264339593,403.8586766074089,359.42988126411086,0.0,0.0,0.0,0.0,0.0,0.0,5.8,21.709218991233122,0.0,21.625042837471046,0.0,5.8,21.55,21.12,22.13,21.47,21.88,5.15,5.8,0.0,-764.3,-603.8,0.0,0.0,0.0,145.0,0.0,0.0,0.0,0.0,0.0,0.0,0.0,0.0,0.0,0.0,0.0,0.0,0.0,0.0
137.0,1863.0,4938.352902283287,3050.6611377718705,-0.0,0.0,0.0,0.0,9378.56232708553,0.0,0.0,0.0,9378.562327085529,0.8079861108926258,0.1415694721981454,0.4034536891679744,0.0,0.0,0.0,"[0.4972077302678173, 0.35830786106179957, 0.693346267460484, 0.23062662874678352, 0.5308116877897682, 0.16469724178424272, 0.531240326233295, 0.4105161506380597, 0.6623158328378835]",21.5,0.0,0.0,0.0,167.7477260926295,3.8696809936047316,-1121.6813958798602,414.63837372447756,535.7909177391368,0.0,0.0,0.0,0.0,0.0,0.0,5.4,21.664539517007952,0.0,21.58770699360455,0.0,5.4,21.5,21.11,22.07,21.46,21.85,4.74,5.4,0.0,-781.34,-617.26,0.0,0.0,0.0,123.0,0.0,0.0,0.0,0.0,0.0,0.0,0.0,0.0,0.0,0.0,0.0,0.0,0.0,0.0
138.0,3408.0,8418.813708661099,4968.719640117794,-0.0,0.0,0.0,0.0,15085.722690405652,0.0,0.0,0.0,15085.722690405652,0.8079861108926258,0.1415694721981454,0.29631083202511727,0.0,0.0,0.0,"[0.4972077302678173, 0.35830786106179957, 0.693346267460484, 0.23062662874678352, 0.5308116877897682, 0.16469724178424272, 0.531240326233295, 0.4105161506380597, 0.6623158328378835]",21.5,0.0,0.0,0.0,252.30349046452406,5.820251900950211,-1149.5444242811704,337.7156170367387,3242.6500963491867,0.0,0.0,0.0,0.0,0.0,0.0,5.0,21.636272676084616,0.0,21.55363842269349,0.0,5.0,21.5,21.09,22.02,21.46,21.83,4.37,5.0,246.32,-800.75,-632.59,0.0,0.0,0.0,185.0,0.0,0.0,0.0,0.0,0.0,0.0,0.0,0.0,0.0,0.0,0.0,0.0,0.0,0.0
139.0,4129.0,36440.93076573368,31192.710891038332,-0.0,0.0,-937.015220866682,0.0,13515.922356306168,0.0,-80000.0,0.0,93515.92235630618,0.8419962929833424,0.4319398425685157,0.2963108320251165,0.0,0.0,0.0,"[0.4972077302678173, 0.35830786106179957, 0.693346267460484, 0.23062662874678352, 0.5308116877897682, 0.16469724178424272, 0.531240326233295, 0.4105161506380597, 0.6623158328378835]",22.5,0.0,0.0,0.0,1290.6597616052934,71.69921125548936,-1246.6760182314958,-1429.1948910655444,1320.2804306224666,0.0,0.0,0.0,0.0,0.0,0.0,4.6,21.97780573669018,0.0,21.64276432038829,0.0,4.6,22.5,21.15,22.14,22.55,22.69,4.0,4.6,0.0,-868.41,-686.05,0.0,101.0,21.0,891.0,0.0,0.0,0.0,0.0,0.0,0.0,0.0,0.0,0.0,0.0,0.0,0.0,0.0,0.0
140.0,6564.0,13555.97814143639,0.0,-6924.198250729207,0.0,0.0,0.0,7752.726382773532,0.0,7752.726382773532,0.0,0.0,0.5840747904539186,0.37625540844304856,0.3224097331240189,0.0,0.0,0.0,"[0.4972077302678173, 0.35830786106179957, 0.693346267460484, 0.23062662874678352, 0.5308116877897682, 0.16469724178424272, 0.531240326233295, 0.4105161506380597, 0.6623158328378835]",22.5,0.0,0.0,0.0,1075.394279982788,93.06110877303094,-1274.539046632806,-1361.1766382970593,0.0,0.0,0.0,0.0,0.0,0.0,0.0,4.2,22.00315141349149,0.0,21.67536859634037,0.0,4.2,22.5,21.18,22.18,22.04,22.32,3.63,4.2,0.0,-887.82,-701.38,0.0,144.0,45.0,708.0,0.0,0.0,0.0,0.0,0.0,0.0,0.0,0.0,0.0,0.0,0.0,0.0,0.0,0.0
141.0,6407.0,4882.091699990553,0.0,-0.0,0.0,4361.0189554106855,0.0,2530.530177211156,0.0,0.0,0.0,0.0,0.41925925925925933,0.37625540844304856,0.3224097331240189,11246.800787605145,2811.7001969012863,14058.50098450643,"[0.4972077302678173, 0.35830786106179957, 0.693346267460484, 0.23062662874678352, 0.5308116877897682, 0.16469724178424272, 0.531240326233295, 0.4105161506380597, 0.6623158328378835]",21.95,0.0,0.0,0.0,692.524630441459,82.80488109892406,-1264.3706385758485,-302.7754842051361,2275.678874286481,0.0,0.0,0.0,0.0,0.0,0.0,3.8,21.848581653145082,0.0,21.66897157655263,0.0,3.8,21.95,21.17,22.16,21.68,22.05,3.25,3.8,0.0,-880.74,-695.78,0.0,109.0,61.0,444.0,0.0,0.0,0.0,0.0,0.0,0.0,0.0,0.0,0.0,0.0,0.0,0.0,0.0,0.0
142.0,3378.0,6817.722159386803,3405.633548589869,-0.0,0.0,0.0,0.0,9820.50509950882,0.0,0.0,0.0,9820.505099508822,0.41925925925925933,0.37625540844304856,0.31299058084772374,0.0,0.0,0.0,"[0.4972077302678173, 0.35830786106179957, 0.693346267460484, 0.23062662874678352, 0.5308116877897682, 0.16469724178424272, 0.531240326233295, 0.4105161506380597, 0.6623158328378835]",22.5,0.0,0.0,0.0,586.2915818248172,65.8160377123667,-1330.2651034354265,-1313.184938562001,0.0,0.0,0.0,0.0,0.0,0.0,0.0,3.4,22.021291073224578,0.0,21.699628723923503,0.0,3.4,22.5,21.2,22.2,22.14,22.41,2.85,3.4,0.0,-926.64,-732.04,0.0,81.0,50.0,382.0,0.0,0.0,0.0,0.0,0.0,0.0,0.0,0.0,0.0,0.0,0.0,0.0,0.0,0.0
143.0,2291.0,21940.413723867303,3539.711655247966,-0.0,0.0,-16000.0,0.0,10072.152893067305,0.0,0.0,0.0,10072.152893067305,1.0,0.37625540844304856,0.3076923076923077,0.0,0.0,0.0,"[0.4972077302678173, 0.35830786106179957, 0.693346267460484, 0.23062662874678352, 0.5308116877897682, 0.16469724178424272, 0.531240326233295, 0.4105161506380597, 0.6623158328378835]",21.76,0.0,0.0,0.0,276.49304275088093,56.25194810215664,-1306.6595878867656,102.14135248224589,186.24344329357453,0.0,0.0,0.0,0.0,0.0,0.0,3.0,21.80576163467159,0.0,21.682347615830665,0.0,3.0,21.76,21.19,22.18,21.6,21.99,2.45,3.0,0.0,-910.2,-719.05,0.0,105.0,33.0,144.0,0.0,0.0,0.0,0.0,0.0,0.0,0.0,0.0,0.0,0.0,0.0,0.0,0.0,0.0
144.0,1586.0,35745.991759549186,33981.26180075144,-0.0,0.0,0.0,0.0,15072.983896655955,0.0,-80000.0,0.0,95072.98389665596,1.0,0.6666257788134189,0.3076923076923077,0.0,0.0,0.0,"[0.4972077302678173, 0.35830786106179957, 0.693346267460484, 0.23062662874678352, 0.5308116877897682, 0.16469724178424272, 0.531240326233295, 0.4105161506380597, 0.6623158328378835]",21.5,0.0,0.0,0.0,259.3378409810314,46.15302453348087,-1323.6883517893584,516.6775896120635,3194.272391734023,0.0,0.0,0.0,0.0,0.0,0.0,2.5,21.703665506120633,0.0,21.642029317301244,0.0,2.5,21.5,21.16,22.12,21.49,21.89,1.98,2.5,0.0,-922.06,-728.42,0.0,80.0,29.0,145.0,0.0,0.0,0.0,0.0,0.0,0.0,0.0,0.0,0.0,0.0,0.0,0.0,0.0,0.0
145.0,1392.0,0.0,0.0,-0.0,0.0,1392.0,0.0,1251.6818797108774,0.0,1251.6818797108774,0.0,0.0,0.9473922902494331,0.661895310636129,0.3076923076923077,0.0,0.0,0.0,"[0.4972077302678173, 0.35830786106179957, 0.693346267460484, 0.23062662874678352, 0.5308116877897682, 0.16469724178424272, 0.531240326233295, 0.4105161506380597, 0.6623158328378835]",22.5,0.0,0.0,0.0,112.69316643792398,39.95524277949605,-1420.8199457396838,-1373.1898584810367,0.0,0.0,0.0,0.0,0.0,0.0,0.0,2.1,21.999712684969882,0.0,21.67324431961417,0.0,2.1,22.5,21.18,22.16,22.21,22.44,1.62,2.1,1045.06,-989.72,-781.88,0.0,80.0,24.0,38.0,0.0,0.0,0.0,0.0,0.0,0.0,0.0,0.0,0.0,0.0,0.0,0.0,0.0,0.0
146.0,954.0,0.0,3970.137850859827,-0.0,0.0,4924.137850859826,0.0,10767.039288251002,0.0,0.0,0.0,10767.039288251002,0.7612948658027276,0.661895310636129,0.3076923076923077,0.0,0.0,0.0,"[0.4972077302678173, 0.35830786106179957, 0.693346267460484, 0.23062662874678352, 0.5308116877897682, 0.16469724178424272, 0.531240326233295, 0.4105161506380597, 0.6623158328378835]",21.52,0.0,0.0,0.0,126.97720473164811,26.773158744370967,-1387.4948537763385,494.0894228190312,1395.039530339683,0.0,0.0,0.0,0.0,0.0,0.0,1.6,21.711736022022805,0.0,21.64608523353667,0.0,1.6,21.52,21.16,22.13,21.47,21.88,1.15,1.6,165.76,-966.5,-763.54,0.0,80.0,0.0,51.0,0.0,0.0,0.0,0.0,0.0,0.0,0.0,0.0,0.0,0.0,0.0,0.0,0.0,0.0
147.0,986.0,14391.483287624513,13333.52587118639,-0.0,0.0,0.0,0.0,16837.412080733407,0.0,-19068.970321921497,0.0,35906.3824026549,0.7612948658027276,0.7311086103231034,0.3076923076923077,0.0,0.0,0.0,"[0.4972077302678173, 0.35830786106179957, 0.693346267460484, 0.23062662874678352, 0.5308116877897682, 0.16469724178424272, 0.531240326233295, 0.4105161506380597, 0.6623158328378835]",21.76,0.0,0.0,0.0,173.34649487107413,27.84282666130236,-1418.247728286869,-26.092688055576218,549.6600753216173,0.0,0.0,0.0,0.0,0.0,0.0,1.4,21.76103801417353,0.0,21.624883609803096,0.0,1.4,21.76,21.15,22.1,21.7,22.04,0.94,1.4,726.7,-987.93,-780.46,0.0,80.0,0.0,85.0,0.0,0.0,0.0,0.0,0.0,0.0,0.0,0.0,0.0,0.0,0.0,0.0,0.0,0.0
148.0,827.0,2085.229912895828,4604.7619341702375,-0.0,0.0,3356.9581708388887,0.0,12312.54943357492,0.0,0.0,0.0,12312.549433574923,0.634425698348499,0.7311086103231034,0.3076923076923077,0.0,0.0,0.0,"[0.4972077302678173, 0.35830786106179957, 0.693346267460484, 0.23062662874678352, 0.5308116877897682, 0.16469724178424272, 0.531240326233295, 0.4105161506380597, 0.6623158328378835]",21.5,0.0,0.0,0.0,60.15087482482822,25.231578511146317,-1414.243194093616,406.2706202199054,3613.3676052387204,0.0,0.0,0.0,0.0,0.0,0.0,1.2,21.663428484190522,0.0,21.58969894449662,0.0,1.2,21.5,21.12,22.06,21.49,21.86,0.77,1.2,144.88,-985.14,-778.26,0.0,80.0,0.0,2.0,0.0,0.0,0.0,0.0,0.0,0.0,0.0,0.0,0.0,0.0,0.0,0.0,0.0,0.0
149.0,1055.0,8457.573869346734,0.0,-0.0,0.0,0.0,0.0,18524.452251816034,36801.43,47965.59625181604,0.0,0.0,0.634425698348499,0.5498327363555446,0.3076923076923077,29441.144,7360.286,36801.43,"[0.4972077302678173, 0.35830786106179957, 0.693346267460484, 0.23062662874678352, 0.5308116877897682, 0.16469724178424272, 0.531240326233295, 0.4105161506380597, 0.6623158328378835]",22.5,0.0,0.0,0.0,261.63477176193175,33.82038266768366,-1504.4090309436142,-1468.3949897341222,2680.5415521850177,0.0,0.0,0.0,0.0,0.0,0.0,0.9,21.96506109960933,0.0,21.62705377044786,0.0,0.9,22.5,21.14,22.11,22.22,22.43,0.49,0.9,0.0,-1047.94,-827.88,0.0,80.0,7.0,149.0,0.0,0.0,0.0,0.0,0.0,0.0,0.0,0.0,0.0,0.0,0.0,0.0,0.0,0.0
150.0,988.0,992.964824120603,0.0,-0.0,0.0,0.0,0.0,4191.005464037983,0.0,4191.005464037983,0.0,0.0,0.634425698348499,0.5339937134377896,0.3076923076923077,0.0,0.0,0.0,"[0.4972077302678173, 0.35830786106179957, 0.693346267460484, 0.23062662874678352, 0.5308116877897682, 0.16469724178424272, 0.531240326233295, 0.4105161506380597, 0.6623158328378835]",22.5,0.0,0.0,0.0,181.60108986493483,63.236250383296905,-1511.3747880439416,-1370.0650292143823,0.0,0.0,0.0,0.0,0.0,0.0,0.0,0.8,22.00147025421208,0.0,21.671515513497532,0.0,0.8,22.5,21.17,22.18,22.15,22.41,0.41,0.8,0.0,-1052.8,-831.71,0.0,149.0,26.0,52.0,0.0,0.0,0.0,0.0,0.0,0.0,0.0,0.0,0.0,0.0,0.0,0.0,0.0,0.0
151.0,1086.0,0.0,4803.70442521879,-0.0,0.0,5889.70442521879,0.0,12569.72529373659,0.0,0.0,0.0,12569.725293736588,0.41183671780357123,0.5339937134377896,0.3076923076923077,0.0,0.0,0.0,"[0.4972077302678173, 0.35830786106179957, 0.693346267460484, 0.23062662874678352, 0.5308116877897682, 0.16469724178424272, 0.531240326233295, 0.4105161506380597, 0.6623158328378835]",21.52,0.0,0.0,0.0,195.3108954634338,66.66547988169458,-1457.2184150768667,494.11198071120356,3349.995419968706,0.0,0.0,0.0,0.0,0.0,0.0,0.6,21.713155466095063,0.0,21.643296724332842,0.0,0.6,21.52,21.15,22.14,21.48,21.89,0.22,0.6,675.19,-1015.07,-801.91,0.0,150.0,31.0,61.0,0.0,0.0,0.0,0.0,0.0,0.0,0.0,0.0,0.0,0.0,0.0,0.0,0.0,0.0
