,load_elec,grid,hp_elec,ev,pv,bat_pow,cool,load_th_sh,load_th_dhw,tes_pow,dh,hp_th,bat_soc,tes_soc,ev_soc,eh_th_in,eh_elec_in,eh_th_out,temp_slack,temp_zone_1,temp_zone_2,temp_update,Qsolar_1,QconvInt_1,QradInt_1,Qvent_1,Qconduc_1,Qheating_1,Qsolar_2,QconvInt_2,QradInt_2,Qvent_2,Qconduc_2,Qheating_2,temp_amb,temp_aggregate_1,temp_aggregate_2,temp_wall_1,temp_wall_2,_Tamb,_Tz_1,_TEW_1,_TIW_1,_T1_1,_T2_1,_Taeq_1,_Tvent_1,_Qheating_1,_Qinfvent_1,_Qenvelope_1,_Qsolar_1,_Qint_people_1,_Qint_lighting_1,_Qint_appliances_1,_Tz_2,_TEW_2,_TIW_2,_T1_2,_T2_2,_Taeq_2,_Tvent_2,_Qheating_2,_Qinfvent_2,_Qenvelope_2,_Qsolar_2,_Qint_people_2,_Qint_lighting_2,_Qint_appliances_2
8.0,2915.0,33176.43350992826,37746.609216322875,-0.0,0.0,7651.057873944254,0.0,62785.544977327634,0.0,0.0,0.0,62785.54497732763,0.17469992032549939,0.5,0.8,0.0,0.0,0.0,"[2.0, 2.0, 2.0, 2.0, 2.0, 2.0, 2.0, 2.0]",20.0,0.0,0.0,0.8544591778351113,257.5677268010685,106.91778959425298,-1223.276535721951,-1064.4335212989317,9873.865125095002,0.0,0.0,0.0,0.0,0.0,0.0,-9.4,19.47629477756384,0.0,19.0,0.0,-9.4,20.0,18.0,20.0,20.0,20.0,-9.96,-9.4,1939.24,-870.79,-1016.06,1.24,176.0,70.0,93.0,0.0,0.0,0.0,0.0,0.0,0.0,0.0,0.0,0.0,0.0,0.0,0.0,0.0,0.0
9.0,4116.0,0.0,0.0,-0.0,7.057873944254642,4108.942126055746,0.0,6964.25235750674,0.0,6964.25235750674,0.0,0.0,0.0,0.47039008351400197,0.8,0.0,0.0,0.0,"[2.0, 2.0, 2.0, 2.0, 2.0, 2.0, 2.0, 2.0]",24.0,0.0,0.0,26.416987367838637,277.44546519340616,91.70269778883889,-1356.4222811066531,-6189.528002291715,6781.1759850931085,0.0,0.0,0.0,0.0,0.0,0.0,-8.6,20.895363597460157,0.0,19.265050083215414,0.0,-8.6,24.0,18.14,20.39,22.7,22.4,-9.14,-8.6,2374.74,-965.57,-1126.66,38.46,224.0,19.0,88.0,0.0,0.0,0.0,0.0,0.0,0.0,0.0,0.0,0.0,0.0,0.0,0.0,0.0,0.0
10.0,4033.0,40314.123435440604,20454.092138154945,-0.0,374.539319891539,-16000.0,0.0,37532.07628125791,0.0,0.0,0.0,37532.076281257905,0.6533333333333333,0.47039008351400197,0.8,0.0,0.0,0.0,"[2.0, 2.0, 2.0, 2.0, 2.0, 2.0, 2.0, 2.0]",23.81,0.0,0.0,73.14620924615294,318.9569259350019,70.03063700054025,-1306.8360272596776,-5499.047614870725,0.0,0.0,0.0,0.0,0.0,0.0,0.0,-7.6,21.051034509295935,0.0,19.54119137136582,0.0,-7.6,23.81,18.29,20.79,22.28,22.3,-8.19,-7.6,1526.22,-930.27,-1085.47,106.49,190.0,0.0,139.0,0.0,0.0,0.0,0.0,0.0,0.0,0.0,0.0,0.0,0.0,0.0,0.0,0.0,0.0
11.0,8986.0,18847.448906152895,10831.61965776128,-0.0,1064.407996139151,0.0,0.0,20701.48494970859,0.0,0.0,0.0,20701.484949708592,0.6533333333333333,0.47039008351400197,0.8,0.0,0.0,0.0,"[2.0, 2.0, 2.0, 2.0, 2.0, 2.0, 2.0, 2.0]",20.61,0.0,0.0,101.76688452580527,2985.734641630711,123.36932226873006,-1140.352529825518,-994.1080225131624,0.0,0.0,0.0,0.0,0.0,0.0,0.0,-6.8,20.117916053039814,0.0,19.593294599049827,0.0,-6.8,20.61,18.34,20.85,19.82,20.67,-7.38,-6.8,6896.27,-811.76,-947.19,148.15,143.0,0.0,2162.0,0.0,0.0,0.0,0.0,0.0,0.0,0.0,0.0,0.0,0.0,0.0,0.0,0.0,0.0
12.0,3417.0,18258.37899942726,17252.60515766385,-0.0,2502.518053233727,0.0,0.0,33960.174117608636,0.0,0.0,0.0,33960.174117608636,0.6533333333333333,0.47039008351400197,0.798450012916559,0.0,0.0,0.0,"[2.0, 2.0, 2.0, 2.0, 2.0, 2.0, 2.0, 2.0]",21.14,0.0,0.0,155.1859932271748,2566.475912076423,110.62711220144196,-1137.6032813260038,-1730.0049094278577,5726.137890945221,0.0,0.0,0.0,0.0,0.0,0.0,-6.2,20.281022619914303,0.0,19.59969845762233,0.0,-6.2,21.14,18.36,20.84,20.12,20.86,-6.75,-6.2,0.0,-809.8,-944.9,225.92,137.0,0.0,1851.0,0.0,0.0,0.0,0.0,0.0,0.0,0.0,0.0,0.0,0.0,0.0,0.0,0.0,0.0
13.0,5037.0,0.0,5903.165342436625,-0.0,437.50395130867435,10502.661391127951,0.0,11676.117345210185,0.0,0.0,0.0,11676.117345210183,0.20679160752007014,0.47039008351400197,0.7984500129165578,0.0,0.0,0.0,"[2.0, 2.0, 2.0, 2.0, 2.0, 2.0, 2.0, 2.0]",24.0,0.0,0.0,75.18585203432312,696.2125192397575,63.47063127856714,-1252.4021675248546,-5388.617304793269,5815.245721962301,0.0,0.0,0.0,0.0,0.0,0.0,-6.1,21.297862032569242,0.0,19.796696143644766,0.0,-6.1,24.0,18.49,21.11,22.4,22.51,-6.67,-6.1,0.0,-891.52,-1040.26,109.45,140.0,0.0,448.0,0.0,0.0,0.0,0.0,0.0,0.0,0.0,0.0,0.0,0.0,0.0,0.0,0.0,0.0
14.0,2955.0,15005.34712834045,11980.033983968018,-0.0,4.713591269269788,0.0,0.0,23124.762999953422,0.0,0.0,0.0,23124.76299995342,0.20679160752007014,0.47039008351400197,0.7984500129165578,0.0,0.0,0.0,"[2.0, 2.0, 2.0, 2.0, 2.0, 2.0, 2.0, 2.0]",24.0,0.0,0.0,23.511617267936202,433.447079926205,64.19188845218721,-1273.2061902412142,-5028.941575788843,0.0,0.0,0.0,0.0,0.0,0.0,0.0,-6.6,21.479278721271168,0.0,20.034603627368746,0.0,-6.6,24.0,18.63,21.44,22.46,22.7,-7.13,-6.6,7658.1,-906.33,-1057.54,34.23,163.0,0.0,239.0,0.0,0.0,0.0,0.0,0.0,0.0,0.0,0.0,0.0,0.0,0.0,0.0,0.0,0.0
15.0,2216.0,19206.913851496465,16894.879282238984,-0.0,0.0,0.0,0.0,31484.318715215086,0.0,0.0,0.0,31484.318715215086,0.20679160752007014,0.47039008351400197,0.7984500129165578,0.0,0.0,0.0,"[2.0, 2.0, 2.0, 2.0, 2.0, 2.0, 2.0, 2.0]",21.08,0.0,0.0,2.5622769557766176,101.42563335171607,2.610264056910767,-1180.969363176004,-941.8630843116346,7805.652002733589,0.0,0.0,0.0,0.0,0.0,0.0,-7.3,20.620798486967935,0.0,20.07410995199809,0.0,-7.3,21.08,18.68,21.46,20.25,21.21,-7.81,-7.3,0.0,-840.67,-980.92,3.73,0.0,0.0,76.0,0.0,0.0,0.0,0.0,0.0,0.0,0.0,0.0,0.0,0.0,0.0,0.0,0.0,0.0
16.0,2880.0,0.0,0.0,-0.0,0.0,2880.0,0.0,13814.696345437269,0.0,13814.696345437269,0.0,0.0,0.08434262792823341,0.4116541296643537,0.790700077499353,0.0,0.0,0.0,"[2.0, 2.0, 2.0, 2.0, 2.0, 2.0, 2.0, 2.0]",24.0,0.0,0.0,0.0,253.56408337929022,6.525660142276925,-1298.1710175008461,-4700.5714736628515,0.0,0.0,0.0,0.0,0.0,0.0,0.0,-7.2,21.64496226350735,0.0,20.25947053482362,0.0,-7.2,24.0,18.81,21.71,22.8,23.03,-7.69,-7.2,0.0,-924.11,-1078.27,0.0,0.0,0.0,190.0,0.0,0.0,0.0,0.0,0.0,0.0,0.0,0.0,0.0,0.0,0.0,0.0,0.0,0.0
17.0,2289.0,3256.406367806116,2934.8629448391357,-0.0,0.0,1983.73860887205,0.0,5553.177485160561,0.0,0.0,0.0,5553.177485160561,0.0,0.4116541296643537,0.790700077499353,0.0,0.0,0.0,"[2.0, 2.0, 2.0, 2.0, 2.0, 2.0, 2.0, 2.0]",21.11,0.0,0.0,0.0,98.75653773719722,2.54157289751838,-1169.52750734944,-673.9336697214583,0.0,0.0,0.0,0.0,0.0,0.0,0.0,-7.0,20.78067862192723,0.0,20.2821636887757,0.0,-7.0,21.11,18.85,21.71,20.32,21.36,-7.49,-7.0,6158.24,-832.53,-971.42,0.0,0.0,0.0,74.0,0.0,0.0,0.0,0.0,0.0,0.0,0.0,0.0,0.0,0.0,0.0,0.0,0.0,0.0
18.0,3924.0,13373.803478425009,9382.934461032883,-0.0,0.0,0.0,0.0,17843.29490812529,0.0,0.0,0.0,17843.294908125292,0.0,0.4116541296643537,0.7868251097907506,0.0,0.0,0.0,"[2.0, 2.0, 2.0, 2.0, 2.0, 2.0, 2.0, 2.0]",20.23,0.0,0.0,0.0,277.58594390995984,7.143880576808422,-1128.8375191245389,431.8032021355768,0.0,0.0,0.0,0.0,0.0,0.0,0.0,-6.9,20.459456517810665,0.0,20.218453333544318,0.0,-6.9,20.23,18.85,21.59,19.89,21.0,-7.39,-6.9,4968.09,-803.56,-937.62,0.0,0.0,0.0,208.0,0.0,0.0,0.0,0.0,0.0,0.0,0.0,0.0,0.0,0.0,0.0,0.0,0.0,0.0
19.0,2333.0,17515.613185702747,10442.806881540164,-0.0,0.0,-4652.228238234069,0.0,19958.382616953728,0.0,0.0,0.0,19958.382616953728,0.1899659863945578,0.4116541296643537,0.7868251097907506,0.0,0.0,0.0,"[2.0, 2.0, 2.0, 2.0, 2.0, 2.0, 2.0, 2.0]",20.02,0.0,0.0,0.0,404.01678880822084,90.26018344159873,-1116.0155040114541,582.7804368419398,5.6915166521096605,0.0,0.0,0.0,0.0,0.0,0.0,-6.8,20.32723141011922,0.0,20.13605703845592,0.0,-6.8,20.02,18.83,21.44,19.76,20.84,-7.29,-6.8,0.0,-794.44,-926.97,0.0,83.0,86.0,250.0,0.0,0.0,0.0,0.0,0.0,0.0,0.0,0.0,0.0,0.0,0.0,0.0,0.0,0.0
20.0,4468.0,18076.29065778706,0.0,-0.0,0.0,-13517.909204498124,0.0,0.0,0.0,0.0,0.0,0.0,0.5519812925170068,0.4116541296643537,0.7868251097907506,0.0,0.0,0.0,"[2.0, 0.9502342145597495, 1.2119705534158989, 1.0596623453586318, 1.572657317707236, 1.0937448749093157, 2.0, 2.0]",20.0,0.0,0.0,0.0,555.3123665364732,150.91447718507794,-1106.7740085103367,485.6707924416994,0.0,0.0,0.0,0.0,0.0,0.0,0.0,-6.6,20.256099899510907,0.0,20.05892234430584,0.0,-6.6,20.0,18.82,21.3,19.77,20.77,-7.08,-6.6,0.0,-787.86,-919.3,0.0,129.0,154.0,332.0,0.0,0.0,0.0,0.0,0.0,0.0,0.0,0.0,0.0,0.0,0.0,0.0,0.0,0.0
21.0,4829.0,0.0,0.0,-0.0,0.0,4829.0,0.0,20021.760895680323,0.0,20021.760895680323,0.0,0.0,0.3466666666666667,0.3265275952439442,0.7868251097907506,0.0,0.0,0.0,"[2.0, 0.9502342145597495, 1.2119705534158989, 1.0596623453586318, 1.572657317707236, 1.0937448749093157, 2.0, 2.0]",20.03,0.0,0.0,0.0,732.8774642602532,156.82191689282337,-1104.025757844009,326.33852369593643,0.0,0.0,0.0,0.0,0.0,0.0,0.0,-6.5,20.209748737122037,0.0,19.99110495696815,0.0,-6.5,20.03,18.8,21.18,19.79,20.72,-7.0,-6.5,869.31,-785.9,-917.01,0.0,135.0,153.0,462.0,0.0,0.0,0.0,0.0,0.0,0.0,0.0,0.0,0.0,0.0,0.0,0.0,0.0,0.0
22.0,2762.0,28096.6590798219,9194.175784422789,-0.0,0.0,-16000.0,0.0,18010.242587099317,0.0,0.0,0.0,18010.24258709932,1.0,0.3265275952439442,0.7868251097907506,0.0,0.0,0.0,"[2.0, 0.9502342145597495, 1.2119705534158989, 1.0596623453586318, 1.572657317707236, 1.0937448749093157, 2.0, 2.0]",20.08,0.0,0.0,0.0,671.4882651263198,153.86819703895063,-1097.6658356186078,161.82749326187056,7906.525533306549,0.0,0.0,0.0,0.0,0.0,0.0,-6.3,20.173956335386727,0.0,19.931036360918988,0.0,-6.3,20.08,18.79,21.07,19.79,20.66,-6.83,-6.3,1167.04,-781.38,-911.73,0.0,314.0,56.0,332.0,0.0,0.0,0.0,0.0,0.0,0.0,0.0,0.0,0.0,0.0,0.0,0.0,0.0,0.0
23.0,1549.0,12085.072681374711,10475.647317967838,-0.0,0.0,0.0,0.0,20620.35290680819,0.0,0.0,0.0,20620.352906808188,1.0,0.3265275952439442,0.774812709894083,0.0,0.0,0.0,"[2.0, 0.9502342145597495, 1.2119705534158989, 1.0596623453586318, 1.572657317707236, 1.0937448749093157, 2.0, 2.0]",24.0,0.0,0.0,0.0,402.7524803592383,71.64487924626138,-1256.5629720681266,-4973.265105124958,0.0,0.0,0.0,0.0,0.0,0.0,0.0,-6.2,21.507154152021567,0.0,20.120446226771268,0.0,-6.2,24.0,18.9,21.34,22.86,22.85,-6.71,-6.2,3681.82,-894.49,-1043.71,0.0,160.0,15.0,216.0,0.0,0.0,0.0,0.0,0.0,0.0,0.0,0.0,0.0,0.0,0.0,0.0,0.0,0.0
24.0,2428.0,9948.6388641925,7470.8956698715365,-0.0,0.0,0.0,0.0,14776.996654346918,0.0,0.0,0.0,14776.99665434692,1.0,0.3265275952439442,0.774812709894083,0.0,0.0,0.0,"[2.0, 0.9502342145597495, 1.2119705534158989, 1.0596623453586318, 1.572657317707236, 1.0937448749093157, 2.0, 2.0]",21.1,0.0,0.0,0.0,435.9054574658934,116.5688974888836,-1131.5680190605126,-897.7221386767046,6984.576626775136,0.0,0.0,0.0,0.0,0.0,0.0,-6.1,20.6552449359198,0.0,20.161185966822057,0.0,-6.1,21.1,18.94,21.38,20.34,21.17,-6.63,-6.1,1015.67,-805.51,-939.89,0.0,320.0,2.0,158.0,0.0,0.0,0.0,0.0,0.0,0.0,0.0,0.0,0.0,0.0,0.0,0.0,0.0,0.0
25.0,1871.0,0.0,14119.729682096431,-0.0,0.0,15990.729682096431,0.0,28062.610929296672,0.0,0.0,0.0,28062.610929296672,0.3201220373258321,0.3265275952439442,0.774812709894083,0.0,0.0,0.0,"[2.0, 0.9502342145597495, 1.2119705534158989, 1.0596623453586318, 1.572657317707236, 1.0937448749093157, 2.0, 2.0]",23.86,0.0,0.0,0.0,458.31181275619633,115.9163314746559,-1242.5852540659293,-4462.995345834456,0.0,0.0,0.0,0.0,0.0,0.0,0.0,-6.0,21.62816223277464,0.0,20.33689276451652,0.0,-6.0,23.86,19.05,21.62,22.75,22.89,-6.49,-6.0,4104.49,-884.54,-1032.1,0.0,320.0,0.0,175.0,0.0,0.0,0.0,0.0,0.0,0.0,0.0,0.0,0.0,0.0,0.0,0.0,0.0,0.0
26.0,767.0,8668.327835301401,7857.986196124894,-0.0,0.0,0.0,0.0,15842.289553280923,0.0,0.0,0.0,15842.289553280922,0.3201220373258321,0.3265275952439442,0.774812709894083,0.0,0.0,0.0,"[2.0, 0.9502342145597495, 1.2119705534158989, 1.0596623453586318, 1.572657317707236, 1.0937448749093157, 2.0, 2.0]",21.27,0.0,0.0,0.0,371.5662052843338,113.68386879440327,-1122.2428203079844,-833.2265420154491,0.0,0.0,0.0,0.0,0.0,0.0,0.0,-5.7,20.86350455893708,0.0,20.36922171332653,0.0,-5.7,21.27,19.09,21.64,20.54,21.41,-6.18,-5.7,3343.69,-798.87,-932.14,0.0,320.0,0.0,110.0,0.0,0.0,0.0,0.0,0.0,0.0,0.0,0.0,0.0,0.0,0.0,0.0,0.0,0.0
27.0,435.0,0.0,3207.0745323443584,-0.0,0.0,3642.0745323443584,0.0,6526.850852694005,0.0,0.0,0.0,6526.850852694005,0.1652719296581298,0.3265275952439442,0.774812709894083,0.0,0.0,0.0,"[2.0, 0.9502342145597495, 1.2119705534158989, 1.0596623453586318, 1.572657317707236, 1.0937448749093157, 2.0, 2.0]",20.52,0.0,0.0,0.0,311.5115539576599,112.13831770807451,-1082.819136057145,124.04851441224122,0.0,0.0,0.0,0.0,0.0,0.0,0.0,-5.5,20.597919395453545,0.0,20.32463740421987,0.0,-5.5,20.52,19.1,21.55,20.17,21.11,-5.96,-5.5,3031.45,-770.81,-899.4,0.0,320.0,0.0,65.0,0.0,0.0,0.0,0.0,0.0,0.0,0.0,0.0,0.0,0.0,0.0,0.0,0.0,0.0
28.0,574.0,10683.65007591521,10056.231825535633,-0.0,0.0,0.0,0.0,20561.725052194404,0.0,0.0,0.0,20561.725052194404,0.1652719296581298,0.3265275952439442,0.7748127098940827,0.0,0.0,0.0,"[2.0, 0.9502342145597495, 1.2119705534158989, 1.0596623453586318, 1.572657317707236, 1.0937448749093157, 2.0, 2.0]",20.25,0.0,0.0,0.0,290.43974647461636,112.82522930199839,-1067.1635857565566,399.0565152442002,7724.780204161152,0.0,0.0,0.0,0.0,0.0,0.0,-5.4,20.46005772621777,0.0,20.26022275357184,0.0,-5.4,20.25,19.08,21.44,20.01,20.95,-5.86,-5.4,835.04,-759.66,-886.39,0.0,320.0,2.0,49.0,0.0,0.0,0.0,0.0,0.0,0.0,0.0,0.0,0.0,0.0,0.0,0.0,0.0,0.0
29.0,1291.0,0.0,2596.195785559214,-0.0,0.0,3887.195785559214,0.0,5357.877085075242,0.0,0.0,0.0,5357.877085075242,0.0,0.3265275952439442,0.7748127098940827,0.0,0.0,0.0,"[2.0, 0.9502342145597495, 1.2119705534158989, 1.0596623453586318, 1.572657317707236, 1.0937448749093157, 2.0, 2.0]",24.0,0.0,0.0,0.0,290.29926775806274,147.23950015758516,-1214.954926635407,-4534.624012181511,4171.953817863629,0.0,0.0,0.0,0.0,0.0,0.0,-5.2,21.727716597550504,0.0,20.431232397100757,0.0,-5.2,24.0,19.19,21.67,22.98,23.05,-5.65,-5.2,1467.65,-864.87,-1009.15,0.0,320.0,58.0,43.0,0.0,0.0,0.0,0.0,0.0,0.0,0.0,0.0,0.0,0.0,0.0,0.0,0.0,0.0
30.0,782.0,11453.629331907514,8473.64521317651,-0.0,0.0,-2140.7159720714662,0.0,17568.195470324557,0.0,0.0,0.0,17568.195470324557,0.08741256885958487,0.3265275952439442,0.7748127098940827,0.0,0.0,0.0,"[2.0, 0.9502342145597495, 1.2119705534158989, 1.0596623453586318, 1.572657317707236, 1.0937448749093157, 2.0, 2.0]",23.42,0.0,0.0,0.0,539.7192289990211,284.2440175657044,-1186.5302829553755,-3479.696017684791,0.0,0.0,0.0,0.0,0.0,0.0,0.0,-5.1,21.67580158454911,0.0,20.596078445453962,0.0,-5.1,23.42,19.3,21.89,22.28,22.68,-5.56,-5.1,3575.62,-844.63,-985.54,0.0,676.0,82.0,40.0,0.0,0.0,0.0,0.0,0.0,0.0,0.0,0.0,0.0,0.0,0.0,0.0,0.0,0.0
31.0,707.0,6948.175918063204,6206.435038472889,-0.0,0.0,0.0,0.0,12926.81349551074,0.0,0.0,0.0,12926.81349551074,0.08741256885958487,0.3265275952439442,0.7748127098940827,0.0,0.0,0.0,"[2.0, 0.9502342145597495, 1.2119705534158989, 1.0596623453586318, 1.572657317707236, 1.0937448749093157, 2.0, 2.0]",21.46,0.0,0.0,0.0,388.77484806215284,202.12373651210373,-1101.1191757443326,-749.6004503332571,6316.667959613253,0.0,0.0,0.0,0.0,0.0,0.0,-5.0,21.097732979167326,0.0,20.619699023357107,0.0,-5.0,21.46,19.34,21.9,20.83,21.69,-5.45,-5.0,2918.26,-783.83,-914.6,0.0,411.0,95.0,65.0,0.0,0.0,0.0,0.0,0.0,0.0,0.0,0.0,0.0,0.0,0.0,0.0,0.0,0.0
32.0,890.0,16974.874371859296,0.0,-0.0,0.0,-16000.0,0.0,0.0,0.0,0.0,0.0,0.0,0.7029057661384964,0.3265275952439442,0.7748127098940827,0.0,0.0,0.0,"[2.0, 0.9502342145597495, 0.715222283421614, 1.0596623453586318, 0.9434209018135427, 1.0147147647080246, 1.123628595187565, 1.637315433545055]",24.0,0.0,0.0,0.8544393773362439,336.23580807109767,160.49689392031615,-1198.3117084623193,-4025.5481418258214,0.0,0.0,0.0,0.0,0.0,0.0,0.0,-4.8,21.984047393915283,0.0,20.775897222327437,0.0,-4.8,24.0,19.44,22.11,22.97,23.22,-5.26,-4.8,372.86,-853.02,-995.33,1.24,342.0,66.0,65.0,0.0,0.0,0.0,0.0,0.0,0.0,0.0,0.0,0.0,0.0,0.0,0.0,0.0,0.0
33.0,783.0,0.0,0.0,-0.0,6.700187367709178,776.2998126322908,0.0,12887.635698079932,0.0,12887.635698079934,0.0,0.0,0.6698998217238582,0.27173322577931863,0.7748127098940827,0.0,0.0,0.0,"[2.0, 0.9502342145597495, 0.715222283421614, 1.0596623453586318, 0.9434209018135427, 1.0147147647080246, 1.123628595187565, 1.637315433545055]",21.61,0.0,0.0,26.393173967867373,375.14841255645126,139.40870798685285,-1057.2255087839508,-687.7246471073901,5966.12616231717,0.0,0.0,0.0,0.0,0.0,0.0,-3.8,21.273517072224124,0.0,20.800380194500356,0.0,-3.8,21.61,19.48,22.12,20.93,21.85,-4.21,-3.8,2727.59,-752.59,-878.14,38.42,327.0,38.0,105.0,0.0,0.0,0.0,0.0,0.0,0.0,0.0,0.0,0.0,0.0,0.0,0.0,0.0,0.0
34.0,2167.0,40187.73874225509,21687.721750512253,-0.0,116.71770056782992,-8084.085998599391,0.0,17267.904933495713,40823.55,0.0,0.0,49926.74493349571,1.0,0.27173322577931863,0.7748127098940827,32658.840000000004,8164.710000000001,40823.55,"[2.0, 0.9502342145597495, 0.715222283421614, 1.0596623453586318, 0.9434209018135427, 1.0147147647080246, 1.123628595187565, 1.637315433545055]",24.0,0.0,0.0,51.90914128478408,409.21450132070504,120.00345545850303,-1110.9348130536087,-3783.60309925149,0.0,0.0,0.0,0.0,0.0,0.0,0.0,-2.7,22.105049760716874,0.0,20.943597542140672,0.0,-2.7,24.0,19.59,22.3,22.99,23.31,-3.12,-2.7,0.0,-790.82,-922.75,75.57,310.0,14.0,142.0,0.0,0.0,0.0,0.0,0.0,0.0,0.0,0.0,0.0,0.0,0.0,0.0,0.0,0.0
35.0,1790.0,0.0,6745.522602625464,-0.0,580.0965422424217,7955.426060383043,0.0,16171.764992975122,0.0,0.0,0.0,16171.764992975122,0.6617590960721496,0.27173322577931863,0.7748127098940827,0.0,0.0,0.0,"[2.0, 0.9502342145597495, 0.715222283421614, 1.0596623453586318, 0.9434209018135427, 1.0147147647080246, 1.123628595187565, 1.637315433545055]",21.82,0.0,0.0,81.03524115787567,308.1400647603729,68.4507403345153,-978.5804717617235,-737.7048337576575,0.0,0.0,0.0,0.0,0.0,0.0,0.0,-1.7,21.45739487559579,0.0,20.968253251167965,0.0,-1.7,21.82,19.63,22.3,21.12,22.04,-2.1,-1.7,1450.77,-696.6,-812.82,117.97,186.0,0.0,133.0,0.0,0.0,0.0,0.0,0.0,0.0,0.0,0.0,0.0,0.0,0.0,0.0,0.0,0.0
36.0,3116.0,2881.6300557839972,4627.060078162027,-0.0,825.0910572757186,4050.747115381231,0.0,11401.72580103503,0.0,0.0,0.0,11401.72580103503,0.48953345341138294,0.27173322577931863,0.7748127098940827,0.0,0.0,0.0,"[2.0, 0.9502342145597495, 0.715222283421614, 1.0596623453586318, 0.9434209018135427, 1.0147147647080246, 1.123628595187565, 1.637315433545055]",21.18,0.0,0.0,90.15354909082811,1420.1695849988555,75.59462091132374,-922.8625416234662,73.8663707251059,4871.038831404687,0.0,0.0,0.0,0.0,0.0,0.0,-1.0,21.226682129286427,0.0,20.92848808101531,0.0,-1.0,21.18,19.65,22.21,20.79,21.77,-1.54,-1.0,647.3,-656.94,-766.54,131.24,120.0,0.0,1001.0,0.0,0.0,0.0,0.0,0.0,0.0,0.0,0.0,0.0,0.0,0.0,0.0,0.0,0.0
37.0,1447.0,0.0,3982.5908196316,-0.0,236.8857572345164,5192.705062397084,0.0,9927.56482801377,0.0,0.0,0.0,9927.56482801377,0.2687551769489219,0.27173322577931863,0.7527253939550489,0.0,0.0,0.0,"[2.0, 0.9502342145597495, 0.715222283421614, 1.0596623453586318, 0.9434209018135427, 1.0147147647080246, 1.123628595187565, 1.637315433545055]",24.0,0.0,0.0,63.00729119924384,347.0526692457266,89.95107322433299,-1027.7187221881697,-3660.3940384644607,0.0,0.0,0.0,0.0,0.0,0.0,0.0,-0.7,22.166348290172262,0.0,21.044126940878755,0.0,-0.7,24.0,19.74,22.35,22.89,23.24,-1.26,-0.7,898.48,-731.58,-853.63,91.73,249.0,0.0,129.0,0.0,0.0,0.0,0.0,0.0,0.0,0.0,0.0,0.0,0.0,0.0,0.0,0.0,0.0
38.0,3108.0,0.0,3213.351869612729,-0.0,0.23010777408477723,6321.121761838644,0.0,7826.248642523741,0.0,0.0,0.0,7826.248642523741,0.0,0.27173322577931863,0.7527253939550484,0.0,0.0,0.0,"[2.0, 0.9502342145597495, 0.715222283421614, 1.0596623453586318, 0.9434209018135427, 1.0147147647080246, 1.123628595187565, 1.637315433545055]",21.88,0.0,0.0,14.810745102148992,1647.0427122329572,69.06896076904681,-964.6332724977857,-705.8763901779432,0.0,0.0,0.0,0.0,0.0,0.0,0.0,-1.3,21.53812728617898,0.0,21.068588120792654,0.0,-1.3,21.88,19.78,22.35,21.2,22.1,-1.8,-1.3,3256.55,-686.68,-801.23,21.56,82.0,0.0,1191.0,0.0,0.0,0.0,0.0,0.0,0.0,0.0,0.0,0.0,0.0,0.0,0.0,0.0,0.0
39.0,1719.0,22236.11061229895,4405.930059237458,-0.0,0.0,-16000.0,0.0,10478.802631140894,0.0,0.0,0.0,10478.802631140894,0.6533333333333333,0.27173322577931863,0.7527253939550484,0.0,0.0,0.0,"[2.0, 0.9502342145597495, 0.715222283421614, 1.0596623453586318, 0.9434209018135427, 1.0147147647080246, 1.123628595187565, 1.637315433545055]",21.91,0.0,0.0,1.699612121202519,620.1432942259704,42.966320199939126,-990.6876103978987,-786.4733436355626,0.0,0.0,0.0,0.0,0.0,0.0,0.0,-1.9,21.52397025700721,0.0,21.047264546416343,0.0,-1.9,21.91,19.8,22.29,21.19,22.05,-2.41,-1.9,463.86,-705.22,-822.87,2.47,83.0,0.0,421.0,0.0,0.0,0.0,0.0,0.0,0.0,0.0,0.0,0.0,0.0,0.0,0.0,0.0,0.0
40.0,3383.0,0.0,4016.8858983897217,-0.0,0.0,7399.885898389722,0.0,9476.934670546307,0.0,0.0,0.0,9476.934670546307,0.3387123342521377,0.27173322577931863,0.7527253939550484,0.0,0.0,0.0,"[2.0, 0.9502342145597495, 0.715222283421614, 1.0596623453586318, 0.9434209018135427, 1.0147147647080246, 1.123628595187565, 1.637315433545055]",21.35,0.0,0.0,0.0,512.0449218379573,131.5435702364243,-975.5830611004819,-77.12953491783124,1259.6996369690617,0.0,0.0,0.0,0.0,0.0,0.0,-2.1,21.318205211614007,0.0,21.00852131306946,0.0,-2.1,21.35,19.81,22.2,20.89,21.81,-2.62,-2.1,3253.92,-694.47,-810.33,0.0,326.0,20.0,210.0,0.0,0.0,0.0,0.0,0.0,0.0,0.0,0.0,0.0,0.0,0.0,0.0,0.0,0.0
41.0,6663.0,16911.73034454439,3084.192495367821,-0.0,0.0,-7079.979197453848,0.0,7217.650219059028,0.0,0.0,0.0,7217.650219059028,0.6278114848148365,0.27173322577931863,0.7527253939550484,0.0,0.0,0.0,"[2.0, 0.9502342145597495, 0.715222283421614, 1.0596623453586318, 0.9434209018135427, 1.0147147647080246, 1.123628595187565, 1.637315433545055]",21.77,0.0,0.0,0.0,627.0267513370981,205.83305911929264,-1001.4119983893307,-684.9647611775088,0.0,0.0,0.0,0.0,0.0,0.0,0.0,-2.3,21.432974097135247,0.0,20.997725379195376,0.0,-2.3,21.77,19.83,22.16,21.32,22.06,-2.81,-2.3,0.0,-712.86,-831.78,0.0,447.0,72.0,227.0,0.0,0.0,0.0,0.0,0.0,0.0,0.0,0.0,0.0,0.0,0.0,0.0,0.0,0.0
42.0,5181.0,0.0,2544.1712061907533,-0.0,0.0,7725.171206190753,0.0,5905.379651474506,0.0,0.0,0.0,5905.379651474506,0.29936032808903923,0.27173322577931863,0.6364763626969756,0.0,0.0,0.0,"[2.0, 0.9502342145597495, 0.715222283421614, 1.0596623453586318, 0.9434209018135427, 1.0147147647080246, 1.123628595187565, 1.637315433545055]",21.33,0.0,0.0,0.0,497.9268108243181,151.49835203991324,-991.3330173396861,-129.24064756679957,0.0,0.0,0.0,0.0,0.0,0.0,0.0,-2.5,21.27066099864054,0.0,20.96668590591776,0.0,-2.5,21.33,19.84,22.09,20.95,21.77,-3.07,-2.5,2367.12,-705.68,-823.41,0.0,243.0,97.0,235.0,0.0,0.0,0.0,0.0,0.0,0.0,0.0,0.0,0.0,0.0,0.0,0.0,0.0,0.0
43.0,4331.0,23130.375687351137,2683.723808914384,-0.0,0.0,-16000.0,0.0,6178.131369490355,0.0,0.0,0.0,6178.131369490355,0.9526936614223726,0.27173322577931863,0.6318264014466527,0.0,0.0,0.0,"[2.0, 0.9502342145597495, 0.715222283421614, 1.0596623453586318, 0.9434209018135427, 1.0147147647080246, 1.123628595187565, 1.637315433545055]",21.08,0.0,0.0,0.0,2619.085191425754,253.19561352034466,-989.4039843517609,130.72827685167343,0.0,0.0,0.0,0.0,0.0,0.0,0.0,-2.7,21.15527014199082,0.0,20.91908614654637,0.0,-2.7,21.08,19.84,22.0,20.8,21.62,-3.29,-2.7,0.0,-704.31,-821.81,0.0,384.0,99.0,1750.0,0.0,0.0,0.0,0.0,0.0,0.0,0.0,0.0,0.0,0.0,0.0,0.0,0.0,0.0
44.0,5405.0,0.0,0.0,-0.0,0.0,5405.0,0.0,1886.3944203435524,0.0,1886.3944203435524,0.0,0.0,0.45795403491871683,0.26371284133908246,0.6318264014466527,0.0,0.0,0.0,"[0.4832445826307996, 0.9502342145597495, 0.18598339765593508, 0.2692188040580028, 0.9434209018135427, 0.6576299868389803, 1.123628595187565, 0.5361589203345538]",22.08,0.0,0.0,0.0,1002.5263606849334,226.921245052756,-1039.3149558276796,-1278.761607514257,0.0,0.0,0.0,0.0,0.0,0.0,0.0,-2.9,21.445144111730805,0.0,20.9061645234203,0.0,-2.9,22.08,19.85,21.97,21.32,21.95,-3.46,-2.9,0.0,-739.84,-863.26,0.0,501.0,62.0,481.0,0.0,0.0,0.0,0.0,0.0,0.0,0.0,0.0,0.0,0.0,0.0,0.0,0.0,0.0
45.0,6810.0,0.0,0.0,-0.0,0.0,6810.0,0.0,879.6597144517914,0.0,879.6597144517914,0.0,0.0,0.16841321859218622,0.25997279153273983,0.6318264014466527,0.0,0.0,0.0,"[0.4832445826307996, 0.9502342145597495, 0.18598339765593508, 0.2692188040580028, 0.9434209018135427, 0.6576299868389803, 1.123628595187565, 0.5361589203345538]",21.52,0.0,0.0,0.0,900.2578550338956,154.65814537196312,-1024.2550778120396,-523.2332394239088,510.7565260677526,0.0,0.0,0.0,0.0,0.0,0.0,-3.1,21.263717908283315,0.0,20.89549103993499,0.0,-3.1,21.52,19.86,21.93,21.04,21.74,-3.66,-3.1,0.0,-729.12,-850.75,0.0,321.0,44.0,501.0,0.0,0.0,0.0,0.0,0.0,0.0,0.0,0.0,0.0,0.0,0.0,0.0,0.0,0.0
46.0,4003.0,12330.402850920622,4785.067452606845,-0.0,0.0,-3480.683384059174,0.0,10741.87528069309,0.0,0.0,0.0,10741.87528069309,0.31054112344126916,0.25997279153273983,0.6318264014466527,0.0,0.0,0.0,"[0.4832445826307996, 0.9502342145597495, 0.18598339765593508, 0.2692188040580028, 0.9434209018135427, 0.6576299868389803, 1.123628595187565, 0.5361589203345538]",21.52,0.0,0.0,0.0,669.7322811693995,219.29652636020086,-1032.5766868985834,-553.6673927133991,722.9994550676126,0.0,0.0,0.0,0.0,0.0,0.0,-3.3,21.248483516553087,0.0,20.879111580746702,0.0,-3.3,21.52,19.86,21.9,21.07,21.75,-3.9,-3.3,203.14,-735.04,-857.67,0.0,536.0,45.0,215.0,0.0,0.0,0.0,0.0,0.0,0.0,0.0,0.0,0.0,0.0,0.0,0.0,0.0,0.0
47.0,2599.0,25767.43258397591,7039.59542105603,-0.0,0.0,-16000.0,0.0,15735.896708873219,0.0,0.0,0.0,15735.896708873219,0.9638744567746025,0.25997279153273983,0.6318264014466527,0.0,0.0,0.0,"[0.4832445826307996, 0.9502342145597495, 0.18598339765593508, 0.2692188040580028, 0.9434209018135427, 0.6576299868389803, 1.123628595187565, 0.5361589203345538]",21.52,0.0,0.0,0.0,352.4610998330412,125.08660125353977,-1036.7374914418556,-572.3577893708853,3064.4713842173624,0.0,0.0,0.0,0.0,0.0,0.0,-3.4,21.239106614855036,0.0,20.86989605927867,0.0,-3.4,21.52,19.87,21.87,21.13,21.77,-3.99,-3.4,792.69,-738.0,-861.12,0.0,332.0,13.0,88.0,0.0,0.0,0.0,0.0,0.0,0.0,0.0,0.0,0.0,0.0,0.0,0.0,0.0,0.0
48.0,1687.0,0.0,6551.655597549233,-0.0,0.0,8238.655597549234,0.0,13895.677464075423,0.0,0.0,0.0,13895.677464075423,0.6135914806883256,0.25997279153273983,0.6318264014466527,0.0,0.0,0.0,"[0.4832445826307996, 0.9502342145597495, 0.18598339765593508, 0.2692188040580028, 0.9434209018135427, 0.6576299868389803, 1.123628595187565, 0.5361589203345538]",22.48,0.0,0.0,0.0,290.1587890415091,123.26628552964151,-1126.8808710595545,-1831.4588896400685,2559.4079410594036,0.0,0.0,0.0,0.0,0.0,0.0,-4.6,21.572104356309143,0.0,20.923594187284323,0.0,-4.6,22.48,19.91,21.94,21.91,22.32,-5.17,-4.6,2851.85,-802.17,-936.0,0.0,320.0,19.0,47.0,0.0,0.0,0.0,0.0,0.0,0.0,0.0,0.0,0.0,0.0,0.0,0.0,0.0,0.0
49.0,3578.0,0.0,2885.3716663310097,-0.0,0.0,6463.37166633101,0.0,5789.618560708394,0.0,0.0,0.0,5789.618560708394,0.33878826358241537,0.25997279153273983,0.6318264014466527,0.0,0.0,0.0,"[0.4832445826307996, 0.9502342145597495, 0.18598339765593508, 0.2692188040580028, 0.9434209018135427, 0.6576299868389803, 1.123628595187565, 0.5361589203345538]",22.48,0.0,0.0,0.0,436.60785104866153,119.65999966154108,-1176.8105255788178,-1741.8720677158285,458.26745930744084,0.0,0.0,0.0,0.0,0.0,0.0,-5.8,21.617744824789924,0.0,20.984134529694337,0.0,-5.8,22.48,19.95,22.02,21.86,22.33,-6.37,-5.8,593.6,-837.71,-977.47,0.0,320.0,7.0,158.0,0.0,0.0,0.0,0.0,0.0,0.0,0.0,0.0,0.0,0.0,0.0,0.0,0.0,0.0
50.0,1098.0,0.0,0.0,-0.0,0.0,1098.0,0.0,10524.467699247341,0.0,10524.46769924734,0.0,0.0,0.29210459011302764,0.2152259050563481,0.6318264014466527,0.0,0.0,0.0,"[0.4832445826307996, 0.9502342145597495, 0.18598339765593508, 0.2692188040580028, 0.9434209018135427, 0.6576299868389803, 1.123628595187565, 0.5361589203345538]",21.52,0.0,0.0,0.0,292.82788465602795,111.65747959232779,-1186.5264549996452,-419.6834939084462,1214.8529133809473,0.0,0.0,0.0,0.0,0.0,0.0,-7.0,21.317548599680546,0.0,20.97673632376368,0.0,-7.0,21.52,19.95,22.0,21.1,21.8,-7.6,-7.0,3092.48,-844.63,-985.54,0.0,320.0,0.0,51.0,0.0,0.0,0.0,0.0,0.0,0.0,0.0,0.0,0.0,0.0,0.0,0.0,0.0,0.0
51.0,813.0,0.0,6057.299959458411,-0.0,0.0,6870.299959458411,0.0,11114.795152055127,0.0,0.0,0.0,11114.795152055127,0.0,0.2152259050563481,0.6318264014466527,0.0,0.0,0.0,"[0.4832445826307996, 0.9502342145597495, 0.18598339765593508, 0.2692188040580028, 0.9434209018135427, 0.6576299868389803, 1.123628595187565, 0.5361589203345538]",21.52,0.0,0.0,0.0,419.60992634567305,114.92030966346627,-1211.4912822592769,-447.71235287911907,3056.4018836263567,0.0,0.0,0.0,0.0,0.0,0.0,-7.6,21.30368294611282,0.0,20.960172213548844,0.0,-7.6,21.52,19.95,21.97,21.2,21.85,-8.21,-7.6,1577.47,-862.4,-1006.27,0.0,320.0,0.0,146.0,0.0,0.0,0.0,0.0,0.0,0.0,0.0,0.0,0.0,0.0,0.0,0.0,0.0,0.0
52.0,476.0,10184.66232270377,9657.739011090252,-0.0,0.0,0.0,0.0,17076.90128150381,0.0,0.0,0.0,17076.901281503815,0.0,0.2152259050563481,0.6318264014466527,0.0,0.0,0.0,"[0.4832445826307996, 0.9502342145597495, 0.18598339765593508, 0.2692188040580028, 0.9434209018135427, 0.6576299868389803, 1.123628595187565, 0.5361589203345538]",22.48,0.0,0.0,0.0,232.84347268763074,116.25978727161784,-1280.8306391606206,-1721.0343011595307,748.2146110045157,0.0,0.0,0.0,0.0,0.0,0.0,-8.3,21.62932049618057,0.0,21.00272866977627,0.0,-8.3,22.48,19.98,22.03,21.94,22.38,-8.93,-8.3,727.19,-911.76,-1063.87,0.0,320.0,10.0,5.0,0.0,0.0,0.0,0.0,0.0,0.0,0.0,0.0,0.0,0.0,0.0,0.0,0.0,0.0
53.0,539.0,4733.29481985753,4170.628345758242,-0.0,0.0,0.0,0.0,7135.983401707968,0.0,0.0,0.0,7135.983401707968,0.0,0.2152259050563481,0.6318264014466527,0.0,0.0,0.0,"[0.4832445826307996, 0.9502342145597495, 0.18598339765593508, 0.2692188040580028, 0.9434209018135427, 0.6576299868389803, 1.123628595187565, 0.5361589203345538]",21.52,0.0,0.0,0.0,318.53548978534104,119.69434524123726,-1265.5817413218124,-396.2610991919473,3155.902805792219,0.0,0.0,0.0,0.0,0.0,0.0,-8.9,21.330170994173915,0.0,20.995468984943535,0.0,-8.9,21.52,19.98,22.02,21.15,21.84,-9.55,-8.9,2463.39,-900.91,-1051.2,0.0,320.0,12.0,69.0,0.0,0.0,0.0,0.0,0.0,0.0,0.0,0.0,0.0,0.0,0.0,0.0,0.0,0.0
54.0,700.0,14532.285299316485,4866.609340369346,-0.0,0.0,-8893.014532450557,0.0,8094.838873493072,0.0,0.0,0.0,8094.838873493072,0.3631314267417311,0.2152259050563481,0.6318264014466527,0.0,0.0,0.0,"[0.4832445826307996, 0.9502342145597495, 0.18598339765593508, 0.2692188040580028, 0.9434209018135427, 0.6576299868389803, 1.123628595187565, 0.5361589203345538]",22.48,0.0,0.0,0.0,594.8571252463182,214.00730708698688,-1326.5994891366076,-1672.2060569356343,2215.1034072676625,0.0,0.0,0.0,0.0,0.0,0.0,-9.4,21.654396418412905,0.0,21.03577892939528,0.0,-9.4,22.48,20.0,22.07,21.97,22.42,-10.05,-9.4,1900.77,-944.34,-1101.88,0.0,588.0,12.0,135.0,0.0,0.0,0.0,0.0,0.0,0.0,0.0,0.0,0.0,0.0,0.0,0.0,0.0,0.0
55.0,1233.0,0.0,7307.851156965517,-0.0,0.0,8540.851156965517,0.0,11807.120565525252,0.0,0.0,0.0,11807.12056552525,0.0,0.2152259050563481,0.6318264014466527,0.0,0.0,0.0,"[0.4832445826307996, 0.9502342145597495, 0.18598339765593508, 0.2692188040580028, 0.9434209018135427, 0.6576299868389803, 1.123628595187565, 0.5361589203345538]",22.48,0.0,0.0,0.0,492.1671834456195,167.36600985955502,-1347.4035118529675,-1601.604185388218,2309.152863166556,0.0,0.0,0.0,0.0,0.0,0.0,-9.9,21.690186113483286,0.0,21.081941566849814,0.0,-9.9,22.48,20.02,22.14,21.9,22.4,-10.57,-9.9,627.37,-959.15,-1119.16,0.0,432.0,23.0,139.0,0.0,0.0,0.0,0.0,0.0,0.0,0.0,0.0,0.0,0.0,0.0,0.0,0.0,0.0
56.0,1211.0,25475.960669693985,8137.580866345518,-0.0,0.0,-16000.0,0.0,13302.851150238688,0.0,0.0,0.0,13302.851150238688,0.6533333333333333,0.2152259050563481,0.6318264014466527,0.0,0.0,0.0,"[0.4832445826307996, 0.9502342145597495, 0.18598339765593508, 0.2692188040580028, 0.9434209018135427, 0.6576299868389803, 1.123628595187565, 0.5361589203345538]",22.48,0.0,0.0,3.535959887417388,864.3655429544449,218.91872498354277,-1339.0819027664234,-1537.1098155601644,0.0,0.0,0.0,0.0,0.0,0.0,0.0,-9.7,21.722605110275854,0.0,21.123795638772997,0.0,-9.7,22.48,20.05,22.2,21.91,22.44,-10.39,-9.7,3017.94,-953.23,-1112.25,5.15,544.0,32.0,358.0,0.0,0.0,0.0,0.0,0.0,0.0,0.0,0.0,0.0,0.0,0.0,0.0,0.0,0.0
57.0,1703.0,0.0,0.0,-0.0,8201.50714863608,-5793.768667733122,0.0,634.2646328126616,0.0,0.0,0.0,0.0,0.8899122205991025,0.2152259050563481,0.6318264014466527,2818.9539236118308,704.7384809029577,3523.692404514788,"[0.4832445826307996, 0.9502342145597495, 0.18598339765593508, 0.2692188040580028, 0.9434209018135427, 0.6576299868389803, 1.123628595187565, 0.5361589203345538]",21.57,0.0,0.0,978.4447589941713,721.2177307863025,224.34532657554146,-1201.1687704649548,-304.4334389603742,0.0,0.0,0.0,0.0,0.0,0.0,0.0,-7.3,21.42743068347239,0.0,21.101529627409125,0.0,-7.3,21.57,20.04,22.17,21.16,21.91,-7.31,-7.3,1459.52,-855.05,-997.7,1424.41,572.0,32.0,236.0,0.0,0.0,0.0,0.0,0.0,0.0,0.0,0.0,0.0,0.0,0.0,0.0,0.0,0.0
58.0,1694.0,2824.8223734088865,15253.233029276158,-0.0,14136.534767734316,0.0,0.0,1803.3881107664788,0.0,-29675.342490157054,0.0,31478.730600923533,0.8899122205991025,0.3364002202244894,0.6318264014466527,0.0,0.0,0.0,"[0.4832445826307996, 0.9502342145597495, 0.18598339765593508, 0.2692188040580028, 0.9434209018135427, 0.6576299868389803, 1.123628595187565, 0.5361589203345538]",21.76,0.0,0.0,1350.6974223144316,967.2662028299738,188.52288695241074,-1121.5649929060617,-547.7755002754603,0.0,0.0,0.0,0.0,0.0,0.0,0.0,-5.2,21.49076942129685,0.0,21.11179271961128,0.0,-5.2,21.76,20.05,22.17,21.61,22.23,-5.06,-5.2,884.11,-798.39,-931.58,1966.33,450.0,28.0,485.0,0.0,0.0,0.0,0.0,0.0,0.0,0.0,0.0,0.0,0.0,0.0,0.0,0.0,0.0
59.0,1520.0,0.0,3895.984917926475,-12332.17951403216,17748.164431958634,0.0,0.0,8708.855066364327,0.0,0.0,0.0,8708.855066364325,0.8899122205991025,0.3364002202244894,0.6624226949245047,0.0,0.0,0.0,"[0.4832445826307996, 0.9502342145597495, 0.18598339765593508, 0.2692188040580028, 0.9434209018135427, 0.6576299868389803, 1.123628595187565, 0.5361589203345538]",22.15,0.0,0.0,1670.3905198072157,1380.5545869307336,177.39491913084376,-1063.1409983022354,-1031.993772250153,-417.3221132908929,0.0,0.0,0.0,0.0,0.0,0.0,-3.4,21.641993634943425,0.0,21.154266183020887,0.0,-3.4,22.15,20.08,22.23,21.94,22.48,-3.11,-3.4,0.0,-756.8,-883.05,2431.74,436.0,0.0,805.0,0.0,0.0,0.0,0.0,0.0,0.0,0.0,0.0,0.0,0.0,0.0,0.0,0.0,0.0
60.0,1764.0,0.0,3076.9172912837757,-13467.039510398161,18307.956801681936,0.0,0.0,7171.291535539126,0.0,0.0,0.0,7171.291535539126,0.8899122205991025,0.3364002202244894,0.695834590418657,0.0,0.0,0.0,"[0.4832445826307996, 0.9502342145597495, 0.18598339765593508, 0.2692188040580028, 0.9434209018135427, 0.6576299868389803, 1.123628595187565, 0.5361589203345538]",22.48,0.0,0.0,1721.7853167593344,828.8244276663779,182.71848398375388,-1035.3431711075716,-1382.0214088082707,-257.0935055500192,0.0,0.0,0.0,0.0,0.0,0.0,-2.4,21.797255163780168,0.0,21.227577447949564,0.0,-2.4,22.48,20.14,22.32,22.24,22.72,-2.09,-2.4,194.26,-737.01,-859.96,2506.56,496.0,0.0,360.0,0.0,0.0,0.0,0.0,0.0,0.0,0.0,0.0,0.0,0.0,0.0,0.0,0.0,0.0
61.0,2849.0,0.0,3177.2471235771536,-7455.713094293551,16177.987468504929,-2696.0272506342253,0.0,7495.996695946104,0.0,0.0,0.0,7495.996695946104,1.0,0.3364002202244894,0.7143323089817144,0.0,0.0,0.0,"[0.4832445826307996, 0.9502342145597495, 0.18598339765593508, 0.2692188040580028, 0.9434209018135427, 0.6576299868389803, 1.123628595187565, 0.5361589203345538]",22.48,0.0,0.0,1478.189823168098,671.9097012759808,159.15741631216454,-1022.8607574777559,-1265.5064442760279,29.920758806972465,0.0,0.0,0.0,0.0,0.0,0.0,-2.1,21.855887106143925,0.0,21.306661828449016,0.0,-2.1,22.48,20.19,22.42,22.29,22.8,-1.91,-2.1,0.0,-728.13,-849.6,2151.94,436.0,0.0,274.0,0.0,0.0,0.0,0.0,0.0,0.0,0.0,0.0,0.0,0.0,0.0,0.0,0.0,0.0
62.0,2739.0,0.0,6306.458132425054,-0.0,9045.458132425054,0.0,0.0,1299.1116371392773,0.0,-13158.701590438606,0.0,14457.813227577883,1.0,0.3901315850521137,0.7042573929393481,0.0,0.0,0.0,"[0.4832445826307996, 0.9502342145597495, 0.18598339765593508, 0.2692188040580028, 0.9434209018135427, 0.6576299868389803, 1.123628595187565, 0.5361589203345538]",22.48,0.0,0.0,755.8593255864007,861.4154899068185,238.22094077280394,-1051.9863892806593,-1173.6807990215461,0.0,0.0,0.0,0.0,0.0,0.0,0.0,-2.8,21.902621801506843,0.0,21.370852222586514,0.0,-2.8,22.48,20.25,22.49,22.23,22.79,-3.03,-2.8,932.82,-748.86,-873.79,1100.37,664.0,0.0,296.0,0.0,0.0,0.0,0.0,0.0,0.0,0.0,0.0,0.0,0.0,0.0,0.0,0.0,0.0
63.0,1412.0,5618.7799076366255,4178.6860080984425,-0.0,0.0,0.0,0.0,8942.42146063462,0.0,0.0,0.0,8942.42146063462,1.0,0.3901315850521137,0.7042573929393481,0.0,0.0,0.0,"[0.4832445826307996, 0.9502342145597495, 0.18598339765593508, 0.2692188040580028, 0.9434209018135427, 0.6576299868389803, 1.123628595187565, 0.5361589203345538]",22.27,0.0,0.0,11.904708385451356,575.8924985115791,120.24387451637637,-1109.867676481605,-852.116245298959,0.0,0.0,0.0,0.0,0.0,0.0,0.0,-4.4,21.856554847641693,0.0,21.39713736567051,0.0,-4.4,22.27,20.28,22.51,21.92,22.57,-5.15,-4.4,0.0,-790.06,-921.87,17.33,324.0,0.0,261.0,0.0,0.0,0.0,0.0,0.0,0.0,0.0,0.0,0.0,0.0,0.0,0.0,0.0,0.0
64.0,2896.0,0.0,3149.9253180334113,-0.0,0.0,6045.925318033411,0.0,6530.6609271395855,0.0,0.0,0.0,6530.6609271395855,0.7429453521244298,0.3901315850521137,0.6976699478347239,0.0,0.0,0.0,"[0.4832445826307996, 0.9502342145597495, 0.18598339765593508, 0.2692188040580028, 0.9434209018135427, 0.6576299868389803, 1.123628595187565, 0.5361589203345538]",21.64,0.0,0.0,0.0,555.9445207609646,182.20330028831097,-1112.4036900483645,-30.8232937638235,191.2180953868132,0.0,0.0,0.0,0.0,0.0,0.0,-5.1,21.631338916861726,0.0,21.360093644612483,0.0,-5.1,21.64,20.28,22.44,21.28,22.1,-5.85,-5.1,0.0,-791.87,-923.97,0.0,414.0,54.0,193.0,0.0,0.0,0.0,0.0,0.0,0.0,0.0,0.0,0.0,0.0,0.0,0.0,0.0,0.0
65.0,5709.0,0.0,246.93035475142173,-0.0,0.0,5955.930354751422,0.0,493.1219902866234,0.0,0.0,0.0,493.1219902866234,0.4897170207149306,0.3901315850521137,0.6976699478347239,0.0,0.0,0.0,"[0.4832445826307996, 0.9502342145597495, 0.18598339765593508, 0.2692188040580028, 0.9434209018135427, 0.6576299868389803, 1.123628595187565, 0.5361589203345538]",21.52,0.0,0.0,0.0,2181.9856648691552,207.27557346653285,-1140.757605023654,56.32958518936011,0.0,0.0,0.0,0.0,0.0,0.0,0.0,-5.9,21.55698043336021,0.0,21.31352925138978,0.0,-5.9,21.52,20.26,22.36,21.26,22.04,-6.63,-5.9,0.0,-812.05,-947.52,0.0,234.0,122.0,1499.0,0.0,0.0,0.0,0.0,0.0,0.0,0.0,0.0,0.0,0.0,0.0,0.0,0.0,0.0
66.0,6034.0,19579.485803433927,950.8623511089355,-0.0,0.0,-12496.726023307821,0.0,1826.3611924831955,0.0,0.0,0.0,1826.3611924831955,1.0,0.3901315850521137,0.6864325414797768,0.0,0.0,0.0,"[0.4832445826307996, 0.9502342145597495, 0.18598339765593508, 0.2692188040580028, 0.9434209018135427, 0.6576299868389803, 1.123628595187565, 0.5361589203345538]",22.16,0.0,0.0,0.0,1085.0576066601873,163.89710631023937,-1200.8878117023994,-883.0756875808111,472.79634990463495,0.0,0.0,0.0,0.0,0.0,0.0,-6.7,21.72941970031693,0.0,21.285746895717587,0.0,-6.7,22.16,20.26,22.31,21.54,22.21,-7.41,-6.7,0.0,-854.85,-997.47,0.0,246.0,91.0,674.0,0.0,0.0,0.0,0.0,0.0,0.0,0.0,0.0,0.0,0.0,0.0,0.0,0.0,0.0
67.0,4165.0,0.0,3289.345134975588,-0.0,0.0,7454.345134975588,0.0,6098.474784033248,0.0,0.0,0.0,6098.4747840332475,0.6830635571864121,0.3901315850521137,0.6864325414797768,0.0,0.0,0.0,"[0.4832445826307996, 0.9502342145597495, 0.18598339765593508, 0.2692188040580028, 0.9434209018135427, 0.6576299868389803, 1.123628595187565, 0.5361589203345538]",21.97,0.0,0.0,0.0,723.8165870425445,203.1541039029895,-1222.0159887763673,-642.1002317712372,62.05225070050402,0.0,0.0,0.0,0.0,0.0,0.0,-7.4,21.65884169820424,0.0,21.271196097513247,0.0,-7.4,21.97,20.26,22.29,21.49,22.16,-8.12,-7.4,0.0,-869.89,-1015.02,0.0,399.0,89.0,323.0,0.0,0.0,0.0,0.0,0.0,0.0,0.0,0.0,0.0,0.0,0.0,0.0,0.0,0.0
68.0,4621.0,18306.549271443862,0.0,-0.0,0.0,-13594.016525086645,0.0,1742.8067365025604,0.0,1742.8067365025604,0.0,0.0,1.0,0.382721692464943,0.6864325414797768,0.0,0.0,0.0,"[0.4832445826307996, 0.9502342145597495, 0.18598339765593508, 0.2692188040580028, 0.9434209018135427, 0.3871393488461692, 0.4564846098056563, 0.5361589203345538]",21.52,0.0,0.0,0.0,1006.1085679570506,257.4544654026728,-1236.4561095189085,-74.67584526450034,77.83959263075866,0.0,0.0,0.0,0.0,0.0,0.0,-8.2,21.491930116485094,0.0,21.234090396229696,0.0,-8.2,21.52,20.24,22.23,21.22,21.95,-8.91,-8.2,0.0,-880.17,-1027.01,0.0,604.0,57.0,430.0,0.0,0.0,0.0,0.0,0.0,0.0,0.0,0.0,0.0,0.0,0.0,0.0,0.0,0.0
69.0,4072.0,0.0,3425.9209448702873,-0.0,0.0,7497.920944870288,0.0,5861.78219956288,0.0,0.0,0.0,5861.782199562881,0.681210844180685,0.382721692464943,0.6864325414797768,0.0,0.0,0.0,"[0.4832445826307996, 0.9502342145597495, 0.18598339765593508, 0.2692188040580028, 0.9434209018135427, 0.3871393488461692, 0.4564846098056563, 0.5361589203345538]",21.52,0.0,0.0,0.0,1022.8255352269318,280.19123916155337,-1265.5817413218122,-140.81309156942487,136.32204672413107,0.0,0.0,0.0,0.0,0.0,0.0,-8.9,21.458893829912718,0.0,21.192027692574143,0.0,-8.9,21.52,20.22,22.16,21.23,21.92,-9.59,-8.9,0.0,-900.91,-1051.2,0.0,648.0,70.0,418.0,0.0,0.0,0.0,0.0,0.0,0.0,0.0,0.0,0.0,0.0,0.0,0.0,0.0,0.0
70.0,4078.0,0.0,0.0,-0.0,0.0,12080.413567681295,0.0,7202.1722109131615,0.0,0.0,0.0,0.0,0.16758781834389525,0.382721692464943,0.6864325414797768,32009.654270725176,8002.413567681294,40012.06783840647,"[0.4832445826307996, 0.9502342145597495, 0.18598339765593508, 0.2692188040580028, 0.9434209018135427, 0.3871393488461692, 0.4564846098056563, 0.5361589203345538]",21.52,0.0,0.0,0.0,822.0112099135273,183.30235883858919,-1298.8681776679878,-200.2737134073649,2433.5969490791167,0.0,0.0,0.0,0.0,0.0,0.0,-9.7,21.429272520575903,0.0,21.153795847520442,0.0,-9.7,21.52,20.2,22.11,21.24,21.9,-10.39,-9.7,1979.62,-924.6,-1078.85,0.0,368.0,69.0,415.0,0.0,0.0,0.0,0.0,0.0,0.0,0.0,0.0,0.0,0.0,0.0,0.0,0.0,0.0
71.0,2689.0,18782.914572864323,0.0,-0.0,0.0,-16000.0,0.0,7827.624524221078,0.0,7827.624524221077,0.0,0.0,0.8209211516772286,0.3494409759503976,0.668995186791066,0.0,0.0,0.0,"[0.4832445826307996, 0.9502342145597495, 0.18598339765593508, 0.2692188040580028, 0.9434209018135427, 0.3871393488461692, 0.4564846098056563, 0.5361589203345538]",22.48,0.0,0.0,0.0,391.1629862435643,163.17584913661932,-1368.2075345693272,-1498.9326626607935,413.7705327377414,0.0,0.0,0.0,0.0,0.0,0.0,-10.4,21.74213420023678,0.0,21.178319047895698,0.0,-10.4,22.48,20.21,22.15,21.99,22.43,-11.08,-10.4,105.6,-973.96,-1136.44,0.0,412.0,31.0,73.0,0.0,0.0,0.0,0.0,0.0,0.0,0.0,0.0,0.0,0.0,0.0,0.0,0.0,0.0
72.0,1489.0,11923.597503646435,10374.979516128204,-0.0,0.0,0.0,0.0,15773.5279599101,0.0,0.0,0.0,15773.5279599101,0.8209211516772286,0.3494409759503976,0.6689951867910656,0.0,0.0,0.0,"[0.4832445826307996, 0.9502342145597495, 0.18598339765593508, 0.2692188040580028, 0.9434209018135427, 0.3871393488461692, 0.4564846098056563, 0.5361589203345538]",21.52,0.0,0.0,0.0,256.79509386002354,110.73014894053054,-1348.7978321872513,-192.50651024132773,3105.0149184515976,0.0,0.0,0.0,0.0,0.0,0.0,-10.9,21.433701257061532,0.0,21.157490724315906,0.0,-10.9,21.52,20.19,22.12,21.22,21.9,-11.61,-10.9,1127.83,-960.14,-1120.32,0.0,320.0,0.0,24.0,0.0,0.0,0.0,0.0,0.0,0.0,0.0,0.0,0.0,0.0,0.0,0.0,0.0,0.0
73.0,887.0,0.0,9633.910212404344,-0.0,0.0,10520.910212404344,0.0,14095.790261861226,0.0,0.0,0.0,14095.790261861226,0.37360354060561535,0.3494409759503976,0.6689951867910656,0.0,0.0,0.0,"[0.4832445826307996, 0.9502342145597495, 0.18598339765593508, 0.2692188040580028, 0.9434209018135427, 0.3871393488461692, 0.4564846098056563, 0.5361589203345538]",22.48,0.0,0.0,0.0,486.33731670864415,116.63758864827597,-1413.9763845453185,-1482.7956804200378,2307.5110335971312,0.0,0.0,0.0,0.0,0.0,0.0,-11.5,21.750745608931634,0.0,21.186950900057383,0.0,-11.5,22.48,20.2,22.17,22.05,22.49,-12.23,-11.5,2440.87,-1006.54,-1174.46,0.0,320.0,0.0,196.0,0.0,0.0,0.0,0.0,0.0,0.0,0.0,0.0,0.0,0.0,0.0,0.0,0.0,0.0
74.0,528.0,4540.378896548606,9470.69076217878,-0.0,0.0,5481.013760112917,0.0,13224.967822052135,0.0,0.0,0.0,13224.967822052136,0.14056724128108655,0.3494409759503976,0.6689951867910656,0.0,0.0,0.0,"[0.4832445826307996, 0.9502342145597495, 0.18598339765593508, 0.2692188040580028, 0.9434209018135427, 0.3871393488461692, 0.4564846098056563, 0.5361589203345538]",22.48,0.0,0.0,0.0,248.787807016467,110.52407546235337,-1443.102016348222,-1428.4091012124848,606.9777791073043,0.0,0.0,0.0,0.0,0.0,0.0,-12.2,21.778452092802254,0.0,21.221038378785504,0.0,-12.2,22.48,20.21,22.23,21.95,22.45,-12.95,-12.2,2553.71,-1027.27,-1198.65,0.0,320.0,0.0,18.0,0.0,0.0,0.0,0.0,0.0,0.0,0.0,0.0,0.0,0.0,0.0,0.0,0.0,0.0
75.0,1133.0,30687.935573812676,13401.495895943612,-0.0,0.0,-16000.0,0.0,18202.94134834341,0.0,0.0,0.0,18202.94134834341,0.7939005746144199,0.3494409759503976,0.6689951867910656,0.0,0.0,0.0,"[0.4832445826307996, 0.9502342145597495, 0.18598339765593508, 0.2692188040580028, 0.9434209018135427, 0.3871393488461692, 0.4564846098056563, 0.5361589203345538]",21.52,0.0,0.0,0.0,366.22801405529617,113.5464864756185,-1419.531509422874,-129.3075091876812,3000.6314728475877,0.0,0.0,0.0,0.0,0.0,0.0,-12.6,21.466272264213853,0.0,21.19506261935858,0.0,-12.6,21.52,20.19,22.2,21.24,21.95,-13.35,-12.6,838.34,-1010.5,-1179.07,0.0,320.0,0.0,106.0,0.0,0.0,0.0,0.0,0.0,0.0,0.0,0.0,0.0,0.0,0.0,0.0,0.0,0.0
76.0,2144.0,0.0,5309.504416531156,-0.0,0.0,7453.504416531156,0.0,7009.308281926224,0.0,0.0,0.0,7009.308281926224,0.4769998766326531,0.3494409759503976,0.6255955484547184,0.0,0.0,0.0,"[0.4832445826307996, 0.9502342145597495, 0.18598339765593508, 0.2692188040580028, 0.9434209018135427, 0.3871393488461692, 0.4564846098056563, 0.5361589203345538]",22.48,0.0,0.0,0.0,224.76594648579743,109.90585502782189,-1476.3884526943975,-1429.5427259688377,665.9652327969982,0.0,0.0,0.0,0.0,0.0,0.0,-13.0,21.778213967666915,0.0,21.217716695753808,0.0,-13.0,22.48,20.2,22.24,22.05,22.52,-13.74,-13.0,1226.21,-1050.97,-1226.3,0.0,320.0,0.0,0.0,0.0,0.0,0.0,0.0,0.0,0.0,0.0,0.0,0.0,0.0,0.0,0.0,0.0,0.0
77.0,655.0,0.0,0.0,-0.0,0.0,655.0,0.0,10389.651242270455,0.0,10389.651242270453,0.0,0.0,0.4491512371768708,0.30526728869584635,0.6255955484547184,0.0,0.0,0.0,"[0.4832445826307996, 0.9502342145597495, 0.18598339765593508, 0.2692188040580028, 0.9434209018135427, 0.3871393488461692, 0.4564846098056563, 0.5361589203345538]",21.52,0.0,0.0,0.0,366.22801405529617,113.5464864756185,-1452.8179457690496,-130.7139081237684,1117.107785460431,0.0,0.0,0.0,0.0,0.0,0.0,-13.4,21.465902469675026,0.0,21.19139227173784,0.0,-13.4,21.52,20.18,22.21,21.24,21.96,-14.15,-13.4,28.88,-1034.19,-1206.72,0.0,320.0,0.0,106.0,0.0,0.0,0.0,0.0,0.0,0.0,0.0,0.0,0.0,0.0,0.0,0.0,0.0,0.0
78.0,767.0,13042.625239878766,12210.412113679371,-0.0,0.0,0.0,0.0,15188.252574690625,0.0,0.0,0.0,15188.252574690627,0.4491512371768708,0.30526728869584635,0.6255955484547184,0.0,0.0,0.0,"[0.4832445826307996, 0.9502342145597495, 0.18598339765593508, 0.2692188040580028, 0.9434209018135427, 0.3871393488461692, 0.4564846098056563, 0.5361589203345538]",21.52,0.0,0.0,0.0,487.53138579935,252.74912098429414,-1469.4611639421375,-186.7339439801049,2863.848555693401,0.0,0.0,0.0,0.0,0.0,0.0,-13.8,21.437843498297248,0.0,21.153681035822654,0.0,-13.8,21.52,20.15,22.16,21.29,21.97,-14.55,-13.8,3035.1,-1046.04,-1220.55,0.0,640.0,52.0,23.0,0.0,0.0,0.0,0.0,0.0,0.0,0.0,0.0,0.0,0.0,0.0,0.0,0.0,0.0
79.0,818.0,0.0,0.0,-0.0,0.0,8962.346000000001,0.0,11632.123012097225,40721.73,44209.50701209724,0.0,0.0,0.056249999999999994,0.11730169765801796,0.6255955484547184,32577.384000000005,8144.346000000001,40721.73,"[0.4832445826307996, 0.9502342145597495, 0.18598339765593508, 0.2692188040580028, 0.9434209018135427, 0.3871393488461692, 0.4564846098056563, 0.5361589203345538]",22.48,0.0,0.0,0.0,369.7399819691368,172.27742775611085,-1522.1573026703888,-1479.4771080422106,2479.8728289990577,0.0,0.0,0.0,0.0,0.0,0.0,-14.1,21.753525720152513,0.0,21.18074516218087,0.0,-14.1,22.48,20.15,22.21,22.07,22.52,-14.86,-14.1,1119.76,-1083.55,-1264.32,0.0,351.0,79.0,84.0,0.0,0.0,0.0,0.0,0.0,0.0,0.0,0.0,0.0,0.0,0.0,0.0,0.0,0.0
80.0,1323.0,23146.850498080657,5708.116245590258,-0.0,0.0,-16000.0,0.0,6882.52645043178,0.0,0.0,0.0,6882.52645043178,0.6533333333333333,0.08803925526672637,0.6255955484547184,0.0,0.0,0.0,"[0.48324458263087067, 0.950234214559746, 0.18598339765593508, 0.2692188040580028, 0.9434209018135427, 0.3871393488461692, 0.4564846098056563, 0.5361589203345538]",22.48,0.0,0.0,2.6148621306438593,283.41581064693526,100.46082061136845,-1526.3181072136636,-1422.7238524621075,656.202583924764,0.0,0.0,0.0,0.0,0.0,0.0,-14.2,21.782159972607207,0.0,21.215472452809102,0.0,-14.2,22.48,20.16,22.27,21.99,22.5,-14.95,-14.2,1570.12,-1086.51,-1267.77,3.81,190.0,51.0,107.0,0.0,0.0,0.0,0.0,0.0,0.0,0.0,0.0,0.0,0.0,0.0,0.0,0.0,0.0
81.0,2698.0,0.0,0.0,-0.0,7990.460952825337,0.0,0.0,4763.214857542802,0.0,0.0,0.0,0.0,0.6533333333333333,0.08803925526672637,0.6255955484547184,21169.843811301347,5292.460952825337,26462.304764126682,"[0.48324458263087067, 0.950234214559746, 0.18598339765593508, 0.2692188040580028, 0.9434209018135427, 0.3871393488461692, 0.4564846098056563, 0.5361589203345538]",21.52,0.0,0.0,919.920656787438,424.52668142504984,73.3621582310711,-1390.4058776199706,-125.32161939673891,126.51876115752569,0.0,0.0,0.0,0.0,0.0,0.0,-11.9,21.46770709240092,0.0,21.186296468240727,0.0,-11.9,21.52,20.14,22.23,21.23,21.97,-11.98,-11.9,646.88,-989.76,-1154.88,1339.21,122.0,37.0,250.0,0.0,0.0,0.0,0.0,0.0,0.0,0.0,0.0,0.0,0.0,0.0,0.0,0.0,0.0
82.0,2644.0,0.0,11650.714146158116,-0.0,14294.714146158116,0.0,0.0,6750.888637967843,0.0,-11961.822096044085,0.0,18712.710734011933,0.6533333333333333,0.1368833621589064,0.6255955484547184,0.0,0.0,0.0,"[0.48324458263087067, 0.950234214559746, 0.18598339765593508, 0.2692188040580028, 0.9434209018135427, 0.3871393488461692, 0.4564846098056563, 0.5361589203345538]",21.52,0.0,0.0,1322.796746709535,170.82211932920603,4.396234201112875,-1311.3505912978005,-146.2107731228228,0.0,0.0,0.0,0.0,0.0,0.0,0.0,-10.0,21.456276213465138,0.0,21.17100542823941,0.0,-10.0,21.52,20.13,22.21,21.46,22.14,-9.83,-10.0,203.12,-933.49,-1089.22,1925.72,0.0,0.0,128.0,0.0,0.0,0.0,0.0,0.0,0.0,0.0,0.0,0.0,0.0,0.0,0.0,0.0,0.0
83.0,7170.0,0.0,10088.098708225858,-0.0,17258.098708225858,0.0,0.0,2394.178045540902,0.0,-15251.34325467523,0.0,17645.521300216133,0.6533333333333333,0.19915968044883026,0.6255955484547184,0.0,0.0,0.0,"[0.48324458263087067, 0.950234214559746, 0.18598339765593508, 0.2692188040580028, 0.9434209018135427, 0.3871393488461692, 0.4564846098056563, 0.5361589203345538]",21.52,0.0,0.0,1575.1919517868741,125.4474938823857,3.228484491442264,-1249.1736096348302,-152.87084205582966,0.0,0.0,0.0,0.0,0.0,0.0,0.0,-8.5,21.457884282891534,0.0,21.170968028200242,0.0,-8.5,21.52,20.13,22.21,21.56,22.21,-8.19,-8.5,1426.86,-889.23,-1037.57,2293.15,0.0,0.0,94.0,0.0,0.0,0.0,0.0,0.0,0.0,0.0,0.0,0.0,0.0,0.0,0.0,0.0,0.0
84.0,4335.0,0.0,4855.8227475288795,-10174.13829691552,19364.9610444444,0.0,0.0,8956.445994049209,0.0,0.0,0.0,8956.445994049209,0.6533333333333333,0.19915968044883026,0.6508377143559265,0.0,0.0,0.0,"[0.48324458263087067, 0.950234214559746, 0.18598339765593508, 0.2692188040580028, 0.9434209018135427, 0.3871393488461692, 0.4564846098056563, 0.5361589203345538]",21.66,0.0,0.0,1753.7615188337888,1352.3886042617323,90.87840387613024,-1213.1680226400288,-313.7505814279067,18.418746078768038,0.0,0.0,0.0,0.0,0.0,0.0,-7.5,21.511072376008237,0.0,21.187547302232375,0.0,-7.5,21.66,20.14,22.23,21.72,22.33,-7.1,-7.5,0.0,-863.6,-1007.67,2553.11,144.0,15.0,936.0,0.0,0.0,0.0,0.0,0.0,0.0,0.0,0.0,0.0,0.0,0.0,0.0,0.0,0.0
85.0,2888.0,0.0,14245.200792300173,-0.0,17133.200792300173,0.0,0.0,4831.665028722071,0.0,-21850.670155803695,0.0,26682.335184525768,0.6533333333333333,0.28838325025169537,0.6252629274791505,0.0,0.0,0.0,"[0.48324458263087067, 0.950234214559746, 0.18598339765593508, 0.2692188040580028, 0.9434209018135427, 0.3871393488461692, 0.4564846098056563, 0.5361589203345538]",22.48,0.0,0.0,1562.3149962895425,794.6880995438477,77.82708359157637,-1235.0617891846277,-1370.3631505205062,213.6693844550553,0.0,0.0,0.0,0.0,0.0,0.0,-7.2,21.80514858408658,0.0,21.2446412821071,0.0,-7.2,22.48,20.18,22.31,22.25,22.72,-6.89,-7.2,0.0,-879.18,-1025.85,2274.4,165.0,6.0,508.0,0.0,0.0,0.0,0.0,0.0,0.0,0.0,0.0,0.0,0.0,0.0,0.0,0.0,0.0
86.0,2229.0,0.0,4713.88016472832,-7278.775667477994,14221.655832206314,0.0,0.0,8604.758647989192,0.0,0.0,0.0,8604.75864798919,0.6533333333333333,0.28838325025169537,0.6433216620465643,0.0,0.0,0.0,"[0.48324458263087067, 0.950234214559746, 0.18598339765593508, 0.2692188040580028, 0.9434209018135427, 0.3871393488461692, 0.4564846098056563, 0.5361589203345538]",22.48,0.0,0.0,1315.891708065544,592.1880296317994,49.07983338586171,-1255.8658119009876,-1272.7030715180576,0.0,0.0,0.0,0.0,0.0,0.0,0.0,-7.7,21.854629719871436,0.0,21.309608407956667,0.0,-7.7,22.48,20.22,22.4,22.23,22.75,-7.54,-7.7,0.0,-893.99,-1043.13,1915.66,104.0,0.0,389.0,0.0,0.0,0.0,0.0,0.0,0.0,0.0,0.0,0.0,0.0,0.0,0.0,0.0,0.0
87.0,5472.0,0.0,6352.812130754577,-0.0,0.7759651942394153,11824.036165560337,0.0,10566.903360302938,0.0,0.0,0.0,10566.903360302938,0.15061070724658432,0.28838325025169537,0.641384178192263,0.0,0.0,0.0,"[0.48324458263087067, 0.950234214559746, 0.18598339765593508, 0.2692188040580028, 0.9434209018135427, 0.3871393488461692, 0.4564846098056563, 0.5361589203345538]",22.18,0.0,0.0,18.38293330232753,408.51210773793684,48.908105487380745,-1313.9004069823825,-799.3531933677386,2249.3531916824686,0.0,0.0,0.0,0.0,0.0,0.0,-9.4,21.788860258856154,0.0,21.345523032701376,0.0,-9.4,22.18,20.24,22.45,21.97,22.59,-10.09,-9.4,0.0,-935.3,-1091.34,26.76,118.0,0.0,244.0,0.0,0.0,0.0,0.0,0.0,0.0,0.0,0.0,0.0,0.0,0.0,0.0,0.0,0.0
88.0,3777.0,10302.654945342741,6474.141670616028,-0.0,0.0,0.0,0.0,10892.15591734265,0.0,0.0,0.0,10892.15591734265,0.15061070724658432,0.28838325025169537,0.6363467201710798,0.0,0.0,0.0,"[0.48324458263087067, 0.950234214559746, 0.18598339765593508, 0.2692188040580028, 0.9434209018135427, 0.3871393488461692, 0.4564846098056563, 0.5361589203345538]",22.48,0.0,0.0,0.0,309.6853306424629,100.66689408954562,-1318.2778800500666,-1198.4429319485914,2118.2046781561926,0.0,0.0,0.0,0.0,0.0,0.0,-9.2,21.893036527937305,0.0,21.36139509420662,0.0,-9.2,22.48,20.26,22.47,21.97,22.58,-9.9,-9.2,0.0,-938.42,-1094.97,0.0,232.0,28.0,107.0,0.0,0.0,0.0,0.0,0.0,0.0,0.0,0.0,0.0,0.0,0.0,0.0,0.0,0.0
89.0,1509.0,4902.608322854523,3369.0952812402497,-0.0,0.0,0.0,0.0,5732.434347966797,0.0,0.0,0.0,5732.434347966798,0.15061070724658432,0.28838325025169537,0.6363467201710798,0.0,0.0,0.0,"[0.48324458263087067, 0.950234214559746, 0.18598339765593508, 0.2692188040580028, 0.9434209018135427, 0.3871393488461692, 0.4564846098056563, 0.5361589203345538]",22.48,0.0,0.0,0.0,497.64585339121084,194.224253181979,-1309.9562709635227,-1167.7374583087824,0.0,0.0,0.0,0.0,0.0,0.0,0.0,-9.0,21.90840564895265,0.0,21.382170681982103,0.0,-9.0,22.48,20.27,22.49,21.98,22.59,-9.66,-9.0,0.0,-932.49,-1088.06,0.0,465.0,49.0,123.0,0.0,0.0,0.0,0.0,0.0,0.0,0.0,0.0,0.0,0.0,0.0,0.0,0.0,0.0
90.0,3020.0,5989.262006084851,2939.3156960544266,-0.0,0.0,0.0,0.0,5057.217548536275,0.0,0.0,0.0,5057.217548536275,0.15061070724658432,0.28838325025169537,0.6099969397525833,0.0,0.0,0.0,"[0.48324458263087067, 0.950234214559746, 0.18598339765593508, 0.2692188040580028, 0.9434209018135427, 0.3871393488461692, 0.4564846098056563, 0.5361589203345538]",21.57,0.0,0.0,0.0,1807.0479703875344,267.6551025724425,-1263.7176954249098,33.997252527422766,995.1472875129504,0.0,0.0,0.0,0.0,0.0,0.0,-8.8,21.60213332598112,0.0,21.345058341157237,0.0,-8.8,21.57,20.26,22.43,21.27,22.08,-9.44,-8.8,149.07,-899.58,-1049.65,0.0,572.0,57.0,1047.0,0.0,0.0,0.0,0.0,0.0,0.0,0.0,0.0,0.0,0.0,0.0,0.0,0.0,0.0
91.0,3449.0,28692.781350121375,25100.317443370768,-0.0,0.0,0.0,0.0,5773.478475028273,0.0,-37651.97324461098,0.0,43425.45171963925,0.15061070724658432,0.4421288076671902,0.6099969397525833,0.0,0.0,0.0,"[0.48324458263087067, 0.950234214559746, 0.18598339765593508, 0.2692188040580028, 0.9434209018135427, 0.3871393488461692, 0.4564846098056563, 0.5361589203345538]",22.48,0.0,0.0,0.0,915.35931706341,142.46546457981415,-1297.473857333707,-1237.0944375992055,0.0,0.0,0.0,0.0,0.0,0.0,0.0,-8.7,21.87331860057311,0.0,21.339729508211,0.0,-8.7,22.48,20.26,22.42,21.88,22.48,-9.32,-8.7,100.79,-923.61,-1077.69,0.0,288.0,41.0,530.0,0.0,0.0,0.0,0.0,0.0,0.0,0.0,0.0,0.0,0.0,0.0,0.0,0.0,0.0
92.0,4072.0,22758.30858910257,2572.5170461570606,-0.0,0.0,-16000.0,0.0,4499.698669296288,0.0,0.0,0.0,4499.698669296288,0.8039440405799176,0.4421288076671902,0.6099969397525833,0.0,0.0,0.0,"[0.30583939251927816, 0.6165957372270654, 0.18598339765593508, 0.2692188040580028, 0.3712102055557587, 0.3871393488461692, 0.4564846098056563, 0.5361589203345503]",21.73,0.0,0.0,0.0,1247.3105242796223,206.82908093048232,-1257.8424548422242,-244.60046899587505,0.0,0.0,0.0,0.0,0.0,0.0,0.0,-8.5,21.62048331004574,0.0,21.309101616409848,0.0,-8.5,21.73,20.25,22.37,21.31,22.08,-9.1,-8.5,0.0,-895.4,-1044.77,0.0,520.0,9.0,660.0,0.0,0.0,0.0,0.0,0.0,0.0,0.0,0.0,0.0,0.0,0.0,0.0,0.0,0.0
93.0,4933.0,0.0,0.0,-0.0,0.0,4933.0,0.0,7736.350800614686,0.0,7736.350800614686,0.0,0.0,0.5942076460220945,0.40923615970539307,0.6099969397525833,0.0,0.0,0.0,"[0.30583939251927816, 0.6165957372270654, 0.18598339765593508, 0.2692188040580028, 0.3712102055557587, 0.3871393488461692, 0.4564846098056563, 0.5361589203345503]",21.69,0.0,0.0,0.0,1324.1523822344539,258.553523952951,-1247.998397272341,-259.8084215580475,1169.5158159750229,0.0,0.0,0.0,0.0,0.0,0.0,-8.3,21.57612440346011,0.0,21.267442554956467,0.0,-8.3,21.69,20.23,22.3,21.31,22.04,-8.89,-8.3,279.12,-888.39,-1036.6,0.0,620.0,37.0,662.0,0.0,0.0,0.0,0.0,0.0,0.0,0.0,0.0,0.0,0.0,0.0,0.0,0.0,0.0
94.0,2692.0,0.0,3400.5711066625454,-0.0,0.0,6092.571106662545,0.0,6077.757897215156,0.0,0.0,0.0,6077.757897215155,0.33516975883406114,0.40923615970539307,0.6099969397525833,0.0,0.0,0.0,"[0.30583939251927816, 0.6165957372270654, 0.18598339765593508, 0.2692188040580028, 0.3712102055557587, 0.3871393488461692, 0.4564846098056563, 0.5361589203345503]",22.31,0.0,0.0,0.0,904.7531739636116,156.58149783495003,-1265.127546863912,-1107.1255053957757,1329.3287313193287,0.0,0.0,0.0,0.0,0.0,0.0,-8.1,21.76105100076571,0.0,21.2675527227672,0.0,-8.1,22.31,20.24,22.3,21.79,22.36,-8.67,-8.1,1231.71,-900.58,-1050.83,0.0,336.0,39.0,497.0,0.0,0.0,0.0,0.0,0.0,0.0,0.0,0.0,0.0,0.0,0.0,0.0,0.0,0.0
95.0,1493.0,21219.252858076117,3620.1565937857363,-0.0,0.0,-16000.0,0.0,6539.241816583756,0.0,0.0,0.0,6539.241816583756,0.9885030921673945,0.40923615970539307,0.6099969397525833,0.0,0.0,0.0,"[0.30583939251927816, 0.6165957372270654, 0.18598339765593508, 0.2692188040580028, 0.3712102055557587, 0.3871393488461692, 0.4564846098056563, 0.5361589203345503]",22.31,0.0,0.0,0.0,775.9341908839389,212.70217505853157,-1256.8059377773682,-1091.274490145098,170.4378939244193,0.0,0.0,0.0,0.0,0.0,0.0,-7.9,21.768946859994877,0.0,21.27838357132275,0.0,-7.9,22.31,20.24,22.31,21.77,22.36,-8.46,-7.9,587.28,-894.66,-1043.91,0.0,564.0,15.0,283.0,0.0,0.0,0.0,0.0,0.0,0.0,0.0,0.0,0.0,0.0,0.0,0.0,0.0,0.0
96.0,1599.0,1835.2522198117601,5148.566036005221,-0.0,0.0,4921.490077292519,0.0,9594.569531747362,0.0,0.0,0.0,9594.569531747362,0.7792560650716241,0.40923615970539307,0.6099969397525833,0.0,0.0,0.0,"[0.30583939251927816, 0.6165957372270654, 0.18598339765593508, 0.2692188040580028, 0.3712102055557587, 0.3871393488461692, 0.4564846098056563, 0.5361589203345503]",21.69,0.0,0.0,0.0,295.49698027054677,111.72617075172019,-1206.3903518396216,-282.947110475602,2091.072012377053,0.0,0.0,0.0,0.0,0.0,0.0,-7.3,21.564038316943886,0.0,21.254320284746424,0.0,-7.3,21.69,20.24,22.27,21.33,22.04,-7.87,-7.3,1808.61,-858.77,-1002.04,0.0,320.0,0.0,53.0,0.0,0.0,0.0,0.0,0.0,0.0,0.0,0.0,0.0,0.0,0.0,0.0,0.0,0.0
97.0,671.0,0.0,6259.978901828434,-0.0,0.0,6930.978901828434,0.0,12083.4822908861,0.0,0.0,0.0,12083.482290886099,0.4845715879530683,0.40923615970539307,0.6099969397525833,0.0,0.0,0.0,"[0.30583939251927816, 0.6165957372270654, 0.18598339765593508, 0.2692188040580028, 0.3712102055557587, 0.3871393488461692, 0.4564846098056563, 0.5361589203345503]",22.2,0.0,0.0,0.0,335.5334144883294,112.756538142606,-1198.1412391190452,-967.5487681066822,1948.8513195645312,0.0,0.0,0.0,0.0,0.0,0.0,-6.6,21.720760112227314,0.0,21.261135851172007,0.0,-6.6,22.2,20.24,22.28,21.8,22.37,-7.17,-6.6,706.7,-852.9,-995.19,0.0,320.0,0.0,83.0,0.0,0.0,0.0,0.0,0.0,0.0,0.0,0.0,0.0,0.0,0.0,0.0,0.0,0.0
98.0,871.0,0.0,5238.773515242452,-0.0,0.0,6109.773515242452,0.0,10461.874665420553,0.0,0.0,0.0,10461.874665420552,0.22480230584241986,0.40923615970539307,0.6099969397525833,0.0,0.0,0.0,"[0.30583939251927816, 0.6165957372270654, 0.18598339765593508, 0.2692188040580028, 0.3712102055557587, 0.3871393488461692, 0.4564846098056563, 0.5361589203345503]",22.31,0.0,0.0,0.0,455.64271714167745,115.84764031526349,-1173.5898469119293,-1091.6850338345216,493.39050934226367,0.0,0.0,0.0,0.0,0.0,0.0,-5.9,21.767895538964073,0.0,21.279984254774607,0.0,-5.9,22.31,20.26,22.3,21.85,22.4,-6.45,-5.9,2229.89,-835.42,-974.79,0.0,320.0,0.0,173.0,0.0,0.0,0.0,0.0,0.0,0.0,0.0,0.0,0.0,0.0,0.0,0.0,0.0,0.0
99.0,627.0,0.0,0.0,-0.0,0.0,627.0,0.0,10689.96849607157,0.0,10689.96849607157,0.0,0.0,0.19814414257711374,0.3637856133785582,0.6099969397525833,0.0,0.0,0.0,"[0.30583939251927816, 0.6165957372270654, 0.18598339765593508, 0.2692188040580028, 0.3712102055557587, 0.3871393488461692, 0.4564846098056563, 0.5361589203345503]",21.69,0.0,0.0,0.0,510.35917723931374,117.25580908280747,-1131.4958700607267,-278.81436884814207,796.4818149534676,0.0,0.0,0.0,0.0,0.0,0.0,-5.5,21.5653517366101,0.0,21.259586850967352,0.0,-5.5,21.69,20.25,22.26,21.34,22.05,-6.04,-5.5,1851.29,-805.46,-939.83,0.0,320.0,0.0,214.0,0.0,0.0,0.0,0.0,0.0,0.0,0.0,0.0,0.0,0.0,0.0,0.0,0.0,0.0
100.0,571.0,6263.375915428389,5661.059035851247,-0.0,0.0,0.0,0.0,11790.899911123688,0.0,0.0,0.0,11790.899911123688,0.19814414257711374,0.3637856133785582,0.6099969397525833,0.0,0.0,0.0,"[0.30583939251927816, 0.6165957372270654, 0.18598339765593508, 0.2692188040580028, 0.3712102055557587, 0.3871393488461692, 0.4564846098056563, 0.5361589203345503]",21.69,0.0,0.0,0.0,422.27902196019187,114.98900082285863,-1110.691847344367,-320.8931255180038,2121.8519967350526,0.0,0.0,0.0,0.0,0.0,0.0,-5.0,21.543934657260156,0.0,21.233667426162015,0.0,-5.0,21.69,20.25,22.22,21.38,22.05,-5.53,-5.0,861.81,-790.65,-922.55,0.0,320.0,0.0,148.0,0.0,0.0,0.0,0.0,0.0,0.0,0.0,0.0,0.0,0.0,0.0,0.0,0.0,0.0
101.0,1941.0,0.0,2719.350233413716,-0.0,0.0,4660.350233413716,0.0,5767.582436645513,0.0,0.0,0.0,5767.582436645513,0.0,0.3637856133785582,0.6099969397525833,0.0,0.0,0.0,"[0.30583939251927816, 0.6165957372270654, 0.18598339765593508, 0.2692188040580028, 0.3712102055557587, 0.3871393488461692, 0.4564846098056563, 0.5361589203345503]",22.31,0.0,0.0,0.0,424.94811757471075,115.05769198225104,-1119.4993878493938,-1144.407649612962,523.4143343639937,0.0,0.0,0.0,0.0,0.0,0.0,-4.6,21.740740604470144,0.0,21.249710152411303,0.0,-4.6,22.31,20.26,22.24,21.86,22.38,-5.05,-4.6,1059.4,-796.92,-929.87,0.0,320.0,0.0,150.0,0.0,0.0,0.0,0.0,0.0,0.0,0.0,0.0,0.0,0.0,0.0,0.0,0.0,0.0
102.0,2496.0,63813.382771860095,36527.641858000796,-0.0,0.0,-16000.0,0.0,11276.353493051183,42353.37,-33358.62529504697,0.0,78517.67478809817,0.6533333333333333,0.5,0.6099969397525833,33882.696,8470.674,42353.37,"[0.30583939251927816, 0.6165957372270654, 0.18598339765593508, 0.2692188040580028, 0.3712102055557587, 0.3871393488461692, 0.4564846098056563, 0.5361589203345503]",21.69,0.0,0.0,0.0,464.56311564283254,182.23764586800718,-1081.5662155414632,-324.28296784245276,1994.490348761392,0.0,0.0,0.0,0.0,0.0,0.0,-4.3,21.541901828035368,0.0,21.234211384195845,0.0,-4.3,21.69,20.26,22.21,21.34,22.01,-4.76,-4.3,1771.28,-769.91,-898.36,0.0,444.0,42.0,110.0,0.0,0.0,0.0,0.0,0.0,0.0,0.0,0.0,0.0,0.0,0.0,0.0,0.0,0.0
103.0,990.0,0.0,4484.099872828878,-0.0,0.0,5474.099872828878,0.0,9767.00277337105,0.0,0.0,0.0,9767.00277337105,0.4205909918014933,0.5,0.6099969397525833,0.0,0.0,0.0,"[0.30583939251927816, 0.6165957372270654, 0.18598339765593508, 0.2692188040580028, 0.3712102055557587, 0.3871393488461692, 0.4564846098056563, 0.5361589203345503]",22.31,0.0,0.0,0.0,371.28524785122664,203.8066699172172,-1094.5345605897623,-1144.6321720271333,474.02274179786696,0.0,0.0,0.0,0.0,0.0,0.0,-4.0,21.74037671837648,0.0,21.25258133338214,0.0,-4.0,22.31,20.28,22.23,21.88,22.38,-4.45,-4.0,708.96,-779.15,-909.13,0.0,393.0,108.0,60.0,0.0,0.0,0.0,0.0,0.0,0.0,0.0,0.0,0.0,0.0,0.0,0.0,0.0,0.0
104.0,795.0,21514.543855311953,4611.97113603539,-0.0,0.0,-16000.000000000005,0.0,10177.426451373756,0.0,0.0,0.0,10177.426451373756,0.8440360965618936,0.5,0.6099969397525833,0.0,0.0,0.0,"[0.30583939251927816, 0.6165957372270654, 0.18598339765592797, 0.2692188040580028, 0.3712102055557587, 0.3871393488461692, 0.4564846098056563, 0.5361589203345503]",21.69,0.0,0.0,0.8542644729295813,403.2441558671759,193.67472390683986,-1056.6013882818315,-318.3996021380799,800.0180491337761,0.0,0.0,0.0,0.0,0.0,0.0,-3.7,21.54460095664672,0.0,21.24113827446658,0.0,-3.7,21.69,20.28,22.2,21.38,22.03,-4.13,-3.7,1037.94,-752.14,-877.62,1.24,399.0,87.0,83.0,0.0,0.0,0.0,0.0,0.0,0.0,0.0,0.0,0.0,0.0,0.0,0.0,0.0,0.0
105.0,681.0,0.0,2901.225459374901,-0.0,5.454671720204413,3576.770787654697,0.0,6817.127673105232,0.0,0.0,0.0,6817.127673105232,0.6919625086514047,0.5,0.6099969397525833,0.0,0.0,0.0,"[0.30583939251927816, 0.6165957372270654, 0.18598339765592797, 0.2692188040580028, 0.3712102055557587, 0.3871393488461692, 0.4564846098056563, 0.5361589203345503]",21.69,0.0,0.0,25.199025681670083,321.2748247581367,133.46692269941124,-994.1893201327526,-347.39505698575164,877.8833864881252,0.0,0.0,0.0,0.0,0.0,0.0,-2.2,21.529342435857863,0.0,21.223385931981483,0.0,-2.2,21.69,20.28,22.17,21.42,22.03,-2.59,-2.2,1132.29,-707.72,-825.78,36.68,330.0,29.0,64.0,0.0,0.0,0.0,0.0,0.0,0.0,0.0,0.0,0.0,0.0,0.0,0.0,0.0,0.0
106.0,1216.0,1203.4143182547614,0.0,-0.0,18.602753336512414,0.0,0.0,6337.185659109531,0.0,6337.185659109532,0.0,0.0,0.6919625086514047,0.47305618342215333,0.6099969397525833,0.0,0.0,0.0,"[0.30583939251927816, 0.6165957372270654, 0.18598339765592797, 0.2692188040580028, 0.3712102055557587, 0.3871393488461692, 0.4564846098056563, 0.5361589203345503]",21.69,0.0,0.0,31.72146511251728,335.0417389803919,49.80109055948179,-952.581274700033,-372.730554912084,998.4697429040991,0.0,0.0,0.0,0.0,0.0,0.0,-1.2,21.516145419267747,0.0,21.20867956368456,0.0,-1.2,21.69,20.28,22.13,21.41,22.01,-1.56,-1.2,2132.34,-678.1,-791.22,46.18,102.0,13.0,196.0,0.0,0.0,0.0,0.0,0.0,0.0,0.0,0.0,0.0,0.0,0.0,0.0,0.0,0.0
107.0,5488.0,0.0,4580.472121886376,-0.0,217.2128438201621,9851.259278066214,0.0,11767.264045248414,0.0,0.0,0.0,11767.264045248414,0.2731164509104943,0.47305618342215333,0.6099969397525833,0.0,0.0,0.0,"[0.30583939251927816, 0.6165957372270654, 0.18598339765592797, 0.2692188040580028, 0.3712102055557587, 0.3871393488461692, 0.4564846098056563, 0.5361589203345503]",21.74,0.0,0.0,60.056091194671126,6174.039592531747,199.89127383185107,-900.2345684979347,-452.25004000465884,-3925.8586709508704,0.0,0.0,0.0,0.0,0.0,0.0,0.1,21.517464167966747,0.0,21.19645781595628,0.0,0.1,21.74,20.29,22.11,21.41,22.0,-0.27,0.1,1775.7,-640.83,-747.74,87.43,126.0,0.0,4560.0,0.0,0.0,0.0,0.0,0.0,0.0,0.0,0.0,0.0,0.0,0.0,0.0,0.0,0.0
108.0,2722.0,4838.1255462878435,2623.57895259915,-0.0,531.644034042746,0.0,0.0,7015.117395549924,0.0,0.0,0.0,7015.117395549925,0.2731164509104943,0.47305618342215333,0.6099969397525833,0.0,0.0,0.0,"[0.30583939251927816, 0.6165957372270654, 0.18598339765592797, 0.2692188040580028, 0.3712102055557587, 0.3871393488461692, 0.4564846098056563, 0.5361589203345503]",22.31,0.0,0.0,78.42164790920087,425.6505111574789,59.76130867137816,-878.1727243396214,-1241.0477533208218,1564.1163936268717,0.0,0.0,0.0,0.0,0.0,0.0,1.2,21.689604037781862,0.0,21.19844683786843,0.0,1.2,22.31,20.3,22.1,21.62,22.13,0.76,1.2,1361.93,-625.13,-729.42,114.17,150.0,0.0,240.0,0.0,0.0,0.0,0.0,0.0,0.0,0.0,0.0,0.0,0.0,0.0,0.0,0.0,0.0
109.0,1212.0,3028.0854474195826,3003.8522953453275,-0.0,566.0437615419389,636.8635136209042,0.0,8261.013253803461,0.0,0.0,0.0,8261.013253803461,0.24603892056946947,0.47305618342215333,0.6099969397525833,0.0,0.0,0.0,"[0.30583939251927816, 0.6165957372270654, 0.18598339765592797, 0.2692188040580028, 0.3712102055557587, 0.3871393488461692, 0.4564846098056563, 0.5361589203345503]",22.31,0.0,0.0,82.70747083918606,381.54019415964115,119.79738198032587,-844.8862879934458,-1193.207210369213,1469.9297462109057,0.0,0.0,0.0,0.0,0.0,0.0,2.0,21.713371612715285,0.0,21.23183430676208,0.0,2.0,22.31,20.33,22.13,21.8,22.27,1.56,2.0,505.81,-601.43,-701.77,120.4,338.0,0.0,108.0,0.0,0.0,0.0,0.0,0.0,0.0,0.0,0.0,0.0,0.0,0.0,0.0,0.0,0.0
110.0,1361.0,2434.5816770571873,1212.2859455711182,-0.0,150.87717689921664,0.0,0.0,3368.626909204635,0.0,0.0,0.0,3368.626909204635,0.24603892056946947,0.47305618342215333,0.4859979730773056,0.0,0.0,0.0,"[0.30583939251927816, 0.6165957372270654, 0.18598339765592797, 0.2692188040580028, 0.3712102055557587, 0.3871393488461692, 0.4564846098056563, 0.5361589203345503]",22.31,0.0,0.0,62.51484585638807,578.4913547678211,230.93967787721076,-832.4038743636299,-1145.686186322127,0.0,0.0,0.0,0.0,0.0,0.0,0.0,2.3,21.73720211540138,0.0,21.265708397788664,0.0,2.3,22.31,20.36,22.17,21.83,22.3,1.83,2.3,1762.82,-592.55,-691.4,91.01,664.0,0.0,84.0,0.0,0.0,0.0,0.0,0.0,0.0,0.0,0.0,0.0,0.0,0.0,0.0,0.0,0.0
111.0,1695.0,0.0,4091.8998543033863,-0.0,0.06444250946380861,5786.8354117939225,0.0,11136.267958786315,0.0,0.0,0.0,11136.267958786315,0.0,0.47305618342215333,0.4859979730773052,0.0,0.0,0.0,"[0.30583939251927816, 0.6165957372270654, 0.18598339765592797, 0.2692188040580028, 0.3712102055557587, 0.3871393488461692, 0.4564846098056563, 0.5361589203345503]",21.73,0.0,0.0,14.947828905933095,672.1204193508112,141.8815897249788,-833.5816606326864,-366.8325818050029,309.11072593448,0.0,0.0,0.0,0.0,0.0,0.0,1.7,21.55795489946187,0.0,21.261658120740712,0.0,1.7,21.73,20.38,22.15,21.4,21.99,1.21,1.7,1632.6,-593.39,-692.38,21.76,381.0,1.0,303.0,0.0,0.0,0.0,0.0,0.0,0.0,0.0,0.0,0.0,0.0,0.0,0.0,0.0,0.0
112.0,3261.0,5613.166365760956,2324.100533932151,-0.0,0.0,0.0,0.0,6147.880993163884,0.0,0.0,0.0,6147.880993163884,0.0,0.47305618342215333,0.47592305703493887,0.0,0.0,0.0,"[0.30583939251927816, 0.6165957372270654, 0.18598339765592797, 0.2692188040580028, 0.3712102055557587, 0.3871393488461692, 0.4564846098056563, 0.5361589203345503]",21.69,0.0,0.0,0.0,662.0761911172269,120.00345545850303,-865.2043792913224,-344.58791675851376,1655.83727964054,0.0,0.0,0.0,0.0,0.0,0.0,0.9,21.529505798462527,0.0,21.243779268677564,0.0,0.9,21.69,20.38,22.11,21.36,21.95,0.39,0.9,504.54,-615.9,-718.65,0.0,273.0,23.0,350.0,0.0,0.0,0.0,0.0,0.0,0.0,0.0,0.0,0.0,0.0,0.0,0.0,0.0,0.0
113.0,2133.0,4844.252691746265,2687.0314282875333,-0.0,0.0,0.0,0.0,7133.548678016498,0.0,0.0,0.0,7133.548678016498,0.0,0.47305618342215333,0.47243558609719666,0.0,0.0,0.0,"[0.30583939251927816, 0.6165957372270654, 0.18598339765592797, 0.2692188040580028, 0.3712102055557587, 0.3871393488461692, 0.4564846098056563, 0.5361589203345503]",22.31,0.0,0.0,0.0,704.8519603078053,211.7404988270381,-886.4943334261652,-1163.5618474552052,0.0,0.0,0.0,0.0,0.0,0.0,0.0,1.0,21.728768071328986,0.0,21.263869637741998,0.0,1.0,22.31,20.4,22.12,21.84,22.28,0.47,1.0,3.85,-631.05,-736.33,0.0,544.0,27.0,239.0,0.0,0.0,0.0,0.0,0.0,0.0,0.0,0.0,0.0,0.0,0.0,0.0,0.0,0.0
114.0,4700.0,22784.573093367675,1970.6502279008378,-0.0,0.0,-16000.0,0.0,5250.481977088853,0.0,0.0,0.0,5250.4819770888535,0.6533333333333333,0.47305618342215333,0.4724355860971965,0.0,0.0,0.0,"[0.30583939251927816, 0.6165957372270654, 0.18598339765592797, 0.2692188040580028, 0.3712102055557587, 0.3871393488461692, 0.4564846098056563, 0.5361589203345503]",21.72,0.0,0.0,0.0,3042.909479268037,331.70960870584497,-858.049539252588,-372.28093508360854,-946.9277693578475,0.0,0.0,0.0,0.0,0.0,0.0,1.1,21.543530560375117,0.0,21.255661996845554,0.0,1.1,21.72,20.41,22.1,21.36,21.94,0.57,1.1,0.0,-610.8,-712.7,0.0,656.0,65.0,1928.0,0.0,0.0,0.0,0.0,0.0,0.0,0.0,0.0,0.0,0.0,0.0,0.0,0.0,0.0
115.0,5522.0,6968.18841538672,1411.347473309786,-0.0,0.0,0.0,0.0,3787.2189643699066,0.0,0.0,0.0,3787.2189643699066,0.6533333333333333,0.47305618342215333,0.4724355860971965,0.0,0.0,0.0,"[0.30583939251927816, 0.6165957372270654, 0.18598339765592797, 0.2692188040580028, 0.3712102055557587, 0.3871393488461692, 0.4564846098056563, 0.5361589203345503]",22.31,0.0,0.0,0.0,3676.18753349177,327.7255214610864,-874.0119197963494,-1176.112976995397,-1915.2552413177268,0.0,0.0,0.0,0.0,0.0,0.0,1.3,21.722323572049547,0.0,21.260395165148566,0.0,1.3,22.31,20.42,22.1,21.7,22.16,0.76,1.3,0.0,-622.17,-725.96,0.0,435.0,149.0,2510.0,0.0,0.0,0.0,0.0,0.0,0.0,0.0,0.0,0.0,0.0,0.0,0.0,0.0,0.0
116.0,4535.0,1163.7637110745775,0.0,-0.0,0.0,3377.0551074807954,0.0,1761.804968188656,0.0,1761.804968188656,0.0,0.0,0.5097510583554083,0.49574779924951823,0.4724355860971965,0.0,0.0,0.0,"[0.30583939251927816, 0.6165957372270654, 0.18598339765592442, 0.21093229929587665, 0.3712102055557587, 0.23759285797544294, 0.4564846098056563, 0.5361589203345503]",22.31,0.0,0.0,0.0,1066.2334586420016,188.90068832906886,-869.8511152530775,-1153.984485882141,0.0,0.0,0.0,0.0,0.0,0.0,0.0,1.4,21.73342366907379,0.0,21.276906604113442,0.0,1.4,22.31,20.44,22.11,21.71,22.17,0.88,1.4,0.0,-619.2,-722.51,0.0,279.0,115.0,640.0,0.0,0.0,0.0,0.0,0.0,0.0,0.0,0.0,0.0,0.0,0.0,0.0,0.0,0.0
117.0,5004.0,0.0,0.0,-0.0,0.0,6578.2198612092525,0.0,1416.7978750883267,0.0,0.0,0.0,0.0,0.23006483976657965,0.49574779924951823,0.4724355860971965,6296.87944483701,1574.2198612092525,7871.099306046262,"[0.30583939251927816, 0.6165957372270654, 0.18598339765592442, 0.21093229929587665, 0.3712102055557587, 0.23759285797544294, 0.4564846098056563, 0.5361589203345503]",21.91,0.0,0.0,0.0,828.473230874994,153.35301334350774,-844.948734913369,-610.0065634389659,640.7746731141518,0.0,0.0,0.0,0.0,0.0,0.0,1.6,21.60875848819828,0.0,21.274203741709638,0.0,1.6,21.91,20.45,22.1,21.46,21.99,1.07,1.6,0.0,-601.48,-701.82,0.0,300.0,56.0,457.0,0.0,0.0,0.0,0.0,0.0,0.0,0.0,0.0,0.0,0.0,0.0,0.0,0.0,0.0
118.0,3061.0,6693.663328810475,3599.195012166422,-0.0,0.0,0.0,0.0,8753.996877847705,0.0,-1041.3552858322705,0.0,9795.352163679974,0.23006483976657965,0.5,0.4724355860971965,0.0,0.0,0.0,"[0.30583939251927816, 0.6165957372270654, 0.18598339765592442, 0.21093229929587665, 0.3712102055557587, 0.23759285797544294, 0.4564846098056563, 0.5361589203345503]",21.98,0.0,0.0,0.0,526.5142296429805,167.74381123621316,-843.9244746025246,-716.7065212378991,1527.3926637782024,0.0,0.0,0.0,0.0,0.0,0.0,1.7,21.6303771066808,0.0,21.274796749863945,0.0,1.7,21.98,20.46,22.09,21.57,22.06,1.15,1.7,0.0,-600.75,-700.97,0.0,438.0,19.0,162.0,0.0,0.0,0.0,0.0,0.0,0.0,0.0,0.0,0.0,0.0,0.0,0.0,0.0,0.0
119.0,3411.0,4350.630942698398,917.8777879849058,-0.0,0.0,0.0,0.0,2515.5416737841656,0.0,0.0,0.0,2515.5416737841656,0.23006483976657965,0.5,0.4724355860971965,0.0,0.0,0.0,"[0.30583939251927816, 0.6165957372270654, 0.18598339765592442, 0.21093229929587665, 0.3712102055557587, 0.23759285797544294, 0.4564846098056563, 0.5361589203345503]",22.31,0.0,0.0,0.0,343.4002226153324,141.8815897249788,-849.0470925367179,-1125.5201787851302,291.95243339807524,0.0,0.0,0.0,0.0,0.0,0.0,1.9,21.747564280213933,0.0,21.30152119254283,0.0,1.9,22.31,20.48,22.12,21.87,22.28,1.35,1.9,0.0,-604.4,-705.23,0.0,390.0,10.0,51.0,0.0,0.0,0.0,0.0,0.0,0.0,0.0,0.0,0.0,0.0,0.0,0.0,0.0,0.0
120.0,1010.0,3654.423110789254,2626.150995235308,-0.0,0.0,0.0,0.0,7097.102421486272,0.0,0.0,0.0,7097.102421486272,0.23006483976657965,0.5,0.47127309578461574,0.0,0.0,0.0,"[0.30583939251927816, 0.6165957372270654, 0.18598339765592442, 0.21093229929587665, 0.3712102055557587, 0.23759285797544294, 0.4564846098056563, 0.5361589203345503]",21.69,0.0,0.0,0.0,319.7997982343237,113.58083205531466,-840.2395520316907,-294.0050428128554,1928.233443238461,0.0,0.0,0.0,0.0,0.0,0.0,1.5,21.554768851368273,0.0,21.294285420229365,0.0,1.5,21.69,20.49,22.1,21.39,21.94,0.92,1.5,91.92,-598.13,-697.91,0.0,320.0,2.0,71.0,0.0,0.0,0.0,0.0,0.0,0.0,0.0,0.0,0.0,0.0,0.0,0.0,0.0,0.0
121.0,733.0,3265.4370030414107,2516.109818026204,-0.0,0.0,0.0,0.0,6727.758558995575,0.0,0.0,0.0,6727.758558995575,0.23006483976657965,0.5,0.47127309578461574,0.0,0.0,0.0,"[0.30583939251927816, 0.6165957372270654, 0.18598339765592442, 0.21093229929587665, 0.3712102055557587, 0.23759285797544294, 0.4564846098056563, 0.5361589203345503]",22.31,0.0,0.0,0.0,363.55891844077735,113.47779531622609,-878.1727243396214,-1106.98463497965,307.4479928325676,0.0,0.0,0.0,0.0,0.0,0.0,1.2,21.757221499665462,0.0,21.317922722583454,0.0,1.2,22.31,20.51,22.13,21.92,22.31,0.6,1.2,0.0,-625.13,-729.42,0.0,320.0,0.0,104.0,0.0,0.0,0.0,0.0,0.0,0.0,0.0,0.0,0.0,0.0,0.0,0.0,0.0,0.0
122.0,691.0,0.0,1375.8677333975195,-0.0,0.0,2066.8677333975193,0.0,3626.429553456802,0.0,0.0,0.0,3626.4295534568014,0.1421878102853926,0.5,0.47127309578461574,0.0,0.0,0.0,"[0.30583939251927816, 0.6165957372270654, 0.18598339765592442, 0.21093229929587665, 0.3712102055557587, 0.23759285797544294, 0.4564846098056563, 0.5361589203345503]",21.69,0.0,0.0,0.0,348.8788925609237,113.09999393956797,-869.3651838345943,-278.61521728091316,699.2994495516382,0.0,0.0,0.0,0.0,0.0,0.0,0.8,21.562827598320197,0.0,21.308158549798186,0.0,0.8,21.69,20.51,22.1,21.39,21.94,0.19,0.8,611.4,-618.86,-722.1,0.0,320.0,0.0,93.0,0.0,0.0,0.0,0.0,0.0,0.0,0.0,0.0,0.0,0.0,0.0,0.0,0.0,0.0
123.0,493.0,0.0,2851.2572979124343,-0.0,0.0,3344.2572979124343,0.0,7487.9908624392165,0.0,0.0,0.0,7487.9908624392165,0.0,0.5,0.47127309578461574,0.0,0.0,0.0,"[0.30583939251927816, 0.6165957372270654, 0.18598339765592442, 0.21093229929587665, 0.3712102055557587, 0.23759285797544294, 0.4564846098056563, 0.5361589203345503]",21.69,0.0,0.0,0.0,344.87524913914547,112.99695720047936,-873.5259883778663,-305.33380789716585,734.2734101423601,0.0,0.0,0.0,0.0,0.0,0.0,0.7,21.54941037338484,0.0,21.29238638561099,0.0,0.7,21.69,20.51,22.07,21.44,21.96,0.09,0.7,1510.06,-621.82,-725.56,0.0,320.0,0.0,90.0,0.0,0.0,0.0,0.0,0.0,0.0,0.0,0.0,0.0,0.0,0.0,0.0,0.0,0.0
124.0,504.0,5016.826069354982,4487.741939008207,-0.0,0.0,0.0,0.0,11700.171659080932,0.0,0.0,0.0,11700.171659080932,0.0,0.5,0.47127309578461574,0.0,0.0,0.0,"[0.30583939251927816, 0.6165957372270654, 0.18598339765592442, 0.21093229929587665, 0.3712102055557587, 0.23759285797544294, 0.4564846098056563, 0.5361589203345503]",21.69,0.0,0.0,0.0,296.83152807780624,111.76051633141637,-881.8475974644101,-329.23058850389316,2029.6415933517576,0.0,0.0,0.0,0.0,0.0,0.0,0.5,21.53744579547284,0.0,21.27825170497691,0.0,0.5,21.69,20.51,22.05,21.44,21.95,-0.09,0.5,1715.43,-627.74,-732.47,0.0,320.0,0.0,54.0,0.0,0.0,0.0,0.0,0.0,0.0,0.0,0.0,0.0,0.0,0.0,0.0,0.0,0.0
125.0,577.0,3664.2563895669286,3068.935107619094,-0.0,0.0,0.0,0.0,7942.629371963554,0.0,0.0,0.0,7942.629371963555,0.0,0.5,0.47127309578461574,0.0,0.0,0.0,"[0.30583939251927816, 0.6165957372270654, 0.18598339765592442, 0.21093229929587665, 0.3712102055557587, 0.23759285797544294, 0.4564846098056563, 0.5361589203345503]",22.31,0.0,0.0,0.0,295.9886557784845,131.40618791763953,-915.6199652290687,-1137.5738675442763,1641.249307652234,0.0,0.0,0.0,0.0,0.0,0.0,0.3,21.74218505683634,0.0,21.303926812379956,0.0,0.3,22.31,20.53,22.08,21.93,22.29,-0.3,0.3,544.41,-651.79,-760.52,0.0,320.0,32.0,50.0,0.0,0.0,0.0,0.0,0.0,0.0,0.0,0.0,0.0,0.0,0.0,0.0,0.0,0.0
126.0,1110.0,10368.54145769056,1621.7580031529947,-0.0,0.0,-7584.940747249113,0.0,4181.768060784333,0.0,0.0,0.0,4181.768060784334,0.30971841384600546,0.5,0.47127309578461574,0.0,0.0,0.0,"[0.30583939251927816, 0.6165957372270654, 0.18598339765592442, 0.21093229929587665, 0.3712102055557587, 0.23759285797544294, 0.4564846098056563, 0.5361589203345503]",22.31,0.0,0.0,0.0,442.57819650219056,254.12294417214196,-919.7807697723408,-1090.9958605667116,129.93944293728268,0.0,0.0,0.0,0.0,0.0,0.0,0.2,21.765688831805797,0.0,21.33497022363946,0.0,0.2,22.31,20.55,22.12,21.9,22.28,-0.38,0.2,9.62,-654.75,-763.98,0.0,508.0,126.0,51.0,0.0,0.0,0.0,0.0,0.0,0.0,0.0,0.0,0.0,0.0,0.0,0.0,0.0,0.0
127.0,3501.0,0.0,1935.4535218438102,-0.0,0.0,5436.45352184381,0.0,4972.193265846721,0.0,0.0,0.0,4972.193265846721,0.07857668247509515,0.5,0.47127309578461574,0.0,0.0,0.0,"[0.30583939251927816, 0.6165957372270654, 0.18598339765592442, 0.21093229929587665, 0.3712102055557587, 0.23759285797544294, 0.4564846098056563, 0.5361589203345503]",21.69,0.0,0.0,0.0,2107.883141887119,347.23381072852476,-898.4908156374978,-258.8371910942424,-42.947298547492466,0.0,0.0,0.0,0.0,0.0,0.0,0.1,21.573083550021156,0.0,21.326903933120406,0.0,0.1,21.69,20.55,22.11,21.44,21.96,-0.5,0.1,822.48,-639.59,-746.29,0.0,568.0,176.0,1262.0,0.0,0.0,0.0,0.0,0.0,0.0,0.0,0.0,0.0,0.0,0.0,0.0,0.0,0.0
128.0,1425.0,18894.24047243579,1374.7692700736106,-0.0,0.0,-16000.000000000002,0.0,3544.8977056777726,0.0,0.0,0.0,3544.8977056777726,0.7319100158084286,0.5,0.47127309578461574,0.0,0.0,0.0,"[0.30583939251927816, 0.6165957372270654, 0.18598339765592442, 0.21093229929587665, 0.3712102055557587, 0.23759285797544294, 0.4564846098056563, 0.5361589203345503]",22.31,0.0,0.0,1.7229519592425304,943.7360178072422,204.83703730810302,-919.7807697723408,-1104.2321264824386,0.0,0.0,0.0,0.0,0.0,0.0,0.0,0.2,21.759009844484282,0.0,21.328541672383825,0.0,0.2,22.31,20.55,22.1,21.76,22.17,-0.36,0.2,857.49,-654.75,-763.98,2.51,332.0,118.0,520.0,0.0,0.0,0.0,0.0,0.0,0.0,0.0,0.0,0.0,0.0,0.0,0.0,0.0,0.0
129.0,5679.0,1598.36129876639,0.0,-0.0,4088.630507727442,0.0,0.0,3779.5287859559867,0.0,3779.5287859559867,0.0,0.0,0.7319100158084286,0.4839305748896429,0.47127309578461574,0.0,0.0,0.0,"[0.30583939251927816, 0.6165957372270654, 0.18598339765592442, 0.21093229929587665, 0.3712102055557587, 0.23759285797544294, 0.4564846098056563, 0.5361589203345503]",21.85,0.0,0.0,481.6496571932008,2934.459910088639,221.9411359968078,-792.7774582824749,-486.90128500084637,-1423.9799518602647,0.0,0.0,0.0,0.0,0.0,0.0,2.8,21.616277053318704,0.0,21.32229972064978,0.0,2.8,21.85,20.55,22.09,21.48,21.98,2.52,2.8,204.05,-564.34,-658.49,701.18,280.0,90.0,2042.0,0.0,0.0,0.0,0.0,0.0,0.0,0.0,0.0,0.0,0.0,0.0,0.0,0.0,0.0
130.0,2411.0,0.0,3634.5449275438864,-4165.3735244118925,10210.918451955778,0.0,0.0,964.6871067116163,0.0,-10174.243614476034,0.0,11138.930721187651,0.7319100158084286,0.5254754029820867,0.4816074402249288,0.0,0.0,0.0,"[0.30583939251927816, 0.6165957372270654, 0.18598339765592442, 0.21093229929587665, 0.3712102055557587, 0.23759285797544294, 0.4564846098056563, 0.5361589203345503]",22.31,0.0,0.0,919.0265504961905,1146.5170451523973,123.54105016721103,-707.5797380654717,-1077.5812606382763,-369.44242771956186,0.0,0.0,0.0,0.0,0.0,0.0,5.3,21.770087164461046,0.0,21.34563114382562,0.0,5.3,22.31,20.58,22.12,21.89,22.27,5.23,5.3,0.0,-503.69,-587.72,1337.91,255.0,18.0,723.0,0.0,0.0,0.0,0.0,0.0,0.0,0.0,0.0,0.0,0.0,0.0,0.0,0.0,0.0
131.0,1663.0,0.0,1806.4487561434125,-6683.503468733275,10152.952224876688,0.0,0.0,5794.6149798227325,0.0,0.0,0.0,5794.6149798227325,0.7319100158084286,0.5254754029820867,0.4981892969321658,0.0,0.0,0.0,"[0.30583939251927816, 0.6165957372270654, 0.18598339765592442, 0.21093229929587665, 0.3712102055557587, 0.23759285797544294, 0.4564846098056563, 0.5361589203345503]",22.31,0.0,0.0,811.5152718922427,788.5070360154882,177.01711775418562,-645.1676699163926,-1006.6704350310542,-86.76704669896405,0.0,0.0,0.0,0.0,0.0,0.0,6.8,21.80521640589039,0.0,21.393625597472123,0.0,6.8,22.31,20.61,22.17,22.02,22.4,6.65,6.8,0.0,-459.26,-535.88,1181.4,476.0,3.0,340.0,0.0,0.0,0.0,0.0,0.0,0.0,0.0,0.0,0.0,0.0,0.0,0.0,0.0,0.0
132.0,2359.0,0.0,530.5460790886052,-7136.343235743044,10025.88931483165,0.0,0.0,1752.4315982928092,0.0,0.0,0.0,1752.4315982928092,0.7319100158084286,0.5254754029820867,0.5158946548335029,0.0,0.0,0.0,"[0.30583939251927816, 0.6165957372270654, 0.18598339765592442, 0.21093229929587665, 0.3712102055557587, 0.23759285797544294, 0.4564846098056563, 0.5361589203345503]",22.31,0.0,0.0,774.9337603219587,1882.9064773264906,269.71583735421416,-603.5596244836731,-942.0031650002499,-1333.4541206402664,0.0,0.0,0.0,0.0,0.0,0.0,7.8,21.837383824120877,0.0,21.438601365337313,0.0,7.8,22.31,20.65,22.22,22.03,22.42,7.64,7.8,0.0,-429.64,-501.32,1128.14,680.0,0.0,1053.0,0.0,0.0,0.0,0.0,0.0,0.0,0.0,0.0,0.0,0.0,0.0,0.0,0.0,0.0
133.0,2956.0,0.0,1275.9044060758617,-5191.7319215666075,9423.636327642469,0.0,0.0,4263.057749358247,0.0,0.0,0.0,4263.057749358247,0.7319100158084286,0.5254754029820867,0.5287754074490353,0.0,0.0,0.0,"[0.30583939251927816, 0.6165957372270654, 0.18598339765592442, 0.21093229929587665, 0.3712102055557587, 0.23759285797544294, 0.4564846098056563, 0.5361589203345503]",22.31,0.0,0.0,742.6438611460435,1530.0239413437891,193.6060327474475,-586.9164063105854,-876.7396454573126,-963.7285054945992,0.0,0.0,0.0,0.0,0.0,0.0,8.2,21.870091373502163,0.0,21.484805690362236,0.0,8.2,22.31,20.7,22.27,22.08,22.46,8.06,8.2,0.0,-417.8,-487.5,1081.13,474.0,0.0,897.0,0.0,0.0,0.0,0.0,0.0,0.0,0.0,0.0,0.0,0.0,0.0,0.0,0.0,0.0
134.0,1164.0,0.0,1054.90729090521,-6156.690165593822,8375.597456499032,0.0,0.0,3524.6611579461724,0.0,0.0,0.0,3524.6611579461724,0.7319100158084286,0.5254754029820867,0.5413377562866388,0.0,0.0,0.0,"[0.30583939251927816, 0.6165957372270654, 0.18598339765592442, 0.21093229929587665, 0.3712102055557587, 0.23759285797544294, 0.4564846098056563, 0.5361589203345503]",22.31,0.0,0.0,681.4783919052783,1055.276118750819,178.4596321014258,-586.9164063105854,-822.2659812338297,-470.2514839084957,0.0,0.0,0.0,0.0,0.0,0.0,8.2,21.897580218635103,0.0,21.52448339384585,0.0,8.2,22.31,20.74,22.31,22.06,22.46,7.96,8.2,0.0,-417.8,-487.5,992.09,465.0,0.0,546.0,0.0,0.0,0.0,0.0,0.0,0.0,0.0,0.0,0.0,0.0,0.0,0.0,0.0,0.0
135.0,1059.0,0.0,467.6040124095311,-3850.42203379826,5377.026046207791,0.0,0.0,1517.782580530091,0.0,0.0,0.0,1517.782580530091,0.7319100158084286,0.5254754029820867,0.5508907020920117,0.0,0.0,0.0,"[0.30583939251927816, 0.6165957372270654, 0.18598339765592442, 0.21093229929587665, 0.3712102055557587, 0.23759285797544294, 0.4564846098056563, 0.5361589203345503]",22.31,0.0,0.0,665.1408439731234,368.47567352015415,109.69978154964473,-628.5244517433048,-776.6762634576091,289.22537250566177,0.0,0.0,0.0,0.0,0.0,0.0,7.2,21.920976721355714,0.0,21.558852334512192,0.0,7.2,22.31,20.78,22.34,22.05,22.46,6.94,7.2,0.0,-447.42,-522.06,968.31,308.0,0.0,114.0,0.0,0.0,0.0,0.0,0.0,0.0,0.0,0.0,0.0,0.0,0.0,0.0,0.0,0.0
136.0,1849.0,0.0,1232.558847396203,-0.0,0.0,3081.558847396203,0.0,3836.222684644561,0.0,0.0,0.0,3836.222684644561,0.6008913573306989,0.5254754029820867,0.5508907020920117,0.0,0.0,0.0,"[0.30583939251927816, 0.6165957372270654, 0.18598339765592442, 0.21093229929587665, 0.3712102055557587, 0.23759285797544294, 0.4564846098056563, 0.5361589203345503]",22.31,0.0,0.0,0.0,455.36175970857016,155.8258950816337,-686.775715349112,-734.4599141532827,0.0,0.0,0.0,0.0,0.0,0.0,0.0,5.8,21.943012796207235,0.0,21.590955526544704,0.0,5.8,22.31,20.81,22.37,22.07,22.49,5.12,5.8,0.0,-488.88,-570.44,0.0,390.0,28.0,133.0,0.0,0.0,0.0,0.0,0.0,0.0,0.0,0.0,0.0,0.0,0.0,0.0,0.0,0.0
137.0,3191.0,4279.822338252159,1067.4232265608982,-0.0,0.0,0.0,0.0,3281.549410955501,0.0,0.0,0.0,3281.549410955501,0.6008913573306989,0.5254754029820867,0.5284158893821177,0.0,0.0,0.0,"[0.30583939251927816, 0.6165957372270654, 0.18598339765592442, 0.21093229929587665, 0.3712102055557587, 0.23759285797544294, 0.4564846098056563, 0.5361589203345503]",21.89,0.0,0.0,0.0,817.7968484169187,282.90453995755274,-686.0528946393849,-184.31192471287994,0.0,0.0,0.0,0.0,0.0,0.0,0.0,5.4,21.802825735184758,0.0,21.576693780976193,0.0,5.4,21.89,20.82,22.34,21.61,22.15,4.72,5.4,0.0,-488.37,-569.84,0.0,648.0,83.0,263.0,0.0,0.0,0.0,0.0,0.0,0.0,0.0,0.0,0.0,0.0,0.0,0.0,0.0,0.0
138.0,7575.0,0.0,0.0,-0.0,0.0,7575.0,0.0,4259.240051876549,0.0,4259.240051876548,0.0,0.0,0.27882503080008664,0.507366389156081,0.5284158893821177,0.0,0.0,0.0,"[0.30583939251927816, 0.6165957372270654, 0.18598339765592442, 0.21093229929587665, 0.3712102055557587, 0.23759285797544294, 0.4564846098056563, 0.5361589203345503]",21.99,0.0,0.0,0.0,571.0459827904791,223.5897238222252,-706.8275869478007,-346.96557851468384,0.0,0.0,0.0,0.0,0.0,0.0,0.0,5.0,21.820366264288563,0.0,21.563484128212796,0.0,5.0,21.99,20.82,22.3,21.71,22.19,4.35,5.0,246.32,-503.16,-587.1,0.0,404.0,126.0,202.0,0.0,0.0,0.0,0.0,0.0,0.0,0.0,0.0,0.0,0.0,0.0,0.0,0.0,0.0
139.0,8046.0,8086.43216080402,0.0,-0.0,0.0,0.0,0.0,1732.5747295102647,0.0,1732.5747295102647,0.0,0.0,0.27882503080008664,0.5,0.5284158893821177,0.0,0.0,0.0,"[0.30583939251927816, 0.6165957372270654, 0.18598339765592442, 0.21093229929587665, 0.3712102055557587, 0.23759285797544294, 0.4564846098056563, 0.5361589203345503]",21.84,0.0,0.0,0.0,641.4960591421212,235.85109577376656,-717.4866715162851,-179.16233314300607,0.0,0.0,0.0,0.0,0.0,0.0,0.0,4.6,21.761187865618105,0.0,21.54596694190645,0.0,4.6,21.84,20.82,22.27,21.61,22.11,3.98,4.6,0.0,-510.74,-595.95,0.0,404.0,143.0,253.0,0.0,0.0,0.0,0.0,0.0,0.0,0.0,0.0,0.0,0.0,0.0,0.0,0.0,0.0
140.0,6436.0,22702.335091376764,152.82341591987475,-0.0,0.0,-16000.000000000005,0.0,452.3378087304978,0.0,0.0,0.0,452.3378087304978,0.9321583641334201,0.5,0.5284158893821177,0.0,0.0,0.0,"[0.1797564217946146, 0.09762789754173085, 0.18598339765592442, 0.21093229929587665, 0.3712102055557587, 0.2375928579754678, 0.17816338684981758, 0.16676292539003512]",21.82,0.0,0.0,0.0,1027.8125296645853,272.25741025173255,-733.1438953375523,-180.23295618349852,0.0,0.0,0.0,0.0,0.0,0.0,0.0,4.2,21.737097641406272,0.0,21.52635625814835,0.0,4.2,21.82,20.82,22.23,21.6,22.08,3.61,4.2,0.0,-521.89,-608.96,0.0,576.0,95.0,457.0,0.0,0.0,0.0,0.0,0.0,0.0,0.0,0.0,0.0,0.0,0.0,0.0,0.0,0.0
141.0,4904.0,5006.228811034048,77.19766697887755,-0.0,0.0,0.0,0.0,225.55144656063408,0.0,0.0,0.0,225.55144656063402,0.9321583641334201,0.5,0.4532415158352306,0.0,0.0,0.0,"[0.1797564217946146, 0.09762789754173085, 0.18598339765592442, 0.21093229929587665, 0.3712102055557587, 0.2375928579754678, 0.17816338684981758, 0.16676292539003512]",22.0,0.0,0.0,0.0,647.6068833122038,192.3352462986883,-757.222708834275,-448.63247356962256,33.84528048875086,0.0,0.0,0.0,0.0,0.0,0.0,3.8,21.780802431178955,0.0,21.514606348734212,0.0,3.8,22.0,20.83,22.2,21.7,22.13,3.23,3.8,0.0,-539.03,-628.96,0.0,436.0,55.0,250.0,0.0,0.0,0.0,0.0,0.0,0.0,0.0,0.0,0.0,0.0,0.0,0.0,0.0,0.0
142.0,2928.0,0.0,1416.0036746069202,-0.0,0.0,4344.00367460692,0.0,4083.196594407032,0.0,0.0,0.0,4083.1965944070325,0.7474643303491123,0.5,0.4532415158352306,0.0,0.0,0.0,"[0.1797564217946146, 0.09762789754173085, 0.18598339765592442, 0.21093229929587665, 0.3712102055557587, 0.2375928579754678, 0.17816338684981758, 0.16676292539003512]",21.82,0.0,0.0,0.0,344.8050097808686,142.5685013189027,-766.4303316837279,-228.7539072931931,1238.108092826022,0.0,0.0,0.0,0.0,0.0,0.0,3.4,21.712976646819513,0.0,21.49840679785281,0.0,3.4,21.82,20.82,22.17,21.58,22.04,2.83,3.4,0.0,-545.58,-636.6,0.0,324.0,46.0,83.0,0.0,0.0,0.0,0.0,0.0,0.0,0.0,0.0,0.0,0.0,0.0,0.0,0.0,0.0
143.0,1594.0,0.0,1286.3666063909639,-0.0,0.0,2880.366606390964,0.0,3660.3210651061577,0.0,0.0,0.0,3660.321065106158,0.6249997637508571,0.5,0.4466540707306065,0.0,0.0,0.0,"[0.1797564217946146, 0.09762789754173085, 0.18598339765592442, 0.21093229929587665, 0.3712102055557587, 0.2375928579754678, 0.17816338684981758, 0.16676292539003512]",22.18,0.0,0.0,0.0,380.837800576873,148.30421312816716,-798.0321765865224,-714.9585255472642,287.75120534390396,0.0,0.0,0.0,0.0,0.0,0.0,3.0,21.827837465252543,0.0,21.506844884353086,0.0,3.0,22.18,20.83,22.18,21.9,22.26,2.43,3.0,0.0,-568.08,-662.85,0.0,420.0,3.0,64.0,0.0,0.0,0.0,0.0,0.0,0.0,0.0,0.0,0.0,0.0,0.0,0.0,0.0,0.0
144.0,1046.0,0.0,2207.6067413203264,-0.0,0.0,3253.6067413203264,0.0,7622.0801421454335,0.0,1445.624382546322,0.0,6176.455759599112,0.4866661437967616,0.49385363782930985,0.4466540707306065,0.0,0.0,0.0,"[0.1797564217946146, 0.09762789754173085, 0.18598339765592442, 0.21093229929587665, 0.3712102055557587, 0.2375928579754678, 0.17816338684981758, 0.16676292539003512]",21.82,0.0,0.0,0.0,242.95794027949162,114.0616701710614,-803.8775725731753,-235.7684424298919,696.0374102994141,0.0,0.0,0.0,0.0,0.0,0.0,2.5,21.70980879410193,0.0,21.495995990974397,0.0,2.5,21.82,20.83,22.16,21.59,22.04,1.96,2.5,0.0,-572.24,-667.71,0.0,320.0,6.0,13.0,0.0,0.0,0.0,0.0,0.0,0.0,0.0,0.0,0.0,0.0,0.0,0.0,0.0,0.0
145.0,2202.0,3600.193645086986,1658.8706969383602,-0.0,0.0,278.67802007680916,0.0,4577.940575707417,0.0,0.0,0.0,4577.940575707416,0.47481758852138706,0.49385363782930985,0.4466540707306065,0.0,0.0,0.0,"[0.1797564217946146, 0.09762789754173085, 0.18598339765592442, 0.21093229929587665, 0.3712102055557587, 0.2375928579754678, 0.17816338684981758, 0.16676292539003512]",21.82,0.0,0.0,0.0,350.21344036818317,113.13433951926415,-820.520790746263,-257.0727180623409,627.5477021009978,0.0,0.0,0.0,0.0,0.0,0.0,2.1,21.699226579167828,0.0,21.48286481706826,0.0,2.1,21.82,20.82,22.14,21.63,22.06,1.6,2.1,1045.06,-584.09,-681.53,0.0,320.0,0.0,94.0,0.0,0.0,0.0,0.0,0.0,0.0,0.0,0.0,0.0,0.0,0.0,0.0,0.0,0.0
146.0,1158.0,25108.535992361736,2323.3177395321336,-21501.675572867796,0.0,0.0,0.0,6300.852595134788,0.0,0.0,0.0,6300.852595134788,0.47481758852138706,0.49385363782930985,0.5,0.0,0.0,0.0,"[0.1797564217946146, 0.09762789754173085, 0.18598339765592442, 0.21093229929587665, 0.3712102055557587, 0.2375928579754678, 0.17816338684981758, 0.16676292539003512]",21.82,0.0,0.0,0.0,291.49333684876854,111.6231340126316,-841.3248134626227,-278.9951622796297,1443.8624126848993,0.0,0.0,0.0,0.0,0.0,0.0,1.6,21.688377611316653,0.0,21.469131884664186,0.0,1.6,21.82,20.82,22.12,21.62,22.04,1.13,1.6,165.76,-598.9,-698.81,0.0,320.0,0.0,50.0,0.0,0.0,0.0,0.0,0.0,0.0,0.0,0.0,0.0,0.0,0.0,0.0,0.0,0.0
147.0,558.0,3525.642329821211,2950.014118172105,-0.0,0.0,0.0,0.0,7944.210409432646,0.0,0.0,0.0,7944.210409432644,0.47481758852138706,0.49385363782930985,0.5,0.0,0.0,0.0,"[0.1797564217946146, 0.09762789754173085, 0.18598339765592442, 0.21093229929587665, 0.3712102055557587, 0.2375928579754678, 0.17816338684981758, 0.16676292539003512]",22.18,0.0,0.0,0.0,283.48605000521206,111.41706053445444,-864.6050492788735,-760.5515948373464,529.8189772691378,0.0,0.0,0.0,0.0,0.0,0.0,1.4,21.805499931940478,0.0,21.479415716087374,0.0,1.4,22.18,20.82,22.14,21.91,22.24,0.92,1.4,726.7,-615.47,-718.15,0.0,320.0,0.0,44.0,0.0,0.0,0.0,0.0,0.0,0.0,0.0,0.0,0.0,0.0,0.0,0.0,0.0,0.0
148.0,668.0,0.0,1870.979826255455,-0.0,0.0,2538.979826255455,0.0,5002.762776734693,0.0,0.0,0.0,5002.762776734692,0.3668677659765123,0.49385363782930985,0.5,0.0,0.0,0.0,"[0.1797564217946146, 0.09762789754173085, 0.18598339765592442, 0.21093229929587665, 0.3712102055557587, 0.2375928579754678, 0.17816338684981758, 0.16676292539003512]",21.82,0.0,0.0,0.0,316.7092664701439,86.241750617144,-857.9680316357105,-276.41652528601054,741.5735685698829,0.0,0.0,0.0,0.0,0.0,0.0,1.2,21.689833257866024,0.0,21.47069294141813,0.0,1.2,21.82,20.82,22.12,21.6,22.03,0.76,1.2,144.88,-610.75,-712.64,0.0,240.0,0.0,111.0,0.0,0.0,0.0,0.0,0.0,0.0,0.0,0.0,0.0,0.0,0.0,0.0,0.0,0.0
149.0,780.0,3696.5887713445663,2898.1058274878433,-0.0,0.0,0.0,0.0,7666.281846614022,0.0,0.0,0.0,7666.281846614022,0.3668677659765123,0.49385363782930985,0.5,0.0,0.0,0.0,"[0.1797564217946146, 0.09762789754173085, 0.18598339765592442, 0.21093229929587665, 0.3712102055557587, 0.2375928579754678, 0.17816338684981758, 0.16676292539003512]",21.82,0.0,0.0,0.0,238.6031000663293,92.83610191881328,-870.4504452655265,-297.06534795103425,846.9919626658814,0.0,0.0,0.0,0.0,0.0,0.0,0.9,21.679550034433074,0.0,21.457245376681055,0.0,0.9,21.82,20.81,22.11,21.61,22.03,0.47,0.9,0.0,-619.63,-723.0,0.0,240.0,14.0,51.0,0.0,0.0,0.0,0.0,0.0,0.0,0.0,0.0,0.0,0.0,0.0,0.0,0.0,0.0
150.0,1864.0,3699.656503682876,1817.1582211644618,-0.0,0.0,0.0,0.0,4789.556522461053,0.0,0.0,0.0,4789.556522461053,0.3668677659765123,0.49385363782930985,0.5,0.0,0.0,0.0,"[0.1797564217946146, 0.09762789754173085, 0.18598339765592442, 0.21093229929587665, 0.3712102055557587, 0.2375928579754678, 0.17816338684981758, 0.16676292539003512]",21.82,0.0,0.0,0.0,377.1853539464788,140.47342095743485,-874.6112498087982,-313.5882539836135,687.0571436746419,0.0,0.0,0.0,0.0,0.0,0.0,0.8,21.671256358520502,0.0,21.446165185441185,0.0,0.8,21.82,20.8,22.09,21.63,22.04,0.4,0.8,0.0,-622.59,-726.46,0.0,298.0,55.0,120.0,0.0,0.0,0.0,0.0,0.0,0.0,0.0,0.0,0.0,0.0,0.0,0.0,0.0,0.0
151.0,2147.0,3786.2902152803613,1620.358764203959,-0.0,0.0,0.0,0.0,4239.949576500974,0.0,0.0,0.0,4239.949576500974,0.3668677659765123,0.49385363782930985,0.5,0.0,0.0,0.0,"[0.1797564217946146, 0.09762789754173085, 0.18598339765592442, 0.21093229929587665, 0.3712102055557587, 0.2375928579754678, 0.17816338684981758, 0.16676292539003512]",21.82,0.0,0.0,0.0,377.32583266303243,158.9513428339874,-882.9328588953421,-329.8323421698179,695.1770152087944,0.0,0.0,0.0,0.0,0.0,0.0,0.6,21.663152237396897,0.0,21.435284552831405,0.0,0.6,21.82,20.79,22.08,21.62,22.02,0.21,0.6,675.19,-628.52,-733.37,0.0,300.0,84.0,116.0,0.0,0.0,0.0,0.0,0.0,0.0,0.0,0.0,0.0,0.0,0.0,0.0,0.0,0.0
