,load_elec,grid,hp_elec,ev,pv,bat_pow,cool,load_th_sh,load_th_dhw,tes_pow,dh,hp_th,bat_soc,tes_soc,ev_soc,eh_th_in,eh_elec_in,eh_th_out,temp_slack,temp_zone_1,temp_zone_2,temp_update,Qsolar_1,QconvInt_1,QradInt_1,Qvent_1,Qconduc_1,Qheating_1,Qsolar_2,QconvInt_2,QradInt_2,Qvent_2,Qconduc_2,Qheating_2,temp_amb,temp_aggregate_1,temp_aggregate_2,temp_wall_1,temp_wall_2,_Tamb,_Tz_1,_TEW_1,_TIW_1,_T1_1,_T2_1,_Taeq_1,_Tvent_1,_Qheating_1,_Qinfvent_1,_Qenvelope_1,_Qsolar_1,_Qint_people_1,_Qint_lighting_1,_Qint_appliances_1,_Tz_2,_TEW_2,_TIW_2,_T1_2,_T2_2,_Taeq_2,_Tvent_2,_Qheating_2,_Qinfvent_2,_Qenvelope_2,_Qsolar_2,_Qint_people_2,_Qint_lighting_2,_Qint_appliances_2
8.0,1053.0,49075.42125092107,47777.04414466646,-0.0,0.0,0.0,0.0,79469.5951850306,0.0,0.0,0.0,79469.59518503059,0.5,0.5,0.8,0.0,0.0,0.0,"[2.0, 2.0, 2.0, 2.0, 2.0, 2.0, 2.0, 2.0, 2.0]",20.0,0.0,0.0,1.065866306299224,346.6929897421483,68.89919817881602,-2047.9325874962904,-1445.8774030002012,13897.598320522517,0.0,0.0,0.0,0.0,0.0,0.0,-9.4,19.480147761413434,0.0,19.0,0.0,-9.4,20.0,18.0,20.0,20.0,20.0,-9.94,-9.4,1939.24,-1426.55,-1126.98,1.69,176.0,15.0,160.0,0.0,0.0,0.0,0.0,0.0,0.0,0.0,0.0,0.0,0.0,0.0,0.0,0.0,0.0
9.0,2596.0,0.0,0.0,-0.0,14.459307121772307,2581.5406928782277,0.0,43385.08722095204,0.0,43385.08722095204,0.0,0.0,0.4024361038216845,0.33603519568801193,0.8,0.0,0.0,0.0,"[2.0, 2.0, 2.0, 2.0, 2.0, 2.0, 2.0, 2.0, 2.0]",24.0,0.0,0.0,31.547637614896903,1365.8124655928773,106.7151051244493,-2270.8368147067713,-8632.439419420523,0.0,0.0,0.0,0.0,0.0,0.0,0.0,-8.6,20.82348206570467,0.0,19.32272712987706,0.0,-8.6,24.0,18.23,20.42,22.36,22.43,-9.11,-8.6,2374.74,-1581.82,-1249.64,50.14,224.0,15.0,882.0,0.0,0.0,0.0,0.0,0.0,0.0,0.0,0.0,0.0,0.0,0.0,0.0,0.0,0.0
10.0,4519.0,43772.74310226183,0.0,-0.0,698.9404318825844,0.0,0.0,35760.43783676979,0.0,0.0,0.0,0.0,0.4024361038216845,0.33603519568801193,0.7999999999999996,158935.27927453243,39733.81981863311,198669.0990931655,"[2.0, 2.0, 2.0, 2.0, 2.0, 2.0, 2.0, 2.0, 2.0]",20.52,0.0,0.0,83.09883907866694,2317.8902742760774,90.22963487527139,-1958.7657022269414,-1611.8968968039246,5372.599088835015,0.0,0.0,0.0,0.0,0.0,0.0,-7.6,19.93803046701731,0.0,19.408091774362468,0.0,-7.6,20.52,18.32,20.5,19.62,20.4,-8.16,-7.6,1526.22,-1364.44,-1077.91,132.07,95.0,15.0,1648.0,0.0,0.0,0.0,0.0,0.0,0.0,0.0,0.0,0.0,0.0,0.0,0.0,0.0,0.0
11.0,4377.0,2920.249217327376,11087.323238470572,-0.0,1910.2159601080612,10648.459307121771,0.0,21190.187839478822,0.0,0.0,0.0,21190.187839478822,0.0,0.33603519568801193,0.7999999999999996,0.0,0.0,0.0,"[2.0, 2.0, 2.0, 2.0, 2.0, 2.0, 2.0, 2.0, 2.0]",22.11,0.0,0.0,114.23507963321522,601.9394227697009,67.76660861971217,-2013.4982368643348,-4459.958888308435,0.0,0.0,0.0,0.0,0.0,0.0,0.0,-6.8,20.4706770165684,0.0,19.542155881217873,0.0,-6.8,22.11,18.43,20.65,20.89,21.4,-7.34,-6.8,6896.27,-1402.57,-1108.03,181.55,143.0,20.0,364.0,0.0,0.0,0.0,0.0,0.0,0.0,0.0,0.0,0.0,0.0,0.0,0.0,0.0,0.0
12.0,3704.0,48495.819925949116,45928.681799957456,-0.0,3824.1556341961846,-2444.814660558101,0.0,90406.40625951711,0.0,0.0,0.0,90406.4062595171,0.08873771730914588,0.33603519568801193,0.7613702623906702,0.0,0.0,0.0,"[2.0, 2.0, 2.0, 2.0, 2.0, 2.0, 2.0, 2.0, 2.0]",20.0,0.0,0.0,171.16024911859805,615.7210074551031,102.62519838324098,-1825.0283602858099,-300.4364940257097,12054.815598966903,0.0,0.0,0.0,0.0,0.0,0.0,-6.2,19.90222030600936,0.0,19.557270814838123,0.0,-6.2,20.0,18.48,20.64,19.5,20.33,-6.71,-6.2,0.0,-1271.28,-1004.31,272.02,274.0,12.0,306.0,0.0,0.0,0.0,0.0,0.0,0.0,0.0,0.0,0.0,0.0,0.0,0.0,0.0,0.0
13.0,2783.0,27089.258017193108,24980.286124681297,-0.0,809.4743975741537,0.0,0.0,49409.55151839132,0.0,0.0,0.0,49409.55151839132,0.08873771730914588,0.33603519568801193,0.7278425655976672,0.0,0.0,0.0,"[2.0, 2.0, 2.0, 2.0, 2.0, 2.0, 2.0, 2.0, 2.0]",24.0,0.0,0.0,84.02711228421994,2026.754297796956,134.14894111163082,-2096.6928871985833,-7595.555766465549,0.0,0.0,0.0,0.0,0.0,0.0,0.0,-6.1,21.205778687967808,0.0,19.833405528901984,0.0,-6.1,24.0,18.69,20.98,22.51,22.71,-6.64,-6.1,0.0,-1460.52,-1153.81,133.54,280.0,7.0,1338.0,0.0,0.0,0.0,0.0,0.0,0.0,0.0,0.0,0.0,0.0,0.0,0.0,0.0,0.0
14.0,2955.0,31766.396154649545,28662.37713491407,-0.0,9.812961037772084,0.0,0.0,55326.27696608887,0.0,0.0,0.0,55326.27696608887,0.08873771730914588,0.33603519568801193,0.7139941690962082,0.0,0.0,0.0,"[2.0, 2.0, 2.0, 2.0, 2.0, 2.0, 2.0, 2.0, 2.0]",21.24,0.0,0.0,28.699014338214905,584.4971046522388,110.64770776022644,-1939.3723817761447,-1998.987048946262,9204.79280386801,0.0,0.0,0.0,0.0,0.0,0.0,-6.6,20.51627681866424,0.0,19.9201832408079,0.0,-6.6,21.24,18.78,21.06,20.23,21.02,-7.11,-6.6,7658.1,-1350.93,-1067.24,45.61,326.0,0.0,257.0,0.0,0.0,0.0,0.0,0.0,0.0,0.0,0.0,0.0,0.0,0.0,0.0,0.0,0.0
15.0,3259.0,18185.40807630325,14835.481035921734,-0.0,0.0,0.0,0.0,27646.54339492794,0.0,0.0,0.0,27646.54339492794,0.08873771730914588,0.33603519568801193,0.7037900874635551,0.0,0.0,0.0,"[2.0, 2.0, 2.0, 2.0, 2.0, 2.0, 2.0, 2.0, 2.0]",23.45,0.0,0.0,3.2580210282679927,496.92661863041246,49.61371485296476,-2142.229249220866,-5903.927759415611,0.0,0.0,0.0,0.0,0.0,0.0,0.0,-7.3,21.285519285255432,0.0,20.137912849419074,0.0,-7.3,23.45,18.96,21.32,22.14,22.53,-7.79,-7.3,0.0,-1492.24,-1178.87,5.18,128.0,0.0,297.0,0.0,0.0,0.0,0.0,0.0,0.0,0.0,0.0,0.0,0.0,0.0,0.0,0.0,0.0
16.0,2348.0,0.0,0.0,-0.0,0.0,2348.0,0.0,37511.8873489657,0.0,37511.8873489657,0.0,0.0,0.0,0.1942669139458891,0.7016034985422723,0.0,0.0,0.0,"[2.0, 2.0, 2.0, 2.0, 2.0, 2.0, 2.0, 2.0, 2.0]",20.68,0.0,0.0,0.0,413.0168660406463,90.16671323309893,-1941.9958688816996,-404.98782589167007,16.156896425981117,0.0,0.0,0.0,0.0,0.0,0.0,-7.2,20.54354888220162,0.0,20.164684069187366,0.0,-7.2,20.68,19.02,21.31,20.09,20.98,-7.68,-7.2,0.0,-1352.76,-1068.68,0.0,212.0,31.0,188.0,0.0,0.0,0.0,0.0,0.0,0.0,0.0,0.0,0.0,0.0,0.0,0.0,0.0,0.0
17.0,2620.0,63484.14937757916,44546.728630691265,-0.0,0.0,-16000.0,0.0,4288.736857206518,0.0,-80000.0,0.0,84288.73685720652,0.5807407407407407,0.4846372843162594,0.7016034985422723,0.0,0.0,0.0,"[2.0, 2.0, 2.0, 2.0, 2.0, 2.0, 2.0, 2.0, 2.0]",20.0,0.0,0.0,0.0,958.3225892437724,149.40743933844624,-1880.75441708843,785.3308828074834,1.797752688770636,0.0,0.0,0.0,0.0,0.0,0.0,-7.0,20.304218479701824,0.0,20.106254141888215,0.0,-7.0,20.0,19.01,21.2,19.8,20.69,-7.47,-7.0,6158.24,-1310.1,-1034.98,0.0,276.0,80.0,549.0,0.0,0.0,0.0,0.0,0.0,0.0,0.0,0.0,0.0,0.0,0.0,0.0,0.0,0.0
18.0,4405.0,27573.428054696375,21253.721851631068,-0.0,0.0,-1776.8390627918245,0.0,40417.67833601312,0.0,0.0,0.0,40417.67833601314,0.6452334178346661,0.4846372843162594,0.7016034985422723,0.0,0.0,0.0,"[2.0, 2.0, 2.0, 2.0, 2.0, 2.0, 2.0, 2.0, 2.0]",20.0,0.0,0.0,0.0,1121.7635701222139,186.62559068344135,-1873.7886599881024,624.0507441803309,10772.939872867208,0.0,0.0,0.0,0.0,0.0,0.0,-6.9,20.244514429758222,0.0,20.040161722070355,0.0,-6.9,20.0,19.0,21.08,19.79,20.63,-7.38,-6.9,4968.09,-1305.25,-1031.14,0.0,426.0,60.0,592.0,0.0,0.0,0.0,0.0,0.0,0.0,0.0,0.0,0.0,0.0,0.0,0.0,0.0,0.0
19.0,6246.0,23219.815811422675,16857.716732365563,-0.0,0.0,0.0,0.0,32218.613674406373,0.0,0.0,0.0,32218.61367440637,0.6452334178346661,0.4846372843162594,0.7016034985422723,0.0,0.0,0.0,"[2.0, 2.0, 2.0, 2.0, 2.0, 2.0, 2.0, 2.0, 2.0]",24.0,0.0,0.0,0.0,791.7233285415932,143.14673594228896,-2145.4531869008756,-6773.681678790087,7997.778030056245,0.0,0.0,0.0,0.0,0.0,0.0,-6.8,21.51009968815116,0.0,20.267513927992468,0.0,-6.8,24.0,19.18,21.36,22.64,22.87,-7.27,-6.8,0.0,-1494.48,-1180.64,0.0,249.0,90.0,440.0,0.0,0.0,0.0,0.0,0.0,0.0,0.0,0.0,0.0,0.0,0.0,0.0,0.0,0.0
20.0,4080.0,2011.1181688640188,6265.808201689095,-0.0,0.0,8344.745623669396,0.0,12094.734444086485,0.0,0.0,0.0,12094.734444086485,0.3298613232137517,0.4846372843162594,0.7016034985422723,0.0,0.0,0.0,"[2.0, 2.0, 2.0, 2.0, 1.738154334107989, 0.8373530472753146, 1.678815686151058, 1.9215385188452494, 1.8150121249533164]",24.0,0.0,0.0,0.0,548.3922239399612,144.71977699659982,-2131.5216727002207,-6221.126833396262,0.0,0.0,0.0,0.0,0.0,0.0,0.0,-6.6,21.714383853137612,0.0,20.53062353581784,0.0,-6.6,24.0,19.38,21.68,22.5,22.88,-7.07,-6.6,0.0,-1484.78,-1172.98,0.0,258.0,98.0,256.0,0.0,0.0,0.0,0.0,0.0,0.0,0.0,0.0,0.0,0.0,0.0,0.0,0.0,0.0
21.0,3907.0,20059.030104313737,16051.73495379217,-0.0,0.0,0.0,0.0,31137.29269104086,0.0,0.0,0.0,31137.29269104086,0.3298613232137517,0.4846372843162594,0.6870262390670536,0.0,0.0,0.0,"[2.0, 2.0, 2.0, 2.0, 1.738154334107989, 0.8373530472753146, 1.678815686151058, 1.9215385188452494, 1.8150121249533164]",21.16,0.0,0.0,0.0,1056.085705605844,156.89511475696594,-1926.8501032111117,-571.0458983022963,0.0,0.0,0.0,0.0,0.0,0.0,0.0,-6.5,20.96458855859948,0.0,20.568942210474674,0.0,-6.5,21.16,19.44,21.7,20.56,21.41,-6.98,-6.5,869.31,-1342.21,-1060.34,0.0,405.0,21.0,559.0,0.0,0.0,0.0,0.0,0.0,0.0,0.0,0.0,0.0,0.0,0.0,0.0,0.0,0.0
22.0,3074.0,35639.552701330555,0.0,-0.0,0.0,-16000.0,0.0,14748.619444041504,0.0,0.0,0.0,0.0,0.9106020639544924,0.4846372843162594,0.6870262390670536,65549.4197512956,16387.3549378239,81936.7746891195,"[2.0, 2.0, 2.0, 2.0, 1.738154334107989, 0.8373530472753146, 1.678815686151058, 1.9215385188452494, 1.8150121249533164]",20.68,0.0,0.0,0.0,1147.675820494246,224.34711516581595,-1879.4301489703366,262.43242627498955,9239.077937060165,0.0,0.0,0.0,0.0,0.0,0.0,-6.3,20.79180260173182,0.0,20.525829337309293,0.0,-6.3,20.68,19.45,21.6,20.35,21.2,-6.81,-6.3,1167.04,-1309.18,-1034.25,0.0,628.0,19.0,509.0,0.0,0.0,0.0,0.0,0.0,0.0,0.0,0.0,0.0,0.0,0.0,0.0,0.0,0.0
23.0,2052.0,5691.901576693965,19611.442068810495,-0.0,0.0,16000.0,0.0,38603.32867227007,0.0,0.0,0.0,38603.32867227007,0.3059157449824591,0.4846372843162594,0.6870262390670536,0.0,0.0,0.0,"[2.0, 2.0, 2.0, 2.0, 1.738154334107989, 0.8373530472753146, 1.678815686151058, 1.9215385188452494, 1.8150121249533164]",24.0,0.0,0.0,0.0,882.4520943871573,119.1106686324189,-2103.6586442989105,-5867.382360433033,0.0,0.0,0.0,0.0,0.0,0.0,0.0,-6.2,21.84504526245394,0.0,20.720524417394678,0.0,-6.2,24.0,19.61,21.83,22.76,23.09,-6.7,-6.2,3681.82,-1465.37,-1157.64,0.0,320.0,6.0,478.0,0.0,0.0,0.0,0.0,0.0,0.0,0.0,0.0,0.0,0.0,0.0,0.0,0.0,0.0
24.0,1322.0,43057.20507695668,25519.91905157189,-0.0,0.0,-16000.0,0.0,46244.32909526249,0.0,-4232.584933275469,0.0,50476.91402853796,0.8866564857231998,0.5,0.6870262390670536,0.0,0.0,0.0,"[2.0, 2.0, 2.0, 2.0, 1.738154334107989, 0.8373530472753146, 1.678815686151058, 1.9215385188452494, 1.8150121249533164]",21.42,0.0,0.0,0.0,451.70579388143665,58.10813654624345,-1916.8292425051736,-723.8006234323,9117.023851531472,0.0,0.0,0.0,0.0,0.0,0.0,-6.1,21.1641692249266,0.0,20.75711570527926,0.0,-6.1,21.42,19.66,21.85,20.78,21.6,-6.61,-6.1,1015.67,-1335.23,-1054.83,0.0,160.0,0.0,247.0,0.0,0.0,0.0,0.0,0.0,0.0,0.0,0.0,0.0,0.0,0.0,0.0,0.0,0.0
25.0,833.0,0.0,11534.330612235866,-0.0,0.0,12367.330612235866,0.0,22924.19469697613,0.0,0.0,0.0,22924.194696976127,0.41925925925925933,0.5,0.6870262390670536,0.0,0.0,0.0,"[2.0, 2.0, 2.0, 2.0, 1.738154334107989, 0.8373530472753146, 1.678815686151058, 1.9215385188452494, 1.8150121249533164]",24.0,0.0,0.0,0.0,170.7624477425612,51.62720740248268,-2089.7271300982557,-5416.60933103548,0.0,0.0,0.0,0.0,0.0,0.0,0.0,-6.0,22.0116699511304,0.0,20.945706991058188,0.0,-6.0,24.0,19.82,22.07,22.82,23.21,-6.47,-6.0,4104.49,-1455.67,-1149.98,0.0,160.0,0.0,41.0,0.0,0.0,0.0,0.0,0.0,0.0,0.0,0.0,0.0,0.0,0.0,0.0,0.0,0.0
26.0,825.0,18437.221705975753,17520.035597445873,-0.0,0.0,0.0,0.0,35321.705840537354,0.0,0.0,0.0,35321.705840537354,0.41925925925925933,0.5,0.6782798833819225,0.0,0.0,0.0,"[2.0, 2.0, 2.0, 2.0, 1.738154334107989, 0.8373530472753146, 1.678815686151058, 1.9215385188452494, 1.8150121249533164]",21.3,0.0,0.0,0.0,364.4224242072229,56.094643996725544,-1881.02783275678,-93.30003843483193,5568.586100072057,0.0,0.0,0.0,0.0,0.0,0.0,-5.7,21.283141260852165,0.0,20.961837372758996,0.0,-5.7,21.3,19.86,22.06,20.82,21.69,-6.16,-5.7,3343.69,-1310.29,-1035.13,0.0,160.0,0.0,183.0,0.0,0.0,0.0,0.0,0.0,0.0,0.0,0.0,0.0,0.0,0.0,0.0,0.0,0.0
27.0,766.0,34313.660847053754,17376.092542818486,-0.0,0.0,-16000.0,0.0,35362.80909152482,0.0,0.0,0.0,35362.80909152482,1.0,0.5,0.6782798833819225,0.0,0.0,0.0,"[2.0, 2.0, 2.0, 2.0, 1.738154334107989, 0.8373530472753146, 1.678815686151058, 1.9215385188452494, 1.8150121249533164]",22.79,0.0,0.0,0.0,311.37767898580523,78.71497435771583,-1970.4036300189848,-2850.266419386271,7717.348771814439,0.0,0.0,0.0,0.0,0.0,0.0,-5.5,21.747070205623977,0.0,21.045505250953404,0.0,-5.5,22.79,19.95,22.14,22.04,22.61,-5.95,-5.5,3031.45,-1372.55,-1084.31,0.0,240.0,0.0,102.0,0.0,0.0,0.0,0.0,0.0,0.0,0.0,0.0,0.0,0.0,0.0,0.0,0.0,0.0
28.0,968.0,0.0,14398.399999999998,-0.0,0.0,15366.399999999998,0.0,29440.047438022026,0.0,0.0,0.0,29440.047438022026,0.41925925925925933,0.5,0.6782798833819225,0.0,0.0,0.0,"[2.0, 2.0, 2.0, 2.0, 1.738154334107989, 0.8373530472753146, 1.678815686151058, 1.9215385188452494, 1.8150121249533164]",24.0,0.0,0.0,0.0,383.80277767106975,104.2297002586381,-2047.9325874962904,-4855.881369150303,0.0,0.0,0.0,0.0,0.0,0.0,0.0,-5.4,22.218763770890853,0.0,21.23057895220267,0.0,-5.4,24.0,20.1,22.36,22.86,23.3,-5.84,-5.4,835.04,-1426.55,-1126.98,0.0,320.0,0.0,113.0,0.0,0.0,0.0,0.0,0.0,0.0,0.0,0.0,0.0,0.0,0.0,0.0,0.0,0.0
29.0,965.0,25984.174045774766,8889.253175545893,-0.0,0.0,-16000.0,0.0,18345.12102577457,0.0,0.0,0.0,18345.12102577457,1.0,0.5,0.6782798833819225,0.0,0.0,0.0,"[2.0, 2.0, 2.0, 2.0, 1.738154334107989, 0.8373530472753146, 1.678815686151058, 1.9215385188452494, 1.8150121249533164]",21.62,0.0,0.0,0.0,596.5559912519656,109.13758834808799,-1868.4400438312546,-166.76223525174777,0.0,0.0,0.0,0.0,0.0,0.0,0.0,-5.2,21.575156874943733,0.0,21.24437989984622,0.0,-5.2,21.62,20.15,22.34,21.14,21.99,-5.64,-5.2,1467.65,-1301.52,-1028.2,0.0,320.0,0.0,269.0,0.0,0.0,0.0,0.0,0.0,0.0,0.0,0.0,0.0,0.0,0.0,0.0,0.0,0.0
30.0,1638.0,0.0,3529.588952295148,-0.0,0.0,5167.5889522951475,0.0,7317.807989812465,0.0,0.0,0.0,7317.807989812465,0.8047018536547563,0.5,0.6782798833819225,0.0,0.0,0.0,"[2.0, 2.0, 2.0, 2.0, 1.738154334107989, 0.8373530472753146, 1.678815686151058, 1.9215385188452494, 1.8150121249533164]",21.13,0.0,0.0,0.0,591.1725597342305,224.12688941821247,-1826.9530222193534,667.5679090444247,0.0,0.0,0.0,0.0,0.0,0.0,0.0,-5.1,21.38788794839855,0.0,21.187918875399546,0.0,-5.1,21.13,20.15,22.23,20.91,21.77,-5.54,-5.1,3575.62,-1272.62,-1005.37,0.0,676.0,16.0,76.0,0.0,0.0,0.0,0.0,0.0,0.0,0.0,0.0,0.0,0.0,0.0,0.0,0.0,0.0
31.0,1818.0,9390.118970130296,7525.168375279643,-0.0,0.0,0.0,0.0,15673.482040261664,0.0,0.0,0.0,15673.482040261664,0.8047018536547563,0.5,0.6782798833819217,0.0,0.0,0.0,"[2.0, 2.0, 2.0, 2.0, 1.738154334107989, 0.8373530472753146, 1.678815686151058, 1.9215385188452494, 1.8150121249533164]",20.99,0.0,0.0,0.0,615.2185538467811,197.2278873894966,-1810.576486905832,780.3191213377896,0.0,0.0,0.0,0.0,0.0,0.0,0.0,-5.0,21.294372258276013,0.0,21.124998377059413,0.0,-5.0,20.99,20.14,22.11,20.87,21.67,-5.44,-5.0,2918.26,-1261.21,-996.36,0.0,548.0,35.0,159.0,0.0,0.0,0.0,0.0,0.0,0.0,0.0,0.0,0.0,0.0,0.0,0.0,0.0,0.0
32.0,3503.0,3316.3946344779583,2193.1871289145756,-0.0,0.0,2396.3744676090073,0.0,4609.804683780804,0.0,0.0,0.0,4609.804683780804,0.49886052347623844,0.5,0.6782798833819217,0.0,0.0,0.0,"[1.243086328064706, 1.1890350889608818, 1.6683984422761426, 2.0, 0.8431566300477691, 0.8373530472753146, 1.2822304250273149, 0.5834291878945201, 1.8150121249533164]",20.91,0.0,0.0,1.0658701577236576,446.8248159720233,160.29288343427743,-1790.5531865744254,796.913213907961,0.0,0.0,0.0,0.0,0.0,0.0,0.0,-4.8,21.212917047651462,0.0,21.059906845892783,0.0,-4.8,20.91,20.12,22.0,20.8,21.57,-5.24,-4.8,372.86,-1247.27,-985.34,1.69,456.0,25.0,85.0,0.0,0.0,0.0,0.0,0.0,0.0,0.0,0.0,0.0,0.0,0.0,0.0,0.0,0.0
33.0,2120.0,0.0,0.0,-0.0,13.750548818732307,2106.249451181268,0.0,22839.03907179917,0.0,22839.03907179917,0.0,0.0,0.41925925925925933,0.4136846595925957,0.6782798833819217,0.0,0.0,0.0,"[1.243086328064706, 1.1890350889608818, 1.6683984422761426, 2.0, 0.8431566300477691, 0.8373530472753146, 1.2822304250273149, 0.5834291878945201, 1.8150121249533164]",20.76,0.0,0.0,31.535065602689553,502.09471288743833,125.3713720285762,-1710.5749577241318,928.5254328337783,133.96730664123186,0.0,0.0,0.0,0.0,0.0,0.0,-3.8,21.112837344727033,0.0,20.991288116465277,0.0,-3.8,20.76,20.1,21.88,20.7,21.44,-4.19,-3.8,2727.59,-1191.56,-941.33,50.12,327.0,29.0,193.0,0.0,0.0,0.0,0.0,0.0,0.0,0.0,0.0,0.0,0.0,0.0,0.0,0.0,0.0
34.0,1941.0,28281.14520457399,10426.145347742035,-0.0,227.40586919091692,-16000.0,0.0,24001.760323394712,0.0,0.0,0.0,24001.76032339471,1.0,0.4136846595925957,0.6782798833819217,0.0,0.0,0.0,"[1.243086328064706, 1.1890350889608818, 1.6683984422761426, 2.0, 0.8431566300477691, 0.8373530472753146, 1.2822304250273149, 0.5834291878945201, 1.8150121249533164]",20.76,0.0,0.0,60.99427602131932,486.0879765080389,110.36456037045046,-1633.951629620529,780.2078790173185,5669.177627657791,0.0,0.0,0.0,0.0,0.0,0.0,-2.7,21.057425176622967,0.0,20.927628275161258,0.0,-2.7,20.76,20.08,21.78,20.69,21.38,-3.09,-2.7,0.0,-1138.18,-899.16,96.94,310.0,12.0,192.0,0.0,0.0,0.0,0.0,0.0,0.0,0.0,0.0,0.0,0.0,0.0,0.0,0.0,0.0
35.0,2276.0,0.0,7284.292079924723,-0.0,1090.1690368283075,8470.123043096415,0.0,17463.414859937315,0.0,0.0,0.0,17463.41485993732,0.6798895297393646,0.4136846595925957,0.6782798833819217,0.0,0.0,0.0,"[1.243086328064706, 1.1890350889608818, 1.6683984422761426, 2.0, 0.8431566300477691, 0.8373530472753146, 1.2822304250273149, 0.5834291878945201, 1.8150121249533164]",22.78,0.0,0.0,92.54886738303108,717.2884154230408,44.26537526830783,-1705.0841017155544,-3015.0624476661505,0.0,0.0,0.0,0.0,0.0,0.0,0.0,-1.7,21.67526055414411,0.0,21.01693629336273,0.0,-1.7,22.78,20.16,21.88,22.12,22.49,-2.07,-1.7,1450.77,-1187.73,-938.31,147.09,93.0,0.0,477.0,0.0,0.0,0.0,0.0,0.0,0.0,0.0,0.0,0.0,0.0,0.0,0.0,0.0,0.0
36.0,11667.0,0.0,2089.7446347800883,-0.0,1522.9362983195076,12233.80833646058,0.0,5149.424238600153,0.0,0.0,0.0,5149.424238600153,0.21753849661538194,0.4136846595925957,0.6782798833819217,0.0,0.0,0.0,"[1.243086328064706, 1.1890350889608818, 1.6683984422761426, 2.0, 0.8431566300477691, 0.8373530472753146, 1.2822304250273149, 0.5834291878945201, 1.8150121249533164]",21.35,0.0,0.0,101.08916901620219,764.1601591707888,89.15996695834001,-1556.6734119385635,-205.6468382188465,0.0,0.0,0.0,0.0,0.0,0.0,0.0,-1.0,21.282865032355577,0.0,21.01915604215487,0.0,-1.0,21.35,20.18,21.86,20.97,21.62,-1.5,-1.0,647.3,-1084.35,-856.64,160.66,240.0,0.0,434.0,0.0,0.0,0.0,0.0,0.0,0.0,0.0,0.0,0.0,0.0,0.0,0.0,0.0,0.0
37.0,5750.0,30291.54787695013,21150.04450158756,-0.0,450.6017435791754,5756.068620443006,0.0,14934.705303549315,47233.58,0.0,0.0,52721.56930354932,0.0,0.4136846595925957,0.6782798833819217,37786.864,9446.716,47233.58,"[1.243086328064706, 1.1890350889608818, 1.6683984422761426, 2.0, 0.8431566300477691, 0.8373530472753146, 1.2822304250273149, 0.5834291878945201, 1.8150121249533164]",21.05,0.0,0.0,72.29936601267032,2571.701125565567,84.06331394237279,-1514.818112240473,294.49905912437816,4436.16635194611,0.0,0.0,0.0,0.0,0.0,0.0,-0.7,21.16670661712512,0.0,20.982131195618024,0.0,-0.7,21.05,20.18,21.79,20.85,21.49,-1.23,-0.7,898.48,-1055.19,-833.6,114.9,83.0,0.0,1842.0,0.0,0.0,0.0,0.0,0.0,0.0,0.0,0.0,0.0,0.0,0.0,0.0,0.0,0.0
38.0,2205.0,24673.507208509287,6345.566892214094,-0.0,0.42721974735507684,-16000.0,0.0,15454.88520751989,0.0,0.0,0.0,15454.885207519888,0.5807407407407407,0.4136846595925957,0.6782798833819217,0.0,0.0,0.0,"[1.243086328064706, 1.1890350889608818, 1.6683984422761426, 2.0, 0.8431566300477691, 0.8373530472753146, 1.2822304250273149, 0.5834291878945201, 1.8150121249533164]",23.24,0.0,0.0,18.52213654903805,716.211729119494,40.961989054255,-1709.6117785366798,-3831.7902579284555,4769.030619546099,0.0,0.0,0.0,0.0,0.0,0.0,-1.3,21.83824462397698,0.0,21.07877393365989,0.0,-1.3,23.24,20.26,21.9,22.24,22.57,-1.78,-1.3,3256.55,-1190.88,-940.8,29.44,82.0,0.0,482.0,0.0,0.0,0.0,0.0,0.0,0.0,0.0,0.0,0.0,0.0,0.0,0.0,0.0,0.0
39.0,1902.0,0.0,10621.27203036144,-0.0,0.0,12523.27203036144,0.0,25261.003193745026,0.0,0.0,0.0,25261.003193745026,0.10745003664544811,0.4136846595925957,0.6782798833819217,0.0,0.0,0.0,"[1.243086328064706, 1.1890350889608818, 1.6683984422761426, 2.0, 0.8431566300477691, 0.8373530472753146, 1.2822304250273149, 0.5834291878945201, 1.8150121249533164]",23.24,0.0,0.0,2.1687852413618325,386.8892784079046,33.66307856225257,-1751.406321138645,-3543.05611278538,4874.855601039454,0.0,0.0,0.0,0.0,0.0,0.0,-1.9,21.94535038400294,0.0,21.21742746291011,0.0,-1.9,23.24,20.37,22.07,22.32,22.69,-2.39,-1.9,463.86,-1220.0,-963.8,3.45,83.0,0.0,240.0,0.0,0.0,0.0,0.0,0.0,0.0,0.0,0.0,0.0,0.0,0.0,0.0,0.0,0.0
40.0,1630.0,0.0,0.0,-0.0,0.0,1630.0,0.0,32727.729191527666,0.0,32727.729191527666,0.0,0.0,0.04584761790017222,0.28999709651048056,0.6782798833819217,0.0,0.0,0.0,"[1.243086328064706, 1.1890350889608818, 1.6683984422761426, 2.0, 0.8431566300477691, 0.8373530472753146, 1.2822304250273149, 0.5834291878945201, 1.8150121249533164]",23.24,0.0,0.0,0.0,572.5099971394151,61.78905261333089,-1765.3378353393,-3274.8795406026748,4411.751289147421,0.0,0.0,0.0,0.0,0.0,0.0,-2.1,22.0446541586039,0.0,21.34659892808107,0.0,-2.1,23.24,20.47,22.22,22.39,22.79,-2.6,-2.1,3253.92,-1229.7,-971.46,0.0,163.0,0.0,334.0,0.0,0.0,0.0,0.0,0.0,0.0,0.0,0.0,0.0,0.0,0.0,0.0,0.0,0.0
41.0,3251.0,41568.15829257648,38109.3175011136,-0.0,0.0,0.0,0.0,9183.708287734164,0.0,-80000.0,0.0,89183.70828773416,0.04584761790017222,0.580367466880851,0.6782798833819217,0.0,0.0,0.0,"[1.243086328064706, 1.1890350889608818, 1.6683984422761426, 2.0, 0.8431566300477691, 0.8373530472753146, 1.2822304250273149, 0.5834291878945201, 1.8150121249533164]",23.24,0.0,0.0,0.0,677.9534758001221,121.91068170909227,-1779.269349539955,-3036.9794781385467,0.0,0.0,0.0,0.0,0.0,0.0,0.0,-2.3,22.13274714001872,0.0,21.46215138178055,0.0,-2.3,23.24,20.57,22.36,22.41,22.85,-2.8,-2.3,0.0,-1239.41,-979.13,0.0,298.0,31.0,337.0,0.0,0.0,0.0,0.0,0.0,0.0,0.0,0.0,0.0,0.0,0.0,0.0,0.0,0.0
42.0,2910.0,26961.394150473294,7916.587179720924,-0.0,0.0,-16000.0,0.0,18375.513694396675,0.0,0.0,0.0,18375.513694396675,0.6265883586409129,0.580367466880851,0.6542274052478109,0.0,0.0,0.0,"[1.243086328064706, 1.1890350889608818, 1.6683984422761426, 2.0, 0.8431566300477691, 0.8373530472753146, 1.2822304250273149, 0.5834291878945201, 1.8150121249533164]",21.75,0.0,0.0,0.0,490.897175330549,110.7735510445713,-1689.419119646672,-120.55957722755456,0.0,0.0,0.0,0.0,0.0,0.0,0.0,-2.5,21.721005983074722,0.0,21.460550021930878,0.0,-2.5,21.75,20.59,22.33,21.39,22.06,-3.05,-2.5,2367.12,-1176.82,-929.69,0.0,243.0,48.0,227.0,0.0,0.0,0.0,0.0,0.0,0.0,0.0,0.0,0.0,0.0,0.0,0.0,0.0,0.0
43.0,2946.0,8446.78674052971,5458.552806827062,-0.0,0.0,0.0,0.0,12565.993645046412,0.0,0.0,0.0,12565.993645046412,0.6265883586409129,0.580367466880851,0.6542274052478101,0.0,0.0,0.0,"[1.243086328064706, 1.1890350889608818, 1.6683984422761426, 2.0, 0.8431566300477691, 0.8373530472753146, 1.2822304250273149, 0.5834291878945201, 1.8150121249533164]",21.3,0.0,0.0,0.0,871.3263359171714,123.98709590078262,-1671.948219493447,644.0166280516044,0.0,0.0,0.0,0.0,0.0,0.0,0.0,-2.7,21.552886622169066,0.0,21.409305229690855,0.0,-2.7,21.3,20.58,22.24,21.17,21.86,-3.27,-2.7,0.0,-1164.65,-920.07,0.0,256.0,49.0,499.0,0.0,0.0,0.0,0.0,0.0,0.0,0.0,0.0,0.0,0.0,0.0,0.0,0.0,0.0
44.0,5053.0,5128.634866332815,49.99169200115095,-0.0,0.0,0.0,0.0,114.13141262818122,0.0,0.0,0.0,114.13141262818122,0.43373152976709767,0.580367466880851,0.6542274052478101,0.0,0.0,0.0,"[0.776807498252392, 0.40211879540728646, 1.6683984422761426, 0.5007350486996245, 0.694503880967094, 0.7656764621762697, 0.9063513515699633, 0.5834291878945201, 0.9094968603640297]",21.29,0.0,0.0,0.0,880.8729544752885,102.18474688803397,-1684.7377256145437,541.5378623735132,0.0,0.0,0.0,0.0,0.0,0.0,0.0,-2.9,21.498662459286024,0.0,21.351674412722687,0.0,-2.9,21.29,20.56,22.15,21.15,21.79,-3.44,-2.9,0.0,-1173.56,-927.11,0.0,167.0,57.0,552.0,0.0,0.0,0.0,0.0,0.0,0.0,0.0,0.0,0.0,0.0,0.0,0.0,0.0,0.0
45.0,3363.0,14196.258032008804,10762.27674184876,-0.0,0.0,0.0,0.0,24365.159389245116,0.0,0.0,0.0,24365.159389245116,0.43373152976709767,0.580367466880851,0.6542274052478101,0.0,0.0,0.0,"[0.776807498252392, 0.40211879540728646, 1.6683984422761426, 0.5007350486996245, 0.694503880967094, 0.7656764621762697, 0.9063513515699633, 0.5834291878945201, 0.9094968603640297]",21.22,0.0,0.0,0.0,742.9135494474605,94.0678550477899,-1694.2945087168146,533.3127702878476,4533.0682794457225,0.0,0.0,0.0,0.0,0.0,0.0,-3.1,21.432886492715145,0.0,21.29453463330509,0.0,-3.1,21.22,20.54,22.05,21.09,21.71,-3.64,-3.1,0.0,-1180.21,-932.37,0.0,107.0,80.0,480.0,0.0,0.0,0.0,0.0,0.0,0.0,0.0,0.0,0.0,0.0,0.0,0.0,0.0,0.0
46.0,2659.0,0.0,0.0,-0.0,0.0,2659.0,0.0,30689.78410940047,0.0,30689.784109400476,0.0,0.0,0.3332402221329329,0.4643818882361024,0.6469387755102007,0.0,0.0,0.0,"[0.776807498252392, 0.40211879540728646, 1.6683984422761426, 0.5007350486996245, 0.694503880967094, 0.7656764621762697, 0.9063513515699633, 0.5834291878945201, 0.9094968603640297]",22.78,0.0,0.0,0.0,679.8197320596037,129.90173026499144,-1816.4470698482548,-2399.7098886762483,2271.03816944101,0.0,0.0,0.0,0.0,0.0,0.0,-3.3,21.902494868386707,0.0,21.355405998108587,0.0,-3.3,22.78,20.59,22.13,22.21,22.58,-3.87,-3.3,203.14,-1265.3,-999.59,0.0,268.0,61.0,351.0,0.0,0.0,0.0,0.0,0.0,0.0,0.0,0.0,0.0,0.0,0.0,0.0,0.0,0.0
47.0,1744.0,17056.54605060239,0.0,-0.0,0.0,0.0,0.0,13704.53698831443,0.0,0.0,0.0,0.0,0.3332402221329329,0.4643818882361024,0.6469387755102005,60909.05328139749,15227.263320349373,76136.31660174686,"[0.776807498252392, 0.40211879540728646, 1.6683984422761426, 0.5007350486996245, 0.694503880967094, 0.7656764621762697, 0.9063513515699633, 0.5834291878945201, 0.9094968603640297]",22.35,0.0,0.0,0.0,586.6504772593329,72.58011424590343,-1793.8424851601246,-1467.5732641829627,3756.6970210524405,0.0,0.0,0.0,0.0,0.0,0.0,-3.4,21.822610137543702,0.0,21.402814778358874,0.0,-3.4,22.35,20.63,22.18,21.85,22.32,-3.97,-3.4,792.69,-1249.56,-987.15,0.0,166.0,17.0,341.0,0.0,0.0,0.0,0.0,0.0,0.0,0.0,0.0,0.0,0.0,0.0,0.0,0.0,0.0
48.0,1753.0,0.0,4988.936277637403,-0.0,0.0,6741.936277637403,0.0,10581.241393214646,0.0,0.0,0.0,10581.241393214646,0.07844293272864711,0.4643818882361024,0.6083090379008711,0.0,0.0,0.0,"[0.776807498252392, 0.40211879540728646, 1.6683984422761426, 0.5007350486996245, 0.694503880967094, 0.7656764621762697, 0.9063513515699633, 0.5834291878945201, 0.9094968603640297]",22.78,0.0,0.0,0.0,1190.5279353754186,125.65451941835214,-1907.0019121525124,-2165.0092241444863,0.0,0.0,0.0,0.0,0.0,0.0,0.0,-4.6,21.989947576894725,0.0,21.470245553021535,0.0,-4.6,22.78,20.68,22.26,22.19,22.61,-5.15,-4.6,2851.85,-1328.38,-1049.42,0.0,320.0,5.0,704.0,0.0,0.0,0.0,0.0,0.0,0.0,0.0,0.0,0.0,0.0,0.0,0.0,0.0,0.0
49.0,1828.0,29636.883976101206,11660.6995562207,-0.0,0.0,-16000.0,0.0,23397.679879273695,0.0,0.0,0.0,23397.6798792737,0.6591836734693878,0.4643818882361024,0.6083090379008711,0.0,0.0,0.0,"[0.776807498252392, 0.40211879540728646, 1.6683984422761426, 0.5007350486996245, 0.694503880967094, 0.7656764621762697, 0.9063513515699633, 0.5834291878945201, 0.9094968603640297]",21.75,0.0,0.0,0.0,1713.5103625516695,134.90400081770002,-1919.279334776889,-185.85185626601313,2068.8745273721993,0.0,0.0,0.0,0.0,0.0,0.0,-5.8,21.698360769857405,0.0,21.456745130183222,0.0,-5.8,21.75,20.68,22.23,21.41,22.01,-6.35,-5.8,593.6,-1336.93,-1056.18,0.0,320.0,0.0,1088.0,0.0,0.0,0.0,0.0,0.0,0.0,0.0,0.0,0.0,0.0,0.0,0.0,0.0,0.0
50.0,997.0,12761.994057806542,11701.18408751751,-0.0,0.0,0.0,0.0,22140.302033110045,0.0,0.0,0.0,22140.30203311005,0.6591836734693878,0.4643818882361024,0.6083090379008711,0.0,0.0,0.0,"[0.776807498252392, 0.40211879540728646, 1.6683984422761426, 0.5007350486996245, 0.694503880967094, 0.7656764621762697, 0.9063513515699633, 0.5834291878945201, 0.9094968603640297]",22.42,0.0,0.0,0.0,510.6364242289116,107.15555661965632,-2049.2319173531705,-1468.9949538918654,3878.8185356711497,0.0,0.0,0.0,0.0,0.0,0.0,-7.0,21.89027552525528,0.0,21.471628436552287,0.0,-7.0,22.42,20.7,22.25,21.9,22.38,-7.58,-7.0,3092.48,-1427.46,-1127.69,0.0,320.0,0.0,206.0,0.0,0.0,0.0,0.0,0.0,0.0,0.0,0.0,0.0,0.0,0.0,0.0,0.0,0.0
51.0,886.0,10869.776394864344,9929.427512890023,-0.0,0.0,0.0,0.0,18219.925300318224,0.0,0.0,0.0,18219.92530031822,0.6591836734693878,0.4643818882361024,0.6083090379008711,0.0,0.0,0.0,"[0.776807498252392, 0.40211879540728646, 1.6683984422761426, 0.5007350486996245, 0.694503880967094, 0.7656764621762697, 0.9063513515699633, 0.5834291878945201, 0.9094968603640297]",22.78,0.0,0.0,0.0,543.3676878567417,107.91061632572554,-2115.974625162338,-2041.8735683858442,0.0,0.0,0.0,0.0,0.0,0.0,0.0,-7.6,22.037010502302618,0.0,21.53394422476817,0.0,-7.6,22.78,20.74,22.33,22.25,22.67,-8.19,-7.6,1577.47,-1473.95,-1164.42,0.0,320.0,0.0,230.0,0.0,0.0,0.0,0.0,0.0,0.0,0.0,0.0,0.0,0.0,0.0,0.0,0.0,0.0
52.0,1010.0,12986.71577868802,11911.78219979458,-0.0,0.0,0.0,0.0,21062.52079074385,0.0,0.0,0.0,21062.52079074385,0.6591836734693878,0.4643818882361024,0.6083090379008711,0.0,0.0,0.0,"[0.776807498252392, 0.40211879540728646, 1.6683984422761426, 0.5007350486996245, 0.694503880967094, 0.7656764621762697, 0.9063513515699633, 0.5834291878945201, 0.9094968603640297]",21.48,0.0,0.0,0.0,409.71502804310194,104.82745585927624,-2074.1230005782772,444.6502110299531,441.39510834296465,0.0,0.0,0.0,0.0,0.0,0.0,-8.3,21.655644247821407,0.0,21.501029093414253,0.0,-8.3,21.48,20.72,22.28,21.31,21.94,-8.9,-8.3,727.19,-1444.8,-1141.39,0.0,320.0,0.0,132.0,0.0,0.0,0.0,0.0,0.0,0.0,0.0,0.0,0.0,0.0,0.0,0.0,0.0,0.0
53.0,1442.0,0.0,0.0,-0.0,0.0,1442.0,0.0,8467.362015895065,0.0,8467.362015895065,0.0,0.0,0.6046863189720333,0.4323812759311323,0.6083090379008711,0.0,0.0,0.0,"[0.776807498252392, 0.40211879540728646, 1.6683984422761426, 0.5007350486996245, 0.694503880967094, 0.7656764621762697, 0.9063513515699633, 0.5834291878945201, 0.9094968603640297]",21.22,0.0,0.0,0.0,447.11193231963597,107.94207714681173,-2098.308420535811,802.0068810131482,751.4373955905986,0.0,0.0,0.0,0.0,0.0,0.0,-8.9,21.5352167786832,0.0,21.436974361240882,0.0,-8.9,21.22,20.68,22.19,21.22,21.84,-9.53,-8.9,2463.39,-1461.64,-1154.7,0.0,320.0,4.0,159.0,0.0,0.0,0.0,0.0,0.0,0.0,0.0,0.0,0.0,0.0,0.0,0.0,0.0,0.0
54.0,1055.0,0.0,14945.000000000002,-0.0,0.0,16000.0,0.0,26354.828727875647,0.0,1496.1728335497414,0.0,24858.65589432591,0.0,0.42672680566072513,0.6083090379008711,0.0,0.0,0.0,"[0.776807498252392, 0.40211879540728646, 1.6683984422761426, 0.5007350486996245, 0.694503880967094, 0.7656764621762697, 0.9063513515699633, 0.5834291878945201, 0.9094968603640297]",21.22,0.0,0.0,0.0,534.3953019938496,194.89978662911653,-2133.1372060374483,667.9384722379775,754.3024259942141,0.0,0.0,0.0,0.0,0.0,0.0,-9.4,21.485877356008736,0.0,21.374937170295798,0.0,-9.4,21.22,20.64,22.11,21.22,21.81,-10.03,-9.4,1900.77,-1485.9,-1173.86,0.0,588.0,13.0,81.0,0.0,0.0,0.0,0.0,0.0,0.0,0.0,0.0,0.0,0.0,0.0,0.0,0.0,0.0
55.0,1110.0,55903.829639319214,44697.56449112262,-0.0,0.0,0.0,0.0,32949.803342336294,49083.73,0.0,0.0,72216.7873423363,0.0,0.42672680566072513,0.6083090379008711,39266.984000000004,9816.746000000001,49083.73,"[0.776807498252392, 0.40211879540728646, 1.6683984422761426, 0.5007350486996245, 0.694503880967094, 0.7656764621762697, 0.9063513515699633, 0.5834291878945201, 0.9094968603640297]",21.22,0.0,0.0,0.0,424.86041537966366,155.44791698699993,-2167.965991539086,550.3346629027344,5252.185295514591,0.0,0.0,0.0,0.0,0.0,0.0,-9.9,21.44263427497532,0.0,21.319905455333576,0.0,-9.9,21.22,20.6,22.04,21.22,21.78,-10.54,-9.9,627.37,-1510.17,-1193.03,0.0,432.0,30.0,81.0,0.0,0.0,0.0,0.0,0.0,0.0,0.0,0.0,0.0,0.0,0.0,0.0,0.0,0.0
56.0,1340.0,0.0,9411.015158460234,-0.0,0.0,10751.015158460234,0.0,15384.588599714787,0.0,0.0,0.0,15384.588599714787,0.17442875440437505,0.42672680566072513,0.6083090379008711,0.0,0.0,0.0,"[0.776807498252392, 0.40211879540728646, 1.6683984422761426, 0.5007350486996245, 0.694503880967094, 0.7656764621762697, 0.9063513515699633, 0.5834291878945201, 0.9094968603640297]",22.78,0.0,0.0,4.350785682811433,654.3381562089904,195.81215044061682,-2262.255524269216,-2370.8343356581267,0.0,0.0,0.0,0.0,0.0,0.0,0.0,-9.7,21.916417801110956,0.0,21.3815196699331,0.0,-9.7,22.78,20.64,22.13,22.32,22.64,-10.36,-9.7,3017.94,-1575.85,-1244.92,6.91,544.0,33.0,190.0,0.0,0.0,0.0,0.0,0.0,0.0,0.0,0.0,0.0,0.0,0.0,0.0,0.0,0.0
57.0,3176.0,5435.849446123315,6863.102372442692,-0.0,15.047332010229931,4615.384841539764,0.0,12789.680166362135,0.0,0.0,0.0,12789.680166362135,0.0,0.42672680566072513,0.6083090379008711,0.0,0.0,0.0,"[0.776807498252392, 0.40211879540728646, 1.6683984422761426, 0.5007350486996245, 0.694503880967094, 0.7656764621762697, 0.9063513515699633, 0.5834291878945201, 0.9094968603640297]",21.37,0.0,0.0,61.798389894550446,382.86964954132895,105.89712377620762,-1997.246125785262,343.16864476453424,708.5416145821243,0.0,0.0,0.0,0.0,0.0,0.0,-7.3,21.51392019151435,0.0,21.355461192723936,0.0,-7.3,21.37,20.62,22.1,21.23,21.81,-7.91,-7.3,1459.52,-1391.25,-1099.08,98.21,286.0,21.0,128.0,0.0,0.0,0.0,0.0,0.0,0.0,0.0,0.0,0.0,0.0,0.0,0.0,0.0,0.0
58.0,1440.0,0.0,0.0,-4377.046769615786,5817.046769615786,0.0,0.0,2902.6214568054784,0.0,2902.621456805479,0.0,0.0,0.0,0.4157569588851942,0.6287352561590781,0.0,0.0,0.0,"[0.776807498252392, 0.40211879540728646, 1.6683984422761426, 0.5007350486996245, 0.694503880967094, 0.7656764621762697, 0.9063513515699633, 0.5834291878945201, 0.9094968603640297]",21.22,0.0,0.0,1545.01272252224,653.9792607744747,107.87915550463936,-1840.5754078236926,533.5895009484885,0.0,0.0,0.0,0.0,0.0,0.0,0.0,-5.2,21.433588979534814,0.0,21.30603157449438,0.0,-5.2,21.22,20.58,22.03,21.19,21.76,-4.84,-5.2,884.11,-1282.11,-1012.87,2455.46,300.0,6.0,321.0,0.0,0.0,0.0,0.0,0.0,0.0,0.0,0.0,0.0,0.0,0.0,0.0,0.0,0.0
59.0,3765.0,0.0,9031.066025567998,-0.0,12796.066025567998,0.0,0.0,9980.279088730651,0.0,-10207.233637396097,0.0,20187.512726126748,0.0,0.4528054365320393,0.6287352561590781,0.0,0.0,0.0,"[0.776807498252392, 0.40211879540728646, 1.6683984422761426, 0.5007350486996245, 0.694503880967094, 0.7656764621762697, 0.9063513515699633, 0.5834291878945201, 0.9094968603640297]",21.6,0.0,0.0,1907.3884416003432,872.4748013076216,85.10152103821794,-1741.7387681518258,-180.67187477479473,0.0,0.0,0.0,0.0,0.0,0.0,0.0,-3.4,21.54969337503724,0.0,21.322003618412428,0.0,-3.4,21.6,20.6,22.05,21.67,22.16,-2.85,-3.4,0.0,-1213.26,-958.48,3031.37,218.0,0.0,525.0,0.0,0.0,0.0,0.0,0.0,0.0,0.0,0.0,0.0,0.0,0.0,0.0,0.0,0.0
60.0,7593.0,0.0,5964.570669880615,-0.0,13557.570669880615,0.0,0.0,12254.744411713405,0.0,-1646.7261540402224,0.0,13901.470565753629,0.0,0.45878244257262973,0.6287352561590781,0.0,0.0,0.0,"[0.776807498252392, 0.40211879540728646, 1.6683984422761426, 0.5007350486996245, 0.694503880967094, 0.7656764621762697, 0.9063513515699633, 0.5834291878945201, 0.9094968603640297]",21.97,0.0,0.0,1959.4132517942953,2984.717991606213,142.76920608925437,-1697.4517711516628,-785.9122618915885,-456.3383874677598,0.0,0.0,0.0,0.0,0.0,0.0,-2.4,21.689710244677787,0.0,21.374428196691394,0.0,-2.4,21.97,20.64,22.11,21.93,22.4,-1.83,-2.4,194.26,-1182.41,-934.11,3114.05,248.0,0.0,2058.0,0.0,0.0,0.0,0.0,0.0,0.0,0.0,0.0,0.0,0.0,0.0,0.0,0.0,0.0
61.0,4219.0,2337.8165888053113,2159.7515197859852,-0.0,4052.6240139247006,0.0,0.0,5095.4457197377615,0.0,0.0,0.0,5095.4457197377615,0.0,0.45878244257262973,0.6287352561590781,0.0,0.0,0.0,"[0.776807498252392, 0.40211879540728646, 1.6683984422761426, 0.5007350486996245, 0.694503880967094, 0.7656764621762697, 0.9063513515699633, 0.5834291878945201, 0.9094968603640297]",22.78,0.0,0.0,95.55122026597996,1656.6613257243855,103.19149316279294,-1732.8579846443245,-2182.6651489565756,0.0,0.0,0.0,0.0,0.0,0.0,0.0,-2.1,21.98224509699085,0.0,21.466968215791226,0.0,-2.1,22.78,20.7,22.23,22.35,22.76,-2.81,-2.1,0.0,-1207.08,-953.59,151.86,218.0,0.0,1100.0,0.0,0.0,0.0,0.0,0.0,0.0,0.0,0.0,0.0,0.0,0.0,0.0,0.0,0.0
62.0,4308.0,30831.662490494127,15056.776024047229,-0.0,238.2922541688369,-11551.020408163267,0.0,17792.186695835688,0.0,-16726.088220775684,0.0,34518.27491661137,0.41925925925925933,0.5194919479665563,0.6250909412902734,0.0,0.0,0.0,"[0.776807498252392, 0.40211879540728646, 1.6683984422761426, 0.5007350486996245, 0.694503880967094, 0.7656764621762697, 0.9063513515699633, 0.5834291878945201, 0.9094968603640297]",22.01,0.0,0.0,80.68353378787188,1489.7749486745938,83.84308819476925,-1728.3557942153564,-678.4689711341738,2825.2978568360336,0.0,0.0,0.0,0.0,0.0,0.0,-2.8,21.77394394726452,0.0,21.4699675712461,0.0,-2.8,22.01,20.72,22.22,21.55,22.1,-3.46,-2.8,932.82,-1203.94,-951.11,128.23,166.0,0.0,1005.0,0.0,0.0,0.0,0.0,0.0,0.0,0.0,0.0,0.0,0.0,0.0,0.0,0.0,0.0
63.0,1816.0,25218.994077056872,7276.899106671586,-0.0,0.0,-16000.0,0.0,15572.62225787219,0.0,0.0,0.0,15572.622257872188,1.0,0.5194919479665563,0.6250909412902734,0.0,0.0,0.0,"[0.776807498252392, 0.40211879540728646, 1.6683984422761426, 0.5007350486996245, 0.694503880967094, 0.7656764621762697, 0.9063513515699633, 0.5834291878945201, 0.9094968603640297]",22.78,0.0,0.0,14.42530416481668,619.1664036264535,14.283212773142678,-1893.0703979518576,-2086.309624240593,0.0,0.0,0.0,0.0,0.0,0.0,0.0,-4.4,22.01904196418338,0.0,21.51854560376478,0.0,-4.4,22.78,20.76,22.28,22.16,22.58,-5.12,-4.4,0.0,-1318.68,-1041.76,22.93,0.0,0.0,454.0,0.0,0.0,0.0,0.0,0.0,0.0,0.0,0.0,0.0,0.0,0.0,0.0,0.0,0.0
64.0,1877.0,48695.32805173845,46574.85141147976,-0.0,0.0,0.0,0.0,16562.46786516878,0.0,-80000.0,0.0,96562.46786516877,1.0,0.8098623183369266,0.6250909412902734,0.0,0.0,0.0,"[0.776807498252392, 0.40211879540728646, 1.6683984422761426, 0.5007350486996245, 0.694503880967094, 0.7656764621762697, 0.9063513515699633, 0.5834291878945201, 0.9094968603640297]",21.54,0.0,0.0,0.0,366.2886804667045,54.647446226759556,-1855.9680634405115,276.09887497858966,1299.8924212969314,0.0,0.0,0.0,0.0,0.0,0.0,-5.1,21.65997592726183,0.0,21.49115480077392,0.0,-5.1,21.54,20.75,22.23,21.32,21.92,-5.83,-5.1,0.0,-1292.83,-1021.34,0.0,138.0,9.0,195.0,0.0,0.0,0.0,0.0,0.0,0.0,0.0,0.0,0.0,0.0,0.0,0.0,0.0,0.0
65.0,2251.0,9131.82398781743,6835.164867878342,-0.0,0.0,0.0,0.0,13649.88159101961,0.0,0.0,0.0,13649.88159101961,1.0,0.8098623183369266,0.5879189296284658,0.0,0.0,0.0,"[0.776807498252392, 0.40211879540728646, 1.6683984422761426, 0.5007350486996245, 0.694503880967094, 0.7656764621762697, 0.9063513515699633, 0.5834291878945201, 0.9094968603640297]",21.59,0.0,0.0,0.0,641.4896996533289,176.27498054607588,-1915.1931257174942,100.29909347577195,4210.400531495616,0.0,0.0,0.0,0.0,0.0,0.0,-5.9,21.645594412031645,0.0,21.457334361300152,0.0,-5.9,21.59,20.73,22.18,21.46,22.0,-6.61,-5.9,0.0,-1334.09,-1053.93,0.0,351.0,101.0,275.0,0.0,0.0,0.0,0.0,0.0,0.0,0.0,0.0,0.0,0.0,0.0,0.0,0.0,0.0
66.0,2411.0,0.0,0.0,-0.0,0.0,2411.0,0.0,11923.124568143921,0.0,11923.124568143921,0.0,0.0,0.9088813303099017,0.7648013789259518,0.5879189296284658,0.0,0.0,0.0,"[0.776807498252392, 0.40211879540728646, 1.6683984422761426, 0.5007350486996245, 0.694503880967094, 0.7656764621762697, 0.9063513515699633, 0.5834291878945201, 0.9094968603640297]",22.78,0.0,0.0,0.0,486.8775464639734,151.546775172309,-2053.28281125939,-2111.24778347886,3540.4124760396517,0.0,0.0,0.0,0.0,0.0,0.0,-6.7,22.01094855700797,0.0,21.51196791106915,0.0,-6.7,22.78,20.77,22.26,22.31,22.66,-7.38,-6.7,0.0,-1430.28,-1129.92,0.0,246.0,119.0,215.0,0.0,0.0,0.0,0.0,0.0,0.0,0.0,0.0,0.0,0.0,0.0,0.0,0.0,0.0
67.0,2332.0,0.0,0.0,-0.0,0.0,2332.0,0.0,22858.623946366293,0.0,22858.623946366293,0.0,0.0,0.8207482993197278,0.678412021607863,0.574799396100769,0.0,0.0,0.0,"[0.776807498252392, 0.40211879540728646, 1.6683984422761426, 0.5007350486996245, 0.694503880967094, 0.7656764621762697, 0.9063513515699633, 0.5834291878945201, 0.9094968603640297]",22.78,0.0,0.0,0.0,625.9136377953484,213.30436696455368,-2102.043110961683,-1969.715812422109,0.0,0.0,0.0,0.0,0.0,0.0,0.0,-7.4,22.063653063574854,0.0,21.578124622804957,0.0,-7.4,22.78,20.81,22.34,22.27,22.67,-8.09,-7.4,0.0,-1464.24,-1156.75,0.0,399.0,142.0,234.0,0.0,0.0,0.0,0.0,0.0,0.0,0.0,0.0,0.0,0.0,0.0,0.0,0.0,0.0
68.0,3108.0,8002.239003306955,4854.22780829042,-0.0,0.0,0.0,0.0,8629.566263927807,0.0,0.0,0.0,8629.566263927807,0.6744652036617402,0.678412021607863,0.574799396100769,0.0,0.0,0.0,"[0.6180988083817489, 0.40211879540728646, 1.6683984422761426, 0.5007350486996245, 0.694503880967094, 0.7656764621762697, 0.9063513515699633, 0.5834291878945201, 0.7704443411327482]",21.57,0.0,0.0,0.0,1029.096768930265,207.73580163229323,-2073.9614578610444,338.29658358187106,0.0,0.0,0.0,0.0,0.0,0.0,0.0,-8.2,21.714022926252472,0.0,21.5511609175003,0.0,-8.2,21.57,20.8,22.31,21.43,22.02,-8.88,-8.2,0.0,-1444.68,-1141.3,0.0,453.0,87.0,507.0,0.0,0.0,0.0,0.0,0.0,0.0,0.0,0.0,0.0,0.0,0.0,0.0,0.0,0.0
69.0,2615.0,14505.780175270706,11818.251274394352,-0.0,0.0,0.0,0.0,20221.13646665863,0.0,0.0,0.0,20221.136466658627,0.6744652036617402,0.678412021607863,0.5675107663631597,0.0,0.0,0.0,"[0.6180988083817489, 0.40211879540728646, 1.6683984422761426, 0.5007350486996245, 0.694503880967094, 0.7656764621762697, 0.9063513515699633, 0.5834291878945201, 0.7704443411327482]",21.38,0.0,0.0,0.0,790.5748631511431,194.61663923934057,-2109.363682369312,584.9908222648838,3781.7176326409462,0.0,0.0,0.0,0.0,0.0,0.0,-8.9,21.613750558181287,0.0,21.49106941055039,0.0,-8.9,21.38,20.76,22.22,21.31,21.9,-9.56,-8.9,0.0,-1469.34,-1160.78,0.0,486.0,56.0,318.0,0.0,0.0,0.0,0.0,0.0,0.0,0.0,0.0,0.0,0.0,0.0,0.0,0.0,0.0
70.0,3524.0,23969.43232201391,20325.58516040384,-0.0,0.0,0.0,0.0,33227.102546973576,0.0,0.0,0.0,33227.102546973576,0.6744652036617402,0.678412021607863,0.5675107663631597,0.0,0.0,0.0,"[0.6180988083817489, 0.40211879540728646, 1.6683984422761426, 0.5007350486996245, 0.694503880967094, 0.7656764621762697, 0.9063513515699633, 0.5834291878945201, 0.7704443411327482]",22.57,0.0,0.0,0.0,647.5909220400956,116.3421163768318,-2248.1627926633205,-1694.7316244971355,3307.8320406956445,0.0,0.0,0.0,0.0,0.0,0.0,-9.7,21.964089111121034,0.0,21.52209608863472,0.0,-9.7,22.57,20.77,22.27,22.19,22.58,-10.36,-9.7,1979.62,-1566.03,-1237.16,0.0,276.0,34.0,326.0,0.0,0.0,0.0,0.0,0.0,0.0,0.0,0.0,0.0,0.0,0.0,0.0,0.0,0.0
71.0,1874.0,10151.24503718844,8868.838100892144,-0.0,0.0,642.3492888896461,0.0,13906.423109714788,0.0,0.0,0.0,13906.423109714788,0.6501889644746788,0.678412021607863,0.5675107663631597,0.0,0.0,0.0,"[0.6180988083817489, 0.40211879540728646, 1.6683984422761426, 0.5007350486996245, 0.694503880967094, 0.7656764621762697, 0.9063513515699633, 0.5834291878945201, 0.7704443411327482]",22.62,0.0,0.0,0.0,620.45842719071,148.36923224260104,-2299.9605621380074,-1679.0250819116093,0.0,0.0,0.0,0.0,0.0,0.0,0.0,-10.4,22.013873702525192,0.0,21.568281297287292,0.0,-10.4,22.62,20.8,22.34,22.16,22.59,-11.06,-10.4,105.6,-1602.11,-1265.67,0.0,412.0,20.0,236.0,0.0,0.0,0.0,0.0,0.0,0.0,0.0,0.0,0.0,0.0,0.0,0.0,0.0,0.0
72.0,1204.0,0.0,0.0,-0.0,0.0,1204.0,0.0,32079.492948128514,0.0,32079.492948128518,0.0,0.0,0.6046863189720333,0.5571743309497809,0.5675107663631597,0.0,0.0,0.0,"[0.6180988083817489, 0.40211879540728646, 1.6683984422761426, 0.5007350486996245, 0.694503880967094, 0.7656764621762697, 0.9063513515699633, 0.5834291878945201, 0.7704443411327482]",21.43,0.0,0.0,0.0,393.85184983750884,65.21828211172858,-2251.716294148257,578.1739206249661,4444.793151609466,0.0,0.0,0.0,0.0,0.0,0.0,-10.9,21.65586941593447,0.0,21.525748845068676,0.0,-10.9,21.43,20.77,22.28,21.33,21.94,-11.59,-10.9,1127.83,-1568.5,-1239.12,0.0,160.0,15.0,203.0,0.0,0.0,0.0,0.0,0.0,0.0,0.0,0.0,0.0,0.0,0.0,0.0,0.0,0.0
73.0,1051.0,0.0,14949.0,-0.0,0.0,16000.0,0.0,21872.527766892523,0.0,0.0,0.0,21872.527766892523,0.0,0.5571743309497809,0.5675107663631597,0.0,0.0,0.0,"[0.6180988083817489, 0.40211879540728646, 1.6683984422761426, 0.5007350486996245, 0.694503880967094, 0.7656764621762697, 0.9063513515699633, 0.5834291878945201, 0.7704443411327482]",22.62,0.0,0.0,0.0,405.48006191581686,68.3014425781779,-2376.5838902416103,-1699.4753228141838,266.6734032819601,0.0,0.0,0.0,0.0,0.0,0.0,-11.5,22.00687972721189,0.0,21.5569633559251,0.0,-11.5,22.62,20.78,22.33,22.24,22.65,-12.2,-11.5,2440.87,-1655.48,-1307.83,0.0,160.0,20.0,211.0,0.0,0.0,0.0,0.0,0.0,0.0,0.0,0.0,0.0,0.0,0.0,0.0,0.0,0.0
74.0,1170.0,27965.027897536023,10655.202758048345,-0.0,0.0,-16000.0,0.0,14879.03228509727,0.0,0.0,0.0,14879.03228509727,0.5807407407407407,0.5571743309497809,0.5675107663631597,0.0,0.0,0.0,"[0.6180988083817489, 0.40211879540728646, 1.6683984422761426, 0.5007350486996245, 0.694503880967094, 0.7656764621762697, 0.9063513515699633, 0.5834291878945201, 0.7704443411327482]",21.38,0.0,0.0,0.0,484.7241738568793,93.97347258453125,-2339.2336666801198,638.813153857723,1130.5940783749368,0.0,0.0,0.0,0.0,0.0,0.0,-12.2,21.635338584841175,0.0,21.511841803066076,0.0,-12.2,21.38,20.75,22.28,21.3,21.92,-12.92,-12.2,2553.71,-1629.47,-1287.28,0.0,240.0,20.0,227.0,0.0,0.0,0.0,0.0,0.0,0.0,0.0,0.0,0.0,0.0,0.0,0.0,0.0,0.0
75.0,866.0,13145.54749960307,12213.819762105055,-0.0,0.0,0.0,0.0,24875.42062539683,0.0,8285.672249909101,0.0,16589.74837548773,0.5807407407407407,0.5258603768684917,0.5675107663631597,0.0,0.0,0.0,"[0.6180988083817489, 0.40211879540728646, 1.6683984422761426, 0.5007350486996245, 0.694503880967094, 0.7656764621762697, 0.9063513515699633, 0.5834291878945201, 0.7704443411327482]",21.38,0.0,0.0,0.0,312.7414816369648,78.74643517880205,-2367.09669508143,516.4701623992249,4808.624422605851,0.0,0.0,0.0,0.0,0.0,0.0,-12.6,21.590282798086445,0.0,21.453551535189284,0.0,-12.6,21.38,20.7,22.21,21.36,21.94,-13.32,-12.6,838.34,-1648.88,-1302.61,0.0,240.0,0.0,103.0,0.0,0.0,0.0,0.0,0.0,0.0,0.0,0.0,0.0,0.0,0.0,0.0,0.0,0.0
76.0,646.0,28959.481692023972,17438.55873975826,-0.0,0.0,-10730.12554380559,0.0,23021.401737396453,0.0,0.0,0.0,23021.401737396456,0.9702045567751658,0.5258603768684917,0.5675107663631597,0.0,0.0,0.0,"[0.6180988083817489, 0.40211879540728646, 1.6683984422761426, 0.5007350486996245, 0.694503880967094, 0.7656764621762697, 0.9063513515699633, 0.5834291878945201, 0.7704443411327482]",22.62,0.0,0.0,0.0,293.6482445207306,78.305983683595,-2481.070246746523,-1831.2629732421228,3947.77117345588,0.0,0.0,0.0,0.0,0.0,0.0,-13.0,21.958888975512046,0.0,21.490926399278088,0.0,-13.0,22.62,20.72,22.27,22.24,22.64,-13.71,-13.0,1226.21,-1728.27,-1365.33,0.0,240.0,0.0,89.0,0.0,0.0,0.0,0.0,0.0,0.0,0.0,0.0,0.0,0.0,0.0,0.0,0.0,0.0
77.0,883.0,0.0,8788.612572270888,-0.0,0.0,9671.612572270888,0.0,11267.092489114799,0.0,0.0,0.0,11267.092489114799,0.6046863189720333,0.5258603768684917,0.5675107663631597,0.0,0.0,0.0,"[0.6180988083817489, 0.40211879540728646, 1.6683984422761426, 0.5007350486996245, 0.694503880967094, 0.7656764621762697, 0.9063513515699633, 0.5834291878945201, 0.7704443411327482]",22.62,0.0,0.0,0.0,286.5421149173201,87.71276918837398,-2508.9332751478332,-1718.2678433740964,519.1743823671299,0.0,0.0,0.0,0.0,0.0,0.0,-13.4,22.000889429498756,0.0,21.5410221043822,0.0,-13.4,22.62,20.74,22.34,22.18,22.62,-14.12,-13.4,28.88,-1747.68,-1380.66,0.0,240.0,17.0,82.0,0.0,0.0,0.0,0.0,0.0,0.0,0.0,0.0,0.0,0.0,0.0,0.0,0.0,0.0
78.0,764.0,0.0,15236.0,-0.0,0.0,16000.0,0.0,18951.712200502952,0.0,0.0,0.0,18951.712200502952,0.0,0.5258603768684917,0.5675107663631597,0.0,0.0,0.0,"[0.6180988083817489, 0.40211879540728646, 1.6683984422761426, 0.5007350486996245, 0.694503880967094, 0.7656764621762697, 0.9063513515699633, 0.5834291878945201, 0.7704443411327482]",21.38,0.0,0.0,0.0,495.3474787185435,173.63227157483357,-2450.68578028536,624.6493891181216,4515.499787879157,0.0,0.0,0.0,0.0,0.0,0.0,-13.8,21.630897774977047,0.0,21.497414390862982,0.0,-13.8,21.38,20.7,22.29,21.31,21.95,-14.52,-13.8,3035.1,-1707.1,-1348.61,0.0,480.0,34.0,107.0,0.0,0.0,0.0,0.0,0.0,0.0,0.0,0.0,0.0,0.0,0.0,0.0,0.0,0.0
79.0,2371.0,17640.953516235277,15181.7487486541,-0.0,0.0,0.0,0.0,18450.033499049176,0.0,0.0,0.0,18450.03349904918,0.0,0.5258603768684917,0.5675107663631597,0.0,0.0,0.0,"[0.6180988083817489, 0.40211879540728646, 1.6683984422761426, 0.5007350486996245, 0.694503880967094, 0.7656764621762697, 0.9063513515699633, 0.5834291878945201, 0.7704443411327482]",22.62,0.0,0.0,0.0,406.7720854800734,148.90406620106677,-2557.693574850126,-1735.1130435892499,409.1351487996066,0.0,0.0,0.0,0.0,0.0,0.0,-14.1,21.99501329140995,0.0,21.529465138630492,0.0,-14.1,22.62,20.72,22.34,22.26,22.68,-14.83,-14.1,1119.76,-1781.64,-1407.5,0.0,351.0,62.0,107.0,0.0,0.0,0.0,0.0,0.0,0.0,0.0,0.0,0.0,0.0,0.0,0.0,0.0,0.0
80.0,1502.0,1509.5477386934674,0.0,-0.0,0.0,0.0,0.0,20746.802169085637,0.0,20746.802169085637,0.0,0.0,0.5807407407407407,0.44745220540558306,0.5675107663631597,0.0,0.0,0.0,"[0.6180988083817489, 0.40211879540729, 1.52719064587194, 0.5007350486996245, 0.694503880967094, 0.7656764621762697, 0.9063513515699633, 0.5834291878945201, 0.7704443411327482]",21.38,0.0,0.0,3.2375054531663494,255.82066572277773,92.36897070913416,-2478.5488086866703,609.2853684802725,4868.513396456222,0.0,0.0,0.0,0.0,0.0,0.0,-14.2,21.625417884489835,0.0,21.486275544363465,0.0,-14.2,21.38,20.68,22.29,21.31,21.96,-14.93,-14.2,1570.12,-1726.51,-1363.94,5.15,190.0,53.0,82.0,0.0,0.0,0.0,0.0,0.0,0.0,0.0,0.0,0.0,0.0,0.0,0.0,0.0,0.0
81.0,1478.0,31859.520355884346,25552.804962504164,-0.0,18.515207476379075,-4687.93299907714,0.0,24822.306685767435,0.0,-11590.695329635248,0.0,36413.002015402686,0.7508953458924295,0.4895221366020369,0.5675107663631597,0.0,0.0,0.0,"[0.6180988083817489, 0.40211879540729, 1.52719064587194, 0.5007350486996245, 0.694503880967094, 0.7656764621762697, 0.9063513515699633, 0.5834291878945201, 0.7704443411327482]",22.62,0.0,0.0,63.52684948326843,346.7647688290514,60.687923875313274,-2404.4469186429205,-1744.3311045758965,339.7006346488499,0.0,0.0,0.0,0.0,0.0,0.0,-11.9,21.990456313356482,0.0,21.51948853945004,0.0,-11.9,22.62,20.69,22.35,22.26,22.69,-12.54,-11.9,646.88,-1674.89,-1323.17,100.96,122.0,29.0,187.0,0.0,0.0,0.0,0.0,0.0,0.0,0.0,0.0,0.0,0.0,0.0,0.0,0.0,0.0
82.0,2770.0,0.0,2454.2411875321227,-0.0,5860.517857849151,-636.2766703170287,0.0,3941.8618324723657,0.0,0.0,0.0,3941.8618324723657,0.7739898324446771,0.4895221366020369,0.5675107663631597,0.0,0.0,0.0,"[0.6180988083817489, 0.40211879540729, 1.52719064587194, 0.5007350486996245, 0.694503880967094, 0.7656764621762697, 0.9063513515699633, 0.5834291878945201, 0.7704443411327482]",21.38,0.0,0.0,1513.016768825815,344.10894261363535,53.6721607730868,-2185.987010472915,604.7522257438185,0.0,0.0,0.0,0.0,0.0,0.0,0.0,-10.0,21.621087768261894,0.0,21.47798302714652,0.0,-10.0,21.38,20.66,22.29,21.28,21.95,-9.62,-10.0,203.12,-1522.72,-1202.95,2404.6,144.0,5.0,176.0,0.0,0.0,0.0,0.0,0.0,0.0,0.0,0.0,0.0,0.0,0.0,0.0,0.0,0.0
83.0,3164.0,0.0,9019.97197128123,-0.0,12183.97197128123,0.0,0.0,12890.457240841137,0.0,-2886.75828311228,0.0,15777.215523953419,0.7739898324446771,0.5,0.5675107663631597,0.0,0.0,0.0,"[0.6180988083817489, 0.40211879540729, 1.52719064587194, 0.5007350486996245, 0.694503880967094, 0.7656764621762697, 0.9063513515699633, 0.5834291878945201, 0.7704443411327482]",21.52,0.0,0.0,1801.6687238691586,2702.410842816178,102.27912935129262,-2090.8864468319653,327.1732843393313,0.0,0.0,0.0,0.0,0.0,0.0,0.0,-8.5,21.652387753152436,0.0,21.47116981040319,0.0,-8.5,21.52,20.66,22.28,21.67,22.27,-7.95,-8.5,1426.86,-1456.47,-1150.61,2863.35,134.0,0.0,1911.0,0.0,0.0,0.0,0.0,0.0,0.0,0.0,0.0,0.0,0.0,0.0,0.0,0.0,0.0
84.0,1496.0,0.0,6732.391442151516,-0.0,14455.202180920616,-6226.810738769101,0.0,12417.730938205026,0.0,0.0,0.0,12417.730938205028,1.0,0.5,0.5675107663631597,0.0,0.0,0.0,"[0.6180988083817489, 0.40211879540729, 1.52719064587194, 0.5007350486996245, 0.694503880967094, 0.7656764621762697, 0.9063513515699633, 0.5834291878945201, 0.7704443411327482]",22.58,0.0,0.0,1992.7518473097266,715.2068219028499,106.84094840879415,-2095.4429050102713,-1659.1624595148728,0.0,0.0,0.0,0.0,0.0,0.0,0.0,-7.5,21.983052417531553,0.0,21.52226355869902,0.0,-7.5,22.58,20.69,22.35,22.23,22.73,-6.84,-7.5,0.0,-1459.65,-1153.12,3167.04,288.0,8.0,372.0,0.0,0.0,0.0,0.0,0.0,0.0,0.0,0.0,0.0,0.0,0.0,0.0,0.0,0.0
85.0,1001.0,64700.57114670463,67521.2477480153,-0.0,4145.179457044201,0.0,0.0,126472.38819292498,0.0,0.0,0.0,126472.38819292498,1.0,0.5,0.5675107663631597,0.0,0.0,0.0,"[0.6180988083817489, 0.40211879540729, 1.52719064587194, 0.5007350486996245, 0.694503880967094, 0.7656764621762697, 0.9063513515699633, 0.5834291878945201, 0.7704443411327482]",22.25,0.0,0.0,71.489832222405,648.6676083436425,129.0837489167498,-2051.420388997875,-862.556344341301,0.0,0.0,0.0,0.0,0.0,0.0,0.0,-7.2,21.94606549208369,0.0,21.590281703620356,0.0,-7.2,22.25,20.74,22.44,22.17,22.72,-7.86,-7.2,0.0,-1428.98,-1128.9,113.62,330.0,28.0,299.0,0.0,0.0,0.0,0.0,0.0,0.0,0.0,0.0,0.0,0.0,0.0,0.0,0.0,0.0
86.0,912.0,14600.302585586556,13639.754506089983,-0.0,24.453433431359997,0.0,0.0,24898.12881136142,0.0,0.0,0.0,24898.12881136142,1.0,0.5,0.5675107663631597,0.0,0.0,0.0,"[0.6180988083817489, 0.40211879540729, 1.52719064587194, 0.5007350486996245, 0.694503880967094, 0.7656764621762697, 0.9063513515699633, 0.5834291878945201, 0.7704443411327482]",21.48,0.0,0.0,50.14010213694848,363.7046333381915,44.454140194825115,-2032.7875455683354,545.598396641623,2734.727531993483,0.0,0.0,0.0,0.0,0.0,0.0,-7.7,21.69930999530716,0.0,21.54541769852996,0.0,-7.7,21.48,20.72,22.37,21.36,22.02,-8.37,-7.7,0.0,-1416.0,-1118.64,79.69,104.0,9.0,211.0,0.0,0.0,0.0,0.0,0.0,0.0,0.0,0.0,0.0,0.0,0.0,0.0,0.0,0.0
87.0,979.0,10435.150612549156,9405.467759820278,-0.0,1.4929003338666091,0.0,0.0,15644.51566186341,0.0,0.0,0.0,15644.51566186341,1.0,0.5,0.5587644106780285,0.0,0.0,0.0,"[0.6180988083817489, 0.40211879540729, 1.52719064587194, 0.5007350486996245, 0.694503880967094, 0.7656764621762697, 0.9063513515699633, 0.5834291878945201, 0.7704443411327482]",22.11,0.0,0.0,21.434831159741194,152.745896929874,3.52361196165634,-2195.0866415597766,-710.8325462210953,752.6567694252352,0.0,0.0,0.0,0.0,0.0,0.0,-9.4,21.865682824003553,0.0,21.540444181126986,0.0,-9.4,22.11,20.73,22.36,21.85,22.39,-10.06,-9.4,0.0,-1529.06,-1207.95,34.07,0.0,0.0,112.0,0.0,0.0,0.0,0.0,0.0,0.0,0.0,0.0,0.0,0.0,0.0,0.0,0.0,0.0
88.0,1498.0,12296.036811680997,10736.55662762259,-0.0,0.0,0.0,0.0,18063.28232423687,0.0,0.0,0.0,18063.28232423687,1.0,0.5,0.509930591436046,0.0,0.0,0.0,"[0.6180988083817489, 0.40211879540729, 1.52719064587194, 0.5007350486996245, 0.694503880967094, 0.7656764621762697, 0.9063513515699633, 0.5834291878945201, 0.7704443411327482]",21.38,0.0,0.0,0.0,335.5672312721621,53.011483530276244,-2130.2609536702944,621.8985479902527,4466.840086364582,0.0,0.0,0.0,0.0,0.0,0.0,-9.2,21.627558228988494,0.0,21.491984767575804,0.0,-9.2,21.38,20.7,22.29,21.31,21.95,-9.87,-9.2,0.0,-1483.9,-1172.28,0.0,116.0,19.0,183.0,0.0,0.0,0.0,0.0,0.0,0.0,0.0,0.0,0.0,0.0,0.0,0.0,0.0,0.0
89.0,1773.0,14518.529521710532,12672.936874101979,-0.0,0.0,0.0,0.0,21562.69638060638,0.0,0.0,0.0,21562.69638060638,1.0,0.5,0.4756740316692822,0.0,0.0,0.0,"[0.6180988083817489, 0.40211879540729, 1.52719064587194, 0.5007350486996245, 0.694503880967094, 0.7656764621762697, 0.9063513515699633, 0.5834291878945201, 0.7704443411327482]",22.62,0.0,0.0,0.0,416.2469249512872,129.02082727457736,-2202.439962733422,-1738.5625046545088,1888.601127389884,0.0,0.0,0.0,0.0,0.0,0.0,-9.0,21.991138423405562,0.0,21.525801466018507,0.0,-9.0,22.62,20.72,22.33,22.21,22.65,-9.63,-9.0,0.0,-1534.18,-1212.0,0.0,310.0,48.0,137.0,0.0,0.0,0.0,0.0,0.0,0.0,0.0,0.0,0.0,0.0,0.0,0.0,0.0,0.0
90.0,3739.0,7464.5376047940545,3688.214916770084,-0.0,0.0,0.0,0.0,6345.730479002467,0.0,0.0,0.0,6345.730479002467,1.0,0.5,0.4756740316692822,0.0,0.0,0.0,"[0.6180988083817489, 0.40211879540729, 1.52719064587194, 0.5007350486996245, 0.694503880967094, 0.7656764621762697, 0.9063513515699633, 0.5834291878945201, 0.7704443411327482]",22.06,0.0,0.0,0.0,805.1460177924796,151.10632367710198,-2149.362180724909,-615.3642694959777,0.0,0.0,0.0,0.0,0.0,0.0,0.0,-8.8,21.844230033424264,0.0,21.533987847789696,0.0,-8.8,22.06,20.73,22.34,21.76,22.31,-9.42,-8.8,149.07,-1497.21,-1182.79,0.0,286.0,84.0,431.0,0.0,0.0,0.0,0.0,0.0,0.0,0.0,0.0,0.0,0.0,0.0,0.0,0.0,0.0
91.0,6419.0,0.0,3503.1081951679516,-0.0,0.0,9922.108195167952,0.0,6060.642704664911,0.0,0.0,0.0,6060.642704664911,0.6250148074388528,0.5,0.4756740316692822,0.0,0.0,0.0,"[0.6180988083817489, 0.40211879540729, 1.52719064587194, 0.5007350486996245, 0.694503880967094, 0.7656764621762697, 0.9063513515699633, 0.5834291878945201, 0.7704443411327482]",21.38,0.0,0.0,0.0,3420.4888281951535,248.76071232872064,-2095.432168168657,596.327762677837,1195.3902296626054,0.0,0.0,0.0,0.0,0.0,0.0,-8.7,21.617812036746503,0.0,21.481244500367794,0.0,-8.7,21.38,20.69,22.27,21.27,21.91,-9.3,-8.7,100.79,-1459.64,-1153.12,0.0,432.0,73.0,2273.0,0.0,0.0,0.0,0.0,0.0,0.0,0.0,0.0,0.0,0.0,0.0,0.0,0.0,0.0
92.0,5283.0,1726.287829609199,4531.121794390904,-0.0,0.0,8096.465403929751,0.0,7925.577301459547,0.0,0.0,0.0,7925.577301459547,0.31902594107718424,0.5,0.4508926905614105,0.0,0.0,0.0,"[0.6180988083817489, 0.40211879540729, 1.0174851114456729, 0.5007350486996245, 0.6945038809670905, 0.7656764621762697, 0.33599173255183956, 0.4910716189165143, 0.7704443411327482]",22.62,0.0,0.0,0.0,1049.0513550893368,177.59633503169695,-2167.6111772317845,-1835.3008435328857,0.0,0.0,0.0,0.0,0.0,0.0,0.0,-8.5,21.95508043680886,0.0,21.482326576311422,0.0,-8.5,22.62,20.7,22.27,21.94,22.42,-9.08,-8.5,0.0,-1509.92,-1192.84,0.0,390.0,66.0,557.0,0.0,0.0,0.0,0.0,0.0,0.0,0.0,0.0,0.0,0.0,0.0,0.0,0.0,0.0
93.0,5528.0,19043.55621720124,13420.338436115235,-0.0,0.0,0.0,0.0,23729.963542682173,0.0,0.0,0.0,23729.96354268218,0.31902594107718424,0.5,0.4487061016401277,0.0,0.0,0.0,"[0.6180988083817489, 0.40211879540729, 1.0174851114456729, 0.5007350486996245, 0.6945038809670905, 0.7656764621762697, 0.33599173255183956, 0.4910716189165143, 0.7704443411327482]",21.58,0.0,0.0,0.0,674.2209632811591,141.16470421385728,-2081.7151212306885,137.92688878317816,3934.758331793883,0.0,0.0,0.0,0.0,0.0,0.0,-8.3,21.651218525511297,0.0,21.45462460651423,0.0,-8.3,21.58,20.68,22.23,21.36,21.96,-8.87,-8.3,279.12,-1450.08,-1145.57,0.0,310.0,59.0,325.0,0.0,0.0,0.0,0.0,0.0,0.0,0.0,0.0,0.0,0.0,0.0,0.0,0.0,0.0
94.0,5945.0,0.0,2496.426400902296,-0.0,0.0,8441.426400902295,0.0,4461.80209058807,0.0,0.0,0.0,4461.802090588071,0.0,0.5,0.3845661599491656,0.0,0.0,0.0,"[0.6180988083817489, 0.40211879540729, 1.0174851114456729, 0.5007350486996245, 0.6945038809670905, 0.7656764621762697, 0.33599173255183956, 0.4910716189165143, 0.7704443411327482]",22.62,0.0,0.0,0.0,387.7506274507423,79.84756391681965,-2139.7481488304747,-1811.3182371994035,148.95385751163408,0.0,0.0,0.0,0.0,0.0,0.0,-8.1,21.963736391119564,0.0,21.49386627147514,0.0,-8.1,22.62,20.71,22.28,22.18,22.6,-8.65,-8.1,1231.71,-1490.51,-1177.5,0.0,168.0,37.0,192.0,0.0,0.0,0.0,0.0,0.0,0.0,0.0,0.0,0.0,0.0,0.0,0.0,0.0,0.0
95.0,1516.0,15907.800769455353,0.0,-0.0,0.0,0.0,0.0,12881.035589047262,0.0,0.0,0.0,0.0,0.0,0.5,0.3845661599491656,57249.047062432306,14312.261765608077,71561.30882804038,"[0.6180988083817489, 0.40211879540729, 1.0174851114456729, 0.5007350486996245, 0.6945038809670905, 0.7656764621762697, 0.33599173255183956, 0.4910716189165143, 0.7704443411327482]",21.38,0.0,0.0,0.0,495.7781532399623,106.74656594553551,-2039.7061113660366,540.4873707776098,906.771029201879,0.0,0.0,0.0,0.0,0.0,0.0,-7.9,21.59672710197597,0.0,21.456586296706412,0.0,-7.9,21.38,20.68,22.23,21.26,21.89,-8.44,-7.9,587.28,-1420.82,-1122.45,0.0,282.0,20.0,213.0,0.0,0.0,0.0,0.0,0.0,0.0,0.0,0.0,0.0,0.0,0.0,0.0,0.0,0.0
96.0,1268.0,1274.3718592964824,0.0,-0.0,0.0,0.0,0.0,11370.828941806874,0.0,11370.828941806874,0.0,0.0,0.0,0.4570263456469884,0.3845661599491656,0.0,0.0,0.0,"[0.6180988083817489, 0.40211879540729, 1.0174851114456729, 0.5007350486996245, 0.6945038809670905, 0.7656764621762697, 0.33599173255183956, 0.4910716189165143, 0.7704443411327482]",21.38,0.0,0.0,0.0,563.6093903634261,123.57810522666178,-1997.9115687640717,430.3735725941718,892.0164264961952,0.0,0.0,0.0,0.0,0.0,0.0,-7.3,21.555703991498234,0.0,21.405884962577446,0.0,-7.3,21.38,20.65,22.16,21.31,21.9,-7.85,-7.3,1808.61,-1391.71,-1099.45,0.0,320.0,27.0,242.0,0.0,0.0,0.0,0.0,0.0,0.0,0.0,0.0,0.0,0.0,0.0,0.0,0.0,0.0
97.0,678.0,34231.56779646251,17382.40995748019,-0.0,0.0,-16000.0,0.0,33552.835590673465,0.0,0.0,0.0,33552.835590673465,0.5807407407407407,0.4570263456469884,0.3845661599491656,0.0,0.0,0.0,"[0.6180988083817489, 0.40211879540729, 1.0174851114456729, 0.5007350486996245, 0.6945038809670905, 0.7656764621762697, 0.33599173255183956, 0.4910716189165143, 0.7704443411327482]",21.38,0.0,0.0,0.0,335.7107894459685,107.06117415639766,-1949.1512690617787,331.1543867822661,3060.2927836235936,0.0,0.0,0.0,0.0,0.0,0.0,-6.6,21.51865133668254,0.0,21.360063298464596,0.0,-6.6,21.38,20.63,22.09,21.3,21.86,-7.15,-6.6,706.7,-1357.74,-1072.62,0.0,320.0,7.0,77.0,0.0,0.0,0.0,0.0,0.0,0.0,0.0,0.0,0.0,0.0,0.0,0.0,0.0,0.0
98.0,1297.0,0.0,6635.111618461548,-0.0,0.0,7932.111618461548,0.0,13250.373573404582,0.0,0.0,0.0,13250.373573404582,0.280963279725565,0.4570263456469884,0.3845661599491656,0.0,0.0,0.0,"[0.6180988083817489, 0.40211879540729, 1.0174851114456729, 0.5007350486996245, 0.6945038809670905, 0.7656764621762697, 0.33599173255183956, 0.4910716189165143, 0.7704443411327482]",22.08,0.0,0.0,0.0,483.36037120571973,106.52634019793197,-1948.7007754830986,-1009.6088132339422,3845.569983688232,0.0,0.0,0.0,0.0,0.0,0.0,-5.9,21.71623559801646,0.0,21.371381655849916,0.0,-5.9,22.08,20.63,22.11,21.8,22.24,-6.43,-5.9,2229.89,-1357.43,-1072.37,0.0,320.0,0.0,186.0,0.0,0.0,0.0,0.0,0.0,0.0,0.0,0.0,0.0,0.0,0.0,0.0,0.0,0.0
99.0,1253.0,27885.24762141819,10492.821383311102,-0.0,0.0,-16000.0,0.0,21354.37748706378,0.0,0.0,0.0,21354.37748706378,0.8617040204663057,0.4570263456469884,0.38456615994916543,0.0,0.0,0.0,"[0.6180988083817489, 0.40211879540729, 1.0174851114456729, 0.5007350486996245, 0.6945038809670905, 0.7656764621762697, 0.33599173255183956, 0.4910716189165143, 0.7704443411327482]",22.62,0.0,0.0,0.0,397.44080418266566,104.54430846950028,-1958.638464221959,-1955.5286079958075,3422.051071536097,0.0,0.0,0.0,0.0,0.0,0.0,-5.5,21.909081013168954,0.0,21.42843597802512,0.0,-5.5,22.62,20.67,22.18,22.13,22.52,-6.02,-5.5,1851.29,-1364.35,-1077.84,0.0,320.0,0.0,123.0,0.0,0.0,0.0,0.0,0.0,0.0,0.0,0.0,0.0,0.0,0.0,0.0,0.0,0.0
100.0,2449.0,0.0,7813.584533417161,-0.0,0.0,10262.58453341716,0.0,16274.197565716155,0.0,0.0,0.0,16274.197565716157,0.47385124142559665,0.4570263456469884,0.38456615994916543,0.0,0.0,0.0,"[0.6180988083817489, 0.40211879540729, 1.0174851114456729, 0.5007350486996245, 0.6945038809670905, 0.7656764621762697, 0.33599173255183956, 0.4910716189165143, 0.7704443411327482]",22.62,0.0,0.0,0.0,1011.0084390306745,94.85437557494532,-1923.8096787203215,-1827.2074025572822,0.0,0.0,0.0,0.0,0.0,0.0,0.0,-5.0,21.956289867322432,0.0,21.488684630458685,0.0,-5.0,22.62,20.72,22.26,22.12,22.54,-5.51,-5.0,861.81,-1340.09,-1058.67,0.0,240.0,0.0,615.0,0.0,0.0,0.0,0.0,0.0,0.0,0.0,0.0,0.0,0.0,0.0,0.0,0.0,0.0
101.0,2058.0,10068.107016094955,7959.76648101448,-0.0,0.0,0.0,0.0,16882.198104386036,0.0,0.0,0.0,16882.19810438604,0.47385124142559665,0.4570263456469884,0.38456615994916543,0.0,0.0,0.0,"[0.6180988083817489, 0.40211879540729, 1.0174851114456729, 0.5007350486996245, 0.6945038809670905, 0.7656764621762697, 0.33599173255183956, 0.4910716189165143, 0.7704443411327482]",21.64,0.0,0.0,0.0,2065.2278883770377,119.17359027459135,-1827.5615143630962,50.497479666539235,2258.0213273017293,0.0,0.0,0.0,0.0,0.0,0.0,-4.6,21.66837276086801,0.0,21.464894251774048,0.0,-4.6,21.64,20.71,22.22,21.36,21.96,-5.03,-4.6,1059.4,-1273.05,-1005.71,0.0,240.0,0.0,1388.0,0.0,0.0,0.0,0.0,0.0,0.0,0.0,0.0,0.0,0.0,0.0,0.0,0.0,0.0
102.0,896.0,4725.312130143581,3984.7839090852976,-0.0,0.0,179.09833959243383,0.0,8565.45758663245,0.0,0.0,0.0,8565.45758663245,0.46708259669421215,0.4570263456469884,0.38456615994916543,0.0,0.0,0.0,"[0.6180988083817489, 0.40211879540729, 1.0174851114456729, 0.5007350486996245, 0.6945038809670905, 0.7656764621762697, 0.33599173255183956, 0.4910716189165143, 0.7704443411327482]",22.62,0.0,0.0,0.0,398.1585950516969,117.44324511484942,-1875.0493790180287,-1835.0757594219372,3205.6100858105647,0.0,0.0,0.0,0.0,0.0,0.0,-4.3,21.952994827843657,0.0,21.488282720672395,0.0,-4.3,22.62,20.73,22.24,22.01,22.45,-4.74,-4.3,1771.28,-1306.13,-1031.84,0.0,333.0,16.0,115.0,0.0,0.0,0.0,0.0,0.0,0.0,0.0,0.0,0.0,0.0,0.0,0.0,0.0,0.0
103.0,985.0,0.0,9407.005508528853,-0.0,0.0,10392.005508528853,0.0,20489.786466989404,0.0,0.0,0.0,20489.786466989404,0.07433862433862434,0.4570263456469884,0.38456615994916543,0.0,0.0,0.0,"[0.6180988083817489, 0.40211879540729, 1.0174851114456729, 0.5007350486996245, 0.6945038809670905, 0.7656764621762697, 0.33599173255183956, 0.4910716189165143, 0.7704443411327482]",22.62,0.0,0.0,0.0,367.72426220476723,101.2094614343612,-1854.1521077170462,-1717.1542859473548,0.0,0.0,0.0,0.0,0.0,0.0,0.0,-4.0,21.996458609279035,0.0,21.544549675553743,0.0,-4.0,22.62,20.78,22.31,22.13,22.56,-4.43,-4.0,708.96,-1291.57,-1020.34,0.0,262.0,26.0,129.0,0.0,0.0,0.0,0.0,0.0,0.0,0.0,0.0,0.0,0.0,0.0,0.0,0.0,0.0
104.0,1967.0,16193.019312483755,2594.033807758069,-0.0,0.0,-11551.020408163267,0.0,5724.361127188149,0.0,0.0,0.0,5724.361127188149,0.41925925925925933,0.4353923277815759,0.38456615994916543,0.0,0.0,0.0,"[0.6180988083817489, 0.40211879540729, 1.0174851114456729, 0.5007350486996245, 0.6945038809670905, 0.7656764621762697, 0.33599173255183956, 0.4910716189165143, 0.7704443411327482]",21.47,0.0,0.0,1.0658191263499124,271.1096112331458,76.858785913629,-1753.0736615212402,476.0224159916428,705.1163004283449,0.0,0.0,0.0,0.0,0.0,0.0,-3.7,21.65588489968601,0.0,21.51312449511361,0.0,-3.7,21.47,20.77,22.26,21.32,21.93,-4.11,-3.7,1037.94,-1221.16,-964.72,1.69,133.0,55.0,123.0,0.0,0.0,0.0,0.0,0.0,0.0,0.0,0.0,0.0,0.0,0.0,0.0,0.0,0.0
105.0,1631.0,7744.900608518333,6086.477027291132,-0.0,11.300921815391554,0.0,0.0,14301.643066170245,0.0,0.0,0.0,14301.643066170247,0.41925925925925933,0.4353923277815759,0.38456615994916543,0.0,0.0,0.0,"[0.6180988083817489, 0.40211879540729, 1.0174851114456729, 0.5007350486996245, 0.6945038809670905, 0.7656764621762697, 0.33599173255183956, 0.4910716189165143, 0.7704443411327482]",21.38,0.0,0.0,30.24611420177941,302.26173494910694,87.11501358773586,-1642.6579566473679,534.9405982332847,695.4387044521005,0.0,0.0,0.0,0.0,0.0,0.0,-2.2,21.59174064811961,0.0,21.46421123016538,0.0,-2.2,21.38,20.74,22.19,21.33,21.9,-2.57,-2.2,1132.29,-1144.25,-903.95,48.07,165.0,55.0,129.0,0.0,0.0,0.0,0.0,0.0,0.0,0.0,0.0,0.0,0.0,0.0,0.0,0.0,0.0
106.0,3606.0,3585.9731993155387,0.0,-0.0,37.95666668103854,0.0,0.0,14940.277526131922,0.0,14940.277526131922,0.0,0.0,0.41925925925925933,0.3789286938959677,0.38456615994916543,0.0,0.0,0.0,"[0.6180988083817489, 0.40211879540729, 1.0174851114456729, 0.5007350486996245, 0.6945038809670905, 0.7656764621762697, 0.33599173255183956, 0.4910716189165143, 0.7704443411327482]",21.38,0.0,0.0,38.66236049108837,2305.4007131549315,119.6140417697984,-1573.0003856440926,436.59045098656816,0.0,0.0,0.0,0.0,0.0,0.0,0.0,-1.2,21.554848148189514,0.0,21.42067529761353,0.0,-1.2,21.38,20.72,22.12,21.32,21.87,-1.54,-1.2,2132.34,-1095.72,-865.62,61.45,204.0,10.0,1582.0,0.0,0.0,0.0,0.0,0.0,0.0,0.0,0.0,0.0,0.0,0.0,0.0,0.0,0.0
107.0,5108.0,10744.20675161577,6005.989089296583,-0.0,423.5033714388918,0.0,0.0,15429.426833303865,0.0,0.0,0.0,15429.426833303865,0.41925925925925933,0.3789286938959677,0.3729043523689905,0.0,0.0,0.0,"[0.6180988083817489, 0.40211879540729, 1.0174851114456729, 0.5007350486996245, 0.6945038809670905, 0.7656764621762697, 0.33599173255183956, 0.4910716189165143, 0.7704443411327482]",21.87,0.0,0.0,70.87248739994432,4109.99873698668,169.91989468665997,-1516.381707744266,-587.3885096797723,-208.08841500866583,0.0,0.0,0.0,0.0,0.0,0.0,0.1,21.66286857032469,0.0,21.39237626965444,0.0,0.1,21.87,20.72,22.07,21.46,21.95,-0.24,0.1,1775.7,-1056.28,-834.46,112.64,252.0,0.0,2881.0,0.0,0.0,0.0,0.0,0.0,0.0,0.0,0.0,0.0,0.0,0.0,0.0,0.0,0.0
108.0,1679.0,19773.986468465577,19001.346812123003,-0.0,1005.2302759997536,0.0,0.0,17450.811361396645,0.0,-33356.38025315175,0.0,50807.1916145484,0.41925925925925933,0.5,0.3729043523689903,0.0,0.0,0.0,"[0.6180988083817489, 0.40211879540729, 1.0174851114456729, 0.5007350486996245, 0.6945038809670905, 0.7656764621762697, 0.33599173255183956, 0.4910716189165143, 0.7704443411327482]",22.62,0.0,0.0,89.81862052488393,838.5950722893411,108.7600584950534,-1491.9327385000154,-2028.817230983644,2491.2407081140964,0.0,0.0,0.0,0.0,0.0,0.0,1.2,21.878562630936994,0.0,21.409676644116455,0.0,1.2,22.62,20.74,22.08,21.81,22.22,0.8,1.2,1361.93,-1039.25,-821.01,142.75,300.0,0.0,457.0,0.0,0.0,0.0,0.0,0.0,0.0,0.0,0.0,0.0,0.0,0.0,0.0,0.0,0.0
109.0,3942.0,7370.742604254954,4428.334336150602,-0.0,1036.4454449169227,0.0,0.0,12178.537772945818,0.0,0.0,0.0,12178.53777294582,0.41925925925925933,0.5,0.3729043523689903,0.0,0.0,0.0,"[0.6180988083817489, 0.40211879540729, 1.0174851114456729, 0.5007350486996245, 0.6945038809670905, 0.7656764621762697, 0.33599173255183956, 0.4910716189165143, 0.7704443411327482]",22.62,0.0,0.0,91.59138112314928,1341.9100296541328,81.32622250787188,-1436.206681697395,-1893.8482157145763,1820.2481591165265,0.0,0.0,0.0,0.0,0.0,0.0,2.0,21.928087494348347,0.0,21.47466520912456,0.0,2.0,22.62,20.79,22.16,22.07,22.44,1.6,2.0,505.81,-1000.44,-790.34,145.56,169.0,0.0,895.0,0.0,0.0,0.0,0.0,0.0,0.0,0.0,0.0,0.0,0.0,0.0,0.0,0.0,0.0
110.0,5684.0,9701.348666257065,4232.8591755563275,-0.0,264.0172526305476,0.0,0.0,11762.013222825322,0.0,0.0,0.0,11762.013222825322,0.41925925925925933,0.5,0.36415799668385906,0.0,0.0,0.0,"[0.6180988083817489, 0.40211879540729, 1.0174851114456729, 0.5007350486996245, 0.6945038809670905, 0.7656764621762697, 0.33599173255183956, 0.4910716189165143, 0.7704443411327482]",22.62,0.0,0.0,64.83669486173083,1412.0381975584971,82.04982139285485,-1415.3094103964124,-1788.3550547446453,1650.5967427983562,0.0,0.0,0.0,0.0,0.0,0.0,2.3,21.966977384854996,0.0,21.526952940948153,0.0,2.3,22.62,20.84,22.21,22.02,22.42,1.86,2.3,1762.82,-985.88,-778.84,103.04,166.0,0.0,948.0,0.0,0.0,0.0,0.0,0.0,0.0,0.0,0.0,0.0,0.0,0.0,0.0,0.0,0.0
111.0,7912.0,88639.40978938038,0.0,-0.0,0.06320395238889599,-16000.0,0.0,11341.01074994727,47464.12,0.0,0.0,0.0,1.0,0.5,0.3554116409987278,257137.10377754353,64284.27594438588,321421.3797219294,"[0.6180988083817489, 0.40211879540729, 1.0174851114456729, 0.5007350486996245, 0.6945038809670905, 0.7656764621762697, 0.33599173255183956, 0.4910716189165143, 0.7704443411327482]",22.62,0.0,0.0,17.862522343418686,2447.810421570753,94.31954161647965,-1457.1039529983777,-1697.5439261555277,0.0,0.0,0.0,0.0,0.0,0.0,0.0,1.7,22.000881662876893,0.0,21.57322377913666,0.0,1.7,22.62,20.88,22.26,22.03,22.44,1.23,1.7,1632.6,-1014.99,-801.84,28.39,127.0,0.0,1728.0,0.0,0.0,0.0,0.0,0.0,0.0,0.0,0.0,0.0,0.0,0.0,0.0,0.0,0.0
112.0,3517.0,1243.5638325353507,1438.2467339235197,-0.0,0.0,3717.900720550846,0.0,3804.555624798362,0.0,0.0,0.0,3804.555624798362,0.8594897686866649,0.5,0.3357323407071826,0.0,0.0,0.0,"[0.6180988083817489, 0.40211879540729, 1.0174851114456729, 0.5007350486996245, 0.6945038809670905, 0.7656764621762697, 0.33599173255183956, 0.4910716189165143, 0.7704443411327482]",22.4,0.0,0.0,0.0,556.1443653254998,67.07447055581541,-1497.2923144372419,-1242.1328571067997,0.0,0.0,0.0,0.0,0.0,0.0,0.0,0.9,21.94657649874047,0.0,21.584864881207565,0.0,0.9,22.4,20.91,22.26,21.78,22.24,0.41,0.9,504.54,-1042.99,-823.96,0.0,182.0,0.0,312.0,0.0,0.0,0.0,0.0,0.0,0.0,0.0,0.0,0.0,0.0,0.0,0.0,0.0,0.0
113.0,2664.0,0.0,2490.6084436941155,-0.0,0.0,5154.6084436941155,0.0,6612.083648866681,0.0,0.0,0.0,6612.083648866682,0.6646821933391927,0.5,0.3357323407071822,0.0,0.0,0.0,"[0.6180988083817489, 0.40211879540729, 1.0174851114456729, 0.5007350486996245, 0.6945038809670905, 0.7656764621762697, 0.33599173255183956, 0.4910716189165143, 0.7704443411327482]",21.61,0.0,0.0,0.0,515.8762975728405,104.2297002586381,-1435.6377383943013,241.4728391645319,0.0,0.0,0.0,0.0,0.0,0.0,0.0,1.0,21.70980553774365,0.0,21.559252607262,0.0,1.0,21.61,20.9,22.22,21.42,21.95,0.49,1.0,3.85,-1000.04,-790.03,0.0,272.0,20.0,233.0,0.0,0.0,0.0,0.0,0.0,0.0,0.0,0.0,0.0,0.0,0.0,0.0,0.0,0.0
114.0,5439.0,0.0,3370.9167106040386,-0.0,0.0,8809.916710604039,0.0,8981.267799180825,0.0,0.0,0.0,8981.267799180825,0.33172993670260775,0.5,0.3357323407071822,0.0,0.0,0.0,"[0.6180988083817489, 0.40211879540729, 1.0174851114456729, 0.5007350486996245, 0.6945038809670905, 0.7656764621762697, 0.33599173255183956, 0.4910716189165143, 0.7704443411327482]",21.39,0.0,0.0,0.0,1539.7331931591762,198.4863202329453,-1413.6273953157288,558.582209485704,386.5654856768489,0.0,0.0,0.0,0.0,0.0,0.0,1.1,21.610966697484933,0.0,21.512043954631807,0.0,1.1,21.39,20.88,22.14,21.32,21.84,0.59,1.1,0.0,-984.71,-777.92,0.0,492.0,29.0,867.0,0.0,0.0,0.0,0.0,0.0,0.0,0.0,0.0,0.0,0.0,0.0,0.0,0.0,0.0
115.0,6329.0,0.0,2448.5741251510008,-0.0,0.0,8777.574125151,0.0,6570.519689733323,0.0,0.0,0.0,6570.519689733323,0.0,0.5,0.3357323407071822,0.0,0.0,0.0,"[0.6180988083817489, 0.40211879540729, 1.0174851114456729, 0.5007350486996245, 0.6945038809670905, 0.7656764621762697, 0.33599173255183956, 0.4910716189165143, 0.7704443411327482]",21.86,0.0,0.0,0.0,1068.5034876400869,199.90205718182509,-1431.9289148583277,-405.83935377001166,0.0,0.0,0.0,0.0,0.0,0.0,0.0,1.3,21.717106198897195,0.0,21.489508395633706,0.0,1.3,21.86,20.88,22.1,21.58,22.02,0.78,1.3,0.0,-997.46,-787.99,0.0,435.0,81.0,546.0,0.0,0.0,0.0,0.0,0.0,0.0,0.0,0.0,0.0,0.0,0.0,0.0,0.0,0.0
116.0,4655.0,25266.94726432115,4485.612527999544,-0.0,0.0,-16000.0,0.0,12079.484473686343,0.0,0.0,0.0,12079.484473686343,0.7342263068747459,0.5,0.3357323407071822,0.0,0.0,0.0,"[0.6180988083817489, 0.40211879540729, 1.0174851114456729, 0.5007350486996245, 0.6945038809670905, 0.5258339954823974, 0.33599173255183956, 0.3510675604534228, 0.7704443411327482]",21.64,0.0,0.0,0.0,676.1589986275437,190.6525757824772,-1409.8068665996773,-32.112487840011205,3239.80992437043,0.0,0.0,0.0,0.0,0.0,0.0,1.4,21.637594876319028,0.0,21.466254214864453,0.0,1.4,21.64,20.87,22.06,21.44,21.89,0.89,1.4,0.0,-982.05,-775.82,0.0,372.0,114.0,288.0,0.0,0.0,0.0,0.0,0.0,0.0,0.0,0.0,0.0,0.0,0.0,0.0,0.0,0.0
117.0,3561.0,0.0,3567.20743725576,-0.0,0.0,7128.20743725576,0.0,9674.289424976952,0.0,0.0,0.0,9674.28942497695,0.46483071211829236,0.5,0.3357323407071822,0.0,0.0,0.0,"[0.6180988083817489, 0.40211879540729, 1.0174851114456729, 0.5007350486996245, 0.6945038809670905, 0.5258339954823974, 0.33599173255183956, 0.3510675604534228, 0.7704443411327482]",22.62,0.0,0.0,0.0,795.3840619736532,178.66600294862835,-1464.0697100987052,-1851.4935310879596,2358.3794678323857,0.0,0.0,0.0,0.0,0.0,0.0,1.6,21.944008573443128,0.0,21.517723890720475,0.0,1.6,22.62,20.91,22.13,22.19,22.48,1.09,1.6,0.0,-1019.84,-805.68,0.0,400.0,73.0,365.0,0.0,0.0,0.0,0.0,0.0,0.0,0.0,0.0,0.0,0.0,0.0,0.0,0.0,0.0
118.0,2751.0,11640.591845900217,8831.388886670717,-0.0,0.0,0.0,0.0,15767.069039674121,0.0,-8267.90654429108,0.0,24034.9755839652,0.46483071211829236,0.5300094385681676,0.3240705331270073,0.0,0.0,0.0,"[0.6180988083817489, 0.40211879540729, 1.0174851114456729, 0.5007350486996245, 0.6945038809670905, 0.5258339954823974, 0.33599173255183956, 0.3510675604534228, 0.7704443411327482]",22.62,0.0,0.0,0.0,650.6774227769304,214.40549570257127,-1457.1039529983777,-1729.9781570787156,2342.2393354672904,0.0,0.0,0.0,0.0,0.0,0.0,1.7,21.988913452222814,0.0,21.57580095010108,0.0,1.7,22.62,20.95,22.2,22.13,22.46,1.17,1.7,0.0,-1014.99,-801.84,0.0,584.0,45.0,165.0,0.0,0.0,0.0,0.0,0.0,0.0,0.0,0.0,0.0,0.0,0.0,0.0,0.0,0.0
119.0,1361.0,0.0,0.0,-0.0,0.0,1361.0,0.0,5971.620098987239,0.0,5971.62009898724,0.0,0.0,0.41339458211073377,0.5074409574684426,0.3240705331270073,0.0,0.0,0.0,"[0.6180988083817489, 0.40211879540729, 1.0174851114456729, 0.5007350486996245, 0.6945038809670905, 0.5258339954823974, 0.33599173255183956, 0.3510675604534228, 0.7704443411327482]",22.62,0.0,0.0,0.0,580.3339176118569,183.57389103807827,-1443.1724387977229,-1614.1947010756414,2310.788933494818,0.0,0.0,0.0,0.0,0.0,0.0,1.9,22.03163991081253,0.0,21.631474554411458,0.0,1.9,22.62,21.0,22.26,22.17,22.51,1.37,1.9,0.0,-1005.29,-794.18,0.0,520.0,27.0,149.0,0.0,0.0,0.0,0.0,0.0,0.0,0.0,0.0,0.0,0.0,0.0,0.0,0.0,0.0
120.0,1940.0,23509.39092424314,5451.843969621924,-0.0,0.0,-16000.0,0.0,14733.46167397438,0.0,0.0,0.0,14733.46167397438,0.9941353228514744,0.5074409574684426,0.3240705331270073,0.0,0.0,0.0,"[0.6180988083817489, 0.40211879540729, 1.0174851114456729, 0.5007350486996245, 0.6945038809670905, 0.5258339954823974, 0.33599173255183956, 0.3510675604534228, 0.7704443411327482]",22.62,0.0,0.0,0.0,581.410603915404,84.94421693278686,-1471.0354671990328,-1510.6132464527614,0.0,0.0,0.0,0.0,0.0,0.0,0.0,1.5,22.070171339295104,0.0,21.682197990152595,0.0,1.5,22.62,21.04,22.32,22.18,22.54,0.94,1.5,91.92,-1024.7,-809.51,0.0,240.0,0.0,300.0,0.0,0.0,0.0,0.0,0.0,0.0,0.0,0.0,0.0,0.0,0.0,0.0,0.0,0.0
121.0,2568.0,6088.323604524749,3544.7093348892417,-0.0,0.0,54.827348387116665,0.0,9478.103219540892,0.0,0.0,0.0,9478.103219540892,0.9920632386342743,0.5074409574684426,0.3087644106780277,0.0,0.0,0.0,"[0.6180988083817489, 0.40211879540729, 1.0174851114456729, 0.5007350486996245, 0.6945038809670905, 0.5258339954823974, 0.33599173255183956, 0.3510675604534228, 0.7704443411327482]",21.76,0.0,0.0,0.0,613.7829721087184,89.63187927463326,-1432.0708116653625,134.82565672461232,0.0,0.0,0.0,0.0,0.0,0.0,0.0,1.2,21.819161234612555,0.0,21.66348429323476,0.0,1.2,21.76,21.04,22.29,21.56,22.06,0.62,1.2,0.0,-997.55,-788.07,0.0,240.0,7.0,323.0,0.0,0.0,0.0,0.0,0.0,0.0,0.0,0.0,0.0,0.0,0.0,0.0,0.0,0.0
122.0,942.0,16502.39891409143,15477.886919520974,-0.0,0.0,0.0,0.0,40795.68492489404,0.0,0.0,0.0,40795.684924894034,0.9920632386342743,0.5074409574684426,0.3087644106780277,0.0,0.0,0.0,"[0.6180988083817489, 0.40211879540729, 1.0174851114456729, 0.5007350486996245, 0.6945038809670905, 0.5258339954823974, 0.33599173255183956, 0.3510675604534228, 0.7704443411327482]",21.54,0.0,0.0,0.0,555.4983535433716,84.34646133214876,-1444.4153353836907,471.7269180962453,1185.917236888157,0.0,0.0,0.0,0.0,0.0,0.0,0.8,21.721086188564076,0.0,21.618829883080117,0.0,0.8,21.54,21.02,22.22,21.45,21.94,0.21,0.8,611.4,-1006.15,-794.86,0.0,240.0,0.0,281.0,0.0,0.0,0.0,0.0,0.0,0.0,0.0,0.0,0.0,0.0,0.0,0.0,0.0,0.0
123.0,855.0,0.0,5508.192990571141,-0.0,0.0,6363.192990571141,0.0,14465.653033890156,0.0,0.0,0.0,14465.653033890156,0.751579754485705,0.5074409574684426,0.3087644106780277,0.0,0.0,0.0,"[0.6180988083817489, 0.40211879540729, 1.0174851114456729, 0.5007350486996245, 0.6945038809670905, 0.5258339954823974, 0.33599173255183956, 0.3510675604534228, 0.7704443411327482]",21.85,0.0,0.0,0.0,520.0394846132224,83.52847998390709,-1473.156028582098,-190.76323238652512,0.0,0.0,0.0,0.0,0.0,0.0,0.0,0.7,21.78884565636152,0.0,21.598505358636878,0.0,0.7,21.85,21.01,22.19,21.69,22.1,0.11,0.7,1510.06,-1026.17,-810.68,0.0,240.0,0.0,255.0,0.0,0.0,0.0,0.0,0.0,0.0,0.0,0.0,0.0,0.0,0.0,0.0,0.0,0.0
124.0,946.0,0.0,1676.7175404498375,-0.0,0.0,2622.7175404498375,0.0,4371.437420795777,0.0,0.0,0.0,4371.437420795777,0.6524596660333302,0.5074409574684426,0.3087644106780277,0.0,0.0,0.0,"[0.6180988083817489, 0.40211879540729, 1.0174851114456729, 0.5007350486996245, 0.6945038809670905, 0.5258339954823974, 0.33599173255183956, 0.3510675604534228, 0.7704443411327482]",21.45,0.0,0.0,0.0,578.826556786891,108.72859767396717,-1459.563613861031,493.6087143675463,95.34147275504083,0.0,0.0,0.0,0.0,0.0,0.0,0.5,21.646750182993102,0.0,21.556490635259333,0.0,0.5,21.45,20.99,22.13,21.39,21.85,-0.07,0.5,1715.43,-1016.71,-803.2,0.0,320.0,0.0,256.0,0.0,0.0,0.0,0.0,0.0,0.0,0.0,0.0,0.0,0.0,0.0,0.0,0.0,0.0
125.0,824.0,4750.064358535627,3902.3140367429496,-0.0,0.0,0.0,0.0,10099.47522510703,0.0,0.0,0.0,10099.47522510703,0.6524596660333302,0.5074409574684426,0.3087644106780277,0.0,0.0,0.0,"[0.6180988083817489, 0.40211879540729, 1.0174851114456729, 0.5007350486996245, 0.6945038809670905, 0.5258339954823974, 0.33599173255183956, 0.3510675604534228, 0.7704443411327482]",21.38,0.0,0.0,0.0,453.3567128802088,105.83420213403521,-1468.5140291391801,527.9357002604809,391.37829339162,0.0,0.0,0.0,0.0,0.0,0.0,0.3,21.588004389285107,0.0,21.508074522774976,0.0,0.3,21.38,20.96,22.06,21.35,21.8,-0.27,0.3,544.41,-1022.94,-808.12,0.0,320.0,0.0,164.0,0.0,0.0,0.0,0.0,0.0,0.0,0.0,0.0,0.0,0.0,0.0,0.0,0.0,0.0
126.0,1778.0,7230.6262758281655,5416.473144449024,-0.0,0.0,0.0,0.0,13966.593260841893,0.0,0.0,0.0,13966.593260841893,0.6524596660333302,0.5074409574684426,0.3087644106780277,0.0,0.0,0.0,"[0.6180988083817489, 0.40211879540729, 1.0174851114456729, 0.5007350486996245, 0.6945038809670905, 0.5258339954823974, 0.33599173255183956, 0.3510675604534228, 0.7704443411327482]",21.38,0.0,0.0,0.0,401.6757703099507,122.82304552059257,-1475.4797862395076,433.92925768113065,3870.6984059766296,0.0,0.0,0.0,0.0,0.0,0.0,0.2,21.553274689128273,0.0,21.464844484890605,0.0,0.2,21.38,20.93,22.0,21.36,21.78,-0.36,0.2,9.62,-1027.79,-811.96,0.0,381.0,0.0,94.0,0.0,0.0,0.0,0.0,0.0,0.0,0.0,0.0,0.0,0.0,0.0,0.0,0.0,0.0
127.0,942.0,0.0,5228.482763241914,-0.0,0.0,6170.482763241914,0.0,13432.00779175572,0.0,0.0,0.0,13432.007791755717,0.41925925925925933,0.5074409574684426,0.3087644106780277,0.0,0.0,0.0,"[0.6180988083817489, 0.40211879540729, 1.0174851114456729, 0.5007350486996245, 0.6945038809670905, 0.5258339954823974, 0.33599173255183956, 0.3510675604534228, 0.7704443411327482]",22.62,0.0,0.0,0.0,443.52297797447915,137.20064075699392,-1568.5560666036179,-1889.2838670373933,0.0,0.0,0.0,0.0,0.0,0.0,0.0,0.1,21.930811256338195,0.0,21.515646894990205,0.0,0.1,22.62,20.96,22.07,22.24,22.47,-0.48,0.1,822.48,-1092.63,-863.18,0.0,426.0,0.0,101.0,0.0,0.0,0.0,0.0,0.0,0.0,0.0,0.0,0.0,0.0,0.0,0.0,0.0,0.0
128.0,2734.0,0.0,1383.2984625686245,-0.0,0.0,4117.298462568624,0.0,3566.8905706370247,0.0,0.0,0.0,3566.8905706370247,0.8443953717850105,0.5074409574684426,0.36047729106725235,0.0,0.0,0.0,"[0.6180988083817489, 0.40211879540729, 1.0135195972635174, 0.5007350486996245, 0.6945038809670905, 0.5258339954823974, 0.33599173255183956, 0.3510675604534228, 0.7704443411327482]",21.55,0.0,0.0,2.1435699655950966,345.8316406993106,95.70381774427321,-1487.1254945612775,184.01065914163325,416.42379487549493,0.0,0.0,0.0,0.0,0.0,0.0,0.2,21.628088892370815,0.0,21.50118993573848,0.0,0.2,21.55,20.95,22.05,21.42,21.85,-0.34,0.2,857.49,-1035.9,-818.36,3.41,249.0,24.0,120.0,0.0,0.0,0.0,0.0,0.0,0.0,0.0,0.0,0.0,0.0,0.0,0.0,0.0,0.0
129.0,4233.0,0.0,1803.7600600780606,-0.0,88.60618172359383,5948.1538783544665,0.0,5098.15841810298,0.0,0.0,0.0,5098.158418102981,0.6195974171986738,0.5074409574684426,0.36047729106725235,0.0,0.0,0.0,"[0.6180988083817489, 0.40211879540729, 1.0135195972635174, 0.5007350486996245, 0.6945038809670905, 0.5258339954823974, 0.33599173255183956, 0.3510675604534228, 0.7704443411327482]",21.38,0.0,0.0,86.2254803166562,1322.0990016688675,130.2792601180261,-1294.3701016309922,431.717850313311,0.0,0.0,0.0,0.0,0.0,0.0,0.0,2.8,21.551140950143207,0.0,21.462006904300864,0.0,2.8,21.38,20.93,22.0,21.36,21.78,2.27,2.8,204.05,-901.63,-712.29,137.04,280.0,29.0,819.0,0.0,0.0,0.0,0.0,0.0,0.0,0.0,0.0,0.0,0.0,0.0,0.0,0.0,0.0
130.0,2013.0,0.0,0.0,-2613.679625632467,4626.679625632467,0.0,0.0,2203.2712966028216,0.0,2203.2712966028216,0.0,0.0,0.6195974171986738,0.49911415740569576,0.3726744626535372,0.0,0.0,0.0,"[0.6180988083817489, 0.40211879540729, 1.0135195972635174, 0.5007350486996245, 0.6945038809670905, 0.5258339954823974, 0.33599173255183956, 0.3510675604534228, 0.7704443411327482]",21.63,0.0,0.0,1030.2060350506538,332.4089514484241,33.002401319442,-1137.3875086924086,-112.16233662198027,0.0,0.0,0.0,0.0,0.0,0.0,0.0,5.3,21.594907113985105,0.0,21.433973576551253,0.0,5.3,21.63,20.91,21.95,21.44,21.83,5.37,5.3,0.0,-792.28,-625.9,1637.28,85.0,0.0,199.0,0.0,0.0,0.0,0.0,0.0,0.0,0.0,0.0,0.0,0.0,0.0,0.0,0.0,0.0
131.0,4924.0,5661.635109460902,3691.6096767750782,-5233.2337797502105,8215.516522611691,0.0,0.0,11841.717989481223,0.0,0.0,0.0,11841.717989481222,0.6195974171986738,0.49911415740569576,0.3970962202923715,0.0,0.0,0.0,"[0.6180988083817489, 0.40211879540729, 1.0135195972635174, 0.5007350486996245, 0.6945038809670905, 0.5258339954823974, 0.33599173255183956, 0.3510675604534228, 0.7704443411327482]",21.69,0.0,0.0,890.2982666868273,459.9603888752973,81.54644825547538,-1037.28439497328,-199.37964465998672,2294.8664794668075,0.0,0.0,0.0,0.0,0.0,0.0,6.8,21.624905499945623,0.0,21.451912557616872,0.0,6.8,21.69,20.93,21.97,21.68,22.04,6.76,6.8,0.0,-722.55,-570.82,1414.93,238.0,0.0,212.0,0.0,0.0,0.0,0.0,0.0,0.0,0.0,0.0,0.0,0.0,0.0,0.0,0.0,0.0
132.0,4542.0,0.0,2190.598090197209,-1642.6466720427907,8375.24476224,0.0,0.0,7235.70197524794,0.0,0.0,0.0,7235.70197524794,0.6195974171986738,0.49911415740569576,0.40476190476190455,0.0,0.0,0.0,"[0.6180988083817489, 0.40211879540729, 1.0135195972635174, 0.5007350486996245, 0.6945038809670905, 0.5258339954823974, 0.33599173255183956, 0.3510675604534228, 0.7704443411327482]",22.62,0.0,0.0,826.0673845369904,1911.9795378388412,145.44337588158282,-1032.192769878399,-1853.4016858553532,-6.08232974782662,0.0,0.0,0.0,0.0,0.0,0.0,7.8,21.939984244842883,0.0,21.53280920393223,0.0,7.8,22.62,21.0,22.07,22.32,22.55,7.73,7.8,0.0,-719.01,-568.02,1312.85,340.0,0.0,1223.0,0.0,0.0,0.0,0.0,0.0,0.0,0.0,0.0,0.0,0.0,0.0,0.0,0.0,0.0
133.0,4229.0,24108.53814246924,13205.583696898799,-0.0,3158.850245141907,0.0,0.0,5273.509807450771,48561.31,0.0,0.0,44122.55780745077,0.6195974171986738,0.49911415740569576,0.40476190476190455,38849.048,9712.262,48561.31,"[0.6180988083817489, 0.40211879540729, 1.0135195972635174, 0.5007350486996245, 0.6945038809670905, 0.5258339954823974, 0.33599173255183956, 0.3510675604534228, 0.7704443411327482]",22.62,0.0,0.0,134.74574747675567,1977.944518702824,139.81188890714995,-1004.329741477089,-1713.9089361593171,0.0,0.0,0.0,0.0,0.0,0.0,0.0,8.2,21.991608263588343,0.0,21.60074608490777,0.0,8.2,22.62,21.05,22.15,22.14,22.44,7.67,8.2,0.0,-699.6,-552.68,214.15,316.0,0.0,1284.0,0.0,0.0,0.0,0.0,0.0,0.0,0.0,0.0,0.0,0.0,0.0,0.0,0.0,0.0
134.0,5260.0,10249.727000272364,464.74428376169107,-0.0,511.5821724179443,-4985.316253927254,0.0,1552.8057673643825,0.0,0.0,0.0,1552.8057673643825,0.8005459330819593,0.49911415740569576,0.40476190476190455,0.0,0.0,0.0,"[0.6180988083817489, 0.40211879540729, 1.0135195972635174, 0.5007350486996245, 0.6945038809670905, 0.5258339954823974, 0.33599173255183956, 0.3510675604534228, 0.7704443411327482]",22.44,0.0,0.0,96.46924001683462,1990.5776379977754,92.11728414044441,-992.0873775191754,-1309.942689734494,0.0,0.0,0.0,0.0,0.0,0.0,0.0,8.2,21.965236400663034,0.0,21.631598395468167,0.0,8.2,22.44,21.09,22.17,21.91,22.25,7.59,8.2,0.0,-691.07,-545.95,153.32,155.0,0.0,1378.0,0.0,0.0,0.0,0.0,0.0,0.0,0.0,0.0,0.0,0.0,0.0,0.0,0.0,0.0
135.0,2725.0,0.0,1938.4419216763808,-0.0,4.30503870402587,4659.136882972355,0.0,6291.933567740525,0.0,0.0,0.0,6291.933567740525,0.6244636623724977,0.49911415740569576,0.3858114674441203,0.0,0.0,0.0,"[0.6180988083817489, 0.40211879540729, 1.0135195972635174, 0.5007350486996245, 0.6945038809670905, 0.5258339954823974, 0.33599173255183956, 0.3510675604534228, 0.7704443411327482]",22.39,0.0,0.0,32.80359193697223,907.5747748032552,69.08796310533332,-1058.4267140860904,-1182.7396748249691,0.0,0.0,0.0,0.0,0.0,0.0,0.0,7.2,21.96515078104613,0.0,21.651553650807358,0.0,7.2,22.39,21.12,22.19,21.87,22.23,6.54,7.2,0.0,-737.28,-582.45,52.13,154.0,4.0,584.0,0.0,0.0,0.0,0.0,0.0,0.0,0.0,0.0,0.0,0.0,0.0,0.0,0.0,0.0
136.0,1854.0,2847.306121959848,979.0695913500489,-0.0,0.0,0.0,0.0,3047.261381569884,0.0,0.0,0.0,3047.261381569884,0.6244636623724977,0.49911415740569576,0.3858114674441201,0.0,0.0,0.0,"[0.6180988083817489, 0.40211879540729, 1.0135195972635174, 0.5007350486996245, 0.6945038809670905, 0.5258339954823974, 0.33599173255183956, 0.3510675604534228, 0.7704443411327482]",21.94,0.0,0.0,0.0,489.60515176629264,58.485666399278074,-1124.0682428242067,-298.9387313606096,0.0,0.0,0.0,0.0,0.0,0.0,0.0,5.8,21.834874007567127,0.0,21.647716235861814,0.0,5.8,21.94,21.13,22.17,21.66,22.05,5.15,5.8,0.0,-783.01,-618.57,0.0,130.0,15.0,289.0,0.0,0.0,0.0,0.0,0.0,0.0,0.0,0.0,0.0,0.0,0.0,0.0,0.0,0.0
137.0,1858.0,6958.594603046332,5065.8016300311,-0.0,0.0,0.0,0.0,15573.652457053377,0.0,0.0,0.0,15573.652457053375,0.6244636623724977,0.49911415740569576,0.3828960155490764,0.0,0.0,0.0,"[0.6180988083817489, 0.40211879540729, 1.0135195972635174, 0.5007350486996245, 0.6945038809670905, 0.5258339954823974, 0.33599173255183956, 0.3510675604534228, 0.7704443411327482]",21.61,0.0,0.0,0.0,601.4369691613789,76.79586427145657,-1129.2461324454773,273.6870867872522,0.0,0.0,0.0,0.0,0.0,0.0,0.0,5.4,21.721055986361538,0.0,21.618591772314296,0.0,5.4,21.61,21.12,22.12,21.5,21.91,4.74,5.4,0.0,-786.61,-621.42,0.0,162.0,26.0,353.0,0.0,0.0,0.0,0.0,0.0,0.0,0.0,0.0,0.0,0.0,0.0,0.0,0.0,0.0
138.0,2238.0,0.0,2954.3514401468174,-0.0,0.0,5192.351440146817,0.0,8969.82115799129,0.0,0.0,0.0,8969.82115799129,0.428229669925528,0.49911415740569576,0.3697764820213787,0.0,0.0,0.0,"[0.6180988083817489, 0.40211879540729, 1.0135195972635174, 0.5007350486996245, 0.6945038809670905, 0.5258339954823974, 0.33599173255183956, 0.3510675604534228, 0.7704443411327482]",21.54,0.0,0.0,0.0,1023.7133374125295,82.9936460254414,-1152.3534234534923,324.89197214537126,2634.7923838422635,0.0,0.0,0.0,0.0,0.0,0.0,5.0,21.67187529774209,0.0,21.582085689675246,0.0,5.0,21.54,21.1,22.07,21.46,21.85,4.37,5.0,246.32,-802.71,-634.14,0.0,101.0,52.0,692.0,0.0,0.0,0.0,0.0,0.0,0.0,0.0,0.0,0.0,0.0,0.0,0.0,0.0,0.0
139.0,4490.0,0.0,2171.7745567200095,-0.0,0.0,6661.774556720009,0.0,6510.992312629648,0.0,0.0,0.0,6510.992312629648,0.17646192401774233,0.49911415740569576,0.31292517006802595,0.0,0.0,0.0,"[0.6180988083817489, 0.40211879540729, 1.0135195972635174, 0.5007350486996245, 0.6945038809670905, 0.5258339954823974, 0.33599173255183956, 0.3510675604534228, 0.7704443411327482]",22.62,0.0,0.0,0.0,1234.097841125622,195.90653290387544,-1255.0969970888798,-1711.9624583818375,0.0,0.0,0.0,0.0,0.0,0.0,0.0,4.6,21.99416383597805,0.0,21.6200289866594,0.0,4.6,22.62,21.13,22.11,22.19,22.42,4.0,4.6,0.0,-874.28,-690.68,0.0,303.0,137.0,731.0,0.0,0.0,0.0,0.0,0.0,0.0,0.0,0.0,0.0,0.0,0.0,0.0,0.0,0.0
140.0,5306.0,6305.516835902581,967.9892517230687,-0.0,0.0,0.0,0.0,2865.1246562153538,0.0,0.0,0.0,2865.1246562153538,0.17646192401774233,0.49911415740569576,0.28231292517006673,0.0,0.0,0.0,"[0.04271403969390164, 0.40211879540729, 0.6819422594944342, 0.3746521931271616, 0.6945038809670905, 0.323736295459355, 0.33599173255183956, 0.3510675604534228, 0.3548568377168344]",22.04,0.0,0.0,0.0,1482.668819071183,279.49793452995505,-1242.880120111113,-564.9474882913444,0.0,0.0,0.0,0.0,0.0,0.0,0.0,4.2,21.842949186838805,0.0,21.627927318709453,0.0,4.2,22.04,21.14,22.12,21.73,22.07,3.63,4.2,0.0,-865.77,-683.96,0.0,432.0,207.0,838.0,0.0,0.0,0.0,0.0,0.0,0.0,0.0,0.0,0.0,0.0,0.0,0.0,0.0,0.0
141.0,3174.0,77610.78361403038,0.0,-58048.72969596023,0.0,-16000.0,0.0,4511.877488337094,0.0,4511.877488337094,0.0,0.0,0.757202664758483,0.48206246621772486,0.5532069970845478,0.0,0.0,0.0,"[0.04271403969390164, 0.40211879540729, 0.6819422594944342, 0.3746521931271616, 0.6945038809670905, 0.323736295459355, 0.33599173255183956, 0.3510675604534228, 0.3548568377168344]",22.02,0.0,0.0,0.0,1183.7807012065236,199.08407583358346,-1268.8868333161533,-522.2769098130566,268.18430915449153,0.0,0.0,0.0,0.0,0.0,0.0,3.8,21.83225650933714,0.0,21.62455214396268,0.0,3.8,22.02,21.14,22.11,21.75,22.08,3.25,3.8,0.0,-883.88,-698.27,0.0,327.0,132.0,682.0,0.0,0.0,0.0,0.0,0.0,0.0,0.0,0.0,0.0,0.0,0.0,0.0,0.0,0.0
142.0,2500.0,5206.8377508514595,2680.8035620972028,-0.0,0.0,0.0,0.0,7730.381051495643,0.0,0.0,0.0,7730.381051495644,0.757202664758483,0.48206246621772486,0.5532069970845478,0.0,0.0,0.0,"[0.04271403969390164, 0.40211879540729, 0.6819422594944342, 0.3746521931271616, 0.6945038809670905, 0.323736295459355, 0.33599173255183956, 0.3510675604534228, 0.3548568377168344]",21.96,0.0,0.0,0.0,1194.1886688074785,125.30845038640375,-1292.6554644081036,-421.75037108180163,406.7379889347597,0.0,0.0,0.0,0.0,0.0,0.0,3.4,21.810833771397434,0.0,21.618372657174135,0.0,3.4,21.96,21.14,22.1,21.72,22.05,2.85,3.4,0.0,-900.44,-711.35,0.0,243.0,45.0,743.0,0.0,0.0,0.0,0.0,0.0,0.0,0.0,0.0,0.0,0.0,0.0,0.0,0.0,0.0
143.0,1355.0,1361.8090452261306,0.0,-0.0,0.0,0.0,0.0,15226.56966651898,0.0,15226.569666518979,0.0,0.0,0.757202664758483,0.4245168514538587,0.49927113702623876,0.0,0.0,0.0,"[0.04271403969390164, 0.40211879540729, 0.6819422594944342, 0.3746521931271616, 0.6945038809670905, 0.323736295459355, 0.33599173255183956, 0.3510675604534228, 0.3548568377168344]",21.96,0.0,0.0,0.0,663.8847747671075,109.20050999026043,-1320.5184928094138,-441.9210259144549,1230.6171423154185,0.0,0.0,0.0,0.0,0.0,0.0,3.0,21.80357449444007,0.0,21.609542441602706,0.0,3.0,21.96,21.13,22.09,21.71,22.04,2.45,3.0,0.0,-919.85,-726.68,0.0,315.0,0.0,321.0,0.0,0.0,0.0,0.0,0.0,0.0,0.0,0.0,0.0,0.0,0.0,0.0,0.0,0.0
144.0,2310.0,19349.937823354176,16943.188134237404,-0.0,0.0,0.0,0.0,15288.915866136018,0.0,-32114.84041841559,0.0,47403.756284551615,0.757202664758483,0.5410818277873671,0.49927113702623876,0.0,0.0,0.0,"[0.04271403969390164, 0.40211879540729, 0.6819422594944342, 0.3746521931271616, 0.6945038809670905, 0.323736295459355, 0.33599173255183956, 0.3510675604534228, 0.3548568377168344]",22.04,0.0,0.0,0.0,524.1308925667013,83.62286244716572,-1361.2979908166808,-601.2089898359576,1131.6930820407586,0.0,0.0,0.0,0.0,0.0,0.0,2.5,21.83036006767293,0.0,21.613888231328787,0.0,2.5,22.04,21.13,22.09,21.82,22.13,1.98,2.5,0.0,-948.26,-749.12,0.0,240.0,0.0,258.0,0.0,0.0,0.0,0.0,0.0,0.0,0.0,0.0,0.0,0.0,0.0,0.0,0.0,0.0
145.0,1216.0,0.0,3173.3599423457144,-0.0,0.0,4389.359942345714,0.0,8757.435566377237,0.0,0.0,0.0,8757.435566377239,0.5913160456222126,0.5410818277873671,0.49927113702623876,0.0,0.0,0.0,"[0.04271403969390164, 0.40211879540729, 0.6819422594944342, 0.3746521931271616, 0.6945038809670905, 0.323736295459355, 0.33599173255183956, 0.3510675604534228, 0.3548568377168344]",21.96,0.0,0.0,0.0,481.8530103807541,82.64757699349302,-1383.2103067123614,-433.4518737530894,1259.9636265388535,0.0,0.0,0.0,0.0,0.0,0.0,2.1,21.80712242065833,0.0,21.61364470638298,0.0,2.1,21.96,21.13,22.09,21.76,22.09,1.62,2.1,1045.06,-963.52,-761.18,0.0,240.0,0.0,227.0,0.0,0.0,0.0,0.0,0.0,0.0,0.0,0.0,0.0,0.0,0.0,0.0,0.0,0.0
146.0,891.0,0.0,6707.339766207931,-0.0,0.0,7598.339766207931,0.0,18190.348419959406,0.0,0.0,0.0,18190.348419959406,0.3041527891517693,0.5410818277873671,0.49927113702623876,0.0,0.0,0.0,"[0.04271403969390164, 0.40211879540729, 0.6819422594944342, 0.3746521931271616, 0.6945038809670905, 0.323736295459355, 0.33599173255183956, 0.3510675604534228, 0.3548568377168344]",21.96,0.0,0.0,0.0,530.9499058224991,83.78016655259682,-1418.039092213999,-435.4279451187713,1246.6459162599579,0.0,0.0,0.0,0.0,0.0,0.0,1.6,21.8066256361095,0.0,21.612583968439388,0.0,1.6,21.96,21.13,22.09,21.77,22.1,1.15,1.6,165.76,-987.78,-780.35,0.0,240.0,0.0,263.0,0.0,0.0,0.0,0.0,0.0,0.0,0.0,0.0,0.0,0.0,0.0,0.0,0.0,0.0
147.0,2197.0,4441.512356372462,2222.304794590599,-0.0,0.0,0.0,0.0,5984.533014051407,0.0,0.0,0.0,5984.533014051407,0.3041527891517693,0.5410818277873671,0.49927113702623876,0.0,0.0,0.0,"[0.04271403969390164, 0.40211879540729, 0.6819422594944342, 0.3746521931271616, 0.6945038809670905, 0.323736295459355, 0.33599173255183956, 0.3510675604534228, 0.3548568377168344]",21.96,0.0,0.0,0.0,2322.9865894462,125.11968545988644,-1431.9706064146544,-438.32143176828407,-335.04853852859713,0.0,0.0,0.0,0.0,0.0,0.0,1.4,21.805661284470006,0.0,21.61071995970707,0.0,1.4,21.96,21.13,22.09,21.77,22.09,0.94,1.4,726.7,-997.48,-788.01,0.0,240.0,0.0,1577.0,0.0,0.0,0.0,0.0,0.0,0.0,0.0,0.0,0.0,0.0,0.0,0.0,0.0,0.0
148.0,801.0,0.0,5484.4329099330125,-0.0,0.0,6285.4329099330125,0.0,14664.67806241618,0.0,0.0,0.0,14664.67806241618,0.06660808356095249,0.5410818277873671,0.4992711370262387,0.0,0.0,0.0,"[0.04271403969390164, 0.40211879540729, 0.6819422594944342, 0.3746521931271616, 0.6945038809670905, 0.323736295459355, 0.33599173255183956, 0.3510675604534228, 0.3548568377168344]",22.04,0.0,0.0,0.0,356.526724647878,103.60048383691375,-1451.8528331209386,-634.2170110093509,1404.768404205536,0.0,0.0,0.0,0.0,0.0,0.0,1.2,21.818752281318417,0.0,21.5972517619943,0.0,1.2,22.04,21.12,22.08,21.69,22.03,0.77,1.2,144.88,-1011.33,-798.95,0.0,320.0,0.0,93.0,0.0,0.0,0.0,0.0,0.0,0.0,0.0,0.0,0.0,0.0,0.0,0.0,0.0,0.0
149.0,913.0,4644.95587940055,3708.731100003547,-0.0,0.0,0.0,0.0,9810.607202903913,0.0,0.0,0.0,9810.607202903913,0.06660808356095249,0.5410818277873671,0.4992711370262387,0.0,0.0,0.0,"[0.04271403969390164, 0.40211879540729, 0.6819422594944342, 0.3746521931271616, 0.6945038809670905, 0.323736295459355, 0.33599173255183956, 0.3510675604534228, 0.3548568377168344]",21.96,0.0,0.0,0.0,448.1168395362799,111.90614060367515,-1466.7993919162918,-457.6206974135114,1374.9611872154564,0.0,0.0,0.0,0.0,0.0,0.0,0.9,21.798746582336904,0.0,21.6004882714249,0.0,0.9,21.96,21.11,22.09,21.79,22.1,0.49,0.9,0.0,-1021.75,-807.18,0.0,320.0,11.0,159.0,0.0,0.0,0.0,0.0,0.0,0.0,0.0,0.0,0.0,0.0,0.0,0.0,0.0,0.0
150.0,849.0,17951.84350155598,7297.184545421379,-0.0,0.0,-9715.899738626822,0.0,19233.480842811976,0.0,0.0,0.0,19233.480842811972,0.41925925925925933,0.5410818277873671,0.4992711370262387,0.0,0.0,0.0,"[0.04271403969390164, 0.40211879540729, 0.6819422594944342, 0.3746521931271616, 0.6945038809670905, 0.323736295459355, 0.33599173255183956, 0.3510675604534228, 0.3548568377168344]",21.96,0.0,0.0,0.0,511.1388778372335,200.68857770898052,-1473.765149016619,-454.55382015264115,1235.436763475547,0.0,0.0,0.0,0.0,0.0,0.0,0.8,21.799918704459998,0.0,21.60106533281734,0.0,0.8,21.96,21.11,22.09,21.79,22.11,0.41,0.8,0.0,-1026.6,-811.01,0.0,596.0,20.0,59.0,0.0,0.0,0.0,0.0,0.0,0.0,0.0,0.0,0.0,0.0,0.0,0.0,0.0,0.0
151.0,2505.0,22437.39797462871,3820.210984755569,-0.0,0.0,-16000.0,0.0,9996.244229848793,0.0,0.0,0.0,9996.244229848791,1.0,0.5410818277873671,0.4992711370262387,0.0,0.0,0.0,"[0.04271403969390164, 0.40211879540729, 0.6819422594944342, 0.3746521931271616, 0.6945038809670905, 0.323736295459355, 0.33599173255183956, 0.3510675604534228, 0.3548568377168344]",21.96,0.0,0.0,0.0,407.41809726220146,124.71069478576558,-1487.6966632172741,-448.42012574128796,1415.7608406816069,0.0,0.0,0.0,0.0,0.0,0.0,0.6,21.80228320890987,0.0,21.60322437620799,0.0,0.6,21.96,21.11,22.1,21.8,22.12,0.22,0.6,675.19,-1036.3,-818.68,0.0,300.0,46.0,136.0,0.0,0.0,0.0,0.0,0.0,0.0,0.0,0.0,0.0,0.0,0.0,0.0,0.0,0.0
