,load_elec,grid,hp_elec,ev,pv,bat_pow,cool,load_th_sh,load_th_dhw,tes_pow,dh,hp_th,bat_soc,tes_soc,ev_soc,eh_th_in,eh_elec_in,eh_th_out,temp_slack,temp_zone_1,temp_zone_2,temp_update,Qsolar_1,QconvInt_1,QradInt_1,Qvent_1,Qconduc_1,Qheating_1,Qsolar_2,QconvInt_2,QradInt_2,Qvent_2,Qconduc_2,Qheating_2,temp_amb,temp_aggregate_1,temp_aggregate_2,temp_wall_1,temp_wall_2,_Tamb,_Tz_1,_TEW_1,_TIW_1,_T1_1,_T2_1,_Taeq_1,_Tvent_1,_Qheating_1,_Qinfvent_1,_Qenvelope_1,_Qsolar_1,_Qint_people_1,_Qint_lighting_1,_Qint_appliances_1,_Tz_2,_TEW_2,_TIW_2,_T1_2,_T2_2,_Taeq_2,_Tvent_2,_Qheating_2,_Qinfvent_2,_Qenvelope_2,_Qsolar_2,_Qint_people_2,_Qint_lighting_2,_Qint_appliances_2
8.0,967.0,109746.11354526257,95985.4850183526,-0.0,0.0,-12244.897959183672,0.0,79656.75094822362,0.0,-80000.0,0.0,159656.75094822363,1.0,0.8266666666666667,0.8,0.0,0.0,0.0,"[2.0, 2.0, 2.0, 2.0, 2.0, 2.0, 2.0, 2.0]",20.0,0.0,0.0,1.0946031042211108,74.86463132059427,1.6679173438912216,-1247.6837248037693,-1753.6804361482152,11166.388703164426,0.0,0.0,0.0,0.0,0.0,0.0,-9.4,19.165290701529738,0.0,19.0,0.0,-9.4,20.0,18.0,20.0,20.0,20.0,-10.72,-9.4,1939.24,-870.79,-819.76,1.8,0.0,0.0,55.0,0.0,0.0,0.0,0.0,0.0,0.0,0.0,0.0,0.0,0.0,0.0,0.0,0.0,0.0
9.0,1832.0,0.0,0.0,-0.0,7.042361367140277,1824.9576386328597,0.0,16258.463483542659,0.0,16258.463483542659,0.0,0.0,0.9224082636635689,0.7575405464135091,0.8,0.0,0.0,0.0,"[2.0, 2.0, 2.0, 2.0, 2.0, 2.0, 2.0, 2.0]",24.0,0.0,0.0,33.49794443942408,96.64343315931264,2.153129662114122,-1383.4860349864928,-6941.932979887767,8191.376630269127,0.0,0.0,0.0,0.0,0.0,0.0,-8.6,20.649112312635573,0.0,19.47754848158857,0.0,-8.6,24.0,18.27,20.68,21.93,22.83,-9.71,-8.6,2374.74,-965.57,-908.99,55.23,0.0,0.0,71.0,0.0,0.0,0.0,0.0,0.0,0.0,0.0,0.0,0.0,0.0,0.0,0.0,0.0,0.0
10.0,5727.0,0.0,9834.626775367291,-0.0,373.6497191705939,15187.977056196698,0.0,18045.971428975994,0.0,0.0,0.0,18045.971428975994,0.2766609398456821,0.7575405464135091,0.7999999999999999,0.0,0.0,0.0,"[2.0, 2.0, 2.0, 2.0, 2.0, 2.0, 2.0, 2.0]",24.0,0.0,0.0,90.14282414463709,62.61405528631523,1.394985414890837,-1341.0478130543916,-6296.958138549449,0.0,0.0,0.0,0.0,0.0,0.0,0.0,-7.6,20.96152438737048,0.0,19.950645198764537,0.0,-7.6,24.0,18.57,21.33,21.84,22.9,-8.61,-7.6,1526.22,-935.95,-881.1,148.62,0.0,0.0,46.0,0.0,0.0,0.0,0.0,0.0,0.0,0.0,0.0,0.0,0.0,0.0,0.0,0.0,0.0
11.0,3875.0,36820.536436413735,18541.733189807823,-0.0,1061.8446185919502,-15281.545183015789,0.0,35437.12045827619,0.0,0.0,0.0,35437.1204582762,0.9006573681521601,0.7575405464135091,0.7999999999999999,0.0,0.0,0.0,"[2.0, 2.0, 2.0, 2.0, 2.0, 2.0, 2.0, 2.0]",20.37,0.0,0.0,121.34070545080435,99.36578338915241,2.213781201891984,-1153.071724177005,-929.2645534389251,9331.879421515181,0.0,0.0,0.0,0.0,0.0,0.0,-6.8,19.934544983253293,0.0,19.990131966945906,0.0,-6.8,20.37,18.68,21.3,19.62,20.79,-7.68,-6.8,6896.27,-804.76,-757.6,200.06,0.0,0.0,73.0,0.0,0.0,0.0,0.0,0.0,0.0,0.0,0.0,0.0,0.0,0.0,0.0,0.0,0.0
12.0,3660.0,1170.657383493435,0.0,-0.0,2495.195903424032,0.0,0.0,22258.77297931468,0.0,22258.77297931468,0.0,0.0,0.9006573681521601,0.6629029061953344,0.7999999999999999,0.0,0.0,0.0,"[2.0, 2.0, 2.0, 2.0, 2.0, 2.0, 2.0, 2.0]",24.0,0.0,0.0,171.5327568304589,96.64343315931264,2.153129662114122,-1281.63430234945,-5728.638042006548,0.0,0.0,0.0,0.0,0.0,0.0,0.0,-6.2,21.236441582781474,0.0,20.347703075325782,0.0,-6.2,24.0,18.93,21.77,22.2,23.37,-6.96,-6.2,0.0,-894.49,-842.07,282.82,0.0,0.0,71.0,0.0,0.0,0.0,0.0,0.0,0.0,0.0,0.0,0.0,0.0,0.0,0.0,0.0,0.0
13.0,4291.0,0.0,0.0,-0.0,436.5387010611915,3854.4612989388083,0.0,16260.51264894909,0.0,16260.51264894909,0.0,0.0,0.7367772108843537,0.5937680735042243,0.7986690328305235,0.0,0.0,0.0,"[2.0, 2.0, 2.0, 2.0, 2.0, 2.0, 2.0, 2.0]",20.73,0.0,0.0,90.49207604114501,35.390552987917296,0.7884700171122129,-1138.7676974775059,-899.7787230565716,395.4010535921605,0.0,0.0,0.0,0.0,0.0,0.0,-6.1,20.31165512915445,0.0,20.380013394717125,0.0,-6.1,20.73,19.03,21.73,20.0,21.23,-7.05,-6.1,0.0,-794.78,-748.2,149.2,0.0,0.0,26.0,0.0,0.0,0.0,0.0,0.0,0.0,0.0,0.0,0.0,0.0,0.0,0.0,0.0,0.0
14.0,3590.0,10082.368372409808,6446.662336766387,-0.0,4.705806218628434,0.0,0.0,12443.832703475455,0.0,0.0,0.0,12443.832703475455,0.7367772108843537,0.5937680735042243,0.7986690328305235,0.0,0.0,0.0,"[2.0, 2.0, 2.0, 2.0, 2.0, 2.0, 2.0, 2.0]",20.0,0.0,0.0,29.622677547194563,127.95046080247025,2.850622369559539,-1128.8567033938866,61.63991601135911,1844.9493171965134,0.0,0.0,0.0,0.0,0.0,0.0,-6.6,20.044636198713874,0.0,20.283235340469545,0.0,-6.6,20.0,19.07,21.5,19.72,20.87,-7.71,-6.6,7658.1,-787.86,-741.69,48.84,0.0,0.0,94.0,0.0,0.0,0.0,0.0,0.0,0.0,0.0,0.0,0.0,0.0,0.0,0.0,0.0,0.0
15.0,6763.0,10677.340703517588,0.0,-0.0,0.0,0.0,0.0,34884.98026515105,19304.77,50328.79626515105,0.0,0.0,0.7367772108843537,0.37978509618640527,0.7986690328305235,15443.816,3860.954,19304.77,"[2.0, 2.0, 2.0, 2.0, 2.0, 2.0, 2.0, 2.0]",20.46,0.0,0.0,3.290337162061425,108.89400919359169,2.4260615911145034,-1177.914939817939,-651.9763658162262,9018.211331632932,0.0,0.0,0.0,0.0,0.0,0.0,-7.3,20.154973901446432,0.0,20.233978255884665,0.0,-7.3,20.46,19.11,21.36,20.05,21.08,-8.48,-7.3,0.0,-822.1,-773.92,5.42,0.0,0.0,80.0,0.0,0.0,0.0,0.0,0.0,0.0,0.0,0.0,0.0,0.0,0.0,0.0,0.0,0.0
16.0,5601.0,0.0,0.0,-0.0,0.0,5601.0,0.0,15283.412482811915,0.0,15283.412482811917,0.0,0.0,0.4986394557823129,0.3148046009363546,0.7926796805678793,0.0,0.0,0.0,"[2.0, 2.0, 2.0, 2.0, 2.0, 2.0, 2.0, 2.0]",24.0,0.0,0.0,0.0,113.12081612939559,55.223226967743905,-1324.0725242815513,-5366.210700043804,6525.093294968828,0.0,0.0,0.0,0.0,0.0,0.0,-7.2,21.41306329977919,0.0,20.565462971990083,0.0,-7.2,24.0,19.32,21.81,22.34,23.34,-8.36,-7.2,0.0,-924.11,-869.95,0.0,106.0,41.0,23.0,0.0,0.0,0.0,0.0,0.0,0.0,0.0,0.0,0.0,0.0,0.0,0.0,0.0,0.0
17.0,6229.0,0.0,0.0,-0.0,0.0,6229.0,0.0,12189.099503834157,0.0,12189.099503834157,0.0,0.0,0.23380102040816325,0.2629801982839979,0.7926796805678793,0.0,0.0,0.0,"[2.0, 2.0, 2.0, 2.0, 2.0, 2.0, 2.0, 2.0]",24.0,0.0,0.0,0.0,295.733203915228,119.84744260105649,-1315.5848798951308,-4893.437870171629,0.0,0.0,0.0,0.0,0.0,0.0,0.0,-7.0,21.64238187259376,0.0,20.908428897232394,0.0,-7.0,24.0,19.56,22.26,22.27,23.35,-8.15,-7.0,6158.24,-918.18,-864.37,0.0,92.0,160.0,152.0,0.0,0.0,0.0,0.0,0.0,0.0,0.0,0.0,0.0,0.0,0.0,0.0,0.0,0.0
18.0,6532.0,6564.824120603015,0.0,-0.0,0.0,0.0,0.0,0.0,0.0,0.0,0.0,0.0,0.23380102040816325,0.2629801982839979,0.7826974267968057,0.0,0.0,0.0,"[2.0, 2.0, 2.0, 2.0, 2.0, 2.0, 2.0, 2.0]",21.19,0.0,0.0,0.0,1230.7172262741524,111.62915896115611,-1191.8868319296462,-758.7614823488981,0.0,0.0,0.0,0.0,0.0,0.0,0.0,-6.9,20.83254645807932,0.0,20.91500409111474,0.0,-6.9,21.19,19.65,22.18,20.54,21.66,-8.06,-6.9,4968.09,-831.85,-783.1,0.0,142.0,80.0,821.0,0.0,0.0,0.0,0.0,0.0,0.0,0.0,0.0,0.0,0.0,0.0,0.0,0.0,0.0
19.0,5681.0,5709.547738693467,0.0,-0.0,0.0,0.0,0.0,4349.421605611816,0.0,4349.421605611816,0.0,0.0,0.23380102040816325,0.2444877594846279,0.7787045252883762,0.0,0.0,0.0,"[2.0, 2.0, 2.0, 2.0, 2.0, 2.0, 2.0, 2.0]",20.89,0.0,0.0,0.0,515.8853685546405,11.493466787904964,-1174.9840074883052,-421.6365237972348,0.0,0.0,0.0,0.0,0.0,0.0,0.0,-6.8,20.69763415466801,0.0,20.826590449640324,0.0,-6.8,20.89,19.68,21.97,20.41,21.44,-7.94,-6.8,0.0,-820.05,-772.0,0.0,0.0,0.0,379.0,0.0,0.0,0.0,0.0,0.0,0.0,0.0,0.0,0.0,0.0,0.0,0.0,0.0,0.0
20.0,5499.0,21607.035175879395,0.0,-0.0,0.0,-16000.0,0.0,0.0,0.0,0.0,0.0,0.0,0.6533333333333333,0.2444877594846279,0.7787045252883762,0.0,0.0,0.0,"[1.9490977218847299, 1.337321444099043, 0.5810789830906096, 1.5601122011964783, 1.095008613925934, 0.731685551893559, 1.6126892998887854, 0.9278784793836437]",20.37,0.0,0.0,0.0,288.569124363018,6.429063216453437,-1144.462306940213,196.96876957211245,0.0,0.0,0.0,0.0,0.0,0.0,0.0,-6.6,20.47824382679785,0.0,20.70978505006772,0.0,-6.6,20.37,19.68,21.74,20.15,21.1,-7.74,-6.6,0.0,-798.75,-751.94,0.0,0.0,0.0,212.0,0.0,0.0,0.0,0.0,0.0,0.0,0.0,0.0,0.0,0.0,0.0,0.0,0.0,0.0
21.0,5174.0,13057.98882592413,13363.14865917628,-0.0,0.0,5544.449777381771,0.0,25921.950011787463,0.0,0.0,0.0,25921.95001178746,0.41759992443104715,0.2444877594846279,0.7560780834072759,0.0,0.0,0.0,"[1.9490977218847299, 1.337321444099043, 0.5810789830906096, 1.5601122011964783, 1.095008613925934, 0.731685551893559, 1.6126892998887854, 0.9278784793836437]",20.05,0.0,0.0,0.0,245.79956943632445,46.97461755795458,-1126.7730833761818,497.7033794102494,338.9785055406897,0.0,0.0,0.0,0.0,0.0,0.0,-6.5,20.30716085419398,0.0,20.578170093300145,0.0,-6.5,20.05,19.67,21.49,19.99,20.85,-7.67,-6.5,869.31,-786.4,-740.32,0.0,135.0,5.0,109.0,0.0,0.0,0.0,0.0,0.0,0.0,0.0,0.0,0.0,0.0,0.0,0.0,0.0,0.0
22.0,5225.0,9207.979984097083,0.0,-0.0,0.0,0.0,0.0,3543.2460757589356,0.0,0.0,0.0,0.0,0.41759992443104715,0.2444877594846279,0.7560780834072759,15747.760336706386,3936.9400841765964,19684.700420882982,"[1.9490977218847299, 1.337321444099043, 0.5810789830906096, 1.5601122011964783, 1.095008613925934, 0.731685551893559, 1.6126892998887854, 0.9278784793836437]",20.05,0.0,0.0,0.0,389.51100525365666,66.80767106531566,-1118.2854389897616,360.3349015928828,305.4476285521256,0.0,0.0,0.0,0.0,0.0,0.0,-6.3,20.24043239218937,0.0,20.46667810696549,0.0,-6.3,20.05,19.65,21.28,20.01,20.79,-7.55,-6.3,1167.04,-780.48,-734.74,0.0,157.0,24.0,201.0,0.0,0.0,0.0,0.0,0.0,0.0,0.0,0.0,0.0,0.0,0.0,0.0,0.0,0.0
23.0,3484.0,10044.945344652138,6510.720617928878,-0.0,0.0,0.0,0.0,12815.75760851115,0.0,0.0,0.0,12815.75760851115,0.41759992443104715,0.2444877594846279,0.7560780834072759,0.0,0.0,0.0,"[1.9490977218847299, 1.337321444099043, 0.5810789830906096, 1.5601122011964783, 1.095008613925934, 0.731685551893559, 1.6126892998887854, 0.9278784793836437]",20.05,0.0,0.0,0.0,313.9299659778413,43.001941702504574,-1114.0416167965516,241.23449479486658,518.3313006937657,0.0,0.0,0.0,0.0,0.0,0.0,-6.2,20.182558085078234,0.0,20.370538859540186,0.0,-6.2,20.05,19.63,21.11,19.99,20.69,-7.41,-6.2,3681.82,-777.52,-731.95,0.0,80.0,24.0,186.0,0.0,0.0,0.0,0.0,0.0,0.0,0.0,0.0,0.0,0.0,0.0,0.0,0.0,0.0
24.0,1580.0,0.0,8241.95022261823,-0.0,0.0,9821.95022261823,0.0,16302.097666291955,0.0,0.0,0.0,16302.097666291955,0.0,0.2444877594846279,0.7560780834072759,0.0,0.0,0.0,"[1.9490977218847299, 1.337321444099043, 0.5810789830906096, 1.5601122011964783, 1.095008613925934, 0.731685551893559, 1.6126892998887854, 0.9278784793836437]",20.05,0.0,0.0,0.0,224.73717555282707,48.61220913195687,-1109.7977946033413,141.53649600555954,8540.747694413876,0.0,0.0,0.0,0.0,0.0,0.0,-6.1,20.13414338916489,0.0,20.29050579193016,0.0,-6.1,20.05,19.62,20.96,19.98,20.62,-7.34,-6.1,1015.67,-774.56,-729.17,0.0,80.0,38.0,119.0,0.0,0.0,0.0,0.0,0.0,0.0,0.0,0.0,0.0,0.0,0.0,0.0,0.0,0.0
25.0,1632.0,1640.2010050251256,0.0,-0.0,0.0,0.0,0.0,2786.110968387017,0.0,2786.1109683870163,0.0,0.0,0.0,0.23264204958502324,0.7560780834072759,0.0,0.0,0.0,"[1.9490977218847299, 1.337321444099043, 0.5810789830906096, 1.5601122011964783, 1.095008613925934, 0.731685551893559, 1.6126892998887854, 0.9278784793836437]",23.86,0.0,0.0,0.0,230.18187601250662,38.42275044927596,-1267.0781395956158,-4971.576806277555,0.0,0.0,0.0,0.0,0.0,0.0,0.0,-6.0,21.46085544807464,0.0,20.617268526357876,0.0,-6.0,23.86,19.79,21.45,22.46,23.08,-7.14,-6.0,4104.49,-884.33,-832.5,0.0,80.0,19.0,125.0,0.0,0.0,0.0,0.0,0.0,0.0,0.0,0.0,0.0,0.0,0.0,0.0,0.0,0.0
26.0,1279.0,1285.427135678392,0.0,-0.0,0.0,0.0,0.0,29502.067727071204,0.0,29502.067727071204,0.0,0.0,0.0,0.10720808816040078,0.7560780834072758,0.0,0.0,0.0,"[1.9490977218847299, 1.337321444099043, 0.5810789830906096, 1.5601122011964783, 1.095008613925934, 0.731685551893559, 1.6126892998887854, 0.9278784793836437]",20.96,0.0,0.0,0.0,175.73487141571078,26.89895789148206,-1131.3510605104855,-683.440974328534,7775.713842803045,0.0,0.0,0.0,0.0,0.0,0.0,-5.7,20.641874761952497,0.0,20.65668264856692,0.0,-5.7,20.96,19.85,21.47,20.45,21.16,-6.82,-5.7,3343.69,-789.6,-743.33,0.0,80.0,0.0,87.0,0.0,0.0,0.0,0.0,0.0,0.0,0.0,0.0,0.0,0.0,0.0,0.0,0.0,0.0
27.0,673.0,74633.67564171056,57587.507263502004,-0.0,0.0,-16000.0,0.0,37198.73270689298,0.0,-80000.0,0.0,117198.73270689299,0.6533333333333333,0.4338747548270675,0.7560780834072758,0.0,0.0,0.0,"[1.9490977218847299, 1.337321444099043, 0.5810789830906096, 1.5601122011964783, 1.095008613925934, 0.731685551893559, 1.6126892998887854, 0.9278784793836437]",23.95,0.0,0.0,0.0,92.70318940559713,25.049085928257252,-1249.7673448214741,-4638.91834309298,5772.364108873706,0.0,0.0,0.0,0.0,0.0,0.0,-5.5,21.714136389969816,0.0,20.956650304642388,0.0,-5.5,23.95,20.02,21.89,22.57,23.3,-6.59,-5.5,3031.45,-872.25,-821.13,0.0,80.0,0.0,26.0,0.0,0.0,0.0,0.0,0.0,0.0,0.0,0.0,0.0,0.0,0.0,0.0,0.0,0.0
28.0,721.0,0.0,10848.340173020115,-0.0,0.0,11569.340173020115,0.0,22181.329128063695,0.0,0.0,0.0,22181.329128063695,0.16143961849404276,0.4338747548270675,0.7560780834072758,0.0,0.0,0.0,"[1.9490977218847299, 1.337321444099043, 0.5810789830906096, 1.5601122011964783, 1.095008613925934, 0.731685551893559, 1.6126892998887854, 0.9278784793836437]",23.95,0.0,0.0,0.0,215.8537169080867,35.390173460382826,-1245.5235226282641,-4222.691729150274,0.0,0.0,0.0,0.0,0.0,0.0,0.0,-5.4,21.916062077894033,0.0,21.262238469989086,0.0,-5.4,23.95,20.22,22.31,22.5,23.32,-6.47,-5.4,835.04,-869.28,-818.34,0.0,80.0,14.0,115.0,0.0,0.0,0.0,0.0,0.0,0.0,0.0,0.0,0.0,0.0,0.0,0.0,0.0,0.0
29.0,960.0,0.0,0.0,-0.0,0.0,960.0,0.0,25357.91533330115,0.0,25357.91533330115,0.0,0.0,0.12062329196343052,0.3260604889541885,0.7560780834072758,0.0,0.0,0.0,"[1.9490977218847299, 1.337321444099043, 0.5810789830906096, 1.5601122011964783, 1.095008613925934, 0.731685551893559, 1.6126892998887854, 0.9278784793836437]",21.42,0.0,0.0,0.0,141.7771343382355,41.87988821661412,-1129.5531446691612,-513.878570839567,6681.159388691811,0.0,0.0,0.0,0.0,0.0,0.0,-5.2,21.1817428434732,0.0,21.262940714279047,0.0,-5.2,21.42,20.28,22.25,20.92,21.8,-6.27,-5.2,1467.65,-788.34,-742.15,0.0,80.0,29.0,59.0,0.0,0.0,0.0,0.0,0.0,0.0,0.0,0.0,0.0,0.0,0.0,0.0,0.0,0.0
30.0,3084.0,12368.823105856558,0.0,-0.0,0.0,-9222.978990327276,0.0,18893.882683710704,0.0,18893.882683710704,0.0,0.0,0.49722826740179427,0.24572935509487426,0.7560780834072758,0.0,0.0,0.0,"[1.9490977218847299, 1.337321444099043, 0.5810789830906096, 1.5601122011964783, 1.095008613925934, 0.731685551893559, 1.6126892998887854, 0.9278784793836437]",23.95,0.0,0.0,0.0,1159.7211979117517,110.74971163437712,-1232.7920560486334,-3893.349574050488,3861.9962688125934,0.0,0.0,0.0,0.0,0.0,0.0,-5.1,22.075729048814143,0.0,21.490796527144568,0.0,-5.1,23.95,20.43,22.55,22.73,23.6,-6.18,-5.1,3575.62,-860.4,-809.98,0.0,169.0,67.0,756.0,0.0,0.0,0.0,0.0,0.0,0.0,0.0,0.0,0.0,0.0,0.0,0.0,0.0,0.0
31.0,1400.0,1407.035175879397,0.0,-0.0,0.0,0.0,0.0,0.0,0.0,0.0,0.0,0.0,0.49722826740179427,0.24572935509487426,0.7560780834072758,0.0,0.0,0.0,"[1.9490977218847299, 1.337321444099043, 0.5810789830906096, 1.5601122011964783, 1.095008613925934, 0.731685551893559, 1.6126892998887854, 0.9278784793836437]",23.95,0.0,0.0,0.0,250.16965796317248,84.54824645034047,-1228.5482338554236,-3596.221598730873,0.0,0.0,0.0,0.0,0.0,0.0,0.0,-5.0,22.219858310080372,0.0,21.70379423073524,0.0,-5.0,23.95,20.59,22.82,22.57,23.46,-6.06,-5.0,2918.26,-857.44,-807.19,0.0,137.0,73.0,104.0,0.0,0.0,0.0,0.0,0.0,0.0,0.0,0.0,0.0,0.0,0.0,0.0,0.0,0.0
32.0,1012.0,0.0,10682.8088492902,-0.0,0.0,11694.808849290202,0.0,1231.2462434555555,0.0,-21222.680108813816,0.0,22453.926352269373,0.0,0.332388632205864,0.7560780834072758,0.0,0.0,0.0,"[0.8697240399351891, 1.2677094613481934, 0.5810789830906096, 0.8350282601042629, 0.7527534550031092, 0.7316855518935625, 1.343191167368424, 0.9278784793836437]",21.77,0.0,0.0,1.0945238934892365,156.46349742026592,82.36479101833741,-1127.4906011762153,-421.52571236822814,0.0,0.0,0.0,0.0,0.0,0.0,0.0,-4.8,21.57793714587958,0.0,21.68701952156028,0.0,-4.8,21.77,20.65,22.73,21.31,22.25,-5.87,-4.8,372.86,-786.91,-740.79,1.8,114.0,85.0,46.0,0.0,0.0,0.0,0.0,0.0,0.0,0.0,0.0,0.0,0.0,0.0,0.0,0.0,0.0
33.0,802.0,4886.742286665269,0.0,-0.0,6.685424768058948,0.0,0.0,16058.628168569745,20334.97,32326.604168569746,0.0,0.0,0.0,0.19494558727146885,0.7560780834072758,16267.976000000002,4066.9940000000006,20334.97,"[0.8697240399351891, 1.2677094613481934, 0.5810789830906096, 0.8350282601042629, 0.7527534550031092, 0.7316855518935625, 1.343191167368424, 0.9278784793836437]",21.13,0.0,0.0,33.473627286733084,393.3079674163279,68.83949764787404,-1057.9965840217526,380.86232521230255,183.5753777289879,0.0,0.0,0.0,0.0,0.0,0.0,-3.8,21.328781796548338,0.0,21.579569666994836,0.0,-3.8,21.13,20.65,22.51,21.04,21.92,-4.62,-3.8,2727.59,-738.4,-695.13,55.19,109.0,53.0,226.0,0.0,0.0,0.0,0.0,0.0,0.0,0.0,0.0,0.0,0.0,0.0,0.0,0.0,0.0
34.0,4011.0,3914.092101716039,0.0,-0.0,116.4783587925412,0.0,0.0,13744.422707841997,0.0,13744.422707841995,0.0,0.0,0.0,0.13650841589458962,0.7560780834072758,0.0,0.0,0.0,"[0.8697240399351891, 1.2677094613481934, 0.5810789830906096, 0.8350282601042629, 0.7527534550031092, 0.7316855518935625, 1.343191167368424, 0.9278784793836437]",21.13,0.0,0.0,64.93338646151477,1360.1005029870648,78.08885746399811,-1011.3145398964416,256.30800791988975,2837.1372820456622,0.0,0.0,0.0,0.0,0.0,0.0,-2.7,21.267685636062073,0.0,21.475865160764123,0.0,-2.7,21.13,20.64,22.31,21.04,21.83,-3.39,-2.7,0.0,-705.82,-664.46,107.06,155.0,6.0,917.0,0.0,0.0,0.0,0.0,0.0,0.0,0.0,0.0,0.0,0.0,0.0,0.0,0.0,0.0
35.0,3670.0,58326.62725019855,40019.95723468071,-0.0,578.8618072689733,-14923.898686535817,0.0,15944.136808061872,0.0,-80000.0,0.0,95944.13680806186,0.6093925297002125,0.46317508256125633,0.7560780834072758,0.0,0.0,0.0,"[0.8697240399351891, 1.2677094613481934, 0.5810789830906096, 0.8350282601042629, 0.7527534550031092, 0.7316855518935625, 1.343191167368424, 0.9278784793836437]",22.87,0.0,0.0,99.12880083229989,123.86693545771055,2.7596450598927467,-1042.6954016172467,-2176.8893112642777,2988.5265056460826,0.0,0.0,0.0,0.0,0.0,0.0,-1.7,21.826649398279027,0.0,21.54548807635627,0.0,-1.7,22.87,20.71,22.38,22.06,22.77,-2.22,-1.7,1450.77,-727.72,-685.08,163.44,0.0,0.0,91.0,0.0,0.0,0.0,0.0,0.0,0.0,0.0,0.0,0.0,0.0,0.0,0.0,0.0,0.0
36.0,3726.0,0.0,0.0,-0.0,823.2690007053959,2902.730999294604,0.0,12497.300971390649,0.0,12497.300971390647,0.0,0.0,0.48597709605673445,0.41004029951962945,0.7560780834072758,0.0,0.0,0.0,"[0.8697240399351891, 1.2677094613481934, 0.5810789830906096, 0.8350282601042629, 0.7527534550031092, 0.7316855518935625, 1.343191167368424, 0.9278784793836437]",22.87,0.0,0.0,108.69247456941935,138.83986172182938,3.093228528670989,-1012.9886462647759,-2010.042301389206,2766.63157678401,0.0,0.0,0.0,0.0,0.0,0.0,-1.0,21.907394657975104,0.0,21.663644828927506,0.0,-1.0,22.87,20.8,22.52,22.12,22.87,-1.8,-1.0,647.3,-706.99,-665.56,179.21,0.0,0.0,102.0,0.0,0.0,0.0,0.0,0.0,0.0,0.0,0.0,0.0,0.0,0.0,0.0,0.0,0.0
37.0,3513.0,0.0,0.0,-0.0,236.41870074560683,3276.5812992543933,0.0,2276.1773324847877,0.0,2276.1773324847877,0.0,0.0,0.3466666666666667,0.4003626748066839,0.7560780834072758,0.0,0.0,0.0,"[0.8697240399351891, 1.2677094613481934, 0.5810789830906096, 0.8350282601042629, 0.7527534550031092, 0.7316855518935625, 1.343191167368424, 0.9278784793836437]",22.87,0.0,0.0,76.87009282603792,310.3479262017364,6.914275534676336,-1000.2571796851456,-1863.0156843887255,0.0,0.0,0.0,0.0,0.0,0.0,0.0,-0.7,21.978678414006648,0.0,21.766626662192596,0.0,-0.7,22.87,20.9,22.64,22.15,22.92,-1.68,-0.7,898.48,-698.11,-657.2,126.74,0.0,0.0,228.0,0.0,0.0,0.0,0.0,0.0,0.0,0.0,0.0,0.0,0.0,0.0,0.0,0.0,0.0
38.0,3455.0,29162.70334026317,9562.119096490545,-0.0,0.22927292869037352,-16000.0,0.0,9864.409577278728,0.0,-13424.518817475187,0.0,23288.928394753915,1.0,0.45517945997804093,0.7560780834072758,0.0,0.0,0.0,"[0.8697240399351891, 1.2677094613481934, 0.5810789830906096, 0.8350282601042629, 0.7527534550031092, 0.7316855518935625, 1.343191167368424, 0.9278784793836437]",21.67,0.0,0.0,18.91370749327213,76.22580643551417,1.6982431137801528,-974.9482022657494,-160.0441184132669,3502.5037989570974,0.0,0.0,0.0,0.0,0.0,0.0,-1.3,21.608466340148947,0.0,21.727290475142254,0.0,-1.3,21.67,20.92,22.53,21.39,22.14,-2.38,-1.3,3256.55,-680.44,-640.57,31.18,0.0,0.0,56.0,0.0,0.0,0.0,0.0,0.0,0.0,0.0,0.0,0.0,0.0,0.0,0.0,0.0,0.0
39.0,2899.0,4474.498806286188,1553.1263122547566,-0.0,0.0,0.0,0.0,3693.863467765991,0.0,0.0,0.0,3693.863467765991,1.0,0.45517945997804093,0.7161490683229812,0.0,0.0,0.0,"[0.8697240399351891, 1.2677094613481934, 0.5810789830906096, 0.8350282601042629, 0.7527534550031092, 0.7316855518935625, 1.343191167368424, 0.9278784793836437]",22.87,0.0,0.0,2.1857252721944502,119.78341011295086,2.668667750225954,-1051.183046003667,-1796.2617906776468,0.0,0.0,0.0,0.0,0.0,0.0,0.0,-1.9,22.011818380156633,0.0,21.802871285979222,0.0,-1.9,22.87,20.99,22.61,22.25,22.96,-3.08,-1.9,463.86,-733.65,-690.66,3.6,0.0,0.0,88.0,0.0,0.0,0.0,0.0,0.0,0.0,0.0,0.0,0.0,0.0,0.0,0.0,0.0,0.0
40.0,3757.0,0.0,0.0,-0.0,0.0,3757.0,0.0,10825.636773596776,0.0,10825.636773596776,0.0,0.0,0.8402636054421768,0.4091520927433608,0.7161490683229812,0.0,0.0,0.0,"[0.8697240399351891, 1.2677094613481934, 0.5810789830906096, 0.8350282601042629, 0.7527534550031092, 0.7316855518935625, 1.343191167368424, 0.9278784793836437]",21.55,0.0,0.0,0.0,42.196428562516786,0.940098866556867,-1003.5951263184528,68.99240798504893,29.95546448194443,0.0,0.0,0.0,0.0,0.0,0.0,-2.1,21.595077107373672,0.0,21.749407579400703,0.0,-2.1,21.55,21.0,22.5,21.36,22.05,-3.33,-2.1,3253.92,-700.44,-659.39,0.0,0.0,0.0,31.0,0.0,0.0,0.0,0.0,0.0,0.0,0.0,0.0,0.0,0.0,0.0,0.0,0.0,0.0
41.0,5692.0,0.0,2687.384515598362,-0.0,0.0,8379.384515598362,0.0,6289.037233193553,0.0,0.0,0.0,6289.037233193552,0.48399725698986557,0.4091520927433608,0.710159716060337,0.0,0.0,0.0,"[0.8697240399351891, 1.2677094613481934, 0.5810789830906096, 0.8350282601042629, 0.7527534550031092, 0.7316855518935625, 1.343191167368424, 0.9278784793836437]",21.13,0.0,0.0,0.0,111.61635942343149,2.4867131308923653,-994.3392511236012,546.7861272045127,3917.993460667708,0.0,0.0,0.0,0.0,0.0,0.0,-2.3,21.40871289287013,0.0,21.644294684120716,0.0,-2.3,21.13,20.98,22.31,21.16,21.8,-3.51,-2.3,0.0,-693.98,-653.31,0.0,0.0,0.0,82.0,0.0,0.0,0.0,0.0,0.0,0.0,0.0,0.0,0.0,0.0,0.0,0.0,0.0,0.0
42.0,8568.0,7337.069864922975,0.0,-0.0,0.0,1267.6154844016396,0.0,3008.0027604800766,0.0,3008.0027604800766,0.0,0.0,0.43010204081632647,0.39636296536036725,0.710159716060337,0.0,0.0,0.0,"[0.8697240399351891, 1.2677094613481934, 0.5810789830906096, 0.8350282601042629, 0.7527534550031092, 0.7316855518935625, 1.343191167368424, 0.9278784793836437]",22.87,0.0,0.0,0.0,115.69988476819118,2.5776904405591576,-1076.6459791629275,-1875.8315146178302,0.0,0.0,0.0,0.0,0.0,0.0,0.0,-2.5,21.973610495557416,0.0,21.726690607534927,0.0,-2.5,22.87,21.04,22.42,22.3,22.89,-3.85,-2.5,2367.12,-751.42,-707.39,0.0,0.0,0.0,85.0,0.0,0.0,0.0,0.0,0.0,0.0,0.0,0.0,0.0,0.0,0.0,0.0,0.0,0.0
43.0,6343.0,0.0,0.0,-0.0,0.0,6343.0,0.0,6171.239459781587,0.0,6171.239459781587,0.0,0.0,0.16041666666666665,0.3701247023510918,0.646938775510204,0.0,0.0,0.0,"[0.8697240399351891, 1.2677094613481934, 0.5810789830906096, 0.8350282601042629, 0.7527534550031092, 0.7316855518935625, 1.343191167368424, 0.9278784793836437]",21.49,0.0,0.0,0.0,13.611751149198955,0.3032576988893121,-1026.761558902101,77.93872696467655,1038.562000460776,0.0,0.0,0.0,0.0,0.0,0.0,-2.7,21.545674652355288,0.0,21.682899871783974,0.0,-2.7,21.49,21.04,22.32,21.34,21.93,-4.08,-2.7,0.0,-716.6,-674.61,0.0,0.0,0.0,10.0,0.0,0.0,0.0,0.0,0.0,0.0,0.0,0.0,0.0,0.0,0.0,0.0,0.0,0.0
44.0,5507.0,21615.075376884422,0.0,-0.0,0.0,-16000.0,0.0,10288.362380918019,0.0,10288.362380918019,0.0,0.0,0.81375,0.2826386276834216,0.6469387755102036,0.0,0.0,0.0,"[0.7836813080091254, 1.2677094613481898, 0.5810789830906167, 0.3312782458225101, 0.7527534550031092, 0.7316855518935661, 1.343191167368424, 0.6187532022636759]",21.54,0.0,0.0,0.0,351.89958760455426,69.38536150587483,-1037.38355627459,-56.32515298226531,0.0,0.0,0.0,0.0,0.0,0.0,0.0,-2.9,21.530905320462136,0.0,21.63353988331367,0.0,-2.9,21.54,21.03,22.23,21.45,22.02,-4.2,-2.9,0.0,-724.02,-681.59,0.0,167.0,25.0,168.0,0.0,0.0,0.0,0.0,0.0,0.0,0.0,0.0,0.0,0.0,0.0,0.0,0.0,0.0
45.0,4919.0,4943.718592964824,0.0,-0.0,0.0,0.0,0.0,16965.516993110166,0.0,16965.51699311017,0.0,0.0,0.81375,0.21050632754264703,0.6469387755102036,0.0,0.0,0.0,"[0.7836813080091254, 1.2677094613481898, 0.5810789830906167, 0.3312782458225101, 0.7527534550031092, 0.7316855518935661, 1.343191167368424, 0.6187532022636759]",21.22,0.0,0.0,0.0,652.1461616376744,75.11693201488283,-1031.9413292224046,321.078257230824,3217.68304188382,0.0,0.0,0.0,0.0,0.0,0.0,-3.1,21.385748933665337,0.0,21.554394714877276,0.0,-3.1,21.22,21.01,22.1,21.21,21.73,-4.41,-3.1,0.0,-720.22,-678.01,0.0,107.0,55.0,417.0,0.0,0.0,0.0,0.0,0.0,0.0,0.0,0.0,0.0,0.0,0.0,0.0,0.0,0.0
46.0,3773.0,7506.628329681343,3696.0951880329358,-0.0,0.0,0.0,0.0,8297.26935485308,0.0,0.0,0.0,8297.269354853079,0.81375,0.21050632754264703,0.6469387755102036,0.0,0.0,0.0,"[0.7836813080091254, 1.2677094613481898, 0.5810789830906167, 0.3312782458225101, 0.7527534550031092, 0.7316855518935661, 1.343191167368424, 0.6187532022636759]",22.78,0.0,0.0,0.0,487.87381750549963,79.75677480788931,-1106.9450561554856,-1854.3213391877414,2398.1911677403377,0.0,0.0,0.0,0.0,0.0,0.0,-3.3,21.898413123348902,0.0,21.636118040419966,0.0,-3.3,22.78,21.06,22.22,22.21,22.69,-4.7,-3.3,203.14,-772.57,-727.29,0.0,134.0,56.0,282.0,0.0,0.0,0.0,0.0,0.0,0.0,0.0,0.0,0.0,0.0,0.0,0.0,0.0,0.0
47.0,2796.0,0.0,0.0,-0.0,0.0,2796.0,0.0,10328.835025376542,0.0,10328.83502537654,0.0,0.0,0.6948724489795918,0.1665912126388352,0.6469387755102036,0.0,0.0,0.0,"[0.7836813080091254, 1.2677094613481898, 0.5810789830906167, 0.3312782458225101, 0.7527534550031092, 0.7316855518935661, 1.343191167368424, 0.6187532022636759]",22.78,0.0,0.0,0.0,335.06400065686074,59.52948629197215,-1111.1888783486959,-1720.5085789643979,2440.50403915769,0.0,0.0,0.0,0.0,0.0,0.0,-3.4,21.963397761058335,0.0,21.73474232031082,0.0,-3.4,22.78,21.12,22.35,22.17,22.68,-4.79,-3.4,792.69,-775.53,-730.08,0.0,83.0,52.0,197.0,0.0,0.0,0.0,0.0,0.0,0.0,0.0,0.0,0.0,0.0,0.0,0.0,0.0,0.0
48.0,1905.0,0.0,0.0,-0.0,0.0,1905.0,0.0,11169.997740990555,0.0,11169.997740990557,0.0,0.0,0.6138775510204081,0.11909972564482774,0.6469387755102036,0.0,0.0,0.0,"[0.7836813080091254, 1.2677094613481898, 0.5810789830906167, 0.3312782458225101, 0.7527534550031092, 0.7316855518935661, 1.343191167368424, 0.6187532022636759]",22.78,0.0,0.0,0.0,298.16899096297936,44.82148789584047,-1162.1147446672169,-1601.3176811908893,2423.001958041918,0.0,0.0,0.0,0.0,0.0,0.0,-4.6,22.021853947364903,0.0,21.822668902416986,0.0,-4.6,22.78,21.18,22.47,22.21,22.75,-5.94,-4.6,2851.85,-811.07,-763.54,0.0,80.0,28.0,174.0,0.0,0.0,0.0,0.0,0.0,0.0,0.0,0.0,0.0,0.0,0.0,0.0,0.0,0.0
49.0,2042.0,2052.261306532663,0.0,-0.0,0.0,0.0,0.0,13680.832863185744,0.0,13680.832863185742,0.0,0.0,0.6138775510204081,0.0609329192537319,0.6303016858917475,0.0,0.0,0.0,"[0.7836813080091254, 1.2677094613481898, 0.5810789830906167, 0.3312782458225101, 0.7527534550031092, 0.7316855518935661, 1.343191167368424, 0.6187532022636759]",22.78,0.0,0.0,0.0,352.6876363552973,30.841307977043133,-1213.0406109857383,-1497.3425301016412,230.64922025110383,0.0,0.0,0.0,0.0,0.0,0.0,-5.8,22.07294133026747,0.0,21.899025012057695,0.0,-5.8,22.78,21.23,22.57,22.24,22.81,-7.13,-5.8,593.6,-846.61,-797.0,0.0,80.0,0.0,217.0,0.0,0.0,0.0,0.0,0.0,0.0,0.0,0.0,0.0,0.0,0.0,0.0,0.0,0.0
50.0,1020.0,3549.5727877648333,2511.824923826009,-0.0,0.0,0.0,0.0,4752.729471808531,0.0,0.0,0.0,4752.729471808531,0.6138775510204081,0.0609329192537319,0.6303016858917475,0.0,0.0,0.0,"[0.7836813080091254, 1.2677094613481898, 0.5810789830906167, 0.3312782458225101, 0.7527534550031092, 0.7316855518935661, 1.343191167368424, 0.6187532022636759]",21.77,0.0,0.0,0.0,128.09374239351445,25.837555945369466,-1220.7598304564867,-63.521944644998676,0.0,0.0,0.0,0.0,0.0,0.0,0.0,-7.0,21.750777651462954,0.0,21.858424664683728,0.0,-7.0,21.77,21.23,22.49,21.59,22.17,-8.4,-7.0,3092.48,-852.0,-802.07,0.0,80.0,0.0,52.0,0.0,0.0,0.0,0.0,0.0,0.0,0.0,0.0,0.0,0.0,0.0,0.0,0.0,0.0
51.0,1118.0,0.0,10567.883771234036,-0.0,0.0,11685.883771234036,0.0,4250.846915972375,0.0,-15140.608698600874,0.0,19391.45561457325,0.11702875122304268,0.12275707143968548,0.6303016858917475,0.0,0.0,0.0,"[0.7836813080091254, 1.2677094613481898, 0.5810789830906167, 0.3312782458225101, 0.7527534550031092, 0.7316855518935661, 1.343191167368424, 0.6187532022636759]",21.22,0.0,0.0,0.0,155.03068150982398,35.66310538938321,-1222.913327916859,606.6926429380014,427.56382161560555,0.0,0.0,0.0,0.0,0.0,0.0,-7.6,21.526804844044765,0.0,21.75829339945937,0.0,-7.6,21.22,21.19,22.33,21.31,21.87,-9.03,-7.6,1577.47,-853.5,-803.49,0.0,80.0,17.0,70.0,0.0,0.0,0.0,0.0,0.0,0.0,0.0,0.0,0.0,0.0,0.0,0.0,0.0,0.0
52.0,1156.0,0.0,0.0,-0.0,0.0,1156.0,0.0,8336.00663208525,0.0,8336.00663208525,0.0,0.0,0.06787909135909712,0.08731486637129582,0.6303016858917475,0.0,0.0,0.0,"[0.7836813080091254, 1.2677094613481898, 0.5810789830906167, 0.3312782458225101, 0.7527534550031092, 0.7316855518935661, 1.343191167368424, 0.6187532022636759]",21.22,0.0,0.0,0.0,152.88145764416097,37.78590928160841,-1252.6200832693296,482.6540270208648,3811.249565050516,0.0,0.0,0.0,0.0,0.0,0.0,-8.3,21.467005706236858,0.0,21.664688832316365,0.0,-8.3,21.22,21.15,22.18,21.32,21.83,-9.77,-8.3,727.19,-874.24,-823.0,0.0,80.0,21.0,68.0,0.0,0.0,0.0,0.0,0.0,0.0,0.0,0.0,0.0,0.0,0.0,0.0,0.0,0.0
53.0,1540.0,4903.212199307696,0.0,-0.0,0.0,-3338.696138311158,0.0,5587.888683770773,0.0,5587.888683770773,0.0,0.0,0.2042091836734694,0.06355683625322281,0.6303016858917475,0.0,0.0,0.0,"[0.7836813080091254, 1.2677094613481898, 0.5810789830906167, 0.3312782458225101, 0.7527534550031092, 0.7316855518935661, 1.343191167368424, 0.6187532022636759]",22.78,0.0,0.0,0.0,147.36511638895928,32.23629339193397,-1344.5990989752513,-1696.761731965548,0.0,0.0,0.0,0.0,0.0,0.0,0.0,-8.9,21.977916169239318,0.0,21.746129686277506,0.0,-8.9,22.78,21.18,22.31,22.33,22.82,-10.42,-8.9,2463.39,-938.43,-883.44,0.0,80.0,11.0,65.0,0.0,0.0,0.0,0.0,0.0,0.0,0.0,0.0,0.0,0.0,0.0,0.0,0.0,0.0
54.0,1630.0,0.0,0.0,-0.0,0.0,1630.0,0.0,3456.2233117582605,0.0,3456.2233117582605,0.0,0.0,0.13490646258503403,0.04886200924744789,0.6303016858917475,0.0,0.0,0.0,"[0.7836813080091254, 1.2677094613481898, 0.5810789830906167, 0.3312782458225101, 0.7527534550031092, 0.7316855518935661, 1.343191167368424, 0.6187532022636759]",21.39,0.0,0.0,0.0,108.89400919359169,2.4260615911145034,-1306.8436835525727,263.64373324871775,2297.6007717239554,0.0,0.0,0.0,0.0,0.0,0.0,-9.4,21.539142268406604,0.0,21.696302512080223,0.0,-9.4,21.39,21.16,22.23,21.36,21.87,-10.93,-9.4,1900.77,-912.08,-858.63,0.0,0.0,0.0,80.0,0.0,0.0,0.0,0.0,0.0,0.0,0.0,0.0,0.0,0.0,0.0,0.0,0.0,0.0
55.0,961.0,0.0,0.0,-0.0,0.0,961.0,0.0,7391.383563939362,0.0,7391.383563939363,0.0,0.0,0.09404761904761905,0.017436058720494824,0.6303016858917475,0.0,0.0,0.0,"[0.7836813080091254, 1.2677094613481898, 0.5810789830906167, 0.3312782458225101, 0.7527534550031092, 0.7316855518935661, 1.343191167368424, 0.6187532022636759]",22.06,0.0,0.0,0.0,38.112903217757086,0.8491215568900745,-1356.1863290505328,-699.0200290032697,284.5184186377256,0.0,0.0,0.0,0.0,0.0,0.0,-9.9,21.735309399994602,0.0,21.700225019696568,0.0,-9.9,22.06,21.16,22.24,21.85,22.35,-11.47,-9.9,627.37,-946.52,-891.05,0.0,0.0,0.0,28.0,0.0,0.0,0.0,0.0,0.0,0.0,0.0,0.0,0.0,0.0,0.0,0.0,0.0,0.0
56.0,2212.0,6802.636528263969,0.0,-0.0,0.0,0.0,0.0,4100.961011060383,0.0,0.0,0.0,0.0,0.0,0.0,0.6303016858917475,18226.493382490597,4556.623345622649,22783.116728113244,"[0.7836813080091254, 1.2677094613481898, 0.5810789830906167, 0.3312782458225101, 0.7527534550031092, 0.7316855518935661, 1.3246829465593386, 0.6187532022636759]",21.22,0.0,0.0,4.525724488469834,148.36808752626868,3.305508917893509,-1312.033593974271,431.37367735946617,724.3960058193426,0.0,0.0,0.0,0.0,0.0,0.0,-9.7,21.442928156456937,0.0,21.628792856032,0.0,-9.7,21.22,21.12,22.14,21.28,21.78,-11.29,-9.7,3017.94,-915.7,-862.04,7.46,0.0,0.0,109.0,0.0,0.0,0.0,0.0,0.0,0.0,0.0,0.0,0.0,0.0,0.0,0.0,0.0,0.0
57.0,1747.0,0.0,4455.095646859612,-0.0,8196.12414086507,-1994.028494005457,0.0,7680.123838167186,0.0,-622.1344324765029,0.0,8302.25827064369,0.0814228301718895,0.00254038226594572,0.6303016858917475,0.0,0.0,0.0,"[0.7836813080091254, 1.2677094613481898, 0.5810789830906167, 0.3312782458225101, 0.7527534550031092, 0.7316855518935661, 1.3246829465593386, 0.6187532022636759]",21.22,0.0,0.0,1199.634928195741,9.528225804439266,0.212280389222516,-1210.1818613372288,332.79152995242276,0.0,0.0,0.0,0.0,0.0,0.0,0.0,-7.3,21.392974852576963,0.0,21.5522890739526,0.0,-7.3,21.22,21.08,22.03,21.29,21.76,-7.31,-7.3,1459.52,-844.62,-795.12,1977.91,0.0,0.0,7.0,0.0,0.0,0.0,0.0,0.0,0.0,0.0,0.0,0.0,0.0,0.0,0.0,0.0,0.0
58.0,2444.0,0.0,0.0,-11681.406685253689,14125.406685253689,0.0,0.0,597.4979089504334,0.0,597.4979089504334,0.0,0.0,0.0814228301718895,0.0,0.6800746361158719,0.0,0.0,0.0,"[0.7836813080091254, 1.2677094613481898, 0.5810789830906167, 0.3312782458225101, 0.7527534550031092, 0.7316855518935661, 1.3246829465593386, 0.6187532022636759]",21.41,0.0,0.0,1377.362150221465,167.42453913514723,3.7300696963385485,-1129.274392439192,92.20857031839884,0.0,0.0,0.0,0.0,0.0,0.0,0.0,-5.2,21.468442999019615,0.0,21.58656802850232,0.0,-5.2,21.41,21.07,22.11,21.57,22.31,-4.66,-5.2,884.11,-788.15,-741.96,2270.94,0.0,0.0,123.0,0.0,0.0,0.0,0.0,0.0,0.0,0.0,0.0,0.0,0.0,0.0,0.0,0.0,0.0
59.0,1265.0,4543.509325691122,7570.147549329866,-0.0,17735.024212341126,-13420.66844207393,0.0,16921.86166706076,0.0,0.0,0.0,16921.86166706076,0.6294334582232416,0.0,0.6800746361158719,0.0,0.0,0.0,"[0.7836813080091254, 1.2677094613481898, 0.5810789830906167, 0.3312782458225101, 0.7527534550031092, 0.7316855518935661, 1.3246829465593386, 0.6187532022636759]",21.69,0.0,0.0,1549.6733424994252,29.94585252823771,0.6671669375564858,-1064.84824552336,-227.70996013027295,0.0,0.0,0.0,0.0,0.0,0.0,0.0,-3.4,21.59403285458911,0.0,21.65845807699622,0.0,-3.4,21.69,21.08,22.24,21.72,22.6,-2.42,-3.4,0.0,-743.19,-699.63,2555.04,0.0,0.0,22.0,0.0,0.0,0.0,0.0,0.0,0.0,0.0,0.0,0.0,0.0,0.0,0.0,0.0,0.0
60.0,2283.0,0.0,0.0,-0.0,18295.3828182815,0.0,0.0,7915.345601432968,0.0,-6495.79893502038,0.0,0.0,0.6294334582232416,0.026524512317999887,0.6800746361158719,64049.531273126,16012.3828182815,80061.9140914075,"[0.7836813080091254, 1.2677094613481898, 0.5810789830906167, 0.3312782458225101, 0.7527534550031092, 0.7316855518935661, 1.3246829465593386, 0.6187532022636759]",21.87,0.0,0.0,1542.1714504942947,104.81048384883199,2.3350842814477075,-1029.8518507370657,-355.24577266580997,1553.2431951862936,0.0,0.0,0.0,0.0,0.0,0.0,-2.4,21.707080538429423,0.0,21.758954827555996,0.0,-2.4,21.87,21.11,22.41,21.83,22.86,-1.46,-2.4,194.26,-718.76,-676.64,2542.67,0.0,0.0,77.0,0.0,0.0,0.0,0.0,0.0,0.0,0.0,0.0,0.0,0.0,0.0,0.0,0.0,0.0
61.0,3576.0,7436.76679707023,19990.854404917965,-0.0,16167.271441833087,0.0,0.0,8199.684306071695,0.0,-38964.21977190011,0.0,47163.904077971805,0.6294334582232416,0.18562840971992536,0.6800746361158719,0.0,0.0,0.0,"[0.7836813080091254, 1.2677094613481898, 0.5810789830906167, 0.3312782458225101, 0.7527534550031092, 0.7316855518935661, 1.3246829465593386, 0.6187532022636759]",22.78,0.0,0.0,1327.7051017798324,91.19873269963304,2.031826582558396,-1056.0191898369646,-1457.1838010746737,0.0,0.0,0.0,0.0,0.0,0.0,0.0,-2.1,22.089421166380543,0.0,21.93930774356214,0.0,-2.1,22.78,21.18,22.7,22.42,23.51,-1.47,-2.1,0.0,-737.02,-693.83,2189.07,0.0,0.0,67.0,0.0,0.0,0.0,0.0,0.0,0.0,0.0,0.0,0.0,0.0,0.0,0.0,0.0,0.0
62.0,2378.0,0.0,0.0,-0.0,9035.179217075494,0.0,0.0,7238.080654350019,0.0,1246.6193589820768,0.0,0.0,0.6294334582232416,0.18032815734330088,0.6800746361158719,26628.716868301977,6657.179217075494,33285.89608537747,"[0.7836813080091254, 1.2677094613481898, 0.5810789830906167, 0.3312782458225101, 0.7527534550031092, 0.7316855518935661, 1.3246829465593386, 0.6187532022636759]",22.28,0.0,0.0,688.7370632860618,28.58467741331782,0.6368411676675549,-1064.4988175653632,-595.6323387225978,0.0,0.0,0.0,0.0,0.0,0.0,0.0,-2.8,22.007955258025614,0.0,22.0404115475815,0.0,-2.8,22.28,21.23,22.85,22.06,23.16,-3.15,-2.8,932.82,-742.94,-699.4,1135.56,0.0,0.0,21.0,0.0,0.0,0.0,0.0,0.0,0.0,0.0,0.0,0.0,0.0,0.0,0.0,0.0,0.0
63.0,3328.0,0.0,3322.674937410643,-0.0,0.0,6650.674937410643,0.0,7110.550926638023,0.0,0.0,0.0,7110.550926638024,0.3466666666666667,0.18032815734330088,0.6800746361158719,0.0,0.0,0.0,"[0.7836813080091254, 1.2677094613481898, 0.5810789830906167, 0.3312782458225101, 0.7527534550031092, 0.7316855518935661, 1.3246829465593386, 0.6187532022636759]",21.84,0.0,0.0,14.911360009504405,167.42453913514723,3.7300696963385485,-1113.6615392859512,36.49275344562062,2272.5303936467894,0.0,0.0,0.0,0.0,0.0,0.0,-4.4,21.874496885620974,0.0,22.030458542468377,0.0,-4.4,21.84,21.24,22.82,21.76,22.68,-6.09,-4.4,0.0,-777.25,-731.71,24.59,0.0,0.0,123.0,0.0,0.0,0.0,0.0,0.0,0.0,0.0,0.0,0.0,0.0,0.0,0.0,0.0,0.0
64.0,1843.0,17932.663316582915,0.0,-0.0,0.0,-16000.0,0.0,10447.994394710016,0.0,10447.994394710016,0.0,0.0,1.0,0.13590641246783314,0.6800746361158719,0.0,0.0,0.0,"[0.7836813080091254, 1.2677094613481898, 0.5810789830906167, 0.3312782458225101, 0.7527534550031092, 0.7316855518935661, 1.3246829465593386, 0.6187532022636759]",22.51,0.0,0.0,0.0,14.184877513375753,2.4867131308923653,-1171.8308127062044,-930.2200418101531,2644.069584062981,0.0,0.0,0.0,0.0,0.0,0.0,-5.1,22.07682074475964,0.0,22.034304721962776,0.0,-5.1,22.51,21.27,22.8,22.14,22.83,-6.87,-5.1,0.0,-817.85,-769.92,0.0,0.0,4.0,10.0,0.0,0.0,0.0,0.0,0.0,0.0,0.0,0.0,0.0,0.0,0.0,0.0,0.0,0.0
65.0,3011.0,4015.3216311369506,984.2450229812657,-0.0,0.0,0.0,0.0,1965.5455691173208,0.0,0.0,0.0,1965.5455691173208,1.0,0.13590641246783314,0.6800746361158719,0.0,0.0,0.0,"[0.7836813080091254, 1.2677094613481898, 0.5810789830906167, 0.3312782458225101, 0.7527534550031092, 0.7316855518935661, 1.3246829465593386, 0.6187532022636759]",22.78,0.0,0.0,0.0,397.8929783297423,77.20941013721908,-1217.2844331789483,-1259.4663529934414,0.0,0.0,0.0,0.0,0.0,0.0,0.0,-5.9,22.188637399942007,0.0,22.08002099094731,0.0,-5.9,22.78,21.32,22.84,22.31,22.99,-7.62,-5.9,0.0,-849.57,-799.79,0.0,117.0,64.0,224.0,0.0,0.0,0.0,0.0,0.0,0.0,0.0,0.0,0.0,0.0,0.0,0.0,0.0,0.0
66.0,8484.0,51595.60335811858,42853.625341327985,-0.0,0.0,0.0,0.0,2310.755273188115,0.0,-80000.0,0.0,82310.75527318812,1.0,0.46257307913449985,0.6800746361158719,0.0,0.0,0.0,"[0.7836813080091254, 1.2677094613481898, 0.5810789830906167, 0.3312782458225101, 0.7527534550031092, 0.7316855518935661, 1.3246829465593386, 0.6187532022636759]",21.81,0.0,0.0,0.0,582.2247452081051,106.53442961981565,-1209.9211712757476,84.55395536601146,0.0,0.0,0.0,0.0,0.0,0.0,0.0,-6.7,21.86724094673526,0.0,22.01875099362264,0.0,-6.7,21.81,21.31,22.73,21.67,22.32,-8.36,-6.7,0.0,-844.44,-794.95,0.0,82.0,129.0,371.0,0.0,0.0,0.0,0.0,0.0,0.0,0.0,0.0,0.0,0.0,0.0,0.0,0.0,0.0
67.0,9625.0,0.0,0.0,-0.0,0.0,9625.0,0.0,0.0,0.0,0.0,0.0,0.0,0.5907738095238095,0.46257307913449985,0.6700923823447983,0.0,0.0,0.0,"[0.7836813080091254, 1.2677094613481898, 0.5810789830906167, 0.3312782458225101, 0.7527534550031092, 0.7316855518935661, 1.3246829465593386, 0.6187532022636759]",21.6,0.0,0.0,0.0,2053.511762845468,159.39224653622293,-1230.5108731416758,281.1049313333246,0.0,0.0,0.0,0.0,0.0,0.0,0.0,-7.4,21.748058430486743,0.0,21.927738942329327,0.0,-7.4,21.6,21.28,22.57,21.56,22.17,-9.08,-7.4,0.0,-858.81,-808.48,0.0,133.0,139.0,1424.0,0.0,0.0,0.0,0.0,0.0,0.0,0.0,0.0,0.0,0.0,0.0,0.0,0.0,0.0
68.0,6699.0,6732.663316582914,0.0,-0.0,0.0,0.0,0.0,3160.366823784411,0.0,3160.366823784411,0.0,0.0,0.5907738095238095,0.43569921158531266,0.6700923823447983,0.0,0.0,0.0,"[0.27343042913467386, 0.33340508964951354, 0.5810789830906167, 0.33127824582250653, 0.7527534550031092, 0.7316855518935661, 0.5111360260347553, 0.6187532022636759]",22.2,0.0,0.0,0.0,837.051054880214,152.1140617628794,-1290.2951187119156,-674.1670400472444,0.0,0.0,0.0,0.0,0.0,0.0,0.0,-8.2,21.893953094895902,0.0,21.87469740444994,0.0,-8.2,22.2,21.27,22.48,21.81,22.33,-9.85,-8.2,0.0,-900.53,-847.76,0.0,151.0,166.0,518.0,0.0,0.0,0.0,0.0,0.0,0.0,0.0,0.0,0.0,0.0,0.0,0.0,0.0,0.0
69.0,5102.0,0.0,3918.475913576022,-0.0,0.0,9020.475913576021,0.0,6704.54827453279,0.0,0.0,0.0,6704.548274532789,0.20725017374251614,0.43569921158531266,0.6700923823447983,0.0,0.0,0.0,"[0.27343042913467386, 0.33340508964951354, 0.5810789830906167, 0.33127824582250653, 0.7527534550031092, 0.7316855518935661, 0.5111360260347553, 0.6187532022636759]",21.73,0.0,0.0,0.0,997.3831552586732,127.91409739151223,-1299.737156467314,-47.043768291804334,228.7895764240964,0.0,0.0,0.0,0.0,0.0,0.0,-8.9,21.720869569433546,0.0,21.82163023301461,0.0,-8.9,21.73,21.25,22.39,21.6,22.12,-10.51,-8.9,0.0,-907.12,-853.96,0.0,162.0,109.0,636.0,0.0,0.0,0.0,0.0,0.0,0.0,0.0,0.0,0.0,0.0,0.0,0.0,0.0,0.0
70.0,3248.0,0.0,0.0,-0.0,0.0,3248.0,0.0,11839.704817198766,0.0,11839.704817198764,0.0,0.0,0.06915493564727807,0.38536033055980773,0.6128607940573094,0.0,0.0,0.0,"[0.27343042913467386, 0.33340508964951354, 0.5810789830906167, 0.33127824582250653, 0.7527534550031092, 0.7316855518935661, 0.5111360260347553, 0.6187532022636759]",21.73,0.0,0.0,0.0,1006.9113810631127,81.42469215178053,-1333.6877340129945,-123.71803652036725,1500.611572528884,0.0,0.0,0.0,0.0,0.0,0.0,-9.7,21.684089482435187,0.0,21.76388838321115,0.0,-9.7,21.73,21.23,22.3,21.59,22.09,-11.32,-9.7,1979.62,-930.82,-876.27,0.0,92.0,60.0,685.0,0.0,0.0,0.0,0.0,0.0,0.0,0.0,0.0,0.0,0.0,0.0,0.0,0.0,0.0
71.0,2055.0,14315.57419951538,0.0,-0.0,0.0,0.0,0.0,10970.096695666018,0.0,0.0,0.0,0.0,0.06915493564727807,0.38536033055980773,0.6128607940573094,48755.985314071215,12188.996328517804,60944.98164258902,"[0.27343042913467386, 0.33340508964951354, 0.5810789830906167, 0.33127824582250653, 0.7527534550031092, 0.7316855518935661, 0.5111360260347553, 0.6187532022636759]",22.27,0.0,0.0,0.0,447.46840883103533,73.20640851188016,-1386.6022918346791,-916.9079114252886,1787.0166218148254,0.0,0.0,0.0,0.0,0.0,0.0,-10.4,21.846684943480025,0.0,21.768030747659402,0.0,-10.4,22.27,21.22,22.31,21.93,22.4,-12.01,-10.4,105.6,-967.75,-911.03,0.0,103.0,62.0,268.0,0.0,0.0,0.0,0.0,0.0,0.0,0.0,0.0,0.0,0.0,0.0,0.0,0.0,0.0
72.0,2159.0,10236.979659665532,8026.794761367203,-0.0,0.0,0.0,0.0,12203.481597247037,0.0,0.0,0.0,12203.481597247037,0.06915493564727807,0.38536033055980773,0.6128607940573094,0.0,0.0,0.0,"[0.27343042913467386, 0.33340508964951354, 0.5810789830906167, 0.33127824582250653, 0.7527534550031092, 0.7316855518935661, 0.5111360260347553, 0.6187532022636759]",22.27,0.0,0.0,0.0,283.0527831078163,43.942040569061454,-1407.8214028007299,-883.9285278992656,840.3736415895892,0.0,0.0,0.0,0.0,0.0,0.0,-10.9,21.86299216933322,0.0,21.79402428165683,0.0,-10.9,22.27,21.23,22.35,21.96,22.46,-12.58,-10.9,1127.83,-982.56,-924.98,0.0,80.0,27.0,163.0,0.0,0.0,0.0,0.0,0.0,0.0,0.0,0.0,0.0,0.0,0.0,0.0,0.0,0.0
73.0,986.0,22038.367102311146,4942.175266799591,-0.0,0.0,-16000.0,0.0,7231.110157998763,0.0,0.0,0.0,7231.110157998763,0.7224882689806114,0.38536033055980773,0.6128607940573094,0.0,0.0,0.0,"[0.27343042913467386, 0.33340508964951354, 0.5810789830906167, 0.33127824582250653, 0.7527534550031092, 0.7316855518935661, 0.5111360260347553, 0.6187532022636759]",21.73,0.0,0.0,0.0,234.83852772144314,30.386421428709163,-1410.0765334907765,-129.6230309333986,2403.1014034852915,0.0,0.0,0.0,0.0,0.0,0.0,-11.5,21.682227100407875,0.0,21.76249003640406,0.0,-11.5,21.73,21.22,22.31,21.62,22.13,-13.21,-11.5,2440.87,-984.13,-926.46,0.0,80.0,4.0,130.0,0.0,0.0,0.0,0.0,0.0,0.0,0.0,0.0,0.0,0.0,0.0,0.0,0.0,0.0
74.0,576.0,13971.391780554588,0.0,-0.0,0.0,0.0,0.0,11992.981339486627,0.0,0.0,0.0,0.0,0.7224882689806114,0.38536033055980773,0.6128607940573094,53302.13928660725,13325.534821651812,66627.67410825906,"[0.27343042913467386, 0.33340508964951354, 0.5810789830906167, 0.33127824582250653, 0.7527534550031092, 0.7316855518935661, 0.5111360260347553, 0.6187532022636759]",22.27,0.0,0.0,0.0,103.5925903249563,25.291692087368702,-1462.991091312461,-901.1594195440509,1109.8195351410839,0.0,0.0,0.0,0.0,0.0,0.0,-12.2,21.855365046509988,0.0,21.78385162658561,0.0,-12.2,22.27,21.22,22.35,22.0,22.51,-13.96,-12.2,2553.71,-1021.06,-961.22,0.0,80.0,0.0,34.0,0.0,0.0,0.0,0.0,0.0,0.0,0.0,0.0,0.0,0.0,0.0,0.0,0.0,0.0
75.0,975.0,0.0,11062.404899361965,-0.0,0.0,12037.404899361965,0.0,15025.808246948249,0.0,0.0,0.0,15025.808246948249,0.21069384298733052,0.38536033055980773,0.6128607940573094,0.0,0.0,0.0,"[0.27343042913467386, 0.33340508964951354, 0.5810789830906167, 0.33127824582250653, 0.7527534550031092, 0.7316855518935661, 0.5111360260347553, 0.6187532022636759]",21.73,0.0,0.0,0.0,158.03959492175213,26.504722882925954,-1456.7585776160877,-140.93491190151536,2541.554253961096,0.0,0.0,0.0,0.0,0.0,0.0,-12.6,21.677344685027293,0.0,21.7570410260209,0.0,-12.6,21.73,21.2,22.31,21.63,22.16,-14.35,-12.6,838.34,-1016.71,-957.13,0.0,80.0,0.0,74.0,0.0,0.0,0.0,0.0,0.0,0.0,0.0,0.0,0.0,0.0,0.0,0.0,0.0,0.0
76.0,863.0,867.3366834170854,0.0,-0.0,0.0,0.0,0.0,11848.793641923172,0.0,11848.793641923174,0.0,0.0,0.21069384298733052,0.33498280657203916,0.6128607940573094,0.0,0.0,0.0,"[0.27343042913467386, 0.33340508964951354, 0.5810789830906167, 0.33127824582250653, 0.7527534550031092, 0.7316855518935661, 0.5111360260347553, 0.6187532022636759]",22.27,0.0,0.0,0.0,161.83655708442348,35.81473423882787,-1496.9416688581418,-909.6272628546169,1084.0719780955437,0.0,0.0,0.0,0.0,0.0,0.0,-13.0,21.851670296189987,0.0,21.780499819951874,0.0,-13.0,22.27,21.21,22.35,22.01,22.53,-14.74,-13.0,1226.21,-1044.76,-983.53,0.0,80.0,17.0,75.0,0.0,0.0,0.0,0.0,0.0,0.0,0.0,0.0,0.0,0.0,0.0,0.0,0.0,0.0
77.0,752.0,0.0,3271.519187062014,-0.0,0.0,4023.519187062014,0.0,13174.31079031492,0.0,8980.189254358194,0.0,4194.121535956727,0.03962585034013605,0.29680172981031216,0.6128607940573094,0.0,0.0,0.0,"[0.27343042913467386, 0.33340508964951354, 0.5810789830906167, 0.33127824582250653, 0.7527534550031092, 0.7316855518935661, 0.5111360260347553, 0.6187532022636759]",21.73,0.0,0.0,0.0,126.80420807411666,31.235542985599235,-1490.7091551617646,-150.74818693998137,2612.0928774329036,0.0,0.0,0.0,0.0,0.0,0.0,-13.4,21.673014114212393,0.0,21.752734182528897,0.0,-13.4,21.73,21.19,22.32,21.63,22.16,-15.16,-13.4,28.88,-1040.41,-979.44,0.0,80.0,10.0,50.0,0.0,0.0,0.0,0.0,0.0,0.0,0.0,0.0,0.0,0.0,0.0,0.0,0.0,0.0
78.0,932.0,0.0,0.0,-0.0,0.0,932.0,0.0,14438.782278586525,0.0,14438.782278586526,0.0,0.0,0.0,0.23541234937414496,0.6128607940573094,0.0,0.0,0.0,"[0.27343042913467386, 0.33340508964951354, 0.5810789830906167, 0.33127824582250653, 0.7527534550031092, 0.7316855518935661, 0.5111360260347553, 0.6187532022636759]",22.27,0.0,0.0,0.0,99.36578338915241,2.213781201891984,-1530.8922464038226,-918.0321095453935,2347.4712330402485,0.0,0.0,0.0,0.0,0.0,0.0,-13.8,21.848023403784776,0.0,21.777345126877883,0.0,-13.8,22.27,21.19,22.36,22.01,22.54,-15.55,-13.8,3035.1,-1068.45,-1005.84,0.0,0.0,0.0,73.0,0.0,0.0,0.0,0.0,0.0,0.0,0.0,0.0,0.0,0.0,0.0,0.0,0.0,0.0
79.0,1416.0,8560.68897558679,0.0,-0.0,0.0,0.0,0.0,6391.696977637968,0.0,0.0,0.0,0.0,0.0,0.23541234937414496,0.6128607940573094,28407.542122835428,7101.885530708857,35509.427653544284,"[0.27343042913467386, 0.33340508964951354, 0.5810789830906167, 0.33127824582250653, 0.7527534550031092, 0.7316855518935661, 0.5111360260347553, 0.6187532022636759]",22.27,0.0,0.0,0.0,87.11520735487336,1.940849272891603,-1543.6237129834526,-882.7587331658502,1210.5459962841796,0.0,0.0,0.0,0.0,0.0,0.0,-14.1,21.86531807447541,0.0,21.805412769775113,0.0,-14.1,22.27,21.2,22.41,21.98,22.53,-15.89,-14.1,1119.76,-1077.34,-1014.2,0.0,0.0,0.0,64.0,0.0,0.0,0.0,0.0,0.0,0.0,0.0,0.0,0.0,0.0,0.0,0.0,0.0,0.0
80.0,1872.0,0.0,0.0,-0.0,0.0,3926.896584668355,0.0,9063.62519295311,0.0,7214.218266751591,0.0,0.0,0.4863734445294067,0.20473965266176575,0.6128607940573094,8219.58633867342,2054.896584668355,10274.482923341775,"[0.27343042913467386, 0.33340508964951354, 0.5810789830906167, 0.33127824582250653, 0.7527534550031092, 0.2704684276777094, 0.5111360260347553, 0.6187532022636759]",21.73,0.0,0.0,3.3480489825092357,59.89170505647543,1.3343338751129752,-1524.6597327074492,-129.17351291502928,1589.1479469581272,0.0,0.0,0.0,0.0,0.0,0.0,-14.2,21.683904376436335,0.0,21.773198490119277,0.0,-14.2,21.73,21.18,22.36,21.63,22.19,-15.95,-14.2,1570.12,-1064.1,-1001.74,5.52,0.0,0.0,44.0,0.0,0.0,0.0,0.0,0.0,0.0,0.0,0.0,0.0,0.0,0.0,0.0,0.0,0.0
81.0,3387.0,0.0,4597.8754683647085,-0.0,7984.8754683647085,0.0,0.0,6552.018416052881,0.0,0.0,0.0,6552.018416052881,0.4863734445294067,0.20473965266176575,0.6128607940573094,0.0,0.0,0.0,"[0.27343042913467386, 0.33340508964951354, 0.5810789830906167, 0.33127824582250653, 0.7527534550031092, 0.2704684276777094, 0.5111360260347553, 0.6187532022636759]",21.73,0.0,0.0,1129.1180229588847,121.14458522787073,2.6989935201148847,-1427.051822263617,-173.08260495475207,284.41129474787766,0.0,0.0,0.0,0.0,0.0,0.0,-11.9,21.66052407353425,0.0,21.738055888189034,0.0,-11.9,21.73,21.16,22.32,21.65,22.2,-12.05,-11.9,646.88,-995.98,-937.61,1861.65,0.0,0.0,89.0,0.0,0.0,0.0,0.0,0.0,0.0,0.0,0.0,0.0,0.0,0.0,0.0,0.0,0.0
82.0,3680.0,0.0,0.0,-0.0,14283.400149589816,0.0,0.0,7243.331054584978,0.0,-2299.7290800458522,0.0,0.0,0.4863734445294067,0.21413021307195299,0.6128607940573094,42413.60059835926,10603.400149589816,53017.000747949074,"[0.27343042913467386, 0.33340508964951354, 0.5810789830906167, 0.33127824582250653, 0.7527534550031092, 0.2704684276777094, 0.5111360260347553, 0.6187532022636759]",21.73,0.0,0.0,1349.7580891616165,87.11520735487336,1.940849272891603,-1346.419200592625,-122.38739265857713,1088.7367874389815,0.0,0.0,0.0,0.0,0.0,0.0,-10.0,21.6837142079783,0.0,21.778486278889925,0.0,-10.0,21.73,21.16,22.4,21.78,22.6,-9.4,-10.0,203.12,-939.7,-884.63,2225.43,0.0,0.0,64.0,0.0,0.0,0.0,0.0,0.0,0.0,0.0,0.0,0.0,0.0,0.0,0.0,0.0,0.0
83.0,5123.0,0.0,0.0,-12122.709264192024,17245.709264192024,0.0,0.0,2551.3453356312984,0.0,2551.3453356312975,0.0,0.0,0.4863734445294067,0.20328265637284032,0.6645140770090842,0.0,0.0,0.0,"[0.27343042913467386, 0.33340508964951354, 0.5810789830906167, 0.33127824582250653, 0.7527534550031092, 0.2704684276777094, 0.5111360260347553, 0.6187532022636759]",22.27,0.0,0.0,1459.55567572546,46.279953907276465,1.0310761762236633,-1305.9696701636872,-779.0655687972626,0.0,0.0,0.0,0.0,0.0,0.0,0.0,-8.5,21.91118812569433,0.0,21.887773711102533,0.0,-8.5,22.27,21.19,22.59,22.14,23.11,-7.51,-8.5,1426.86,-911.47,-858.06,2406.46,0.0,0.0,34.0,0.0,0.0,0.0,0.0,0.0,0.0,0.0,0.0,0.0,0.0,0.0,0.0,0.0,0.0
84.0,6417.0,0.0,0.0,-9722.919070580658,19351.27357954824,0.0,0.0,2890.219058070823,0.0,0.0,0.0,0.0,0.4863734445294067,0.20328265637284032,0.7059421669619931,12845.418035870327,3211.3545089675818,16056.772544837908,"[0.27343042913467386, 0.33340508964951354, 0.5810789830906167, 0.33127824582250653, 0.7527534550031092, 0.2704684276777094, 0.5111360260347553, 0.6187532022636759]",22.03,0.0,0.0,1572.3704189254952,112.97753453835138,2.5170389007812966,-1253.0506347759735,-307.70790127517876,0.0,0.0,0.0,0.0,0.0,0.0,0.0,-7.5,21.89220170215686,0.0,21.974271336316477,0.0,-7.5,22.03,21.21,22.74,21.96,23.06,-6.32,-7.5,0.0,-874.54,-823.29,2592.47,0.0,0.0,83.0,0.0,0.0,0.0,0.0,0.0,0.0,0.0,0.0,0.0,0.0,0.0,0.0,0.0,0.0
85.0,4545.0,0.0,0.0,-0.0,17123.609521728817,-12578.609521728817,0.0,5961.377855662227,0.0,5961.3778556622265,0.0,0.0,1.0,0.17793666208856215,0.69196701168249,0.0,0.0,0.0,"[0.27343042913467386, 0.33340508964951354, 0.5810789830906167, 0.33127824582250653, 0.7527534550031092, 0.2704684276777094, 0.5111360260347553, 0.6187532022636759]",22.12,0.0,0.0,1398.0504561460555,108.89400919359169,2.4260615911145034,-1244.4356016332647,-338.3275529123283,317.8196902849998,0.0,0.0,0.0,0.0,0.0,0.0,-7.2,21.974391713552325,0.0,22.06080196223754,0.0,-7.2,22.12,21.24,22.88,22.05,23.24,-6.32,-7.2,0.0,-868.52,-817.63,2305.05,0.0,0.0,80.0,0.0,0.0,0.0,0.0,0.0,0.0,0.0,0.0,0.0,0.0,0.0,0.0,0.0,0.0
86.0,2137.0,0.0,12078.630395056874,-0.0,14215.630395056874,0.0,0.0,2508.8529488923095,0.0,-19539.58606858977,0.0,22048.43901748208,1.0,0.2577233052019704,0.69196701168249,0.0,0.0,0.0,"[0.27343042913467386, 0.33340508964951354, 0.5810789830906167, 0.33127824582250653, 0.7527534550031092, 0.2704684276777094, 0.5111360260347553, 0.6187532022636759]",22.27,0.0,0.0,1177.3556806726908,46.279953907276465,1.0310761762236633,-1272.0190926180067,-456.07308955863755,0.0,0.0,0.0,0.0,0.0,0.0,0.0,-7.7,22.067831052649666,0.0,22.138824826608854,0.0,-7.7,22.27,21.27,23.0,22.13,23.32,-7.32,-7.7,0.0,-887.78,-835.75,1941.18,0.0,0.0,34.0,0.0,0.0,0.0,0.0,0.0,0.0,0.0,0.0,0.0,0.0,0.0,0.0,0.0,0.0
87.0,3053.0,8914.029015112084,0.0,-0.0,0.7733020905268307,0.0,0.0,5235.508954914343,0.0,0.0,0.0,0.0,1.0,0.2577233052019704,0.69196701168249,23268.9286885082,5817.23217212705,29086.16086063525,"[0.27343042913467386, 0.33340508964951354, 0.5810789830906167, 0.33127824582250653, 0.7527534550031092, 0.2704684276777094, 0.5111360260347553, 0.6187532022636759]",22.06,0.0,0.0,22.569691686584292,235.91313965427466,40.242296642611834,-1334.9180896306711,-98.72214096395182,458.03219252368064,0.0,0.0,0.0,0.0,0.0,0.0,-9.4,22.02516767419406,0.0,22.171119258392714,0.0,-9.4,22.06,21.29,23.05,21.98,23.13,-10.91,-9.4,0.0,-931.67,-877.08,37.21,118.0,2.0,111.0,0.0,0.0,0.0,0.0,0.0,0.0,0.0,0.0,0.0,0.0,0.0,0.0,0.0,0.0
88.0,5151.0,0.0,1988.6666121188025,-0.0,0.0,7139.666612118803,0.0,3345.7511294698775,0.0,0.0,0.0,3345.7511294698775,0.6964427460833842,0.2577233052019704,0.69196701168249,0.0,0.0,0.0,"[0.27343042913467386, 0.33340508964951354, 0.5810789830906167, 0.33127824582250653, 0.7527534550031092, 0.2704684276777094, 0.5111360260347553, 0.6187532022636759]",21.73,0.0,0.0,0.0,1746.2443908511823,86.88333073178813,-1312.4686230469442,264.6455653947877,0.0,0.0,0.0,0.0,0.0,0.0,0.0,-9.2,21.872301600071708,0.0,22.07769980283895,0.0,-9.2,21.73,21.28,22.88,21.67,22.43,-10.84,-9.2,0.0,-916.01,-862.33,0.0,116.0,27.0,1219.0,0.0,0.0,0.0,0.0,0.0,0.0,0.0,0.0,0.0,0.0,0.0,0.0,0.0,0.0
89.0,4845.0,12340.75899292255,0.0,-0.0,0.0,-7434.055197957938,0.0,10171.304172228485,0.0,10171.304172228483,0.0,0.0,1.0,0.21447796433365202,0.6899705609282752,0.0,0.0,0.0,"[0.27343042913467386, 0.33340508964951354, 0.5810789830906167, 0.33127824582250653, 0.7527534550031092, 0.2704684276777094, 0.5111360260347553, 0.6187532022636759]",22.11,0.0,0.0,0.0,2662.601806374361,178.7400877253611,-1320.051765536168,-390.776295357476,-773.7559811464237,0.0,0.0,0.0,0.0,0.0,0.0,-9.0,21.932966046892325,0.0,21.994708705429872,0.0,-9.0,22.11,21.26,22.73,21.76,22.42,-10.54,-9.0,0.0,-921.3,-867.31,0.0,155.0,138.0,1860.0,0.0,0.0,0.0,0.0,0.0,0.0,0.0,0.0,0.0,0.0,0.0,0.0,0.0,0.0
90.0,5750.0,0.0,0.0,-0.0,0.0,11057.198,0.0,6991.277624230676,26535.99,28220.069624230684,0.0,0.0,0.5298810374149661,0.09449467511498415,0.6899705609282752,21228.792,5307.198,26535.99,"[0.27343042913467386, 0.33340508964951354, 0.5810789830906167, 0.33127824582250653, 0.7527534550031092, 0.2704684276777094, 0.5111360260347553, 0.6187532022636759]",22.27,0.0,0.0,0.0,1502.5940452805212,201.54506668183743,-1318.7011367433176,-690.4278336573997,316.50124774099936,0.0,0.0,0.0,0.0,0.0,0.0,-8.8,21.9556873950941,0.0,21.949553857328258,0.0,-8.8,22.27,21.25,22.64,21.85,22.45,-10.3,-8.8,149.07,-920.36,-866.42,0.0,143.0,234.0,1004.0,0.0,0.0,0.0,0.0,0.0,0.0,0.0,0.0,0.0,0.0,0.0,0.0,0.0,0.0
91.0,6441.0,0.0,0.0,-0.0,0.0,6441.0,0.0,3887.29777671259,0.0,3887.29777671259,0.0,0.0,0.25602899659863954,0.07796704851331494,0.6520379965981954,0.0,0.0,0.0,"[0.27343042913467386, 0.33340508964951354, 0.5810789830906167, 0.33127824582250653, 0.7527534550031092, 0.2704684276777094, 0.5111360260347553, 0.6187532022636759]",22.27,0.0,0.0,0.0,1751.4741689242958,209.00520607451452,-1314.4573145501074,-717.5471410259685,0.0,0.0,0.0,0.0,0.0,0.0,0.0,-8.7,21.942448161319454,0.0,21.925888313769974,0.0,-8.7,22.27,21.26,22.59,21.89,22.47,-10.16,-8.7,100.79,-917.39,-863.63,0.0,144.0,237.0,1186.0,0.0,0.0,0.0,0.0,0.0,0.0,0.0,0.0,0.0,0.0,0.0,0.0,0.0,0.0
92.0,5303.0,0.0,0.0,-0.0,0.0,5303.0,0.0,1652.2755557307482,0.0,1652.2755557307482,0.0,0.0,0.030561309523809616,0.07094206740901754,0.5974683426496595,0.0,0.0,0.0,"[0.27343042913467386, 0.33340508964951354, 0.3657162782759684, 0.33127824582250653, 0.48339296574255286, 0.27046842767770585, 0.5111360260347553, 0.521595772708018]",22.23,0.0,0.0,0.0,636.3851866228125,186.1092498083714,-1304.2507974362566,-693.8861063056734,142.8435438033483,0.0,0.0,0.0,0.0,0.0,0.0,-8.5,21.91327988240532,0.0,21.896223003871633,0.0,-8.5,22.23,21.26,22.53,21.84,22.39,-9.92,-8.5,0.0,-910.27,-856.93,0.0,130.0,248.0,373.0,0.0,0.0,0.0,0.0,0.0,0.0,0.0,0.0,0.0,0.0,0.0,0.0,0.0,0.0
93.0,4799.0,32547.958001473013,0.0,-0.0,0.0,-16000.0,0.0,7838.170356500525,0.0,-2589.4260338185545,0.0,0.0,0.683894642857143,0.08151555704710997,0.5974683426496595,46344.87284586259,11586.218211465648,57931.09105732824,"[0.27343042913467386, 0.33340508964951354, 0.3657162782759684, 0.33127824582250653, 0.48339296574255286, 0.27046842767770585, 0.5111360260347553, 0.521595772708018]",21.73,0.0,0.0,0.0,647.9193547018706,112.6905609072687,-1274.2742233080535,-18.302473612571102,1665.2944287715295,0.0,0.0,0.0,0.0,0.0,0.0,-8.3,21.734376078844623,0.0,21.846742305980065,0.0,-8.3,21.73,21.24,22.45,21.63,22.18,-9.68,-8.3,279.12,-889.35,-837.23,0.0,155.0,99.0,384.0,0.0,0.0,0.0,0.0,0.0,0.0,0.0,0.0,0.0,0.0,0.0,0.0,0.0,0.0
94.0,3551.0,0.0,0.0,-0.0,0.0,3551.0,0.0,10314.624925789942,0.0,10314.624925789944,0.0,0.0,0.5329167517006804,0.037660859233377225,0.5974683426496595,0.0,0.0,0.0,"[0.27343042913467386, 0.33340508964951354, 0.3657162782759684, 0.33127824582250653, 0.48339296574255286, 0.27046842767770585, 0.5111360260347553, 0.521595772708018]",22.27,0.0,0.0,0.0,548.4819305171961,60.772842857418325,-1288.994381390847,-811.0066910361398,367.32613681819,0.0,0.0,0.0,0.0,0.0,0.0,-8.1,21.896716137437892,0.0,21.848978566049908,0.0,-8.1,22.27,21.25,22.45,21.98,22.51,-9.45,-8.1,1231.71,-899.62,-846.9,0.0,84.0,45.0,354.0,0.0,0.0,0.0,0.0,0.0,0.0,0.0,0.0,0.0,0.0,0.0,0.0,0.0,0.0
95.0,2778.0,5158.6072420082655,2354.814205798224,-0.0,0.0,0.0,0.0,4253.600397086195,0.0,0.0,0.0,4253.600397086195,0.5329167517006804,0.037660859233377225,0.5974683426496595,0.0,0.0,0.0,"[0.27343042913467386, 0.33340508964951354, 0.3657162782759684, 0.33127824582250653, 0.48339296574255286, 0.27046842767770585, 0.5111360260347553, 0.521595772708018]",21.73,0.0,0.0,0.0,178.60050323659485,65.10942795153551,-1257.298934535213,-72.61697239933804,1089.9247468617878,0.0,0.0,0.0,0.0,0.0,0.0,-7.9,21.70776698344773,0.0,21.802888808182605,0.0,-7.9,21.73,21.23,22.37,21.59,22.12,-9.21,-7.9,587.28,-877.5,-826.08,0.0,141.0,38.0,53.0,0.0,0.0,0.0,0.0,0.0,0.0,0.0,0.0,0.0,0.0,0.0,0.0,0.0,0.0
96.0,1954.0,5854.774121092074,0.0,-0.0,0.0,-3871.5002504866134,0.0,8857.834091690323,0.0,8857.834091690323,0.0,0.0,0.6910030119288838,0.0,0.5814967366159417,0.0,0.0,0.0,"[0.27343042913467386, 0.33340508964951354, 0.3657162782759684, 0.33127824582250653, 0.48339296574255286, 0.27046842767770585, 0.5111360260347553, 0.521595772708018]",21.73,0.0,0.0,0.0,228.17593373788785,41.0914181995019,-1231.8360013759523,-120.86224047917557,1085.7778553864648,0.0,0.0,0.0,0.0,0.0,0.0,-7.3,21.68405362786829,0.0,21.765437999731386,0.0,-7.3,21.73,21.22,22.31,21.65,22.17,-8.64,-7.3,1808.61,-859.73,-809.35,0.0,80.0,24.0,123.0,0.0,0.0,0.0,0.0,0.0,0.0,0.0,0.0,0.0,0.0,0.0,0.0,0.0,0.0
97.0,1600.0,50823.47987824612,48969.36247885489,-0.0,0.0,0.0,0.0,14524.348019191226,0.0,-80000.0,0.0,94524.34801919121,0.6910030119288838,0.3266666666666667,0.5814967366159417,0.0,0.0,0.0,"[0.27343042913467386, 0.33340508964951354, 0.3657162782759684, 0.33127824582250653, 0.48339296574255286, 0.27046842767770585, 0.5111360260347553, 0.521595772708018]",21.73,0.0,0.0,0.0,194.79132302458936,27.323518669927097,-1202.1292460234815,-165.50649718794577,2249.351597116062,0.0,0.0,0.0,0.0,0.0,0.0,-6.6,21.662010330673883,0.0,21.73075979135568,0.0,-6.6,21.73,21.2,22.26,21.63,22.13,-7.93,-6.6,706.7,-839.0,-789.83,0.0,80.0,0.0,101.0,0.0,0.0,0.0,0.0,0.0,0.0,0.0,0.0,0.0,0.0,0.0,0.0,0.0,0.0
98.0,1009.0,0.0,2181.7908405673475,-0.0,0.0,3190.7908405673475,0.0,4357.054614742545,0.0,0.0,0.0,4357.054614742544,0.5553401360544218,0.3266666666666667,0.5814967366159417,0.0,0.0,0.0,"[0.27343042913467386, 0.33340508964951354, 0.3657162782759684, 0.33127824582250653, 0.48339296574255286, 0.27046842767770585, 0.5111360260347553, 0.521595772708018]",22.26,0.0,0.0,0.0,141.7054935427134,26.140813644258778,-1195.123231920681,-910.7692197313664,837.2691020920146,0.0,0.0,0.0,0.0,0.0,0.0,-5.9,21.835151549742903,0.0,21.75620836514256,0.0,-5.9,22.26,21.22,22.3,21.97,22.46,-7.19,-5.9,2229.89,-834.11,-785.23,0.0,80.0,0.0,62.0,0.0,0.0,0.0,0.0,0.0,0.0,0.0,0.0,0.0,0.0,0.0,0.0,0.0,0.0
99.0,1030.0,0.0,0.0,-0.0,0.0,1030.0,0.0,17101.004274386458,0.0,17101.004274386458,0.0,0.0,0.511547619047619,0.25395831515992157,0.5814967366159417,0.0,0.0,0.0,"[0.27343042913467386, 0.33340508964951354, 0.3657162782759684, 0.33127824582250653, 0.48339296574255286, 0.27046842767770585, 0.5111360260347553, 0.521595772708018]",21.73,0.0,0.0,0.0,405.7734658371732,32.02401300271144,-1155.4472018981705,-160.74871156622865,880.2275088200712,0.0,0.0,0.0,0.0,0.0,0.0,-5.5,21.663706904026938,0.0,21.732405200937475,0.0,-5.5,21.73,21.21,22.26,21.6,22.09,-6.78,-5.5,1851.29,-806.42,-759.16,0.0,80.0,0.0,256.0,0.0,0.0,0.0,0.0,0.0,0.0,0.0,0.0,0.0,0.0,0.0,0.0,0.0,0.0
100.0,3878.0,0.0,0.0,-0.0,0.0,3878.0,0.0,7015.679472240336,0.0,7015.679472240336,0.0,0.0,0.3466666666666667,0.22412974597522625,0.5814967366159417,0.0,0.0,0.0,"[0.27343042913467386, 0.33340508964951354, 0.3657162782759684, 0.33127824582250653, 0.48339296574255286, 0.27046842767770585, 0.5111360260347553, 0.521595772708018]",21.73,0.0,0.0,0.0,4656.436786549921,135.950426412079,-1134.22809093212,-205.49942384977717,-2318.0035470193134,0.0,0.0,0.0,0.0,0.0,0.0,-5.0,21.641708434118296,0.0,21.69753782795813,0.0,-5.0,21.73,21.19,22.2,21.6,22.07,-6.25,-5.0,861.81,-791.61,-745.22,0.0,80.0,17.0,3377.0,0.0,0.0,0.0,0.0,0.0,0.0,0.0,0.0,0.0,0.0,0.0,0.0,0.0,0.0
101.0,1759.0,21687.77817211388,3820.339281253311,-0.0,0.0,-16000.0,0.0,8102.715667089035,0.0,0.0,0.0,8102.7156670890345,1.0,0.22412974597522625,0.5814967366159417,0.0,0.0,0.0,"[0.27343042913467386, 0.33340508964951354, 0.3657162782759684, 0.33127824582250653, 0.48339296574255286, 0.27046842767770585, 0.5111360260347553, 0.521595772708018]",22.27,0.0,0.0,0.0,1562.9872359056515,74.08585583865914,-1140.4606046284935,-1024.6329536995447,0.0,0.0,0.0,0.0,0.0,0.0,0.0,-4.6,21.79102949042254,0.0,21.679443354182013,0.0,-4.6,22.27,21.19,22.17,21.76,22.16,-5.65,-4.6,1059.4,-795.96,-749.31,0.0,80.0,30.0,1103.0,0.0,0.0,0.0,0.0,0.0,0.0,0.0,0.0,0.0,0.0,0.0,0.0,0.0,0.0
102.0,1490.0,7316.65773027619,5790.074441624809,-0.0,0.0,0.0,0.0,12446.004145947845,0.0,0.0,0.0,12446.004145947843,1.0,0.22412974597522625,0.5814967366159417,0.0,0.0,0.0,"[0.27343042913467386, 0.33340508964951354, 0.3657162782759684, 0.33127824582250653, 0.48339296574255286, 0.27046842767770585, 0.5111360260347553, 0.521595772708018]",22.02,0.0,0.0,0.0,866.3521402487527,66.92897414487136,-1116.767656397191,-668.3060767474778,1387.867247275377,0.0,0.0,0.0,0.0,0.0,0.0,-4.3,21.705376009256582,0.0,21.662905649748346,0.0,-4.3,22.02,21.19,22.14,21.63,22.03,-5.38,-4.3,1771.28,-779.42,-733.75,0.0,111.0,29.0,575.0,0.0,0.0,0.0,0.0,0.0,0.0,0.0,0.0,0.0,0.0,0.0,0.0,0.0,0.0
103.0,2122.0,2132.6633165829144,0.0,-0.0,0.0,0.0,0.0,9232.406521089613,0.0,9232.406521089613,0.0,0.0,1.0,0.1848763168889609,0.5814967366159417,0.0,0.0,0.0,"[0.27343042913467386, 0.33340508964951354, 0.3657162782759684, 0.33127824582250653, 0.48339296574255286, 0.27046842767770585, 0.5111360260347553, 0.521595772708018]",22.27,0.0,0.0,0.0,440.94909643852424,47.45982987617749,-1114.997671469233,-1008.9491309126354,511.35733166269233,0.0,0.0,0.0,0.0,0.0,0.0,-4.0,21.798326780728313,0.0,21.689407299936885,0.0,-4.0,22.27,21.2,22.18,21.89,22.3,-5.06,-4.0,708.96,-778.19,-732.58,0.0,131.0,0.0,255.0,0.0,0.0,0.0,0.0,0.0,0.0,0.0,0.0,0.0,0.0,0.0,0.0,0.0,0.0
104.0,1496.0,0.0,0.0,-0.0,0.0,1496.0,0.0,3922.8956790272237,0.0,3922.8956790272237,0.0,0.0,0.9363945578231293,0.16819733866180434,0.5814967366159417,0.0,0.0,0.0,"[0.27343042913467386, 0.33340508964951354, 0.3657162782759684, 0.33127824582250653, 0.48339296574255286, 0.27046842767770585, 0.5111360260347553, 0.521595772708018]",21.73,0.0,0.0,1.0941968421730057,253.17857137510063,43.85106325939466,-1079.0584024203888,-236.1041310666189,1019.4820520056833,0.0,0.0,0.0,0.0,0.0,0.0,-3.7,21.626035080779626,0.0,21.669875346591795,0.0,-3.7,21.73,21.2,22.14,21.56,21.99,-4.7,-3.7,1037.94,-753.1,-708.97,1.8,133.0,0.0,116.0,0.0,0.0,0.0,0.0,0.0,0.0,0.0,0.0,0.0,0.0,0.0,0.0,0.0,0.0
105.0,2055.0,8214.780476156773,4566.46489955618,-0.0,5.44262398926938,-1557.6842982090782,0.0,10730.008636328268,0.0,0.0,0.0,10730.00863632827,1.0,0.16819733866180434,0.5814967366159417,0.0,0.0,0.0,"[0.27343042913467386, 0.33340508964951354, 0.3657162782759684, 0.33127824582250653, 0.48339296574255286, 0.27046842767770585, 0.5111360260347553, 0.521595772708018]",21.73,0.0,0.0,32.00465874970872,42.196428562516786,0.940098866556867,-1015.4010695222373,-260.29679938346237,1198.8221358370963,0.0,0.0,0.0,0.0,0.0,0.0,-2.2,21.613367373863845,0.0,21.649845167973798,0.0,-2.2,21.73,21.19,22.11,21.61,22.03,-2.96,-2.2,1132.29,-708.68,-667.15,52.77,0.0,0.0,31.0,0.0,0.0,0.0,0.0,0.0,0.0,0.0,0.0,0.0,0.0,0.0,0.0,0.0,0.0
106.0,4297.0,0.0,0.0,-0.0,18.568985524143862,4278.4310144758565,0.0,5651.1343579444,0.0,5651.134357944401,0.0,0.0,0.8180939194525572,0.14417040686782304,0.5814967366159417,0.0,0.0,0.0,"[0.27343042913467386, 0.33340508964951354, 0.3657162782759684, 0.33127824582250653, 0.48339296574255286, 0.27046842767770585, 0.5111360260347553, 0.521595772708018]",21.73,0.0,0.0,40.30723409277237,1024.9648615346819,22.83530472636527,-972.9628475901362,-274.32560584097394,1285.1254987257441,0.0,0.0,0.0,0.0,0.0,0.0,-1.2,21.605971506120984,0.0,21.63787315195363,0.0,-1.2,21.73,21.18,22.09,21.61,22.04,-1.85,-1.2,2132.34,-679.06,-639.26,66.46,0.0,0.0,753.0,0.0,0.0,0.0,0.0,0.0,0.0,0.0,0.0,0.0,0.0,0.0,0.0,0.0,0.0
107.0,5977.0,12577.772440847268,2299.8577951549196,-0.0,216.81700542885437,-4454.842788916967,0.0,5908.350323277463,0.0,0.0,0.0,5908.350323277463,1.0,0.14417040686782304,0.5814967366159417,0.0,0.0,0.0,"[0.27343042913467386, 0.33340508964951354, 0.3657162782759684, 0.33127824582250653, 0.48339296574255286, 0.27046842767770585, 0.5111360260347553, 0.521595772708018]",22.27,0.0,0.0,74.76579695693593,649.2805298167905,14.465392237020232,-941.0009615476188,-1039.5335147192354,1238.7042399005252,0.0,0.0,0.0,0.0,0.0,0.0,0.1,21.78102619414732,0.0,21.66003976602908,0.0,0.1,22.27,21.2,22.12,21.86,22.26,-0.43,0.1,1775.7,-656.75,-618.26,123.27,0.0,0.0,477.0,0.0,0.0,0.0,0.0,0.0,0.0,0.0,0.0,0.0,0.0,0.0,0.0,0.0,0.0
108.0,8360.0,0.0,8170.589502425597,-0.0,530.5895024255965,16000.0,0.0,7515.365861385752,0.0,-14331.754269525296,0.0,21847.120130911047,0.3197278911564626,0.202691736801718,0.5814967366159417,0.0,0.0,0.0,"[0.27343042913467386, 0.33340508964951354, 0.3657162782759684, 0.33127824582250653, 0.48339296574255286, 0.27046842767770585, 0.5111360260347553, 0.521595772708018]",22.27,0.0,0.0,95.65086728287535,103.44930873391209,2.3047585115587763,-894.3189174223077,-984.8773184327453,1672.6630107419244,0.0,0.0,0.0,0.0,0.0,0.0,1.2,21.807004383435874,0.0,21.699063337374156,0.0,1.2,22.27,21.23,22.17,21.88,22.3,0.6,1.2,1361.93,-624.17,-587.59,157.71,0.0,0.0,76.0,0.0,0.0,0.0,0.0,0.0,0.0,0.0,0.0,0.0,0.0,0.0,0.0,0.0,0.0
109.0,3250.0,18779.13500831887,0.0,-0.0,564.7606667227212,-16000.0,0.0,8972.76089823011,0.0,8972.76089823011,0.0,0.0,0.9730612244897959,0.16454224318679406,0.5728454500143445,0.0,0.0,0.0,"[0.27343042913467386, 0.33340508964951354, 0.3657162782759684, 0.33127824582250653, 0.48339296574255286, 0.27046842767770585, 0.5111360260347553, 0.521595772708018]",22.27,0.0,0.0,99.06739350551634,209.620967697664,58.65003896519313,-860.3683398766269,-917.6302816770892,1408.6032812373041,0.0,0.0,0.0,0.0,0.0,0.0,2.0,21.839211853304402,0.0,21.747559417001483,0.0,2.0,22.27,21.26,22.24,21.95,22.39,1.4,2.0,505.81,-600.47,-565.28,163.34,169.0,10.0,64.0,0.0,0.0,0.0,0.0,0.0,0.0,0.0,0.0,0.0,0.0,0.0,0.0,0.0,0.0
110.0,2289.0,0.0,0.0,-0.0,150.4977994122986,2138.5022005877013,0.0,5227.313785341872,0.0,5227.313785341872,0.0,0.0,0.8821385118797747,0.14231726960966024,0.5728454500143441,0.0,0.0,0.0,"[0.27343042913467386, 0.33340508964951354, 0.3657162782759684, 0.33127824582250653, 0.48339296574255286, 0.27046842767770585, 0.5111360260347553, 0.521595772708018]",22.27,0.0,0.0,73.65318378549043,344.37730407473373,68.93047495754085,-847.6368732969966,-858.3238543433885,1218.9483126529483,0.0,0.0,0.0,0.0,0.0,0.0,2.3,21.867935679419556,0.0,21.79007586359578,0.0,2.3,22.27,21.29,22.29,21.96,22.42,1.51,2.3,1762.82,-591.59,-556.92,121.44,166.0,25.0,163.0,0.0,0.0,0.0,0.0,0.0,0.0,0.0,0.0,0.0,0.0,0.0,0.0,0.0,0.0
111.0,1860.0,0.0,0.0,-0.0,0.06359800209491384,1859.936401997905,0.0,3569.728166166661,0.0,3569.728166166661,0.0,0.0,0.8030595832234011,0.12713985393718294,0.5728454500143441,0.0,0.0,0.0,"[0.27343042913467386, 0.33340508964951354, 0.3657162782759684, 0.33127824582250653, 0.48339296574255286, 0.27046842767770585, 0.5111360260347553, 0.521595772708018]",22.27,0.0,0.0,18.58520565599771,357.9890552239326,60.74251708752941,-873.0998064562572,-813.2852533647005,124.6176901800586,0.0,0.0,0.0,0.0,0.0,0.0,1.7,21.890255883911934,0.0,21.82226571272572,0.0,1.7,22.27,21.32,22.32,21.96,22.41,0.63,1.7,1632.6,-609.36,-573.65,30.64,127.0,30.0,193.0,0.0,0.0,0.0,0.0,0.0,0.0,0.0,0.0,0.0,0.0,0.0,0.0,0.0,0.0
112.0,6834.0,0.0,0.0,-0.0,0.0,6834.0,0.0,7815.231793089933,0.0,7815.2317930899335,0.0,0.0,0.5124983587336052,0.09391182760601827,0.5728454500143441,0.0,0.0,0.0,"[0.27343042913467386, 0.33340508964951354, 0.3657162782759684, 0.33127824582250653, 0.48339296574255286, 0.27046842767770585, 0.5111360260347553, 0.521595772708018]",21.73,0.0,0.0,0.0,2702.290807093604,114.02489478238168,-883.8425815327242,-56.57291763689862,-742.4963438215005,0.0,0.0,0.0,0.0,0.0,0.0,0.9,21.710821672772664,0.0,21.789676205836436,0.0,0.9,21.73,21.32,22.26,21.6,22.04,-0.3,0.9,504.54,-616.86,-580.71,0.0,91.0,51.0,1932.0,0.0,0.0,0.0,0.0,0.0,0.0,0.0,0.0,0.0,0.0,0.0,0.0,0.0,0.0
113.0,6509.0,8446.315503575357,0.0,-0.0,0.0,-1895.0839260574805,0.0,5828.271765632298,0.0,5828.271765632298,0.0,0.0,0.5898809523809523,0.0691317605752687,0.561532229073794,0.0,0.0,0.0,"[0.27343042913467386, 0.33340508964951354, 0.3657162782759684, 0.33127824582250653, 0.48339296574255286, 0.27046842767770585, 0.5111360260347553, 0.521595772708018]",22.27,0.0,0.0,0.0,544.3984051724364,58.255803956637024,-902.8065618087279,-876.4392082543615,1179.9188824583011,0.0,0.0,0.0,0.0,0.0,0.0,1.0,21.860072009975077,0.0,21.770342026164606,0.0,1.0,22.27,21.32,22.22,21.83,22.19,-0.24,1.0,3.85,-630.09,-593.17,0.0,136.0,13.0,327.0,0.0,0.0,0.0,0.0,0.0,0.0,0.0,0.0,0.0,0.0,0.0,0.0,0.0,0.0
114.0,3651.0,0.0,0.0,-0.0,0.0,3651.0,0.0,4315.340953338817,0.0,4315.340953338817,0.0,0.0,0.43465136054421766,0.05078422250835196,0.5602012619043166,0.0,0.0,0.0,"[0.27343042913467386, 0.33340508964951354, 0.3657162782759684, 0.33127824582250653, 0.48339296574255286, 0.27046842767770585, 0.5111360260347553, 0.521595772708018]",22.27,0.0,0.0,0.0,348.46082941949345,7.763397091566412,-898.5627396155177,-839.7172359209985,812.4810002221391,0.0,0.0,0.0,0.0,0.0,0.0,1.1,21.87784493252144,0.0,21.796492051804297,0.0,1.1,22.27,21.34,22.25,21.94,22.33,-0.15,1.1,0.0,-627.13,-590.38,0.0,0.0,0.0,256.0,0.0,0.0,0.0,0.0,0.0,0.0,0.0,0.0,0.0,0.0,0.0,0.0,0.0,0.0
115.0,5402.0,0.0,0.0,-0.0,0.0,5402.0,0.0,4005.745444854727,0.0,4005.745444854727,0.0,0.0,0.20497448979591834,0.03375299187546622,0.5488880409637665,0.0,0.0,0.0,"[0.27343042913467386, 0.33340508964951354, 0.3657162782759684, 0.33127824582250653, 0.48339296574255286, 0.27046842767770585, 0.5111360260347553, 0.521595772708018]",22.0,0.0,0.0,0.0,224.5938939617829,5.003752031673666,-878.3358356310997,-438.6296748052012,530.7805717965001,0.0,0.0,0.0,0.0,0.0,0.0,1.3,21.795623618485536,0.0,21.793043046888286,0.0,1.3,22.0,21.35,22.24,21.77,22.17,0.03,1.3,0.0,-613.01,-577.09,0.0,0.0,0.0,165.0,0.0,0.0,0.0,0.0,0.0,0.0,0.0,0.0,0.0,0.0,0.0,0.0,0.0,0.0
116.0,4821.0,21808.444016168552,0.0,-0.0,0.0,-16000.0,0.0,790.5616164789406,0.0,0.0,0.0,0.0,0.6533333333333333,0.030391760512885693,0.5355783692690016,3513.607184350848,878.401796087712,4392.00898043856,"[0.27343042913467386, 0.09701658050161299, 0.20937452456747252, 0.33127824582250653, 0.48339296574255286, 0.23666469645760912, 0.5111360260347517, 0.521595772708018]",21.73,0.0,0.0,0.0,171.50806447990692,3.8210470060053443,-862.6234705666736,-84.28572232915342,771.7983232173412,0.0,0.0,0.0,0.0,0.0,0.0,1.4,21.697121606114603,0.0,21.761561643934122,0.0,1.4,21.73,21.34,22.19,21.63,22.02,0.17,1.4,0.0,-602.05,-566.77,0.0,0.0,0.0,126.0,0.0,0.0,0.0,0.0,0.0,0.0,0.0,0.0,0.0,0.0,0.0,0.0,0.0,0.0
117.0,7116.0,7151.75879396985,0.0,-0.0,0.0,0.0,0.0,1024.3798412078172,0.0,1024.3798412078172,0.0,0.0,0.6533333333333333,0.02603640404516538,0.5355783692690016,0.0,0.0,0.0,"[0.27343042913467386, 0.09701658050161299, 0.20937452456747252, 0.33127824582250653, 0.48339296574255286, 0.23666469645760912, 0.5111360260347517, 0.521595772708018]",21.73,0.0,0.0,0.0,180.53480471569148,32.7518314800458,-854.1358261802534,-121.71290983201216,764.4327438801604,0.0,0.0,0.0,0.0,0.0,0.0,1.6,21.67886360571737,0.0,21.732233460792877,0.0,1.6,21.73,21.33,22.14,21.64,22.02,0.35,1.6,0.0,-596.12,-561.19,0.0,100.0,0.0,80.0,0.0,0.0,0.0,0.0,0.0,0.0,0.0,0.0,0.0,0.0,0.0,0.0,0.0,0.0
118.0,4070.0,4743.369570615966,649.652722762886,-0.0,0.0,0.0,0.0,1768.0556852421478,0.0,0.0,0.0,1768.055685242147,0.6533333333333333,0.02603640404516538,0.5355783692690016,0.0,0.0,0.0,"[0.27343042913467386, 0.09701658050161299, 0.20937452456747252, 0.33127824582250653, 0.48339296574255286, 0.23666469645760912, 0.5111360260347517, 0.521595772708018]",21.73,0.0,0.0,0.0,352.97419953738563,57.40668239974695,-849.8920039870434,-151.90565555690716,1164.713761681246,0.0,0.0,0.0,0.0,0.0,0.0,1.7,21.664177410676217,0.0,21.708743475811737,0.0,1.7,21.73,21.32,22.1,21.64,22.0,0.41,1.7,0.0,-593.16,-558.4,0.0,146.0,14.0,181.0,0.0,0.0,0.0,0.0,0.0,0.0,0.0,0.0,0.0,0.0,0.0,0.0,0.0,0.0
119.0,2142.0,35246.847915901744,32928.61367632223,-0.0,0.0,0.0,0.0,10244.367002908637,0.0,-80000.0,0.0,90244.36700290864,0.6533333333333333,0.3527030707118321,0.5355783692690016,0.0,0.0,0.0,"[0.27343042913467386, 0.09701658050161299, 0.20937452456747252, 0.33127824582250653, 0.48339296574255286, 0.23666469645760912, 0.5111360260347517, 0.521595772708018]",22.0,0.0,0.0,0.0,128.88179114425756,57.04277316107978,-853.1436191986224,-547.3809509292051,1774.7311297226308,0.0,0.0,0.0,0.0,0.0,0.0,1.9,21.74891835552007,0.0,21.714102674053436,0.0,1.9,22.0,21.32,22.1,21.81,22.15,0.62,1.9,0.0,-595.43,-560.54,0.0,130.0,31.0,23.0,0.0,0.0,0.0,0.0,0.0,0.0,0.0,0.0,0.0,0.0,0.0,0.0,0.0,0.0
120.0,1462.0,34509.548842725475,32875.00109851185,-0.0,0.0,0.0,0.0,8843.80613526247,0.0,-80000.0,0.0,88843.80613526246,0.6533333333333333,0.6793697373784988,0.5355783692690016,0.0,0.0,0.0,"[0.27343042913467386, 0.09701658050161299, 0.20937452456747252, 0.33127824582250653, 0.48339296574255286, 0.23666469645760912, 0.5111360260347517, 0.521595772708018]",22.27,0.0,0.0,0.0,73.50345620567438,1.6375915740022873,-881.5874508426773,-885.1040659370859,1691.6440012032683,0.0,0.0,0.0,0.0,0.0,0.0,1.5,21.855669680552577,0.0,21.756607210066903,0.0,1.5,22.27,21.35,22.17,21.99,22.35,0.13,1.5,91.92,-615.28,-579.23,0.0,0.0,0.0,54.0,0.0,0.0,0.0,0.0,0.0,0.0,0.0,0.0,0.0,0.0,0.0,0.0,0.0,0.0
121.0,1016.0,0.0,0.0,-0.0,0.0,1016.0,0.0,7129.284830073579,0.0,7129.284830073579,0.0,0.0,0.6101360544217687,0.6490581522166213,0.5355783692690016,0.0,0.0,0.0,"[0.27343042913467386, 0.09701658050161299, 0.20937452456747252, 0.33127824582250653, 0.48339296574255286, 0.23666469645760912, 0.5111360260347517, 0.521595772708018]",22.27,0.0,0.0,0.0,95.28225804439273,2.1228038922251877,-894.3189174223077,-833.1629714052781,503.3068261206283,0.0,0.0,0.0,0.0,0.0,0.0,1.2,21.881059650611277,0.0,21.795445011611704,0.0,1.2,22.27,21.37,22.22,21.98,22.36,-0.21,1.2,0.0,-624.17,-587.59,0.0,0.0,0.0,70.0,0.0,0.0,0.0,0.0,0.0,0.0,0.0,0.0,0.0,0.0,0.0,0.0,0.0,0.0
122.0,941.0,945.7286432160804,0.0,-0.0,0.0,0.0,0.0,12068.110319669608,0.0,12068.11031966961,0.0,0.0,0.6101360544217687,0.5977481593608832,0.5355783692690016,0.0,0.0,0.0,"[0.27343042913467386, 0.09701658050161299, 0.20937452456747252, 0.33127824582250653, 0.48339296574255286, 0.23666469645760912, 0.5111360260347517, 0.521595772708018]",21.73,0.0,0.0,0.0,268.2947792302637,28.96111024392939,-888.0864037259342,-65.9144085649525,1785.2903033696418,0.0,0.0,0.0,0.0,0.0,0.0,0.8,21.70645869753902,0.0,21.772067420005335,0.0,0.8,21.73,21.36,22.18,21.63,22.02,-0.62,0.8,611.4,-619.82,-583.5,0.0,80.0,0.0,155.0,0.0,0.0,0.0,0.0,0.0,0.0,0.0,0.0,0.0,0.0,0.0,0.0,0.0,0.0
123.0,2031.0,0.0,0.0,-0.0,0.0,2031.0,0.0,3723.2561624816108,0.0,3723.2561624816108,0.0,0.0,0.5237840136054421,0.5819179886020328,0.5355783692690016,0.0,0.0,0.0,"[0.27343042913467386, 0.09701658050161299, 0.20937452456747252, 0.33127824582250653, 0.48339296574255286, 0.23666469645760912, 0.5111360260347517, 0.521595772708018]",22.27,0.0,0.0,0.0,167.56782072619143,26.717003272148474,-915.5380283883583,-829.5889156696103,425.47683441486413,0.0,0.0,0.0,0.0,0.0,0.0,0.7,21.883073518539472,0.0,21.797298760145118,0.0,0.7,22.27,21.38,22.22,22.0,22.37,-0.74,0.7,1510.06,-638.98,-601.53,0.0,80.0,0.0,81.0,0.0,0.0,0.0,0.0,0.0,0.0,0.0,0.0,0.0,0.0,0.0,0.0,0.0,0.0
124.0,1787.0,0.0,0.0,-0.0,0.0,1787.0,0.0,4292.580846062205,0.0,4292.580846062204,0.0,0.0,0.44780612244897955,0.5636672196987071,0.5355783692690016,0.0,0.0,0.0,"[0.27343042913467386, 0.09701658050161299, 0.20937452456747252, 0.33127824582250653, 0.48339296574255286, 0.23666469645760912, 0.5111360260347517, 0.521595772708018]",21.73,0.0,0.0,0.0,174.37369630079093,26.86863212159313,-900.8178703055646,-62.88713652488017,763.9972993713719,0.0,0.0,0.0,0.0,0.0,0.0,0.5,21.70807062948291,0.0,21.773534044131395,0.0,0.5,21.73,21.37,22.18,21.64,22.01,-0.89,0.5,1715.43,-628.7,-591.86,0.0,80.0,0.0,86.0,0.0,0.0,0.0,0.0,0.0,0.0,0.0,0.0,0.0,0.0,0.0,0.0,0.0,0.0
125.0,697.0,0.0,0.0,-0.0,0.0,697.0,0.0,8632.557977649081,0.0,8632.557977649081,0.0,0.0,0.41817176870748296,0.5269641670726481,0.5355783692690016,0.0,0.0,0.0,"[0.27343042913467386, 0.09701658050161299, 0.20937452456747252, 0.33127824582250653, 0.48339296574255286, 0.23666469645760912, 0.5111360260347517, 0.521595772708018]",21.73,0.0,0.0,0.0,148.51136911731288,26.292442493703437,-909.3055146919847,-100.61823127452718,836.6216458399002,0.0,0.0,0.0,0.0,0.0,0.0,0.3,21.689869439550492,0.0,21.744991043012284,0.0,0.3,21.73,21.36,22.13,21.66,22.03,-1.1,0.3,544.41,-634.63,-597.44,0.0,80.0,0.0,67.0,0.0,0.0,0.0,0.0,0.0,0.0,0.0,0.0,0.0,0.0,0.0,0.0,0.0,0.0
126.0,930.0,11961.306318893254,0.0,-0.0,0.0,0.0,0.0,9874.349808568904,0.0,0.0,0.0,0.0,0.41817176870748296,0.5269641670726481,0.5355783692690016,43885.99914919515,10971.499787298788,54857.49893649393,"[0.27343042913467386, 0.09701658050161299, 0.20937452456747252, 0.33127824582250653, 0.48339296574255286, 0.23666469645760912, 0.5111360260347517, 0.521595772708018]",21.73,0.0,0.0,0.0,149.51434025462228,39.8177358641668,-913.5493368851949,-132.25139637926037,858.7428753452448,0.0,0.0,0.0,0.0,0.0,0.0,0.2,21.67455220133565,0.0,21.72128269266306,0.0,0.2,21.73,21.34,22.1,21.66,22.01,-1.16,0.2,9.62,-637.59,-600.23,0.0,127.0,0.0,43.0,0.0,0.0,0.0,0.0,0.0,0.0,0.0,0.0,0.0,0.0,0.0,0.0,0.0,0.0
127.0,674.0,0.0,3519.7226189758744,-0.0,0.0,4193.722618975875,0.0,7140.924699070641,0.0,-1901.2666561876053,0.0,9042.191355258246,0.2398672355877604,0.5347276725854142,0.5355783692690016,0.0,0.0,0.0,"[0.27343042913467386, 0.09701658050161299, 0.20937452456747252, 0.33127824582250653, 0.48339296574255286, 0.23666469645760912, 0.5111360260347517, 0.521595772708018]",21.73,0.0,0.0,0.0,108.89400919359169,2.4260615911145034,-917.7931590784049,-158.72502140809462,2092.2279221476383,0.0,0.0,0.0,0.0,0.0,0.0,0.1,21.661780316669265,0.0,21.7017521040369,0.0,0.1,21.73,21.33,22.07,21.66,22.0,-1.3,0.1,822.48,-640.55,-603.01,0.0,0.0,0.0,80.0,0.0,0.0,0.0,0.0,0.0,0.0,0.0,0.0,0.0,0.0,0.0,0.0,0.0,0.0
128.0,1632.0,17720.603015075376,0.0,-0.0,0.0,-16000.0,0.0,5113.574771035737,0.0,5113.574771035737,0.0,0.0,0.8238128138190529,0.49124489392014437,0.5355783692690016,0.0,0.0,0.0,"[0.27343042913467386, 0.09701658050161299, 0.20937452456747252, 0.33127824582250653, 0.48339296574255286, 0.23666469645760912, 0.5045768102624351, 0.521595772708018]",22.27,0.0,0.0,2.206529993297092,62.61405528631523,1.394985414890837,-936.7571393544087,-905.9830759763056,649.5895737711671,0.0,0.0,0.0,0.0,0.0,0.0,0.2,21.84618963836825,0.0,21.74008727965386,0.0,0.2,22.27,21.35,22.13,22.0,22.35,-1.1,0.2,857.49,-653.79,-615.47,3.64,0.0,0.0,46.0,0.0,0.0,0.0,0.0,0.0,0.0,0.0,0.0,0.0,0.0,0.0,0.0,0.0,0.0
129.0,1734.0,0.0,0.0,-0.0,4083.5726893566634,0.0,0.0,2912.0519097288334,0.0,797.4364893078368,0.0,0.0,0.8238128138190529,0.4878544326560804,0.5355783692690016,9398.290757426654,2349.5726893566634,11747.863446783316,"[0.27343042913467386, 0.09701658050161299, 0.20937452456747252, 0.33127824582250653, 0.48339296574255286, 0.23666469645760912, 0.5045768102624351, 0.521595772708018]",21.73,0.0,0.0,590.3950860003414,84.39285712503357,1.8801977331137376,-803.2099598617323,-123.21893510080449,1343.8868001063718,0.0,0.0,0.0,0.0,0.0,0.0,2.8,21.677091865710373,0.0,21.72616504785949,0.0,2.8,21.73,21.34,22.11,21.63,21.99,2.31,2.8,204.05,-560.58,-527.73,973.42,0.0,0.0,62.0,0.0,0.0,0.0,0.0,0.0,0.0,0.0,0.0,0.0,0.0,0.0,0.0,0.0,0.0
130.0,6009.0,0.0,1149.3679671301807,-3039.0074162196825,10197.375383349863,0.0,0.0,3522.5125605111334,0.0,0.0,0.0,3522.5125605111334,0.8238128138190529,0.4878544326560804,0.5485271834772419,0.0,0.0,0.0,"[0.27343042913467386, 0.09701658050161299, 0.20937452456747252, 0.33127824582250653, 0.48339296574255286, 0.23666469645760912, 0.5045768102624351, 0.521595772708018]",22.27,0.0,0.0,946.8116102530608,108.89400919359169,2.4260615911145034,-720.3222075006935,-822.2747598013848,0.0,0.0,0.0,0.0,0.0,0.0,0.0,5.3,21.883355509070483,0.0,21.799294575689032,0.0,5.3,22.27,21.37,22.23,22.08,22.58,5.41,5.3,0.0,-502.73,-473.27,1561.07,0.0,0.0,80.0,0.0,0.0,0.0,0.0,0.0,0.0,0.0,0.0,0.0,0.0,0.0,0.0,0.0,0.0
131.0,5670.0,0.0,450.5626117945559,-4017.569518999584,10138.13213079414,0.0,0.0,1445.2869757715484,0.0,0.0,0.0,1445.2869757715484,0.8238128138190529,0.4878544326560804,0.5656455231668923,0.0,0.0,0.0,"[0.27343042913467386, 0.09701658050161299, 0.20937452456747252, 0.33127824582250653, 0.48339296574255286, 0.23666469645760912, 0.5045768102624351, 0.521595772708018]",22.06,0.0,0.0,775.7383418162839,38.112903217757086,0.8491215568900745,-647.676426020989,-416.014225286571,647.8406181015415,0.0,0.0,0.0,0.0,0.0,0.0,6.8,21.867816854570837,0.0,21.873022393787018,0.0,6.8,22.06,21.4,22.35,21.95,22.61,6.87,6.8,0.0,-452.03,-425.54,1279.01,0.0,0.0,28.0,0.0,0.0,0.0,0.0,0.0,0.0,0.0,0.0,0.0,0.0,0.0,0.0,0.0,0.0
132.0,7322.0,1858.7382209087004,223.8883879087067,-0.0,10011.232091107335,-4314.788233002786,0.0,739.5193385201328,0.0,0.0,0.0,739.5193385201328,1.0,0.4878544326560804,0.5656455231668923,0.0,0.0,0.0,"[0.27343042913467386, 0.09701658050161299, 0.20937452456747252, 0.33127824582250653, 0.48339296574255286, 0.23666469645760912, 0.5045768102624351, 0.521595772708018]",22.27,0.0,0.0,720.8455700207807,108.89400919359169,2.4260615911145034,-614.226652670441,-627.2403337938636,375.08794799493677,0.0,0.0,0.0,0.0,0.0,0.0,7.8,21.97671215740352,0.0,21.94568855562178,0.0,7.8,22.27,21.44,22.45,22.09,22.74,7.84,7.8,0.0,-428.68,-403.56,1188.5,0.0,0.0,80.0,0.0,0.0,0.0,0.0,0.0,0.0,0.0,0.0,0.0,0.0,0.0,0.0,0.0,0.0
133.0,4681.0,0.0,538.1188655827295,-4194.576089006538,9413.694954589268,0.0,0.0,1797.965262189029,0.0,0.0,0.0,1797.965262189029,1.0,0.4878544326560804,0.5835180647635289,0.0,0.0,0.0,"[0.27343042913467386, 0.09701658050161299, 0.20937452456747252, 0.33127824582250653, 0.48339296574255286, 0.23666469645760912, 0.5045768102624351, 0.521595772708018]",22.27,0.0,0.0,686.4131104179054,99.36578338915241,2.213781201891984,-597.2513638976008,-545.1561982997637,0.0,0.0,0.0,0.0,0.0,0.0,0.0,8.2,22.01634387878325,0.0,22.005922970110802,0.0,8.2,22.27,21.47,22.54,22.07,22.74,8.22,8.2,0.0,-416.84,-392.41,1131.73,0.0,0.0,73.0,0.0,0.0,0.0,0.0,0.0,0.0,0.0,0.0,0.0,0.0,0.0,0.0,0.0,0.0
134.0,3226.0,0.0,632.3034913066336,-4512.051545312214,8370.355036618848,0.0,0.0,2112.655372710383,0.0,0.0,0.0,2112.655372710383,1.0,0.4878544326560804,0.6027433278696418,0.0,0.0,0.0,"[0.27343042913467386, 0.09701658050161299, 0.20937452456747252, 0.33127824582250653, 0.48339296574255286, 0.23666469645760912, 0.5045768102624351, 0.521595772708018]",22.12,0.0,0.0,626.6853360966007,69.4199308609147,1.5466142643354945,-590.620229454783,-270.12034884302153,0.0,0.0,0.0,0.0,0.0,0.0,0.0,8.2,21.99364525820784,0.0,22.039703239054845,0.0,8.2,22.12,21.5,22.58,21.98,22.66,7.9,8.2,0.0,-412.21,-388.05,1033.26,0.0,0.0,51.0,0.0,0.0,0.0,0.0,0.0,0.0,0.0,0.0,0.0,0.0,0.0,0.0,0.0,0.0
135.0,3358.0,0.0,1587.1247219500578,-427.98392483423277,5373.108646784291,0.0,0.0,5151.603049108826,0.0,0.0,0.0,5151.603049108827,1.0,0.4878544326560804,0.6045669115493703,0.0,0.0,0.0,"[0.27343042913467386, 0.09701658050161299, 0.20937452456747252, 0.33127824582250653, 0.48339296574255286, 0.23666469645760912, 0.5045768102624351, 0.521595772708018]",22.05,0.0,0.0,596.9955394160942,118.42223499803096,2.6383419803370196,-630.3077464871633,-151.6854884409243,491.90700189017963,0.0,0.0,0.0,0.0,0.0,0.0,7.2,21.98700017374147,0.0,22.056560123569035,0.0,7.2,22.05,21.52,22.59,21.95,22.62,6.52,7.2,0.0,-439.91,-414.13,984.3,0.0,0.0,87.0,0.0,0.0,0.0,0.0,0.0,0.0,0.0,0.0,0.0,0.0,0.0,0.0,0.0,0.0
136.0,1982.0,0.0,750.4654646946752,-0.0,0.0,2732.465464694675,0.0,2335.7526870103284,0.0,0.0,0.0,2335.752687010329,0.8838237472493761,0.4878544326560804,0.5094027589318015,0.0,0.0,0.0,"[0.27343042913467386, 0.09701658050161299, 0.20937452456747252, 0.33127824582250653, 0.48339296574255286, 0.23666469645760912, 0.5045768102624351, 0.521595772708018]",22.27,0.0,0.0,0.0,68.0587557459948,1.5162884944465638,-699.103096534643,-429.59580853959466,0.0,0.0,0.0,0.0,0.0,0.0,0.0,5.8,22.074551505104132,0.0,22.09014454822901,0.0,5.8,22.27,21.55,22.63,22.1,22.76,4.21,5.8,0.0,-487.92,-459.33,0.0,0.0,0.0,50.0,0.0,0.0,0.0,0.0,0.0,0.0,0.0,0.0,0.0,0.0,0.0,0.0,0.0,0.0
137.0,4009.0,0.0,0.0,-0.0,0.0,4009.0,0.0,3133.219143371026,0.0,3133.219143371026,0.0,0.0,0.7133730669772672,0.47453292269276826,0.5014169559149426,0.0,0.0,0.0,"[0.27343042913467386, 0.09701658050161299, 0.20937452456747252, 0.33127824582250653, 0.48339296574255286, 0.23666469645760912, 0.5045768102624351, 0.521595772708018]",21.76,0.0,0.0,0.0,84.39285712503357,1.8801977331137376,-694.2644371371014,244.6435348264882,1422.6657010039612,0.0,0.0,0.0,0.0,0.0,0.0,5.4,21.887675637265552,0.0,22.029299712357673,0.0,5.4,21.76,21.54,22.52,21.72,22.18,3.8,5.4,0.0,-484.55,-456.15,0.0,0.0,0.0,62.0,0.0,0.0,0.0,0.0,0.0,0.0,0.0,0.0,0.0,0.0,0.0,0.0,0.0,0.0
138.0,4064.0,9241.286432160807,0.0,-0.0,0.0,0.0,0.0,6043.903030921339,25655.4,26568.223030921345,0.0,0.0,0.7133730669772672,0.36157279075857884,0.491434702143869,20524.320000000003,5131.080000000001,25655.4,"[0.27343042913467386, 0.09701658050161299, 0.20937452456747252, 0.33127824582250653, 0.48339296574255286, 0.23666469645760912, 0.5045768102624351, 0.521595772708018]",22.27,0.0,0.0,0.0,108.89400919359169,2.4260615911145034,-733.0536740803238,-509.46327780368205,580.7285322109686,0.0,0.0,0.0,0.0,0.0,0.0,5.0,22.03618742434678,0.0,22.023066000305917,0.0,5.0,22.27,21.55,22.49,22.07,22.5,3.47,5.0,246.32,-511.62,-481.64,0.0,0.0,0.0,80.0,0.0,0.0,0.0,0.0,0.0,0.0,0.0,0.0,0.0,0.0,0.0,0.0,0.0,0.0
139.0,3292.0,0.0,0.0,-0.0,0.0,3292.0,0.0,2145.312478941489,0.0,2145.3124789414896,0.0,0.0,0.5734070805827094,0.35245156423246704,0.4674772930932922,0.0,0.0,0.0,"[0.27343042913467386, 0.09701658050161299, 0.20937452456747252, 0.33127824582250653, 0.48339296574255286, 0.23666469645760912, 0.5045768102624351, 0.521595772708018]",22.01,0.0,0.0,0.0,38.112903217757086,0.8491215568900745,-738.6894688540285,-149.2247467347212,272.71635788987453,0.0,0.0,0.0,0.0,0.0,0.0,4.6,21.9438401355434,0.0,21.99834406283149,0.0,4.6,22.01,21.55,22.44,21.87,22.29,3.14,4.6,0.0,-515.55,-485.34,0.0,0.0,0.0,28.0,0.0,0.0,0.0,0.0,0.0,0.0,0.0,0.0,0.0,0.0,0.0,0.0,0.0,0.0
140.0,3584.0,3602.0100502512564,0.0,-0.0,0.0,0.0,0.0,1036.1029659257074,0.0,1036.1029659257074,0.0,0.0,0.421026128201757,0.3436411648623505,0.4674772930932922,0.0,0.0,0.0,"[0.27343042913467386, 0.09701658050160944, 0.20937452456747252, 0.33127824582250653, 0.4833929657425564, 0.1664630961250282, 0.5045768102624351, 0.19378141934145887]",21.73,0.0,0.0,0.0,125.22811057263046,2.7899708297816774,-743.7964491567908,193.05641178412515,422.88130713122865,0.0,0.0,0.0,0.0,0.0,0.0,4.2,21.83031105293358,0.0,21.946986853635465,0.0,4.2,21.73,21.54,22.35,21.72,22.11,2.8,4.2,0.0,-519.12,-488.69,0.0,0.0,0.0,92.0,0.0,0.0,0.0,0.0,0.0,0.0,0.0,0.0,0.0,0.0,0.0,0.0,0.0,0.0
141.0,3613.0,0.0,0.0,-0.0,0.0,3613.0,0.0,4701.58374453092,0.0,4701.58374453092,0.0,0.0,0.26741218262352573,0.3236514380573721,0.4674772930932922,0.0,0.0,0.0,"[0.27343042913467386, 0.09701658050160944, 0.20937452456747252, 0.33127824582250653, 0.4833929657425564, 0.1664630961250282, 0.5045768102624351, 0.19378141934145887]",21.73,0.0,0.0,0.0,538.1656559620137,43.30519940139389,-760.7717379296311,128.70754081617685,53.06674890085064,0.0,0.0,0.0,0.0,0.0,0.0,3.8,21.799260903534766,0.0,21.897306705527487,0.0,3.8,21.73,21.52,22.27,21.71,22.08,2.47,3.8,0.0,-530.96,-499.85,0.0,109.0,0.0,338.0,0.0,0.0,0.0,0.0,0.0,0.0,0.0,0.0,0.0,0.0,0.0,0.0,0.0,0.0
142.0,3486.0,3503.5175879396984,0.0,-0.0,0.0,0.0,0.0,3470.5689821378483,0.0,3470.5689821378487,0.0,0.0,0.26741218262352573,0.3088956175550853,0.4674772930932922,0.0,0.0,0.0,"[0.27343042913467386, 0.09701658050160944, 0.20937452456747252, 0.33127824582250653, 0.4833929657425564, 0.1664630961250282, 0.5045768102624351, 0.19378141934145887]",21.73,0.0,0.0,0.0,83.03168201011367,1.8498719632248068,-777.7470267024715,62.49210663152819,630.4790228456524,0.0,0.0,0.0,0.0,0.0,0.0,3.4,21.767344637016127,0.0,21.846767149140142,0.0,3.4,21.73,21.5,22.19,21.67,22.0,2.06,3.4,0.0,-542.81,-511.0,0.0,0.0,0.0,61.0,0.0,0.0,0.0,0.0,0.0,0.0,0.0,0.0,0.0,0.0,0.0,0.0,0.0,0.0
143.0,2169.0,4275.085514017643,2084.710086447554,-0.0,0.0,0.0,0.0,5931.9856455789195,0.0,0.0,0.0,5931.985645578918,0.26741218262352573,0.3088956175550853,0.4674772930932922,0.0,0.0,0.0,"[0.27343042913467386, 0.09701658050160944, 0.20937452456747252, 0.33127824582250653, 0.4833929657425564, 0.1664630961250282, 0.5045768102624351, 0.19378141934145887]",21.73,0.0,0.0,0.0,108.89400919359169,2.4260615911145034,-794.7223154753121,17.78886484121116,1792.6431922952406,0.0,0.0,0.0,0.0,0.0,0.0,3.0,21.74586801124351,0.0,21.8133238299662,0.0,3.0,21.73,21.48,22.14,21.7,22.02,1.65,3.0,0.0,-554.66,-522.15,0.0,0.0,0.0,80.0,0.0,0.0,0.0,0.0,0.0,0.0,0.0,0.0,0.0,0.0,0.0,0.0,0.0,0.0
144.0,968.0,17053.26633165829,0.0,-0.0,0.0,-16000.0,0.0,7957.231186172288,0.0,7957.231186172289,0.0,0.0,0.920745515956859,0.27506385230775415,0.4674772930932922,0.0,0.0,0.0,"[0.27343042913467386, 0.09701658050160944, 0.20937452456747252, 0.33127824582250653, 0.4833929657425564, 0.1664630961250282, 0.5045768102624351, 0.19378141934145887]",22.27,0.0,0.0,0.0,158.03959492175213,26.504722882925954,-839.1492289105763,-744.942681089576,1401.0614282247332,0.0,0.0,0.0,0.0,0.0,0.0,2.5,21.923103746347905,0.0,21.840342639388798,0.0,2.5,22.27,21.49,22.19,22.05,22.36,1.23,2.5,0.0,-585.66,-551.34,0.0,80.0,0.0,74.0,0.0,0.0,0.0,0.0,0.0,0.0,0.0,0.0,0.0,0.0,0.0,0.0,0.0,0.0
145.0,1542.0,3658.6124193988876,2098.319357301893,-0.0,0.0,0.0,0.0,5790.675152869723,0.0,0.0,0.0,5790.675152869723,0.920745515956859,0.27506385230775415,0.4674772930932922,0.0,0.0,0.0,"[0.27343042913467386, 0.09701658050160944, 0.20937452456747252, 0.33127824582250653, 0.4833929657425564, 0.1664630961250282, 0.5045768102624351, 0.19378141934145887]",22.27,0.0,0.0,0.0,248.5219196661642,36.11799193771718,-856.1245176834167,-703.7595169357395,150.41578149987447,0.0,0.0,0.0,0.0,0.0,0.0,2.1,21.943253143099017,0.0,21.871851684497702,0.0,2.1,22.27,21.51,22.23,22.03,22.35,0.92,2.1,1045.06,-597.51,-562.5,0.0,80.0,14.0,139.0,0.0,0.0,0.0,0.0,0.0,0.0,0.0,0.0,0.0,0.0,0.0,0.0,0.0,0.0
146.0,827.0,0.0,2023.001889861594,-0.0,0.0,2850.001889861594,0.0,5486.39408670116,0.0,0.0,0.0,5486.394086701161,0.7995719662178458,0.27506385230775415,0.4674772930932922,0.0,0.0,0.0,"[0.27343042913467386, 0.09701658050160944, 0.20937452456747252, 0.33127824582250653, 0.4833929657425564, 0.1664630961250282, 0.5045768102624351, 0.19378141934145887]",21.73,0.0,0.0,0.0,184.54668926492906,34.69268075293741,-854.1358261802534,52.36141457811647,1154.5346993591545,0.0,0.0,0.0,0.0,0.0,0.0,1.6,21.763259007248212,0.0,21.84085696261964,0.0,1.6,21.73,21.5,22.19,21.68,22.0,0.5,1.6,165.76,-596.12,-561.19,0.0,80.0,14.0,92.0,0.0,0.0,0.0,0.0,0.0,0.0,0.0,0.0,0.0,0.0,0.0,0.0,0.0,0.0
147.0,522.0,1827.8073177455403,1296.6682811568126,-0.0,0.0,0.0,0.0,6931.2726566762,0.0,3439.423043722546,0.0,3491.849612953655,0.7995719662178458,0.26044045501301544,0.4674772930932922,0.0,0.0,0.0,"[0.27343042913467386, 0.09701658050160944, 0.20937452456747252, 0.33127824582250653, 0.4833929657425564, 0.1664630961250282, 0.5045768102624351, 0.19378141934145887]",22.0,0.0,0.0,0.0,142.13533831584598,27.778405218261067,-874.3627301646757,-357.98768313441497,494.00509233368587,0.0,0.0,0.0,0.0,0.0,0.0,1.4,21.84101233208527,0.0,21.836260194303563,0.0,1.4,22.0,21.49,22.18,21.89,22.21,0.27,1.4,726.7,-610.24,-574.48,0.0,80.0,3.0,62.0,0.0,0.0,0.0,0.0,0.0,0.0,0.0,0.0,0.0,0.0,0.0,0.0,0.0,0.0
148.0,654.0,0.0,3426.3738488890704,-0.0,0.0,4080.3738488890704,0.0,9161.6891373467,0.0,0.0,0.0,9161.6891373467,0.6260866835269839,0.26044045501301544,0.4674772930932922,0.0,0.0,0.0,"[0.27343042913467386, 0.09701658050160944, 0.20937452456747252, 0.33127824582250653, 0.4833929657425564, 0.1664630961250282, 0.5045768102624351, 0.19378141934145887]",21.73,0.0,0.0,0.0,54.44700459679584,1.2130307955572517,-871.1111149530939,8.093514289104421,1934.3180946040027,0.0,0.0,0.0,0.0,0.0,0.0,1.2,21.741953841957095,0.0,21.808651202354437,0.0,1.2,21.73,21.48,22.14,21.7,22.01,0.16,1.2,144.88,-607.97,-572.34,0.0,0.0,0.0,40.0,0.0,0.0,0.0,0.0,0.0,0.0,0.0,0.0,0.0,0.0,0.0,0.0,0.0,0.0
149.0,704.0,0.0,0.0,-0.0,0.0,704.0,0.0,4202.382401551219,0.0,4202.382401551219,0.0,0.0,0.5961547107378683,0.2425731828975766,0.4674772930932922,0.0,0.0,0.0,"[0.27343042913467386, 0.09701658050160944, 0.20937452456747252, 0.33127824582250653, 0.4833929657425564, 0.1664630961250282, 0.5045768102624351, 0.19378141934145887]",22.27,0.0,0.0,0.0,95.28225804439273,2.1228038922251877,-907.050384001938,-752.1372393104065,435.01256060539106,0.0,0.0,0.0,0.0,0.0,0.0,0.9,21.920321263869884,0.0,21.837847939922945,0.0,0.9,22.27,21.48,22.19,22.06,22.38,-0.1,0.9,0.0,-633.05,-595.96,0.0,0.0,0.0,70.0,0.0,0.0,0.0,0.0,0.0,0.0,0.0,0.0,0.0,0.0,0.0,0.0,0.0,0.0
150.0,1145.0,6978.955301296324,0.0,-0.0,0.0,-5799.060524789843,0.0,7297.269825546976,0.0,7297.269825546975,0.0,0.0,0.8329496821667869,0.2115473758161694,0.4674772930932922,0.0,0.0,0.0,"[0.27343042913467386, 0.09701658050160944, 0.20937452456747252, 0.33127824582250653, 0.4833929657425564, 0.1664630961250282, 0.5045768102624351, 0.19378141934145887]",21.73,0.0,0.0,0.0,117.06105988311108,2.6080162104480924,-888.0864037259342,12.752092444169882,1882.7054401010555,0.0,0.0,0.0,0.0,0.0,0.0,0.8,21.744378774969725,0.0,21.813698970715837,0.0,0.8,21.73,21.47,22.16,21.68,22.0,-0.14,0.8,0.0,-619.82,-583.5,0.0,0.0,0.0,86.0,0.0,0.0,0.0,0.0,0.0,0.0,0.0,0.0,0.0,0.0,0.0,0.0,0.0,0.0
151.0,1889.0,0.0,0.0,-0.0,0.0,1889.0,0.0,6165.304747589236,0.0,6165.304747589236,0.0,0.0,0.7526350563164468,0.18533434542675936,0.4674772930932922,0.0,0.0,0.0,"[0.27343042913467386, 0.09701658050160944, 0.20937452456747252, 0.33127824582250653, 0.4833929657425564, 0.1664630961250282, 0.5045768102624351, 0.19378141934145887]",22.27,0.0,0.0,0.0,69.4199308609147,1.5466142643354945,-919.7818505815682,-750.5520971461038,472.5644923531824,0.0,0.0,0.0,0.0,0.0,0.0,0.6,21.921207095110358,0.0,21.84041285554774,0.0,0.6,22.27,21.48,22.2,22.06,22.38,-0.32,0.6,675.19,-641.94,-604.32,0.0,0.0,0.0,51.0,0.0,0.0,0.0,0.0,0.0,0.0,0.0,0.0,0.0,0.0,0.0,0.0,0.0,0.0
