,import_elec,import_th,consum_elec,consum_th,consum_cold,pow_elec_hp,pow_th_hp,pow_th_gb,pow_th_chp,pow_gas_gb,pow_elec_eh,pow_elec_ac,pow_elec_chp,pow_th_eh_in,pow_th_eh_out,consum_dhw,gen_pv,trans_to_hub,trans_to_bul,dh_to_bul_1,dh_to_bul_2,temp_zone_1,temp_zone_2,temp_amb,pow_elec_bat,pow_th_tes,soc_bat_avg,soc_tes_avg,soc_ev_1,soc_ev_2,consum_ev_drive,consum_ev_charge,soc_ev_1_driving,soc_ev_2_driving,obj_cost,obj_co2,obj_peak,emi_factor_elec,emi_factor_dh,price_elec,price_dh,slack_ext,restload_avg,renovation_cost_construction,renovation_cost_hp,renovation_cost_pv,renovation_cost_total
8.0,1686702.0340720601,0.0,69287.0,2838474.354738914,0.0,1519878.3748946744,2528078.52276574,0.0,0.0,0.0,148289.51770124107,0.0,0.0,593158.0708049643,741447.5885062054,28507.02,0.0,0.0,1686702.0340720604,0.0,,20.0,,-9.4,59186.36869421542,204872.14564205613,0.35744685202317394,0.4585211885240411,0.8,,0.0,0.0,0.09882005899705015,,303.62323315331156,8433.5101703603,1686702.0340720601,5.0,77.0,0.01,91.52000000000001,,,8462290.805216001,559077.9379360406,1644606.4381736678,10665975.181325706
9.0,800977.4473658518,0.0,82052.0,1798802.9224151159,0.0,670657.4355069407,1166681.7807680129,0.0,0.0,0.0,11612.119639620365,0.0,0.0,46448.47855848146,58060.59819810182,0.0,309.1126808240767,0.0,800977.4473658517,0.0,,20.0,,-8.6,-32960.11766328556,621670.2339714445,0.44024400151783283,0.340614671596772,0.8,,0.0,0.0,0.13126843657817108,,144.18395030032698,4004.887236829259,800977.4473658518,5.0,79.0,0.01,91.52000000000001,,,,,,
10.0,1129816.2177208539,0.0,109330.0,1547898.4225688977,23405.612434788218,678643.5347545879,1245271.6425716311,0.0,0.0,0.0,65673.51389073017,11702.806217394109,0.0,262694.0555629207,328367.5694536508,42916.92,15448.341916689384,0.0,1129816.2177208543,0.0,,24.0,,-7.6,14031.570096378971,285579.19909561076,0.4403729111093475,0.3001536435414056,0.9734513274336284,,0.0,-300000.0,0.2713864306784661,,203.38951551410813,5649.08108860427,1129816.2177208539,5.0,82.0,0.02,91.52000000000001,,,,,,
11.0,1130101.7419740506,0.0,155740.0,1714105.551877517,57737.564856330915,979147.2700653207,1871354.7110455798,0.0,0.0,0.0,6758.2080000000005,28868.782428165458,0.0,27032.832000000002,33791.04,33791.04,42875.801929513436,0.0,1130101.7419740506,0.0,,24.0,,-6.8,-25681.55712837324,-130216.32716806325,0.5142422346885783,0.3238617674668418,0.9734513274336284,,0.0,0.0,0.34513274336283184,,203.50872169468707,4520.406967896202,1130101.7419740506,4.0,85.0,0.08,91.52000000000001,,,,,,
12.0,690461.1494659185,0.0,155636.0,1247456.8971890947,0.0,525199.6828471588,1033807.5040266832,0.0,0.0,0.0,83219.2844459628,0.0,0.0,332877.1377838512,416096.42222981394,38034.24,92453.65374194663,0.0,690461.1494659185,0.0,,21.87967715711877,,-6.2,-15407.53016741413,176025.59236104524,0.5806107171433242,0.31385497100432175,0.9734513274336284,,34200.0,0.0,0.38495575221238937,,124.34514840731727,2761.844597863674,690461.1494659185,4.0,86.0,0.09,91.52000000000001,,,,,,
13.0,785355.3199473674,0.0,139377.0,1227107.334568292,146943.51850200703,605584.8454967391,1197811.5652071992,0.0,0.0,0.0,0.0,73471.75925100352,0.0,0.0,0.0,0.0,18108.070853137448,0.0,785355.3199473674,0.0,,20.084163584151103,,-6.1,-54574.768704028604,29295.76936109233,0.6271496912191248,0.3197103917002343,0.9691168502799351,,74100.0,0.0,0.35250737463126847,,141.44249312252086,3141.4212797894697,785355.3199473674,4.0,87.0,0.1,91.53,,,,,,
14.0,845209.0382097675,0.0,110966.0,1338590.2850603918,78384.92702286507,706320.4981050724,1363392.9705497276,0.0,0.0,0.0,6204.6140000000005,39192.463511432536,0.0,24818.456000000002,31023.07,31023.07,209.14370235410638,0.0,845209.0382097675,0.0,,20.0,,-6.6,44929.1294864566,15.770510663653113,0.5427679664420808,0.31928358483789687,1.0,,28350.0,-62630.15410245717,0.29646017699115046,,152.298216595018,4226.045191048837,845209.0382097675,5.0,88.0,0.19,91.53999999999999,,,,,,
15.0,359053.62843285606,0.0,93163.0,948844.3070810167,0.0,341700.583800065,636773.4214500156,0.0,0.0,0.0,12880.954,0.0,0.0,51523.816,64404.770000000004,19304.77,0.0,0.0,359053.6284328562,0.0,,20.0,,-7.3,90486.17750937311,319396.70163100085,0.44661105448504823,0.29543466884198033,0.996297634097887,,52950.0,0.0,0.2743362831858407,,64.69787330731633,1795.26814216428,359053.62843285606,5.0,89.0,0.19,91.53999999999999,,,,,,
16.0,424113.0105913577,0.0,87131.0,904901.042673569,0.0,343183.07325259555,642807.772504753,0.0,0.0,0.0,24548.077965351218,0.0,0.0,98192.31186140487,122740.38982675609,0.0,0.0,0.0,424113.0105913576,0.0,,24.0,,-7.2,32869.705679545885,240000.0,0.4384281343748227,0.2873361913557477,0.9866353621094456,,114750.0,0.0,0.20501474926253688,,76.45485241930406,2120.5650529567883,424113.0105913577,5.0,96.0,0.27,91.55,,,,,,
17.0,669444.0172662704,0.0,122923.0,1015041.4637254863,8191.781756606462,583828.1625353722,1104685.7956672981,0.0,0.0,0.0,0.0,4095.890878303231,0.0,0.0,0.0,0.0,0.0,0.0,669444.0172662704,0.0,,20.755879570152256,,-7.0,40654.3653554333,-89644.33194181159,0.35924375555562654,0.3017551546228792,0.9860935524652339,,54000.0,0.0,0.19174041297935104,,124.8713925406774,2677.7760690650816,669444.0172662704,4.0,99.0,6.53,91.56,,,,,,
18.0,749144.6198788444,0.0,146883.0,921016.0959291516,0.0,624212.2976022098,1187049.1217487007,0.0,0.0,0.0,0.0,0.0,0.0,0.0,0.0,0.0,0.0,0.0,749144.619878844,0.0,,24.0,,-6.9,25696.400822758653,-266033.0258195485,0.2815121221276192,0.3220437845817257,0.9801336463789055,,42600.0,0.0,0.11946902654867256,,144.02305317170783,2996.5784795153772,749144.6198788444,4.0,97.0,12.25,91.56,,,,,,
19.0,770862.3293548005,0.0,155233.0,903497.0926510406,0.0,531397.4047572423,1015611.3050935841,0.0,0.0,0.0,21975.836442511532,0.0,0.0,87903.34577004613,109879.18221255766,0.0,0.0,0.0,770862.3293548006,0.0,,24.0,,-6.8,-58401.776508272684,-131892.46524080427,0.3150856312275804,0.3330409392062964,0.9757088676178436,,54450.0,0.0,0.07374631268436578,,146.57176330352175,3083.449317419202,770862.3293548005,4.0,94.0,10.14,91.55,,,,,,
20.0,413767.26652185293,0.0,163615.0,241984.94337545848,0.0,140692.68149514083,271575.599848628,0.0,0.0,0.0,5635.3060000000005,0.0,0.0,22541.224000000002,28176.53,28176.53,0.0,0.0,413767.26652185293,0.0,,21.280279688577856,,-6.6,-101755.44269410279,-7049.432473169518,0.5160190019272438,0.3587539837566715,0.9702907711757269,,69000.0,0.0,0.045722713864306784,,74.77602040582926,1655.0690660874118,413767.26652185293,4.0,91.0,0.72,91.53999999999999,,,,,,
21.0,1039532.0189510863,0.0,149252.0,1598621.1136853346,154652.37443698084,864566.7003882998,1677093.8766689573,0.0,0.0,0.0,149.5231317832767,77326.18721849042,0.0,598.0925271331068,747.6156589163835,0.0,0.0,0.0,1039532.0189510864,0.0,,21.49689725699933,,-6.5,-20366.135336250685,-78607.33380222747,0.4676426335517852,0.35858037915816315,0.9702907711757269,,20250.0,0.0,0.045722713864306784,,187.48999493801796,4158.128075804345,1039532.0189510863,4.0,94.0,0.36,91.55,,,,,,
22.0,684667.0713041456,0.0,110385.0,1063272.9251014704,1848.2803251404187,485123.7427044677,950296.8504987679,0.0,0.0,0.0,45517.487028180374,924.1401625702093,0.0,182069.9481127215,227587.43514090186,0.0,0.0,0.0,684667.0713041457,0.0,,21.280279688577856,,-6.3,-40217.506214977024,72010.33627733961,0.5101901025599354,0.34501769782352054,0.9702907711757269,,32400.0,0.0,0.045722713864306784,,123.370159578294,2738.6682852165823,684667.0713041456,4.0,95.0,0.19,91.55,,,,,,
23.0,598628.0332916669,0.0,79276.0,1025214.2832337181,27573.320808938362,363937.510057121,716377.6772563859,0.0,0.0,0.0,153441.09814456257,13786.660404469181,0.0,613764.3925782503,767205.4907228128,0.0,0.0,0.0,598628.0332916669,0.0,,21.280279688577856,,-6.2,1019.7150764749349,170739.61764722667,0.5031977457723172,0.3137664007307989,0.9615315152609717,,53100.0,0.0,0.016224188790560472,,107.86079903849254,2993.140166458334,598628.0332916669,5.0,91.0,0.18,91.55,,,,,,
24.0,767686.1467480584,0.0,60882.0,1116557.826742978,74614.83305009609,689578.2149809455,1363945.5596706483,0.0,0.0,0.0,58290.748,37307.416525048044,0.0,233162.992,291453.74,291453.74,0.0,0.0,767686.1467480585,0.0,,22.719720311422144,,-6.1,44903.24696662626,-14224.7409276705,0.45065290122028334,0.3141394955952733,0.9615315152609717,,21000.0,0.0,0.016224188790560472,,138.20653699905296,3070.7445869922335,767686.1467480584,4.0,85.0,0.03,91.53999999999999,,,,,,
25.0,268200.78788058687,0.0,52437.0,690487.6498361932,0.0,213386.92289720653,424101.1924085954,0.0,0.0,0.0,16790.37750203928,0.0,0.0,67161.51000815711,83951.8875101964,0.0,0.0,0.0,268200.78788058687,0.0,,22.719720311422144,,-6.0,15754.516458061848,251275.11767576265,0.451747768650465,0.2946123064252522,0.9615315152609717,,0.0,0.0,0.016224188790560472,,48.27882382638444,1341.0039394029343,268200.78788058687,5.0,82.0,0.01,91.53999999999999,,,,,,
26.0,318862.6710656582,0.0,38667.0,750368.8141395455,0.0,273170.10375045304,550731.4180633978,0.0,0.0,0.0,31381.915999999997,0.0,0.0,125527.66399999999,156909.58,156909.58,0.0,0.0,318862.67106565816,0.0,,21.280279688577856,,-5.7,25950.66204012296,325165.0600761478,0.37962794525427923,0.2586710485868058,0.9563843236409607,,36000.0,0.0,0.011799410029498525,,57.398469418529125,1594.313355328291,318862.6710656582,5.0,80.0,0.01,91.53999999999999,,,,,,
27.0,503798.9398550019,0.0,35396.0,750807.3313884417,0.0,264006.31277950667,537290.234543418,0.0,0.0,0.0,104441.69794285804,0.0,0.0,417766.79177143215,522208.48971429013,0.0,0.0,0.0,503798.9398550018,0.0,,22.719720311422144,,-5.5,-21998.61664910419,119519.56869645111,0.41634104731670984,0.2542865303037253,1.0,,7200.0,-75437.31778425808,0.011799410029498525,,90.68380917390034,2518.9946992750097,503798.9398550019,5.0,81.0,0.0,91.53999999999999,,,,,,
28.0,636427.2695948603,0.0,34490.0,721266.0614509337,0.0,362564.17583590024,741325.8789821275,0.0,0.0,0.0,204081.63265306124,0.0,0.0,816326.530612245,1020408.1632653062,0.0,0.0,0.0,636427.2695948601,0.0,,21.55512275906469,,-5.4,-32109.324757924434,-203733.28691894893,0.455336445615024,0.28399600616264575,0.986725663716815,,88200.0,0.0,0.0,,114.67146543560193,3182.1363479743013,636427.2695948603,5.0,90.0,0.18,91.57,,,,,,
29.0,469566.2732417071,0.0,38411.0,691128.4697536797,0.0,297201.70162232267,613347.496989569,0.0,0.0,0.0,164068.19085596618,0.0,0.0,656272.7634238647,820340.9542798309,8751.93,0.0,0.0,469566.27324170707,0.0,,22.719720311422144,,-5.2,32462.450602790268,-61303.50760625842,0.46543718333650747,0.29470885587758483,0.986725663716815,,0.0,0.0,0.0,,86.93080416523723,2347.8313662085357,469566.2732417071,5.0,105.0,5.13,92.05,,,,,,
30.0,320495.2595198068,0.0,52131.0,526743.0853626843,0.0,224255.9503958963,464944.22091358865,0.0,0.0,0.0,24154.54987113348,0.0,0.0,96618.19948453392,120772.7493556674,23279.17,0.0,0.0,320495.2595198068,0.0,,21.280279688577856,,-5.1,-18351.28295517798,62873.35616507558,0.5259195248162966,0.2831273774038821,0.986725663716815,,0.0,0.0,0.0,,64.45800659462354,1602.4762975990338,320495.2595198068,5.0,119.0,21.12,94.75999999999999,,,,,,
31.0,365644.83842832095,0.0,54227.0,555005.553567011,0.0,295859.2697279175,616218.0989542478,0.0,0.0,0.0,63202.40825479846,0.0,0.0,252809.63301919383,316012.0412739923,187551.86,0.0,0.0,365644.8384283208,0.0,,22.228259672513865,,-5.0,49472.06374653666,65706.10998344445,0.45514036316239287,0.27861961168177946,0.986725663716815,,0.0,0.0,0.0,,85.26837632148444,7678.54160699474,365644.83842832095,21.0,129.0,53.2,96.11,,,,,,
32.0,213400.90238916886,0.0,65818.0,90136.40603227173,0.0,93554.87713725318,196640.63550805437,0.0,0.0,0.0,0.0,0.0,0.0,0.0,0.0,0.0,0.0,0.0,213400.9023891689,0.0,,22.719720311422144,,-4.8,-52961.020739969885,-106504.22947578272,0.6320448217680701,0.31366529520894726,0.986725663716815,,0.0,0.0,0.01032448377581121,,54.27211749561342,9176.23880273426,213400.90238916886,43.0,169.0,74.32,91.72,,,,,,
33.0,378881.40807333146,0.0,91985.0,657420.3181423107,13624.177843013451,248184.372701124,545312.6482387978,0.0,0.0,0.0,16391.406711677104,6812.0889215067255,0.0,65565.62684670842,81957.03355838552,20334.97,293.81152601583824,0.0,378881.4080733315,0.0,,21.31075943244833,,-3.8,2239.150527288275,117283.6744630037,0.5965175078264177,0.3096212008354719,1.0,,0.0,-22959.183673467887,0.03392330383480826,,96.35711970120965,15155.256322933257,378881.40807333146,40.0,168.0,74.32,91.74000000000001,,,,,,
34.0,501250.33947262616,0.0,106474.0,762857.1091440297,902.148949326607,282841.9974789435,651123.2681357189,0.0,0.0,0.0,170810.2087365618,451.0744746633035,0.0,683240.8349462472,854051.043682809,84460.0,4939.076712440339,0.0,501250.3394726261,0.0,,22.719720311422144,,-2.7,56443.04172780195,40775.45314540564,0.48872659087937687,0.2940225572497069,1.0,,0.0,0.0,0.05752212389380531,,127.47798633467829,19548.76323943242,501250.33947262616,39.0,166.0,74.32,91.75,,,,,,
35.0,466336.85091295966,0.0,149396.0,630026.3666185684,9137.957882793376,235843.3350235909,565412.5282563787,0.0,0.0,0.0,48073.311152856106,4568.978941396688,0.0,192293.24461142442,240366.55576428052,0.0,24062.603974953952,0.0,466336.8509129599,0.0,,22.719720311422144,,-1.7,-54755.12445690194,21347.858324619472,0.5625177587012162,0.28970042849917654,1.0,,0.0,0.0,0.08997050147492625,,118.5987879241839,17720.800334692467,466336.85091295966,38.0,165.0,74.32,91.78,,,,,,
36.0,442217.9997111892,0.0,155092.0,710365.9693997198,42268.00989438203,314433.2232106514,774807.6171960073,0.0,0.0,0.0,0.0,21134.004947191013,0.0,0.0,0.0,0.0,33984.432958609716,0.0,442217.9997111891,0.0,,21.54184517891839,,-1.0,-4466.119460592818,-64441.64779628722,0.5145846835491381,0.2893956464967977,1.0,,0.0,0.0,0.10176991150442477,,112.46488168654963,16804.28398902519,442217.9997111892,38.0,164.0,74.32,91.84,,,,,,
37.0,399449.296981926,0.0,133187.0,610439.9800343856,1598.748580011041,295976.72812382027,737793.1324374503,0.0,0.0,0.0,15460.862000000001,799.3742900055205,0.0,61843.448000000004,77304.31,77304.31,9941.227623027782,0.0,399449.2969819261,0.0,,21.280279688577856,,-0.7,37231.31200377601,-65509.70440306475,0.45579698099216887,0.29793379740627085,0.9926855698031425,,90000.0,0.0,0.14454277286135692,,101.58794520844341,15179.073285313189,399449.296981926,38.0,162.0,74.32,91.84,,,,,,
38.0,410560.6919273206,0.0,105852.0,544928.0640134306,124.84846416755148,299272.67396626325,728890.7201610621,0.0,0.0,0.0,9416.64,62.42423208377574,0.0,37666.56,47083.2,47083.2,9.963167547039804,0.0,410560.6919273206,0.0,,22.719720311422144,,-1.3,6023.462331032075,-146296.0961476315,0.470885004943914,0.302773353508478,0.9926855698031425,,8550.0,0.0,0.19911504424778761,,101.40027969220966,15601.306293238182,410560.6919273206,38.0,161.0,66.98,91.84,,,,,,
39.0,264693.1919823524,0.0,91064.0,431628.180362761,0.0,204466.164009313,486290.1926706688,0.0,0.0,0.0,0.0,0.0,0.0,0.0,0.0,0.0,0.0,0.0,264693.1919823524,0.0,,22.719720311422144,,-1.9,32160.437986872366,-54662.01230790773,0.46090845787958595,0.3239481178762937,0.9872674733610258,,176550.0,0.0,0.24041297935103245,,67.31147872111222,9793.648103347039,264693.1919823524,37.0,164.0,74.3,91.84,,,,,,
40.0,305225.470545101,0.0,89856.0,357700.9892108778,2483.403626396196,184562.46027840805,435433.4235371086,0.0,0.0,0.0,0.0,1241.701813198098,0.0,0.0,0.0,0.0,0.0,0.0,305225.470545101,0.0,,21.678525103308598,,-2.1,-29280.882913967474,-77732.43432623087,0.5481341187149396,0.34531459906515305,0.9872674733610258,,24750.0,0.0,0.25073746312684364,,77.62494166903008,10988.116939623635,305225.470545101,36.0,164.0,74.32,91.84,,,,,,
41.0,400415.53019814356,0.0,116208.0,528031.3417585763,2972.451871336697,319660.36305132025,748071.5593683115,0.0,0.0,0.0,0.0,1486.2259356683485,0.0,0.0,0.0,0.0,0.0,0.0,400415.5301981436,0.0,,22.719720311422144,,-2.3,37454.91050416732,-220040.21760973518,0.4720019914041215,0.3734088389090213,0.984919631569442,,19800.0,0.0,0.2345132743362832,,101.83367763999188,14014.543556935025,400415.53019814356,35.0,164.0,74.32,91.85,,,,,,
42.0,642452.3515321051,0.0,156438.0,754817.5300643324,97909.20200733596,436672.5132495006,1013578.3974863872,0.0,0.0,0.0,13215.038,48954.60100366798,0.0,52860.152,66075.19,66075.19,0.0,0.0,642452.3515321051,0.0,,22.029429662480428,,-2.5,-32914.53852494414,-205900.7154220546,0.4591936292281444,0.37638572912754686,0.952862560953585,,164700.0,0.0,0.1799410029498525,,163.38848204164498,21843.379952091575,642452.3515321051,34.0,165.0,74.32,91.77000000000001,,,,,,
43.0,517010.4944634924,0.0,164162.0,512491.5085358868,9323.791325724846,165326.426699697,380593.7032739314,0.0,0.0,0.0,203768.4720572334,4661.895662862423,0.0,815073.8882289336,1018842.360286167,36095.17,0.0,0.0,517010.4944634923,0.0,,21.280279688577856,,-2.7,18831.45676575558,-16120.552989554797,0.38915547637216075,0.3672725199599193,0.9356149539461803,,74100.0,0.0,0.11799410029498525,,131.48093884701078,18095.367306222233,517010.4944634924,35.0,166.0,74.31,91.75999999999999,,,,,,
44.0,423503.1914045969,0.0,166276.0,222582.7917431649,168.17593725607932,185669.13134698087,423884.0374034626,0.0,0.0,0.0,0.0,84.08796862803966,0.0,0.0,0.0,0.0,0.0,0.0,423503.1914045969,0.0,,21.280279688577856,,-2.9,-69440.54410059348,-201301.24566029772,0.493809101102015,0.40088960312120814,0.9334477153693336,,31500.0,0.0,0.1135693215339233,,99.04045634187904,9740.573402305728,423503.1914045969,23.0,125.0,53.86,95.97999999999999,,,,,,
45.0,658809.1863214434,0.0,158556.0,754263.315519737,21295.977973469006,164214.2067119589,371771.2726115986,0.0,0.0,0.0,322032.1789253225,10647.988986734503,0.0,1288128.71570129,1610160.8946266123,0.0,0.0,0.0,658809.1863214433,0.0,,21.280279688577856,,-3.1,-10712.754752556571,92663.08187534874,0.4380184272869667,0.37122989391226174,0.9233339353440492,,117150.0,0.0,0.045722713864306784,,133.90296711983336,3294.0459316072174,658809.1863214434,5.0,94.0,23.25,95.03,,,,,,
46.0,391900.1017529535,0.0,111584.0,637109.2898718222,66080.52441996023,265144.2661008621,595215.5671901192,0.0,0.0,0.0,8992.896689028821,33040.262209980116,0.0,35971.586756115285,44964.483445144106,0.0,0.0,0.0,391900.10175295343,0.0,,22.719720311422144,,-3.3,-4219.438454298368,33800.1156615774,0.4586554988517778,0.3788524691025954,0.9233339353440492,,43500.0,0.0,0.045722713864306784,,79.63018167518261,1567.600407011814,391900.1017529535,4.0,99.0,23.19,94.97999999999999,,,,,,
47.0,301188.17621233367,0.0,77971.0,664564.9456807312,1109.37827353338,152981.86491077498,341966.64447026193,0.0,0.0,0.0,133139.47864790793,554.68913676669,0.0,532557.9145916317,665697.3932395396,17220.08,0.0,0.0,301188.1762123337,0.0,,22.719720311422144,,-3.4,64410.10822741091,219648.44882735214,0.33003278792479035,0.36219475452003175,0.9233339353440492,,13500.0,0.0,0.045722713864306784,,57.75885655223923,1505.9408810616683,301188.17621233367,5.0,95.0,11.77,93.72,,,,,,
48.0,416942.0666901718,0.0,59497.0,609731.0506821155,0.0,207108.3352537848,439264.63837396016,0.0,0.0,0.0,163910.9481220246,0.0,0.0,655643.7924880984,819554.7406101229,0.0,0.0,0.0,416942.0666901717,0.0,,21.5301406346766,,-4.6,15658.927019088613,22946.55899833315,0.3287882835810541,0.35508015527698933,0.9233339353440492,,73500.0,0.0,0.045722713864306784,,79.09391005112558,2084.710333450859,416942.0666901718,5.0,92.0,9.7,93.50999999999999,,,,,,
49.0,429826.83029792446,0.0,59857.0,693892.6527315741,45308.9793530458,211453.24478316773,424289.7526873403,0.0,0.0,0.0,103861.64586460603,22654.4896765229,0.0,415446.58345842414,519308.22932303016,0.0,0.0,0.0,429826.83029792435,0.0,,22.719720311422144,,-5.8,-52505.80549866102,176127.4187660887,0.43780563682002405,0.3401417541633946,0.9100595990608633,,93000.0,0.0,0.0,,77.38172425853534,2149.134151489622,429826.83029792446,5.0,93.0,0.03,92.62,,,,,,
50.0,402909.6967995776,0.0,44749.0,487576.6613748583,415.2578232240028,244934.2854153048,463450.45226182253,0.0,0.0,0.0,70436.39635000279,207.6289116120014,0.0,281745.58540001116,352181.9817500139,0.0,0.0,0.0,402909.6967995776,0.0,,21.528699531323433,,-7.0,-40775.46655027213,-39266.54760196664,0.5348414535128538,0.33540370348527604,0.9100595990608633,,0.0,0.0,0.0,,72.52777452089197,2014.548483997888,402909.6967995776,5.0,93.0,0.01,92.62,,,,,,
51.0,288045.89062254777,0.0,34388.0,556187.057650883,0.0,285831.9627363517,524485.1229075437,0.0,0.0,0.0,0.0,0.0,0.0,0.0,0.0,0.0,0.0,0.0,288045.8906225479,0.0,,21.280279688577856,,-7.6,33614.30156691663,31701.934743339443,0.5177929845599402,0.3443031083459491,0.9100595990608633,,0.0,0.0,0.0,,51.85114077096482,1440.2294531127386,288045.89062254777,5.0,95.0,0.01,92.62,,,,,,
52.0,374090.20950422774,0.0,35471.0,554689.5010540173,140.5736051385638,218478.11666491773,386314.97767452017,0.0,0.0,0.0,208952.59865306126,70.2868025692819,0.0,835810.394612245,1044762.9932653061,24354.83,0.0,0.0,374090.2095042277,0.0,,21.280279688577856,,-8.3,90681.9568612724,4184.917991742543,0.39306126416569664,0.33082378930519496,0.9100595990608633,,0.0,0.0,0.0,,67.33997861285603,1870.4510475211387,374090.20950422774,5.0,100.0,0.01,92.64,,,,,,
53.0,356748.61730990553,0.0,39869.0,443278.72987586615,10.207001795205672,297505.9720746761,509035.45044791343,0.0,0.0,0.0,28578.553096675634,5.103500897602836,0.0,114314.21238670254,142892.76548337817,0.0,0.0,0.0,356748.6173099056,0.0,,22.719720311422144,,-8.9,10988.65094799569,-91477.41835905497,0.41939909557688604,0.33517853705661665,0.9100595990608633,,0.0,0.0,0.0,,64.2183186019561,1426.994469239622,356748.61730990553,4.0,110.0,0.01,92.86,,,,,,
54.0,361997.78582284163,0.0,46611.0,505151.1784168807,0.0,376927.44843189593,626959.5006821528,0.0,0.0,0.0,8208.733458537685,0.0,0.0,32834.93383415074,41043.66729268842,0.0,0.0,0.0,361997.78582284163,0.0,,22.2214395225778,,-9.4,71559.38499670614,-129196.18237795608,0.2907064760908081,0.34892332772870693,0.9100595990608633,,0.0,0.0,0.0,,65.16322142596972,1447.9911432913666,361997.78582284163,4.0,120.0,0.01,92.92,,,,,,
55.0,575918.3709867081,0.0,55714.0,603778.5826080143,461.7441167525143,413187.20942528243,667576.7052490149,0.0,0.0,0.0,75692.35380467669,230.87205837625714,0.0,302769.41521870677,378461.7690233835,106500.85,0.0,0.0,575918.3709867083,0.0,,21.280279688577856,,-9.9,-28445.215901815507,-27550.40806520903,0.33953304617263236,0.34164661514334954,0.9100595990608633,,0.0,0.0,0.0,,103.67106596131731,2303.673483946832,575918.3709867081,4.0,127.0,0.01,92.92,,,,,,
56.0,443936.5166963932,0.0,69299.0,261305.82873495508,423.4722768133736,272368.0213742682,445251.6424643633,0.0,0.0,0.0,11985.480643334937,211.7361384066868,0.0,47941.92257333975,59927.40321667468,27318.12,0.0,0.0,443936.51669639314,0.0,,22.719720311422144,,-9.7,-88064.33209530816,-167960.98870840983,0.3529960416419442,0.39472164063590137,0.9100595990608633,,0.0,0.0,0.0,,79.97072411768826,1775.7460667855728,443936.5166963932,4.0,126.0,0.14,92.92,,,,,,
57.0,479117.81694948213,0.0,76362.0,481323.6016093758,444.39193407421976,266269.2415444544,496203.9399510406,0.0,0.0,0.0,209917.5810255495,222.19596703710988,0.0,839670.324102198,1049587.9051277475,0.0,134134.13055538983,0.0,479117.81694948213,0.0,,21.367694071596524,,-7.3,-37459.352504941315,-203806.16126465914,0.39446442097024476,0.41023923883929037,0.9100595990608633,,0.0,-20848.18334517929,0.0,,86.3082835452797,1437.3534508484463,479117.81694948213,3.0,126.0,0.14,92.92,,,,,,
58.0,139892.93084995353,0.0,114096.0,368262.8809872209,10314.098498909718,183862.32315327856,379444.31368047226,0.0,0.0,0.0,49419.15983665955,5157.049249454859,0.0,197676.6393466382,247095.79918329776,0.0,301358.1891124045,0.0,139892.93084995355,0.0,,22.719720311422144,,-5.2,-36912.41209774226,-55658.67654624496,0.43848225780046396,0.42019135463972596,0.9100595990608633,,0.0,-56261.76022042788,0.028023598820058997,,25.18492434091713,419.6787925498606,139892.93084995353,3.0,128.0,0.03,92.91,,,,,,
59.0,319320.18352101545,0.0,155896.0,608355.2241239194,92745.90112275888,331192.35041907936,740327.8605152805,0.0,0.0,0.0,158728.59397920227,46372.95056137944,0.0,634914.3759168091,793642.9698960113,239569.1,433629.07983900723,0.0,319320.18352101545,0.0,,22.719720311422144,,-3.4,-25811.872424726644,-40050.652972643584,0.48792367246004,0.43543788570745495,0.9100595990608633,,0.0,-79723.84561940942,0.08407079646017698,,57.4840194374532,957.9605505630464,319320.18352101545,3.0,129.0,0.02,92.91,,,,,,
60.0,24299.89420424147,0.0,148380.0,366949.3619040975,21230.203671741325,157911.26673818936,368039.7044580156,0.0,0.0,0.0,76538.10787523349,10615.10183587066,0.0,306152.43150093395,382690.53937616746,11802.45,474310.68080396485,0.0,24299.89420424147,0.0,,21.68062304417648,,-2.4,-44777.23851122254,-58408.23864162814,0.5445415152958946,0.4637506471489586,0.9100595990608633,,0.0,-70882.46241253971,0.13716814159292035,,4.3742239557055065,72.89968261272442,24299.89420424147,3.0,129.0,0.01,92.91,,,,,,
61.0,76456.99381812064,0.0,136052.0,345591.70888163766,27416.826786212205,174195.10102154536,410973.98185300257,0.0,0.0,0.0,36191.59013453833,13708.413393106104,0.0,144766.36053815333,180957.95067269163,0.0,394716.8510462536,0.0,76456.99381812065,0.0,,22.719720311422144,,-2.1,-88030.81792738798,-97954.70409244932,0.6984473360109104,0.4809577340084469,0.9086147733429656,,34650.0,-36322.050811811845,0.13274336283185842,,13.763023457199896,229.37098145436192,76456.99381812064,3.0,132.0,0.01,92.92,,,,,,
62.0,273370.95972768177,0.0,106914.0,312606.11486471194,3647.072735120369,150714.69779911952,345519.6095296378,0.0,0.0,0.0,191011.2151911437,1823.5363675601845,0.0,764044.8607645748,955056.0759557185,34678.2,211984.8747040524,0.0,273370.95972768177,0.0,,21.804354398527718,,-2.8,-31826.717202504577,-170838.95233695526,0.7228242744691585,0.49932552515025885,0.9062669315513817,,26400.0,-3522.3494403279833,0.15634218289085547,,49.209506460579995,1093.4838389107272,273370.95972768177,4.0,133.0,0.01,92.92,,,,,,
63.0,204939.19451523904,0.0,89363.0,487905.1008562945,6625.0705954891355,143286.01971676995,306633.2275841992,0.0,0.0,0.0,0.0,3312.5352977445677,0.0,0.0,0.0,0.0,0.0,0.0,204939.19451523898,0.0,,21.37680902448361,,-4.4,28734.521174107118,181271.87327209534,0.7044196295246419,0.4847091339000442,0.903648184937692,,6150.0,0.0,0.17699115044247787,,36.91774649997516,614.8175835457172,204939.19451523904,3.0,130.0,0.14,92.92,,,,,,
64.0,327293.14322256955,0.0,87401.0,473625.6828847849,528.3740580960118,269852.4394541761,559478.2747220661,0.0,0.0,0.0,16019.220000000001,264.1870290480059,0.0,64076.880000000005,80096.1,80096.1,0.0,0.0,327293.1432225696,0.0,,22.719720311422144,,-5.1,47615.98194771932,-21775.71183728105,0.6441680883282567,0.4929013179926407,0.9021130576124256,,16950.0,0.0,0.17551622418879056,,58.9618597515459,981.8794296677086,327293.14322256955,3.0,130.0,0.15,92.92,,,,,,
65.0,431741.70529481664,0.0,106872.0,405320.10831843445,24390.982985740033,185848.06535055087,371140.1458473563,0.0,0.0,0.0,143596.13077568347,12195.491492870016,0.0,574384.5231027339,717980.6538784173,34277.95,0.0,0.0,431741.70529481664,0.0,,22.719720311422144,,-5.9,6733.199357891746,-61464.16422703685,0.7064975181840433,0.5119666641702932,0.9021130576124256,,7650.0,0.0,0.2669616519174042,,77.79553787707302,1295.22511588445,431741.70529481664,3.0,129.0,0.19,92.92,,,,,,
66.0,572824.308736734,0.0,152936.0,421896.8597632314,53761.071144790374,321743.3274781118,617985.9014936587,0.0,0.0,0.0,138356.3723321938,26880.535572395187,0.0,553425.4893287752,691781.8616609691,170570.27,0.0,0.0,572824.3087367339,0.0,,21.61135852694929,,-6.7,43075.51261725528,-153450.91222940173,0.5971851312240206,0.5274415894334887,0.8968755643850461,,47250.0,0.0,0.2271386430678466,,103.2172121912721,1718.4729262102019,572824.308736734,3.0,128.0,0.19,92.91,,,,,,
67.0,525184.411221795,0.0,165993.0,492127.20597695943,46075.80691503701,155810.53607164047,288874.1029988189,0.0,0.0,0.0,195075.94663807412,23037.903457518503,0.0,780303.7865522965,975379.7331903705,0.0,0.0,0.0,525184.411221795,0.0,,21.280279688577856,,-7.4,-5679.006455971517,27684.751003873942,0.5342941167611104,0.5252596642988794,0.8851363554271267,,104250.0,0.0,0.1873156342182891,,94.62772721394303,1575.553233665385,525184.411221795,3.0,126.0,0.18,92.91,,,,,,
68.0,854791.4598270146,0.0,173720.0,468698.68557304196,61995.32629262614,397773.38945613924,707138.5929758882,0.0,0.0,0.0,14324.876,30997.66314631307,0.0,57299.504,71624.38,71624.38,0.0,0.0,854791.4598270145,0.0,,21.280279688577856,,-8.2,-60721.72770064515,-181140.40340284628,0.6348860057266548,0.5161407053353186,1.0,,27300.0,-203977.50937109537,0.17699115044247787,,153.9821335732384,2564.374379481044,854791.4598270146,3.0,121.0,0.14,92.9,,,,,,
69.0,543434.2164749823,0.0,146762.0,657828.4053953269,29190.150717511195,106538.31099359557,182288.0285340029,0.0,0.0,0.0,330060.4678068206,14595.075358755597,0.0,1320241.8712272823,1650302.3390341029,0.0,0.0,0.0,543434.2164749822,0.0,,22.719720311422144,,-8.9,42643.73340780447,178485.9558351855,0.5249496262212626,0.4939194391749795,0.9925952681957739,,117600.0,2.7914839876549584e-09,0.17256637168141592,,97.81815896549682,2173.7368658999294,543434.2164749823,4.0,115.0,0.0,92.86,,,,,,
70.0,761505.3535750922,0.0,118656.0,865808.6662970431,200000.0,513850.5766201375,840013.4937536814,0.0,0.0,0.0,78475.91297119041,100000.0,0.0,313903.65188476164,392379.5648559521,0.0,0.0,0.0,761505.353575092,0.0,,22.719720311422144,,-9.7,-34016.270299557014,-44833.14913070945,0.5831346155651752,0.4970642906267769,0.9887122990789237,,41400.0,-12699.066916332185,0.140117994100295,,137.0709636435166,3046.0214143003686,761505.3535750922,4.0,112.0,0.0,92.46000000000001,,,,,,
71.0,302344.3540009214,0.0,78694.0,641356.5137216772,317.38222501258025,239906.98071681822,376176.444182317,0.0,0.0,0.0,0.0,158.69111250629012,0.0,0.0,0.0,0.0,0.0,0.0,302344.35400092136,0.0,,22.719720311422144,,-10.4,17768.348485901377,265180.06953936047,0.5743395640039571,0.4689507307313625,0.9713743904641503,,119550.0,0.0,0.016224188790560472,,54.421983720165855,1209.3774160036858,302344.3540009214,4.0,104.0,0.0,92.21000000000001,,,,,,
72.0,493741.2593785254,0.0,56776.0,823303.5272927401,56739.76093652293,336197.81496455567,511136.01006733504,0.0,0.0,0.0,105821.65412527393,28369.880468261465,0.0,423286.6165010957,529108.2706263696,0.0,0.0,0.0,493741.25937852554,0.0,,22.719720311422144,,-10.9,7522.916008196784,216928.02851265826,0.5835171693307838,0.4530009916472862,0.9713743904641503,,0.0,0.0,0.016224188790560472,,88.87342668813457,1974.9650375141018,493741.2593785254,4.0,95.0,0.0,92.18,,,,,,
73.0,428954.270165941,0.0,46701.0,539303.2700651238,0.0,205627.41779366208,300862.35904249677,0.0,0.0,0.0,204081.63265306124,0.0,0.0,816326.530612245,1020408.1632653062,0.0,0.0,0.0,428954.27016594104,0.0,,21.559190566352335,,-11.5,29600.551631612077,54767.4416348723,0.5764759842179006,0.432544791329596,0.9713743904641503,,24750.0,0.0,0.016224188790560472,,77.21176862986937,1715.8170806637638,428954.270165941,4.0,90.0,0.0,92.17,,,,,,
74.0,279061.8567610739,0.0,40106.0,661218.1784260459,21520.387557374994,283834.3955466974,396349.20431433595,0.0,0.0,0.0,11054.12029637017,10760.193778687497,0.0,44216.48118548068,55270.60148185085,0.0,0.0,0.0,279061.8567610739,0.0,,21.280279688577856,,-12.2,57327.968365798944,254920.26584497705,0.5049678220130812,0.41257878720554375,0.9713743904641503,,0.0,0.0,0.016224188790560472,,50.231134216993304,1395.30928380537,279061.8567610739,5.0,90.0,0.0,92.17,,,,,,
75.0,611456.3822347882,0.0,39167.0,825043.7251602536,91799.94477472923,474245.8766941286,644157.1855250784,0.0,0.0,0.0,97220.42625443287,45899.972387364614,0.0,388881.70501773147,486102.1312721643,0.0,0.0,0.0,611456.3822347882,0.0,,21.280279688577856,,-12.6,2234.202624947432,93388.15600618515,0.4539176068932089,0.39404409052099654,0.9713743904641503,,31200.0,0.0,0.016224188790560472,,110.06214880226187,3057.281911173941,611456.3822347882,5.0,90.0,0.0,92.17,,,,,,
76.0,646858.426177961,0.0,36601.0,652829.2308957526,0.0,366090.3968759156,483291.8949585275,0.0,0.0,0.0,218290.67601701038,0.0,0.0,873162.7040680415,1091453.3800850518,0.0,0.0,0.0,646858.4261779613,0.0,,22.343477450254603,,-13.0,-22642.061154145376,-26924.272478083658,0.4777622911108288,0.397018536501964,0.9612606104388659,,134400.0,0.0,0.0,,116.43451671203299,2587.4337047118443,646858.426177961,4.0,94.0,0.0,92.17,,,,,,
77.0,703993.3282057118,0.0,43581.0,733157.4271618886,40207.21338433416,642059.2564413866,823126.6273634535,0.0,0.0,0.0,9156.104,20103.60669216708,0.0,36624.416,45780.52,45780.52,0.0,0.0,703993.3282057117,0.0,,21.568876476340712,,-13.4,-5677.001123296519,-53344.78420156491,0.43942976331902794,0.3937498539817043,0.9612606104388659,,0.0,0.0,0.0,,126.71879907702812,2815.973312822847,703993.3282057118,4.0,98.0,0.0,92.18,,,,,,
78.0,264994.4700395465,0.0,48451.0,546458.5348488044,0.0,273689.6757727609,340436.33286258404,0.0,0.0,0.0,33528.49734849423,0.0,0.0,134113.98939397692,167642.48674247117,38019.6,0.0,0.0,264994.4700395465,0.0,,21.280279688577856,,-13.8,91999.67543190635,213105.76237257558,0.3162889362173353,0.36881996184686755,0.9612606104388659,,0.0,0.0,0.0,,47.699004607118376,1059.977880158186,264994.4700395465,4.0,102.0,0.0,92.18,,,,,,
79.0,415930.45493722917,0.0,58440.0,546502.2432387336,11197.023036102219,365151.1068557739,443759.82406514074,0.0,0.0,0.0,48343.262,5598.511518051108,0.0,193373.048,241716.31,241716.31,0.0,0.0,415930.45493722917,0.0,,21.280279688577856,,-14.1,58083.56619323097,296115.46717359277,0.2682611083028605,0.3344376168451384,0.9612606104388659,,0.0,-7.275957614183426e-11,0.07817109144542772,,74.86748188870125,1663.7218197489167,415930.45493722917,4.0,97.0,0.0,92.15,,,,,,
80.0,578527.6075432952,0.0,68235.0,362426.75212645216,1316.3972005365922,432176.6056945766,521094.3141265983,0.0,0.0,0.0,14479.459492887856,658.1986002682961,0.0,57917.837971551424,72397.29746443928,0.0,0.0,0.0,578527.6075432952,0.0,,22.528455507052215,,-14.2,-57747.08132871217,-171699.07554374548,0.381429720326561,0.3590218430589082,0.9612606104388659,,0.0,-2996.8229894021583,0.1710914454277286,,104.23910432715094,2314.110430173181,578527.6075432952,4.0,87.0,0.18,92.13,,,,,,
81.0,238291.87738118778,0.0,74796.0,568886.4882168353,2619.725859440853,283825.3421571618,404453.9443382607,0.0,0.0,0.0,30044.90905510643,1309.8629297204266,0.0,120179.63622042572,150224.54527553215,0.0,130649.16244251488,0.0,238291.8773811878,0.0,,21.280279688577856,,-11.9,35310.630979044945,137392.1257289789,0.3532637176462733,0.35448797433837503,0.9612606104388659,,0.0,-14393.960203573417,0.2079646017699115,,42.93543046654242,714.8756321435634,238291.87738118778,3.0,83.0,0.18,92.11,,,,,,
82.0,201183.38450350214,0.0,101789.0,493941.28242672444,2232.090967755991,181382.80297313535,291326.68449168024,0.0,0.0,0.0,101886.43792187687,1116.0454838779956,0.0,407545.7516875075,509432.18960938446,0.0,304446.39366620925,0.0,201183.38450350217,0.0,,21.280279688577856,,-10.0,-60091.56408808283,110916.80380535492,0.4205844898122304,0.3533294124685161,0.9612606104388659,,0.0,-59474.05626409883,0.32005899705014756,,36.249222219841016,603.5501535105064,201183.38450350214,3.0,81.0,0.18,92.1,,,,,,
83.0,68034.45142084514,0.0,152565.0,434533.88954107795,46467.64253687341,211327.3452278492,369641.6222112816,0.0,0.0,0.0,7602.119605766089,23233.821268436703,0.0,30408.478423064356,38010.59802883044,0.0,418558.26530197123,0.0,68034.45142084514,0.0,,22.719720311422144,,-8.5,-48748.15754108147,58050.35968460675,0.4827279452269589,0.3511079997719507,0.9612606104388659,,0.0,-66009.9220910155,0.3554572271386431,,12.258447457007879,204.10335426253545,68034.45142084514,3.0,83.0,0.18,92.1,,,,,,
84.0,256387.17008042824,0.0,155654.0,452302.304841891,24871.710845873276,181404.3470484567,334595.87013386947,0.0,0.0,0.0,250036.997968585,12435.85542293664,0.0,1000147.99187434,1250184.989842925,0.0,503248.532879148,0.0,256387.17008042827,0.0,,21.45970588139494,,-7.5,-75431.35794910931,-107326.86346370513,0.5738572026279872,0.36707165434874284,0.9598157847209682,,19800.0,-95827.06414302319,0.3820058997050148,,46.162509972981105,769.1615102412848,256387.17008042824,3.0,84.0,0.05,92.09,,,,,,
85.0,204173.30298736892,0.0,130732.0,462285.9648495327,16434.55822850623,316791.8915099079,593375.0991826085,0.0,0.0,0.0,10117.387695297368,8217.279114253115,0.0,40469.55078118947,50586.93847648684,0.0,415184.38407903607,0.0,204173.30298736892,0.0,,21.67436626022129,,-7.2,-102059.82238720104,-140194.78325884324,0.6881271226747827,0.41110906169294886,0.9616102563989749,,76050.0,-58635.71895906172,0.37315634218289084,,36.761403202875776,816.6932119494757,204173.30298736892,4.0,87.0,0.05,92.1,,,,,,
86.0,190601.81040964724,0.0,104264.0,348966.2654955752,8613.708921491492,315217.12220219104,575400.1297188031,0.0,0.0,0.0,3440.0699999999997,4306.854460745746,0.0,13760.279999999999,17200.35,17200.35,321613.6305171841,0.0,190601.8104096472,0.0,,22.719720311422144,,-7.7,-54875.673391353776,-212673.5842232281,0.7724049095518593,0.4373770028652273,0.9616102563989748,,36000.0,-33465.56628123839,0.40117994100294985,,34.319761982361086,762.407241638589,190601.81040964724,4.0,97.0,0.06,92.14,,,,,,
87.0,407122.3522174682,0.0,100857.0,537801.9295999425,84674.25352286204,231003.16515337158,384237.41673120117,0.0,0.0,0.0,140948.38502803794,42337.12676143102,0.0,563793.5401121518,704741.9251401897,31675.1,33.78415046536309,0.0,407122.35221746826,0.0,,21.47827506506433,,-9.4,67688.02557456335,57752.56434350694,0.685802724324642,0.4379201510718791,0.9598945258589712,,26700.0,0.0,0.3790560471976401,,73.35530542254342,1628.4894088698727,407122.3522174682,4.0,105.0,0.18,92.27000000000001,,,,,,
88.0,593101.2786585815,0.0,97938.0,590674.5052747692,29895.179605257068,537552.2406235521,904382.8690315794,0.0,0.0,0.0,0.0,14947.589802628532,0.0,0.0,0.0,0.0,0.0,0.0,593101.2786585814,0.0,,22.719720311422144,,-9.2,45354.46835826366,-313708.3637568095,0.5447611721931235,0.47075961006945155,0.9486971265452634,,100950.0,0.0,0.29646017699115046,,106.8709194014898,1779.3038359757447,593101.2786585815,3.0,110.0,0.19,92.39,,,,,,
89.0,524208.6939215541,0.0,124198.0,491475.4469066214,2012.3394417166335,425390.9242692839,723792.3958911907,0.0,0.0,0.0,0.0,1006.1697208583169,0.0,0.0,0.0,0.0,0.0,0.0,524208.693921554,0.0,,22.719720311422144,,-9.0,28001.273817337686,-232316.9489845696,0.5379107919644154,0.4879642687147605,0.9451753638578876,,72300.0,0.0,0.2920353982300885,,99.66779897530508,1572.626081764662,524208.6939215541,3.0,113.0,10.13,92.99000000000001,,,,,,
90.0,470170.63499257027,0.0,149732.0,599090.4183879604,118189.19185639374,344408.09254483035,592568.757351803,0.0,0.0,0.0,5307.198,59094.59592819687,0.0,21228.792,26535.99,26535.99,0.0,0.0,470170.6349925702,0.0,,21.89036421344558,,-8.8,31627.508727222918,27750.45303615675,0.47250205298168624,0.474377314246272,0.9297337889978551,,150300.0,0.0,0.16666666666666666,,84.75766037011064,1410.5119049777109,470170.63499257027,3.0,111.0,0.27,92.39,,,,,,
91.0,914077.5215112817,0.0,166666.0,636652.6317672923,106155.67567498342,627994.6208090282,1086478.2944543252,0.0,0.0,0.0,91647.54029848592,53077.83783749171,0.0,366590.1611939437,458237.7014924296,326830.81,0.0,0.0,914077.5215112817,0.0,,21.338127645607624,,-8.7,-23198.972796210855,-212014.25515566993,0.46376464370062076,0.48838255976587214,0.9214260411199429,,100350.0,0.0,0.1209439528023599,,164.70762860111785,2742.232564533845,914077.5215112817,3.0,109.0,0.19,92.38,,,,,,
92.0,579189.2696196878,0.0,169348.0,331522.6482264636,40938.19681566187,274027.9152435863,479313.84844021755,0.0,0.0,0.0,0.0,20469.098407830934,0.0,0.0,0.0,0.0,0.0,0.0,579189.2696196878,0.0,,22.719720311422144,,-8.5,-85957.80786140755,-147791.20021375388,0.6330466066161086,0.5078428684456446,0.9051717517935929,,145350.0,-46959.60016659684,0.08849557522123894,,104.35832260007537,1737.5678088590635,579189.2696196878,3.0,105.0,0.18,92.27000000000001,,,,,,
93.0,523831.3476095001,0.0,148804.0,717459.0463466288,32512.912634900356,374697.7336844594,662543.9143866843,0.0,0.0,0.0,18027.84235413441,16256.45631745018,0.0,72111.36941653764,90139.21177067203,0.0,0.0,0.0,523831.34760950005,0.0,,21.626165175961233,,-8.3,20317.385167139808,38690.07384122363,0.5823021342458284,0.49842827873664114,0.9015596874988484,,81300.0,0.0,0.08407079646017698,,94.28964256971003,2095.3253904380003,523831.3476095001,4.0,105.0,0.0,92.2,,,,,,
94.0,321362.5472446532,0.0,112642.0,530429.5907336948,1242.4370409290577,241387.80137048304,431426.5369121257,0.0,0.0,0.0,17455.522191094155,621.2185204645289,0.0,69822.08876437662,87277.61095547077,0.0,0.0,0.0,321362.5472446533,0.0,,22.228621853892044,,-8.1,51729.58905314725,83293.08384958463,0.5068595915917531,0.482689470636181,0.888646557645137,,194700.0,0.0,0.045722713864306784,,57.84525850403758,1285.450188978613,321362.5472446532,4.0,105.0,0.0,92.22,,,,,,
95.0,267245.6126448679,0.0,75289.0,490690.8872832772,225.4264986700857,120813.7030018412,218230.89643197058,0.0,0.0,0.0,8429.0,112.71324933504285,0.0,33716.0,42145.0,0.0,0.0,0.0,267245.6126448678,0.0,,21.467554846627475,,-7.9,43615.088528741966,264873.89085130667,0.47662817832674437,0.45949482824177273,0.9487604599361869,,77550.0,-104992.77010854427,0.045722713864306784,,48.10421027607622,1068.9824505794716,267245.6126448679,4.0,100.0,0.0,92.18,,,,,,
96.0,243087.01018396037,0.0,58923.0,617250.1491176146,67818.40775096063,195902.0907092671,365071.79233601206,0.0,0.0,0.0,22918.466498016744,33909.203875480314,0.0,91673.86599206697,114592.33249008372,0.0,0.0,0.0,243087.01018396037,0.0,,21.280279688577856,,-7.3,35871.98207424334,231551.73693338764,0.4583232259506421,0.44353289549142677,0.9437035699235446,,78600.0,0.0,0.004424778761061947,,43.75566183311287,972.3480407358416,243087.01018396037,4.0,97.0,0.0,92.18,,,,,,
97.0,391676.28231177165,0.0,49623.0,586503.6069338829,0.0,313679.844257458,605488.4373469385,0.0,0.0,0.0,0.0,0.0,0.0,0.0,0.0,0.0,0.0,0.0,391676.28231177165,0.0,,22.719720311422144,,-6.6,-26415.056642754847,-18984.830413056116,0.5199458820566579,0.45132517731180627,0.9437035699235446,,0.0,0.0,0.004424778761061947,,70.5017308161189,1566.7051292470867,391676.28231177165,4.0,95.0,0.0,92.17,,,,,,
98.0,349092.5411105368,0.0,42000.0,487948.45980886865,0.0,193626.17884186728,386673.1037511114,0.0,0.0,0.0,112528.17339750766,0.0,0.0,450112.69359003066,562640.8669875382,0.0,0.0,0.0,349092.5411105367,0.0,,21.673187431738427,,-5.9,807.2738343908159,0.0,0.5496809591166253,0.45132517731180627,0.9437035699235446,,0.0,0.0,0.004424778761061947,,62.83665739989662,1396.3701644421471,349092.5411105368,4.0,95.0,0.0,92.17,,,,,,
99.0,348972.88195015624,0.0,39737.0,599569.0595141682,0.0,280536.19762086717,570930.8911242621,0.0,0.0,0.0,32741.6874184586,0.0,0.0,130966.7496738344,163708.437092293,0.0,0.0,0.0,348972.8819501562,0.0,,22.719720311422144,,-5.5,5786.867498920299,-829.3502867064026,0.5107989191343547,0.4491594559124175,0.9437035699235446,,0.0,0.0,0.004424778761061947,,62.81511875102812,1395.891527800625,348972.88195015624,4.0,96.0,0.0,92.18,,,,,,
100.0,607853.3089354099,0.0,38490.0,564954.7255239517,1551.290855587385,305434.54341177206,636161.5570445005,0.0,0.0,0.0,213560.50767880716,775.6454277936925,0.0,854242.0307152286,1067802.5383940358,157447.67,0.0,0.0,607853.3089354099,0.0,,22.719720311422144,,-5.0,-18603.27203028559,-109112.57183147504,0.5390302608790734,0.4443120652780359,0.9381048702666909,,37200.0,-28725.71926986793,0.0,,109.41359560837378,2431.4132357416397,607853.3089354099,4.0,99.0,0.0,92.19,,,,,,
101.0,285227.8569720223,0.0,44220.0,425643.39742340747,1516.0693308011148,227612.2943134082,482752.3335964793,0.0,0.0,0.0,6314.878000000001,758.0346654005574,0.0,25259.512000000002,31574.39,31574.39,0.0,0.0,285227.8569720223,0.0,,21.605933544935283,,-4.6,-5654.545373754025,-31849.424173071802,0.5740499831140013,0.4562273841942141,0.9381048702666909,,0.0,0.0,0.0,,51.341014254964016,1140.911427888089,285227.8569720223,4.0,101.0,0.0,92.19,,,,,,
102.0,269779.09573780355,0.0,54562.0,458570.64247641555,5448.84664189316,152584.4557861521,327986.5895452509,0.0,0.0,0.0,86068.41245343811,2724.42332094658,0.0,344273.64981375245,430342.06226719054,72848.51000000001,0.0,0.0,269779.09573780355,0.0,,22.719720311422144,,-4.3,24784.667980475642,124514.02152307009,0.5574907178135138,0.4452040265082135,0.9381048702666909,,0.0,0.0,0.0,,48.56023723280464,1079.1163829512143,269779.09573780355,4.0,106.0,0.0,92.33,,,,,,
103.0,143932.9683476704,0.0,52001.0,387249.62372521125,781.2475676866187,133796.88999371318,291428.52137514995,0.0,0.0,0.0,13928.730000000001,390.62378384330935,0.0,55714.920000000006,69643.65,69643.65,0.0,0.0,143932.9683476704,0.0,,21.65118988340307,,-4.0,56513.31648778109,151536.02235006134,0.46138107375717796,0.421811060572506,0.9381048702666909,,0.0,0.0,0.048672566371681415,,25.90793430258067,575.7318733906816,143932.9683476704,4.0,114.0,0.0,92.4,,,,,,
104.0,186304.84617271155,0.0,69012.0,283475.673531201,4910.082970670013,155841.7108788346,343902.31502815324,0.0,0.0,0.0,1621.508,2455.0414853350067,0.0,6486.032,8107.54,8107.54,0.0,0.0,186304.84617271155,0.0,,21.588186329175855,,-3.7,41101.89693698657,-53940.609496952056,0.4678272551796624,0.42420390825109094,0.9381048702666909,,0.0,0.0,0.10914454277286137,,33.56281803801399,558.9145385181347,186304.84617271155,3.0,117.0,0.15,92.41,,,,,,
105.0,166443.87023915024,0.0,75074.0,488393.4189791619,13981.758773962938,101794.91990965101,239191.6709731105,0.0,0.0,0.0,15906.555760953157,6990.879386981469,0.0,63626.22304381263,79532.77880476578,34213.11,240.7748290297899,0.0,166443.87023915024,0.0,,21.280279688577856,,-2.2,26923.049953619877,268414.6956211938,0.4516715645415704,0.39157546597722825,0.9381048702666909,,0.0,0.0,0.2876106194690266,,29.98985653969009,499.33161071745076,166443.87023915024,3.0,117.0,0.18,92.41,,,,,,
106.0,285492.2668163079,0.0,101266.0,419073.083386645,4280.426902942801,149013.84627882755,364349.8534819366,0.0,0.0,0.0,34173.608,2140.2134514714003,0.0,136694.432,170868.04,170868.04,810.2856416094746,0.0,285492.26681630797,0.0,,22.719720311422144,,-1.2,-421.6368450082773,191417.6619047086,0.45683199343258934,0.37006901021909994,0.9381048702666909,,0.0,0.0,0.32890855457227136,,51.43999663496236,856.4768004489238,285492.2668163079,3.0,115.0,0.18,92.4,,,,,,
107.0,502803.3996241321,0.0,161982.0,490156.10238052456,50364.73437262111,301689.4193602826,775042.1709385066,0.0,0.0,0.0,2266.042,25182.367186310556,0.0,9064.168,11330.21,11330.21,9199.630676643726,0.0,502803.399624132,0.0,,21.66315208806937,,0.1,-25694.409085229527,-275821.90055798244,0.42790747206261937,0.3836900205508486,0.9381048702666909,,2400.0,-17857.142857142913,0.38790560471976393,,90.59511654427612,2011.2135984965284,502803.3996241321,4.0,114.0,0.18,92.39,,,,,,
108.0,427732.0446689159,0.0,137681.0,439405.88112878555,76060.21544983995,144925.6244408922,387512.74020895554,0.0,0.0,0.0,169403.84756455367,38030.10772491998,0.0,677615.3902582147,847019.2378227682,42255.82,22177.338456027122,0.0,427732.04466891603,0.0,,21.35251375702237,,1.2,4239.7491038474,-59159.6182882683,0.37057320625924295,0.4024263016681483,0.9374727590151106,,13350.0,0.0,0.3820058997050147,,77.06875980844526,1710.9281786756637,427732.0446689159,4.0,114.0,0.18,92.39,,,,,,
109.0,275395.180300201,0.0,133176.0,310339.54074553977,9861.950577704252,118633.94581173397,326259.91638149746,0.0,0.0,0.0,0.0,4930.975288852126,0.0,0.0,0.0,0.0,23304.48281474619,0.0,275395.180300201,0.0,,22.66049707525994,,2.0,-45512.74140171218,-15920.37563595763,0.48273911296203353,0.40029257268247825,0.9374727590151106,,11700.0,0.0,0.3820058997050147,,49.58765616485419,1101.580721200804,275395.180300201,4.0,114.0,0.06,92.39,,,,,,
110.0,453611.4593638294,0.0,104309.0,415772.5330143308,28703.955515569796,282277.1649647799,784374.723825065,0.0,0.0,0.0,47993.654,14351.977757784898,0.0,191974.616,239968.27,239968.27,6150.404844661109,0.0,453611.45936382946,0.0,,21.670950413557968,,2.3,-22913.987946891368,-176627.57481073416,0.49335070646282847,0.41445497224496386,0.9074926253687318,,385500.0,0.0,0.3510324483775811,,81.67274325845749,1814.4458374553176,453611.4593638294,4.0,115.0,0.05,92.39,,,,,,
111.0,636179.6254219704,0.0,93976.0,451729.04076735117,857.2689247403918,263738.9909576573,717776.1379950503,0.0,0.0,0.0,191937.38570633397,428.6344623701959,0.0,767749.5428253359,959686.9285316698,375736.84,2.5110413681686152,0.0,636179.6254219703,0.0,,21.406441629128445,,1.7,-83348.86167223743,-70568.64116339946,0.5689249471565381,0.4147496239692988,0.87769309493709,,163350.0,0.0,0.31710914454277284,,114.56322694598843,2544.7185016878816,636179.6254219704,4.0,114.0,0.08,92.39,,,,,,
112.0,235524.10596151013,0.0,104311.0,357231.38222773065,41144.1032483574,138499.8257997834,366369.88553605095,0.0,0.0,0.0,0.0,20572.0516241787,0.0,0.0,0.0,0.0,0.0,0.0,235524.10596151018,0.0,,21.32821787405175,,0.9,8464.340368080782,-9138.503308320489,0.5206322302026714,0.4187416844270641,0.8697465534886523,,127800.0,0.0,0.3023598820058997,,42.436733412144896,706.5723178845303,235524.10596151013,3.0,116.0,0.18,92.4,,,,,,
113.0,399401.906901175,0.0,114721.0,350279.00310167996,7438.769317477865,78764.75517127439,209105.1891731773,0.0,0.0,0.0,208049.17330256145,3719.3846587389326,0.0,832196.6932102458,1040245.8665128071,0.0,0.0,0.0,399401.90690117504,0.0,,22.719720311422144,,1.0,4130.031107166737,-46070.44204380273,0.4862617247783725,0.4149852854463003,0.8642381554391669,,113400.0,0.0,0.24778761061946902,,71.96822960452272,1198.205720703525,399401.906901175,3.0,115.0,0.19,92.4,,,,,,
114.0,317763.0740787684,0.0,151296.0,308151.22435059195,5856.203308791761,94432.00041787872,251598.9439600686,0.0,0.0,0.0,71375.93139140707,2928.1016543958813,0.0,285503.72556562827,356879.6569570353,0.0,0.0,0.0,317763.0740787683,0.0,,22.719720311422144,,1.1,929.6731009112955,-7686.057861742641,0.4757343364918762,0.4204793554791178,0.855840105953886,,86700.0,0.0,0.21091445427728614,,57.25772831825327,953.2892222363052,317763.0740787684,3.0,112.0,0.19,92.39,,,,,,
115.0,536461.2392343647,0.0,167812.0,327136.5971452399,42449.324041453525,148507.49315362543,398505.97039967414,0.0,0.0,0.0,119828.43085108437,21224.662020726766,0.0,479313.7234043375,599142.1542554218,0.0,0.0,0.0,536461.2392343647,0.0,,21.759066228643903,,1.3,-97631.00903348307,-179214.96102040992,0.6153734404797054,0.4404434444427722,0.8236927337306604,,180900.0,0.0,0.1430678466076696,,96.66495069764018,1609.3837177030941,536461.2392343647,3.0,107.0,0.19,92.38,,,,,,
116.0,634239.1205837437,0.0,165920.0,193512.4750764574,15033.6738658684,57587.470858978966,155079.59186794292,0.0,0.0,0.0,1694.8355264945292,7516.8369329342,0.0,6779.342105978117,8474.177632472645,0.0,0.0,0.0,634239.1205837437,0.0,,22.719720311422144,,1.4,-70569.3036473333,36907.53123466939,0.6589908081661688,0.4504983901747612,0.8012979351032449,,72150.0,-335296.3149480183,0.1032448377581121,,114.28354713798477,1902.717361751231,634239.1205837437,3.0,104.0,0.19,92.28999999999999,,,,,,
117.0,619525.1863239529,0.0,152164.0,614634.0183259685,127739.58058338807,171929.51816408214,466273.9548154033,0.0,0.0,0.0,265495.4099585468,63869.79029169404,0.0,1061981.6398341872,1327477.049792734,0.0,0.0,0.0,619525.1863239527,0.0,,21.888170220654562,,1.6,-25655.55010296856,-90585.80545212641,0.6414939806268967,0.45420497328332887,0.7937126000842816,,90300.0,-1183.0821667353935,0.0663716814159292,,111.62604807184982,2478.1007452958115,619525.1863239529,4.0,104.0,0.18,92.28,,,,,,
118.0,92420.68151203208,0.0,109106.0,301935.7342380888,1303.0601151981894,45831.182588232296,124731.38354885427,0.0,0.0,0.0,20888.278187946806,651.5300575990946,0.0,83553.11275178722,104441.39093973403,0.0,0.0,0.0,92420.68151203208,0.0,,22.149380381606516,,1.7,83866.88267170718,158404.90032008235,0.5486568069187645,0.4407864676148686,0.7808897718379374,,97650.0,0.0,0.04424778761061947,,16.638495292611136,369.6827260481283,92420.68151203208,4.0,104.0,0.03,92.25999999999999,,,,,,
119.0,160621.0981183129,0.0,82128.0,392443.2440140483,2746.500759955414,105584.61868280444,289365.87406729197,0.0,0.0,0.0,0.0,1373.250379977707,0.0,0.0,0.0,0.0,0.0,0.0,160621.0981183129,0.0,,21.797805179132467,,1.9,27894.626055083132,103077.36994675634,0.5307570139265597,0.43987480732504586,0.7758328818252952,,116250.0,0.0,0.03982300884955752,,28.9134038722775,642.4843924732515,160621.0981183129,4.0,102.0,0.01,92.2,,,,,,
120.0,213275.52329553428,0.0,57123.0,473092.36080411024,21505.977159831767,168478.86969749548,455309.61329671263,0.0,0.0,0.0,0.0,10752.988579915884,0.0,0.0,0.0,0.0,0.0,0.0,213275.5232955343,0.0,,21.526893411723957,,1.5,30555.718366728943,17782.747507397813,0.493835442531529,0.4426434428441983,0.7755619770031894,,19800.0,-17162.99434829007,0.011799410029498525,,38.389594193196174,853.1020931821371,213275.52329553428,4.0,95.0,0.0,92.18,,,,,,
121.0,59769.380977452434,0.0,49911.0,329034.49343169987,0.0,62979.36638120048,168398.83862605997,0.0,0.0,0.0,8434.0,0.0,0.0,33736.0,42170.0,0.0,0.0,0.0,59769.380977452434,0.0,,22.34411601474592,,1.2,61853.832308635305,153045.05480563972,0.44115660173378446,0.4322671778880349,0.7755619770031894,,21600.0,0.0,0.011799410029498525,,10.758488575941438,298.84690488726216,59769.380977452434,5.0,91.0,0.0,92.17,,,,,,
122.0,228255.88543277414,0.0,40161.0,442789.8679808139,913.033618707562,218422.03858739312,575703.6934819598,0.0,0.0,0.0,0.0,456.516809353781,0.0,0.0,0.0,0.0,0.0,0.0,228255.88543277414,0.0,,21.568748266746532,,0.8,60373.334441129715,-132913.8255011459,0.396770990236939,0.45465747903899334,0.7755619770031894,,0.0,-28904.90185934682,0.011799410029498525,,41.086059377899346,1141.2794271638707,228255.88543277414,5.0,91.0,0.0,92.17,,,,,,
123.0,542007.076257692,0.0,37141.0,420539.7658050888,65.18822245450508,217327.5578364207,570747.0765359619,0.0,0.0,0.0,42692.102,32.59411122725254,0.0,170768.408,213460.50999999998,213460.50999999998,0.0,0.0,542007.076257692,0.0,,22.719720311422144,,0.7,-21912.93841515999,20561.09726912692,0.41342155544110026,0.44652748986213375,0.7661706098368538,,15600.0,-220223.4426248229,0.0,,97.56127372638456,2710.03538128846,542007.076257692,5.0,92.0,0.0,92.17,,,,,,
124.0,247652.32142562265,0.0,36057.0,403877.9790283719,11.249558353245057,128500.39517705078,335018.5242967644,0.0,0.0,0.0,0.0,5.624779176622528,0.0,0.0,0.0,0.0,0.0,0.0,247652.32142562262,0.0,,22.719720311422144,,0.5,-20896.77236192207,68859.45473160734,0.43822397570211163,0.44932210347174567,0.7661706098368538,,9450.0,-60959.892279521664,0.0,,44.57741785661208,1238.2616071281134,247652.32142562265,5.0,94.0,0.0,92.18,,,,,,
125.0,192470.72529053688,0.0,38154.0,382465.9706292298,0.0,95621.47305362628,247475.3925492315,0.0,0.0,0.0,22055.30367272778,0.0,0.0,88221.21469091112,110276.5183636389,0.0,0.0,0.0,192470.72529053685,0.0,,22.719720311422144,,0.3,11645.71578049836,115140.80477454314,0.4087823585159067,0.4353782551483768,0.7661706098368538,,0.0,-47323.31071822848,0.0,,34.644730552296636,769.8829011621475,192470.72529053688,4.0,94.0,0.0,92.18,,,,,,
126.0,74773.60851701204,0.0,51065.0,301896.22815168893,230.35508262576826,103318.6847450564,266411.37278751144,0.0,0.0,0.0,9810.391713713187,115.17754131288413,0.0,39241.56685485275,49051.95856856593,0.0,0.0,0.0,74773.60851701204,0.0,,21.76335063269831,,0.2,89794.33598434262,26655.502821835868,0.31410571001435283,0.43023573315708824,0.7661706098368538,,0.0,0.0,0.0,,13.460745005232507,299.09443406804814,74773.60851701204,4.0,97.0,0.02,92.19,,,,,,
127.0,111695.52274302699,0.0,52400.0,365883.7717011772,1275.137925663885,104842.0775077853,269340.0104307223,0.0,0.0,0.0,0.0,637.5689628319425,0.0,0.0,0.0,0.0,0.0,0.0,111695.52274302699,0.0,,21.477955997057737,,0.1,46105.03237847344,96543.76127045514,0.26114279719612127,0.4202094229836933,0.7661706098368538,,0.0,0.0,0.017699115044247787,,20.126416243066032,446.78209097210794,111695.52274302699,4.0,103.0,0.19,92.4,,,,,,
128.0,201651.7330719967,0.0,63897.0,174551.7691799312,2740.6521533022574,89452.36003101077,230656.49832601615,0.0,0.0,0.0,0.0,1370.3260766511287,0.0,0.0,0.0,0.0,0.0,0.0,201651.7330719967,0.0,,21.324418961367424,,0.2,-44588.81769818061,-56104.729146084894,0.29278953787006984,0.41636955810129656,0.7661706098368521,,0.0,-2705.2966774453307,0.11799410029498528,,40.55619655543998,806.6069322879869,201651.7330719967,4.0,105.0,21.12,94.09,,,,,,
129.0,116839.42562252574,0.0,87267.0,271452.21034005465,7495.777842367704,47007.369608242945,132861.91571997153,0.0,0.0,0.0,7764.166596696936,3747.8889211838523,0.0,31056.666386787743,38820.83298348468,31157.68,67493.89806428684,0.0,116839.42562252574,0.0,,21.28027968857786,,2.8,18104.45457323733,162137.07108305587,0.2731957576166079,0.403085680972152,0.7661706098368521,,0.0,-59815.044926997405,0.29646017699115046,,26.8905938070243,1168.3942562252573,116839.42562252574,10.0,118.0,50.15,95.92,,,,,,
130.0,83342.53455524094,0.0,105890.0,205276.0071900726,19001.975478638098,62532.21959959657,191644.91727240809,0.0,0.0,0.0,524.8896508061982,9500.987739319049,0.0,2099.558603224793,2624.448254030991,0.0,223464.61360396835,0.0,83342.53455524094,0.0,,21.362802172657556,,5.3,-80115.41401780606,13158.689231938968,0.3750158906188854,0.40058570768500923,0.7661706098368521,,0.0,-57327.91221822425,0.33185840707964603,,19.644668820015845,1583.508156549578,83342.53455524094,19.0,116.0,55.71,95.71000000000001,,,,,,
131.0,106934.84990835065,0.0,152630.0,169768.84224655802,43290.51409734151,87765.11303224634,281527.52019837283,0.0,0.0,0.0,0.0,21645.257048670755,0.0,0.0,0.0,0.0,260321.88462975802,0.0,106934.84990835065,0.0,,22.71972031142214,,6.8,-46452.14433389879,-111758.67795181478,0.4243836646510417,0.4204231691515831,0.7661706098368521,,0.0,-79874.80292242176,0.35693215339233036,,25.20561347189733,2031.7621482586621,106934.84990835065,19.0,116.0,55.71,95.25999999999999,,,,,,
132.0,42123.41494186382,0.0,140791.0,166036.0272551146,33849.02884641684,84308.96961909077,278478.54918428016,0.0,0.0,0.0,10804.032,16924.514423208428,0.0,43216.128,54020.16,54020.16,273337.72312448727,0.0,42123.41494186382,0.0,,21.822869074652317,,7.8,-36512.94082764483,-69226.39392916554,0.48601777102805716,0.43007590182909283,0.7661706098368521,,0.0,-42833.57854490617,0.3997050147492625,,9.928910135946722,800.3448838954126,42123.41494186382,19.0,116.0,55.71,95.56,,,,,,
133.0,252263.6809734115,0.0,129217.0,237636.12777476566,43323.66569696464,154395.21118718092,515865.9993499392,0.0,0.0,0.0,75227.89383077304,21661.83284848232,0.0,300911.57532309217,376139.4691538651,288936.89,241511.58988416725,0.0,252263.6809734115,0.0,,21.603918034124092,,8.2,-92247.28303203275,-62776.82382286937,0.6266447171590828,0.4320697461645037,0.7661706098368521,,2850.0,-41426.56440272496,0.3997050147492625,,58.05596353922092,5045.27361946823,252263.6809734115,20.0,116.0,50.14,94.47,,,,,,
134.0,24631.56267832935,0.0,109216.0,139671.73382672502,19464.73166086847,54629.46786096035,182528.23267869285,0.0,0.0,0.0,0.0,9732.365830434239,0.0,0.0,0.0,0.0,203135.81045397796,0.0,24631.56267832935,0.0,,22.669551792400156,,8.2,-40009.421986186266,-42856.49885196787,0.692984063909895,0.4401034652536395,0.7655384985852719,,6300.0,-23789.325471769018,0.415929203539823,,5.668954150417499,517.2628162449163,24631.56267832935,21.0,116.0,50.15,94.28999999999999,,,,,,
135.0,83319.90626997696,0.0,98694.0,209114.4851283744,34019.05883021506,64403.21268122972,209044.5585230242,0.0,0.0,0.0,9771.54804349235,17009.529415107532,0.0,39086.1921739694,48857.740217461745,0.0,91176.58875509926,0.0,83319.90626997694,0.0,,21.86606787557828,,7.2,2117.2822538912287,-8724.466633792945,0.7391155671130747,0.4440507269642991,0.7634615616157938,,19800.0,-3328.417022895467,0.35250737463126847,,20.79331580873545,2916.1967194491936,83319.90626997696,35.0,179.0,69.56,92.43,,,,,,
136.0,208722.33787911126,0.0,98868.0,234814.9783238368,6403.662099353589,112257.95915186522,349392.26661674975,0.0,0.0,0.0,16512.174,3201.831049676794,0.0,66048.696,82560.87,82560.87,0.0,0.0,208722.33787911126,0.0,,22.71972031142214,,5.8,20517.98231380765,-48528.59229291282,0.6962990253396933,0.45243838489146926,0.7500066221178707,,128550.0,-558.5753516581209,0.3569321533923304,,53.082264969415576,7931.448839406227,208722.33787911126,38.0,176.0,74.32,94.03,,,,,,
137.0,150254.4720218893,0.0,119554.0,237405.8812215042,24153.310624262984,96568.97009715103,296879.2874780169,0.0,0.0,0.0,4874.5505256940005,12076.655312131492,0.0,19498.202102776002,24372.752628470003,0.0,0.0,0.0,150254.47202188932,0.0,,21.8290942789097,,5.4,71494.32096106518,-63860.501729637355,0.5819851629756446,0.4530210351035075,0.7367322858346849,,155550.0,0.0,0.22861356932153393,,38.65596801707146,5409.1609927880145,150254.4720218893,36.0,175.0,77.27,94.12,,,,,,
138.0,327177.8094551612,0.0,155108.0,276388.3071465664,53402.925550119384,136616.24453998572,414785.8863870232,0.0,0.0,0.0,5131.080000000001,26701.46277505969,0.0,20524.320000000003,25655.4,25655.4,0.0,0.0,327177.8094551611,0.0,,21.572713680091397,,5.0,-28686.59586789964,-117873.25924045677,0.5814293385771636,0.45245002948286467,0.7254445849136084,,140700.0,0.0,0.15781710914454278,,84.17303503852932,11451.223330930641,327177.8094551612,35.0,178.0,77.27,91.13,,,,,,
139.0,407739.8949525046,0.0,172447.0,228818.99675952262,18382.79587176051,110872.86299166088,332397.46565048845,0.0,0.0,0.0,101779.93647356963,9191.397935880253,0.0,407119.7458942785,508899.6823678482,65189.81,0.0,0.0,407739.89495250466,0.0,,22.71972031142214,,4.6,-20601.396012511592,-131294.3979171785,0.5384033860769969,0.4751255494149377,0.7187622659683311,,74850.0,0.0,0.1415929203539823,,103.69641008432097,14678.636218290165,407739.8949525046,36.0,180.0,74.32,89.59,,,,,,
140.0,692923.8121354127,0.0,170389.0,119108.10379147297,11455.620995430774,78093.76556060128,231147.5802092813,0.0,0.0,0.0,7348.43,5727.810497715387,0.0,29393.72,36742.15,36742.15,0.0,0.0,692923.8121354126,0.0,,21.833542468742362,,4.2,-65482.7262017793,-82645.7564178083,0.6076946809743964,0.4853887176498693,0.7147889952441123,,28350.0,-368145.2713123551,0.14749262536873156,,172.91913731839225,23559.40961260403,692923.8121354127,34.0,181.0,69.55,90.75999999999999,,,,,,
141.0,306926.3230353576,0.0,150246.0,278602.49204127654,5711.587149123996,59953.20539141226,175167.6278724823,0.0,0.0,0.0,65864.09443299091,2855.793574561998,0.0,263456.37773196364,329320.47216495447,0.0,0.0,0.0,306926.32303535746,0.0,,21.510991977753896,,3.8,-29328.391595777575,44157.17917910246,0.5792761982077733,0.47461666957180854,0.6813774005177262,,429300.0,0.0,0.10471976401179942,,70.60226208782329,3069.263230353576,306926.3230353576,10.0,105.0,50.03,95.86,,,,,,
142.0,454300.4877839796,0.0,111684.0,420923.95342030947,86598.56900504619,37450.568571857504,107992.68165293806,0.0,0.0,0.0,177877.1531313982,43299.2845025231,0.0,711508.6125255928,889385.765656991,0.0,0.0,0.0,454300.4877839796,0.0,,22.489008022246104,,3.4,40550.77045213879,152841.83394911312,0.5105449518539158,0.4591588731320492,0.6709024140629659,,202500.0,-165568.03409394287,0.06489675516224189,,91.36891410311398,1817.2019511359185,454300.4877839796,4.0,89.0,21.12,93.89,,,,,,
143.0,185402.13326356444,0.0,78249.0,295092.39611686347,430.49875499142263,52597.65840417006,149665.2012540879,0.0,0.0,0.0,15033.761250111744,215.24937749571131,0.0,60135.045000446975,75168.80625055871,0.0,0.0,0.0,185402.13326356444,0.0,,22.489008022246104,,3.0,19349.903471029695,131896.8097376751,0.48208135572203115,0.4471625846402033,0.668554572271382,,166800.0,-57944.606413994494,0.030973451327433628,,33.407610392761676,741.6085330542577,185402.13326356444,4.0,90.0,0.19,92.24000000000001,,,,,,
144.0,164357.59435444375,0.0,59297.0,311679.60994273453,670.8188923011564,92489.13249637817,258766.66546412325,0.0,0.0,0.0,6192.145158659067,335.4094461505782,0.0,24768.58063463627,30960.725793295336,0.0,0.0,0.0,164357.59435444375,0.0,,21.892831105095446,,2.5,17557.83986878401,47340.01383581777,0.4642194264984297,0.4453546234649456,0.6679224610198018,,4200.0,-23115.3685964183,0.019174041297935103,,29.599159167291774,657.4303774177749,164357.59435444375,4.0,89.0,0.09,92.22999999999999,,,,,,
145.0,290852.232742408,0.0,46825.0,537114.0994444087,105238.83119556938,156431.8656912441,431700.78692888573,0.0,0.0,0.0,0.0,52619.41559778468,0.0,0.0,0.0,0.0,0.0,0.0,290852.23274240794,0.0,,21.616591316848123,,2.1,-6070.3020557149275,105413.31251552253,0.5066159151875054,0.4378270248185829,0.6679224610198018,,0.0,-80070.80383173694,0.019174041297935103,,52.37957859458026,1163.408930969632,290852.232742408,4.0,89.0,0.09,92.24000000000001,,,,,,
146.0,142122.70007644696,0.0,41176.0,354470.39942882635,700.5896313021271,105168.61599771223,285217.96040233516,0.0,0.0,0.0,0.0,350.2948156510636,0.0,0.0,0.0,0.0,0.0,0.0,142122.70007644696,0.0,,22.489008022246104,,1.6,15627.548443693668,69252.43902649103,0.4925605528384483,0.4310679515600531,0.6647619047619004,,5250.0,-10695.0190220462,0.0,,25.59487705676733,710.6135003822349,142122.70007644696,5.0,88.0,0.09,92.22999999999999,,,,,,
147.0,205241.22161569475,0.0,37896.0,347564.44532798935,134.91248656983865,96192.32876494982,259040.14993513987,0.0,0.0,0.0,0.0,67.45624328491932,0.0,0.0,0.0,0.0,0.0,0.0,205241.22161569475,0.0,,22.489008022246104,,1.4,8495.11025974386,88524.29539284945,0.4903809013713226,0.4280808181716215,0.6647619047619004,,1800.0,-78621.79700241033,0.0,,36.94752471525737,820.964886462779,205241.22161569475,4.0,88.0,0.02,92.22,,,,,,
148.0,161781.7516446041,0.0,34853.0,420278.2726835577,52.6416312623131,143234.04120584574,382989.66116594104,0.0,0.0,0.0,0.0,26.32081563115655,0.0,0.0,0.0,0.0,0.0,0.0,161781.7516446041,0.0,,21.756297949366356,,1.2,17114.1983194646,37288.61151761663,0.4641197209393305,0.4155334658646862,0.6647619047619004,,16500.0,0.0,0.0,,29.122333113545185,647.1270065784164,161781.7516446041,4.0,91.0,0.01,92.22999999999999,,,,,,
149.0,150302.36370051562,0.0,38253.0,350928.33620272105,844.9463078188724,126429.15424877632,334439.66086646426,0.0,0.0,0.0,7360.286,422.4731539094362,0.0,29441.144,36801.43,36801.43,0.0,0.0,150302.3637005156,0.0,,22.489008022246104,,0.9,22491.58836676331,45929.81933625698,0.4694462712083423,0.4128760357230806,0.6647619047619004,,0.0,0.0,0.0,,27.05442546609281,601.2094548020625,150302.36370051562,4.0,96.0,0.0,92.28,,,,,,
150.0,140102.39883771766,0.0,45916.0,337507.03444869025,1056.3918813516846,133687.74445312066,352366.1291355431,0.0,0.0,0.0,0.0,528.1959406758423,0.0,0.0,0.0,0.0,0.0,0.0,140102.39883771766,0.0,,21.746987866605807,,0.8,40201.85760959161,-14859.094686852857,0.4303794940253597,0.4292400298214015,0.6647619047619004,,0.0,0.0,0.004424778761061947,,25.21843179078918,560.4095953508706,140102.39883771766,4.0,100.0,0.0,92.46000000000001,,,,,,
151.0,360921.32846222125,0.0,54961.0,361818.2341789079,23980.062828629576,198409.90681709084,519173.9131895311,0.0,0.0,0.0,17604.888941502053,11990.031414314788,0.0,70419.55576600821,88024.44470751027,47042.56,0.0,0.0,360921.32846222125,0.0,,21.52026769534587,,0.6,-30377.16650672623,-127098.37025797516,0.532375869338565,0.4333589584871693,0.6647619047618992,,0.0,-57763.75955459103,0.0855457227138643,,64.96944833648445,1443.685313848885,360921.32846222125,4.0,104.0,0.01,92.52000000000001,,,,,,
