,load_elec,grid,hp_elec,ev,pv,bat_pow,cool,load_th_sh,load_th_dhw,tes_pow,dh,hp_th,bat_soc,tes_soc,ev_soc,eh_th_in,eh_elec_in,eh_th_out,temp_slack,temp_zone_1,temp_zone_2,temp_update,Qsolar_1,QconvInt_1,QradInt_1,Qvent_1,Qconduc_1,Qheating_1,Qsolar_2,QconvInt_2,QradInt_2,Qvent_2,Qconduc_2,Qheating_2,temp_amb,temp_aggregate_1,temp_aggregate_2,temp_wall_1,temp_wall_2,_Tamb,_Tz_1,_TEW_1,_TIW_1,_T1_1,_T2_1,_Taeq_1,_Tvent_1,_Qheating_1,_Qinfvent_1,_Qenvelope_1,_Qsolar_1,_Qint_people_1,_Qint_lighting_1,_Qint_appliances_1,_Tz_2,_TEW_2,_TIW_2,_T1_2,_T2_2,_Taeq_2,_Tvent_2,_Qheating_2,_Qinfvent_2,_Qenvelope_2,_Qsolar_2,_Qint_people_2,_Qint_lighting_2,_Qint_appliances_2
8.0,1692.0,52470.66591719912,44814.90858761312,-0.0,0.0,0.0,0.0,51736.93277986924,28507.02,0.0,0.0,74542.54877986923,0.5,0.5,0.8,22805.616,5701.404,28507.02,"[2.0, 2.0, 2.0, 2.0, 2.0, 2.0, 2.0, 2.0]",20.0,0.0,0.0,1.2242520557446213,1231.787626100447,128.55550480285544,-1223.276535721951,-1064.4332508157895,941.2795200645648,0.0,0.0,0.0,0.0,0.0,0.0,-9.4,19.47629477756384,0.0,19.0,0.0,-9.4,20.0,18.0,20.0,20.0,20.0,-9.96,-9.4,1939.24,-870.79,-1016.06,1.78,88.0,111.0,865.0,0.0,0.0,0.0,0.0,0.0,0.0,0.0,0.0,0.0,0.0,0.0,0.0,0.0,0.0
9.0,1381.0,13687.244623692617,0.0,-0.0,7.089558609517433,-12244.897959183672,0.0,37752.96370707301,0.0,37752.963707073,0.0,0.0,1.0,0.3394856985243495,0.8,0.0,0.0,0.0,"[2.0, 2.0, 2.0, 2.0, 2.0, 2.0, 2.0, 2.0]",20.0,0.0,0.0,37.67524193110265,141.88350371915962,94.79379996149638,-1189.9900993757753,-1058.4828893391973,9924.849103648905,0.0,0.0,0.0,0.0,0.0,0.0,-8.6,19.478942216243492,0.0,19.004082110910737,0.0,-8.6,20.0,18.01,20.0,19.42,20.01,-9.13,-8.6,2374.74,-847.1,-988.42,54.85,112.0,89.0,38.0,0.0,0.0,0.0,0.0,0.0,0.0,0.0,0.0,0.0,0.0,0.0,0.0,0.0,0.0
10.0,1337.0,76484.51946610518,75140.84209768205,-0.0,375.74522890740207,0.0,0.0,57879.10010375814,0.0,-80000.0,0.0,137879.10010375813,1.0,0.6661523651910162,0.7999999999999996,0.0,0.0,0.0,"[2.0, 2.0, 2.0, 2.0, 2.0, 2.0, 2.0, 2.0]",24.0,0.0,0.0,101.62191593824993,663.972653790701,62.74937410494706,-1314.8142356739336,-6179.910335139659,6675.609651694599,0.0,0.0,0.0,0.0,0.0,0.0,-7.6,20.899800284339705,0.0,19.271755915691323,0.0,-7.6,24.0,18.15,20.4,22.72,22.41,-8.17,-7.6,1526.22,-935.95,-1092.1,147.94,95.0,24.0,445.0,0.0,0.0,0.0,0.0,0.0,0.0,0.0,0.0,0.0,0.0,0.0,0.0,0.0,0.0
11.0,1070.0,2.9673585787450567,0.0,-0.0,1067.0474782141487,0.0,0.0,13698.162911081796,0.0,13698.162911081796,0.0,0.0,1.0,0.6079118766234916,0.7999999999999996,0.0,0.0,0.0,"[2.0, 2.0, 2.0, 2.0, 2.0, 2.0, 2.0, 2.0]",24.0,0.0,0.0,136.5893883809093,125.79869067376974,49.7667449797856,-1281.5277993277582,-5744.29019405422,0.0,0.0,0.0,0.0,0.0,0.0,0.0,-6.8,21.11894194169509,0.0,19.555103658282434,0.0,-6.8,24.0,18.31,20.81,22.38,22.38,-7.35,-6.8,8377.57,-912.26,-1064.45,198.85,143.0,0.0,19.0,0.0,0.0,0.0,0.0,0.0,0.0,0.0,0.0,0.0,0.0,0.0,0.0,0.0,0.0
12.0,2998.0,0.0,15508.223284033738,-0.0,2506.2232840337383,16000.0,0.0,39553.214258180815,0.0,9026.696195105134,0.0,30526.518063075684,0.3197278911564626,0.5695330662701534,0.7999999999999996,0.0,0.0,0.0,"[2.0, 2.0, 2.0, 2.0, 2.0, 2.0, 2.0, 2.0]",20.61,0.0,0.0,192.97366021144038,851.581979748065,66.49304229183224,-1115.641186533311,-973.7719702692818,7711.945969422058,0.0,0.0,0.0,0.0,0.0,0.0,-6.2,20.133979794053133,0.0,19.613237613372895,0.0,-6.2,20.61,18.36,20.87,19.85,20.7,-6.72,-6.2,0.0,-794.17,-926.66,280.93,137.0,0.0,566.0,0.0,0.0,0.0,0.0,0.0,0.0,0.0,0.0,0.0,0.0,0.0,0.0,0.0,0.0
13.0,981.0,20052.61800819268,3409.660830445003,-0.0,438.30591229328786,-16000.0,0.0,6744.110600705246,0.0,0.0,0.0,6744.110600705246,0.9730612244897959,0.5695330662701534,0.7999999999999996,0.0,0.0,0.0,"[2.0, 2.0, 2.0, 2.0, 2.0, 2.0, 2.0, 2.0]",24.0,0.0,0.0,101.28127129813423,149.4693544130553,3.8467049259737656,-1252.4021675248546,-5335.913849175953,0.0,0.0,0.0,0.0,0.0,0.0,0.0,-6.1,21.32440693534453,0.0,19.82793734396077,0.0,-6.1,24.0,18.49,21.17,22.68,22.73,-6.65,-6.1,0.0,-891.52,-1040.26,147.44,0.0,0.0,112.0,0.0,0.0,0.0,0.0,0.0,0.0,0.0,0.0,0.0,0.0,0.0,0.0,0.0,0.0
14.0,1717.0,20911.05831819602,19094.230609434868,-0.0,4.7275828298251685,0.0,0.0,36857.12061422614,0.0,0.0,0.0,36857.12061422614,0.9730612244897959,0.5695330662701534,0.7999999999999996,0.0,0.0,0.0,"[2.0, 2.0, 2.0, 2.0, 2.0, 2.0, 2.0, 2.0]",20.81,0.0,0.0,33.08596534067914,405.4215759737571,63.47063127856714,-1140.376592463594,-858.2671631045873,7840.771110848297,0.0,0.0,0.0,0.0,0.0,0.0,-6.6,20.386915330140567,0.0,19.87268578130561,0.0,-6.6,20.81,18.54,21.21,20.03,20.96,-7.13,-6.6,1974.49,-811.78,-947.21,48.17,163.0,0.0,218.0,0.0,0.0,0.0,0.0,0.0,0.0,0.0,0.0,0.0,0.0,0.0,0.0,0.0,0.0
15.0,1135.0,4763.91598810571,3605.096408165182,-0.0,0.0,0.0,0.0,6718.248909483043,0.0,0.0,0.0,6718.248909483043,0.9730612244897959,0.5695330662701534,0.7999999999999996,0.0,0.0,0.0,"[2.0, 2.0, 2.0, 2.0, 2.0, 2.0, 2.0, 2.0]",24.0,0.0,0.0,3.673265832975757,813.2312901289258,62.5776462064661,-1302.3318220441179,-4979.752409157267,0.0,0.0,0.0,0.0,0.0,0.0,0.0,-7.3,21.504346378859232,0.0,20.07015074690806,0.0,-7.3,24.0,18.67,21.47,22.75,22.9,-7.81,-7.3,8718.5,-927.07,-1081.73,5.35,128.0,0.0,542.0,0.0,0.0,0.0,0.0,0.0,0.0,0.0,0.0,0.0,0.0,0.0,0.0,0.0,0.0
16.0,1370.0,0.0,8048.374567509234,-0.0,0.0,9418.374567509234,0.0,15075.212419397452,0.0,0.0,0.0,15075.212419397452,0.5726201289324306,0.5695330662701534,0.7865735767991403,0.0,0.0,0.0,"[2.0, 2.0, 2.0, 2.0, 2.0, 2.0, 2.0, 2.0]",21.27,0.0,0.0,0.0,590.2915669583256,64.43230751006057,-1184.7545808918958,-1152.1645474458899,3775.485486212953,0.0,0.0,0.0,0.0,0.0,0.0,-7.2,20.705842903113115,0.0,20.112039023945883,0.0,-7.2,21.27,18.72,21.51,20.35,21.3,-7.69,-7.2,0.0,-843.37,-984.07,0.0,106.0,24.0,384.0,0.0,0.0,0.0,0.0,0.0,0.0,0.0,0.0,0.0,0.0,0.0,0.0,0.0,0.0
17.0,1845.0,0.0,783.7058580982974,-0.0,0.0,2628.7058580982975,0.0,14380.744359334316,0.0,12897.861578101598,0.0,1482.8827812327181,0.4608554240813125,0.5146952194244834,0.7747583243823841,0.0,0.0,0.0,"[2.0, 2.0, 2.0, 2.0, 2.0, 2.0, 2.0, 2.0]",22.33,0.0,0.0,0.0,1208.538398510822,79.47567141699372,-1220.1581446757018,-2498.753264891379,0.0,0.0,0.0,0.0,0.0,0.0,0.0,-7.0,21.07860657060524,0.0,20.18772617255048,0.0,-7.0,22.33,18.78,21.59,21.43,22.05,-7.49,-7.0,5205.12,-868.57,-1013.47,0.0,92.0,30.0,854.0,0.0,0.0,0.0,0.0,0.0,0.0,0.0,0.0,0.0,0.0,0.0,0.0,0.0,0.0
18.0,4976.0,8223.907635642428,3206.7880974642167,-0.0,0.0,0.0,0.0,6098.269786339449,0.0,0.0,0.0,6098.269786339449,0.4608554240813125,0.5146952194244834,0.7747583243823841,0.0,0.0,0.0,"[2.0, 2.0, 2.0, 2.0, 2.0, 2.0, 2.0, 2.0]",21.1,0.0,0.0,0.0,2426.6995891055676,147.3768824763699,-1164.8398127391713,-811.2298574271832,0.0,0.0,0.0,0.0,0.0,0.0,0.0,-6.9,20.69879352146503,0.0,20.185077272877344,0.0,-6.9,21.1,18.81,21.56,20.32,21.28,-7.39,-6.9,0.0,-829.19,-967.53,0.0,142.0,63.0,1737.0,0.0,0.0,0.0,0.0,0.0,0.0,0.0,0.0,0.0,0.0,0.0,0.0,0.0,0.0
19.0,2792.0,13734.993463051207,10874.318495735952,-0.0,0.0,0.0,0.0,20783.091337269416,0.0,0.0,0.0,20783.091337269416,0.4608554240813125,0.5146952194244834,0.7425349087003218,0.0,0.0,0.0,"[2.0, 2.0, 2.0, 2.0, 2.0, 2.0, 2.0, 2.0]",21.39,0.0,0.0,0.0,557.3493079265007,105.26920176883564,-1172.8524272682273,-1247.1882337190011,0.0,0.0,0.0,0.0,0.0,0.0,0.0,-6.8,20.771788485804187,0.0,20.171116019700932,0.0,-6.8,21.39,18.83,21.51,20.49,21.36,-7.29,-6.8,0.0,-834.9,-974.18,0.0,83.0,104.0,363.0,0.0,0.0,0.0,0.0,0.0,0.0,0.0,0.0,0.0,0.0,0.0,0.0,0.0,0.0
20.0,3569.0,5403.347799337944,1807.3310603412542,-0.0,0.0,0.0,0.0,3488.646400233583,0.0,0.0,0.0,3488.646400233583,0.4208818831956178,0.5146952194244834,0.7425349087003218,0.0,0.0,0.0,"[1.7622035559960274, 1.365684508022678, 1.1690051076061039, 2.0, 2.0, 2.0, 1.7004074718425244, 1.802691446329188]",20.5,0.0,0.0,0.0,594.0844923052733,111.34836937506205,-1127.4285284382026,-78.18329371610791,0.0,0.0,0.0,0.0,0.0,0.0,0.0,-6.6,20.46861900236391,0.0,20.134804747413114,0.0,-6.6,20.5,18.84,21.43,20.04,21.01,-7.08,-6.6,0.0,-802.56,-936.45,0.0,129.0,88.0,368.0,0.0,0.0,0.0,0.0,0.0,0.0,0.0,0.0,0.0,0.0,0.0,0.0,0.0,0.0
21.0,3431.0,3448.241206030151,0.0,-0.0,0.0,0.0,0.0,7068.337160749713,0.0,7068.337160749713,0.0,0.0,0.4208818831956178,0.4846427655097312,0.7425349087003218,0.0,0.0,0.0,"[1.7622035559960274, 1.365684508022678, 1.1690051076061039, 2.0, 2.0, 2.0, 1.7004074718425244, 1.802691446329188]",20.24,0.0,0.0,0.0,736.3191928158169,119.41958060366773,-1112.507449212921,180.59074967816568,90.21889780510699,0.0,0.0,0.0,0.0,0.0,0.0,-6.5,20.34024719896334,0.0,20.076138902613422,0.0,-6.5,20.24,18.83,21.32,19.9,20.86,-7.0,-6.5,679.2,-791.94,-924.06,0.0,135.0,92.0,471.0,0.0,0.0,0.0,0.0,0.0,0.0,0.0,0.0,0.0,0.0,0.0,0.0,0.0,0.0
22.0,2512.0,0.0,0.0,-0.0,0.0,2512.0,0.0,23605.650487738734,0.0,23605.650487738734,0.0,0.0,0.31407916210718245,0.38427860527274676,0.7425349087003218,0.0,0.0,0.0,"[1.7622035559960274, 1.365684508022678, 1.1690051076061039, 2.0, 2.0, 2.0, 1.7004074718425244, 1.802691446329188]",20.24,0.0,0.0,0.0,457.39870109859777,98.50312256868536,-1104.1858401263771,84.51569554133332,7352.53917827401,0.0,0.0,0.0,0.0,0.0,0.0,-6.3,20.291769460004602,0.0,20.018774512396956,0.0,-6.3,20.24,18.83,21.21,19.9,20.8,-6.83,-6.3,4137.8,-786.02,-917.15,0.0,157.0,58.0,254.0,0.0,0.0,0.0,0.0,0.0,0.0,0.0,0.0,0.0,0.0,0.0,0.0,0.0,0.0
23.0,1529.0,15290.788337363616,13685.334395676799,-0.0,0.0,0.0,0.0,26938.328135819604,0.0,0.0,0.0,26938.328135819604,0.31407916210718245,0.38427860527274676,0.7425349087003218,0.0,0.0,0.0,"[1.7622035559960274, 1.365684508022678, 1.1690051076061039, 2.0, 2.0, 2.0, 1.7004074718425244, 1.802691446329188]",23.7,0.0,0.0,0.0,348.03602026160195,68.17597569694577,-1244.1992681042022,-4459.492800919077,0.0,0.0,0.0,0.0,0.0,0.0,0.0,-6.2,21.468745216128074,0.0,20.18494141079915,0.0,-6.2,23.7,18.93,21.44,22.64,22.75,-6.71,-6.2,237.76,-885.69,-1033.44,0.0,80.0,54.0,213.0,0.0,0.0,0.0,0.0,0.0,0.0,0.0,0.0,0.0,0.0,0.0,0.0,0.0,0.0
24.0,1529.0,21303.632798711315,11740.665049901827,-0.0,0.0,-7927.449584815929,0.0,23222.35188772089,0.0,0.0,0.0,23222.35188772089,0.6377833534871662,0.38427860527274676,0.7425349087003218,0.0,0.0,0.0,"[1.7622035559960274, 1.365684508022678, 1.1690051076061039, 2.0, 2.0, 2.0, 1.7004074718425244, 1.802691446329188]",21.03,0.0,0.0,0.0,189.64626734739156,30.911021726574898,-1129.0230399532377,-730.8635726745044,7056.254250052123,0.0,0.0,0.0,0.0,0.0,0.0,-6.1,20.67812496811583,0.0,20.213053345177507,0.0,-6.1,21.03,18.97,21.46,20.33,21.2,-6.63,-6.1,4548.01,-803.7,-937.78,0.0,80.0,0.0,100.0,0.0,0.0,0.0,0.0,0.0,0.0,0.0,0.0,0.0,0.0,0.0,0.0,0.0,0.0
25.0,1046.0,0.0,13954.664474018151,-0.0,0.0,15000.664474018151,0.0,27734.54794108397,0.0,0.0,0.0,27734.54794108397,0.0,0.38427860527274676,0.7425349087003218,0.0,0.0,0.0,"[1.7622035559960274, 1.365684508022678, 1.1690051076061039, 2.0, 2.0, 2.0, 1.7004074718425244, 1.802691446329188]",23.76,0.0,0.0,0.0,217.67177129983943,31.632278900194986,-1238.347117735726,-4256.890416198008,0.0,0.0,0.0,0.0,0.0,0.0,0.0,-6.0,21.63010631241832,0.0,20.378080428707733,0.0,-6.0,23.76,19.07,21.68,22.69,22.89,-6.49,-6.0,3794.71,-881.52,-1028.58,0.0,80.0,0.0,121.0,0.0,0.0,0.0,0.0,0.0,0.0,0.0,0.0,0.0,0.0,0.0,0.0,0.0,0.0
26.0,966.0,6044.863455630511,5048.639138352359,-0.0,0.0,0.0,0.0,10178.435172009755,0.0,0.0,0.0,10178.435172009755,0.0,0.38427860527274676,0.7425349087003218,0.0,0.0,0.0,"[1.7622035559960274, 1.365684508022678, 1.1690051076061039, 2.0, 2.0, 2.0, 1.7004074718425244, 1.802691446329188]",21.12,0.0,0.0,0.0,169.62805023850024,30.39583803113199,-1115.8103446130476,-575.3428869239737,0.0,0.0,0.0,0.0,0.0,0.0,0.0,-5.7,20.83877670275827,0.0,20.396980195140173,0.0,-5.7,21.12,19.11,21.69,20.44,21.37,-6.18,-5.7,3585.28,-794.29,-926.8,0.0,80.0,0.0,85.0,0.0,0.0,0.0,0.0,0.0,0.0,0.0,0.0,0.0,0.0,0.0,0.0,0.0,0.0
27.0,1862.0,8371.907347588894,6468.047810850951,-0.0,0.0,0.0,0.0,13163.393286858976,0.0,0.0,0.0,13163.393286858976,0.0,0.38427860527274676,0.7425349087003218,0.0,0.0,0.0,"[1.7622035559960274, 1.365684508022678, 1.1690051076061039, 2.0, 2.0, 2.0, 1.7004074718425244, 1.802691446329188]",20.36,0.0,0.0,0.0,1594.9251083915635,67.07691714666755,-1076.1535956105588,368.23071603225856,0.0,0.0,0.0,0.0,0.0,0.0,0.0,-5.5,20.560684300601686,0.0,20.338713986170255,0.0,-5.5,20.36,19.1,21.58,20.06,21.06,-5.96,-5.5,3250.59,-766.06,-893.86,0.0,80.0,0.0,1153.0,0.0,0.0,0.0,0.0,0.0,0.0,0.0,0.0,0.0,0.0,0.0,0.0,0.0,0.0
28.0,1667.0,10688.942287282744,8968.49757584633,-0.0,0.0,0.0,0.0,18337.662106949487,0.0,0.0,0.0,18337.662106949487,0.0,0.38427860527274676,0.7425349087003218,0.0,0.0,0.0,"[1.7622035559960274, 1.365684508022678, 1.1690051076061039, 2.0, 2.0, 2.0, 1.7004074718425244, 1.802691446329188]",20.84,0.0,0.0,0.0,1127.8333758507652,55.05596425299953,-1091.8288851182267,-379.2310249329387,6092.807311155633,0.0,0.0,0.0,0.0,0.0,0.0,-5.4,20.660969888475062,0.0,20.286999048354875,0.0,-5.4,20.84,19.1,21.48,20.29,21.16,-5.86,-5.4,104.05,-777.22,-906.88,0.0,80.0,0.0,803.0,0.0,0.0,0.0,0.0,0.0,0.0,0.0,0.0,0.0,0.0,0.0,0.0,0.0,0.0
29.0,740.0,20644.129254426254,19800.908608154125,-0.0,0.0,0.0,0.0,12524.024194675556,0.0,-28339.933402592625,0.0,40863.95759726818,0.0,0.5,0.7425349087003218,0.0,0.0,0.0,"[1.7622035559960274, 1.365684508022678, 1.1690051076061039, 2.0, 2.0, 2.0, 1.7004074718425244, 1.802691446329188]",23.76,0.0,0.0,0.0,105.56975549004797,28.747250205714657,-1205.0606813895506,-4201.758195608882,5275.881880881161,0.0,0.0,0.0,0.0,0.0,0.0,-5.2,21.657533808502098,0.0,20.43339807838573,0.0,-5.2,23.76,19.19,21.68,22.61,22.8,-5.65,-5.2,1406.62,-857.82,-1000.93,0.0,80.0,0.0,37.0,0.0,0.0,0.0,0.0,0.0,0.0,0.0,0.0,0.0,0.0,0.0,0.0,0.0,0.0
30.0,768.0,12173.2460761343,7637.398473982732,-0.0,0.0,-3706.981371770897,0.0,15834.426141307475,0.0,0.0,0.0,15834.426141307478,0.1513684060139783,0.5,0.7425349087003218,0.0,0.0,0.0,"[1.7622035559960274, 1.365684508022678, 1.1690051076061039, 2.0, 2.0, 2.0, 1.7004074718425244, 1.802691446329188]",23.76,0.0,0.0,0.0,206.71443140865682,77.51797337431064,-1200.8998768462784,-3926.4416327989443,4852.223419818818,0.0,0.0,0.0,0.0,0.0,0.0,-5.1,21.796211238152964,0.0,20.61589184950556,0.0,-5.1,23.76,19.31,21.92,22.56,22.88,-5.56,-5.1,845.94,-854.86,-997.48,0.0,169.0,28.0,63.0,0.0,0.0,0.0,0.0,0.0,0.0,0.0,0.0,0.0,0.0,0.0,0.0,0.0,0.0
31.0,1481.0,0.0,2079.18490944877,-0.0,0.0,3560.18490944877,0.0,4330.543279759819,0.0,0.0,0.0,4330.543279759819,0.0,0.5,0.7425349087003218,0.0,0.0,0.0,"[1.7622035559960274, 1.365684508022678, 1.1690051076061039, 2.0, 2.0, 2.0, 1.7004074718425244, 1.802691446329188]",23.76,0.0,0.0,0.0,144.13116318401757,82.70415590843596,-1196.7390723030069,-3677.0498805389802,0.0,0.0,0.0,0.0,0.0,0.0,0.0,-5.0,21.921821719449564,0.0,20.78252286639767,0.0,-5.0,23.76,19.42,22.15,22.59,23.0,-5.45,-5.0,3853.24,-851.9,-994.02,0.0,137.0,56.0,30.0,0.0,0.0,0.0,0.0,0.0,0.0,0.0,0.0,0.0,0.0,0.0,0.0,0.0,0.0
32.0,3717.0,21630.535589088955,1805.3829111435139,-0.0,0.0,-16000.0,0.0,3794.6887842288415,0.0,0.0,0.0,3794.6887842288415,0.6533333333333333,0.5,0.7425349087003218,0.0,0.0,0.0,"[1.162168734924439, 1.2763044755656665, 1.1690051076061039, 0.6017455767596651, 0.9715087852179458, 1.060342814600098, 1.2474820351064686, 1.2001177253208475]",21.42,0.0,0.0,1.224144966357117,301.95900123201346,75.59462091132374,-1090.79430356317,-426.47436730488266,0.0,0.0,0.0,0.0,0.0,0.0,0.0,-4.8,21.212292156727766,0.0,20.79125851197052,0.0,-4.8,21.42,19.45,22.13,20.8,21.77,-5.26,-4.8,0.0,-776.48,-906.02,1.78,114.0,50.0,161.0,0.0,0.0,0.0,0.0,0.0,0.0,0.0,0.0,0.0,0.0,0.0,0.0,0.0,0.0
33.0,1716.0,0.0,1140.5553654052985,-0.0,6.730546185707031,2849.8248192195915,0.0,2506.0371851902514,0.0,0.0,0.0,2506.0371851902514,0.5321673121080106,0.5,0.7425349087003218,0.0,0.0,0.0,"[1.162168734924439, 1.2763044755656665, 1.1690051076061039, 0.6017455767596651, 0.9715087852179458, 1.060342814600098, 1.2474820351064686, 1.2001177253208475]",20.84,0.0,0.0,37.64656858991534,346.9824298874497,59.76130867137816,-1025.132002640939,277.1726972567858,311.27264922603666,0.0,0.0,0.0,0.0,0.0,0.0,-3.8,20.988020449698812,0.0,20.734853887434934,0.0,-3.8,20.84,19.45,22.02,20.5,21.51,-4.2,-3.8,302.53,-729.74,-851.48,54.81,109.0,25.0,200.0,0.0,0.0,0.0,0.0,0.0,0.0,0.0,0.0,0.0,0.0,0.0,0.0,0.0,0.0
34.0,2352.0,0.0,2128.092061566248,-0.0,117.11688078583849,4362.97518078041,0.0,5441.06309418099,0.0,542.0372409787942,0.0,4899.025853202196,0.3466666666666667,0.4976954198937976,0.7425349087003218,0.0,0.0,0.0,"[1.162168734924439, 1.2763044755656665, 1.1690051076061039, 0.6017455767596651, 0.9715087852179458, 1.060342814600098, 1.2474820351064686, 1.2001177253208475]",20.84,0.0,0.0,73.00739873862615,553.9778187292138,67.76382874059144,-979.3631526649475,181.06821851552138,4726.009229122055,0.0,0.0,0.0,0.0,0.0,0.0,-2.7,20.939133670479322,0.0,20.678366536865084,0.0,-2.7,20.84,19.45,21.91,20.54,21.48,-3.1,-2.7,3430.0,-697.16,-813.47,106.28,155.0,5.0,333.0,0.0,0.0,0.0,0.0,0.0,0.0,0.0,0.0,0.0,0.0,0.0,0.0,0.0,0.0
35.0,2675.0,29713.586903462892,11471.690493748505,-0.0,581.6715248029304,-16000.0,0.0,27502.314300279897,0.0,0.0,0.0,27502.314300279897,1.0,0.4976954198937976,0.7425349087003218,0.0,0.0,0.0,"[1.162168734924439, 1.2763044755656665, 1.1690051076061039, 0.6017455767596651, 0.9715087852179458, 1.060342814600098, 1.2474820351064686, 1.2001177253208475]",23.16,0.0,0.0,111.43616011994766,312.213947540428,38.295321361256676,-1034.4662462786723,-2901.497519611704,3480.5612138775373,0.0,0.0,0.0,0.0,0.0,0.0,-1.7,21.710874903845063,0.0,20.7701778433821,0.0,-1.7,23.16,19.53,22.02,22.33,22.73,-2.08,-1.7,325.56,-736.39,-859.24,162.23,93.0,0.0,185.0,0.0,0.0,0.0,0.0,0.0,0.0,0.0,0.0,0.0,0.0,0.0,0.0,0.0,0.0
36.0,1550.0,6918.931103204823,6161.218273094783,-0.0,826.8818254059847,0.0,0.0,15182.107032000671,0.0,0.0,0.0,15182.107032000673,1.0,0.4976954198937976,0.7425349087003218,0.0,0.0,0.0,"[1.162168734924439, 1.2763044755656665, 1.1690051076061039, 0.6017455767596651, 0.9715087852179458, 1.060342814600098, 1.2474820351064686, 1.2001177253208475]",23.16,0.0,0.0,121.96315986339722,492.4481408787269,12.673518907895714,-1005.3406144757687,-2731.4010922968555,3113.3978540634516,0.0,0.0,0.0,0.0,0.0,0.0,-1.0,21.796339229599646,0.0,20.886001505991537,0.0,-1.0,23.16,19.61,22.16,22.21,22.71,-1.51,-1.0,3364.07,-715.65,-835.04,177.55,0.0,0.0,369.0,0.0,0.0,0.0,0.0,0.0,0.0,0.0,0.0,0.0,0.0,0.0,0.0,0.0,0.0
37.0,1124.0,6220.480366930522,5302.789500739168,-0.0,237.41153564329807,0.0,0.0,13218.477348563905,0.0,0.0,0.0,13218.477348563905,1.0,0.4976954198937976,0.7425349087003218,0.0,0.0,0.0,"[1.162168734924439, 1.2763044755656665, 1.1690051076061039, 0.6017455767596651, 0.9715087852179458, 1.060342814600098, 1.2474820351064686, 1.2001177253208475]",23.16,0.0,0.0,86.00219547657152,138.7929719549799,3.571940288404211,-992.8582008459529,-2581.6611458138555,3348.152338020082,0.0,0.0,0.0,0.0,0.0,0.0,-0.7,21.871673222823837,0.0,20.989388310790353,0.0,-0.7,23.16,19.7,22.28,22.2,22.75,-1.24,-0.7,0.0,-706.77,-824.68,125.2,0.0,0.0,104.0,0.0,0.0,0.0,0.0,0.0,0.0,0.0,0.0,0.0,0.0,0.0,0.0,0.0,0.0
38.0,2532.0,6879.892778843469,4313.725424862086,-0.0,0.23210991283392307,0.0,0.0,10506.253009452032,0.0,0.0,0.0,10506.253009452032,1.0,0.4976954198937976,0.7425349087003213,0.0,0.0,0.0,"[1.162168734924439, 1.2763044755656665, 1.1690051076061039, 0.6017455767596651, 0.9715087852179458, 1.060342814600098, 1.2474820351064686, 1.2001177253208475]",23.16,0.0,0.0,21.12590573063665,92.08379870090013,2.3698449990374066,-1017.8230281055846,-2439.287596339296,873.9153493825972,0.0,0.0,0.0,0.0,0.0,0.0,-1.3,21.94364007234642,0.0,21.088791307288957,0.0,-1.3,23.16,19.78,22.4,22.26,22.84,-1.8,-1.3,3720.53,-724.54,-845.41,30.75,0.0,0.0,69.0,0.0,0.0,0.0,0.0,0.0,0.0,0.0,0.0,0.0,0.0,0.0,0.0,0.0,0.0
39.0,829.0,0.0,1195.9212757394287,-0.0,0.0,2024.9212757394287,0.0,2844.3082033455166,0.0,0.0,0.0,2844.3082033455166,0.9139064083444121,0.4976954198937976,0.7425349087003213,0.0,0.0,0.0,"[1.162168734924439, 1.2763044755656665, 1.1690051076061039, 0.6017455767596651, 0.9715087852179458, 1.060342814600098, 1.2474820351064686, 1.2001177253208475]",21.92,0.0,0.0,2.4398791527184924,40.03643421778266,1.030367390885827,-991.04265192813,-709.0479232165835,0.0,0.0,0.0,0.0,0.0,0.0,0.0,-1.9,21.57151720369064,0.0,21.10224147258818,0.0,-1.9,21.92,19.82,22.38,21.31,22.18,-2.41,-1.9,0.0,-705.48,-823.17,3.55,0.0,0.0,30.0,0.0,0.0,0.0,0.0,0.0,0.0,0.0,0.0,0.0,0.0,0.0,0.0,0.0,0.0
40.0,914.0,6313.733190807875,5368.164524853835,-0.0,0.0,0.0,0.0,12664.971271197468,0.0,0.0,0.0,12664.971271197466,0.9139064083444121,0.4976954198937976,0.7425349087003213,0.0,0.0,0.0,"[1.162168734924439, 1.2763044755656665, 1.1690051076061039, 0.6017455767596651, 0.9715087852179458, 1.060342814600098, 1.2474820351064686, 1.2001177253208475]",21.08,0.0,0.0,0.0,194.07134691883067,61.71900671406124,-964.6319774239628,353.90910593490986,0.0,0.0,0.0,0.0,0.0,0.0,0.0,-2.1,21.27207603898805,0.0,21.04949575660535,0.0,-2.1,21.08,19.82,22.27,20.76,21.76,-2.62,-2.1,593.89,-686.67,-801.23,0.0,163.0,6.0,59.0,0.0,0.0,0.0,0.0,0.0,0.0,0.0,0.0,0.0,0.0,0.0,0.0,0.0,0.0
41.0,2267.0,7324.864215426237,5021.239894349106,-0.0,0.0,0.0,0.0,11750.74295065185,0.0,0.0,0.0,11750.74295065185,0.9139064083444121,0.4976954198937976,0.7425349087003213,0.0,0.0,0.0,"[1.162168734924439, 1.2763044755656665, 1.1690051076061039, 0.6017455767596651, 0.9715087852179458, 1.060342814600098, 1.2474820351064686, 1.2001177253208475]",20.9,0.0,0.0,0.0,218.23368616605399,101.42249684286186,-965.3606070964371,490.72759970570456,40.94023953672127,0.0,0.0,0.0,0.0,0.0,0.0,-2.3,21.158527130013834,0.0,20.980863359288143,0.0,-2.3,20.9,19.82,22.15,20.68,21.63,-2.81,-2.3,0.0,-687.19,-801.84,0.0,149.0,77.0,77.0,0.0,0.0,0.0,0.0,0.0,0.0,0.0,0.0,0.0,0.0,0.0,0.0,0.0,0.0
42.0,5143.0,0.0,5760.695121585439,-0.0,0.0,10903.695121585439,0.0,13371.384624816195,0.0,0.0,0.0,13371.384624816194,0.45031392868516723,0.4976954198937976,0.7425349087003213,0.0,0.0,0.0,"[1.162168734924439, 1.2763044755656665, 1.1690051076061039, 0.6017455767596651, 0.9715087852179458, 1.060342814600098, 1.2474820351064686, 1.2001177253208475]",20.84,0.0,0.0,0.0,500.80662451366743,77.96446591036116,-971.0415435784037,466.8245990957222,4547.786511449284,0.0,0.0,0.0,0.0,0.0,0.0,-2.5,21.083100473007853,0.0,20.914037012350846,0.0,-2.5,20.84,19.8,22.02,20.66,21.55,-3.07,-2.5,3270.05,-691.24,-806.56,0.0,81.0,63.0,326.0,0.0,0.0,0.0,0.0,0.0,0.0,0.0,0.0,0.0,0.0,0.0,0.0,0.0,0.0
43.0,5819.0,0.0,1260.9671679478781,-0.0,0.0,7079.967167947878,0.0,2902.8399980352556,0.0,0.0,0.0,2902.8399980352556,0.14929491644248538,0.4976954198937976,0.7425349087003213,0.0,0.0,0.0,"[1.162168734924439, 1.2763044755656665, 1.1690051076061039, 0.6017455767596651, 0.9715087852179458, 1.060342814600098, 1.2474820351064686, 1.2001177253208475]",23.16,0.0,0.0,0.0,855.9368199612271,110.38669314356862,-1076.0742917113917,-2636.282127194528,0.0,0.0,0.0,0.0,0.0,0.0,0.0,-2.7,21.84501247480364,0.0,20.991668330698644,0.0,-2.7,23.16,19.86,22.12,22.43,22.78,-3.29,-2.7,1996.09,-766.01,-893.8,0.0,128.0,76.0,566.0,0.0,0.0,0.0,0.0,0.0,0.0,0.0,0.0,0.0,0.0,0.0,0.0,0.0,0.0
44.0,4947.0,9098.503424512743,0.0,-0.0,0.0,-4106.0109073901785,0.0,6431.78501336651,0.0,6431.78501336651,0.0,0.0,0.5518832249898831,0.5212040783582298,0.7274973147153588,0.0,0.0,0.0,"[0.2922359890264481, 0.8616615199238851, 0.43564723799033445, 0.15391340467341408, 0.45122668797509036, 1.060342814600098, 1.2474820351064686, 1.2001177253208475]",21.77,0.0,0.0,0.0,1475.307481246153,148.23552196877478,-1026.555640565355,-707.1418786847321,0.0,0.0,0.0,0.0,0.0,0.0,0.0,-2.9,21.426369424546696,0.0,20.999533528619043,0.0,-2.9,21.77,19.89,22.11,21.14,21.91,-3.46,-2.9,0.0,-730.76,-852.67,0.0,167.0,91.0,1008.0,0.0,0.0,0.0,0.0,0.0,0.0,0.0,0.0,0.0,0.0,0.0,0.0,0.0,0.0
45.0,5295.0,0.0,0.0,-0.0,0.0,5295.0,0.0,691.0572245004347,0.0,691.0572245004347,0.0,0.0,0.32675567396947486,0.5182659098867144,0.6925886143931247,0.0,0.0,0.0,"[0.2922359890264481, 0.8616615199238851, 0.43564723799033445, 0.15391340467341408, 0.45122668797509036, 1.060342814600098, 1.2474820351064686, 1.2001177253208475]",21.71,0.0,0.0,0.0,2767.21999803155,189.00372506815745,-1032.2025720527695,-656.6782339324587,-85.1035232990333,0.0,0.0,0.0,0.0,0.0,0.0,-3.1,21.387570902436224,0.0,20.97891385620219,0.0,-3.1,21.71,19.89,22.06,21.13,21.87,-3.66,-3.1,0.0,-734.78,-857.36,0.0,107.0,135.0,2003.0,0.0,0.0,0.0,0.0,0.0,0.0,0.0,0.0,0.0,0.0,0.0,0.0,0.0,0.0
46.0,3306.0,3322.613065326633,0.0,-0.0,0.0,0.0,0.0,12946.300070494899,0.0,12946.300070494897,0.0,0.0,0.32675567396947486,0.4632221170699844,0.6925886143931245,0.0,0.0,0.0,"[0.2922359890264481, 0.8616615199238851, 0.43564723799033445, 0.15391340467341408, 0.45122668797509036, 1.060342814600098, 1.2474820351064686, 1.2001177253208475]",22.29,0.0,0.0,0.0,675.9133446977589,124.91487335505882,-1064.8429177562896,-1471.2773221263865,589.9621710817446,0.0,0.0,0.0,0.0,0.0,0.0,-3.3,21.561954631733602,0.0,20.978984318860896,0.0,-3.3,22.29,19.91,22.05,21.43,22.06,-3.9,-3.3,0.0,-758.01,-884.47,0.0,134.0,104.0,425.0,0.0,0.0,0.0,0.0,0.0,0.0,0.0,0.0,0.0,0.0,0.0,0.0,0.0,0.0
47.0,2131.0,0.0,5554.29345176205,-0.0,0.0,7685.29345176205,0.0,12415.740226529537,0.0,0.0,0.0,12415.740226529539,0.0,0.4632221170699844,0.6925886143931245,0.0,0.0,0.0,"[0.2922359890264481, 0.8616615199238851, 0.43564723799033445, 0.15391340467341408, 0.45122668797509036, 1.060342814600098, 1.2474820351064686, 1.2001177253208475]",21.71,0.0,0.0,0.0,241.69363183050902,59.04005149775807,-1044.6849856825852,-668.3150853493015,1419.2081278056755,0.0,0.0,0.0,0.0,0.0,0.0,-3.4,21.381847703251626,0.0,20.978560144135784,0.0,-3.4,21.71,19.93,22.03,21.21,21.9,-3.99,-3.4,3242.45,-743.66,-867.72,0.0,83.0,42.0,133.0,0.0,0.0,0.0,0.0,0.0,0.0,0.0,0.0,0.0,0.0,0.0,0.0,0.0,0.0
48.0,1359.0,4414.469283491486,3033.3969370740288,-0.0,0.0,0.0,0.0,6433.657085678067,0.0,0.0,0.0,6433.657085678067,0.0,0.4632221170699844,0.6829215896885058,0.0,0.0,0.0,"[0.2922359890264481, 0.8616615199238851, 0.43564723799033445, 0.15391340467341408, 0.45122668797509036, 1.060342814600098, 1.2474820351064686, 1.2001177253208475]",21.71,0.0,0.0,0.0,261.71184893940034,32.765683030169406,-1094.6146402018483,-677.2919197598741,2641.2984533816243,0.0,0.0,0.0,0.0,0.0,0.0,-4.6,21.377821984357542,0.0,20.97647941924447,0.0,-4.6,21.71,19.94,22.01,21.3,21.95,-5.17,-4.6,2642.92,-779.2,-909.2,0.0,80.0,0.0,154.0,0.0,0.0,0.0,0.0,0.0,0.0,0.0,0.0,0.0,0.0,0.0,0.0,0.0,0.0
49.0,770.0,10162.469731677875,9341.657383019485,-0.0,0.0,0.0,0.0,18744.425060942434,0.0,0.0,0.0,18744.425060942434,0.0,0.4632221170699844,0.6603651987110621,0.0,0.0,0.0,"[0.2922359890264481, 0.8616615199238851, 0.43564723799033445, 0.15391340467341408, 0.45122668797509036, 1.060342814600098, 1.2474820351064686, 1.2001177253208475]",22.29,0.0,0.0,0.0,114.91159014086394,28.98766926358802,-1168.863031338088,-1439.9053132334584,2468.277362448168,0.0,0.0,0.0,0.0,0.0,0.0,-5.8,21.578801147807763,0.0,21.009304656137793,0.0,-5.8,22.29,19.97,22.05,21.75,22.27,-6.37,-5.8,0.0,-832.06,-970.87,0.0,80.0,0.0,44.0,0.0,0.0,0.0,0.0,0.0,0.0,0.0,0.0,0.0,0.0,0.0,0.0,0.0,0.0
50.0,2276.0,22533.498389979843,4144.830898029945,-0.0,0.0,-16000.0,0.0,7842.608685769252,0.0,0.0,0.0,7842.60868576925,0.6533333333333333,0.4632221170699844,0.6603651987110621,0.0,0.0,0.0,"[0.2922359890264481, 0.8616615199238851, 0.43564723799033445, 0.15391340467341408, 0.45122668797509036, 1.060342814600098, 1.2474820351064686, 1.2001177253208475]",22.29,0.0,0.0,0.0,201.6571976127264,31.22013194384065,-1218.7926858573514,-1384.457520991764,2374.0436403831695,0.0,0.0,0.0,0.0,0.0,0.0,-7.0,21.607256188247142,0.0,21.047617610081044,0.0,-7.0,22.29,19.99,22.1,21.75,22.29,-7.6,-7.0,451.54,-867.6,-1012.34,0.0,80.0,0.0,109.0,0.0,0.0,0.0,0.0,0.0,0.0,0.0,0.0,0.0,0.0,0.0,0.0,0.0,0.0
51.0,1486.0,17896.656760213606,7831.3775580451875,-0.0,0.0,-8489.795918367347,0.0,14370.12495644292,0.0,0.0,0.0,14370.124956442916,1.0,0.4632221170699844,0.6603651987110621,0.0,0.0,0.0,"[0.2922359890264481, 0.8616615199238851, 0.43564723799033445, 0.15391340467341408, 0.45122668797509036, 1.060342814600098, 1.2474820351064686, 1.2001177253208475]",22.29,0.0,0.0,0.0,192.31536296191038,30.979712885967288,-1243.7575131169829,-1336.0284643383557,2360.133396995512,0.0,0.0,0.0,0.0,0.0,0.0,-7.6,21.63191368687619,0.0,21.080659819858006,0.0,-7.6,22.29,20.02,22.14,21.75,22.31,-8.21,-7.6,2947.64,-885.37,-1033.08,0.0,80.0,0.0,102.0,0.0,0.0,0.0,0.0,0.0,0.0,0.0,0.0,0.0,0.0,0.0,0.0,0.0,0.0
52.0,749.0,0.0,3868.0017381717635,-0.0,0.0,4617.0017381717635,0.0,9724.425341603734,0.0,2884.9897590524442,0.0,6839.435582551289,0.803698905689976,0.45095600414884307,0.6603651987110621,0.0,0.0,0.0,"[0.2922359890264481, 0.8616615199238851, 0.43564723799033445, 0.15391340467341408, 0.45122668797509036, 1.060342814600098, 1.2474820351064686, 1.2001177253208475]",22.29,0.0,0.0,0.0,166.9589546239814,30.3271468717396,-1272.8831449198865,-1292.1875621057602,2371.3503742967187,0.0,0.0,0.0,0.0,0.0,0.0,-8.3,21.65430501965305,0.0,21.110650447470228,0.0,-8.3,22.29,20.04,22.18,21.76,22.33,-8.93,-8.3,280.04,-906.1,-1057.27,0.0,80.0,0.0,83.0,0.0,0.0,0.0,0.0,0.0,0.0,0.0,0.0,0.0,0.0,0.0,0.0,0.0,0.0
53.0,581.0,0.0,6190.994830752456,-0.0,0.0,6771.994830752456,0.0,10592.849012125873,0.0,0.0,0.0,10592.849012125873,0.5157739554028818,0.45095600414884307,0.6603651987110621,0.0,0.0,0.0,"[0.2922359890264481, 0.8616615199238851, 0.43564723799033445, 0.15391340467341408, 0.45122668797509036, 1.060342814600098, 1.2474820351064686, 1.2001177253208475]",22.29,0.0,0.0,0.0,139.98704104568571,40.08129150545879,-1297.8479721795184,-1252.0491978255109,1214.5245259424953,0.0,0.0,0.0,0.0,0.0,0.0,-8.9,21.67479090247493,0.0,21.137995825845422,0.0,-8.9,22.29,20.06,22.22,21.77,22.35,-9.55,-8.9,3165.35,-923.88,-1078.0,0.0,80.0,17.0,61.0,0.0,0.0,0.0,0.0,0.0,0.0,0.0,0.0,0.0,0.0,0.0,0.0,0.0,0.0
54.0,1126.0,0.0,3979.2909546763544,-0.0,0.0,5105.290954676355,0.0,6618.924359029986,0.0,0.0,0.0,6618.924359029986,0.2987122651530368,0.45095600414884307,0.660365198711062,0.0,0.0,0.0,"[0.2922359890264481, 0.8616615199238851, 0.43564723799033445, 0.15391340467341408, 0.45122668797509036, 1.060342814600098, 1.2474820351064686, 1.2001177253208475]",21.71,0.0,0.0,0.0,155.9313753745219,60.44822026530203,-1294.333258278902,-461.81573494566265,1546.8767056589622,0.0,0.0,0.0,0.0,0.0,0.0,-9.4,21.488442058448797,0.0,21.127214786595225,0.0,-9.4,21.71,20.06,22.2,21.33,22.05,-10.05,-9.4,0.0,-921.37,-1075.08,0.0,147.0,14.0,38.0,0.0,0.0,0.0,0.0,0.0,0.0,0.0,0.0,0.0,0.0,0.0,0.0,0.0,0.0
55.0,803.0,0.0,6222.712476399426,-0.0,0.0,7025.712476399426,0.0,10053.887917984715,0.0,0.0,0.0,10053.887917984714,0.0,0.45095600414884307,0.660365198711062,0.0,0.0,0.0,"[0.2922359890264481, 0.8616615199238851, 0.43564723799033445, 0.15391340467341408, 0.45122668797509036, 1.060342814600098, 1.2474820351064686, 1.2001177253208475]",21.71,0.0,0.0,0.0,165.27321002533796,39.3943799115349,-1315.1372809952613,-488.72097261681864,1603.8225286531376,0.0,0.0,0.0,0.0,0.0,0.0,-9.9,21.47510301154349,0.0,21.110793306610454,0.0,-9.9,21.71,20.05,22.17,21.38,22.06,-10.57,-9.9,450.41,-936.18,-1092.36,0.0,108.0,0.0,67.0,0.0,0.0,0.0,0.0,0.0,0.0,0.0,0.0,0.0,0.0,0.0,0.0,0.0,0.0
56.0,822.0,28505.103855087415,17158.32578577819,-0.0,0.0,-4918.628550033788,0.0,6194.952314486084,27318.12,0.0,0.0,28049.448314486086,0.20084399912637968,0.45095600414884307,0.660365198711062,21854.496,5463.624,27318.12,"[0.2922359890264481, 0.8616615199238851, 0.43564723799033445, 0.15391340467341408, 0.45122668797509036, 0.6952661180835769, 1.0927312145617947, 1.2001177253208475]",21.71,0.0,0.0,5.074240106199138,253.0021685130758,50.762766790975235,-1306.8156719087174,-513.7111015171184,1517.747121571911,0.0,0.0,0.0,0.0,0.0,0.0,-9.7,21.462434874052853,0.0,21.094859930502267,0.0,-9.7,21.71,20.05,22.14,21.37,22.05,-10.39,-9.7,820.19,-930.26,-1085.45,7.39,136.0,0.0,118.0,0.0,0.0,0.0,0.0,0.0,0.0,0.0,0.0,0.0,0.0,0.0,0.0,0.0,0.0
57.0,1275.0,0.0,4932.596520351476,-1992.541664851874,8200.13818520335,0.0,0.0,9192.101248309471,0.0,0.0,0.0,9192.101248309471,0.20084399912637968,0.45095600414884307,0.6672167454884474,0.0,0.0,0.0,"[0.2922359890264481, 0.8616615199238851, 0.43564723799033445, 0.15391340467341408, 0.45122668797509036, 0.6952661180835769, 1.0927312145617947, 1.2001177253208475]",21.71,0.0,0.0,1359.5776086814344,33.36369518148555,0.8586394924048578,-1206.9563628701908,-534.8723151118046,1532.879137716208,0.0,0.0,0.0,0.0,0.0,0.0,-7.3,21.45036626892409,0.0,21.079665395149213,0.0,-7.3,21.71,20.04,22.12,21.36,22.03,-7.04,-7.3,0.0,-859.17,-1002.51,1979.26,0.0,0.0,25.0,0.0,0.0,0.0,0.0,0.0,0.0,0.0,0.0,0.0,0.0,0.0,0.0,0.0,0.0
58.0,5676.0,0.0,0.0,-0.0,14132.72773253693,-8456.72773253693,0.0,0.0,0.0,0.0,0.0,0.0,0.5461603815383044,0.45095600414884307,0.6672167454884474,0.0,0.0,0.0,"[0.2922359890264481, 0.8616615199238851, 0.43564723799033445, 0.15391340467341408, 0.45122668797509036, 0.6952661180835769, 1.0927312145617947, 1.2001177253208475]",22.29,0.0,0.0,1559.290356798712,88.08015527912185,2.266808259948825,-1143.8982040784563,-1249.9079694641093,0.0,0.0,0.0,0.0,0.0,0.0,0.0,-5.2,21.673879195869095,0.0,21.14045971371214,0.0,-5.2,22.29,20.08,22.2,22.15,22.6,-4.82,-5.2,0.0,-814.29,-950.13,2270.0,0.0,0.0,66.0,0.0,0.0,0.0,0.0,0.0,0.0,0.0,0.0,0.0,0.0,0.0,0.0,0.0,0.0
59.0,7364.0,0.0,2264.7110588044497,-8111.467754686458,17740.178813490907,0.0,0.0,5062.401624700708,0.0,0.0,0.0,5062.401624700709,0.5461603815383044,0.45095600414884307,0.695108810048422,0.0,0.0,0.0,"[0.2922359890264481, 0.8616615199238851, 0.43564723799033445, 0.15391340467341408, 0.45122668797509036, 0.6952661180835769, 1.0927312145617947, 1.2001177253208475]",21.9,0.0,0.0,1754.4647374203641,62.72374694119285,1.6142422457211305,-1052.7425063581559,-642.9035193430482,689.7441009820993,0.0,0.0,0.0,0.0,0.0,0.0,-3.4,21.587947281466384,0.0,21.184685444824286,0.0,-3.4,21.9,20.11,22.26,21.83,22.42,-2.95,-3.4,2081.76,-749.4,-874.42,2554.13,0.0,0.0,47.0,0.0,0.0,0.0,0.0,0.0,0.0,0.0,0.0,0.0,0.0,0.0,0.0,0.0,0.0
60.0,4157.0,0.0,14143.216598589837,-0.0,18300.21659858984,0.0,0.0,6200.695805181994,0.0,-26762.533257256142,0.0,32963.229062438135,0.5461603815383044,0.560236348282639,0.695108810048422,0.0,0.0,0.0,"[0.2922359890264481, 0.8616615199238851, 0.43564723799033445, 0.15391340467341408, 0.45122668797509036, 0.6952661180835769, 1.0927312145617947, 1.2001177253208475]",22.29,0.0,0.0,1745.3794813158972,80.49430458522619,3.915396085366153,-1027.395676866842,-1084.4650584996734,320.1347626259271,0.0,0.0,0.0,0.0,0.0,0.0,-2.4,21.75607086308585,0.0,21.25163935336679,0.0,-2.4,22.29,20.16,22.34,22.21,22.72,-2.05,-2.4,0.0,-731.35,-853.36,2540.91,0.0,3.0,60.0,0.0,0.0,0.0,0.0,0.0,0.0,0.0,0.0,0.0,0.0,0.0,0.0,0.0,0.0
61.0,7070.0,0.0,2489.952613003639,-0.0,16169.368200748184,-6609.415587744545,0.0,2796.5997018726193,0.0,-3077.880889087434,0.0,5874.480590960053,0.8160448513712066,0.5728043619130794,0.6736265329270471,0.0,0.0,0.0,"[0.2922359890264481, 0.8616615199238851, 0.43564723799033445, 0.15391340467341408, 0.45122668797509036, 0.6952661180835769, 1.0927312145617947, 1.2001177253208475]",22.29,0.0,0.0,1501.8527372980825,324.7867926719773,55.50245678905006,-1014.9132632370263,-987.9275441177213,159.53492226746891,0.0,0.0,0.0,0.0,0.0,0.0,-2.1,21.804646941878143,0.0,21.31776547677468,0.0,-2.1,22.29,20.21,22.42,22.19,22.73,-1.89,-2.1,1290.01,-722.47,-843.0,2186.38,109.0,19.0,184.0,0.0,0.0,0.0,0.0,0.0,0.0,0.0,0.0,0.0,0.0,0.0,0.0,0.0,0.0
62.0,2173.0,0.0,2354.7259300298083,-0.0,9032.74997808189,-4505.024048052082,0.0,5398.305512164625,0.0,0.0,0.0,5398.305512164625,1.0,0.5728043619130794,0.6736265329270471,0.0,0.0,0.0,"[0.2922359890264481, 0.8616615199238851, 0.43564723799033445, 0.15391340467341408, 0.45122668797509036, 0.6952661180835769, 1.0927312145617947, 1.2001177253208475]",22.29,0.0,0.0,778.1154653048793,316.2175909622062,71.37011460869184,-1044.0388950399297,-914.2156368306653,0.0,0.0,0.0,0.0,0.0,0.0,0.0,-2.8,21.842255588755467,0.0,21.370151250854864,0.0,-2.8,22.29,20.26,22.48,22.12,22.71,-3.01,-2.8,0.0,-743.2,-867.19,1132.77,166.0,15.0,148.0,0.0,0.0,0.0,0.0,0.0,0.0,0.0,0.0,0.0,0.0,0.0,0.0,0.0,0.0
63.0,1209.0,0.0,2046.3065030654436,-0.0,0.0,3255.3065030654434,0.0,4379.11227418969,0.0,0.0,0.0,4379.11227418969,0.8615941112642244,0.5728043619130794,0.6736265329270471,0.0,0.0,0.0,"[0.2922359890264481, 0.8616615199238851, 0.43564723799033445, 0.15391340467341408, 0.45122668797509036, 0.6952661180835769, 1.0927312145617947, 1.2001177253208475]",21.88,0.0,0.0,16.64202504443587,396.1499806812179,45.336165198976516,-1093.4724339444263,-345.71791961253183,1077.440870899986,0.0,0.0,0.0,0.0,0.0,0.0,-4.4,21.717494789465658,0.0,21.374264648807085,0.0,-4.4,21.88,20.28,22.47,21.66,22.37,-5.15,-4.4,2552.75,-778.39,-908.25,24.23,108.0,0.0,240.0,0.0,0.0,0.0,0.0,0.0,0.0,0.0,0.0,0.0,0.0,0.0,0.0,0.0,0.0
64.0,1362.0,0.0,4567.250835219757,-0.0,0.0,5929.250835219757,0.0,9469.16626983311,0.0,0.0,0.0,9469.16626983311,0.6095001131681463,0.5728043619130794,0.6736265329270471,0.0,0.0,0.0,"[0.2922359890264481, 0.8616615199238851, 0.43564723799033445, 0.15391340467341408, 0.45122668797509036, 0.6952661180835769, 1.0927312145617947, 1.2001177253208475]",21.93,0.0,0.0,0.0,389.2665235700904,84.42143489324567,-1124.500476030495,-446.1304350562361,673.6615377180683,0.0,0.0,0.0,0.0,0.0,0.0,-5.1,21.712941551871705,0.0,21.35366786042198,0.0,-5.1,21.93,20.28,22.43,21.54,22.26,-5.85,-5.1,0.0,-800.48,-934.02,0.0,138.0,48.0,214.0,0.0,0.0,0.0,0.0,0.0,0.0,0.0,0.0,0.0,0.0,0.0,0.0,0.0,0.0
65.0,1603.0,3760.0109802864695,2138.210925385037,-0.0,0.0,0.0,0.0,4270.025158469916,0.0,0.0,0.0,4270.025158469916,0.6095001131681463,0.5728043619130794,0.6736265329270471,0.0,0.0,0.0,"[0.2922359890264481, 0.8616615199238851, 0.43564723799033445, 0.15391340467341408, 0.45122668797509036, 0.6952661180835769, 1.0927312145617947, 1.2001177253208475]",21.71,0.0,0.0,0.0,412.4455118014383,80.64342112666431,-1148.7050992643838,-196.25706188522813,861.3550233114588,0.0,0.0,0.0,0.0,0.0,0.0,-5.9,21.62080416857618,0.0,21.322822254424118,0.0,-5.9,21.71,20.28,22.37,21.38,22.13,-6.63,-5.9,0.0,-817.71,-954.12,0.0,117.0,52.0,242.0,0.0,0.0,0.0,0.0,0.0,0.0,0.0,0.0,0.0,0.0,0.0,0.0,0.0,0.0
66.0,2429.0,0.0,3805.6280605821903,-0.0,0.0,6234.62806058219,0.0,7309.629406155887,0.0,0.0,0.0,7309.629406155887,0.3444223895039376,0.5728043619130794,0.6736265329270471,0.0,0.0,0.0,"[0.2922359890264481, 0.8616615199238851, 0.43564723799033445, 0.15391340467341408, 0.45122668797509036, 0.6952661180835769, 1.0927312145617947, 1.2001177253208475]",21.71,0.0,0.0,0.0,547.2348403346399,75.1824739549694,-1181.9915356105594,-247.92543714541708,816.3393728836846,0.0,0.0,0.0,0.0,0.0,0.0,-6.7,21.59509809664151,0.0,21.291661824443317,0.0,-6.7,21.71,20.27,22.32,21.4,22.11,-7.41,-6.7,100.1,-841.4,-981.77,0.0,82.0,56.0,361.0,0.0,0.0,0.0,0.0,0.0,0.0,0.0,0.0,0.0,0.0,0.0,0.0,0.0,0.0
67.0,4822.0,24449.676980500673,3505.4285955981695,-0.0,0.0,-16000.0,0.0,6499.095418773432,0.0,0.0,0.0,6499.095418773431,0.9977557228372709,0.5728043619130794,0.6736265329270471,0.0,0.0,0.0,"[0.2922359890264481, 0.8616615199238851, 0.43564723799033445, 0.15391340467341408, 0.45122668797509036, 0.6952661180835769, 1.0927312145617947, 1.2001177253208475]",21.71,0.0,0.0,0.0,1902.0818221360607,122.95717531237574,-1211.117167413463,-297.9221310958189,658.4741531565513,0.0,0.0,0.0,0.0,0.0,0.0,-7.4,21.570204625119512,0.0,21.260914189373192,0.0,-7.4,21.71,20.26,22.26,21.38,22.07,-8.12,-7.4,0.0,-862.14,-1005.96,0.0,133.0,50.0,1350.0,0.0,0.0,0.0,0.0,0.0,0.0,0.0,0.0,0.0,0.0,0.0,0.0,0.0,0.0
68.0,4751.0,5502.877637553956,724.3632493661859,-0.0,0.0,0.0,0.0,1287.731212137125,0.0,0.0,0.0,1287.731212137125,0.9977557228372709,0.5728043619130794,0.6736265329270471,0.0,0.0,0.0,"[0.2922359890264481, 0.8616615199238851, 0.43564723799033445, 0.15391340467341408, 0.45122668797509036, 0.39934080659016047, 0.8567216521663887, 0.1141412673554214]",22.29,0.0,0.0,0.0,1489.7065496928994,132.9517390039683,-1268.7223403766145,-1125.7150244315624,0.0,0.0,0.0,0.0,0.0,0.0,0.0,-8.2,21.738173198389763,0.0,21.249688430564316,0.0,-8.2,22.29,20.25,22.25,21.65,22.25,-8.91,-8.2,0.0,-903.14,-1053.81,0.0,151.0,74.0,1029.0,0.0,0.0,0.0,0.0,0.0,0.0,0.0,0.0,0.0,0.0,0.0,0.0,0.0,0.0
69.0,4338.0,8438.978279382503,4003.8214982861023,-0.0,0.0,-54.961889699488765,0.0,6850.57535376645,0.0,0.0,0.0,6850.5753537664505,1.0,0.5728043619130794,0.6467736865253285,0.0,0.0,0.0,"[0.2922359890264481, 0.8616615199238851, 0.43564723799033445, 0.15391340467341408, 0.45122668797509036, 0.39934080659016047, 0.8567216521663887, 0.1141412673554214]",21.9,0.0,0.0,0.0,1377.0426190168935,132.40220972882918,-1281.340589530458,-611.2646354044075,813.5331137265152,0.0,0.0,0.0,0.0,0.0,0.0,-8.9,21.60076243108528,0.0,21.227868010892365,0.0,-8.9,21.9,20.24,22.21,21.36,22.04,-9.59,-8.9,1613.25,-912.12,-1064.29,0.0,162.0,72.0,939.0,0.0,0.0,0.0,0.0,0.0,0.0,0.0,0.0,0.0,0.0,0.0,0.0,0.0,0.0
70.0,2966.0,2980.904522613065,0.0,-0.0,0.0,0.0,0.0,12445.421521758677,0.0,12445.421521758679,0.0,0.0,1.0,0.5198901547627448,0.646773686525328,0.0,0.0,0.0,"[0.2922359890264481, 0.8616615199238851, 0.43564723799033445, 0.15391340467341408, 0.45122668797509036, 0.39934080659016047, 0.8567216521663887, 0.1141412673554214]",22.1,0.0,0.0,0.0,628.6422565774648,73.15608475289395,-1323.3230545577744,-916.6628050422465,759.3778607055382,0.0,0.0,0.0,0.0,0.0,0.0,-9.7,21.656312697381832,0.0,21.21758714261386,0.0,-9.7,22.1,20.24,22.2,21.57,22.17,-10.39,-9.7,0.0,-942.01,-1099.16,0.0,92.0,44.0,418.0,0.0,0.0,0.0,0.0,0.0,0.0,0.0,0.0,0.0,0.0,0.0,0.0,0.0,0.0
71.0,2166.0,2176.884422110553,0.0,-0.0,0.0,0.0,0.0,7677.341496808056,0.0,7677.341496808056,0.0,0.0,1.0,0.48724839669808473,0.6349584341085718,0.0,0.0,0.0,"[0.2922359890264481, 0.8616615199238851, 0.43564723799033445, 0.15391340467341408, 0.45122668797509036, 0.39934080659016047, 0.8567216521663887, 0.1141412673554214]",21.71,0.0,0.0,0.0,554.1885368040441,53.922560123025114,-1335.941303711621,-401.87439715679403,1136.0446458030192,0.0,0.0,0.0,0.0,0.0,0.0,-10.4,21.51907773351046,0.0,21.195165586920112,0.0,-10.4,21.71,20.22,22.17,21.34,22.0,-11.08,-10.4,2151.7,-950.99,-1109.64,0.0,103.0,10.0,360.0,0.0,0.0,0.0,0.0,0.0,0.0,0.0,0.0,0.0,0.0,0.0,0.0,0.0,0.0
72.0,1223.0,4949.740395358376,9826.816487743534,-0.0,0.0,6124.82479436195,0.0,14940.13211162207,0.0,0.0,0.0,14940.132111622072,0.7395907825526382,0.48724839669808473,0.6349584341085718,0.0,0.0,0.0,"[0.2922359890264481, 0.8616615199238851, 0.43564723799033445, 0.15391340467341408, 0.45122668797509036, 0.39934080659016047, 0.8567216521663887, 0.1141412673554214]",21.71,0.0,0.0,0.0,174.96624146753794,30.533220349916768,-1356.745326427981,-439.38474607904243,2754.237550269491,0.0,0.0,0.0,0.0,0.0,0.0,-10.9,21.5004011626921,0.0,21.1701691881431,0.0,-10.9,21.71,20.2,22.14,21.37,22.01,-11.61,-10.9,2237.98,-965.8,-1126.92,0.0,80.0,0.0,89.0,0.0,0.0,0.0,0.0,0.0,0.0,0.0,0.0,0.0,0.0,0.0,0.0,0.0,0.0
73.0,1398.0,0.0,6042.610702021565,-0.0,0.0,7440.610702021565,0.0,8841.204787242532,0.0,0.0,0.0,8841.204787242532,0.42323828671838803,0.48724839669808473,0.6285137509721593,0.0,0.0,0.0,"[0.2922359890264481, 0.8616615199238851, 0.43564723799033445, 0.15391340467341408, 0.45122668797509036, 0.39934080659016047, 0.8567216521663887, 0.1141412673554214]",22.29,0.0,0.0,0.0,170.96259804575968,30.43018361082818,-1406.028890304589,-1218.8934947620173,1267.0905455526906,0.0,0.0,0.0,0.0,0.0,0.0,-11.5,21.69262318288006,0.0,21.188022705884162,0.0,-11.5,22.29,20.21,22.17,21.88,22.37,-12.23,-11.5,2028.97,-1000.88,-1167.86,0.0,80.0,0.0,86.0,0.0,0.0,0.0,0.0,0.0,0.0,0.0,0.0,0.0,0.0,0.0,0.0,0.0,0.0
74.0,966.0,14269.794706407567,13232.445732875529,-0.0,0.0,0.0,0.0,18477.92029312027,0.0,0.0,0.0,18477.920293120274,0.42323828671838803,0.48724839669808473,0.6285137509721593,0.0,0.0,0.0,"[0.2922359890264481, 0.8616615199238851, 0.43564723799033445, 0.15391340467341408, 0.45122668797509036, 0.39934080659016047, 0.8567216521663887, 0.1141412673554214]",21.71,0.0,0.0,0.0,118.91523356264221,29.0907060026766,-1410.835785490516,-429.46837172400996,2855.735551013726,0.0,0.0,0.0,0.0,0.0,0.0,-12.2,21.505959321904598,0.0,21.174384271182,0.0,-12.2,21.71,20.19,22.16,21.38,22.03,-12.95,-12.2,691.52,-1004.31,-1171.85,0.0,80.0,0.0,47.0,0.0,0.0,0.0,0.0,0.0,0.0,0.0,0.0,0.0,0.0,0.0,0.0,0.0,0.0
75.0,631.0,0.0,0.0,-0.0,0.0,631.0,0.0,14856.168828355447,0.0,14856.168828355447,0.0,0.0,0.39641005542587104,0.4240844135843286,0.600586790714372,0.0,0.0,0.0,"[0.2922359890264481, 0.8616615199238851, 0.43564723799033445, 0.15391340467341408, 0.45122668797509036, 0.39934080659016047, 0.8567216521663887, 0.1141412673554214]",22.29,0.0,0.0,0.0,108.23885110456682,28.815941365107047,-1451.79774028058,-1209.682054864336,2527.8130887401753,0.0,0.0,0.0,0.0,0.0,0.0,-12.6,21.69773478638742,0.0,21.191292041778325,0.0,-12.6,22.29,20.19,22.19,21.89,22.39,-13.35,-12.6,1214.29,-1033.46,-1205.88,0.0,80.0,0.0,39.0,0.0,0.0,0.0,0.0,0.0,0.0,0.0,0.0,0.0,0.0,0.0,0.0,0.0,0.0
76.0,737.0,740.7035175879397,0.0,-0.0,0.0,0.0,0.0,12472.616680848983,0.0,12472.616680848983,0.0,0.0,0.39641005542587104,0.3710545807575897,0.600586790714372,0.0,0.0,0.0,"[0.2922359890264481, 0.8616615199238851, 0.43564723799033445, 0.15391340467341408, 0.45122668797509036, 0.39934080659016047, 0.8567216521663887, 0.1141412673554214]",22.29,0.0,0.0,0.0,118.91523356264221,29.0907060026766,-1468.440958453668,-1173.5285771622248,1337.367046707508,0.0,0.0,0.0,0.0,0.0,0.0,-13.0,21.716117171640953,0.0,21.213063399208934,0.0,-13.0,22.29,20.2,22.23,21.85,22.38,-13.74,-13.0,1189.13,-1045.31,-1219.7,0.0,80.0,0.0,47.0,0.0,0.0,0.0,0.0,0.0,0.0,0.0,0.0,0.0,0.0,0.0,0.0,0.0,0.0
77.0,706.0,12772.921816249307,12003.05720716806,-0.0,0.0,0.0,0.0,15388.043857115208,0.0,0.0,0.0,15388.043857115206,0.39641005542587104,0.3710545807575897,0.600586790714372,0.0,0.0,0.0,"[0.2922359890264481, 0.8616615199238851, 0.43564723799033445, 0.15391340467341408, 0.45122668797509036, 0.39934080659016047, 0.8567216521663887, 0.1141412673554214]",21.71,0.0,0.0,0.0,134.92980724975527,29.502852959030935,-1460.7654400097795,-388.7067377863644,2848.525309870551,0.0,0.0,0.0,0.0,0.0,0.0,-13.4,21.52700231171471,0.0,21.19608663436966,0.0,-13.4,21.71,20.18,22.21,21.39,22.07,-14.15,-13.4,1628.08,-1039.85,-1213.32,0.0,80.0,0.0,59.0,0.0,0.0,0.0,0.0,0.0,0.0,0.0,0.0,0.0,0.0,0.0,0.0,0.0,0.0
78.0,617.0,0.0,8706.564503616488,-0.0,0.0,9323.564503616488,0.0,10829.896608536006,0.0,0.0,0.0,10829.896608536003,0.0,0.3710545807575897,0.600586790714372,0.0,0.0,0.0,"[0.2922359890264481, 0.8616615199238851, 0.43564723799033445, 0.15391340467341408, 0.45122668797509036, 0.39934080659016047, 0.8567216521663887, 0.1141412673554214]",22.29,0.0,0.0,0.0,172.43762456957268,56.49847860023968,-1501.7273947998433,-1174.73504208103,2454.1692438145365,0.0,0.0,0.0,0.0,0.0,0.0,-13.8,21.71584817834753,0.0,21.209168354967563,0.0,-13.8,22.29,20.18,22.24,21.89,22.42,-14.55,-13.8,846.67,-1069.01,-1247.35,0.0,160.0,0.0,45.0,0.0,0.0,0.0,0.0,0.0,0.0,0.0,0.0,0.0,0.0,0.0,0.0,0.0,0.0
79.0,1796.0,13132.512130001716,9622.57801583234,-0.0,0.0,-1648.2715535193668,0.0,11694.099914218375,0.0,0.0,0.0,11694.099914218375,0.06730442176870748,0.3710545807575897,0.600586790714372,0.0,0.0,0.0,"[0.2922359890264481, 0.8616615199238851, 0.43564723799033445, 0.15391340467341408, 0.45122668797509036, 0.39934080659016047, 0.8567216521663887, 0.1141412673554214]",22.29,0.0,0.0,0.0,52.04736448311748,1.3394776081515756,-1514.209808429659,-1143.698422175887,1444.661938646223,0.0,0.0,0.0,0.0,0.0,0.0,-14.1,21.731618110242536,0.0,21.227517763725686,0.0,-14.1,22.29,20.18,22.27,21.85,22.41,-14.86,-14.1,3161.43,-1077.89,-1257.72,0.0,0.0,0.0,39.0,0.0,0.0,0.0,0.0,0.0,0.0,0.0,0.0,0.0,0.0,0.0,0.0,0.0,0.0
80.0,1583.0,53357.88421671894,51508.09479563535,-0.0,0.0,0.0,0.0,6982.621157741074,0.0,-55122.95090662909,0.0,62105.572064370164,0.0,0.566451948499875,0.600586790714372,0.0,0.0,0.0,"[0.2922359890264481, 0.8616615199238851, 0.43564723799033445, 0.15391340467341408, 0.45122668797509036, 0.39934080659016047, 0.8567216521663887, 0.11414126735543917]",21.71,0.0,0.0,3.749761979897129,61.38919913393343,1.5798966660249363,-1494.0518763559548,-362.68560206033914,1790.2716495173272,0.0,0.0,0.0,0.0,0.0,0.0,-14.2,21.54045063464852,0.0,21.20782200638004,0.0,-14.2,21.71,20.16,22.25,21.39,22.1,-14.95,-14.2,1011.21,-1063.54,-1240.97,5.46,0.0,0.0,46.0,0.0,0.0,0.0,0.0,0.0,0.0,0.0,0.0,0.0,0.0,0.0,0.0,0.0,0.0
81.0,4888.0,0.0,0.0,-3100.8949816246914,7988.894981624691,0.0,0.0,2233.3465730769685,0.0,2233.346573076968,0.0,0.0,0.0,0.5569564273558403,0.6112495173178535,0.0,0.0,0.0,"[0.2922359890264481, 0.8616615199238851, 0.43564723799033445, 0.15391340467341408, 0.45122668797509036, 0.39934080659016047, 0.8567216521663887, 0.11414126735543917]",21.71,0.0,0.0,1279.809211429975,70.73103378474937,1.820315723898297,-1398.3533718607002,-396.03572772246565,465.5098736799861,0.0,0.0,0.0,0.0,0.0,0.0,-11.9,21.522288831667765,0.0,21.18275141215849,0.0,-11.9,21.71,20.14,22.22,21.43,22.11,-11.72,-11.9,530.31,-995.42,-1161.48,1863.14,0.0,0.0,53.0,0.0,0.0,0.0,0.0,0.0,0.0,0.0,0.0,0.0,0.0,0.0,0.0,0.0,0.0
82.0,2104.0,0.0,5385.469875882327,-0.0,14290.819338387333,-6801.349462505006,0.0,8649.833708893526,0.0,0.0,0.0,8649.833708893526,0.2777217697189544,0.5569564273558403,0.6112495173178535,0.0,0.0,0.0,"[0.2922359890264481, 0.8616615199238851, 0.43564723799033445, 0.15391340467341408, 0.45122668797509036, 0.39934080659016047, 0.8567216521663887, 0.11414126735543917]",21.71,0.0,0.0,1528.0584418983415,65.3928425557117,1.682933405113522,-1319.2980855385333,-375.76805428096503,614.8466577483825,0.0,0.0,0.0,0.0,0.0,0.0,-10.0,21.53160443423504,0.0,21.19412638139201,0.0,-10.0,21.71,20.14,22.24,21.72,22.32,-9.59,-10.0,74.54,-939.14,-1095.82,2224.53,0.0,0.0,49.0,0.0,0.0,0.0,0.0,0.0,0.0,0.0,0.0,0.0,0.0,0.0,0.0,0.0,0.0
83.0,1335.0,0.0,1954.6707340937191,-13960.79195149887,17250.46268559259,0.0,0.0,3418.997481184005,0.0,0.0,0.0,3418.997481184005,0.2777217697189544,0.5569564273558403,0.6592550475370426,0.0,0.0,0.0,"[0.2922359890264481, 0.8616615199238851, 0.43564723799033445, 0.15391340467341408, 0.45122668797509036, 0.39934080659016047, 0.8567216521663887, 0.11414126735543917]",21.95,0.0,0.0,1652.306905614564,61.38919913393343,1.5798966660249363,-1267.0351605610306,-660.7111007304918,923.4641921538815,0.0,0.0,0.0,0.0,0.0,0.0,-8.5,21.6314079169473,0.0,21.227571929094495,0.0,-8.5,21.95,20.16,22.29,21.95,22.51,-8.04,-8.5,0.0,-901.94,-1052.41,2405.41,0.0,0.0,46.0,0.0,0.0,0.0,0.0,0.0,0.0,0.0,0.0,0.0,0.0,0.0,0.0,0.0,0.0
84.0,1093.0,0.0,3272.2991320886845,-6126.723863319898,19356.547321486425,-8864.524326077842,0.0,6035.675513040767,0.0,0.0,0.0,6035.675513040767,0.639689846367133,0.5569564273558403,0.6803223787161776,0.0,0.0,0.0,"[0.2922359890264481, 0.8616615199238851, 0.43564723799033445, 0.15391340467341408, 0.45122668797509036, 0.39934080659016047, 0.8567216521663887, 0.11414126735543917]",22.29,0.0,0.0,1779.611449074184,54.71646009763631,1.4081687675439671,-1239.5967085737109,-1041.775588549123,0.0,0.0,0.0,0.0,0.0,0.0,0.0,-7.5,21.77968815751236,0.0,21.286328442839974,0.0,-7.5,22.29,20.2,22.37,22.23,22.73,-7.06,-7.5,0.0,-882.41,-1029.62,2590.74,0.0,0.0,41.0,0.0,0.0,0.0,0.0,0.0,0.0,0.0,0.0,0.0,0.0,0.0,0.0,0.0,0.0
85.0,2875.0,0.0,5272.5173168295,-8978.743082526868,17126.260399356368,0.0,0.0,9875.82248681979,0.0,0.0,0.0,9875.82248681979,0.639689846367133,0.5569564273558403,0.7111966531753928,0.0,0.0,0.0,"[0.2922359890264481, 0.8616615199238851, 0.43564723799033445, 0.15391340467341408, 0.45122668797509036, 0.39934080659016047, 0.8567216521663887, 0.11414126735543917]",22.05,0.0,0.0,1581.7203191207948,1770.7342221584233,99.25872532200165,-1216.965151772326,-634.6334803263182,-1070.2257086163584,0.0,0.0,0.0,0.0,0.0,0.0,-7.2,21.74072300063343,0.0,21.33284516533029,0.0,-7.2,22.05,20.23,22.44,22.04,22.64,-6.87,-7.2,0.0,-866.3,-1010.82,2302.65,165.0,0.0,1240.0,0.0,0.0,0.0,0.0,0.0,0.0,0.0,0.0,0.0,0.0,0.0,0.0,0.0,0.0
86.0,3540.0,0.0,1851.5201392244132,-0.0,14215.44226900891,-8823.922129784498,0.0,3379.781278516154,0.0,0.0,0.0,3379.781278516154,1.0,0.5569564273558403,0.7111966531753928,0.0,0.0,0.0,"[0.2922359890264481, 0.8616615199238851, 0.43564723799033445, 0.15391340467341408, 0.45122668797509036, 0.39934080659016047, 0.8567216521663887, 0.11414126735543917]",22.29,0.0,0.0,1332.0369215861406,681.6027327181806,51.38098722550673,-1247.9183176602548,-909.4109221276426,127.06741871296863,0.0,0.0,0.0,0.0,0.0,0.0,-7.7,21.846578757783018,0.0,21.375779011887392,0.0,-7.7,22.29,20.26,22.49,22.15,22.73,-7.53,-7.7,2143.15,-888.33,-1036.53,1939.17,104.0,0.0,456.0,0.0,0.0,0.0,0.0,0.0,0.0,0.0,0.0,0.0,0.0,0.0,0.0,0.0,0.0
87.0,3697.0,9491.489036193425,5747.809433120262,-0.0,0.7778421078042074,0.0,0.0,9560.576570364474,0.0,0.0,0.0,9560.576570364474,1.0,0.5569564273558403,0.7111966531753928,0.0,0.0,0.0,"[0.2922359890264481, 0.8616615199238851, 0.43564723799033445, 0.15391340467341408, 0.45122668797509036, 0.39934080659016047, 0.8567216521663887, 0.11414126735543917]",22.29,0.0,0.0,25.17523952709517,332.4428827241497,46.95040744469765,-1318.651994895878,-861.4964905566136,621.545034305937,0.0,0.0,0.0,0.0,0.0,0.0,-9.4,21.8717938187468,0.0,21.40999796197959,0.0,-9.4,22.29,20.29,22.53,22.07,22.69,-10.08,-9.4,0.0,-938.68,-1095.28,36.65,118.0,0.0,187.0,0.0,0.0,0.0,0.0,0.0,0.0,0.0,0.0,0.0,0.0,0.0,0.0,0.0,0.0
88.0,1924.0,6333.530582389745,4377.862929477797,-0.0,0.0,0.0,0.0,7365.357145187301,0.0,0.0,0.0,7365.357145187301,1.0,0.5569564273558403,0.7111966531753928,0.0,0.0,0.0,"[0.2922359890264481, 0.8616615199238851, 0.43564723799033445, 0.15391340467341408, 0.45122668797509036, 0.39934080659016047, 0.8567216521663887, 0.11414126735543917]",21.71,0.0,0.0,0.0,133.4547807259422,3.4345579696194313,-1286.0116491923577,-108.37161261169221,1257.8977474308908,0.0,0.0,0.0,0.0,0.0,0.0,-9.2,21.6664597037909,0.0,21.37513816174497,0.0,-9.2,21.71,20.28,22.48,21.38,22.18,-9.9,-9.2,0.0,-915.45,-1068.17,0.0,0.0,0.0,100.0,0.0,0.0,0.0,0.0,0.0,0.0,0.0,0.0,0.0,0.0,0.0,0.0,0.0,0.0
89.0,2228.0,0.0,6599.315094840305,-0.0,0.0,8827.315094840305,0.0,11228.575437852294,0.0,0.0,0.0,11228.575437852292,0.6246889840629122,0.5569564273558403,0.6983072869025679,0.0,0.0,0.0,"[0.2922359890264481, 0.8616615199238851, 0.43564723799033445, 0.15391340467341408, 0.45122668797509036, 0.39934080659016047, 0.8567216521663887, 0.11414126735543917]",21.71,0.0,0.0,0.0,62.72374694119285,1.6142422457211305,-1277.6900401058138,-167.17395502550315,2540.732744729726,0.0,0.0,0.0,0.0,0.0,0.0,-9.0,21.6367305090532,0.0,21.338061336013432,0.0,-9.0,21.71,20.26,22.42,21.43,22.19,-9.66,-9.0,0.0,-909.53,-1061.26,0.0,0.0,0.0,47.0,0.0,0.0,0.0,0.0,0.0,0.0,0.0,0.0,0.0,0.0,0.0,0.0,0.0,0.0
90.0,3779.0,0.0,2760.0849051596942,-0.0,0.0,6539.084905159694,0.0,4748.843357166635,0.0,0.0,0.0,4748.843357166635,0.3466666666666667,0.5569564273558403,0.6983072869025679,0.0,0.0,0.0,"[0.2922359890264481, 0.8616615199238851, 0.43564723799033445, 0.15391340467341408, 0.45122668797509036, 0.39934080659016047, 0.8567216521663887, 0.11414126735543917]",22.29,0.0,0.0,0.0,70.73103378474937,1.820315723898297,-1293.6871676362464,-971.3164031633121,1032.649306827991,0.0,0.0,0.0,0.0,0.0,0.0,-8.8,21.81619201800399,0.0,21.34179008814239,0.0,-8.8,22.29,20.27,22.42,21.89,22.5,-9.44,-8.8,0.0,-920.91,-1074.55,0.0,0.0,0.0,53.0,0.0,0.0,0.0,0.0,0.0,0.0,0.0,0.0,0.0,0.0,0.0,0.0,0.0,0.0
91.0,4844.0,49924.48970270587,21859.221254192336,-0.0,0.0,-16000.0,0.0,9931.525645204767,34858.23,0.0,0.0,37818.109645204764,1.0,0.5569564273558403,0.6934737745502586,27886.584000000003,6971.646000000001,34858.23,"[0.2922359890264481, 0.8616615199238851, 0.43564723799033445, 0.15391340467341408, 0.45122668797509036, 0.39934080659016047, 0.8567216521663887, 0.11414126735543917]",21.71,0.0,0.0,0.0,234.59945664455108,52.89219273213929,-1265.2076264759978,-203.58334185911403,2347.5351548771578,0.0,0.0,0.0,0.0,0.0,0.0,-8.7,21.618244032483275,0.0,21.316056738538638,0.0,-8.7,21.71,20.26,22.38,21.39,22.14,-9.32,-8.7,0.0,-900.64,-1050.89,0.0,144.0,0.0,100.0,0.0,0.0,0.0,0.0,0.0,0.0,0.0,0.0,0.0,0.0,0.0,0.0,0.0,0.0
92.0,5300.0,14962.582675595944,1993.518710280623,-0.0,0.0,-7594.251051937341,0.0,3486.94812392676,0.0,0.0,0.0,3486.94812392676,1.0,0.5569564273558403,0.688103205269915,0.0,0.0,0.0,"[0.2922359890264481, 0.10800274960476841, 0.43564723799033445, 0.15391340467341408, 0.45122668797509036, 0.399340806590164, 0.8567216521663887, 0.11414126735543917]",22.29,0.0,0.0,0.0,589.0974978676196,69.13765192843921,-1281.2047540064304,-1005.4510951075061,1636.5496829277847,0.0,0.0,0.0,0.0,0.0,0.0,-8.5,21.798851783175852,0.0,21.321196852472532,0.0,-8.5,22.29,20.26,22.38,21.88,22.47,-9.1,-8.5,0.0,-912.03,-1064.18,0.0,130.0,19.0,371.0,0.0,0.0,0.0,0.0,0.0,0.0,0.0,0.0,0.0,0.0,0.0,0.0,0.0,0.0
93.0,4487.0,0.0,1866.9266082055656,-0.0,0.0,6353.926608205566,0.0,3301.116477834924,0.0,0.0,0.0,3301.116477834924,0.7298500591749335,0.5569564273558403,0.6832696929176056,0.0,0.0,0.0,"[0.2922359890264481, 0.10800274960476841, 0.43564723799033445, 0.15391340467341408, 0.45122668797509036, 0.399340806590164, 0.8567216521663887, 0.11414126735543917]",22.29,0.0,0.0,0.0,803.5382586867256,85.86394924048585,-1272.8831449198865,-995.8990984127922,229.4587021116729,0.0,0.0,0.0,0.0,0.0,0.0,-8.3,21.80357376052091,0.0,21.328053109993128,0.0,-8.3,22.29,20.27,22.39,21.79,22.41,-8.89,-8.3,1373.44,-906.1,-1057.27,0.0,155.0,24.0,518.0,0.0,0.0,0.0,0.0,0.0,0.0,0.0,0.0,0.0,0.0,0.0,0.0,0.0,0.0
94.0,2960.0,2974.8743718592964,0.0,-0.0,0.0,0.0,0.0,4874.005041352333,0.0,4874.005041352334,0.0,0.0,0.7298500591749335,0.5362336168058729,0.5941182428638999,0.0,0.0,0.0,"[0.2922359890264481, 0.10800274960476841, 0.43564723799033445, 0.15391340467341408, 0.45122668797509036, 0.399340806590164, 0.8567216521663887, 0.11414126735543917]",21.71,0.0,0.0,0.0,512.0449218379573,60.79167606226399,-1240.2427992163664,-238.36020511729643,912.914096939913,0.0,0.0,0.0,0.0,0.0,0.0,-8.1,21.60044946016817,0.0,21.29574082165105,0.0,-8.1,21.71,20.26,22.33,21.31,22.06,-8.67,-8.1,0.0,-882.87,-1030.16,0.0,84.0,33.0,336.0,0.0,0.0,0.0,0.0,0.0,0.0,0.0,0.0,0.0,0.0,0.0,0.0,0.0,0.0
95.0,1518.0,0.0,0.0,-0.0,0.0,1517.9999999999927,0.0,11624.059713897424,0.0,11624.059713897439,0.0,0.0,0.6653092428484032,0.48681159421277154,0.5941182428638991,0.0,0.0,0.0,"[0.2922359890264481, 0.10800274960476841, 0.43564723799033445, 0.15391340467341408, 0.45122668797509036, 0.399340806590164, 0.8567216521663887, 0.11414126735543917]",21.71,0.0,0.0,0.0,327.0344521368353,59.211779396239045,-1231.9211901298224,-289.27712583046974,1141.9140157453926,0.0,0.0,0.0,0.0,0.0,0.0,-7.9,21.574704442085874,0.0,21.263542119145875,0.0,-7.9,21.71,20.24,22.28,21.38,22.09,-8.46,-7.9,776.85,-876.95,-1023.24,0.0,141.0,8.0,170.0,0.0,0.0,0.0,0.0,0.0,0.0,0.0,0.0,0.0,0.0,0.0,0.0,0.0,0.0
96.0,1291.0,0.0,6351.809482546639,-0.0,0.0,7642.809482546639,0.0,11836.86434368658,0.0,0.0,0.0,11836.86434368658,0.34035986008706653,0.48681159421277154,0.55491308711739,0.0,0.0,0.0,"[0.2922359890264481, 0.10800274960476841, 0.43564723799033445, 0.15391340467341408, 0.45122668797509036, 0.399340806590164, 0.8567216521663887, 0.11414126735543917]",21.71,0.0,0.0,0.0,263.0463967466598,32.80002860986559,-1206.9563628701908,-330.4465269317808,2405.4299280781506,0.0,0.0,0.0,0.0,0.0,0.0,-7.3,21.55371496781814,0.0,21.237290600591653,0.0,-7.3,21.71,20.23,22.24,21.4,22.08,-7.87,-7.3,741.12,-859.17,-1002.51,0.0,80.0,0.0,155.0,0.0,0.0,0.0,0.0,0.0,0.0,0.0,0.0,0.0,0.0,0.0,0.0,0.0,0.0
97.0,1461.0,3150.9356133423366,3586.390382229197,-0.0,0.0,1912.2094469535718,0.0,6922.720563676819,0.0,0.0,0.0,6922.7205636768185,0.259058438022714,0.48681159421277154,0.55491308711739,0.0,0.0,0.0,"[0.2922359890264481, 0.10800274960476841, 0.43564723799033445, 0.15391340467341408, 0.45122668797509036, 0.399340806590164, 0.8567216521663887, 0.11414126735543917]",22.29,0.0,0.0,0.0,316.4283090370367,34.17385179771337,-1202.1494676842635,-1119.7555382717194,1975.320897128797,0.0,0.0,0.0,0.0,0.0,0.0,-6.6,21.74044461618663,0.0,21.250177181943172,0.0,-6.6,22.29,20.24,22.26,21.86,22.39,-7.17,-6.6,1503.17,-855.75,-998.52,0.0,80.0,0.0,195.0,0.0,0.0,0.0,0.0,0.0,0.0,0.0,0.0,0.0,0.0,0.0,0.0,0.0,0.0
98.0,1354.0,7709.054867350495,6316.509593013743,-0.0,0.0,0.0,0.0,12614.122655382258,0.0,0.0,0.0,12614.122655382256,0.259058438022714,0.48681159421277154,0.55491308711739,0.0,0.0,0.0,"[0.2922359890264481, 0.10800274960476841, 0.43564723799033445, 0.15391340467341408, 0.45122668797509036, 0.399340806590164, 0.8567216521663887, 0.11414126735543917]",22.29,0.0,0.0,0.0,187.11765044942638,31.460551001714013,-1173.0238358813535,-1092.283321726025,2050.4279869497204,0.0,0.0,0.0,0.0,0.0,0.0,-5.9,21.75398496580997,0.0,21.268490371656505,0.0,-5.9,22.29,20.26,22.28,21.8,22.37,-6.45,-5.9,1078.53,-835.02,-974.32,0.0,80.0,1.0,98.0,0.0,0.0,0.0,0.0,0.0,0.0,0.0,0.0,0.0,0.0,0.0,0.0,0.0,0.0
99.0,977.0,0.0,5116.054462294234,-0.0,0.0,6093.054462294234,0.0,10411.895355997503,0.0,0.0,0.0,10411.895355997505,0.0,0.48681159421277154,0.55491308711739,0.0,0.0,0.0,"[0.2922359890264481, 0.10800274960476841, 0.43564723799033445, 0.15391340467341408, 0.45122668797509036, 0.399340806590164, 0.8567216521663887, 0.11414126735543917]",22.29,0.0,0.0,0.0,118.91523356264221,29.0907060026766,-1156.380617708272,-1064.3132371215277,916.0913659214182,0.0,0.0,0.0,0.0,0.0,0.0,-5.5,21.76790688537014,0.0,21.28765116821893,0.0,-5.5,22.29,20.27,22.3,21.82,22.39,-6.04,-5.5,1171.09,-823.17,-960.5,0.0,80.0,0.0,47.0,0.0,0.0,0.0,0.0,0.0,0.0,0.0,0.0,0.0,0.0,0.0,0.0,0.0,0.0
100.0,877.0,6159.035960506928,5251.240780704394,-0.0,0.0,0.0,0.0,10937.327108298941,0.0,0.0,0.0,10937.327108298943,0.0,0.48681159421277154,0.55491308711739,0.0,0.0,0.0,"[0.2922359890264481, 0.10800274960476841, 0.43564723799033445, 0.15391340467341408, 0.45122668797509036, 0.399340806590164, 0.8567216521663887, 0.11414126735543917]",21.71,0.0,0.0,0.0,284.3991616628105,33.3495578850047,-1111.2578583749362,-284.1208081457734,1081.5510811433853,0.0,0.0,0.0,0.0,0.0,0.0,-5.0,21.576071435403893,0.0,21.270435931687544,0.0,-5.0,21.71,20.27,22.27,21.38,22.07,-5.53,-5.0,2407.16,-791.05,-923.02,0.0,80.0,0.0,171.0,0.0,0.0,0.0,0.0,0.0,0.0,0.0,0.0,0.0,0.0,0.0,0.0,0.0,0.0
101.0,904.0,3466.41918052442,2545.0870846217977,-0.0,0.0,0.0,0.0,5397.980513370961,0.0,0.0,0.0,5397.980513370961,0.0,0.48681159421277154,0.5549130871173895,0.0,0.0,0.0,"[0.2922359890264481, 0.10800274960476841, 0.43564723799033445, 0.15391340467341408, 0.45122668797509036, 0.399340806590164, 0.8567216521663887, 0.11414126735543917]",21.71,0.0,0.0,0.0,164.7112951591234,32.11311701594171,-1094.6146402018483,-323.72957625692476,1225.295561698156,0.0,0.0,0.0,0.0,0.0,0.0,-4.6,21.555910420620517,0.0,21.246217334254354,0.0,-4.6,21.71,20.27,22.23,21.39,22.06,-5.05,-4.6,818.98,-779.2,-909.2,0.0,80.0,3.0,81.0,0.0,0.0,0.0,0.0,0.0,0.0,0.0,0.0,0.0,0.0,0.0,0.0,0.0,0.0
102.0,697.0,22897.829943511293,6086.340793793739,-0.0,0.0,-16000.0,0.0,13082.840905919553,0.0,0.0,0.0,13082.840905919553,0.6533333333333333,0.48681159421277154,0.5549130871173895,0.0,0.0,0.0,"[0.2922359890264481, 0.10800274960476841, 0.43564723799033445, 0.15391340467341408, 0.45122668797509036, 0.399340806590164, 0.8567216521663887, 0.11414126735543917]",21.71,0.0,0.0,0.0,141.32158885294515,48.35857621224164,-1082.1322265720326,-356.32934141643176,2414.4841907364544,0.0,0.0,0.0,0.0,0.0,0.0,-4.3,21.539364460491715,0.0,21.22659841218553,0.0,-4.3,21.71,20.26,22.19,21.41,22.05,-4.76,-4.3,1888.07,-770.32,-898.83,0.0,111.0,14.0,46.0,0.0,0.0,0.0,0.0,0.0,0.0,0.0,0.0,0.0,0.0,0.0,0.0,0.0,0.0
103.0,1076.0,10869.711901404062,4185.964656099365,-0.0,0.0,-5553.398685797676,0.0,9117.622168295518,0.0,0.0,0.0,9117.622168295518,0.8800971130034051,0.48681159421277154,0.5549130871173895,0.0,0.0,0.0,"[0.2922359890264481, 0.10800274960476841, 0.43564723799033445, 0.15391340467341408, 0.45122668797509036, 0.399340806590164, 0.8567216521663887, 0.11414126735543917]",22.29,0.0,0.0,0.0,168.71493858090167,55.57114794844245,-1093.968549559193,-1137.0016925862656,2013.2180331525365,0.0,0.0,0.0,0.0,0.0,0.0,-4.0,21.730612191498437,0.0,21.246096116947307,0.0,-4.0,22.29,20.28,22.21,21.87,22.37,-4.45,-4.0,1837.37,-778.74,-908.66,0.0,131.0,14.0,56.0,0.0,0.0,0.0,0.0,0.0,0.0,0.0,0.0,0.0,0.0,0.0,0.0,0.0,0.0
104.0,2048.0,0.0,3171.412771966825,-0.0,0.0,5219.412771966825,0.0,6998.48704200391,0.0,0.0,0.0,6998.48704200391,0.6581833046714822,0.48681159421277154,0.5549130871173895,0.0,0.0,0.0,"[0.2922359890264481, 0.10800274960476841, 0.43564723799033445, 0.15391340467341763, 0.4512266879750868, 0.3328781269715826, 0.7839802756105598, 0.11414126735544272]",22.29,0.0,0.0,1.2237527182492913,160.5671730207915,60.92905838104875,-1081.486135929377,-1100.885528712283,806.8205475648341,0.0,0.0,0.0,0.0,0.0,0.0,-3.7,21.748674033268262,0.0,21.270850918551716,0.0,-3.7,22.29,20.3,22.24,21.83,22.36,-4.13,-3.7,688.85,-769.86,-898.29,1.78,133.0,22.0,48.0,0.0,0.0,0.0,0.0,0.0,0.0,0.0,0.0,0.0,0.0,0.0,0.0,0.0,0.0
105.0,1828.0,5713.919534166636,3862.8298729594953,-0.0,5.47993646369194,0.0,0.0,9076.648744535541,0.0,0.0,0.0,9076.648744535541,0.6581833046714822,0.48681159421277154,0.5549130871173895,0.0,0.0,0.0,"[0.2922359890264481, 0.10800274960476841, 0.43564723799033445, 0.15391340467341763, 0.4512266879750868, 0.3328781269715826, 0.7839802756105598, 0.11414126735544272]",21.71,0.0,0.0,35.97575525811195,233.05419076246122,70.13367373962885,-994.755331163322,-313.3804466700946,977.8650260029737,0.0,0.0,0.0,0.0,0.0,0.0,-2.2,21.560085777759006,0.0,21.25807021355951,0.0,-2.2,21.71,20.3,22.21,21.38,22.04,-2.58,-2.2,2197.58,-708.12,-826.25,52.37,165.0,17.0,86.0,0.0,0.0,0.0,0.0,0.0,0.0,0.0,0.0,0.0,0.0,0.0,0.0,0.0,0.0
106.0,4098.0,0.0,0.0,-0.0,18.67418349373117,4079.325816506269,0.0,1923.884983661431,0.0,1923.884983661431,0.0,0.0,0.48474258118056945,0.47863181111897296,0.5549130871173893,0.0,0.0,0.0,"[0.2922359890264481, 0.10800274960476841, 0.43564723799033445, 0.15391340467341763, 0.4512266879750868, 0.3328781269715826, 0.7839802756105598, 0.11414126735544272]",21.71,0.0,0.0,45.18279003179987,90.74925089364072,2.335499419341213,-953.1472857306023,-342.5051464304279,1158.472688804125,0.0,0.0,0.0,0.0,0.0,0.0,-1.2,21.544978590807514,0.0,21.241057059086586,0.0,-1.2,21.71,20.3,22.18,21.42,22.04,-1.55,-1.2,1785.49,-678.5,-791.69,65.78,0.0,0.0,68.0,0.0,0.0,0.0,0.0,0.0,0.0,0.0,0.0,0.0,0.0,0.0,0.0,0.0,0.0
107.0,6608.0,4208.0248935627715,1044.4157074423333,-0.0,217.88542898038207,3247.5455093669934,0.0,2683.111058302326,0.0,0.0,0.0,2683.111058302326,0.3466666666666667,0.47863181111897296,0.5549130871173893,0.0,0.0,0.0,"[0.2922359890264481, 0.10800274960476841, 0.43564723799033445, 0.15391340467341763, 0.4512266879750868, 0.3328781269715826, 0.7839802756105598, 0.11414126735544272]",21.71,0.0,0.0,83.89301161875878,28.025503952447863,0.7212571736200785,-899.0568266680671,-366.97878226036755,2315.021801718318,0.0,0.0,0.0,0.0,0.0,0.0,0.1,21.53210158141488,0.0,21.22705903071617,0.0,0.1,21.71,20.31,22.15,21.41,22.02,-0.25,0.1,1711.99,-640.0,-746.76,122.13,0.0,0.0,21.0,0.0,0.0,0.0,0.0,0.0,0.0,0.0,0.0,0.0,0.0,0.0,0.0,0.0,0.0
108.0,3379.0,6019.711741010639,3143.554981690923,-0.0,532.9417993853374,0.0,0.0,8405.467353700391,0.0,0.0,0.0,8405.467353700391,0.3466666666666667,0.47863181111897296,0.5549130871173893,0.0,0.0,0.0,"[0.2922359890264481, 0.10800274960476841, 0.43564723799033445, 0.15391340467341763, 0.4512266879750868, 0.3328781269715826, 0.7839802756105598, 0.11414126735544272]",22.29,0.0,0.0,107.25373181338816,64.05829474845225,1.6485878254173278,-877.6067133090521,-1138.2783278190725,1845.0870693451302,0.0,0.0,0.0,0.0,0.0,0.0,1.2,21.72776443340644,0.0,21.253530873777542,0.0,1.2,22.29,20.33,22.17,21.88,22.35,0.79,1.2,608.0,-624.73,-728.95,156.14,0.0,0.0,48.0,0.0,0.0,0.0,0.0,0.0,0.0,0.0,0.0,0.0,0.0,0.0,0.0,0.0,0.0
109.0,1173.0,18704.537081334565,2005.0275198670463,-0.0,567.0131239391521,-16000.0,0.0,5514.105650776739,0.0,0.0,0.0,5514.10565077674,1.0,0.47863181111897296,0.5549130871173893,0.0,0.0,0.0,"[0.2922359890264481, 0.10800274960476841, 0.43564723799033445, 0.15391340467341763, 0.4512266879750868, 0.3328781269715826, 0.7839802756105598, 0.11414126735544272]",22.29,0.0,0.0,110.8982008448988,88.08015527912185,2.266808259948825,-844.3202769628765,-1092.972088054548,1738.3692516291646,0.0,0.0,0.0,0.0,0.0,0.0,2.0,21.750255341629813,0.0,21.28554704615526,0.0,2.0,22.29,20.36,22.21,21.84,22.33,1.59,2.0,1738.89,-601.03,-701.3,161.44,0.0,0.0,66.0,0.0,0.0,0.0,0.0,0.0,0.0,0.0,0.0,0.0,0.0,0.0,0.0,0.0,0.0
110.0,2456.0,4512.591508675535,2185.0773135908476,-0.0,151.0487624586904,0.0,0.0,6071.760762504767,0.0,0.0,0.0,6071.760762504766,1.0,0.47863181111897296,0.5549130871173893,0.0,0.0,0.0,"[0.2922359890264481, 0.10800274960476841, 0.43564723799033445, 0.15391340467341763, 0.4512266879750868, 0.3328781269715826, 0.7839802756105598, 0.11414126735544272]",22.29,0.0,0.0,82.31481864778925,25.356408337929018,0.6525660142276909,-831.8378633330607,-1051.9397140747767,617.0532475617514,0.0,0.0,0.0,0.0,0.0,0.0,2.3,21.77081964459099,0.0,21.31543830548268,0.0,2.3,22.29,20.4,22.24,21.84,22.35,1.85,2.3,303.29,-592.15,-690.93,119.83,0.0,0.0,19.0,0.0,0.0,0.0,0.0,0.0,0.0,0.0,0.0,0.0,0.0,0.0,0.0,0.0,0.0
111.0,3406.0,6711.701154483084,3272.2079859379833,-0.0,0.06533722731502031,0.0,0.0,8905.443985869377,0.0,0.0,0.0,8905.443985869375,1.0,0.47863181111897296,0.5549130871173893,0.0,0.0,0.0,"[0.2922359890264481, 0.10800274960476841, 0.43564723799033445, 0.15391340467341763, 0.4512266879750868, 0.3328781269715826, 0.7839802756105598, 0.11414126735544272]",21.71,0.0,0.0,20.737338978189335,186.6259749414886,46.126113531989,-832.4839539757162,-261.6904955150546,2006.5032862165815,0.0,0.0,0.0,0.0,0.0,0.0,1.7,21.584535196938813,0.0,21.30742899214548,0.0,1.7,21.71,20.41,22.21,21.39,22.03,1.21,1.7,1947.46,-592.61,-691.47,30.19,127.0,0.0,73.0,0.0,0.0,0.0,0.0,0.0,0.0,0.0,0.0,0.0,0.0,0.0,0.0,0.0,0.0
112.0,4402.0,0.0,2157.8261362143367,-0.0,0.0,6559.826136214337,0.0,5708.039775258564,0.0,0.0,0.0,5708.039775258563,0.7210958275419075,0.47863181111897296,0.5495425178370456,0.0,0.0,0.0,"[0.2922359890264481, 0.10800274960476841, 0.43564723799033445, 0.15391340467341763, 0.4512266879750868, 0.3328781269715826, 0.7839802756105598, 0.11414126735544272]",22.29,0.0,0.0,0.0,397.5547678467542,39.84087244758544,-890.0891269388749,-1045.9275742662303,1503.3054230502735,0.0,0.0,0.0,0.0,0.0,0.0,0.9,21.77446437999517,0.0,21.32691360718782,0.0,0.9,22.29,20.43,22.22,21.88,22.35,0.39,0.9,452.55,-633.61,-739.32,0.0,91.0,0.0,250.0,0.0,0.0,0.0,0.0,0.0,0.0,0.0,0.0,0.0,0.0,0.0,0.0,0.0,0.0
113.0,4555.0,7206.126245652301,2615.0956144240386,-0.0,0.0,0.0,0.0,6942.573007063884,0.0,0.0,0.0,6942.573007063884,0.7210958275419075,0.47863181111897296,0.5441719485567018,0.0,0.0,0.0,"[0.2922359890264481, 0.10800274960476841, 0.43564723799033445, 0.15391340467341763, 0.4512266879750868, 0.3328781269715826, 0.7839802756105598, 0.11414126735544272]",22.29,0.0,0.0,0.0,13.345478072594215,0.3434557969619424,-885.928322395596,-1018.2045127876903,1890.484283745977,0.0,0.0,0.0,0.0,0.0,0.0,1.0,21.788396916767883,0.0,21.34746113334927,0.0,1.0,22.29,20.45,22.24,21.81,22.31,0.47,1.0,0.0,-630.65,-735.86,0.0,0.0,0.0,10.0,0.0,0.0,0.0,0.0,0.0,0.0,0.0,0.0,0.0,0.0,0.0,0.0,0.0,0.0
114.0,3183.0,5006.964874633219,1798.9300502600527,-0.0,0.0,0.0,0.0,4792.961060875403,0.0,0.0,0.0,4792.961060875402,0.7210958275419075,0.47863181111897296,0.5441719485567018,0.0,0.0,0.0,"[0.2922359890264481, 0.10800274960476841, 0.43564723799033445, 0.15391340467341763, 0.4512266879750868, 0.3328781269715826, 0.7839802756105598, 0.11414126735544272]",22.29,0.0,0.0,0.0,61.38919913393343,1.5798966660249363,-881.7675178523239,-985.407244248985,644.374484135864,0.0,0.0,0.0,0.0,0.0,0.0,1.1,21.804881534757502,0.0,21.3712589696438,0.0,1.1,22.29,20.48,22.26,21.86,22.35,0.57,1.1,0.0,-627.69,-732.4,0.0,0.0,0.0,46.0,0.0,0.0,0.0,0.0,0.0,0.0,0.0,0.0,0.0,0.0,0.0,0.0,0.0,0.0
115.0,2536.0,0.0,0.0,-0.0,0.0,2536.0,0.0,8348.619844624583,0.0,8348.619844624583,0.0,0.0,0.6132726982902068,0.4431359784462494,0.4963738819616427,0.0,0.0,0.0,"[0.2922359890264481, 0.10800274960476841, 0.43564723799033445, 0.15391340467341763, 0.4512266879750868, 0.3328781269715826, 0.7839802756105598, 0.11414126735544272]",21.71,0.0,0.0,0.0,108.09837238801322,2.781991955391741,-849.1271721488039,-203.320183905371,941.8940894119063,0.0,0.0,0.0,0.0,0.0,0.0,1.3,21.61413605432351,0.0,21.3566100244686,0.0,1.3,21.71,20.48,22.23,21.4,22.03,0.76,1.3,0.0,-604.45,-705.29,0.0,0.0,0.0,81.0,0.0,0.0,0.0,0.0,0.0,0.0,0.0,0.0,0.0,0.0,0.0,0.0,0.0,0.0
116.0,3498.0,5449.649484138526,0.0,-0.0,0.0,-1924.4012367178327,0.0,2981.481193514267,0.0,2981.481193514267,0.0,0.0,0.49605533365310533,0.4304596128275663,0.4963738819616423,0.0,0.0,0.0,"[0.2922359890264481, 0.10800274960476841, 0.43564723799033445, 0.15391340467341763, 0.4512266879750868, 0.26323721621022855, 0.7404068120341307, 0.11414126735544272]",21.71,0.0,0.0,0.0,30.694599566966716,0.7899483330124663,-844.966367605532,-238.5673805011951,2212.1590211546873,0.0,0.0,0.0,0.0,0.0,0.0,1.4,21.59632753760946,0.0,21.336383968445528,0.0,1.4,21.71,20.49,22.19,21.44,22.03,0.88,1.4,0.0,-601.49,-701.84,0.0,0.0,0.0,23.0,0.0,0.0,0.0,0.0,0.0,0.0,0.0,0.0,0.0,0.0,0.0,0.0,0.0,0.0
117.0,2903.0,0.0,3147.068027060742,-0.0,0.0,6050.068027060743,0.0,8534.868652690002,0.0,0.0,0.0,8534.86865269,0.23882455018963838,0.4304596128275663,0.4620022385674425,0.0,0.0,0.0,"[0.2922359890264481, 0.10800274960476841, 0.43564723799033445, 0.15391340467341763, 0.4512266879750868, 0.26323721621022855, 0.7404068120341307, 0.11414126735544272]",22.29,0.0,0.0,0.0,267.4012369598221,55.399420049961456,-860.9634951359642,-1020.9927495442479,1430.8699271430833,0.0,0.0,0.0,0.0,0.0,0.0,1.6,21.786741708169917,0.0,21.3556778179016,0.0,1.6,22.29,20.51,22.21,21.91,22.35,1.07,1.6,0.0,-612.88,-715.12,0.0,100.0,26.0,145.0,0.0,0.0,0.0,0.0,0.0,0.0,0.0,0.0,0.0,0.0,0.0,0.0,0.0,0.0
118.0,2240.0,0.0,0.0,-0.0,0.0,5617.153420460295,0.0,3039.438078414265,0.0,0.0,0.0,0.0,0.0,0.4304596128275663,0.4620022385674425,13508.61368184118,3377.153420460295,16885.767102301474,"[0.2922359890264481, 0.10800274960476841, 0.43564723799033445, 0.15391340467341763, 0.4512266879750868, 0.26323721621022855, 0.7404068120341307, 0.11414126735544272]",22.22,0.0,0.0,0.0,434.92210645001796,76.52195156312096,-853.9767406472521,-901.7709438195262,228.08323785056814,0.0,0.0,0.0,0.0,0.0,0.0,1.7,21.77882874252257,0.0,21.37432414265595,0.0,1.7,22.22,20.53,22.22,21.8,22.28,1.15,1.7,0.0,-607.9,-709.32,0.0,146.0,29.0,246.0,0.0,0.0,0.0,0.0,0.0,0.0,0.0,0.0,0.0,0.0,0.0,0.0,0.0,0.0
119.0,1587.0,3880.389827857015,2273.98787871773,-0.0,0.0,0.0,0.0,6232.105569471053,0.0,0.0,0.0,6232.105569471053,0.0,0.4304596128275663,0.43300116445358644,0.0,0.0,0.0,"[0.2922359890264481, 0.10800274960476841, 0.43564723799033445, 0.15391340467341763, 0.4512266879750868, 0.26323721621022855, 0.7404068120341307, 0.11414126735544272]",21.71,0.0,0.0,0.0,386.31647052246433,58.38748548353038,-824.1623448891722,-217.1974896535478,603.5208920175216,0.0,0.0,0.0,0.0,0.0,0.0,1.9,21.606893642765616,0.0,21.357115367159572,0.0,1.9,21.71,20.53,22.19,21.39,21.98,1.35,1.9,0.0,-586.68,-684.56,0.0,130.0,10.0,220.0,0.0,0.0,0.0,0.0,0.0,0.0,0.0,0.0,0.0,0.0,0.0,0.0,0.0,0.0
120.0,1154.0,20165.73867673731,2910.9099833536247,-0.0,0.0,-16000.0,0.0,7866.655926894442,0.0,0.0,0.0,7866.655926894442,0.6533333333333333,0.4304596128275663,0.43300116445358644,0.0,0.0,0.0,"[0.2922359890264481, 0.10800274960476841, 0.43564723799033445, 0.15391340467341763, 0.4512266879750868, 0.26323721621022855, 0.7404068120341307, 0.11414126735544272]",21.71,0.0,0.0,0.0,181.4985017872814,4.670998838682429,-840.8055630622599,-253.53478235256128,908.7200458673136,0.0,0.0,0.0,0.0,0.0,0.0,1.5,21.588768829982932,0.0,21.33619514081587,0.0,1.5,21.71,20.53,22.14,21.43,21.99,0.92,1.5,42.74,-598.53,-698.38,0.0,0.0,0.0,136.0,0.0,0.0,0.0,0.0,0.0,0.0,0.0,0.0,0.0,0.0,0.0,0.0,0.0,0.0
121.0,828.0,0.0,3834.492453184463,-0.0,0.0,4662.492453184463,0.0,10252.946527410691,0.0,0.0,0.0,10252.946527410691,0.4550981099836538,0.4304596128275663,0.43300116445358644,0.0,0.0,0.0,"[0.2922359890264481, 0.10800274960476841, 0.43564723799033445, 0.15391340467341763, 0.4512266879750868, 0.26323721621022855, 0.7404068120341307, 0.11414126735544272]",21.71,0.0,0.0,0.0,224.3445103361365,31.804006798675957,-853.2879766920759,-283.6541572593731,2044.549971395851,0.0,0.0,0.0,0.0,0.0,0.0,1.2,21.57372772390618,0.0,21.318747374378518,0.0,1.2,21.71,20.53,22.11,21.44,21.98,0.6,1.2,11.31,-607.41,-708.75,0.0,80.0,0.0,126.0,0.0,0.0,0.0,0.0,0.0,0.0,0.0,0.0,0.0,0.0,0.0,0.0,0.0,0.0
122.0,1037.0,0.0,0.0,-0.0,0.0,1037.0,0.0,6436.437718787695,0.0,6436.437718787694,0.0,0.0,0.41100797392923205,0.4030938062000676,0.43300116445358644,0.0,0.0,0.0,"[0.2922359890264481, 0.10800274960476841, 0.43564723799033445, 0.15391340467341763, 0.4512266879750868, 0.26323721621022855, 0.7404068120341307, 0.11414126735544272]",22.29,0.0,0.0,0.0,228.3481537579149,31.90704353776454,-894.2499314821398,-1063.475859420084,541.2051802078549,0.0,0.0,0.0,0.0,0.0,0.0,0.8,21.765704315910668,0.0,21.339167732916344,0.0,0.8,22.29,20.54,22.13,21.9,22.3,0.19,0.8,558.56,-636.57,-742.77,0.0,80.0,0.0,129.0,0.0,0.0,0.0,0.0,0.0,0.0,0.0,0.0,0.0,0.0,0.0,0.0,0.0,0.0
123.0,833.0,0.0,2477.358226259206,-0.0,0.0,3310.358226259206,0.0,6506.054635896726,0.0,0.0,0.0,6506.054635896724,0.2702614507039257,0.4030938062000676,0.43300116445358644,0.0,0.0,0.0,"[0.2922359890264481, 0.10800274960476841, 0.43564723799033445, 0.15391340467341763, 0.4512266879750868, 0.26323721621022855, 0.7404068120341307, 0.11414126735544272]",21.71,0.0,0.0,0.0,110.90794671908564,28.884632524499438,-874.0919994084354,-273.5373507632551,2171.249874833277,0.0,0.0,0.0,0.0,0.0,0.0,0.7,21.57904007531932,0.0,21.328344570166635,0.0,0.7,21.71,20.54,22.11,21.41,21.95,0.09,0.7,775.83,-622.22,-726.03,0.0,80.0,0.0,41.0,0.0,0.0,0.0,0.0,0.0,0.0,0.0,0.0,0.0,0.0,0.0,0.0,0.0,0.0
124.0,633.0,3559.20507271834,2908.4090473547485,-0.0,0.0,0.0,0.0,7582.6296545908335,0.0,0.0,0.0,7582.6296545908335,0.2702614507039257,0.4030938062000676,0.4330011644535864,0.0,0.0,0.0,"[0.2922359890264481, 0.10800274960476841, 0.43564723799033445, 0.15391340467341763, 0.4512266879750868, 0.26323721621022855, 0.7404068120341307, 0.11414126735544272]",22.29,0.0,0.0,0.0,105.56975549004797,28.747250205714657,-906.7323451119556,-1051.3562654129619,667.1346730538488,0.0,0.0,0.0,0.0,0.0,0.0,0.5,21.771931386963313,0.0,21.3496112199903,0.0,0.5,22.29,20.56,22.14,21.93,22.31,-0.09,0.5,883.84,-645.46,-753.14,0.0,80.0,0.0,37.0,0.0,0.0,0.0,0.0,0.0,0.0,0.0,0.0,0.0,0.0,0.0,0.0,0.0,0.0
125.0,904.0,6609.436411137645,3046.9865317879967,-0.0,0.0,-2625.4026972939596,0.0,7885.824846303807,0.0,0.0,0.0,7885.824846303809,0.3774653941767624,0.4030938062000676,0.4330011644535864,0.0,0.0,0.0,"[0.2922359890264481, 0.10800274960476841, 0.43564723799033445, 0.15391340467341763, 0.4512266879750868, 0.26323721621022855, 0.7404068120341307, 0.11414126735544272]",21.71,0.0,0.0,0.0,150.38246607065383,50.79711237067142,-890.7352175815233,-259.60394937448075,2115.149091596766,0.0,0.0,0.0,0.0,0.0,0.0,0.3,21.586221242667072,0.0,21.339804850006185,0.0,0.3,21.71,20.56,22.12,21.43,21.97,-0.3,0.3,1999.17,-634.07,-739.85,0.0,80.0,34.0,67.0,0.0,0.0,0.0,0.0,0.0,0.0,0.0,0.0,0.0,0.0,0.0,0.0,0.0,0.0
126.0,2339.0,0.0,2164.0910442204386,-0.0,0.0,4503.091044220439,0.0,5580.195560469639,0.0,0.0,0.0,5580.195560469639,0.1860074416163696,0.4030938062000676,0.4330011644535864,0.0,0.0,0.0,"[0.2922359890264481, 0.10800274960476841, 0.43564723799033445, 0.15391340467341763, 0.4512266879750868, 0.26323721621022855, 0.7404068120341307, 0.11414126735544272]",22.29,0.0,0.0,0.0,860.6428569657737,81.29598714089202,-919.2147587417714,-1038.3831581599654,0.0,0.0,0.0,0.0,0.0,0.0,0.0,0.2,21.778588498782888,0.0,21.36018542852447,0.0,0.2,22.29,20.58,22.14,21.93,22.32,-0.38,0.2,0.0,-654.34,-763.51,0.0,127.0,29.0,575.0,0.0,0.0,0.0,0.0,0.0,0.0,0.0,0.0,0.0,0.0,0.0,0.0,0.0,0.0
127.0,2403.0,0.0,1971.8950268170126,-0.0,0.0,4374.895026817013,0.0,5065.81174005966,0.0,0.0,0.0,5065.81174005966,0.0,0.4030938062000676,0.4330011644535864,0.0,0.0,0.0,"[0.2922359890264481, 0.10800274960476841, 0.43564723799033445, 0.15391340467341763, 0.4512266879750868, 0.26323721621022855, 0.7404068120341307, 0.11414126735544272]",21.78,0.0,0.0,0.0,2269.7848627151698,134.1194887136389,-901.8827766135046,-350.3617243683177,-110.67291615100535,0.0,0.0,0.0,0.0,0.0,0.0,0.1,21.60852517315613,0.0,21.343886616215656,0.0,0.1,21.78,20.57,22.12,21.4,21.94,-0.5,0.1,735.9,-642.01,-749.11,0.0,142.0,48.0,1621.0,0.0,0.0,0.0,0.0,0.0,0.0,0.0,0.0,0.0,0.0,0.0,0.0,0.0,0.0
128.0,2137.0,0.0,1275.4681262259082,-0.0,0.0,3412.4681262259082,0.0,3288.8457232399846,0.0,0.0,0.0,3288.8457232399846,0.010343439378836028,0.4030938062000676,0.4330011644535864,0.0,0.0,0.0,"[0.2922359890264481, 0.10800274960476841, 0.435647237990338, 0.15391340467341763, 0.4512266879750868, 0.26323721621022855, 0.5813689443077585, 0.11414126735544272]",22.29,0.0,0.0,2.469171343968526,713.8425981672373,93.31694003456003,-919.2147587417714,-1077.027762792433,37.613087481100735,0.0,0.0,0.0,0.0,0.0,0.0,0.2,21.759107301015163,0.0,21.336959419939127,0.0,0.2,22.29,20.57,22.1,21.66,22.11,-0.36,0.2,842.22,-654.34,-763.51,3.59,83.0,78.0,483.0,0.0,0.0,0.0,0.0,0.0,0.0,0.0,0.0,0.0,0.0,0.0,0.0,0.0,0.0
129.0,2017.0,0.0,0.0,-537.2095219298249,4086.8401186267606,0.0,0.0,1379.3675370272417,0.0,0.0,0.0,0.0,0.010343439378836028,0.4030938062000676,0.4348484112307486,6130.522386787743,1532.6305966969358,7663.152983484678,"[0.2922359890264481, 0.10800274960476841, 0.435647237990338, 0.15391340467341763, 0.4512266879750868, 0.26323721621022855, 0.5813689443077585, 0.11414126735544272]",21.71,0.0,0.0,670.6591660830695,1441.100913765346,124.43403523931208,-786.7151039997249,-290.7469944566687,0.0,0.0,0.0,0.0,0.0,0.0,0.0,2.8,21.569287512469273,0.0,21.32150910868864,0.0,2.8,21.71,20.57,22.08,21.37,21.9,2.66,2.8,190.36,-560.02,-653.45,976.34,140.0,68.0,999.0,0.0,0.0,0.0,0.0,0.0,0.0,0.0,0.0,0.0,0.0,0.0,0.0,0.0,0.0
130.0,1025.0,10835.65866265427,1258.5337833116441,-18947.145713506787,10205.921433287209,243.2776941902234,0.0,3857.077268833217,0.0,0.0,0.0,3857.0772688332167,0.0,0.4030938062000676,0.5,0.0,0.0,0.0,"[0.2922359890264481, 0.10800274960476841, 0.435647237990338, 0.15391340467341763, 0.4512266879750868, 0.26323721621022855, 0.5813689443077585, 0.11414126735544272]",22.28,0.0,0.0,1072.8051032625904,320.22123438398455,48.805068748292165,-706.4245727303193,-1044.3962233939342,0.0,0.0,0.0,0.0,0.0,0.0,0.0,5.3,21.758961150337942,0.0,21.344869130165854,0.0,5.3,22.28,20.59,22.1,21.91,22.28,5.4,5.3,0.0,-502.87,-586.76,1561.78,85.0,21.0,193.0,0.0,0.0,0.0,0.0,0.0,0.0,0.0,0.0,0.0,0.0,0.0,0.0,0.0,0.0
131.0,2665.0,4606.361897337265,987.947790739977,-0.0,10144.582992387026,-11074.965289497628,0.0,3169.078031156816,0.0,0.0,0.0,3169.078031156816,0.45222774932115317,0.4030938062000676,0.5,0.0,0.0,0.0,"[0.2922359890264481, 0.10800274960476841, 0.435647237990338, 0.15391340467341763, 0.4512266879750868, 0.26323721621022855, 0.5813689443077585, 0.11414126735544272]",22.11,0.0,0.0,879.8249522895378,207.6977824245322,44.065378750217334,-636.9667574471348,-744.2974750025868,0.0,0.0,0.0,0.0,0.0,0.0,0.0,6.8,21.7401901588659,0.0,21.389494582697836,0.0,6.8,22.11,20.62,22.16,21.96,22.34,6.75,6.8,0.0,-453.43,-529.07,1280.84,119.0,0.0,93.0,0.0,0.0,0.0,0.0,0.0,0.0,0.0,0.0,0.0,0.0,0.0,0.0,0.0,0.0
132.0,2946.0,0.0,0.0,-0.0,10017.092566912848,-1709.9005669128483,0.0,690.007130227918,26805.96,22134.775130227918,0.0,0.0,0.5220486891367612,0.3089833677212074,0.5,21444.768,5361.192,26805.96,"[0.2922359890264481, 0.10800274960476841, 0.435647237990338, 0.15391340467341763, 0.4512266879750868, 0.26323721621022855, 0.5813689443077585, 0.11414126735544272]",21.97,0.0,0.0,816.8266319439492,116.10565923156972,2.9880654335689036,-589.6332728920506,-515.0293722594445,0.0,0.0,0.0,0.0,0.0,0.0,0.0,7.8,21.71765026534582,0.0,21.417650523020217,0.0,7.8,21.97,20.65,22.18,21.83,22.26,7.69,7.8,0.0,-419.73,-489.75,1189.13,0.0,0.0,87.0,0.0,0.0,0.0,0.0,0.0,0.0,0.0,0.0,0.0,0.0,0.0,0.0,0.0,0.0
133.0,2474.0,0.0,773.2412565017513,-0.0,9416.038023600955,-6168.796767099204,0.0,2583.5572907781825,0.0,0.0,0.0,2583.557290778182,0.773941223793312,0.3089833677212074,0.5,0.0,0.0,0.0,"[0.2922359890264481, 0.10800274960476841, 0.435647237990338, 0.15391340467341763, 0.4512266879750868, 0.26323721621022855, 0.5813689443077585, 0.11414126735544272]",21.88,0.0,0.0,776.127412428351,21.352764916150754,0.5495292751391094,-569.0843548981271,-363.03632428298164,974.184190151527,0.0,0.0,0.0,0.0,0.0,0.0,8.2,21.70015480141865,0.0,21.435626454696568,0.0,8.2,21.88,20.68,22.19,21.76,22.21,8.09,8.2,0.0,-405.1,-472.69,1129.88,0.0,0.0,16.0,0.0,0.0,0.0,0.0,0.0,0.0,0.0,0.0,0.0,0.0,0.0,0.0,0.0,0.0
134.0,1764.0,0.0,1276.0904596964538,-0.0,8368.54793609531,-5328.457476398857,0.0,4263.679392582679,0.0,0.0,0.0,4263.67939258268,0.9915199040795987,0.3089833677212074,0.5,0.0,0.0,0.0,"[0.2922359890264481, 0.10800274960476841, 0.435647237990338, 0.15391340467341763, 0.4512266879750868, 0.26323721621022855, 0.5813689443077585, 0.11414126735544272]",22.29,0.0,0.0,707.4674552335118,175.59839569202924,54.95292751391095,-586.3503952800162,-878.3471978158907,0.0,0.0,0.0,0.0,0.0,0.0,0.0,8.2,21.855705116270997,0.0,21.47771652185268,0.0,8.2,22.29,20.72,22.23,22.1,22.46,7.98,8.2,0.0,-417.39,-487.03,1029.93,155.0,0.0,50.0,0.0,0.0,0.0,0.0,0.0,0.0,0.0,0.0,0.0,0.0,0.0,0.0,0.0,0.0
135.0,4135.0,0.0,1031.5720113721877,-0.0,5374.247829830995,-207.6758184588075,0.0,3348.350287575894,0.0,0.0,0.0,3348.350287575894,1.0,0.3089833677212074,0.49892588614393124,0.0,0.0,0.0,"[0.2922359890264481, 0.10800274960476841, 0.435647237990338, 0.15391340467341763, 0.4512266879750868, 0.26323721621022855, 0.5813689443077585, 0.11414126735544272]",22.02,0.0,0.0,675.2273966780076,257.6379661593453,56.73889765811306,-616.4664931582364,-465.88217771245473,662.1183292205101,0.0,0.0,0.0,0.0,0.0,0.0,7.2,21.78764525954025,0.0,21.501767814284868,0.0,7.2,22.02,20.75,22.25,21.84,22.29,6.95,7.2,0.0,-438.83,-512.04,982.99,154.0,0.0,112.0,0.0,0.0,0.0,0.0,0.0,0.0,0.0,0.0,0.0,0.0,0.0,0.0,0.0,0.0
136.0,2491.0,0.0,1040.8945631317313,-0.0,0.0,3531.894563131731,0.0,3239.6857511871513,0.0,0.0,0.0,3239.6857511871513,0.8498344148328345,0.3089833677212074,0.4930182599355524,0.0,0.0,0.0,"[0.2922359890264481, 0.10800274960476841, 0.435647237990338, 0.15391340467341763, 0.4512266879750868, 0.26323721621022855, 0.5813689443077585, 0.11414126735544272]",22.29,0.0,0.0,0.0,442.2269997108064,59.211779396239045,-686.2097043185428,-802.8485095598242,825.3105266822079,0.0,0.0,0.0,0.0,0.0,0.0,5.8,21.894946226090095,0.0,21.535417651884593,0.0,5.8,22.29,20.78,22.29,22.07,22.45,5.12,5.8,0.0,-488.48,-569.97,0.0,130.0,9.0,262.0,0.0,0.0,0.0,0.0,0.0,0.0,0.0,0.0,0.0,0.0,0.0,0.0,0.0,0.0
137.0,3510.0,0.0,971.5183992433407,-0.0,0.0,4481.51839924334,0.0,2986.7118790744535,0.0,0.0,0.0,2986.7118790744535,0.6592936665656857,0.3089833677212074,0.4726100966702463,0.0,0.0,0.0,"[0.2922359890264481, 0.10800274960476841, 0.435647237990338, 0.15391340467341763, 0.4512266879750868, 0.26323721621022855, 0.5813689443077585, 0.11414126735544272]",22.21,0.0,0.0,0.0,564.2327650376283,81.98289873481589,-699.3043079725389,-677.4221509987316,0.0,0.0,0.0,0.0,0.0,0.0,0.0,5.4,21.87298923152402,0.0,21.543200929110263,0.0,5.4,22.21,20.8,22.29,21.82,22.27,4.72,5.4,0.0,-497.8,-580.85,0.0,162.0,24.0,335.0,0.0,0.0,0.0,0.0,0.0,0.0,0.0,0.0,0.0,0.0,0.0,0.0,0.0,0.0
138.0,3155.0,0.0,1112.9410993119911,-0.0,0.0,4267.941099311991,0.0,3379.0436995913656,0.0,0.0,0.0,3379.043699591366,0.4778335858126248,0.3089833677212074,0.4532760472610089,0.0,0.0,0.0,"[0.2922359890264481, 0.10800274960476841, 0.435647237990338, 0.15391340467341763, 0.4512266879750868, 0.26323721621022855, 0.5813689443077585, 0.11414126735544272]",21.83,0.0,0.0,0.0,452.4117066609441,49.42328918282365,-700.4309295735964,-193.3659504019233,147.17689595908405,0.0,0.0,0.0,0.0,0.0,0.0,5.0,21.74395634410329,0.0,21.525257522681837,0.0,5.0,21.83,20.8,22.25,21.53,22.06,4.35,5.0,372.39,-498.6,-581.78,0.0,101.0,8.0,285.0,0.0,0.0,0.0,0.0,0.0,0.0,0.0,0.0,0.0,0.0,0.0,0.0,0.0,0.0
139.0,2746.0,3530.9689107446234,767.3140661909002,-0.0,0.0,0.0,0.0,2300.4118778732163,0.0,0.0,0.0,2300.4118778732163,0.4778335858126248,0.3089833677212074,0.4532760472610089,0.0,0.0,0.0,"[0.2922359890264481, 0.10800274960476841, 0.435647237990338, 0.15391340467341763, 0.4512266879750868, 0.26323721621022855, 0.5813689443077585, 0.11414126735544272]",21.71,0.0,0.0,0.0,302.9423522478889,7.7964465910361165,-711.8206222208298,-64.88001268286875,466.87851727662223,0.0,0.0,0.0,0.0,0.0,0.0,4.6,21.682534692969817,0.0,21.49772529906599,0.0,4.6,21.71,20.8,22.2,21.47,21.99,3.98,4.6,0.0,-506.71,-591.24,0.0,0.0,0.0,227.0,0.0,0.0,0.0,0.0,0.0,0.0,0.0,0.0,0.0,0.0,0.0,0.0,0.0,0.0
140.0,5210.0,16551.886060723697,300.73135706958027,-0.0,0.0,-10958.395273350494,0.0,890.1264394242073,0.0,0.0,0.0,890.1264394242073,0.6910015902112743,0.3089833677212074,0.440386680988184,0.0,0.0,0.0,"[0.2922359890264481, 0.10800274960476841, 0.435647237990338, 0.1421920707544153, 0.4512266879750868, 0.10042573869287352, 0.2715651323071633, 0.11414126735544272]",21.71,0.0,0.0,0.0,288.2623263680352,7.418645214377976,-728.4638403939175,-107.02822461280219,540.6833539606874,0.0,0.0,0.0,0.0,0.0,0.0,4.2,21.66145479102931,0.0,21.472372742119077,0.0,4.2,21.71,20.79,22.15,21.49,21.98,3.61,4.2,0.0,-518.56,-605.07,0.0,0.0,0.0,216.0,0.0,0.0,0.0,0.0,0.0,0.0,0.0,0.0,0.0,0.0,0.0,0.0,0.0,0.0
141.0,3675.0,0.0,926.9086185438606,-0.0,0.0,4601.908618543861,0.0,2708.185207194023,0.0,0.0,0.0,2708.185207194023,0.49534221017114416,0.3089833677212074,0.440386680988184,0.0,0.0,0.0,"[0.2922359890264481, 0.10800274960476841, 0.435647237990338, 0.1421920707544153, 0.4512266879750868, 0.10042573869287352, 0.2715651323071633, 0.11414126735544272]",21.71,0.0,0.0,0.0,230.87677065588002,5.941785287441621,-745.1070585670052,-144.60373781718144,1813.607797872413,0.0,0.0,0.0,0.0,0.0,0.0,3.8,21.642678845438823,0.0,21.449563849287888,0.0,3.8,21.71,20.79,22.11,21.49,21.96,3.23,3.8,0.0,-530.41,-618.89,0.0,0.0,0.0,173.0,0.0,0.0,0.0,0.0,0.0,0.0,0.0,0.0,0.0,0.0,0.0,0.0,0.0,0.0
142.0,2743.0,0.0,949.2504941834343,-0.0,0.0,3692.250494183434,0.0,2737.264355027154,0.0,0.0,0.0,2737.264355027154,0.3383587707925968,0.3089833677212074,0.440386680988184,0.0,0.0,0.0,"[0.2922359890264481, 0.10800274960476841, 0.435647237990338, 0.1421920707544153, 0.4512266879750868, 0.10042573869287352, 0.2715651323071633, 0.11414126735544272]",22.29,0.0,0.0,0.0,190.8403364380974,4.911417896555791,-786.0690133570693,-930.1223252226092,361.00011167226245,0.0,0.0,0.0,0.0,0.0,0.0,3.4,21.83178471739615,0.0,21.465693233391114,0.0,3.4,22.29,20.8,22.13,21.96,22.28,2.83,3.4,0.0,-559.56,-652.92,0.0,0.0,0.0,143.0,0.0,0.0,0.0,0.0,0.0,0.0,0.0,0.0,0.0,0.0,0.0,0.0,0.0,0.0
143.0,1393.0,0.0,2764.974401116397,-0.0,0.0,4157.974401116397,0.0,7867.659184095503,0.0,0.0,0.0,7867.659184095503,0.1615741448947908,0.3089833677212074,0.440386680988184,0.0,0.0,0.0,"[0.2922359890264481, 0.10800274960476841, 0.435647237990338, 0.1421920707544153, 0.4512266879750868, 0.10042573869287352, 0.2715651323071633, 0.11414126735544272]",21.71,0.0,0.0,0.0,144.1311631840176,3.7093226071889864,-778.3934949131809,-144.7111896572219,1935.7172704011737,0.0,0.0,0.0,0.0,0.0,0.0,3.0,21.642964326613573,0.0,21.451505325204415,0.0,3.0,21.71,20.79,22.11,21.47,21.94,2.43,3.0,0.0,-554.1,-646.54,0.0,0.0,0.0,108.0,0.0,0.0,0.0,0.0,0.0,0.0,0.0,0.0,0.0,0.0,0.0,0.0,0.0,0.0
144.0,1067.0,0.0,1904.8433541435522,-0.0,0.0,2971.8433541435525,0.0,5329.382487207622,0.0,0.0,0.0,5329.382487207622,0.03522026079004792,0.3089833677212074,0.440386680988184,0.0,0.0,0.0,"[0.2922359890264481, 0.10800274960476841, 0.435647237990338, 0.1421920707544153, 0.4512266879750868, 0.10042573869287352, 0.2715651323071633, 0.11414126735544272]",22.29,0.0,0.0,0.0,28.025503952447863,0.7212571736200785,-823.5162542465167,-928.4244741527891,1723.278770381019,0.0,0.0,0.0,0.0,0.0,0.0,2.5,21.83300658125783,0.0,21.468408219759496,0.0,2.5,22.29,20.81,22.13,21.97,22.29,1.96,2.5,0.0,-586.22,-684.02,0.0,0.0,0.0,21.0,0.0,0.0,0.0,0.0,0.0,0.0,0.0,0.0,0.0,0.0,0.0,0.0,0.0,0.0
145.0,1980.0,20373.377851314737,2291.5109620581657,-0.0,0.0,-16000.0,0.0,6323.820797031182,0.0,0.0,0.0,6323.820797031182,0.6885535941233812,0.3089833677212074,0.440386680988184,0.0,0.0,0.0,"[0.2922359890264481, 0.10800274960476841, 0.435647237990338, 0.1421920707544153, 0.4512266879750868, 0.10042573869287352, 0.2715651323071633, 0.11414126735544272]",22.29,0.0,0.0,0.0,102.7601811589755,2.6446096366069614,-840.1594724196061,-892.5958232055676,467.644508203973,0.0,0.0,0.0,0.0,0.0,0.0,2.1,21.851210665402295,0.0,21.492005383343376,0.0,2.1,22.29,20.82,22.17,21.95,22.3,1.6,2.1,95.63,-598.07,-697.84,0.0,0.0,0.0,77.0,0.0,0.0,0.0,0.0,0.0,0.0,0.0,0.0,0.0,0.0,0.0,0.0,0.0,0.0
146.0,1405.0,0.0,1555.0307859403524,-0.0,0.0,2960.0307859403524,0.0,4217.253454570476,0.0,0.0,0.0,4217.253454570476,0.5627019450612915,0.3089833677212074,0.440386680988184,0.0,0.0,0.0,"[0.2922359890264481, 0.10800274960476841, 0.435647237990338, 0.1421920707544153, 0.4512266879750868, 0.10042573869287352, 0.2715651323071633, 0.11414126735544272]",21.71,0.0,0.0,0.0,34.69824298874497,0.8929850721010517,-836.6447585189879,-109.13946981004928,910.2979945920039,0.0,0.0,0.0,0.0,0.0,0.0,1.6,21.66143213447232,0.0,21.476137354572185,0.0,1.6,21.71,20.81,22.14,21.49,21.97,1.13,1.6,1398.94,-595.57,-694.92,0.0,0.0,0.0,26.0,0.0,0.0,0.0,0.0,0.0,0.0,0.0,0.0,0.0,0.0,0.0,0.0,0.0,0.0
147.0,778.0,20429.29598802836,2212.623060774384,-17336.526447313834,0.0,0.0,0.0,5958.460687790207,0.0,0.0,0.0,5958.460687790207,0.5627019450612915,0.3089833677212074,0.5,0.0,0.0,0.0,"[0.2922359890264481, 0.10800274960476841, 0.435647237990338, 0.1421920707544153, 0.4512266879750868, 0.10042573869287352, 0.2715651323071633, 0.11414126735544272]",21.71,0.0,0.0,0.0,77.40377282104649,1.9920436223792706,-844.966367605532,-141.03466629185667,906.8394355609557,0.0,0.0,0.0,0.0,0.0,0.0,1.4,21.645451168921042,0.0,21.455651122907664,0.0,1.4,21.71,20.8,22.11,21.54,21.99,0.92,1.4,544.94,-601.49,-701.84,0.0,0.0,0.0,58.0,0.0,0.0,0.0,0.0,0.0,0.0,0.0,0.0,0.0,0.0,0.0,0.0,0.0,0.0
148.0,903.0,3896.0709561456224,2973.590601364894,-0.0,0.0,0.0,0.0,7951.0041556831275,0.0,0.0,0.0,7951.004155683128,0.5627019450612915,0.3089833677212074,0.5,0.0,0.0,0.0,"[0.2922359890264481, 0.10800274960476841, 0.435647237990338, 0.1421920707544153, 0.4512266879750868, 0.10042573869287352, 0.2715651323071633, 0.11414126735544272]",21.71,0.0,0.0,0.0,36.03279079600439,0.9273306517972455,-853.2879766920759,-170.85612836489938,2147.30995753001,0.0,0.0,0.0,0.0,0.0,0.0,1.2,21.630492738131323,0.0,21.436262371994694,0.0,1.2,21.71,20.79,22.08,21.54,21.98,0.76,1.2,179.4,-607.41,-708.75,0.0,0.0,0.0,27.0,0.0,0.0,0.0,0.0,0.0,0.0,0.0,0.0,0.0,0.0,0.0,0.0,0.0,0.0
149.0,1738.0,0.0,0.0,-0.0,0.0,1738.0,0.0,10231.12114829381,0.0,10231.121148293809,0.0,0.0,0.4888073872381622,0.26548370297506024,0.5,0.0,0.0,0.0,"[0.2922359890264481, 0.10800274960476841, 0.435647237990338, 0.1421920707544153, 0.4512266879750868, 0.10042573869287352, 0.2715651323071633, 0.11414126735544272]",22.29,0.0,0.0,0.0,94.75289431541898,2.438536158429798,-890.0891269388679,-949.9709474193005,1743.1553591532297,0.0,0.0,0.0,0.0,0.0,0.0,0.9,21.822775989230394,0.0,21.455189715040603,0.0,0.9,22.29,20.8,22.11,22.0,22.3,0.47,0.9,0.0,-633.61,-739.32,0.0,0.0,0.0,71.0,0.0,0.0,0.0,0.0,0.0,0.0,0.0,0.0,0.0,0.0,0.0,0.0,0.0,0.0
150.0,819.0,27814.37767147763,26856.30578312024,-0.0,0.0,0.0,0.0,6387.404102990893,0.0,-64398.83401023413,0.0,70786.23811322503,0.4888073872381622,0.5284456085168496,0.5,0.0,0.0,0.0,"[0.2922359890264481, 0.10800274960476841, 0.435647237990338, 0.1421920707544153, 0.4512266879750868, 0.10042573869287352, 0.2715651323071633, 0.11414126735544272]",22.29,0.0,0.0,0.0,36.03279079600439,0.9273306517972455,-894.2499314821398,-913.8792323514676,611.2611335990662,0.0,0.0,0.0,0.0,0.0,0.0,0.8,21.840992074143532,0.0,21.47809506252441,0.0,0.8,22.29,20.81,22.15,21.95,22.29,0.4,0.8,0.0,-636.57,-742.77,0.0,0.0,0.0,27.0,0.0,0.0,0.0,0.0,0.0,0.0,0.0,0.0,0.0,0.0,0.0,0.0,0.0,0.0
151.0,902.0,3183.8115594732503,2265.892501675884,-0.0,0.0,0.0,0.0,5929.100496208444,0.0,0.0,0.0,5929.100496208445,0.4888073872381622,0.5284456085168496,0.5,0.0,0.0,0.0,"[0.2922359890264481, 0.10800274960476841, 0.435647237990338, 0.1421920707544153, 0.4512266879750868, 0.10042573869287352, 0.2715651323071633, 0.11414126735544272]",21.71,0.0,0.0,0.0,89.41470308638127,2.301153839645019,-878.2528039517074,-127.2432302700595,2074.0676809455363,0.0,0.0,0.0,0.0,0.0,0.0,0.6,21.652699421754964,0.0,21.46358312269069,0.0,0.6,21.71,20.8,22.13,21.5,21.98,0.21,0.6,1584.55,-625.19,-729.48,0.0,0.0,0.0,67.0,0.0,0.0,0.0,0.0,0.0,0.0,0.0,0.0,0.0,0.0,0.0,0.0,0.0,0.0
