,load_elec,grid,hp_elec,ev,pv,bat_pow,cool,load_th_sh,load_th_dhw,tes_pow,dh,hp_th,bat_soc,tes_soc,ev_soc,eh_th_in,eh_elec_in,eh_th_out,temp_slack,temp_zone_1,temp_zone_2,temp_update,Qsolar_1,QconvInt_1,QradInt_1,Qvent_1,Qconduc_1,Qheating_1,Qsolar_2,QconvInt_2,QradInt_2,Qvent_2,Qconduc_2,Qheating_2,temp_amb,temp_aggregate_1,temp_aggregate_2,temp_wall_1,temp_wall_2,_Tamb,_Tz_1,_TEW_1,_TIW_1,_T1_1,_T2_1,_Taeq_1,_Tvent_1,_Qheating_1,_Qinfvent_1,_Qenvelope_1,_Qsolar_1,_Qint_people_1,_Qint_lighting_1,_Qint_appliances_1,_Tz_2,_TEW_2,_TIW_2,_T1_2,_T2_2,_Taeq_2,_Tvent_2,_Qheating_2,_Qinfvent_2,_Qenvelope_2,_Qsolar_2,_Qint_people_2,_Qint_lighting_2,_Qint_appliances_2
8.0,1931.0,53660.336001757874,0.0,-0.0,0.0,13230.0,0.0,58221.93088957416,0.0,0.0,0.0,0.0,0.0,0.5,0.8,258764.13728699635,64691.03432174909,323455.1716087454,"[2.0, 2.0, 2.0, 2.0, 2.0, 2.0, 2.0, 2.0, 2.0]",20.0,0.0,0.0,0.9341420952066869,1333.2407857921164,89.41548569312307,-2021.83252412255,-2205.4018379114646,13226.583026870874,0.0,0.0,0.0,0.0,0.0,0.0,-9.4,19.170356159705136,0.0,19.0,0.0,-9.4,20.0,18.0,20.0,20.0,20.0,-10.68,-9.4,1939.24,-1426.55,-1112.5,1.48,88.0,56.0,938.0,0.0,0.0,0.0,0.0,0.0,0.0,0.0,0.0,0.0,0.0,0.0,0.0,0.0,0.0
9.0,4879.0,4889.633348179614,0.0,-0.0,13.81481856128492,0.0,0.0,61492.70755257909,0.0,61492.70755257909,0.0,0.0,0.0,0.26760125641504495,0.8,0.0,0.0,0.0,"[2.0, 2.0, 2.0, 2.0, 2.0, 2.0, 2.0, 2.0, 2.0]",24.0,0.0,0.0,26.63665259631221,226.05709081943507,72.4562852927289,-2241.895928108678,-8828.241903408023,3590.3622065028803,0.0,0.0,0.0,0.0,0.0,0.0,-8.6,20.62891972978957,0.0,19.455877143219155,0.0,-8.6,24.0,18.25,20.66,22.03,22.74,-9.71,-8.6,2374.74,-1581.82,-1233.58,42.09,224.0,0.0,50.0,0.0,0.0,0.0,0.0,0.0,0.0,0.0,0.0,0.0,0.0,0.0,0.0,0.0,0.0
10.0,2883.0,59602.04267656968,0.0,-0.0,669.097427543335,0.0,0.0,51381.11690165712,0.0,0.0,0.0,0.0,0.0,0.26760125641504495,0.8,228360.51956292067,57090.12989073017,285450.6494536508,"[2.0, 2.0, 2.0, 2.0, 2.0, 2.0, 2.0, 2.0, 2.0]",21.25,0.0,0.0,67.0348007794122,549.3399899787651,69.8617807538626,-1984.0907584745164,-3378.94295368091,11837.20323944678,0.0,0.0,0.0,0.0,0.0,0.0,-7.6,19.970485482850645,0.0,19.655953172208573,0.0,-7.6,21.25,18.42,20.89,20.17,21.13,-8.68,-7.6,1526.22,-1399.92,-1091.73,105.93,190.0,0.0,308.0,0.0,0.0,0.0,0.0,0.0,0.0,0.0,0.0,0.0,0.0,0.0,0.0,0.0,0.0
11.0,6507.0,22154.553672328486,17361.22347262235,-0.0,1824.4425686555073,0.0,0.0,33180.92010085423,0.0,0.0,0.0,33180.92010085423,0.0,0.26760125641504495,0.8,0.0,0.0,0.0,"[2.0, 2.0, 2.0, 2.0, 2.0, 2.0, 2.0, 2.0, 2.0]",24.0,0.0,0.0,89.41662632274756,4638.7765407649595,151.8734364214405,-2118.1102633664814,-7765.86530181464,0.0,0.0,0.0,0.0,0.0,0.0,0.0,-6.8,21.035780602917164,0.0,20.059755150077685,0.0,-6.8,24.0,18.67,21.45,22.2,23.13,-7.78,-6.8,8377.57,-1494.48,-1165.47,141.3,143.0,0.0,3370.0,0.0,0.0,0.0,0.0,0.0,0.0,0.0,0.0,0.0,0.0,0.0,0.0,0.0,0.0
12.0,8462.0,43421.53945266405,35132.73593804093,-0.0,3635.4513738572305,-3245.1471912170236,0.0,69155.57498595152,0.0,0.0,0.0,69155.57498595153,0.11778682397750678,0.26760125641504495,0.8,0.0,0.0,0.0,"[2.0, 2.0, 2.0, 2.0, 2.0, 2.0, 2.0, 2.0, 2.0]",22.08,0.0,0.0,122.99438120658516,4291.187189520655,141.9067421562834,-1944.5313286973933,-3971.3161730415027,6375.262729679835,0.0,0.0,0.0,0.0,0.0,0.0,-6.2,20.56734850488145,0.0,20.18017751142743,0.0,-6.2,22.08,18.82,21.54,20.52,21.53,-7.1,-6.2,0.0,-1372.01,-1069.96,194.36,137.0,0.0,3115.0,0.0,0.0,0.0,0.0,0.0,0.0,0.0,0.0,0.0,0.0,0.0,0.0,0.0,0.0
13.0,5163.0,30621.61864296845,26075.53517487139,-0.0,770.0246251177842,0.0,0.0,51575.890370586,0.0,0.0,0.0,51575.890370586,0.11778682397750678,0.26760125641504495,0.7430719656283566,0.0,0.0,0.0,"[2.0, 2.0, 2.0, 2.0, 2.0, 2.0, 2.0, 2.0, 2.0]",24.0,0.0,0.0,69.0204314413122,1397.160376989336,74.79766743755943,-2069.971393744516,-7036.315986104503,7567.4971703941455,0.0,0.0,0.0,0.0,0.0,0.0,-6.1,21.315551952801513,0.0,20.45983595449667,0.0,-6.1,24.0,19.04,21.88,22.0,22.96,-7.12,-6.1,0.0,-1460.52,-1138.98,109.07,140.0,0.0,964.0,0.0,0.0,0.0,0.0,0.0,0.0,0.0,0.0,0.0,0.0,0.0,0.0,0.0,0.0
14.0,3126.0,0.0,0.0,-0.0,9.36063755517024,3116.6393624448297,0.0,4063.688090375231,0.0,4063.688090375231,0.0,0.0,0.0,0.2522434027099231,0.7430719656283553,0.0,0.0,0.0,"[2.0, 2.0, 2.0, 2.0, 2.0, 2.0, 2.0, 2.0, 2.0]",24.0,0.0,0.0,24.46122165221472,201.6797744426684,53.598666937066696,-2104.3563006173486,-6457.839340461142,0.0,0.0,0.0,0.0,0.0,0.0,0.0,-6.6,21.538016819290426,0.0,20.78702586628438,0.0,-6.6,24.0,19.28,22.29,22.22,23.3,-7.71,-6.6,1974.49,-1484.78,-1157.9,38.66,163.0,0.0,64.0,0.0,0.0,0.0,0.0,0.0,0.0,0.0,0.0,0.0,0.0,0.0,0.0,0.0,0.0
15.0,2714.0,16553.687141719092,13756.918706010496,-0.0,0.0,0.0,0.0,25636.597092153872,0.0,0.0,0.0,25636.597092153876,0.0,0.2522434027099231,0.7398496240601491,0.0,0.0,0.0,"[2.0, 2.0, 2.0, 2.0, 2.0, 2.0, 2.0, 2.0, 2.0]",20.82,0.0,0.0,2.807587585920631,152.64168452196336,41.955036811422914,-1933.708996844837,-568.6430247588282,175.9945881909468,0.0,0.0,0.0,0.0,0.0,0.0,-7.3,20.616642913847546,0.0,20.769838052286456,0.0,-7.3,20.82,19.37,22.17,20.26,21.5,-8.45,-7.3,8718.5,-1364.37,-1064.01,4.44,128.0,0.0,46.0,0.0,0.0,0.0,0.0,0.0,0.0,0.0,0.0,0.0,0.0,0.0,0.0,0.0,0.0
16.0,2162.0,19971.46087059414,17709.603566241167,-0.0,0.0,0.0,0.0,33171.42279910395,0.0,0.0,0.0,33171.42279910396,0.0,0.2522434027099231,0.7291084854994616,0.0,0.0,0.0,"[2.0, 2.0, 2.0, 2.0, 2.0, 2.0, 2.0, 2.0, 2.0]",20.0,0.0,0.0,0.0,282.6776599619832,109.82347871225414,-1870.5389338820876,726.6724843355164,758.9549144530421,0.0,0.0,0.0,0.0,0.0,0.0,-7.2,20.294935242810848,0.0,20.625273568500532,0.0,-7.2,20.0,19.37,21.88,19.89,21.06,-8.33,-7.2,0.0,-1319.8,-1029.25,0.0,212.0,70.0,91.0,0.0,0.0,0.0,0.0,0.0,0.0,0.0,0.0,0.0,0.0,0.0,0.0,0.0,0.0
17.0,5215.0,26447.09047923513,21099.85502683895,-0.0,0.0,0.0,0.0,39923.92219924133,0.0,0.0,0.0,39923.92219924133,0.0,0.2522434027099231,0.7291084854994616,0.0,0.0,0.0,"[2.0, 2.0, 2.0, 2.0, 2.0, 2.0, 2.0, 2.0, 2.0]",20.0,0.0,0.0,0.0,309.81868371867404,169.84512639797757,-1856.7849711329543,521.8390874195854,8983.859554096705,0.0,0.0,0.0,0.0,0.0,0.0,-7.0,20.216164248053964,0.0,20.492446635224255,0.0,-7.0,20.0,19.37,21.61,19.93,20.98,-8.12,-7.0,5205.12,-1310.1,-1021.68,0.0,276.0,141.0,70.0,0.0,0.0,0.0,0.0,0.0,0.0,0.0,0.0,0.0,0.0,0.0,0.0,0.0,0.0
18.0,2881.0,78300.98742422606,75028.48248710492,-0.0,0.0,0.0,0.0,62679.81355793835,0.0,-80000.0,0.0,142679.81355793838,0.0,0.5426137730802935,0.7291084854994616,0.0,0.0,0.0,"[2.0, 2.0, 2.0, 2.0, 2.0, 2.0, 2.0, 2.0, 2.0]",23.12,0.0,0.0,0.0,327.3221637915268,122.16319542149616,-2064.251544128623,-4882.958312707687,0.0,0.0,0.0,0.0,0.0,0.0,0.0,-6.9,21.259273799396233,0.0,20.70024966832827,0.0,-6.9,23.12,19.52,21.88,22.05,22.92,-8.03,-6.9,0.0,-1456.48,-1135.84,0.0,142.0,127.0,155.0,0.0,0.0,0.0,0.0,0.0,0.0,0.0,0.0,0.0,0.0,0.0,0.0,0.0,0.0
19.0,4077.0,26183.755218604554,0.0,-0.0,0.0,0.0,0.0,19778.25279826037,0.0,0.0,0.0,0.0,0.0,0.5426137730802935,0.7242749731471523,87903.34577004613,21975.836442511532,109879.18221255766,"[2.0, 2.0, 2.0, 2.0, 2.0, 2.0, 2.0, 2.0, 2.0]",20.62,0.0,0.0,0.0,717.075768652622,158.86594255667765,-1885.5644813589588,-280.22143999337936,0.0,0.0,0.0,0.0,0.0,0.0,0.0,-6.8,20.52689859757917,0.0,20.67511714072017,0.0,-6.8,20.62,19.57,21.78,20.25,21.23,-7.91,-6.8,0.0,-1330.41,-1037.52,0.0,249.0,119.0,389.0,0.0,0.0,0.0,0.0,0.0,0.0,0.0,0.0,0.0,0.0,0.0,0.0,0.0,0.0
20.0,3964.0,3983.9195979899496,0.0,-0.0,0.0,0.0,0.0,3644.980192361243,0.0,3644.980192361243,0.0,0.0,0.5807407407407407,0.5150629023897323,0.7242749731471523,0.0,0.0,0.0,"[2.0, 0.7697912043459105, 1.2234726939962677, 1.257845461162347, 1.6862852525369156, 0.8243993235178735, 2.0, 0.9024620389727218, 1.554245871518848]",20.12,0.0,0.0,0.0,902.2441631075385,171.74354435324562,-1837.459339011317,465.49029162046605,0.0,0.0,0.0,0.0,0.0,0.0,0.0,-6.6,20.313342410891178,0.0,20.559452795124162,0.0,-6.6,20.12,19.57,21.55,20.03,20.94,-7.71,-6.6,0.0,-1296.46,-1011.05,0.0,387.0,61.0,460.0,0.0,0.0,0.0,0.0,0.0,0.0,0.0,0.0,0.0,0.0,0.0,0.0,0.0,0.0
21.0,3690.0,967.4624829248803,0.0,-0.0,0.0,2727.374829489744,0.0,21186.43958733624,0.0,21186.43958733624,0.0,0.0,0.47766535035942004,0.43499321385104656,0.7242749731471523,0.0,0.0,0.0,"[2.0, 0.7697912043459105, 1.2234726939962677, 1.257845461162347, 1.6862852525369156, 0.8243993235178735, 2.0, 0.9024620389727218, 1.554245871518848]",20.0,0.0,0.0,0.0,944.2666881407434,171.33222046293753,-1822.400064260122,496.6520941332463,5209.852910259231,0.0,0.0,0.0,0.0,0.0,0.0,-6.5,20.20622528131837,0.0,20.43982657908201,0.0,-6.5,20.0,19.55,21.33,19.95,20.78,-7.64,-6.5,679.2,-1285.84,-1002.76,0.0,405.0,49.0,483.0,0.0,0.0,0.0,0.0,0.0,0.0,0.0,0.0,0.0,0.0,0.0,0.0,0.0,0.0
22.0,2524.0,22060.191132583703,19425.890176920784,-0.0,0.0,0.0,0.0,38052.893784068285,0.0,0.0,0.0,38052.893784068285,0.47766535035942004,0.43499321385104656,0.7242749731471523,0.0,0.0,0.0,"[2.0, 0.7697912043459105, 1.2234726939962677, 1.257845461162347, 1.6862852525369156, 0.8243993235178735, 2.0, 0.9024620389727218, 1.554245871518848]",21.92,0.0,0.0,0.0,926.0545651499616,194.65112101347955,-1940.3619426350224,-2885.5835865976755,0.0,0.0,0.0,0.0,0.0,0.0,0.0,-6.3,20.82378250514857,0.0,20.53119617967204,0.0,-6.3,21.92,19.62,21.44,21.24,21.94,-7.52,-6.3,4137.8,-1369.07,-1067.67,0.0,471.0,56.0,434.0,0.0,0.0,0.0,0.0,0.0,0.0,0.0,0.0,0.0,0.0,0.0,0.0,0.0,0.0
23.0,1432.0,1439.1959798994974,0.0,-0.0,0.0,0.0,0.0,21263.228008757214,0.0,21263.228008757218,0.0,0.0,0.47766535035942004,0.35463331963805633,0.7146079484425336,0.0,0.0,0.0,"[2.0, 0.7697912043459105, 1.2234726939962677, 1.257845461162347, 1.6862852525369156, 0.8243993235178735, 2.0, 0.9024620389727218, 1.554245871518848]",20.49,0.0,0.0,0.0,281.18950983433183,92.13655142900721,-1835.2844802058244,-285.4998819694328,10901.455341920839,0.0,0.0,0.0,0.0,0.0,0.0,-6.2,20.393360662597527,0.0,20.498234297486963,0.0,-6.2,20.49,19.65,21.35,20.21,20.96,-7.37,-6.2,237.76,-1294.93,-1009.85,0.0,240.0,24.0,80.0,0.0,0.0,0.0,0.0,0.0,0.0,0.0,0.0,0.0,0.0,0.0,0.0,0.0,0.0
24.0,992.0,0.0,10945.025170510255,-0.0,0.0,11937.025170510255,0.0,21648.62253111265,0.0,0.0,0.0,21648.62253111265,0.026530612244897958,0.35463331963805633,0.7146079484425336,0.0,0.0,0.0,"[2.0, 0.7697912043459105, 1.2234726939962677, 1.257845461162347, 1.6862852525369156, 0.8243993235178735, 2.0, 0.9024620389727218, 1.554245871518848]",24.0,0.0,0.0,0.0,273.60703061248864,54.38967441842837,-2069.971393744516,-6247.751561137268,7993.484973145385,0.0,0.0,0.0,0.0,0.0,0.0,-6.1,21.61846587352874,0.0,20.81405406860559,0.0,-6.1,24.0,19.82,21.81,22.7,23.35,-7.31,-6.1,4548.01,-1460.52,-1138.98,0.0,160.0,0.0,119.0,0.0,0.0,0.0,0.0,0.0,0.0,0.0,0.0,0.0,0.0,0.0,0.0,0.0,0.0
25.0,789.0,15733.650072907047,0.0,-0.0,0.0,0.0,0.0,13379.383640288255,0.0,0.0,0.0,0.0,0.026530612244897958,0.35463331963805633,0.7146079484425336,59463.927290170046,14865.981822542512,74329.90911271256,"[2.0, 0.7697912043459105, 1.2234726939962677, 1.257845461162347, 1.6862852525369156, 0.8243993235178735, 2.0, 0.9024620389727218, 1.554245871518848]",24.0,0.0,0.0,0.0,359.919738016273,80.39800040560004,-2063.094412369949,-5681.386246225108,0.0,0.0,0.0,0.0,0.0,0.0,0.0,-6.0,21.83583698379172,0.0,21.140958634462667,0.0,-6.0,24.0,20.02,22.26,22.59,23.36,-7.11,-6.0,3794.71,-1455.67,-1135.2,0.0,240.0,0.0,141.0,0.0,0.0,0.0,0.0,0.0,0.0,0.0,0.0,0.0,0.0,0.0,0.0,0.0,0.0
26.0,702.0,0.0,0.0,-0.0,0.0,702.0,0.0,43357.248165020275,0.0,43357.24816502026,0.0,0.0,0.0,0.19077372717766228,0.7146079484425336,0.0,0.0,0.0,"[2.0, 0.7697912043459105, 1.2234726939962677, 1.257845461162347, 1.6862852525369156, 0.8243993235178735, 2.0, 0.9024620389727218, 1.554245871518848]",21.19,0.0,0.0,0.0,407.04449205856895,81.50541087950639,-1849.4337713809941,-471.71164161038917,9147.947137089815,0.0,0.0,0.0,0.0,0.0,0.0,-5.7,21.027674136329498,0.0,21.13749738249338,0.0,-5.7,21.19,20.08,22.19,20.77,21.7,-6.79,-5.7,3585.28,-1304.91,-1017.63,0.0,240.0,0.0,176.0,0.0,0.0,0.0,0.0,0.0,0.0,0.0,0.0,0.0,0.0,0.0,0.0,0.0,0.0
27.0,742.0,121792.66124910356,0.0,-0.0,0.0,-16000.0,0.0,44853.50313268055,0.0,-49144.02501589163,0.0,0.0,0.5807407407407407,0.36914833649460227,0.7146079484425336,417766.79177143215,104441.69794285804,522208.48971429013,"[2.0, 0.7697912043459105, 1.2234726939962677, 1.257845461162347, 1.6862852525369156, 0.8243993235178735, 2.0, 0.9024620389727218, 1.554245871518848]",24.0,0.0,0.0,0.0,328.95204250276413,79.67027352274731,-2028.7095054971169,-5251.66099882334,0.0,0.0,0.0,0.0,0.0,0.0,0.0,-5.5,22.00053792749916,0.0,21.376025972353204,0.0,-5.5,24.0,20.24,22.51,22.82,23.64,-6.56,-5.5,3250.59,-1431.4,-1116.28,0.0,240.0,0.0,118.0,0.0,0.0,0.0,0.0,0.0,0.0,0.0,0.0,0.0,0.0,0.0,0.0,0.0,0.0
28.0,1013.0,60526.05530602373,59210.42502949361,-0.0,0.0,0.0,0.0,41066.07134777051,0.0,-80000.0,0.0,121066.0713477705,0.5807407407407407,0.6595187068649726,0.7146079484425331,0.0,0.0,0.0,"[2.0, 0.7697912043459105, 1.2234726939962677, 1.257845461162347, 1.6862852525369156, 0.8243993235178735, 2.0, 0.9024620389727218, 1.554245871518848]",21.36,0.0,0.0,0.0,346.73897974278873,104.63446963452161,-1840.2230463134906,-368.23009010500886,0.0,0.0,0.0,0.0,0.0,0.0,0.0,-5.4,21.23337262780262,0.0,21.361304200893404,0.0,-5.4,21.36,20.29,22.43,20.96,21.91,-6.44,-5.4,104.05,-1298.41,-1012.57,0.0,320.0,1.0,89.0,0.0,0.0,0.0,0.0,0.0,0.0,0.0,0.0,0.0,0.0,0.0,0.0,0.0,0.0
29.0,568.0,12179.920008204288,0.0,-0.0,0.0,-11551.020408163267,0.0,48383.006856544984,0.0,48383.00685654498,0.0,0.0,1.0,0.4766653173844549,0.7146079484425331,0.0,0.0,0.0,"[2.0, 0.7697912043459105, 1.2234726939962677, 1.257845461162347, 1.6862852525369156, 0.8243993235178735, 2.0, 0.9024620389727218, 1.554245871518848]",20.68,0.0,0.0,0.0,297.06311119594733,114.79100569520544,-1779.8784611749838,698.4191702359229,9319.102747640598,0.0,0.0,0.0,0.0,0.0,0.0,-5.2,20.964978371651487,0.0,21.240993673192357,0.0,-5.2,20.68,20.29,22.2,20.66,21.55,-6.24,-5.2,1406.62,-1255.84,-979.36,0.0,320.0,21.0,50.0,0.0,0.0,0.0,0.0,0.0,0.0,0.0,0.0,0.0,0.0,0.0,0.0,0.0,0.0
30.0,551.0,0.0,0.0,-0.0,0.0,551.0,0.0,16144.077985948392,0.0,16144.077985948392,0.0,0.0,0.9791761148904006,0.41565217306870134,0.7146079484425331,0.0,0.0,0.0,"[2.0, 0.7697912043459105, 1.2234726939962677, 1.257845461162347, 1.6862852525369156, 0.8243993235178735, 2.0, 0.9024620389727218, 1.554245871518848]",24.0,0.0,0.0,0.0,431.35094414354273,175.69858176005397,-2001.2015799988508,-5051.433429447568,0.0,0.0,0.0,0.0,0.0,0.0,0.0,-5.1,22.07719320719648,0.0,21.46778881686757,0.0,-5.1,24.0,20.43,22.51,22.93,23.67,-6.15,-5.1,845.94,-1412.0,-1101.14,0.0,507.0,24.0,51.0,0.0,0.0,0.0,0.0,0.0,0.0,0.0,0.0,0.0,0.0,0.0,0.0,0.0,0.0
31.0,772.0,26597.02136160649,0.0,-0.0,0.0,0.0,0.0,23122.832629318604,0.0,0.0,0.0,0.0,0.9791761148904006,0.41565217306870134,0.7146079484425331,102768.14501919383,25692.03625479846,128460.18127399229,"[2.0, 0.7697912043459105, 1.2234726939962677, 1.257845461162347, 1.6862852525369156, 0.8243993235178735, 2.0, 0.9024620389727218, 1.554245871518848]",21.52,0.0,0.0,0.0,381.7459398884944,135.83180469942582,-1823.7936674744885,-447.84465114716437,0.0,0.0,0.0,0.0,0.0,0.0,0.0,-5.0,21.36375648528331,0.0,21.46547426719271,0.0,-5.0,21.52,20.48,22.45,21.15,22.01,-6.03,-5.0,3853.24,-1286.82,-1003.53,0.0,274.0,79.0,131.0,0.0,0.0,0.0,0.0,0.0,0.0,0.0,0.0,0.0,0.0,0.0,0.0,0.0,0.0
32.0,2861.0,0.0,0.0,-0.0,0.0,2861.0,0.0,1485.220636513016,0.0,1485.220636513016,0.0,0.0,0.8918745275888134,0.4044260155742719,0.7146079484425331,0.0,0.0,0.0,"[1.4315203625821589, 0.4489890806154371, 1.2234726939962677, 0.7423401885770886, 1.6862852525369156, 0.8243993235178699, 1.4668576436433405, 0.9024620389727218, 1.554245871518848]",20.84,0.0,0.0,0.9342631388347491,319.52709169430494,99.06577696573545,-1763.4718757562828,635.5574635723381,0.0,0.0,0.0,0.0,0.0,0.0,0.0,-4.8,21.10213807199912,0.0,21.356683402044467,0.0,-4.8,20.84,20.47,22.24,20.83,21.66,-5.85,-4.8,0.0,-1244.26,-970.34,1.48,228.0,41.0,113.0,0.0,0.0,0.0,0.0,0.0,0.0,0.0,0.0,0.0,0.0,0.0,0.0,0.0,0.0
33.0,2233.0,35810.782525882205,49411.863965521516,-0.0,13.135352268716307,16000.0,0.0,28568.134650049742,0.0,-80000.0,0.0,108568.13465004976,0.28718820861678007,0.6947963859446422,0.7146079484425331,0.0,0.0,0.0,"[1.4315203625821589, 0.4489890806154371, 1.2234726939962677, 0.7423401885770886, 1.6862852525369156, 0.8243993235178699, 1.4668576436433405, 0.9024620389727218, 1.554245871518848]",20.57,0.0,0.0,26.63345607618235,240.1590848862274,38.31640239715925,-1675.8158059302546,936.4457089722974,435.7360528001624,0.0,0.0,0.0,0.0,0.0,0.0,-3.8,20.94220957967291,0.0,21.226708870086036,0.0,-3.8,20.57,20.44,22.01,20.66,21.42,-4.63,-3.8,302.53,-1182.41,-922.1,42.09,109.0,0.0,121.0,0.0,0.0,0.0,0.0,0.0,0.0,0.0,0.0,0.0,0.0,0.0,0.0,0.0,0.0
34.0,2543.0,27357.640993716745,8896.086504170979,-0.0,218.23371542281825,-16000.0,0.0,20479.45131855849,0.0,0.0,0.0,20479.4513185585,0.8679289493575207,0.6947963859446422,0.7146079484425327,0.0,0.0,0.0,"[1.4315203625821589, 0.4489890806154371, 1.2234726939962677, 0.7423401885770886, 1.6862852525369156, 0.8243993235178699, 1.4668576436433405, 0.9024620389727218, 1.554245871518848]",20.57,0.0,0.0,50.571414839425685,484.92434873899504,104.31806664197693,-1600.169010810023,753.6823265745077,211.67514675966595,0.0,0.0,0.0,0.0,0.0,0.0,-2.7,20.87136002693833,0.0,21.112816888342895,0.0,-2.7,20.57,20.41,21.81,20.66,21.34,-3.43,-2.7,3430.0,-1129.04,-880.48,79.92,310.0,0.0,197.0,0.0,0.0,0.0,0.0,0.0,0.0,0.0,0.0,0.0,0.0,0.0,0.0,0.0,0.0
35.0,2517.0,954.0299659880612,11347.166223285256,-0.0,1043.1064071271385,11871.799999999997,0.0,27203.77890777086,0.0,0.0,0.0,27203.778907770866,0.41925925925925933,0.6947963859446422,0.7146079484425327,0.0,0.0,0.0,"[1.4315203625821589, 0.4489890806154371, 1.2234726939962677, 0.7423401885770886, 1.6862852525369156, 0.8243993235178699, 1.4668576436433405, 0.9024620389727218, 1.554245871518848]",20.57,0.0,0.0,75.17991269477616,1565.7465271647075,92.54787531931528,-1531.3991970643583,596.8395626910017,6660.17437520161,0.0,0.0,0.0,0.0,0.0,0.0,-1.7,20.810500276240777,0.0,21.015231390105768,0.0,-1.7,20.57,20.38,21.65,20.63,21.24,-2.31,-1.7,325.56,-1080.52,-842.64,118.8,186.0,0.0,1065.0,0.0,0.0,0.0,0.0,0.0,0.0,0.0,0.0,0.0,0.0,0.0,0.0,0.0,0.0
36.0,4686.0,11984.674465642274,8690.338302764154,-0.0,1451.587209450092,0.0,0.0,21414.21394418284,0.0,0.0,0.0,21414.213944182844,0.41925925925925933,0.6947963859446422,0.7146079484425327,0.0,0.0,0.0,"[1.4315203625821589, 0.4489890806154371, 1.2234726939962677, 0.7423401885770886, 1.6862852525369156, 0.8243993235178699, 1.4668576436433405, 0.9024620389727218, 1.554245871518848]",23.43,0.0,0.0,82.06527128205019,3225.104783787872,147.72855721910534,-1680.1511048581963,-4383.146092405274,2615.085134023791,0.0,0.0,0.0,0.0,0.0,0.0,-1.0,21.762624256683218,0.0,21.202132701075627,0.0,-1.0,23.43,20.49,21.92,22.46,22.93,-1.89,-1.0,3364.07,-1185.47,-924.49,129.68,240.0,0.0,2269.0,0.0,0.0,0.0,0.0,0.0,0.0,0.0,0.0,0.0,0.0,0.0,0.0,0.0,0.0
37.0,4985.0,25446.200635776626,4764.111357164855,-0.0,430.14172456711344,-16000.0,0.0,11875.692605173475,0.0,0.0,0.0,11875.692605173475,1.0,0.6947963859446422,0.6839957035445735,0.0,0.0,0.0,"[1.4315203625821589, 0.4489890806154371, 1.2234726939962677, 0.7423401885770886, 1.6862852525369156, 0.8243993235178699, 1.4668576436433405, 0.9024620389727218, 1.554245871518848]",23.43,0.0,0.0,59.93216984811567,3063.179877041035,146.62114674519898,-1659.5201607344968,-4076.001742003502,0.0,0.0,0.0,0.0,0.0,0.0,0.0,-0.7,21.88047612949258,0.0,21.378061780365897,0.0,-0.7,23.43,20.6,22.15,22.22,22.73,-1.73,-0.7,0.0,-1170.91,-913.14,94.71,249.0,0.0,2144.0,0.0,0.0,0.0,0.0,0.0,0.0,0.0,0.0,0.0,0.0,0.0,0.0,0.0,0.0
38.0,2426.0,0.0,0.0,-0.0,0.37606732055556924,11842.263932679443,0.0,29023.024627164592,47083.2,66689.5846271646,0.0,0.0,0.5524465633907996,0.4427571394323043,0.6839957035445735,37666.56,9416.64,47083.2,"[1.4315203625821589, 0.4489890806154371, 1.2234726939962677, 0.7423401885770886, 1.6862852525369156, 0.8243993235178699, 1.4668576436433405, 0.9024620389727218, 1.554245871518848]",22.48,0.0,0.0,15.920746387034965,953.9042318245816,96.15486943432448,-1635.4686091987019,-2209.2450010547345,5257.981655791749,0.0,0.0,0.0,0.0,0.0,0.0,-1.3,21.647388341121896,0.0,21.435871650414597,0.0,-1.3,22.48,20.67,22.2,21.64,22.21,-2.37,-1.3,3720.53,-1153.94,-899.9,25.16,246.0,0.0,579.0,0.0,0.0,0.0,0.0,0.0,0.0,0.0,0.0,0.0,0.0,0.0,0.0,0.0,0.0
39.0,2813.0,2827.13567839196,0.0,-0.0,0.0,0.0,0.0,5471.42380278192,0.0,5471.42380278192,0.0,0.0,0.5524465633907996,0.4220790449395533,0.6839957035445735,0.0,0.0,0.0,"[1.4315203625821589, 0.4489890806154371, 1.2234726939962677, 0.7423401885770886, 1.6862852525369156, 0.8243993235178699, 1.4668576436433405, 0.9024620389727218, 1.554245871518848]",23.43,0.0,0.0,1.8684459047004653,836.6238289072885,69.41881656430007,-1742.0439372292947,-3670.974759277603,1176.9508240462944,0.0,0.0,0.0,0.0,0.0,0.0,-1.9,22.03674703696679,0.0,21.606723410360274,0.0,-1.9,23.43,20.78,22.43,22.52,23.11,-3.05,-1.9,0.0,-1229.14,-958.54,2.95,166.0,0.0,534.0,0.0,0.0,0.0,0.0,0.0,0.0,0.0,0.0,0.0,0.0,0.0,0.0,0.0,0.0
40.0,1121.0,0.0,196.0812493476795,-0.0,0.0,1317.0812493476794,0.0,462.60940370051065,0.0,0.0,0.0,462.60940370051065,0.5026702501123537,0.4220790449395533,0.6662728249194393,0.0,0.0,0.0,"[1.4315203625821589, 0.4489890806154371, 1.2234726939962677, 0.7423401885770886, 1.6862852525369156, 0.8243993235178699, 1.4668576436433405, 0.9024620389727218, 1.554245871518848]",22.15,0.0,0.0,0.0,460.40530377864246,76.66444509357297,-1667.7858999264545,-1233.0670226435175,0.0,0.0,0.0,0.0,0.0,0.0,0.0,-2.1,21.692503958875697,0.0,21.640722089681702,0.0,-2.1,22.15,20.83,22.45,21.66,22.33,-3.3,-2.1,593.89,-1176.75,-917.68,0.0,163.0,30.0,253.0,0.0,0.0,0.0,0.0,0.0,0.0,0.0,0.0,0.0,0.0,0.0,0.0,0.0,0.0
41.0,1591.0,0.0,2200.41828451198,-0.0,0.0,3791.41828451198,0.0,5149.435236964777,0.0,0.0,0.0,5149.435236964777,0.359381577228303,0.4220790449395533,0.6662728249194384,0.0,0.0,0.0,"[1.4315203625821589, 0.4489890806154371, 1.2234726939962677, 0.7423401885770886, 1.6862852525369156, 0.8243993235178699, 1.4668576436433405, 0.9024620389727218, 1.554245871518848]",21.24,0.0,0.0,0.0,534.2458958268718,128.49125527238954,-1618.978903183257,335.3026004915832,0.0,0.0,0.0,0.0,0.0,0.0,0.0,-2.3,21.384625045311736,0.0,21.566413955043082,0.0,-2.3,21.24,20.83,22.3,21.16,21.84,-3.48,-2.3,0.0,-1142.31,-890.83,0.0,298.0,47.0,235.0,0.0,0.0,0.0,0.0,0.0,0.0,0.0,0.0,0.0,0.0,0.0,0.0,0.0,0.0
42.0,4693.0,950.0028190740111,0.0,-0.0,0.0,3747.747195021359,0.0,25046.416612943376,0.0,25046.41661294338,0.0,0.0,0.21774336124110122,0.3274213857825488,0.6662728249194384,0.0,0.0,0.0,"[1.4315203625821589, 0.4489890806154371, 1.2234726939962677, 0.7423401885770886, 1.6862852525369156, 0.8243993235178699, 1.4668576436433405, 0.9024620389727218, 1.554245871518848]",21.0,0.0,0.0,0.0,401.51707729872084,106.12156369948151,-1616.1010722062006,620.2425094149326,6827.324315519198,0.0,0.0,0.0,0.0,0.0,0.0,-2.5,21.252245338133726,0.0,21.46596907331147,0.0,-2.5,21.0,20.81,22.13,21.04,21.67,-3.81,-2.5,3270.05,-1140.28,-889.25,0.0,162.0,85.0,204.0,0.0,0.0,0.0,0.0,0.0,0.0,0.0,0.0,0.0,0.0,0.0,0.0,0.0,0.0
43.0,5323.0,9328.951183553418,3959.3064276356504,-0.0,0.0,0.0,0.0,9114.617219830672,0.0,0.0,0.0,9114.617219830672,0.21774336124110122,0.3274213857825488,0.6662728249194384,0.0,0.0,0.0,"[1.4315203625821589, 0.4489890806154371, 1.2234726939962677, 0.7423401885770886, 1.6862852525369156, 0.8243993235178699, 1.4668576436433405, 0.9024620389727218, 1.554245871518848]",23.43,0.0,0.0,0.0,751.5866787557769,134.5978330285016,-1797.0597882258269,-3607.7123620244433,0.0,0.0,0.0,0.0,0.0,0.0,0.0,-2.7,22.061594811605907,0.0,21.625772592291405,0.0,-2.7,23.43,20.89,22.36,22.7,23.22,-4.04,-2.7,1996.09,-1267.96,-988.82,0.0,256.0,71.0,416.0,0.0,0.0,0.0,0.0,0.0,0.0,0.0,0.0,0.0,0.0,0.0,0.0,0.0,0.0
44.0,3373.0,1099.0056900105144,0.0,-0.0,0.0,2279.489338439538,0.0,3475.7015874808553,0.0,3475.7015874808553,0.0,0.0,0.13159486016628874,0.31428570329017974,0.6609022556390948,0.0,0.0,0.0,"[0.6160457289028152, 0.4489890806154371, 1.2234726939962677, 0.27372823221753606, 0.5337245695933248, 0.8243993235178699, 1.4668576436433405, 0.9024620389727254, 0.8635784942919109]",21.69,0.0,0.0,0.0,1128.1595253433877,159.4671082425125,-1691.244571377511,-389.7448356632346,0.0,0.0,0.0,0.0,0.0,0.0,0.0,-2.9,21.557687186557963,0.0,21.620307097570468,0.0,-2.9,21.69,20.92,22.32,21.41,22.02,-4.17,-2.9,0.0,-1193.3,-930.59,0.0,334.0,58.0,656.0,0.0,0.0,0.0,0.0,0.0,0.0,0.0,0.0,0.0,0.0,0.0,0.0,0.0,0.0
45.0,3482.0,0.0,0.0,-0.0,0.0,3482.0,0.0,38636.71142067051,0.0,38636.7114206705,0.0,0.0,0.0,0.16826638575174246,0.6335123523093418,0.0,0.0,0.0,"[0.6160457289028152, 0.4489890806154371, 1.2234726939962677, 0.27372823221753606, 0.5337245695933248, 0.8243993235178699, 1.4668576436433405, 0.9024620389727254, 0.8635784942919109]",21.38,0.0,0.0,0.0,986.5726703411206,109.41215482194606,-1683.756974980732,71.4379861846142,3732.508415124121,0.0,0.0,0.0,0.0,0.0,0.0,-3.1,21.42584217290816,0.0,21.551160848417286,0.0,-3.1,21.38,20.91,22.2,21.27,21.85,-4.38,-3.1,0.0,-1188.02,-926.47,0.0,214.0,39.0,616.0,0.0,0.0,0.0,0.0,0.0,0.0,0.0,0.0,0.0,0.0,0.0,0.0,0.0,0.0
46.0,3394.0,3411.0552763819096,0.0,-0.0,0.0,0.0,0.0,8006.755971517952,0.0,8006.755971517954,0.0,0.0,0.0,0.1380065370309641,0.6335123523093418,0.0,0.0,0.0,"[0.6160457289028152, 0.4489890806154371, 1.2234726939962677, 0.27372823221753606, 0.5337245695933248, 0.8243993235178699, 1.4668576436433405, 0.9024620389727254, 0.8635784942919109]",22.62,0.0,0.0,0.0,550.7572758146237,114.79100569520544,-1782.241637800783,-2100.00503930717,16.018218141523477,0.0,0.0,0.0,0.0,0.0,0.0,-3.3,21.82496164748745,0.0,21.613967343865763,0.0,-3.3,22.62,20.95,22.28,22.12,22.63,-4.66,-3.3,0.0,-1257.5,-980.66,0.0,268.0,38.0,264.0,0.0,0.0,0.0,0.0,0.0,0.0,0.0,0.0,0.0,0.0,0.0,0.0,0.0,0.0
47.0,1668.0,38619.18827301118,0.0,-0.0,0.0,0.0,0.0,33082.283098481494,0.0,0.0,0.0,0.0,0.0,0.1380065370309641,0.6335123523093418,147032.3693265845,36758.09233164613,183790.46165823063,"[0.6160457289028152, 0.4489890806154371, 1.2234726939962677, 0.27372823221753606, 0.5337245695933248, 0.8243993235178699, 1.4668576436433405, 0.9024620389727254, 0.8635784942919109]",21.38,0.0,0.0,0.0,298.90558278256333,60.17984918199578,-1704.387919104437,115.9916018886709,4442.082825254997,0.0,0.0,0.0,0.0,0.0,0.0,-3.4,21.4431608771595,0.0,21.57219384201392,0.0,-3.4,21.38,20.95,22.2,21.28,21.85,-4.75,-3.4,3242.45,-1202.57,-937.82,0.0,166.0,6.0,134.0,0.0,0.0,0.0,0.0,0.0,0.0,0.0,0.0,0.0,0.0,0.0,0.0,0.0,0.0
48.0,1080.0,79531.92680142091,0.0,-0.0,0.0,-11551.020408163267,0.0,29852.25419182322,0.0,-30000.667891502235,0.0,0.0,0.41925925925925933,0.24689785011863888,0.6335123523093418,266012.9870370021,66503.24675925053,332516.23379625264,"[0.6160457289028152, 0.4489890806154371, 1.2234726939962677, 0.27372823221753606, 0.5337245695933248, 0.8243993235178699, 1.4668576436433405, 0.9024620389727254, 0.8635784942919109]",22.62,0.0,0.0,0.0,274.52826640579667,110.29808320107115,-1871.6423956701474,-2040.4269370819184,3534.8653853585083,0.0,0.0,0.0,0.0,0.0,0.0,-4.6,21.84853988855774,0.0,21.645304481808363,0.0,-4.6,22.62,20.99,22.3,22.18,22.7,-5.91,-4.6,2642.92,-1320.58,-1029.85,0.0,320.0,14.0,34.0,0.0,0.0,0.0,0.0,0.0,0.0,0.0,0.0,0.0,0.0,0.0,0.0,0.0,0.0
49.0,614.0,16697.48743718593,0.0,-0.0,0.0,-16000.0,0.0,26774.37146037534,0.0,26774.371460375343,0.0,0.0,1.0,0.14570974936136244,0.5996777658431763,0.0,0.0,0.0,"[0.6160457289028152, 0.4489890806154371, 1.2234726939962677, 0.27372823221753606, 0.5337245695933248, 0.8243993235178699, 1.4668576436433405, 0.9024620389727254, 0.8635784942919109]",22.62,0.0,0.0,0.0,288.701124764382,102.70441137999912,-1954.1661721649455,-1893.0047916109195,3462.8630517233937,0.0,0.0,0.0,0.0,0.0,0.0,-5.8,21.905814915412826,0.0,21.731270550269855,0.0,-5.8,22.62,21.05,22.42,22.16,22.7,-7.09,-5.8,0.0,-1378.81,-1075.26,0.0,320.0,0.0,46.0,0.0,0.0,0.0,0.0,0.0,0.0,0.0,0.0,0.0,0.0,0.0,0.0,0.0,0.0
50.0,765.0,5608.202036319213,0.0,-0.0,0.0,0.0,0.0,4333.644923523853,0.0,0.0,0.0,0.0,1.0,0.14570974936136244,0.5996777658431763,19260.644104550465,4815.161026137616,24075.80513068808,"[0.6160457289028152, 0.4489890806154371, 1.2234726939962677, 0.27372823221753606, 0.5337245695933248, 0.8243993235178699, 1.4668576436433405, 0.9024620389727254, 0.8635784942919109]",22.62,0.0,0.0,0.0,306.20460483723485,103.1157352703072,-2036.6899486597433,-1765.7263160515145,191.60890078527765,0.0,0.0,0.0,0.0,0.0,0.0,-7.0,21.955401936296024,0.0,21.80527987230799,0.0,-7.0,22.62,21.1,22.52,22.18,22.76,-8.36,-7.0,451.54,-1437.04,-1120.67,0.0,320.0,0.0,59.0,0.0,0.0,0.0,0.0,0.0,0.0,0.0,0.0,0.0,0.0,0.0,0.0,0.0,0.0
51.0,845.0,50595.51253080934,49497.53496815529,-0.0,0.0,0.0,0.0,10825.11438841167,0.0,-80000.0,0.0,90825.11438841168,1.0,0.4360801197317328,0.5996777658431763,0.0,0.0,0.0,"[0.6160457289028152, 0.4489890806154371, 1.2234726939962677, 0.27372823221753606, 0.5337245695933248, 0.8243993235178699, 1.4668576436433405, 0.9024620389727254, 0.8635784942919109]",21.38,0.0,0.0,0.0,295.43323248470995,102.86261287627144,-1993.221136836224,415.921819098032,1186.112029346647,0.0,0.0,0.0,0.0,0.0,0.0,-7.6,21.56071050267305,0.0,21.74422704097656,0.0,-7.6,21.38,21.08,22.41,21.37,22.0,-8.99,-7.6,2947.64,-1406.36,-1096.75,0.0,320.0,0.0,51.0,0.0,0.0,0.0,0.0,0.0,0.0,0.0,0.0,0.0,0.0,0.0,0.0,0.0,0.0
52.0,698.0,0.0,12263.399999999998,-0.0,0.0,12961.399999999998,0.0,14307.855330742495,0.0,-7376.39922771161,0.0,21684.254558454108,0.5101511715797431,0.46285371692861194,0.5996777658431763,0.0,0.0,0.0,"[0.6160457289028152, 0.4489890806154371, 1.2234726939962677, 0.27372823221753606, 0.5337245695933248, 0.8243993235178699, 1.4668576436433405, 0.9024620389727254, 0.8635784942919109]",21.38,0.0,0.0,0.0,362.75430968799003,104.44462783899479,-2041.36000645819,296.8729880794578,4493.119039988422,0.0,0.0,0.0,0.0,0.0,0.0,-8.3,21.515412539175742,0.0,21.67317891481104,0.0,-8.3,21.38,21.05,22.29,21.43,22.02,-9.73,-8.3,280.04,-1440.33,-1123.24,0.0,320.0,0.0,101.0,0.0,0.0,0.0,0.0,0.0,0.0,0.0,0.0,0.0,0.0,0.0,0.0,0.0,0.0
53.0,1115.0,0.0,0.0,-0.0,0.0,1115.0,0.0,22427.943437194623,0.0,22427.943437194623,0.0,0.0,0.46801209372637953,0.37809202593392327,0.5996777658431763,0.0,0.0,0.0,"[0.6160457289028152, 0.4489890806154371, 1.2234726939962677, 0.27372823221753606, 0.5337245695933248, 0.8243993235178699, 1.4668576436433405, 0.9024620389727254, 0.8635784942919109]",22.62,0.0,0.0,0.0,450.2717100522541,106.50124729053512,-2167.352594776507,-1877.863358577863,3495.803009164193,0.0,0.0,0.0,0.0,0.0,0.0,-8.9,21.91347410298347,0.0,21.736692040363238,0.0,-8.9,22.62,21.08,22.39,22.25,22.78,-10.38,-8.9,3165.35,-1529.23,-1192.57,0.0,320.0,0.0,166.0,0.0,0.0,0.0,0.0,0.0,0.0,0.0,0.0,0.0,0.0,0.0,0.0,0.0,0.0
54.0,1290.0,0.0,0.0,-0.0,0.0,1290.0,0.0,4212.556226205004,0.0,4212.556226205006,0.0,0.0,0.41925925925925933,0.36217155644713184,0.5996777658431763,0.0,0.0,0.0,"[0.6160457289028152, 0.4489890806154371, 1.2234726939962677, 0.27372823221753606, 0.5337245695933248, 0.8243993235178699, 1.4668576436433405, 0.9024620389727254, 0.8635784942919109]",22.62,0.0,0.0,0.0,531.4113241551547,153.17068869087362,-2201.7375016493397,-1754.1123956210286,73.24002305611457,0.0,0.0,0.0,0.0,0.0,0.0,-9.4,21.961278379425696,0.0,21.80947591312314,0.0,-9.4,22.62,21.12,22.5,22.2,22.75,-10.89,-9.4,0.0,-1553.49,-1211.49,0.0,441.0,15.0,161.0,0.0,0.0,0.0,0.0,0.0,0.0,0.0,0.0,0.0,0.0,0.0,0.0,0.0,0.0
55.0,1934.0,51239.27169872341,0.0,-0.0,0.0,-16000.0,0.0,29744.167806206802,0.0,0.0,0.0,0.0,1.0,0.36217155644713184,0.5996777658431763,132196.30136091917,33049.07534022979,165245.37670114895,"[0.6160457289028152, 0.4489890806154371, 1.2234726939962677, 0.27372823221753606, 0.5337245695933248, 0.8243993235178699, 1.4668576436433405, 0.9024620389727254, 0.8635784942919109]",21.38,0.0,0.0,0.0,461.8225896145011,158.92922315518655,-2151.391708451254,424.02155124837066,1117.6015131989775,0.0,0.0,0.0,0.0,0.0,0.0,-9.9,21.565189156944776,0.0,21.747402728248534,0.0,-9.9,21.38,21.1,22.39,21.39,21.99,-11.43,-9.9,450.41,-1517.97,-1183.78,0.0,324.0,90.0,163.0,0.0,0.0,0.0,0.0,0.0,0.0,0.0,0.0,0.0,0.0,0.0,0.0,0.0,0.0
56.0,1219.0,0.0,2582.470102375244,-0.0,0.0,3801.470102375244,0.0,4221.674221870752,0.0,0.0,0.0,4221.674221870752,0.810261900892848,0.34621662741511844,0.5996777658431763,0.0,0.0,0.0,"[0.6160457289028152, 0.4489890806154371, 1.2234726939962677, 0.27372823221753606, 0.5337245695933248, 0.8243993235178699, 1.466857643643337, 0.9024620389727254, 0.8635784942919109]",21.38,0.0,0.0,3.7797112349151663,477.6253266843237,176.55286983992454,-2137.637745702121,304.869060268259,1186.8433672491522,0.0,0.0,0.0,0.0,0.0,0.0,-9.7,21.51933692694935,0.0,21.676529810540043,0.0,-9.7,21.38,21.07,22.28,21.45,22.02,-11.25,-9.7,820.19,-1508.26,-1176.22,5.97,272.0,148.0,196.0,0.0,0.0,0.0,0.0,0.0,0.0,0.0,0.0,0.0,0.0,0.0,0.0,0.0,0.0
57.0,1171.0,55099.84223437931,53666.81766200578,-0.0,13.474638798358153,0.0,0.0,20010.373763262658,0.0,-80000.0,0.0,100010.37376326267,0.810261900892848,0.6365869977854888,0.5996777658431763,0.0,0.0,0.0,"[0.6160457289028152, 0.4489890806154371, 1.2234726939962677, 0.27372823221753606, 0.5337245695933248, 0.8243993235178699, 1.466857643643337, 0.9024620389727254, 0.8635784942919109]",21.38,0.0,0.0,43.45288845889203,562.945934003007,150.4812632542439,-1972.5901927125244,206.47758993536664,2963.0484109994104,0.0,0.0,0.0,0.0,0.0,0.0,-7.3,21.48012564994547,0.0,21.616420042916815,0.0,-7.3,21.38,21.04,22.19,21.44,21.98,-8.7,-7.3,0.0,-1391.81,-1085.4,68.67,286.0,91.0,258.0,0.0,0.0,0.0,0.0,0.0,0.0,0.0,0.0,0.0,0.0,0.0,0.0,0.0,0.0
58.0,2518.0,0.0,0.0,-0.0,2925.66586483245,0.0,0.0,17313.833597128087,0.0,16946.934318778884,0.0,0.0,0.810261900892848,0.5725396269662186,0.5996777658431763,1630.6634593298004,407.6658648324501,2038.3293241622505,"[0.6160457289028152, 0.4489890806154371, 1.2234726939962677, 0.27372823221753606, 0.5337245695933248, 0.8243993235178699, 1.466857643643337, 0.9024620389727254, 0.8635784942919109]",22.13,0.0,0.0,70.06084403186328,878.0794396061505,128.11157168133593,-1879.5422346631178,-1135.9270357336738,0.0,0.0,0.0,0.0,0.0,0.0,0.0,-5.2,21.710927271845566,0.0,21.638904463221255,0.0,-5.2,22.13,21.05,22.23,21.91,22.41,-6.73,-5.2,0.0,-1326.16,-1034.2,110.71,300.0,31.0,491.0,0.0,0.0,0.0,0.0,0.0,0.0,0.0,0.0,0.0,0.0,0.0,0.0,0.0,0.0
59.0,6101.0,0.0,4167.123262269422,-0.0,12742.268131539691,-2474.144869270269,0.0,13697.97891532751,0.0,4383.037174204329,0.0,9314.94174112318,0.9000641961478429,0.5559748606237986,0.5996777658431763,0.0,0.0,0.0,"[0.6160457289028152, 0.4489890806154371, 1.2234726939962677, 0.27372823221753606, 0.5337245695933248, 0.8243993235178699, 1.466857643643337, 0.9024620389727254, 0.8635784942919109]",21.38,0.0,0.0,993.2539240611156,2664.0013213714806,132.47793297845234,-1704.3879191044316,167.00841701119856,0.0,0.0,0.0,0.0,0.0,0.0,0.0,-3.4,21.462008088719482,0.0,21.587478855905044,0.0,-3.4,21.38,21.03,22.14,21.33,21.85,-3.43,-3.4,2081.76,-1202.57,-937.82,1569.6,218.0,8.0,1863.0,0.0,0.0,0.0,0.0,0.0,0.0,0.0,0.0,0.0,0.0,0.0,0.0,0.0,0.0
60.0,5801.0,0.0,1961.5216657623873,-0.0,13487.139172534153,1404.6134915749399,0.0,10987.975703267815,0.0,0.0,0.0,4571.667804755785,0.8469797860354114,0.5559748606237986,0.5996777658431763,28516.92399338682,7129.230998346705,35646.15499173352,"[0.6160457289028152, 0.4489890806154371, 1.2234726939962677, 0.27372823221753606, 0.5337245695933248, 0.8243993235178699, 1.466857643643337, 0.9024620389727254, 0.8635784942919109]",22.26,0.0,0.0,1020.8630208452557,3673.392293669924,123.49208799018379,-1695.681379695207,-1382.836435732103,-828.6506309073409,0.0,0.0,0.0,0.0,0.0,0.0,-2.4,21.74015641569408,0.0,21.626514962915095,0.0,-2.4,22.26,21.05,22.21,21.89,22.46,-2.35,-2.4,0.0,-1196.43,-933.03,1613.23,124.0,0.0,2663.0,0.0,0.0,0.0,0.0,0.0,0.0,0.0,0.0,0.0,0.0,0.0,0.0,0.0,0.0
61.0,2969.0,43071.23076945319,43892.57667548445,-0.0,4005.7020598785225,0.0,0.0,23554.617232782868,0.0,-80000.0,0.0,103554.61723278287,0.8469797860354114,0.846345230994169,0.5996777658431763,0.0,0.0,0.0,"[0.6160457289028152, 0.4489890806154371, 1.2234726939962677, 0.27372823221753606, 0.5337245695933248, 0.8243993235178699, 1.466857643643337, 0.9024620389727254, 0.8635784942919109]",22.62,0.0,0.0,866.8791377122767,602.346480239874,46.827642896610804,-1699.7178613059853,-1908.7734273706087,2068.288407797393,0.0,0.0,0.0,0.0,0.0,0.0,-2.1,21.897036752692024,0.0,21.70743996556066,0.0,-2.1,22.62,21.09,22.32,22.08,22.66,-2.24,-2.1,1290.01,-1199.28,-935.26,1369.9,109.0,0.0,390.0,0.0,0.0,0.0,0.0,0.0,0.0,0.0,0.0,0.0,0.0,0.0,0.0,0.0,0.0
62.0,2931.0,0.0,4578.815555595736,-0.0,205.3304170987567,7304.48513849698,0.0,10497.121952806068,0.0,0.0,0.0,10497.12195280607,0.5709221466364325,0.846345230994169,0.5996777658431761,0.0,0.0,0.0,"[0.6160457289028152, 0.4489890806154371, 1.2234726939962677, 0.27372823221753606, 0.5337245695933248, 0.8243993235178699, 1.466857643643337, 0.9024620389727254, 0.8635784942919109]",22.62,0.0,0.0,72.08788613979586,821.813191922567,69.07077327250094,-1747.8567309279506,-1724.123782082896,2510.8054574108946,0.0,0.0,0.0,0.0,0.0,0.0,-2.8,21.969031354612316,0.0,21.817203722216707,0.0,-2.8,22.62,21.15,22.48,22.24,22.87,-4.18,-2.8,0.0,-1233.24,-961.74,113.92,166.0,0.0,523.0,0.0,0.0,0.0,0.0,0.0,0.0,0.0,0.0,0.0,0.0,0.0,0.0,0.0,0.0
63.0,4013.0,0.0,0.0,-0.0,0.0,4013.0,0.0,24273.515390536944,0.0,24273.515390536948,0.0,0.0,0.41925925925925933,0.7546085893065766,0.5996777658431761,0.0,0.0,0.0,"[0.6160457289028152, 0.4489890806154371, 1.2234726939962677, 0.27372823221753606, 0.5337245695933248, 0.8243993235178699, 1.466857643643337, 0.9024620389727254, 0.8635784942919109]",22.62,0.0,0.0,12.295460676103408,1406.797920673174,65.43213885823727,-1857.8884329210146,-1629.2775336486154,2006.6167105141453,0.0,0.0,0.0,0.0,0.0,0.0,-4.4,22.00650373745127,0.0,21.871901595018322,0.0,-4.4,22.62,21.19,22.55,22.16,22.71,-6.06,-4.4,2552.75,-1310.88,-1022.29,19.43,108.0,0.0,988.0,0.0,0.0,0.0,0.0,0.0,0.0,0.0,0.0,0.0,0.0,0.0,0.0,0.0,0.0
64.0,3726.0,19825.125628140704,0.0,-0.0,0.0,-16000.0,0.0,7612.980334513235,0.0,7612.980334513235,0.0,0.0,1.0,0.7258369327135561,0.5996777658431761,0.0,0.0,0.0,"[0.6160457289028152, 0.4489890806154371, 1.2234726939962677, 0.27372823221753606, 0.5337245695933248, 0.8243993235178699, 1.466857643643337, 0.9024620389727254, 0.8635784942919109]",22.62,0.0,0.0,0.0,925.3459222320325,66.50790903288915,-1906.02730254298,-1568.6497927762225,1758.4147420715137,0.0,0.0,0.0,0.0,0.0,0.0,-5.1,22.03021379337986,0.0,21.905565821711477,0.0,-5.1,22.62,21.23,22.59,22.13,22.67,-6.82,-5.1,0.0,-1344.84,-1048.77,0.0,138.0,6.0,614.0,0.0,0.0,0.0,0.0,0.0,0.0,0.0,0.0,0.0,0.0,0.0,0.0,0.0,0.0
65.0,1528.0,1535.678391959799,0.0,-0.0,0.0,0.0,0.0,4288.452396006954,0.0,4288.452396006954,0.0,0.0,1.0,0.7096296296296296,0.5996777658431761,0.0,0.0,0.0,"[0.6160457289028152, 0.4489890806154371, 1.2234726939962677, 0.27372823221753606, 0.5337245695933248, 0.8243993235178699, 1.466857643643337, 0.9024620389727254, 0.8635784942919109]",22.34,0.0,0.0,0.0,421.6425361679118,74.98750923308624,-1941.7921321523006,-1029.2640989958213,0.0,0.0,0.0,0.0,0.0,0.0,0.0,-5.9,21.957663366797302,0.0,21.916108047151113,0.0,-5.9,22.34,21.24,22.59,21.99,22.56,-7.57,-5.9,0.0,-1370.08,-1068.45,0.0,117.0,53.0,246.0,0.0,0.0,0.0,0.0,0.0,0.0,0.0,0.0,0.0,0.0,0.0,0.0,0.0,0.0
66.0,4071.0,106311.33111380516,0.0,-0.0,0.0,0.0,0.0,11537.89701241248,0.0,-80000.0,0.0,0.0,1.0,1.0,0.5841031149301793,406835.09783294454,101708.77445823613,508543.87229118065,"[0.6160457289028152, 0.4489890806154371, 1.2234726939962677, 0.27372823221753606, 0.5337245695933248, 0.8243993235178699, 1.466857643643337, 0.9024620389727254, 0.8635784942919109]",21.38,0.0,0.0,0.0,536.7261460396243,106.50124729053513,-1931.3283044651257,599.8427962054459,695.6181280821409,0.0,0.0,0.0,0.0,0.0,0.0,-6.7,21.63096016484663,0.0,21.835412947187617,0.0,-6.7,21.38,21.22,22.45,21.42,22.01,-8.32,-6.7,100.1,-1362.69,-1062.7,0.0,164.0,79.0,304.0,0.0,0.0,0.0,0.0,0.0,0.0,0.0,0.0,0.0,0.0,0.0,0.0,0.0,0.0
67.0,5379.0,18337.034256931885,0.0,-0.0,0.0,0.0,0.0,11579.7141770825,0.0,0.0,0.0,0.0,1.0,1.0,0.57067669172932,51465.39634258891,12866.349085647227,64331.745428236136,"[0.6160457289028152, 0.4489890806154371, 1.2234726939962677, 0.27372823221753606, 0.5337245695933248, 0.8243993235178699, 1.466857643643337, 0.9024620389727254, 0.8635784942919109]",21.38,0.0,0.0,0.0,758.6022436432766,175.1290563734735,-1979.4671740870913,457.1751777745911,600.6633917204848,0.0,0.0,0.0,0.0,0.0,0.0,-7.4,21.576577658309375,0.0,21.75087920592827,0.0,-7.4,21.38,21.18,22.32,21.46,22.0,-9.03,-7.4,0.0,-1396.66,-1089.18,0.0,266.0,137.0,409.0,0.0,0.0,0.0,0.0,0.0,0.0,0.0,0.0,0.0,0.0,0.0,0.0,0.0,0.0
68.0,4478.0,10194.374018333057,0.0,-0.0,0.0,-5665.402148241391,0.0,1712.0587050495874,0.0,1712.0587050495874,0.0,0.0,1.0,0.9935296345236221,0.5706766917293197,0.0,0.0,0.0,"[0.6160457289028152, 0.4489890806154371, 1.2234726939962712, 0.27372823221753606, 0.5337245695933248, 0.8243993235178735, 1.466857643643337, 0.9024620389727254, 0.8635784942919109]",21.38,0.0,0.0,0.0,1015.4144371008418,271.1890049100346,-2034.4830250836233,331.50374571953404,435.1169760136469,0.0,0.0,0.0,0.0,0.0,0.0,-8.2,21.52875632025735,0.0,21.67735787059889,0.0,-8.2,21.38,21.14,22.21,21.44,21.94,-9.81,-8.2,0.0,-1435.48,-1119.46,0.0,453.0,197.0,495.0,0.0,0.0,0.0,0.0,0.0,0.0,0.0,0.0,0.0,0.0,0.0,0.0,0.0,0.0
69.0,3647.0,24858.73873941571,21087.44504571863,-0.0,0.0,0.0,0.0,36080.81213559179,0.0,0.0,0.0,36080.81213559178,1.0,0.9935296345236221,0.5706766917293197,0.0,0.0,0.0,"[0.6160457289028152, 0.4489890806154371, 1.2234726939962712, 0.27372823221753606, 0.5337245695933248, 0.8243993235178735, 1.466857643643337, 0.9024620389727254, 0.8635784942919109]",21.38,0.0,0.0,0.0,988.2025490523584,324.4712688545566,-2082.6218947055886,221.07764589681182,3013.283229718749,0.0,0.0,0.0,0.0,0.0,0.0,-8.9,21.486722608320022,0.0,21.613496930933014,0.0,-8.9,21.38,21.11,22.12,21.43,21.9,-10.47,-8.9,1613.25,-1469.44,-1145.94,0.0,648.0,189.0,373.0,0.0,0.0,0.0,0.0,0.0,0.0,0.0,0.0,0.0,0.0,0.0,0.0,0.0,0.0
70.0,3157.0,13835.164134021967,0.0,-0.0,0.0,0.0,0.0,9548.089482016667,0.0,0.0,0.0,0.0,1.0,0.9935296345236221,0.5706766917293195,42435.953253407424,10608.988313351856,53044.94156675928,"[0.6160457289028152, 0.4489890806154371, 1.2234726939962712, 0.27372823221753606, 0.5337245695933248, 0.8243993235178735, 1.466857643643337, 0.9024620389727254, 0.8635784942919109]",22.32,0.0,0.0,0.0,1491.1972921985493,214.42630804752127,-2202.1240120023376,-1446.1740591804153,0.0,0.0,0.0,0.0,0.0,0.0,0.0,-9.7,21.785196892645928,0.0,21.65675495903807,0.0,-9.7,22.32,21.12,22.19,22.06,22.49,-11.28,-9.7,0.0,-1553.76,-1211.7,0.0,368.0,122.0,901.0,0.0,0.0,0.0,0.0,0.0,0.0,0.0,0.0,0.0,0.0,0.0,0.0,0.0,0.0
71.0,1876.0,4716.8993885000145,12554.019360046816,-0.0,0.0,9736.7044684893,0.0,19684.82262978734,0.0,0.0,0.0,19684.82262978734,0.632021751001916,0.9935296345236221,0.5706766917293195,0.0,0.0,0.0,"[0.6160457289028152, 0.4489890806154371, 1.2234726939962712, 0.27372823221753606, 0.5337245695933248, 0.8243993235178735, 1.466857643643337, 0.9024620389727254, 0.8635784942919109]",21.57,0.0,0.0,0.0,647.7704912791398,188.54454325736745,-2198.5708453999937,-122.57733336086946,1013.3663737986085,0.0,0.0,0.0,0.0,0.0,0.0,-10.4,21.5417481822081,0.0,21.617873167732057,0.0,-10.4,21.57,21.1,22.14,21.45,21.91,-11.96,-10.4,2151.7,-1551.25,-1209.74,0.0,412.0,88.0,255.0,0.0,0.0,0.0,0.0,0.0,0.0,0.0,0.0,0.0,0.0,0.0,0.0,0.0,0.0
72.0,1876.0,0.0,0.0,-0.0,0.0,1876.0,0.0,23942.209978450792,0.0,23942.209978450795,0.0,0.0,0.5611222801024451,0.9030450918990915,0.5706766917293195,0.0,0.0,0.0,"[0.6160457289028152, 0.4489890806154371, 1.2234726939962712, 0.27372823221753606, 0.5337245695933248, 0.8243993235178735, 1.466857643643337, 0.9024620389727254, 0.8635784942919109]",21.38,0.0,0.0,0.0,1496.6538426666048,137.31889876438578,-2220.1615221969187,135.97706123111269,3668.3145306220313,0.0,0.0,0.0,0.0,0.0,0.0,-10.9,21.455201971204467,0.0,21.56932337160655,0.0,-10.9,21.38,21.06,22.08,21.43,21.9,-12.53,-10.9,2237.98,-1566.49,-1221.62,0.0,320.0,11.0,942.0,0.0,0.0,0.0,0.0,0.0,0.0,0.0,0.0,0.0,0.0,0.0,0.0,0.0,0.0
73.0,1313.0,0.0,13534.2955315107,-0.0,0.0,14847.2955315107,0.0,19802.61253717955,0.0,0.0,0.0,19802.612537179553,0.0,0.9030450918990915,0.549731471535979,0.0,0.0,0.0,"[0.6160457289028152, 0.4489890806154371, 1.2234726939962712, 0.27372823221753606, 0.5337245695933248, 0.8243993235178735, 1.466857643643337, 0.9024620389727254, 0.8635784942919109]",22.62,0.0,0.0,0.0,1119.4432174528579,122.22647602000511,-2346.154110515236,-2046.9371000605495,3159.868258281919,0.0,0.0,0.0,0.0,0.0,0.0,-11.5,21.850109991128214,0.0,21.630356220589505,0.0,-11.5,22.62,21.08,22.18,22.17,22.59,-13.16,-11.5,2028.97,-1655.39,-1290.95,0.0,320.0,0.0,663.0,0.0,0.0,0.0,0.0,0.0,0.0,0.0,0.0,0.0,0.0,0.0,0.0,0.0,0.0
74.0,896.0,33843.506811340354,16778.289277283646,-0.0,0.0,-16000.0,0.0,23429.37187721154,0.0,0.0,0.0,23429.37187721154,0.5807407407407407,0.9030450918990915,0.549731471535979,0.0,0.0,0.0,"[0.6160457289028152, 0.4489890806154371, 1.2234726939962712, 0.27372823221753606, 0.5337245695933248, 0.8243993235178735, 1.466857643643337, 0.9024620389727254, 0.8635784942919109]",22.62,0.0,0.0,0.0,663.2897711817907,112.63946534590167,-2394.292980137201,-1917.6656172811086,335.2004962994344,0.0,0.0,0.0,0.0,0.0,0.0,-12.2,21.900171078956795,0.0,21.70893233744605,0.0,-12.2,22.62,21.11,22.31,22.15,22.62,-13.91,-12.2,691.52,-1689.35,-1317.44,0.0,320.0,2.0,324.0,0.0,0.0,0.0,0.0,0.0,0.0,0.0,0.0,0.0,0.0,0.0,0.0,0.0,0.0
75.0,2379.0,13604.565518136289,0.0,-0.0,0.0,-11157.542690545608,0.0,17325.171775055922,0.0,17325.171775055926,0.0,0.0,0.985718216175359,0.837568252235237,0.549731471535979,0.0,0.0,0.0,"[0.6160457289028152, 0.4489890806154371, 1.2234726939962712, 0.27372823221753606, 0.5337245695933248, 0.8243993235178735, 1.466857643643337, 0.9024620389727254, 0.8635784942919109]",21.38,0.0,0.0,0.0,678.5964582090628,120.35969836399155,-2337.0702055645493,278.3143159642349,4476.730539643352,0.0,0.0,0.0,0.0,0.0,0.0,-12.6,21.510852582082034,0.0,21.659588491102497,0.0,-12.6,21.38,21.08,22.24,21.37,21.91,-14.3,-12.6,1214.29,-1648.98,-1285.95,0.0,320.0,15.0,334.0,0.0,0.0,0.0,0.0,0.0,0.0,0.0,0.0,0.0,0.0,0.0,0.0,0.0,0.0
76.0,1752.0,29996.819569614225,0.0,-0.0,0.0,0.0,0.0,25285.351924589522,0.0,0.0,0.0,0.0,0.985718216175359,0.837568252235237,0.4895810955961294,112379.34188706461,28094.835471766153,140474.17735883076,"[0.6160457289028152, 0.4489890806154371, 1.2234726939962712, 0.27372823221753606, 0.5337245695933248, 0.8243993235178735, 1.466857643643337, 0.9024620389727254, 0.8635784942919109]",22.62,0.0,0.0,0.0,677.2500366649972,120.32805806473712,-2449.3088311337337,-1900.709824079768,352.1430337404985,0.0,0.0,0.0,0.0,0.0,0.0,-13.0,21.907120159671457,0.0,21.72238851710301,0.0,-13.0,22.62,21.1,22.34,22.26,22.75,-14.69,-13.0,1189.13,-1728.17,-1347.71,0.0,320.0,15.0,333.0,0.0,0.0,0.0,0.0,0.0,0.0,0.0,0.0,0.0,0.0,0.0,0.0,0.0,0.0
77.0,926.0,0.0,0.0,-0.0,0.0,10082.104,0.0,25140.947843447397,45780.52,61765.3638434474,0.0,0.0,0.6046863189720333,0.6041390615948462,0.4895810955961294,36624.416,9156.104,45780.52,"[0.6160457289028152, 0.4489890806154371, 1.2234726939962712, 0.27372823221753606, 0.5337245695933248, 0.8243993235178735, 1.466857643643337, 0.9024620389727254, 0.8635784942919109]",21.38,0.0,0.0,0.0,669.7384217349471,122.4163178155319,-2392.086056561081,291.3252266511269,4525.679024383444,0.0,0.0,0.0,0.0,0.0,0.0,-13.4,21.51630441916283,0.0,21.670627090676298,0.0,-13.4,21.38,21.07,22.27,21.38,21.93,-15.11,-13.4,1628.08,-1687.79,-1316.22,0.0,320.0,19.0,327.0,0.0,0.0,0.0,0.0,0.0,0.0,0.0,0.0,0.0,0.0,0.0,0.0,0.0,0.0
78.0,1489.0,0.0,0.0,-0.0,0.0,16000.0,0.0,13059.899999999996,0.0,0.0,0.0,0.0,0.0,0.6041390615948462,0.4895810955961294,58044.0,14511.0,72555.0,"[0.6160457289028152, 0.4489890806154371, 1.2234726939962712, 0.27372823221753606, 0.5337245695933248, 0.8243993235178735, 1.466857643643337, 0.9024620389727254, 0.8635784942919109]",22.62,0.0,0.0,0.0,678.9507796680273,184.74770734683142,-2504.324682130265,-1890.7071937210374,335.48772982302023,0.0,0.0,0.0,0.0,0.0,0.0,-13.8,21.91141702990488,0.0,21.731582414304505,0.0,-13.8,22.62,21.09,22.37,22.26,22.77,-15.51,-13.8,846.67,-1766.99,-1377.98,0.0,480.0,44.0,247.0,0.0,0.0,0.0,0.0,0.0,0.0,0.0,0.0,0.0,0.0,0.0,0.0,0.0,0.0
79.0,1429.0,17516.582914572864,0.0,-0.0,0.0,-16000.0,0.0,19529.52869527712,0.0,19529.52869527712,0.0,0.0,0.5807407407407407,0.5303313189823098,0.4895810955961294,0.0,0.0,0.0,"[0.6160457289028152, 0.4489890806154371, 1.2234726939962712, 0.27372823221753606, 0.5337245695933248, 0.8243993235178735, 1.466857643643337, 0.9024620389727254, 0.8635784942919109]",21.38,0.0,0.0,0.0,1172.0245219632088,201.26394355766308,-2440.224926183047,302.8610581743777,3986.597282672289,0.0,0.0,0.0,0.0,0.0,0.0,-14.1,21.521139983872153,0.0,21.68060117889278,0.0,-14.1,21.38,21.06,22.3,21.39,21.96,-15.84,-14.1,3161.43,-1721.76,-1342.71,0.0,351.0,121.0,673.0,0.0,0.0,0.0,0.0,0.0,0.0,0.0,0.0,0.0,0.0,0.0,0.0,0.0,0.0
80.0,2972.0,0.0,0.0,-0.0,0.0,2972.0,0.0,5782.679062508306,0.0,5782.679062508306,0.0,0.0,0.3560997732426303,0.4866224825309999,0.4895810955961294,0.0,0.0,0.0,"[0.6160457289028152, 0.4489890806154371, 1.2234726939962712, 0.27372823221753606, 0.5337245695933248, 0.8243993235178735, 1.449696687282696, 0.9024620389727254, 0.8635784942919109]",22.62,0.0,0.0,2.823737710951193,1141.198555033286,174.52789068763872,-2531.832607628531,-1893.1243966547563,0.0,0.0,0.0,0.0,0.0,0.0,0.0,-14.2,21.910715528873286,0.0,21.7327975834808,0.0,-14.2,22.62,21.08,22.39,22.23,22.75,-15.91,-14.2,1011.21,-1786.4,-1393.12,4.46,285.0,110.0,686.0,0.0,0.0,0.0,0.0,0.0,0.0,0.0,0.0,0.0,0.0,0.0,0.0,0.0,0.0
81.0,1680.0,0.0,0.0,-0.0,16.621326892999384,1663.3786731070006,0.0,31536.305425300026,0.0,31536.30542530003,0.0,0.0,0.2932358778115267,0.36743765477098467,0.4895810955961294,0.0,0.0,0.0,"[0.6160457289028152, 0.4489890806154371, 1.2234726939962712, 0.27372823221753606, 0.5337245695933248, 0.8243993235178735, 1.449696687282696, 0.9024620389727254, 0.8635784942919109]",21.42,0.0,0.0,44.62494228922936,616.5902028902523,122.73272080807658,-2291.315152029095,229.4688984955155,1194.2300336459732,0.0,0.0,0.0,0.0,0.0,0.0,-11.9,21.526251391275128,0.0,21.675094593862795,0.0,-11.9,21.42,21.05,22.3,21.37,21.94,-13.36,-11.9,530.31,-1616.69,-1260.78,70.52,244.0,62.0,323.0,0.0,0.0,0.0,0.0,0.0,0.0,0.0,0.0,0.0,0.0,0.0,0.0,0.0,0.0
82.0,1717.0,769.0229044431477,9752.835088899172,-0.0,2945.6359720852433,7759.0213268929965,0.0,15664.445935725986,0.0,0.0,0.0,15664.445935725984,0.0,0.36743765477098467,0.4895810955961294,0.0,0.0,0.0,"[0.6160457289028152, 0.4489890806154371, 1.2234726939962712, 0.27372823221753606, 0.5337245695933248, 0.8243993235178735, 1.449696687282696, 0.9024620389727254, 0.8635784942919109]",21.38,0.0,0.0,68.46221018420745,493.4989280459391,69.48209716280901,-2158.2686898258203,189.07227432031087,4548.407267537634,0.0,0.0,0.0,0.0,0.0,0.0,-10.0,21.474973749110642,0.0,21.612239804063787,0.0,-10.0,21.38,21.02,22.21,21.42,21.98,-11.43,-10.0,74.54,-1522.82,-1187.57,108.19,144.0,26.0,288.0,0.0,0.0,0.0,0.0,0.0,0.0,0.0,0.0,0.0,0.0,0.0,0.0,0.0,0.0
83.0,4273.0,23094.401796085025,9940.533851026572,-4904.2065805924885,12138.81064451446,-16000.0,0.0,17387.40935006737,0.0,0.0,0.0,17387.409350067373,0.5807407407407407,0.36743765477098467,0.5064446831364123,0.0,0.0,0.0,"[0.6160457289028152, 0.4489890806154371, 1.2234726939962712, 0.27372823221753606, 0.5337245695933248, 0.8243993235178735, 1.449696687282696, 0.9024620389727254, 0.8635784942919109]",22.62,0.0,0.0,935.3032217535743,660.3134709264879,140.54620928834134,-2139.844669278241,-1969.0089690750713,2353.0029652400126,0.0,0.0,0.0,0.0,0.0,0.0,-8.5,21.877394732820303,0.0,21.68343380697889,0.0,-8.5,22.62,21.04,22.32,22.23,22.75,-8.46,-8.5,0.0,-1509.82,-1177.43,1478.03,402.0,8.0,278.0,0.0,0.0,0.0,0.0,0.0,0.0,0.0,0.0,0.0,0.0,0.0,0.0,0.0,0.0
84.0,2581.0,0.0,0.0,-0.0,14374.520219497845,0.0,0.0,15933.481640082187,0.0,5319.31344253413,0.0,0.0,0.5807407407407407,0.34733442936458203,0.5064446831364123,47174.08087799138,11793.520219497845,58967.60109748922,"[0.6160457289028152, 0.4489890806154371, 1.2234726939962712, 0.27372823221753606, 0.5337245695933248, 0.8243993235178735, 1.449696687282696, 0.9024620389727254, 0.8635784942919109]",22.62,0.0,0.0,1040.6330273739934,1962.2322397461303,175.60366086229055,-2071.074855532576,-1766.3693400391287,638.367262085975,0.0,0.0,0.0,0.0,0.0,0.0,-7.5,21.954526197150248,0.0,21.802845630029235,0.0,-7.5,22.62,21.1,22.51,22.28,22.95,-7.24,-7.5,0.0,-1461.3,-1139.59,1644.47,432.0,0.0,1230.0,0.0,0.0,0.0,0.0,0.0,0.0,0.0,0.0,0.0,0.0,0.0,0.0,0.0,0.0
85.0,5223.0,69633.30624004244,56630.955455154304,-0.0,4119.836154475348,-11551.020408163267,0.0,26074.04959087183,0.0,-80000.0,0.0,106074.04959087183,1.0,0.6377047997349523,0.5064446831364123,0.0,0.0,0.0,"[0.6160457289028152, 0.4489890806154371, 1.2234726939962712, 0.27372823221753606, 0.5337245695933248, 0.8243993235178735, 1.449696687282696, 0.9024620389727254, 0.8635784942919109]",22.62,0.0,0.0,919.9159942064595,1390.215676393629,181.0457923340588,-2050.4439114088764,-1625.9698393601407,952.8761510904463,0.0,0.0,0.0,0.0,0.0,0.0,-7.2,22.008366005030222,0.0,21.884805827473535,0.0,-7.2,22.62,21.15,22.62,22.2,22.91,-7.11,-7.2,0.0,-1446.74,-1128.24,1453.71,495.0,0.0,772.0,0.0,0.0,0.0,0.0,0.0,0.0,0.0,0.0,0.0,0.0,0.0,0.0,0.0,0.0
86.0,1081.0,0.0,756.6178681505255,-0.0,20.715924657533538,1816.901943492992,0.0,1381.1369650222339,0.0,0.0,0.0,1381.1369650222339,0.9313340157410056,0.6377047997349523,0.4806659505907625,0.0,0.0,0.0,"[0.6160457289028152, 0.4489890806154371, 1.2234726939962712, 0.27372823221753606, 0.5337245695933248, 0.8243993235178735, 1.449696687282696, 0.9024620389727254, 0.8635784942919109]",22.53,0.0,0.0,49.95742345695309,355.10096617435397,39.51873376882899,-2079.125952322762,-1357.5052697699798,0.0,0.0,0.0,0.0,0.0,0.0,0.0,-7.7,22.029639967913976,0.0,21.952887601878317,0.0,-7.7,22.53,21.19,22.72,22.2,22.94,-9.18,-7.7,2143.15,-1466.98,-1144.02,78.95,104.0,0.0,209.0,0.0,0.0,0.0,0.0,0.0,0.0,0.0,0.0,0.0,0.0,0.0,0.0,0.0,0.0
87.0,1468.0,0.0,0.0,-0.0,1.3688847254255259,1466.6311152745745,0.0,21169.363058788993,0.0,21169.36305878899,0.0,0.0,0.8759057800919288,0.557699648341192,0.48066595059076245,0.0,0.0,0.0,"[0.6160457289028152, 0.4489890806154371, 1.2234726939962712, 0.27372823221753606, 0.5337245695933248, 0.8243993235178735, 1.449696687282696, 0.9024620389727254, 0.8635784942919109]",21.38,0.0,0.0,18.062739270967548,634.3062758384838,50.27643551534769,-2117.0068015784213,630.8619383385146,3994.791160636559,0.0,0.0,0.0,0.0,0.0,0.0,-9.4,21.64431390401291,0.0,21.868757271653763,0.0,-9.4,21.38,21.16,22.57,21.41,22.08,-10.89,-9.4,0.0,-1493.7,-1164.86,28.54,118.0,0.0,409.0,0.0,0.0,0.0,0.0,0.0,0.0,0.0,0.0,0.0,0.0,0.0,0.0,0.0,0.0
88.0,2612.0,65521.982030432875,62582.372120280714,-0.0,0.0,0.0,0.0,25289.16256267128,0.0,-80000.0,0.0,105289.16256267129,0.8759057800919288,0.8480700187115624,0.4736842105263156,0.0,0.0,0.0,"[0.6160457289028152, 0.4489890806154371, 1.2234726939962712, 0.27372823221753606, 0.5337245695933248, 0.8243993235178735, 1.449696687282696, 0.9024620389727254, 0.8635784942919109]",22.62,0.0,0.0,0.0,595.7561011031318,90.90257975808301,-2187.983538900206,-1598.6190953694559,635.8157750210694,0.0,0.0,0.0,0.0,0.0,0.0,-9.2,22.020934978571834,0.0,21.898249646276668,0.0,-9.2,22.62,21.18,22.61,22.27,22.86,-10.8,-9.2,0.0,-1543.78,-1203.92,0.0,232.0,13.0,319.0,0.0,0.0,0.0,0.0,0.0,0.0,0.0,0.0,0.0,0.0,0.0,0.0,0.0,0.0
89.0,7803.0,18709.76145864291,22896.079592582133,-0.0,0.0,12082.866941232433,0.0,20447.114006760698,0.0,-18510.013095320803,0.0,38957.127102081504,0.41925925925925933,0.9152545106871712,0.4736842105263156,0.0,0.0,0.0,"[0.6160457289028152, 0.4489890806154371, 1.2234726939962712, 0.27372823221753606, 0.5337245695933248, 0.8243993235178735, 1.449696687282696, 0.9024620389727254, 0.8635784942919109]",21.67,0.0,0.0,0.0,1918.7215645852737,158.960863454441,-2108.992795725336,78.27875336086448,0.0,0.0,0.0,0.0,0.0,0.0,0.0,-9.0,21.715531907073505,0.0,21.84901371134915,0.0,-9.0,21.67,21.17,22.53,21.58,22.2,-10.5,-9.0,0.0,-1488.05,-1160.45,0.0,310.0,37.0,1258.0,0.0,0.0,0.0,0.0,0.0,0.0,0.0,0.0,0.0,0.0,0.0,0.0,0.0,0.0
90.0,7334.0,24155.042490849348,700.2672783951027,-0.0,0.0,-16000.0,0.0,1204.8396073001734,0.0,0.0,0.0,1204.8396073001734,1.0,0.9152545106871712,0.4350161117078408,0.0,0.0,0.0,"[0.6160457289028152, 0.4489890806154371, 1.2234726939962712, 0.27372823221753606, 0.5337245695933248, 0.8243993235178735, 1.449696687282696, 0.9024620389727254, 0.8635784942919109]",21.68,0.0,0.0,0.0,2869.6494961545523,241.8900878003984,-2096.189046442624,-78.14899025316258,0.0,0.0,0.0,0.0,0.0,0.0,0.0,-8.8,21.669156422761393,0.0,21.769912556143183,0.0,-8.8,21.68,21.14,22.4,21.53,22.09,-10.26,-8.8,0.0,-1479.02,-1153.41,0.0,429.0,81.0,1897.0,0.0,0.0,0.0,0.0,0.0,0.0,0.0,0.0,0.0,0.0,0.0,0.0,0.0,0.0
91.0,4807.0,14121.175846054477,9243.569966824205,-0.0,0.0,0.0,0.0,15992.076682577856,0.0,0.0,0.0,15992.076682577856,1.0,0.9152545106871712,0.3958109559613317,0.0,0.0,0.0,"[0.6160457289028152, 0.4489890806154371, 1.2234726939962712, 0.27372823221753606, 0.5337245695933248, 0.8243993235178735, 1.449696687282696, 0.9024620389727254, 0.8635784942919109]",22.03,0.0,0.0,0.0,1382.774925755372,274.22647363846346,-2113.6195623299445,-809.7345897003343,0.0,0.0,0.0,0.0,0.0,0.0,0.0,-8.7,21.74180888071607,0.0,21.723149964998726,0.0,-8.7,22.03,21.12,22.32,21.69,22.18,-10.12,-8.7,0.0,-1491.31,-1163.0,0.0,576.0,122.0,711.0,0.0,0.0,0.0,0.0,0.0,0.0,0.0,0.0,0.0,0.0,0.0,0.0,0.0,0.0
92.0,5765.0,0.0,0.0,-0.0,0.0,5765.0,0.0,8301.957135300938,0.0,8301.957135300938,0.0,0.0,0.6090455173906737,0.8525035119320621,0.395810955961331,0.0,0.0,0.0,"[0.5943542033611564, 0.4489890806154371, 0.8846844162280121, 0.24405719034993822, 0.5337245695933248, 0.8243993235178735, 1.122166062398609, 0.7254352512302624, 0.8635784942919109]",21.54,0.0,0.0,0.0,1441.4505593599151,275.23896321460643,-2065.9242397152034,15.377548184165477,0.0,0.0,0.0,0.0,0.0,0.0,0.0,-8.5,21.56468795571437,0.0,21.67006719835925,0.0,-8.5,21.54,21.1,22.24,21.47,21.98,-9.88,-8.5,0.0,-1457.66,-1136.76,0.0,520.0,151.0,781.0,0.0,0.0,0.0,0.0,0.0,0.0,0.0,0.0,0.0,0.0,0.0,0.0,0.0,0.0
93.0,4046.0,45558.54964126842,39443.591118548575,-0.0,0.0,-1841.1657745135115,0.0,29107.726269387687,0.0,-40636.787528921675,0.0,69744.51379830936,0.675873015873016,1.0,0.395810955961331,0.0,0.0,0.0,"[0.5943542033611564, 0.4489890806154371, 0.8846844162280121, 0.24405719034993822, 0.5337245695933248, 0.8243993235178735, 1.122166062398609, 0.7254352512302624, 0.8635784942919109]",21.41,0.0,0.0,0.0,1448.1118027884497,296.31140251808125,-2042.851728629549,151.10850932100175,3263.432207805487,0.0,0.0,0.0,0.0,0.0,0.0,-8.3,21.48109603107761,0.0,21.601866345801263,0.0,-8.3,21.41,21.07,22.14,21.38,21.87,-9.64,-8.3,1373.44,-1441.38,-1124.06,0.0,620.0,135.0,735.0,0.0,0.0,0.0,0.0,0.0,0.0,0.0,0.0,0.0,0.0,0.0,0.0,0.0,0.0
94.0,3300.0,10131.790884386546,6781.131929964612,-0.0,0.0,0.0,0.0,12119.751902453052,0.0,0.0,0.0,12119.751902453052,0.675873015873016,1.0,0.36895810955961217,0.0,0.0,0.0,"[0.5943542033611564, 0.4489890806154371, 0.8846844162280121, 0.24405719034993822, 0.5337245695933248, 0.8243993235178735, 1.122166062398609, 0.7254352512302624, 0.8635784942919109]",22.59,0.0,0.0,0.0,1044.7522539031133,179.62197886760782,-2110.8450216086158,-1948.3462729884523,2847.230250972919,0.0,0.0,0.0,0.0,0.0,0.0,-8.1,21.86415912857088,0.0,21.66262051134114,0.0,-8.1,22.59,21.09,22.24,22.18,22.62,-9.41,-8.1,0.0,-1489.36,-1161.47,0.0,336.0,96.0,589.0,0.0,0.0,0.0,0.0,0.0,0.0,0.0,0.0,0.0,0.0,0.0,0.0,0.0,0.0
95.0,3496.0,0.0,0.0,-0.0,0.0,3496.0,0.0,18683.53464228901,0.0,18683.534642289007,0.0,0.0,0.5437490551776267,0.9293895138235487,0.3587540279269591,0.0,0.0,0.0,"[0.5943542033611564, 0.4489890806154371, 0.8846844162280121, 0.24405719034993822, 0.5337245695933248, 0.8243993235178735, 1.122166062398609, 0.7254352512302624, 0.8635784942919109]",22.59,0.0,0.0,0.0,928.322222487335,215.7868409154634,-2097.0910588594825,-1822.4725111021287,0.0,0.0,0.0,0.0,0.0,0.0,0.0,-7.9,21.91236201398181,0.0,21.736829885685395,0.0,-7.9,22.59,21.13,22.35,22.14,22.62,-9.17,-7.9,776.85,-1479.65,-1153.91,0.0,564.0,44.0,388.0,0.0,0.0,0.0,0.0,0.0,0.0,0.0,0.0,0.0,0.0,0.0,0.0,0.0,0.0
96.0,1970.0,0.0,0.0,-0.0,0.0,1970.0,0.0,14530.765242881298,0.0,14530.7652428813,0.0,0.0,0.4692970521541951,0.8744735454075196,0.3587540279269591,0.0,0.0,0.0,"[0.5943542033611564, 0.4489890806154371, 0.8846844162280121, 0.24405719034993822, 0.5337245695933248, 0.8243993235178735, 1.122166062398609, 0.7254352512302624, 0.8635784942919109]",21.52,0.0,0.0,0.0,693.9740095281278,112.2281414555936,-1982.143207285214,93.76429835988723,3880.2994927693235,0.0,0.0,0.0,0.0,0.0,0.0,-7.3,21.57578090095914,0.0,21.695374246499064,0.0,-7.3,21.52,21.11,22.28,21.45,21.98,-8.61,-7.3,741.12,-1398.55,-1090.66,0.0,320.0,0.0,347.0,0.0,0.0,0.0,0.0,0.0,0.0,0.0,0.0,0.0,0.0,0.0,0.0,0.0,0.0
97.0,1324.0,0.0,0.0,-0.0,0.0,1324.0,0.0,8058.792526635436,0.0,8058.792526635437,0.0,0.0,0.41925925925925933,0.844017035480704,0.3587540279269591,0.0,0.0,0.0,"[0.5943542033611564, 0.4489890806154371, 0.8846844162280121, 0.24405719034993822, 0.5337245695933248, 0.8243993235178735, 1.122166062398609, 0.7254352512302624, 0.8635784942919109]",22.59,0.0,0.0,0.0,568.756805930027,109.28559362492821,-2007.6903009901184,-1793.8087040182284,35.37412305910209,0.0,0.0,0.0,0.0,0.0,0.0,-6.6,21.922651315552276,0.0,21.751777306779648,0.0,-6.6,22.59,21.14,22.37,22.22,22.71,-7.9,-6.6,1503.17,-1416.57,-1104.71,0.0,320.0,0.0,254.0,0.0,0.0,0.0,0.0,0.0,0.0,0.0,0.0,0.0,0.0,0.0,0.0,0.0,0.0
98.0,1139.0,4847.504307568312,3684.26678603047,-0.0,0.0,0.0,0.0,7357.51168422839,0.0,0.0,0.0,7357.51168422839,0.41925925925925933,0.844017035480704,0.3587540279269591,0.0,0.0,0.0,"[0.5943542033611564, 0.4489890806154371, 0.8846844162280121, 0.24405719034993822, 0.5337245695933248, 0.8243993235178735, 1.122166062398609, 0.7254352512302624, 0.8635784942919109]",21.41,0.0,0.0,0.0,541.8283750487149,108.65278763983889,-1877.8041756399527,321.0298460517935,913.8018671866173,0.0,0.0,0.0,0.0,0.0,0.0,-5.9,21.544949303698285,0.0,21.698903289086978,0.0,-5.9,21.41,21.12,22.28,21.38,21.92,-7.16,-5.9,1078.53,-1324.93,-1033.25,0.0,320.0,0.0,234.0,0.0,0.0,0.0,0.0,0.0,0.0,0.0,0.0,0.0,0.0,0.0,0.0,0.0,0.0
99.0,777.0,16971.485433057373,0.0,-0.0,0.0,0.0,0.0,14498.665205302872,0.0,0.0,0.0,0.0,0.41925925925925933,0.844017035480704,0.3587540279269591,64438.51202356834,16109.628005892086,80548.14002946042,"[0.5943542033611564, 0.4489890806154371, 0.8846844162280121, 0.24405719034993822, 0.5337245695933248, 0.8243993235178735, 1.122166062398609, 0.7254352512302624, 0.8635784942919109]",21.41,0.0,0.0,0.0,329.09377108635,103.6536203576331,-1850.296250141687,214.71393527700153,3718.238063763886,0.0,0.0,0.0,0.0,0.0,0.0,-5.5,21.5038925912451,0.0,21.63511850080986,0.0,-5.5,21.41,21.09,22.18,21.43,21.94,-6.74,-5.5,1171.09,-1305.52,-1018.11,0.0,320.0,0.0,76.0,0.0,0.0,0.0,0.0,0.0,0.0,0.0,0.0,0.0,0.0,0.0,0.0,0.0,0.0
100.0,1490.0,29562.041960615774,11924.231750812694,-0.0,0.0,-16000.0,0.0,24835.887101773384,0.0,0.0,0.0,24835.887101773384,1.0,0.844017035480704,0.3587540279269583,0.0,0.0,0.0,"[0.5943542033611564, 0.4489890806154371, 0.8846844162280121, 0.24405719034993822, 0.5337245695933248, 0.8243993235178735, 1.122166062398609, 0.7254352512302624, 0.8635784942919109]",22.37,0.0,0.0,0.0,253.4815717432975,82.9925049444663,-1882.1471029009276,-1488.27364442596,3627.0770533962213,0.0,0.0,0.0,0.0,0.0,0.0,-5.0,21.813348902266192,0.0,21.682366746673118,0.0,-5.0,22.37,21.11,22.25,22.08,22.55,-6.21,-5.0,2407.16,-1327.99,-1035.64,0.0,240.0,9.0,61.0,0.0,0.0,0.0,0.0,0.0,0.0,0.0,0.0,0.0,0.0,0.0,0.0,0.0,0.0
101.0,2356.0,2367.8391959798996,0.0,-0.0,0.0,0.0,0.0,25532.25664647279,0.0,25532.25664647279,0.0,0.0,1.0,0.7475232461894236,0.3587540279269583,0.0,0.0,0.0,"[0.5943542033611564, 0.4489890806154371, 0.8846844162280121, 0.24405719034993822, 0.5337245695933248, 0.8243993235178735, 1.122166062398609, 0.7254352512302624, 0.8635784942919109]",22.59,0.0,0.0,0.0,227.12005519632896,84.63780050569859,-1870.1506734987884,-1769.7083045613726,3333.9502118362198,0.0,0.0,0.0,0.0,0.0,0.0,-4.6,21.930628797502823,0.0,21.76175539154907,0.0,-4.6,22.59,21.16,22.37,22.2,22.68,-5.62,-4.6,818.98,-1319.53,-1029.03,0.0,240.0,13.0,41.0,0.0,0.0,0.0,0.0,0.0,0.0,0.0,0.0,0.0,0.0,0.0,0.0,0.0,0.0
102.0,1800.0,1809.0452261306532,0.0,-0.0,0.0,0.0,0.0,11626.356058811809,0.0,11626.356058811809,0.0,0.0,1.0,0.7035838808877917,0.3587540279269583,0.0,0.0,0.0,"[0.5943542033611564, 0.4489890806154371, 0.8846844162280121, 0.24405719034993822, 0.5337245695933248, 0.8243993235178735, 1.122166062398609, 0.7254352512302624, 0.8635784942919109]",22.59,0.0,0.0,0.0,238.9543919257477,117.32222963556276,-1849.5197293750887,-1644.3236853750304,50.039700973005026,0.0,0.0,0.0,0.0,0.0,0.0,-4.3,21.9786245231497,0.0,21.834191734689405,0.0,-4.3,22.59,21.2,22.47,22.2,22.72,-5.35,-4.3,1888.07,-1304.97,-1017.68,0.0,333.0,21.0,0.0,0.0,0.0,0.0,0.0,0.0,0.0,0.0,0.0,0.0,0.0,0.0,0.0,0.0,0.0
103.0,3423.0,0.0,0.0,-0.0,0.0,12731.738000000001,0.0,16466.784649660898,46543.69,53701.73664966092,0.0,0.0,0.5188307634164777,0.5006294717809855,0.3587540279269583,37234.952000000005,9308.738000000001,46543.69,"[0.5943542033611564, 0.4489890806154371, 0.8846844162280121, 0.24405719034993822, 0.5337245695933248, 0.8243993235178735, 1.122166062398609, 0.7254352512302624, 0.8635784942919109]",21.41,0.0,0.0,0.0,500.0184428908884,164.65611732024504,-1747.1415295231895,464.23194300220587,629.6139652421618,0.0,0.0,0.0,0.0,0.0,0.0,-4.0,21.59874365903164,0.0,21.77693700559661,0.0,-4.0,21.41,21.18,22.37,21.42,21.98,-5.03,-4.0,1837.37,-1232.74,-961.35,0.0,393.0,62.0,158.0,0.0,0.0,0.0,0.0,0.0,0.0,0.0,0.0,0.0,0.0,0.0,0.0,0.0,0.0
104.0,3452.0,0.0,0.0,-0.0,0.0,3452.0,0.0,11707.10839860451,0.0,11707.10839860451,0.0,0.0,0.3883696900982615,0.4121403682390013,0.3587540279269583,0.0,0.0,0.0,"[0.5943542033611564, 0.4489890806154371, 0.8846844162280121, 0.24405719034993822, 0.5337245695933248, 0.7719548370499894, 1.122166062398609, 0.7254352512302624, 0.35468012966646256]",21.41,0.0,0.0,0.9343299549174394,994.2968781465498,183.16569238410807,-1726.51058539949,347.21856290817965,213.51139330089921,0.0,0.0,0.0,0.0,0.0,0.0,-3.7,21.553613310811276,0.0,21.706024664789197,0.0,-3.7,21.41,21.16,22.25,21.46,21.98,-4.68,-3.7,688.85,-1218.18,-950.0,1.48,399.0,71.0,521.0,0.0,0.0,0.0,0.0,0.0,0.0,0.0,0.0,0.0,0.0,0.0,0.0,0.0,0.0
105.0,1360.0,17436.392851766457,0.0,-0.0,10.789112492374153,-16000.0,0.0,13933.710656786656,0.0,13933.710656786656,0.0,0.0,0.9691104308390022,0.3594808419472906,0.3587540279269583,0.0,0.0,0.0,"[0.5943542033611564, 0.4489890806154371, 0.8846844162280121, 0.24405719034993822, 0.5337245695933248, 0.7719548370499894, 1.122166062398609, 0.7254352512302624, 0.35468012966646256]",21.41,0.0,0.0,25.635776728082305,407.8239992682912,131.14904040976472,-1623.3558647809923,234.03138632619138,832.6479797300401,0.0,0.0,0.0,0.0,0.0,0.0,-2.2,21.509191038468714,0.0,21.636639620926317,0.0,-2.2,21.41,21.13,22.14,21.41,21.88,-2.97,-2.2,2197.58,-1145.4,-893.24,40.51,330.0,40.0,125.0,0.0,0.0,0.0,0.0,0.0,0.0,0.0,0.0,0.0,0.0,0.0,0.0,0.0,0.0
106.0,2597.0,14421.798475485486,11789.13626150397,-0.0,36.44677839591138,0.0,0.0,28825.308364433913,0.0,0.0,0.0,28825.308364433917,0.9691104308390022,0.3594808419472906,0.35875402792695754,0.0,0.0,0.0,"[0.5943542033611564, 0.4489890806154371, 0.8846844162280121, 0.24405719034993822, 0.5337245695933248, 0.7719548370499894, 1.122166062398609, 0.7254352512302624, 0.35468012966646256]",21.41,0.0,0.0,32.94933150719674,624.1018178203025,114.31640120638839,-1554.5860510353277,154.1936425270657,3731.100755391011,0.0,0.0,0.0,0.0,0.0,0.0,-1.2,21.477918785832063,0.0,21.587819702726314,0.0,-1.2,21.41,21.11,22.07,21.43,21.88,-1.87,-1.2,1785.49,-1096.88,-855.4,52.07,306.0,14.0,301.0,0.0,0.0,0.0,0.0,0.0,0.0,0.0,0.0,0.0,0.0,0.0,0.0,0.0,0.0
107.0,4692.0,0.0,11714.505932674314,-0.0,406.50593267431384,16000.0,0.0,17708.409308074122,0.0,-12386.236134858485,0.0,30094.645442932608,0.3644241118669689,0.4044382916219621,0.35875402792695754,0.0,0.0,0.0,"[0.5943542033611564, 0.4489890806154371, 0.8846844162280121, 0.24405719034993822, 0.5337245695933248, 0.7719548370499894, 1.122166062398609, 0.7254352512302624, 0.35468012966646256]",22.59,0.0,0.0,58.88653107787937,2778.9432026596073,178.60948929146488,-1546.932548894163,-1918.9279991582137,0.0,0.0,0.0,0.0,0.0,0.0,0.0,0.1,21.870450015723833,0.0,21.661926962071142,0.0,0.1,22.59,21.15,22.18,22.2,22.59,-0.49,0.1,1711.99,-1091.48,-851.19,93.06,378.0,0.0,1865.0,0.0,0.0,0.0,0.0,0.0,0.0,0.0,0.0,0.0,0.0,0.0,0.0,0.0,0.0
108.0,2705.0,0.0,2645.2654235518735,-0.0,960.8074338372921,4389.457989714581,0.0,7073.104268587544,0.0,0.0,0.0,7073.1042685875445,0.1985337872367882,0.4044382916219621,0.3523093447905451,0.0,0.0,0.0,"[0.5943542033611564, 0.4489890806154371, 0.8846844162280121, 0.24405719034993822, 0.5337245695933248, 0.7719548370499894, 1.122166062398609, 0.7254352512302624, 0.35468012966646256]",22.42,0.0,0.0,73.66261919682906,714.8081113152482,106.72272938531641,-1459.1597360133276,-1544.3362153746225,0.0,0.0,0.0,0.0,0.0,0.0,0.0,1.2,21.83729962775893,0.0,21.68710214879527,0.0,1.2,22.42,21.17,22.2,21.86,22.24,0.52,1.2,608.0,-1029.55,-802.89,116.41,300.0,0.0,373.0,0.0,0.0,0.0,0.0,0.0,0.0,0.0,0.0,0.0,0.0,0.0,0.0,0.0,0.0
109.0,2640.0,15955.054490246546,0.0,-0.0,984.7104915345229,-14219.989709329837,0.0,8249.500839579794,0.0,8249.500839579796,0.0,0.0,0.7146667470569081,0.37326103977169833,0.3523093447905451,0.0,0.0,0.0,"[0.5943542033611564, 0.4489890806154371, 0.8846844162280121, 0.24405719034993822, 0.5337245695933248, 0.7719548370499894, 1.122166062398609, 0.7254352512302624, 0.35468012966646256]",21.61,0.0,0.0,74.96831874943331,1872.7306392116643,145.32389447576583,-1348.3587697049522,-79.00181712194906,228.95827022275716,0.0,0.0,0.0,0.0,0.0,0.0,2.0,21.587891895672886,0.0,21.662538285021824,0.0,2.0,21.61,21.17,22.15,21.49,21.93,1.32,2.0,1738.89,-951.37,-741.92,118.47,338.0,0.0,1213.0,0.0,0.0,0.0,0.0,0.0,0.0,0.0,0.0,0.0,0.0,0.0,0.0,0.0,0.0
110.0,4337.0,0.0,1088.4686177712176,-0.0,250.3422157956923,5175.126401975525,0.0,3024.5708028245026,0.0,0.0,0.0,3024.5708028245026,0.5190837386678104,0.37326103977169833,0.18850698174006175,0.0,0.0,0.0,"[0.5943542033611564, 0.4489890806154371, 0.8846844162280121, 0.24405719034993822, 0.5337245695933248, 0.7719548370499894, 1.122166062398609, 0.7254352512302624, 0.35468012966646256]",21.95,0.0,0.0,53.55513833445916,865.3947313752166,119.85345357592011,-1351.172337979254,-741.4874085991524,0.0,0.0,0.0,0.0,0.0,0.0,0.0,2.3,21.674529356183438,0.0,21.641895379856685,0.0,2.3,21.95,21.17,22.11,21.66,22.05,1.45,2.3,303.29,-953.35,-743.47,84.63,332.0,0.0,468.0,0.0,0.0,0.0,0.0,0.0,0.0,0.0,0.0,0.0,0.0,0.0,0.0,0.0,0.0
111.0,1968.0,0.0,0.0,-0.0,0.03295810008848492,1967.9670418999115,0.0,25618.97378262836,0.0,25618.97378262836,0.0,0.0,0.4447085670162642,0.27643952131883226,0.18850698174006172,0.0,0.0,0.0,"[0.5943542033611564, 0.4489890806154371, 0.8846844162280121, 0.24405719034993822, 0.5337245695933248, 0.7719548370499894, 1.122166062398609, 0.7254352512302624, 0.35468012966646256]",21.54,0.0,0.0,15.158909412200206,1181.520337063461,141.97002275479238,-1364.4473603531492,-45.356686003386436,2823.990154085974,0.0,0.0,0.0,0.0,0.0,0.0,1.7,21.535100112431085,0.0,21.606968804882563,0.0,1.7,21.54,21.17,22.05,21.45,21.85,0.64,1.7,1947.46,-962.72,-750.78,23.96,381.0,0.0,677.0,0.0,0.0,0.0,0.0,0.0,0.0,0.0,0.0,0.0,0.0,0.0,0.0,0.0,0.0
112.0,2480.0,2492.462311557789,0.0,-0.0,0.0,0.0,0.0,2514.6404441312416,0.0,2514.640444131242,0.0,0.0,0.4447085670162642,0.2669359671082078,0.17454350161116805,0.0,0.0,0.0,"[0.5943542033611564, 0.4489890806154371, 0.8846844162280121, 0.24405719034993822, 0.5337245695933248, 0.7719548370499894, 1.122166062398609, 0.7254352512302624, 0.35468012966646256]",22.59,0.0,0.0,0.0,1558.1640479428647,126.94088060892065,-1491.916697897631,-1888.0070462908916,0.0,0.0,0.0,0.0,0.0,0.0,0.0,0.9,21.88220156525409,0.0,21.67095797431359,0.0,0.9,22.59,21.2,22.14,22.15,22.5,-0.27,0.9,452.55,-1052.66,-820.91,0.0,273.0,15.0,1012.0,0.0,0.0,0.0,0.0,0.0,0.0,0.0,0.0,0.0,0.0,0.0,0.0,0.0,0.0
113.0,1767.0,1775.8793969849246,0.0,-0.0,0.0,0.0,0.0,2424.6568394831565,0.0,2424.656839483156,0.0,0.0,0.4447085670162642,0.25777248698922384,0.17454350161116805,0.0,0.0,0.0,"[0.5943542033611564, 0.4489890806154371, 0.8846844162280121, 0.24405719034993822, 0.5337245695933248, 0.7719548370499894, 1.122166062398609, 0.7254352512302624, 0.35468012966646256]",21.94,0.0,0.0,0.0,764.2713869867108,128.93421946195204,-1440.0525258039233,-679.0233674927242,0.0,0.0,0.0,0.0,0.0,0.0,0.0,1.0,21.691870963784602,0.0,21.668002123514853,0.0,1.0,21.94,21.21,22.13,21.64,22.02,-0.21,1.0,0.0,-1016.06,-792.38,0.0,272.0,52.0,419.0,0.0,0.0,0.0,0.0,0.0,0.0,0.0,0.0,0.0,0.0,0.0,0.0,0.0,0.0
114.0,4288.0,0.0,0.0,-0.0,0.0,4288.0,0.0,25793.731629951842,0.0,25793.731629951846,0.0,0.0,0.2826526335317593,0.1602905080400483,0.15306122448979317,0.0,0.0,0.0,"[0.5943542033611564, 0.4489890806154371, 0.8846844162280121, 0.24405719034993822, 0.5337245695933248, 0.7719548370499894, 1.122166062398609, 0.7254352512302624, 0.35468012966646256]",21.47,0.0,0.0,0.0,3319.141698997085,211.4204796183469,-1400.5683647050823,124.84964132292004,698.1391808971352,0.0,0.0,0.0,0.0,0.0,0.0,1.1,21.52608805969973,0.0,21.623067117262828,0.0,1.1,21.47,21.19,22.05,21.42,21.82,-0.12,1.1,0.0,-988.2,-770.65,0.0,328.0,62.0,2286.0,0.0,0.0,0.0,0.0,0.0,0.0,0.0,0.0,0.0,0.0,0.0,0.0,0.0,0.0
115.0,3901.0,89678.31886218401,0.0,-0.0,0.0,-16000.0,0.0,10518.57631241402,0.0,-51877.45822867174,0.0,0.0,0.8633933742725,0.3485864675367087,0.15306122448979317,277315.70907149237,69328.92726787309,346644.63633936545,"[0.5943542033611564, 0.4489890806154371, 0.8846844162280121, 0.24405719034993822, 0.5337245695933248, 0.7719548370499894, 1.122166062398609, 0.7254352512302624, 0.35468012966646256]",22.59,0.0,0.0,0.0,893.3152623416297,123.20732529689357,-1464.4087723993648,-1926.84571701251,2383.246426793047,0.0,0.0,0.0,0.0,0.0,0.0,1.3,21.867099769641353,0.0,21.64411277578023,0.0,1.3,22.59,21.21,22.08,21.99,22.29,0.06,1.3,0.0,-1033.25,-805.78,0.0,290.0,27.0,508.0,0.0,0.0,0.0,0.0,0.0,0.0,0.0,0.0,0.0,0.0,0.0,0.0,0.0,0.0
116.0,6471.0,10286.082345033843,0.0,-0.0,0.0,-3763.651933308675,0.0,116.75681353658563,0.0,116.75681353658563,0.0,0.0,1.0,0.3477039519393044,0.15306122448979317,0.0,0.0,0.0,"[0.5943542033611564, 0.3381191390532692, 0.8846844162280121, 0.24405719034993822, 0.5337245695933213, 0.6375951477032942, 0.37831320893311826, 0.22241698874356075, 0.35468012966646256]",22.59,0.0,0.0,0.0,1033.9808815505883,85.71357068035047,-1457.5317910247984,-1787.958580542965,0.0,0.0,0.0,0.0,0.0,0.0,0.0,1.4,21.92035362316564,0.0,21.725361221110212,0.0,1.4,22.59,21.25,22.2,22.14,22.49,0.2,1.4,0.0,-1028.4,-801.99,0.0,186.0,10.0,669.0,0.0,0.0,0.0,0.0,0.0,0.0,0.0,0.0,0.0,0.0,0.0,0.0,0.0,0.0
117.0,6393.0,6425.125628140703,0.0,-0.0,0.0,0.0,0.0,6703.474005801127,0.0,6703.4740058011275,0.0,0.0,1.0,0.3223695830587257,0.15306122448979317,0.0,0.0,0.0,"[0.5943542033611564, 0.3381191390532692, 0.8846844162280121, 0.24405719034993822, 0.5337245695933213, 0.6375951477032942, 0.37831320893311826, 0.22241698874356075, 0.35468012966646256]",21.78,0.0,0.0,0.0,1329.839299786056,168.1365502382364,-1387.484947535415,-299.1400456025435,0.0,0.0,0.0,0.0,0.0,0.0,0.0,1.6,21.672922632172288,0.0,21.70770183282945,0.0,1.6,21.78,21.25,22.16,21.58,21.98,0.38,1.6,0.0,-978.97,-763.45,0.0,400.0,30.0,774.0,0.0,0.0,0.0,0.0,0.0,0.0,0.0,0.0,0.0,0.0,0.0,0.0,0.0,0.0
118.0,3731.0,0.0,4365.833139667876,-0.0,0.0,8096.833139667876,0.0,11881.78827386474,0.0,0.0,0.0,11881.788273864742,0.6939972358402163,0.3223695830587257,0.15306122448979317,0.0,0.0,0.0,"[0.5943542033611564, 0.3381191390532692, 0.8846844162280121, 0.24405719034993822, 0.5337245695933213, 0.6375951477032942, 0.37831320893311826, 0.22241698874356075, 0.35468012966646256]",21.7,0.0,0.0,0.0,1117.7424744498273,232.4612786225673,-1375.3194197560522,-219.35755010538827,2157.0338644349317,0.0,0.0,0.0,0.0,0.0,0.0,1.7,21.62657677460617,0.0,21.6693923775349,0.0,1.7,21.7,21.24,22.1,21.56,21.93,0.45,1.7,0.0,-970.39,-756.76,0.0,584.0,55.0,517.0,0.0,0.0,0.0,0.0,0.0,0.0,0.0,0.0,0.0,0.0,0.0,0.0,0.0,0.0
119.0,2988.0,0.0,0.0,-0.0,0.0,2988.0,0.0,11131.332185176574,0.0,11131.332185176574,0.0,0.0,0.5810720657721891,0.2803010562817923,0.15306122448979317,0.0,0.0,0.0,"[0.5943542033611564, 0.3381191390532692, 0.8846844162280121, 0.24405719034993822, 0.5337245695933213, 0.6375951477032942, 0.37831320893311826, 0.22241698874356075, 0.35468012966646256]",22.43,0.0,0.0,0.0,967.5810401406166,183.703577471434,-1411.6467287896298,-1486.9962870164738,0.0,0.0,0.0,0.0,0.0,0.0,0.0,1.9,21.868348766462947,0.0,21.71641766394994,0.0,1.9,22.43,21.26,22.17,22.08,22.42,0.65,1.9,0.0,-996.02,-776.75,0.0,520.0,9.0,444.0,0.0,0.0,0.0,0.0,0.0,0.0,0.0,0.0,0.0,0.0,0.0,0.0,0.0,0.0
120.0,2605.0,5095.270304065001,2464.7939525446764,-0.0,0.0,0.0,0.0,6661.039354099343,0.0,0.0,0.0,6661.039354099343,0.5810720657721891,0.2803010562817923,0.15306122448979317,0.0,0.0,0.0,"[0.5943542033611564, 0.3381191390532692, 0.8846844162280121, 0.24405719034993822, 0.5337245695933213, 0.6375951477032942, 0.37831320893311826, 0.22241698874356075, 0.35468012966646256]",21.75,0.0,0.0,0.0,291.9608821868566,105.04579352482968,-1392.6764485994497,-260.2030719378038,363.0430972235295,0.0,0.0,0.0,0.0,0.0,0.0,1.5,21.66347137769052,0.0,21.700956320463888,0.0,1.5,21.75,21.26,22.14,21.6,21.98,0.17,1.5,42.74,-982.64,-766.31,0.0,320.0,4.0,48.0,0.0,0.0,0.0,0.0,0.0,0.0,0.0,0.0,0.0,0.0,0.0,0.0,0.0,0.0
121.0,2576.0,2588.9447236180904,0.0,-0.0,0.0,0.0,0.0,7246.060125898252,0.0,7246.060125898252,0.0,0.0,0.5810720657721891,0.2529160973781708,0.15306122448979317,0.0,0.0,0.0,"[0.5943542033611564, 0.3381191390532692, 0.8846844162280121, 0.24405719034993822, 0.5337245695933213, 0.6375951477032942, 0.37831320893311826, 0.22241698874356075, 0.35468012966646256]",21.41,0.0,0.0,0.0,276.5833308677916,102.41964868670892,-1389.5384980457318,298.1190854582749,719.4943779453059,0.0,0.0,0.0,0.0,0.0,0.0,1.2,21.53223406962912,0.0,21.65239782100304,0.0,1.2,21.41,21.24,22.06,21.45,21.83,-0.18,1.2,11.31,-980.42,-764.58,0.0,320.0,0.0,37.0,0.0,0.0,0.0,0.0,0.0,0.0,0.0,0.0,0.0,0.0,0.0,0.0,0.0,0.0
122.0,1644.0,42494.76841350927,40638.29457144172,-0.0,0.0,0.0,0.0,27111.976579350634,0.0,-80000.0,0.0,107111.97657935062,0.5810720657721891,0.5432864677485412,0.15306122448979317,0.0,0.0,0.0,"[0.5943542033611564, 0.3381191390532692, 0.8846844162280121, 0.24405719034993822, 0.5337245695933213, 0.6375951477032942, 0.37831320893311826, 0.22241698874356075, 0.35468012966646256]",21.41,0.0,0.0,0.0,280.6225954999884,102.51456958447231,-1417.0464235439977,218.3313249887771,3918.2973523010514,0.0,0.0,0.0,0.0,0.0,0.0,0.8,21.501826060469682,0.0,21.605667580689286,0.0,0.8,21.41,21.22,21.99,21.46,21.82,-0.59,0.8,558.56,-999.83,-779.72,0.0,320.0,0.0,40.0,0.0,0.0,0.0,0.0,0.0,0.0,0.0,0.0,0.0,0.0,0.0,0.0,0.0,0.0
123.0,1024.0,1029.145728643216,0.0,-0.0,0.0,0.0,0.0,12245.370880558046,0.0,12245.370880558045,0.0,0.0,0.5810720657721891,0.49700766623471637,0.15306122448979317,0.0,0.0,0.0,"[0.5943542033611564, 0.3381191390532692, 0.8846844162280121, 0.24405719034993822, 0.5337245695933213, 0.6375951477032942, 0.37831320893311826, 0.22241698874356075, 0.35468012966646256]",22.59,0.0,0.0,0.0,268.504801603398,102.22980689118211,-1505.670660646764,-1847.9364981617045,0.0,0.0,0.0,0.0,0.0,0.0,0.0,0.7,21.897829662739795,0.0,21.68632802473795,0.0,0.7,22.59,21.25,22.12,22.25,22.57,-0.7,0.7,775.83,-1062.36,-828.48,0.0,320.0,0.0,31.0,0.0,0.0,0.0,0.0,0.0,0.0,0.0,0.0,0.0,0.0,0.0,0.0,0.0,0.0
124.0,532.0,0.0,3886.8937165787934,-0.0,0.0,4418.893716578794,0.0,10133.6762056834,0.0,0.0,0.0,10133.6762056834,0.41406927980927166,0.49700766623471637,0.15306122448979317,0.0,0.0,0.0,"[0.5943542033611564, 0.3381191390532692, 0.8846844162280121, 0.24405719034993822, 0.5337245695933213, 0.6375951477032942, 0.37831320893311826, 0.22241698874356075, 0.35468012966646256]",21.45,0.0,0.0,0.0,268.504801603398,102.22980689118211,-1440.468550718161,230.72488629540297,3836.011257160701,0.0,0.0,0.0,0.0,0.0,0.0,0.5,21.547346577134977,0.0,21.658060566119147,0.0,0.5,21.45,21.24,22.07,21.43,21.82,-0.86,0.5,883.84,-1016.36,-792.61,0.0,320.0,0.0,31.0,0.0,0.0,0.0,0.0,0.0,0.0,0.0,0.0,0.0,0.0,0.0,0.0,0.0,0.0
125.0,1284.0,0.0,0.0,-0.0,0.0,1284.0,0.0,17142.036106087493,0.0,17142.036106087493,0.0,0.0,0.365543202711766,0.43222294928049304,0.15306122448979317,0.0,0.0,0.0,"[0.5943542033611564, 0.3381191390532692, 0.8846844162280121, 0.24405719034993822, 0.5337245695933213, 0.6375951477032942, 0.37831320893311826, 0.22241698874356075, 0.35468012966646256]",22.59,0.0,0.0,0.0,281.96901704405394,102.5462098837268,-1533.1785861450298,-1771.1369339206544,2926.8869843522916,0.0,0.0,0.0,0.0,0.0,0.0,0.3,21.927522105809434,0.0,21.732064235684607,0.0,0.3,22.59,21.28,22.19,22.26,22.61,-1.06,0.3,1999.17,-1081.77,-843.62,0.0,320.0,0.0,41.0,0.0,0.0,0.0,0.0,0.0,0.0,0.0,0.0,0.0,0.0,0.0,0.0,0.0,0.0
126.0,744.0,747.7386934673367,0.0,-0.0,0.0,0.0,0.0,8933.974041891955,0.0,8933.974041891955,0.0,0.0,0.365543202711766,0.3984588750480971,0.15306122448979317,0.0,0.0,0.0,"[0.5943542033611564, 0.3381191390532692, 0.8846844162280121, 0.24405719034993822, 0.5337245695933213, 0.6375951477032942, 0.37831320893311826, 0.22241698874356075, 0.35468012966646256]",22.59,0.0,0.0,0.0,432.41390852043656,172.05994734579028,-1540.0555675195963,-1632.5118779056825,0.0,0.0,0.0,0.0,0.0,0.0,0.0,0.2,21.980789673797624,0.0,21.813625259322617,0.0,0.2,22.59,21.32,22.31,22.22,22.6,-1.13,0.2,0.0,-1086.62,-847.4,0.0,508.0,17.0,52.0,0.0,0.0,0.0,0.0,0.0,0.0,0.0,0.0,0.0,0.0,0.0,0.0,0.0,0.0
127.0,996.0,0.0,0.0,-0.0,0.0,996.0,0.0,17526.43408556581,0.0,17526.43408556581,0.0,0.0,0.3279014793557569,0.33222140684867985,0.15306122448979317,0.0,0.0,0.0,"[0.5943542033611564, 0.3381191390532692, 0.8846844162280121, 0.24405719034993822, 0.5337245695933213, 0.6375951477032942, 0.37831320893311826, 0.22241698874356075, 0.35468012966646256]",21.6,0.0,0.0,0.0,381.95853276387305,166.11157108595052,-1478.8022192627218,152.0260685773175,3370.169755400909,0.0,0.0,0.0,0.0,0.0,0.0,0.1,21.67486520899386,0.0,21.78292341158464,0.0,0.1,21.6,21.31,22.25,21.57,22.0,-1.27,0.1,735.9,-1043.4,-813.7,0.0,426.0,52.0,54.0,0.0,0.0,0.0,0.0,0.0,0.0,0.0,0.0,0.0,0.0,0.0,0.0,0.0,0.0
128.0,1270.0,1276.3819095477386,0.0,-0.0,0.0,0.0,0.0,5813.370689778858,0.0,5813.370689778858,0.0,0.0,0.3279014793557569,0.2882805853084013,0.15306122448979317,0.0,0.0,0.0,"[0.5943542033611564, 0.3381191390532692, 0.856166959273974, 0.24405719034993822, 0.5337245695933213, 0.6375951477032942, 0.37831320893311826, 0.22241698874356075, 0.3546801296664661]",22.59,0.0,0.0,1.8754277011670888,247.81242839986348,107.6719383629504,-1540.0555675195963,-1581.0642359279234,0.0,0.0,0.0,0.0,0.0,0.0,0.0,0.2,22.000510132760596,0.0,21.84230198170235,0.0,0.2,22.59,21.34,22.34,22.29,22.68,-1.06,0.2,842.22,-1086.62,-847.4,2.96,166.0,92.0,87.0,0.0,0.0,0.0,0.0,0.0,0.0,0.0,0.0,0.0,0.0,0.0,0.0,0.0,0.0
129.0,2961.0,55584.42543497743,0.0,-52426.072469804996,80.56916200246152,0.0,0.0,5588.304272658025,0.0,5588.304272658025,0.0,0.0,0.3279014793557569,0.26716076568384334,0.33333333333333315,0.0,0.0,0.0,"[0.5943542033611564, 0.3381191390532692, 0.856166959273974, 0.24405719034993822, 0.5337245695933213, 0.6375951477032942, 0.37831320893311826, 0.22241698874356075, 0.3546801296664661]",21.53,0.0,0.0,58.24670220673514,1125.6792751306352,162.47293667168682,-1288.0764256850644,326.8465027893023,0.0,0.0,0.0,0.0,0.0,0.0,0.0,2.8,21.666932789233204,0.0,21.80168682184545,0.0,2.8,21.53,21.33,22.27,21.53,21.97,1.63,2.8,190.36,-908.83,-708.75,92.05,280.0,92.0,679.0,0.0,0.0,0.0,0.0,0.0,0.0,0.0,0.0,0.0,0.0,0.0,0.0,0.0,0.0
130.0,6858.0,0.0,2498.1846915317155,-0.0,2397.3898433221657,6958.79484820955,0.0,7656.283458437813,0.0,0.0,0.0,7656.283458437814,0.06490847677792055,0.26716076568384334,0.33333333333333315,0.0,0.0,0.0,"[0.5943542033611564, 0.3381191390532692, 0.856166959273974, 0.24405719034993822, 0.5337245695933213, 0.6375951477032942, 0.37831320893311826, 0.22241698874356075, 0.3546801296664661]",21.67,0.0,0.0,91.13609484601355,906.2125634479423,80.74604369739919,-1126.0896090618294,-20.167012126745593,0.0,0.0,0.0,0.0,0.0,0.0,0.0,5.3,21.67692797266229,0.0,21.7510440918444,0.0,5.3,21.67,21.32,22.19,21.6,22.0,4.02,5.3,0.0,-794.54,-619.62,144.02,170.0,15.0,582.0,0.0,0.0,0.0,0.0,0.0,0.0,0.0,0.0,0.0,0.0,0.0,0.0,0.0,0.0
131.0,9101.0,32099.916682381696,14960.985234607944,-0.0,8122.568135638153,-16000.0,0.0,5393.625812711441,0.0,-42597.30050531327,0.0,47990.926318024714,0.6456492175186612,0.4217731897401656,0.33333333333333315,0.0,0.0,0.0,"[0.5943542033611564, 0.3381191390532692, 0.856166959273974, 0.24405719034993822, 0.5337245695933213, 0.6375951477032942, 0.37831320893311826, 0.22241698874356075, 0.3546801296664661]",21.65,0.0,0.0,489.0904368475116,1233.676455823055,100.33138893591412,-1021.0820535660899,-34.627573427508196,1688.4680435163227,0.0,0.0,0.0,0.0,0.0,0.0,6.8,21.64312838537424,0.0,21.709266438382354,0.0,6.8,21.65,21.3,22.11,21.57,21.94,6.32,6.8,0.0,-720.45,-561.84,772.89,238.0,0.0,791.0,0.0,0.0,0.0,0.0,0.0,0.0,0.0,0.0,0.0,0.0,0.0,0.0,0.0,0.0
132.0,6249.0,24335.943428064773,26193.92561705368,-0.0,8228.66190612923,0.0,0.0,6520.407451715766,0.0,-80000.0,0.0,86520.40745171577,0.6456492175186612,0.7121435601105359,0.33333333333333315,0.0,0.0,0.0,"[0.5943542033611564, 0.3381191390532692, 0.856166959273974, 0.24405719034993822, 0.5337245695933213, 0.6375951477032942, 0.37831320893311826, 0.22241698874356075, 0.3546801296664661]",22.59,0.0,0.0,467.2368856811569,1079.1214354226825,76.31640180177384,-1017.4049830525424,-1661.5175673446538,1046.0675890341909,0.0,0.0,0.0,0.0,0.0,0.0,7.8,21.964894444390623,0.0,21.781695375488766,0.0,7.8,22.59,21.34,22.22,22.22,22.59,7.35,7.8,0.0,-717.85,-559.82,738.36,170.0,0.0,712.0,0.0,0.0,0.0,0.0,0.0,0.0,0.0,0.0,0.0,0.0,0.0,0.0,0.0,0.0
133.0,5259.0,2972.443897099254,1963.3129935502452,-0.0,3020.121989377033,1244.6093265594538,0.0,6559.830526263165,0.0,0.0,0.0,6559.830526263165,0.5986118280039426,0.7121435601105359,0.33333333333333315,0.0,0.0,0.0,"[0.5943542033611564, 0.3381191390532692, 0.856166959273974, 0.24405719034993822, 0.5337245695933213, 0.6375951477032942, 0.37831320893311826, 0.22241698874356075, 0.3546801296664661]",22.59,0.0,0.0,438.0391728161561,569.7489060151279,60.7493745685762,-989.8970575542764,-1524.6994004628912,0.0,0.0,0.0,0.0,0.0,0.0,0.0,8.2,22.017205833646624,0.0,21.860093322625566,0.0,8.2,22.59,21.39,22.33,22.19,22.59,7.75,8.2,0.0,-698.45,-544.68,692.22,158.0,0.0,340.0,0.0,0.0,0.0,0.0,0.0,0.0,0.0,0.0,0.0,0.0,0.0,0.0,0.0,0.0
134.0,3723.0,0.0,1466.2477948295134,-0.0,443.5788258451936,4745.66896898432,0.0,4899.033967169911,0.0,0.0,0.0,4899.033967169911,0.41925925925925933,0.7121435601105359,0.33333333333333315,0.0,0.0,0.0,"[0.5943542033611564, 0.3381191390532692, 0.856166959273974, 0.24405719034993822, 0.5337245695933213, 0.6375951477032942, 0.37831320893311826, 0.22241698874356075, 0.3546801296664661]",22.04,0.0,0.0,84.54619310299991,2558.9804409343633,106.59616818829852,-951.9819387724422,-466.69580898249137,0.0,0.0,0.0,0.0,0.0,0.0,0.0,8.2,21.872276391737266,0.0,21.879993051575124,0.0,8.2,22.04,21.42,22.34,21.87,22.31,6.96,8.2,0.0,-671.69,-523.82,133.61,155.0,0.0,1819.0,0.0,0.0,0.0,0.0,0.0,0.0,0.0,0.0,0.0,0.0,0.0,0.0,0.0,0.0
135.0,4405.0,23572.60319547796,3053.3135081684004,-0.0,3.573328667828455,-16000.0,0.0,9910.66357988497,0.0,0.0,0.0,9910.663579884971,1.0,0.7121435601105359,0.3252774794128176,0.0,0.0,0.0,"[0.5943542033611564, 0.3381191390532692, 0.856166959273974, 0.24405719034993822, 0.5337245695933213, 0.6375951477032942, 0.37831320893311826, 0.22241698874356075, 0.3546801296664661]",22.55,0.0,0.0,30.349494489340735,3483.3342630812954,174.17984739583954,-1055.8089620029732,-1395.6464203411629,-1117.451677147537,0.0,0.0,0.0,0.0,0.0,0.0,7.2,22.02632744770069,0.0,21.886465197008043,0.0,7.2,22.55,21.44,22.33,22.04,22.38,5.71,7.2,0.0,-744.95,-580.95,47.96,308.0,0.0,2425.0,0.0,0.0,0.0,0.0,0.0,0.0,0.0,0.0,0.0,0.0,0.0,0.0,0.0,0.0
136.0,3329.0,6899.557310689977,3536.059524136527,-0.0,0.0,0.0,0.0,11005.650390975226,0.0,0.0,0.0,11005.650390975226,1.0,0.7121435601105359,0.32205513784461137,0.0,0.0,0.0,"[0.5943542033611564, 0.3381191390532692, 0.856166959273974, 0.24405719034993822, 0.5337245695933213, 0.6375951477032942, 0.37831320893311826, 0.22241698874356075, 0.3546801296664661]",22.59,0.0,0.0,0.0,374.09259637485826,86.7260602564934,-1154.9446105438724,-1429.982575426657,905.5742055040253,0.0,0.0,0.0,0.0,0.0,0.0,5.8,22.05554003335936,0.0,21.909938795271167,0.0,5.8,22.59,21.47,22.35,22.08,22.4,4.25,5.8,0.0,-814.9,-635.5,0.0,260.0,0.0,141.0,0.0,0.0,0.0,0.0,0.0,0.0,0.0,0.0,0.0,0.0,0.0,0.0,0.0,0.0
137.0,2171.0,1404.5274070599087,3313.8623646687324,-0.0,0.0,4087.357594644123,0.0,10187.71450739635,0.0,0.0,0.0,10187.71450739635,0.8455269238607663,0.7121435601105359,0.32205513784461093,0.0,0.0,0.0,"[0.5943542033611564, 0.3381191390532692, 0.856166959273974, 0.24405719034993822, 0.5337245695933213, 0.6375951477032942, 0.37831320893311826, 0.22241698874356075, 0.3546801296664661]",22.12,0.0,0.0,0.0,296.5670611533968,55.528725191589174,-1150.1161061838604,-540.9044620124854,0.0,0.0,0.0,0.0,0.0,0.0,0.0,5.4,21.926694324030052,0.0,21.919190886443246,0.0,5.4,22.12,21.48,22.35,21.93,22.3,3.85,5.4,0.0,-811.49,-632.84,0.0,162.0,0.0,135.0,0.0,0.0,0.0,0.0,0.0,0.0,0.0,0.0,0.0,0.0,0.0,0.0,0.0,0.0
138.0,7118.0,10269.1772282387,3099.8313420975073,-0.0,0.0,0.0,0.0,9411.51833891806,0.0,0.0,0.0,9411.51833891806,0.8455269238607663,0.7121435601105359,0.32205513784461093,0.0,0.0,0.0,"[0.5943542033611564, 0.3381191390532692, 0.856166959273974, 0.24405719034993822, 0.5337245695933213, 0.6375951477032942, 0.37831320893311826, 0.22241698874356075, 0.3546801296664661]",21.61,0.0,0.0,0.0,912.8738068764773,21.45212289452846,-1142.1653520330249,329.86770527961755,0.0,0.0,0.0,0.0,0.0,0.0,0.0,5.0,21.745351221944965,0.0,21.8681376165937,0.0,5.0,21.61,21.47,22.27,21.62,21.99,3.51,5.0,372.39,-805.88,-628.47,0.0,0.0,0.0,678.0,0.0,0.0,0.0,0.0,0.0,0.0,0.0,0.0,0.0,0.0,0.0,0.0,0.0,0.0
139.0,2575.0,0.0,2692.0199531613584,-0.0,0.0,5267.019953161358,0.0,8070.690931636578,0.0,0.0,0.0,8070.690931636579,0.6464709921464293,0.7121435601105359,0.32205513784461093,0.0,0.0,0.0,"[0.5943542033611564, 0.3381191390532692, 0.856166959273974, 0.24405719034993822, 0.5337245695933213, 0.6375951477032942, 0.37831320893311826, 0.22241698874356075, 0.3546801296664661]",21.65,0.0,0.0,0.0,522.2698305138672,81.31556908397958,-1172.8565621795678,143.3868598303877,0.0,0.0,0.0,0.0,0.0,0.0,0.0,4.6,21.720246593594798,0.0,21.80780186841418,0.0,4.6,21.65,21.45,22.17,21.61,21.94,3.18,4.6,0.0,-827.54,-645.35,0.0,202.0,15.0,280.0,0.0,0.0,0.0,0.0,0.0,0.0,0.0,0.0,0.0,0.0,0.0,0.0,0.0,0.0
140.0,3922.0,3941.708542713568,0.0,-0.0,0.0,0.0,0.0,3945.987965502196,0.0,3945.987965502196,0.0,0.0,0.447863224998608,0.6972305292507393,0.32205513784461093,0.0,0.0,0.0,"[0.5108786967764836, 0.3381191390532692, 0.856166959273974, 0.24405719034993822, 0.5337245695933248, 0.24136295076193548, 0.37831320893311826, 0.22241698874356075, 0.3546801296664661]",21.49,0.0,0.0,0.0,982.6042700007167,164.3397143277004,-1188.9696518488897,353.8576470261566,0.0,0.0,0.0,0.0,0.0,0.0,0.0,4.2,21.635466194803723,0.0,21.750840219966292,0.0,4.2,21.49,21.42,22.08,21.53,21.85,2.84,4.2,0.0,-838.91,-654.22,0.0,288.0,97.0,568.0,0.0,0.0,0.0,0.0,0.0,0.0,0.0,0.0,0.0,0.0,0.0,0.0,0.0,0.0
141.0,4163.0,5256.246519460261,1066.9652868629598,-0.0,0.0,0.0,0.0,3117.3942594375226,0.0,0.0,0.0,3117.3942594375226,0.447863224998608,0.6972305292507393,0.2017543859649117,0.0,0.0,0.0,"[0.5108786967764836, 0.3381191390532692, 0.856166959273974, 0.24405719034993822, 0.5337245695933248, 0.24136295076193548, 0.37831320893311826, 0.22241698874356075, 0.3546801296664661]",21.6,0.0,0.0,0.0,998.0526856115748,166.93421886656665,-1224.4122982326617,62.83292659612939,2368.5149512823978,0.0,0.0,0.0,0.0,0.0,0.0,3.8,21.639347974737035,0.0,21.705616497642282,0.0,3.8,21.6,21.4,22.02,21.59,21.87,2.51,3.8,0.0,-863.91,-673.72,0.0,218.0,138.0,612.0,0.0,0.0,0.0,0.0,0.0,0.0,0.0,0.0,0.0,0.0,0.0,0.0,0.0,0.0
142.0,3079.0,3094.472361809045,0.0,-0.0,0.0,0.0,0.0,12619.410088321809,0.0,12619.41008832181,0.0,0.0,0.447863224998608,0.6495381252888276,0.2017543859649117,0.0,0.0,0.0,"[0.5108786967764836, 0.3381191390532692, 0.856166959273974, 0.24405719034993822, 0.5337245695933248, 0.24136295076193548, 0.37831320893311826, 0.22241698874356075, 0.3546801296664661]",22.51,0.0,0.0,0.0,584.7012715834354,147.72855721910534,-1314.2515684933153,-1524.3509457122543,0.0,0.0,0.0,0.0,0.0,0.0,0.0,3.4,21.93699145061661,0.0,21.76069070223255,0.0,3.4,22.51,21.42,22.1,22.19,22.43,2.1,3.4,0.0,-927.3,-723.16,0.0,243.0,108.0,295.0,0.0,0.0,0.0,0.0,0.0,0.0,0.0,0.0,0.0,0.0,0.0,0.0,0.0,0.0
143.0,1498.0,3806.101170210185,2289.0706643591343,-0.0,0.0,0.0,0.0,6513.488091686164,0.0,0.0,0.0,6513.488091686166,0.447863224998608,0.6495381252888276,0.13408521303258086,0.0,0.0,0.0,"[0.5108786967764836, 0.3381191390532692, 0.856166959273974, 0.24405719034993822, 0.5337245695933248, 0.24136295076193548, 0.37831320893311826, 0.22241698874356075, 0.3546801296664661]",21.7,0.0,0.0,0.0,446.65763117081485,156.2081574193024,-1285.8716359123193,-42.93610566317998,2853.118882697378,0.0,0.0,0.0,0.0,0.0,0.0,3.0,21.692940376069593,0.0,21.747340316471206,0.0,3.0,21.7,21.41,22.08,21.64,21.93,1.69,3.0,0.0,-907.28,-707.54,0.0,420.0,35.0,107.0,0.0,0.0,0.0,0.0,0.0,0.0,0.0,0.0,0.0,0.0,0.0,0.0,0.0,0.0
144.0,1389.0,0.0,0.0,-0.0,0.0,1389.0,0.0,11686.784636218094,0.0,11686.784636218094,0.0,0.0,0.39536889393284835,0.6053703828994924,0.13408521303258086,0.0,0.0,0.0,"[0.5108786967764836, 0.3381191390532692, 0.856166959273974, 0.24405719034993822, 0.5337245695933248, 0.24136295076193548, 0.37831320893311826, 0.22241698874356075, 0.3546801296664661]",22.51,0.0,0.0,0.0,234.7025344181721,77.45545257493464,-1376.144400864414,-1446.430120973059,0.0,0.0,0.0,0.0,0.0,0.0,0.0,2.5,21.96738035553816,0.0,21.80843345891501,0.0,2.5,22.51,21.44,22.18,22.24,22.52,1.26,2.5,0.0,-970.97,-757.21,0.0,240.0,0.0,48.0,0.0,0.0,0.0,0.0,0.0,0.0,0.0,0.0,0.0,0.0,0.0,0.0,0.0,0.0
145.0,900.0,81377.69229320294,0.0,-80070.80383173694,0.0,0.0,0.0,11983.985742119965,0.0,11983.985742119965,0.0,0.0,0.39536889393284835,0.5600794314931433,0.4094163981382026,0.0,0.0,0.0,"[0.5108786967764836, 0.3381191390532692, 0.856166959273974, 0.24405719034993822, 0.5337245695933248, 0.24136295076193548, 0.37831320893311826, 0.22241698874356075, 0.3546801296664661]",21.54,0.0,0.0,0.0,268.504801603398,102.22980689118211,-1337.2177371084413,288.4462204913648,540.0099871807502,0.0,0.0,0.0,0.0,0.0,0.0,2.1,21.667153718530418,0.0,21.77682750523253,0.0,2.1,21.54,21.42,22.13,21.56,21.9,0.95,2.1,95.63,-943.51,-735.79,0.0,320.0,0.0,31.0,0.0,0.0,0.0,0.0,0.0,0.0,0.0,0.0,0.0,0.0,0.0,0.0,0.0,0.0
146.0,671.0,0.0,6120.751254006336,-0.0,0.0,6791.751254006336,0.0,16599.516616589295,0.0,0.0,0.0,16599.516616589295,0.13868895236042444,0.5600794314931433,0.4094163981382026,0.0,0.0,0.0,"[0.5108786967764836, 0.3381191390532692, 0.856166959273974, 0.24405719034993822, 0.5337245695933248, 0.24136295076193548, 0.37831320893311826, 0.22241698874356075, 0.3546801296664661]",21.49,0.0,0.0,0.0,277.9297524118572,102.4512889859634,-1367.7711675876185,309.1549285456494,3007.63971939748,0.0,0.0,0.0,0.0,0.0,0.0,1.6,21.619598635978715,0.0,21.72906828038866,0.0,1.6,21.49,21.39,22.06,21.57,21.89,0.53,1.6,1398.94,-965.06,-752.6,0.0,320.0,0.0,38.0,0.0,0.0,0.0,0.0,0.0,0.0,0.0,0.0,0.0,0.0,0.0,0.0,0.0,0.0
147.0,980.0,0.0,1112.5571513671953,-0.0,0.0,2092.5571513671953,0.0,2996.0494251656205,0.0,0.0,0.0,2996.049425165621,0.05960515979174738,0.5600794314931433,0.4094163981382026,0.0,0.0,0.0,"[0.5108786967764836, 0.3381191390532692, 0.856166959273974, 0.24405719034993822, 0.5337245695933248, 0.24136295076193548, 0.37831320893311826, 0.22241698874356075, 0.3546801296664661]",22.38,0.0,0.0,0.0,287.35470322031637,102.67277108074464,-1442.851369081689,-1262.405057968428,0.0,0.0,0.0,0.0,0.0,0.0,0.0,1.4,21.908516996154244,0.0,21.777677555085745,0.0,1.4,22.38,21.41,22.15,22.16,22.45,0.3,1.4,544.94,-1018.04,-793.92,0.0,320.0,0.0,45.0,0.0,0.0,0.0,0.0,0.0,0.0,0.0,0.0,0.0,0.0,0.0,0.0,0.0,0.0
148.0,1127.0,0.0,450.1525280896358,-0.0,0.0,1577.1525280896358,0.0,12032.743583632346,0.0,10829.092812107474,0.0,1203.650771524871,0.0,0.5191531548033947,0.4094163981382026,0.0,0.0,0.0,"[0.5108786967764836, 0.3381191390532692, 0.856166959273974, 0.24405719034993822, 0.5337245695933248, 0.24136295076193548, 0.37831320893311826, 0.22241698874356075, 0.3546801296664661]",21.49,0.0,0.0,0.0,234.7025344181721,77.45545257493464,-1395.2790930858848,328.8162802942287,3420.5185807205007,0.0,0.0,0.0,0.0,0.0,0.0,1.2,21.627336738223082,0.0,21.74267720009982,0.0,1.2,21.49,21.39,22.09,21.53,21.86,0.19,1.2,179.4,-984.47,-767.74,0.0,240.0,0.0,48.0,0.0,0.0,0.0,0.0,0.0,0.0,0.0,0.0,0.0,0.0,0.0,0.0,0.0,0.0
149.0,864.0,6336.715601992691,5441.032023982727,-0.0,0.0,0.0,0.0,14393.016513293385,0.0,0.0,0.0,14393.016513293387,0.0,0.5191531548033947,0.4094163981382026,0.0,0.0,0.0,"[0.5108786967764836, 0.3381191390532692, 0.856166959273974, 0.24405719034993822, 0.5337245695933248, 0.24136295076193548, 0.37831320893311826, 0.22241698874356075, 0.3546801296664661]",22.51,0.0,0.0,0.0,214.64793984077394,88.30807521921675,-1486.1761028574779,-1465.091298615729,0.0,0.0,0.0,0.0,0.0,0.0,0.0,0.9,21.96096729790944,0.0,21.802066871136063,0.0,0.9,22.51,21.41,22.19,22.25,22.55,-0.08,0.9,0.0,-1048.61,-817.76,0.0,240.0,20.0,31.0,0.0,0.0,0.0,0.0,0.0,0.0,0.0,0.0,0.0,0.0,0.0,0.0,0.0,0.0
150.0,594.0,41228.52763731693,28877.36459096708,-0.0,0.0,-11551.020408163267,0.0,18745.858855624992,0.0,-57367.3647025973,0.0,76113.2235582223,0.41925925925925933,0.7273754415017109,0.4094163981382026,0.0,0.0,0.0,"[0.5108786967764836, 0.3381191390532692, 0.856166959273974, 0.24405719034993822, 0.5337245695933248, 0.24136295076193548, 0.37831320893311826, 0.22241698874356075, 0.3546801296664661]",21.49,0.0,0.0,0.0,363.6046811895051,162.91590086124936,-1422.9572635746842,361.9579582229712,3200.151519230438,0.0,0.0,0.0,0.0,0.0,0.0,0.8,21.642714743469845,0.0,21.766601191753676,0.0,0.8,21.49,21.4,22.14,21.53,21.88,-0.12,0.8,0.0,-1004.0,-782.97,0.0,447.0,36.0,31.0,0.0,0.0,0.0,0.0,0.0,0.0,0.0,0.0,0.0,0.0,0.0,0.0,0.0,0.0
151.0,806.0,22226.763291095962,5309.62947464048,-0.0,0.0,-16000.0,0.0,13893.565881651426,0.0,0.0,0.0,13893.565881651426,1.0,0.7273754415017109,0.4094163981382026,0.0,0.0,0.0,"[0.5108786967764836, 0.3381191390532692, 0.856166959273974, 0.24405719034993822, 0.5337245695933248, 0.24136295076193548, 0.37831320893311826, 0.22241698874356075, 0.3546801296664661]",22.51,0.0,0.0,0.0,459.8383894442991,176.26810714663432,-1506.807046981177,-1431.29032817753,2314.1722907107273,0.0,0.0,0.0,0.0,0.0,0.0,0.6,21.974071053485176,0.0,21.823338569171803,0.0,0.6,22.51,21.42,22.23,22.26,22.58,-0.3,0.6,1584.55,-1063.16,-829.11,0.0,450.0,54.0,99.0,0.0,0.0,0.0,0.0,0.0,0.0,0.0,0.0,0.0,0.0,0.0,0.0,0.0,0.0
