,load_elec,grid,hp_elec,ev,pv,bat_pow,cool,load_th_sh,load_th_dhw,tes_pow,dh,hp_th,bat_soc,tes_soc,ev_soc,eh_th_in,eh_elec_in,eh_th_out,temp_slack,temp_zone_1,temp_zone_2,temp_update,Qsolar_1,QconvInt_1,QradInt_1,Qvent_1,Qconduc_1,Qheating_1,Qsolar_2,QconvInt_2,QradInt_2,Qvent_2,Qconduc_2,Qheating_2,temp_amb,temp_aggregate_1,temp_aggregate_2,temp_wall_1,temp_wall_2,_Tamb,_Tz_1,_TEW_1,_TIW_1,_T1_1,_T2_1,_Taeq_1,_Tvent_1,_Qheating_1,_Qinfvent_1,_Qenvelope_1,_Qsolar_1,_Qint_people_1,_Qint_lighting_1,_Qint_appliances_1,_Tz_2,_TEW_2,_TIW_2,_T1_2,_T2_2,_Taeq_2,_Tvent_2,_Qheating_2,_Qinfvent_2,_Qenvelope_2,_Qsolar_2,_Qint_people_2,_Qint_lighting_2,_Qint_appliances_2
8.0,967.0,0.0,10793.0,-0.0,0.0,11760.0,0.0,50603.8993964267,0.0,32651.442182143703,0.0,17952.457214283007,0.0,0.3611758410623142,0.8,0.0,0.0,0.0,"[2.0, 2.0, 2.0, 2.0, 2.0, 2.0, 2.0, 2.0]",20.0,0.0,0.0,1.0946031042211108,74.86463132059427,1.6679173438912216,-1247.6837248037693,-1753.6804361482152,2923.771012184107,0.0,0.0,0.0,0.0,0.0,0.0,-9.4,19.165290701529738,0.0,19.0,0.0,-9.4,20.0,18.0,20.0,20.0,20.0,-10.72,-9.4,1939.24,-870.79,-819.76,1.8,0.0,0.0,55.0,0.0,0.0,0.0,0.0,0.0,0.0,0.0,0.0,0.0,0.0,0.0,0.0,0.0,0.0
9.0,1832.0,1834.1282800330248,0.0,-0.0,7.042361367140277,0.0,0.0,40482.84138768563,0.0,40482.84138768563,0.0,0.0,0.0,0.18905491679494338,0.8,0.0,0.0,0.0,"[2.0, 2.0, 2.0, 2.0, 2.0, 2.0, 2.0, 2.0]",20.0,0.0,0.0,33.49794443942408,96.64343315931264,2.153129662114122,-1213.7331472580886,-1653.1616438976428,10975.470097530924,0.0,0.0,0.0,0.0,0.0,0.0,-8.6,19.213536337942333,0.0,19.06618443981127,0.0,-8.6,20.0,18.08,20.05,19.33,20.19,-9.71,-8.6,2374.74,-847.1,-797.45,55.23,0.0,0.0,71.0,0.0,0.0,0.0,0.0,0.0,0.0,0.0,0.0,0.0,0.0,0.0,0.0,0.0,0.0
10.0,5727.0,36162.734548550456,14628.570594978291,-0.0,373.6497191705939,-16000.0,0.0,26842.581120103314,0.0,0.0,0.0,26842.581120103314,0.6533333333333333,0.18905491679494338,0.7999999999999999,0.0,0.0,0.0,"[2.0, 2.0, 2.0, 2.0, 2.0, 2.0, 2.0, 2.0]",24.0,0.0,0.0,90.14282414463709,62.61405528631523,1.394985414890837,-1341.0478130543916,-6848.768074669315,8030.760200555183,0.0,0.0,0.0,0.0,0.0,0.0,-7.6,20.693740556161764,0.0,19.538131774088477,0.0,-7.6,24.0,18.35,20.73,21.96,22.86,-8.61,-7.6,1526.22,-935.95,-881.1,148.62,0.0,0.0,46.0,0.0,0.0,0.0,0.0,0.0,0.0,0.0,0.0,0.0,0.0,0.0,0.0,0.0,0.0
11.0,3875.0,0.0,9662.540067337686,-0.0,1061.8446185919502,12475.695448745737,0.0,18467.129949177895,0.0,0.0,0.0,18467.129949177892,0.12290410507033434,0.18905491679494338,0.7999999999999999,0.0,0.0,0.0,"[2.0, 2.0, 2.0, 2.0, 2.0, 2.0, 2.0, 2.0]",24.0,0.0,0.0,121.34070545080435,99.36578338915241,2.213781201891984,-1307.0972355087106,-6206.818810128513,4134.577174930247,0.0,0.0,0.0,0.0,0.0,0.0,-6.8,21.004772889184594,0.0,20.009244582634757,0.0,-6.8,24.0,18.65,21.37,21.88,22.94,-7.68,-6.8,8377.57,-912.26,-858.8,200.06,0.0,0.0,73.0,0.0,0.0,0.0,0.0,0.0,0.0,0.0,0.0,0.0,0.0,0.0,0.0,0.0,0.0
12.0,3660.0,0.0,0.0,-0.0,2495.195903424032,1164.8040965759678,0.0,22034.077475796574,0.0,22034.077475796574,0.0,0.0,0.07338012137237652,0.09537261460193074,0.7999999999999999,0.0,0.0,0.0,"[2.0, 2.0, 2.0, 2.0, 2.0, 2.0, 2.0, 2.0]",22.47,0.0,0.0,171.5327568304589,96.64343315931264,2.153129662114122,-1216.762919157189,-3623.7852634733595,3603.3672514158097,0.0,0.0,0.0,0.0,0.0,0.0,-6.2,20.728470599139893,0.0,20.259768133084222,0.0,-6.2,22.47,18.86,21.66,21.01,22.2,-6.96,-6.2,0.0,-849.21,-799.45,282.82,0.0,0.0,71.0,0.0,0.0,0.0,0.0,0.0,0.0,0.0,0.0,0.0,0.0,0.0,0.0,0.0,0.0
13.0,4291.0,23253.812919763997,12590.35083473355,-0.0,436.5387010611915,-6692.73172149282,0.0,24902.98089855547,0.0,0.0,0.0,24902.98089855547,0.3466666666666667,0.09537261460193074,0.7986690328305235,0.0,0.0,0.0,"[2.0, 2.0, 2.0, 2.0, 2.0, 2.0, 2.0, 2.0]",22.01,0.0,0.0,90.49207604114501,35.390552987917296,0.7884700171122129,-1192.7904538949429,-2723.8145242476667,0.0,0.0,0.0,0.0,0.0,0.0,0.0,-6.1,20.700132518025562,0.0,20.41098563232267,0.0,-6.1,22.01,19.01,21.81,20.87,22.11,-7.05,-6.1,0.0,-832.48,-783.7,149.2,0.0,0.0,26.0,0.0,0.0,0.0,0.0,0.0,0.0,0.0,0.0,0.0,0.0,0.0,0.0,0.0,0.0
14.0,3590.0,19789.268035703193,16105.027501743305,-0.0,4.705806218628434,0.0,0.0,31087.135861545485,0.0,0.0,0.0,31087.135861545485,0.3466666666666667,0.09537261460193074,0.7986690328305235,0.0,0.0,0.0,"[2.0, 2.0, 2.0, 2.0, 2.0, 2.0, 2.0, 2.0]",20.17,0.0,0.0,29.622677547194563,127.95046080247025,2.850622369559539,-1136.0586137398725,-111.58743774712926,8978.6547077116,0.0,0.0,0.0,0.0,0.0,0.0,-6.6,20.130365521122673,0.0,20.344737797101615,0.0,-6.6,20.17,19.07,21.62,19.76,20.95,-7.71,-6.6,1974.49,-792.89,-746.42,48.84,0.0,0.0,94.0,0.0,0.0,0.0,0.0,0.0,0.0,0.0,0.0,0.0,0.0,0.0,0.0,0.0,0.0
15.0,6763.0,10677.340703517588,0.0,-0.0,0.0,0.0,0.0,6987.822954374113,19304.77,22431.63895437411,0.0,0.0,0.3466666666666667,0.0,0.7986690328305235,15443.816,3860.954,19304.77,"[2.0, 2.0, 2.0, 2.0, 2.0, 2.0, 2.0, 2.0]",24.0,0.0,0.0,3.290337162061425,108.89400919359169,2.4260615911145034,-1328.3163464747613,-5272.39646127027,0.0,0.0,0.0,0.0,0.0,0.0,0.0,-7.3,21.458655106353277,0.0,20.652227335917704,0.0,-7.3,24.0,19.28,22.02,22.34,23.46,-8.48,-7.3,8718.5,-927.07,-872.74,5.42,0.0,0.0,80.0,0.0,0.0,0.0,0.0,0.0,0.0,0.0,0.0,0.0,0.0,0.0,0.0,0.0,0.0
16.0,5601.0,46380.982879749965,0.0,-0.0,0.0,-16000.0,0.0,22093.270168816092,0.0,0.0,0.0,0.0,1.0,0.0,0.7926796805678793,98192.31186140487,24548.077965351218,122740.38982675609,"[2.0, 2.0, 2.0, 2.0, 2.0, 2.0, 2.0, 2.0]",20.85,0.0,0.0,0.0,113.12081612939559,55.223226967743905,-1190.4951962372377,-660.7953115040663,8172.157233948282,0.0,0.0,0.0,0.0,0.0,0.0,-7.2,20.54727641968657,0.0,20.652134710344292,0.0,-7.2,20.85,19.37,21.93,20.2,21.34,-8.36,-7.2,0.0,-830.88,-782.19,0.0,106.0,41.0,23.0,0.0,0.0,0.0,0.0,0.0,0.0,0.0,0.0,0.0,0.0,0.0,0.0,0.0,0.0
17.0,6229.0,0.0,9771.0,-0.0,0.0,16000.0,0.0,18488.11962511521,0.0,0.0,0.0,18488.11962511521,0.3197278911564626,0.0,0.7926796805678793,0.0,0.0,0.0,"[2.0, 2.0, 2.0, 2.0, 2.0, 2.0, 2.0, 2.0]",24.0,0.0,0.0,0.0,295.733203915228,119.84744260105649,-1315.5848798951308,-4857.474139430945,0.0,0.0,0.0,0.0,0.0,0.0,0.0,-7.0,21.65983444996128,0.0,20.935090921313503,0.0,-7.0,24.0,19.58,22.29,22.45,23.56,-8.15,-7.0,5205.12,-918.18,-864.37,0.0,92.0,160.0,152.0,0.0,0.0,0.0,0.0,0.0,0.0,0.0,0.0,0.0,0.0,0.0,0.0,0.0,0.0
18.0,6532.0,1866.9611889128912,2845.6263829683276,-0.0,0.0,7520.000000000001,0.0,5411.457466799395,0.0,0.0,0.0,5411.457466799395,0.0,0.0,0.7826974267968057,0.0,0.0,0.0,"[2.0, 2.0, 2.0, 2.0, 2.0, 2.0, 2.0, 2.0]",21.2,0.0,0.0,0.0,1230.7172262741524,111.62915896115611,-1192.6274882812559,-750.5427301936975,0.0,0.0,0.0,0.0,0.0,0.0,0.0,-6.9,20.853996727154207,0.0,20.939747125903015,0.0,-6.9,21.2,19.67,22.21,20.56,21.69,-8.06,-6.9,0.0,-832.37,-783.59,0.0,142.0,80.0,821.0,0.0,0.0,0.0,0.0,0.0,0.0,0.0,0.0,0.0,0.0,0.0,0.0,0.0,0.0
19.0,5681.0,19740.480416128055,2863.597403471429,-0.0,0.0,-11097.180610575986,0.0,5472.932065844044,0.0,0.0,0.0,5472.932065844043,0.4531348749318528,0.0,0.7787045252883762,0.0,0.0,0.0,"[2.0, 2.0, 2.0, 2.0, 2.0, 2.0, 2.0, 2.0]",20.91,0.0,0.0,0.0,515.8853685546405,11.493466787904964,-1175.8786717540222,-419.76930400169647,0.0,0.0,0.0,0.0,0.0,0.0,0.0,-6.8,20.719633053749654,0.0,20.85037735687112,0.0,-6.8,20.91,19.7,22.01,20.43,21.47,-7.94,-6.8,0.0,-820.68,-772.58,0.0,0.0,0.0,379.0,0.0,0.0,0.0,0.0,0.0,0.0,0.0,0.0,0.0,0.0,0.0,0.0,0.0,0.0
20.0,5499.0,6746.779744089527,1214.0458453690799,-0.0,0.0,0.0,0.0,2343.4426382102165,0.0,0.0,0.0,2343.4426382102165,0.4531348749318528,0.0,0.7787045252883762,0.0,0.0,0.0,"[1.6107212698859321, 1.3433261293075311, 0.8606998377656829, 1.5633824851838334, 0.8888623762045498, 0.6974316258203075, 1.3845883120325198, 2.0]",20.39,0.0,0.0,0.0,288.569124363018,6.429063216453437,-1145.377000535914,197.43293308340898,1505.2205599458732,0.0,0.0,0.0,0.0,0.0,0.0,-6.6,20.50003406207215,0.0,20.732898036613282,0.0,-6.6,20.39,19.7,21.77,20.17,21.13,-7.74,-6.6,0.0,-799.39,-752.54,0.0,0.0,0.0,212.0,0.0,0.0,0.0,0.0,0.0,0.0,0.0,0.0,0.0,0.0,0.0,0.0,0.0,0.0
21.0,5174.0,0.0,4932.4230482037365,-0.0,0.0,10106.423048203736,0.0,9567.956396618198,0.0,0.0,0.0,9567.956396618198,0.023440017440197358,0.0,0.7560780834072759,0.0,0.0,0.0,"[1.6107212698859321, 1.3433261293075311, 0.8606998377656829, 1.5633824851838334, 0.8888623762045498, 0.6974316258203075, 1.3845883120325198, 2.0]",20.8,0.0,0.0,0.0,245.79956943632445,46.97461755795458,-1158.6778176983453,-467.90320586302744,484.58234556467346,0.0,0.0,0.0,0.0,0.0,0.0,-6.5,20.590760550835395,0.0,20.675847122187687,0.0,-6.5,20.8,19.72,21.63,20.48,21.36,-7.67,-6.5,679.2,-808.67,-761.28,0.0,135.0,5.0,109.0,0.0,0.0,0.0,0.0,0.0,0.0,0.0,0.0,0.0,0.0,0.0,0.0,0.0,0.0
22.0,5225.0,44905.211526854306,37973.02139954094,-0.0,0.0,-1482.6640696790898,0.0,23698.651337415075,0.0,-50685.75714099881,0.0,74384.40847841388,0.0839821336187602,0.2069668416590785,0.7560780834072759,0.0,0.0,0.0,"[1.6107212698859321, 1.3433261293075311, 0.8606998377656829, 1.5633824851838334, 0.8888623762045498, 0.6974316258203075, 1.3845883120325198, 2.0]",20.39,0.0,0.0,0.0,389.51100525365666,66.80767106531566,-1132.6455339562835,41.65015523906806,7276.77228707251,0.0,0.0,0.0,0.0,0.0,0.0,-6.3,20.424336433760832,0.0,20.59672035523848,0.0,-6.3,20.39,19.72,21.47,20.21,21.03,-7.55,-6.3,4137.8,-790.5,-744.18,0.0,157.0,24.0,201.0,0.0,0.0,0.0,0.0,0.0,0.0,0.0,0.0,0.0,0.0,0.0,0.0,0.0,0.0
23.0,3484.0,10379.725858670741,6843.827229377388,-0.0,0.0,0.0,0.0,13471.447483816322,0.0,0.0,0.0,13471.447483816324,0.0839821336187602,0.2069668416590785,0.7560780834072759,0.0,0.0,0.0,"[1.6107212698859321, 1.3433261293075311, 0.8606998377656829, 1.5633824851838334, 0.8888623762045498, 0.6974316258203075, 1.3845883120325198, 2.0]",23.61,0.0,0.0,0.0,313.9299659778413,43.001941702504574,-1265.114005207423,-4306.77702298364,147.975701660098,0.0,0.0,0.0,0.0,0.0,0.0,-6.2,21.53719711155734,0.0,20.853555094048865,0.0,-6.2,23.61,19.88,21.83,22.32,23.09,-7.41,-6.2,237.76,-882.96,-831.21,0.0,80.0,24.0,186.0,0.0,0.0,0.0,0.0,0.0,0.0,0.0,0.0,0.0,0.0,0.0,0.0,0.0,0.0
24.0,1580.0,0.0,395.2597827132399,-0.0,0.0,1975.25978271324,0.0,781.800836853591,0.0,0.0,0.0,781.800836853591,0.0,0.2069668416590785,0.7560780834072759,0.0,0.0,0.0,"[1.6107212698859321, 1.3433261293075311, 0.8606998377656829, 1.5633824851838334, 0.8888623762045498, 0.6974316258203075, 1.3845883120325198, 2.0]",21.15,0.0,0.0,0.0,224.73717555282707,48.61220913195687,-1156.467428035325,-682.9457478542304,0.0,0.0,0.0,0.0,0.0,0.0,0.0,-6.1,20.834328272973025,0.0,20.87156035627698,0.0,-6.1,21.15,19.94,21.8,20.62,21.45,-7.34,-6.1,4548.01,-807.13,-759.83,0.0,80.0,38.0,119.0,0.0,0.0,0.0,0.0,0.0,0.0,0.0,0.0,0.0,0.0,0.0,0.0,0.0,0.0
25.0,1632.0,10954.902598949535,0.0,-0.0,0.0,-9268.128085954788,0.0,12309.535326507055,0.0,12309.535326507057,0.0,0.0,0.3784485635098205,0.1546303819375349,0.7560780834072759,0.0,0.0,0.0,"[1.6107212698859321, 1.3433261293075311, 0.8606998377656829, 1.5633824851838334, 0.8888623762045498, 0.6974316258203075, 1.3845883120325198, 2.0]",20.39,0.0,0.0,0.0,230.18187601250662,38.42275044927596,-1119.9140673766533,312.43629435417176,541.0676891797904,0.0,0.0,0.0,0.0,0.0,0.0,-6.0,20.555528460254564,0.0,20.776499742296117,0.0,-6.0,20.39,19.94,21.62,20.29,21.08,-7.14,-6.0,3794.71,-781.62,-735.81,0.0,80.0,19.0,125.0,0.0,0.0,0.0,0.0,0.0,0.0,0.0,0.0,0.0,0.0,0.0,0.0,0.0,0.0
26.0,1279.0,0.0,0.0,-0.0,0.0,1279.0,0.0,36369.0658317082,0.0,36369.065831708205,0.0,0.0,0.3240693118091402,0.0,0.7560780834072758,0.0,0.0,0.0,"[1.6107212698859321, 1.3433261293075311, 0.8606998377656829, 1.5633824851838334, 0.8888623762045498, 0.6974316258203075, 1.3845883120325198, 2.0]",20.39,0.0,0.0,0.0,175.73487141571078,26.89895789148206,-1107.1826007970228,200.37765389977255,1707.4032356383525,0.0,0.0,0.0,0.0,0.0,0.0,-5.7,20.50097661792674,0.0,20.685125656463867,0.0,-5.7,20.39,19.92,21.45,20.31,21.04,-6.82,-5.7,3585.28,-772.73,-727.45,0.0,80.0,0.0,87.0,0.0,0.0,0.0,0.0,0.0,0.0,0.0,0.0,0.0,0.0,0.0,0.0,0.0,0.0
27.0,673.0,0.0,6949.110213750979,-0.0,0.0,7622.110213750979,0.0,14142.423403839726,0.0,0.0,0.0,14142.423403839726,0.0,0.0,0.7560780834072758,0.0,0.0,0.0,"[1.6107212698859321, 1.3433261293075311, 0.8606998377656829, 1.5633824851838334, 0.8888623762045498, 0.6974316258203075, 1.3845883120325198, 2.0]",20.88,0.0,0.0,0.0,92.70318940559713,25.049085928257252,-1119.324416020424,-535.5513072883329,7175.138196460895,0.0,0.0,0.0,0.0,0.0,0.0,-5.5,20.63008301685066,0.0,20.659371126157144,0.0,-5.5,20.88,19.93,21.38,20.63,21.29,-6.59,-5.5,3250.59,-781.21,-735.43,0.0,80.0,0.0,26.0,0.0,0.0,0.0,0.0,0.0,0.0,0.0,0.0,0.0,0.0,0.0,0.0,0.0,0.0
28.0,721.0,64450.35354745896,54917.30586135432,-0.0,0.0,-8489.795918367347,0.0,32288.03823526479,0.0,-80000.0,0.0,112288.03823526479,0.3466666666666667,0.3266666666666667,0.7560780834072758,0.0,0.0,0.0,"[1.6107212698859321, 1.3433261293075311, 0.8606998377656829, 1.5633824851838334, 0.8888623762045498, 0.6974316258203075, 1.3845883120325198, 2.0]",23.61,0.0,0.0,0.0,215.8537169080867,35.390173460382826,-1231.1634276617422,-4160.9173790901505,5142.858251218835,0.0,0.0,0.0,0.0,0.0,0.0,-5.4,21.607483858324564,0.0,20.929412525047873,0.0,-5.4,23.61,20.09,21.77,22.39,23.06,-6.47,-5.4,104.05,-859.26,-808.91,0.0,80.0,14.0,115.0,0.0,0.0,0.0,0.0,0.0,0.0,0.0,0.0,0.0,0.0,0.0,0.0,0.0,0.0
29.0,960.0,13315.718963197876,12289.140368381886,-0.0,0.0,0.0,0.0,25361.60945228707,0.0,0.0,0.0,25361.60945228707,0.3466666666666667,0.3266666666666667,0.7560780834072758,0.0,0.0,0.0,"[1.6107212698859321, 1.3433261293075311, 0.8606998377656829, 1.5633824851838334, 0.8888623762045498, 0.6974316258203075, 1.3845883120325198, 2.0]",23.61,0.0,0.0,0.0,141.7771343382355,41.87988821661412,-1222.675783275322,-3792.502382865541,4833.913143078481,0.0,0.0,0.0,0.0,0.0,0.0,-5.2,21.786159820551298,0.0,21.200436782595972,0.0,-5.2,23.61,20.26,22.15,22.31,23.05,-6.27,-5.2,1406.62,-853.34,-803.33,0.0,80.0,29.0,59.0,0.0,0.0,0.0,0.0,0.0,0.0,0.0,0.0,0.0,0.0,0.0,0.0,0.0,0.0
30.0,3084.0,19179.899497487437,0.0,-0.0,0.0,-16000.0,0.0,11842.2969752079,0.0,11842.2969752079,0.0,0.0,1.0,0.2763167645611909,0.7560780834072758,0.0,0.0,0.0,"[1.6107212698859321, 1.3433261293075311, 0.8606998377656829, 1.5633824851838334, 0.8888623762045498, 0.6974316258203075, 1.3845883120325198, 2.0]",23.61,0.0,0.0,0.0,1159.7211979117517,110.74971163437712,-1218.4319610821117,-3468.1569567601214,0.0,0.0,0.0,0.0,0.0,0.0,0.0,-5.1,21.943511437417936,0.0,21.43651663545457,0.0,-5.1,23.61,20.42,22.46,22.39,23.22,-6.18,-5.1,845.94,-850.38,-800.54,0.0,169.0,67.0,756.0,0.0,0.0,0.0,0.0,0.0,0.0,0.0,0.0,0.0,0.0,0.0,0.0,0.0,0.0
31.0,1400.0,6521.996404474914,5089.38642245254,-0.0,0.0,0.0,0.0,10600.215531429509,0.0,0.0,0.0,10600.215531429509,1.0,0.2763167645611909,0.7560780834072758,0.0,0.0,0.0,"[1.6107212698859321, 1.3433261293075311, 0.8606998377656829, 1.5633824851838334, 0.8888623762045498, 0.6974316258203075, 1.3845883120325198, 2.0]",21.95,0.0,0.0,0.0,250.16965796317248,84.54824645034047,-1143.704501457975,-1017.6361549523425,5253.895341561192,0.0,0.0,0.0,0.0,0.0,0.0,-5.0,21.470909821981557,0.0,21.447333613188015,0.0,-5.0,21.95,20.48,22.42,21.28,22.12,-6.06,-5.0,3853.24,-798.22,-751.44,0.0,137.0,73.0,104.0,0.0,0.0,0.0,0.0,0.0,0.0,0.0,0.0,0.0,0.0,0.0,0.0,0.0,0.0
32.0,1012.0,0.0,0.0,-0.0,0.0,1012.0,0.0,617.925866145236,0.0,617.925866145236,0.0,0.0,0.9139455782312926,0.2710622929102961,0.7560780834072758,0.0,0.0,0.0,"[1.6107212698859321, 1.3152111360367655, 0.8606998377656829, 0.5922126727250046, 0.46527849230666973, 0.4814371724471229, 1.0314254171470907, 1.3119920159037015]",23.61,0.0,0.0,1.0945238934892365,156.46349742026592,82.36479101833741,-1205.7004945024814,-3189.232712116538,0.0,0.0,0.0,0.0,0.0,0.0,0.0,-4.8,22.07870759716085,0.0,21.62735145487661,0.0,-4.8,23.61,20.61,22.64,22.56,23.41,-5.87,-4.8,0.0,-841.49,-792.18,1.8,114.0,85.0,46.0,0.0,0.0,0.0,0.0,0.0,0.0,0.0,0.0,0.0,0.0,0.0,0.0,0.0,0.0
33.0,802.0,4886.742286665269,0.0,-0.0,6.685424768058948,0.0,0.0,24054.1726028904,20334.97,40322.148602890404,0.0,0.0,0.9139455782312926,0.09962458626535392,0.7560780834072758,16267.976000000002,4066.9940000000006,20334.97,"[1.6107212698859321, 1.3152111360367655, 0.8606998377656829, 0.5922126727250046, 0.46527849230666973, 0.4814371724471229, 1.0314254171470907, 1.3119920159037015]",21.59,0.0,0.0,33.473627286733084,393.3079674163279,68.83949764787404,-1077.5961391100705,-262.052363921642,5005.743084268663,0.0,0.0,0.0,0.0,0.0,0.0,-3.8,21.47886912411811,0.0,21.603649447176746,0.0,-3.8,21.59,20.65,22.55,21.23,22.09,-4.62,-3.8,302.53,-752.08,-708.01,55.19,109.0,53.0,226.0,0.0,0.0,0.0,0.0,0.0,0.0,0.0,0.0,0.0,0.0,0.0,0.0,0.0,0.0
34.0,4011.0,0.0,8113.417980729604,-0.0,116.4783587925412,12007.939621937063,0.0,10432.55057342835,0.0,-8245.139721687916,0.0,18677.69029511627,0.40340392763873045,0.13329224012891291,0.7560780834072758,0.0,0.0,0.0,"[1.6107212698859321, 1.3152111360367655, 0.8606998377656829, 0.5922126727250046, 0.46527849230666973, 0.4814371724471229, 1.0314254171470907, 1.3119920159037015]",23.61,0.0,0.0,64.93338646151477,1360.1005029870648,78.08885746399811,-1116.5802284450695,-2987.9010152092847,0.0,0.0,0.0,0.0,0.0,0.0,0.0,-2.7,22.175090298514178,0.0,21.758294004225263,0.0,-2.7,23.61,20.77,22.75,22.63,23.46,-3.39,-2.7,3430.0,-779.29,-733.62,107.06,155.0,6.0,917.0,0.0,0.0,0.0,0.0,0.0,0.0,0.0,0.0,0.0,0.0,0.0,0.0,0.0,0.0
35.0,3670.0,20786.368350126588,2980.782257817919,-0.0,578.8618072689733,-14610.51605782701,0.0,7146.14908411977,0.0,0.0,0.0,7146.14908411977,1.0,0.13329224012891291,0.7560780834072758,0.0,0.0,0.0,"[1.6107212698859321, 1.3152111360367655, 0.8606998377656829, 0.5922126727250046, 0.46527849230666973, 0.4814371724471229, 1.0314254171470907, 1.3119920159037015]",22.35,0.0,0.0,99.12880083229989,123.86693545771055,2.7596450598927467,-1020.55068602461,-1114.3890945488392,0.0,0.0,0.0,0.0,0.0,0.0,0.0,-1.7,21.820174507236377,0.0,21.770869945590327,0.0,-1.7,22.35,20.83,22.71,21.65,22.47,-2.22,-1.7,325.56,-712.27,-670.53,163.44,0.0,0.0,91.0,0.0,0.0,0.0,0.0,0.0,0.0,0.0,0.0,0.0,0.0,0.0,0.0,0.0,0.0
36.0,3726.0,2917.3175872307575,0.0,-0.0,823.2690007053959,0.0,0.0,4329.595765639178,0.0,4329.595765639179,0.0,0.0,1.0,0.11488409486684156,0.7560780834072758,0.0,0.0,0.0,"[1.6107212698859321, 1.3152111360367655, 0.8606998377656829, 0.5922126727250046, 0.46527849230666973, 0.4814371724471229, 1.0314254171470907, 1.3119920159037015]",21.42,0.0,0.0,108.69247456941935,138.83986172182938,3.093228528670989,-951.6343728491815,152.55305216354003,0.0,0.0,0.0,0.0,0.0,0.0,0.0,-1.0,21.51036517676997,0.0,21.700568972141546,0.0,-1.0,21.42,20.85,22.55,21.25,22.07,-1.8,-1.0,3364.07,-664.17,-625.25,179.21,0.0,0.0,102.0,0.0,0.0,0.0,0.0,0.0,0.0,0.0,0.0,0.0,0.0,0.0,0.0,0.0,0.0
37.0,3513.0,0.0,0.0,-0.0,236.41870074560683,3276.5812992543933,0.0,11714.109518610978,0.0,11714.109518610978,0.0,0.0,0.8606895706099322,0.06507920745778129,0.7560780834072758,0.0,0.0,0.0,"[1.6107212698859321, 1.3152111360367655, 0.8606998377656829, 0.5922126727250046, 0.46527849230666973, 0.4814371724471229, 1.0314254171470907, 1.3119920159037015]",21.16,0.0,0.0,76.87009282603792,310.3479262017364,6.914275534676336,-927.7266232544965,415.9574035869991,5162.58023844318,0.0,0.0,0.0,0.0,0.0,0.0,-0.7,21.374630929727402,0.0,21.60165685337754,0.0,-0.7,21.16,20.84,22.37,21.13,21.88,-1.68,-0.7,0.0,-647.48,-609.54,126.74,0.0,0.0,228.0,0.0,0.0,0.0,0.0,0.0,0.0,0.0,0.0,0.0,0.0,0.0,0.0,0.0,0.0
38.0,3455.0,3472.131383991266,0.0,-0.0,0.22927292869037352,0.0,0.0,7600.4285724464735,0.0,7600.4285724464735,0.0,0.0,0.8606895706099322,0.03276446012595104,0.7560780834072758,0.0,0.0,0.0,"[1.6107212698859321, 1.3152111360367655, 0.8606998377656829, 0.5922126727250046, 0.46527849230666973, 0.4814371724471229, 1.0314254171470907, 1.3119920159037015]",23.61,0.0,0.0,18.91370749327213,76.22580643551417,1.6982431137801528,-1057.166717740128,-2939.2550702897515,0.0,0.0,0.0,0.0,0.0,0.0,0.0,-1.3,22.198162136486495,0.0,21.76049170779584,0.0,-1.3,23.61,20.94,22.58,22.71,23.4,-2.38,-1.3,3720.53,-737.82,-694.59,31.18,0.0,0.0,56.0,0.0,0.0,0.0,0.0,0.0,0.0,0.0,0.0,0.0,0.0,0.0,0.0,0.0,0.0
39.0,2899.0,2913.56783919598,0.0,-0.0,0.0,0.0,0.0,7706.201021623685,0.0,7706.201021623685,0.0,0.0,0.8606895706099322,0.0,0.7161490683229812,0.0,0.0,0.0,"[1.6107212698859321, 1.3152111360367655, 0.8606998377656829, 0.5922126727250046, 0.46527849230666973, 0.4814371724471229, 1.0314254171470907, 1.3119920159037015]",21.72,0.0,0.0,2.1857252721944502,119.78341011295086,2.668667750225954,-1002.3393079843806,-194.71379055292314,0.0,0.0,0.0,0.0,0.0,0.0,0.0,-1.9,21.637472996167638,0.0,21.742646975123236,0.0,-1.9,21.72,20.97,22.51,21.42,22.12,-3.08,-1.9,0.0,-699.56,-658.56,3.6,0.0,0.0,88.0,0.0,0.0,0.0,0.0,0.0,0.0,0.0,0.0,0.0,0.0,0.0,0.0,0.0,0.0
40.0,3757.0,0.0,387.1526918180728,-0.0,0.0,4144.1526918180725,0.0,913.3993000291223,0.0,0.0,0.0,913.3993000291223,0.6844926024203883,0.0,0.7161490683229812,0.0,0.0,0.0,"[1.6107212698859321, 1.3152111360367655, 0.8606998377656829, 0.5922126727250046, 0.46527849230666973, 0.4814371724471229, 1.0314254171470907, 1.3119920159037015]",21.2,0.0,0.0,0.0,42.196428562516786,0.940098866556867,-988.7404405561477,442.8633155684123,0.0,0.0,0.0,0.0,0.0,0.0,0.0,-2.1,21.426293392951756,0.0,21.64502663909616,0.0,-2.1,21.2,20.96,22.33,21.18,21.84,-3.33,-2.1,593.89,-690.07,-649.63,0.0,0.0,0.0,31.0,0.0,0.0,0.0,0.0,0.0,0.0,0.0,0.0,0.0,0.0,0.0,0.0,0.0,0.0
41.0,5692.0,44215.41327748098,30575.624433633697,-0.0,0.0,-7726.711777459877,0.0,11513.086123002156,0.0,-60040.217609735184,0.0,71553.30373273735,1.0,0.2451642219064187,0.710159716060337,0.0,0.0,0.0,"[1.6107212698859321, 1.3152111360367655, 0.8606998377656829, 0.5922126727250046, 0.46527849230666973, 0.4814371724471229, 1.0314254171470907, 1.3119920159037015]",20.95,0.0,0.0,0.0,111.61635942343149,2.4867131308923653,-986.8732697375713,654.7076147249084,692.735957592283,0.0,0.0,0.0,0.0,0.0,0.0,-2.3,21.28506597403687,0.0,21.53189985770031,0.0,-2.3,20.95,20.93,22.14,21.05,21.64,-3.51,-2.3,0.0,-688.76,-648.4,0.0,0.0,0.0,82.0,0.0,0.0,0.0,0.0,0.0,0.0,0.0,0.0,0.0,0.0,0.0,0.0,0.0,0.0
42.0,8568.0,486.52704848725205,3586.0944132448176,-0.0,0.0,11670.000000000004,0.0,8323.83014347131,0.0,0.0,0.0,8323.83014347131,0.5038265306122448,0.2451642219064187,0.710159716060337,0.0,0.0,0.0,"[1.6107212698859321, 1.3152111360367655, 0.8606998377656829, 0.5922126727250046, 0.46527849230666973, 0.4814371724471229, 1.0314254171470907, 1.3119920159037015]",21.18,0.0,0.0,0.0,115.69988476819118,2.5776904405591576,-1005.1336670417119,220.172836926524,5666.162170099068,0.0,0.0,0.0,0.0,0.0,0.0,-2.5,21.30477775914533,0.0,21.45458220209826,0.0,-2.5,21.18,20.9,22.01,21.18,21.72,-3.85,-2.5,3270.05,-701.51,-660.4,0.0,0.0,0.0,85.0,0.0,0.0,0.0,0.0,0.0,0.0,0.0,0.0,0.0,0.0,0.0,0.0,0.0,0.0
43.0,6343.0,0.0,0.0,-0.0,0.0,6343.0,0.0,0.0,0.0,0.0,0.0,0.0,0.23414115646258502,0.2451642219064187,0.646938775510204,0.0,0.0,0.0,"[1.6107212698859321, 1.3152111360367655, 0.8606998377656829, 0.5922126727250046, 0.46527849230666973, 0.4814371724471229, 1.0314254171470907, 1.3119920159037015]",23.61,0.0,0.0,0.0,13.611751149198955,0.3032576988893121,-1116.5802284450695,-3067.37897493042,0.0,0.0,0.0,0.0,0.0,0.0,0.0,-2.7,22.136887798862933,0.0,21.64198144716848,0.0,-2.7,23.61,21.0,22.28,22.74,23.26,-4.08,-2.7,1996.09,-779.29,-733.62,0.0,0.0,0.0,10.0,0.0,0.0,0.0,0.0,0.0,0.0,0.0,0.0,0.0,0.0,0.0,0.0,0.0,0.0
44.0,5507.0,21615.075376884422,0.0,-0.0,0.0,-16000.0,0.0,2292.2721694719576,0.0,2292.2721694719576,0.0,0.0,0.6533333333333333,0.2256721116217932,0.6469387755102036,0.0,0.0,0.0,"[0.7738795582909468, 0.49608636995648325, 0.17513450579060574, 0.1682288426363172, 0.46527849230666973, 0.4814371724471229, 0.7178312989390783, 0.7059720698353864]",21.59,0.0,0.0,0.0,351.89958760455426,69.38536150587483,-1039.187390348012,-121.91129243057561,0.0,0.0,0.0,0.0,0.0,0.0,0.0,-2.9,21.541605024244205,0.0,21.633981854767697,0.0,-2.9,21.59,21.02,22.25,21.36,21.92,-4.2,-2.9,0.0,-725.28,-682.77,0.0,167.0,25.0,168.0,0.0,0.0,0.0,0.0,0.0,0.0,0.0,0.0,0.0,0.0,0.0,0.0,0.0,0.0
45.0,4919.0,9742.389163644126,0.0,-0.0,0.0,-4774.677217825907,0.0,14031.075204352348,0.0,14031.07520435235,0.0,0.0,0.8482993197278912,0.1660161796304992,0.6469387755102036,0.0,0.0,0.0,"[0.7738795582909468, 0.49608636995648325, 0.17513450579060574, 0.1682288426363172, 0.46527849230666973, 0.4814371724471229, 0.7178312989390783, 0.7059720698353864]",21.23,0.0,0.0,0.0,652.1461616376744,75.11693201488283,-1032.3572980522677,304.58782942429866,3194.1934007054006,0.0,0.0,0.0,0.0,0.0,0.0,-3.1,21.387553371644074,0.0,21.55559551259705,0.0,-3.1,21.23,21.0,22.11,21.21,21.75,-4.41,-3.1,0.0,-720.51,-678.29,0.0,107.0,55.0,417.0,0.0,0.0,0.0,0.0,0.0,0.0,0.0,0.0,0.0,0.0,0.0,0.0,0.0,0.0
46.0,3773.0,8968.550066794933,5150.7073164609565,-0.0,0.0,0.0,0.0,11562.690839527215,0.0,0.0,0.0,11562.690839527213,0.8482993197278912,0.1660161796304992,0.6469387755102036,0.0,0.0,0.0,"[0.7738795582909468, 0.49608636995648325, 0.17513450579060574, 0.1682288426363172, 0.46527849230666973, 0.4814371724471229, 0.7178312989390783, 0.7059720698353864]",22.77,0.0,0.0,0.0,487.87381750549963,79.75677480788931,-1106.5290873256226,-1844.2194098635769,2387.6732695863,0.0,0.0,0.0,0.0,0.0,0.0,-3.3,21.893508457398,0.0,21.635536563266008,0.0,-3.3,22.77,21.04,22.23,22.2,22.69,-4.7,-3.3,0.0,-772.28,-727.02,0.0,134.0,56.0,282.0,0.0,0.0,0.0,0.0,0.0,0.0,0.0,0.0,0.0,0.0,0.0,0.0,0.0,0.0
47.0,2796.0,0.0,0.0,-0.0,0.0,2796.0,0.0,12309.06501680705,0.0,12309.06501680705,0.0,0.0,0.729421768707483,0.11368171952502704,0.6469387755102036,0.0,0.0,0.0,"[0.7738795582909468, 0.49608636995648325, 0.17513450579060574, 0.1682288426363172, 0.46527849230666973, 0.4814371724471229, 0.7178312989390783, 0.7059720698353864]",22.77,0.0,0.0,0.0,335.06400065686074,59.52948629197215,-1110.7729095188329,-1712.4183096935355,2431.997801056955,0.0,0.0,0.0,0.0,0.0,0.0,-3.4,21.957516871228698,0.0,21.732411111929224,0.0,-3.4,22.77,21.11,22.36,22.16,22.68,-4.79,-3.4,3242.45,-775.24,-729.81,0.0,83.0,52.0,197.0,0.0,0.0,0.0,0.0,0.0,0.0,0.0,0.0,0.0,0.0,0.0,0.0,0.0,0.0
48.0,1905.0,1914.572864321608,0.0,-0.0,0.0,0.0,0.0,15441.906282763031,0.0,15441.90628276303,0.0,0.0,0.729421768707483,0.048027356077905314,0.6469387755102036,0.0,0.0,0.0,"[0.7738795582909468, 0.49608636995648325, 0.17513450579060574, 0.1682288426363172, 0.46527849230666973, 0.4814371724471229, 0.7178312989390783, 0.7059720698353864]",22.77,0.0,0.0,0.0,298.16899096297936,44.82148789584047,-1161.6987758373539,-1594.873283138369,2416.1415911595323,0.0,0.0,0.0,0.0,0.0,0.0,-4.6,22.01517434466028,0.0,21.81890066189215,0.0,-4.6,22.77,21.16,22.47,22.2,22.75,-5.94,-4.6,2642.92,-810.78,-763.27,0.0,80.0,28.0,174.0,0.0,0.0,0.0,0.0,0.0,0.0,0.0,0.0,0.0,0.0,0.0,0.0,0.0,0.0
49.0,2042.0,2052.261306532663,0.0,-0.0,0.0,0.0,0.0,11296.03414952333,0.0,11296.03414952333,0.0,0.0,0.729421768707483,0.0,0.6303016858917475,0.0,0.0,0.0,"[0.7738795582909468, 0.49608636995648325, 0.17513450579060574, 0.1682288426363172, 0.46527849230666973, 0.4814371724471229, 0.7178312989390783, 0.7059720698353864]",22.77,0.0,0.0,0.0,352.6876363552973,30.841307977043133,-1212.624642155875,-1492.242515720803,331.64441961741517,0.0,0.0,0.0,0.0,0.0,0.0,-5.8,22.065609321387,0.0,21.89407779804168,0.0,-5.8,22.77,21.22,22.57,22.23,22.81,-7.13,-5.8,0.0,-846.32,-796.73,0.0,80.0,0.0,217.0,0.0,0.0,0.0,0.0,0.0,0.0,0.0,0.0,0.0,0.0,0.0,0.0,0.0,0.0
50.0,1020.0,3732.341467953727,2693.679760613958,-0.0,0.0,0.0,0.0,5096.824649061771,0.0,0.0,0.0,5096.82464906177,0.729421768707483,0.0,0.6303016858917475,0.0,0.0,0.0,"[0.7738795582909468, 0.49608636995648325, 0.17513450579060574, 0.1682288426363172, 0.46527849230666973, 0.4814371724471229, 0.7178312989390783, 0.7059720698353864]",21.81,0.0,0.0,0.0,128.09374239351445,25.837555945369466,-1222.5374100229785,-127.85950984071988,0.0,0.0,0.0,0.0,0.0,0.0,0.0,-7.0,21.76146428567197,0.0,21.857827017124986,0.0,-7.0,21.81,21.22,22.5,21.61,22.2,-8.4,-7.0,451.54,-853.24,-803.24,0.0,80.0,0.0,52.0,0.0,0.0,0.0,0.0,0.0,0.0,0.0,0.0,0.0,0.0,0.0,0.0,0.0,0.0
51.0,1118.0,0.0,14882.0,-0.0,0.0,16000.0,0.0,9430.057621999607,0.0,-17877.551801337242,0.0,27307.60942333685,0.04914965986394557,0.07300000318879375,0.6303016858917475,0.0,0.0,0.0,"[0.7738795582909468, 0.49608636995648325, 0.17513450579060574, 0.1682288426363172, 0.46527849230666973, 0.4814371724471229, 0.7178312989390783, 0.7059720698353864]",21.23,0.0,0.0,0.0,155.03068150982398,35.66310538938321,-1223.3292967467219,591.0159535224396,443.6564798610316,0.0,0.0,0.0,0.0,0.0,0.0,-7.6,21.529004175209852,0.0,21.7589361202717,0.0,-7.6,21.23,21.18,22.34,21.31,21.88,-9.03,-7.6,2947.64,-853.79,-803.76,0.0,80.0,17.0,70.0,0.0,0.0,0.0,0.0,0.0,0.0,0.0,0.0,0.0,0.0,0.0,0.0,0.0,0.0
52.0,1156.0,0.0,0.0,-0.0,0.0,1156.0,0.0,10745.703639392012,0.0,10745.703639392013,0.0,0.0,0.0,0.027312487715188252,0.6303016858917475,0.0,0.0,0.0,"[0.7738795582909468, 0.49608636995648325, 0.17513450579060574, 0.1682288426363172, 0.46527849230666973, 0.4814371724471229, 0.7178312989390783, 0.7059720698353864]",21.23,0.0,0.0,0.0,152.88145764416097,37.78590928160841,-1253.0360520991928,468.01464878274743,3785.9088743036887,0.0,0.0,0.0,0.0,0.0,0.0,-8.3,21.469708426600054,0.0,21.665953090484635,0.0,-8.3,21.23,21.14,22.19,21.33,21.84,-9.77,-8.3,280.04,-874.53,-823.28,0.0,80.0,21.0,68.0,0.0,0.0,0.0,0.0,0.0,0.0,0.0,0.0,0.0,0.0,0.0,0.0,0.0,0.0
53.0,1540.0,35296.074703010345,0.0,-0.0,0.0,-5001.041232819659,0.0,7297.16768763584,0.0,-18423.530099372223,0.0,0.0,0.2042091836734694,0.10254190228762484,0.6303016858917475,114314.21238670254,28578.553096675634,142892.76548337817,"[0.7738795582909468, 0.49608636995648325, 0.17513450579060574, 0.1682288426363172, 0.46527849230666973, 0.4814371724471229, 0.7178312989390783, 0.7059720698353864]",22.77,0.0,0.0,0.0,147.36511638895928,32.23629339193397,-1344.1831301453883,-1684.5191568664732,0.0,0.0,0.0,0.0,0.0,0.0,0.0,-8.9,21.97405032171002,0.0,21.745952234107378,0.0,-8.9,22.77,21.17,22.32,22.32,22.81,-10.42,-8.9,3165.35,-938.14,-883.16,0.0,80.0,11.0,65.0,0.0,0.0,0.0,0.0,0.0,0.0,0.0,0.0,0.0,0.0,0.0,0.0,0.0,0.0
54.0,1630.0,0.0,0.0,-0.0,0.0,1630.0,0.0,6822.215465486803,0.0,6822.215465486803,0.0,0.0,0.13490646258503403,0.0735358841520517,0.6303016858917475,0.0,0.0,0.0,"[0.7738795582909468, 0.49608636995648325, 0.17513450579060574, 0.1682288426363172, 0.46527849230666973, 0.4814371724471229, 0.7178312989390783, 0.7059720698353864]",21.39,0.0,0.0,0.0,108.89400919359169,2.4260615911145034,-1306.6884115628318,265.95348862623433,2244.0995495514135,0.0,0.0,0.0,0.0,0.0,0.0,-9.4,21.536602431759416,0.0,21.695266602466685,0.0,-9.4,21.39,21.15,22.24,21.36,21.87,-10.93,-9.4,0.0,-911.97,-858.53,0.0,0.0,0.0,80.0,0.0,0.0,0.0,0.0,0.0,0.0,0.0,0.0,0.0,0.0,0.0,0.0,0.0,0.0
55.0,961.0,0.0,0.0,-0.0,0.0,961.0,0.0,11425.968973561123,0.0,11425.968973561121,0.0,0.0,0.09404761904761905,0.024956084094393875,0.6303016858917475,0.0,0.0,0.0,"[0.7738795582909468, 0.49608636995648325, 0.17513450579060574, 0.1682288426363172, 0.46527849230666973, 0.4814371724471229, 0.7178312989390783, 0.7059720698353864]",22.03,0.0,0.0,0.0,38.112903217757086,0.8491215568900745,-1354.9799903036446,-664.631777640547,327.69751721926184,0.0,0.0,0.0,0.0,0.0,0.0,-9.9,21.723556559873916,0.0,21.696032410325103,0.0,-9.9,22.03,21.15,22.24,21.83,22.33,-11.47,-9.9,450.41,-945.68,-890.26,0.0,0.0,0.0,28.0,0.0,0.0,0.0,0.0,0.0,0.0,0.0,0.0,0.0,0.0,0.0,0.0,0.0,0.0
56.0,2212.0,18951.33880422663,0.0,-0.0,0.0,-10122.725466870561,0.0,5869.67097900144,0.0,0.0,0.0,0.0,0.4133446232305479,0.0,0.6303016858917475,26087.426573339744,6521.856643334936,32609.283216674678,"[0.7738795582909468, 0.49608636995648325, 0.17513450579060574, 0.1682288426363172, 0.46527849230666973, 0.4814371724471229, 0.7178312989390783, 0.7059720698353864]",21.23,0.0,0.0,4.525724488469834,148.36808752626868,3.305508917893509,-1312.449562804134,411.26590035795493,744.919751650724,0.0,0.0,0.0,0.0,0.0,0.0,-9.7,21.442977157349738,0.0,21.62548320112763,0.0,-9.7,21.23,21.11,22.14,21.28,21.78,-11.29,-9.7,820.19,-915.99,-862.31,7.46,0.0,0.0,109.0,0.0,0.0,0.0,0.0,0.0,0.0,0.0,0.0,0.0,0.0,0.0,0.0,0.0,0.0
57.0,1747.0,0.0,6449.124140865069,-0.0,8196.12414086507,0.0,0.0,4993.532632931439,0.0,-7024.68167289312,0.0,12018.214305824558,0.4133446232305479,0.028684116830980242,0.6303016858917475,0.0,0.0,0.0,"[0.7738795582909468, 0.49608636995648325, 0.17513450579060574, 0.1682288426363172, 0.46527849230666973, 0.4814371724471229, 0.7178312989390783, 0.7059720698353864]",21.23,0.0,0.0,1199.634928195741,9.528225804439266,0.212280389222516,-1210.597830167092,314.5665630619793,1418.2902470485249,0.0,0.0,0.0,0.0,0.0,0.0,-7.3,21.39393754869701,0.0,21.55032964916452,0.0,-7.3,21.23,21.07,22.03,21.3,21.77,-7.31,-7.3,0.0,-844.91,-795.39,1977.91,0.0,0.0,7.0,0.0,0.0,0.0,0.0,0.0,0.0,0.0,0.0,0.0,0.0,0.0,0.0,0.0,0.0
58.0,2444.0,0.0,70.6704196345896,-11610.7362656191,14125.406685253689,0.0,0.0,6892.3497591988835,0.0,6746.504278646553,0.0,145.84548055233063,0.4133446232305479,0.0,0.6797735186756898,0.0,0.0,0.0,"[0.7738795582909468, 0.49608636995648325, 0.17513450579060574, 0.1682288426363172, 0.46527849230666973, 0.4814371724471229, 0.7178312989390783, 0.7059720698353864]",22.1,0.0,0.0,1377.362150221465,167.42453913514723,3.7300696963385485,-1158.5154895611304,-822.4268398609809,0.0,0.0,0.0,0.0,0.0,0.0,0.0,-5.2,21.71397972517428,0.0,21.65563518253137,0.0,-5.2,22.1,21.1,22.22,22.01,22.77,-4.66,-5.2,0.0,-808.56,-761.18,2270.94,0.0,0.0,123.0,0.0,0.0,0.0,0.0,0.0,0.0,0.0,0.0,0.0,0.0,0.0,0.0,0.0,0.0
59.0,1265.0,23005.652547279467,39360.6484968842,-0.0,17735.024212341126,0.0,0.0,7984.473836185504,0.0,-80000.0,0.0,87984.47383618551,0.4133446232305479,0.3266666666666667,0.6797735186756898,0.0,0.0,0.0,"[0.7738795582909468, 0.49608636995648325, 0.17513450579060574, 0.1682288426363172, 0.46527849230666973, 0.4814371724471229, 0.7178312989390783, 0.7059720698353864]",21.92,0.0,0.0,1549.6733424994252,29.94585252823771,0.6671669375564858,-1074.650643826508,-441.5545215173145,0.0,0.0,0.0,0.0,0.0,0.0,0.0,-3.4,21.72136093087385,0.0,21.75149180290041,0.0,-3.4,21.92,21.12,22.38,21.84,22.76,-2.42,-3.4,2081.76,-750.03,-706.07,2555.04,0.0,0.0,22.0,0.0,0.0,0.0,0.0,0.0,0.0,0.0,0.0,0.0,0.0,0.0,0.0,0.0,0.0
60.0,2283.0,0.0,0.0,-0.0,18295.3828182815,0.0,0.0,7134.921081067467,0.0,-7276.223455385878,0.0,0.0,0.4133446232305479,0.35637791244282574,0.6797735186756898,64049.531273126,16012.3828182815,80061.9140914075,"[0.7738795582909468, 0.49608636995648325, 0.17513450579060574, 0.1682288426363172, 0.46527849230666973, 0.4814371724471229, 0.7178312989390783, 0.7059720698353864]",21.99,0.0,0.0,1542.1714504942947,104.81048384883199,2.3350842814477075,-1035.0483436516095,-406.18102997269506,1336.8530632562117,0.0,0.0,0.0,0.0,0.0,0.0,-2.4,21.804876012182604,0.0,21.854622816663863,0.0,-2.4,21.99,21.16,22.55,21.92,22.98,-1.46,-2.4,0.0,-722.39,-680.05,2542.67,0.0,0.0,77.0,0.0,0.0,0.0,0.0,0.0,0.0,0.0,0.0,0.0,0.0,0.0,0.0,0.0,0.0
61.0,3576.0,0.0,0.0,-0.0,16167.271441833087,0.0,0.0,2549.740613236594,0.0,-8782.40368441318,0.0,0.0,0.4133446232305479,0.3922393941541796,0.6797735186756898,50365.08576733235,12591.271441833087,62956.357209165435,"[0.7738795582909468, 0.49608636995648325, 0.17513450579060574, 0.1682288426363172, 0.46527849230666973, 0.4814371724471229, 0.7178312989390783, 0.7059720698353864]",22.77,0.0,0.0,1327.7051017798324,91.19873269963304,2.031826582558396,-1055.6032210071016,-1331.1017713538763,0.0,0.0,0.0,0.0,0.0,0.0,0.0,-2.1,22.140799639958747,0.0,22.022214791793832,0.0,-2.1,22.77,21.23,22.82,22.43,23.56,-1.47,-2.1,1290.01,-736.73,-693.56,2189.07,0.0,0.0,67.0,0.0,0.0,0.0,0.0,0.0,0.0,0.0,0.0,0.0,0.0,0.0,0.0,0.0,0.0
62.0,2378.0,0.0,4824.885941755301,-0.0,9035.179217075494,-1832.293275320193,0.0,7606.534224390984,0.0,-3454.7141539345284,0.0,11061.248378325512,0.4881632653061224,0.4063461436160789,0.6797735186756898,0.0,0.0,0.0,"[0.7738795582909468, 0.49608636995648325, 0.17513450579060574, 0.1682288426363172, 0.46527849230666973, 0.4814371724471229, 0.7178312989390783, 0.7059720698353864]",22.34,0.0,0.0,688.7370632860618,28.58467741331782,0.6368411676675549,-1066.688016335271,-566.7759238985724,0.0,0.0,0.0,0.0,0.0,0.0,0.0,-2.8,22.073571731281955,0.0,22.116918525385245,0.0,-2.8,22.34,21.28,22.96,22.11,23.24,-3.15,-2.8,0.0,-744.47,-700.84,1135.56,0.0,0.0,21.0,0.0,0.0,0.0,0.0,0.0,0.0,0.0,0.0,0.0,0.0,0.0,0.0,0.0,0.0
63.0,3328.0,0.0,0.0,-0.0,0.0,3328.0,0.0,3148.519377155587,0.0,3148.519377155587,0.0,0.0,0.3466666666666667,0.3929595816383766,0.6797735186756898,0.0,0.0,0.0,"[0.7738795582909468, 0.49608636995648325, 0.17513450579060574, 0.1682288426363172, 0.46527849230666973, 0.4814371724471229, 0.7178312989390783, 0.7059720698353864]",21.91,0.0,0.0,14.911360009504405,167.42453913514723,3.7300696963385485,-1116.3999370000022,43.05912704867121,0.0,0.0,0.0,0.0,0.0,0.0,0.0,-4.4,21.942244402357346,0.0,22.103900302408203,0.0,-4.4,21.91,21.29,22.92,21.82,22.77,-6.09,-4.4,2552.75,-779.16,-733.5,24.59,0.0,0.0,123.0,0.0,0.0,0.0,0.0,0.0,0.0,0.0,0.0,0.0,0.0,0.0,0.0,0.0,0.0
64.0,1843.0,49030.16232042362,46942.011508821495,-0.0,0.0,0.0,0.0,17323.69165926541,0.0,-80000.0,0.0,97323.6916592654,0.3466666666666667,0.7196262483050433,0.6797735186756898,0.0,0.0,0.0,"[0.7738795582909468, 0.49608636995648325, 0.17513450579060574, 0.1682288426363172, 0.46527849230666973, 0.4814371724471229, 0.7178312989390783, 0.7059720698353864]",21.48,0.0,0.0,0.0,14.184877513375753,2.4867131308923653,-1127.846336540975,529.5341339903429,3255.868135250275,0.0,0.0,0.0,0.0,0.0,0.0,-5.1,21.748228119632884,0.0,21.99222179135672,0.0,-5.1,21.48,21.27,22.72,21.48,22.19,-6.87,-5.1,0.0,-787.15,-741.03,0.0,0.0,4.0,10.0,0.0,0.0,0.0,0.0,0.0,0.0,0.0,0.0,0.0,0.0,0.0,0.0,0.0,0.0
65.0,3011.0,21181.47980426832,2064.5724052469805,-0.0,0.0,-16000.0,0.0,4122.968415896508,0.0,0.0,0.0,4122.968415896508,1.0,0.7196262483050433,0.6797735186756898,0.0,0.0,0.0,"[0.7738795582909468, 0.49608636995648325, 0.17513450579060574, 0.1682288426363172, 0.46527849230666973, 0.4814371724471229, 0.7178312989390783, 0.7059720698353864]",22.77,0.0,0.0,0.0,397.8929783297423,77.20941013721908,-1216.8684643490853,-1310.9904282744592,0.0,0.0,0.0,0.0,0.0,0.0,0.0,-5.9,22.153826698352635,0.0,22.028117626586813,0.0,-5.9,22.77,21.3,22.75,22.35,23.0,-7.62,-5.9,0.0,-849.28,-799.51,0.0,117.0,64.0,224.0,0.0,0.0,0.0,0.0,0.0,0.0,0.0,0.0,0.0,0.0,0.0,0.0,0.0,0.0
66.0,8484.0,11072.90841603788,0.0,-0.0,0.0,0.0,0.0,2280.1894865619206,0.0,0.0,0.0,0.0,1.0,0.7196262483050433,0.6797735186756898,10134.175495830763,2533.5438739576907,12667.719369788452,"[0.7738795582909468, 0.49608636995648325, 0.17513450579060574, 0.1682288426363172, 0.46527849230666973, 0.4814371724471229, 0.7178312989390783, 0.7059720698353864]",21.78,0.0,0.0,0.0,582.2247452081051,106.53442961981565,-1208.452654701749,74.0936403401502,0.0,0.0,0.0,0.0,0.0,0.0,0.0,-6.7,21.82754271920817,0.0,21.97120030895264,0.0,-6.7,21.78,21.3,22.65,21.64,22.26,-8.36,-6.7,100.1,-843.41,-793.99,0.0,82.0,129.0,371.0,0.0,0.0,0.0,0.0,0.0,0.0,0.0,0.0,0.0,0.0,0.0,0.0,0.0,0.0
67.0,9625.0,0.0,0.0,-0.0,0.0,9625.0,0.0,591.9768938916845,0.0,591.9768938916845,0.0,0.0,0.5907738095238095,0.7171093397425786,0.6697912649046162,0.0,0.0,0.0,"[0.7738795582909468, 0.49608636995648325, 0.17513450579060574, 0.1682288426363172, 0.46527849230666973, 0.4814371724471229, 0.7178312989390783, 0.7059720698353864]",21.56,0.0,0.0,0.0,2053.511762845468,159.39224653622293,-1228.8571746497114,279.8772550338947,0.0,0.0,0.0,0.0,0.0,0.0,0.0,-7.4,21.70847476005198,0.0,21.882917478580055,0.0,-7.4,21.56,21.27,22.5,21.53,22.11,-9.08,-7.4,0.0,-857.65,-807.39,0.0,133.0,139.0,1424.0,0.0,0.0,0.0,0.0,0.0,0.0,0.0,0.0,0.0,0.0,0.0,0.0,0.0,0.0
68.0,6699.0,6732.663316582914,0.0,-0.0,0.0,0.0,0.0,668.4753235165779,0.0,668.4753235165779,0.0,0.0,0.5907738095238095,0.7114250257670974,0.6697912649046162,0.0,0.0,0.0,"[0.31107071874343006, 0.4960863699564797, 0.17513450579060574, 0.1682288426363172, 0.46527849230666973, 0.4814371724471229, 0.4588440837801677, 0.694236522220546]",22.17,0.0,0.0,0.0,837.051054880214,152.1140617628794,-1288.6501939493796,-673.503692447488,0.0,0.0,0.0,0.0,0.0,0.0,0.0,-8.2,21.855493956759403,0.0,21.83201951460336,0.0,-8.2,22.17,21.25,22.41,21.78,22.28,-9.85,-8.2,0.0,-899.38,-846.68,0.0,151.0,166.0,518.0,0.0,0.0,0.0,0.0,0.0,0.0,0.0,0.0,0.0,0.0,0.0,0.0,0.0,0.0
69.0,5102.0,0.0,0.0,-0.0,0.0,5102.0,0.0,10270.769093379728,0.0,10270.769093379728,0.0,0.0,0.37385204081632656,0.6677567898258571,0.6697912649046162,0.0,0.0,0.0,"[0.31107071874343006, 0.4960863699564797, 0.17513450579060574, 0.1682288426363172, 0.46527849230666973, 0.4814371724471229, 0.4588440837801677, 0.694236522220546]",21.69,0.0,0.0,0.0,997.3831552586732,127.91409739151223,-1298.139769503309,-46.15922706997864,1508.3261529685453,0.0,0.0,0.0,0.0,0.0,0.0,-8.9,21.683638532638142,0.0,21.78077733879193,0.0,-8.9,21.69,21.23,22.33,21.57,22.07,-10.51,-8.9,1613.25,-906.01,-852.91,0.0,162.0,109.0,636.0,0.0,0.0,0.0,0.0,0.0,0.0,0.0,0.0,0.0,0.0,0.0,0.0,0.0,0.0
70.0,3248.0,0.0,0.0,-0.0,0.0,3248.0,0.0,5549.7320613432,0.0,5549.732061343199,0.0,0.0,0.23575680272108848,0.6441609902453163,0.6125596766171273,0.0,0.0,0.0,"[0.31107071874343006, 0.4960863699564797, 0.17513450579060574, 0.1682288426363172, 0.46527849230666973, 0.4814371724471229, 0.4588440837801677, 0.694236522220546]",22.31,0.0,0.0,0.0,1006.9113810631127,81.42469215178053,-1358.4929234462134,-943.96996811584,0.0,0.0,0.0,0.0,0.0,0.0,0.0,-9.7,21.87084710360778,0.0,21.78848475230251,0.0,-9.7,22.31,21.23,22.34,21.97,22.45,-11.32,-9.7,0.0,-948.13,-892.57,0.0,92.0,60.0,685.0,0.0,0.0,0.0,0.0,0.0,0.0,0.0,0.0,0.0,0.0,0.0,0.0,0.0,0.0
71.0,2055.0,2065.326633165829,0.0,-0.0,0.0,0.0,0.0,13113.685969287875,0.0,13113.685969287873,0.0,0.0,0.23575680272108848,0.5884055226888202,0.6125596766171273,0.0,0.0,0.0,"[0.31107071874343006, 0.4960863699564797, 0.17513450579060574, 0.1682288426363172, 0.46527849230666973, 0.4814371724471229, 0.4588440837801677, 0.694236522220546]",21.72,0.0,0.0,0.0,447.46840883103533,73.20640851188016,-1363.0995226419345,-145.15724246661082,2210.540631002084,0.0,0.0,0.0,0.0,0.0,0.0,-10.4,21.66709659681016,0.0,21.740881581938787,0.0,-10.4,21.72,21.21,22.27,21.54,22.02,-12.01,-10.4,2151.7,-951.34,-895.59,0.0,103.0,62.0,268.0,0.0,0.0,0.0,0.0,0.0,0.0,0.0,0.0,0.0,0.0,0.0,0.0,0.0,0.0
72.0,2159.0,7904.093019262106,5705.572554165795,-0.0,0.0,0.0,0.0,8674.427556269091,0.0,0.0,0.0,8674.427556269091,0.23575680272108848,0.5884055226888202,0.6125596766171273,0.0,0.0,0.0,"[0.31107071874343006, 0.4960863699564797, 0.17513450579060574, 0.1682288426363172, 0.46527849230666973, 0.4814371724471229, 0.4588440837801677, 0.694236522220546]",22.31,0.0,0.0,0.0,283.0527831078163,43.942040569061454,-1409.4187897647346,-975.929354129869,778.8445962728158,0.0,0.0,0.0,0.0,0.0,0.0,-10.9,21.85600604676262,0.0,21.76629704699519,0.0,-10.9,22.31,21.22,22.31,22.01,22.49,-12.58,-10.9,2237.98,-983.67,-926.03,0.0,80.0,27.0,163.0,0.0,0.0,0.0,0.0,0.0,0.0,0.0,0.0,0.0,0.0,0.0,0.0,0.0,0.0
73.0,986.0,17071.356783919597,0.0,-0.0,0.0,-16000.0,0.0,15894.257087650225,0.0,15894.257087650225,0.0,0.0,0.8890901360544218,0.5208278990168379,0.6125596766171273,0.0,0.0,0.0,"[0.31107071874343006, 0.4960863699564797, 0.17513450579060574, 0.1682288426363172, 0.46527849230666973, 0.4814371724471229, 0.4588440837801677, 0.694236522220546]",21.69,0.0,0.0,0.0,234.83852772144314,30.386421428709163,-1408.4791465267715,-111.29586808771627,2538.3041121869783,0.0,0.0,0.0,0.0,0.0,0.0,-11.5,21.65346066661981,0.0,21.735381024841953,0.0,-11.5,21.69,21.2,22.27,21.59,22.09,-13.21,-11.5,2028.97,-983.01,-925.41,0.0,80.0,4.0,130.0,0.0,0.0,0.0,0.0,0.0,0.0,0.0,0.0,0.0,0.0,0.0,0.0,0.0,0.0
74.0,576.0,11688.56311192982,0.0,-0.0,0.0,0.0,0.0,9948.708266733149,0.0,0.0,0.0,0.0,0.8890901360544218,0.5208278990168379,0.6125596766171273,44216.48118548068,11054.12029637017,55270.60148185085,"[0.31107071874343006, 0.4960863699564797, 0.17513450579060574, 0.1682288426363172, 0.46527849230666973, 0.4814371724471229, 0.4588440837801677, 0.694236522220546]",22.31,0.0,0.0,0.0,103.5925903249563,25.291692087368702,-1464.5884782764658,-983.5068717613343,1038.6371158109978,0.0,0.0,0.0,0.0,0.0,0.0,-12.2,21.853063539616215,0.0,21.76382078820962,0.0,-12.2,22.31,21.21,22.32,22.02,22.52,-13.96,-12.2,691.52,-1022.17,-962.27,0.0,80.0,0.0,34.0,0.0,0.0,0.0,0.0,0.0,0.0,0.0,0.0,0.0,0.0,0.0,0.0,0.0,0.0
75.0,975.0,0.0,6838.822651505766,-0.0,0.0,7813.822651505766,0.0,12228.637118996203,0.0,2939.6227743541513,0.0,9289.014344642053,0.556869785225095,0.508329502867373,0.6125596766171273,0.0,0.0,0.0,"[0.31107071874343006, 0.4960863699564797, 0.17513450579060574, 0.1682288426363172, 0.46527849230666973, 0.4814371724471229, 0.4588440837801677, 0.694236522220546]",21.69,0.0,0.0,0.0,158.03959492175213,26.504722882925954,-1455.1611906520827,-114.42624415606312,1386.5569530327332,0.0,0.0,0.0,0.0,0.0,0.0,-12.6,21.652548594257187,0.0,21.73641225794616,0.0,-12.6,21.69,21.19,22.28,21.6,22.12,-14.35,-12.6,1214.29,-1015.6,-956.08,0.0,80.0,0.0,74.0,0.0,0.0,0.0,0.0,0.0,0.0,0.0,0.0,0.0,0.0,0.0,0.0,0.0,0.0
76.0,863.0,867.3366834170854,0.0,-0.0,0.0,0.0,0.0,16596.24058334445,0.0,16596.24058334445,0.0,0.0,0.556869785225095,0.4377672554892078,0.6125596766171273,0.0,0.0,0.0,"[0.31107071874343006, 0.4960863699564797, 0.17513450579060574, 0.1682288426363172, 0.46527849230666973, 0.4814371724471229, 0.4588440837801677, 0.694236522220546]",21.69,0.0,0.0,0.0,161.83655708442348,35.81473423882787,-1472.1364794249232,-162.4324390108989,2720.981715767982,0.0,0.0,0.0,0.0,0.0,0.0,-13.0,21.629459322458434,0.0,21.701954181238257,0.0,-13.0,21.69,21.16,22.24,21.62,22.13,-14.74,-13.0,1189.13,-1027.44,-967.23,0.0,80.0,17.0,75.0,0.0,0.0,0.0,0.0,0.0,0.0,0.0,0.0,0.0,0.0,0.0,0.0,0.0,0.0
77.0,752.0,0.0,0.0,-0.0,0.0,752.0,0.0,12802.600487810338,0.0,12802.600487810338,0.0,0.0,0.5248969961094487,0.38333443028593256,0.6125596766171273,0.0,0.0,0.0,"[0.31107071874343006, 0.4960863699564797, 0.17513450579060574, 0.1682288426363172, 0.46527849230666973, 0.4814371724471229, 0.4588440837801677, 0.694236522220546]",22.31,0.0,0.0,0.0,126.80420807411666,31.235542985599235,-1515.514344594987,-1026.734512789119,2385.993146496176,0.0,0.0,0.0,0.0,0.0,0.0,-13.4,21.83272479649106,0.0,21.736548332504896,0.0,-13.4,22.31,21.17,22.3,22.02,22.53,-15.16,-13.4,1628.08,-1057.72,-995.73,0.0,80.0,10.0,50.0,0.0,0.0,0.0,0.0,0.0,0.0,0.0,0.0,0.0,0.0,0.0,0.0,0.0,0.0
78.0,932.0,0.0,0.0,-0.0,0.0,12345.577348494235,0.0,10272.21961364481,0.0,0.0,0.0,0.0,0.0,0.38333443028593256,0.6125596766171273,45654.30939397694,11413.577348494235,57067.88674247117,"[0.31107071874343006, 0.4960863699564797, 0.17513450579060574, 0.1682288426363172, 0.46527849230666973, 0.4814371724471229, 0.4588440837801677, 0.694236522220546]",22.31,0.0,0.0,0.0,99.36578338915241,2.213781201891984,-1532.4896333678278,-977.0102162466876,2344.8056693139347,0.0,0.0,0.0,0.0,0.0,0.0,-13.8,21.857062636637583,0.0,21.77577655209561,0.0,-13.8,22.31,21.18,22.37,22.0,22.53,-15.55,-13.8,846.67,-1069.56,-1006.89,0.0,0.0,0.0,73.0,0.0,0.0,0.0,0.0,0.0,0.0,0.0,0.0,0.0,0.0,0.0,0.0,0.0,0.0
79.0,1416.0,1423.1155778894472,0.0,-0.0,0.0,0.0,0.0,10926.031188334742,0.0,10926.03118833474,0.0,0.0,0.0,0.33688021604981544,0.6125596766171273,0.0,0.0,0.0,"[0.31107071874343006, 0.4960863699564797, 0.17513450579060574, 0.1682288426363172, 0.46527849230666973, 0.4814371724471229, 0.4588440837801677, 0.694236522220546]",22.28,0.0,0.0,0.0,87.11520735487336,1.940849272891603,-1543.9186797069835,-895.3328721623319,1131.5289008844309,0.0,0.0,0.0,0.0,0.0,0.0,-14.1,21.8661702518192,0.0,21.804956781166858,0.0,-14.1,22.28,21.19,22.42,21.98,22.53,-15.89,-14.1,3161.43,-1077.54,-1014.4,0.0,0.0,0.0,64.0,0.0,0.0,0.0,0.0,0.0,0.0,0.0,0.0,0.0,0.0,0.0,0.0,0.0,0.0
80.0,1872.0,0.0,0.0,-0.0,0.0,3926.896584668355,0.0,8081.658925244111,0.0,6232.251999042592,0.0,0.0,0.4863734445294067,0.31038254598585885,0.6125596766171273,8219.58633867342,2054.896584668355,10274.482923341775,"[0.31107071874343006, 0.4960863699564797, 0.17513450579060574, 0.1682288426363172, 0.46527849230666973, 0.4814371724471229, 0.4588440837801677, 0.694236522220546]",21.69,0.0,0.0,3.3480489825092357,59.89170505647543,1.3343338751129752,-1523.0623457434442,-81.93360452151157,1540.310651600608,0.0,0.0,0.0,0.0,0.0,0.0,-14.2,21.669168798685412,0.0,21.768679383529058,0.0,-14.2,21.69,21.17,22.36,21.6,22.17,-15.95,-14.2,1011.21,-1062.99,-1000.69,5.52,0.0,0.0,44.0,0.0,0.0,0.0,0.0,0.0,0.0,0.0,0.0,0.0,0.0,0.0,0.0,0.0,0.0
81.0,3387.0,0.0,4597.8754683647085,-0.0,7984.8754683647085,0.0,0.0,6552.018416052881,0.0,0.0,0.0,6552.018416052881,0.4863734445294067,0.31038254598585885,0.6125596766171273,0.0,0.0,0.0,"[0.31107071874343006, 0.4960863699564797, 0.17513450579060574, 0.1682288426363172, 0.46527849230666973, 0.4814371724471229, 0.4588440837801677, 0.694236522220546]",21.69,0.0,0.0,1129.1180229588847,121.14458522787073,2.6989935201148847,-1425.4544352996118,-131.20341072566094,240.9347135547739,0.0,0.0,0.0,0.0,0.0,0.0,-11.9,21.6431870337889,0.0,21.729418023658603,0.0,-11.9,21.69,21.15,22.31,21.63,22.18,-12.05,-11.9,530.31,-994.86,-936.56,1861.65,0.0,0.0,89.0,0.0,0.0,0.0,0.0,0.0,0.0,0.0,0.0,0.0,0.0,0.0,0.0,0.0,0.0
82.0,3680.0,0.0,0.0,-3332.2965061670084,14283.400149589816,0.0,0.0,6543.993279080523,0.0,0.0,0.0,0.0,0.4863734445294067,0.31038254598585885,0.6267581573825345,29084.41457369123,7271.103643422807,36355.51821711403,"[0.31107071874343006, 0.4960863699564797, 0.17513450579060574, 0.1682288426363172, 0.46527849230666973, 0.4814371724471229, 0.4588440837801677, 0.694236522220546]",21.69,0.0,0.0,1349.7580891616165,87.11520735487336,1.940849272891603,-1344.82181362862,-85.11439201638129,1204.9936583441586,0.0,0.0,0.0,0.0,0.0,0.0,-10.0,21.66414186204281,0.0,21.76634195772699,0.0,-10.0,21.69,21.14,22.39,21.75,22.57,-9.4,-10.0,74.54,-938.59,-883.58,2225.43,0.0,0.0,64.0,0.0,0.0,0.0,0.0,0.0,0.0,0.0,0.0,0.0,0.0,0.0,0.0,0.0,0.0
83.0,5123.0,0.0,0.0,-12122.709264192024,17245.709264192024,0.0,0.0,3783.008145311784,0.0,3783.008145311784,0.0,0.0,0.4863734445294067,0.2942983276809618,0.6784114403343092,0.0,0.0,0.0,"[0.31107071874343006, 0.4960863699564797, 0.17513450579060574, 0.1682288426363172, 0.46527849230666973, 0.4814371724471229, 0.4588440837801677, 0.694236522220546]",22.31,0.0,0.0,1459.55567572546,46.279953907276465,1.0310761762236633,-1307.5670571276924,-845.2990754877515,0.0,0.0,0.0,0.0,0.0,0.0,0.0,-8.5,21.916706438246717,0.0,21.880377745891117,0.0,-8.5,22.31,21.18,22.58,22.16,23.13,-7.51,-8.5,0.0,-912.59,-859.11,2406.46,0.0,0.0,34.0,0.0,0.0,0.0,0.0,0.0,0.0,0.0,0.0,0.0,0.0,0.0,0.0,0.0,0.0
84.0,6417.0,0.0,0.0,-12934.27357954824,19351.27357954824,0.0,0.0,2967.63284815118,0.0,2967.63284815118,0.0,0.0,0.4863734445294067,0.28168084108167957,0.7335226929776018,0.0,0.0,0.0,"[0.31107071874343006, 0.4960863699564797, 0.17513450579060574, 0.1682288426363172, 0.46527849230666973, 0.4814371724471229, 0.4588440837801677, 0.694236522220546]",22.03,0.0,0.0,1572.3704189254952,112.97753453835138,2.5170389007812966,-1253.2510759508211,-323.46884204373805,0.0,0.0,0.0,0.0,0.0,0.0,0.0,-7.5,21.88927882789116,0.0,21.968690346913014,0.0,-7.5,22.03,21.2,22.73,21.96,23.06,-6.32,-7.5,0.0,-874.68,-823.42,2592.47,0.0,0.0,83.0,0.0,0.0,0.0,0.0,0.0,0.0,0.0,0.0,0.0,0.0,0.0,0.0,0.0,0.0
85.0,4545.0,0.0,0.0,-0.0,17123.609521728817,-12578.609521728817,0.0,5431.569304868337,0.0,5431.569304868337,0.0,0.0,1.0,0.25858743417322577,0.7195475376980986,0.0,0.0,0.0,"[0.31107071874343006, 0.4960863699564797, 0.17513450579060574, 0.1682288426363172, 0.46527849230666973, 0.4814371724471229, 0.4588440837801677, 0.694236522220546]",22.12,0.0,0.0,1398.0504561460555,108.89400919359169,2.4260615911145034,-1244.3073255512159,-342.3600711270744,405.5162080155706,0.0,0.0,0.0,0.0,0.0,0.0,-7.2,21.96941054156734,0.0,22.055492748886977,0.0,-7.2,22.12,21.23,22.88,22.04,23.24,-6.32,-7.2,0.0,-868.43,-817.54,2305.05,0.0,0.0,80.0,0.0,0.0,0.0,0.0,0.0,0.0,0.0,0.0,0.0,0.0,0.0,0.0,0.0,0.0
86.0,2137.0,0.0,3824.075770163335,-8254.554624893539,14215.630395056874,0.0,0.0,1796.1155664927446,0.0,-5184.386250268087,0.0,6980.501816760831,1.0,0.27975701136182046,0.754719118273732,0.0,0.0,0.0,"[0.31107071874343006, 0.4960863699564797, 0.17513450579060574, 0.1682288426363172, 0.46527849230666973, 0.4814371724471229, 0.4588440837801677, 0.694236522220546]",22.31,0.0,0.0,1177.3556806726908,46.279953907276465,1.0310761762236633,-1273.6164795820114,-513.6306861162368,0.0,0.0,0.0,0.0,0.0,0.0,0.0,-7.7,22.07755963454034,0.0,22.137827254993347,0.0,-7.7,22.31,21.27,23.01,22.16,23.34,-7.32,-7.7,2143.15,-888.89,-836.8,1941.18,0.0,0.0,34.0,0.0,0.0,0.0,0.0,0.0,0.0,0.0,0.0,0.0,0.0,0.0,0.0,0.0,0.0
87.0,3053.0,10273.68064010157,0.0,-0.0,0.7733020905268307,0.0,0.0,6453.076985092426,0.0,0.0,0.0,0.0,1.0,0.27975701136182046,0.754719118273732,28680.34215596635,7170.085538991588,35850.427694957936,"[0.31107071874343006, 0.4960863699564797, 0.17513450579060574, 0.1682288426363172, 0.46527849230666973, 0.4814371724471229, 0.4588440837801677, 0.694236522220546]",22.06,0.0,0.0,22.569691686584292,235.91313965427466,40.242296642611834,-1335.2972071500908,-112.48678638056855,376.20368046993747,0.0,0.0,0.0,0.0,0.0,0.0,-9.4,22.02742607400261,0.0,22.171487361726204,0.0,-9.4,22.06,21.29,23.05,21.99,23.14,-10.91,-9.4,0.0,-931.94,-877.33,37.21,118.0,2.0,111.0,0.0,0.0,0.0,0.0,0.0,0.0,0.0,0.0,0.0,0.0,0.0,0.0,0.0,0.0
88.0,5151.0,0.0,3919.449946176755,-0.0,0.0,9070.449946176755,0.0,6594.118895750904,0.0,0.0,0.0,6594.118895750904,0.6143516179346618,0.27975701136182046,0.754719118273732,0.0,0.0,0.0,"[0.31107071874343006, 0.4960863699564797, 0.17513450579060574, 0.1682288426363172, 0.46527849230666973, 0.4814371724471229, 0.4588440837801677, 0.694236522220546]",21.69,0.0,0.0,0.0,1746.2443908511823,86.88333073178813,-1310.8712360829393,313.5829848575273,0.0,0.0,0.0,0.0,0.0,0.0,0.0,-9.2,21.858389795123486,0.0,22.07403667964308,0.0,-9.2,21.69,21.27,22.88,21.64,22.41,-10.84,-9.2,0.0,-914.89,-861.28,0.0,116.0,27.0,1219.0,0.0,0.0,0.0,0.0,0.0,0.0,0.0,0.0,0.0,0.0,0.0,0.0,0.0,0.0
89.0,4845.0,11370.080297094353,0.0,-0.0,0.0,-6468.229895608881,0.0,6360.231677949788,0.0,6360.231677949787,0.0,0.0,0.878471005338691,0.25271521000999314,0.7527226675195172,0.0,0.0,0.0,"[0.31107071874343006, 0.4960863699564797, 0.17513450579060574, 0.1682288426363172, 0.46527849230666973, 0.4814371724471229, 0.4588440837801677, 0.694236522220546]",22.09,0.0,0.0,0.0,2662.601806374361,178.7400877253611,-1319.4951194682405,-379.68204399343773,-680.8144264937356,0.0,0.0,0.0,0.0,0.0,0.0,-9.0,21.925226305204536,0.0,21.989437076735637,0.0,-9.0,22.09,21.25,22.73,21.75,22.41,-10.54,-9.0,0.0,-920.91,-866.94,0.0,155.0,138.0,1860.0,0.0,0.0,0.0,0.0,0.0,0.0,0.0,0.0,0.0,0.0,0.0,0.0,0.0,0.0
90.0,5750.0,0.0,0.0,-0.0,0.0,11057.198,0.0,7947.873665442238,26535.99,29176.665665442244,0.0,0.0,0.40835204275365705,0.12866476075216046,0.7527226675195172,21228.792,5307.198,26535.99,"[0.31107071874343006, 0.4960863699564797, 0.17513450579060574, 0.1682288426363172, 0.46527849230666973, 0.4814371724471229, 0.4588440837801677, 0.694236522220546]",22.31,0.0,0.0,0.0,1502.5940452805212,201.54506668183743,-1320.2985237073226,-750.8953071682824,0.0,0.0,0.0,0.0,0.0,0.0,0.0,-8.8,21.964003863958364,0.0,21.94607502897569,0.0,-8.8,22.31,21.25,22.64,21.87,22.47,-10.3,-8.8,0.0,-921.47,-867.47,0.0,143.0,234.0,1004.0,0.0,0.0,0.0,0.0,0.0,0.0,0.0,0.0,0.0,0.0,0.0,0.0,0.0,0.0
91.0,6441.0,6473.366834170854,0.0,-0.0,0.0,0.0,0.0,2020.5533742020725,0.0,2020.5533742020725,0.0,0.0,0.40835204275365705,0.1200739725965394,0.7147901031894374,0.0,0.0,0.0,"[0.31107071874343006, 0.4960863699564797, 0.17513450579060574, 0.1682288426363172, 0.46527849230666973, 0.4814371724471229, 0.4588440837801677, 0.694236522220546]",22.13,0.0,0.0,0.0,1751.4741689242958,209.00520607451452,-1308.258308126115,-528.7665780724099,0.0,0.0,0.0,0.0,0.0,0.0,0.0,-8.7,21.887911190344145,0.0,21.90826643466891,0.0,-8.7,22.13,21.25,22.57,21.79,22.37,-10.16,-8.7,0.0,-913.07,-859.56,0.0,144.0,237.0,1186.0,0.0,0.0,0.0,0.0,0.0,0.0,0.0,0.0,0.0,0.0,0.0,0.0,0.0,0.0
92.0,5303.0,0.0,0.0,-0.0,0.0,5303.0,0.0,2019.5604483666514,0.0,2019.5604483666514,0.0,0.0,0.18288435567882713,0.10290083953219711,0.6602204492409015,0.0,0.0,0.0,"[0.31107071874343006, 0.49608636995648325, 0.17513450579060574, 0.1682288426363172, 0.38453561007997195, 0.3467019744647253, 0.4588440837801677, 0.5970172416695121]",22.18,0.0,0.0,0.0,636.3851866228125,186.1092498083714,-1302.0673047957187,-650.0516149249938,125.28484010908518,0.0,0.0,0.0,0.0,0.0,0.0,-8.5,21.88307357917948,0.0,21.87346234236299,0.0,-8.5,22.18,21.24,22.5,21.81,22.35,-9.92,-8.5,0.0,-908.75,-855.49,0.0,130.0,248.0,373.0,0.0,0.0,0.0,0.0,0.0,0.0,0.0,0.0,0.0,0.0,0.0,0.0,0.0,0.0
93.0,4799.0,30246.86506476375,0.0,-0.0,0.0,-16000.0,0.0,8366.967665495935,0.0,0.0,0.0,0.0,0.8362176890121604,0.10290083953219711,0.6602204492409015,37186.52295775973,9296.630739439932,46483.153697199654,"[0.31107071874343006, 0.49608636995648325, 0.17513450579060574, 0.1682288426363172, 0.38453561007997195, 0.3467019744647253, 0.4588440837801677, 0.5970172416695121]",21.69,0.0,0.0,0.0,647.9193547018706,112.6905609072687,-1272.6768363440483,3.1257882339812197,1797.3960384723503,0.0,0.0,0.0,0.0,0.0,0.0,-8.3,21.707114554839897,0.0,21.822404616689383,0.0,-8.3,21.69,21.23,22.42,21.6,22.15,-9.68,-8.3,1373.44,-888.23,-836.18,0.0,155.0,99.0,384.0,0.0,0.0,0.0,0.0,0.0,0.0,0.0,0.0,0.0,0.0,0.0,0.0,0.0,0.0
94.0,3551.0,0.0,0.0,-0.0,0.0,3551.0,0.0,9814.223831774709,0.0,9814.223831774709,0.0,0.0,0.6852397978556979,0.06117369739029784,0.6602204492409015,0.0,0.0,0.0,"[0.31107071874343006, 0.49608636995648325, 0.17513450579060574, 0.1682288426363172, 0.38453561007997195, 0.3467019744647253, 0.4588440837801677, 0.5970172416695121]",22.31,0.0,0.0,0.0,548.4819305171961,60.772842857418325,-1290.591768354852,-890.8468941833738,293.6364684180509,0.0,0.0,0.0,0.0,0.0,0.0,-8.1,21.89563135521293,0.0,21.831206941058085,0.0,-8.1,22.31,21.23,22.43,22.0,22.53,-9.45,-8.1,0.0,-900.74,-847.95,0.0,84.0,45.0,354.0,0.0,0.0,0.0,0.0,0.0,0.0,0.0,0.0,0.0,0.0,0.0,0.0,0.0,0.0
95.0,2778.0,5110.543259944108,2306.990543644388,-0.0,0.0,0.0,0.0,4167.214495461009,0.0,0.0,0.0,4167.214495461009,0.6852397978556979,0.06117369739029784,0.6602204492409015,0.0,0.0,0.0,"[0.31107071874343006, 0.49608636995648325, 0.17513450579060574, 0.1682288426363172, 0.38453561007997195, 0.3467019744647253, 0.4588440837801677, 0.5970172416695121]",21.69,0.0,0.0,0.0,178.60050323659485,65.10942795153551,-1255.701547571208,-44.088711280026246,1059.7990987784744,0.0,0.0,0.0,0.0,0.0,0.0,-7.9,21.6839509664598,0.0,21.784097659551733,0.0,-7.9,21.69,21.22,22.35,21.56,22.08,-9.21,-7.9,776.85,-876.39,-825.03,0.0,141.0,38.0,53.0,0.0,0.0,0.0,0.0,0.0,0.0,0.0,0.0,0.0,0.0,0.0,0.0,0.0,0.0
96.0,1954.0,7767.80133948722,0.0,-0.0,0.0,-5774.962332789783,0.0,9347.257119176214,0.0,9347.257119176214,0.0,0.0,0.9210507597779474,0.02143195793801802,0.6442488432071837,0.0,0.0,0.0,"[0.31107071874343006, 0.49608636995648325, 0.17513450579060574, 0.1682288426363172, 0.38453561007997195, 0.3467019744647253, 0.4588440837801677, 0.5970172416695121]",21.69,0.0,0.0,0.0,228.17593373788785,41.0914181995019,-1230.2386144119475,-95.10335345504761,1653.817452961148,0.0,0.0,0.0,0.0,0.0,0.0,-7.3,21.658893681464242,0.0,21.744622869970144,0.0,-7.3,21.69,21.2,22.29,21.63,22.14,-8.64,-7.3,741.12,-858.62,-808.3,0.0,80.0,24.0,123.0,0.0,0.0,0.0,0.0,0.0,0.0,0.0,0.0,0.0,0.0,0.0,0.0,0.0,0.0
97.0,1600.0,51581.3457045775,49723.43897605461,-0.0,0.0,0.0,0.0,15979.923212459813,0.0,-80000.0,0.0,95979.9232124598,0.9210507597779474,0.3480986246046847,0.6442488432071837,0.0,0.0,0.0,"[0.31107071874343006, 0.49608636995648325, 0.17513450579060574, 0.1682288426363172, 0.38453561007997195, 0.3467019744647253, 0.4588440837801677, 0.5970172416695121]",21.98,0.0,0.0,0.0,194.79132302458936,27.323518669927097,-1212.793760839776,-524.1974454336623,2203.0595998772446,0.0,0.0,0.0,0.0,0.0,0.0,-6.6,21.739372374938192,0.0,21.73790923469337,0.0,-6.6,21.98,21.2,22.28,21.79,22.29,-7.93,-6.6,1503.17,-846.44,-796.84,0.0,80.0,0.0,101.0,0.0,0.0,0.0,0.0,0.0,0.0,0.0,0.0,0.0,0.0,0.0,0.0,0.0,0.0
98.0,1009.0,0.0,1986.271341665611,-0.0,0.0,2995.271341665611,0.0,3966.600534946134,0.0,0.0,0.0,3966.6005349461334,0.7937007877683551,0.3480986246046847,0.6442488432071837,0.0,0.0,0.0,"[0.31107071874343006, 0.49608636995648325, 0.17513450579060574, 0.1682288426363172, 0.38453561007997195, 0.3467019744647253, 0.4588440837801677, 0.5970172416695121]",22.31,0.0,0.0,0.0,141.7054935427134,26.140813644258778,-1197.2276801042296,-965.0314950435093,713.8874143257058,0.0,0.0,0.0,0.0,0.0,0.0,-5.9,21.85843386285268,0.0,21.770893306928926,0.0,-5.9,22.31,21.22,22.32,21.99,22.48,-7.19,-5.9,1078.53,-835.58,-786.61,0.0,80.0,0.0,62.0,0.0,0.0,0.0,0.0,0.0,0.0,0.0,0.0,0.0,0.0,0.0,0.0,0.0,0.0
99.0,1030.0,0.0,5606.242528311712,-0.0,0.0,6636.242528311712,0.0,14755.723641411061,0.0,3346.2261516309454,0.0,11409.497489780115,0.511547619047619,0.3338714725994511,0.6442488432071837,0.0,0.0,0.0,"[0.31107071874343006, 0.49608636995648325, 0.17513450579060574, 0.1682288426363172, 0.38453561007997195, 0.3467019744647253, 0.4588440837801677, 0.5970172416695121]",21.69,0.0,0.0,0.0,405.7734658371732,32.02401300271144,-1153.8498149341656,-94.79242294923007,812.6738332390564,0.0,0.0,0.0,0.0,0.0,0.0,-5.5,21.65805406233156,0.0,21.74157647994234,0.0,-5.5,21.69,21.21,22.27,21.58,22.08,-6.78,-5.5,1171.09,-805.3,-758.11,0.0,80.0,0.0,256.0,0.0,0.0,0.0,0.0,0.0,0.0,0.0,0.0,0.0,0.0,0.0,0.0,0.0,0.0
100.0,3878.0,0.0,0.0,-0.0,0.0,3878.0,0.0,6507.110312967587,0.0,6507.110312967587,0.0,0.0,0.3466666666666667,0.3062051872552012,0.6442488432071837,0.0,0.0,0.0,"[0.31107071874343006, 0.49608636995648325, 0.17513450579060574, 0.1682288426363172, 0.38453561007997195, 0.3467019744647253, 0.4588440837801677, 0.5970172416695121]",21.69,0.0,0.0,0.0,4656.436786549921,135.950426412079,-1132.6307039681149,-147.2588797129356,-2222.714219608782,0.0,0.0,0.0,0.0,0.0,0.0,-5.0,21.632311274892043,0.0,21.70073280788084,0.0,-5.0,21.69,21.19,22.21,21.58,22.05,-6.25,-5.0,2407.16,-790.49,-744.17,0.0,80.0,17.0,3377.0,0.0,0.0,0.0,0.0,0.0,0.0,0.0,0.0,0.0,0.0,0.0,0.0,0.0,0.0
101.0,1759.0,22596.07725293441,4724.096866669739,-0.0,0.0,-16000.0,0.0,10019.532527449635,0.0,0.0,0.0,10019.532527449635,1.0,0.3062051872552012,0.6442488432071837,0.0,0.0,0.0,"[0.31107071874343006, 0.49608636995648325, 0.17513450579060574, 0.1682288426363172, 0.38453561007997195, 0.3467019744647253, 0.4588440837801677, 0.5970172416695121]",22.31,0.0,0.0,0.0,1562.9872359056515,74.08585583865914,-1142.0579915924984,-1075.783856158889,0.0,0.0,0.0,0.0,0.0,0.0,0.0,-4.6,21.8038671303035,0.0,21.68281203377669,0.0,-4.6,22.31,21.19,22.18,21.78,22.17,-5.65,-4.6,818.98,-797.07,-750.36,0.0,80.0,30.0,1103.0,0.0,0.0,0.0,0.0,0.0,0.0,0.0,0.0,0.0,0.0,0.0,0.0,0.0,0.0
102.0,1490.0,8086.793354101635,6556.3593873311265,-0.0,0.0,0.0,0.0,14093.165284788385,0.0,0.0,0.0,14093.165284788387,1.0,0.3062051872552012,0.6442488432071837,0.0,0.0,0.0,"[0.31107071874343006, 0.49608636995648325, 0.17513450579060574, 0.1682288426363172, 0.38453561007997195, 0.3467019744647253, 0.4588440837801677, 0.5970172416695121]",22.03,0.0,0.0,0.0,866.3521402487527,66.92897414487136,-1117.2787168096022,-680.4513650867528,1453.2718854504249,0.0,0.0,0.0,0.0,0.0,0.0,-4.3,21.711530965040314,0.0,21.667453909395757,0.0,-4.3,22.03,21.19,22.15,21.64,22.04,-5.38,-4.3,1888.07,-779.78,-734.08,0.0,111.0,29.0,575.0,0.0,0.0,0.0,0.0,0.0,0.0,0.0,0.0,0.0,0.0,0.0,0.0,0.0,0.0
103.0,2122.0,2132.6633165829144,0.0,-0.0,0.0,0.0,0.0,6733.608905250245,0.0,6733.608905250246,0.0,0.0,1.0,0.27757589769206237,0.6442488432071837,0.0,0.0,0.0,"[0.31107071874343006, 0.49608636995648325, 0.17513450579060574, 0.1682288426363172, 0.38453561007997195, 0.3467019744647253, 0.4588440837801677, 0.5970172416695121]",22.31,0.0,0.0,0.0,440.94909643852424,47.45982987617749,-1116.5950584332377,-1053.9751206276558,402.85344983033605,0.0,0.0,0.0,0.0,0.0,0.0,-4.0,21.81413673497539,0.0,21.697232919319728,0.0,-4.0,22.31,21.2,22.19,21.91,22.33,-5.06,-4.0,1837.37,-779.3,-733.63,0.0,131.0,0.0,255.0,0.0,0.0,0.0,0.0,0.0,0.0,0.0,0.0,0.0,0.0,0.0,0.0,0.0,0.0
104.0,1496.0,0.0,0.0,-0.0,0.0,1496.0,0.0,5490.785725028932,0.0,5490.785725028932,0.0,0.0,0.9363945578231293,0.2542307202897285,0.6442488432071837,0.0,0.0,0.0,"[0.31107071874343006, 0.49608636995648325, 0.17513450579060574, 0.1682288426363172, 0.38453561007997195, 0.3467019744647253, 0.4588440837801677, 0.1080251384288573]",21.69,0.0,0.0,1.0941968421730057,253.17857137510063,43.85106325939466,-1077.4610154563838,-177.19561670429445,958.9761506793515,0.0,0.0,0.0,0.0,0.0,0.0,-3.7,21.616962075966704,0.0,21.673172678258396,0.0,-3.7,21.69,21.2,22.15,21.54,21.97,-4.7,-3.7,688.85,-751.99,-707.92,1.8,133.0,0.0,116.0,0.0,0.0,0.0,0.0,0.0,0.0,0.0,0.0,0.0,0.0,0.0,0.0,0.0,0.0
105.0,2055.0,7345.217747281605,3701.249984325388,-0.0,5.44262398926938,-1557.6842982090782,0.0,8696.977896595936,0.0,0.0,0.0,8696.977896595938,1.0,0.2542307202897285,0.6442488432071837,0.0,0.0,0.0,"[0.31107071874343006, 0.49608636995648325, 0.17513450579060574, 0.1682288426363172, 0.38453561007997195, 0.3467019744647253, 0.4588440837801677, 0.1080251384288573]",21.69,0.0,0.0,32.00465874970872,42.196428562516786,0.940098866556867,-1013.8036825582324,-207.92622029254724,1144.8541697821759,0.0,0.0,0.0,0.0,0.0,0.0,-2.2,21.601121621986085,0.0,21.648157660678937,0.0,-2.2,21.69,21.19,22.11,21.58,22.01,-2.96,-2.2,2197.58,-707.56,-666.1,52.77,0.0,0.0,31.0,0.0,0.0,0.0,0.0,0.0,0.0,0.0,0.0,0.0,0.0,0.0,0.0,0.0,0.0
106.0,4297.0,0.0,0.0,-0.0,18.568985524143862,4278.4310144758565,0.0,8195.607749078983,0.0,8195.607749078985,0.0,0.0,0.8180939194525572,0.219385449247726,0.6442488432071837,0.0,0.0,0.0,"[0.31107071874343006, 0.49608636995648325, 0.17513450579060574, 0.1682288426363172, 0.38453561007997195, 0.3467019744647253, 0.4588440837801677, 0.1080251384288573]",21.69,0.0,0.0,40.30723409277237,1024.9648615346819,22.83530472636527,-971.3654606261313,-227.58829713710801,1381.5224121686003,0.0,0.0,0.0,0.0,0.0,0.0,-1.2,21.59099202542151,0.0,21.631931967383863,0.0,-1.2,21.69,21.18,22.08,21.59,22.02,-1.85,-1.2,1785.49,-677.94,-638.21,66.46,0.0,0.0,753.0,0.0,0.0,0.0,0.0,0.0,0.0,0.0,0.0,0.0,0.0,0.0,0.0,0.0,0.0
107.0,5977.0,12221.282663186163,1945.150466382119,-0.0,216.81700542885437,-4454.842788916967,0.0,4997.1047823406625,0.0,0.0,0.0,4997.1047823406625,1.0,0.219385449247726,0.6442488432071837,0.0,0.0,0.0,"[0.31107071874343006, 0.49608636995648325, 0.17513450579060574, 0.1682288426363172, 0.38453561007997195, 0.3467019744647253, 0.4588440837801677, 0.1080251384288573]",22.31,0.0,0.0,74.76579695693593,649.2805298167905,14.465392237020232,-942.3842549345914,-1090.5319590086358,1301.4816269775388,0.0,0.0,0.0,0.0,0.0,0.0,0.1,21.7888903097273,0.0,21.65768119000279,0.0,0.1,22.31,21.2,22.12,21.88,22.28,-0.43,0.1,1711.99,-657.71,-619.17,123.27,0.0,0.0,477.0,0.0,0.0,0.0,0.0,0.0,0.0,0.0,0.0,0.0,0.0,0.0,0.0,0.0,0.0
108.0,8360.0,0.0,7536.989502425597,-0.0,530.5895024255965,15366.400000000001,0.0,8032.376821629785,0.0,-12120.577262775574,0.0,20152.95408440536,0.3466666666666667,0.26887780640405956,0.6442488432071837,0.0,0.0,0.0,"[0.31107071874343006, 0.49608636995648325, 0.17513450579060574, 0.1682288426363172, 0.38453561007997195, 0.3467019744647253, 0.4588440837801677, 0.1080251384288573]",22.31,0.0,0.0,95.65086728287535,103.44930873391209,2.3047585115587763,-895.9163043863126,-1037.0829751597962,1726.466054432977,0.0,0.0,0.0,0.0,0.0,0.0,1.2,21.819330169288296,0.0,21.701341388198788,0.0,1.2,22.31,21.23,22.18,21.9,22.32,0.6,1.2,608.0,-625.28,-588.64,157.71,0.0,0.0,76.0,0.0,0.0,0.0,0.0,0.0,0.0,0.0,0.0,0.0,0.0,0.0,0.0,0.0,0.0
109.0,3250.0,18779.13500831887,0.0,-0.0,564.7606667227212,-16000.0,0.0,8047.604780115,0.0,8047.604780115001,0.0,0.0,1.0,0.23466179968588352,0.6355975566055865,0.0,0.0,0.0,"[0.31107071874343006, 0.49608636995648325, 0.17513450579060574, 0.1682288426363172, 0.38453561007997195, 0.3467019744647253, 0.4588440837801677, 0.1080251384288573]",22.31,0.0,0.0,99.06739350551634,209.620967697664,58.65003896519313,-861.9657268406319,-964.4136777950869,1456.9840643193145,0.0,0.0,0.0,0.0,0.0,0.0,2.0,21.85416896857781,0.0,21.753883875931052,0.0,2.0,22.31,21.26,22.25,21.97,22.42,1.4,2.0,1738.89,-601.59,-566.33,163.34,169.0,10.0,64.0,0.0,0.0,0.0,0.0,0.0,0.0,0.0,0.0,0.0,0.0,0.0,0.0,0.0,0.0
110.0,2289.0,0.0,0.0,-0.0,150.4977994122986,2138.5022005877013,0.0,5763.537815670889,0.0,5763.537815670889,0.0,0.0,0.9090772873899787,0.21015696203422157,0.635597556605586,0.0,0.0,0.0,"[0.31107071874343006, 0.49608636995648325, 0.17513450579060574, 0.1682288426363172, 0.38453561007997195, 0.3467019744647253, 0.4588440837801677, 0.1080251384288573]",22.31,0.0,0.0,73.65318378549043,344.37730407473373,68.93047495754085,-849.2342602610015,-900.399734359271,1262.6215796328213,0.0,0.0,0.0,0.0,0.0,0.0,2.3,21.885177270949708,0.0,21.799876002355052,0.0,2.3,22.31,21.29,22.3,21.98,22.45,1.51,2.3,303.29,-592.7,-557.97,121.44,166.0,25.0,163.0,0.0,0.0,0.0,0.0,0.0,0.0,0.0,0.0,0.0,0.0,0.0,0.0,0.0,0.0
111.0,1860.0,0.0,0.0,-0.0,0.06359800209491384,1859.936401997905,0.0,4573.0166013795115,0.0,4573.0166013795115,0.0,0.0,0.8299983587336053,0.19071386423924067,0.635597556605586,0.0,0.0,0.0,"[0.31107071874343006, 0.49608636995648325, 0.17513450579060574, 0.1682288426363172, 0.38453561007997195, 0.3467019744647253, 0.4588440837801677, 0.1080251384288573]",22.31,0.0,0.0,18.58520565599771,357.9890552239326,60.74251708752941,-874.6971934202621,-851.2590265704978,9.06159183848656,0.0,0.0,0.0,0.0,0.0,0.0,1.7,21.909488157025958,0.0,21.835061205664825,0.0,1.7,22.31,21.33,22.34,21.98,22.44,0.63,1.7,1947.46,-610.47,-574.7,30.64,127.0,30.0,193.0,0.0,0.0,0.0,0.0,0.0,0.0,0.0,0.0,0.0,0.0,0.0,0.0,0.0,0.0
112.0,6834.0,0.0,0.0,-0.0,0.0,6834.0,0.0,6890.710041341941,0.0,6890.710041341941,0.0,0.0,0.5394371342438093,0.1614166276689093,0.635597556605586,0.0,0.0,0.0,"[0.31107071874343006, 0.49608636995648325, 0.17513450579060574, 0.1682288426363172, 0.38453561007997195, 0.3467019744647253, 0.4588440837801677, 0.1080251384288573]",21.69,0.0,0.0,0.0,2702.290807093604,114.02489478238168,-882.2451945687193,8.576804975976057,-654.1161948870058,0.0,0.0,0.0,0.0,0.0,0.0,0.9,21.704777418526387,0.0,21.797320111658593,0.0,0.9,21.69,21.32,22.27,21.58,22.02,-0.3,0.9,452.55,-615.74,-579.66,0.0,91.0,51.0,1932.0,0.0,0.0,0.0,0.0,0.0,0.0,0.0,0.0,0.0,0.0,0.0,0.0,0.0,0.0
113.0,6509.0,7783.275187459164,0.0,-0.0,0.0,-1235.358811521868,0.0,5008.058214722345,0.0,5008.058214722344,0.0,0.0,0.5898809523809523,0.140123863150532,0.6242843356650359,0.0,0.0,0.0,"[0.31107071874343006, 0.49608636995648325, 0.17513450579060574, 0.1682288426363172, 0.38453561007997195, 0.3467019744647253, 0.4588440837801677, 0.1080251384288573]",22.31,0.0,0.0,0.0,544.3984051724364,58.255803956637024,-904.4039487727327,-921.0700413318151,1226.1471024997527,0.0,0.0,0.0,0.0,0.0,0.0,1.0,21.87607372691327,0.0,21.777900403604917,0.0,1.0,22.31,21.32,22.23,21.84,22.21,-0.24,1.0,0.0,-631.21,-594.22,0.0,136.0,13.0,327.0,0.0,0.0,0.0,0.0,0.0,0.0,0.0,0.0,0.0,0.0,0.0,0.0,0.0,0.0
114.0,3651.0,0.0,0.0,-0.0,0.0,3651.0,0.0,3333.002520539775,0.0,3333.002520539775,0.0,0.0,0.43465136054421766,0.12595293406660438,0.6229533684955586,0.0,0.0,0.0,"[0.31107071874343006, 0.49608636995648325, 0.17513450579060574, 0.1682288426363172, 0.38453561007997195, 0.3467019744647253, 0.4588440837801677, 0.1080251384288573]",22.31,0.0,0.0,0.0,348.46082941949345,7.763397091566412,-900.1601265795226,-879.7734970165636,142.13430428094094,0.0,0.0,0.0,0.0,0.0,0.0,1.1,21.896066610231024,0.0,21.80745084625415,0.0,1.1,22.31,21.35,22.27,21.96,22.36,-0.15,1.1,0.0,-628.25,-591.43,0.0,0.0,0.0,256.0,0.0,0.0,0.0,0.0,0.0,0.0,0.0,0.0,0.0,0.0,0.0,0.0,0.0,0.0
115.0,5402.0,0.0,0.0,-0.0,0.0,5402.0,0.0,3460.432771176631,0.0,3460.432771176631,0.0,0.0,0.20497448979591834,0.1112402096993568,0.6116401475550085,0.0,0.0,0.0,"[0.31107071874343006, 0.49608636995648325, 0.17513450579060574, 0.1682288426363172, 0.38453561007997195, 0.3467019744647253, 0.4588440837801677, 0.1080251384288573]",21.69,0.0,0.0,0.0,224.5938939617829,5.003752031673666,-865.2699057958787,-17.862935226617957,653.8209878720892,0.0,0.0,0.0,0.0,0.0,0.0,1.3,21.691769680656968,0.0,21.771392420006215,0.0,1.3,21.69,21.34,22.21,21.57,21.97,0.03,1.3,0.0,-603.89,-568.51,0.0,0.0,0.0,165.0,0.0,0.0,0.0,0.0,0.0,0.0,0.0,0.0,0.0,0.0,0.0,0.0,0.0,0.0
116.0,4821.0,22628.98042863772,0.0,-0.0,0.0,-16000.0,0.0,1525.3519738450755,0.0,0.0,0.0,0.0,0.6533333333333333,0.10475486967450529,0.5983304758602436,6779.342105978117,1694.8355264945292,8474.177632472645,"[0.31107071874343006, 0.26103082100283004, 0.17513450579060574, 0.1682288426363172, 0.38453561007997195, 0.1959492588768974, 0.4588440837801677, 0.1080251384288573]",21.69,0.0,0.0,0.0,171.50806447990692,3.8210470060053443,-861.0260836026688,-65.02472480291004,750.9399387270963,0.0,0.0,0.0,0.0,0.0,0.0,1.4,21.668808346167943,0.0,21.73459322842135,0.0,1.4,21.69,21.32,22.14,21.61,22.0,0.17,1.4,0.0,-600.93,-565.72,0.0,0.0,0.0,126.0,0.0,0.0,0.0,0.0,0.0,0.0,0.0,0.0,0.0,0.0,0.0,0.0,0.0,0.0
117.0,7116.0,7151.75879396985,0.0,-0.0,0.0,0.0,0.0,2226.0144143411776,0.0,2226.014414341177,0.0,0.0,0.6533333333333333,0.09529052267475538,0.5983304758602436,0.0,0.0,0.0,"[0.31107071874343006, 0.26103082100283004, 0.17513450579060574, 0.1682288426363172, 0.38453561007997195, 0.1959492588768974, 0.4588440837801677, 0.1080251384288573]",21.69,0.0,0.0,0.0,180.53480471569148,32.7518314800458,-852.5384392162484,-103.48895272946679,755.0070492144437,0.0,0.0,0.0,0.0,0.0,0.0,1.6,21.65004708796472,0.0,21.704728987507096,0.0,1.6,21.69,21.31,22.1,21.61,21.98,0.35,1.6,0.0,-595.01,-560.14,0.0,100.0,0.0,80.0,0.0,0.0,0.0,0.0,0.0,0.0,0.0,0.0,0.0,0.0,0.0,0.0,0.0,0.0
118.0,4070.0,2138.075390604825,1067.700463159862,-0.0,0.0,3010.315449508061,0.0,2905.789213038473,0.0,0.0,0.0,2905.789213038473,0.5253437308882627,0.09529052267475538,0.5983304758602436,0.0,0.0,0.0,"[0.31107071874343006, 0.26103082100283004, 0.17513450579060574, 0.1682288426363172, 0.38453561007997195, 0.1959492588768974, 0.4588440837801677, 0.1080251384288573]",21.69,0.0,0.0,0.0,352.97419953738563,57.40668239974695,-848.5087106000748,-141.34857214504237,1854.3780794822765,0.0,0.0,0.0,0.0,0.0,0.0,1.7,21.636687801160445,0.0,21.68123429150424,0.0,1.7,21.69,21.3,22.06,21.62,21.97,0.41,1.7,0.0,-592.2,-557.49,0.0,146.0,14.0,181.0,0.0,0.0,0.0,0.0,0.0,0.0,0.0,0.0,0.0,0.0,0.0,0.0,0.0,0.0
119.0,2142.0,34789.52604313755,32473.578412921855,-0.0,0.0,0.0,0.0,8997.294480718092,0.0,-80000.0,0.0,88997.2944807181,0.5253437308882627,0.4219571893414221,0.5983304758602436,0.0,0.0,0.0,"[0.31107071874343006, 0.26103082100283004, 0.17513450579060574, 0.1682288426363172, 0.38453561007997195, 0.1959492588768974, 0.4588440837801677, 0.1080251384288573]",22.31,0.0,0.0,0.0,128.88179114425756,57.04277316107978,-866.2095490338419,-987.2581224272847,1670.8011455666,0.0,0.0,0.0,0.0,0.0,0.0,1.9,21.84349833081099,0.0,21.721620626861878,0.0,1.9,22.31,21.32,22.12,22.0,22.34,0.62,1.9,0.0,-604.55,-569.12,0.0,130.0,31.0,23.0,0.0,0.0,0.0,0.0,0.0,0.0,0.0,0.0,0.0,0.0,0.0,0.0,0.0,0.0
120.0,1462.0,34196.59663000742,32563.613646857375,-0.0,0.0,0.0,0.0,9482.656954542723,0.0,-78519.63296890749,0.0,88002.28992345021,0.5253437308882627,0.7425790239644611,0.5983304758602436,0.0,0.0,0.0,"[0.31107071874343006, 0.26103082100283004, 0.17513450579060574, 0.1682288426363172, 0.38453561007997195, 0.1959492588768974, 0.4588440837801677, 0.1080251384288573]",22.31,0.0,0.0,0.0,73.50345620567438,1.6375915740022873,-883.1848378066823,-921.0085085777023,1729.1458308078863,0.0,0.0,0.0,0.0,0.0,0.0,1.5,21.875906164048672,0.0,21.771402185447684,0.0,1.5,22.31,21.35,22.19,22.0,22.37,0.13,1.5,42.74,-616.4,-580.28,0.0,0.0,0.0,54.0,0.0,0.0,0.0,0.0,0.0,0.0,0.0,0.0,0.0,0.0,0.0,0.0,0.0,0.0
121.0,1016.0,0.0,0.0,-0.0,0.0,1016.0,0.0,5775.469289220303,0.0,5775.469289220304,0.0,0.0,0.4821464519766981,0.7180234572585924,0.5983304758602436,0.0,0.0,0.0,"[0.31107071874343006, 0.26103082100283004, 0.17513450579060574, 0.1682288426363172, 0.38453561007997195, 0.1959492588768974, 0.4588440837801677, 0.1080251384288573]",22.31,0.0,0.0,0.0,95.28225804439273,2.1228038922251877,-895.9163043863126,-865.9364438704433,382.55042703843145,0.0,0.0,0.0,0.0,0.0,0.0,1.2,21.902815539855805,0.0,21.812427583536234,0.0,1.2,22.31,21.38,22.25,22.01,22.39,-0.21,1.2,11.31,-625.28,-588.64,0.0,0.0,0.0,70.0,0.0,0.0,0.0,0.0,0.0,0.0,0.0,0.0,0.0,0.0,0.0,0.0,0.0,0.0
122.0,941.0,945.7286432160804,0.0,-0.0,0.0,0.0,0.0,10874.587287052129,0.0,10874.587287052129,0.0,0.0,0.4821464519766981,0.6717879670925544,0.5983304758602436,0.0,0.0,0.0,"[0.31107071874343006, 0.26103082100283004, 0.17513450579060574, 0.1682288426363172, 0.38453561007997195, 0.1959492588768974, 0.4588440837801677, 0.1080251384288573]",21.69,0.0,0.0,0.0,268.2947792302637,28.96111024392939,-886.4890167619293,3.6261083903902867,1869.2796579616647,0.0,0.0,0.0,0.0,0.0,0.0,0.8,21.702545219949908,0.0,21.783226600161292,0.0,0.8,21.69,21.37,22.2,21.61,22.0,-0.62,0.8,558.56,-618.7,-582.45,0.0,80.0,0.0,155.0,0.0,0.0,0.0,0.0,0.0,0.0,0.0,0.0,0.0,0.0,0.0,0.0,0.0,0.0
123.0,2031.0,0.0,0.0,-0.0,0.0,2031.0,0.0,4567.809364995054,0.0,4567.809364995053,0.0,0.0,0.39579441116037156,0.6523670089080517,0.5983304758602436,0.0,0.0,0.0,"[0.31107071874343006, 0.26103082100283004, 0.17513450579060574, 0.1682288426363172, 0.38453561007997195, 0.1959492588768974, 0.4588440837801677, 0.1080251384288573]",22.31,0.0,0.0,0.0,167.56782072619143,26.717003272148474,-917.1354153523632,-867.4939490150737,309.85199621294345,0.0,0.0,0.0,0.0,0.0,0.0,0.7,21.90233914992045,0.0,21.810125346608103,0.0,0.7,22.31,21.38,22.24,22.03,22.41,-0.74,0.7,775.83,-640.09,-602.58,0.0,80.0,0.0,81.0,0.0,0.0,0.0,0.0,0.0,0.0,0.0,0.0,0.0,0.0,0.0,0.0,0.0,0.0
124.0,1787.0,0.0,0.0,-0.0,0.0,1787.0,0.0,5361.496969533014,0.0,5361.496969533013,0.0,0.0,0.319816520003909,0.6295715285954113,0.5983304758602436,0.0,0.0,0.0,"[0.31107071874343006, 0.26103082100283004, 0.17513450579060574, 0.1682288426363172, 0.38453561007997195, 0.1959492588768974, 0.4588440837801677, 0.1080251384288573]",21.69,0.0,0.0,0.0,174.37369630079093,26.86863212159313,-899.2204833415597,2.3304444515325846,697.1823314309576,0.0,0.0,0.0,0.0,0.0,0.0,0.5,21.70205930572842,0.0,21.78121001612132,0.0,0.5,21.69,21.37,22.19,21.61,22.0,-0.89,0.5,883.84,-627.59,-590.81,0.0,80.0,0.0,86.0,0.0,0.0,0.0,0.0,0.0,0.0,0.0,0.0,0.0,0.0,0.0,0.0,0.0,0.0
125.0,697.0,0.0,0.0,-0.0,0.0,697.0,0.0,7351.74558964621,0.0,7351.74558964621,0.0,0.0,0.2901821662624124,0.5983141068707251,0.5983304758602436,0.0,0.0,0.0,"[0.31107071874343006, 0.26103082100283004, 0.17513450579060574, 0.1682288426363172, 0.38453561007997195, 0.1959492588768974, 0.4588440837801677, 0.1080251384288573]",21.69,0.0,0.0,0.0,148.51136911731288,26.292442493703437,-907.7081277279798,-42.6367950224257,777.0428226237971,0.0,0.0,0.0,0.0,0.0,0.0,0.3,21.680346539743052,0.0,21.74715198765865,0.0,0.3,21.69,21.36,22.14,21.64,22.01,-1.1,0.3,1999.17,-633.51,-596.39,0.0,80.0,0.0,67.0,0.0,0.0,0.0,0.0,0.0,0.0,0.0,0.0,0.0,0.0,0.0,0.0,0.0,0.0
126.0,930.0,10794.363531370038,0.0,-0.0,0.0,0.0,0.0,8829.352542341867,0.0,0.0,0.0,0.0,0.2901821662624124,0.5983141068707251,0.5983304758602436,39241.56685485275,9810.391713713187,49051.95856856593,"[0.31107071874343006, 0.26103082100283004, 0.17513450579060574, 0.1682288426363172, 0.38453561007997195, 0.1959492588768974, 0.4588440837801677, 0.1080251384288573]",21.69,0.0,0.0,0.0,149.51434025462228,39.8177358641668,-911.9519499211899,-80.50570218932131,805.3997941912968,0.0,0.0,0.0,0.0,0.0,0.0,0.2,21.66200320360838,0.0,21.718736977367893,0.0,0.2,21.69,21.34,22.09,21.64,21.99,-1.16,0.2,0.0,-636.48,-599.18,0.0,127.0,0.0,43.0,0.0,0.0,0.0,0.0,0.0,0.0,0.0,0.0,0.0,0.0,0.0,0.0,0.0,0.0
127.0,674.0,0.0,3707.864717770526,-0.0,0.0,4381.864717770526,0.0,9525.529687122631,0.0,0.0,0.0,9525.529687122631,0.10387839424835943,0.5983141068707251,0.5983304758602436,0.0,0.0,0.0,"[0.31107071874343006, 0.26103082100283004, 0.17513450579060574, 0.1682288426363172, 0.38453561007997195, 0.1959492588768974, 0.4588440837801677, 0.1080251384288573]",21.69,0.0,0.0,0.0,108.89400919359169,2.4260615911145034,-916.1957721143999,-112.37156081733625,2199.404333104249,0.0,0.0,0.0,0.0,0.0,0.0,0.1,21.646614561110276,0.0,21.695177687550242,0.0,0.1,21.69,21.33,22.06,21.64,21.98,-1.3,0.1,735.9,-639.44,-601.96,0.0,0.0,0.0,80.0,0.0,0.0,0.0,0.0,0.0,0.0,0.0,0.0,0.0,0.0,0.0,0.0,0.0,0.0
128.0,1632.0,1640.2010050251256,0.0,-0.0,0.0,0.0,0.0,5608.3186544506025,0.0,5608.3186544506025,0.0,0.0,0.034490639146318613,0.5506243223941042,0.5983304758602436,0.0,0.0,0.0,"[0.31107071874343006, 0.26103082100283004, 0.17513450579060574, 0.1682288426363172, 0.38453561007997195, 0.1959492588768974, 0.4588440837801677, 0.1080251384288573]",22.31,0.0,0.0,2.206529993297092,62.61405528631523,1.394985414890837,-938.3545263184136,-963.8446015142426,553.9212277617238,0.0,0.0,0.0,0.0,0.0,0.0,0.2,21.85577072877419,0.0,21.737795570336047,0.0,0.2,22.31,21.35,22.13,22.03,22.37,-1.1,0.2,842.22,-654.9,-616.52,3.64,0.0,0.0,46.0,0.0,0.0,0.0,0.0,0.0,0.0,0.0,0.0,0.0,0.0,0.0,0.0,0.0,0.0
129.0,1734.0,1957.0708410227992,966.7178070236482,-0.0,4083.5726893566634,-3330.1403691507003,0.0,2732.3370967612937,0.0,0.0,0.0,2732.3370967612937,0.17047137088663888,0.5506243223941042,0.5983304758602436,0.0,0.0,0.0,"[0.31107071874343006, 0.26103082100283004, 0.17513450579060574, 0.1682288426363172, 0.38453561007997195, 0.1959492588768974, 0.4588440837801677, 0.1080251384288573]",21.69,0.0,0.0,590.3950860003414,84.39285712503357,1.8801977331137376,-801.6125728977271,-75.23590808326543,167.41513990593302,0.0,0.0,0.0,0.0,0.0,0.0,2.8,21.662716910592636,0.0,21.720914922806568,0.0,2.8,21.69,21.34,22.1,21.6,21.96,2.31,2.8,190.36,-559.47,-526.68,973.42,0.0,0.0,62.0,0.0,0.0,0.0,0.0,0.0,0.0,0.0,0.0,0.0,0.0,0.0,0.0,0.0,0.0
130.0,6009.0,11870.979514221242,0.0,-0.0,10197.375383349863,-16000.0,0.0,2518.9141091312167,0.0,2518.9141091312167,0.0,0.0,0.8238047042199722,0.539914653562764,0.5983304758602437,0.0,0.0,0.0,"[0.31107071874343006, 0.26103082100283004, 0.17513450579060574, 0.1682288426363172, 0.38453561007997195, 0.1959492588768974, 0.4588440837801677, 0.1080251384288573]",21.69,0.0,0.0,946.8116102530608,108.89400919359169,2.4260615911145034,-695.5170180674747,-56.17438571921179,0.0,0.0,0.0,0.0,0.0,0.0,0.0,5.3,21.67031907233542,0.0,21.73413001929372,0.0,5.3,21.69,21.34,22.13,21.7,22.19,5.41,5.3,0.0,-485.42,-456.97,1561.07,0.0,0.0,80.0,0.0,0.0,0.0,0.0,0.0,0.0,0.0,0.0,0.0,0.0,0.0,0.0,0.0,0.0
131.0,5670.0,13668.499653510864,18068.28928603745,-0.0,10138.13213079414,0.0,0.0,1410.935862252867,0.0,-56547.40887383841,0.0,57958.344736091276,0.8238047042199722,0.7708165731309375,0.5983304758602437,0.0,0.0,0.0,"[0.31107071874343006, 0.26103082100283004, 0.17513450579060574, 0.1682288426363172, 0.38453561007997195, 0.1959492588768974, 0.4588440837801677, 0.1080251384288573]",21.86,0.0,0.0,775.7383418162839,38.112903217757086,0.8491215568900745,-639.1595697800417,-237.12066653949867,951.5431443284135,0.0,0.0,0.0,0.0,0.0,0.0,6.8,21.75383583688626,0.0,21.787773498838874,0.0,6.8,21.86,21.35,22.22,21.83,22.46,6.87,6.8,0.0,-446.09,-419.94,1279.01,0.0,0.0,28.0,0.0,0.0,0.0,0.0,0.0,0.0,0.0,0.0,0.0,0.0,0.0,0.0,0.0,0.0
132.0,7322.0,0.0,273.5667888123693,-2415.6653022949654,10011.232091107335,0.0,0.0,903.6106454350539,0.0,0.0,0.0,903.6106454350539,0.8238047042199722,0.7708165731309375,0.608623310626544,0.0,0.0,0.0,"[0.31107071874343006, 0.26103082100283004, 0.17513450579060574, 0.1682288426363172, 0.38453561007997195, 0.1959492588768974, 0.4588440837801677, 0.1080251384288573]",22.31,0.0,0.0,720.8455700207807,108.89400919359169,2.4260615911145034,-615.824039634446,-779.7151476182217,529.1601487833075,0.0,0.0,0.0,0.0,0.0,0.0,7.8,21.940379053152604,0.0,21.873390312422814,0.0,7.8,22.31,21.39,22.35,22.1,22.73,7.84,7.8,0.0,-429.8,-404.61,1188.5,0.0,0.0,80.0,0.0,0.0,0.0,0.0,0.0,0.0,0.0,0.0,0.0,0.0,0.0,0.0,0.0,0.0
133.0,4681.0,0.0,440.85264648093744,-4291.84230810833,9413.694954589268,0.0,0.0,1472.9789175082678,0.0,0.0,0.0,1472.9789175082676,0.8238047042199722,0.7708165731309375,0.6269102908958751,0.0,0.0,0.0,"[0.31107071874343006, 0.26103082100283004, 0.17513450579060574, 0.1682288426363172, 0.38453561007997195, 0.1959492588768974, 0.4588440837801677, 0.1080251384288573]",22.31,0.0,0.0,686.4131104179054,99.36578338915241,2.213781201891984,-598.8487508616057,-679.0929931808163,0.0,0.0,0.0,0.0,0.0,0.0,0.0,8.2,21.989006954939242,0.0,21.948123384877277,0.0,8.2,22.31,21.44,22.46,22.08,22.72,8.22,8.2,0.0,-417.95,-393.46,1131.73,0.0,0.0,73.0,0.0,0.0,0.0,0.0,0.0,0.0,0.0,0.0,0.0,0.0,0.0,0.0,0.0,0.0
134.0,3226.0,0.0,829.3682011895957,-0.0,8370.355036618848,-4314.986835429253,0.0,2771.0889000115226,0.0,0.0,0.0,2771.088900011523,1.0,0.7708165731309375,0.626910290895875,0.0,0.0,0.0,"[0.31107071874343006, 0.26103082100283004, 0.17513450579060574, 0.1682288426363172, 0.38453561007997195, 0.1959492588768974, 0.4588440837801677, 0.1080251384288573]",22.09,0.0,0.0,626.6853360966007,69.4199308609147,1.5466142643354945,-589.426352815809,-301.2679966253887,621.037876018132,0.0,0.0,0.0,0.0,0.0,0.0,8.2,21.95038278711192,0.0,21.987417008940668,0.0,8.2,22.09,21.46,22.51,21.95,22.6,7.9,8.2,0.0,-411.38,-387.27,1033.26,0.0,0.0,51.0,0.0,0.0,0.0,0.0,0.0,0.0,0.0,0.0,0.0,0.0,0.0,0.0,0.0,0.0
135.0,3358.0,0.0,481.3619448812005,-1533.74670190309,5373.108646784291,0.0,0.0,1562.439062714681,0.0,0.0,0.0,1562.439062714681,1.0,0.7708165731309375,0.6334453855387665,0.0,0.0,0.0,"[0.31107071874343006, 0.26103082100283004, 0.17513450579060574, 0.1682288426363172, 0.38453561007997195, 0.1959492588768974, 0.4588440837801677, 0.1080251384288573]",22.31,0.0,0.0,596.9955394160942,118.42223499803096,2.6383419803370196,-641.2869727937065,-557.6182730536261,0.0,0.0,0.0,0.0,0.0,0.0,0.0,7.2,22.04885626684968,0.0,22.037411858378277,0.0,7.2,22.31,21.5,22.58,22.11,22.76,6.52,7.2,0.0,-447.57,-421.34,984.3,0.0,0.0,87.0,0.0,0.0,0.0,0.0,0.0,0.0,0.0,0.0,0.0,0.0,0.0,0.0,0.0,0.0
136.0,1982.0,0.0,1745.7955588828088,-0.0,0.0,3727.795558882809,0.0,5433.623343734064,0.0,0.0,0.0,5433.623343734063,0.8415052908638262,0.7708165731309375,0.5382812329211978,0.0,0.0,0.0,"[0.31107071874343006, 0.26103082100283004, 0.17513450579060574, 0.1682288426363172, 0.38453561007997195, 0.1959492588768974, 0.4588440837801677, 0.1080251384288573]",22.09,0.0,0.0,0.0,68.0587557459948,1.5162884944465638,-691.365616858851,-209.05996715314063,1284.2062334431125,0.0,0.0,0.0,0.0,0.0,0.0,5.8,21.99915349344001,0.0,22.05826797687099,0.0,5.8,22.09,21.52,22.6,21.96,22.62,4.21,5.8,0.0,-482.52,-454.25,0.0,0.0,0.0,50.0,0.0,0.0,0.0,0.0,0.0,0.0,0.0,0.0,0.0,0.0,0.0,0.0,0.0,0.0
137.0,4009.0,12463.020520929647,0.0,-0.0,0.0,-3517.1548926309965,0.0,4387.095473124599,0.0,0.0,0.0,0.0,0.9851224489795919,0.7708165731309375,0.5302954299043389,19498.202102776002,4874.5505256940005,24372.752628470003,"[0.31107071874343006, 0.26103082100283004, 0.17513450579060574, 0.1682288426363172, 0.38453561007997195, 0.1959492588768974, 0.4588440837801677, 0.1080251384288573]",22.31,0.0,0.0,0.0,84.39285712503357,1.8801977331137376,-717.6757722714885,-528.61838084141,445.4919108537189,0.0,0.0,0.0,0.0,0.0,0.0,5.4,22.064374935803446,0.0,22.05537295963409,0.0,5.4,22.31,21.54,22.57,22.07,22.54,3.8,5.4,0.0,-500.88,-471.53,0.0,0.0,0.0,62.0,0.0,0.0,0.0,0.0,0.0,0.0,0.0,0.0,0.0,0.0,0.0,0.0,0.0,0.0
138.0,4064.0,0.0,0.0,-0.0,0.0,9195.080000000002,0.0,5167.505001866003,25655.4,25691.825001866004,0.0,0.0,0.5941751700680272,0.6615826232930718,0.5203131761332652,20524.320000000003,5131.080000000001,25655.4,"[0.31107071874343006, 0.26103082100283004, 0.17513450579060574, 0.1682288426363172, 0.38453561007997195, 0.1959492588768974, 0.4588440837801677, 0.1080251384288573]",21.96,0.0,0.0,0.0,108.89400919359169,2.4260615911145034,-719.9334522653112,-63.51425679569291,104.88427599985596,0.0,0.0,0.0,0.0,0.0,0.0,5.0,21.943274015032223,0.0,22.021277478621315,0.0,5.0,21.96,21.54,22.5,21.84,22.29,3.47,5.0,372.39,-502.46,-473.02,0.0,0.0,0.0,80.0,0.0,0.0,0.0,0.0,0.0,0.0,0.0,0.0,0.0,0.0,0.0,0.0,0.0,0.0
139.0,3292.0,0.0,0.0,-0.0,0.0,3292.0,0.0,4905.389355986976,0.0,4905.3893559869775,0.0,0.0,0.4542091836734694,0.6407263760312224,0.49635576708268847,0.0,0.0,0.0,"[0.31107071874343006, 0.26103082100283004, 0.17513450579060574, 0.1682288426363172, 0.38453561007997195, 0.1959492588768974, 0.4588440837801677, 0.1080251384288573]",21.69,0.0,0.0,0.0,38.112903217757086,0.8491215568900745,-725.2237734199455,259.02219769221904,1687.860034364859,0.0,0.0,0.0,0.0,0.0,0.0,4.6,21.824485609954767,0.0,21.959003432169965,0.0,4.6,21.69,21.53,22.39,21.68,22.1,3.14,4.6,0.0,-506.15,-476.49,0.0,0.0,0.0,28.0,0.0,0.0,0.0,0.0,0.0,0.0,0.0,0.0,0.0,0.0,0.0,0.0,0.0,0.0
140.0,3584.0,5871.792950592194,0.0,-0.0,0.0,-2258.433985839233,0.0,417.6555168764079,0.0,417.6555168764079,0.0,0.0,0.39404761904761904,0.6371748835407768,0.49635576708268847,0.0,0.0,0.0,"[0.31107071874343006, 0.26103082100283004, 0.04557123020887133, 0.1682288426363172, 0.35515993063610907, 0.18459207670631272, 0.4588440837801677, 0.1080251384288573]",22.3,0.0,0.0,0.0,125.22811057263046,2.7899708297816774,-768.1599574696442,-620.2707580041431,0.0,0.0,0.0,0.0,0.0,0.0,0.0,4.2,22.01001598593669,0.0,21.967087271520818,0.0,4.2,22.3,21.54,22.4,22.09,22.48,2.8,4.2,0.0,-536.12,-504.7,0.0,0.0,0.0,92.0,0.0,0.0,0.0,0.0,0.0,0.0,0.0,0.0,0.0,0.0,0.0,0.0,0.0,0.0
141.0,3613.0,0.0,0.0,-0.0,0.0,3613.0,0.0,5599.946812530157,0.0,5599.946812530157,0.0,0.0,0.24043367346938777,0.6133655858684547,0.49635576708268847,0.0,0.0,0.0,"[0.31107071874343006, 0.26103082100283004, 0.04557123020887133, 0.1682288426363172, 0.35515993063610907, 0.18459207670631272, 0.4588440837801677, 0.1080251384288573]",21.69,0.0,0.0,0.0,538.1656559620137,43.30519940139389,-759.1743509656262,209.93121276189407,1252.2641947214008,0.0,0.0,0.0,0.0,0.0,0.0,3.8,21.801017059272535,0.0,21.91878086274757,0.0,3.8,21.69,21.52,22.31,21.66,22.04,2.47,3.8,0.0,-529.85,-498.8,0.0,109.0,0.0,338.0,0.0,0.0,0.0,0.0,0.0,0.0,0.0,0.0,0.0,0.0,0.0,0.0,0.0,0.0
142.0,3486.0,0.0,0.0,-0.0,0.0,3486.0,0.0,5435.49998851228,0.0,5435.49998851228,0.0,0.0,0.09221938775510204,0.590255466869678,0.49635576708268847,0.0,0.0,0.0,"[0.31107071874343006, 0.26103082100283004, 0.04557123020887133, 0.1682288426363172, 0.35515993063610907, 0.18459207670631272, 0.4588440837801677, 0.1080251384288573]",22.31,0.0,0.0,0.0,83.03168201011367,1.8498719632248068,-802.5522161356904,-688.9716335771604,1406.747952487553,0.0,0.0,0.0,0.0,0.0,0.0,3.4,21.98748397936793,0.0,21.92427019874075,0.0,3.4,22.31,21.53,22.32,22.06,22.4,2.06,3.4,0.0,-560.12,-527.3,0.0,0.0,0.0,61.0,0.0,0.0,0.0,0.0,0.0,0.0,0.0,0.0,0.0,0.0,0.0,0.0,0.0,0.0
143.0,2169.0,0.0,0.0,-0.0,0.0,2169.0,0.0,6648.487139186892,0.0,6648.487139186891,0.0,0.0,0.0,0.5619880895772167,0.49635576708268847,0.0,0.0,0.0,"[0.31107071874343006, 0.26103082100283004, 0.04557123020887133, 0.1682288426363172, 0.35515993063610907, 0.18459207670631272, 0.4588440837801677, 0.1080251384288573]",22.31,0.0,0.0,0.0,108.89400919359169,2.4260615911145034,-819.5275049085308,-656.4451857295774,1364.7911860803356,0.0,0.0,0.0,0.0,0.0,0.0,3.0,22.003485588075318,0.0,21.948267150775436,0.0,3.0,22.31,21.55,22.35,22.07,22.43,1.65,3.0,0.0,-571.97,-538.45,0.0,0.0,0.0,80.0,0.0,0.0,0.0,0.0,0.0,0.0,0.0,0.0,0.0,0.0,0.0,0.0,0.0,0.0
144.0,968.0,9675.20171701507,0.0,-0.0,0.0,-2466.6805497709283,0.0,5572.930642793158,0.0,0.0,0.0,0.0,0.10072278911564625,0.5619880895772167,0.49635576708268847,24768.58063463627,6192.145158659067,30960.725793295336,"[0.31107071874343006, 0.26103082100283004, 0.04557123020887133, 0.1682288426363172, 0.35515993063610907, 0.18459207670631272, 0.4588440837801677, 0.1080251384288573]",22.31,0.0,0.0,0.0,158.03959492175213,26.504722882925954,-840.7466158745813,-628.9935320637311,4.691161432613514,0.0,0.0,0.0,0.0,0.0,0.0,2.5,22.017032155084028,0.0,21.96843600355979,0.0,2.5,22.31,21.56,22.37,22.08,22.44,1.23,2.5,0.0,-586.78,-552.39,0.0,80.0,0.0,74.0,0.0,0.0,0.0,0.0,0.0,0.0,0.0,0.0,0.0,0.0,0.0,0.0,0.0,0.0
145.0,1542.0,0.0,0.0,-0.0,0.0,1542.0,0.0,2775.732914330852,0.0,2775.732914330852,0.0,0.0,0.035161564625850336,0.5501865040571026,0.49635576708268847,0.0,0.0,0.0,"[0.31107071874343006, 0.26103082100283004, 0.04557123020887133, 0.1682288426363172, 0.35515993063610907, 0.18459207670631272, 0.4588440837801677, 0.1080251384288573]",21.69,0.0,0.0,0.0,248.5219196661642,36.11799193771718,-831.3193282501979,217.90428825769317,330.8380330921243,0.0,0.0,0.0,0.0,0.0,0.0,2.1,21.805708952610672,0.0,21.922177016899454,0.0,2.1,21.69,21.55,22.3,21.68,22.04,0.92,2.1,95.63,-580.2,-546.2,0.0,80.0,14.0,139.0,0.0,0.0,0.0,0.0,0.0,0.0,0.0,0.0,0.0,0.0,0.0,0.0,0.0,0.0
146.0,827.0,0.0,0.0,-0.0,0.0,827.0,0.0,6293.989303684326,0.0,6293.989303684326,0.0,0.0,0.0,0.5234263454530026,0.49635576708268847,0.0,0.0,0.0,"[0.31107071874343006, 0.26103082100283004, 0.04557123020887133, 0.1682288426363172, 0.35515993063610907, 0.18459207670631272, 0.4588440837801677, 0.1080251384288573]",21.69,0.0,0.0,0.0,184.54668926492906,34.69268075293741,-852.5384392162484,150.9747747794074,484.30579146416005,0.0,0.0,0.0,0.0,0.0,0.0,1.6,21.77345407834395,0.0,21.871735930402615,0.0,1.6,21.69,21.52,22.22,21.7,22.03,0.5,1.6,1398.94,-595.01,-560.14,0.0,80.0,14.0,92.0,0.0,0.0,0.0,0.0,0.0,0.0,0.0,0.0,0.0,0.0,0.0,0.0,0.0,0.0
147.0,522.0,4384.367254497603,3840.4454182251156,-0.0,0.0,0.0,0.0,10342.088290487953,0.0,0.0,0.0,10342.08829048795,0.0,0.5234263454530026,0.49635576708268847,0.0,0.0,0.0,"[0.31107071874343006, 0.26103082100283004, 0.04557123020887133, 0.1682288426363172, 0.35515993063610907, 0.18459207670631272, 0.4588440837801677, 0.1080251384288573]",21.69,0.0,0.0,0.0,142.13533831584598,27.778405218261067,-861.0260836026688,95.42829268982383,1879.289135407437,0.0,0.0,0.0,0.0,0.0,0.0,1.4,21.746620037264613,0.0,21.83035943551095,0.0,1.4,21.69,21.5,22.16,21.7,22.01,0.27,1.4,544.94,-600.93,-565.72,0.0,80.0,3.0,62.0,0.0,0.0,0.0,0.0,0.0,0.0,0.0,0.0,0.0,0.0,0.0,0.0,0.0,0.0
148.0,654.0,6300.044560124756,0.0,-0.0,0.0,-5614.544337324132,0.0,8191.615961253918,0.0,8191.615961253918,0.0,0.0,0.2292605604407354,0.48859804629801146,0.49635576708268847,0.0,0.0,0.0,"[0.31107071874343006, 0.26103082100283004, 0.04557123020887133, 0.1682288426363172, 0.35515993063610907, 0.18459207670631272, 0.4588440837801677, 0.1080251384288573]",22.31,0.0,0.0,0.0,54.44700459679584,1.2130307955572517,-895.9163043863126,-774.4195191468064,1614.7450712542275,0.0,0.0,0.0,0.0,0.0,0.0,1.2,21.947025498585127,0.0,21.8595399705714,0.0,1.2,22.31,21.51,22.21,22.09,22.41,0.16,1.2,179.4,-625.28,-588.64,0.0,0.0,0.0,40.0,0.0,0.0,0.0,0.0,0.0,0.0,0.0,0.0,0.0,0.0,0.0,0.0,0.0,0.0
149.0,704.0,0.0,0.0,-0.0,0.0,704.0,0.0,4968.565820428636,0.0,4968.565820428635,0.0,0.0,0.19932858765161976,0.4674731916193183,0.49635576708268847,0.0,0.0,0.0,"[0.31107071874343006, 0.26103082100283004, 0.04557123020887133, 0.1682288426363172, 0.35515993063610907, 0.18459207670631272, 0.4588440837801677, 0.1080251384288573]",22.31,0.0,0.0,0.0,95.28225804439273,2.1228038922251877,-908.647770965943,-728.8780546165198,258.223504364135,0.0,0.0,0.0,0.0,0.0,0.0,0.9,21.96926883384485,0.0,21.89460431715502,0.0,0.9,22.31,21.52,22.27,22.07,22.4,-0.1,0.9,0.0,-634.17,-597.01,0.0,0.0,0.0,70.0,0.0,0.0,0.0,0.0,0.0,0.0,0.0,0.0,0.0,0.0,0.0,0.0,0.0,0.0
150.0,1145.0,1150.7537688442212,0.0,-0.0,0.0,0.0,0.0,4223.929612273654,0.0,4223.929612273654,0.0,0.0,0.19932858765161976,0.44951430721339286,0.49635576708268847,0.0,0.0,0.0,"[0.31107071874343006, 0.26103082100283004, 0.04557123020887133, 0.1682288426363172, 0.35515993063610907, 0.18459207670631272, 0.4588440837801677, 0.1080251384288573]",21.69,0.0,0.0,0.0,117.06105988311108,2.6080162104480924,-886.4890167619293,131.76561478655762,635.2032845757681,0.0,0.0,0.0,0.0,0.0,0.0,0.8,21.76447369240356,0.0,21.859563330638508,0.0,0.8,21.69,21.51,22.21,21.67,22.01,-0.14,0.8,0.0,-618.7,-582.45,0.0,0.0,0.0,86.0,0.0,0.0,0.0,0.0,0.0,0.0,0.0,0.0,0.0,0.0,0.0,0.0,0.0,0.0
151.0,1889.0,26216.459237690506,0.0,-0.0,0.0,-16000.0,0.0,7376.739247351845,0.0,0.0,0.0,0.0,0.8526619209849531,0.44951430721339286,0.49635576708268847,32785.50776600821,8196.376941502052,40981.88470751026,"[0.31107071874343006, 0.26103082100283004, 0.04557123020887133, 0.1682288426363172, 0.35515993063610907, 0.18459207670631272, 0.4588440837801677, 0.1080251384288573]",21.69,0.0,0.0,0.0,69.4199308609147,1.5466142643354945,-894.9766611483494,77.98205837060387,2028.134898352452,0.0,0.0,0.0,0.0,0.0,0.0,0.6,21.73846869415723,0.0,21.819655244198724,0.0,0.6,21.69,21.48,22.15,21.69,22.02,-0.32,0.6,1584.55,-624.63,-588.02,0.0,0.0,0.0,51.0,0.0,0.0,0.0,0.0,0.0,0.0,0.0,0.0,0.0,0.0,0.0,0.0,0.0,0.0
