,load_elec,grid,hp_elec,ev,pv,bat_pow,cool,load_th_sh,load_th_dhw,tes_pow,dh,hp_th,bat_soc,tes_soc,ev_soc,eh_th_in,eh_elec_in,eh_th_out,temp_slack,temp_zone_1,temp_zone_2,temp_update,Qsolar_1,QconvInt_1,QradInt_1,Qvent_1,Qconduc_1,Qheating_1,Qsolar_2,QconvInt_2,QradInt_2,Qvent_2,Qconduc_2,Qheating_2,temp_amb,temp_aggregate_1,temp_aggregate_2,temp_wall_1,temp_wall_2,_Tamb,_Tz_1,_TEW_1,_TIW_1,_T1_1,_T2_1,_Taeq_1,_Tvent_1,_Qheating_1,_Qinfvent_1,_Qenvelope_1,_Qsolar_1,_Qint_people_1,_Qint_lighting_1,_Qint_appliances_1,_Tz_2,_TEW_2,_TIW_2,_T1_2,_T2_2,_Taeq_2,_Tvent_2,_Qheating_2,_Qinfvent_2,_Qenvelope_2,_Qsolar_2,_Qint_people_2,_Qint_lighting_2,_Qint_appliances_2
8.0,1837.0,53686.034199967406,51580.604028967566,-0.0,0.0,0.0,0.0,85796.21855989196,0.0,0.0,0.0,85796.21855989196,0.5,0.5,0.8,0.0,0.0,0.0,"[2.0, 2.0, 2.0, 2.0, 2.0, 2.0, 2.0, 2.0, 2.0]",20.0,0.0,0.0,0.7646367727868043,90.01097497653289,2.0764141916903442,-2047.9325874962904,-1445.8777800757348,14215.107755165021,0.0,0.0,0.0,0.0,0.0,0.0,-9.4,19.480147761413434,0.0,19.0,0.0,-9.4,20.0,18.0,20.0,20.0,20.0,-9.94,-9.4,1939.24,-1426.55,-1126.98,1.22,0.0,0.0,66.0,0.0,0.0,0.0,0.0,0.0,0.0,0.0,0.0,0.0,0.0,0.0,0.0,0.0,0.0
9.0,1367.0,1359.2658229314525,0.0,-0.0,14.530506183204698,0.0,0.0,49308.30192491677,0.0,49308.30192491677,0.0,0.0,0.5,0.3136496525891278,0.8,0.0,0.0,0.0,"[2.0, 2.0, 2.0, 2.0, 2.0, 2.0, 2.0, 2.0, 2.0]",24.0,0.0,0.0,22.768225110046686,106.37660679044798,2.4539440447249508,-2270.8368147067713,-8629.38246846336,7864.35072662169,0.0,0.0,0.0,0.0,0.0,0.0,-8.6,20.82461687186654,0.0,19.32410940594334,0.0,-8.6,24.0,18.23,20.42,22.37,22.44,-9.12,-8.6,2374.74,-1581.82,-1249.64,36.19,0.0,0.0,78.0,0.0,0.0,0.0,0.0,0.0,0.0,0.0,0.0,0.0,0.0,0.0,0.0,0.0,0.0
10.0,5022.0,29269.105738511327,24798.368487528307,-0.0,697.6082777095382,0.0,0.0,45503.572167276405,0.0,0.0,0.0,45503.57216727641,0.5,0.3136496525891278,0.7999999999999999,0.0,0.0,0.0,"[2.0, 2.0, 2.0, 2.0, 2.0, 2.0, 2.0, 2.0, 2.0]",22.93,0.0,0.0,61.65194429474363,94.10238293001169,2.1707966549489948,-2126.3579163708227,-5943.046132250089,0.0,0.0,0.0,0.0,0.0,0.0,0.0,-7.6,20.743130362351437,0.0,19.59512952833949,0.0,-7.6,22.93,18.44,20.75,21.45,21.87,-8.18,-7.6,1526.22,-1481.18,-1170.13,97.98,0.0,0.0,69.0,0.0,0.0,0.0,0.0,0.0,0.0,0.0,0.0,0.0,0.0,0.0,0.0,0.0,0.0
11.0,6365.0,6761.638471627414,15497.554005554077,-0.0,1904.7237262847998,13230.0,0.0,29619.058934865025,0.0,0.0,0.0,29619.058934865017,0.0,0.3136496525891278,0.7999999999999999,0.0,0.0,0.0,"[2.0, 2.0, 2.0, 2.0, 2.0, 2.0, 2.0, 2.0, 2.0]",20.0,0.0,0.0,88.7758796771146,61.371119302181526,1.415736948879781,-1866.822902887775,-152.72925384759168,7281.812890157469,0.0,0.0,0.0,0.0,0.0,0.0,-6.8,19.957182764623962,0.0,19.61811476846026,0.0,-6.8,20.0,18.49,20.75,19.49,20.38,-7.36,-6.8,8377.57,-1300.39,-1027.31,141.09,0.0,0.0,45.0,0.0,0.0,0.0,0.0,0.0,0.0,0.0,0.0,0.0,0.0,0.0,0.0,0.0,0.0
12.0,4112.0,8046.99491168386,7803.533123390794,-0.0,3908.773186265353,0.0,0.0,15360.540694061898,0.0,0.0,0.0,15360.540694061896,0.0,0.3136496525891278,0.7999999999999999,0.0,0.0,0.0,"[2.0, 2.0, 2.0, 2.0, 2.0, 2.0, 2.0, 2.0, 2.0]",22.0,0.0,0.0,145.3238753162912,84.55576437189454,1.9505709073454736,-1964.5761435261697,-3838.994093977475,152.10079790168396,0.0,0.0,0.0,0.0,0.0,0.0,-6.2,20.597689942380356,0.0,19.74603313276549,0.0,-6.2,22.0,18.61,20.89,21.11,21.63,-6.73,-6.2,0.0,-1368.49,-1081.11,230.96,0.0,0.0,62.0,0.0,0.0,0.0,0.0,0.0,0.0,0.0,0.0,0.0,0.0,0.0,0.0,0.0,0.0
13.0,8697.0,94112.59088726685,69776.76172673747,-0.0,831.7337939069539,-16000.0,0.0,58014.372057867564,0.0,-80000.0,0.0,138014.37205786756,0.5807407407407407,0.6040200229594981,0.7999999999999999,0.0,0.0,0.0,"[2.0, 2.0, 2.0, 2.0, 2.0, 2.0, 2.0, 2.0, 2.0]",20.0,0.0,0.0,64.81666552896392,98.19379088349044,2.2651791182076497,-1818.0626031854824,86.55825525499061,12378.717746935978,0.0,0.0,0.0,0.0,0.0,0.0,-6.1,20.045339240065,0.0,19.747302102316354,0.0,-6.1,20.0,18.64,20.85,19.61,20.48,-6.65,-6.1,0.0,-1266.43,-1000.48,103.01,0.0,0.0,72.0,0.0,0.0,0.0,0.0,0.0,0.0,0.0,0.0,0.0,0.0,0.0,0.0,0.0,0.0
14.0,9390.0,25271.369869129063,15764.986340151852,-0.0,9.97332036843323,0.0,0.0,30430.76282599699,0.0,0.0,0.0,30430.76282599699,0.5807407407407407,0.6040200229594981,0.7882653061224489,0.0,0.0,0.0,"[2.0, 2.0, 2.0, 2.0, 2.0, 2.0, 2.0, 2.0, 2.0]",24.0,0.0,0.0,20.627110427528002,2153.0854907464764,103.3173364471378,-2131.5216727002207,-7244.325463448406,0.0,0.0,0.0,0.0,0.0,0.0,0.0,-6.6,21.33593560538099,0.0,20.007677775879912,0.0,-6.6,24.0,18.85,21.17,22.58,22.82,-7.12,-6.6,1974.49,-1484.78,-1172.98,32.78,163.0,9.0,1492.0,0.0,0.0,0.0,0.0,0.0,0.0,0.0,0.0,0.0,0.0,0.0,0.0,0.0,0.0
15.0,6629.0,21377.844278566343,14641.955057173513,-0.0,0.0,0.0,0.0,27285.899587251355,0.0,0.0,0.0,27285.899587251355,0.5807407407407407,0.6040200229594981,0.7811224489795918,0.0,0.0,0.0,"[2.0, 2.0, 2.0, 2.0, 2.0, 2.0, 2.0, 2.0, 2.0]",21.37,0.0,0.0,2.277480141726704,1317.4333610201634,82.61611617240679,-1997.1381500421235,-1925.2097614425456,0.0,0.0,0.0,0.0,0.0,0.0,0.0,-7.3,20.67325449059633,0.0,20.083983060001987,0.0,-7.3,21.37,18.93,21.23,20.35,21.16,-7.79,-7.3,8718.5,-1391.17,-1099.02,3.62,128.0,25.0,896.0,0.0,0.0,0.0,0.0,0.0,0.0,0.0,0.0,0.0,0.0,0.0,0.0,0.0,0.0
16.0,6434.0,22458.30364653836,15252.287013770056,-0.0,0.0,-659.725114535613,0.0,28568.68361251715,0.0,0.0,0.0,28568.683612517143,0.6046863189720333,0.6040200229594981,0.7811224489795914,0.0,0.0,0.0,"[2.0, 2.0, 2.0, 2.0, 2.0, 2.0, 2.0, 2.0, 2.0]",20.44,0.0,0.0,0.0,649.3136201257707,80.35093705419914,-1925.0427171839867,-154.2832798424092,179.06362378706905,0.0,0.0,0.0,0.0,0.0,0.0,-7.2,20.39278234122168,0.0,20.06105084488769,0.0,-7.2,20.44,18.96,21.17,19.95,20.81,-7.68,-7.2,0.0,-1340.95,-1059.35,0.0,106.0,60.0,414.0,0.0,0.0,0.0,0.0,0.0,0.0,0.0,0.0,0.0,0.0,0.0,0.0,0.0,0.0
17.0,9501.0,20717.49562125803,11112.90814315174,-0.0,0.0,0.0,0.0,21027.200402569477,0.0,0.0,0.0,21027.200402569473,0.6046863189720333,0.6040200229594981,0.7770408163265301,0.0,0.0,0.0,"[2.0, 2.0, 2.0, 2.0, 2.0, 2.0, 2.0, 2.0, 2.0]",20.0,0.0,0.0,0.0,680.3221856679256,109.54657902220885,-1880.75441708843,566.505113991501,11348.695302276174,0.0,0.0,0.0,0.0,0.0,0.0,-7.0,20.22327662416476,0.0,20.00617631156246,0.0,-7.0,20.0,18.95,21.06,19.76,20.61,-7.47,-7.0,5205.12,-1310.1,-1034.98,0.0,92.0,118.0,438.0,0.0,0.0,0.0,0.0,0.0,0.0,0.0,0.0,0.0,0.0,0.0,0.0,0.0,0.0
18.0,9720.0,4371.375902085961,10629.51902257553,-0.0,0.0,16000.0,0.0,47737.592080100505,0.0,27523.69807508319,0.0,20213.894005017308,0.0,0.5,0.7719387755102028,0.0,0.0,0.0,"[2.0, 2.0, 2.0, 2.0, 2.0, 2.0, 2.0, 2.0, 2.0]",24.0,0.0,0.0,0.0,661.9467394207228,157.24118378891436,-2152.4189440012033,-6819.17002863551,8167.244811578313,0.0,0.0,0.0,0.0,0.0,0.0,-6.9,21.493327424287184,0.0,20.239387179784075,0.0,-6.9,24.0,19.13,21.35,22.65,22.88,-7.38,-6.9,0.0,-1499.34,-1184.47,0.0,142.0,177.0,392.0,0.0,0.0,0.0,0.0,0.0,0.0,0.0,0.0,0.0,0.0,0.0,0.0,0.0,0.0
19.0,6837.0,37149.35191971111,30126.60516011255,-0.0,0.0,0.0,0.0,57578.22772709734,0.0,0.0,0.0,57578.22772709734,0.0,0.5,0.7688775510204069,0.0,0.0,0.0,"[2.0, 2.0, 2.0, 2.0, 2.0, 2.0, 2.0, 2.0, 2.0]",24.0,0.0,0.0,0.0,884.7490251680576,136.351198587666,-2145.4531869008756,-6259.012652685786,0.0,0.0,0.0,0.0,0.0,0.0,0.0,-6.8,21.700471535972095,0.0,20.506411177811152,0.0,-6.8,24.0,19.34,21.67,22.5,22.89,-7.27,-6.8,0.0,-1494.48,-1180.64,0.0,83.0,162.0,588.0,0.0,0.0,0.0,0.0,0.0,0.0,0.0,0.0,0.0,0.0,0.0,0.0,0.0,0.0
20.0,9511.0,18563.535616617177,7614.10815651536,-0.0,0.0,-1345.609782018733,0.0,14697.324465945352,0.0,0.0,0.0,14697.324465945352,0.357438269891477,0.5,0.7382653061224478,0.0,0.0,0.0,"[1.325355908031817, 2.0, 2.0, 0.5103942562745445, 2.0, 2.0, 1.3086155381525941, 2.0, 1.7859400358900075]",21.26,0.0,0.0,0.0,1028.52253623504,133.11073401578562,-1940.951969244919,-801.9557554239268,0.0,0.0,0.0,0.0,0.0,0.0,0.0,-6.6,20.981715878132107,0.0,20.548906745676945,0.0,-6.6,21.26,19.4,21.69,20.58,21.44,-7.07,-6.6,0.0,-1352.03,-1068.1,0.0,129.0,126.0,673.0,0.0,0.0,0.0,0.0,0.0,0.0,0.0,0.0,0.0,0.0,0.0,0.0,0.0,0.0
21.0,5727.0,16847.37318298603,11036.136317071101,-0.0,0.0,0.0,0.0,21407.99157674142,0.0,0.0,0.0,21407.99157674142,0.357438269891477,0.5,0.7382653061224478,0.0,0.0,0.0,"[1.325355908031817, 2.0, 2.0, 0.5103942562745445, 2.0, 2.0, 1.3086155381525941, 2.0, 1.7859400358900075]",20.67,0.0,0.0,0.0,954.1594022033906,102.7825024886721,-1892.9197003250063,248.61525841867262,7763.247120807505,0.0,0.0,0.0,0.0,0.0,0.0,-6.5,20.780428159007162,0.0,20.50752577601388,0.0,-6.5,20.67,19.41,21.6,20.32,21.19,-6.98,-6.5,679.2,-1318.57,-1041.67,0.0,135.0,72.0,621.0,0.0,0.0,0.0,0.0,0.0,0.0,0.0,0.0,0.0,0.0,0.0,0.0,0.0,0.0
22.0,4555.0,0.0,0.0,-0.0,0.0,4555.0,0.0,9639.897294228196,0.0,9639.897294228196,0.0,0.0,0.18529163345912628,0.4635680374367793,0.7382653061224478,0.0,0.0,0.0,"[1.325355908031817, 2.0, 2.0, 0.5103942562745445, 2.0, 2.0, 1.3086155381525941, 2.0, 1.7859400358900075]",23.33,0.0,0.0,0.0,774.1374522503247,75.34866650149057,-2063.630332661024,-4671.1498790974065,0.0,0.0,0.0,0.0,0.0,0.0,0.0,-6.3,21.61259972246141,0.0,20.653669380047564,0.0,-6.3,23.33,19.54,21.77,22.26,22.7,-6.81,-6.3,4137.8,-1437.49,-1135.61,0.0,157.0,19.0,483.0,0.0,0.0,0.0,0.0,0.0,0.0,0.0,0.0,0.0,0.0,0.0,0.0,0.0,0.0
23.0,4675.0,0.0,0.0,-0.0,0.0,4675.0,0.0,37816.38533078047,0.0,37816.385330780475,0.0,0.0,0.0086098496344853,0.32064896967116907,0.7382653061224478,0.0,0.0,0.0,"[1.325355908031817, 2.0, 2.0, 0.5103942562745445, 2.0, 2.0, 1.3086155381525941, 2.0, 1.7859400358900075]",21.15,0.0,0.0,0.0,465.0567040454199,44.705826763514864,-1904.8422066330547,-369.325883076301,7661.032944497902,0.0,0.0,0.0,0.0,0.0,0.0,-6.2,21.023107544096842,0.0,20.667466137317238,0.0,-6.2,21.15,19.58,21.75,20.6,21.44,-6.7,-6.2,237.76,-1326.88,-1048.23,0.0,80.0,18.0,297.0,0.0,0.0,0.0,0.0,0.0,0.0,0.0,0.0,0.0,0.0,0.0,0.0,0.0,0.0
24.0,1816.0,17836.28695154879,15931.105516791045,-0.0,0.0,0.0,0.0,31510.799149697807,0.0,0.0,0.0,31510.799149697807,0.0086098496344853,0.32064896967116907,0.7382653061224478,0.0,0.0,0.0,"[1.325355908031817, 2.0, 2.0, 0.5103942562745445, 2.0, 2.0, 1.3086155381525941, 2.0, 1.7859400358900075]",23.33,0.0,0.0,0.0,841.6097939392729,43.25862899354887,-2049.6988184603692,-4366.276106635907,5535.19017022228,0.0,0.0,0.0,0.0,0.0,0.0,-6.1,21.725268656535746,0.0,20.811316069309854,0.0,-6.1,23.33,19.71,21.91,22.32,22.78,-6.61,-6.1,4548.01,-1427.78,-1127.95,0.0,80.0,0.0,575.0,0.0,0.0,0.0,0.0,0.0,0.0,0.0,0.0,0.0,0.0,0.0,0.0,0.0,0.0
25.0,1578.0,11619.138517775546,9983.042825186667,-0.0,0.0,0.0,0.0,19841.048872836833,0.0,0.0,0.0,19841.04887283683,0.0086098496344853,0.32064896967116907,0.7382653061224478,0.0,0.0,0.0,"[1.325355908031817, 2.0, 2.0, 0.5103942562745445, 2.0, 2.0, 1.3086155381525941, 2.0, 1.7859400358900075]",23.33,0.0,0.0,0.0,170.61888956875492,27.77990501912993,-2042.7330613600418,-4048.1086656076827,0.0,0.0,0.0,0.0,0.0,0.0,0.0,-6.0,21.842885824548386,0.0,20.966639973646686,0.0,-6.0,23.33,19.84,22.09,22.2,22.75,-6.47,-6.0,3794.71,-1422.93,-1124.11,0.0,80.0,0.0,83.0,0.0,0.0,0.0,0.0,0.0,0.0,0.0,0.0,0.0,0.0,0.0,0.0,0.0,0.0
26.0,1446.0,30674.57801352111,13075.205123453501,-0.0,0.0,-16000.0,0.0,26360.594224057393,0.0,0.0,0.0,26360.59422405739,0.589350590375226,0.32064896967116907,0.7382653061224478,0.0,0.0,0.0,"[1.325355908031817, 2.0, 2.0, 0.5103942562745445, 2.0, 2.0, 1.3086155381525941, 2.0, 1.7859400358900075]",21.14,0.0,0.0,0.0,214.26057440586186,28.786651293888887,-1869.9449282728813,210.68682833946758,147.81197117875348,0.0,0.0,0.0,0.0,0.0,0.0,-5.7,21.23639845809758,0.0,20.959846148035325,0.0,-5.7,21.14,19.87,22.05,20.75,21.63,-6.16,-5.7,3585.28,-1302.57,-1029.03,0.0,80.0,0.0,115.0,0.0,0.0,0.0,0.0,0.0,0.0,0.0,0.0,0.0,0.0,0.0,0.0,0.0,0.0
27.0,1597.0,27398.159913909498,25664.16911433995,-0.0,0.0,0.0,0.0,52230.218655120094,0.0,0.0,0.0,52230.218655120094,0.589350590375226,0.32064896967116907,0.7382653061224478,0.0,0.0,0.0,"[1.325355908031817, 2.0, 2.0, 0.5103942562745445, 2.0, 2.0, 1.3086155381525941, 2.0, 1.7859400358900075]",20.67,0.0,0.0,0.0,137.88762594092478,27.024845313060712,-1823.2621293217312,969.7395000344378,7857.3431251279035,0.0,0.0,0.0,0.0,0.0,0.0,-5.5,21.04664850588387,0.0,20.891356426821375,0.0,-5.5,20.67,19.86,21.92,20.54,21.41,-5.95,-5.5,3250.59,-1270.05,-1003.34,0.0,80.0,0.0,59.0,0.0,0.0,0.0,0.0,0.0,0.0,0.0,0.0,0.0,0.0,0.0,0.0,0.0,0.0
28.0,1741.0,0.0,2819.5207785229513,-0.0,0.0,4560.520778522951,0.0,5765.003435951528,0.0,0.0,0.0,5765.003435951528,0.41699530774019383,0.32064896967116907,0.7382653061224478,0.0,0.0,0.0,"[1.325355908031817, 2.0, 2.0, 0.5103942562745445, 2.0, 2.0, 1.3086155381525941, 2.0, 1.7859400358900075]",23.33,0.0,0.0,0.0,176.07410017339328,27.905748303474798,-2000.9385187580765,-3995.7661331367667,0.0,0.0,0.0,0.0,0.0,0.0,0.0,-5.4,21.861932047321297,0.0,21.015455016260542,0.0,-5.4,23.33,19.97,22.06,22.47,22.9,-5.84,-5.4,104.05,-1393.82,-1101.12,0.0,80.0,0.0,87.0,0.0,0.0,0.0,0.0,0.0,0.0,0.0,0.0,0.0,0.0,0.0,0.0,0.0,0.0
29.0,819.0,0.0,10214.69584280553,-0.0,0.0,11033.69584280553,0.0,21080.492115271103,0.0,0.0,0.0,21080.492115271103,0.0,0.32064896967116907,0.7382653061224478,0.0,0.0,0.0,"[1.325355908031817, 2.0, 2.0, 0.5103942562745445, 2.0, 2.0, 1.3086155381525941, 2.0, 1.7859400358900075]",21.18,0.0,0.0,0.0,143.34283654556316,27.150688597405576,-1837.6851504268327,195.6403943391179,103.29164178847446,0.0,0.0,0.0,0.0,0.0,0.0,-5.2,21.267470512756802,0.0,21.00978289191853,0.0,-5.2,21.18,20.0,22.02,20.81,21.63,-5.64,-5.2,1406.62,-1280.1,-1011.28,0.0,80.0,0.0,63.0,0.0,0.0,0.0,0.0,0.0,0.0,0.0,0.0,0.0,0.0,0.0,0.0,0.0,0.0
30.0,2136.0,25002.126698096476,6741.116064605994,-0.0,0.0,-16000.0,0.0,13976.186367466242,0.0,0.0,0.0,13976.186367466244,0.5807407407407407,0.32064896967116907,0.7382653061224478,0.0,0.0,0.0,"[1.325355908031817, 2.0, 2.0, 0.5103942562745445, 2.0, 2.0, 1.3086155381525941, 2.0, 1.7859400358900075]",20.67,0.0,0.0,0.0,60.007316651021945,1.384276127793561,-1795.3991009204212,1029.02049255038,7871.299481254604,0.0,0.0,0.0,0.0,0.0,0.0,-5.1,21.06837364115062,0.0,20.940871286529145,0.0,-5.1,20.67,19.98,21.9,20.59,21.4,-5.54,-5.1,845.94,-1250.64,-988.01,0.0,0.0,0.0,44.0,0.0,0.0,0.0,0.0,0.0,0.0,0.0,0.0,0.0,0.0,0.0,0.0,0.0,0.0
31.0,1985.0,1909.6039400224854,12640.912303352274,-0.0,0.0,12725.8563830299,0.0,26328.59519927379,0.0,0.0,0.0,26328.59519927379,0.09979378748942162,0.32064896967116907,0.7382653061224478,0.0,0.0,0.0,"[1.325355908031817, 2.0, 2.0, 0.5103942562745445, 2.0, 2.0, 1.3086155381525941, 2.0, 1.7859400358900075]",23.33,0.0,0.0,0.0,135.01646246479936,3.1146212875355186,-1973.0754903567667,-3937.45970142354,1856.9843978691856,0.0,0.0,0.0,0.0,0.0,0.0,-5.0,21.88329673360843,0.0,21.06325389313391,0.0,-5.0,23.33,20.08,22.04,22.51,22.89,-5.44,-5.0,3853.24,-1374.41,-1085.78,0.0,0.0,0.0,99.0,0.0,0.0,0.0,0.0,0.0,0.0,0.0,0.0,0.0,0.0,0.0,0.0,0.0,0.0
32.0,1714.0,18097.43077082421,292.9436169700934,-0.0,0.0,-15999.999999999998,0.0,615.730796423539,0.0,0.0,0.0,615.730796423539,0.6046863189720333,0.32064896967116907,0.7382653061224478,0.0,0.0,0.0,"[1.1672674124856925, 2.0, 2.0, 0.5103942562745445, 1.4147407216186956, 1.027406547571772, 1.3086155381525941, 1.0380581001479285, 1.3951057538086715]",21.88,0.0,0.0,0.7646887670166577,42.27788218594727,0.9752854536727346,-1858.2526213905082,-1008.7700584989233,0.0,0.0,0.0,0.0,0.0,0.0,0.0,-4.8,21.517384643374182,0.0,21.10534060126757,0.0,-4.8,21.88,20.13,22.08,21.35,22.02,-5.24,-4.8,0.0,-1294.42,-1022.6,1.22,0.0,0.0,31.0,0.0,0.0,0.0,0.0,0.0,0.0,0.0,0.0,0.0,0.0,0.0,0.0,0.0,0.0
33.0,6890.0,9657.137926469633,2732.6718106737276,-0.0,13.819573836443075,0.0,0.0,6004.247913064722,0.0,0.0,0.0,6004.2479130647225,0.6046863189720333,0.32064896967116907,0.7382653061224478,0.0,0.0,0.0,"[1.1672674124856925, 2.0, 2.0, 0.5103942562745445, 1.4147407216186956, 1.027406547571772, 1.3086155381525941, 1.0380581001479285, 1.3951057538086715]",20.83,0.0,0.0,22.7546989074359,129.56125186016098,2.988778003190648,-1715.8563192194683,916.6164191485544,643.6211299205186,0.0,0.0,0.0,0.0,0.0,0.0,-3.8,21.184293174814265,0.0,21.05097835456952,0.0,-3.8,20.83,20.12,21.98,20.71,21.49,-4.2,-3.8,302.53,-1195.23,-944.23,36.16,0.0,0.0,95.0,0.0,0.0,0.0,0.0,0.0,0.0,0.0,0.0,0.0,0.0,0.0,0.0,0.0,0.0
34.0,4489.0,0.0,0.0,-0.0,228.33737435298437,12987.952625647014,0.0,13275.265941901163,43636.45,48184.425941901165,0.0,0.0,0.11383398996043032,0.1385460749549893,0.7382653061224478,34909.159999999996,8727.289999999999,43636.45,"[1.1672674124856925, 2.0, 2.0, 0.5103942562745445, 1.4147407216186956, 1.027406547571772, 1.3086155381525941, 1.0380581001479285, 1.3951057538086715]",20.83,0.0,0.0,44.6266609632533,61.371119302181526,1.415736948879781,-1639.2329911158656,769.8454116034777,7072.337859339139,0.0,0.0,0.0,0.0,0.0,0.0,-2.7,21.129456574574604,0.0,20.988675676358227,0.0,-2.7,20.83,20.11,21.87,20.75,21.47,-3.11,-2.7,3430.0,-1141.86,-902.07,70.92,0.0,0.0,45.0,0.0,0.0,0.0,0.0,0.0,0.0,0.0,0.0,0.0,0.0,0.0,0.0,0.0,0.0
35.0,6127.0,17256.66417226146,12142.699357215533,-0.0,1099.3185058153845,0.0,0.0,29110.99583430494,0.0,0.0,0.0,29110.995834304937,0.11383398996043032,0.1385460749549893,0.7382653061224478,0.0,0.0,0.0,"[1.1672674124856925, 2.0, 2.0, 0.5103942562745445, 1.4147407216186956, 1.027406547571772, 1.3086155381525941, 1.0380581001479285, 1.3951057538086715]",23.17,0.0,0.0,69.63600684266135,88.6471723253733,2.044953370604124,-1732.1934454426535,-3590.1875926651383,0.0,0.0,0.0,0.0,0.0,0.0,0.0,-1.7,21.851911758305246,0.0,21.102653224883916,0.0,-1.7,23.17,20.2,22.0,22.42,22.77,-2.09,-1.7,325.56,-1206.61,-953.23,110.67,0.0,0.0,65.0,0.0,0.0,0.0,0.0,0.0,0.0,0.0,0.0,0.0,0.0,0.0,0.0,0.0,0.0
36.0,4388.0,10101.309654221697,6370.121642123591,-0.0,1551.4657684881229,-844.1472323151208,0.0,15696.87426915421,0.0,0.0,0.0,15696.874269154212,0.1444734080222384,0.1385460749549893,0.7382653061224478,0.0,0.0,0.0,"[1.1672674124856925, 2.0, 2.0, 0.5103942562745445, 1.4147407216186956, 1.027406547571772, 1.3086155381525941, 1.0380581001479285, 1.3951057538086715]",21.26,0.0,0.0,77.78584432676202,106.37660679044798,2.4539440447249508,-1550.4709461111693,151.7953552484158,6370.674268571,0.0,0.0,0.0,0.0,0.0,0.0,-1.0,21.326004015644607,0.0,21.10153891663161,0.0,-1.0,21.26,20.23,21.98,20.95,21.65,-1.52,-1.0,3364.07,-1080.03,-853.22,123.62,0.0,0.0,78.0,0.0,0.0,0.0,0.0,0.0,0.0,0.0,0.0,0.0,0.0,0.0,0.0,0.0,0.0
37.0,4719.0,68879.68252828294,48277.04123383987,-0.0,460.7571181983508,-16000.0,0.0,40342.1285940626,0.0,-80000.0,0.0,120342.1285940626,0.7252141487629791,0.42891644532535966,0.7382653061224478,0.0,0.0,0.0,"[1.1672674124856925, 2.0, 2.0, 0.5103942562745445, 1.4147407216186956, 1.027406547571772, 1.3086155381525941, 1.0380581001479285, 1.3951057538086715]",23.17,0.0,0.0,54.632393967730664,42.27788218594727,0.9752854536727346,-1662.5358744393782,-3378.1516215416036,4941.462603536191,0.0,0.0,0.0,0.0,0.0,0.0,-0.7,21.929918901444935,0.0,21.21285390601619,0.0,-0.7,23.17,20.32,22.1,22.43,22.8,-1.25,-0.7,0.0,-1158.09,-914.89,86.83,0.0,0.0,31.0,0.0,0.0,0.0,0.0,0.0,0.0,0.0,0.0,0.0,0.0,0.0,0.0,0.0,0.0
38.0,3453.0,0.0,7066.378980830242,-0.0,0.44066749931424,10518.938313330927,0.0,17210.452247467714,0.0,0.0,0.0,17210.452247467714,0.3276730182516062,0.42891644532535966,0.7382653061224478,0.0,0.0,0.0,"[1.1672674124856925, 2.0, 2.0, 0.5103942562745445, 1.4147407216186956, 1.027406547571772, 1.3086155381525941, 1.0380581001479285, 1.3951057538086715]",23.17,0.0,0.0,13.089553142757836,150.01829162755482,3.460690319483909,-1704.3304170413433,-3117.5163555799036,4414.175837913087,0.0,0.0,0.0,0.0,0.0,0.0,-1.3,22.026594381437057,0.0,21.34017929671321,0.0,-1.3,23.17,20.43,22.25,22.35,22.79,-1.78,-1.3,3720.53,-1187.21,-937.89,20.8,0.0,0.0,110.0,0.0,0.0,0.0,0.0,0.0,0.0,0.0,0.0,0.0,0.0,0.0,0.0,0.0,0.0
39.0,4151.0,0.0,4519.2280629375,-0.0,0.0,8670.2280629375,0.0,10748.263880709726,0.0,0.0,0.0,10748.263880709726,0.0,0.42891644532535966,0.7382653061224478,0.0,0.0,0.0,"[1.1672674124856925, 2.0, 2.0, 0.5103942562745445, 1.4147407216186956, 1.027406547571772, 1.3086155381525941, 1.0380581001479285, 1.3951057538086715]",23.08,0.0,0.0,1.512658500567087,144.63486010981958,35.39342372199452,-1739.913191142858,-2725.993090774134,0.0,0.0,0.0,0.0,0.0,0.0,0.0,-1.9,22.082498426156878,0.0,21.44701105181552,0.0,-1.9,23.08,20.53,22.37,22.31,22.79,-2.39,-1.9,0.0,-1211.99,-957.47,2.4,83.0,13.0,61.0,0.0,0.0,0.0,0.0,0.0,0.0,0.0,0.0,0.0,0.0,0.0,0.0,0.0,0.0
40.0,2684.0,23687.9446849491,4885.504961524357,-0.0,0.0,-16000.0,0.0,11526.245087408792,0.0,0.0,0.0,11526.245087408792,0.5807407407407407,0.42891644532535966,0.7382653061224478,0.0,0.0,0.0,"[1.1672674124856925, 2.0, 2.0, 0.5103942562745445, 1.4147407216186956, 1.027406547571772, 1.3086155381525941, 1.0380581001479285, 1.3951057538086715]",21.49,0.0,0.0,0.0,386.96105749480773,73.27225230980024,-1643.3696934609777,343.81613228452204,0.0,0.0,0.0,0.0,0.0,0.0,0.0,-2.1,21.631337339089104,0.0,21.429639386407047,0.0,-2.1,21.49,20.54,22.32,21.23,21.95,-2.6,-2.1,593.89,-1144.74,-904.35,0.0,163.0,28.0,195.0,0.0,0.0,0.0,0.0,0.0,0.0,0.0,0.0,0.0,0.0,0.0,0.0,0.0,0.0
41.0,6483.0,29854.83153961319,11671.536973751854,-0.0,0.0,-11551.020408163267,0.0,27313.817643314454,0.0,0.0,0.0,27313.817643314454,1.0,0.42891644532535966,0.7382653061224478,0.0,0.0,0.0,"[1.1672674124856925, 2.0, 2.0, 0.5103942562745445, 1.4147407216186956, 1.027406547571772, 1.3086155381525941, 1.0380581001479285, 1.3951057538086715]",21.18,0.0,0.0,0.0,486.94932555087655,80.41385869637156,-1635.4972588413043,814.7892645652099,5635.926249855773,0.0,0.0,0.0,0.0,0.0,0.0,-2.3,21.49246947654213,0.0,21.36870846457797,0.0,-2.3,21.18,20.52,22.21,21.08,21.79,-2.8,-2.3,0.0,-1139.26,-900.01,0.0,149.0,44.0,274.0,0.0,0.0,0.0,0.0,0.0,0.0,0.0,0.0,0.0,0.0,0.0,0.0,0.0,0.0
42.0,5305.0,5331.658291457286,0.0,-0.0,0.0,0.0,0.0,0.0,0.0,0.0,0.0,0.0,1.0,0.42891644532535966,0.5852040816326518,0.0,0.0,0.0,"[1.1672674124856925, 2.0, 2.0, 0.5103942562745445, 1.4147407216186956, 1.027406547571772, 1.3086155381525941, 1.0380581001479285, 1.3951057538086715]",23.17,0.0,0.0,0.0,305.7789102073605,8.17981348241651,-1787.9195022452734,-2930.7016819199316,0.0,0.0,0.0,0.0,0.0,0.0,0.0,-2.5,22.09632996721578,0.0,21.45162863336551,0.0,-2.5,23.17,20.6,22.31,22.51,22.89,-3.05,-2.5,3270.05,-1245.43,-983.89,0.0,0.0,2.0,224.0,0.0,0.0,0.0,0.0,0.0,0.0,0.0,0.0,0.0,0.0,0.0,0.0,0.0,0.0
43.0,7713.0,0.0,6368.276975300464,-0.0,0.0,14081.276975300465,0.0,14660.24619225715,0.0,0.0,0.0,14660.24619225715,0.4678277787112448,0.42891644532535966,0.5806122448979572,0.0,0.0,0.0,"[1.1672674124856925, 2.0, 2.0, 0.5103942562745445, 1.4147407216186956, 1.027406547571772, 1.3086155381525941, 1.0380581001479285, 1.3951057538086715]",21.54,0.0,0.0,0.0,317.7660177201844,7.3303713130886425,-1688.3416284192333,234.45984457642143,0.0,0.0,0.0,0.0,0.0,0.0,0.0,-2.7,21.636855373850892,0.0,21.436912875144493,0.0,-2.7,21.54,20.61,22.27,21.26,21.93,-3.27,-2.7,1996.09,-1176.07,-929.09,0.0,0.0,0.0,233.0,0.0,0.0,0.0,0.0,0.0,0.0,0.0,0.0,0.0,0.0,0.0,0.0,0.0,0.0
44.0,7711.0,28521.329673064858,4667.723024699539,-0.0,0.0,-15999.999999999998,0.0,10656.447126330113,0.0,0.0,0.0,10656.447126330113,0.5807407407407407,0.42891644532535966,0.5275510204081613,0.0,0.0,0.0,"[1.1672674124856925, 0.6006257807510877, 1.999408697630237, 0.5103942562745445, 0.11241769845560512, 0.4644656379305978, 0.6915146359038467, 0.5388602643262601, 1.3951057538086715]",21.12,0.0,0.0,0.0,62.73492195334111,1.4471977699659964,-1673.1712950689644,906.5601971442381,6237.477631365431,0.0,0.0,0.0,0.0,0.0,0.0,-2.9,21.467551233899513,0.0,21.37197844047825,0.0,-2.9,21.12,20.58,22.16,21.05,21.73,-3.44,-2.9,0.0,-1165.5,-920.75,0.0,0.0,0.0,46.0,0.0,0.0,0.0,0.0,0.0,0.0,0.0,0.0,0.0,0.0,0.0,0.0,0.0,0.0
45.0,7179.0,0.0,0.0,-0.0,0.0,7179.0,0.0,17819.20462786082,0.0,17819.204627860818,0.0,0.0,0.3094255479969765,0.36157251249141853,0.5102040816326511,0.0,0.0,0.0,"[1.1672674124856925, 0.6006257807510877, 1.999408697630237, 0.5103942562745445, 0.11241769845560512, 0.4644656379305978, 0.6915146359038467, 0.5388602643262601, 1.3951057538086715]",23.17,0.0,0.0,0.0,137.74406776711854,3.1775429297079487,-1829.7140448472387,-2944.920547880805,0.0,0.0,0.0,0.0,0.0,0.0,0.0,-3.1,22.09136312821599,0.0,21.458196715287258,0.0,-3.1,23.17,20.65,22.27,22.56,22.89,-3.64,-3.1,0.0,-1274.55,-1006.89,0.0,0.0,0.0,101.0,0.0,0.0,0.0,0.0,0.0,0.0,0.0,0.0,0.0,0.0,0.0,0.0,0.0,0.0
46.0,3412.0,0.0,4775.399999999999,-0.0,0.0,8187.399999999999,0.0,11070.982793244326,0.0,350.8097291267204,0.0,10720.17306411761,0.0,0.36024670096788597,0.5051020408163246,0.0,0.0,0.0,"[1.1672674124856925, 0.6006257807510877, 1.999408697630237, 0.5103942562745445, 0.11241769845560512, 0.4644656379305978, 0.6915146359038467, 0.5388602643262601, 1.3951057538086715]",21.45,0.0,0.0,0.0,54.55210604638358,1.2584328434486907,-1724.2466765315253,381.7414512908769,0.0,0.0,0.0,0.0,0.0,0.0,0.0,-3.3,21.607045886512882,0.0,21.439923325808948,0.0,-3.3,21.45,20.65,22.23,21.23,21.88,-3.87,-3.3,0.0,-1201.08,-948.85,0.0,0.0,0.0,40.0,0.0,0.0,0.0,0.0,0.0,0.0,0.0,0.0,0.0,0.0,0.0,0.0,0.0,0.0
47.0,2028.0,18529.772945413988,0.0,-0.0,0.0,-1453.561016243232,0.0,13460.006757999312,0.0,0.0,0.0,0.0,0.0527588813303099,0.36024670096788597,0.5051020408163246,59822.25225777474,14955.563064443684,74777.81532221842,"[1.1672674124856925, 0.6006257807510877, 1.999408697630237, 0.5103942562745445, 0.11241769845560512, 0.4644656379305978, 0.6915146359038467, 0.5388602643262601, 1.3951057538086715]",20.98,0.0,0.0,0.0,85.91956702305413,1.9820317284316935,-1698.0567014872372,1154.8831063951664,64.88613960091006,0.0,0.0,0.0,0.0,0.0,0.0,-3.4,21.416852841956427,0.0,21.367485366198245,0.0,-3.4,20.98,20.62,22.12,21.0,21.65,-3.97,-3.4,3242.45,-1182.84,-934.44,0.0,0.0,0.0,63.0,0.0,0.0,0.0,0.0,0.0,0.0,0.0,0.0,0.0,0.0,0.0,0.0,0.0,0.0
48.0,1396.0,0.0,0.0,-0.0,0.0,1396.0,0.0,21994.55428724164,0.0,21994.55428724164,0.0,0.0,0.0,0.2771229130342441,0.5051020408163246,0.0,0.0,0.0,"[1.1672674124856925, 0.6006257807510877, 1.999408697630237, 0.5103942562745445, 0.11241769845560512, 0.4644656379305978, 0.6915146359038467, 0.5388602643262601, 1.3951057538086715]",20.83,0.0,0.0,0.0,275.27279827352766,55.528349217173634,-1771.5823760220885,1254.2436803554954,6503.178885957842,0.0,0.0,0.0,0.0,0.0,0.0,-4.6,21.309654570550002,0.0,21.28517268272506,0.0,-4.6,20.83,20.57,22.0,20.91,21.54,-5.15,-4.6,2642.92,-1234.05,-974.9,0.0,80.0,45.0,155.0,0.0,0.0,0.0,0.0,0.0,0.0,0.0,0.0,0.0,0.0,0.0,0.0,0.0,0.0
49.0,1161.0,12696.28472625989,11471.80330262859,-0.0,0.0,0.0,0.0,23018.651669976905,0.0,0.0,0.0,23018.651669976905,0.0,0.2771229130342441,0.5051020408163246,0.0,0.0,0.0,"[1.1672674124856925, 0.6006257807510877, 1.999408697630237, 0.5103942562745445, 0.11241769845560512, 0.4644656379305978, 0.6915146359038467, 0.5388602643262601, 1.3951057538086715]",23.17,0.0,0.0,0.0,166.52748161527617,27.685522555871273,-2017.7894865560818,-3150.605003831946,323.62389387257053,0.0,0.0,0.0,0.0,0.0,0.0,-5.8,22.016635714326583,0.0,21.37508792696518,0.0,-5.8,23.17,20.64,22.11,22.57,22.83,-6.35,-5.8,0.0,-1405.56,-1110.39,0.0,80.0,0.0,80.0,0.0,0.0,0.0,0.0,0.0,0.0,0.0,0.0,0.0,0.0,0.0,0.0,0.0,0.0
50.0,1026.0,13649.077203672923,10855.539855971927,-0.0,0.0,-1699.2919616826323,0.0,20540.223053158836,0.0,0.0,0.0,20540.223053158832,0.06167800453514739,0.2771229130342441,0.5051020408163246,0.0,0.0,0.0,"[1.1672674124856925, 0.6006257807510877, 1.999408697630237, 0.5103942562745445, 0.11241769845560512, 0.4644656379305978, 0.6915146359038467, 0.5388602643262601, 1.3951057538086715]",21.45,0.0,0.0,0.0,148.7980471502015,27.27653188175044,-1981.4860637471013,210.6639353557514,6250.493627593689,0.0,0.0,0.0,0.0,0.0,0.0,-7.0,21.53852596570226,0.0,21.364162989424393,0.0,-7.0,21.45,20.63,22.1,21.24,21.82,-7.58,-7.0,451.54,-1380.27,-1090.41,0.0,80.0,0.0,67.0,0.0,0.0,0.0,0.0,0.0,0.0,0.0,0.0,0.0,0.0,0.0,0.0,0.0,0.0
51.0,959.0,0.0,0.0,-0.0,0.0,959.0,0.0,17581.100742633138,0.0,17581.100742633138,0.0,0.0,0.02543461829176115,0.21067884371212336,0.5051020408163246,0.0,0.0,0.0,"[1.1672674124856925, 0.6006257807510877, 1.999408697630237, 0.5103942562745445, 0.11241769845560512, 0.4644656379305978, 0.6915146359038467, 0.5388602643262601, 1.3951057538086715]",23.17,0.0,0.0,0.0,181.02685716970976,42.09457861335883,-2143.173114361977,-2983.502027442708,0.0,0.0,0.0,0.0,0.0,0.0,0.0,-7.6,22.079364936794537,0.0,21.45427217156762,0.0,-7.6,23.17,20.69,22.22,22.58,22.87,-8.19,-7.6,2947.64,-1492.9,-1179.39,0.0,80.0,25.0,88.0,0.0,0.0,0.0,0.0,0.0,0.0,0.0,0.0,0.0,0.0,0.0,0.0,0.0,0.0
52.0,673.0,0.0,0.0,-0.0,0.0,673.0,0.0,30173.048901119164,0.0,30173.048901119168,0.0,0.0,0.0,0.09664615701099272,0.5051020408163246,0.0,0.0,0.0,"[1.1672674124856925, 0.6006257807510877, 1.999408697630237, 0.5103942562745445, 0.11241769845560512, 0.4644656379305978, 0.6915146359038467, 0.5388602643262601, 1.3951057538086715]",21.35,0.0,0.0,0.0,146.50111636930117,61.00253208617545,-2065.487220536677,531.849265404571,6239.42050741004,0.0,0.0,0.0,0.0,0.0,0.0,-8.3,21.563861746570712,0.0,21.428174547569142,0.0,-8.3,21.35,20.68,22.18,21.2,21.83,-8.9,-8.3,280.04,-1438.78,-1136.64,0.0,80.0,60.0,59.0,0.0,0.0,0.0,0.0,0.0,0.0,0.0,0.0,0.0,0.0,0.0,0.0,0.0,0.0
53.0,2392.0,69444.09340325958,50704.872936243286,-0.0,0.0,-16000.0,0.0,6756.503256096589,0.0,-80000.0,0.0,86756.50325609659,0.5807407407407407,0.38701652738136305,0.5051020408163246,0.0,0.0,0.0,"[1.1672674124856925, 0.6006257807510877, 1.999408697630237, 0.5103942562745445, 0.11241769845560512, 0.4644656379305978, 0.6915146359038467, 0.5388602643262601, 1.3951057538086715]",23.17,0.0,0.0,0.0,120.73242417107525,60.971071265089236,-2233.7279566662346,-2862.5462266745444,0.0,0.0,0.0,0.0,0.0,0.0,0.0,-8.9,22.12477525354626,0.0,21.51110182099366,0.0,-8.9,23.17,20.73,22.29,22.62,22.93,-9.53,-8.9,3165.35,-1555.97,-1229.22,0.0,80.0,61.0,40.0,0.0,0.0,0.0,0.0,0.0,0.0,0.0,0.0,0.0,0.0,0.0,0.0,0.0,0.0
54.0,3638.0,11951.459437490437,8253.702140302985,-0.0,0.0,0.0,0.0,13728.73478488144,0.0,0.0,0.0,13728.734784881442,0.5807407407407407,0.38701652738136305,0.5051020408163246,0.0,0.0,0.0,"[1.1672674124856925, 0.6006257807510877, 1.999408697630237, 0.5103942562745445, 0.11241769845560512, 0.4644656379305978, 0.6915146359038467, 0.5388602643262601, 1.3951057538086715]",21.35,0.0,0.0,0.0,250.29367603123615,87.87007329380505,-2141.7807740188578,651.6106985967187,0.0,0.0,0.0,0.0,0.0,0.0,0.0,-9.4,21.603986421305546,0.0,21.479709174933795,0.0,-9.4,21.35,20.71,22.25,21.23,21.87,-10.03,-9.4,0.0,-1491.93,-1178.62,0.0,147.0,68.0,99.0,0.0,0.0,0.0,0.0,0.0,0.0,0.0,0.0,0.0,0.0,0.0,0.0,0.0,0.0
55.0,2083.0,55046.89002907153,38357.26915305896,-0.0,0.0,-5644.25442586721,0.0,27224.39560323955,43435.66,0.0,0.0,61972.92360323955,0.7701078770169012,0.38701652738136305,0.5051020408163246,34748.528000000006,8687.132000000001,43435.66,"[1.1672674124856925, 0.6006257807510877, 1.999408697630237, 0.5103942562745445, 0.11241769845560512, 0.4644656379305978, 0.6915146359038467, 0.5388602643262601, 1.3951057538086715]",20.92,0.0,0.0,0.0,161.3593873582504,43.793462952014565,-2146.7135086175945,1312.8717542628106,6272.9461349873145,0.0,0.0,0.0,0.0,0.0,0.0,-9.9,21.419438595199114,0.0,21.394890800037487,0.0,-9.9,20.92,20.65,22.14,21.02,21.67,-10.54,-9.9,450.41,-1495.36,-1181.34,0.0,108.0,14.0,60.0,0.0,0.0,0.0,0.0,0.0,0.0,0.0,0.0,0.0,0.0,0.0,0.0,0.0,0.0
56.0,1136.0,0.0,3241.0544258672053,-0.0,0.0,4377.054425867205,0.0,13935.653917031563,0.0,8637.36376111496,0.0,5298.2901559166,0.6046863189720333,0.35437342926679405,0.5051020408163246,0.0,0.0,0.0,"[1.0043283296544558, 0.6006257807510877, 1.4559295787464421, 0.5103942562745445, 0.11241769845560512, 0.4644656379305978, 0.6915146359038467, 0.5388602643262601, 1.3458756950614372]",23.0,0.0,0.0,3.1168653599206886,149.44405893232974,43.98222787853186,-2278.1040727373293,-2646.4865788207394,0.0,0.0,0.0,0.0,0.0,0.0,0.0,-9.7,22.042091420082286,0.0,21.46173013084089,0.0,-9.7,23.0,20.69,22.23,22.52,22.83,-10.36,-9.7,820.19,-1586.89,-1253.64,4.95,136.0,0.0,38.0,0.0,0.0,0.0,0.0,0.0,0.0,0.0,0.0,0.0,0.0,0.0,0.0,0.0,0.0
57.0,1318.0,1313.2866592031864,0.0,-0.0,11.279774092829538,0.0,0.0,17548.762133316228,0.0,17548.762133316228,0.0,0.0,0.6046863189720333,0.28805157691110156,0.5051020408163246,0.0,0.0,0.0,"[1.0043283296544558, 0.6006257807510877, 1.4559295787464421, 0.5103942562745445, 0.11241769845560512, 0.4644656379305978, 0.6915146359038467, 0.5388602643262601, 1.3458756950614372]",21.25,0.0,0.0,36.042683214149115,133.6526598136398,3.083160466449298,-1988.999273006677,723.8069487951522,5823.878349084266,0.0,0.0,0.0,0.0,0.0,0.0,-7.3,21.536276593050655,0.0,21.42470165737918,0.0,-7.3,21.25,20.66,22.19,21.16,21.8,-7.94,-7.3,0.0,-1385.5,-1094.55,57.28,0.0,0.0,98.0,0.0,0.0,0.0,0.0,0.0,0.0,0.0,0.0,0.0,0.0,0.0,0.0,0.0,0.0
58.0,2244.0,345.3333381362971,0.0,-0.0,51.37285310814971,16000.0,0.0,12735.881572098384,0.0,0.0,0.0,0.0,0.0,0.28805157691110156,0.5051020408163246,56603.918098215065,14150.979524553766,70754.89762276883,"[1.0043283296544558, 0.6006257807510877, 1.4559295787464421, 0.5103942562745445, 0.11241769845560512, 0.4644656379305978, 0.6915146359038467, 0.5388602643262601, 1.3458756950614372]",23.0,0.0,0.0,65.08721461543833,77.73675111609658,1.7932668019143876,-1964.645003222591,-2568.8608358385986,0.0,0.0,0.0,0.0,0.0,0.0,0.0,-5.2,22.068573890996767,0.0,21.494589792835157,0.0,-5.2,23.0,20.71,22.28,22.49,22.83,-5.9,-5.2,0.0,-1368.54,-1081.14,103.44,0.0,0.0,57.0,0.0,0.0,0.0,0.0,0.0,0.0,0.0,0.0,0.0,0.0,0.0,0.0,0.0,0.0
59.0,2656.0,0.0,5919.74686481563,-0.0,8575.74686481563,0.0,0.0,13232.653247200495,0.0,0.0,0.0,13232.653247200496,0.0,0.28805157691110156,0.5051020408163246,0.0,0.0,0.0,"[1.0043283296544558, 0.6006257807510877, 1.4559295787464421, 0.5103942562745445, 0.11241769845560512, 0.4644656379305978, 0.6915146359038467, 0.5388602643262601, 1.3458756950614372]",21.38,0.0,0.0,1886.7180286450523,88.6471723253733,2.044953370604124,-1726.2178858082818,566.9697762632909,0.0,0.0,0.0,0.0,0.0,0.0,0.0,-3.4,21.603321212493245,0.0,21.46737501799825,0.0,-3.4,21.38,20.7,22.23,21.24,21.88,-2.87,-3.4,2081.76,-1202.45,-949.94,2998.52,0.0,0.0,65.0,0.0,0.0,0.0,0.0,0.0,0.0,0.0,0.0,0.0,0.0,0.0,0.0,0.0,0.0
60.0,4439.0,0.0,3530.668018432495,-0.0,13630.560232342152,-5660.892213909657,0.0,8228.836617450861,0.0,0.0,0.0,8228.836617450861,0.2054694210974616,0.28805157691110156,0.5051020408163246,0.0,0.0,0.0,"[1.0043283296544558, 0.6006257807510877, 1.4559295787464421, 0.5103942562745445, 0.11241769845560512, 0.4644656379305978, 0.6915146359038467, 0.5388602643262601, 1.3458756950614372]",21.7,0.0,0.0,1957.0236422444648,264.9366097594761,43.06986406703157,-1678.909591214875,-16.354674924361838,1778.5858374055058,0.0,0.0,0.0,0.0,0.0,0.0,-2.4,21.708040892829473,0.0,21.491261540311964,0.0,-2.4,21.7,20.72,22.26,21.85,22.38,-1.83,-2.4,0.0,-1169.5,-923.9,3110.26,124.0,0.0,129.0,0.0,0.0,0.0,0.0,0.0,0.0,0.0,0.0,0.0,0.0,0.0,0.0,0.0,0.0
61.0,3942.0,0.0,5802.704615341276,-0.0,11934.741719231999,-2190.0371038907233,0.0,13690.17043130645,0.0,0.0,0.0,13690.17043130645,0.28495965672016194,0.28805157691110156,0.5051020408163246,0.0,0.0,0.0,"[1.0043283296544558, 0.6006257807510877, 1.4559295787464421, 0.5103942562745445, 0.11241769845560512, 0.4644656379305978, 0.6915146359038467, 0.5388602643262601, 1.3458756950614372]",22.59,0.0,0.0,1661.7239237505705,245.98693081704803,38.161975977581655,-1719.7357770726944,-1569.3242104397918,0.0,0.0,0.0,0.0,0.0,0.0,0.0,-2.1,22.020088165049685,0.0,21.582281308799686,0.0,-2.1,22.59,20.79,22.37,22.47,22.89,-1.71,-2.1,1290.01,-1197.94,-946.37,2640.94,109.0,0.0,123.0,0.0,0.0,0.0,0.0,0.0,0.0,0.0,0.0,0.0,0.0,0.0,0.0,0.0,0.0
62.0,3366.0,668.0847678664229,3723.1172138249976,-0.0,6424.372869797907,0.0,0.0,8535.398502861884,0.0,0.0,0.0,8535.398502861884,0.28495965672016194,0.28805157691110156,0.5051020408163246,0.0,0.0,0.0,"[1.0043283296544558, 0.6006257807510877, 1.4559295787464421, 0.5103942562745445, 0.11241769845560512, 0.4644656379305978, 0.6915146359038467, 0.5388602643262601, 1.3458756950614372]",22.11,0.0,0.0,817.546627498565,238.66546395292815,5.505643690088034,-1734.9168038308414,-514.9868688881915,0.0,0.0,0.0,0.0,0.0,0.0,0.0,-2.8,21.928390552139312,0.0,21.63499937878698,0.0,-2.8,22.11,20.84,22.43,22.05,22.59,-2.94,-2.8,0.0,-1208.51,-954.72,1299.31,0.0,0.0,175.0,0.0,0.0,0.0,0.0,0.0,0.0,0.0,0.0,0.0,0.0,0.0,0.0,0.0,0.0
63.0,4592.0,30137.074298161104,9394.388926670297,-0.0,0.0,-16000.0,0.0,20104.067399319567,0.0,0.0,0.0,20104.067399319563,0.8657003974609025,0.28805157691110156,0.5051020408163246,0.0,0.0,0.0,"[1.0043283296544558, 0.6006257807510877, 1.4559295787464421, 0.5103942562745445, 0.11241769845560512, 0.4644656379305978, 0.6915146359038467, 0.5388602643262601, 1.3458756950614372]",21.67,0.0,0.0,10.386440532601432,302.5488512967194,39.16872225234061,-1816.2929150150558,299.0241040971927,4763.516925059046,0.0,0.0,0.0,0.0,0.0,0.0,-4.4,21.798595259662534,0.0,21.622986424618155,0.0,-4.4,21.67,20.85,22.4,21.64,22.24,-5.12,-4.4,2552.75,-1265.2,-999.5,16.51,108.0,0.0,165.0,0.0,0.0,0.0,0.0,0.0,0.0,0.0,0.0,0.0,0.0,0.0,0.0,0.0,0.0
64.0,3585.0,0.0,7899.404308417396,-0.0,0.0,11484.404308417397,0.0,10515.752593715466,0.0,-5861.883653504407,0.0,16377.636247219874,0.4316715120331853,0.30932804350530274,0.5051020408163246,0.0,0.0,0.0,"[1.0043283296544558, 0.6006257807510877, 1.4559295787464421, 0.5103942562745445, 0.11241769845560512, 0.4644656379305978, 0.6915146359038467, 0.5388602643262601, 1.3458756950614372]",23.0,0.0,0.0,0.0,488.0260118544236,53.51485666765573,-1957.6792461222637,-2199.100317800548,0.0,0.0,0.0,0.0,0.0,0.0,0.0,-5.1,22.205309640926252,0.0,21.680850667085853,0.0,-5.1,23.0,20.89,22.47,22.5,22.89,-5.83,-5.1,0.0,-1363.68,-1077.31,0.0,138.0,2.0,285.0,0.0,0.0,0.0,0.0,0.0,0.0,0.0,0.0,0.0,0.0,0.0,0.0,0.0,0.0
65.0,5834.0,33519.48447115053,11859.857278280499,-0.0,0.0,-15658.029770514282,0.0,23684.234493844884,0.0,0.0,0.0,23684.23449384488,1.0,0.30932804350530274,0.5051020408163246,0.0,0.0,0.0,"[1.0043283296544558, 0.6006257807510877, 1.4559295787464421, 0.5103942562745445, 0.11241769845560512, 0.4644656379305978, 0.6915146359038467, 0.5388602643262601, 1.3458756950614372]",21.67,0.0,0.0,0.0,499.8695611934411,51.469903297051594,-1920.125751752729,370.2325728270578,0.0,0.0,0.0,0.0,0.0,0.0,0.0,-5.9,21.81628847302453,0.0,21.652465254299052,0.0,-5.9,21.67,20.88,22.42,21.47,22.09,-6.61,-5.9,0.0,-1337.52,-1056.64,0.0,117.0,9.0,304.0,0.0,0.0,0.0,0.0,0.0,0.0,0.0,0.0,0.0,0.0,0.0,0.0,0.0,0.0
66.0,7075.0,0.0,3385.0,-0.0,0.0,10460.0,0.0,6501.711451027204,0.0,0.0,0.0,6501.711451027205,0.6046863189720333,0.30932804350530274,0.5051020408163246,0.0,0.0,0.0,"[1.0043283296544558, 0.6006257807510877, 1.4559295787464421, 0.5103942562745445, 0.11241769845560512, 0.4644656379305978, 0.6915146359038467, 0.5388602643262601, 1.3458756950614372]",21.29,0.0,0.0,0.0,1778.9728898073297,72.23404521395506,-1949.9981182421495,943.853152225527,0.0,0.0,0.0,0.0,0.0,0.0,0.0,-6.7,21.657515225203735,0.0,21.58175764159163,0.0,-6.7,21.29,20.84,22.32,21.28,21.91,-7.38,-6.7,100.1,-1358.33,-1073.08,0.0,82.0,12.0,1260.0,0.0,0.0,0.0,0.0,0.0,0.0,0.0,0.0,0.0,0.0,0.0,0.0,0.0,0.0
67.0,10374.0,0.0,5626.0,-0.0,0.0,16000.0,0.0,14084.329921967044,0.0,3653.6764857700277,0.0,10430.653436197015,0.0,0.2955197423497093,0.5051020408163246,0.0,0.0,0.0,"[1.0043283296544558, 0.6006257807510877, 1.4559295787464421, 0.5103942562745445, 0.11241769845560512, 0.4644656379305978, 0.6915146359038467, 0.5388602643262601, 1.3458756950614372]",21.6,0.0,0.0,0.0,4694.424062552016,164.82324167069268,-2020.356388634532,195.62121434391733,0.0,0.0,0.0,0.0,0.0,0.0,0.0,-7.4,21.691317537236998,0.0,21.51883437192668,0.0,-7.4,21.6,20.8,22.24,21.38,21.96,-8.09,-7.4,0.0,-1407.34,-1111.8,0.0,133.0,30.0,3369.0,0.0,0.0,0.0,0.0,0.0,0.0,0.0,0.0,0.0,0.0,0.0,0.0,0.0,0.0
68.0,5590.0,8054.097703847038,9138.427215327805,-0.0,0.0,6714.600000000002,0.0,16245.768908510703,0.0,0.0,0.0,16245.768908510703,0.16549508692365836,0.2955197423497093,0.4928571428571409,0.0,0.0,0.0,"[1.0043283296544558, 0.6006257807510877, 1.4559295787464421, 0.5103942562745409, 0.11241769845560512, 0.46446563793060136, 0.6915146359038431, 0.5388602643262601, 1.3458756950614372]",22.72,0.0,0.0,0.0,535.9744419057187,12.364102686883417,-2153.8680650414135,-2019.8763795995135,4393.0805896257225,0.0,0.0,0.0,0.0,0.0,0.0,-8.2,21.989462021297463,0.0,21.510747922777938,0.0,-8.2,22.72,20.79,22.23,21.88,22.33,-8.88,-8.2,0.0,-1500.35,-1185.27,0.0,0.0,0.0,393.0,0.0,0.0,0.0,0.0,0.0,0.0,0.0,0.0,0.0,0.0,0.0,0.0,0.0,0.0
69.0,4379.0,0.0,0.0,-0.0,0.0,4379.0,0.0,9401.916695361808,0.0,9401.916695361808,0.0,0.0,0.0,0.25998717736345905,0.4928571428571409,0.0,0.0,0.0,"[1.0043283296544558, 0.6006257807510877, 1.4559295787464421, 0.5103942562745409, 0.11241769845560512, 0.46446563793060136, 0.6915146359038431, 0.5388602643262601, 1.3458756950614372]",23.0,0.0,0.0,0.0,486.1597555949422,60.62500223314084,-2222.3780159347093,-2409.8387373948867,0.0,0.0,0.0,0.0,0.0,0.0,0.0,-8.9,22.12922573885523,0.0,21.587774547484816,0.0,-8.9,23.0,20.84,22.34,22.41,22.77,-9.56,-8.9,1613.25,-1548.07,-1222.97,0.0,162.0,2.0,271.0,0.0,0.0,0.0,0.0,0.0,0.0,0.0,0.0,0.0,0.0,0.0,0.0,0.0,0.0
70.0,4195.0,31747.75219741741,11394.013436430323,-0.0,0.0,-16000.0,0.0,18626.280615595482,0.0,0.0,0.0,18626.28061559548,0.5807407407407407,0.25998717736345905,0.4928571428571409,0.0,0.0,0.0,"[1.0043283296544558, 0.6006257807510877, 1.4559295787464421, 0.5103942562745409, 0.11241769845560512, 0.46446563793060136, 0.6915146359038431, 0.5388602643262601, 1.3458756950614372]",21.49,0.0,0.0,0.0,709.895169472018,65.75311607019428,-2172.6923379559476,496.877730300276,0.0,0.0,0.0,0.0,0.0,0.0,0.0,-9.7,21.69075647987289,0.0,21.554113012409463,0.0,-9.7,21.49,20.81,22.29,21.35,21.95,-10.36,-9.7,0.0,-1513.46,-1195.63,0.0,92.0,39.0,468.0,0.0,0.0,0.0,0.0,0.0,0.0,0.0,0.0,0.0,0.0,0.0,0.0,0.0,0.0
71.0,3162.0,4368.982964365849,15917.938049544015,-0.0,0.0,14732.799999999996,0.0,24959.47936279497,0.0,0.0,0.0,24959.47936279497,0.02394557823129262,0.25998717736345905,0.449999999999998,0.0,0.0,0.0,"[1.0043283296544558, 0.6006257807510877, 1.4559295787464421, 0.5103942562745409, 0.11241769845560512, 0.46446563793060136, 0.6915146359038431, 0.5388602643262601, 1.3458756950614372]",21.16,0.0,0.0,0.0,628.4259058369581,75.0340582906284,-2198.0992323026117,989.4642631528893,1893.7982797317218,0.0,0.0,0.0,0.0,0.0,0.0,-10.4,21.537879848391366,0.0,21.475984304680825,0.0,-10.4,21.16,20.76,22.19,21.17,21.78,-11.06,-10.4,2151.7,-1531.16,-1209.61,0.0,103.0,53.0,401.0,0.0,0.0,0.0,0.0,0.0,0.0,0.0,0.0,0.0,0.0,0.0,0.0,0.0,0.0
72.0,2341.0,18918.01623231801,16482.42615115642,-0.0,0.0,0.0,0.0,25058.94198039268,0.0,0.0,0.0,25058.94198039268,0.02394557823129262,0.25998717736345905,0.449999999999998,0.0,0.0,0.0,"[1.0043283296544558, 0.6006257807510877, 1.4559295787464421, 0.5103942562745409, 0.11241769845560512, 0.46446563793060136, 0.6915146359038431, 0.5388602643262601, 1.3458756950614372]",21.67,0.0,0.0,0.0,235.22006778157763,36.588934923270784,-2268.5244501220272,-94.38149670978014,5710.5395862068135,0.0,0.0,0.0,0.0,0.0,0.0,-10.9,21.648514192124598,0.0,21.438322297709902,0.0,-10.9,21.67,20.73,22.15,21.55,22.05,-11.59,-10.9,2237.98,-1580.21,-1248.37,0.0,80.0,13.0,129.0,0.0,0.0,0.0,0.0,0.0,0.0,0.0,0.0,0.0,0.0,0.0,0.0,0.0,0.0
73.0,3003.0,26967.262561403168,7829.426248596152,-0.0,0.0,-16000.0,0.0,11455.5718122454,0.0,0.0,0.0,11455.5718122454,0.6046863189720333,0.25998717736345905,0.449999999999998,0.0,0.0,0.0,"[1.0043283296544558, 0.6006257807510877, 1.4559295787464421, 0.5103942562745409, 0.11241769845560512, 0.46446563793060136, 0.6915146359038431, 0.5388602643262601, 1.3458756950614372]",23.0,0.0,0.0,0.0,272.90408840572405,30.13946660059623,-2403.487700543225,-2566.446618939572,4669.735967385818,0.0,0.0,0.0,0.0,0.0,0.0,-11.5,22.072616726038028,0.0,21.51056295629776,0.0,-11.5,23.0,20.76,22.26,22.5,22.81,-12.2,-11.5,2028.97,-1674.23,-1322.64,0.0,80.0,0.0,158.0,0.0,0.0,0.0,0.0,0.0,0.0,0.0,0.0,0.0,0.0,0.0,0.0,0.0,0.0
74.0,1327.0,2950.5991101552518,17608.846114604476,-0.0,0.0,16000.0,0.0,24589.169797318733,0.0,0.0,0.0,24589.169797318737,0.0,0.25998717736345905,0.449999999999998,0.0,0.0,0.0,"[1.0043283296544558, 0.6006257807510877, 1.4559295787464421, 0.5103942562745409, 0.11241769845560512, 0.46446563793060136, 0.6915146359038431, 0.5388602643262601, 1.3458756950614372]",23.0,0.0,0.0,0.0,185.62071873151044,28.12597405107832,-2452.2480002455177,-2385.2772479417617,4626.4336821280185,0.0,0.0,0.0,0.0,0.0,0.0,-12.2,22.139990420210857,0.0,21.592480399716266,0.0,-12.2,23.0,20.81,22.38,22.43,22.81,-12.92,-12.2,691.52,-1708.19,-1349.47,0.0,80.0,0.0,94.0,0.0,0.0,0.0,0.0,0.0,0.0,0.0,0.0,0.0,0.0,0.0,0.0,0.0,0.0
75.0,789.0,20473.794088341027,19582.42511789932,-0.0,0.0,0.0,0.0,26598.35429172809,0.0,0.0,0.0,26598.35429172809,0.0,0.25998717736345905,0.449999999999998,0.0,0.0,0.0,"[1.0043283296544558, 0.6006257807510877, 1.4559295787464421, 0.5103942562745409, 0.11241769845560512, 0.46446563793060136, 0.6915146359038431, 0.5388602643262601, 1.3458756950614372]",23.0,0.0,0.0,0.0,161.07227101063782,27.55967927152641,-2480.1110286468274,-2220.7133729331117,0.0,0.0,0.0,0.0,0.0,0.0,0.0,-12.6,22.201059128134375,0.0,21.66689601647085,0.0,-12.6,23.0,20.85,22.48,22.46,22.88,-13.32,-12.6,1214.29,-1727.6,-1364.8,0.0,80.0,0.0,76.0,0.0,0.0,0.0,0.0,0.0,0.0,0.0,0.0,0.0,0.0,0.0,0.0,0.0,0.0
76.0,875.0,9735.278901622805,8811.60250711469,-0.0,0.0,0.0,0.0,11632.580667578102,0.0,0.0,0.0,11632.580667578104,0.0,0.25998717736345905,0.449999999999998,0.0,0.0,0.0,"[1.0043283296544558, 0.6006257807510877, 1.4559295787464421, 0.5103942562745409, 0.11241769845560512, 0.46446563793060136, 0.6915146359038431, 0.5388602643262601, 1.3458756950614372]",21.33,0.0,0.0,0.0,276.99549635920295,30.233849063854883,-2391.6469386538847,954.9540579333687,5647.111767121791,0.0,0.0,0.0,0.0,0.0,0.0,-13.0,21.705090382568034,0.0,21.614146998965367,0.0,-13.0,21.33,20.81,22.42,21.29,21.97,-13.71,-13.0,1189.13,-1665.98,-1316.12,0.0,80.0,0.0,161.0,0.0,0.0,0.0,0.0,0.0,0.0,0.0,0.0,0.0,0.0,0.0,0.0,0.0,0.0
77.0,892.0,143337.17079046092,125728.48493650861,-0.0,0.0,-16000.0,0.0,90326.2132591133,0.0,-70859.00871385686,0.0,161185.22197297018,0.5807407407407407,0.517179134917458,0.449999999999998,0.0,0.0,0.0,"[1.0043283296544558, 0.6006257807510877, 1.4559295787464421, 0.5103942562745409, 0.11241769845560512, 0.46446563793060136, 0.6915146359038431, 0.5388602643262601, 1.3458756950614372]",23.0,0.0,0.0,0.0,225.8170073972668,36.93500395521918,-2535.8370854494474,-2225.52160301213,0.0,0.0,0.0,0.0,0.0,0.0,0.0,-13.4,22.19968299213842,0.0,21.662110209933417,0.0,-13.4,23.0,20.83,22.49,22.56,22.95,-14.12,-13.4,1628.08,-1766.42,-1395.47,0.0,80.0,14.0,122.0,0.0,0.0,0.0,0.0,0.0,0.0,0.0,0.0,0.0,0.0,0.0,0.0,0.0,0.0
78.0,2159.0,13044.92967617333,10820.705027792463,-0.0,0.0,0.0,0.0,13459.627690552512,0.0,0.0,0.0,13459.627690552512,0.5807407407407407,0.517179134917458,0.449999999999998,0.0,0.0,0.0,"[1.0043283296544558, 0.6006257807510877, 1.4559295787464421, 0.5103942562745409, 0.11241769845560512, 0.46446563793060136, 0.6915146359038431, 0.5388602643262601, 1.3458756950614372]",21.34,0.0,0.0,0.0,221.58204126998172,59.555334316209446,-2447.7002395145914,940.0370488025641,303.8513628315097,0.0,0.0,0.0,0.0,0.0,0.0,-13.8,21.704675411070813,0.0,21.60875835160805,0.0,-13.8,21.34,20.79,22.42,21.29,21.98,-14.52,-13.8,846.67,-1705.02,-1346.97,0.0,160.0,12.0,77.0,0.0,0.0,0.0,0.0,0.0,0.0,0.0,0.0,0.0,0.0,0.0,0.0,0.0,0.0
79.0,1065.0,18159.62273314473,14416.478771130045,-0.0,0.0,-2587.3458483489608,0.0,17520.018323927332,0.0,0.0,0.0,17520.018323927332,0.6746518122734066,0.517179134917458,0.449999999999998,0.0,0.0,0.0,"[1.0043283296544558, 0.6006257807510877, 1.4559295787464421, 0.5103942562745409, 0.11241769845560512, 0.46446563793060136, 0.6915146359038431, 0.5388602643262601, 1.3458756950614372]",21.0,0.0,0.0,0.0,157.62687483928727,38.50804500953004,-2444.6792412847285,1414.062378573167,838.1171499201918,0.0,0.0,0.0,0.0,0.0,0.0,-14.1,21.53662937824545,0.0,21.51383577685585,0.0,-14.1,21.0,20.73,22.3,21.13,21.81,-14.83,-14.1,3161.43,-1702.92,-1345.31,0.0,117.0,0.0,54.0,0.0,0.0,0.0,0.0,0.0,0.0,0.0,0.0,0.0,0.0,0.0,0.0,0.0,0.0
80.0,1289.0,0.0,6145.163083508812,-0.0,0.0,7434.163083508812,0.0,7409.493017445163,0.0,0.0,0.0,7409.493017445163,0.39369326792311143,0.517179134917458,0.449999999999998,0.0,0.0,0.0,"[1.0043283296544558, 0.6006257807510877, 1.3965898833717176, 0.5103942562745409, 0.11241769845560512, 0.46446563793060136, 0.6915146359038431, 0.5388602643262601, 1.0329944207660127]",21.0,0.0,0.0,2.3186229832385647,160.92871283683155,32.02711586576927,-2451.6449983850557,1223.231081782532,1036.1021150436618,0.0,0.0,0.0,0.0,0.0,0.0,-14.2,21.466089225139388,0.0,21.423238297761756,0.0,-14.2,21.0,20.66,22.19,21.13,21.77,-14.93,-14.2,1011.21,-1707.77,-1349.14,3.68,95.0,0.0,68.0,0.0,0.0,0.0,0.0,0.0,0.0,0.0,0.0,0.0,0.0,0.0,0.0,0.0,0.0
81.0,1464.0,2679.876044421726,11633.584137748028,-0.0,13.983604302882458,10417.123869245528,0.0,16577.973466152955,0.0,0.0,0.0,16577.97346615296,0.0,0.517179134917458,0.449999999999998,0.0,0.0,0.0,"[1.0043283296544558, 0.6006257807510877, 1.3965898833717176, 0.5103942562745409, 0.11241769845560512, 0.46446563793060136, 0.6915146359038431, 0.5388602643262601, 1.0329944207660127]",21.0,0.0,0.0,37.08351911305442,84.55576437189454,1.9505709073454736,-2291.432585077523,1054.5198291753989,1112.5354290687771,0.0,0.0,0.0,0.0,0.0,0.0,-11.9,21.402502491707036,0.0,21.340841338407728,0.0,-11.9,21.0,20.59,22.09,21.1,21.72,-12.56,-11.9,530.31,-1596.17,-1260.97,58.94,0.0,0.0,62.0,0.0,0.0,0.0,0.0,0.0,0.0,0.0,0.0,0.0,0.0,0.0,0.0,0.0,0.0
82.0,2341.0,14068.806392393386,11705.498497199347,-0.0,48.03613676792861,0.0,0.0,18800.702225428206,0.0,0.0,0.0,18800.702225428206,0.0,0.517179134917458,0.449999999999998,0.0,0.0,0.0,"[1.0043283296544558, 0.6006257807510877, 1.3965898833717176, 0.5103942562745409, 0.11241769845560512, 0.46446563793060136, 0.6915146359038431, 0.5388602643262601, 1.0329944207660127]",21.0,0.0,0.0,63.4931023395252,72.28154051145825,1.6674235175695173,-2159.0832001712997,904.974310176473,3531.262345033099,0.0,0.0,0.0,0.0,0.0,0.0,-10.0,21.346233754370992,0.0,21.26845930100432,0.0,-10.0,21.0,20.54,22.0,21.07,21.67,-10.66,-10.0,74.54,-1503.98,-1188.14,100.91,0.0,0.0,53.0,0.0,0.0,0.0,0.0,0.0,0.0,0.0,0.0,0.0,0.0,0.0,0.0,0.0,0.0
83.0,4261.0,298.3370503211339,4176.805558155164,-0.0,8140.960193085636,0.0,0.0,7305.827745637678,0.0,0.0,0.0,7305.827745637678,0.0,0.517179134917458,0.449999999999998,0.0,0.0,0.0,"[1.0043283296544558, 0.6006257807510877, 1.3965898833717176, 0.5103942562745409, 0.11241769845560512, 0.46446563793060136, 0.6915146359038431, 0.5388602643262601, 1.0329944207660127]",21.89,0.0,0.0,1784.104654182236,114.55942269740554,2.6427089712422562,-2116.8495483282554,-846.5698064256312,0.0,0.0,0.0,0.0,0.0,0.0,0.0,-8.5,21.59114900580973,0.0,21.268883307579557,0.0,-8.5,21.89,20.53,22.01,21.69,22.14,-7.96,-8.5,0.0,-1474.56,-1164.9,2835.44,0.0,0.0,84.0,0.0,0.0,0.0,0.0,0.0,0.0,0.0,0.0,0.0,0.0,0.0,0.0,0.0,0.0
84.0,4832.0,0.0,8443.378916263771,-1261.7859363146908,14537.164852578462,0.0,0.0,15573.605381146675,0.0,0.0,0.0,15573.605381146675,0.0,0.517179134917458,0.454121834058626,0.0,0.0,0.0,"[1.0043283296544558, 0.6006257807510877, 1.3965898833717176, 0.5103942562745409, 0.11241769845560512, 0.46446563793060136, 0.6915146359038431, 0.5388602643262601, 1.0329944207660127]",21.51,0.0,0.0,1990.067209982578,99.55759353465002,2.296639939293865,-2021.023816469705,-40.23781728659072,3947.3219135986374,0.0,0.0,0.0,0.0,0.0,0.0,-7.5,21.512990550189098,0.0,21.298088060122204,0.0,-7.5,21.51,20.55,22.05,21.63,22.16,-6.85,-7.5,0.0,-1407.81,-1112.17,3162.77,0.0,0.0,73.0,0.0,0.0,0.0,0.0,0.0,0.0,0.0,0.0,0.0,0.0,0.0,0.0,0.0,0.0
85.0,3194.0,0.0,9220.37098459323,-0.0,12414.37098459323,0.0,0.0,17270.450078146452,0.0,0.0,0.0,17270.450078146452,0.0,0.517179134917458,0.454121834058626,0.0,0.0,0.0,"[1.0043283296544558, 0.6006257807510877, 1.3965898833717176, 0.5103942562745409, 0.11241769845560512, 0.46446563793060136, 0.6915146359038431, 0.5388602643262601, 1.0329944207660127]",23.0,0.0,0.0,1774.7277955702334,284.8194168316448,55.74857496477715,-2103.9601452291417,-2683.4105568632244,846.4171088771877,0.0,0.0,0.0,0.0,0.0,0.0,-7.2,22.026582718132907,0.0,21.432289908040545,0.0,-7.2,23.0,20.63,22.23,22.76,23.08,-6.66,-7.2,0.0,-1465.58,-1157.81,2820.54,165.0,0.0,122.0,0.0,0.0,0.0,0.0,0.0,0.0,0.0,0.0,0.0,0.0,0.0,0.0,0.0,0.0
86.0,6149.0,3955.07182785015,3375.6395462581404,-0.0,9280.97247249969,-3691.6293949524493,0.0,6161.922357615366,0.0,0.0,0.0,6161.922357615366,0.1339924743353111,0.517179134917458,0.454121834058626,0.0,0.0,0.0,"[1.0043283296544558, 0.6006257807510877, 1.3965898833717176, 0.5103942562745409, 0.11241769845560512, 0.46446563793060136, 0.6915146359038431, 0.5388602643262601, 1.0329944207660127]",22.34,0.0,0.0,1487.822259036671,408.78189991336114,40.4271550957893,-2092.811943170167,-1196.7571702319624,0.0,0.0,0.0,0.0,0.0,0.0,0.0,-7.7,21.916456867691508,0.0,21.52013023026423,0.0,-7.7,22.34,20.69,22.35,22.19,22.69,-7.35,-7.7,2143.15,-1457.81,-1151.67,2364.56,104.0,0.0,245.0,0.0,0.0,0.0,0.0,0.0,0.0,0.0,0.0,0.0,0.0,0.0,0.0,0.0,0.0
87.0,3547.0,0.0,0.0,-0.0,1.5591290876684307,3545.440870912332,0.0,25100.416705402153,0.0,25100.416705402153,0.0,0.0,0.0,0.4223173937783721,0.4454483646708709,0.0,0.0,0.0,"[1.0043283296544558, 0.6006257807510877, 1.3965898833717176, 0.5103942562745409, 0.11241769845560512, 0.46446563793060136, 0.6915146359038431, 0.5388602643262601, 1.0329944207660127]",21.86,0.0,0.0,15.793622831885989,189.71212668498916,39.54625210537522,-2177.2867077855985,-187.52108820876475,5224.869301833193,0.0,0.0,0.0,0.0,0.0,0.0,-9.4,21.80359152424992,0.0,21.546179325592412,0.0,-9.4,21.86,20.71,22.38,21.84,22.43,-10.06,-9.4,0.0,-1516.66,-1198.16,25.1,118.0,0.0,77.0,0.0,0.0,0.0,0.0,0.0,0.0,0.0,0.0,0.0,0.0,0.0,0.0,0.0,0.0
88.0,4838.0,11292.047116474689,6397.586880892314,-0.0,0.0,0.0,0.0,10763.359429975899,0.0,0.0,0.0,10763.359429975897,0.0,0.4223173937783721,0.4337136707933199,0.0,0.0,0.0,"[1.0043283296544558, 0.6006257807510877, 1.3965898833717176, 0.5103942562745409, 0.11241769845560512, 0.46446563793060136, 0.6915146359038431, 0.5388602643262601, 1.0329944207660127]",23.0,0.0,0.0,0.0,1151.910786621531,80.2880154120267,-2243.275287235692,-2308.8736967558443,0.0,0.0,0.0,0.0,0.0,0.0,0.0,-9.2,22.16672768460039,0.0,21.610211262720163,0.0,-9.2,23.0,20.76,22.46,22.49,22.91,-9.87,-9.2,0.0,-1562.62,-1234.47,0.0,116.0,34.0,780.0,0.0,0.0,0.0,0.0,0.0,0.0,0.0,0.0,0.0,0.0,0.0,0.0,0.0,0.0
89.0,4579.0,17584.893515764394,12917.969048185572,-0.0,0.0,0.0,0.0,21979.61271387098,0.0,0.0,0.0,21979.612713870985,0.0,0.4223173937783721,0.4337136707933199,0.0,0.0,0.0,"[1.0043283296544558, 0.6006257807510877, 1.3965898833717176, 0.5103942562745409, 0.11241769845560512, 0.46446563793060136, 0.6915146359038431, 0.5388602643262601, 1.0329944207660127]",21.77,0.0,0.0,0.0,1261.9481268440388,132.73320416275104,-2143.607435033377,54.36363908059606,4034.622113395794,0.0,0.0,0.0,0.0,0.0,0.0,-9.0,21.809308630728513,0.0,21.583645270470647,0.0,-9.0,21.77,20.75,22.42,21.46,22.12,-9.63,-9.0,0.0,-1493.2,-1179.63,0.0,155.0,102.0,833.0,0.0,0.0,0.0,0.0,0.0,0.0,0.0,0.0,0.0,0.0,0.0,0.0,0.0,0.0
90.0,6164.0,6194.974874371859,0.0,-0.0,0.0,0.0,0.0,7844.472921712997,0.0,7844.472921712998,0.0,0.0,0.0,0.39267085968270693,0.42555040548719747,0.0,0.0,0.0,"[1.0043283296544558, 0.6006257807510877, 1.3965898833717176, 0.5103942562745409, 0.11241769845560512, 0.46446563793060136, 0.6915146359038431, 0.5388602643262601, 1.0329944207660127]",23.0,0.0,0.0,0.0,1181.1966540780106,138.55345606370125,-2215.4122588343816,-2266.346259517758,0.0,0.0,0.0,0.0,0.0,0.0,0.0,-8.8,22.182230321411282,0.0,21.63186681140153,0.0,-8.8,23.0,20.78,22.48,22.41,22.85,-9.42,-8.8,0.0,-1543.22,-1219.14,0.0,143.0,122.0,778.0,0.0,0.0,0.0,0.0,0.0,0.0,0.0,0.0,0.0,0.0,0.0,0.0,0.0,0.0
91.0,9440.0,36409.77460414263,10787.725731121916,-0.0,0.0,-16000.0,0.0,18663.583198039196,0.0,0.0,0.0,18663.583198039196,0.5807407407407407,0.39267085968270693,0.42555040548719747,0.0,0.0,0.0,"[1.0043283296544558, 0.6006257807510877, 1.3965898833717176, 0.5103942562745409, 0.11241769845560512, 0.46446563793060136, 0.6915146359038431, 0.5388602643262601, 1.0329944207660127]",21.83,0.0,0.0,0.0,1876.8077852563047,157.7130961052076,-2126.637933958449,-6.43902976462031,0.0,0.0,0.0,0.0,0.0,0.0,0.0,-8.7,21.84306560089346,0.0,21.60916127701622,0.0,-8.7,21.83,20.77,22.45,21.52,22.17,-9.3,-8.7,0.0,-1481.38,-1170.29,0.0,144.0,127.0,1287.0,0.0,0.0,0.0,0.0,0.0,0.0,0.0,0.0,0.0,0.0,0.0,0.0,0.0,0.0
92.0,6388.0,27229.902641512497,4705.7531283049375,-0.0,0.0,-15999.999999999998,0.0,8231.03237395528,0.0,0.0,0.0,8231.03237395528,0.7422164350602819,0.39267085968270693,0.38371367079331997,0.0,0.0,0.0,"[1.0043283296544558, 0.6006257807510877, 1.3965898833717176, 0.3682853635351151, 0.11241769845560512, 0.46446563793060136, 0.6915146359038431, 0.5388602643262566, 0.46189811974067396]",21.79,0.0,0.0,0.0,1137.7703065016133,155.07038713396534,-2109.7834383195354,-29.20868704325215,4149.322687369558,0.0,0.0,0.0,0.0,0.0,0.0,-8.5,21.792552542684003,0.0,21.561640745365942,0.0,-8.5,21.79,20.75,22.38,21.49,22.12,-9.08,-8.5,0.0,-1469.64,-1161.01,0.0,130.0,160.0,749.0,0.0,0.0,0.0,0.0,0.0,0.0,0.0,0.0,0.0,0.0,0.0,0.0,0.0,0.0
93.0,5443.0,0.0,0.0,-0.0,0.0,5443.0,0.0,21762.167059406882,0.0,21762.167059406882,0.0,0.0,0.5365097079249833,0.310425330357662,0.38371367079331997,0.0,0.0,0.0,"[1.0043283296544558, 0.6006257807510877, 1.3965898833717176, 0.3682853635351151, 0.11241769845560512, 0.46446563793060136, 0.6915146359038431, 0.5388602643262566, 0.46189811974067396]",23.0,0.0,0.0,0.0,748.2252018782925,122.57135895190284,-2180.5834733327442,-2309.551068918499,0.0,0.0,0.0,0.0,0.0,0.0,0.0,-8.3,22.165974189384517,0.0,21.61523854242464,0.0,-8.3,23.0,20.79,22.45,22.42,22.85,-8.87,-8.3,1373.44,-1518.95,-1199.97,0.0,155.0,105.0,456.0,0.0,0.0,0.0,0.0,0.0,0.0,0.0,0.0,0.0,0.0,0.0,0.0,0.0,0.0
94.0,3234.0,3441.1845318383853,3292.42548087425,-0.0,0.0,3102.4468716950564,0.0,5884.471854792366,0.0,0.0,0.0,5884.471854792366,0.41925925925925933,0.310425330357662,0.35565244630352405,0.0,0.0,0.0,"[1.0043283296544558, 0.6006257807510877, 1.3965898833717176, 0.3682853635351151, 0.11241769845560512, 0.46446563793060136, 0.6915146359038431, 0.5388602643262566, 0.46189811974067396]",21.66,0.0,0.0,0.0,449.9830957957614,71.44752468679962,-2073.098819217014,272.7639992148909,0.0,0.0,0.0,0.0,0.0,0.0,0.0,-8.1,21.777329209716164,0.0,21.587971931103862,0.0,-8.1,21.66,20.77,22.4,21.44,22.09,-8.65,-8.1,0.0,-1444.08,-1140.83,0.0,84.0,64.0,279.0,0.0,0.0,0.0,0.0,0.0,0.0,0.0,0.0,0.0,0.0,0.0,0.0,0.0,0.0
95.0,2513.0,2525.6281407035176,0.0,-0.0,0.0,0.0,0.0,12870.452186970666,0.0,12870.452186970666,0.0,0.0,0.41925925925925933,0.2617841656298817,0.35565244630352405,0.0,0.0,0.0,"[1.0043283296544558, 0.6006257807510877, 1.3965898833717176, 0.3682853635351151, 0.11241769845560512, 0.46446563793060136, 0.6915146359038431, 0.5388602643262566, 0.46189811974067396]",21.19,0.0,0.0,0.0,304.41510755620095,70.44077841204066,-2026.0415783863004,1046.0741936966915,1586.0977484971309,0.0,0.0,0.0,0.0,0.0,0.0,-7.9,21.587474236962667,0.0,21.513836045474452,0.0,-7.9,21.19,20.73,22.3,21.19,21.86,-8.44,-7.9,776.85,-1411.3,-1114.93,0.0,141.0,38.0,145.0,0.0,0.0,0.0,0.0,0.0,0.0,0.0,0.0,0.0,0.0,0.0,0.0,0.0,0.0
96.0,1877.0,26191.955605245596,8183.99582721937,-0.0,0.0,-16000.0,0.0,15251.220721005217,0.0,0.0,0.0,15251.220721005217,1.0,0.2617841656298817,0.35565244630352405,0.0,0.0,0.0,"[1.0043283296544558, 0.6006257807510877, 1.3965898833717176, 0.3682853635351151, 0.11241769845560512, 0.46446563793060136, 0.6915146359038431, 0.5388602643262566, 0.46189811974067396]",21.55,0.0,0.0,0.0,250.2218969443331,36.93500395521918,-2009.3515611715022,237.5126839003202,0.0,0.0,0.0,0.0,0.0,0.0,0.0,-7.3,21.648680276789037,0.0,21.468451292807,0.0,-7.3,21.55,20.7,22.23,21.47,22.04,-7.85,-7.3,741.12,-1399.68,-1105.75,0.0,80.0,13.0,140.0,0.0,0.0,0.0,0.0,0.0,0.0,0.0,0.0,0.0,0.0,0.0,0.0,0.0,0.0
97.0,1125.0,0.0,14875.0,-0.0,0.0,16000.0,0.0,30347.703402558054,0.0,1634.85917485129,0.0,28712.844227706773,0.3953136810279667,0.2556055595268912,0.35565244630352405,0.0,0.0,0.0,"[1.0043283296544558, 0.6006257807510877, 1.3965898833717176, 0.3682853635351151, 0.11241769845560512, 0.46446563793060136, 0.6915146359038431, 0.5388602643262566, 0.46189811974067396]",21.0,0.0,0.0,0.0,167.89128426643578,27.71698337695749,-1922.2474587601644,1157.14081221564,6002.504833029063,0.0,0.0,0.0,0.0,0.0,0.0,-6.6,21.437754370633584,0.0,21.392907944559077,0.0,-6.6,21.0,20.66,22.13,21.04,21.68,-7.15,-6.6,1503.17,-1339.0,-1057.81,0.0,80.0,0.0,81.0,0.0,0.0,0.0,0.0,0.0,0.0,0.0,0.0,0.0,0.0,0.0,0.0,0.0,0.0
98.0,1378.0,0.0,6052.81845948869,-0.0,0.0,7430.81845948869,0.0,12087.52924925481,0.0,0.0,0.0,12087.529249254809,0.11448153970186353,0.2556055595268912,0.35565244630352405,0.0,0.0,0.0,"[1.0043283296544558, 0.6006257807510877, 1.3965898833717176, 0.3682853635351151, 0.11241769845560512, 0.46446563793060136, 0.6915146359038431, 0.5388602643262566, 0.46189811974067396]",23.0,0.0,0.0,0.0,238.80902212673448,29.352946073440798,-2013.4053029248835,-2645.8828362539216,0.0,0.0,0.0,0.0,0.0,0.0,0.0,-5.9,22.04034994113203,0.0,21.462717537056662,0.0,-5.9,23.0,20.7,22.22,22.49,22.81,-6.43,-5.9,1078.53,-1402.5,-1107.98,0.0,80.0,0.0,133.0,0.0,0.0,0.0,0.0,0.0,0.0,0.0,0.0,0.0,0.0,0.0,0.0,0.0,0.0
99.0,1098.0,3045.8100293434045,4961.762519707997,-0.0,0.0,3029.1815405113093,0.0,10097.889402323377,0.0,0.0,0.0,10097.889402323377,0.0,0.2556055595268912,0.35565244630352405,0.0,0.0,0.0,"[1.0043283296544558, 0.6006257807510877, 1.3965898833717176, 0.3682853635351151, 0.11241769845560512, 0.46446563793060136, 0.6915146359038431, 0.5388602643262566, 0.46189811974067396]",21.38,0.0,0.0,0.0,173.34649487107413,27.84282666130236,-1872.3301595005773,493.24926200847335,144.02716196732575,0.0,0.0,0.0,0.0,0.0,0.0,-5.5,21.575207601178487,0.0,21.435738167943192,0.0,-5.5,21.38,20.69,22.18,21.22,21.83,-6.02,-5.5,1171.09,-1304.23,-1030.34,0.0,80.0,0.0,85.0,0.0,0.0,0.0,0.0,0.0,0.0,0.0,0.0,0.0,0.0,0.0,0.0,0.0,0.0
100.0,859.0,48030.26774231387,16216.475712316133,-21541.21281420644,0.0,-9173.427877079726,0.0,33775.80781690897,0.0,0.0,0.0,33775.80781690897,0.33296145627919005,0.2556055595268912,0.4260204081632651,0.0,0.0,0.0,"[1.0043283296544558, 0.6006257807510877, 1.3965898833717176, 0.3682853635351151, 0.11241769845560512, 0.46446563793060136, 0.6915146359038431, 0.5388602643262566, 0.46189811974067396]",21.0,0.0,0.0,0.0,162.43607366179742,27.591140092612623,-1810.7953451549238,1088.9998963387752,5964.7628094280435,0.0,0.0,0.0,0.0,0.0,0.0,-5.0,21.41173295780473,0.0,21.36319553800641,0.0,-5.0,21.0,20.65,22.08,21.04,21.65,-5.51,-5.0,2407.16,-1261.37,-996.48,0.0,80.0,0.0,77.0,0.0,0.0,0.0,0.0,0.0,0.0,0.0,0.0,0.0,0.0,0.0,0.0,0.0,0.0
101.0,1261.0,60853.595451020505,43288.3274737654,-0.0,0.0,-16000.0,0.0,13838.657656018764,0.0,-77973.34735226168,0.0,91812.00500828045,0.9137021970199307,0.5386199313980632,0.4260204081632651,0.0,0.0,0.0,"[1.0043283296544558, 0.6006257807510877, 1.3965898833717176, 0.3682853635351151, 0.11241769845560512, 0.46446563793060136, 0.6915146359038431, 0.5388602643262566, 0.46189811974067396]",23.0,0.0,0.0,0.0,109.24777026657343,26.364168070250148,-1922.8504606206259,-2706.0775270310933,0.0,0.0,0.0,0.0,0.0,0.0,0.0,-4.6,22.017384540212444,0.0,21.437249704591135,0.0,-4.6,23.0,20.7,22.18,22.48,22.77,-5.03,-4.6,818.98,-1339.42,-1058.14,0.0,80.0,0.0,38.0,0.0,0.0,0.0,0.0,0.0,0.0,0.0,0.0,0.0,0.0,0.0,0.0,0.0,0.0
102.0,3777.0,0.0,5301.4199033659115,-0.0,0.0,9078.419903365912,0.0,11395.621034224017,0.0,0.0,0.0,11395.621034224016,0.5706024274293823,0.5386199313980632,0.4260204081632651,0.0,0.0,0.0,"[1.0043283296544558, 0.6006257807510877, 1.3965898833717176, 0.3682853635351151, 0.11241769845560512, 0.46446563793060136, 0.6915146359038431, 0.5388602643262566, 0.46189811974067396]",21.34,0.0,0.0,0.0,154.6839322762587,36.65185656544322,-1786.115343703994,512.1275455940001,5239.747010343671,0.0,0.0,0.0,0.0,0.0,0.0,-4.3,21.543836143438252,0.0,21.412897127166836,0.0,-4.3,21.34,20.69,22.14,21.19,21.79,-4.74,-4.3,1888.07,-1244.18,-982.9,0.0,111.0,0.0,55.0,0.0,0.0,0.0,0.0,0.0,0.0,0.0,0.0,0.0,0.0,0.0,0.0,0.0,0.0
103.0,1341.0,0.0,7967.182776098122,-0.0,0.0,9308.182776098121,0.0,17353.649222137654,0.0,0.0,0.0,17353.649222137657,0.21881925372952885,0.5386199313980632,0.4260204081632651,0.0,0.0,0.0,"[1.0043283296544558, 0.6006257807510877, 1.3965898833717176, 0.3682853635351151, 0.11241769845560512, 0.46446563793060136, 0.6915146359038431, 0.5388602643262566, 0.46189811974067396]",22.88,0.0,0.0,0.0,203.13481593587568,43.730541309842124,-1872.2396508074378,-2372.169698922394,4343.842048522612,0.0,0.0,0.0,0.0,0.0,0.0,-4.0,22.01396727542413,0.0,21.478875952209812,0.0,-4.0,22.88,20.74,22.22,22.38,22.71,-4.43,-4.0,1837.37,-1304.17,-1030.29,0.0,131.0,0.0,80.0,0.0,0.0,0.0,0.0,0.0,0.0,0.0,0.0,0.0,0.0,0.0,0.0,0.0,0.0
104.0,2704.0,5819.052717269682,3085.957453683334,-0.0,0.0,0.0,0.0,6809.909275349324,0.0,0.0,0.0,6809.909275349324,0.0,0.5386199313980632,0.4260204081632651,0.0,0.0,0.0,"[1.0043283296544558, 0.6006257807510877, 0.9640849670016785, 0.3682853635351151, 0.11241769845560512, 0.46446563793060136, 0.6915146359038431, 0.538860264326253, 0.46189811974067396]",23.0,0.0,0.0,0.7647234298365599,105.01280413928838,2.4224832236387353,-1860.1586467176783,-2431.497840839787,0.0,0.0,0.0,0.0,0.0,0.0,0.0,-3.7,22.11849129219851,0.0,21.568151294948215,0.0,-3.7,23.0,20.8,22.33,22.4,22.77,-4.11,-3.7,688.85,-1295.75,-1023.64,1.22,0.0,0.0,77.0,0.0,0.0,0.0,0.0,0.0,0.0,0.0,0.0,0.0,0.0,0.0,0.0,0.0,0.0
105.0,2584.0,25436.342366169913,6736.530528566988,-0.0,11.369874227925932,-16000.0,0.0,15829.100264722958,0.0,0.0,0.0,15829.100264722958,0.5807407407407407,0.5386199313980632,0.4260204081632651,0.0,0.0,0.0,"[1.0043283296544558, 0.6006257807510877, 0.9640849670016785, 0.3682853635351151, 0.11241769845560512, 0.46446563793060136, 0.6915146359038431, 0.538860264326253, 0.46189811974067396]",21.46,0.0,0.0,21.79669366811168,68.19013255797947,1.5730410543108668,-1647.8769632064443,550.657737856936,0.0,0.0,0.0,0.0,0.0,0.0,0.0,-2.2,21.672519401075164,0.0,21.539968172968873,0.0,-2.2,21.46,20.79,22.29,21.3,21.93,-2.57,-2.2,2197.58,-1147.88,-906.83,34.64,0.0,0.0,50.0,0.0,0.0,0.0,0.0,0.0,0.0,0.0,0.0,0.0,0.0,0.0,0.0,0.0,0.0
106.0,4041.0,0.0,1059.8655998570612,-0.0,38.29608312287261,5062.569516734189,0.0,2591.4496247274737,0.0,0.0,0.0,2591.4496247274737,0.38941158288986427,0.5386199313980632,0.42602040816326464,0.0,0.0,0.0,"[1.0043283296544558, 0.6006257807510877, 0.9640849670016785, 0.3682853635351151, 0.11241769845560512, 0.46446563793060136, 0.6915146359038431, 0.538860264326253, 0.46189811974067396]",21.08,0.0,0.0,27.790259188835254,343.24759357079773,38.31928008301274,-1552.318699141322,1124.4131343557974,0.0,0.0,0.0,0.0,0.0,0.0,0.0,-1.2,21.51221967181283,0.0,21.469226369232185,0.0,-1.2,21.08,20.76,22.18,21.12,21.74,-1.55,-1.2,1785.49,-1081.32,-854.24,44.17,102.0,0.0,198.0,0.0,0.0,0.0,0.0,0.0,0.0,0.0,0.0,0.0,0.0,0.0,0.0,0.0,0.0
107.0,10223.0,9844.789409921263,0.0,-0.0,427.4345371283443,0.0,0.0,7877.402745750276,0.0,7877.402745750276,0.0,0.0,0.38941158288986427,0.5088489459643887,0.42602040816326464,0.0,0.0,0.0,"[1.0043283296544558, 0.6006257807510877, 0.9640849670016785, 0.3682853635351151, 0.11241769845560512, 0.46446563793060136, 0.6915146359038431, 0.538860264326253, 0.46189811974067396]",21.08,0.0,0.0,52.1872670975463,405.48006191581686,46.908084239550085,-1461.211498146121,982.180693423155,0.0,0.0,0.0,0.0,0.0,0.0,0.0,0.1,21.451031832510687,0.0,21.398340351957053,0.0,0.1,21.08,20.72,22.07,21.1,21.68,-0.26,0.1,1711.99,-1017.85,-804.1,82.94,126.0,0.0,231.0,0.0,0.0,0.0,0.0,0.0,0.0,0.0,0.0,0.0,0.0,0.0,0.0,0.0,0.0
108.0,6455.0,30842.9803378587,16804.40115380608,-0.0,1021.7997176366769,0.0,0.0,11128.181542044273,42255.82,0.0,0.0,44932.83754204427,0.38941158288986427,0.5088489459643887,0.42602040816326464,33804.656,8451.164,42255.82,"[1.0043283296544558, 0.6006257807510877, 0.9640849670016785, 0.3682853635351151, 0.11241769845560512, 0.46446563793060136, 0.6915146359038431, 0.538860264326253, 0.46189811974067396]",21.09,0.0,0.0,67.97662255115988,2971.654197789842,113.25895591038248,-1385.1674813590525,825.9666989016588,0.0,0.0,0.0,0.0,0.0,0.0,0.0,1.2,21.401052048172552,0.0,21.335871403858263,0.0,1.2,21.09,20.69,21.98,21.08,21.63,0.78,1.2,608.0,-964.88,-762.26,108.03,150.0,0.0,2100.0,0.0,0.0,0.0,0.0,0.0,0.0,0.0,0.0,0.0,0.0,0.0,0.0,0.0,0.0
109.0,3252.0,23208.056764486013,4906.8448976641985,-0.0,1066.8284170006152,-16000.0,0.0,13494.508633721554,0.0,0.0,0.0,13494.508633721554,0.9701523236306049,0.5088489459643887,0.4193877551020401,0.0,0.0,0.0,"[1.0043283296544558, 0.6006257807510877, 0.9640849670016785, 0.3682853635351151, 0.11241769845560512, 0.46446563793060136, 0.6915146359038431, 0.538860264326253, 0.46189811974067396]",22.04,0.0,0.0,71.21997446661639,2323.8479384890375,103.97801368994838,-1396.0402097191857,-1099.254181811573,0.0,0.0,0.0,0.0,0.0,0.0,0.0,2.0,21.645095016819035,0.0,21.31803817287239,0.0,2.0,22.04,20.69,21.94,21.51,21.94,1.58,2.0,1738.89,-972.46,-768.24,113.19,169.0,0.0,1615.0,0.0,0.0,0.0,0.0,0.0,0.0,0.0,0.0,0.0,0.0,0.0,0.0,0.0,0.0
110.0,2895.0,7982.846816255636,5329.764466823194,-0.0,281.83188464883665,0.0,0.0,14810.02734400672,0.0,0.0,0.0,14810.027344006721,0.9701523236306049,0.5088489459643887,0.4153061224489789,0.0,0.0,0.0,"[1.0043283296544558, 0.6006257807510877, 0.9640849670016785, 0.3682853635351151, 0.11241769845560512, 0.46446563793060136, 0.6915146359038431, 0.538860264326253, 0.46189811974067396]",22.04,0.0,0.0,54.47524005317534,210.02560827857675,4.8449664472774705,-1375.034770775573,-1089.3654048001354,4801.360163897777,0.0,0.0,0.0,0.0,0.0,0.0,2.3,21.647063866958195,0.0,21.323625379223934,0.0,2.3,22.04,20.71,21.94,21.51,21.93,1.85,2.3,303.29,-957.82,-756.68,86.58,0.0,0.0,154.0,0.0,0.0,0.0,0.0,0.0,0.0,0.0,0.0,0.0,0.0,0.0,0.0,0.0,0.0
111.0,2789.0,0.0,5756.602208473203,-0.0,0.0812191455510646,8545.520989327651,0.0,15666.821527481488,0.0,0.0,0.0,15666.82152748149,0.6471923467096807,0.5088489459643887,0.2586734693877549,0.0,0.0,0.0,"[1.0043283296544558, 0.6006257807510877, 0.9640849670016785, 0.3682853635351151, 0.11241769845560512, 0.46446563793060136, 0.6915146359038431, 0.538860264326253, 0.46189811974067396]",23.0,0.0,0.0,12.971485801033815,381.7929632377819,47.222692450412254,-1484.0077632999921,-2780.342084061025,3826.4807263072107,0.0,0.0,0.0,0.0,0.0,0.0,1.7,21.98678834193815,0.0,21.422449964112467,0.0,1.7,23.0,20.78,22.07,22.39,22.64,1.22,1.7,1947.46,-1033.73,-816.65,20.62,127.0,1.0,213.0,0.0,0.0,0.0,0.0,0.0,0.0,0.0,0.0,0.0,0.0,0.0,0.0,0.0,0.0
112.0,2989.0,6916.324845336279,3892.743221109598,-0.0,0.0,0.0,0.0,10297.369546160056,0.0,0.0,0.0,10297.369546160055,0.6471923467096807,0.5088489459643887,0.24999999999999978,0.0,0.0,0.0,"[1.0043283296544558, 0.6006257807510877, 0.9640849670016785, 0.3682853635351151, 0.11241769845560512, 0.46446563793060136, 0.6915146359038431, 0.538860264326253, 0.46189811974067396]",23.0,0.0,0.0,0.0,549.6124684173146,61.75759179224466,-1539.7338201026125,-2570.4320786720696,0.0,0.0,0.0,0.0,0.0,0.0,0.0,0.9,22.064841815161596,0.0,21.52261482903728,0.0,0.9,23.0,20.86,22.19,22.35,22.65,0.41,0.9,452.55,-1072.55,-847.31,0.0,91.0,39.0,351.0,0.0,0.0,0.0,0.0,0.0,0.0,0.0,0.0,0.0,0.0,0.0,0.0,0.0,0.0
113.0,6195.0,0.0,4458.287719406411,-0.0,0.0,10653.287719406411,0.0,11835.891509187659,0.0,0.0,0.0,11835.891509187655,0.24457376320981639,0.5088489459643887,0.2454081632653059,0.0,0.0,0.0,"[1.0043283296544558, 0.6006257807510877, 0.9640849670016785, 0.3682853635351151, 0.11241769845560512, 0.46446563793060136, 0.6915146359038431, 0.538860264326253, 0.46189811974067396]",21.71,0.0,0.0,0.0,597.776235729319,90.35547815961624,-1442.4687019940063,-34.78336814460521,2321.068661638378,0.0,0.0,0.0,0.0,0.0,0.0,1.0,21.70573456110908,0.0,21.517827575829923,0.0,1.0,21.71,20.86,22.17,21.44,21.95,0.49,1.0,0.0,-1004.8,-793.79,0.0,136.0,64.0,360.0,0.0,0.0,0.0,0.0,0.0,0.0,0.0,0.0,0.0,0.0,0.0,0.0,0.0,0.0
114.0,7722.0,9481.270623588905,1711.8642704709594,-0.0,0.0,0.0,0.0,4560.9882322467665,0.0,0.0,0.0,4560.988232246767,0.24457376320981639,0.5088489459643887,0.2454081632653059,0.0,0.0,0.0,"[1.0043283296544558, 0.6006257807510877, 0.9640849670016785, 0.3682853635351151, 0.11241769845560512, 0.46446563793060136, 0.6915146359038431, 0.538860264326253, 0.46189811974067396]",22.27,0.0,0.0,0.0,2338.6344303910832,121.40730857171278,-1474.7549894880276,-1108.009386644419,0.0,0.0,0.0,0.0,0.0,0.0,0.0,1.1,21.872490909575536,0.0,21.53710405158396,0.0,1.1,22.27,20.89,22.19,21.92,22.32,0.59,1.1,0.0,-1027.29,-811.56,0.0,164.0,33.0,1625.0,0.0,0.0,0.0,0.0,0.0,0.0,0.0,0.0,0.0,0.0,0.0,0.0,0.0,0.0
115.0,10551.0,13548.445315864848,2929.703089285523,-0.0,0.0,0.0,0.0,7861.584272861646,0.0,0.0,0.0,7861.584272861646,0.24457376320981639,0.5088489459643887,0.23928571428571407,0.0,0.0,0.0,"[1.0043283296544558, 0.6006257807510877, 0.9640849670016785, 0.3682853635351151, 0.11241769845560512, 0.46446563793060136, 0.6915146359038431, 0.538860264326253, 0.46189811974067396]",22.22,0.0,0.0,0.0,240.02926660408778,5.537104511174254,-1457.3661313998873,-1015.3651197512294,4343.078421786806,0.0,0.0,0.0,0.0,0.0,0.0,1.3,21.857005328768626,0.0,21.537200355008032,0.0,1.3,22.22,20.9,22.18,21.69,22.14,0.78,1.3,0.0,-1015.17,-801.99,0.0,0.0,0.0,176.0,0.0,0.0,0.0,0.0,0.0,0.0,0.0,0.0,0.0,0.0,0.0,0.0,0.0,0.0
116.0,9434.0,16189.493154644784,1861.7820222032349,-0.0,0.0,-4812.763666668327,0.0,5013.666893921834,0.0,0.0,0.0,5013.666893921834,1.0,0.5088489459643887,0.239285714285713,0.0,0.0,0.0,"[1.0043283296544558, 0.6006257807510877, 0.4960760410684024, 0.3682853635351151, 0.11241769845560512, 0.2420843273481914, 0.6915146359038431, 0.538860264326253, 0.46189811974067396]",23.0,0.0,0.0,0.0,211.38941092973636,4.87642726836369,-1504.905034600975,-2387.9691046462162,0.0,0.0,0.0,0.0,0.0,0.0,0.0,1.4,22.13208892823535,0.0,21.617045882530597,0.0,1.4,23.0,20.96,22.28,22.44,22.74,0.89,1.4,0.0,-1048.29,-828.15,0.0,0.0,0.0,155.0,0.0,0.0,0.0,0.0,0.0,0.0,0.0,0.0,0.0,0.0,0.0,0.0,0.0,0.0
117.0,6121.0,8274.623268098956,2112.2501517584606,-0.0,0.0,0.0,0.0,5728.43594478011,0.0,0.0,0.0,5728.43594478011,1.0,0.5088489459643887,0.239285714285713,0.0,0.0,0.0,"[1.0043283296544558, 0.6006257807510877, 0.4960760410684024, 0.3682853635351151, 0.11241769845560512, 0.2420843273481914, 0.6915146359038431, 0.538860264326253, 0.46189811974067396]",21.64,0.0,0.0,0.0,120.01463330204389,2.768552255587127,-1396.2310386931524,252.8193128969559,0.0,0.0,0.0,0.0,0.0,0.0,0.0,1.6,21.748001872872816,0.0,21.602803573615986,0.0,1.6,21.64,20.96,22.25,21.45,21.97,1.09,1.6,0.0,-972.59,-768.35,0.0,0.0,0.0,88.0,0.0,0.0,0.0,0.0,0.0,0.0,0.0,0.0,0.0,0.0,0.0,0.0,0.0,0.0
118.0,3283.0,0.0,0.0,-0.0,0.0,3283.0,0.0,10749.619130216872,0.0,10749.619130216874,0.0,0.0,0.8759259259259259,0.468223023325625,0.2107142857142844,0.0,0.0,0.0,"[1.0043283296544558, 0.6006257807510877, 0.4960760410684024, 0.3682853635351151, 0.11241769845560512, 0.2420843273481914, 0.6915146359038431, 0.538860264326253, 0.46189811974067396]",21.27,0.0,0.0,0.0,344.32427987434477,54.83621115327685,-1362.9612738020248,867.6875921347017,3030.8507410309453,0.0,0.0,0.0,0.0,0.0,0.0,1.7,21.597586410477355,0.0,21.546116962100353,0.0,1.7,21.27,20.93,22.16,21.26,21.79,1.17,1.7,0.0,-949.41,-750.04,0.0,146.0,6.0,175.0,0.0,0.0,0.0,0.0,0.0,0.0,0.0,0.0,0.0,0.0,0.0,0.0,0.0,0.0
119.0,4424.0,0.0,4582.384024621716,-0.0,0.0,9006.384024621715,0.0,12558.510653717105,0.0,0.0,0.0,12558.510653717107,0.5355486007323614,0.468223023325625,0.2107142857142844,0.0,0.0,0.0,"[1.0043283296544558, 0.6006257807510877, 0.4960760410684024, 0.3682853635351151, 0.11241769845560512, 0.2420843273481914, 0.6915146359038431, 0.538860264326253, 0.46189811974067396]",22.35,0.0,0.0,0.0,446.3223623637013,64.24299665805584,-1424.5121346149285,-1225.7372492142122,3914.1462356608267,0.0,0.0,0.0,0.0,0.0,0.0,1.9,21.90730700868219,0.0,21.566540050261345,0.0,1.9,22.35,20.95,22.18,22.04,22.38,1.37,1.9,0.0,-992.29,-783.91,0.0,130.0,27.0,256.0,0.0,0.0,0.0,0.0,0.0,0.0,0.0,0.0,0.0,0.0,0.0,0.0,0.0,0.0
120.0,3263.0,0.0,3696.4198008171406,-0.0,0.0,6959.419800817141,0.0,9989.475078472602,0.0,0.0,0.0,9989.475078472602,0.2725319793862866,0.468223023325625,0.2107142857142844,0.0,0.0,0.0,"[1.0043283296544558, 0.6006257807510877, 0.4960760410684024, 0.3682853635351151, 0.11241769845560512, 0.2420843273481914, 0.6915146359038431, 0.538860264326253, 0.46189811974067396]",23.0,0.0,0.0,0.0,2092.145045965714,77.17339412449118,-1497.9392775006472,-2347.0331944901577,0.0,0.0,0.0,0.0,0.0,0.0,0.0,1.5,22.147209030981966,0.0,21.645818404775177,0.0,1.5,23.0,21.01,22.28,22.44,22.72,0.94,1.5,42.74,-1043.44,-824.32,0.0,80.0,9.0,1491.0,0.0,0.0,0.0,0.0,0.0,0.0,0.0,0.0,0.0,0.0,0.0,0.0,0.0,0.0
121.0,2113.0,0.0,1869.8885097379527,-0.0,0.0,3982.8885097379525,0.0,4999.84473476824,0.0,0.0,0.0,4999.844734768241,0.12200709239694599,0.468223023325625,0.1999999999999987,0.0,0.0,0.0,"[1.0043283296544558, 0.6006257807510877, 0.4960760410684024, 0.3682853635351151, 0.11241769845560512, 0.2420843273481914, 0.6915146359038431, 0.538860264326253, 0.46189811974067396]",22.38,0.0,0.0,0.0,1581.795738084414,64.27445747914206,-1475.4743325988304,-1094.9158517774454,0.0,0.0,0.0,0.0,0.0,0.0,0.0,1.2,21.987699777496058,0.0,21.660546962951656,0.0,1.2,22.38,21.03,22.29,21.82,22.26,0.62,1.2,11.31,-1027.79,-811.95,0.0,80.0,7.0,1117.0,0.0,0.0,0.0,0.0,0.0,0.0,0.0,0.0,0.0,0.0,0.0,0.0,0.0,0.0
122.0,1813.0,18434.23401606047,5986.799124159592,-0.0,0.0,-10542.263721820576,0.0,15779.645635594623,0.0,0.0,0.0,15779.645635594625,0.5046522200778409,0.468223023325625,0.1999999999999987,0.0,0.0,0.0,"[1.0043283296544558, 0.6006257807510877, 0.4960760410684024, 0.3682853635351151, 0.11241769845560512, 0.2420843273481914, 0.6915146359038431, 0.538860264326253, 0.46189811974067396]",22.04,0.0,0.0,0.0,169.25508691759538,27.74844419804371,-1479.36521454681,-451.5332761874074,4349.841319837574,0.0,0.0,0.0,0.0,0.0,0.0,0.8,21.88156901124455,0.0,21.647089667414257,0.0,0.8,22.04,21.03,22.26,21.66,22.13,0.21,0.8,558.56,-1030.5,-814.09,0.0,80.0,0.0,82.0,0.0,0.0,0.0,0.0,0.0,0.0,0.0,0.0,0.0,0.0,0.0,0.0,0.0,0.0
123.0,1730.0,29194.15596227905,18854.80518246765,-0.0,0.0,0.0,0.0,15663.094660752833,42316.9,0.0,0.0,49516.614660752835,0.48070664184654827,0.468223023325625,0.1999999999999987,33853.520000000004,8463.380000000001,42316.9,"[1.0043283296544558, 0.6006257807510877, 0.4960760410684024, 0.3682853635351151, 0.11241769845560512, 0.2420843273481914, 0.6915146359038431, 0.538860264326253, 0.46189811974067396]",23.0,0.0,0.0,0.0,118.79438882469056,26.584393817853666,-1553.6653343032674,-2206.8291089078552,0.0,0.0,0.0,0.0,0.0,0.0,0.0,0.7,22.199483983808072,0.0,21.716943657771537,0.0,0.7,23.0,21.08,22.35,22.51,22.79,0.11,0.7,775.83,-1082.25,-854.98,0.0,80.0,0.0,45.0,0.0,0.0,0.0,0.0,0.0,0.0,0.0,0.0,0.0,0.0,0.0,0.0,0.0,0.0
124.0,716.0,0.0,5615.989386225104,-0.0,0.0,6331.989386225104,0.0,14641.670743868972,0.0,0.0,0.0,14641.670743868972,0.24140243223864563,0.468223023325625,0.1999999999999987,0.0,0.0,0.0,"[1.0043283296544558, 0.6006257807510877, 0.4960760410684024, 0.3682853635351151, 0.11241769845560512, 0.2420843273481914, 0.6915146359038431, 0.538860264326253, 0.46189811974067396]",21.67,0.0,0.0,0.0,144.70663919672276,27.182149418491793,-1474.385970920165,381.53945803735115,0.0,0.0,0.0,0.0,0.0,0.0,0.0,0.5,21.81819192774018,0.0,21.69774081287885,0.0,0.5,21.67,21.08,22.32,21.52,22.04,-0.07,0.5,883.84,-1027.03,-811.35,0.0,80.0,0.0,64.0,0.0,0.0,0.0,0.0,0.0,0.0,0.0,0.0,0.0,0.0,0.0,0.0,0.0,0.0
125.0,931.0,0.0,5456.508357034563,-0.0,0.0,6387.508357034563,0.0,14121.844231033645,0.0,0.0,0.0,14121.844231033643,0.0,0.468223023325625,0.1999999999999987,0.0,0.0,0.0,"[1.0043283296544558, 0.6006257807510877, 0.4960760410684024, 0.3682853635351151, 0.11241769845560512, 0.2420843273481914, 0.6915146359038431, 0.538860264326253, 0.46189811974067396]",21.32,0.0,0.0,0.0,163.79987631295697,27.622600913698843,-1464.5221903420268,920.3070586940105,0.0,0.0,0.0,0.0,0.0,0.0,0.0,0.3,21.6758040877001,0.0,21.637700336097762,0.0,0.3,21.32,21.04,22.23,21.35,21.87,-0.27,0.3,1999.17,-1020.16,-805.93,0.0,80.0,0.0,78.0,0.0,0.0,0.0,0.0,0.0,0.0,0.0,0.0,0.0,0.0,0.0,0.0,0.0,0.0
126.0,890.0,3732.840898248854,2824.17669375761,-0.0,0.0,0.0,0.0,7282.2528842195725,0.0,0.0,0.0,7282.252884219573,0.0,0.468223023325625,0.1999999999999987,0.0,0.0,0.0,"[1.0043283296544558, 0.6006257807510877, 0.4960760410684024, 0.3682853635351151, 0.11241769845560512, 0.2420843273481914, 0.6915146359038431, 0.538860264326253, 0.46189811974067396]",21.19,0.0,0.0,0.0,204.355060413229,42.566490929652076,-1462.3307882727704,1028.6517095614734,0.0,0.0,0.0,0.0,0.0,0.0,0.0,0.2,21.584397051051983,0.0,21.569231971857697,0.0,0.2,21.19,21.0,22.14,21.27,21.77,-0.36,0.2,0.0,-1018.63,-804.72,0.0,127.0,0.0,83.0,0.0,0.0,0.0,0.0,0.0,0.0,0.0,0.0,0.0,0.0,0.0,0.0,0.0,0.0
127.0,730.0,19951.89571914957,9272.629061281006,-0.0,0.0,-9849.507179272814,0.0,23821.44714654465,0.0,0.0,0.0,23821.44714654465,0.3575006309513836,0.468223023325625,0.1999999999999987,0.0,0.0,0.0,"[1.0043283296544558, 0.6006257807510877, 0.4960760410684024, 0.3682853635351151, 0.11241769845560512, 0.2420843273481914, 0.6915146359038431, 0.538860264326253, 0.46189811974067396]",21.12,0.0,0.0,0.0,176.93544921623095,46.4047111021706,-1464.381059730084,1017.7535460852475,5314.993147253164,0.0,0.0,0.0,0.0,0.0,0.0,0.1,21.50982276126342,0.0,21.500495571922393,0.0,0.1,21.12,20.96,22.04,21.21,21.68,-0.48,0.1,735.9,-1020.06,-805.85,0.0,142.0,0.0,55.0,0.0,0.0,0.0,0.0,0.0,0.0,0.0,0.0,0.0,0.0,0.0,0.0,0.0,0.0
128.0,1031.0,0.0,2054.7405688241993,-0.0,0.0,3085.7405688241993,0.0,5298.23097354943,0.0,0.0,0.0,5298.23097354943,0.8216223025755635,0.5,0.35628659772675625,0.0,0.0,0.0,"[1.0043283296544558, 0.6006257807510877, 0.4960760410684024, 0.3682853635351151, 0.11241769845560512, 0.2420843273481914, 0.6915146359038431, 0.538860264326253, 0.46189811974067396]",23.0,0.0,0.0,1.5359384355559422,116.85635347830589,27.433835987181528,-1588.4941198049053,-2529.1784310030826,0.0,0.0,0.0,0.0,0.0,0.0,0.0,0.2,22.080472185590963,0.0,21.572918318053063,0.0,0.2,23.0,21.01,22.14,22.55,22.73,-0.34,0.2,842.22,-1106.52,-874.15,2.44,83.0,0.0,42.0,0.0,0.0,0.0,0.0,0.0,0.0,0.0,0.0,0.0,0.0,0.0,0.0,0.0,0.0
129.0,1720.0,0.0,5753.361640515199,-0.0,70.51710651547569,7402.844533999723,0.0,16261.336376809435,0.0,0.0,0.0,16261.336376809435,0.5418473768764054,0.5,0.35628659772675625,0.0,0.0,0.0,"[1.0043283296544558, 0.6006257807510877, 0.4960760410684024, 0.3682853635351151, 0.11241769845560512, 0.2420843273481914, 0.6915146359038431, 0.538860264326253, 0.46189811974067396]",21.53,0.0,0.0,53.03189795581884,100.9213961858096,2.3281007603800807,-1304.9810878502803,336.49013046248405,4785.435841471406,0.0,0.0,0.0,0.0,0.0,0.0,2.8,21.668339200071273,0.0,21.558478049512413,0.0,2.8,21.53,21.0,22.12,21.41,21.87,2.24,2.8,190.36,-909.03,-718.13,84.28,0.0,0.0,74.0,0.0,0.0,0.0,0.0,0.0,0.0,0.0,0.0,0.0,0.0,0.0,0.0,0.0,0.0
130.0,1781.0,0.0,0.0,-0.0,192.65029228157513,1588.349707718425,0.0,3415.1771455086187,0.0,3415.177145508619,0.0,0.0,0.4818190432513704,0.4870930568952811,0.35628659772675625,0.0,0.0,0.0,"[1.0043283296544558, 0.6006257807510877, 0.4960760410684024, 0.3682853635351151, 0.11241769845560512, 0.2420843273481914, 0.6915146359038431, 0.538860264326253, 0.46189811974067396]",23.0,0.0,0.0,91.12329825461252,114.55942269740554,2.6427089712422562,-1233.2405076882014,-2395.09329793394,384.1858722101047,0.0,0.0,0.0,0.0,0.0,0.0,5.3,22.127555775639948,0.0,21.633492605887582,0.0,5.3,23.0,21.05,22.21,22.53,22.74,4.69,5.3,0.0,-859.05,-678.65,144.82,0.0,0.0,84.0,0.0,0.0,0.0,0.0,0.0,0.0,0.0,0.0,0.0,0.0,0.0,0.0,0.0,0.0
131.0,3681.0,668.4265691243824,2201.3109009559134,-626.5517162990916,5843.778180976245,0.0,0.0,7061.229430697198,0.0,0.0,0.0,7061.229430697198,0.4818190432513704,0.4870930568952811,0.3583333333333333,0.0,0.0,0.0,"[1.0043283296544558, 0.6006257807510877, 0.4960760410684024, 0.3682853635351151, 0.11241769845560512, 0.2420843273481914, 0.6915146359038431, 0.538860264326253, 0.46189811974067396]",21.88,0.0,0.0,860.9375429681014,91.3747776276925,2.1078750127765598,-1050.5889533000175,-169.82062808024224,0.0,0.0,0.0,0.0,0.0,0.0,0.0,6.8,21.826947654829034,0.0,21.642831942874537,0.0,6.8,21.88,21.07,22.22,21.65,22.08,6.74,6.8,0.0,-731.82,-578.14,1368.27,0.0,0.0,67.0,0.0,0.0,0.0,0.0,0.0,0.0,0.0,0.0,0.0,0.0,0.0,0.0,0.0,0.0
132.0,5383.0,0.0,3116.6621668603075,-0.0,8499.662166860307,0.0,0.0,10294.557772987684,0.0,0.0,0.0,10294.557772987684,0.4818190432513704,0.4870930568952811,0.3583333333333333,0.0,0.0,0.0,"[1.0043283296544558, 0.6006257807510877, 0.4960760410684024, 0.3682853635351151, 0.11241769845560512, 0.2420843273481914, 0.6915146359038431, 0.538860264326253, 0.46189811974067396]",21.79,0.0,0.0,822.2317413150138,75.00914581377741,1.7303451597419526,-974.6540349897548,18.216699630700422,3180.4060805687673,0.0,0.0,0.0,0.0,0.0,0.0,7.8,21.80584673940792,0.0,21.650789120489257,0.0,7.8,21.79,21.09,22.21,21.77,22.19,7.72,7.8,0.0,-678.93,-536.35,1306.76,0.0,0.0,55.0,0.0,0.0,0.0,0.0,0.0,0.0,0.0,0.0,0.0,0.0,0.0,0.0,0.0,0.0
133.0,4201.0,0.0,1242.4574929929704,-0.0,7859.720886668307,-2416.2633936753364,0.0,4151.3047674489935,0.0,0.0,0.0,4151.304767448994,0.5695204553181048,0.4870930568952811,0.3583333333333333,0.0,0.0,0.0,"[1.0043283296544558, 0.6006257807510877, 0.4960760410684024, 0.3682853635351151, 0.11241769845560512, 0.2420843273481914, 0.6915146359038431, 0.538860264326253, 0.46189811974067396]",22.96,0.0,0.0,790.2799529110746,80.46435641841576,1.856188444086823,-1027.8068012930355,-2085.084871839148,2352.756900043906,0.0,0.0,0.0,0.0,0.0,0.0,8.2,22.19128525520066,0.0,21.740505250888365,0.0,8.2,22.96,21.16,22.32,22.61,22.85,8.14,8.2,0.0,-715.95,-565.6,1255.97,0.0,0.0,59.0,0.0,0.0,0.0,0.0,0.0,0.0,0.0,0.0,0.0,0.0,0.0,0.0,0.0,0.0
134.0,4717.0,286.3538852487387,2255.1923410340637,-0.0,6687.270225211569,0.0,0.0,7535.059162705806,0.0,0.0,0.0,7535.059162705806,0.5695204553181048,0.4870930568952811,0.3583333333333333,0.0,0.0,0.0,"[1.0043283296544558, 0.6006257807510877, 0.4960760410684024, 0.3682853635351151, 0.11241769845560512, 0.2420843273481914, 0.6915146359038431, 0.538860264326253, 0.46189811974067396]",23.0,0.0,0.0,725.4796455538478,129.56125186016098,2.988778003190648,-1031.2335517787037,-1974.856713700278,0.0,0.0,0.0,0.0,0.0,0.0,0.0,8.2,22.281328641651236,0.0,21.840603419118494,0.0,8.2,23.0,21.24,22.44,22.59,22.88,8.03,8.2,0.0,-718.34,-567.49,1152.99,0.0,0.0,95.0,0.0,0.0,0.0,0.0,0.0,0.0,0.0,0.0,0.0,0.0,0.0,0.0,0.0,0.0
135.0,3662.0,5710.74977232262,2026.0334272137313,-0.0,5.837403752723963,0.0,0.0,6576.244347329306,0.0,0.0,0.0,6576.244347329306,0.5695204553181048,0.4870930568952811,0.3583333333333333,0.0,0.0,0.0,"[1.0043283296544558, 0.6006257807510877, 0.4960760410684024, 0.3682853635351151, 0.11241769845560512, 0.2420843273481914, 0.6915146359038431, 0.538860264326253, 0.46189811974067396]",22.22,0.0,0.0,31.835941768010187,297.3807570396936,52.7597969615865,-1046.0271863848398,-365.6760677748407,0.0,0.0,0.0,0.0,0.0,0.0,0.0,7.2,22.08928048791777,0.0,21.87336540516646,0.0,7.2,22.22,21.28,22.46,22.04,22.46,6.54,7.2,0.0,-728.64,-575.63,50.6,154.0,0.0,137.0,0.0,0.0,0.0,0.0,0.0,0.0,0.0,0.0,0.0,0.0,0.0,0.0,0.0,0.0
136.0,3589.0,0.0,1412.8899090522882,-0.0,0.0,5001.889909052288,0.0,4397.486036031415,0.0,0.0,0.0,4397.486036031415,0.3804845555050932,0.4870930568952811,0.34608843537414963,0.0,0.0,0.0,"[1.0043283296544558, 0.6006257807510877, 0.4960760410684024, 0.3682853635351151, 0.11241769845560512, 0.2420843273481914, 0.6915146359038431, 0.538860264326253, 0.46189811974067396]",21.83,0.0,0.0,0.0,91.3747776276925,2.1078750127765598,-1116.909252479096,318.0291337882416,0.0,0.0,0.0,0.0,0.0,0.0,0.0,5.8,21.96025994313214,0.0,21.84657132484724,0.0,5.8,21.83,21.28,22.41,21.71,22.17,5.15,5.8,0.0,-778.02,-614.63,0.0,0.0,0.0,67.0,0.0,0.0,0.0,0.0,0.0,0.0,0.0,0.0,0.0,0.0,0.0,0.0,0.0,0.0
137.0,4916.0,0.0,2110.2178294440628,-0.0,0.0,7026.217829444063,0.0,6487.383732046691,0.0,0.0,0.0,6487.383732046691,0.1149434432812057,0.4870930568952811,0.3282312925170068,0.0,0.0,0.0,"[1.0043283296544558, 0.6006257807510877, 0.4960760410684024, 0.3682853635351151, 0.11241769845560512, 0.2420843273481914, 0.6915146359038431, 0.538860264326253, 0.46189811974067396]",21.57,0.0,0.0,0.0,204.9292931084541,53.011483530276244,-1126.5920494342054,720.7990127518684,0.0,0.0,0.0,0.0,0.0,0.0,0.0,5.4,21.848318113670135,0.0,21.7985743229406,0.0,5.4,21.57,21.26,22.33,21.56,22.02,4.74,5.4,0.0,-784.76,-619.96,0.0,162.0,0.0,65.0,0.0,0.0,0.0,0.0,0.0,0.0,0.0,0.0,0.0,0.0,0.0,0.0,0.0,0.0
138.0,6343.0,23965.22851855972,1502.40237596692,-0.0,0.0,-16000.0,0.0,4561.502208787577,0.0,0.0,0.0,4561.502208787576,0.6956841840219463,0.4870930568952811,0.3093537414965986,0.0,0.0,0.0,"[1.0043283296544558, 0.6006257807510877, 0.4960760410684024, 0.3682853635351151, 0.11241769845560512, 0.2420843273481914, 0.6915146359038431, 0.538860264326253, 0.46189811974067396]",21.52,0.0,0.0,0.0,79.10055376725617,1.824727623000603,-1150.516610552946,716.5706044675645,0.0,0.0,0.0,0.0,0.0,0.0,0.0,5.0,21.790371650677727,0.0,21.747732558430265,0.0,5.0,21.52,21.24,22.26,21.53,21.96,4.37,5.0,372.39,-801.43,-633.13,0.0,0.0,0.0,58.0,0.0,0.0,0.0,0.0,0.0,0.0,0.0,0.0,0.0,0.0,0.0,0.0,0.0,0.0
139.0,7400.0,1462.4783058659593,1369.3694235573269,-0.0,0.0,7314.203509220698,0.0,4105.3772189860465,0.0,0.0,0.0,4105.377218986047,0.41925925925925933,0.4870930568952811,0.3093537414965986,0.0,0.0,0.0,"[1.0043283296544558, 0.6006257807510877, 0.4960760410684024, 0.3682853635351151, 0.11241769845560512, 0.2420843273481914, 0.6915146359038431, 0.538860264326253, 0.46189811974067396]",21.39,0.0,0.0,0.0,87.2833696742137,2.0134925495179083,-1169.2793520617017,848.9418516656947,0.0,0.0,0.0,0.0,0.0,0.0,0.0,4.6,21.708812476107244,0.0,21.691848946283145,0.0,4.6,21.39,21.21,22.17,21.43,21.86,4.0,4.6,0.0,-814.5,-643.45,0.0,0.0,0.0,64.0,0.0,0.0,0.0,0.0,0.0,0.0,0.0,0.0,0.0,0.0,0.0,0.0,0.0,0.0
140.0,5249.0,0.0,1173.9475676468587,-0.0,0.0,6422.947567646859,0.0,3474.7349882055505,0.0,0.0,0.0,3474.7349882055505,0.7572582173980779,0.4870930568952811,0.3093537414965986,0.0,0.0,0.0,"[0.7337000844103052, 0.3051580083919916, 0.4960760410684024, 0.3682853635351151, 0.11241769845560512, 0.2420843273481914, 0.3258615286236477, 0.538860264326253, 0.46189811974067396]",21.3,0.0,0.0,0.0,205.934200325098,4.75058398401882,-1191.1845445183365,888.284700213362,0.0,0.0,0.0,0.0,0.0,0.0,0.0,4.2,21.637978263945175,0.0,21.633319161083065,0.0,4.2,21.3,21.17,22.09,21.37,21.78,3.63,4.2,0.0,-829.76,-655.51,0.0,0.0,0.0,151.0,0.0,0.0,0.0,0.0,0.0,0.0,0.0,0.0,0.0,0.0,0.0,0.0,0.0,0.0
141.0,4377.0,0.0,0.0,-0.0,0.0,4377.0,0.0,10439.241972607415,0.0,10439.241972607419,0.0,0.0,0.5918387162642911,0.44764013938731656,0.3093537414965986,0.0,0.0,0.0,"[0.7337000844103052, 0.3051580083919916, 0.4960760410684024, 0.3682853635351151, 0.11241769845560512, 0.2420843273481914, 0.3258615286236477, 0.538860264326253, 0.46189811974067396]",21.27,0.0,0.0,0.0,167.7477260926295,3.8696809936047316,-1216.6600265346885,829.1556179568422,4183.358913866659,0.0,0.0,0.0,0.0,0.0,0.0,3.8,21.582000592111363,0.0,21.575244160159556,0.0,3.8,21.27,21.14,22.01,21.33,21.72,3.25,3.8,0.0,-847.5,-669.53,0.0,0.0,0.0,123.0,0.0,0.0,0.0,0.0,0.0,0.0,0.0,0.0,0.0,0.0,0.0,0.0,0.0,0.0
142.0,2669.0,2682.4120603015076,0.0,-0.0,0.0,0.0,0.0,5817.4179333483,0.0,5817.4179333483,0.0,0.0,0.5918387162642911,0.42565443291207733,0.3093537414965986,0.0,0.0,0.0,"[0.7337000844103052, 0.3051580083919916, 0.4960760410684024, 0.3682853635351151, 0.11241769845560512, 0.2420843273481914, 0.3258615286236477, 0.538860264326253, 0.46189811974067396]",22.73,0.0,0.0,0.0,129.77658912087043,29.950701674078925,-1346.738586385838,-1945.02161118666,0.0,0.0,0.0,0.0,0.0,0.0,0.0,3.4,22.02419043116506,0.0,21.62791316131967,0.0,3.4,22.73,21.17,22.09,22.37,22.53,2.85,3.4,0.0,-938.11,-741.11,0.0,81.0,5.0,52.0,0.0,0.0,0.0,0.0,0.0,0.0,0.0,0.0,0.0,0.0,0.0,0.0,0.0,0.0
143.0,2853.0,29278.41317400641,0.0,-0.0,0.0,-11245.259858024634,0.0,13530.385125100562,0.0,0.0,0.0,0.0,1.0,0.42565443291207733,0.30578231292517005,60135.045000446975,15033.761250111744,75168.80625055871,"[0.7337000844103052, 0.3051580083919916, 0.4960760410684024, 0.3682853635351151, 0.11241769845560512, 0.2420843273481914, 0.3258615286236477, 0.538860264326253, 0.46189811974067396]",21.57,0.0,0.0,0.0,312.59792346315857,43.573237204411036,-1293.8295453438932,305.45041900523574,3441.87453460671,0.0,0.0,0.0,0.0,0.0,0.0,3.0,21.69668459241926,0.0,21.61293742386324,0.0,3.0,21.57,21.16,22.07,21.48,21.86,2.45,3.0,0.0,-901.26,-711.99,0.0,105.0,9.0,173.0,0.0,0.0,0.0,0.0,0.0,0.0,0.0,0.0,0.0,0.0,0.0,0.0,0.0,0.0
144.0,2692.0,0.0,2765.8977694161854,-0.0,0.0,5457.897769416186,0.0,7738.445842104858,0.0,0.0,0.0,7738.4458421048585,0.7937302430303785,0.42565443291207733,0.30578231292517005,0.0,0.0,0.0,"[0.7337000844103052, 0.3051580083919916, 0.4960760410684024, 0.3682853635351151, 0.11241769845560512, 0.2420843273481914, 0.3258615286236477, 0.538860264326253, 0.46189811974067396]",22.61,0.0,0.0,0.0,722.4565096800666,65.28120375390101,-1400.9455516622804,-1643.4691307493363,0.0,0.0,0.0,0.0,0.0,0.0,0.0,2.5,22.01429913671084,0.0,21.656064152253933,0.0,2.5,22.61,21.18,22.13,22.28,22.48,1.98,2.5,0.0,-975.87,-770.94,0.0,80.0,44.0,483.0,0.0,0.0,0.0,0.0,0.0,0.0,0.0,0.0,0.0,0.0,0.0,0.0,0.0,0.0
145.0,1455.0,0.0,8453.502230583814,-0.0,0.0,9908.502230583814,0.0,23328.901366241193,0.0,0.0,0.0,23328.901366241193,0.41925925925925933,0.42565443291207733,0.30578231292517005,0.0,0.0,0.0,"[0.7337000844103052, 0.3051580083919916, 0.4960760410684024, 0.3682853635351151, 0.11241769845560512, 0.2420843273481914, 0.3258615286236477, 0.538860264326253, 0.46189811974067396]",21.77,0.0,0.0,0.0,244.33601181827592,45.806955501532464,-1370.50478977582,-21.44339958349364,0.0,0.0,0.0,0.0,0.0,0.0,0.0,2.1,21.77703015187719,0.0,21.643893003715334,0.0,2.1,21.77,21.17,22.11,21.59,21.96,1.62,2.1,95.63,-954.67,-754.19,0.0,80.0,29.0,134.0,0.0,0.0,0.0,0.0,0.0,0.0,0.0,0.0,0.0,0.0,0.0,0.0,0.0,0.0
146.0,1986.0,24737.31078997758,6627.624236027692,-0.0,0.0,-16000.0,0.0,17974.159391372275,0.0,0.0,0.0,17974.159391372275,1.0,0.42565443291207733,0.30578231292517005,0.0,0.0,0.0,"[0.7337000844103052, 0.3051580083919916, 0.4960760410684024, 0.3682853635351151, 0.11241769845560512, 0.2420843273481914, 0.3258615286236477, 0.538860264326253, 0.46189811974067396]",21.37,0.0,0.0,0.0,209.4513755833517,36.55747410218457,-1376.8333051192835,684.7996335972123,4147.75203175268,0.0,0.0,0.0,0.0,0.0,0.0,1.6,21.62914509697687,0.0,21.597681621499213,0.0,1.6,21.37,21.14,22.05,21.39,21.78,1.15,1.6,1398.94,-959.08,-757.67,0.0,80.0,14.0,110.0,0.0,0.0,0.0,0.0,0.0,0.0,0.0,0.0,0.0,0.0,0.0,0.0,0.0,0.0
147.0,2027.0,0.0,3431.6027194685284,-0.0,0.0,5458.602719468528,0.0,9241.09951783248,0.0,0.0,0.0,9241.099517832481,0.7937036009271153,0.42565443291207733,0.30578231292517005,0.0,0.0,0.0,"[0.7337000844103052, 0.3051580083919916, 0.4960760410684024, 0.3682853635351151, 0.11241769845560512, 0.2420843273481914, 0.3258615286236477, 0.538860264326253, 0.46189811974067396]",22.73,0.0,0.0,0.0,165.16367896411663,27.654061734785056,-1486.0537283923888,-1895.8679419344755,3191.7145072452067,0.0,0.0,0.0,0.0,0.0,0.0,1.4,22.043328982305468,0.0,21.64846759803818,0.0,1.4,22.73,21.17,22.13,22.39,22.56,0.94,1.4,544.94,-1035.16,-817.77,0.0,80.0,0.0,79.0,0.0,0.0,0.0,0.0,0.0,0.0,0.0,0.0,0.0,0.0,0.0,0.0,0.0,0.0
148.0,973.0,0.0,3754.239490859066,-0.0,0.0,4727.239490859066,0.0,10038.36028387662,0.0,0.0,0.0,10038.36028387662,0.6150475355129406,0.42565443291207733,0.30578231292517005,0.0,0.0,0.0,"[0.7337000844103052, 0.3051580083919916, 0.4960760410684024, 0.3682853635351151, 0.11241769845560512, 0.2420843273481914, 0.3258615286236477, 0.538860264326253, 0.46189811974067396]",22.73,0.0,0.0,0.0,148.7980471502015,27.27653188175044,-1499.9852425930437,-1754.7419288561352,0.0,0.0,0.0,0.0,0.0,0.0,0.0,1.2,22.095610721977582,0.0,21.712778496598325,0.0,1.2,22.73,21.21,22.22,22.32,22.55,0.77,1.2,179.4,-1044.86,-825.44,0.0,80.0,0.0,67.0,0.0,0.0,0.0,0.0,0.0,0.0,0.0,0.0,0.0,0.0,0.0,0.0,0.0,0.0
149.0,1575.0,0.0,7485.612622125937,-0.0,0.0,9060.612622125936,0.0,19801.490895014453,0.0,0.0,0.0,19801.490895014453,0.2726207546313859,0.42565443291207733,0.30578231292517005,0.0,0.0,0.0,"[0.7337000844103052, 0.3051580083919916, 0.4960760410684024, 0.3682853635351151, 0.11241769845560512, 0.2420843273481914, 0.3258615286236477, 0.538860264326253, 0.46189811974067396]",21.59,0.0,0.0,0.0,319.2733785451502,31.20913451752762,-1441.4923334529562,438.38951428408654,3736.79401773893,0.0,0.0,0.0,0.0,0.0,0.0,0.9,21.766685172829256,0.0,21.689128166649375,0.0,0.9,21.59,21.19,22.19,21.52,21.94,0.49,0.9,0.0,-1004.12,-793.25,0.0,80.0,0.0,192.0,0.0,0.0,0.0,0.0,0.0,0.0,0.0,0.0,0.0,0.0,0.0,0.0,0.0,0.0
150.0,1276.0,15115.034273664243,3381.755035794794,-0.0,0.0,-10381.704066501126,0.0,8913.426855410047,0.0,0.0,0.0,8913.426855410049,0.6494381614895749,0.42565443291207733,0.30578231292517005,0.0,0.0,0.0,"[0.7337000844103052, 0.3051580083919916, 0.4960760410684024, 0.3682853635351151, 0.11241769845560512, 0.2420843273481914, 0.3258615286236477, 0.538860264326253, 0.46189811974067396]",22.73,0.0,0.0,0.0,151.95632697393953,47.91483051430904,-1527.848270994354,-1711.0758519763185,0.0,0.0,0.0,0.0,0.0,0.0,0.0,0.8,22.11194370661777,0.0,21.73194537638084,0.0,0.8,22.73,21.22,22.25,22.38,22.61,0.41,0.8,0.0,-1064.27,-840.77,0.0,149.0,0.0,33.0,0.0,0.0,0.0,0.0,0.0,0.0,0.0,0.0,0.0,0.0,0.0,0.0,0.0,0.0
151.0,1203.0,62044.19819179038,2767.217646240404,-57763.75955459103,0.0,0.0,0.0,7240.904635725582,0.0,0.0,0.0,7240.904635725584,0.6494381614895749,0.42565443291207733,0.49447726080350074,0.0,0.0,0.0,"[0.7337000844103052, 0.3051580083919916, 0.4960760410684024, 0.3682853635351151, 0.11241769845560512, 0.2420843273481914, 0.3258615286236477, 0.538860264326253, 0.46189811974067396]",21.61,0.0,0.0,0.0,95.46618558117126,2.2022574760352143,-1463.3597204384175,453.33622655000767,0.0,0.0,0.0,0.0,0.0,0.0,0.0,0.6,21.786281134326362,0.0,21.70768870633706,0.0,0.6,21.61,21.2,22.22,21.54,21.97,0.22,0.6,1584.55,-1019.35,-805.29,0.0,0.0,0.0,70.0,0.0,0.0,0.0,0.0,0.0,0.0,0.0,0.0,0.0,0.0,0.0,0.0,0.0,0.0
