,load_elec,grid,hp_elec,ev,pv,bat_pow,cool,load_th_sh,load_th_dhw,tes_pow,dh,hp_th,bat_soc,tes_soc,ev_soc,eh_th_in,eh_elec_in,eh_th_out,temp_slack,temp_zone_1,temp_zone_2,temp_update,Qsolar_1,QconvInt_1,QradInt_1,Qvent_1,Qconduc_1,Qheating_1,Qsolar_2,QconvInt_2,QradInt_2,Qvent_2,Qconduc_2,Qheating_2,temp_amb,temp_aggregate_1,temp_aggregate_2,temp_wall_1,temp_wall_2,_Tamb,_Tz_1,_TEW_1,_TIW_1,_T1_1,_T2_1,_Taeq_1,_Tvent_1,_Qheating_1,_Qinfvent_1,_Qenvelope_1,_Qsolar_1,_Qint_people_1,_Qint_lighting_1,_Qint_appliances_1,_Tz_2,_TEW_2,_TIW_2,_T1_2,_T2_2,_Taeq_2,_Tvent_2,_Qheating_2,_Qinfvent_2,_Qenvelope_2,_Qsolar_2,_Qint_people_2,_Qint_lighting_2,_Qint_appliances_2
8.0,1702.0,32904.723536712765,31038.199919029204,-0.0,0.0,0.0,0.0,51627.16168393719,0.0,0.0,0.0,51627.16168393719,0.5,0.5,0.8,0.0,0.0,0.0,"[2.0, 2.0, 2.0, 2.0, 2.0, 2.0, 2.0, 2.0]",20.0,0.0,0.0,0.8402407696067065,317.9735749191265,100.73558524893798,-1223.276535721951,-1064.4335316989127,1880.0230787704472,0.0,0.0,0.0,0.0,0.0,0.0,-9.4,19.47629477756384,0.0,19.0,0.0,-9.4,20.0,18.0,20.0,20.0,20.0,-9.96,-9.4,1939.24,-870.79,-1016.06,1.22,88.0,104.0,181.0,0.0,0.0,0.0,0.0,0.0,0.0,0.0,0.0,0.0,0.0,0.0,0.0,0.0,0.0
9.0,1548.0,1548.71019338768,0.0,-0.0,7.0333575792584195,0.0,0.0,12325.996230035844,0.0,12325.996230035844,0.0,0.0,0.5,0.44759355344372515,0.8,0.0,0.0,0.0,"[2.0, 2.0, 2.0, 2.0, 2.0, 2.0, 2.0, 2.0]",20.0,0.0,0.0,25.97766544925857,461.8237806700369,83.97494235719515,-1189.9900993757753,-1038.391021530927,1667.0423137660205,0.0,0.0,0.0,0.0,0.0,0.0,-8.6,19.48906977052494,0.0,19.01705241206279,0.0,-8.6,20.0,18.01,20.02,19.55,20.11,-9.14,-8.6,2374.74,-847.1,-988.42,37.82,112.0,58.0,281.0,0.0,0.0,0.0,0.0,0.0,0.0,0.0,0.0,0.0,0.0,0.0,0.0,0.0,0.0
10.0,4325.0,347.79505102734316,0.0,-0.0,372.54392422779404,3606.4,0.0,45521.681766128175,0.0,45521.68176612817,0.0,0.0,0.3466666666666667,0.2540489881115476,0.8,0.0,0.0,0.0,"[2.0, 2.0, 2.0, 2.0, 2.0, 2.0, 2.0, 2.0]",20.0,0.0,0.0,72.08269145115052,1423.9625103458038,79.23525235912035,-1148.3820539430562,-1017.353241530203,8540.241704251037,0.0,0.0,0.0,0.0,0.0,0.0,-7.6,19.49927118047079,0.0,19.031203112817913,0.0,-7.6,20.0,18.02,20.04,19.53,20.1,-8.19,-7.6,1526.22,-817.48,-953.86,104.94,95.0,19.0,1015.0,0.0,0.0,0.0,0.0,0.0,0.0,0.0,0.0,0.0,0.0,0.0,0.0,0.0,0.0
11.0,4269.0,10175.483348992098,6914.221540801179,-0.0,1058.6156085540417,0.0,0.0,13214.519867606774,0.0,0.0,0.0,13214.519867606776,0.3466666666666667,0.2540489881115476,0.8,0.0,0.0,0.0,"[2.0, 2.0, 2.0, 2.0, 2.0, 2.0, 2.0, 2.0]",24.0,0.0,0.0,100.5333117963213,567.0423393687008,64.81010888671872,-1281.5277993277582,-6171.571095366778,6730.516270749792,0.0,0.0,0.0,0.0,0.0,0.0,-6.8,20.903670834033452,0.0,19.27824938303244,0.0,-6.8,24.0,18.16,20.4,22.53,22.29,-7.38,-6.8,8377.57,-912.26,-1064.45,146.36,143.0,6.0,349.0,0.0,0.0,0.0,0.0,0.0,0.0,0.0,0.0,0.0,0.0,0.0,0.0,0.0,0.0
12.0,6510.0,44812.46571959881,24563.429560856835,-0.0,2485.026169856018,-16000.0,0.0,48350.86279371318,0.0,0.0,0.0,48350.86279371318,1.0,0.2540489881115476,0.8,0.0,0.0,0.0,"[2.0, 2.0, 2.0, 2.0, 2.0, 2.0, 2.0, 2.0]",24.0,0.0,0.0,153.95681950852256,659.4070955027082,61.54727881558026,-1256.5629720681266,-5733.903512842694,6126.134827248122,0.0,0.0,0.0,0.0,0.0,0.0,-6.2,21.12392554618184,0.0,19.563297014520877,0.0,-6.2,24.0,18.32,20.81,22.39,22.38,-6.76,-6.2,0.0,-894.49,-1043.71,224.13,137.0,0.0,422.0,0.0,0.0,0.0,0.0,0.0,0.0,0.0,0.0,0.0,0.0,0.0,0.0,0.0,0.0
13.0,4504.0,0.0,6260.6190446727405,-0.0,435.5612214710991,10329.057823201641,0.0,12383.139956077111,0.0,0.0,0.0,12383.139956077111,0.5608393782652363,0.2540489881115476,0.8,0.0,0.0,0.0,"[2.0, 2.0, 2.0, 2.0, 2.0, 2.0, 2.0, 2.0]",24.0,0.0,0.0,74.28749845058199,2895.547305603285,120.07214661789543,-1252.4021675248546,-5338.418307863981,3516.6442949794314,0.0,0.0,0.0,0.0,0.0,0.0,-6.1,21.323155017559284,0.0,19.82319823250934,0.0,-6.1,24.0,18.47,21.17,22.44,22.58,-6.67,-6.1,0.0,-891.52,-1040.26,108.15,140.0,0.0,2096.0,0.0,0.0,0.0,0.0,0.0,0.0,0.0,0.0,0.0,0.0,0.0,0.0,0.0,0.0
14.0,1784.0,0.0,11411.65127508596,-0.0,4.709098287599392,13190.94217679836,0.0,22027.62792890451,0.0,0.0,0.0,22027.62792890451,0.0,0.2540489881115476,0.8,0.0,0.0,0.0,"[2.0, 2.0, 2.0, 2.0, 2.0, 2.0, 2.0, 2.0]",24.0,0.0,0.0,23.13930353760675,759.0767448975039,72.57220989805865,-1273.2061902412142,-5033.598684798818,0.0,0.0,0.0,0.0,0.0,0.0,0.0,-6.6,21.476932384376823,0.0,20.026206242517745,0.0,-6.6,24.0,18.6,21.45,22.15,22.5,-7.13,-6.6,1974.49,-906.33,-1057.54,33.69,163.0,0.0,483.0,0.0,0.0,0.0,0.0,0.0,0.0,0.0,0.0,0.0,0.0,0.0,0.0,0.0,0.0
15.0,1758.0,15621.97805234008,13785.86816207838,-0.0,0.0,0.0,0.0,25690.54562213429,0.0,0.0,0.0,25690.54562213429,0.0,0.2540489881115476,0.7934402332361516,0.0,0.0,0.0,"[2.0, 2.0, 2.0, 2.0, 2.0, 2.0, 2.0, 2.0]",21.25,0.0,0.0,2.5174601766317077,153.19204040172633,48.04946599497589,-1187.8456647060618,-1167.208550990119,7618.051284654589,0.0,0.0,0.0,0.0,0.0,0.0,-7.3,20.672591969516095,0.0,20.07115025506256,0.0,-7.3,21.25,18.66,21.48,20.32,21.28,-7.81,-7.3,8718.5,-845.57,-986.63,3.66,128.0,4.0,47.0,0.0,0.0,0.0,0.0,0.0,0.0,0.0,0.0,0.0,0.0,0.0,0.0,0.0,0.0
16.0,1249.0,17479.274255187807,16142.87788391187,-0.0,0.0,0.0,0.0,30236.827463620088,0.0,0.0,0.0,30236.827463620088,0.0,0.2540489881115476,0.793440233236151,0.0,0.0,0.0,"[2.0, 2.0, 2.0, 2.0, 2.0, 2.0, 2.0, 2.0]",24.0,0.0,0.0,0.0,280.67647567413957,56.46413302054349,-1298.1710175008461,-4694.698098374631,0.0,0.0,0.0,0.0,0.0,0.0,0.0,-7.2,21.64792155069547,0.0,20.258436627003547,0.0,-7.2,24.0,18.78,21.73,22.78,23.04,-7.69,-7.2,0.0,-924.11,-1078.27,0.0,106.0,24.0,152.0,0.0,0.0,0.0,0.0,0.0,0.0,0.0,0.0,0.0,0.0,0.0,0.0,0.0,0.0
17.0,2916.0,12696.852629155743,6621.783193165316,-0.0,0.0,-3095.5851728446482,0.0,12529.354191671042,0.0,0.0,0.0,12529.354191671042,0.1264030612244898,0.2540489881115476,0.793440233236151,0.0,0.0,0.0,"[2.0, 2.0, 2.0, 2.0, 2.0, 2.0, 2.0, 2.0]",21.15,0.0,0.0,0.0,1452.8308865975732,142.74022921738367,-1171.142848181868,-717.9567637860558,174.05484077532762,0.0,0.0,0.0,0.0,0.0,0.0,-7.0,20.79733681787978,0.0,20.283910075711937,0.0,-7.0,21.15,18.83,21.74,20.36,21.4,-7.49,-7.0,5205.12,-833.68,-972.76,0.0,184.0,74.0,984.0,0.0,0.0,0.0,0.0,0.0,0.0,0.0,0.0,0.0,0.0,0.0,0.0,0.0,0.0
18.0,2180.0,2190.954773869347,0.0,-0.0,0.0,0.0,0.0,15800.797400096844,0.0,15800.797400096846,0.0,0.0,0.1264030612244898,0.18686872705671403,0.787973760932944,0.0,0.0,0.0,"[2.0, 2.0, 2.0, 2.0, 2.0, 2.0, 2.0, 2.0]",21.08,0.0,0.0,0.0,266.41788594394677,141.05729581227016,-1164.1255437816098,-677.530049150323,0.0,0.0,0.0,0.0,0.0,0.0,0.0,-6.9,20.748984045367788,0.0,20.255786763584567,0.0,-6.9,21.08,18.85,21.66,20.39,21.37,-7.39,-6.9,0.0,-828.68,-966.93,0.0,284.0,68.0,43.0,0.0,0.0,0.0,0.0,0.0,0.0,0.0,0.0,0.0,0.0,0.0,0.0,0.0,0.0
19.0,2973.0,0.0,0.0,-0.0,0.0,2973.0,0.0,5564.63648339209,0.0,5564.63648339209,0.0,0.0,0.0,0.16320955833480888,0.787973760932944,0.0,0.0,0.0,"[2.0, 2.0, 2.0, 2.0, 2.0, 2.0, 2.0, 2.0]",20.35,0.0,0.0,0.0,437.0995265565992,130.41016610644994,-1129.550714883639,242.5745967406501,0.0,0.0,0.0,0.0,0.0,0.0,0.0,-6.8,20.481259051201548,0.0,20.203342434606427,0.0,-6.8,20.35,18.85,21.56,20.0,21.05,-7.29,-6.8,0.0,-804.07,-938.21,0.0,166.0,106.0,229.0,0.0,0.0,0.0,0.0,0.0,0.0,0.0,0.0,0.0,0.0,0.0,0.0,0.0,0.0
20.0,4354.0,32232.83061633821,11677.725283531747,-0.0,0.0,-10404.635179724772,0.0,0.0,28176.53,0.0,0.0,22541.224,0.5498559365054282,0.4898762250014756,0.7639212827988333,22541.224000000002,5635.3060000000005,28176.53,"[1.8546672964561495, 2.0, 1.1346044434419404, 1.5183247189044629, 0.9989908406517394, 0.7327169957233828, 0.6822763746845695, 1.8412219510458492]",20.18,0.0,0.0,0.0,545.1978989446123,160.6686218187971,-1114.2103254217343,360.96399962493456,0.0,0.0,0.0,0.0,0.0,0.0,0.0,-6.6,20.372064907633373,0.0,20.134995476631058,0.0,-6.6,20.18,18.84,21.43,19.9,20.91,-7.08,-6.6,0.0,-793.15,-925.47,0.0,258.0,102.0,262.0,0.0,0.0,0.0,0.0,0.0,0.0,0.0,0.0,0.0,0.0,0.0,0.0,0.0,0.0
21.0,3753.0,13801.865988427637,9979.856658485498,-0.0,0.0,0.0,0.0,19359.01126479062,0.0,0.0,0.0,19359.01126479062,0.5498559365054282,0.4898762250014756,0.7639212827988333,0.0,0.0,0.0,"[1.8546672964561495, 2.0, 1.1346044434419404, 1.5183247189044629, 0.9989908406517394, 0.7327169957233828, 0.6822763746845695, 1.8412219510458492]",20.15,0.0,0.0,0.0,598.0178963687747,138.2753038568784,-1108.6602136989773,296.93437520653674,3981.688976252685,0.0,0.0,0.0,0.0,0.0,0.0,-6.5,20.306364033607576,0.0,20.069171799119772,0.0,-6.5,20.15,18.83,21.31,19.87,20.83,-7.0,-6.5,679.2,-789.2,-920.86,0.0,270.0,57.0,300.0,0.0,0.0,0.0,0.0,0.0,0.0,0.0,0.0,0.0,0.0,0.0,0.0,0.0,0.0
22.0,2940.0,11713.913253326093,8715.343687059461,-0.0,0.0,0.0,0.0,17072.270284392853,0.0,0.0,0.0,17072.270284392853,0.5498559365054282,0.4898762250014756,0.7639212827988333,0.0,0.0,0.0,"[1.8546672964561495, 2.0, 1.1346044434419404, 1.5183247189044629, 0.9989908406517394, 0.7327169957233828, 0.6822763746845695, 1.8412219510458492]",22.11,0.0,0.0,0.0,754.7921440426186,146.79300762153466,-1181.889004823593,-2329.2124411674768,0.0,0.0,0.0,0.0,0.0,0.0,0.0,-6.3,20.94390697302665,0.0,20.12936126450664,0.0,-6.3,22.11,18.88,21.37,21.39,21.89,-6.83,-6.3,4137.8,-841.33,-981.69,0.0,314.0,41.0,396.0,0.0,0.0,0.0,0.0,0.0,0.0,0.0,0.0,0.0,0.0,0.0,0.0,0.0,0.0
23.0,2060.0,0.0,10872.611626607671,-0.0,0.0,12932.611626607671,0.0,21401.740814123536,0.0,0.0,0.0,21401.740814123536,0.0,0.4898762250014756,0.7639212827988333,0.0,0.0,0.0,"[1.8546672964561495, 2.0, 1.1346044434419404, 1.5183247189044629, 0.9989908406517394, 0.7327169957233828, 0.6822763746845695, 1.8412219510458492]",20.78,0.0,0.0,0.0,168.3637417895176,61.92508019223839,-1122.6601532214286,-513.4101421010798,7511.853944513325,0.0,0.0,0.0,0.0,0.0,0.0,-6.2,20.53469282447608,0.0,20.123848394337585,0.0,-6.2,20.78,18.9,21.34,20.2,21.07,-6.71,-6.2,237.76,-799.17,-932.49,0.0,160.0,9.0,41.0,0.0,0.0,0.0,0.0,0.0,0.0,0.0,0.0,0.0,0.0,0.0,0.0,0.0,0.0
24.0,2063.0,58134.61438434518,40919.089840003675,-0.0,0.0,-14861.851472419783,0.0,80935.57725656911,0.0,0.0,0.0,80935.57725656911,0.6068589351238078,0.4898762250014756,0.7639212827988333,0.0,0.0,0.0,"[1.8546672964561495, 2.0, 1.1346044434419404, 1.5183247189044629, 0.9989908406517394, 0.7327169957233828, 0.6822763746845695, 1.8412219510458492]",23.85,0.0,0.0,0.0,225.96001557650317,70.16801931932504,-1246.3551577929422,-4499.184755652533,5457.662009456274,0.0,0.0,0.0,0.0,0.0,0.0,-6.1,21.60058936341743,0.0,20.300351737477556,0.0,-6.1,23.85,19.01,21.59,22.77,22.9,-6.63,-6.1,4548.01,-887.22,-1035.23,0.0,160.0,20.0,83.0,0.0,0.0,0.0,0.0,0.0,0.0,0.0,0.0,0.0,0.0,0.0,0.0,0.0,0.0
25.0,2729.0,0.0,4910.978807569539,-0.0,0.0,7639.978807569539,0.0,9760.448015771302,0.0,0.0,0.0,9760.448015771302,0.28202990418972884,0.4898762250014756,0.7639212827988333,0.0,0.0,0.0,"[1.8546672964561495, 2.0, 1.1346044434419404, 1.5183247189044629, 0.9989908406517394, 0.7327169957233828, 0.6822763746845695, 1.8412219510458492]",23.85,0.0,0.0,0.0,261.22017343146274,61.856389032846,-1242.19435324967,-4202.859272811763,0.0,0.0,0.0,0.0,0.0,0.0,0.0,-6.0,21.749832429413757,0.0,20.496610721691738,0.0,-6.0,23.85,19.14,21.86,22.57,22.89,-6.49,-6.0,3794.71,-884.26,-1031.78,0.0,160.0,5.0,111.0,0.0,0.0,0.0,0.0,0.0,0.0,0.0,0.0,0.0,0.0,0.0,0.0,0.0,0.0
26.0,777.0,0.0,2948.649249677842,-0.0,0.0,3725.649249677842,0.0,5944.698048400394,0.0,0.0,0.0,5944.698048400394,0.12362644969662334,0.4898762250014756,0.7639212827988333,0.0,0.0,0.0,"[1.8546672964561495, 2.0, 1.1346044434419404, 1.5183247189044629, 0.9989908406517394, 0.7327169957233828, 0.6822763746845695, 1.8412219510458492]",21.27,0.0,0.0,0.0,227.15408466720902,57.90664736778367,-1122.1817183980336,-606.0498625917714,0.0,0.0,0.0,0.0,0.0,0.0,0.0,-5.7,20.97649789815991,0.0,20.51565911123715,0.0,-5.7,21.27,19.18,21.86,20.57,21.54,-6.18,-5.7,3585.28,-798.83,-932.09,0.0,160.0,0.0,86.0,0.0,0.0,0.0,0.0,0.0,0.0,0.0,0.0,0.0,0.0,0.0,0.0,0.0,0.0
27.0,889.0,14313.285353426074,13352.718926658943,-0.0,0.0,0.0,0.0,27174.67400065072,0.0,0.0,0.0,27174.67400065072,0.12362644969662334,0.4898762250014756,0.7639212827988333,0.0,0.0,0.0,"[1.8546672964561495, 2.0, 1.1346044434419404, 1.5183247189044629, 0.9989908406517394, 0.7327169957233828, 0.6822763746845695, 1.8412219510458492]",20.54,0.0,0.0,0.0,271.1941623067699,59.04005149775806,-1083.462565881682,308.557054236172,7030.8423046170465,0.0,0.0,0.0,0.0,0.0,0.0,-5.5,20.706354195243563,0.0,20.459436249801673,0.0,-5.5,20.54,19.17,21.74,20.21,21.23,-5.96,-5.5,3250.59,-771.26,-899.93,0.0,160.0,0.0,119.0,0.0,0.0,0.0,0.0,0.0,0.0,0.0,0.0,0.0,0.0,0.0,0.0,0.0,0.0
28.0,564.0,6074.4989028826985,5480.126408368285,-0.0,0.0,0.0,0.0,11205.077052222441,0.0,0.0,0.0,11205.077052222441,0.12362644969662334,0.4898762250014756,0.7639212827988333,0.0,0.0,0.0,"[1.8546672964561495, 2.0, 1.1346044434419404, 1.5183247189044629, 0.9989908406517394, 0.7327169957233828, 0.6822763746845695, 1.8412219510458492]",23.85,0.0,0.0,0.0,193.22847461950894,77.93012033066495,-1217.2295259900384,-4061.865641848505,0.0,0.0,0.0,0.0,0.0,0.0,0.0,-5.4,21.820606238793882,0.0,20.604937300293525,0.0,-5.4,23.85,19.27,21.94,22.85,23.09,-5.86,-5.4,104.05,-866.49,-1011.04,0.0,160.0,34.0,57.0,0.0,0.0,0.0,0.0,0.0,0.0,0.0,0.0,0.0,0.0,0.0,0.0,0.0,0.0
29.0,985.0,0.0,0.0,-0.0,0.0,985.0,0.0,22374.11826622753,0.0,22374.11826622753,0.0,0.0,0.08174719799594307,0.3947481711484674,0.7639212827988333,0.0,0.0,0.0,"[1.8546672964561495, 2.0, 1.1346044434419404, 1.5183247189044629, 0.9989908406517394, 0.7327169957233828, 0.6822763746845695, 1.8412219510458492]",21.33,0.0,0.0,0.0,269.57865706640325,92.8017563391171,-1103.7288343870289,-545.7184978965876,6315.077598832964,0.0,0.0,0.0,0.0,0.0,0.0,-5.2,21.06320595633834,0.0,20.622339316503094,0.0,-5.2,21.33,19.31,21.94,20.67,21.61,-5.65,-5.2,1406.62,-785.69,-916.77,0.0,160.0,55.0,112.0,0.0,0.0,0.0,0.0,0.0,0.0,0.0,0.0,0.0,0.0,0.0,0.0,0.0,0.0
30.0,927.0,8572.046735314756,7602.186501638181,-0.0,0.0,0.0,0.0,15761.422044784438,0.0,0.0,0.0,15761.422044784438,0.08174719799594307,0.3947481711484674,0.7639212827988333,0.0,0.0,0.0,"[1.8546672964561495, 2.0, 1.1346044434419404, 1.5183247189044629, 0.9989908406517394, 0.7327169957233828, 0.6822763746845695, 1.8412219510458492]",23.85,0.0,0.0,0.0,295.70769834537725,162.4545919629992,-1204.7471123602227,-3831.6669670533747,0.0,0.0,0.0,0.0,0.0,0.0,0.0,-5.1,21.9364658890493,0.0,20.765195000169903,0.0,-5.1,23.85,19.41,22.12,22.84,23.15,-5.56,-5.1,845.94,-857.6,-1000.67,0.0,338.0,73.0,36.0,0.0,0.0,0.0,0.0,0.0,0.0,0.0,0.0,0.0,0.0,0.0,0.0,0.0,0.0
31.0,940.0,0.0,982.6940968645814,-0.0,0.0,1922.6940968645813,0.0,2046.7632762709854,0.0,0.0,0.0,2046.7632762709854,0.0,0.3947481711484674,0.7639212827988333,0.0,0.0,0.0,"[1.8546672964561495, 2.0, 1.1346044434419404, 1.5183247189044629, 0.9989908406517394, 0.7327169957233828, 0.6822763746845695, 1.8412219510458492]",21.54,0.0,0.0,0.0,302.3101980233975,101.52553358195047,-1104.206845617921,-606.671353110859,0.0,0.0,0.0,0.0,0.0,0.0,0.0,-5.0,21.24398719442216,0.0,20.7840661055411,0.0,-5.0,21.54,19.45,22.12,20.89,21.83,-5.45,-5.0,3853.24,-786.03,-917.16,0.0,137.0,80.0,146.0,0.0,0.0,0.0,0.0,0.0,0.0,0.0,0.0,0.0,0.0,0.0,0.0,0.0,0.0
32.0,1388.0,6254.709465948429,0.0,-0.0,0.0,-4835.4359186186875,0.0,3127.202312857226,0.0,3127.202312857226,0.0,0.0,0.3466666666666667,0.36815631474662025,0.7639212827988333,0.0,0.0,0.0,"[1.4141514649820799, 1.5082322013700526, 0.5597506744503882, 0.5254222859493645, 0.4763103028215774, 0.7327169957233863, 0.6822763746845695, 1.2248398226694306]",20.87,0.0,0.0,0.8402292193157007,202.07863376238723,79.78478163425943,-1068.2339891547674,223.55086091396655,0.0,0.0,0.0,0.0,0.0,0.0,0.0,-4.8,20.997367554544375,0.0,20.732505893627376,0.0,-4.8,20.87,19.45,22.01,20.53,21.53,-5.26,-4.8,0.0,-760.42,-887.28,1.22,114.0,61.0,85.0,0.0,0.0,0.0,0.0,0.0,0.0,0.0,0.0,0.0,0.0,0.0,0.0,0.0,0.0
33.0,3485.0,3495.801864674368,0.0,-0.0,6.677144649003741,0.0,0.0,20515.76669638556,0.0,20515.766696385555,0.0,0.0,0.3466666666666667,0.2809294155272939,0.7639212827988333,0.0,0.0,0.0,"[1.4141514649820799, 1.5082322013700526, 0.5597506744503882, 0.5254222859493645, 0.4763103028215774, 0.7327169957233863, 0.6822763746845695, 1.2248398226694306]",20.59,0.0,0.0,25.953835548871595,1341.4312643705496,80.43734764848713,-1014.64749376044,504.9666092221741,0.0,0.0,0.0,0.0,0.0,0.0,0.0,-3.8,20.850709467475127,0.0,20.66215152203459,0.0,-3.8,20.59,19.44,21.88,20.36,21.35,-4.21,-3.8,302.53,-722.28,-842.77,37.78,109.0,17.0,946.0,0.0,0.0,0.0,0.0,0.0,0.0,0.0,0.0,0.0,0.0,0.0,0.0,0.0,0.0
34.0,2403.0,2627.856052514823,327.95157972129533,-0.0,116.23480746904647,0.0,0.0,754.9688740771197,0.0,0.0,0.0,754.9688740771197,0.3466666666666667,0.2809294155272939,0.7639212827988333,0.0,0.0,0.0,"[1.4141514649820799, 1.5082322013700526, 0.5597506744503882, 0.5254222859493645, 0.4763103028215774, 0.7327169957233863, 0.6822763746845695, 1.2248398226694306]",21.05,0.0,0.0,51.09975134245443,357.09689747931066,59.62392635259338,-988.3358738303663,-232.27960055698335,0.0,0.0,0.0,0.0,0.0,0.0,0.0,-2.7,20.946616797362022,0.0,20.60879291804938,0.0,-2.7,21.05,19.44,21.78,20.58,21.44,-3.12,-2.7,3430.0,-703.55,-820.92,74.39,155.0,0.0,186.0,0.0,0.0,0.0,0.0,0.0,0.0,0.0,0.0,0.0,0.0,0.0,0.0,0.0,0.0
35.0,4853.0,22111.58430417937,1725.5058707687103,-0.0,577.4794881102342,-16000.0,0.0,4136.7403357613275,0.0,0.0,0.0,4136.7403357613275,1.0,0.2809294155272939,0.7639212827988333,0.0,0.0,0.0,"[1.4141514649820799, 1.5082322013700526, 0.5597506744503882, 0.5254222859493645, 0.4763103028215774, 0.7327169957233863, 0.6822763746845695, 1.2248398226694306]",20.67,0.0,0.0,79.92084103090862,2093.8352702317566,84.14667025567614,-930.7759163825281,213.15985939913034,2365.6951297193423,0.0,0.0,0.0,0.0,0.0,0.0,-1.7,20.787077191445782,0.0,20.55850507677704,0.0,-1.7,20.67,19.43,21.68,20.38,21.26,-2.1,-1.7,325.56,-662.57,-773.11,116.35,93.0,0.0,1520.0,0.0,0.0,0.0,0.0,0.0,0.0,0.0,0.0,0.0,0.0,0.0,0.0,0.0,0.0
36.0,3868.0,8919.884835567906,5828.7109709146835,-0.0,821.4255595246173,0.0,0.0,14362.762346118547,0.0,0.0,0.0,14362.762346118547,1.0,0.2809294155272939,0.7639212827988333,0.0,0.0,0.0,"[1.4141514649820799, 1.5082322013700526, 0.5597506744503882, 0.5254222859493645, 0.4763103028215774, 0.7327169957233863, 0.6822763746845695, 1.2248398226694306]",22.63,0.0,0.0,89.03868860226235,376.342481647157,9.685453474326804,-983.2919708324039,-2435.6017919525784,0.0,0.0,0.0,0.0,0.0,0.0,0.0,-1.0,21.415253240941222,0.0,20.60618541940599,0.0,-1.0,22.63,19.48,21.73,21.7,22.17,-1.54,-1.0,3364.07,-699.96,-816.73,129.62,0.0,0.0,282.0,0.0,0.0,0.0,0.0,0.0,0.0,0.0,0.0,0.0,0.0,0.0,0.0,0.0,0.0
37.0,3668.0,0.0,5704.665465998151,-0.0,235.92560185506946,9136.739864143081,0.0,14220.249782292918,0.0,0.0,0.0,14220.249782292918,0.6115331690415358,0.2809294155272939,0.7639212827988333,0.0,0.0,0.0,"[1.4141514649820799, 1.5082322013700526, 0.5597506744503882, 0.5254222859493645, 0.4763103028215774, 0.7327169957233863, 0.6822763746845695, 1.2248398226694306]",21.15,0.0,0.0,62.18076557518599,441.7353242028687,11.368386879440324,-909.0304008838568,-389.25127182017485,5284.43238403215,0.0,0.0,0.0,0.0,0.0,0.0,-0.7,20.960773495460714,0.0,20.605720830923552,0.0,-0.7,21.15,19.5,21.71,20.63,21.43,-1.26,-0.7,0.0,-647.09,-755.05,90.52,0.0,0.0,331.0,0.0,0.0,0.0,0.0,0.0,0.0,0.0,0.0,0.0,0.0,0.0,0.0,0.0,0.0
38.0,1806.0,6464.871336857932,4626.7766400702985,-0.0,0.22965989665564301,0.0,0.0,11268.701924938825,0.0,0.0,0.0,11268.701924938823,0.6115331690415358,0.2809294155272939,0.7639212827988333,0.0,0.0,0.0,"[1.4141514649820799, 1.5082322013700526, 0.5597506744503882, 0.5254222859493645, 0.4763103028215774, 0.7327169957233863, 0.6822763746845695, 1.2248398226694306]",23.41,0.0,0.0,14.558499946910205,437.9423988559209,37.95186556429474,-1028.3075369860835,-3345.8016590145357,0.0,0.0,0.0,0.0,0.0,0.0,0.0,-1.3,21.73898613275486,0.0,20.72732269595526,0.0,-1.3,23.41,19.59,21.87,22.51,22.76,-1.8,-1.3,3720.53,-732.0,-854.12,21.19,82.0,0.0,285.0,0.0,0.0,0.0,0.0,0.0,0.0,0.0,0.0,0.0,0.0,0.0,0.0,0.0,0.0
39.0,2004.0,0.0,4225.660135856921,-0.0,0.0,6229.660135856921,0.0,10050.059341520342,0.0,0.0,0.0,10050.059341520342,0.3466666666666667,0.2809294155272939,0.7639212827988333,0.0,0.0,0.0,"[1.4141514649820799, 1.5082322013700526, 0.5597506744503882, 0.5254222859493645, 0.4763103028215774, 0.7327169957233863, 0.6822763746845695, 1.2248398226694306]",21.45,0.0,0.0,1.6696176655014703,455.9939139330615,38.74181389730721,-971.7547426642113,-618.13230209629,4986.507903879844,0.0,0.0,0.0,0.0,0.0,0.0,-1.9,21.153568067087335,0.0,20.74335163062905,0.0,-1.9,21.45,19.62,21.87,20.83,21.62,-2.41,-1.9,0.0,-691.75,-807.15,2.43,83.0,0.0,298.0,0.0,0.0,0.0,0.0,0.0,0.0,0.0,0.0,0.0,0.0,0.0,0.0,0.0,0.0
40.0,2087.0,22017.38879514474,3820.301851169016,-0.0,0.0,-16000.0,0.0,9013.139028870486,0.0,0.0,0.0,9013.139028870486,1.0,0.2809294155272939,0.7639212827988333,0.0,0.0,0.0,"[1.4141514649820799, 1.5082322013700526, 0.5597506744503882, 0.5254222859493645, 0.4763103028215774, 0.7327169957233863, 0.6822763746845695, 1.2248398226694306]",23.41,0.0,0.0,0.0,424.105245275389,63.95146939431387,-1061.593973332259,-3162.4676908259753,3743.524158371609,0.0,0.0,0.0,0.0,0.0,0.0,-2.1,21.83170436115864,0.0,20.855926098515624,0.0,-2.1,23.41,19.7,22.01,22.52,22.82,-2.62,-2.1,593.89,-755.7,-881.77,0.0,163.0,0.0,232.0,0.0,0.0,0.0,0.0,0.0,0.0,0.0,0.0,0.0,0.0,0.0,0.0,0.0,0.0
41.0,1921.0,2405.7621499520556,2950.6158736586726,-0.0,0.0,2477.882534456378,0.0,6905.053215341457,0.0,0.0,0.0,6905.053215341457,0.8946478514261744,0.2809294155272939,0.7639212827988333,0.0,0.0,0.0,"[1.4141514649820799, 1.5082322013700526, 0.5597506744503882, 0.5254222859493645, 0.4763103028215774, 0.7327169957233863, 0.6822763746845695, 1.2248398226694306]",23.41,0.0,0.0,0.0,282.15150219795254,55.742875846923404,-1069.915582418803,-2973.710819558421,0.0,0.0,0.0,0.0,0.0,0.0,0.0,-2.3,21.926889521426776,0.0,20.98278474853145,0.0,-2.3,23.41,19.79,22.18,22.41,22.82,-2.81,-2.3,0.0,-761.62,-888.68,0.0,149.0,0.0,133.0,0.0,0.0,0.0,0.0,0.0,0.0,0.0,0.0,0.0,0.0,0.0,0.0,0.0,0.0
42.0,2463.0,0.0,2520.7320846073944,-0.0,0.0,4983.732084607394,0.0,5850.974149474487,0.0,0.0,0.0,5850.974149474487,0.6827544804819825,0.2809294155272939,0.7639212827988333,0.0,0.0,0.0,"[1.4141514649820799, 1.5082322013700526, 0.5597506744503882, 0.5254222859493645, 0.4763103028215774, 0.7327169957233863, 0.6822763746845695, 1.2248398226694306]",21.54,0.0,0.0,0.0,775.4425153760011,48.77072316859596,-1000.4123731630308,-390.01032649246616,0.0,0.0,0.0,0.0,0.0,0.0,0.0,-2.5,21.35757612700641,0.0,20.985217620778222,0.0,-2.5,21.54,19.81,22.16,20.99,21.84,-3.07,-2.5,3270.05,-712.15,-830.95,0.0,81.0,4.0,538.0,0.0,0.0,0.0,0.0,0.0,0.0,0.0,0.0,0.0,0.0,0.0,0.0,0.0,0.0
43.0,4467.0,0.0,2281.771144108873,-0.0,0.0,6748.771144108873,0.0,5252.806505867479,0.0,0.0,0.0,5252.806505867479,0.39581693183789785,0.2809294155272939,0.7639212827988333,0.0,0.0,0.0,"[1.4141514649820799, 1.5082322013700526, 0.5597506744503882, 0.5254222859493645, 0.4763103028215774, 0.7327169957233863, 0.6822763746845695, 1.2248398226694306]",21.26,0.0,0.0,0.0,670.9263502601053,123.91885154386918,-996.7436833831289,-67.86210432335179,4568.560426628774,0.0,0.0,0.0,0.0,0.0,0.0,-2.7,21.231685993911995,0.0,20.94090550283794,0.0,-2.7,21.26,19.81,22.07,20.83,21.69,-3.29,-2.7,1996.09,-709.53,-827.9,0.0,256.0,38.0,364.0,0.0,0.0,0.0,0.0,0.0,0.0,0.0,0.0,0.0,0.0,0.0,0.0,0.0,0.0
44.0,4433.0,0.0,73.9710235161741,-0.0,0.0,4506.971023516174,0.0,168.87640864924106,0.0,0.0,0.0,168.87640864924106,0.20419401417139388,0.2809294155272939,0.7639212827988333,0.0,0.0,0.0,"[1.4141514649820799, 0.9012204639378076, 0.3091738084013933, 0.3439833307114988, 0.4763103028215774, 0.5340055906478085, 0.6822763746845695, 0.7297195978455697]",23.41,0.0,0.0,0.0,677.5990892964023,213.38908665245546,-1094.8804096784345,-2916.39443098419,0.0,0.0,0.0,0.0,0.0,0.0,0.0,-2.9,21.956038064043973,0.0,21.03492557992945,0.0,-2.9,23.41,19.88,22.19,22.59,22.92,-3.46,-2.9,0.0,-779.39,-909.42,0.0,334.0,142.0,317.0,0.0,0.0,0.0,0.0,0.0,0.0,0.0,0.0,0.0,0.0,0.0,0.0,0.0,0.0
45.0,5533.0,17565.914012036792,0.0,-0.0,0.0,-11945.084441976607,0.0,13742.707938462361,0.0,13742.707938462361,0.0,0.0,0.6919516288854387,0.22249953483655255,0.708163265306122,0.0,0.0,0.0,"[1.4141514649820799, 0.9012204639378076, 0.3091738084013933, 0.3439833307114988, 0.4763103028215774, 0.5340055906478085, 0.6822763746845695, 0.7297195978455697]",21.83,0.0,0.0,0.0,379.1520559782295,146.38086066518028,-1037.2619670801712,-706.0195631200172,4380.335876041919,0.0,0.0,0.0,0.0,0.0,0.0,-3.1,21.48435810024364,0.0,21.05075390056068,0.0,-3.1,21.83,19.91,22.19,21.24,22.0,-3.66,-3.1,0.0,-738.38,-861.56,0.0,214.0,109.0,160.0,0.0,0.0,0.0,0.0,0.0,0.0,0.0,0.0,0.0,0.0,0.0,0.0,0.0,0.0
46.0,2634.0,0.0,0.0,-0.0,0.0,2634.0,0.0,8682.83086326921,0.0,8682.83086326921,0.0,0.0,0.5799618329670714,0.1855827369485032,0.708163265306122,0.0,0.0,0.0,"[1.4141514649820799, 0.9012204639378076, 0.3091738084013933, 0.3439833307114988, 0.4763103028215774, 0.5340055906478085, 0.6822763746845695, 0.7297195978455697]",23.41,0.0,0.0,0.0,475.94189168367615,143.7019054488771,-1111.5236278515224,-2755.920795555173,0.0,0.0,0.0,0.0,0.0,0.0,0.0,-3.3,22.03707737171066,0.0,21.147701471233518,0.0,-3.3,23.41,19.98,22.32,22.63,22.99,-3.9,-3.3,0.0,-791.24,-923.24,0.0,268.0,72.0,208.0,0.0,0.0,0.0,0.0,0.0,0.0,0.0,0.0,0.0,0.0,0.0,0.0,0.0,0.0
47.0,1792.0,0.0,4903.747799497377,-0.0,0.0,6695.747799497377,0.0,10961.54881691757,0.0,0.0,0.0,10961.548816917568,0.29527867822653664,0.1855827369485032,0.708163265306122,0.0,0.0,0.0,"[1.4141514649820799, 0.9012204639378076, 0.3091738084013933, 0.3439833307114988, 0.4763103028215774, 0.5340055906478085, 0.6822763746845695, 0.7297195978455697]",21.77,0.0,0.0,0.0,220.3408669143583,87.34080916742221,-1047.242934005389,-480.5033424715303,4495.030488837107,0.0,0.0,0.0,0.0,0.0,0.0,-3.4,21.53797935498696,0.0,21.15167306271164,0.0,-3.4,21.77,20.0,22.3,21.23,22.04,-3.99,-3.4,3242.45,-745.48,-869.85,0.0,166.0,45.0,73.0,0.0,0.0,0.0,0.0,0.0,0.0,0.0,0.0,0.0,0.0,0.0,0.0,0.0,0.0
48.0,2114.0,7050.434708888079,4901.182535343638,-0.0,0.0,0.0,0.0,10395.120849937633,0.0,0.0,0.0,10395.120849937633,0.29527867822653664,0.1855827369485032,0.708163265306122,0.0,0.0,0.0,"[1.4141514649820799, 0.9012204639378076, 0.3091738084013933, 0.3439833307114988, 0.4763103028215774, 0.5340055906478085, 0.6822763746845695, 0.7297195978455697]",23.41,0.0,0.0,0.0,438.0126382141977,63.33324895978235,-1165.6140869140575,-2626.70282763388,0.0,0.0,0.0,0.0,0.0,0.0,0.0,-4.6,22.102721012695977,0.0,21.240580772393102,0.0,-4.6,23.41,20.07,22.41,22.67,23.06,-5.17,-4.6,2642.92,-829.74,-968.17,0.0,160.0,0.0,244.0,0.0,0.0,0.0,0.0,0.0,0.0,0.0,0.0,0.0,0.0,0.0,0.0,0.0,0.0
49.0,1237.0,59173.80968272683,41640.9406343132,-0.0,0.0,-16000.0,0.0,18614.924611324972,0.0,-64939.359086322875,0.0,83554.28369764784,0.94861201155987,0.4507517865509883,0.708163265306122,0.0,0.0,0.0,"[1.4141514649820799, 0.9012204639378076, 0.3091738084013933, 0.3439833307114988, 0.4763103028215774, 0.5340055906478085, 0.6822763746845695, 0.7297195978455697]",21.75,0.0,0.0,0.0,479.38362023923986,64.39796193036439,-1146.395313733576,-344.42698950346033,2702.1478311653045,0.0,0.0,0.0,0.0,0.0,0.0,-5.8,21.590543354747663,0.0,21.23383742210581,0.0,-5.8,21.75,20.08,22.39,21.22,22.07,-6.37,-5.8,0.0,-816.06,-952.21,0.0,160.0,0.0,275.0,0.0,0.0,0.0,0.0,0.0,0.0,0.0,0.0,0.0,0.0,0.0,0.0,0.0,0.0
50.0,931.0,3526.845304285763,2578.2110777643343,-0.0,0.0,0.0,0.0,4878.341502866056,0.0,0.0,0.0,4878.341502866056,0.94861201155987,0.4507517865509883,0.708163265306122,0.0,0.0,0.0,"[1.4141514649820799, 0.9012204639378076, 0.3091738084013933, 0.3439833307114988, 0.4763103028215774, 0.5340055906478085, 0.6822763746845695, 0.7297195978455697]",22.63,0.0,0.0,0.0,249.84139739061922,58.49052222261896,-1232.9605135668635,-1525.3641149269342,0.0,0.0,0.0,0.0,0.0,0.0,0.0,-7.0,21.876910907236145,0.0,21.26199743534038,0.0,-7.0,22.63,20.11,22.41,22.04,22.63,-7.6,-7.0,451.54,-877.68,-1024.11,0.0,160.0,0.0,103.0,0.0,0.0,0.0,0.0,0.0,0.0,0.0,0.0,0.0,0.0,0.0,0.0,0.0,0.0
51.0,1062.0,5871.4427743816095,4780.085560509701,-0.0,0.0,0.0,0.0,8771.18058705356,0.0,0.0,0.0,8771.180587053563,0.94861201155987,0.4507517865509883,0.708163265306122,0.0,0.0,0.0,"[1.4141514649820799, 0.9012204639378076, 0.3091738084013933, 0.3439833307114988, 0.4763103028215774, 0.5340055906478085, 0.6822763746845695, 0.7297195978455697]",21.39,0.0,0.0,0.0,215.98602670119593,61.306859757706896,-1206.4192219583676,124.76453353181032,0.0,0.0,0.0,0.0,0.0,0.0,0.0,-7.6,21.470171922399427,0.0,21.224378085421385,0.0,-7.6,21.39,20.1,22.35,21.06,21.93,-8.21,-7.6,2947.64,-858.79,-1002.06,0.0,160.0,6.0,77.0,0.0,0.0,0.0,0.0,0.0,0.0,0.0,0.0,0.0,0.0,0.0,0.0,0.0,0.0
52.0,1308.0,0.0,5803.4981567173245,-0.0,0.0,7111.4981567173245,0.0,10261.797817879027,0.0,0.0,0.0,10261.797817879027,0.646252396053181,0.4507517865509883,0.708163265306122,0.0,0.0,0.0,"[1.4141514649820799, 0.9012204639378076, 0.3091738084013933, 0.3439833307114988, 0.4763103028215774, 0.5340055906478085, 0.6822763746845695, 0.7297195978455697]",20.99,0.0,0.0,0.0,251.59738134753948,72.05702620261572,-1218.5309999280491,573.3175518950106,5149.353321806488,0.0,0.0,0.0,0.0,0.0,0.0,-8.3,21.28739672642108,0.0,21.15116498528468,0.0,-8.3,20.99,20.08,22.23,20.83,21.72,-8.93,-8.3,280.04,-867.41,-1012.12,0.0,160.0,22.0,102.0,0.0,0.0,0.0,0.0,0.0,0.0,0.0,0.0,0.0,0.0,0.0,0.0,0.0,0.0
53.0,1222.0,6620.61886664462,5365.515772311396,-0.0,0.0,0.0,0.0,9180.44676211863,0.0,0.0,0.0,9180.44676211863,0.646252396053181,0.4507517865509883,0.708163265306122,0.0,0.0,0.0,"[1.4141514649820799, 0.9012204639378076, 0.3091738084013933, 0.3439833307114988, 0.4763103028215774, 0.5340055906478085, 0.6822763746845695, 0.7297195978455697]",23.41,0.0,0.0,0.0,192.87727782812487,70.54582069598317,-1344.5286822747514,-2668.2917359306834,0.0,0.0,0.0,0.0,0.0,0.0,0.0,-8.9,22.083607743891957,0.0,21.229360218007297,0.0,-8.9,23.41,20.12,22.34,22.76,23.07,-9.55,-8.9,3165.35,-957.1,-1116.78,0.0,160.0,22.0,58.0,0.0,0.0,0.0,0.0,0.0,0.0,0.0,0.0,0.0,0.0,0.0,0.0,0.0,0.0
54.0,1187.0,0.0,8559.146474107512,-0.0,0.0,9746.146474107512,0.0,14236.793372296523,0.0,0.0,0.0,14236.793372296523,0.2318754201132358,0.4507517865509883,0.708163265306122,0.0,0.0,0.0,"[1.4141514649820799, 0.9012204639378076, 0.3091738084013933, 0.3439833307114988, 0.4763103028215774, 0.5340055906478085, 0.6822763746845695, 0.7297195978455697]",21.52,0.0,0.0,0.0,392.42729469254687,119.28219828488294,-1286.5559943696605,-76.8659287467979,0.0,0.0,0.0,0.0,0.0,0.0,0.0,-9.4,21.495402214524148,0.0,21.212385737088244,0.0,-9.4,21.52,20.12,22.31,21.12,21.95,-10.05,-9.4,0.0,-915.84,-1068.62,0.0,294.0,22.0,137.0,0.0,0.0,0.0,0.0,0.0,0.0,0.0,0.0,0.0,0.0,0.0,0.0,0.0,0.0
55.0,1390.0,23961.086909673166,6451.281475124802,-0.0,0.0,-16000.0,0.0,10423.181389831028,0.0,0.0,0.0,10423.181389831028,0.8852087534465691,0.4507517865509883,0.708163265306122,0.0,0.0,0.0,"[1.4141514649820799, 0.9012204639378076, 0.3091738084013933, 0.3439833307114988, 0.4763103028215774, 0.5340055906478085, 0.6822763746845695, 0.7297195978455697]",21.08,0.0,0.0,0.0,192.52608103674092,96.13327756964796,-1289.2105958285483,422.40674687832063,0.0,0.0,0.0,0.0,0.0,0.0,0.0,-9.9,21.310793414247307,0.0,21.146315270853783,0.0,-9.9,21.08,20.09,22.2,20.91,21.76,-10.57,-9.9,450.41,-917.73,-1070.83,0.0,216.0,34.0,27.0,0.0,0.0,0.0,0.0,0.0,0.0,0.0,0.0,0.0,0.0,0.0,0.0,0.0,0.0
56.0,2475.0,0.0,3381.241369413497,-0.0,0.0,5856.2413694134975,0.0,5527.459742533652,0.0,0.0,0.0,5527.459742533652,0.3872290451631084,0.4507517865509883,0.708163265306122,0.0,0.0,0.0,"[1.241880319646711, 0.9012204639378076, 0.3091738084013933, 0.3439833307114988, 0.4763103028215774, 0.5340055906478085, 0.6822763746845695, 0.7297195978455697]",20.79,0.0,0.0,3.475951175516423,392.42729469254687,121.3429330666546,-1268.531736777243,707.0085057044173,0.0,0.0,0.0,0.0,0.0,0.0,0.0,-9.7,21.15699625674404,0.0,21.064998622764577,0.0,-9.7,20.79,20.05,22.08,20.73,21.57,-10.39,-9.7,820.19,-903.01,-1053.65,5.06,272.0,37.0,147.0,0.0,0.0,0.0,0.0,0.0,0.0,0.0,0.0,0.0,0.0,0.0,0.0,0.0,0.0
57.0,1095.0,0.0,7094.235056075547,-0.0,8189.235056075548,0.0,0.0,1159.6186845023346,0.0,-12060.786967104901,0.0,13220.405651607236,0.3872290451631084,0.5,0.708163265306122,0.0,0.0,0.0,"[1.241880319646711, 0.9012204639378076, 0.3091738084013933, 0.3439833307114988, 0.4763103028215774, 0.5340055906478085, 0.6822763746845695, 0.7297195978455697]",20.76,0.0,0.0,978.1372423963855,272.8096675471366,71.98833504322333,-1167.4435184168185,624.6551852984401,0.0,0.0,0.0,0.0,0.0,0.0,0.0,-7.3,21.08466259972999,0.0,20.98377080304178,0.0,-7.3,20.76,20.01,21.96,20.69,21.5,-7.32,-7.3,0.0,-831.05,-969.69,1423.96,143.0,30.0,126.0,0.0,0.0,0.0,0.0,0.0,0.0,0.0,0.0,0.0,0.0,0.0,0.0,0.0,0.0
58.0,4084.0,0.0,0.0,-0.0,14121.60676417805,0.0,0.0,6046.615622780291,0.0,-2987.23046497995,0.0,0.0,0.3872290451631084,0.5121978577320014,0.708163265306122,40150.4270567122,10037.60676417805,50188.03382089025,"[1.241880319646711, 0.9012204639378076, 0.3091738084013933, 0.3439833307114988, 0.4763103028215774, 0.5340055906478085, 0.6822763746845695, 0.7297195978455697]",21.14,0.0,0.0,1349.8344307716263,2657.0846842535093,123.33497668903388,-1095.7990135517637,66.27663536412136,0.0,0.0,0.0,0.0,0.0,0.0,0.0,-5.2,21.180643262774144,0.0,20.960441364871343,0.0,-5.2,21.14,20.0,21.92,21.19,21.83,-5.06,-5.2,0.0,-780.05,-910.18,1965.08,150.0,10.0,1911.0,0.0,0.0,0.0,0.0,0.0,0.0,0.0,0.0,0.0,0.0,0.0,0.0,0.0,0.0
59.0,8232.0,0.0,3147.201227557961,-3105.3679694264288,17733.962808000346,-3249.393611015956,0.0,7035.068136268239,0.0,0.0,0.0,7035.068136268238,0.5199126176129266,0.5121978577320014,0.7190320531991145,0.0,0.0,0.0,"[1.241880319646711, 0.9012204639378076, 0.3091738084013933, 0.3439833307114988, 0.4763103028215774, 0.5340055906478085, 0.6822763746845695, 0.7297195978455697]",22.68,0.0,0.0,1670.0259332215694,6123.045818422783,236.50366178799425,-1084.9901796360475,-1980.4317381922842,-3777.8619223297023,0.0,0.0,0.0,0.0,0.0,0.0,-3.4,21.68946548232728,0.0,21.015315249395822,0.0,-3.4,22.68,20.03,22.0,22.1,22.49,-3.11,-3.4,2081.76,-772.35,-901.2,2431.21,218.0,13.0,4472.0,0.0,0.0,0.0,0.0,0.0,0.0,0.0,0.0,0.0,0.0,0.0,0.0,0.0,0.0
60.0,2308.0,0.0,3859.904387278416,-12129.683891008252,18297.58827828667,0.0,0.0,8996.179305466792,0.0,0.0,0.0,8996.179305466792,0.5199126176129266,0.5121978577320014,0.7614859468176434,0.0,0.0,0.0,"[1.241880319646711, 0.9012204639378076, 0.3091738084013933, 0.3439833307114988, 0.4763103028215774, 0.5340055906478085, 0.6822763746845695, 0.7297195978455697]",23.24,0.0,0.0,1722.226620377842,569.992392416327,104.58229017491179,-1066.9085213202143,-2578.9829709391374,1298.782911325707,0.0,0.0,0.0,0.0,0.0,0.0,-2.4,21.953123490053745,0.0,21.135688224336278,0.0,-2.4,23.24,20.1,22.17,22.59,22.89,-2.09,-2.4,0.0,-759.48,-886.18,2507.2,248.0,15.0,295.0,0.0,0.0,0.0,0.0,0.0,0.0,0.0,0.0,0.0,0.0,0.0,0.0,0.0,0.0
61.0,3348.0,0.0,1064.0737045516792,-0.0,16169.315722194293,-11757.242017642613,0.0,2510.441480731371,0.0,0.0,0.0,2510.441480731371,1.0,0.5121978577320014,0.7614859468176434,0.0,0.0,0.0,"[1.241880319646711, 0.9012204639378076, 0.3091738084013933, 0.3439833307114988, 0.4763103028215774, 0.5340055906478085, 0.6822763746845695, 0.7297195978455697]",23.24,0.0,0.0,1479.288387846096,588.9570191510661,95.30898365693929,-1054.4261076903986,-2364.758332634277,0.0,0.0,0.0,0.0,0.0,0.0,0.0,-2.1,22.060985993872112,0.0,21.27699678666471,0.0,-2.1,23.24,20.19,22.36,22.8,23.12,-1.91,-2.1,1290.01,-750.59,-875.82,2153.54,218.0,15.0,325.0,0.0,0.0,0.0,0.0,0.0,0.0,0.0,0.0,0.0,0.0,0.0,0.0,0.0,0.0
62.0,4706.0,1249.2660493609317,14003.93312117277,-0.0,9036.153402058642,15366.400000000001,0.0,4362.029496347344,34678.2,0.0,0.0,32104.589496347344,0.3466666666666667,0.5121978577320014,0.7614859468176434,27742.559999999998,6935.639999999999,34678.2,"[1.241880319646711, 0.9012204639378076, 0.3091738084013933, 0.3439833307114988, 0.4763103028215774, 0.5340055906478085, 0.6822763746845695, 0.7297195978455697]",22.59,0.0,0.0,756.0609342658694,1228.5566156197135,144.560544941282,-1056.3202400981802,-1339.1852524299366,1383.8695301688608,0.0,0.0,0.0,0.0,0.0,0.0,-2.8,21.923435459999805,0.0,21.358887377561345,0.0,-2.8,22.59,20.25,22.47,22.25,22.79,-3.03,-2.8,0.0,-751.94,-877.39,1100.67,332.0,8.0,745.0,0.0,0.0,0.0,0.0,0.0,0.0,0.0,0.0,0.0,0.0,0.0,0.0,0.0,0.0
63.0,1874.0,19105.90105194071,1136.3715466810054,-0.0,0.0,-16000.0,0.0,2431.8441937490943,0.0,0.0,0.0,2431.8441937490943,1.0,0.5121978577320014,0.7614859468176434,0.0,0.0,0.0,"[1.241880319646711, 0.9012204639378076, 0.3091738084013933, 0.3439833307114988, 0.4763103028215774, 0.5340055906478085, 0.6822763746845695, 0.7297195978455697]",23.13,0.0,0.0,11.722486044415751,541.4049735976645,84.21536141506851,-1145.6209070851241,-1988.8355925394933,0.0,0.0,0.0,0.0,0.0,0.0,0.0,-4.4,22.143469395468674,0.0,21.43252820813824,0.0,-4.4,23.13,20.3,22.56,22.5,22.98,-5.15,-4.4,2552.75,-815.51,-951.56,17.07,216.0,0.0,292.0,0.0,0.0,0.0,0.0,0.0,0.0,0.0,0.0,0.0,0.0,0.0,0.0,0.0,0.0
64.0,1667.0,6312.153551858767,4613.592784099474,-0.0,0.0,0.0,0.0,9565.245866737714,0.0,0.0,0.0,9565.245866737714,1.0,0.5121978577320014,0.7614859468176434,0.0,0.0,0.0,"[1.241880319646711, 0.9012204639378076, 0.3091738084013933, 0.3439833307114988, 0.4763103028215774, 0.5340055906478085, 0.6822763746845695, 0.7297195978455697]",21.87,0.0,0.0,0.0,691.6469609517648,130.95969538158903,-1122.1838250275252,-271.2430553012391,0.0,0.0,0.0,0.0,0.0,0.0,0.0,-5.1,21.745356788130312,0.0,21.416464381190362,0.0,-5.1,21.87,20.31,22.52,21.4,22.21,-5.85,-5.1,0.0,-798.83,-932.1,0.0,276.0,38.0,369.0,0.0,0.0,0.0,0.0,0.0,0.0,0.0,0.0,0.0,0.0,0.0,0.0,0.0,0.0
65.0,1955.0,0.0,2152.158066355123,-0.0,0.0,4107.158066355123,0.0,4297.877716009472,0.0,0.0,0.0,4297.877716009472,0.8253759325529284,0.5121978577320014,0.7614859468176434,0.0,0.0,0.0,"[1.241880319646711, 0.9012204639378076, 0.3091738084013933, 0.3439833307114988, 0.4763103028215774, 0.5340055906478085, 0.6822763746845695, 0.7297195978455697]",21.57,0.0,0.0,0.0,476.85500334127465,153.5590868216849,-1143.1807147833115,57.065465902409706,0.0,0.0,0.0,0.0,0.0,0.0,0.0,-5.9,21.615612276064883,0.0,21.367810224687474,0.0,-5.9,21.57,20.3,22.44,21.26,22.07,-6.63,-5.9,0.0,-813.78,-949.54,0.0,234.0,106.0,223.0,0.0,0.0,0.0,0.0,0.0,0.0,0.0,0.0,0.0,0.0,0.0,0.0,0.0,0.0
66.0,3232.0,0.0,1610.1828123917512,-0.0,0.0,4842.182812391751,0.0,3092.74565127759,0.0,0.0,0.0,3092.745651277589,0.6195008129784492,0.5121978577320014,0.7614859468176434,0.0,0.0,0.0,"[1.241880319646711, 0.9012204639378076, 0.3091738084013933, 0.3439833307114988, 0.4763103028215774, 0.5340055906478085, 0.6822763746845695, 0.7297195978455697]",21.34,0.0,0.0,0.0,498.9804011984703,145.48787559307922,-1166.5352695507938,292.7852505478474,0.0,0.0,0.0,0.0,0.0,0.0,0.0,-6.7,21.495904672861464,0.0,21.309257897399046,0.0,-6.7,21.34,20.28,22.34,21.14,21.94,-7.41,-6.7,100.1,-830.4,-968.93,0.0,164.0,129.0,274.0,0.0,0.0,0.0,0.0,0.0,0.0,0.0,0.0,0.0,0.0,0.0,0.0,0.0,0.0
67.0,3562.0,0.0,2328.6204194573324,-0.0,0.0,5890.620419457333,0.0,4317.282719482965,0.0,0.0,0.0,4317.282719482965,0.369049264532134,0.5121978577320014,0.7576594162053985,0.0,0.0,0.0,"[1.241880319646711, 0.9012204639378076, 0.3091738084013933, 0.3439833307114988, 0.4763103028215774, 0.5340055906478085, 0.6822763746845695, 0.7297195978455697]",21.21,0.0,0.0,0.0,716.4414544234793,168.29334051135226,-1190.4955987158933,362.18365087749044,0.0,0.0,0.0,0.0,0.0,0.0,0.0,-7.4,21.4069740038976,0.0,21.244847894248764,0.0,-7.4,21.21,20.25,22.24,21.05,21.83,-8.12,-7.4,0.0,-847.46,-988.84,0.0,266.0,103.0,386.0,0.0,0.0,0.0,0.0,0.0,0.0,0.0,0.0,0.0,0.0,0.0,0.0,0.0,0.0
68.0,6154.0,6184.924623115578,0.0,-0.0,0.0,0.0,0.0,2796.3764612585414,0.0,2796.3764612585414,0.0,0.0,0.369049264532134,0.5003085020293716,0.7576594162053985,0.0,0.0,0.0,"[1.241880319646711, 0.9012204639378076, 0.3091738084013933, 0.27218789603852045, 0.4763103028215774, 0.5340055906478085, 0.5709731153607116, 0.3656186993933517]",21.23,0.0,0.0,0.0,3159.7877714406513,253.95121627366095,-1224.550065214468,239.45300832291107,1593.0424850513923,0.0,0.0,0.0,0.0,0.0,0.0,-8.2,21.36393520302501,0.0,21.18310113733515,0.0,-8.2,21.23,20.22,22.14,21.04,21.79,-8.91,-8.2,0.0,-871.7,-1017.12,0.0,302.0,121.0,2196.0,0.0,0.0,0.0,0.0,0.0,0.0,0.0,0.0,0.0,0.0,0.0,0.0,0.0,0.0
69.0,5039.0,0.0,3641.038701795791,-0.0,0.0,8680.038701795793,0.0,6229.850657255664,0.0,0.0,0.0,6229.850657255665,0.0,0.5003085020293716,0.7576594162053985,0.0,0.0,0.0,"[1.241880319646711, 0.9012204639378076, 0.3091738084013933, 0.27218789603852045, 0.4763103028215774, 0.5340055906478085, 0.5709731153607116, 0.3656186993933517]",23.24,0.0,0.0,0.0,2617.2589681105574,223.17757686587083,-1337.3608166328906,-2492.3583150278287,0.0,0.0,0.0,0.0,0.0,0.0,0.0,-8.9,21.999923702096225,0.0,21.21651836944049,0.0,-8.9,23.24,20.24,22.2,22.28,22.64,-9.59,-8.9,1613.25,-952.0,-1110.82,0.0,324.0,82.0,1782.0,0.0,0.0,0.0,0.0,0.0,0.0,0.0,0.0,0.0,0.0,0.0,0.0,0.0,0.0
70.0,3822.0,31116.438911138917,0.0,-0.0,0.0,-16000.0,0.0,10024.971044924896,0.0,0.0,0.0,0.0,0.6533333333333333,0.5003085020293716,0.7543795328234743,44555.426866332884,11138.856716583221,55694.283582916105,"[1.241880319646711, 0.9012204639378076, 0.3091738084013933, 0.27218789603852045, 0.4763103028215774, 0.5340055906478085, 0.5709731153607116, 0.3656186993933517]",22.73,0.0,0.0,0.0,886.2802227368102,136.76409835024586,-1349.3577030580054,-1739.4272922180091,3097.3440498607442,0.0,0.0,0.0,0.0,0.0,0.0,-9.7,21.867739776801162,0.0,21.2454846201843,0.0,-9.7,22.73,20.25,22.24,21.81,22.35,-10.39,-9.7,0.0,-960.54,-1120.79,0.0,184.0,88.0,558.0,0.0,0.0,0.0,0.0,0.0,0.0,0.0,0.0,0.0,0.0,0.0,0.0,0.0,0.0
71.0,2428.0,0.0,0.0,-0.0,0.0,2428.0,0.0,9759.41839204334,0.0,9759.418392043339,0.0,0.0,0.5501020408163265,0.4588143762128608,0.7543795328234743,0.0,0.0,0.0,"[1.241880319646711, 0.9012204639378076, 0.3091738084013933, 0.27218789603852045, 0.4763103028215774, 0.5340055906478085, 0.5709731153607116, 0.3656186993933517]",23.24,0.0,0.0,0.0,689.0481046955229,95.82416735238222,-1399.7728847819694,-2331.0493145467008,0.0,0.0,0.0,0.0,0.0,0.0,0.0,-10.4,22.08182899268752,0.0,21.320464487190876,0.0,-10.4,23.24,20.29,22.35,22.48,22.86,-11.08,-10.4,2151.7,-996.43,-1162.66,0.0,206.0,18.0,406.0,0.0,0.0,0.0,0.0,0.0,0.0,0.0,0.0,0.0,0.0,0.0,0.0,0.0,0.0
72.0,1044.0,12069.162510802595,10964.816698248582,-0.0,0.0,0.0,0.0,16670.282818028838,0.0,0.0,0.0,16670.282818028838,0.5501020408163265,0.4588143762128608,0.7543795328234743,0.0,0.0,0.0,"[1.241880319646711, 0.9012204639378076, 0.3091738084013933, 0.27218789603852045, 0.4763103028215774, 0.5340055906478085, 0.5709731153607116, 0.3656186993933517]",21.75,0.0,0.0,0.0,352.109903041657,64.81010888671871,-1358.581457535257,-294.67939271685844,4201.177629163154,0.0,0.0,0.0,0.0,0.0,0.0,-10.9,21.61745843567869,0.0,21.303836831255268,0.0,-10.9,21.75,20.28,22.33,21.31,22.05,-11.61,-10.9,2237.98,-967.11,-1128.45,0.0,160.0,6.0,179.0,0.0,0.0,0.0,0.0,0.0,0.0,0.0,0.0,0.0,0.0,0.0,0.0,0.0,0.0
73.0,597.0,0.0,0.0,-0.0,0.0,597.0,0.0,15254.427283411265,0.0,15254.427283411263,0.0,0.0,0.5247193877551021,0.39395711735481975,0.7543795328234743,0.0,0.0,0.0,"[1.241880319646711, 0.9012204639378076, 0.3091738084013933, 0.27218789603852045, 0.4763103028215774, 0.5340055906478085, 0.5709731153607116, 0.3656186993933517]",23.24,0.0,0.0,0.0,248.50684958335975,58.45617664292276,-1445.541734757961,-2258.049641684261,3403.5014401831845,0.0,0.0,0.0,0.0,0.0,0.0,-11.5,22.119090542669344,0.0,21.367136719620532,0.0,-11.5,23.24,20.31,22.43,22.63,22.99,-12.23,-11.5,2028.97,-1029.01,-1200.68,0.0,160.0,0.0,102.0,0.0,0.0,0.0,0.0,0.0,0.0,0.0,0.0,0.0,0.0,0.0,0.0,0.0,0.0
74.0,628.0,9572.4529692142,8896.590704368129,-0.0,0.0,0.0,0.0,12423.28872790363,0.0,0.0,0.0,12423.28872790363,0.5247193877551021,0.39395711735481975,0.7543795328234743,0.0,0.0,0.0,"[1.241880319646711, 0.9012204639378076, 0.3091738084013933, 0.27218789603852045, 0.4763103028215774, 0.5340055906478085, 0.5709731153607116, 0.3656186993933517]",23.24,0.0,0.0,0.0,181.77945922038865,56.738897658113046,-1474.6673665608646,-2140.432772358805,0.0,0.0,0.0,0.0,0.0,0.0,0.0,-12.2,22.17865546879249,0.0,21.442845162213892,0.0,-12.2,23.24,20.34,22.54,22.54,22.98,-12.95,-12.2,691.52,-1049.74,-1224.87,0.0,160.0,0.0,52.0,0.0,0.0,0.0,0.0,0.0,0.0,0.0,0.0,0.0,0.0,0.0,0.0,0.0,0.0
75.0,887.0,0.0,7645.638370619843,-0.0,0.0,8532.638370619843,0.0,10384.893441124139,0.0,0.0,0.0,10384.893441124139,0.16193714410629922,0.39395711735481975,0.7543795328234744,0.0,0.0,0.0,"[1.241880319646711, 0.9012204639378076, 0.3091738084013933, 0.27218789603852045, 0.4763103028215774, 0.5340055906478085, 0.5709731153607116, 0.3656186993933517]",21.54,0.0,0.0,0.0,289.87783160840183,59.520889613504785,-1420.383657112439,163.02560640572938,0.0,0.0,0.0,0.0,0.0,0.0,0.0,-12.6,21.634052635573394,0.0,21.406822571231697,0.0,-12.6,21.54,20.32,22.49,21.23,22.08,-13.35,-12.6,1214.29,-1011.1,-1179.78,0.0,160.0,0.0,133.0,0.0,0.0,0.0,0.0,0.0,0.0,0.0,0.0,0.0,0.0,0.0,0.0,0.0,0.0
76.0,561.0,6556.215748251951,9771.196298890849,-0.0,0.0,3808.761629380158,0.0,12899.382271705206,0.0,0.0,0.0,12899.382271705208,0.0,0.39395711735481975,0.7543795328234744,0.0,0.0,0.0,"[1.241880319646711, 0.9012204639378076, 0.3091738084013933, 0.27218789603852045, 0.4763103028215774, 0.5340055906478085, 0.5709731153607116, 0.3656186993933517]",21.08,0.0,0.0,0.0,261.852327655954,58.79963243988471,-1417.845592479836,673.2430173601715,0.0,0.0,0.0,0.0,0.0,0.0,0.0,-13.0,21.430097751206667,0.0,21.323953131547825,0.0,-13.0,21.08,20.28,22.37,20.97,21.85,-13.74,-13.0,1189.13,-1009.3,-1177.67,0.0,160.0,0.0,112.0,0.0,0.0,0.0,0.0,0.0,0.0,0.0,0.0,0.0,0.0,0.0,0.0,0.0,0.0
77.0,1207.0,24379.214405605664,7050.318333577635,-0.0,0.0,-16000.0,0.0,9038.581242362734,0.0,0.0,0.0,9038.581242362734,0.6533333333333333,0.39395711735481975,0.7543795328234744,0.0,0.0,0.0,"[1.241880319646711, 0.9012204639378076, 0.3091738084013933, 0.27218789603852045, 0.4763103028215774, 0.5340055906478085, 0.5709731153607116, 0.3656186993933517]",20.86,0.0,0.0,0.0,200.46312852202055,57.21973577385977,-1425.4561233823974,829.5078222138512,1459.5937337256714,0.0,0.0,0.0,0.0,0.0,0.0,-13.4,21.29182244891852,0.0,21.22990207937025,0.0,-13.4,20.86,20.22,22.24,20.83,21.69,-14.15,-13.4,1628.08,-1014.71,-1184.0,0.0,160.0,0.0,66.0,0.0,0.0,0.0,0.0,0.0,0.0,0.0,0.0,0.0,0.0,0.0,0.0,0.0,0.0
78.0,1524.0,0.0,0.0,-0.0,0.0,1524.0,0.0,6287.946140286698,0.0,6287.946140286696,0.0,0.0,0.5885374149659863,0.3672226524726484,0.7543795328234744,0.0,0.0,0.0,"[1.241880319646711, 0.9012204639378076, 0.3091738084013933, 0.27218789603852045, 0.4763103028215774, 0.5340055906478085, 0.5709731153607116, 0.3656186993933517]",21.42,0.0,0.0,0.0,356.8861794044802,113.30606741774511,-1465.4659641110834,-27.1041471821746,0.0,0.0,0.0,0.0,0.0,0.0,0.0,-13.8,21.422212331854244,0.0,21.17694977249714,0.0,-13.8,21.42,20.19,22.17,21.28,21.97,-14.55,-13.8,846.67,-1043.19,-1217.23,0.0,320.0,0.0,99.0,0.0,0.0,0.0,0.0,0.0,0.0,0.0,0.0,0.0,0.0,0.0,0.0,0.0,0.0
79.0,5829.0,0.0,7252.399999999999,-0.0,0.0,13081.4,0.0,9571.667540481407,0.0,757.9909895263274,0.0,8813.676550955079,0.032355442176870745,0.3639999016668392,0.7543795328234744,0.0,0.0,0.0,"[1.241880319646711, 0.9012204639378076, 0.3091738084013933, 0.27218789603852045, 0.4763103028215774, 0.5340055906478085, 0.5709731153607116, 0.3656186993933517]",20.9,0.0,0.0,0.0,231.64940359692497,44.03103317052114,-1456.2358360371402,581.9022261898795,324.41908636329225,0.0,0.0,0.0,0.0,0.0,0.0,-14.1,21.207136311860967,0.0,21.10183594010808,0.0,-14.1,20.9,20.14,22.07,20.82,21.61,-14.86,-14.1,3161.43,-1036.62,-1209.56,0.0,117.0,0.0,112.0,0.0,0.0,0.0,0.0,0.0,0.0,0.0,0.0,0.0,0.0,0.0,0.0,0.0,0.0
80.0,761.0,81216.81628974582,64049.73220829709,-0.0,0.0,-16000.0,0.0,6771.076842859589,0.0,-70456.49826254068,0.0,77227.57510540028,0.6533333333333333,0.6229086775532529,0.7543795328234744,0.0,0.0,0.0,"[1.241880319646711, 0.9012204639378076, 0.3091738084013933, 0.27218789603852045, 0.4763103028215774, 0.5340055906478085, 0.5709731153607116, 0.3656186993933517]",20.76,0.0,0.0,2.5707631195828946,154.80754564209298,34.89510897133345,-1454.5390319025828,651.1059070333646,615.3183835671815,0.0,0.0,0.0,0.0,0.0,0.0,-14.2,21.101203792523222,0.0,21.01809506643183,0.0,-14.2,20.76,20.08,21.95,20.73,21.5,-14.95,-14.2,1011.21,-1035.42,-1208.15,3.74,95.0,0.0,66.0,0.0,0.0,0.0,0.0,0.0,0.0,0.0,0.0,0.0,0.0,0.0,0.0,0.0,0.0
81.0,1025.0,0.0,0.0,-0.0,7977.404985267773,0.0,0.0,9626.701823879603,0.0,3369.5373371386104,0.0,0.0,0.6533333333333333,0.6085824133647384,0.7543795328234744,27809.61994107109,6952.404985267773,34762.02492633886,"[1.241880319646711, 0.9012204639378076, 0.3091738084013933, 0.27218789603852045, 0.4763103028215774, 0.5340055906478085, 0.5709731153607116, 0.3656186993933517]",20.76,0.0,0.0,919.5900462078064,137.45842414772048,3.5375947087080175,-1358.8405274073277,538.6218529978139,0.0,0.0,0.0,0.0,0.0,0.0,0.0,-11.9,21.043278736129107,0.0,20.94080246822447,0.0,-11.9,20.76,20.03,21.85,20.73,21.46,-11.98,-11.9,530.31,-967.29,-1128.66,1338.73,0.0,0.0,103.0,0.0,0.0,0.0,0.0,0.0,0.0,0.0,0.0,0.0,0.0,0.0,0.0,0.0,0.0
82.0,1564.0,0.0,3479.257644790519,-9236.208458632907,14279.466103423427,0.0,0.0,5588.184643388043,0.0,0.0,0.0,5588.184643388043,0.6533333333333333,0.6085824133647384,0.7867062624286896,0.0,0.0,0.0,"[1.241880319646711, 0.9012204639378076, 0.3091738084013933, 0.27218789603852045, 0.4763103028215774, 0.5340055906478085, 0.5709731153607116, 0.3656186993933517]",20.87,0.0,0.0,1321.954841047982,269.2976996332961,53.785177804240334,-1284.397003208264,330.29279739671364,0.0,0.0,0.0,0.0,0.0,0.0,0.0,-10.0,21.048291729836034,0.0,20.90187107954518,0.0,-10.0,20.87,20.0,21.81,21.0,21.64,-9.83,-10.0,74.54,-914.3,-1066.83,1924.49,144.0,0.0,126.0,0.0,0.0,0.0,0.0,0.0,0.0,0.0,0.0,0.0,0.0,0.0,0.0,0.0,0.0
83.0,2315.0,0.0,6187.039201718255,-8742.616478961272,17244.655680679527,0.0,0.0,10822.01266827131,0.0,0.0,0.0,10822.01266827131,0.6533333333333333,0.6085824133647384,0.817305420105054,0.0,0.0,0.0,"[1.241880319646711, 0.9012204639378076, 0.3091738084013933, 0.27218789603852045, 0.4763103028215774, 0.5340055906478085, 0.5709731153607116, 0.3656186993933517]",21.2,0.0,0.0,1574.9046102473924,88.08015527912185,2.266808259948825,-1235.7354036313156,-127.62367758973609,0.0,0.0,0.0,0.0,0.0,0.0,0.0,-8.5,21.1474978913203,0.0,20.89906280305737,0.0,-8.5,21.2,19.99,21.81,21.32,21.86,-8.19,-8.5,0.0,-879.66,-1026.41,2292.73,0.0,0.0,66.0,0.0,0.0,0.0,0.0,0.0,0.0,0.0,0.0,0.0,0.0,0.0,0.0,0.0,0.0
84.0,7470.0,0.0,190.01384173962322,-11693.89307669946,19353.906918439083,0.0,0.0,350.4758719886999,0.0,0.0,0.0,350.4758719886999,0.6533333333333333,0.6085824133647384,0.8582340458735022,0.0,0.0,0.0,"[1.241880319646711, 0.9012204639378076, 0.3091738084013933, 0.27218789603852045, 0.4763103028215774, 0.5340055906478085, 0.5709731153607116, 0.3656186993933517]",21.33,0.0,0.0,1754.2062446385182,6596.388853850216,216.61757114389772,-1199.7337646882927,-283.65632940374786,-3233.9944977991927,0.0,0.0,0.0,0.0,0.0,0.0,-7.5,21.203222835684706,0.0,20.917237821535345,0.0,-7.5,21.33,20.0,21.84,21.46,21.97,-7.1,-7.5,0.0,-854.03,-996.51,2553.76,144.0,0.0,4867.0,0.0,0.0,0.0,0.0,0.0,0.0,0.0,0.0,0.0,0.0,0.0,0.0,0.0,0.0
85.0,5312.0,0.0,4126.997044617232,-7685.639586297328,17124.63663091456,0.0,0.0,7730.176643739922,0.0,0.0,0.0,7730.176643739922,0.6533333333333333,0.6085824133647384,0.8851337844255428,0.0,0.0,0.0,"[1.241880319646711, 0.9012204639378076, 0.3091738084013933, 0.27218789603852045, 0.4763103028215774, 0.5340055906478085, 0.5709731153607116, 0.3656186993933517]",23.24,0.0,0.0,1563.1948413569671,1670.6431366139664,96.68280684478707,-1266.6271393972677,-2771.470897829839,752.887976991617,0.0,0.0,0.0,0.0,0.0,0.0,-7.2,21.858158143483436,0.0,21.01510331499851,0.0,-7.2,23.24,20.04,21.99,22.56,22.79,-6.89,-7.2,0.0,-901.65,-1052.07,2275.69,165.0,0.0,1165.0,0.0,0.0,0.0,0.0,0.0,0.0,0.0,0.0,0.0,0.0,0.0,0.0,0.0,0.0
86.0,2831.0,0.0,4785.532497162341,-0.0,14215.786853993292,-6599.25435683095,0.0,8735.553450914727,0.0,0.0,0.0,8735.553450914727,0.9228028862372638,0.6085824133647384,0.8851337844255428,0.0,0.0,0.0,"[1.241880319646711, 0.9012204639378076, 0.3091738084013933, 0.27218789603852045, 0.4763103028215774, 0.5340055906478085, 0.5709731153607116, 0.3656186993933517]",23.24,0.0,0.0,1316.1337774144063,641.215101709014,84.1810158353723,-1287.4311621136271,-2573.6144315832353,1510.2423068314051,0.0,0.0,0.0,0.0,0.0,0.0,-7.7,21.958123243091197,0.0,21.143471169868384,0.0,-7.7,23.24,20.11,22.17,22.6,22.9,-7.54,-7.7,2143.15,-916.46,-1069.35,1916.02,208.0,0.0,371.0,0.0,0.0,0.0,0.0,0.0,0.0,0.0,0.0,0.0,0.0,0.0,0.0,0.0,0.0
87.0,3050.0,0.0,1277.4987102614896,-0.0,0.7739237078176104,4326.724786553672,0.0,2124.918089249617,0.0,0.0,0.0,2124.918089249617,0.7388434990538594,0.6085824133647384,0.8851337844255428,0.0,0.0,0.0,"[1.241880319646711, 0.9012204639378076, 0.3091738084013933, 0.27218789603852045, 0.4763103028215774, 0.5340055906478085, 0.5709731153607116, 0.3656186993933517]",23.07,0.0,0.0,18.132021380679152,620.8456878087386,92.76741075942091,-1350.8745756996743,-2157.4572680429224,0.0,0.0,0.0,0.0,0.0,0.0,0.0,-9.4,21.99358677042927,0.0,21.257788081182788,0.0,-9.4,23.07,20.18,22.34,22.58,22.96,-10.09,-9.4,0.0,-961.62,-1122.05,26.4,236.0,0.0,341.0,0.0,0.0,0.0,0.0,0.0,0.0,0.0,0.0,0.0,0.0,0.0,0.0,0.0,0.0
88.0,2883.0,0.0,0.0,-0.0,0.0,2883.0,0.0,8344.182555112633,0.0,8344.182555112633,0.0,0.0,0.6162669684416144,0.5731054467188513,0.8851337844255428,0.0,0.0,0.0,"[1.241880319646711, 0.9012204639378076, 0.3091738084013933, 0.27218789603852045, 0.4763103028215774, 0.5340055906478085, 0.5709731153607116, 0.3656186993933517]",21.66,0.0,0.0,0.0,532.976250604447,119.93476429911064,-1284.107348150511,-244.2942175837522,763.9496073485768,0.0,0.0,0.0,0.0,0.0,0.0,-9.2,21.55218852637831,0.0,21.238557030498942,0.0,-9.2,21.66,20.17,22.31,21.22,22.01,-9.9,-9.2,0.0,-914.09,-1066.59,0.0,232.0,50.0,272.0,0.0,0.0,0.0,0.0,0.0,0.0,0.0,0.0,0.0,0.0,0.0,0.0,0.0,0.0
89.0,3161.0,7127.289713939063,3930.653265369369,-0.0,0.0,0.0,0.0,6687.911711436235,0.0,0.0,0.0,6687.911711436235,0.6162669684416144,0.5731054467188513,0.8851337844255428,0.0,0.0,0.0,"[1.241880319646711, 0.9012204639378076, 0.3091738084013933, 0.27218789603852045, 0.4763103028215774, 0.5340055906478085, 0.5709731153607116, 0.3656186993933517]",21.6,0.0,0.0,0.0,2198.7026321390363,200.47514868668634,-1273.1517546068462,-213.1101379321853,0.0,0.0,0.0,0.0,0.0,0.0,0.0,-9.0,21.504467465606396,0.0,21.20274214481462,0.0,-9.0,21.6,20.15,22.25,21.3,22.03,-9.66,-9.0,0.0,-906.3,-1057.49,0.0,310.0,70.0,1477.0,0.0,0.0,0.0,0.0,0.0,0.0,0.0,0.0,0.0,0.0,0.0,0.0,0.0,0.0
90.0,2749.0,0.0,0.0,-0.0,0.0,2749.0,0.0,10578.247897250048,0.0,10578.24789725005,0.0,0.0,0.4993877167409342,0.5281299029380263,0.866547778594639,0.0,0.0,0.0,"[1.241880319646711, 0.9012204639378076, 0.3091738084013933, 0.27218789603852045, 0.4763103028215774, 0.5340055906478085, 0.5709731153607116, 0.3656186993933517]",22.05,0.0,0.0,0.0,718.2676777386764,179.76476412988117,-1283.4744754780663,-877.5345228486835,3656.0478181144276,0.0,0.0,0.0,0.0,0.0,0.0,-8.8,21.617890600980516,0.0,21.174617343950835,0.0,-8.8,22.05,20.14,22.21,21.43,22.09,-9.44,-8.8,0.0,-913.64,-1066.06,0.0,286.0,111.0,376.0,0.0,0.0,0.0,0.0,0.0,0.0,0.0,0.0,0.0,0.0,0.0,0.0,0.0,0.0
91.0,4639.0,8595.919962652904,3913.940362839639,-0.0,0.0,0.0,0.0,6771.413494809379,0.0,0.0,0.0,6771.413494809379,0.4993877167409342,0.5281299029380263,0.866547778594639,0.0,0.0,0.0,"[1.241880319646711, 0.9012204639378076, 0.3091738084013933, 0.27218789603852045, 0.4763103028215774, 0.5340055906478085, 0.5709731153607116, 0.3656186993933517]",23.24,0.0,0.0,0.0,569.219759475282,218.98741614293513,-1329.0392075463465,-2415.1778328241394,0.0,0.0,0.0,0.0,0.0,0.0,0.0,-8.7,22.038698812252314,0.0,21.250006255416373,0.0,-8.7,23.24,20.18,22.32,22.54,22.89,-9.32,-8.7,0.0,-946.08,-1103.91,0.0,288.0,180.0,256.0,0.0,0.0,0.0,0.0,0.0,0.0,0.0,0.0,0.0,0.0,0.0,0.0,0.0,0.0
92.0,4253.0,70.61357490804963,7562.859604780281,-0.0,0.0,11745.599097746774,0.0,13228.518485636812,0.0,0.0,0.0,13228.518485636812,0.0,0.5281299029380263,0.866547778594639,0.0,0.0,0.0,"[0.6739599208931821, 0.9012204639378076, 0.3091738084013933, 0.27218789603852045, 0.4763103028215774, 0.5340055906478085, 0.570973115360708, 0.3656186993933517]",21.74,0.0,0.0,0.0,618.036113477666,189.62194550268896,-1258.2076663517337,-347.81617463431934,0.0,0.0,0.0,0.0,0.0,0.0,0.0,-8.5,21.57725942272157,0.0,21.24324408662259,0.0,-8.5,21.74,20.18,22.3,21.32,22.06,-9.1,-8.5,0.0,-895.66,-1045.08,0.0,260.0,145.0,311.0,0.0,0.0,0.0,0.0,0.0,0.0,0.0,0.0,0.0,0.0,0.0,0.0,0.0,0.0
93.0,2995.0,3010.0502512562816,0.0,-0.0,0.0,0.0,0.0,6444.316484243271,0.0,6444.316484243271,0.0,0.0,0.0,0.5007305981580804,0.866547778594639,0.0,0.0,0.0,"[0.6739599208931821, 0.9012204639378076, 0.3091738084013933, 0.27218789603852045, 0.4763103028215774, 0.5340055906478085, 0.570973115360708, 0.3656186993933517]",21.33,0.0,0.0,0.0,657.0189573212966,159.5695632685189,-1232.681621603043,144.94675316778708,289.9080258641322,0.0,0.0,0.0,0.0,0.0,0.0,-8.3,21.411783990827686,0.0,21.192831609812384,0.0,-8.3,21.33,20.16,22.22,21.09,21.87,-8.89,-8.3,1373.44,-877.49,-1023.88,0.0,310.0,68.0,322.0,0.0,0.0,0.0,0.0,0.0,0.0,0.0,0.0,0.0,0.0,0.0,0.0,0.0,0.0
94.0,2288.0,6946.076843035316,4623.34645882014,-0.0,0.0,0.0,0.0,8263.194495948612,0.0,0.0,0.0,8263.194495948612,0.0,0.5007305981580804,0.8321090030844348,0.0,0.0,0.0,"[0.6739599208931821, 0.9012204639378076, 0.3091738084013933, 0.27218789603852045, 0.4763103028215774, 0.5340055906478085, 0.570973115360708, 0.3656186993933517]",21.33,0.0,0.0,0.0,600.9679494164008,92.8704474985095,-1224.360012516499,63.76635168577813,477.67467359350553,0.0,0.0,0.0,0.0,0.0,0.0,-8.1,21.370790717573385,0.0,21.14104135711215,0.0,-8.1,21.33,20.14,22.14,21.09,21.84,-8.67,-8.1,0.0,-871.56,-1016.96,0.0,168.0,37.0,358.0,0.0,0.0,0.0,0.0,0.0,0.0,0.0,0.0,0.0,0.0,0.0,0.0,0.0,0.0
95.0,1287.0,1293.467336683417,0.0,-0.0,0.0,0.0,0.0,13816.374946059785,0.0,13816.374946059786,0.0,0.0,0.0,0.4419875074010235,0.7927504025013444,0.0,0.0,0.0,"[0.6739599208931821, 0.9012204639378076, 0.3091738084013933, 0.27218789603852045, 0.4763103028215774, 0.5340055906478085, 0.570973115360708, 0.3656186993933517]",21.33,0.0,0.0,0.0,438.5745530804122,127.62817415105816,-1216.0384034299552,-10.946864068950893,3351.0406928581842,0.0,0.0,0.0,0.0,0.0,0.0,-7.9,21.333055988705453,0.0,21.09312359274791,0.0,-7.9,21.33,20.12,22.07,21.07,21.79,-8.46,-7.9,776.85,-865.64,-1010.05,0.0,282.0,40.0,176.0,0.0,0.0,0.0,0.0,0.0,0.0,0.0,0.0,0.0,0.0,0.0,0.0,0.0,0.0
96.0,1661.0,5883.034149992333,4192.618979242372,-0.0,0.0,0.0,0.0,7813.121951850555,0.0,0.0,0.0,7813.121951850555,0.0,0.4419875074010235,0.7927504025013444,0.0,0.0,0.0,"[0.6739599208931821, 0.9012204639378076, 0.3091738084013933, 0.27218789603852045, 0.4763103028215774, 0.5340055906478085, 0.570973115360708, 0.3656186993933517]",22.67,0.0,0.0,0.0,377.46631137958605,65.4626749009464,-1247.1578861870346,-1808.9941902584792,2620.9199817499234,0.0,0.0,0.0,0.0,0.0,0.0,-7.3,21.775354424298744,0.0,21.136445363057142,0.0,-7.3,22.67,20.14,22.13,22.16,22.55,-7.87,-7.3,741.12,-887.79,-1035.9,0.0,160.0,6.0,198.0,0.0,0.0,0.0,0.0,0.0,0.0,0.0,0.0,0.0,0.0,0.0,0.0,0.0,0.0
97.0,1039.0,22784.34926820034,5631.427521859339,-0.0,0.0,-16000.0,0.0,10870.20512368188,0.0,0.0,0.0,10870.20512368188,0.6533333333333333,0.4419875074010235,0.7927504025013444,0.0,0.0,0.0,"[0.6739599208931821, 0.9012204639378076, 0.3091738084013933, 0.27218789603852045, 0.4763103028215774, 0.5340055906478085, 0.570973115360708, 0.3656186993933517]",22.67,0.0,0.0,0.0,340.59064828425994,60.826021641960175,-1218.032254384131,-1724.770073080191,2241.4723625827473,0.0,0.0,0.0,0.0,0.0,0.0,-6.6,21.81749391893423,0.0,21.191002881189718,0.0,-6.6,22.67,20.17,22.21,22.05,22.51,-7.17,-6.6,1503.17,-867.06,-1011.71,0.0,160.0,0.0,171.0,0.0,0.0,0.0,0.0,0.0,0.0,0.0,0.0,0.0,0.0,0.0,0.0,0.0,0.0
98.0,991.0,5920.742076834962,4900.1383664507875,-0.0,0.0,0.0,0.0,9785.617431994327,0.0,0.0,0.0,9785.617431994327,0.6533333333333333,0.4419875074010235,0.7927504025013444,0.0,0.0,0.0,"[0.6739599208931821, 0.9012204639378076, 0.3091738084013933, 0.27218789603852045, 0.4763103028215774, 0.5340055906478085, 0.570973115360708, 0.3656186993933517]",22.52,0.0,0.0,0.0,307.2269531027743,59.96738214955532,-1182.4692739791853,-1448.3040561347268,0.0,0.0,0.0,0.0,0.0,0.0,0.0,-5.9,21.801710114878706,0.0,21.232037636756203,0.0,-5.9,22.52,20.2,22.27,21.94,22.46,-6.45,-5.9,1078.53,-841.74,-982.17,0.0,160.0,0.0,146.0,0.0,0.0,0.0,0.0,0.0,0.0,0.0,0.0,0.0,0.0,0.0,0.0,0.0,0.0
99.0,1808.0,16918.562991823674,6536.174258497207,-0.0,0.0,-8489.795918367347,0.0,13302.040255748083,0.0,0.0,0.0,13302.040255748081,1.0,0.4419875074010235,0.7927504025013444,0.0,0.0,0.0,"[0.6739599208931821, 0.9012204639378076, 0.3091738084013933, 0.27218789603852045, 0.4763103028215774, 0.5340055906478085, 0.570973115360708, 0.3656186993933517]",21.38,0.0,0.0,0.0,1612.3444692442122,99.08699742352067,-1118.2242964673057,80.03112317522928,1916.106829561305,0.0,0.0,0.0,0.0,0.0,0.0,-5.5,21.42705451816935,0.0,21.198078957357236,0.0,-5.5,21.38,20.19,22.21,21.06,21.84,-6.04,-5.5,1171.09,-796.01,-928.81,0.0,160.0,9.0,1123.0,0.0,0.0,0.0,0.0,0.0,0.0,0.0,0.0,0.0,0.0,0.0,0.0,0.0,0.0
100.0,974.0,0.0,5104.717584057766,-0.0,0.0,6078.717584057766,0.0,10632.14739980673,0.0,0.0,0.0,10632.14739980673,0.7415511231267957,0.4419875074010235,0.7927504025013441,0.0,0.0,0.0,"[0.6739599208931821, 0.9012204639378076, 0.3091738084013933, 0.27218789603852045, 0.4763103028215774, 0.5340055906478085, 0.570973115360708, 0.3656186993933517]",22.67,0.0,0.0,0.0,356.60522197137294,47.49993671983677,-1151.45938169178,-1691.4726644452924,2444.411777824641,0.0,0.0,0.0,0.0,0.0,0.0,-5.0,21.83358274226772,0.0,21.216071993089614,0.0,-5.0,22.67,20.2,22.23,21.98,22.47,-5.53,-5.0,2407.16,-819.67,-956.41,0.0,80.0,20.0,223.0,0.0,0.0,0.0,0.0,0.0,0.0,0.0,0.0,0.0,0.0,0.0,0.0,0.0,0.0
101.0,994.0,12196.80246836493,18443.264530310764,-0.0,0.0,13616.32407428766,0.0,13857.570923847179,31574.39,0.0,0.0,39117.08292384718,0.15861244791651213,0.4419875074010235,0.7927504025013441,25259.512000000002,6314.878000000001,31574.39,"[0.6739599208931821, 0.9012204639378076, 0.3091738084013933, 0.27218789603852045, 0.4763103028215774, 0.5340055906478085, 0.570973115360708, 0.3656186993933517]",22.67,0.0,0.0,0.0,302.872112889612,38.74181389730721,-1134.816163518692,-1617.0975858291768,2414.8549609176225,0.0,0.0,0.0,0.0,0.0,0.0,-4.6,21.870852237322428,0.0,21.265558737376303,0.0,-4.6,22.67,20.24,22.3,22.05,22.55,-5.05,-4.6,818.98,-807.82,-942.59,0.0,80.0,8.0,184.0,0.0,0.0,0.0,0.0,0.0,0.0,0.0,0.0,0.0,0.0,0.0,0.0,0.0,0.0
102.0,1980.0,0.0,1750.5647749963653,-0.0,0.0,3730.5647749963655,0.0,3762.9112832685796,0.0,0.0,0.0,3762.9112832685796,0.0,0.4419875074010235,0.7927504025013441,0.0,0.0,0.0,"[0.6739599208931821, 0.9012204639378076, 0.3091738084013933, 0.27218789603852045, 0.4763103028215774, 0.5340055906478085, 0.570973115360708, 0.3656186993933517]",22.67,0.0,0.0,0.0,156.2123328076292,55.50245678905006,-1122.3337498888761,-1548.5995052578023,0.0,0.0,0.0,0.0,0.0,0.0,0.0,-4.3,21.905244203843434,0.0,21.311755213637483,0.0,-4.3,22.67,20.27,22.35,22.06,22.58,-4.76,-4.3,1888.07,-798.94,-932.22,0.0,111.0,25.0,56.0,0.0,0.0,0.0,0.0,0.0,0.0,0.0,0.0,0.0,0.0,0.0,0.0,0.0,0.0
103.0,980.0,3581.9665738528306,2584.056740983566,-0.0,0.0,0.0,0.0,5628.440505677782,0.0,0.0,0.0,5628.440505677782,0.0,0.4419875074010235,0.7927504025013441,0.0,0.0,0.0,"[0.6739599208931821, 0.9012204639378076, 0.3091738084013933, 0.27218789603852045, 0.4763103028215774, 0.5340055906478085, 0.570973115360708, 0.3656186993933517]",21.43,0.0,0.0,0.0,138.1608177304886,6.628696881365505,-1058.1591727685136,118.37678790104748,586.2644770274486,0.0,0.0,0.0,0.0,0.0,0.0,-4.0,21.50213387872109,0.0,21.2802889002961,0.0,-4.0,21.43,20.26,22.3,21.13,21.92,-4.45,-4.0,1837.37,-753.25,-878.92,0.0,0.0,5.0,103.0,0.0,0.0,0.0,0.0,0.0,0.0,0.0,0.0,0.0,0.0,0.0,0.0,0.0,0.0
104.0,1414.0,3333.328358953778,1902.6617171590092,-0.0,0.0,0.0,0.0,4198.681890467434,0.0,0.0,0.0,4198.681890467434,0.6533333333333333,0.4419875074010235,0.7927504025013441,0.0,0.0,0.0,"[0.6739599208931821, 0.9012204639378076, 0.3091738084013933, 0.27218789603852045, 0.4763103028215738, 0.5340055906478085, 0.570973115360708, 0.3656186993933517]",21.33,0.0,0.0,0.840064215158472,156.14209344935242,4.0184328244547345,-1041.2846126125335,183.53766207871467,697.237075579641,0.0,0.0,0.0,0.0,0.0,0.0,-3.7,21.429225530750216,0.0,21.230183391917276,0.0,-3.7,21.33,20.25,22.21,21.12,21.87,-4.13,-3.7,688.85,-741.24,-864.9,1.22,0.0,0.0,117.0,0.0,0.0,0.0,0.0,0.0,0.0,0.0,0.0,0.0,0.0,0.0,0.0,0.0,0.0
105.0,3459.0,5674.379280795777,2192.4464408064377,-0.0,5.43905641463934,0.0,0.0,5151.680733783079,0.0,0.0,0.0,5151.680733783079,0.6533333333333333,0.4419875074010235,0.7927504025013441,0.0,0.0,0.0,"[0.6739599208931821, 0.9012204639378076, 0.3091738084013933, 0.27218789603852045, 0.4763103028215738, 0.5340055906478085, 0.570973115360708, 0.3656186993933517]",21.33,0.0,0.0,24.77757041323475,73.40012939926822,1.889006883290689,-978.8725444634545,109.65106033034996,3445.166939484203,0.0,0.0,0.0,0.0,0.0,0.0,-2.2,21.391348854669356,0.0,21.183665660717832,0.0,-2.2,21.33,20.23,22.13,21.12,21.83,-2.59,-2.2,2197.58,-696.81,-813.06,36.07,0.0,0.0,55.0,0.0,0.0,0.0,0.0,0.0,0.0,0.0,0.0,0.0,0.0,0.0,0.0,0.0,0.0
106.0,1208.0,1426.7543149872101,2190.6446072633103,-0.0,18.546617382041674,1960.4774464689942,0.0,5356.287765325519,0.0,0.0,0.0,5356.287765325519,0.5699797004052298,0.4419875074010235,0.7927504025013441,0.0,0.0,0.0,"[0.6739599208931821, 0.9012204639378076, 0.3091738084013933, 0.27218789603852045, 0.4763103028215738, 0.5340055906478085, 0.570973115360708, 0.3656186993933517]",22.67,0.0,0.0,31.193821418697365,137.45842414772048,3.5375947087080175,-993.3488090474461,-1690.0183155662633,0.0,0.0,0.0,0.0,0.0,0.0,0.0,-1.2,21.83264464370554,0.0,21.22773726686806,0.0,-1.2,22.67,20.27,22.19,22.18,22.57,-1.56,-1.2,1785.49,-707.12,-825.08,45.41,0.0,0.0,103.0,0.0,0.0,0.0,0.0,0.0,0.0,0.0,0.0,0.0,0.0,0.0,0.0,0.0,0.0
107.0,2577.0,0.0,2891.7132178769048,-0.0,216.39066434589893,5252.322553531006,0.0,7428.830931052348,0.0,0.0,0.0,7428.830931052348,0.3466666666666667,0.4419875074010235,0.7927504025013441,0.0,0.0,0.0,"[0.6739599208931821, 0.9012204639378076, 0.3091738084013933, 0.27218789603852045, 0.4763103028215738, 0.5340055906478085, 0.570973115360708, 0.3656186993933517]",21.41,0.0,0.0,59.15048072809508,156.14209344935242,4.0184328244547345,-886.5908035392519,24.237914546910794,3157.069307757375,0.0,0.0,0.0,0.0,0.0,0.0,0.1,21.429492237116282,0.0,21.205616129884895,0.0,0.1,21.41,20.27,22.14,21.08,21.81,-0.27,0.1,1711.99,-631.12,-736.41,86.11,0.0,0.0,117.0,0.0,0.0,0.0,0.0,0.0,0.0,0.0,0.0,0.0,0.0,0.0,0.0,0.0,0.0
108.0,6512.0,9291.992414169707,3262.999865745181,-0.0,529.467413646323,0.0,0.0,8724.84782559675,0.0,0.0,0.0,8724.84782559675,0.3466666666666667,0.4419875074010235,0.7927504025013441,0.0,0.0,0.0,"[0.6739599208931821, 0.9012204639378076, 0.3091738084013933, 0.27218789603852045, 0.4763103028215738, 0.5340055906478085, 0.570973115360708, 0.3656186993933517]",22.67,0.0,0.0,77.37696863882927,61.38919913393343,1.5798966660249363,-893.4895000089194,-1661.5352851616983,2416.544636344676,0.0,0.0,0.0,0.0,0.0,0.0,1.2,21.84601812197477,0.0,21.250661895002928,0.0,1.2,22.67,20.3,22.2,22.17,22.56,0.76,1.2,608.0,-636.03,-742.14,112.64,0.0,0.0,46.0,0.0,0.0,0.0,0.0,0.0,0.0,0.0,0.0,0.0,0.0,0.0,0.0,0.0,0.0
109.0,3743.0,4989.042117441398,1784.5703294183447,-0.0,563.4734225641537,0.0,0.0,4907.817593599271,0.0,0.0,0.0,4907.817593599271,0.3466666666666667,0.4419875074010235,0.7927504025013441,0.0,0.0,0.0,"[0.6739599208931821, 0.9012204639378076, 0.3091738084013933, 0.27218789603852045, 0.4763103028215738, 0.5340055906478085, 0.570973115360708, 0.3656186993933517]",22.67,0.0,0.0,81.75423852279222,124.11294607512623,3.194138911746071,-860.203063662744,-1575.4990974599375,0.0,0.0,0.0,0.0,0.0,0.0,0.0,2.0,21.889030454592223,0.0,21.30925987761828,0.0,2.0,22.67,20.35,22.27,22.1,22.54,1.56,2.0,1738.89,-612.34,-714.49,119.02,0.0,0.0,93.0,0.0,0.0,0.0,0.0,0.0,0.0,0.0,0.0,0.0,0.0,0.0,0.0,0.0,0.0
110.0,1437.0,20856.43811767354,3465.2902300378314,-0.0,150.134302952657,-16000.0,0.0,9629.139032548945,0.0,0.0,0.0,9629.139032548943,1.0,0.4419875074010235,0.7927504025013434,0.0,0.0,0.0,"[0.6739599208931821, 0.9012204639378076, 0.3091738084013933, 0.27218789603852045, 0.4763103028215738, 0.5340055906478085, 0.570973115360708, 0.3656186993933517]",21.55,0.0,0.0,61.84342579016685,298.09583652678884,61.68466113436503,-800.9959911759431,-51.834332364360165,75.10403974362906,0.0,0.0,0.0,0.0,0.0,0.0,2.3,21.533168400264696,0.0,21.293510571774977,0.0,2.3,21.55,20.36,22.23,21.22,21.93,1.83,2.3,303.29,-570.19,-665.31,90.03,166.0,0.0,136.0,0.0,0.0,0.0,0.0,0.0,0.0,0.0,0.0,0.0,0.0,0.0,0.0,0.0,0.0
111.0,2075.0,5790.267982275892,3686.3804811938317,-0.0,0.06383882931875262,0.0,0.0,10032.630880113025,0.0,0.0,0.0,10032.630880113025,1.0,0.4419875074010235,0.7927504025013434,0.0,0.0,0.0,"[0.6739599208931821, 0.9012204639378076, 0.3091738084013933, 0.27218789603852045, 0.4763103028215738, 0.5340055906478085, 0.570973115360708, 0.3656186993933517]",21.37,0.0,0.0,14.728366776652516,230.66605258104963,47.25951766196342,-818.3152470260292,134.9448964025179,2990.0823526561603,0.0,0.0,0.0,0.0,0.0,0.0,1.7,21.4437099430717,0.0,21.25417433211615,0.0,1.7,21.37,20.36,22.15,21.15,21.84,1.21,1.7,1947.46,-582.52,-679.7,21.44,127.0,0.0,106.0,0.0,0.0,0.0,0.0,0.0,0.0,0.0,0.0,0.0,0.0,0.0,0.0,0.0,0.0
112.0,2128.0,0.0,3218.265958952973,-0.0,0.0,5346.265958952973,0.0,8513.192880911292,0.0,0.0,0.0,8513.192880911294,0.7726927738540403,0.4419875074010235,0.7927504025013434,0.0,0.0,0.0,"[0.6739599208931821, 0.9012204639378076, 0.3091738084013933, 0.27218789603852045, 0.4763103028215738, 0.5340055906478085, 0.570973115360708, 0.3656186993933517]",22.67,0.0,0.0,0.0,134.78932853320163,3.468903549315625,-905.9719136387353,-1613.3557030558707,0.0,0.0,0.0,0.0,0.0,0.0,0.0,0.9,21.870451510536814,0.0,21.29652213318426,0.0,0.9,22.67,20.39,22.2,22.18,22.55,0.39,0.9,452.55,-644.92,-752.51,0.0,0.0,0.0,101.0,0.0,0.0,0.0,0.0,0.0,0.0,0.0,0.0,0.0,0.0,0.0,0.0,0.0,0.0
113.0,2551.0,0.0,1460.294628873541,-0.0,0.0,4011.294628873541,0.0,3876.799768566284,0.0,0.0,0.0,3876.799768566284,0.6021445328305054,0.4419875074010235,0.773617749440119,0.0,0.0,0.0,"[0.6739599208931821, 0.9012204639378076, 0.3091738084013933, 0.27218789603852045, 0.4763103028215738, 0.5340055906478085, 0.570973115360708, 0.3656186993933517]",21.47,0.0,0.0,0.0,256.3034183520858,71.12969555081848,-851.885529676039,10.888920221067954,228.15190367630456,0.0,0.0,0.0,0.0,0.0,0.0,1.0,21.488380997786457,0.0,21.275862711275256,0.0,1.0,21.47,20.4,22.16,21.15,21.84,0.47,1.0,0.0,-606.42,-707.58,0.0,136.0,33.0,117.0,0.0,0.0,0.0,0.0,0.0,0.0,0.0,0.0,0.0,0.0,0.0,0.0,0.0,0.0
114.0,2290.0,6992.587711349102,4667.624772792356,-0.0,0.0,0.0,0.0,12436.13879235444,0.0,0.0,0.0,12436.138792354439,0.6021445328305054,0.4419875074010235,0.769791218827874,0.0,0.0,0.0,"[0.6739599208931821, 0.9012204639378076, 0.3091738084013933, 0.27218789603852045, 0.4763103028215738, 0.5340055906478085, 0.570973115360708, 0.3656186993933517]",21.33,0.0,0.0,0.0,511.55324633001953,176.43324289935035,-841.5659945354803,147.81441232836187,2701.7615891897926,0.0,0.0,0.0,0.0,0.0,0.0,1.1,21.409250331223323,0.0,21.23463642644429,0.0,1.1,21.33,20.39,22.08,21.13,21.78,0.57,1.1,0.0,-599.07,-699.01,0.0,328.0,92.0,201.0,0.0,0.0,0.0,0.0,0.0,0.0,0.0,0.0,0.0,0.0,0.0,0.0,0.0,0.0
115.0,3819.0,4654.231479209032,811.9603218129868,-0.0,0.0,0.0,0.0,2178.8195942099287,0.0,0.0,0.0,2178.8195942099287,0.6021445328305054,0.4419875074010235,0.769791218827874,0.0,0.0,0.0,"[0.6739599208931821, 0.9012204639378076, 0.3091738084013933, 0.27218789603852045, 0.4763103028215738, 0.5340055906478085, 0.570973115360708, 0.3656186993933517]",22.67,0.0,0.0,0.0,1418.8350371915963,157.30275500857007,-889.3286954656475,-1653.2931912328115,0.0,0.0,0.0,0.0,0.0,0.0,0.0,1.3,21.850172788221954,0.0,21.278336683672833,0.0,1.3,22.67,20.42,22.14,22.2,22.52,0.76,1.3,0.0,-633.07,-738.68,0.0,290.0,43.0,906.0,0.0,0.0,0.0,0.0,0.0,0.0,0.0,0.0,0.0,0.0,0.0,0.0,0.0,0.0
116.0,5483.0,21043.522990943584,1.3847660034671982,-0.0,0.0,-15453.9206099854,0.0,3.7290914750567175,0.0,0.0,0.0,3.7290914750567175,1.0,0.4419875074010235,0.7052868456500315,0.0,0.0,0.0,"[0.17768029844284783, 0.5635071022728368, 0.30917380840139685, 0.27218789603852045, 0.4763103028215738, 0.17151957576650645, 0.35142826041104414, 0.3656186993933517]",22.18,0.0,0.0,0.0,1698.8091192829677,122.06419024027467,-864.5186658441293,-953.1784364578073,0.0,0.0,0.0,0.0,0.0,0.0,0.0,1.4,21.70638633733646,0.0,21.289322234760476,0.0,1.4,22.18,20.44,22.14,21.57,22.1,0.88,1.4,0.0,-615.41,-718.08,0.0,186.0,29.0,1172.0,0.0,0.0,0.0,0.0,0.0,0.0,0.0,0.0,0.0,0.0,0.0,0.0,0.0,0.0
117.0,3938.0,6076.21608017663,2107.834999775747,-0.0,0.0,0.0,0.0,5716.462024315061,0.0,0.0,0.0,5716.46202431506,1.0,0.4419875074010235,0.7052868456500315,0.0,0.0,0.0,"[0.17768029844284783, 0.5635071022728368, 0.30917380840139685, 0.27218789603852045, 0.4763103028215738, 0.17151957576650645, 0.35142826041104414, 0.3656186993933517]",22.17,0.0,0.0,0.0,627.1672300536517,91.05013177461122,-855.9627678271606,-950.3773878633629,415.88605120115164,0.0,0.0,0.0,0.0,0.0,0.0,1.6,21.70208398698709,0.0,21.28841924320501,0.0,1.6,22.17,20.45,22.13,21.56,22.08,1.07,1.6,0.0,-609.32,-710.97,0.0,200.0,16.0,363.0,0.0,0.0,0.0,0.0,0.0,0.0,0.0,0.0,0.0,0.0,0.0,0.0,0.0,0.0
118.0,3647.0,5154.2362061494805,0.0,-0.0,0.0,0.0,0.0,1333.318522606859,0.0,0.0,0.0,0.0,1.0,0.4419875074010235,0.7052868456500315,5925.860100474932,1481.465025118733,7407.325125593664,"[0.17768029844284783, 0.5635071022728368, 0.30917380840139685, 0.27218789603852045, 0.4763103028215738, 0.17151957576650645, 0.35142826041104414, 0.3656186993933517]",21.83,0.0,0.0,0.0,738.9180490720591,125.70482168807126,-837.4846812845215,-487.62113294470737,464.0872044720768,0.0,0.0,0.0,0.0,0.0,0.0,1.7,21.590963362891387,0.0,21.282063542706965,0.0,1.7,21.83,20.45,22.11,21.44,21.99,1.15,1.7,0.0,-596.16,-695.62,0.0,292.0,19.0,398.0,0.0,0.0,0.0,0.0,0.0,0.0,0.0,0.0,0.0,0.0,0.0,0.0,0.0,0.0
119.0,2794.0,2808.040201005025,0.0,-0.0,0.0,0.0,0.0,2448.942760635281,0.0,2448.9427606352815,0.0,0.0,1.0,0.431575335799683,0.6910740176616933,0.0,0.0,0.0,"[0.17768029844284783, 0.5635071022728368, 0.30917380840139685, 0.27218789603852045, 0.4763103028215738, 0.17151957576650645, 0.35142826041104414, 0.3656186993933517]",21.82,0.0,0.0,0.0,588.9570191510661,108.36030394149314,-828.9287832675512,-499.2431822112491,643.5952997579463,0.0,0.0,0.0,0.0,0.0,0.0,1.9,21.57938943232533,0.0,21.27168393584384,0.0,1.9,21.82,20.46,22.08,21.46,21.99,1.35,1.9,0.0,-590.07,-688.52,0.0,260.0,14.0,303.0,0.0,0.0,0.0,0.0,0.0,0.0,0.0,0.0,0.0,0.0,0.0,0.0,0.0,0.0
120.0,1189.0,0.0,2896.5367212640085,-0.0,0.0,4085.5367212640085,0.0,7827.8125727362285,0.0,0.0,0.0,7827.812572736228,0.8262952074292513,0.431575335799683,0.6910740176616933,0.0,0.0,0.0,"[0.17768029844284783, 0.5635071022728368, 0.30917380840139685, 0.27218789603852045, 0.4763103028215738, 0.17151957576650645, 0.35142826041104414, 0.3656186993933517]",21.82,0.0,0.0,0.0,295.9184164202077,62.74937410494706,-845.5720014406389,-514.1666325839407,1713.7422577111968,0.0,0.0,0.0,0.0,0.0,0.0,1.5,21.57205393678104,0.0,21.264429689427526,0.0,1.5,21.82,20.46,22.06,21.47,21.99,0.92,1.5,42.74,-601.92,-702.34,0.0,160.0,5.0,137.0,0.0,0.0,0.0,0.0,0.0,0.0,0.0,0.0,0.0,0.0,0.0,0.0,0.0,0.0
121.0,940.0,0.0,3275.9379928153867,-0.0,0.0,4215.937992815387,0.0,8759.442736562214,0.0,0.0,0.0,8759.442736562214,0.6470461431088692,0.431575335799683,0.6910740176616933,0.0,0.0,0.0,"[0.17768029844284783, 0.5635071022728368, 0.30917380840139685, 0.27218789603852045, 0.4763103028215738, 0.17151957576650645, 0.35142826041104414, 0.3656186993933517]",22.18,0.0,0.0,0.0,291.2123794156613,59.555235193200986,-872.8402749306731,-980.3329637062088,1509.4079377784165,0.0,0.0,0.0,0.0,0.0,0.0,1.2,21.692821648007904,0.0,21.28288487531866,0.0,1.2,22.18,20.48,22.08,21.78,22.2,0.6,1.2,11.31,-621.33,-724.99,0.0,160.0,0.0,134.0,0.0,0.0,0.0,0.0,0.0,0.0,0.0,0.0,0.0,0.0,0.0,0.0,0.0,0.0
122.0,889.0,0.0,2935.028397341258,-0.0,0.0,3824.028397341258,0.0,7735.971606856551,0.0,0.0,0.0,7735.97160685655,0.48445990172531234,0.431575335799683,0.6910740176616933,0.0,0.0,0.0,"[0.17768029844284783, 0.5635071022728368, 0.30917380840139685, 0.27218789603852045, 0.4763103028215738, 0.17151957576650645, 0.35142826041104414, 0.3656186993933517]",22.18,0.0,0.0,0.0,340.59064828425994,60.826021641960175,-889.4834931037608,-950.7203218624697,1445.9388737897063,0.0,0.0,0.0,0.0,0.0,0.0,0.8,21.70791205504054,0.0,21.30381795675622,0.0,0.8,22.18,20.5,22.11,21.76,22.2,0.19,0.8,558.56,-633.18,-738.81,0.0,160.0,0.0,171.0,0.0,0.0,0.0,0.0,0.0,0.0,0.0,0.0,0.0,0.0,0.0,0.0,0.0,0.0
123.0,700.0,0.0,2340.4862303899763,-0.0,0.0,3040.4862303899763,0.0,6146.600490827812,0.0,0.0,0.0,6146.600490827812,0.3551875279842419,0.431575335799683,0.6910740176616933,0.0,0.0,0.0,"[0.17768029844284783, 0.5635071022728368, 0.30917380840139685, 0.27218789603852045, 0.4763103028215738, 0.17151957576650645, 0.35142826041104414, 0.3656186993933517]",22.18,0.0,0.0,0.0,291.5635762070453,66.93953482788277,-893.6442976470329,-924.71447831094,762.4326571250755,0.0,0.0,0.0,0.0,0.0,0.0,0.7,21.72105992000275,0.0,21.322120726411338,0.0,0.7,22.18,20.52,22.13,21.76,22.21,0.09,0.7,775.83,-636.14,-742.27,0.0,160.0,12.0,133.0,0.0,0.0,0.0,0.0,0.0,0.0,0.0,0.0,0.0,0.0,0.0,0.0,0.0,0.0
124.0,1078.0,0.0,3008.821556900532,-0.0,0.0,4086.821556900532,0.0,7844.419127865318,0.0,0.0,0.0,7844.419127865318,0.1814281080479948,0.431575335799683,0.6910740176616934,0.0,0.0,0.0,"[0.17768029844284783, 0.5635071022728368, 0.30917380840139685, 0.27218789603852045, 0.4763103028215738, 0.17151957576650645, 0.35142826041104414, 0.3656186993933517]",21.82,0.0,0.0,0.0,221.25397857195682,66.97388040757895,-887.1800468733584,-441.8803119843932,1754.00061800654,0.0,0.0,0.0,0.0,0.0,0.0,0.5,21.608900497651447,0.0,21.31789783918592,0.0,0.5,21.82,20.52,22.12,21.5,22.02,-0.09,0.5,883.84,-631.54,-736.9,0.0,160.0,15.0,80.0,0.0,0.0,0.0,0.0,0.0,0.0,0.0,0.0,0.0,0.0,0.0,0.0,0.0,0.0
125.0,1828.0,15175.513330887698,4422.256938620694,-0.0,0.0,-8849.378825612564,0.0,11445.125628058038,0.0,0.0,0.0,11445.12562805804,0.5427777434271746,0.431575335799683,0.6910740176616934,0.0,0.0,0.0,"[0.17768029844284783, 0.5635071022728368, 0.30917380840139685, 0.27218789603852045, 0.4763103028215738, 0.17151957576650645, 0.35142826041104414, 0.3656186993933517]",22.18,0.0,0.0,0.0,234.4589779279974,66.6991157700094,-910.2875158201206,-912.3265287838906,1529.2982192470035,0.0,0.0,0.0,0.0,0.0,0.0,0.3,21.72746241483771,0.0,21.333050003252158,0.0,0.3,22.18,20.53,22.13,21.82,22.24,-0.3,0.3,1999.17,-647.99,-756.09,0.0,160.0,14.0,90.0,0.0,0.0,0.0,0.0,0.0,0.0,0.0,0.0,0.0,0.0,0.0,0.0,0.0,0.0
126.0,1272.0,0.0,2339.667340705072,-0.0,0.0,3611.667340705072,0.0,6032.926083422374,0.0,0.0,0.0,6032.926083422375,0.3892204585332515,0.431575335799683,0.6910740176616934,0.0,0.0,0.0,"[0.17768029844284783, 0.5635071022728368, 0.30917380840139685, 0.27218789603852045, 0.4763103028215738, 0.17151957576650645, 0.35142826041104414, 0.3656186993933517]",22.18,0.0,0.0,0.0,322.8903299985034,110.00889176691048,-914.4483203633926,-886.7178934069135,675.9079412098072,0.0,0.0,0.0,0.0,0.0,0.0,0.2,21.74040081816387,0.0,21.350809047805832,0.0,0.2,22.18,20.55,22.15,21.79,22.23,-0.38,0.2,0.0,-650.95,-759.55,0.0,254.0,31.0,105.0,0.0,0.0,0.0,0.0,0.0,0.0,0.0,0.0,0.0,0.0,0.0,0.0,0.0,0.0
127.0,1011.0,0.0,2327.3599688477207,-0.0,0.0,3338.3599688477207,0.0,5979.003594610593,0.0,0.0,0.0,5979.003594610593,0.24728338502782118,0.431575335799683,0.6910740176616934,0.0,0.0,0.0,"[0.17768029844284783, 0.5635071022728368, 0.30917380840139685, 0.27218789603852045, 0.4763103028215738, 0.17151957576650645, 0.35142826041104414, 0.3656186993933517]",21.82,0.0,0.0,0.0,320.01051630915407,137.51970110356214,-903.8232650464461,-405.79454902607944,868.2567225286972,0.0,0.0,0.0,0.0,0.0,0.0,0.1,21.62725242623011,0.0,21.34508769813162,0.0,0.1,21.82,20.55,22.14,21.52,22.04,-0.5,0.1,735.9,-643.39,-750.72,0.0,284.0,60.0,84.0,0.0,0.0,0.0,0.0,0.0,0.0,0.0,0.0,0.0,0.0,0.0,0.0,0.0,0.0
128.0,4409.0,5845.331875230506,1407.1052158543541,-0.0,0.0,0.0,0.0,3628.2772388869644,0.0,0.0,0.0,3628.2772388869644,0.0,0.431575335799683,0.6910740176616933,0.0,0.0,0.0,"[0.17768029844284783, 0.5635071022728368, 0.30917380840139685, 0.27218789603852045, 0.4763103028215738, 0.17151957576650645, 0.35142826041104414, 0.3656186993933517]",21.82,0.0,0.0,1.6941405833488123,315.65567609599174,127.28471835409621,-899.6624605031742,-420.3657791232549,890.396220394903,0.0,0.0,0.0,0.0,0.0,0.0,0.2,21.619851274621855,0.0,21.33670763131414,0.0,0.2,21.82,20.55,22.12,21.56,22.06,-0.36,0.2,842.22,-640.43,-747.27,2.47,166.0,106.0,138.0,0.0,0.0,0.0,0.0,0.0,0.0,0.0,0.0,0.0,0.0,0.0,0.0,0.0,0.0
129.0,3634.0,0.0,24.85696335053178,-414.78145245999843,4073.63841581053,0.0,0.0,70.25587258457573,0.0,0.0,0.0,70.25587258457573,0.0,0.431575335799683,0.6925257527453033,0.0,0.0,0.0,"[0.17768029844284783, 0.5635071022728368, 0.30917380840139685, 0.27218789603852045, 0.4763103028215738, 0.17151957576650645, 0.35142826041104414, 0.3656186993933517]",21.82,0.0,0.0,481.0053291595549,1498.767426910608,138.82483313201755,-791.4815423781039,-431.22096183198227,-163.83445628708043,0.0,0.0,0.0,0.0,0.0,0.0,2.8,21.61317279321606,0.0,21.32919189032787,0.0,2.8,21.82,20.55,22.11,21.56,22.05,2.52,2.8,190.36,-563.42,-657.41,700.24,140.0,89.0,1040.0,0.0,0.0,0.0,0.0,0.0,0.0,0.0,0.0,0.0,0.0,0.0,0.0,0.0,0.0
130.0,4323.0,0.0,504.15804317052994,-5364.395506457373,10191.553549627903,0.0,0.0,1545.1126970112975,0.0,0.0,0.0,1545.1126970112978,0.0,0.431575335799683,0.7113011370179041,0.0,0.0,0.0,"[0.17768029844284783, 0.5635071022728368, 0.30917380840139685, 0.27218789603852045, 0.4763103028215738, 0.17151957576650645, 0.35142826041104414, 0.3656186993933517]",22.18,0.0,0.0,917.9402340767838,482.4039126451428,56.05198606418918,-702.2472886565234,-901.5160855979321,0.0,0.0,0.0,0.0,0.0,0.0,0.0,5.3,21.730584598066926,0.0,21.343640013299883,0.0,5.3,22.18,20.57,22.12,21.79,22.21,5.23,5.3,0.0,-499.9,-583.29,1336.33,85.0,26.0,314.0,0.0,0.0,0.0,0.0,0.0,0.0,0.0,0.0,0.0,0.0,0.0,0.0,0.0,0.0
131.0,5410.0,0.0,1585.249851815941,-3140.742178070952,10135.992029886893,0.0,0.0,5085.06676807452,0.0,0.0,0.0,5085.066768074519,0.0,0.431575335799683,0.7222937346411524,0.0,0.0,0.0,"[0.17768029844284783, 0.5635071022728368, 0.30917380840139685, 0.27218789603852045, 0.4763103028215738, 0.17151957576650645, 0.35142826041104414, 0.3656186993933517]",22.09,0.0,0.0,810.6965724153621,391.86537982633234,48.80506874829216,-636.1897751127722,-728.5524293929636,0.0,0.0,0.0,0.0,0.0,0.0,0.0,6.8,21.729482016617922,0.0,21.379276380682438,0.0,6.8,22.09,20.6,22.16,21.88,22.3,6.65,6.8,0.0,-452.87,-528.42,1180.21,119.0,0.0,231.0,0.0,0.0,0.0,0.0,0.0,0.0,0.0,0.0,0.0,0.0,0.0,0.0,0.0,0.0
132.0,4019.0,0.0,733.6462058336275,-5263.417158166223,10016.06336399985,0.0,0.0,2423.285825199292,0.0,0.0,0.0,2423.2858251992916,0.0,0.431575335799683,0.7407156946947342,0.0,0.0,0.0,"[0.17768029844284783, 0.5635071022728368, 0.30917380840139685, 0.27218789603852045, 0.4763103028215738, 0.17151957576650645, 0.35142826041104414, 0.3656186993933517]",22.02,0.0,0.0,774.9819712366179,423.6838091257281,66.21827765426269,-591.7155795305315,-596.3796650120435,0.0,0.0,0.0,0.0,0.0,0.0,0.0,7.8,21.72674810882745,0.0,21.40621764185524,0.0,7.8,22.02,20.63,22.18,21.82,22.26,7.64,7.8,0.0,-421.21,-491.48,1128.21,170.0,0.0,228.0,0.0,0.0,0.0,0.0,0.0,0.0,0.0,0.0,0.0,0.0,0.0,0.0,0.0,0.0
133.0,6223.0,0.0,332.92053996518507,-2859.383245525289,9415.303785490474,0.0,0.0,1112.3556600797012,0.0,0.0,0.0,1112.355660079701,0.0,0.431575335799683,0.7479902999024692,0.0,0.0,0.0,"[0.17768029844284783, 0.5635071022728368, 0.30917380840139685, 0.27218789603852045, 0.4763103028215738, 0.17151957576650645, 0.35142826041104414, 0.3656186993933517]",22.05,0.0,0.0,743.374177796146,4633.760704879545,170.66318551038967,-576.1661684628698,-598.9620633876464,-4078.0307964950443,0.0,0.0,0.0,0.0,0.0,0.0,8.2,21.751570807370566,0.0,21.43188515509963,0.0,8.2,22.05,20.66,22.2,21.84,22.28,8.06,8.2,0.0,-410.14,-478.57,1082.2,158.0,0.0,3389.0,0.0,0.0,0.0,0.0,0.0,0.0,0.0,0.0,0.0,0.0,0.0,0.0,0.0,0.0
134.0,2261.0,10705.355129284839,760.9968706532018,-0.0,8370.168517014787,-16000.0,0.0,2542.646291702372,0.0,0.0,0.0,2542.646291702372,0.6533333333333333,0.431575335799683,0.7479902999024692,0.0,0.0,0.0,"[0.17768029844284783, 0.5635071022728368, 0.30917380840139685, 0.27218789603852045, 0.4763103028215738, 0.17151957576650645, 0.35142826041104414, 0.3656186993933517]",22.18,0.0,0.0,681.6331773550498,577.2972856771153,65.29094700246544,-581.5839569016372,-734.8928162150394,0.0,0.0,0.0,0.0,0.0,0.0,0.0,8.2,21.813389921166454,0.0,21.464744874624675,0.0,8.2,22.18,20.7,22.23,21.96,22.36,7.96,8.2,0.0,-414.0,-483.07,992.32,155.0,0.0,351.0,0.0,0.0,0.0,0.0,0.0,0.0,0.0,0.0,0.0,0.0,0.0,0.0,0.0,0.0
135.0,2176.0,0.0,3197.2873387009386,-0.0,5373.287338700939,0.0,0.0,10377.984146508115,0.0,0.0,0.0,10377.984146508115,0.6533333333333333,0.431575335799683,0.7479902999024692,0.0,0.0,0.0,"[0.17768029844284783, 0.5635071022728368, 0.30917380840139685, 0.27218789603852045, 0.4763103028215738, 0.17151957576650645, 0.35142826041104414, 0.3656186993933517]",22.17,0.0,0.0,664.8368122631383,626.0434003212226,116.32847843101025,-622.8831382619885,-690.7282028738064,-50.75063034573586,0.0,0.0,0.0,0.0,0.0,0.0,7.2,21.828642252468267,0.0,21.49124330377687,0.0,7.2,22.17,20.73,22.25,21.9,22.33,6.94,7.2,0.0,-443.4,-517.37,967.86,308.0,0.0,307.0,0.0,0.0,0.0,0.0,0.0,0.0,0.0,0.0,0.0,0.0,0.0,0.0,0.0,0.0
136.0,4979.0,0.0,1401.8027793697795,-0.0,0.0,6380.802779369779,0.0,4362.978394886745,0.0,0.0,0.0,4362.978394886745,0.3820406981560468,0.431575335799683,0.7414305331386208,0.0,0.0,0.0,"[0.17768029844284783, 0.5635071022728368, 0.30917380840139685, 0.27218789603852045, 0.4763103028215738, 0.17151957576650645, 0.35142826041104414, 0.3656186993933517]",22.18,0.0,0.0,0.0,3064.894398408677,179.45565391261545,-681.4432659401637,-668.565996214103,-1873.24096932165,0.0,0.0,0.0,0.0,0.0,0.0,5.8,21.848000284503623,0.0,21.516757015925872,0.0,5.8,22.18,20.76,22.27,21.94,22.36,5.12,5.8,0.0,-485.09,-566.01,0.0,260.0,26.0,2157.0,0.0,0.0,0.0,0.0,0.0,0.0,0.0,0.0,0.0,0.0,0.0,0.0,0.0,0.0
137.0,3064.0,4759.406434991293,1671.6094028163366,-0.0,0.0,0.0,0.0,5138.98209694491,0.0,0.0,0.0,5138.98209694491,0.3820406981560468,0.431575335799683,0.7228445273077171,0.0,0.0,0.0,"[0.17768029844284783, 0.5635071022728368, 0.30917380840139685, 0.27218789603852045, 0.4763103028215738, 0.17151957576650645, 0.35142826041104414, 0.3656186993933517]",22.18,0.0,0.0,0.0,1665.2347060266513,214.04165266668312,-698.0864841132513,-676.4337334328983,-479.58980937524154,0.0,0.0,0.0,0.0,0.0,0.0,5.4,21.844205977244265,0.0,21.514823200439587,0.0,5.4,22.18,20.77,22.26,21.73,22.2,4.72,5.4,0.0,-496.93,-579.84,0.0,324.0,107.0,1066.0,0.0,0.0,0.0,0.0,0.0,0.0,0.0,0.0,0.0,0.0,0.0,0.0,0.0,0.0
138.0,2638.0,0.0,780.0514215456476,-0.0,0.0,3418.051421545648,0.0,2368.3444190897,0.0,0.0,0.0,2368.3444190897,0.23671538261414002,0.431575335799683,0.7228445273077171,0.0,0.0,0.0,"[0.17768029844284783, 0.5635071022728368, 0.30917380840139685, 0.27218789603852045, 0.4763103028215738, 0.17151957576650645, 0.35142826041104414, 0.3656186993933517]",22.18,0.0,0.0,0.0,356.3945038965425,111.48575169384684,-714.7297022863393,-681.4884057247519,236.1524460842636,0.0,0.0,0.0,0.0,0.0,0.0,5.0,21.84181554886432,0.0,21.51435323910144,0.0,5.0,22.18,20.78,22.24,21.75,22.2,4.35,5.0,372.39,-508.78,-593.66,0.0,101.0,113.0,202.0,0.0,0.0,0.0,0.0,0.0,0.0,0.0,0.0,0.0,0.0,0.0,0.0,0.0,0.0
139.0,5279.0,25113.033531808163,8967.306398372879,-0.0,0.0,-4729.641965776238,0.0,2837.9549216448404,30057.6,0.0,0.0,26884.03492164484,0.4108668267372795,0.431575335799683,0.7228445273077171,24046.08,6011.52,30057.6,"[0.17768029844284783, 0.5635071022728368, 0.30917380840139685, 0.27218789603852045, 0.4763103028215738, 0.17151957576650645, 0.35142826041104414, 0.3656186993933517]",21.82,0.0,0.0,0.0,517.1021556338876,179.21523485474205,-716.5870605992088,-213.10175548599182,254.4429787393733,0.0,0.0,0.0,0.0,0.0,0.0,4.6,21.722457384530312,0.0,21.501692184072382,0.0,4.6,21.82,20.79,22.22,21.56,22.06,3.98,4.6,0.0,-510.1,-595.2,0.0,202.0,163.0,264.0,0.0,0.0,0.0,0.0,0.0,0.0,0.0,0.0,0.0,0.0,0.0,0.0,0.0,0.0
140.0,5641.0,29763.856818012027,7974.03753392197,-0.0,0.0,-16000.0,0.0,1552.8421948240675,0.0,-22049.291307545314,0.0,23602.133502369383,0.802055965005279,0.5216099419721597,0.7228445273077171,0.0,0.0,0.0,"[0.17768029844284783, 0.5635071022728368, 0.30917380840139685, 0.27218789603852045, 0.12321627021878712, 0.17151957576650645, 0.3514282604110406, 0.3656186993933517]",21.82,0.0,0.0,0.0,661.7952336841198,194.32728992106757,-733.2302787722965,-241.13711843277858,650.6072931959862,0.0,0.0,0.0,0.0,0.0,0.0,4.2,21.708488210431,0.0,21.48572660081393,0.0,4.2,21.82,20.79,22.18,21.59,22.06,3.61,4.2,0.0,-521.95,-609.03,0.0,288.0,136.0,330.0,0.0,0.0,0.0,0.0,0.0,0.0,0.0,0.0,0.0,0.0,0.0,0.0,0.0,0.0
141.0,3285.0,0.0,738.3151350989301,-0.0,0.0,4023.31513509893,0.0,2157.164241566241,0.0,0.0,0.0,2157.164241566241,0.630996648036787,0.5216099419721597,0.7113649354709823,0.0,0.0,0.0,"[0.17768029844284783, 0.5635071022728368, 0.30917380840139685, 0.27218789603852045, 0.12321627021878712, 0.17151957576650645, 0.3514282604110406, 0.3656186993933517]",22.08,0.0,0.0,0.0,731.8941132443779,134.6346724090818,-760.5550114008578,-599.6579002492462,705.2935438415332,0.0,0.0,0.0,0.0,0.0,0.0,3.8,21.78483023801278,0.0,21.485388242066545,0.0,3.8,22.08,20.8,22.18,21.78,22.18,3.23,3.8,0.0,-541.4,-631.72,0.0,218.0,73.0,426.0,0.0,0.0,0.0,0.0,0.0,0.0,0.0,0.0,0.0,0.0,0.0,0.0,0.0,0.0
142.0,2676.0,0.0,0.0,-0.0,0.0,2676.0,0.0,5082.658351851969,0.0,5082.658351851969,0.0,0.0,0.5172211378327054,0.5,0.7113649354709823,0.0,0.0,0.0,"[0.17768029844284783, 0.5635071022728368, 0.30917380840139685, 0.27218789603852045, 0.12321627021878712, 0.17151957576650645, 0.3514282604110406, 0.3656186993933517]",22.18,0.0,0.0,0.0,656.7379998881894,97.88490213415386,-781.3025749786902,-729.1836178912248,62.07874019442541,0.0,0.0,0.0,0.0,0.0,0.0,3.4,21.818423352171823,0.0,21.491367097405863,0.0,3.4,22.18,20.8,22.18,21.81,22.2,2.83,3.4,0.0,-556.17,-648.96,0.0,162.0,46.0,402.0,0.0,0.0,0.0,0.0,0.0,0.0,0.0,0.0,0.0,0.0,0.0,0.0,0.0,0.0
143.0,2047.0,3162.2131979861792,1099.4021319962483,-0.0,0.0,0.0,0.0,3128.318756702418,0.0,0.0,0.0,3128.3187567024183,0.5172211378327054,0.5,0.7113649354709823,0.0,0.0,0.0,"[0.17768029844284783, 0.5635071022728368, 0.30917380840139685, 0.27218789603852045, 0.12321627021878712, 0.17151957576650645, 0.3514282604110406, 0.3656186993933517]",21.82,0.0,0.0,0.0,405.70253340686435,87.37515474711842,-783.1599332915598,-263.1379055574465,563.4934414568737,0.0,0.0,0.0,0.0,0.0,0.0,3.0,21.69789917678078,0.0,21.47600148385309,0.0,3.0,21.82,20.8,22.15,21.53,22.0,2.43,3.0,0.0,-557.49,-650.5,0.0,210.0,14.0,192.0,0.0,0.0,0.0,0.0,0.0,0.0,0.0,0.0,0.0,0.0,0.0,0.0,0.0,0.0
144.0,1630.0,14587.391773297612,1061.2990062524814,-0.0,0.0,-11823.155808178642,0.0,2969.3089068501827,0.0,0.0,0.0,2969.3089068501827,1.0,0.5,0.7113649354709823,0.0,0.0,0.0,"[0.17768029844284783, 0.5635071022728368, 0.30917380840139685, 0.27218789603852045, 0.12321627021878712, 0.17151957576650645, 0.3514282604110406, 0.3656186993933517]",21.82,0.0,0.0,0.0,234.52921728627425,61.16947743892211,-803.9639560079195,-287.45105222015286,802.9084246848134,0.0,0.0,0.0,0.0,0.0,0.0,2.5,21.685845621999526,0.0,21.461277515998475,0.0,2.5,21.82,20.8,22.13,21.59,22.03,1.96,2.5,0.0,-572.3,-667.78,0.0,160.0,5.0,91.0,0.0,0.0,0.0,0.0,0.0,0.0,0.0,0.0,0.0,0.0,0.0,0.0,0.0,0.0
145.0,1133.0,0.0,2104.8067714216295,-0.0,0.0,3237.8067714216295,0.0,5808.57829407595,0.0,0.0,0.0,5808.57829407595,0.8623381474735702,0.5,0.7113649354709823,0.0,0.0,0.0,"[0.17768029844284783, 0.5635071022728368, 0.30917380840139685, 0.27218789603852045, 0.12321627021878712, 0.17151957576650645, 0.3514282604110406, 0.3656186993933517]",21.82,0.0,0.0,0.0,279.2014491503265,59.24612497593523,-820.6071741810072,-306.5275013628815,795.6530709790186,0.0,0.0,0.0,0.0,0.0,0.0,2.1,21.67638589252989,0.0,21.449532588087763,0.0,2.1,21.82,20.79,22.11,21.61,22.03,1.6,2.1,95.63,-584.15,-681.6,0.0,160.0,0.0,125.0,0.0,0.0,0.0,0.0,0.0,0.0,0.0,0.0,0.0,0.0,0.0,0.0,0.0,0.0
146.0,1115.0,0.0,2127.056485264074,-0.0,0.0,3242.056485264074,0.0,5768.590816111684,0.0,0.0,0.0,5768.590816111684,0.7244956098347916,0.5,0.7113649354709823,0.0,0.0,0.0,"[0.17768029844284783, 0.5635071022728368, 0.30917380840139685, 0.27218789603852045, 0.12321627021878712, 0.17151957576650645, 0.3514282604110406, 0.3656186993933517]",21.82,0.0,0.0,0.0,229.82318028172787,57.97533852717604,-841.411196897367,-325.0295996877122,1590.7523761798227,0.0,0.0,0.0,0.0,0.0,0.0,1.6,21.667260258414736,0.0,21.43796730625382,0.0,1.6,21.82,20.79,22.09,21.6,22.02,1.13,1.6,1398.94,-598.96,-698.88,0.0,160.0,0.0,88.0,0.0,0.0,0.0,0.0,0.0,0.0,0.0,0.0,0.0,0.0,0.0,0.0,0.0,0.0
147.0,629.0,10100.643509243255,2674.094001936832,-0.0,0.0,-6747.0462897602065,0.0,7201.174148668471,0.0,0.0,0.0,7201.1741486684705,1.0,0.5,0.7113649354709823,0.0,0.0,0.0,"[0.17768029844284783, 0.5635071022728368, 0.30917380840139685, 0.27218789603852045, 0.12321627021878712, 0.17151957576650645, 0.3514282604110406, 0.3656186993933517]",22.18,0.0,0.0,0.0,163.09578991875676,56.25805954236632,-864.5186658441293,-798.3629147232621,744.8488296656313,0.0,0.0,0.0,0.0,0.0,0.0,1.4,21.78437178491049,0.0,21.449825293194497,0.0,1.4,22.18,20.79,22.11,21.89,22.22,0.92,1.4,544.94,-615.41,-718.08,0.0,160.0,0.0,38.0,0.0,0.0,0.0,0.0,0.0,0.0,0.0,0.0,0.0,0.0,0.0,0.0,0.0,0.0
148.0,746.0,0.0,2457.115599417129,-0.0,0.0,3203.115599417129,0.0,6570.015500113586,0.0,0.0,0.0,6570.015500113586,0.8638131122696799,0.5,0.7113649354709823,0.0,0.0,0.0,"[0.17768029844284783, 0.5635071022728368, 0.30917380840139685, 0.27218789603852045, 0.12321627021878712, 0.17151957576650645, 0.3514282604110406, 0.3656186993933517]",21.82,0.0,0.0,0.0,324.5760745971468,60.41387468560584,-858.0544150704548,-316.11455401444084,1044.4290523804136,0.0,0.0,0.0,0.0,0.0,0.0,1.2,21.67190849050551,0.0,21.443580024016953,0.0,1.2,21.82,20.79,22.1,21.59,22.02,0.76,1.2,179.4,-610.81,-712.71,0.0,160.0,0.0,159.0,0.0,0.0,0.0,0.0,0.0,0.0,0.0,0.0,0.0,0.0,0.0,0.0,0.0,0.0
149.0,716.0,0.0,2947.3449689342506,-0.0,0.0,3663.3449689342506,0.0,7796.5328307682685,0.0,0.0,0.0,7796.5328307682685,0.7080586493047883,0.5,0.7113649354709823,0.0,0.0,0.0,"[0.17768029844284783, 0.5635071022728368, 0.30917380840139685, 0.27218789603852045, 0.12321627021878712, 0.17151957576650645, 0.3514282604110406, 0.3656186993933517]",21.95,0.0,0.0,0.0,288.82424123424966,60.72298490287159,-875.7390076947976,-495.9661598493908,781.1507926798296,0.0,0.0,0.0,0.0,0.0,0.0,0.9,21.706492100621762,0.0,21.439068367377466,0.0,0.9,21.95,20.78,22.09,21.7,22.09,0.47,0.9,0.0,-623.4,-727.4,0.0,160.0,2.0,132.0,0.0,0.0,0.0,0.0,0.0,0.0,0.0,0.0,0.0,0.0,0.0,0.0,0.0,0.0
150.0,714.0,0.0,1456.9426701694724,-0.0,0.0,2170.9426701694724,0.0,3840.122003405044,0.0,0.0,0.0,3840.122003405044,0.6157566650288754,0.5,0.7113649354709823,0.0,0.0,0.0,"[0.17768029844284783, 0.5635071022728368, 0.30917380840139685, 0.27218789603852045, 0.12321627021878712, 0.17151957576650645, 0.3514282604110406, 0.3656186993933517]",21.82,0.0,0.0,0.0,259.8856256242032,114.7142361852891,-874.6976332435424,-337.9484401171384,851.5339439193394,0.0,0.0,0.0,0.0,0.0,0.0,0.8,21.661059529331343,0.0,21.42902635105004,0.0,0.8,21.82,20.78,22.08,21.59,22.01,0.4,0.8,0.0,-622.65,-726.53,0.0,298.0,18.0,36.0,0.0,0.0,0.0,0.0,0.0,0.0,0.0,0.0,0.0,0.0,0.0,0.0,0.0,0.0
151.0,2975.0,6085.820922296801,3080.3918176853167,-0.0,0.0,0.0,0.0,8060.379140337058,0.0,0.0,0.0,8060.379140337058,0.6157566650288754,0.5,0.7113649354709823,0.0,0.0,0.0,"[0.17768029844284783, 0.5635071022728368, 0.30917380840139685, 0.27218789603852045, 0.12321627021878712, 0.17151957576650645, 0.3514282604110406, 0.3656186993933517]",21.82,0.0,0.0,0.0,438.36383500558185,141.46944276862448,-883.0192423300864,-350.87813517352447,1375.9911674105886,0.0,0.0,0.0,0.0,0.0,0.0,0.6,21.65462535787793,0.0,21.42036063255079,0.0,0.6,21.82,20.77,22.07,21.62,22.03,0.21,0.6,1584.55,-628.58,-733.44,0.0,300.0,53.0,165.0,0.0,0.0,0.0,0.0,0.0,0.0,0.0,0.0,0.0,0.0,0.0,0.0,0.0,0.0
