,load_elec,grid,hp_elec,ev,pv,bat_pow,cool,load_th_sh,load_th_dhw,tes_pow,dh,hp_th,bat_soc,tes_soc,ev_soc,eh_th_in,eh_elec_in,eh_th_out,temp_slack,temp_zone_1,temp_zone_2,temp_update,Qsolar_1,QconvInt_1,QradInt_1,Qvent_1,Qconduc_1,Qheating_1,Qsolar_2,QconvInt_2,QradInt_2,Qvent_2,Qconduc_2,Qheating_2,temp_amb,temp_aggregate_1,temp_aggregate_2,temp_wall_1,temp_wall_2,_Tamb,_Tz_1,_TEW_1,_TIW_1,_T1_1,_T2_1,_Taeq_1,_Tvent_1,_Qheating_1,_Qinfvent_1,_Qenvelope_1,_Qsolar_1,_Qint_people_1,_Qint_lighting_1,_Qint_appliances_1,_Tz_2,_TEW_2,_TIW_2,_T1_2,_T2_2,_Taeq_2,_Tvent_2,_Qheating_2,_Qinfvent_2,_Qenvelope_2,_Qsolar_2,_Qint_people_2,_Qint_lighting_2,_Qint_appliances_2
8.0,2346.0,0.0,8700.426452049052,-0.0,0.0,11046.426452049052,0.0,52858.29315864613,0.0,38386.5027735422,0.0,14471.79038510393,0.030339011392472304,0.3367920800444635,0.8,0.0,0.0,0.0,"[2.0, 2.0, 2.0, 2.0, 2.0, 2.0, 2.0, 2.0]",20.0,0.0,0.0,0.7792922355953545,164.48726651874114,52.281627288517555,-1247.6837248037693,-1753.6808614084118,11029.384431870401,0.0,0.0,0.0,0.0,0.0,0.0,-9.4,19.165290701529738,0.0,19.0,0.0,-9.4,20.0,18.0,20.0,20.0,20.0,-10.72,-9.4,1939.24,-870.79,-819.76,1.28,88.0,43.0,70.0,0.0,0.0,0.0,0.0,0.0,0.0,0.0,0.0,0.0,0.0,0.0,0.0,0.0,0.0
9.0,3968.0,11766.593956571303,0.0,-0.0,7.03873421223174,-7746.799721000679,0.0,38445.49722645782,0.0,38445.49722645782,0.0,0.0,0.3466666666666667,0.17333333333333328,0.8,0.0,0.0,0.0,"[2.0, 2.0, 2.0, 2.0, 2.0, 2.0, 2.0, 2.0]",24.0,0.0,0.0,23.956055811602486,100.87024009511649,2.7899708297816774,-1383.4860349864928,-6941.198781921568,8196.128565646732,0.0,0.0,0.0,0.0,0.0,0.0,-8.6,20.649474843018332,0.0,19.47807512696528,0.0,-8.6,24.0,18.27,20.68,21.93,22.84,-9.72,-8.6,2374.74,-965.57,-908.99,39.5,0.0,1.0,74.0,0.0,0.0,0.0,0.0,0.0,0.0,0.0,0.0,0.0,0.0,0.0,0.0,0.0,0.0
10.0,1521.0,19881.435854001378,18634.37470859839,-0.0,373.3460338670186,0.0,0.0,34193.0000262405,0.0,0.0,0.0,34193.0000262405,0.3466666666666667,0.17333333333333328,0.7999999999999999,0.0,0.0,0.0,"[2.0, 2.0, 2.0, 2.0, 2.0, 2.0, 2.0, 2.0]",24.0,0.0,0.0,65.9239024325196,238.20564511098183,32.600202630601146,-1341.0478130543916,-6297.041558109349,0.0,0.0,0.0,0.0,0.0,0.0,0.0,-7.6,20.96149971585622,0.0,19.950565634927557,0.0,-7.6,24.0,18.57,21.33,21.84,22.9,-8.64,-7.6,1526.22,-935.95,-881.1,108.69,95.0,0.0,125.0,0.0,0.0,0.0,0.0,0.0,0.0,0.0,0.0,0.0,0.0,0.0,0.0,0.0,0.0
11.0,1727.0,50497.92882982223,26821.25362080978,-0.0,1061.0224351366662,-16000.0,0.0,24228.179345210927,33791.04,0.0,0.0,51261.01134521093,1.0,0.17333333333333328,0.7999999999999999,27032.832000000002,6758.2080000000005,33791.04,"[2.0, 2.0, 2.0, 2.0, 2.0, 2.0, 2.0, 2.0]",20.46,0.0,0.0,91.52374748275953,442.74011632657675,50.94729341340458,-1156.7530775468265,-1049.2167013523635,677.0472041794134,0.0,0.0,0.0,0.0,0.0,0.0,-6.8,19.963146212747674,0.0,19.994999553226663,0.0,-6.8,20.46,18.69,21.3,19.66,20.82,-7.72,-6.8,8377.57,-807.33,-760.02,150.9,143.0,0.0,250.0,0.0,0.0,0.0,0.0,0.0,0.0,0.0,0.0,0.0,0.0,0.0,0.0,0.0,0.0
12.0,3070.0,4908.609881231471,4307.015271497921,-0.0,2492.948439672608,0.0,0.0,8477.965339761746,0.0,0.0,0.0,8477.965339761746,1.0,0.17333333333333328,0.7729591836734693,0.0,0.0,0.0,"[2.0, 2.0, 2.0, 2.0, 2.0, 2.0, 2.0, 2.0]",20.0,0.0,0.0,138.86476331069215,487.4439727323671,50.21947493607023,-1111.8814146210464,-442.34988035493967,874.1989456294001,0.0,0.0,0.0,0.0,0.0,0.0,-6.2,19.799682189365683,0.0,19.934187954895975,0.0,-6.2,20.0,18.73,21.14,19.56,20.68,-7.0,-6.2,0.0,-776.01,-730.54,228.96,137.0,0.0,286.0,0.0,0.0,0.0,0.0,0.0,0.0,0.0,0.0,0.0,0.0,0.0,0.0,0.0,0.0
13.0,4083.0,15075.80995483453,11353.786147291552,-0.0,436.3552422311943,0.0,0.0,22457.127943747953,0.0,0.0,0.0,22457.127943747953,1.0,0.17333333333333328,0.7729591836734693,0.0,0.0,0.0,"[2.0, 2.0, 2.0, 2.0, 2.0, 2.0, 2.0, 2.0]",20.0,0.0,0.0,67.83521902540917,1410.6789046256672,111.87176512026755,-1107.6375924278361,-495.5115364043172,8258.657629826868,0.0,0.0,0.0,0.0,0.0,0.0,-6.1,19.773924708369584,0.0,19.8812281198121,0.0,-6.1,20.0,18.77,20.99,19.6,20.65,-7.08,-6.1,0.0,-773.05,-727.75,111.84,280.0,0.0,889.0,0.0,0.0,0.0,0.0,0.0,0.0,0.0,0.0,0.0,0.0,0.0,0.0,0.0,0.0
14.0,2721.0,0.0,11100.830896770225,-0.0,4.7063317522995725,13817.124565017926,0.0,21427.659047870788,0.0,0.0,0.0,21427.659047870788,0.41253722087508815,0.17333333333333328,0.7663265306122448,0.0,0.0,0.0,"[2.0, 2.0, 2.0, 2.0, 2.0, 2.0, 2.0, 2.0]",24.0,0.0,0.0,21.375947122601776,650.0685785675337,108.14169542392901,-1298.6095911222906,-5858.770117203221,2255.813081458847,0.0,0.0,0.0,0.0,0.0,0.0,-6.6,21.173694226623006,0.0,20.22490670792852,0.0,-6.6,24.0,18.99,21.46,22.12,23.08,-7.72,-6.6,1974.49,-906.33,-853.22,35.24,326.0,0.0,306.0,0.0,0.0,0.0,0.0,0.0,0.0,0.0,0.0,0.0,0.0,0.0,0.0,0.0,0.0
15.0,4150.0,19133.162835932275,14887.497021752615,-0.0,0.0,0.0,0.0,27743.477374083814,0.0,0.0,0.0,27743.477374083814,0.41253722087508815,0.17333333333333328,0.7663265306122442,0.0,0.0,0.0,"[2.0, 2.0, 2.0, 2.0, 2.0, 2.0, 2.0, 2.0]",22.0,0.0,0.0,2.3369151392198493,488.3036622786322,84.42694337078476,-1243.319070049658,-2697.291801962344,7497.43427562679,0.0,0.0,0.0,0.0,0.0,0.0,-7.3,20.704398097452135,0.0,20.393043959556714,0.0,-7.3,22.0,19.15,21.64,20.79,21.83,-8.48,-7.3,8718.5,-867.75,-816.89,3.85,256.0,0.0,224.0,0.0,0.0,0.0,0.0,0.0,0.0,0.0,0.0,0.0,0.0,0.0,0.0,0.0,0.0
16.0,3949.0,8991.391865716338,4997.434906387756,-0.0,0.0,0.0,0.0,9360.572390609059,0.0,0.0,0.0,9360.572390609057,0.41253722087508815,0.17333333333333328,0.7663265306122442,0.0,0.0,0.0,"[2.0, 2.0, 2.0, 2.0, 2.0, 2.0, 2.0, 2.0]",24.0,0.0,0.0,0.0,207.97322940065573,35.086915761493515,-1324.0725242815513,-5169.527878864649,0.0,0.0,0.0,0.0,0.0,0.0,0.0,-7.2,21.508510075817036,0.0,20.717939606702096,0.0,-7.2,24.0,19.38,22.06,22.27,23.34,-8.36,-7.2,0.0,-924.11,-869.95,0.0,106.0,0.0,97.0,0.0,0.0,0.0,0.0,0.0,0.0,0.0,0.0,0.0,0.0,0.0,0.0,0.0,0.0
17.0,4063.0,0.0,5639.875434982075,-0.0,0.0,9702.875434982074,0.0,10671.445267904746,0.0,0.0,0.0,10671.445267904746,0.0,0.17333333333333328,0.7663265306122442,0.0,0.0,0.0,"[2.0, 2.0, 2.0, 2.0, 2.0, 2.0, 2.0, 2.0]",20.97,0.0,0.0,0.0,203.38821848724135,30.96261105659886,-1186.8166310668348,-717.8738580315378,876.7160201693291,0.0,0.0,0.0,0.0,0.0,0.0,-7.0,20.632847008701034,0.0,20.72221232337398,0.0,-7.0,20.97,19.46,21.98,20.31,21.42,-8.15,-7.0,5205.12,-828.31,-779.77,0.0,92.0,0.0,101.0,0.0,0.0,0.0,0.0,0.0,0.0,0.0,0.0,0.0,0.0,0.0,0.0,0.0,0.0
18.0,7291.0,7327.638190954774,0.0,-0.0,0.0,0.0,0.0,0.0,0.0,0.0,0.0,0.0,0.0,0.17333333333333328,0.7612244897959177,0.0,0.0,0.0,"[2.0, 2.0, 2.0, 2.0, 2.0, 2.0, 2.0, 2.0]",20.58,0.0,0.0,0.0,206.89861746782424,4.609517023117558,-1166.1920777319915,-239.73410901051685,0.0,0.0,0.0,0.0,0.0,0.0,0.0,-6.9,20.4786372187129,0.0,20.644275423954653,0.0,-6.9,20.58,19.5,21.79,20.24,21.29,-8.06,-6.9,0.0,-813.92,-766.22,0.0,0.0,0.0,152.0,0.0,0.0,0.0,0.0,0.0,0.0,0.0,0.0,0.0,0.0,0.0,0.0,0.0,0.0
19.0,4242.0,39412.25047896174,22354.48868512586,-0.0,0.0,-12618.700541441065,0.0,42724.0916589949,0.0,0.0,0.0,42724.091658994905,0.5152636054421769,0.17333333333333328,0.7602040816326512,0.0,0.0,0.0,"[2.0, 2.0, 2.0, 2.0, 2.0, 2.0, 2.0, 2.0]",20.0,0.0,0.0,0.0,674.5697306360917,58.953296664082444,-1137.3443477803069,449.2664092903324,8200.539761484646,0.0,0.0,0.0,0.0,0.0,0.0,-6.8,20.23286875380695,0.0,20.5141285707354,0.0,-6.8,20.0,19.49,21.54,19.88,20.85,-7.94,-6.8,0.0,-793.78,-747.27,0.0,83.0,37.0,448.0,0.0,0.0,0.0,0.0,0.0,0.0,0.0,0.0,0.0,0.0,0.0,0.0,0.0,0.0
20.0,5368.0,5551.445620211927,0.0,-0.0,0.0,-155.688392110867,0.0,0.0,0.0,0.0,0.0,0.0,0.2933895889363638,0.17333333333333328,0.7295918367346921,0.0,0.0,0.0,"[2.0, 2.0, 0.6577255635842398, 1.034311607033434, 1.574372038917474, 2.0, 2.0, 2.0]",24.0,0.0,0.0,0.0,623.9913289974893,125.85194503906492,-1298.6095911222906,-4993.386800454366,0.0,0.0,0.0,0.0,0.0,0.0,0.0,-6.6,21.593658688438573,0.0,20.79932612126229,0.0,-6.6,24.0,19.67,21.92,22.47,23.36,-7.74,-6.6,0.0,-906.33,-853.22,0.0,129.0,138.0,376.0,0.0,0.0,0.0,0.0,0.0,0.0,0.0,0.0,0.0,0.0,0.0,0.0,0.0,0.0
21.0,6751.0,0.0,0.0,-0.0,0.0,6900.523131783277,0.0,134.57081860494898,0.0,0.0,0.0,0.0,0.0,0.17333333333333328,0.719387755102039,598.0925271331068,149.5231317832767,747.6156589163835,"[2.0, 2.0, 0.6577255635842398, 1.034311607033434, 1.574372038917474, 2.0, 2.0, 2.0]",21.31,0.0,0.0,0.0,546.1177842649669,152.14438753276832,-1180.07966032955,-1003.2819006657638,0.0,0.0,0.0,0.0,0.0,0.0,0.0,-6.5,20.835524302278383,0.0,20.834599328341525,0.0,-6.5,21.31,19.76,21.91,20.62,21.55,-7.67,-6.5,679.2,-823.61,-775.34,0.0,270.0,115.0,247.0,0.0,0.0,0.0,0.0,0.0,0.0,0.0,0.0,0.0,0.0,0.0,0.0,0.0,0.0
22.0,2820.0,10144.44128436261,7273.719077940797,-0.0,0.0,0.0,0.0,14248.307643418677,0.0,0.0,0.0,14248.307643418679,0.0,0.17333333333333328,0.719387755102039,0.0,0.0,0.0,"[2.0, 2.0, 0.6577255635842398, 1.034311607033434, 1.574372038917474, 2.0, 2.0, 2.0]",20.58,0.0,0.0,0.0,556.290777229105,125.39705849073093,-1140.8281198256564,-35.48876745682345,0.0,0.0,0.0,0.0,0.0,0.0,0.0,-6.3,20.579816398960446,0.0,20.756172089652335,0.0,-6.3,20.58,19.78,21.74,20.33,21.23,-7.55,-6.3,4137.8,-796.21,-749.55,0.0,314.0,42.0,239.0,0.0,0.0,0.0,0.0,0.0,0.0,0.0,0.0,0.0,0.0,0.0,0.0,0.0,0.0
23.0,2059.0,27994.630893423106,17305.861820588645,-0.0,0.0,-8489.795918367347,0.0,34065.00498398046,0.0,0.0,0.0,34065.004983980456,0.3466666666666667,0.17333333333333328,0.719387755102039,0.0,0.0,0.0,"[2.0, 2.0, 0.6577255635842398, 1.034311607033434, 1.574372038917474, 2.0, 2.0, 2.0]",20.34,0.0,0.0,0.0,319.01646245991043,59.044273973749235,-1126.2501407768534,196.5134890660953,6132.85341782213,0.0,0.0,0.0,0.0,0.0,0.0,-6.2,20.448686164122925,0.0,20.653996250618576,0.0,-6.2,20.34,19.77,21.54,20.2,21.03,-7.41,-6.2,237.76,-786.04,-739.98,0.0,160.0,11.0,149.0,0.0,0.0,0.0,0.0,0.0,0.0,0.0,0.0,0.0,0.0,0.0,0.0,0.0,0.0
24.0,1420.0,30776.454847356163,13202.572573119383,-0.0,0.0,-16000.0,0.0,26113.919851475086,0.0,0.0,0.0,26113.919851475082,1.0,0.17333333333333328,0.719387755102039,0.0,0.0,0.0,"[2.0, 2.0, 0.6577255635842398, 1.034311607033434, 1.574372038917474, 2.0, 2.0, 2.0]",23.05,0.0,0.0,0.0,517.5331068516489,57.49765970941374,-1236.8786281322477,-3487.0072975563,6119.255689392829,0.0,0.0,0.0,0.0,0.0,0.0,-6.1,21.36935490307586,0.0,20.84607611670947,0.0,-6.1,23.05,19.9,21.8,21.98,22.76,-7.34,-6.1,4548.01,-863.25,-812.66,0.0,160.0,0.0,296.0,0.0,0.0,0.0,0.0,0.0,0.0,0.0,0.0,0.0,0.0,0.0,0.0,0.0,0.0
25.0,1681.0,6532.255435648794,4818.594158470551,-0.0,0.0,0.0,0.0,9576.835827586721,0.0,0.0,0.0,9576.835827586721,1.0,0.17333333333333328,0.719387755102039,0.0,0.0,0.0,"[2.0, 2.0, 0.6577255635842398, 1.034311607033434, 1.574372038917474, 2.0, 2.0, 2.0]",24.0,0.0,0.0,0.0,439.94612530121486,55.76909082574466,-1273.14665796303,-4470.0193784337125,0.0,0.0,0.0,0.0,0.0,0.0,0.0,-6.0,21.84732511209137,0.0,21.146118205355144,0.0,-6.0,24.0,20.09,22.2,22.49,23.32,-7.14,-6.0,3794.71,-888.56,-836.49,0.0,160.0,0.0,239.0,0.0,0.0,0.0,0.0,0.0,0.0,0.0,0.0,0.0,0.0,0.0,0.0,0.0,0.0
26.0,1154.0,0.0,8351.026255766186,-0.0,0.0,9505.026255766186,0.0,16836.295293588293,0.0,0.0,0.0,16836.295293588293,0.5958747340235465,0.17333333333333328,0.6903061224489778,0.0,0.0,0.0,"[2.0, 2.0, 0.6577255635842398, 1.034311607033434, 1.574372038917474, 2.0, 2.0, 2.0]",21.45,0.0,0.0,0.0,360.9979686358609,54.01019617218663,-1152.2807763542432,-721.536850858807,6712.530404443609,0.0,0.0,0.0,0.0,0.0,0.0,-5.7,21.116830327970746,0.0,21.159606130157293,0.0,-5.7,21.45,20.15,22.16,20.88,21.76,-6.82,-5.7,3585.28,-804.21,-757.08,0.0,160.0,0.0,181.0,0.0,0.0,0.0,0.0,0.0,0.0,0.0,0.0,0.0,0.0,0.0,0.0,0.0,0.0
27.0,748.0,10538.054435944985,9737.36416376526,-0.0,0.0,0.0,0.0,19816.915058972885,0.0,0.0,0.0,19816.915058972885,0.5958747340235465,0.17333333333333328,0.6903061224489778,0.0,0.0,0.0,"[2.0, 2.0, 0.6577255635842398, 1.034311607033434, 1.574372038917474, 2.0, 2.0, 2.0]",24.0,0.0,0.0,0.0,207.1851806499126,50.5833841747374,-1251.9275469969796,-4106.974855903268,0.0,0.0,0.0,0.0,0.0,0.0,0.0,-5.5,22.023208701137932,0.0,21.399456299365262,0.0,-5.5,24.0,20.32,22.48,22.69,23.57,-6.59,-5.5,3250.59,-873.75,-822.55,0.0,160.0,0.0,68.0,0.0,0.0,0.0,0.0,0.0,0.0,0.0,0.0,0.0,0.0,0.0,0.0,0.0,0.0
28.0,627.0,0.0,10974.014316527266,-0.0,0.0,11601.014316527266,0.0,22438.291897995303,0.0,0.0,0.0,22438.291897995303,0.10263432940929207,0.17333333333333328,0.6903061224489778,0.0,0.0,0.0,"[2.0, 2.0, 0.6577255635842398, 1.034311607033434, 1.574372038917474, 2.0, 2.0, 2.0]",21.52,0.0,0.0,0.0,242.57573363782998,51.371854191849614,-1142.5687399478807,-485.8617777942719,6441.440013675015,0.0,0.0,0.0,0.0,0.0,0.0,-5.4,21.302200185945836,0.0,21.394863168040395,0.0,-5.4,21.52,20.38,22.41,21.04,21.95,-6.47,-5.4,104.05,-797.43,-750.7,0.0,160.0,0.0,94.0,0.0,0.0,0.0,0.0,0.0,0.0,0.0,0.0,0.0,0.0,0.0,0.0,0.0,0.0
29.0,635.0,21379.945410140157,4638.045683089453,-0.0,0.0,-16000.0,0.0,9571.727534256235,0.0,0.0,0.0,9571.727534256235,0.7559676627426254,0.17333333333333328,0.6903061224489778,0.0,0.0,0.0,"[2.0, 2.0, 0.6577255635842398, 1.034311607033434, 1.574372038917474, 2.0, 2.0, 2.0]",24.0,0.0,0.0,0.0,249.3816092124294,51.52348304129428,-1239.196080417349,-3799.6297493741304,0.0,0.0,0.0,0.0,0.0,0.0,0.0,-5.2,22.1721866018771,0.0,21.610279657011738,0.0,-5.2,24.0,20.53,22.69,22.79,23.68,-6.27,-5.2,1406.62,-864.87,-814.18,0.0,160.0,0.0,99.0,0.0,0.0,0.0,0.0,0.0,0.0,0.0,0.0,0.0,0.0,0.0,0.0,0.0,0.0
30.0,923.0,3898.1074643370284,4223.949301243426,-0.0,0.0,1268.3323742280827,0.0,8757.407835012169,0.0,0.0,0.0,8757.407835012169,0.7020419665594586,0.17333333333333328,0.6903061224489778,0.0,0.0,0.0,"[2.0, 2.0, 0.6577255635842398, 1.034311607033434, 1.574372038917474, 2.0, 2.0, 2.0]",21.7,0.0,0.0,0.0,361.4278134089935,118.72538911516604,-1137.316372873605,-445.87857926073184,0.0,0.0,0.0,0.0,0.0,0.0,0.0,-5.1,21.497774880934017,0.0,21.59785771797086,0.0,-5.1,21.7,20.58,22.61,21.23,22.14,-6.18,-5.1,845.94,-793.76,-747.25,0.0,338.0,25.0,85.0,0.0,0.0,0.0,0.0,0.0,0.0,0.0,0.0,0.0,0.0,0.0,0.0,0.0,0.0
31.0,1302.0,0.0,0.0,-0.0,0.0,1302.0,0.0,0.0,0.0,0.0,0.0,0.0,0.6466848237023157,0.17333333333333328,0.6903061224489762,0.0,0.0,0.0,"[2.0, 2.0, 0.6577255635842398, 1.034311607033434, 1.574372038917474, 2.0, 2.0, 2.0]",21.16,0.0,0.0,0.0,233.04750783339068,104.53292880714618,-1110.2162642360493,224.3053645640873,0.0,0.0,0.0,0.0,0.0,0.0,0.0,-5.0,21.284077739990867,0.0,21.50088941990127,0.0,-5.0,21.16,20.58,22.42,21.02,21.88,-6.06,-5.0,3853.24,-774.85,-729.44,0.0,274.0,38.0,23.0,0.0,0.0,0.0,0.0,0.0,0.0,0.0,0.0,0.0,0.0,0.0,0.0,0.0,0.0
32.0,1647.0,12074.901523989725,0.0,-0.0,0.0,-10367.527016369777,0.0,0.0,0.0,0.0,0.0,0.0,1.0,0.17333333333333328,0.6903061224489762,0.0,0.0,0.0,"[1.1931896812413392, 0.682988676272025, 0.323950830876651, 0.7005684509573342, 1.1686390815825405, 1.144272830675046, 1.4845822369806143, 1.4063518236575767]",20.89,0.0,0.0,0.7792864079131352,347.5294990777061,95.49584938024464,-1090.3130492176676,476.8538344012609,0.0,0.0,0.0,0.0,0.0,0.0,0.0,-4.8,21.13740061484073,0.0,21.38722682678173,0.0,-4.8,20.89,20.57,22.21,20.88,21.66,-5.87,-4.8,0.0,-760.96,-716.36,1.28,228.0,41.0,131.0,0.0,0.0,0.0,0.0,0.0,0.0,0.0,0.0,0.0,0.0,0.0,0.0,0.0,0.0
33.0,2807.0,4511.393452285246,1688.518560579018,-0.0,6.682075555198164,0.0,0.0,3710.0262109514247,0.0,0.0,0.0,3710.0262109514247,1.0,0.17333333333333328,0.6903061224489762,0.0,0.0,0.0,"[1.1931896812413392, 0.682988676272025, 0.323950830876651, 0.7005684509573342, 1.1686390815825405, 1.144272830675046, 1.4845822369806143, 1.4063518236575767]",20.81,0.0,0.0,23.935610845455972,1162.3002665505473,104.80586073614657,-1044.269277348593,462.86408202143645,0.0,0.0,0.0,0.0,0.0,0.0,0.0,-3.8,21.04494455589424,0.0,21.275745897115492,0.0,-3.8,20.81,20.55,22.01,20.82,21.51,-4.63,-3.8,302.53,-728.82,-686.11,39.46,218.0,30.0,736.0,0.0,0.0,0.0,0.0,0.0,0.0,0.0,0.0,0.0,0.0,0.0,0.0,0.0,0.0
34.0,2604.0,0.0,3689.148605325996,-0.0,116.38994411699393,6176.758661209002,0.0,8492.693864237814,0.0,0.0,0.0,8492.693864237815,0.7373827099826105,0.17333333333333328,0.6903061224489758,0.0,0.0,0.0,"[1.1931896812413392, 0.682988676272025, 0.323950830876651, 0.7005684509573342, 1.1686390815825405, 1.144272830675046, 1.4845822369806143, 1.4063518236575767]",21.15,0.0,0.0,46.97072094975402,318.0851321181231,109.1727716001527,-1012.1012094703035,-131.94580530763014,4886.652707438391,0.0,0.0,0.0,0.0,0.0,0.0,-2.7,21.0978311733606,0.0,21.196825999565267,0.0,-2.7,21.15,20.53,21.86,20.94,21.55,-3.41,-2.7,3430.0,-706.37,-664.98,77.44,310.0,24.0,68.0,0.0,0.0,0.0,0.0,0.0,0.0,0.0,0.0,0.0,0.0,0.0,0.0,0.0,0.0
35.0,6313.0,8864.007432512248,5831.06476296489,-0.0,578.4595986606207,2745.9177689545822,0.0,13979.437111185998,0.0,0.0,0.0,13979.437111186,0.6206345055202558,0.17333333333333328,0.6903061224489758,0.0,0.0,0.0,"[1.1931896812413392, 0.682988676272025, 0.323950830876651, 0.7005684509573342, 1.1686390815825405, 1.144272830675046, 1.4845822369806143, 1.4063518236575767]",23.19,0.0,0.0,73.11056663641821,403.6242419715103,43.85106325939466,-1056.4227082904065,-2877.294557894413,3412.280958512656,0.0,0.0,0.0,0.0,0.0,0.0,-1.7,21.810409324211022,0.0,21.3700246701487,0.0,-1.7,23.19,20.63,22.11,22.34,22.95,-2.25,-1.7,325.56,-737.31,-694.1,120.54,93.0,15.0,246.0,0.0,0.0,0.0,0.0,0.0,0.0,0.0,0.0,0.0,0.0,0.0,0.0,0.0,0.0
36.0,5811.0,0.0,5271.8448910326815,-0.0,822.8770898472031,10259.967801185478,0.0,12990.566125741412,0.0,0.0,0.0,12990.566125741412,0.18441138472155358,0.17333333333333328,0.6903061224489758,0.0,0.0,0.0,"[1.1931896812413392, 0.682988676272025, 0.323950830876651, 0.7005684509573342, 1.1686390815825405, 1.144272830675046, 1.4845822369806143, 1.4063518236575767]",23.19,0.0,0.0,81.25694520358644,1343.90968319907,98.89233560780498,-1026.7159529379358,-2635.868748193831,0.0,0.0,0.0,0.0,0.0,0.0,0.0,-1.0,21.92734730203949,0.0,21.54612428192319,0.0,-1.0,23.19,20.75,22.34,22.25,22.92,-1.84,-1.0,3364.07,-716.57,-674.58,133.97,240.0,0.0,861.0,0.0,0.0,0.0,0.0,0.0,0.0,0.0,0.0,0.0,0.0,0.0,0.0,0.0,0.0
37.0,1630.0,0.0,1972.2469499745089,-0.0,236.2915400118476,3365.955409962661,0.0,4916.299549582031,0.0,0.0,0.0,4916.299549582031,0.041301035658515284,0.17333333333333328,0.6780612244897921,0.0,0.0,0.0,"[1.1931896812413392, 0.682988676272025, 0.323950830876651, 0.7005684509573342, 1.1686390815825405, 1.144272830675046, 1.4845822369806143, 1.4063518236575767]",22.15,0.0,0.0,56.96512602398766,613.030287282608,61.349032485308015,-969.9030106314613,-1079.0976520473082,0.0,0.0,0.0,0.0,0.0,0.0,0.0,-0.7,21.643477817880974,0.0,21.570292547221808,0.0,-0.7,22.15,20.8,22.34,21.54,22.21,-1.7,-0.7,0.0,-676.92,-637.25,93.92,166.0,0.0,363.0,0.0,0.0,0.0,0.0,0.0,0.0,0.0,0.0,0.0,0.0,0.0,0.0,0.0,0.0
38.0,2383.0,6673.307575866121,4257.170223822877,-0.0,0.22918583608694337,0.0,0.0,10368.510526424765,0.0,0.0,0.0,10368.510526424767,0.041301035658515284,0.17333333333333328,0.6780612244897921,0.0,0.0,0.0,"[1.1931896812413392, 0.682988676272025, 0.323950830876651, 0.7005684509573342, 1.1686390815825405, 1.144272830675046, 1.4845822369806143, 1.4063518236575767]",21.51,0.0,0.0,13.492950653343273,1074.3970104449309,71.05327884976603,-968.2110985327638,-195.91192302184834,0.0,0.0,0.0,0.0,0.0,0.0,0.0,-1.3,21.432228670604463,0.0,21.526504327486528,0.0,-1.3,21.51,20.82,22.24,21.26,21.92,-2.39,-1.3,3720.53,-675.74,-636.14,22.25,164.0,0.0,703.0,0.0,0.0,0.0,0.0,0.0,0.0,0.0,0.0,0.0,0.0,0.0,0.0,0.0,0.0
39.0,1775.0,8966.846313342343,7147.012081775631,-0.0,0.0,0.0,0.0,16998.029474001214,0.0,0.0,0.0,16998.029474001214,0.041301035658515284,0.17333333333333328,0.6142857142857104,0.0,0.0,0.0,"[1.1931896812413392, 0.682988676272025, 0.323950830876651, 0.7005684509573342, 1.1686390815825405, 1.144272830675046, 1.4845822369806143, 1.4063518236575767]",21.51,0.0,0.0,1.5504577683356355,354.4070154478277,55.58713620641109,-993.4965304163834,-262.9488245740644,4315.6146340178475,0.0,0.0,0.0,0.0,0.0,0.0,-1.9,21.395881176787057,0.0,21.466124043241738,0.0,-1.9,21.51,20.82,22.12,21.24,21.83,-3.08,-1.9,0.0,-693.39,-652.75,2.56,166.0,0.0,173.0,0.0,0.0,0.0,0.0,0.0,0.0,0.0,0.0,0.0,0.0,0.0,0.0,0.0,0.0
40.0,1681.0,8122.554715946814,6400.94194236708,-0.0,0.0,0.0,0.0,12621.017373789593,0.0,-2480.558860200608,0.0,15101.576233990201,0.041301035658515284,0.18346228201248577,0.6142857142857093,0.0,0.0,0.0,"[1.1931896812413392, 0.682988676272025, 0.323950830876651, 0.7005684509573342, 1.1686390815825405, 1.144272830675046, 1.4845822369806143, 1.4063518236575767]",23.19,0.0,0.0,0.0,428.19703483559056,103.19859493203322,-1073.397997063247,-2526.489230769159,3030.3104003388335,0.0,0.0,0.0,0.0,0.0,0.0,-2.1,21.981220038365105,0.0,21.60604726347713,0.0,-2.1,23.19,20.9,22.31,22.41,22.99,-3.33,-2.1,593.89,-749.15,-705.25,0.0,326.0,0.0,143.0,0.0,0.0,0.0,0.0,0.0,0.0,0.0,0.0,0.0,0.0,0.0,0.0,0.0,0.0
41.0,2752.0,9846.273593726377,7045.042225757745,-0.0,0.0,0.0,0.0,16486.860220427414,0.0,0.0,0.0,16486.860220427414,0.041301035658515284,0.18346228201248577,0.6142857142857093,0.0,0.0,0.0,"[1.1931896812413392, 0.682988676272025, 0.323950830876651, 0.7005684509573342, 1.1686390815825405, 1.144272830675046, 1.4845822369806143, 1.4063518236575767]",23.17,0.0,0.0,0.0,335.99533099864806,93.10011355901908,-1080.9779278256076,-2296.8814090549245,0.0,0.0,0.0,0.0,0.0,0.0,0.0,-2.3,22.071339557584114,0.0,21.75078670049316,0.0,-2.3,23.17,21.0,22.5,22.35,22.97,-3.51,-2.3,0.0,-754.44,-710.23,0.0,298.0,0.0,90.0,0.0,0.0,0.0,0.0,0.0,0.0,0.0,0.0,0.0,0.0,0.0,0.0,0.0,0.0
42.0,3024.0,70159.86102990099,43864.767724751495,-0.0,0.0,-16000.0,0.0,74135.12712774688,34601.47,0.0,0.0,101816.30312774688,0.6946343689918486,0.18346228201248577,0.6030612244897909,27681.176000000003,6920.294000000001,34601.47,"[1.1931896812413392, 0.682988676272025, 0.323950830876651, 0.7005684509573342, 1.1686390815825405, 1.144272830675046, 1.4845822369806143, 1.4063518236575767]",21.74,0.0,0.0,0.0,117.20434147415527,3.1538800684488546,-1028.627636721163,-226.0372235894712,0.0,0.0,0.0,0.0,0.0,0.0,0.0,-2.5,21.642137881450232,0.0,21.73016066426728,0.0,-2.5,21.74,21.02,22.44,21.47,22.11,-3.85,-2.5,3270.05,-717.91,-675.84,0.0,0.0,1.0,86.0,0.0,0.0,0.0,0.0,0.0,0.0,0.0,0.0,0.0,0.0,0.0,0.0,0.0,0.0
43.0,8860.0,0.0,1040.5243124068925,-0.0,0.0,9900.524312406893,0.0,2395.364185332786,0.0,0.0,0.0,2395.364185332786,0.27369370945073923,0.18346228201248577,0.6030612244897909,0.0,0.0,0.0,"[1.1931896812413392, 0.682988676272025, 0.323950830876651, 0.7005684509573342, 1.1686390815825405, 1.144272830675046, 1.4845822369806143, 1.4063518236575767]",21.19,0.0,0.0,0.0,490.52452693981735,68.32395955976222,-1013.7510522493866,458.6094198882511,0.0,0.0,0.0,0.0,0.0,0.0,0.0,-2.7,21.423669462780982,0.0,21.636256048722487,0.0,-2.7,21.19,21.0,22.27,21.19,21.8,-4.08,-2.7,1996.09,-707.52,-666.06,0.0,128.0,38.0,289.0,0.0,0.0,0.0,0.0,0.0,0.0,0.0,0.0,0.0,0.0,0.0,0.0,0.0,0.0
44.0,5671.0,22550.026177167223,766.2760462813875,-0.0,0.0,-16000.0,0.0,1749.4140351004492,0.0,0.0,0.0,1749.4140351004492,0.6533333333333333,0.18346228201248577,0.5908163265306073,0.0,0.0,0.0,"[0.8124057627880141, 0.45934215018797175, 0.10132466050243494, 0.7005684509573342, 0.5531688473814249, 1.144272830675046, 0.3987805601792438, 1.4063518236575767]",21.19,0.0,0.0,0.0,653.0774919794617,113.5396824641588,-1022.2346700491992,339.4808612685382,0.0,0.0,0.0,0.0,0.0,0.0,0.0,-2.9,21.365830210123143,0.0,21.54275673886174,0.0,-2.9,21.19,20.97,22.11,21.19,21.73,-4.2,-2.9,0.0,-713.44,-671.64,0.0,167.0,94.0,382.0,0.0,0.0,0.0,0.0,0.0,0.0,0.0,0.0,0.0,0.0,0.0,0.0,0.0,0.0
45.0,4027.0,7575.748889394936,3510.8701449479613,-0.0,0.0,0.0,0.0,7948.402808112933,0.0,0.0,0.0,7948.402808112932,0.6533333333333333,0.18346228201248577,0.5908163265306073,0.0,0.0,0.0,"[0.8124057627880141, 0.45934215018797175, 0.10132466050243494, 0.7005684509573342, 0.5531688473814249, 1.144272830675046, 0.3987805601792438, 1.4063518236575767]",21.23,0.0,0.0,0.0,386.0006062730737,87.09561112101068,-1032.3158880532596,185.98961578831964,3649.0011724808614,0.0,0.0,0.0,0.0,0.0,0.0,-3.1,21.329023417213467,0.0,21.465948511177405,0.0,-3.1,21.23,20.95,21.98,21.19,21.68,-4.41,-3.1,0.0,-720.48,-678.26,0.0,107.0,88.0,218.0,0.0,0.0,0.0,0.0,0.0,0.0,0.0,0.0,0.0,0.0,0.0,0.0,0.0,0.0
46.0,3966.0,0.0,2402.442832768137,-0.0,0.0,6368.442832768137,0.0,5393.182339473844,0.0,0.0,0.0,5393.182339473844,0.3825662060897901,0.18346228201248577,0.5908163265306073,0.0,0.0,0.0,"[0.8124057627880141, 0.45934215018797175, 0.10132466050243494, 0.7005684509573342, 0.5531688473814249, 1.144272830675046, 0.3987805601792438, 1.4063518236575767]",22.81,0.0,0.0,0.0,419.67178016846054,123.78979268661756,-1108.1640709422709,-1989.376694957512,0.0,0.0,0.0,0.0,0.0,0.0,0.0,-3.3,21.861612809062226,0.0,21.570147995978328,0.0,-3.3,22.81,21.0,22.14,22.23,22.71,-4.7,-3.3,0.0,-773.42,-728.09,0.0,268.0,69.0,160.0,0.0,0.0,0.0,0.0,0.0,0.0,0.0,0.0,0.0,0.0,0.0,0.0,0.0,0.0
47.0,1932.0,0.0,0.0,-0.0,0.0,1932.0,0.0,10985.399160159232,0.0,10985.39916015923,0.0,0.0,0.30042334894693296,0.1367556529301761,0.5908163265306073,0.0,0.0,0.0,"[0.8124057627880141, 0.45934215018797175, 0.10132466050243494, 0.7005684509573342, 0.5531688473814249, 1.144272830675046, 0.3987805601792438, 1.4063518236575767]",21.57,0.0,0.0,0.0,494.39312989801067,73.35803736132483,-1059.6622065427487,-191.25445911113832,3248.5049294555806,0.0,0.0,0.0,0.0,0.0,0.0,-3.4,21.49071606435488,0.0,21.556998792869514,0.0,-3.4,21.57,21.01,22.1,21.38,21.87,-4.79,-3.4,3242.45,-739.57,-696.23,0.0,166.0,27.0,273.0,0.0,0.0,0.0,0.0,0.0,0.0,0.0,0.0,0.0,0.0,0.0,0.0,0.0,0.0
48.0,1988.0,8503.009304095707,6472.4942575752275,-0.0,0.0,0.0,0.0,13727.780902431636,0.0,0.0,0.0,13727.780902431634,0.30042334894693296,0.1367556529301761,0.5637755102040767,0.0,0.0,0.0,"[0.8124057627880141, 0.45934215018797175, 0.10132466050243494, 0.7005684509573342, 0.5531688473814249, 1.144272830675046, 0.3987805601792438, 1.4063518236575767]",22.81,0.0,0.0,0.0,282.1930935615511,52.79716537662938,-1163.333759454002,-1878.8239712019647,2710.183019231469,0.0,0.0,0.0,0.0,0.0,0.0,-4.6,21.91592465508514,0.0,21.65057278534397,0.0,-4.6,22.81,21.06,22.24,22.23,22.72,-5.94,-4.6,2642.92,-811.92,-764.34,0.0,160.0,1.0,123.0,0.0,0.0,0.0,0.0,0.0,0.0,0.0,0.0,0.0,0.0,0.0,0.0,0.0,0.0
49.0,865.0,0.0,3333.909795663258,-0.0,0.0,4198.909795663258,0.0,6689.629020043617,0.0,0.0,0.0,6689.629020043616,0.12189827260070601,0.1367556529301761,0.5637755102040767,0.0,0.0,0.0,"[0.8124057627880141, 0.45934215018797175, 0.10132466050243494, 0.7005684509573342, 0.5531688473814249, 1.144272830675046, 0.3987805601792438, 1.4063518236575767]",22.81,0.0,0.0,0.0,238.49220829307026,51.28087688218282,-1214.2596257725231,-1739.66404054448,0.0,0.0,0.0,0.0,0.0,0.0,0.0,-5.8,21.98408660380518,0.0,21.754473087058766,0.0,-5.8,22.81,21.12,22.38,22.21,22.74,-7.13,-5.8,0.0,-847.46,-797.8,0.0,160.0,0.0,91.0,0.0,0.0,0.0,0.0,0.0,0.0,0.0,0.0,0.0,0.0,0.0,0.0,0.0,0.0
50.0,672.0,1908.0748284225706,4093.581825849064,-0.0,0.0,2867.0473715686057,0.0,7745.638163084131,0.0,0.0,0.0,7745.638163084131,0.0,0.1367556529301761,0.5637755102040767,0.0,0.0,0.0,"[0.8124057627880141, 0.45934215018797175, 0.10132466050243494, 0.7005684509573342, 0.5531688473814249, 1.144272830675046, 0.3987805601792438, 1.4063518236575767]",21.52,0.0,0.0,0.0,238.49220829307026,51.28087688218282,-1210.258226493691,93.63264170958657,3496.860967994294,0.0,0.0,0.0,0.0,0.0,0.0,-7.0,21.579454307980473,0.0,21.712068112493753,0.0,-7.0,21.52,21.12,22.3,21.4,21.96,-8.4,-7.0,451.54,-844.67,-795.17,0.0,160.0,0.0,91.0,0.0,0.0,0.0,0.0,0.0,0.0,0.0,0.0,0.0,0.0,0.0,0.0,0.0,0.0
51.0,944.0,15645.66398954244,8266.677627482015,-0.0,0.0,-6356.758042112712,0.0,15168.87541190134,0.0,0.0,0.0,15168.875411901341,0.25956762005293577,0.1367556529301761,0.5637755102040767,0.0,0.0,0.0,"[0.8124057627880141, 0.45934215018797175, 0.10132466050243494, 0.7005684509573342, 0.5531688473814249, 1.144272830675046, 0.3987805601792438, 1.4063518236575767]",22.81,0.0,0.0,0.0,601.9259639766825,59.37785744252748,-1290.648425250305,-1689.657615054426,0.0,0.0,0.0,0.0,0.0,0.0,0.0,-7.6,22.009360860639934,0.0,21.790039941370058,0.0,-7.6,22.81,21.16,22.42,22.31,22.85,-9.03,-7.6,2947.64,-900.78,-847.99,0.0,160.0,0.0,358.0,0.0,0.0,0.0,0.0,0.0,0.0,0.0,0.0,0.0,0.0,0.0,0.0,0.0,0.0
52.0,808.0,0.0,1316.7192769220128,-0.0,0.0,2124.719276922013,0.0,2328.2349089812415,0.0,0.0,0.0,2328.2349089812415,0.1692309161021699,0.1367556529301761,0.5637755102040767,0.0,0.0,0.0,"[0.8124057627880141, 0.45934215018797175, 0.10132466050243494, 0.7005684509573342, 0.5531688473814249, 1.144272830675046, 0.3987805601792438, 1.4063518236575767]",21.69,0.0,0.0,0.0,316.07918984350425,53.00944576585191,-1272.5265611696707,-94.88873464542579,415.108676897619,0.0,0.0,0.0,0.0,0.0,0.0,-8.3,21.65605296987616,0.0,21.751766919730876,0.0,-8.3,21.69,21.16,22.35,21.5,22.04,-9.77,-8.3,280.04,-888.13,-836.08,0.0,160.0,0.0,148.0,0.0,0.0,0.0,0.0,0.0,0.0,0.0,0.0,0.0,0.0,0.0,0.0,0.0,0.0
53.0,664.0,0.0,3316.311146723036,-0.0,0.0,3980.311146723036,0.0,5674.238828301124,0.0,0.0,0.0,5674.238828301124,0.0,0.1367556529301761,0.5637755102040768,0.0,0.0,0.0,"[0.8124057627880141, 0.45934215018797175, 0.10132466050243494, 0.7005684509573342, 0.5531688473814249, 1.144272830675046, 0.3987805601792438, 1.4063518236575767]",21.4,0.0,0.0,0.0,149.72926264118857,58.5287358856374,-1285.9160370065542,226.04861282572426,415.4165622297979,0.0,0.0,0.0,0.0,0.0,0.0,-8.9,21.527500138045358,0.0,21.680398472147893,0.0,-8.9,21.4,21.13,22.24,21.4,21.93,-10.42,-8.9,3165.35,-897.47,-844.88,0.0,160.0,17.0,24.0,0.0,0.0,0.0,0.0,0.0,0.0,0.0,0.0,0.0,0.0,0.0,0.0,0.0,0.0
54.0,842.0,12647.928622030726,11742.688978920572,-0.0,0.0,0.0,0.0,10574.316114120076,0.0,-8957.799282405838,0.0,19532.115396525915,0.0,0.17333333333333328,0.5637755102040768,0.0,0.0,0.0,"[0.8124057627880141, 0.45934215018797175, 0.10132466050243494, 0.7005684509573342, 0.5531688473814249, 1.144272830675046, 0.3987805601792438, 1.4063518236575767]",21.19,0.0,0.0,0.0,347.7444214642724,116.63291099282976,-1298.0831126078558,427.36047930768626,3761.181928508418,0.0,0.0,0.0,0.0,0.0,0.0,-9.4,21.412050342897352,0.0,21.598015793908036,0.0,-9.4,21.19,21.08,22.11,21.28,21.78,-10.93,-9.4,0.0,-905.97,-852.88,0.0,294.0,45.0,96.0,0.0,0.0,0.0,0.0,0.0,0.0,0.0,0.0,0.0,0.0,0.0,0.0,0.0,0.0
55.0,1837.0,12167.693575797703,3471.1217864664095,-0.0,0.0,-6798.733321452305,0.0,5608.20856228937,0.0,0.0,0.0,5608.20856228937,0.2776149439593025,0.17333333333333328,0.5637755102040768,0.0,0.0,0.0,"[0.8124057627880141, 0.45934215018797175, 0.10132466050243494, 0.7005684509573342, 0.5531688473814249, 1.144272830675046, 0.3987805601792438, 1.4063518236575767]",22.81,0.0,0.0,0.0,133.39516126214983,70.90165000032137,-1388.2563356941375,-1822.8075995663964,0.0,0.0,0.0,0.0,0.0,0.0,0.0,-9.9,21.94604308725725,0.0,21.689547233861035,0.0,-9.9,22.81,21.12,22.26,22.33,22.81,-11.47,-9.9,450.41,-968.9,-912.12,0.0,108.0,68.0,34.0,0.0,0.0,0.0,0.0,0.0,0.0,0.0,0.0,0.0,0.0,0.0,0.0,0.0,0.0
56.0,3189.0,71825.99749424524,52277.86750677402,-0.0,0.0,-16000.0,0.0,5460.863777176767,0.0,-80000.0,0.0,85460.86377717677,0.6533333333333333,0.5,0.5637755102040768,0.0,0.0,0.0,"[0.8124057627880106, 0.45934215018797175, 0.10132466050243494, 0.7005684509573342, 0.5531688473814249, 0.21060840304696882, 0.3987805601792438, 1.100355413133471]",21.35,0.0,0.0,3.2189086185692246,339.36244838818675,81.36404061200268,-1317.7623175878255,249.1180432443904,311.83999255554045,0.0,0.0,0.0,0.0,0.0,0.0,-9.7,21.489544943262707,0.0,21.644962676112932,0.0,-9.7,21.35,21.1,22.19,21.32,21.84,-11.29,-9.7,820.19,-919.7,-865.8,5.31,136.0,64.0,171.0,0.0,0.0,0.0,0.0,0.0,0.0,0.0,0.0,0.0,0.0,0.0,0.0,0.0,0.0
57.0,2848.0,0.0,2340.9277730089725,-3006.396360514005,8195.324133522978,0.0,0.0,4362.417443976301,0.0,0.0,0.0,4362.417443976301,0.6533333333333333,0.5,0.5735964049817559,0.0,0.0,0.0,"[0.8124057627880106, 0.45934215018797175, 0.10132466050243494, 0.7005684509573342, 0.5531688473814249, 0.21060840304696882, 0.3987805601792438, 1.100355413133471]",21.19,0.0,0.0,865.0353236671399,470.9665897622841,100.25699525280689,-1208.962846550444,382.98687020902184,0.0,0.0,0.0,0.0,0.0,0.0,0.0,-7.3,21.388772517411248,0.0,21.563259547179797,0.0,-7.3,21.19,21.06,22.07,21.26,21.75,-7.65,-7.3,0.0,-843.77,-794.32,1426.24,286.0,14.0,194.0,0.0,0.0,0.0,0.0,0.0,0.0,0.0,0.0,0.0,0.0,0.0,0.0,0.0,0.0
58.0,4029.0,0.0,1689.2711409184742,-8405.47054943458,14123.741690353054,0.0,0.0,3486.2190235227035,0.0,0.0,0.0,3486.2190235227035,0.6533333333333333,0.5,0.6010542754432422,0.0,0.0,0.0,"[0.8124057627880106, 0.45934215018797175, 0.10132466050243494, 0.7005684509573342, 0.5531688473814249, 0.21060840304696882, 0.3987805601792438, 1.100355413133471]",21.5,0.0,0.0,1194.0545155378572,1776.6917289480755,132.8268721135191,-1133.1106696037791,-52.10795710186894,-2609.8156415447306,0.0,0.0,0.0,0.0,0.0,0.0,-5.2,21.48901056356186,0.0,21.58107217834089,0.0,-5.2,21.5,21.05,22.12,21.53,22.27,-4.96,-5.2,0.0,-790.83,-744.48,1968.71,300.0,13.0,1146.0,0.0,0.0,0.0,0.0,0.0,0.0,0.0,0.0,0.0,0.0,0.0,0.0,0.0,0.0
59.0,5667.0,0.0,1579.3398520168864,-10488.72688067339,17735.066732690277,0.0,0.0,3530.363223035433,0.0,0.0,0.0,3530.3632230354324,0.6533333333333333,0.5,0.6353174499201086,0.0,0.0,0.0,"[0.8124057627880106, 0.45934215018797175, 0.10132466050243494, 0.7005684509573342, 0.5531688473814249, 0.21060840304696882, 0.3987805601792438, 1.100355413133471]",21.19,0.0,0.0,1477.4894550548033,4055.8719976881584,133.61534213063132,-1043.45378101525,460.3309785726148,-1795.8489164237592,0.0,0.0,0.0,0.0,0.0,0.0,-3.4,21.4236325741675,0.0,21.62683379352059,0.0,-3.4,21.19,21.04,22.21,21.48,22.4,-2.62,-3.4,2081.76,-728.25,-685.58,2436.03,109.0,22.0,2920.0,0.0,0.0,0.0,0.0,0.0,0.0,0.0,0.0,0.0,0.0,0.0,0.0,0.0,0.0
60.0,2651.0,0.0,2625.7467676249144,-13021.131953819458,18297.878721444373,0.0,0.0,6119.760067155192,0.0,0.0,0.0,6119.760067155192,0.6533333333333333,0.5,0.6778531476359189,0.0,0.0,0.0,"[0.8124057627880106, 0.45934215018797175, 0.10132466050243494, 0.7005684509573342, 0.5531688473814249, 0.21060840304696882, 0.3987805601792438, 1.100355413133471]",22.81,0.0,0.0,1522.811934122369,316.580675412159,54.61671156996527,-1069.9696712033797,-1728.3005835251943,74.57363781858113,0.0,0.0,0.0,0.0,0.0,0.0,-2.4,21.986613387373847,0.0,21.766107100521808,0.0,-2.4,22.81,21.09,22.44,22.24,23.2,-1.51,-2.4,0.0,-746.76,-703.0,2510.76,124.0,22.0,165.0,0.0,0.0,0.0,0.0,0.0,0.0,0.0,0.0,0.0,0.0,0.0,0.0,0.0,0.0
61.0,5679.0,0.0,4002.9558001653886,-4913.186269891319,16170.727686296492,-1575.5856162397838,0.0,9444.06975126164,0.0,0.0,0.0,9444.069751261639,0.7176697459964578,0.5,0.6939028894508972,0.0,0.0,0.0,"[0.8124057627880106, 0.45934215018797175, 0.10132466050243494, 0.7005684509573342, 0.5531688473814249, 0.21060840304696882, 0.3987805601792438, 1.100355413133471]",22.44,0.0,0.0,1307.3817000650683,1363.7541835586917,64.41193524409007,-1041.526109532868,-987.4126823905477,0.0,0.0,0.0,0.0,0.0,0.0,0.0,-2.1,21.975714028502235,0.0,21.920316033060146,0.0,-2.1,22.44,21.16,22.68,22.13,23.23,-1.49,-2.1,1290.01,-726.91,-684.31,2155.56,109.0,5.0,944.0,0.0,0.0,0.0,0.0,0.0,0.0,0.0,0.0,0.0,0.0,0.0,0.0,0.0,0.0
62.0,3943.0,0.0,1574.666299937417,-3522.3494403279833,9040.0157402654,0.0,0.0,3609.9869026644747,0.0,0.0,0.0,3609.9869026644747,0.7176697459964578,0.5,0.7028582105478054,0.0,0.0,0.0,"[0.8124057627880106, 0.45934215018797175, 0.10132466050243494, 0.7005684509573342, 0.5531688473814249, 0.21060840304696882, 0.3987805601792438, 1.100355413133471]",22.81,0.0,0.0,668.6532943575183,2118.489964384013,94.88933398246604,-1086.9449599762202,-1367.1917779543346,-453.1604675715235,0.0,0.0,0.0,0.0,0.0,0.0,-2.8,22.16273808419952,0.0,22.04206995406767,0.0,-2.8,22.81,21.22,22.86,22.28,23.35,-3.17,-2.8,0.0,-758.61,-714.15,1102.45,166.0,0.0,1469.0,0.0,0.0,0.0,0.0,0.0,0.0,0.0,0.0,0.0,0.0,0.0,0.0,0.0,0.0
63.0,2130.0,0.0,0.0,-0.0,0.0,2130.0,0.0,2786.7369952454023,0.0,2786.7369952454023,0.0,0.0,0.627108521506662,0.48815162842157567,0.7028582105478054,0.0,0.0,0.0,"[0.8124057627880106, 0.45934215018797175, 0.10132466050243494, 0.7005684509573342, 0.5531688473814249, 0.21060840304696882, 0.3987805601792438, 1.100355413133471]",22.81,0.0,0.0,10.817056722462524,1207.505608524992,91.12893851623853,-1154.8461150675816,-1286.7526011755526,0.0,0.0,0.0,0.0,0.0,0.0,0.0,-4.4,22.203326598332357,0.0,22.10079955954761,0.0,-4.4,22.81,21.27,22.93,22.2,23.09,-6.1,-4.4,2552.75,-806.0,-758.76,17.83,216.0,4.0,773.0,0.0,0.0,0.0,0.0,0.0,0.0,0.0,0.0,0.0,0.0,0.0,0.0,0.0,0.0
64.0,1841.0,0.0,4754.992425836689,-0.0,0.0,6595.992425836689,0.0,9858.406187116769,0.0,0.0,0.0,9858.406187116769,0.3466666666666667,0.48815162842157567,0.7028582105478054,0.0,0.0,0.0,"[0.8124057627880106, 0.45934215018797175, 0.10132466050243494, 0.7005684509573342, 0.5531688473814249, 0.21060840304696882, 0.3987805601792438, 1.100355413133471]",22.26,0.0,0.0,0.0,939.2108292947283,114.328152481271,-1161.1398563954351,-527.3608873833145,0.0,0.0,0.0,0.0,0.0,0.0,0.0,-5.1,22.020269378542025,0.0,22.06062491192254,0.0,-5.1,22.26,21.29,22.84,21.85,22.54,-6.87,-5.1,0.0,-810.39,-762.9,0.0,276.0,26.0,542.0,0.0,0.0,0.0,0.0,0.0,0.0,0.0,0.0,0.0,0.0,0.0,0.0,0.0,0.0
65.0,2351.0,63361.76722185689,37838.368385747606,-0.0,0.0,-16000.0,0.0,7751.079644359812,34277.95,-40390.0995015737,0.0,75563.53914593352,1.0,0.6530778680530016,0.7028582105478054,27422.36,6855.59,34277.95,"[0.8124057627880106, 0.45934215018797175, 0.10132466050243494, 0.7005684509573342, 0.5531688473814249, 0.21060840304696882, 0.3987805601792438, 1.100355413133471]",21.95,0.0,0.0,0.0,543.395434035127,105.38205036403626,-1181.879210051029,-153.69751794994949,2471.16552466087,0.0,0.0,0.0,0.0,0.0,0.0,-5.9,21.890527853220455,0.0,21.99524238086537,0.0,-5.9,21.95,21.28,22.71,21.72,22.37,-7.62,-5.9,0.0,-824.86,-776.53,0.0,234.0,48.0,271.0,0.0,0.0,0.0,0.0,0.0,0.0,0.0,0.0,0.0,0.0,0.0,0.0,0.0,0.0
66.0,6451.0,7700.150339486084,1210.6495877886541,-0.0,0.0,0.0,0.0,2325.345432232454,0.0,0.0,0.0,2325.345432232454,1.0,0.6530778680530016,0.7028582105478054,0.0,0.0,0.0,"[0.8124057627880106, 0.45934215018797175, 0.10132466050243494, 0.7005684509573342, 0.5531688473814249, 0.21060840304696882, 0.3987805601792438, 1.100355413133471]",22.81,0.0,0.0,0.0,1961.5966221906142,120.66623838805765,-1252.4540255114139,-1355.767231878477,0.0,0.0,0.0,0.0,0.0,0.0,0.0,-6.7,22.171040359499862,0.0,22.03472247694907,0.0,-6.7,22.81,21.32,22.75,22.34,22.96,-8.36,-6.7,100.1,-874.12,-822.9,0.0,164.0,55.0,1349.0,0.0,0.0,0.0,0.0,0.0,0.0,0.0,0.0,0.0,0.0,0.0,0.0,0.0,0.0
67.0,4837.0,6034.413564848109,1167.2414970238676,-0.0,0.0,0.0,0.0,2164.0759921442864,0.0,0.0,0.0,2164.075992144286,1.0,0.6530778680530016,0.6625520880988258,0.0,0.0,0.0,"[0.8124057627880106, 0.45934215018797175, 0.10132466050243494, 0.7005684509573342, 0.5531688473814249, 0.21060840304696882, 0.3987805601792438, 1.100355413133471]",22.55,0.0,0.0,0.0,862.5551780860816,135.2529337046336,-1271.186975405047,-993.3789607843196,0.0,0.0,0.0,0.0,0.0,0.0,0.0,-7.4,22.088560691661336,0.0,22.0198793001887,0.0,-7.4,22.55,21.33,22.71,21.99,22.57,-9.08,-7.4,0.0,-887.19,-835.2,0.0,266.0,73.0,486.0,0.0,0.0,0.0,0.0,0.0,0.0,0.0,0.0,0.0,0.0,0.0,0.0,0.0,0.0
68.0,5147.0,0.0,0.0,-0.0,0.0,5147.0,0.0,3066.2240125885874,0.0,3066.2240125885874,0.0,0.0,0.5623299319727892,0.6270045346126225,0.6625520880988258,0.0,0.0,0.0,"[0.06466183579849627, 0.45934215018797175, 0.10132466050243494, 0.7005684509573307, 0.45356217451924863, 0.21060840304696882, 0.367242802383803, 0.992144693932989]",21.94,0.0,0.0,0.0,1383.5270431227916,166.42782515045496,-1278.8901690112966,-153.6814510143066,0.0,0.0,0.0,0.0,0.0,0.0,0.0,-8.2,21.87765056605573,0.0,21.97044340070786,0.0,-8.2,21.94,21.33,22.62,21.73,22.32,-9.85,-8.2,0.0,-892.57,-840.26,0.0,302.0,90.0,848.0,0.0,0.0,0.0,0.0,0.0,0.0,0.0,0.0,0.0,0.0,0.0,0.0,0.0,0.0
69.0,4573.0,0.0,1241.1806885096848,-0.0,0.0,5814.180688509685,0.0,2123.6715567652245,0.0,0.0,0.0,2123.6715567652245,0.31512837208717337,0.6270045346126225,0.6574500472824993,0.0,0.0,0.0,"[0.06466183579849627, 0.45934215018797175, 0.10132466050243494, 0.7005684509573307, 0.45356217451924863, 0.21060840304696882, 0.367242802383803, 0.992144693932989]",21.99,0.0,0.0,0.0,1092.8086948941104,160.30201963289085,-1310.8186135977076,-303.5702321230223,262.55628955858657,0.0,0.0,0.0,0.0,0.0,0.0,-8.9,21.857640182228774,0.0,21.913234927681152,0.0,-8.9,21.99,21.31,22.52,21.75,22.29,-10.51,-8.9,1613.25,-914.85,-861.24,0.0,324.0,79.0,624.0,0.0,0.0,0.0,0.0,0.0,0.0,0.0,0.0,0.0,0.0,0.0,0.0,0.0,0.0
70.0,3251.0,23826.200638456496,4456.06963526421,-0.0,0.0,-16000.0,0.0,7284.527434704236,0.0,0.0,0.0,7284.527434704235,0.9684617054205067,0.6270045346126225,0.6355112717722953,0.0,0.0,0.0,"[0.06466183579849627, 0.45934215018797175, 0.10132466050243494, 0.7005684509573307, 0.45356217451924863, 0.21060840304696882, 0.367242802383803, 0.992144693932989]",21.94,0.0,0.0,0.0,914.7813180216923,105.26074728448054,-1342.5475019094479,-286.91402169986617,615.4315004742909,0.0,0.0,0.0,0.0,0.0,0.0,-9.7,21.81377280981533,0.0,21.867643322379564,0.0,-9.7,21.94,21.29,22.44,21.74,22.26,-11.32,-9.7,0.0,-937.0,-882.09,0.0,184.0,59.0,569.0,0.0,0.0,0.0,0.0,0.0,0.0,0.0,0.0,0.0,0.0,0.0,0.0,0.0,0.0
71.0,1905.0,0.0,0.0,-0.0,0.0,1905.0,0.0,7936.167880046626,0.0,7936.167880046626,0.0,0.0,0.887466807461323,0.5932623242382746,0.5926541289151525,0.0,0.0,0.0,"[0.06466183579849627, 0.45934215018797175, 0.10132466050243494, 0.7005684509573307, 0.45356217451924863, 0.21060840304696882, 0.367242802383803, 0.992144693932989]",21.94,0.0,0.0,0.0,704.0140975956747,94.40412166424314,-1372.2542572619186,-337.40736026424133,1183.1267524138352,0.0,0.0,0.0,0.0,0.0,0.0,-10.4,21.789634645269842,0.0,21.82974874636028,0.0,-10.4,21.94,21.27,22.39,21.74,22.24,-12.01,-10.4,2151.7,-957.73,-901.61,0.0,206.0,36.0,405.0,0.0,0.0,0.0,0.0,0.0,0.0,0.0,0.0,0.0,0.0,0.0,0.0,0.0,0.0
72.0,1489.0,515.2711669274619,0.0,-0.0,0.0,976.3051889071754,0.0,14715.251086008608,0.0,14715.251086008608,0.0,0.0,0.8459572331030247,0.530697481185517,0.5926541289151525,0.0,0.0,0.0,"[0.06466183579849627, 0.45934215018797175, 0.10132466050243494, 0.7005684509573307, 0.45356217451924863, 0.21060840304696882, 0.367242802383803, 0.992144693932989]",22.06,0.0,0.0,0.0,335.8520494076039,56.163325834300764,-1398.9616349042765,-545.6992735981305,1289.3619455720802,0.0,0.0,0.0,0.0,0.0,0.0,-10.9,21.818249464305694,0.0,21.815693432420048,0.0,-10.9,22.06,21.26,22.37,21.84,22.34,-12.58,-10.9,2237.98,-976.37,-919.16,0.0,160.0,5.0,162.0,0.0,0.0,0.0,0.0,0.0,0.0,0.0,0.0,0.0,0.0,0.0,0.0,0.0,0.0
73.0,1047.0,0.0,6436.41560367977,-0.0,0.0,7483.41560367977,0.0,9417.397753076866,0.0,0.0,0.0,9417.397753076866,0.5277848009737829,0.530697481185517,0.5926541289151525,0.0,0.0,0.0,"[0.06466183579849627, 0.45934215018797175, 0.10132466050243494, 0.7005684509573307, 0.45356217451924863, 0.21060840304696882, 0.367242802383803, 0.992144693932989]",21.94,0.0,0.0,0.0,207.1851806499126,50.5833841747374,-1418.9363013872296,-380.0068820340662,1810.5551202702225,0.0,0.0,0.0,0.0,0.0,0.0,-11.5,21.769599662354082,0.0,21.799669127347293,0.0,-11.5,21.94,21.25,22.35,21.78,22.28,-13.21,-11.5,2028.97,-990.31,-932.28,0.0,160.0,0.0,68.0,0.0,0.0,0.0,0.0,0.0,0.0,0.0,0.0,0.0,0.0,0.0,0.0,0.0,0.0
74.0,959.0,0.0,0.0,-0.0,0.0,959.0,0.0,14731.538539179106,0.0,14731.538539179106,0.0,0.0,0.48701099144997334,0.46806338875703435,0.5926541289151525,0.0,0.0,0.0,"[0.06466183579849627, 0.45934215018797175, 0.10132466050243494, 0.7005684509573307, 0.45356217451924863, 0.21060840304696882, 0.367242802383803, 0.992144693932989]",22.06,0.0,0.0,0.0,314.7180147285844,52.97911999596298,-1454.1313234160077,-570.2037709697559,1393.1725037999333,0.0,0.0,0.0,0.0,0.0,0.0,-12.2,21.807092586252008,0.0,21.800190300966023,0.0,-12.2,22.06,21.25,22.35,21.88,22.38,-13.96,-12.2,691.52,-1014.88,-955.4,0.0,160.0,0.0,147.0,0.0,0.0,0.0,0.0,0.0,0.0,0.0,0.0,0.0,0.0,0.0,0.0,0.0,0.0
75.0,1169.0,0.0,9003.498518903374,-0.0,0.0,10172.498518903374,0.0,12229.243417453232,0.0,0.0,0.0,12229.24341745323,0.05450680272108843,0.46806338875703435,0.5926541289151525,0.0,0.0,0.0,"[0.06466183579849627, 0.45934215018797175, 0.10132466050243494, 0.7005684509573307, 0.45356217451924863, 0.21060840304696882, 0.367242802383803, 0.992144693932989]",21.94,0.0,0.0,0.0,212.62988110959222,50.70468725429313,-1465.618345512541,-401.89863107173886,1607.0784423633422,0.0,0.0,0.0,0.0,0.0,0.0,-12.6,21.759583019733466,0.0,21.7863558555227,0.0,-12.6,21.94,21.24,22.34,21.78,22.28,-14.35,-12.6,1214.29,-1022.89,-962.95,0.0,160.0,0.0,72.0,0.0,0.0,0.0,0.0,0.0,0.0,0.0,0.0,0.0,0.0,0.0,0.0,0.0,0.0
76.0,1282.0,0.0,0.0,-0.0,0.0,1282.0,0.0,10553.905979915864,0.0,10553.905979915862,0.0,0.0,0.0,0.4231913395226982,0.5926541289151525,0.0,0.0,0.0,"[0.06466183579849627, 0.45934215018797175, 0.10132466050243494, 0.7005684509573307, 0.45356217451924863, 0.21060840304696882, 0.367242802383803, 0.992144693932989]",21.94,0.0,0.0,0.0,195.22116779772196,51.40217996173855,-1482.5936342853813,-419.3778600846882,1924.775414385779,0.0,0.0,0.0,0.0,0.0,0.0,-13.0,21.751307957199952,0.0,21.774852239186522,0.0,-13.0,21.94,21.22,22.33,21.79,22.3,-14.74,-13.0,1189.13,-1034.74,-974.1,0.0,160.0,2.0,59.0,0.0,0.0,0.0,0.0,0.0,0.0,0.0,0.0,0.0,0.0,0.0,0.0,0.0,0.0
77.0,1175.0,17120.996697459224,15860.391713971929,-0.0,0.0,0.0,0.0,20333.18671012225,0.0,0.0,0.0,20333.18671012225,0.0,0.4231913395226982,0.5926541289151525,0.0,0.0,0.0,"[0.06466183579849627, 0.45934215018797175, 0.10132466050243494, 0.7005684509573307, 0.45356217451924863, 0.21060840304696882, 0.367242802383803, 0.992144693932989]",22.06,0.0,0.0,0.0,217.57309600061708,74.69237123643778,-1505.057189734529,-605.5747726050305,1556.141206972288,0.0,0.0,0.0,0.0,0.0,0.0,-13.4,21.790566534525173,0.0,21.77849890408004,0.0,-13.4,22.06,21.22,22.34,21.87,22.39,-15.16,-13.4,1628.08,-1050.42,-988.86,0.0,160.0,44.0,71.0,0.0,0.0,0.0,0.0,0.0,0.0,0.0,0.0,0.0,0.0,0.0,0.0,0.0,0.0
78.0,1793.0,25899.39102735525,7976.894072218473,-0.0,0.0,-16000.0,0.0,9922.276234614237,0.0,0.0,0.0,9922.276234614237,0.6533333333333333,0.4231913395226982,0.5926541289151525,0.0,0.0,0.0,"[0.06466183579849627, 0.45934215018797175, 0.10132466050243494, 0.7005684509573307, 0.45356217451924863, 0.21060840304696882, 0.367242802383803, 0.992144693932989]",21.94,0.0,0.0,0.0,313.07027643157613,137.98225299463738,-1516.5442118310623,-429.66668181296865,1503.0393183747626,0.0,0.0,0.0,0.0,0.0,0.0,-13.8,21.746746804248815,0.0,21.77065504826113,0.0,-13.8,21.94,21.21,22.34,21.78,22.31,-15.55,-13.8,846.67,-1058.44,-996.41,0.0,320.0,72.0,54.0,0.0,0.0,0.0,0.0,0.0,0.0,0.0,0.0,0.0,0.0,0.0,0.0,0.0,0.0
79.0,1036.0,1041.2060301507538,0.0,-0.0,0.0,0.0,0.0,11960.246384058477,0.0,11960.246384058477,0.0,0.0,0.6533333333333333,0.37233995183537477,0.5926541289151525,0.0,0.0,0.0,"[0.06466183579849627, 0.45934215018797175, 0.10132466050243494, 0.7005684509573307, 0.45356217451924863, 0.21060840304696882, 0.367242802383803, 0.992144693932989]",21.94,0.0,0.0,0.0,267.0768857063881,119.84744260105649,-1529.2756784106923,-442.3930177155963,1591.5895394294544,0.0,0.0,0.0,0.0,0.0,0.0,-14.1,21.74074804361377,0.0,21.76278306007174,0.0,-14.1,21.94,21.19,22.33,21.8,22.32,-15.89,-14.1,3161.43,-1067.32,-1004.77,0.0,234.0,86.0,64.0,0.0,0.0,0.0,0.0,0.0,0.0,0.0,0.0,0.0,0.0,0.0,0.0,0.0,0.0
80.0,1247.0,0.0,4783.488224471722,-0.0,0.0,6030.488224471722,0.0,7187.084443538024,0.0,1419.4226066422746,0.0,5767.66183689575,0.09048495943645851,0.3663049917731202,0.5926541289151525,0.0,0.0,0.0,"[0.06466183579849627, 0.45934215018797175, 0.10132466050243494, 0.7005684509573307, 0.45356217451924863, 0.21060840304696882, 0.367242802383803, 0.992144693932989]",21.94,0.0,0.0,2.382203514668038,164.70218890530745,61.89489634330877,-1533.5195006039023,-453.6876050174946,1761.65366917073,0.0,0.0,0.0,0.0,0.0,0.0,-14.2,21.735303444715814,0.0,21.755833702791808,0.0,-14.2,21.94,21.18,22.33,21.79,22.32,-15.95,-14.2,1011.21,-1070.28,-1007.56,3.93,95.0,57.0,65.0,0.0,0.0,0.0,0.0,0.0,0.0,0.0,0.0,0.0,0.0,0.0,0.0,0.0,0.0
81.0,1962.0,0.0,4670.206251904265,-1351.788031225834,7983.994283130099,0.0,0.0,6655.090504250879,0.0,0.0,0.0,6655.090504250879,0.09048495943645851,0.3663049917731202,0.5970699698171569,0.0,0.0,0.0,"[0.06466183579849627, 0.45934215018797175, 0.10132466050243494, 0.7005684509573307, 0.45356217451924863, 0.21060840304696882, 0.367242802383803, 0.992144693932989]",21.94,0.0,0.0,813.316244806963,72.1422810907545,1.6072658041133565,-1435.91159016007,-460.73855438596433,1130.9671231971543,0.0,0.0,0.0,0.0,0.0,0.0,-11.9,21.72997781566029,0.0,21.749067728480444,0.0,-11.9,21.94,21.17,22.33,21.78,22.32,-12.37,-11.9,530.31,-1002.16,-943.43,1340.97,0.0,0.0,53.0,0.0,0.0,0.0,0.0,0.0,0.0,0.0,0.0,0.0,0.0,0.0,0.0,0.0,0.0
82.0,1603.0,0.0,0.0,-886.2569013322809,14281.691842497301,-11792.43494116502,0.0,8642.361448094138,0.0,8642.361448094138,0.0,0.0,0.5720093862006969,0.3295602577251009,0.5999650756948424,0.0,0.0,0.0,"[0.06466183579849627, 0.45934215018797175, 0.10132466050243494, 0.7005684509573307, 0.45356217451924863, 0.21060840304696882, 0.367242802383803, 0.992144693932989]",22.01,0.0,0.0,1169.3937802721057,111.61635942343149,2.4867131308923653,-1358.545545931446,-499.3142293229708,628.719453933119,0.0,0.0,0.0,0.0,0.0,0.0,-10.0,21.78684568613852,0.0,21.8068690092743,0.0,-10.0,22.01,21.18,22.43,21.9,22.71,-9.69,-10.0,74.54,-948.16,-892.6,1928.05,0.0,0.0,82.0,0.0,0.0,0.0,0.0,0.0,0.0,0.0,0.0,0.0,0.0,0.0,0.0,0.0,0.0
83.0,4674.0,10955.456883690398,23472.30417356417,-0.0,17245.624574292226,0.0,0.0,41056.40272156085,0.0,0.0,0.0,41056.40272156085,0.5720093862006969,0.3295602577251009,0.5999650756948424,0.0,0.0,0.0,"[0.06466183579849627, 0.45934215018797175, 0.10132466050243494, 0.7005684509573307, 0.45356217451924863, 0.21060840304696882, 0.367242802383803, 0.992144693932989]",22.06,0.0,0.0,1393.2640179103787,283.8408318585594,44.82148789584047,-1297.1099022672342,-474.5603298067109,-11.632531610275391,0.0,0.0,0.0,0.0,0.0,0.0,-8.5,21.850178729277786,0.0,21.88593560342113,0.0,-8.5,22.06,21.2,22.58,21.96,22.92,-7.7,-8.5,0.0,-905.29,-852.24,2297.16,134.0,0.0,138.0,0.0,0.0,0.0,0.0,0.0,0.0,0.0,0.0,0.0,0.0,0.0,0.0,0.0,0.0
84.0,6610.0,0.0,2262.658295414363,-0.0,19354.061082336073,-10481.40278692171,0.0,4173.4177459791335,0.0,0.0,0.0,4173.4177459791335,1.0,0.3295602577251009,0.5918018103887199,0.0,0.0,0.0,"[0.06466183579849627, 0.45934215018797175, 0.10132466050243494, 0.7005684509573307, 0.45356217451924863, 0.21060840304696882, 0.367242802383803, 0.992144693932989]",22.06,0.0,0.0,1551.122899061405,413.51067175356,50.58338417473741,-1254.671680335133,-370.2983890383333,-458.5383100620999,0.0,0.0,0.0,0.0,0.0,0.0,-7.5,21.900075182610077,0.0,21.967259657126476,0.0,-7.5,22.06,21.22,22.72,21.98,23.06,-6.38,-7.5,0.0,-875.67,-824.35,2557.43,144.0,0.0,228.0,0.0,0.0,0.0,0.0,0.0,0.0,0.0,0.0,0.0,0.0,0.0,0.0,0.0,0.0
85.0,1907.0,0.0,15219.105186931236,-0.0,17126.105186931236,0.0,0.0,2974.9542468428967,0.0,-25531.577302066493,0.0,28506.53154890939,1.0,0.43381419837520574,0.5918018103887199,0.0,0.0,0.0,"[0.06466183579849627, 0.45934215018797175, 0.10132466050243494, 0.7005684509573307, 0.45356217451924863, 0.21060840304696882, 0.367242802383803, 0.992144693932989]",22.06,0.0,0.0,1381.8377588498206,217.57309600061708,52.25130151862863,-1241.940213755503,-257.37700313031024,-212.7726590844028,0.0,0.0,0.0,0.0,0.0,0.0,-7.2,21.95485391454973,0.0,22.05563838603937,0.0,-7.2,22.06,21.25,22.86,22.04,23.22,-6.34,-7.2,0.0,-866.78,-815.99,2278.32,165.0,0.0,73.0,0.0,0.0,0.0,0.0,0.0,0.0,0.0,0.0,0.0,0.0,0.0,0.0,0.0,0.0
86.0,2384.0,0.0,11833.22855841832,-0.0,14217.22855841832,0.0,0.0,5391.712584195984,0.0,-16208.767744847577,0.0,21600.48032904356,1.0,0.5,0.5918018103887199,0.0,0.0,0.0,"[0.06466183579849627, 0.45934215018797175, 0.10132466050243494, 0.7005684509573307, 0.45356217451924863, 0.21060840304696882, 0.367242802383803, 0.992144693932989]",22.06,0.0,0.0,1163.5239865377594,488.3036622786322,40.75783473072366,-1263.1593247215533,-178.47831423387387,-302.01367299249875,0.0,0.0,0.0,0.0,0.0,0.0,-7.7,21.9936723078424,0.0,22.11724100310647,0.0,-7.7,22.06,21.27,22.96,22.02,23.2,-7.34,-7.7,2143.15,-881.59,-829.93,1918.38,104.0,0.0,304.0,0.0,0.0,0.0,0.0,0.0,0.0,0.0,0.0,0.0,0.0,0.0,0.0,0.0,0.0
87.0,2212.0,6967.3931974165025,4721.33031603597,-0.0,0.774084606550006,0.0,0.0,7853.1900762654495,0.0,0.0,0.0,7853.190076265451,1.0,0.5,0.5918018103887199,0.0,0.0,0.0,"[0.06466183579849627, 0.45934215018797175, 0.10132466050243494, 0.7005684509573307, 0.45356217451924863, 0.21060840304696882, 0.367242802383803, 0.992144693932989]",22.06,0.0,0.0,16.657143163553737,511.9451248009252,45.30670021406336,-1335.3043020061248,-140.3174875262491,903.5361547067303,0.0,0.0,0.0,0.0,0.0,0.0,-9.4,22.01409145243343,0.0,22.14871037046025,0.0,-9.4,22.06,21.29,23.01,21.99,23.12,-10.91,-9.4,0.0,-931.94,-877.33,27.46,118.0,0.0,314.0,0.0,0.0,0.0,0.0,0.0,0.0,0.0,0.0,0.0,0.0,0.0,0.0,0.0,0.0
88.0,5759.0,0.0,2865.7322186155047,-0.0,0.0,8624.732218615505,0.0,4821.334430196718,0.0,0.0,0.0,4821.334430196717,0.6333022015894769,0.5,0.5815977287560669,0.0,0.0,0.0,"[0.06466183579849627, 0.45934215018797175, 0.10132466050243494, 0.7005684509573307, 0.45356217451924863, 0.21060840304696882, 0.367242802383803, 0.992144693932989]",22.06,0.0,0.0,0.0,382.4902072924908,8.521541338789694,-1326.8166576197048,-215.66011615891622,885.4603431774713,0.0,0.0,0.0,0.0,0.0,0.0,-9.2,21.977489455221303,0.0,22.08647752876117,0.0,-9.2,22.06,21.28,22.89,21.85,22.6,-10.84,-9.2,0.0,-926.02,-871.75,0.0,0.0,0.0,281.0,0.0,0.0,0.0,0.0,0.0,0.0,0.0,0.0,0.0,0.0,0.0,0.0,0.0,0.0
89.0,3727.0,5990.163678030262,3396.6774605837622,-0.0,0.0,1163.4646009436512,0.0,5779.364760751777,0.0,0.0,0.0,5779.364760751777,0.5838351692364305,0.5,0.5815977287560669,0.0,0.0,0.0,"[0.06466183579849627, 0.45934215018797175, 0.10132466050243494, 0.7005684509573307, 0.45356217451924863, 0.21060840304696882, 0.367242802383803, 0.992144693932989]",21.94,0.0,0.0,0.0,111.32979624134308,11.705747177127483,-1312.8407465569771,-107.36144927302796,1564.3266302984762,0.0,0.0,0.0,0.0,0.0,0.0,-9.0,21.900494064550465,0.0,22.021288118469727,0.0,-9.0,21.94,21.27,22.77,21.77,22.46,-10.54,-9.0,0.0,-916.27,-862.57,0.0,0.0,17.0,80.0,0.0,0.0,0.0,0.0,0.0,0.0,0.0,0.0,0.0,0.0,0.0,0.0,0.0,0.0
90.0,5261.0,0.0,2424.6963564609605,-0.0,0.0,7685.6963564609605,0.0,4171.793108248445,0.0,0.0,0.0,4171.793108248445,0.25706236496513113,0.5,0.5754752797764751,0.0,0.0,0.0,"[0.06466183579849627, 0.45934215018797175, 0.10132466050243494, 0.7005684509573307, 0.45356217451924863, 0.21060840304696882, 0.367242802383803, 0.992144693932989]",22.06,0.0,0.0,0.0,566.463770193243,170.2185463865714,-1309.8413688468643,-338.97692925528884,655.3667385777047,0.0,0.0,0.0,0.0,0.0,0.0,-8.8,21.917360928497935,0.0,21.98531861633827,0.0,-8.8,22.06,21.27,22.7,21.88,22.55,-10.3,-8.8,0.0,-914.17,-860.6,0.0,286.0,139.0,251.0,0.0,0.0,0.0,0.0,0.0,0.0,0.0,0.0,0.0,0.0,0.0,0.0,0.0,0.0
91.0,4494.0,0.0,1552.1068239798851,-0.0,0.0,6046.106823979885,0.0,2685.2624513823566,0.0,0.0,0.0,2685.2624513823566,0.0,0.5,0.5754752797764751,0.0,0.0,0.0,"[0.06466183579849627, 0.45934215018797175, 0.10132466050243494, 0.7005684509573307, 0.45356217451924863, 0.21060840304696882, 0.367242802383803, 0.992144693932989]",21.94,0.0,0.0,0.0,712.3244298762384,205.51774253728746,-1300.109279977347,-204.71090463016097,865.2076995352054,0.0,0.0,0.0,0.0,0.0,0.0,-8.7,21.853046822571173,0.0,21.94120050249274,0.0,-8.7,21.94,21.27,22.62,21.78,22.4,-10.16,-8.7,0.0,-907.38,-854.21,0.0,288.0,197.0,351.0,0.0,0.0,0.0,0.0,0.0,0.0,0.0,0.0,0.0,0.0,0.0,0.0,0.0,0.0
92.0,5529.0,7792.928545080681,2224.963902355277,-0.0,0.0,0.0,0.0,3891.7787252823787,0.0,0.0,0.0,3891.7787252823787,0.6533333333333333,0.5,0.548944667531577,0.0,0.0,0.0,"[0.06466183579849627, 0.45934215018797175, 0.10132466050243494, 0.10785542358176059, 0.45356217451924863, 0.21060840304696882, 0.367242802383803, 0.7372239891193004]",22.06,0.0,0.0,0.0,852.8836706905981,149.05115900409734,-1297.1099022672342,-426.1692614559951,463.3661007538922,0.0,0.0,0.0,0.0,0.0,0.0,-8.5,21.874843183066524,0.0,21.913798083876188,0.0,-8.5,22.06,21.26,22.56,21.86,22.45,-9.92,-8.5,0.0,-905.29,-852.24,0.0,260.0,102.0,479.0,0.0,0.0,0.0,0.0,0.0,0.0,0.0,0.0,0.0,0.0,0.0,0.0,0.0,0.0
93.0,3843.0,12637.398607733145,0.0,-0.0,0.0,0.0,0.0,7858.090453225027,0.0,0.0,0.0,0.0,0.6533333333333333,0.5,0.5285365042662709,34924.84645877791,8731.211614694477,43656.058073472384,"[0.06466183579849627, 0.45934215018797175, 0.10132466050243494, 0.10785542358176059, 0.45356217451924863, 0.21060840304696882, 0.367242802383803, 0.7372239891193004]",21.94,0.0,0.0,0.0,861.8387701308606,139.19528379019465,-1283.1339912045064,-288.89854594184027,845.4401163376723,0.0,0.0,0.0,0.0,0.0,0.0,-8.3,21.811939998931475,0.0,21.87274498795113,0.0,-8.3,21.94,21.25,22.49,21.74,22.3,-9.68,-8.3,1373.44,-895.53,-843.05,0.0,310.0,57.0,464.0,0.0,0.0,0.0,0.0,0.0,0.0,0.0,0.0,0.0,0.0,0.0,0.0,0.0,0.0
94.0,2451.0,2224.254869900959,2218.253949946151,-0.0,0.0,2456.1203543946967,0.0,3964.631245586776,0.0,0.0,0.0,3964.6312455867765,0.5489064475172323,0.5,0.5285365042662706,0.0,0.0,0.0,"[0.06466183579849627, 0.45934215018797175, 0.10132466050243494, 0.10785542358176059, 0.45356217451924863, 0.21060840304696882, 0.367242802383803, 0.7372239891193004]",22.06,0.0,0.0,0.0,686.963588261415,70.08285421332023,-1280.1346134943938,-506.93321745308214,767.5328245113468,0.0,0.0,0.0,0.0,0.0,0.0,-8.1,21.835398221962134,0.0,21.848721205628152,0.0,-8.1,22.06,21.25,22.45,21.82,22.36,-9.45,-8.1,0.0,-893.44,-841.08,0.0,168.0,12.0,415.0,0.0,0.0,0.0,0.0,0.0,0.0,0.0,0.0,0.0,0.0,0.0,0.0,0.0,0.0
95.0,2032.0,8711.332183272996,6635.77552235663,-0.0,0.0,0.0,0.0,11986.481705168379,0.0,0.0,0.0,11986.481705168377,0.5489064475172323,0.5,0.5285365042662706,0.0,0.0,0.0,"[0.06466183579849627, 0.45934215018797175, 0.10132466050243494, 0.10785542358176059, 0.45356217451924863, 0.21060840304696882, 0.367242802383803, 0.7372239891193004]",21.94,0.0,0.0,0.0,552.4938150664337,111.23492395260001,-1266.1587024316661,-357.23493917632385,966.0181640939347,0.0,0.0,0.0,0.0,0.0,0.0,-7.9,21.778526320343463,0.0,21.817881733085684,0.0,-7.9,21.94,21.24,22.4,21.73,22.25,-9.21,-7.9,776.85,-883.69,-831.9,0.0,282.0,33.0,254.0,0.0,0.0,0.0,0.0,0.0,0.0,0.0,0.0,0.0,0.0,0.0,0.0,0.0,0.0
96.0,1245.0,0.0,3511.6796456053034,-0.0,0.0,4756.679645605303,0.0,6544.162840169088,0.0,0.0,0.0,6544.162840169086,0.3466666666666667,0.5,0.5285365042662706,0.0,0.0,0.0,"[0.06466183579849627, 0.45934215018797175, 0.10132466050243494, 0.10785542358176059, 0.45356217451924863, 0.21060840304696882, 0.367242802383803, 0.7372239891193004]",21.94,0.0,0.0,0.0,343.875818506079,33.35834687782444,-1240.6957692724056,-384.7741506092397,1250.141040118104,0.0,0.0,0.0,0.0,0.0,0.0,-7.3,21.764861256422428,0.0,21.79574253091549,0.0,-7.3,21.94,21.23,22.36,21.75,22.27,-8.64,-7.3,741.12,-865.91,-815.17,0.0,80.0,5.0,210.0,0.0,0.0,0.0,0.0,0.0,0.0,0.0,0.0,0.0,0.0,0.0,0.0,0.0,0.0
97.0,933.0,24008.224247291677,6955.183126055218,-0.0,0.0,-16000.0,0.0,13425.417793183067,0.0,0.0,0.0,13425.417793183067,1.0,0.5,0.5285365042662706,0.0,0.0,0.0,"[0.06466183579849627, 0.45934215018797175, 0.10132466050243494, 0.10785542358176059, 0.45356217451924863, 0.21060840304696882, 0.367242802383803, 0.7372239891193004]",21.94,0.0,0.0,0.0,211.1254244036281,27.687427908594277,-1210.989013919935,-406.65535113505314,1646.9042956496426,0.0,0.0,0.0,0.0,0.0,0.0,-6.6,21.75386447723303,0.0,21.777936269707496,0.0,-6.6,21.94,21.23,22.33,21.75,22.25,-7.93,-6.6,1503.17,-845.18,-795.65,0.0,80.0,0.0,113.0,0.0,0.0,0.0,0.0,0.0,0.0,0.0,0.0,0.0,0.0,0.0,0.0,0.0,0.0
98.0,904.0,7215.272935278551,6275.196570602158,-0.0,0.0,0.0,0.0,12531.620202992937,0.0,0.0,0.0,12531.620202992937,1.0,0.5,0.5285365042662706,0.0,0.0,0.0,"[0.06466183579849627, 0.45934215018797175, 0.10132466050243494, 0.10785542358176059, 0.45356217451924863, 0.21060840304696882, 0.367242802383803, 0.7372239891193004]",22.06,0.0,0.0,0.0,92.70318940559713,25.049085928257252,-1186.7705252437715,-591.8464011495372,1662.2953473525547,0.0,0.0,0.0,0.0,0.0,0.0,-5.9,21.79299433365412,0.0,21.77925763773761,0.0,-5.9,22.06,21.23,22.33,21.84,22.34,-7.19,-5.9,1078.53,-828.28,-779.74,0.0,80.0,0.0,26.0,0.0,0.0,0.0,0.0,0.0,0.0,0.0,0.0,0.0,0.0,0.0,0.0,0.0,0.0
99.0,889.0,6849.680658544043,5926.432255251322,-0.0,0.0,0.0,0.0,12061.128928720202,0.0,0.0,0.0,12061.1289287202,1.0,0.5,0.5285365042662706,0.0,0.0,0.0,"[0.06466183579849627, 0.45934215018797175, 0.10132466050243494, 0.10785542358176059, 0.45356217451924863, 0.21060840304696882, 0.367242802383803, 0.7372239891193004]",22.06,0.0,0.0,0.0,174.37369630079093,26.86863212159313,-1169.795236470931,-582.1798517057699,1285.7759848756484,0.0,0.0,0.0,0.0,0.0,0.0,-5.5,21.797465557251318,0.0,21.785415618367875,0.0,-5.5,22.06,21.24,22.33,21.85,22.34,-6.78,-5.5,1171.09,-816.43,-768.59,0.0,80.0,0.0,86.0,0.0,0.0,0.0,0.0,0.0,0.0,0.0,0.0,0.0,0.0,0.0,0.0,0.0,0.0
100.0,919.0,4162.537733832725,3222.725045163562,-0.0,0.0,0.0,0.0,6712.317997030264,0.0,0.0,0.0,6712.317997030264,1.0,0.5,0.49690385120504615,0.0,0.0,0.0,"[0.06466183579849627, 0.45934215018797175, 0.10132466050243494, 0.10785542358176059, 0.45356217451924863, 0.21060840304696882, 0.367242802383803, 0.7372239891193004]",21.94,0.0,0.0,0.0,309.4165958599491,53.40368077440801,-1143.0878588285734,-404.8324937402452,1188.1502650048797,0.0,0.0,0.0,0.0,0.0,0.0,-5.0,21.753855058443285,0.0,21.775529452642594,0.0,-5.0,21.94,21.24,22.31,21.76,22.25,-6.25,-5.0,2407.16,-797.79,-751.04,0.0,160.0,1.0,143.0,0.0,0.0,0.0,0.0,0.0,0.0,0.0,0.0,0.0,0.0,0.0,0.0,0.0,0.0
101.0,687.0,0.0,3858.6586124014284,-0.0,0.0,4545.658612401428,0.0,8183.98872217339,0.0,0.0,0.0,8183.988722173388,0.8067322018536808,0.5,0.49690385120504615,0.0,0.0,0.0,"[0.06466183579849627, 0.45934215018797175, 0.10132466050243494, 0.10785542358176059, 0.45356217451924863, 0.21060840304696882, 0.367242802383803, 0.7372239891193004]",21.94,0.0,0.0,0.0,96.14194759065794,38.149818520275566,-1126.112570055733,-419.04897821290166,1413.0487360762568,0.0,0.0,0.0,0.0,0.0,0.0,-4.6,21.74663702752802,0.0,21.76331434221469,0.0,-4.6,21.94,21.24,22.29,21.75,22.23,-5.65,-4.6,818.98,-785.94,-739.89,0.0,80.0,24.0,26.0,0.0,0.0,0.0,0.0,0.0,0.0,0.0,0.0,0.0,0.0,0.0,0.0,0.0,0.0
102.0,1033.0,4724.3824497740525,3667.760537525183,-0.0,0.0,0.0,0.0,7884.002756201579,0.0,0.0,0.0,7884.002756201579,0.8067322018536808,0.5,0.49690385120504615,0.0,0.0,0.0,"[0.06466183579849627, 0.45934215018797175, 0.10132466050243494, 0.10785542358176059, 0.45356217451924863, 0.21060840304696882, 0.367242802383803, 0.7372239891193004]",21.94,0.0,0.0,0.0,214.3492602021226,52.40293036807328,-1113.3811034761027,-424.65218070836755,1540.7655199580595,0.0,0.0,0.0,0.0,0.0,0.0,-4.3,21.743775041025266,0.0,21.757979203022636,0.0,-4.3,21.94,21.24,22.28,21.77,22.25,-5.38,-4.3,1888.07,-777.06,-731.52,0.0,111.0,29.0,96.0,0.0,0.0,0.0,0.0,0.0,0.0,0.0,0.0,0.0,0.0,0.0,0.0,0.0,0.0
103.0,914.0,6645.5114494156805,5698.2838921686025,-0.0,0.0,0.0,0.0,12411.667036121395,0.0,0.0,0.0,12411.667036121395,0.8067322018536808,0.5,0.49690385120504615,0.0,0.0,0.0,"[0.06466183579849627, 0.45934215018797175, 0.10132466050243494, 0.10785542358176059, 0.45356217451924863, 0.21060840304696882, 0.367242802383803, 0.7372239891193004]",22.06,0.0,0.0,0.0,161.7649162889013,61.31870671541909,-1106.1379035727796,-602.9562025787206,1223.0213486909915,0.0,0.0,0.0,0.0,0.0,0.0,-4.0,21.78646861630343,0.0,21.764598450174155,0.0,-4.0,22.06,21.25,22.28,21.84,22.31,-5.06,-4.0,1837.37,-772.0,-726.76,0.0,131.0,37.0,46.0,0.0,0.0,0.0,0.0,0.0,0.0,0.0,0.0,0.0,0.0,0.0,0.0,0.0,0.0
104.0,2800.0,7570.943652457862,0.0,-0.0,0.0,-4733.088934195573,0.0,4610.44538968575,0.0,4610.44538968575,0.0,0.0,1.0,0.4803977662003157,0.49690385120504615,0.0,0.0,0.0,"[0.06466183579849627, 0.45934215018797175, 0.10132466050243494, 0.10785542358176059, 0.45356217451924863, 0.21060840304696882, 0.367242802383803, 0.7372239891193004]",21.94,0.0,0.0,0.7791246897315448,177.02440573510862,68.2026564802065,-1087.918170316842,-417.4210862401769,1263.192758925606,0.0,0.0,0.0,0.0,0.0,0.0,-3.7,21.746924820639563,0.0,21.761022392168186,0.0,-3.7,21.94,21.25,22.27,21.76,22.23,-4.7,-3.7,688.85,-759.29,-714.79,1.28,133.0,48.0,55.0,0.0,0.0,0.0,0.0,0.0,0.0,0.0,0.0,0.0,0.0,0.0,0.0,0.0,0.0
105.0,3772.0,0.0,0.0,-0.0,5.440196288417861,10609.181803711583,0.0,9171.665547378416,34213.11,36542.153547378424,0.0,0.0,0.5489293450802899,0.325031467104319,0.49690385120504615,27370.488,6842.622,34213.11,"[0.06466183579849627, 0.45934215018797175, 0.10132466050243494, 0.10785542358176059, 0.45356217451924863, 0.21060840304696882, 0.367242802383803, 0.7372239891193004]",21.94,0.0,0.0,22.865753288238096,256.4740479691173,81.87957870011451,-1024.2608374186905,-420.49198221001126,1353.6521436181092,0.0,0.0,0.0,0.0,0.0,0.0,-2.2,21.744512913026284,0.0,21.756326787863014,0.0,-2.2,21.94,21.25,22.26,21.77,22.23,-2.97,-2.2,2197.58,-714.86,-672.97,37.7,165.0,53.0,96.0,0.0,0.0,0.0,0.0,0.0,0.0,0.0,0.0,0.0,0.0,0.0,0.0,0.0,0.0
106.0,1596.0,5554.697025548866,3949.480097660512,-0.0,18.55655723939068,0.0,0.0,9656.770366291054,0.0,0.0,0.0,9656.770366291054,0.5489293450802899,0.325031467104319,0.4969038512050452,0.0,0.0,0.0,"[0.06466183579849627, 0.45934215018797175, 0.10132466050243494, 0.10785542358176059, 0.45356217451924863, 0.21060840304696882, 0.367242802383803, 0.7372239891193004]",22.06,0.0,0.0,28.830225778622047,265.5007882049019,52.58488498740689,-987.3108821628967,-593.1813866390555,968.7653871820377,0.0,0.0,0.0,0.0,0.0,0.0,-1.2,21.7895157188812,0.0,21.766140812120735,0.0,-1.2,22.06,21.26,22.27,21.85,22.3,-1.86,-1.2,1785.49,-689.07,-648.69,47.53,102.0,32.0,138.0,0.0,0.0,0.0,0.0,0.0,0.0,0.0,0.0,0.0,0.0,0.0,0.0,0.0,0.0
107.0,4525.0,298.72680350279956,0.0,-0.0,216.64593430099447,4011.12089621372,0.0,6663.512954789987,0.0,6663.512954789987,0.0,0.0,0.3783884906494345,0.2967002045414364,0.4969038512050452,0.0,0.0,0.0,"[0.06466183579849627, 0.45934215018797175, 0.10132466050243494, 0.10785542358176059, 0.45356217451924863, 0.21060840304696882, 0.367242802383803, 0.7372239891193004]",21.94,0.0,0.0,54.37708877332733,415.58825482370094,45.45832906350802,-926.6529269748581,-406.3632804073524,1084.1849681499334,0.0,0.0,0.0,0.0,0.0,0.0,0.1,21.75003419420677,0.0,21.76202406727607,0.0,0.1,21.94,21.27,22.25,21.75,22.2,-0.46,0.1,1711.99,-646.74,-608.84,89.65,126.0,0.0,239.0,0.0,0.0,0.0,0.0,0.0,0.0,0.0,0.0,0.0,0.0,0.0,0.0,0.0,0.0
108.0,4025.0,5230.561079126412,1709.6776926993662,-0.0,530.2694189685868,0.0,0.0,4571.461328029434,0.0,0.0,0.0,4571.461328029434,0.3783884906494345,0.2967002045414364,0.4969038512050452,0.0,0.0,0.0,"[0.06466183579849627, 0.45934215018797175, 0.10132466050243494, 0.10785542358176059, 0.45356217451924863, 0.21060840304696882, 0.367242802383803, 0.7372239891193004]",22.06,0.0,0.0,70.8207726787046,219.14919350210326,4.8824489521179375,-885.4591495258545,-584.0191984457556,1171.654854920961,0.0,0.0,0.0,0.0,0.0,0.0,1.2,21.79267060025122,0.0,21.76765622721068,0.0,1.2,22.06,21.28,22.25,21.82,22.27,0.57,1.2,608.0,-617.99,-581.77,116.77,0.0,0.0,161.0,0.0,0.0,0.0,0.0,0.0,0.0,0.0,0.0,0.0,0.0,0.0,0.0,0.0,0.0
109.0,3744.0,0.0,1131.40843488812,-0.0,564.5540096757325,4310.8544252123875,0.0,3111.5311796651736,0.0,0.0,0.0,3111.531179665174,0.19510386372713906,0.2967002045414364,0.4969038512050452,0.0,0.0,0.0,"[0.06466183579849627, 0.45934215018797175, 0.10132466050243494, 0.10785542358176059, 0.45356217451924863, 0.21060840304696882, 0.367242802383803, 0.7372239891193004]",22.06,0.0,0.0,74.56773486778432,171.50806447990692,3.8210470060053443,-851.5085719801735,-566.1172330246258,1164.525311121013,0.0,0.0,0.0,0.0,0.0,0.0,2.0,21.800931530683183,0.0,21.778654816589526,0.0,2.0,22.06,21.3,22.26,21.83,22.28,1.37,2.0,1738.89,-594.29,-559.46,122.94,0.0,0.0,126.0,0.0,0.0,0.0,0.0,0.0,0.0,0.0,0.0,0.0,0.0,0.0,0.0,0.0,0.0
110.0,2730.0,4368.678828188,1767.2826864912881,-0.0,150.44725244422833,0.0,0.0,4910.818306221767,0.0,0.0,0.0,4910.818306221767,0.19510386372713906,0.2967002045414364,0.4969038512050452,0.0,0.0,0.0,"[0.06466183579849627, 0.45934215018797175, 0.10132466050243494, 0.10785542358176059, 0.45356217451924863, 0.21060840304696882, 0.367242802383803, 0.7372239891193004]",22.06,0.0,0.0,56.3448549134887,397.9646191252643,56.55756084285687,-838.7771054005433,-548.4409001273985,610.5042527244358,0.0,0.0,0.0,0.0,0.0,0.0,2.3,21.80944830576429,0.0,21.78990802793519,0.0,2.3,22.06,21.31,22.27,21.83,22.28,1.48,2.3,303.29,-585.4,-551.1,92.9,166.0,0.0,205.0,0.0,0.0,0.0,0.0,0.0,0.0,0.0,0.0,0.0,0.0,0.0,0.0,0.0,0.0
111.0,2562.0,0.0,2026.9066527655314,-0.0,0.06377790322042153,4588.842874862311,0.0,5516.306951868533,0.0,0.0,0.0,5516.306951868532,0.0,0.2967002045414364,0.4851691573274942,0.0,0.0,0.0,"[0.06466183579849627, 0.45934215018797175, 0.10132466050243494, 0.10785542358176059, 0.45356217451924863, 0.21060840304696882, 0.367242802383803, 0.7372239891193004]",21.94,0.0,0.0,13.56834774897845,378.1917595611649,44.91246520550725,-858.7517718834966,-367.924529077878,1058.4376844555052,0.0,0.0,0.0,0.0,0.0,0.0,1.7,21.768113128937372,0.0,21.782367728450986,0.0,1.7,21.94,21.32,22.24,21.74,22.18,0.63,1.7,1947.46,-599.35,-564.22,22.37,127.0,0.0,211.0,0.0,0.0,0.0,0.0,0.0,0.0,0.0,0.0,0.0,0.0,0.0,0.0,0.0,0.0
112.0,1755.0,33030.28744881255,26657.951676967914,-0.0,0.0,-4452.184334600576,0.0,6228.4707880874885,0.0,-64289.09591726782,0.0,70517.5667053553,0.1817975269961902,0.55921401287028,0.4851691573274942,0.0,0.0,0.0,"[0.06466183579849627, 0.45934215018797175, 0.10132466050243494, 0.10785542358176059, 0.45356217451924863, 0.21060840304696882, 0.367242802383803, 0.7372239891193004]",22.06,0.0,0.0,0.0,73.50345620567438,1.6375915740022873,-898.1906161054847,-552.3046691419834,1375.4477696709735,0.0,0.0,0.0,0.0,0.0,0.0,0.9,21.808523522611946,0.0,21.784530491661897,0.0,0.9,22.06,21.33,22.24,21.83,22.24,-0.3,0.9,452.55,-626.87,-590.14,0.0,0.0,0.0,54.0,0.0,0.0,0.0,0.0,0.0,0.0,0.0,0.0,0.0,0.0,0.0,0.0,0.0,0.0
113.0,2981.0,0.0,1294.8778349503932,-0.0,0.0,4275.877834950394,0.0,3437.650177984745,0.0,0.0,0.0,3437.650177984745,0.0,0.55921401287028,0.4499650756948412,0.0,0.0,0.0,"[0.06466183579849627, 0.45934215018797175, 0.10132466050243494, 0.10785542358176059, 0.45356217451924863, 0.21060840304696882, 0.367242802383803, 0.7372239891193004]",22.06,0.0,0.0,0.0,263.4948459302831,44.94279097539618,-893.9467939122746,-538.842194922935,860.4268954415254,0.0,0.0,0.0,0.0,0.0,0.0,1.0,21.815022489324935,0.0,21.793335046193256,0.0,1.0,22.06,21.34,22.25,21.85,22.26,-0.24,1.0,0.0,-623.91,-587.35,0.0,136.0,0.0,122.0,0.0,0.0,0.0,0.0,0.0,0.0,0.0,0.0,0.0,0.0,0.0,0.0,0.0,0.0
114.0,2822.0,21015.76320267145,2088.6843866580925,-0.0,0.0,-16000.0,0.0,5564.965092591276,0.0,0.0,0.0,5564.965092591275,0.6533333333333333,0.55921401287028,0.4499650756948412,0.0,0.0,0.0,"[0.06466183579849627, 0.45934215018797175, 0.10132466050243494, 0.10785542358176059, 0.45356217451924863, 0.21060840304696882, 0.367242802383803, 0.7372239891193004]",21.94,0.0,0.0,0.0,726.2227442075256,74.6923712364378,-884.2147050427571,-358.8822341332425,712.9393272857897,0.0,0.0,0.0,0.0,0.0,0.0,1.1,21.77291394733908,0.0,21.785365760960296,0.0,1.1,21.94,21.34,22.23,21.76,22.16,-0.15,1.1,0.0,-617.12,-580.95,0.0,164.0,21.0,445.0,0.0,0.0,0.0,0.0,0.0,0.0,0.0,0.0,0.0,0.0,0.0,0.0,0.0,0.0
115.0,4623.0,0.0,2049.3534940429695,-0.0,0.0,6672.353494042969,0.0,5499.248458734211,0.0,0.0,0.0,5499.248458734211,0.3696448344369486,0.55921401287028,0.4438426267152493,0.0,0.0,0.0,"[0.06466183579849627, 0.45934215018797175, 0.10132466050243494, 0.10785542358176059, 0.45356217451924863, 0.21060840304696882, 0.367242802383803, 0.7372239891193004]",22.06,0.0,0.0,0.0,2536.800569437554,115.54118327682822,-881.2153273326443,-552.8005118549789,-1211.7266969689601,0.0,0.0,0.0,0.0,0.0,0.0,1.3,21.80810591009457,0.0,21.77981887314691,0.0,1.3,22.06,21.35,22.21,21.81,22.19,0.03,1.3,0.0,-615.02,-578.98,0.0,145.0,32.0,1784.0,0.0,0.0,0.0,0.0,0.0,0.0,0.0,0.0,0.0,0.0,0.0,0.0,0.0,0.0
116.0,4418.0,0.0,2069.4807787468435,-0.0,0.0,6487.4807787468435,0.0,5572.987140423681,0.0,0.0,0.0,5572.987140423681,0.09381657003444677,0.55921401287028,0.4438426267152493,0.0,0.0,0.0,"[0.06466183579849627, 0.45934215018797175, 0.10132466050243494, 0.10785542358176059, 0.35207149987853725, 0.21060840304696882, 0.24914707053324037, 0.7372239891193004]",22.06,0.0,0.0,0.0,543.1088708530385,75.1775835546607,-876.9715051394343,-571.5348610187982,834.513732707696,0.0,0.0,0.0,0.0,0.0,0.0,1.4,21.798939921442624,0.0,21.76400875456379,0.0,1.4,22.06,21.35,22.18,21.75,22.1,0.17,1.4,0.0,-612.06,-576.19,0.0,93.0,67.0,343.0,0.0,0.0,0.0,0.0,0.0,0.0,0.0,0.0,0.0,0.0,0.0,0.0,0.0,0.0
117.0,3535.0,5687.633854239126,1162.6856133417205,-0.0,0.0,-961.5100716262098,0.0,3153.2108327229257,0.0,0.0,0.0,3153.2108327229253,0.133078231292517,0.55921401287028,0.4438426267152493,0.0,0.0,0.0,"[0.06466183579849627, 0.45934215018797175, 0.10132466050243494, 0.10785542358176059, 0.35207149987853725, 0.21060840304696882, 0.24914707053324037, 0.7372239891193004]",22.06,0.0,0.0,0.0,482.9306026144747,107.32289963692789,-868.4838607530141,-563.3579089850354,847.7180909506827,0.0,0.0,0.0,0.0,0.0,0.0,1.6,21.802812822293685,0.0,21.769065852714316,0.0,1.6,22.06,21.36,22.18,21.83,22.19,0.35,1.6,0.0,-606.14,-570.62,0.0,100.0,125.0,289.0,0.0,0.0,0.0,0.0,0.0,0.0,0.0,0.0,0.0,0.0,0.0,0.0,0.0,0.0
118.0,3130.0,0.0,0.0,-0.0,0.0,3130.0,0.0,1699.4926297067416,0.0,1699.4926297067418,0.0,0.0,0.0,0.5519882789004384,0.4438426267152493,0.0,0.0,0.0,"[0.06466183579849627, 0.45934215018797175, 0.10132466050243494, 0.10785542358176059, 0.35207149987853725, 0.21060840304696882, 0.24914707053324037, 0.7372239891193004]",22.06,0.0,0.0,0.0,982.9833553587312,137.64866952585916,-864.2400385598039,-551.5008851874669,36.47940432143916,0.0,0.0,0.0,0.0,0.0,0.0,1.7,21.808532654123567,0.0,21.777011423838964,0.0,1.7,22.06,21.36,22.19,21.84,22.21,0.41,1.7,0.0,-603.18,-567.83,0.0,146.0,136.0,631.0,0.0,0.0,0.0,0.0,0.0,0.0,0.0,0.0,0.0,0.0,0.0,0.0,0.0,0.0
119.0,2058.0,17780.946433032514,2615.2541351377904,-0.0,0.0,-13018.78756572956,0.0,7167.38203123798,0.0,0.0,0.0,7167.382031237979,0.5316004922672904,0.5519882789004384,0.40557732059280033,0.0,0.0,0.0,"[0.06466183579849627, 0.45934215018797175, 0.10132466050243494, 0.10785542358176059, 0.35207149987853725, 0.21060840304696882, 0.24914707053324037, 0.7372239891193004]",21.94,0.0,0.0,0.0,475.26503749361007,72.35728695499009,-850.2641274970765,-384.4871039513684,691.2616447181906,0.0,0.0,0.0,0.0,0.0,0.0,1.9,21.760080499091526,0.0,21.759362980807147,0.0,1.9,21.94,21.36,22.16,21.72,22.06,0.62,1.9,0.0,-593.42,-558.65,0.0,130.0,45.0,276.0,0.0,0.0,0.0,0.0,0.0,0.0,0.0,0.0,0.0,0.0,0.0,0.0,0.0,0.0
120.0,1096.0,3343.2508822751165,2230.5346278637408,-0.0,0.0,0.0,0.0,6027.959830695991,0.0,0.0,0.0,6027.95983069599,0.5316004922672904,0.5519882789004384,0.40557732059280033,0.0,0.0,0.0,"[0.06466183579849627, 0.45934215018797175, 0.10132466050243494, 0.10785542358176059, 0.35207149987853725, 0.21060840304696882, 0.24914707053324037, 0.7372239891193004]",21.94,0.0,0.0,0.0,352.8309179463415,53.828241552853044,-867.2394162699168,-393.5878408250847,1123.7339315980205,0.0,0.0,0.0,0.0,0.0,0.0,1.5,21.755922108564757,0.0,21.75215188051007,0.0,1.5,21.94,21.36,22.14,21.76,22.11,0.13,1.5,42.74,-605.27,-569.8,0.0,160.0,0.0,175.0,0.0,0.0,0.0,0.0,0.0,0.0,0.0,0.0,0.0,0.0,0.0,0.0,0.0,0.0
121.0,1242.0,0.0,2466.253406734145,-0.0,0.0,3708.253406734145,0.0,6594.448838017624,0.0,0.0,0.0,6594.448838017626,0.37393665694696115,0.5519882789004384,0.40557732059280033,0.0,0.0,0.0,"[0.06466183579849627, 0.45934215018797175, 0.10132466050243494, 0.10785542358176059, 0.35207149987853725, 0.21060840304696882, 0.24914707053324037, 0.7372239891193004]",22.06,0.0,0.0,0.0,482.1425538637316,56.709189692301536,-885.459149525857,-569.5487791631831,919.3951706874976,0.0,0.0,0.0,0.0,0.0,0.0,1.2,21.80010754470831,0.0,21.761582281317914,0.0,1.2,22.06,21.37,22.16,21.85,22.2,-0.21,1.2,11.31,-617.99,-581.77,0.0,160.0,0.0,270.0,0.0,0.0,0.0,0.0,0.0,0.0,0.0,0.0,0.0,0.0,0.0,0.0,0.0,0.0
122.0,969.0,34518.51975504748,4472.025296925424,-28904.90185934682,0.0,0.0,0.0,11787.095741049103,0.0,0.0,0.0,11787.095741049103,0.37393665694696115,0.5519882789004384,0.49999999999999994,0.0,0.0,0.0,"[0.06466183579849627, 0.45934215018797175, 0.10132466050243494, 0.10785542358176059, 0.35207149987853725, 0.21060840304696882, 0.24914707053324037, 0.7372239891193004]",22.06,0.0,0.0,0.0,213.99105622451208,50.73501302418207,-902.4344382986948,-560.3106713426633,934.4254107714695,0.0,0.0,0.0,0.0,0.0,0.0,0.8,21.80480863699131,0.0,21.768484179523796,0.0,0.8,22.06,21.37,22.16,21.84,22.18,-0.62,0.8,558.56,-629.83,-592.92,0.0,160.0,0.0,73.0,0.0,0.0,0.0,0.0,0.0,0.0,0.0,0.0,0.0,0.0,0.0,0.0,0.0,0.0
123.0,501.0,0.0,0.0,-0.0,0.0,501.0,0.0,8461.559403055162,0.0,8461.559403055162,0.0,0.0,0.35263563653879787,0.516012261030306,0.49999999999999994,0.0,0.0,0.0,"[0.06466183579849627, 0.45934215018797175, 0.10132466050243494, 0.10785542358176059, 0.35207149987853725, 0.21060840304696882, 0.24914707053324037, 0.7372239891193004]",21.94,0.0,0.0,0.0,223.51928202895135,50.94729341340457,-901.1899938155976,-372.34569210463525,1001.9790012435255,0.0,0.0,0.0,0.0,0.0,0.0,0.7,21.766693850859756,0.0,21.7679105538724,0.0,0.7,21.94,21.37,22.16,21.78,22.14,-0.74,0.7,775.83,-628.96,-592.11,0.0,160.0,0.0,80.0,0.0,0.0,0.0,0.0,0.0,0.0,0.0,0.0,0.0,0.0,0.0,0.0,0.0,0.0
124.0,787.0,0.0,3417.4957445106306,-0.0,0.0,4204.49574451063,0.0,8909.889962119732,0.0,0.0,0.0,8909.889962119732,0.17387306236742756,0.516012261030306,0.5,0.0,0.0,0.0,"[0.06466183579849627, 0.45934215018797175, 0.10132466050243494, 0.10785542358176059, 0.35207149987853725, 0.21060840304696882, 0.24914707053324037, 0.7372239891193004]",21.94,0.0,0.0,0.0,193.57342950071362,50.280126475848085,-909.6776382020178,-375.8552016147898,1044.5510688934814,0.0,0.0,0.0,0.0,0.0,0.0,0.5,21.765072153326635,0.0,21.76527326815562,0.0,0.5,21.94,21.37,22.16,21.79,22.15,-0.89,0.5,883.84,-634.89,-597.68,0.0,160.0,0.0,58.0,0.0,0.0,0.0,0.0,0.0,0.0,0.0,0.0,0.0,0.0,0.0,0.0,0.0,0.0
125.0,579.0,0.0,1882.4944268818958,-0.0,0.0,2461.494426881896,0.0,4872.0337847448645,0.0,0.0,0.0,4872.0337847448645,0.06921768707482993,0.516012261030306,0.5,0.0,0.0,0.0,"[0.06466183579849627, 0.45934215018797175, 0.10132466050243494, 0.10785542358176059, 0.35207149987853725, 0.21060840304696882, 0.24914707053324037, 0.7372239891193004]",21.94,0.0,0.0,0.0,203.10165530515292,50.49240686507061,-918.165282588438,-377.9269400922398,1045.3820701085447,0.0,0.0,0.0,0.0,0.0,0.0,0.3,21.764175833089297,0.0,21.76386128639244,0.0,0.3,21.94,21.37,22.15,21.79,22.15,-1.1,0.3,1999.17,-640.81,-603.26,0.0,160.0,0.0,65.0,0.0,0.0,0.0,0.0,0.0,0.0,0.0,0.0,0.0,0.0,0.0,0.0,0.0,0.0
126.0,1628.0,0.0,0.0,-0.0,0.0,1628.0,0.0,8027.206328067608,0.0,8027.206328067608,0.0,0.0,0.0,0.48188298242457633,0.5,0.0,0.0,0.0,"[0.06466183579849627, 0.45934215018797175, 0.10132466050243494, 0.10785542358176059, 0.35207149987853725, 0.21060840304696882, 0.24914707053324037, 0.7372239891193004]",21.94,0.0,0.0,0.0,279.97222890036596,79.21091094988856,-922.4091047816481,-379.95770841041735,947.7078606512506,0.0,0.0,0.0,0.0,0.0,0.0,0.2,21.76322412674618,0.0,21.762438505873774,0.0,0.2,21.94,21.37,22.15,21.79,22.15,-1.16,0.2,0.0,-643.77,-606.05,0.0,254.0,0.0,72.0,0.0,0.0,0.0,0.0,0.0,0.0,0.0,0.0,0.0,0.0,0.0,0.0,0.0,0.0
127.0,766.0,2074.6494532273464,1298.2762059612098,-0.0,0.0,0.0,0.0,3335.280406186005,0.0,0.0,0.0,3335.2804061860056,0.0,0.48188298242457633,0.5,0.0,0.0,0.0,"[0.06466183579849627, 0.45934215018797175, 0.10132466050243494, 0.10785542358176059, 0.35207149987853725, 0.21060840304696882, 0.24914707053324037, 0.7372239891193004]",21.94,0.0,0.0,0.0,295.9481263017943,103.38054955136681,-926.6529269748581,-382.2472587630839,915.4761632300648,0.0,0.0,0.0,0.0,0.0,0.0,0.1,21.762188355815912,0.0,21.760880403571313,0.0,0.1,21.94,21.37,22.15,21.79,22.15,-1.3,0.1,735.9,-646.74,-608.84,0.0,284.0,28.0,65.0,0.0,0.0,0.0,0.0,0.0,0.0,0.0,0.0,0.0,0.0,0.0,0.0,0.0,0.0
128.0,871.0,3775.3016691852145,2885.4251608392797,-0.0,0.0,0.0,0.0,7440.184513301206,0.0,0.0,0.0,7440.184513301206,0.0,0.48188298242457633,0.5,0.0,0.0,0.0,"[0.06466183579849627, 0.4593421501879682, 0.10132466050243494, 0.10785542358176059, 0.35207149987853725, 0.21060840304696882, 0.24914707053324037, 0.7372239891193004]",21.94,0.0,0.0,1.5706186349739504,288.9989691361506,79.6354717283336,-922.4091047816481,-382.7054269725454,939.3858334705722,0.0,0.0,0.0,0.0,0.0,0.0,0.2,21.76185575301452,0.0,21.760463680320726,0.0,0.2,21.94,21.37,22.15,21.8,22.15,-1.1,0.2,842.22,-643.77,-606.05,2.59,166.0,47.0,120.0,0.0,0.0,0.0,0.0,0.0,0.0,0.0,0.0,0.0,0.0,0.0,0.0,0.0,0.0
129.0,1058.0,0.0,1616.865556024507,-0.0,4081.937268592027,-1407.07171256752,0.0,4569.918653720699,0.0,0.0,0.0,4569.918653720699,0.057455428263173736,0.48188298242457633,0.5,0.0,0.0,0.0,"[0.06466183579849627, 0.4593421501879682, 0.10132466050243494, 0.10785542358176059, 0.35207149987853725, 0.21060840304696882, 0.24914707053324037, 0.7372239891193004]",21.94,0.0,0.0,425.9398337483579,322.81342462258175,107.1712707874832,-812.0697277581855,-381.0086670442409,323.7287869279391,0.0,0.0,0.0,0.0,0.0,0.0,2.8,21.76096078276871,0.0,21.759111800934882,0.0,2.8,21.94,21.37,22.15,21.79,22.14,2.14,2.8,190.36,-566.76,-533.55,702.27,280.0,36.0,86.0,0.0,0.0,0.0,0.0,0.0,0.0,0.0,0.0,0.0,0.0,0.0,0.0,0.0,0.0
130.0,2277.0,0.0,2601.057275868434,-0.0,10195.229787736329,-5317.172511867895,0.0,2207.8796197064503,0.0,-5763.681435481447,0.0,7971.561055187897,0.2745733058311128,0.5054180149527923,0.5,0.0,0.0,0.0,"[0.06466183579849627, 0.4593421501879682, 0.10132466050243494, 0.10785542358176059, 0.35207149987853725, 0.21060840304696882, 0.24914707053324037, 0.7372239891193004]",21.94,0.0,0.0,812.1659449137101,1093.5251028493312,52.039021129406116,-705.974172927933,-340.47737600026215,-679.0849121973966,0.0,0.0,0.0,0.0,0.0,0.0,5.3,21.779003272820447,0.0,21.788305206893405,0.0,5.3,21.94,21.38,22.2,21.83,22.32,5.2,5.3,0.0,-492.72,-463.84,1339.07,85.0,6.0,758.0,0.0,0.0,0.0,0.0,0.0,0.0,0.0,0.0,0.0,0.0,0.0,0.0,0.0,0.0
131.0,2127.0,0.0,1018.2070567313567,-0.0,10138.317278554381,-6993.110221823024,0.0,3266.141839579716,0.0,0.0,0.0,3266.1418395797155,0.5601253065555529,0.5054180149527923,0.5,0.0,0.0,0.0,"[0.06466183579849627, 0.4593421501879682, 0.10132466050243494, 0.10785542358176059, 0.35207149987853725, 0.21060840304696882, 0.24914707053324037, 0.7372239891193004]",22.06,0.0,0.0,717.8401003177336,786.2577308550453,51.705437660627865,-647.8051067060888,-450.8839869316875,-487.1024334973775,0.0,0.0,0.0,0.0,0.0,0.0,6.8,21.853990045189597,0.0,21.847732284166035,0.0,6.8,22.06,21.4,22.3,21.92,22.55,6.76,6.8,0.0,-452.12,-425.63,1183.55,119.0,0.0,515.0,0.0,0.0,0.0,0.0,0.0,0.0,0.0,0.0,0.0,0.0,0.0,0.0,0.0,0.0
132.0,1547.0,0.0,1081.5805863799087,-0.0,10015.211485505173,-7386.6308991252645,0.0,3572.5379385108454,0.0,0.0,0.0,3572.5379385108454,0.8617460682698346,0.5054180149527923,0.5,0.0,0.0,0.0,"[0.06466183579849627, 0.4593421501879682, 0.10132466050243494, 0.10785542358176059, 0.35207149987853725, 0.21060840304696882, 0.24914707053324037, 0.7372239891193004]",22.06,0.0,0.0,685.3955977601597,630.8688453676108,62.89564674964352,-605.3668847739879,-385.303119855024,-416.35033905524745,0.0,0.0,0.0,0.0,0.0,0.0,7.8,21.885269070388944,0.0,21.89646327851782,0.0,7.8,22.06,21.42,22.37,21.92,22.55,7.78,7.8,0.0,-422.5,-397.74,1130.05,170.0,0.0,374.0,0.0,0.0,0.0,0.0,0.0,0.0,0.0,0.0,0.0,0.0,0.0,0.0,0.0,0.0
133.0,5349.0,0.0,0.0,-0.0,9417.04936870806,0.0,0.0,3448.0491193949333,0.0,-213.19531244231976,0.0,0.0,0.8617460682698346,0.5062885624785984,0.5,16272.19747483224,4068.04936870806,20340.2468435403,"[0.06466183579849627, 0.4593421501879682, 0.10132466050243494, 0.10785542358176059, 0.35207149987853725, 0.21060840304696882, 0.24914707053324037, 0.7372239891193004]",22.06,0.0,0.0,657.1337970926904,461.86820873097736,101.07579103980802,-588.3915960011475,-327.8764042244357,-328.1924395179235,0.0,0.0,0.0,0.0,0.0,0.0,8.2,21.91292495205535,0.0,21.938672371877153,0.0,8.2,22.06,21.45,22.43,21.94,22.57,8.18,8.2,0.0,-410.65,-386.59,1083.46,316.0,0.0,173.0,0.0,0.0,0.0,0.0,0.0,0.0,0.0,0.0,0.0,0.0,0.0,0.0,0.0,0.0
134.0,4834.0,0.0,152.5337049611733,-0.0,8372.344277944816,-3385.8105729836425,0.0,509.6463260699734,0.0,0.0,0.0,509.6463260699734,1.0,0.5062885624785984,0.5,0.0,0.0,0.0,"[0.06466183579849627, 0.4593421501879682, 0.10132466050243494, 0.10785542358176059, 0.35207149987853725, 0.21060840304696882, 0.24914707053324037, 0.7372239891193004]",22.06,0.0,0.0,603.0995940018488,947.5928023708143,110.17352200648742,-588.3915960011454,-275.2703008196548,-818.5874289097803,0.0,0.0,0.0,0.0,0.0,0.0,8.2,21.938618585401848,0.0,21.977303015604598,0.0,8.2,22.06,21.47,22.48,21.96,22.61,7.87,8.2,0.0,-410.65,-386.59,994.37,310.0,0.0,533.0,0.0,0.0,0.0,0.0,0.0,0.0,0.0,0.0,0.0,0.0,0.0,0.0,0.0,0.0
135.0,2123.0,0.0,3253.1153854253917,-0.0,5376.115385425392,0.0,0.0,21269.15082906906,0.0,10709.956011620032,0.0,10559.19481744903,1.0,0.4607530352183092,0.5,0.0,0.0,0.0,"[0.06466183579849627, 0.4593421501879682, 0.10132466050243494, 0.10785542358176059, 0.35207149987853725, 0.21060840304696882, 0.24914707053324037, 0.7372239891193004]",22.06,0.0,0.0,587.8671315843537,221.44169895881046,52.43325613796222,-630.8298179332484,-234.71507668353547,-20.179462822412628,0.0,0.0,0.0,0.0,0.0,0.0,7.2,21.95902148570324,0.0,22.007314387941463,0.0,7.2,22.06,21.5,22.52,21.97,22.61,6.51,7.2,0.0,-440.27,-414.47,969.25,154.0,6.0,81.0,0.0,0.0,0.0,0.0,0.0,0.0,0.0,0.0,0.0,0.0,0.0,0.0,0.0,0.0
136.0,3271.0,0.0,130.6928380925146,-0.0,0.0,3401.6928380925146,0.0,406.7690814683838,0.0,0.0,0.0,406.7690814683838,0.855370202462053,0.4607530352183092,0.5,0.0,0.0,0.0,"[0.06466183579849627, 0.4593421501879682, 0.10132466050243494, 0.10785542358176059, 0.35207149987853725, 0.21060840304696882, 0.24914707053324037, 0.7372239891193004]",22.06,0.0,0.0,0.0,505.8556571815467,70.32546037243169,-690.2433286381897,-209.17942956279285,60.76693330831056,0.0,0.0,0.0,0.0,0.0,0.0,5.8,21.972636246530538,0.0,22.026978650523265,0.0,5.8,22.06,21.52,22.54,21.96,22.59,4.21,5.8,0.0,-481.74,-453.51,0.0,130.0,40.0,299.0,0.0,0.0,0.0,0.0,0.0,0.0,0.0,0.0,0.0,0.0,0.0,0.0,0.0,0.0
137.0,2304.0,0.0,549.1524763466829,-0.0,0.0,2853.1524763466828,0.0,1688.2441195197293,0.0,0.0,0.0,1688.2441195197293,0.7340626992160205,0.4607530352183092,0.4653061224489796,0.0,0.0,0.0,"[0.06466183579849627, 0.4593421501879682, 0.10132466050243494, 0.10785542358176059, 0.35207149987853725, 0.21060840304696882, 0.24914707053324037, 0.7372239891193004]",21.94,0.0,0.0,0.0,642.1880910601026,144.83587698953588,-701.730350734723,-74.68826850272234,-2.332945064157781,0.0,0.0,0.0,0.0,0.0,0.0,5.4,21.908727183096573,0.0,21.982569510241696,0.0,5.4,21.94,21.51,22.45,21.8,22.23,3.8,5.4,0.0,-489.76,-461.06,0.0,324.0,69.0,294.0,0.0,0.0,0.0,0.0,0.0,0.0,0.0,0.0,0.0,0.0,0.0,0.0,0.0,0.0
138.0,5185.0,12940.608241017628,1178.1549765314107,-0.0,0.0,-6512.75022328113,0.0,3577.042085202635,0.0,0.0,0.0,3577.042085202635,1.0,0.4607530352183092,0.46530612244897934,0.0,0.0,0.0,"[0.06466183579849627, 0.4593421501879682, 0.10132466050243494, 0.10785542358176059, 0.35207149987853725, 0.21060840304696882, 0.24914707053324037, 0.7372239891193004]",21.94,0.0,0.0,0.0,2004.222895526264,165.09349127534196,-718.7056395075633,-121.55385891291756,-1053.1360607962085,0.0,0.0,0.0,0.0,0.0,0.0,5.0,21.88616125878323,0.0,21.944408725884816,0.0,5.0,21.94,21.51,22.38,21.81,22.2,3.47,5.0,372.39,-501.6,-472.21,0.0,202.0,115.0,1354.0,0.0,0.0,0.0,0.0,0.0,0.0,0.0,0.0,0.0,0.0,0.0,0.0,0.0,0.0
139.0,4856.0,26094.660816453415,14081.745512371148,-0.0,0.0,0.0,0.0,2038.5604163519438,35132.21,-12072.823679732774,0.0,42217.15209608471,1.0,0.510050398577218,0.46530612244897934,28105.768,7026.442,35132.21,"[0.06466183579849627, 0.4593421501879682, 0.10132466050243494, 0.10785542358176059, 0.35207149987853725, 0.21060840304696882, 0.24914707053324037, 0.7372239891193004]",22.06,0.0,0.0,0.0,998.601048782549,133.46371328118664,-741.169194956711,-340.94553850244085,-42.327154045313044,0.0,0.0,0.0,0.0,0.0,0.0,4.6,21.9092638261474,0.0,21.91897417453618,0.0,4.6,22.06,21.51,22.33,21.87,22.22,3.14,4.6,0.0,-517.28,-486.97,0.0,202.0,98.0,617.0,0.0,0.0,0.0,0.0,0.0,0.0,0.0,0.0,0.0,0.0,0.0,0.0,0.0,0.0
140.0,3723.0,4401.642984896507,656.6347699720242,-0.0,0.0,0.0,0.0,1943.5551233923977,0.0,0.0,0.0,1943.5551233923977,0.8137910386916656,0.510050398577218,0.46530612244897934,0.0,0.0,0.0,"[0.06466183579849627, 0.4593421501879682, 0.10132466050243494, 0.10785542358176059, 0.35207149987853725, 0.21060840304696882, 0.24914707053324037, 0.7372239891193004]",22.06,0.0,0.0,0.0,1119.3874300328093,158.14888997077674,-758.1444837295514,-366.5622997129003,-143.79675064279692,0.0,0.0,0.0,0.0,0.0,0.0,4.2,21.897009664536135,0.0,21.89797927614066,0.0,4.2,22.06,21.51,22.29,21.85,22.19,2.8,4.2,0.0,-529.13,-498.12,0.0,288.0,93.0,661.0,0.0,0.0,0.0,0.0,0.0,0.0,0.0,0.0,0.0,0.0,0.0,0.0,0.0,0.0
141.0,3422.0,0.0,1877.4256031225748,-0.0,0.0,5299.425603122575,0.0,5485.347901901383,0.0,0.0,0.0,5485.347901901382,0.5884753242731888,0.510050398577218,0.46530612244897934,0.0,0.0,0.0,"[0.06466183579849627, 0.4593421501879682, 0.10132466050243494, 0.10785542358176059, 0.35207149987853725, 0.21060840304696882, 0.24914707053324037, 0.7372239891193004]",22.06,0.0,0.0,0.0,793.7800143848659,103.10761762236642,-775.1197725023918,-386.7680276068283,4.3978369047520145,0.0,0.0,0.0,0.0,0.0,0.0,3.8,21.887381420036455,0.0,21.881531478391828,0.0,3.8,22.06,21.51,22.26,21.86,22.18,2.47,3.8,0.0,-540.98,-509.27,0.0,218.0,42.0,464.0,0.0,0.0,0.0,0.0,0.0,0.0,0.0,0.0,0.0,0.0,0.0,0.0,0.0,0.0
142.0,2483.0,0.0,0.0,-0.0,0.0,3096.4670530273074,0.0,552.1203477245765,0.0,0.0,0.0,0.0,0.4568228135152251,0.510050398577218,0.4122448979591834,2453.8682121092293,613.4670530273073,3067.3352651365367,"[0.06466183579849627, 0.4593421501879682, 0.10132466050243494, 0.10785542358176059, 0.35207149987853725, 0.21060840304696882, 0.24914707053324037, 0.7372239891193004]",21.94,0.0,0.0,0.0,810.1857565594266,69.47633881554161,-786.606794598925,-230.73974934449114,408.1440347342766,0.0,0.0,0.0,0.0,0.0,0.0,3.4,21.833923802261555,0.0,21.85626918864604,0.0,3.4,21.94,21.5,22.21,21.78,22.09,2.06,3.4,0.0,-548.99,-516.82,0.0,162.0,9.0,509.0,0.0,0.0,0.0,0.0,0.0,0.0,0.0,0.0,0.0,0.0,0.0,0.0,0.0,0.0
143.0,1530.0,3280.2791146356617,1733.8777190624835,-0.0,0.0,0.0,0.0,4933.701720700394,0.0,0.0,0.0,4933.701720700395,0.4568228135152251,0.510050398577218,0.3780612244897956,0.0,0.0,0.0,"[0.06466183579849627, 0.4593421501879682, 0.10132466050243494, 0.10785542358176059, 0.35207149987853725, 0.21060840304696882, 0.24914707053324037, 0.7372239891193004]",22.06,0.0,0.0,0.0,561.5921960977404,78.27081208333169,-809.0703500480726,-435.3817207515251,342.5681596730534,0.0,0.0,0.0,0.0,0.0,0.0,3.0,21.864224059789073,0.0,21.843948051968137,0.0,3.0,22.06,21.5,22.19,21.85,22.16,1.65,3.0,0.0,-564.67,-531.58,0.0,210.0,10.0,301.0,0.0,0.0,0.0,0.0,0.0,0.0,0.0,0.0,0.0,0.0,0.0,0.0,0.0,0.0
144.0,1679.0,0.0,1401.930714656307,-0.0,0.0,3080.930714656307,0.0,5318.8386239978145,0.0,1396.508222017302,0.0,3922.3304019805128,0.32583086136147055,0.5041128636196615,0.3780612244897956,0.0,0.0,0.0,"[0.06466183579849627, 0.4593421501879682, 0.10132466050243494, 0.10785542358176059, 0.35207149987853725, 0.21060840304696882, 0.24914707053324037, 0.7372239891193004]",21.94,0.0,0.0,0.0,233.04750783339063,51.159573802627094,-824.8011943378158,-266.4901782819511,1076.4977021362192,0.0,0.0,0.0,0.0,0.0,0.0,2.5,21.817016575560704,0.0,21.82924466428723,0.0,2.5,21.94,21.49,22.17,21.79,22.1,1.23,2.5,0.0,-575.65,-541.92,0.0,160.0,0.0,87.0,0.0,0.0,0.0,0.0,0.0,0.0,0.0,0.0,0.0,0.0,0.0,0.0,0.0,0.0
145.0,1407.0,2960.021622361227,1538.2215142494208,-0.0,0.0,0.0,0.0,4244.9882908325235,0.0,0.0,0.0,4244.9882908325235,0.32583086136147055,0.5041128636196615,0.3780612244897956,0.0,0.0,0.0,"[0.06466183579849627, 0.4593421501879682, 0.10132466050243494, 0.10785542358176059, 0.35207149987853725, 0.21060840304696882, 0.24914707053324037, 0.7372239891193004]",22.06,0.0,0.0,0.0,182.68402858135448,50.03752031673664,-847.2647497869634,-447.8634864334078,798.7732199108368,0.0,0.0,0.0,0.0,0.0,0.0,2.1,21.858555546610784,0.0,21.83523402830727,0.0,2.1,22.06,21.49,22.18,21.91,22.22,0.92,2.1,95.63,-591.33,-556.68,0.0,160.0,0.0,50.0,0.0,0.0,0.0,0.0,0.0,0.0,0.0,0.0,0.0,0.0,0.0,0.0,0.0,0.0
146.0,940.0,0.0,3025.105687812209,-0.0,0.0,3965.105687812209,0.0,8204.106007233859,0.0,0.0,0.0,8204.106007233859,0.1572464358592508,0.5041128636196615,0.3780612244897956,0.0,0.0,0.0,"[0.06466183579849627, 0.4593421501879682, 0.10132466050243494, 0.10785542358176059, 0.35207149987853725, 0.21060840304696882, 0.24914707053324037, 0.7372239891193004]",21.94,0.0,0.0,0.0,188.128729041034,50.15882339629236,-862.9955940767067,-266.61102023129683,894.1839186125663,0.0,0.0,0.0,0.0,0.0,0.0,1.6,21.817346714173762,0.0,21.83033401244588,0.0,1.6,21.94,21.49,22.17,21.83,22.14,0.5,1.6,1398.94,-602.31,-567.01,0.0,160.0,0.0,54.0,0.0,0.0,0.0,0.0,0.0,0.0,0.0,0.0,0.0,0.0,0.0,0.0,0.0,0.0
147.0,2225.0,19234.400691697327,913.2286882388387,-0.0,0.0,-16000.0,0.0,2459.2698748827643,0.0,0.0,0.0,2459.2698748827643,0.8105797691925841,0.5041128636196615,0.3780612244897956,0.0,0.0,0.0,"[0.06466183579849627, 0.4593421501879682, 0.10132466050243494, 0.10785542358176059, 0.35207149987853725, 0.21060840304696882, 0.24914707053324037, 0.7372239891193004]",21.94,0.0,0.0,0.0,208.54635576483253,50.61370994462634,-871.4832384631269,-275.730350367637,1157.4357568727214,0.0,0.0,0.0,0.0,0.0,0.0,1.4,21.813042968053537,0.0,21.82410648534415,0.0,1.4,21.94,21.48,22.17,21.83,22.15,0.27,1.4,544.94,-608.23,-572.59,0.0,160.0,0.0,69.0,0.0,0.0,0.0,0.0,0.0,0.0,0.0,0.0,0.0,0.0,0.0,0.0,0.0,0.0
148.0,2126.0,4690.582397500748,2541.129485513244,-0.0,0.0,0.0,0.0,6794.657976848173,0.0,0.0,0.0,6794.657976848173,0.8105797691925841,0.5041128636196615,0.3780612244897956,0.0,0.0,0.0,"[0.06466183579849627, 0.4593421501879682, 0.10132466050243494, 0.10785542358176059, 0.35207149987853725, 0.21060840304696882, 0.24914707053324037, 0.7372239891193004]",22.06,0.0,0.0,0.0,292.93921288986604,52.493907677740076,-885.4591495258545,-455.4580213598239,731.9908812113993,0.0,0.0,0.0,0.0,0.0,0.0,1.2,21.855272194738824,0.0,21.831439950628145,0.0,1.2,22.06,21.48,22.18,21.91,22.23,0.16,1.2,179.4,-617.99,-581.77,0.0,160.0,0.0,131.0,0.0,0.0,0.0,0.0,0.0,0.0,0.0,0.0,0.0,0.0,0.0,0.0,0.0,0.0
149.0,1211.0,0.0,2505.3569820152275,-0.0,0.0,3716.3569820152275,0.0,6627.353828262366,0.0,0.0,0.0,6627.353828262366,0.6525713941069027,0.5041128636196615,0.3780612244897956,0.0,0.0,0.0,"[0.06466183579849627, 0.4593421501879682, 0.10132466050243494, 0.10785542358176059, 0.35207149987853725, 0.21060840304696882, 0.24914707053324037, 0.7372239891193004]",21.94,0.0,0.0,0.0,181.10793107986828,54.34377964096489,-892.7023494291775,-277.219169570327,1204.0650876039954,0.0,0.0,0.0,0.0,0.0,0.0,0.9,21.812518893761276,0.0,21.824245874854874,0.0,0.9,21.94,21.48,22.17,21.82,22.13,-0.1,0.9,0.0,-623.04,-586.53,0.0,160.0,8.0,48.0,0.0,0.0,0.0,0.0,0.0,0.0,0.0,0.0,0.0,0.0,0.0,0.0,0.0,0.0
150.0,2670.0,0.0,819.0999877937751,-0.0,0.0,3489.099987793775,0.0,2158.9345624353214,0.0,0.0,0.0,2158.9345624353214,0.5042253061905007,0.5041128636196615,0.3780612244897956,0.0,0.0,0.0,"[0.06466183579849627, 0.4593421501879682, 0.10132466050243494, 0.10785542358176059, 0.35207149987853725, 0.21060840304696882, 0.24914707053324037, 0.7372239891193004]",22.06,0.0,0.0,0.0,1346.2738294512997,137.31508605708092,-902.4344382986948,-455.8178738629061,-117.4937549022433,0.0,0.0,0.0,0.0,0.0,0.0,0.8,21.855261770030744,0.0,21.832423871626467,0.0,0.8,22.06,21.48,22.19,21.92,22.24,-0.14,0.8,0.0,-629.83,-592.92,0.0,298.0,40.0,828.0,0.0,0.0,0.0,0.0,0.0,0.0,0.0,0.0,0.0,0.0,0.0,0.0,0.0,0.0
151.0,3247.0,5851.1625491816685,2574.90673643576,-0.0,0.0,0.0,0.0,6737.689805407867,0.0,0.0,0.0,6737.689805407868,0.5042253061905007,0.5041128636196615,0.3780612244897956,0.0,0.0,0.0,"[0.06466183579849627, 0.4593421501879682, 0.10132466050243494, 0.10785542358176059, 0.35207149987853725, 0.21060840304696882, 0.24914707053324037, 0.7372239891193004]",22.06,0.0,0.0,0.0,2440.945185028984,119.72613952150077,-910.922082685115,-474.2997717505857,-1168.6112268155339,0.0,0.0,0.0,0.0,0.0,0.0,0.6,21.84638805694248,0.0,21.818618712265575,0.0,0.6,22.06,21.47,22.17,21.82,22.12,-0.32,0.6,1584.55,-635.76,-598.5,0.0,150.0,41.0,1710.0,0.0,0.0,0.0,0.0,0.0,0.0,0.0,0.0,0.0,0.0,0.0,0.0,0.0,0.0
