,load_elec,grid,hp_elec,ev,pv,bat_pow,cool,load_th_sh,load_th_dhw,tes_pow,dh,hp_th,bat_soc,tes_soc,ev_soc,eh_th_in,eh_elec_in,eh_th_out,temp_slack,temp_zone_1,temp_zone_2,temp_update,Qsolar_1,QconvInt_1,QradInt_1,Qvent_1,Qconduc_1,Qheating_1,Qsolar_2,QconvInt_2,QradInt_2,Qvent_2,Qconduc_2,Qheating_2,temp_amb,temp_aggregate_1,temp_aggregate_2,temp_wall_1,temp_wall_2,_Tamb,_Tz_1,_TEW_1,_TIW_1,_T1_1,_T2_1,_Taeq_1,_Tvent_1,_Qheating_1,_Qinfvent_1,_Qenvelope_1,_Qsolar_1,_Qint_people_1,_Qint_lighting_1,_Qint_appliances_1,_Tz_2,_TEW_2,_TIW_2,_T1_2,_T2_2,_Taeq_2,_Tvent_2,_Qheating_2,_Qinfvent_2,_Qenvelope_2,_Qsolar_2,_Qint_people_2,_Qint_lighting_2,_Qint_appliances_2
8.0,3392.0,50504.75843125081,48996.63463909456,-0.0,0.0,2136.3999999999983,0.0,81498.19206913757,0.0,0.0,0.0,81498.19206913757,0.41925925925925933,0.5,0.8,0.0,0.0,0.0,"[2.0, 2.0, 2.0, 2.0, 2.0, 2.0, 2.0, 2.0, 2.0]",20.0,0.0,0.0,1.866705781503444,263.04825113534264,84.41631841091731,-2021.83252412255,-2205.4005580882344,14300.449669233676,0.0,0.0,0.0,0.0,0.0,0.0,-9.4,19.170356159705136,0.0,19.0,0.0,-9.4,20.0,18.0,20.0,20.0,20.0,-10.68,-9.4,1939.24,-1426.55,-1112.5,2.95,176.0,45.0,98.0,0.0,0.0,0.0,0.0,0.0,0.0,0.0,0.0,0.0,0.0,0.0,0.0,0.0,0.0
9.0,2499.0,30247.96009698444,0.0,-0.0,14.399343120849009,-16000.0,0.0,78682.48265716743,0.0,68231.57498150911,0.0,0.0,1.0,0.24213312554229358,0.8,46448.47855848146,11612.119639620365,58060.59819810182,"[2.0, 2.0, 2.0, 2.0, 2.0, 2.0, 2.0, 2.0, 2.0]",24.0,0.0,0.0,53.31660395090577,329.94414258786514,81.12572728845278,-2241.895928108678,-8792.934960853272,10573.562649974427,0.0,0.0,0.0,0.0,0.0,0.0,-8.6,20.642463636947383,0.0,19.47705993786479,0.0,-8.6,24.0,18.26,20.69,22.12,22.86,-9.69,-8.6,2374.74,-1581.82,-1233.58,84.25,224.0,11.0,126.0,0.0,0.0,0.0,0.0,0.0,0.0,0.0,0.0,0.0,0.0,0.0,0.0,0.0,0.0
10.0,4409.0,0.0,0.0,-0.0,692.794473979569,3716.205526020431,0.0,8600.425018490869,0.0,8600.425018490869,0.0,0.0,0.8595538349954486,0.20962962962962967,0.7999999999999996,0.0,0.0,0.0,"[2.0, 2.0, 2.0, 2.0, 2.0, 2.0, 2.0, 2.0, 2.0]",24.0,0.0,0.0,131.31071224534574,350.0696014570562,36.70274713518145,-2173.1261143630136,-7968.823434967914,6938.544706006802,0.0,0.0,0.0,0.0,0.0,0.0,-7.6,20.95831715104853,0.0,19.952241771538937,0.0,-7.6,24.0,18.56,21.35,22.03,22.95,-8.62,-7.6,1526.22,-1533.3,-1195.74,207.51,95.0,0.0,210.0,0.0,0.0,0.0,0.0,0.0,0.0,0.0,0.0,0.0,0.0,0.0,0.0,0.0,0.0
11.0,5709.0,14699.362650254583,26811.36273556897,-0.0,1894.4968985656612,16000.0,0.0,51242.107799995945,0.0,0.0,0.0,51242.10779999595,0.2548675160234153,0.20962962962962967,0.7999999999999996,0.0,0.0,0.0,"[2.0, 2.0, 2.0, 2.0, 2.0, 2.0, 2.0, 2.0, 2.0]",22.97,0.0,0.0,165.6480219850602,297.91348269746237,49.865111625039624,-2047.291368729018,-5518.908592089743,0.0,0.0,0.0,0.0,0.0,0.0,0.0,-6.8,20.86818899575561,0.0,20.25809293037795,0.0,-6.8,22.97,18.79,21.73,21.44,22.54,-7.71,-6.8,8377.57,-1444.52,-1126.5,261.77,143.0,0.0,146.0,0.0,0.0,0.0,0.0,0.0,0.0,0.0,0.0,0.0,0.0,0.0,0.0,0.0,0.0
12.0,8696.0,37159.372265594684,32169.352031246155,-0.0,3891.7766269794456,0.0,0.0,63322.425004694014,0.0,0.0,0.0,63322.42500469403,0.2548675160234153,0.20962962962962967,0.7999999999999996,0.0,0.0,0.0,"[2.0, 2.0, 2.0, 2.0, 2.0, 2.0, 2.0, 2.0, 2.0]",20.26,0.0,0.0,212.53497868743327,235.62377021148015,5.537052369531681,-1819.894691072588,-517.1866588934105,11604.863603375645,0.0,0.0,0.0,0.0,0.0,0.0,-6.2,20.08027752736802,0.0,20.235405278759686,0.0,-6.2,20.26,18.87,21.6,19.76,20.98,-7.01,-6.2,0.0,-1284.07,-1001.38,335.86,0.0,0.0,175.0,0.0,0.0,0.0,0.0,0.0,0.0,0.0,0.0,0.0,0.0,0.0,0.0,0.0,0.0
13.0,2232.0,9259.447061221346,7808.690358455794,-0.0,827.5405325405538,0.0,0.0,15445.134880824331,0.0,0.0,0.0,15445.134880824331,0.2548675160234153,0.20962962962962967,0.7999999999999996,0.0,0.0,0.0,"[2.0, 2.0, 2.0, 2.0, 2.0, 2.0, 2.0, 2.0, 2.0]",24.0,0.0,0.0,133.45784996764547,398.68250562700376,53.598666937066696,-2069.971393744516,-6869.41120411075,0.0,0.0,0.0,0.0,0.0,0.0,0.0,-6.1,21.379608018305746,0.0,20.557341135022664,0.0,-6.1,24.0,19.09,22.02,22.44,23.51,-7.05,-6.1,0.0,-1460.52,-1138.98,210.9,140.0,4.0,222.0,0.0,0.0,0.0,0.0,0.0,0.0,0.0,0.0,0.0,0.0,0.0,0.0,0.0,0.0
14.0,4413.0,13653.633221980172,9182.268264729517,-0.0,9.903208859246547,0.0,0.0,17724.30509863489,0.0,0.0,0.0,17724.30509863489,0.2548675160234153,0.20962962962962967,0.7999999999999996,0.0,0.0,0.0,"[2.0, 2.0, 2.0, 2.0, 2.0, 2.0, 2.0, 2.0, 2.0]",20.79,0.0,0.0,48.2442310146522,339.581686271703,59.10407900734393,-1883.8233656416398,-888.5317708770942,3526.087198826635,0.0,0.0,0.0,0.0,0.0,0.0,-6.6,20.467963457269143,0.0,20.566864689232247,0.0,-6.6,20.79,19.19,21.95,20.17,21.37,-7.69,-6.6,1974.49,-1329.18,-1036.56,76.24,163.0,4.0,166.0,0.0,0.0,0.0,0.0,0.0,0.0,0.0,0.0,0.0,0.0,0.0,0.0,0.0,0.0
15.0,2773.0,26781.82722460394,23874.91808848092,-0.0,0.0,0.0,0.0,44491.91484828238,0.0,0.0,0.0,44491.91484828238,0.2548675160234153,0.20962962962962967,0.7784208765473398,0.0,0.0,0.0,"[2.0, 2.0, 2.0, 2.0, 2.0, 2.0, 2.0, 2.0, 2.0]",21.25,0.0,0.0,5.54437433291516,358.6441807640002,46.796002597356335,-1963.6200384553001,-1708.8000171077783,0.0,0.0,0.0,0.0,0.0,0.0,0.0,-7.3,20.614015314681698,0.0,20.572728000773164,0.0,-7.3,21.25,19.27,21.88,20.66,21.78,-8.45,-7.3,8718.5,-1385.48,-1080.46,8.76,128.0,0.0,199.0,0.0,0.0,0.0,0.0,0.0,0.0,0.0,0.0,0.0,0.0,0.0,0.0,0.0,0.0
16.0,1491.0,30533.130156304826,28889.4645055233,-0.0,0.0,0.0,0.0,54112.14530963206,0.0,0.0,0.0,54112.145309632055,0.2548675160234153,0.20962962962962967,0.7683840749414516,0.0,0.0,0.0,"[2.0, 2.0, 2.0, 2.0, 2.0, 2.0, 2.0, 2.0, 2.0]",20.0,0.0,0.0,0.0,250.43440719620173,5.885095661330816,-1870.5389338820876,442.79286578569406,1171.8332682829478,0.0,0.0,0.0,0.0,0.0,0.0,-7.2,20.185926881546955,0.0,20.459581233197234,0.0,-7.2,20.0,19.28,21.64,19.82,20.9,-8.33,-7.2,0.0,-1319.8,-1029.25,0.0,0.0,0.0,186.0,0.0,0.0,0.0,0.0,0.0,0.0,0.0,0.0,0.0,0.0,0.0,0.0,0.0,0.0
17.0,3981.0,7091.9941193700915,9819.32862275281,-0.0,0.0,6743.7944739795685,0.0,18579.564242735825,0.0,0.0,0.0,18579.564242735825,0.0,0.20962962962962967,0.7427902308464365,0.0,0.0,0.0,"[2.0, 2.0, 2.0, 2.0, 2.0, 2.0, 2.0, 2.0, 2.0]",20.0,0.0,0.0,0.0,607.6613021243436,88.11823342368993,-1856.7849711329543,269.29217788518577,897.8028704834535,0.0,0.0,0.0,0.0,0.0,0.0,-7.0,20.119187491176387,0.0,20.346430260937208,0.0,-7.0,20.0,19.28,21.41,19.88,20.86,-8.12,-7.0,5205.12,-1310.1,-1021.68,0.0,184.0,33.0,351.0,0.0,0.0,0.0,0.0,0.0,0.0,0.0,0.0,0.0,0.0,0.0,0.0,0.0,0.0
18.0,4503.0,91417.5070447728,70457.41950954894,-0.0,0.0,-16000.0,0.0,53987.135900338515,0.0,-80000.0,0.0,133987.1359003385,0.5807407407407407,0.5,0.7427902308464365,0.0,0.0,0.0,"[2.0, 2.0, 2.0, 2.0, 2.0, 2.0, 2.0, 2.0, 2.0]",20.0,0.0,0.0,0.0,571.3079204345723,135.3572002106088,-1849.9079897583877,118.97653498263041,11450.42212407135,0.0,0.0,0.0,0.0,0.0,0.0,-6.9,20.061416583983068,0.0,20.24875731882064,0.0,-6.9,20.0,19.28,21.21,19.86,20.75,-8.03,-6.9,0.0,-1305.25,-1017.9,0.0,284.0,65.0,268.0,0.0,0.0,0.0,0.0,0.0,0.0,0.0,0.0,0.0,0.0,0.0,0.0,0.0,0.0
19.0,7148.0,17847.63943107642,10610.401233921037,-0.0,0.0,0.0,0.0,20278.690389299005,0.0,0.0,0.0,20278.690389299,0.5807407407407407,0.5,0.733757109401137,0.0,0.0,0.0,"[2.0, 2.0, 2.0, 2.0, 2.0, 2.0, 2.0, 2.0, 2.0]",24.0,0.0,0.0,0.0,707.0839035098192,135.48376140762667,-2118.1102633664814,-6723.021007894031,4673.3473841619225,0.0,0.0,0.0,0.0,0.0,0.0,-6.8,21.43630286115709,0.0,20.576221768302766,0.0,-6.8,24.0,19.47,21.68,22.57,23.3,-7.91,-6.8,0.0,-1494.48,-1165.47,0.0,83.0,166.0,464.0,0.0,0.0,0.0,0.0,0.0,0.0,0.0,0.0,0.0,0.0,0.0,0.0,0.0,0.0
20.0,5753.0,11581.649291412652,5770.741044955588,-0.0,0.0,0.0,0.0,11139.118568218058,0.0,0.0,0.0,11139.118568218058,0.5807407407407407,0.5,0.7337571094011365,0.0,0.0,0.0,"[1.1229484351831367, 1.017163546453439, 0.8768230624695903, 2.0, 2.0, 1.378522493421631, 1.3342278412672357, 1.0876631401993713, 2.0]",22.72,0.0,0.0,0.0,1007.9028221707914,196.7077404650199,-2016.2991811130466,-3972.9218827468744,0.0,0.0,0.0,0.0,0.0,0.0,0.0,-6.6,21.21103095630373,0.0,20.79026161201317,0.0,-6.6,22.72,19.63,21.95,21.58,22.45,-7.71,-6.6,0.0,-1422.65,-1109.45,0.0,258.0,169.0,595.0,0.0,0.0,0.0,0.0,0.0,0.0,0.0,0.0,0.0,0.0,0.0,0.0,0.0,0.0
21.0,5864.0,10643.846433113458,0.0,-0.0,0.0,-4726.627200947891,0.0,30858.030988851016,0.0,30858.030988851016,0.0,0.0,0.7522998021084789,0.38337856769141715,0.7337571094011365,0.0,0.0,0.0,"[1.1229484351831367, 1.017163546453439, 0.8768230624695903, 2.0, 2.0, 1.378522493421631, 1.3342278412672357, 1.0876631401993713, 2.0]",20.88,0.0,0.0,0.0,865.9616457095601,160.73272021269116,-1882.7147370179216,-585.3357028609313,7301.22941688121,0.0,0.0,0.0,0.0,0.0,0.0,-6.5,20.6682911139335,0.0,20.765033106775533,0.0,-6.5,20.88,19.68,21.85,20.44,21.38,-7.64,-6.5,679.2,-1328.39,-1035.95,0.0,270.0,105.0,490.0,0.0,0.0,0.0,0.0,0.0,0.0,0.0,0.0,0.0,0.0,0.0,0.0,0.0,0.0
22.0,3138.0,0.0,0.0,-0.0,0.0,3138.0,0.0,41502.68108984986,0.0,41502.68108984986,0.0,0.0,0.6337056978000889,0.2265279210933451,0.7337571094011361,0.0,0.0,0.0,"[1.1229484351831367, 1.017163546453439, 0.8768230624695903, 2.0, 2.0, 1.378522493421631, 1.3342278412672357, 1.0876631401993713, 2.0]",23.12,0.0,0.0,0.0,554.229626112477,168.2947517345087,-2023.410683735849,-4423.054410876544,5735.571111880898,0.0,0.0,0.0,0.0,0.0,0.0,-6.3,21.441712727055567,0.0,20.945999153633196,0.0,-6.3,23.12,19.82,22.08,22.07,22.91,-7.52,-6.3,4137.8,-1427.67,-1113.36,0.0,314.0,108.0,235.0,0.0,0.0,0.0,0.0,0.0,0.0,0.0,0.0,0.0,0.0,0.0,0.0,0.0,0.0
23.0,2253.0,0.0,8042.660382448063,-0.0,0.0,10295.660382448063,0.0,15831.240816138472,0.0,0.0,0.0,15831.240816138474,0.24460288667204425,0.2265279210933451,0.7337571094011361,0.0,0.0,0.0,"[1.1229484351831367, 1.017163546453439, 0.8768230624695903, 2.0, 2.0, 1.378522493421631, 1.3342278412672357, 1.0876631401993713, 2.0]",23.12,0.0,0.0,0.0,382.02939705566604,92.04163053124381,-2016.5337023612826,-4067.6235637215564,0.0,0.0,0.0,0.0,0.0,0.0,0.0,-6.2,21.578115816876082,0.0,21.146045981853767,0.0,-6.2,23.12,19.97,22.32,22.04,22.93,-7.37,-6.2,237.76,-1422.81,-1109.58,0.0,160.0,62.0,193.0,0.0,0.0,0.0,0.0,0.0,0.0,0.0,0.0,0.0,0.0,0.0,0.0,0.0,0.0
24.0,2234.0,17797.296314511525,15474.309832938969,-0.0,0.0,0.0,0.0,30607.283883218613,0.0,0.0,0.0,30607.28388321861,0.24460288667204425,0.2265279210933451,0.7337571094011361,0.0,0.0,0.0,"[1.1229484351831367, 1.017163546453439, 0.8768230624695903, 2.0, 2.0, 1.378522493421631, 1.3342278412672357, 1.0876631401993713, 2.0]",20.97,0.0,0.0,0.0,253.26897886791878,29.931723094725555,-1861.341709421195,-130.4473931184239,1478.3383482928539,0.0,0.0,0.0,0.0,0.0,0.0,-6.1,20.93203844788579,0.0,21.10155755091357,0.0,-6.1,20.97,20.01,22.19,20.64,21.62,-7.31,-6.1,4548.01,-1313.31,-1024.19,0.0,80.0,0.0,146.0,0.0,0.0,0.0,0.0,0.0,0.0,0.0,0.0,0.0,0.0,0.0,0.0,0.0,0.0
25.0,1623.0,21024.111345795478,19295.9907890665,-0.0,0.0,0.0,0.0,38350.30090522715,0.0,0.0,0.0,38350.30090522716,0.24460288667204425,0.2265279210933451,0.7337571094011361,0.0,0.0,0.0,"[1.1229484351831367, 1.017163546453439, 0.8768230624695903, 2.0, 2.0, 1.378522493421631, 1.3342278412672357, 1.0876631401993713, 2.0]",20.88,0.0,0.0,0.0,173.83010776804835,28.06494543871202,-1848.329830145089,-82.86109083527818,7580.000899602285,0.0,0.0,0.0,0.0,0.0,0.0,-6.0,20.860941765698037,0.0,21.02271730526569,0.0,-6.0,20.88,20.02,22.02,20.7,21.61,-7.11,-6.0,3794.71,-1304.13,-1017.03,0.0,80.0,0.0,87.0,0.0,0.0,0.0,0.0,0.0,0.0,0.0,0.0,0.0,0.0,0.0,0.0,0.0,0.0
26.0,1426.0,0.0,5046.192381342291,-0.0,0.0,6472.192381342291,0.0,10173.502326360429,0.0,0.0,0.0,10173.502326360429,0.0,0.2265279210933451,0.7051522248243546,0.0,0.0,0.0,"[1.1229484351831367, 1.017163546453439, 0.8768230624695903, 2.0, 2.0, 1.378522493421631, 1.3342278412672357, 1.0876631401993713, 2.0]",23.12,0.0,0.0,0.0,184.60148012057317,28.318067832747754,-1982.14879548845,-3952.8212473434696,0.0,0.0,0.0,0.0,0.0,0.0,0.0,-5.7,21.62187255907548,0.0,21.185925915932152,0.0,-5.7,23.12,20.14,22.23,22.23,23.02,-6.79,-5.7,3585.28,-1398.55,-1090.66,0.0,80.0,0.0,95.0,0.0,0.0,0.0,0.0,0.0,0.0,0.0,0.0,0.0,0.0,0.0,0.0,0.0,0.0
27.0,926.0,33756.19849701464,21110.397096366294,-0.0,0.0,-11551.020408163267,0.0,42962.64770261125,0.0,0.0,0.0,42962.64770261125,0.41925925925925933,0.2265279210933451,0.6931080628972887,0.0,0.0,0.0,"[1.1229484351831367, 1.017163546453439, 0.8768230624695903, 2.0, 2.0, 1.378522493421631, 1.3342278412672357, 1.0876631401993713, 2.0]",20.92,0.0,0.0,0.0,113.24113828509635,26.641131972261018,-1817.239442577187,56.29774050243867,1498.142468994601,0.0,0.0,0.0,0.0,0.0,0.0,-5.5,20.962000010309932,0.0,21.140629873208304,0.0,-5.5,20.92,20.17,22.11,20.67,21.56,-6.56,-5.5,3250.59,-1282.2,-999.92,0.0,80.0,0.0,42.0,0.0,0.0,0.0,0.0,0.0,0.0,0.0,0.0,0.0,0.0,0.0,0.0,0.0,0.0
28.0,1023.0,30280.694941139776,13106.291466434077,-0.0,0.0,-16000.0,0.0,26798.105519249537,0.0,0.0,0.0,26798.105519249537,1.0,0.2265279210933451,0.6931080628972887,0.0,0.0,0.0,"[1.1229484351831367, 1.017163546453439, 0.8768230624695903, 2.0, 2.0, 1.378522493421631, 1.3342278412672357, 1.0876631401993713, 2.0]",20.88,0.0,0.0,0.0,230.52154120238947,53.37718484228542,-1807.0679418976902,30.373405013761136,6194.775796623465,0.0,0.0,0.0,0.0,0.0,0.0,-5.4,20.904046705923616,0.0,21.065410615652333,0.0,-5.4,20.88,20.17,21.96,20.76,21.58,-6.44,-5.4,104.05,-1275.02,-994.32,0.0,160.0,0.0,87.0,0.0,0.0,0.0,0.0,0.0,0.0,0.0,0.0,0.0,0.0,0.0,0.0,0.0,0.0
29.0,1539.0,0.0,12671.989449561077,-0.0,0.0,14210.989449561077,0.0,26151.711004142977,0.0,0.0,0.0,26151.711004142977,0.46292556879965696,0.2265279210933451,0.6931080628972887,0.0,0.0,0.0,"[1.1229484351831367, 1.017163546453439, 0.8768230624695903, 2.0, 2.0, 1.378522493421631, 1.3342278412672357, 1.0876631401993713, 2.0]",22.68,0.0,0.0,0.0,238.9543919257477,60.36969097752258,-1917.3830071664286,-3099.334605857709,5872.039822635109,0.0,0.0,0.0,0.0,0.0,0.0,-5.2,21.507271794199248,0.0,21.18419828853472,0.0,-5.2,22.68,20.26,22.11,21.98,22.7,-6.24,-5.2,1406.62,-1352.86,-1055.02,0.0,160.0,12.0,92.0,0.0,0.0,0.0,0.0,0.0,0.0,0.0,0.0,0.0,0.0,0.0,0.0,0.0,0.0
30.0,3062.0,24771.738798739014,16930.04610474532,-0.0,0.0,0.0,0.0,16477.30272243184,23279.17,0.0,0.0,35100.638722431846,0.46292556879965696,0.2265279210933451,0.6931080628972887,18623.336,4655.834,23279.17,"[1.1229484351831367, 1.017163546453439, 0.8768230624695903, 2.0, 2.0, 1.378522493421631, 1.3342278412672357, 1.0876631401993713, 2.0]",23.12,0.0,0.0,0.0,355.10096617435397,146.46294524892667,-1940.886907241051,-3605.923191182918,0.0,0.0,0.0,0.0,0.0,0.0,0.0,-5.1,21.754718183558673,0.0,21.3615580596938,0.0,-5.1,23.12,20.38,22.34,22.22,22.96,-6.15,-5.1,845.94,-1369.44,-1067.96,0.0,338.0,65.0,79.0,0.0,0.0,0.0,0.0,0.0,0.0,0.0,0.0,0.0,0.0,0.0,0.0,0.0,0.0
31.0,1616.0,0.0,9180.7708180119,-0.0,0.0,10796.7708180119,0.0,19121.784305128007,0.0,0.0,0.0,19121.784305128007,0.05488434362913919,0.2265279210933451,0.6931080628972887,0.0,0.0,0.0,"[1.1229484351831367, 1.017163546453439, 0.8768230624695903, 2.0, 2.0, 1.378522493421631, 1.3342278412672357, 1.0876631401993713, 2.0]",21.18,0.0,0.0,0.0,194.87680243054743,81.31556908397958,-1800.5114806421452,-56.65893488403921,6641.965388078787,0.0,0.0,0.0,0.0,0.0,0.0,-5.0,21.17522743997504,0.0,21.32655381247722,0.0,-5.0,21.18,20.41,22.24,20.95,21.77,-6.03,-5.0,3853.24,-1270.39,-990.72,0.0,137.0,63.0,66.0,0.0,0.0,0.0,0.0,0.0,0.0,0.0,0.0,0.0,0.0,0.0,0.0,0.0,0.0
32.0,2115.0,17382.30541725876,5141.493153424259,-0.0,0.0,-10038.900736748208,0.0,10806.774719680223,0.0,0.0,0.0,10806.774719680223,1.0,0.2265279210933451,0.6931080628972884,0.0,0.0,0.0,"[1.1229484351831367, 1.017163546453439, 0.8152867704612099, 0.8131840145678062, 1.1527748088017375, 0.5893074568501326, 1.3342278412672357, 1.0876631401993748, 1.4765377696027393]",23.12,0.0,0.0,1.8666941613151502,323.353763451123,103.68526065688758,-1920.2559631173517,-3406.3061235372174,4904.734235794715,0.0,0.0,0.0,0.0,0.0,0.0,-4.8,21.83120027734021,0.0,21.465067528501844,0.0,-4.8,23.12,20.51,22.42,22.36,23.09,-5.84,-4.8,0.0,-1354.88,-1056.6,2.95,228.0,49.0,115.0,0.0,0.0,0.0,0.0,0.0,0.0,0.0,0.0,0.0,0.0,0.0,0.0,0.0,0.0
33.0,3336.0,0.0,0.0,-0.0,13.694345481865845,3322.3056545181344,0.0,10981.41275883373,0.0,10981.412758833732,0.0,0.0,0.8744404514543411,0.18502598322927205,0.6931080628972884,0.0,0.0,0.0,"[1.1229484351831367, 1.017163546453439, 0.8152867704612099, 0.8131840145678062, 1.1527748088017375, 0.5893074568501326, 1.3342278412672357, 1.0876631401993748, 1.4765377696027393]",23.12,0.0,0.0,53.31379089698961,388.9740976513727,44.64446224805261,-1851.4861493716867,-3138.325255019178,0.0,0.0,0.0,0.0,0.0,0.0,0.0,-3.8,21.933406374942894,0.0,21.615081096433208,0.0,-3.8,23.12,20.62,22.61,22.3,23.06,-4.6,-3.8,302.53,-1306.36,-1018.76,84.25,109.0,5.0,231.0,0.0,0.0,0.0,0.0,0.0,0.0,0.0,0.0,0.0,0.0,0.0,0.0,0.0,0.0
34.0,5886.0,0.0,7580.433931821159,-0.0,226.76230650306456,13239.671625318093,0.0,17450.72146134076,0.0,0.0,0.0,17450.72146134076,0.3740749327348365,0.18502598322927205,0.6931080628972884,0.0,0.0,0.0,"[1.1229484351831367, 1.017163546453439, 0.8152867704612099, 0.8131840145678062, 1.1527748088017375, 0.5893074568501326, 1.3342278412672357, 1.0876631401993748, 1.4765377696027393]",21.39,0.0,0.0,100.15687219569288,621.4798390239641,61.06577756112085,-1656.9148601377126,0.9331303238910016,0.0,0.0,0.0,0.0,0.0,0.0,0.0,-2.7,21.407901961264397,0.0,21.568232481275302,0.0,-2.7,21.39,20.65,22.49,21.16,21.99,-3.39,-2.7,3430.0,-1169.08,-911.7,158.27,155.0,0.0,380.0,0.0,0.0,0.0,0.0,0.0,0.0,0.0,0.0,0.0,0.0,0.0,0.0,0.0,0.0
35.0,8479.0,14932.950266539287,7472.310532546897,-0.0,1093.0250173403074,0.0,0.0,17914.171666973314,0.0,0.0,0.0,17914.171666973318,0.3740749327348365,0.18502598322927205,0.6931080628972884,0.0,0.0,0.0,"[1.1229484351831367, 1.017163546453439, 0.8152867704612099, 0.8131840145678062, 1.1527748088017375, 0.5893074568501326, 1.3342278412672357, 1.0876631401993748, 1.4765377696027393]",21.06,0.0,0.0,146.39009308886207,503.49079318874175,39.70857556435579,-1565.095541921067,463.3038255993522,0.0,0.0,0.0,0.0,0.0,0.0,0.0,-1.7,21.249448771976496,0.0,21.4662320045895,0.0,-1.7,21.06,20.64,22.29,21.01,21.78,-2.24,-1.7,325.56,-1104.29,-861.18,231.33,93.0,0.0,325.0,0.0,0.0,0.0,0.0,0.0,0.0,0.0,0.0,0.0,0.0,0.0,0.0,0.0,0.0
36.0,5505.0,24230.611494818404,4147.905437484126,-0.0,1543.447000139815,-16000.0,0.0,10221.02147971293,0.0,0.0,0.0,10221.02147971293,0.9548156734755772,0.18502598322927205,0.6931080628972884,0.0,0.0,0.0,"[1.1229484351831367, 1.017163546453439, 0.8152867704612099, 0.8131840145678062, 1.1527748088017375, 0.5893074568501326, 1.3342278412672357, 1.0876631401993748, 1.4765377696027393]",20.9,0.0,0.0,158.34145384415754,1489.5674134873118,106.94421148009766,-1506.1772231068783,589.7285955879296,0.0,0.0,0.0,0.0,0.0,0.0,0.0,-1.0,21.140923406790424,0.0,21.36284791076186,0.0,-1.0,20.9,20.62,22.1,20.92,21.63,-1.82,-1.0,3364.07,-1062.72,-828.76,250.22,240.0,0.0,980.0,0.0,0.0,0.0,0.0,0.0,0.0,0.0,0.0,0.0,0.0,0.0,0.0,0.0,0.0
37.0,6788.0,11483.10239030101,5095.984151133997,-0.0,458.2972727844923,0.0,0.0,12702.965309299148,0.0,0.0,0.0,12702.96530929915,0.9548156734755772,0.18502598322927205,0.6645031783205069,0.0,0.0,0.0,"[1.1229484351831367, 1.017163546453439, 0.8152867704612099, 0.8131840145678062, 1.1527748088017375, 0.5893074568501326, 1.3342278412672357, 1.0876631401993748, 1.4765377696027393]",21.22,0.0,0.0,116.7083333528535,1195.197145379496,52.96586095197736,-1507.6828825839461,-121.88613305523575,0.0,0.0,0.0,0.0,0.0,0.0,0.0,-0.7,21.18966164491391,0.0,21.289304834804714,0.0,-0.7,21.22,20.61,21.96,21.06,21.67,-1.68,-0.7,0.0,-1063.78,-829.59,184.43,83.0,0.0,844.0,0.0,0.0,0.0,0.0,0.0,0.0,0.0,0.0,0.0,0.0,0.0,0.0,0.0,0.0
38.0,5518.0,14980.106041346691,9387.637184268318,-0.0,0.4316731283628554,0.0,0.0,22863.970629752377,0.0,0.0,0.0,22863.970629752377,0.9548156734755772,0.18502598322927205,0.6645031783205059,0.0,0.0,0.0,"[1.1229484351831367, 1.017163546453439, 0.8152867704612099, 0.8131840145678062, 1.1527748088017375, 0.5893074568501326, 1.3342278412672357, 1.0876631401993748, 1.4765377696027393]",21.12,0.0,0.0,31.556811717754133,94.24950808459205,2.214820947812673,-1542.0003601400545,-38.33412423418885,6660.207692643395,0.0,0.0,0.0,0.0,0.0,0.0,-1.3,21.12108993035745,0.0,21.224580248750584,0.0,-1.3,21.12,20.6,21.84,20.98,21.54,-2.36,-1.3,3720.53,-1088.0,-848.47,49.87,0.0,0.0,70.0,0.0,0.0,0.0,0.0,0.0,0.0,0.0,0.0,0.0,0.0,0.0,0.0,0.0,0.0
39.0,3977.0,15807.742464274592,11751.703751953219,-0.0,0.0,0.0,0.0,27949.554927267363,0.0,0.0,0.0,27949.554927267367,0.9548156734755772,0.18502598322927205,0.6645031783205059,0.0,0.0,0.0,"[1.1229484351831367, 1.017163546453439, 0.8152867704612099, 0.8131840145678062, 1.1527748088017375, 0.5893074568501326, 1.3342278412672357, 1.0876631401993748, 1.4765377696027393]",23.12,0.0,0.0,3.6899326918069715,126.56362514216646,2.9741881299198716,-1720.8235032549233,-3462.104614875083,5049.732653104879,0.0,0.0,0.0,0.0,0.0,0.0,-1.9,21.808206091723743,0.0,21.388484518014707,0.0,-1.9,23.12,20.7,22.08,22.41,22.9,-3.05,-1.9,0.0,-1214.17,-946.87,5.83,0.0,0.0,94.0,0.0,0.0,0.0,0.0,0.0,0.0,0.0,0.0,0.0,0.0,0.0,0.0,0.0,0.0
40.0,3575.0,6276.227028525278,1424.9715911791645,-0.0,0.0,-1244.8743022034864,0.0,3361.898500129903,0.0,0.0,0.0,3361.898500129903,1.0,0.18502598322927205,0.6645031783205059,0.0,0.0,0.0,"[1.1229484351831367, 1.017163546453439, 0.8152867704612099, 0.8131840145678062, 1.1527748088017375, 0.5893074568501326, 1.3342278412672357, 1.0876631401993748, 1.4765377696027393]",23.12,0.0,0.0,0.0,88.86382190832965,2.088259750794805,-1734.5774660040563,-3165.539175509699,0.0,0.0,0.0,0.0,0.0,0.0,0.0,-2.1,21.92222309876074,0.0,21.560176755541633,0.0,-2.1,23.12,20.8,22.32,22.34,22.9,-3.3,-2.1,593.89,-1223.87,-954.44,0.0,0.0,0.0,66.0,0.0,0.0,0.0,0.0,0.0,0.0,0.0,0.0,0.0,0.0,0.0,0.0,0.0,0.0
41.0,5574.0,0.0,6472.211296297007,-0.0,0.0,12046.211296297006,0.0,15146.317018368622,0.0,0.0,0.0,15146.31701836862,0.5447388021051773,0.18502598322927205,0.6645031783205059,0.0,0.0,0.0,"[1.1229484351831367, 1.017163546453439, 0.8152867704612099, 0.8131840145678062, 1.1527748088017375, 0.5893074568501326, 1.3342278412672357, 1.0876631401993748, 1.4765377696027393]",21.28,0.0,0.0,0.0,380.75383980339336,60.97085666335748,-1621.3307283207137,196.9827814533542,5405.360514411326,0.0,0.0,0.0,0.0,0.0,0.0,-2.3,21.36572862466606,0.0,21.521388301165842,0.0,-2.3,21.28,20.81,22.23,21.14,21.79,-3.48,-2.3,0.0,-1143.97,-892.12,0.0,149.0,13.0,203.0,0.0,0.0,0.0,0.0,0.0,0.0,0.0,0.0,0.0,0.0,0.0,0.0,0.0,0.0
42.0,9582.0,18174.00631796839,8501.136286378545,-0.0,0.0,0.0,0.0,19732.334489846202,0.0,0.0,0.0,19732.334489846202,0.5447388021051773,0.18502598322927205,0.6645031783205059,0.0,0.0,0.0,"[1.1229484351831367, 1.017163546453439, 0.8152867704612099, 0.8131840145678062, 1.1527748088017375, 0.5893074568501326, 1.3342278412672357, 1.0876631401993748, 1.4765377696027393]",22.97,0.0,0.0,0.0,762.9958297344381,69.38717626504561,-1751.7658241994989,-2757.747326843491,0.0,0.0,0.0,0.0,0.0,0.0,0.0,-2.5,21.92895808185779,0.0,21.628688447611804,0.0,-2.5,22.97,20.88,22.38,22.37,22.94,-3.81,-2.5,3270.05,-1236.0,-963.89,0.0,81.0,48.0,519.0,0.0,0.0,0.0,0.0,0.0,0.0,0.0,0.0,0.0,0.0,0.0,0.0,0.0,0.0
43.0,5467.0,8364.34594233218,5098.141674942623,-0.0,0.0,2242.6174623221027,0.0,11736.30047303945,0.0,0.0,0.0,11736.30047303945,0.45998379597055516,0.18502598322927205,0.6539645366343232,0.0,0.0,0.0,"[1.1229484351831367, 1.017163546453439, 0.8152867704612099, 0.8131840145678062, 1.1527748088017375, 0.5893074568501326, 1.3342278412672357, 1.0876631401993748, 1.4765377696027393]",21.56,0.0,0.0,0.0,1352.2324159926206,129.02914035971548,-1668.2902047034568,-183.51234027072383,4452.168289489403,0.0,0.0,0.0,0.0,0.0,0.0,-2.7,21.502947280750906,0.0,21.5981158086675,0.0,-2.7,21.56,20.9,22.3,21.32,21.95,-4.04,-2.7,1996.09,-1177.1,-917.96,0.0,128.0,104.0,926.0,0.0,0.0,0.0,0.0,0.0,0.0,0.0,0.0,0.0,0.0,0.0,0.0,0.0,0.0
44.0,5520.0,12249.079046974057,6667.833651739186,-0.0,0.0,0.0,0.0,15222.714882808865,0.0,0.0,0.0,15222.714882808865,0.45998379597055516,0.20962962962962967,0.6419203747072573,0.0,0.0,0.0,"[1.1229484351831367, 0.2948599653684134, 0.8152867704612099, 0.8131840145678062, 0.6010232780656963, 0.5893074568501362, 0.952178112350829, 1.0876631401993713, 0.7246511804064326]",23.12,0.0,0.0,0.0,602.6299374070456,137.8251435524572,-1789.593317000588,-2901.2834520521565,3959.946410996615,0.0,0.0,0.0,0.0,0.0,0.0,-2.9,22.02418647933439,0.0,21.699928501032602,0.0,-2.9,23.12,20.96,22.44,22.42,22.96,-4.17,-2.9,0.0,-1262.69,-984.71,0.0,167.0,130.0,346.0,0.0,0.0,0.0,0.0,0.0,0.0,0.0,0.0,0.0,0.0,0.0,0.0,0.0,0.0
45.0,5398.0,6538.75075715055,0.0,-0.0,0.0,0.0,0.0,997.2513030283169,0.0,0.0,0.0,0.0,0.45998379597055516,0.20962962962962967,0.6193375710940087,4432.228013459188,1108.057003364797,5540.285016823986,"[1.1229484351831367, 0.2948599653684134, 0.8152867704612099, 0.8131840145678062, 0.6010232780656963, 0.5893074568501362, 0.952178112350829, 1.0876631401993713, 0.7246511804064326]",23.12,0.0,0.0,0.0,683.4860943427747,103.62198005837867,-1803.347279749721,-2676.367293968285,0.0,0.0,0.0,0.0,0.0,0.0,0.0,-3.1,22.110668698456895,0.0,21.82881876365153,0.0,-3.1,23.12,21.05,22.61,22.44,23.03,-4.38,-3.1,0.0,-1272.39,-992.28,0.0,107.0,98.0,441.0,0.0,0.0,0.0,0.0,0.0,0.0,0.0,0.0,0.0,0.0,0.0,0.0,0.0,0.0
46.0,3873.0,60162.243895982385,41110.43521854838,-0.0,0.0,-14877.997457954092,0.0,30686.003500662493,0.0,-61601.75884050984,0.0,92287.76234117233,1.0,0.43322119875444315,0.6193375710940087,0.0,0.0,0.0,"[1.1229484351831367, 0.2948599653684134, 0.8152867704612099, 0.8131840145678062, 0.6010232780656963, 0.5893074568501362, 0.952178112350829, 1.0876631401993713, 0.7246511804064326]",21.7,0.0,0.0,0.0,688.871780519037,89.1940035983418,-1719.4004957608188,-97.58115928630903,4744.847361379111,0.0,0.0,0.0,0.0,0.0,0.0,-3.3,21.67958001821807,0.0,21.793209256894016,0.0,-3.3,21.7,21.06,22.52,21.5,22.15,-4.66,-3.3,0.0,-1213.16,-946.09,0.0,134.0,58.0,435.0,0.0,0.0,0.0,0.0,0.0,0.0,0.0,0.0,0.0,0.0,0.0,0.0,0.0,0.0
47.0,3086.0,0.0,12731.055386354928,-0.0,0.0,15817.055386354928,0.0,28458.250875527214,0.0,0.0,0.0,28458.250875527217,0.40222768759051675,0.43322119875444315,0.5967547674807601,0.0,0.0,0.0,"[1.1229484351831367, 0.2948599653684134, 0.8152867704612099, 0.8131840145678062, 0.6010232780656963, 0.5893074568501362, 0.952178112350829, 1.0876631401993713, 0.7246511804064326]",23.12,0.0,0.0,0.0,320.3065989040271,44.29641895625346,-1823.978223873421,-2567.4959946260988,4029.9324063474014,0.0,0.0,0.0,0.0,0.0,0.0,-3.4,22.152685073254204,0.0,21.884709036702922,0.0,-3.4,23.12,21.12,22.64,22.53,23.11,-4.75,-3.4,3242.45,-1286.95,-1003.63,0.0,83.0,21.0,192.0,0.0,0.0,0.0,0.0,0.0,0.0,0.0,0.0,0.0,0.0,0.0,0.0,0.0,0.0
48.0,1821.0,0.0,4609.343408829455,-0.0,0.0,6430.343408829455,0.0,9776.147170222914,0.0,0.0,0.0,9776.147170222914,0.15920639473981926,0.43322119875444315,0.5967547674807601,0.0,0.0,0.0,"[1.1229484351831367, 0.2948599653684134, 0.8152867704612099, 0.8131840145678062, 0.6010232780656963, 0.5893074568501362, 0.952178112350829, 1.0876631401993713, 0.7246511804064326]",23.12,0.0,0.0,0.0,157.95650640643282,28.824312620819224,-1906.5020003682187,-2379.4626400599927,0.0,0.0,0.0,0.0,0.0,0.0,0.0,-4.6,22.225539044060554,0.0,21.99257442050074,0.0,-4.6,23.12,21.2,22.78,22.5,23.12,-5.91,-4.6,2642.92,-1345.18,-1049.04,0.0,80.0,2.0,75.0,0.0,0.0,0.0,0.0,0.0,0.0,0.0,0.0,0.0,0.0,0.0,0.0,0.0,0.0
49.0,1412.0,59662.02639145154,41951.71625949428,-0.0,0.0,-16000.0,0.0,84177.86794807891,0.0,0.0,0.0,84177.86794807893,0.7399471354805599,0.43322119875444315,0.5967547674807601,0.0,0.0,0.0,"[1.1229484351831367, 0.2948599653684134, 0.8152867704612099, 0.8131840145678062, 0.6010232780656963, 0.5893074568501362, 0.952178112350829, 1.0876631401993713, 0.7246511804064326]",21.55,0.0,0.0,0.0,235.90722737865184,53.503746039303294,-1880.7249353482832,435.87783089914905,0.0,0.0,0.0,0.0,0.0,0.0,0.0,-5.8,21.731566542919055,0.0,21.9293316013265,0.0,-5.8,21.55,21.2,22.66,21.49,22.17,-7.09,-5.8,0.0,-1326.99,-1034.85,0.0,160.0,0.0,91.0,0.0,0.0,0.0,0.0,0.0,0.0,0.0,0.0,0.0,0.0,0.0,0.0,0.0,0.0
50.0,1423.0,569.1437825549108,7628.699268457749,-0.0,0.0,8485.401204815613,0.0,14434.582402955253,0.0,0.0,0.0,14434.582402955251,0.41925925925925933,0.43322119875444315,0.5967547674807601,0.0,0.0,0.0,"[1.1229484351831367, 0.2948599653684134, 0.8152867704612099, 0.8131840145678062, 0.6010232780656963, 0.5893074568501362, 0.952178112350829, 1.0876631401993713, 0.7246511804064326]",21.1,0.0,0.0,0.0,250.7178643633735,53.85178933110243,-1932.6391613248127,1054.4042973338294,4126.6750756370275,0.0,0.0,0.0,0.0,0.0,0.0,-7.0,21.52443901106986,0.0,21.805784924016873,0.0,-7.0,21.1,21.15,22.46,21.26,21.91,-8.36,-7.0,451.54,-1363.62,-1063.42,0.0,160.0,0.0,102.0,0.0,0.0,0.0,0.0,0.0,0.0,0.0,0.0,0.0,0.0,0.0,0.0,0.0,0.0
51.0,1214.0,31250.67154407065,13880.418186350298,-0.0,0.0,-16000.0,0.0,25469.76471344144,0.0,0.0,0.0,25469.764713441444,1.0,0.43322119875444315,0.5967547674807601,0.0,0.0,0.0,"[1.1229484351831367, 0.2948599653684134, 0.8152867704612099, 0.8131840145678062, 0.6010232780656963, 0.5893074568501362, 0.952178112350829, 1.0876631401993713, 0.7246511804064326]",22.47,0.0,0.0,0.0,199.55384568888059,52.649457959432695,-2067.628051459165,-1424.0699778113349,4954.154295332583,0.0,0.0,0.0,0.0,0.0,0.0,-7.6,21.936740576153753,0.0,21.832081301513174,0.0,-7.6,22.47,21.17,22.49,22.19,22.75,-8.99,-7.6,2947.64,-1458.86,-1137.69,0.0,160.0,0.0,64.0,0.0,0.0,0.0,0.0,0.0,0.0,0.0,0.0,0.0,0.0,0.0,0.0,0.0,0.0
52.0,1900.0,33427.18251734176,25855.48060475505,-0.0,0.0,-633.6000000000022,0.0,26234.030153716052,24354.83,0.0,0.0,45717.89415371606,1.0,0.43322119875444315,0.5967547674807601,19483.864,4870.966,24354.83,"[1.1229484351831367, 0.2948599653684134, 0.8152867704612099, 0.8131840145678062, 0.6010232780656963, 0.5893074568501362, 0.952178112350829, 1.0876631401993713, 0.7246511804064326]",23.12,0.0,0.0,0.0,225.13585502612705,53.25062364526756,-2160.950311227179,-2449.3288187289027,0.0,0.0,0.0,0.0,0.0,0.0,0.0,-8.3,22.20085479051174,0.0,21.94471085324126,0.0,-8.3,23.12,21.23,22.66,22.59,23.14,-9.73,-8.3,280.04,-1524.71,-1189.04,0.0,160.0,0.0,83.0,0.0,0.0,0.0,0.0,0.0,0.0,0.0,0.0,0.0,0.0,0.0,0.0,0.0,0.0
53.0,1742.0,3884.772637288206,2123.3487741017652,-0.0,0.0,0.0,0.0,3633.069252847178,0.0,0.0,0.0,3633.069252847178,1.0,0.43322119875444315,0.5967547674807601,0.0,0.0,0.0,"[1.1229484351831367, 0.2948599653684134, 0.8152867704612099, 0.8131840145678062, 0.6010232780656963, 0.5893074568501362, 0.952178112350829, 1.0876631401993713, 0.7246511804064326]",21.46,0.0,0.0,0.0,219.11239022372828,55.94004908189725,-2087.7215774811484,531.5494955006546,0.0,0.0,0.0,0.0,0.0,0.0,0.0,-8.9,21.680091196435356,0.0,21.882783379452842,0.0,-8.9,21.46,21.22,22.55,21.45,22.09,-10.38,-8.9,3165.35,-1473.04,-1148.75,0.0,160.0,5.0,78.0,0.0,0.0,0.0,0.0,0.0,0.0,0.0,0.0,0.0,0.0,0.0,0.0,0.0,0.0
54.0,1223.0,0.0,10484.45926290416,-0.0,0.0,11707.45926290416,0.0,17439.24824721394,0.0,0.0,0.0,17439.24824721394,0.5575412221124656,0.43322119875444315,0.5967547674807601,0.0,0.0,0.0,"[1.1229484351831367, 0.2948599653684134, 0.8152867704612099, 0.8131840145678062, 0.6010232780656963, 0.5893074568501362, 0.952178112350829, 1.0876631401993713, 0.7246511804064326]",20.96,0.0,0.0,0.0,310.9525123873608,150.35470205722606,-2088.1735297727478,1227.9838021328826,1514.408268897447,0.0,0.0,0.0,0.0,0.0,0.0,-9.4,21.45409807474388,0.0,21.75381583870908,0.0,-9.4,20.96,21.16,22.35,21.2,21.8,-10.89,-9.4,0.0,-1473.36,-1149.0,0.0,294.0,97.0,66.0,0.0,0.0,0.0,0.0,0.0,0.0,0.0,0.0,0.0,0.0,0.0,0.0,0.0,0.0
55.0,3632.0,8741.86416093899,5066.154840134295,-0.0,0.0,0.0,0.0,8185.265369570413,0.0,0.0,0.0,8185.265369570414,0.5575412221124656,0.43322119875444315,0.5967547674807601,0.0,0.0,0.0,"[1.1229484351831367, 0.2948599653684134, 0.8152867704612099, 0.8131840145678062, 0.6010232780656963, 0.5893074568501362, 0.952178112350829, 1.0876631401993713, 0.7246511804064326]",21.39,0.0,0.0,0.0,328.17253529304185,185.6969163244654,-2151.7420348848527,317.3630726877139,0.0,0.0,0.0,0.0,0.0,0.0,0.0,-9.9,21.529329879704694,0.0,21.68100029888914,0.0,-9.9,21.39,21.12,22.24,21.5,22.04,-11.43,-9.9,450.41,-1518.21,-1183.98,0.0,216.0,200.0,109.0,0.0,0.0,0.0,0.0,0.0,0.0,0.0,0.0,0.0,0.0,0.0,0.0,0.0,0.0
56.0,2367.0,0.0,4058.120076721104,-0.0,0.0,6425.120076721104,0.0,6633.982287497663,0.0,0.0,0.0,6633.982287497663,0.07189344609424156,0.43322119875444315,0.5967547674807601,0.0,0.0,0.0,"[1.1229484351831367, 0.29485996536834946, 0.8152867704612099, 0.8131840145678062, 0.6010232780656963, 0.5893074568501362, 0.952178112350829, 0.93638445181168, 0.7246511804064326]",20.88,0.0,0.0,7.5683390276479,314.8500484359718,184.0516207632332,-2102.7781410040498,1084.1412400400393,524.5315224108334,0.0,0.0,0.0,0.0,0.0,0.0,-9.7,21.31138440668387,0.0,21.57466239836897,0.0,-9.7,20.88,21.06,22.09,21.13,21.65,-11.25,-9.7,820.19,-1483.67,-1157.04,11.96,272.0,168.0,73.0,0.0,0.0,0.0,0.0,0.0,0.0,0.0,0.0,0.0,0.0,0.0,0.0,0.0,0.0
57.0,4066.0,31403.913722032055,11191.906364823055,-0.0,11.012211401161844,-16000.0,0.0,20856.588622764975,0.0,0.0,0.0,20856.588622764975,0.6526341868349822,0.43322119875444315,0.5967547674807601,0.0,0.0,0.0,"[1.1229484351831367, 0.29485996536834946, 0.8152867704612099, 0.8131840145678062, 0.6010232780656963, 0.5893074568501362, 0.952178112350829, 0.93638445181168, 0.7246511804064326]",20.88,0.0,0.0,73.96586737734054,410.94202810717996,168.990838318107,-1937.7305880144538,917.0147976229149,375.0691958377346,0.0,0.0,0.0,0.0,0.0,0.0,-7.3,21.245769529569646,0.0,21.4755002583426,0.0,-7.3,20.88,21.0,21.95,21.13,21.61,-8.68,-7.3,0.0,-1367.21,-1066.22,116.89,286.0,130.0,141.0,0.0,0.0,0.0,0.0,0.0,0.0,0.0,0.0,0.0,0.0,0.0,0.0,0.0,0.0
58.0,10006.0,19434.352352918988,0.0,-0.0,52.90338268181907,0.0,0.0,8445.67557645259,0.0,0.0,0.0,0.0,0.6526341868349822,0.43322119875444315,0.5967547674807601,37536.335895344855,9384.083973836214,46920.41986918107,"[1.1229484351831367, 0.29485996536834946, 0.8152867704612099, 0.8131840145678062, 0.6010232780656963, 0.5893074568501362, 0.952178112350829, 0.93638445181168, 0.7246511804064326]",20.88,0.0,0.0,105.06173140254774,916.2752928825379,74.98750923308624,-1793.313979148557,771.5415265780606,0.0,0.0,0.0,0.0,0.0,0.0,0.0,-5.2,21.188802924132396,0.0,21.389510303014973,0.0,-5.2,20.88,20.95,21.83,21.09,21.53,-6.71,-5.2,0.0,-1265.32,-986.76,166.03,150.0,15.0,600.0,0.0,0.0,0.0,0.0,0.0,0.0,0.0,0.0,0.0,0.0,0.0,0.0,0.0,0.0
59.0,11361.0,7202.465945456549,4385.685874999739,-0.0,8580.232259270473,0.0,0.0,9803.503724111371,0.0,0.0,0.0,9803.503724111371,0.6526341868349822,0.43322119875444315,0.5967547674807601,0.0,0.0,0.0,"[1.1229484351831367, 0.29485996536834946, 0.8152867704612099, 0.8131840145678062, 0.6010232780656963, 0.5893074568501362, 0.952178112350829, 0.93638445181168, 0.7246511804064326]",20.91,0.0,0.0,143.16160001090645,4090.9247009138453,128.8076582649342,-1671.4851044801308,575.5848290455799,2510.346133768266,0.0,0.0,0.0,0.0,0.0,0.0,-3.4,21.1410461925599,0.0,21.304817327211644,0.0,-3.4,20.91,20.9,21.71,21.02,21.42,-4.97,-3.4,2081.76,-1179.36,-919.72,226.23,109.0,0.0,2981.0,0.0,0.0,0.0,0.0,0.0,0.0,0.0,0.0,0.0,0.0,0.0,0.0,0.0,0.0
60.0,5737.0,0.0,2643.2748651174775,-5250.682042407447,13630.956907524924,0.0,0.0,6160.612350555399,0.0,0.0,0.0,6160.612350555399,0.6526341868349822,0.43322119875444315,0.6136258114202987,0.0,0.0,0.0,"[1.1229484351831367, 0.29485996536834946, 0.8152867704612099, 0.8131840145678062, 0.6010232780656963, 0.5893074568501362, 0.952178112350829, 0.93638445181168, 0.7246511804064326]",23.12,0.0,0.0,1070.4342366924195,696.4542597408802,53.53538633855777,-1755.2084101277555,-3371.9736143993264,0.0,0.0,0.0,0.0,0.0,0.0,0.0,-2.4,21.84235536642493,0.0,21.39718239421368,0.0,-2.4,23.12,20.94,21.86,22.22,22.49,-2.23,-2.4,0.0,-1238.43,-965.79,1691.57,124.0,0.0,452.0,0.0,0.0,0.0,0.0,0.0,0.0,0.0,0.0,0.0,0.0,0.0,0.0,0.0,0.0
61.0,3145.0,0.0,7364.569538673718,-0.0,11929.953082929229,-1420.383544255511,0.0,17375.03781789889,0.0,0.0,0.0,17375.03781789889,0.7041888488116637,0.43322119875444315,0.6136258114202987,0.0,0.0,0.0,"[1.1229484351831367, 0.29485996536834946, 0.8152867704612099, 0.8131840145678062, 0.6010232780656963, 0.5893074568501362, 0.952178112350829, 0.93638445181168, 0.7246511804064326]",21.86,0.0,0.0,933.4765081235507,443.96478808268364,75.7785167144479,-1648.0673566126143,-886.0012018437274,4331.690500617454,0.0,0.0,0.0,0.0,0.0,0.0,-2.1,21.538246241784456,0.0,21.491173194937446,0.0,-2.1,21.86,20.98,22.0,21.67,22.21,-2.16,-2.1,1290.01,-1162.83,-906.83,1475.14,218.0,0.0,215.0,0.0,0.0,0.0,0.0,0.0,0.0,0.0,0.0,0.0,0.0,0.0,0.0,0.0,0.0
62.0,2296.0,0.0,4117.395665343015,-0.0,6413.395665343015,0.0,0.0,9138.754166819494,0.0,-300.5438136900925,0.0,9439.297980509587,0.7041888488116637,0.4343120614856146,0.6136258114202987,0.0,0.0,0.0,"[1.1229484351831367, 0.29485996536834946, 0.8152867704612099, 0.8131840145678062, 0.6010232780656963, 0.5893074568501362, 0.952178112350829, 0.93638445181168, 0.7246511804064326]",23.12,0.0,0.0,510.4524248038001,343.83354377927867,57.83846703716524,-1782.7163356260219,-2902.844956877162,3760.0322824254185,0.0,0.0,0.0,0.0,0.0,0.0,-2.8,22.02320536224847,0.0,21.678043820643445,0.0,-2.8,23.12,21.06,22.29,22.6,23.15,-3.49,-2.8,0.0,-1257.84,-980.92,806.65,166.0,0.0,168.0,0.0,0.0,0.0,0.0,0.0,0.0,0.0,0.0,0.0,0.0,0.0,0.0,0.0,0.0
63.0,2393.0,9072.317016545609,6633.955431462881,-0.0,0.0,0.0,0.0,14196.71765340491,0.0,0.0,0.0,14196.717653404914,0.7041888488116637,0.4343120614856146,0.6136258114202987,0.0,0.0,0.0,"[1.1229484351831367, 0.29485996536834946, 0.8152867704612099, 0.8131840145678062, 0.6010232780656963, 0.5893074568501362, 0.952178112350829, 0.93638445181168, 0.7246511804064326]",23.12,0.0,0.0,24.126862354244178,549.6943114377298,86.156534869913,-1892.7480376190858,-2629.8383553352633,3867.4376696401823,0.0,0.0,0.0,0.0,0.0,0.0,-4.4,22.129474278365507,0.0,21.84022443867028,0.0,-4.4,23.12,21.15,22.53,22.54,23.11,-6.05,-4.4,2552.75,-1335.47,-1041.47,38.13,216.0,15.0,293.0,0.0,0.0,0.0,0.0,0.0,0.0,0.0,0.0,0.0,0.0,0.0,0.0,0.0,0.0
64.0,1714.0,1722.6130653266332,0.0,-0.0,0.0,0.0,0.0,11920.46499277452,0.0,11920.46499277452,0.0,0.0,0.7041888488116637,0.38926117337989075,0.6050945300552937,0.0,0.0,0.0,"[1.1229484351831367, 0.29485996536834946, 0.8152867704612099, 0.8131840145678062, 0.6010232780656963, 0.5893074568501362, 0.952178112350829, 0.93638445181168, 0.7246511804064326]",23.12,0.0,0.0,0.0,322.71598482498666,135.61032260464455,-1940.886907241051,-2431.974774229263,0.0,0.0,0.0,0.0,0.0,0.0,0.0,-5.1,22.20588847421013,0.0,21.955074504346705,0.0,-5.1,23.12,21.22,22.69,22.51,23.07,-6.82,-5.1,0.0,-1369.44,-1067.96,0.0,276.0,80.0,86.0,0.0,0.0,0.0,0.0,0.0,0.0,0.0,0.0,0.0,0.0,0.0,0.0,0.0,0.0
65.0,5030.0,4122.408167401674,6401.707204329161,-0.0,0.0,7329.911077764495,0.0,12784.26300002242,0.0,0.0,0.0,12784.26300002242,0.4271702895613048,0.38926117337989075,0.6050945300552937,0.0,0.0,0.0,"[1.1229484351831367, 0.29485996536834946, 0.8152867704612099, 0.8131840145678062, 0.6010232780656963, 0.5893074568501362, 0.952178112350829, 0.93638445181168, 0.7246511804064326]",21.62,0.0,0.0,0.0,1042.3428679821538,159.18234554922228,-1892.2830999539437,281.64050306690103,0.0,0.0,0.0,0.0,0.0,0.0,0.0,-5.9,21.740716297558286,0.0,21.907029128491985,0.0,-5.9,21.62,21.22,22.59,21.55,22.18,-7.57,-5.9,0.0,-1335.15,-1041.21,0.0,234.0,114.0,639.0,0.0,0.0,0.0,0.0,0.0,0.0,0.0,0.0,0.0,0.0,0.0,0.0,0.0,0.0
66.0,9554.0,15786.338345361155,6153.406653634348,-0.0,0.0,0.0,0.0,11819.106204656258,0.0,0.0,0.0,11819.106204656258,0.4271702895613048,0.38926117337989075,0.5905411677267557,0.0,0.0,0.0,"[1.1229484351831367, 0.29485996536834946, 0.8152867704612099, 0.8131840145678062, 0.6010232780656963, 0.5893074568501362, 0.952178112350829, 0.93638445181168, 0.7246511804064326]",21.45,0.0,0.0,0.0,2745.707849808724,183.3238938803804,-1936.2047818413332,424.43435494675754,391.8568209325219,0.0,0.0,0.0,0.0,0.0,0.0,-6.7,21.634554134345894,0.0,21.813108376122166,0.0,-6.7,21.45,21.19,22.44,21.46,22.04,-8.32,-6.7,100.1,-1366.14,-1065.38,0.0,164.0,123.0,1940.0,0.0,0.0,0.0,0.0,0.0,0.0,0.0,0.0,0.0,0.0,0.0,0.0,0.0,0.0
67.0,7634.0,14236.975518184794,6531.790640593871,-0.0,0.0,0.0,0.0,12109.997243126549,0.0,0.0,0.0,12109.997243126549,0.4271702895613048,0.38926117337989075,0.5890356474858724,0.0,0.0,0.0,"[1.1229484351831367, 0.29485996536834946, 0.8152867704612099, 0.8131840145678062, 0.6010232780656963, 0.5893074568501362, 0.952178112350829, 0.93638445181168, 0.7246511804064326]",22.14,0.0,0.0,0.0,1860.6128453150739,126.05495222979559,-2031.7829618550045,-927.4901403295353,0.0,0.0,0.0,0.0,0.0,0.0,0.0,-7.4,21.806037657153485,0.0,21.768129868969886,0.0,-7.4,22.14,21.17,22.36,21.78,22.27,-9.03,-7.4,0.0,-1433.57,-1117.97,0.0,133.0,75.0,1304.0,0.0,0.0,0.0,0.0,0.0,0.0,0.0,0.0,0.0,0.0,0.0,0.0,0.0,0.0
68.0,8753.0,15487.69859693161,6657.260103946951,-0.0,0.0,0.0,0.0,11834.89310186409,0.0,0.0,0.0,11834.89310186409,0.4271702895613048,0.38926117337989075,0.5890356474858724,0.0,0.0,0.0,"[0.3224050686273152, 0.29485996536834946, 0.8152867704612099, 0.266817298787565, 0.6010232780656928, 0.5893074568501397, 0.952178112350829, 0.93638445181168, 0.7246511804064326]",21.77,0.0,0.0,0.0,2018.7110803050932,129.50374484853248,-2060.8849234466034,-313.47784453387214,0.0,0.0,0.0,0.0,0.0,0.0,0.0,-8.2,21.6652190192237,0.0,21.71850460792382,0.0,-8.2,21.77,21.15,22.28,21.55,22.05,-9.81,-8.2,0.0,-1454.11,-1133.98,0.0,151.0,65.0,1413.0,0.0,0.0,0.0,0.0,0.0,0.0,0.0,0.0,0.0,0.0,0.0,0.0,0.0,0.0
69.0,4723.0,0.0,0.0,-0.0,0.0,4723.0,0.0,13629.462102522642,0.0,13629.462102522642,0.0,0.0,0.24867444677974776,0.33775149045274544,0.5890356474858724,0.0,0.0,0.0,"[0.3224050686273152, 0.29485996536834946, 0.8152867704612099, 0.266817298787565, 0.6010232780656928, 0.5893074568501397, 0.952178112350829, 0.93638445181168, 0.7246511804064326]",21.68,0.0,0.0,0.0,996.918856942888,99.73022325007925,-2102.815508220889,-249.09775017893045,2941.3710847760317,0.0,0.0,0.0,0.0,0.0,0.0,-8.9,21.599983045949685,0.0,21.65827801681202,0.0,-8.9,21.68,21.12,22.19,21.49,21.96,-10.47,-8.9,1613.25,-1483.69,-1157.06,0.0,162.0,49.0,650.0,0.0,0.0,0.0,0.0,0.0,0.0,0.0,0.0,0.0,0.0,0.0,0.0,0.0,0.0
70.0,3960.0,21041.422051871905,0.0,-0.0,0.0,0.0,0.0,16322.784354062078,0.0,1044.190906610791,0.0,0.0,0.24867444677974776,0.3338051907301045,0.5704675645149792,67904.85976645019,16976.214941612547,84881.07470806273,"[0.3224050686273152, 0.29485996536834946, 0.8152867704612099, 0.266817298787565, 0.6010232780656928, 0.5893074568501397, 0.952178112350829, 0.93638445181168, 0.7246511804064326]",22.32,0.0,0.0,0.0,407.04449205856895,58.09158943120097,-2202.174832257738,-1392.2739955980912,3133.3272989947554,0.0,0.0,0.0,0.0,0.0,0.0,-9.7,21.806633654374238,0.0,21.690161535056216,0.0,-9.7,22.32,21.13,22.25,22.01,22.46,-11.28,-9.7,0.0,-1553.8,-1211.73,0.0,92.0,37.0,250.0,0.0,0.0,0.0,0.0,0.0,0.0,0.0,0.0,0.0,0.0,0.0,0.0,0.0,0.0
71.0,5039.0,5064.321608040201,0.0,-0.0,0.0,0.0,0.0,9740.137009465718,0.0,9740.137009465718,0.0,0.0,0.24867444677974776,0.2969943932642477,0.5478847609017305,0.0,0.0,0.0,"[0.3224050686273152, 0.29485996536834946, 0.8152867704612099, 0.266817298787565, 0.6010232780656928, 0.5893074568501397, 0.952178112350829, 0.93638445181168, 0.7246511804064326]",22.32,0.0,0.0,0.0,355.03010188256104,57.90174763567418,-2250.3137018797042,-1314.3615399023927,1476.530004864706,0.0,0.0,0.0,0.0,0.0,0.0,-10.4,21.83693774794497,0.0,21.73785669591458,0.0,-10.4,22.32,21.15,22.33,22.03,22.51,-11.96,-10.4,2151.7,-1587.76,-1238.22,0.0,103.0,33.0,206.0,0.0,0.0,0.0,0.0,0.0,0.0,0.0,0.0,0.0,0.0,0.0,0.0,0.0,0.0
72.0,1704.0,47904.59537839637,45961.07240150439,-0.0,0.0,0.0,0.0,69876.5968130923,0.0,0.0,0.0,69876.5968130923,0.24867444677974776,0.2969943932642477,0.5478847609017305,0.0,0.0,0.0,"[0.3224050686273152, 0.29485996536834946, 0.8152867704612099, 0.266817298787565, 0.6010232780656928, 0.5893074568501397, 0.952178112350829, 0.93638445181168, 0.7246511804064326]",21.68,0.0,0.0,0.0,336.8888431835718,55.87676848338831,-2240.355135712219,-162.32346109475168,3692.989298058125,0.0,0.0,0.0,0.0,0.0,0.0,-10.9,21.63446150530193,0.0,21.714205283687726,0.0,-10.9,21.68,21.13,22.29,21.61,22.13,-12.53,-10.9,2237.98,-1580.74,-1232.74,0.0,160.0,0.0,166.0,0.0,0.0,0.0,0.0,0.0,0.0,0.0,0.0,0.0,0.0,0.0,0.0,0.0,0.0
73.0,1045.0,13821.47873289497,12707.371339230494,-0.0,0.0,0.0,0.0,18592.704024452018,0.0,0.0,0.0,18592.704024452018,0.24867444677974776,0.2969943932642477,0.5478847609017305,0.0,0.0,0.0,"[0.3224050686273152, 0.29485996536834946, 0.8152867704612099, 0.266817298787565, 0.6010232780656928, 0.5893074568501397, 0.952178112350829, 0.93638445181168, 0.7246511804064326]",22.32,0.0,0.0,0.0,324.7710492869815,55.5920057900981,-2325.960496999936,-1300.3032328220368,1570.5276673338053,0.0,0.0,0.0,0.0,0.0,0.0,-11.5,21.843008231084934,0.0,21.749159341969268,0.0,-11.5,22.32,21.14,22.35,22.07,22.58,-13.16,-11.5,2028.97,-1641.14,-1279.84,0.0,160.0,0.0,157.0,0.0,0.0,0.0,0.0,0.0,0.0,0.0,0.0,0.0,0.0,0.0,0.0,0.0,0.0
74.0,922.0,23749.785535709754,22709.036608031205,-0.0,0.0,0.0,0.0,31711.127092267678,0.0,0.0,0.0,31711.127092267678,0.24867444677974776,0.2969943932642477,0.5478847609017305,0.0,0.0,0.0,"[0.3224050686273152, 0.29485996536834946, 0.8152867704612099, 0.266817298787565, 0.6010232780656928, 0.5893074568501397, 0.952178112350829, 0.93638445181168, 0.7246511804064326]",21.68,0.0,0.0,0.0,239.94649201084863,53.598666937066696,-2329.755893581583,-151.15637812299357,3870.285992238354,0.0,0.0,0.0,0.0,0.0,0.0,-12.2,21.639524384932404,0.0,21.724077164426028,0.0,-12.2,21.68,21.13,22.32,21.61,22.16,-13.91,-12.2,691.52,-1643.82,-1281.93,0.0,160.0,0.0,94.0,0.0,0.0,0.0,0.0,0.0,0.0,0.0,0.0,0.0,0.0,0.0,0.0,0.0,0.0
75.0,968.0,972.8643216080402,0.0,-0.0,0.0,0.0,0.0,11890.936246952973,0.0,11890.936246952973,0.0,0.0,0.24867444677974776,0.2520551028373657,0.5478847609017305,0.0,0.0,0.0,"[0.3224050686273152, 0.29485996536834946, 0.8152867704612099, 0.266817298787565, 0.6010232780656928, 0.5893074568501397, 0.952178112350829, 0.93638445181168, 0.7246511804064326]",22.32,0.0,0.0,0.0,217.0573257617334,53.060781849740756,-2401.6072921201667,-1288.862888151062,3424.0189597830254,0.0,0.0,0.0,0.0,0.0,0.0,-12.6,21.848041785915388,0.0,21.759186263853696,0.0,-12.6,22.32,21.14,22.38,22.09,22.61,-14.3,-12.6,1214.29,-1694.51,-1321.46,0.0,160.0,0.0,77.0,0.0,0.0,0.0,0.0,0.0,0.0,0.0,0.0,0.0,0.0,0.0,0.0,0.0,0.0
76.0,1121.0,31087.78058566486,20002.851326418466,-0.0,0.0,-9808.49035631807,0.0,26406.636187714932,0.0,0.0,0.0,26406.636187714936,0.6046863189720333,0.2520551028373657,0.4916786719087563,0.0,0.0,0.0,"[0.3224050686273152, 0.29485996536834946, 0.8152867704612099, 0.266817298787565, 0.6010232780656928, 0.5893074568501397, 0.952178112350829, 0.93638445181168, 0.7246511804064326]",22.32,0.0,0.0,0.0,214.36448267360225,52.99750125123183,-2429.1152176184332,-1222.473996520416,1708.6749236114485,0.0,0.0,0.0,0.0,0.0,0.0,-13.0,21.87375389266154,0.0,21.799798601986137,0.0,-13.0,22.32,21.15,22.45,22.06,22.61,-14.69,-13.0,1189.13,-1713.92,-1336.6,0.0,160.0,0.0,75.0,0.0,0.0,0.0,0.0,0.0,0.0,0.0,0.0,0.0,0.0,0.0,0.0,0.0,0.0
77.0,851.0,0.0,15149.0,-0.0,0.0,16000.0,0.0,21189.505759422234,0.0,1768.33060645986,0.0,19421.175152962373,0.0,0.2453720695552045,0.4916786719087563,0.0,0.0,0.0,"[0.3224050686273152, 0.29485996536834946, 0.8152867704612099, 0.266817298787565, 0.6010232780656928, 0.5893074568501397, 0.952178112350829, 0.93638445181168, 0.7246511804064326]",21.68,0.0,0.0,0.0,211.67163958547104,52.93422065272289,-2412.2796700763815,-82.18189043477352,3912.7286616690303,0.0,0.0,0.0,0.0,0.0,0.0,-13.4,21.666684995014155,0.0,21.769011785848214,0.0,-13.4,21.68,21.13,22.4,21.63,22.22,-15.11,-13.4,1628.08,-1702.04,-1327.34,0.0,160.0,0.0,73.0,0.0,0.0,0.0,0.0,0.0,0.0,0.0,0.0,0.0,0.0,0.0,0.0,0.0,0.0
78.0,2632.0,14972.199944775946,12265.338945052066,-0.0,0.0,0.0,0.0,15256.57480495191,0.0,0.0,0.0,15256.574804951908,0.0,0.2453720695552045,0.4916786719087563,0.0,0.0,0.0,"[0.3224050686273152, 0.29485996536834946, 0.8152867704612099, 0.266817298787565, 0.6010232780656928, 0.5893074568501397, 0.952178112350829, 0.93638445181168, 0.7246511804064326]",22.32,0.0,0.0,0.0,351.98293733546524,104.19150544495905,-2484.131068614965,-1230.379999925277,1586.3221983253977,0.0,0.0,0.0,0.0,0.0,0.0,-13.8,21.871173936622554,0.0,21.7976668505071,0.0,-13.8,22.32,21.14,22.46,22.1,22.66,-15.51,-13.8,846.67,-1752.74,-1366.87,0.0,320.0,0.0,93.0,0.0,0.0,0.0,0.0,0.0,0.0,0.0,0.0,0.0,0.0,0.0,0.0,0.0,0.0
79.0,2492.0,15316.195588491488,12747.61461054903,-0.0,0.0,0.0,0.0,15491.885716950022,0.0,0.0,0.0,15491.885716950024,0.0,0.2453720695552045,0.4916786719087563,0.0,0.0,0.0,"[0.3224050686273152, 0.29485996536834946, 0.8152867704612099, 0.266817298787565, 0.6010232780656928, 0.5893074568501397, 0.952178112350829, 0.93638445181168, 0.7246511804064326]",21.68,0.0,0.0,0.0,278.35493816261476,106.69108908606194,-2460.4185396983394,-91.131663493333,2173.8773085489183,0.0,0.0,0.0,0.0,0.0,0.0,-14.1,21.66365418947682,0.0,21.766252442512933,0.0,-14.1,21.68,21.12,22.41,21.63,22.22,-15.84,-14.1,3161.43,-1736.01,-1353.82,0.0,234.0,53.0,78.0,0.0,0.0,0.0,0.0,0.0,0.0,0.0,0.0,0.0,0.0,0.0,0.0,0.0,0.0
80.0,3336.0,33704.27433933975,14199.752967643053,-0.0,0.0,-15999.999999999998,0.0,17121.265787973545,0.0,0.0,0.0,17121.265787973545,0.5807407407407407,0.2453720695552045,0.4916786719087563,0.0,0.0,0.0,"[0.3224050686273152, 0.29485996536834946, 0.8152867704612099, 0.266817298787565, 0.6010232780656963, 0.5893074568501397, 0.3069189144680422, 0.93638445181168, 0.7246511804064326]",21.68,0.0,0.0,5.646311466374939,238.9543919257477,102.76769197850805,-2467.2955210729133,-153.8673153357058,3959.846549880159,0.0,0.0,0.0,0.0,0.0,0.0,-14.2,21.639602660885373,0.0,21.73039023697097,0.0,-14.2,21.68,21.1,22.36,21.67,22.25,-15.91,-14.2,1011.21,-1740.86,-1357.61,8.92,190.0,71.0,70.0,0.0,0.0,0.0,0.0,0.0,0.0,0.0,0.0,0.0,0.0,0.0,0.0,0.0,0.0
81.0,2359.0,78943.3581807776,76203.29641885025,-0.0,13.655028976526545,0.0,0.0,28590.457687585094,0.0,-80000.0,0.0,108590.45768758509,0.5807407407407407,0.5357424399255748,0.4916786719087563,0.0,0.0,0.0,"[0.3224050686273152, 0.29485996536834946, 0.8152867704612099, 0.266817298787565, 0.6010232780656963, 0.5893074568501397, 0.3069189144680422, 0.93638445181168, 0.7246511804064326]",22.32,0.0,0.0,76.11743335972932,323.70808491008756,102.26144719043658,-2353.468422498202,-1286.9520770230781,3141.874797575373,0.0,0.0,0.0,0.0,0.0,0.0,-11.9,21.848235517290277,0.0,21.765707969494542,0.0,-11.9,22.32,21.11,22.43,22.1,22.66,-13.34,-11.9,530.31,-1660.55,-1294.98,120.29,244.0,38.0,108.0,0.0,0.0,0.0,0.0,0.0,0.0,0.0,0.0,0.0,0.0,0.0,0.0,0.0,0.0
82.0,6764.0,5116.80835415449,8410.207401352684,-0.0,49.46772211711753,10033.515366851847,0.0,13507.994131540432,0.0,0.0,0.0,13507.994131540434,0.20154514864505485,0.5357424399255748,0.4916786719087563,0.0,0.0,0.0,"[0.3224050686273152, 0.29485996536834946, 0.8152867704612099, 0.266817298787565, 0.6010232780656963, 0.5893074568501397, 0.3069189144680422, 0.93638445181168, 0.7246511804064326]",22.32,0.0,0.0,102.67198061060346,542.1826965076797,99.63530235231586,-2222.805776381438,-1215.5099356419946,2696.0870621715967,0.0,0.0,0.0,0.0,0.0,0.0,-10.0,21.874587573256136,0.0,21.806436028663846,0.0,-10.0,22.32,21.12,22.49,22.06,22.64,-11.41,-10.0,74.54,-1568.35,-1223.08,162.25,288.0,1.0,251.0,0.0,0.0,0.0,0.0,0.0,0.0,0.0,0.0,0.0,0.0,0.0,0.0,0.0,0.0
83.0,5302.0,0.0,2841.2359425526392,-0.0,8143.235942552639,0.0,0.0,6070.161795609925,0.0,1100.4355079030065,0.0,4969.726287706919,0.20154514864505485,0.5315835755721998,0.4916786719087563,0.0,0.0,0.0,"[0.3224050686273152, 0.29485996536834946, 0.8152867704612099, 0.266817298787565, 0.6010232780656963, 0.5893074568501397, 0.3069189144680422, 0.93638445181168, 0.7246511804064326]",22.32,0.0,0.0,120.86347737796228,538.993803376998,99.79350384858817,-2119.6510557629404,-1159.8086691137075,842.2291657380283,0.0,0.0,0.0,0.0,0.0,0.0,-8.5,21.89514620201851,0.0,21.837259643847325,0.0,-8.5,22.32,21.14,22.53,22.04,22.63,-9.93,-8.5,0.0,-1495.57,-1166.32,191.0,268.0,12.0,258.0,0.0,0.0,0.0,0.0,0.0,0.0,0.0,0.0,0.0,0.0,0.0,0.0,0.0,0.0
84.0,3829.0,1318.862214966489,9431.568960123432,-2589.8010896217625,14538.102145853538,0.0,0.0,17396.297686830665,0.0,0.0,0.0,17396.297686830665,0.20154514864505485,0.5315835755721998,0.5,0.0,0.0,0.0,"[0.3224050686273152, 0.29485996536834946, 0.8152867704612099, 0.266817298787565, 0.6010232780656963, 0.5893074568501397, 0.3069189144680422, 0.93638445181168, 0.7246511804064326]",21.68,0.0,0.0,1094.9511821323993,491.4438635839442,110.89924888690601,-2006.537768976958,-24.133513507713534,1984.8906198265654,0.0,0.0,0.0,0.0,0.0,0.0,-7.5,21.684487750874812,0.0,21.798775715285004,0.0,-7.5,21.68,21.14,22.46,21.61,22.22,-7.12,-7.5,0.0,-1415.76,-1104.08,1730.31,288.0,23.0,211.0,0.0,0.0,0.0,0.0,0.0,0.0,0.0,0.0,0.0,0.0,0.0,0.0,0.0,0.0
85.0,7140.0,0.0,3025.6261501143513,-0.0,12408.735703768612,-2243.109553654261,0.0,5667.225914011268,0.0,0.0,0.0,5667.225914011268,0.28296171762954286,0.5315835755721998,0.49046503847440615,0.0,0.0,0.0,"[0.3224050686273152, 0.29485996536834946, 0.8152867704612099, 0.266817298787565, 0.6010232780656963, 0.5893074568501397, 0.3069189144680422, 0.93638445181168, 0.7246511804064326]",22.32,0.0,0.0,974.1012178841786,1590.2655721250599,149.31057218182866,-2030.250297893576,-1103.048940756205,0.0,0.0,0.0,0.0,0.0,0.0,0.0,-7.2,21.91532383739503,0.0,21.867117451263532,0.0,-7.2,22.32,21.17,22.57,22.19,22.9,-7.05,-7.2,0.0,-1432.49,-1117.13,1539.34,330.0,23.0,1005.0,0.0,0.0,0.0,0.0,0.0,0.0,0.0,0.0,0.0,0.0,0.0,0.0,0.0,0.0
86.0,4221.0,5032.499416745197,7094.050293663155,-2967.5135360266245,9275.226910028308,0.0,0.0,12949.542304961504,0.0,0.0,0.0,12949.542304961504,0.28296171762954286,0.5315835755721998,0.4999999999999999,0.0,0.0,0.0,"[0.3224050686273152, 0.29485996536834946, 0.8152867704612099, 0.266817298787565, 0.6010232780656963, 0.5893074568501397, 0.3069189144680422, 0.93638445181168, 0.7246511804064326]",22.17,0.0,0.0,822.0288830815048,1329.839299786056,105.48875771439218,-2054.1101523900606,-772.8963724419292,948.9850801715053,0.0,0.0,0.0,0.0,0.0,0.0,-7.7,21.889454485024032,0.0,21.89447938659234,0.0,-7.7,22.17,21.19,22.6,21.96,22.67,-7.92,-7.7,2143.15,-1449.33,-1130.26,1299.02,208.0,21.0,876.0,0.0,0.0,0.0,0.0,0.0,0.0,0.0,0.0,0.0,0.0,0.0,0.0,0.0,0.0
87.0,3908.0,0.0,3580.711476218223,-0.0,1.5444277405188922,7487.167048477704,0.0,5955.950113360492,0.0,0.0,0.0,5955.950113360493,0.0,0.5315835755721998,0.4999999999999999,0.0,0.0,0.0,"[0.3224050686273152, 0.29485996536834946, 0.8152867704612099, 0.266817298787565, 0.6010232780656963, 0.5893074568501397, 0.3069189144680422, 0.93638445181168, 0.7246511804064326]",22.32,0.0,0.0,35.23256487479539,780.2867169319122,90.77601856106516,-2181.543888134039,-1002.500040109885,603.1738771104455,0.0,0.0,0.0,0.0,0.0,0.0,-9.4,21.956079250623798,0.0,21.927798374344462,0.0,-9.4,22.32,21.21,22.65,22.08,22.78,-10.87,-9.4,0.0,-1539.24,-1200.38,55.68,236.0,3.0,455.0,0.0,0.0,0.0,0.0,0.0,0.0,0.0,0.0,0.0,0.0,0.0,0.0,0.0,0.0
88.0,4045.0,12093.112248852296,7987.646687608033,-0.0,0.0,0.0,0.0,13438.490777696215,0.0,0.0,0.0,13438.490777696215,0.0,0.5315835755721998,0.4999999999999999,0.0,0.0,0.0,"[0.3224050686273152, 0.29485996536834946, 0.8152867704612099, 0.266817298787565, 0.6010232780656963, 0.5893074568501397, 0.3069189144680422, 0.93638445181168, 0.7246511804064326]",21.68,0.0,0.0,0.0,568.2607558874765,131.0224792127469,-2123.4464523445886,95.12339438627863,1338.094432027712,0.0,0.0,0.0,0.0,0.0,0.0,-9.2,21.732346214780776,0.0,21.868864808312104,0.0,-9.2,21.68,21.19,22.55,21.6,22.23,-10.8,-9.2,0.0,-1498.25,-1168.41,0.0,232.0,85.0,291.0,0.0,0.0,0.0,0.0,0.0,0.0,0.0,0.0,0.0,0.0,0.0,0.0,0.0,0.0
89.0,3219.0,22424.745985255402,7542.60184716586,-0.0,0.0,-11551.020408163267,0.0,12833.555091922059,0.0,0.0,0.0,12833.555091922059,0.41925925925925933,0.5315835755721998,0.4924723987955837,0.0,0.0,0.0,"[0.3224050686273152, 0.29485996536834946, 0.8152867704612099, 0.266817298787565, 0.6010232780656963, 0.5893074568501397, 0.3069189144680422, 0.93638445181168, 0.7246511804064326]",21.68,0.0,0.0,0.0,597.8111655651267,176.04662505185308,-2109.6924895954553,2.6724560312665733,1345.3283490616257,0.0,0.0,0.0,0.0,0.0,0.0,-9.0,21.696679608007756,0.0,21.81289006918066,0.0,-9.0,21.68,21.17,22.46,21.65,22.24,-10.5,-9.0,0.0,-1488.54,-1160.84,0.0,310.0,122.0,268.0,0.0,0.0,0.0,0.0,0.0,0.0,0.0,0.0,0.0,0.0,0.0,0.0,0.0,0.0
90.0,3653.0,14877.84809791495,11150.458857425376,-0.0,0.0,0.0,0.0,19184.838254597336,0.0,0.0,0.0,19184.838254597336,0.41925925925925933,0.5315835755721998,0.45834727333556363,0.0,0.0,0.0,"[0.3224050686273152, 0.29485996536834946, 0.8152867704612099, 0.266817298787565, 0.6010232780656963, 0.5893074568501397, 0.3069189144680422, 0.93638445181168, 0.7246511804064326]",21.68,0.0,0.0,0.0,754.9173004700446,174.2431279943485,-2095.9385268463225,-74.26770592114104,1651.6538001984368,0.0,0.0,0.0,0.0,0.0,0.0,-8.8,21.667001900740402,0.0,21.766580812008804,0.0,-8.8,21.68,21.15,22.39,21.64,22.21,-10.26,-8.8,0.0,-1478.84,-1153.27,0.0,286.0,125.0,397.0,0.0,0.0,0.0,0.0,0.0,0.0,0.0,0.0,0.0,0.0,0.0,0.0,0.0,0.0
91.0,8566.0,14055.148985187956,5418.873240262016,-0.0,0.0,0.0,0.0,9375.061442977596,0.0,0.0,0.0,9375.061442977596,0.41925925925925933,0.5315835755721998,0.45483439277350274,0.0,0.0,0.0,"[0.3224050686273152, 0.29485996536834946, 0.8152867704612099, 0.266817298787565, 0.6010232780656963, 0.5893074568501397, 0.3069189144680422, 0.93638445181168, 0.7246511804064326]",21.83,0.0,0.0,0.0,732.5241842634796,186.77268649911736,-2099.5865978481083,-402.9095810188537,1197.5401387304814,0.0,0.0,0.0,0.0,0.0,0.0,-8.7,21.693856106080048,0.0,21.73942561538498,0.0,-8.7,21.83,21.14,22.34,21.72,22.26,-10.12,-8.7,0.0,-1481.41,-1155.28,0.0,288.0,147.0,377.0,0.0,0.0,0.0,0.0,0.0,0.0,0.0,0.0,0.0,0.0,0.0,0.0,0.0,0.0
92.0,6122.0,58816.03917829049,5440.358815801743,-46959.60016659729,0.0,0.0,0.0,9515.962337558347,0.0,0.0,0.0,9515.962337558347,1.0,0.5315835755721998,0.5645700903312144,0.0,0.0,0.0,"[0.3224050686273152, 0.29485996536834946, 0.8152867704612099, 0.266817298787565, 0.6010232780656963, 0.5893074568501362, 0.3069189144680422, 0.93638445181168, 0.7246511804064326]",21.68,0.0,0.0,0.0,842.0095150835509,165.0990815098076,-2075.307582722623,-178.52010045145806,2937.3434581449433,0.0,0.0,0.0,0.0,0.0,0.0,-8.5,21.62675446177866,0.0,21.704185208708903,0.0,-8.5,21.68,21.12,22.29,21.61,22.14,-9.88,-8.5,0.0,-1464.28,-1141.92,0.0,260.0,119.0,476.0,0.0,0.0,0.0,0.0,0.0,0.0,0.0,0.0,0.0,0.0,0.0,0.0,0.0,0.0
93.0,6215.0,0.0,9126.266217209066,-0.0,0.0,15341.266217209066,0.0,16137.146290766133,0.0,0.0,0.0,16137.146290766135,0.42020913767161505,0.5315835755721998,0.5444964871194379,0.0,0.0,0.0,"[0.3224050686273152, 0.29485996536834946, 0.8152867704612099, 0.266817298787565, 0.6010232780656963, 0.5893074568501362, 0.3069189144680422, 0.93638445181168, 0.7246511804064326]",22.32,0.0,0.0,0.0,1434.4349944724154,213.82514236168646,-2105.8970930138075,-1322.2103139709368,115.40932684419671,0.0,0.0,0.0,0.0,0.0,0.0,-8.3,21.832622687444733,0.0,21.73393746476107,0.0,-8.3,22.32,21.13,22.34,22.03,22.53,-9.64,-8.3,1373.44,-1485.87,-1158.75,0.0,310.0,154.0,886.0,0.0,0.0,0.0,0.0,0.0,0.0,0.0,0.0,0.0,0.0,0.0,0.0,0.0,0.0
94.0,6252.0,22101.02732773282,0.0,-0.0,0.0,0.0,0.0,14164.669971984731,0.0,0.0,0.0,0.0,0.42020913767161505,0.5315835755721998,0.5444964871194379,62954.08876437662,15738.522191094155,78692.61095547077,"[0.3224050686273152, 0.29485996536834946, 0.8152867704612099, 0.266817298787565, 0.6010232780656963, 0.5893074568501362, 0.3069189144680422, 0.93638445181168, 0.7246511804064326]",21.68,0.0,0.0,0.0,2181.2029013862734,174.6544518846565,-2047.7996572243571,-193.5911014113151,1576.8181227317268,0.0,0.0,0.0,0.0,0.0,0.0,-8.1,21.620702629840938,0.0,21.694467637707636,0.0,-8.1,21.68,21.12,22.27,21.53,22.04,-9.41,-8.1,0.0,-1444.87,-1126.78,0.0,168.0,129.0,1518.0,0.0,0.0,0.0,0.0,0.0,0.0,0.0,0.0,0.0,0.0,0.0,0.0,0.0,0.0
95.0,5141.0,7854.4499376523345,2674.177687964073,-0.0,0.0,0.0,0.0,4830.480148877486,0.0,0.0,0.0,4830.480148877486,0.42020913767161505,0.5315835755721998,0.4737370357979257,0.0,0.0,0.0,"[0.3224050686273152, 0.29485996536834946, 0.8152867704612099, 0.266817298787565, 0.6010232780656963, 0.5893074568501362, 0.3069189144680422, 0.93638445181168, 0.7246511804064326]",22.32,0.0,0.0,0.0,593.4175794739654,143.2039944257166,-2078.389167515542,-1378.5847439268757,1051.0339577072843,0.0,0.0,0.0,0.0,0.0,0.0,-7.9,21.810710956402232,0.0,21.69935492265092,0.0,-7.9,22.32,21.12,22.28,21.91,22.37,-9.17,-7.9,776.85,-1466.46,-1143.62,0.0,282.0,79.0,284.0,0.0,0.0,0.0,0.0,0.0,0.0,0.0,0.0,0.0,0.0,0.0,0.0,0.0,0.0
96.0,2037.0,9235.457724656202,12814.701716721018,-0.0,0.0,5662.421280688097,0.0,23880.736070946925,0.0,0.0,0.0,23880.736070946925,0.20620984512860308,0.5315835755721998,0.47373703579792564,0.0,0.0,0.0,"[0.3224050686273152, 0.29485996536834946, 0.8152867704612099, 0.266817298787565, 0.6010232780656963, 0.5893074568501362, 0.3069189144680422, 0.93638445181168, 0.7246511804064326]",21.68,0.0,0.0,0.0,1258.7624151177506,86.59949905947552,-1992.7838062278252,-218.01870184112002,871.4252510511606,0.0,0.0,0.0,0.0,0.0,0.0,-7.3,21.6108723685073,0.0,21.67895212275142,0.0,-7.3,21.68,21.11,22.25,21.58,22.09,-8.61,-7.3,741.12,-1406.06,-1096.51,0.0,160.0,16.0,849.0,0.0,0.0,0.0,0.0,0.0,0.0,0.0,0.0,0.0,0.0,0.0,0.0,0.0,0.0
97.0,2772.0,30798.256825091317,11872.265540965862,-0.0,0.0,-16000.0,0.0,22916.740242536045,0.0,0.0,0.0,22916.740242536045,0.7869505858693437,0.5315835755721998,0.47373703579792564,0.0,0.0,0.0,"[0.3224050686273152, 0.29485996536834946, 0.8152867704612099, 0.266817298787565, 0.6010232780656963, 0.5893074568501362, 0.3069189144680422, 0.93638445181168, 0.7246511804064326]",21.68,0.0,0.0,0.0,1958.051246530348,99.63530235231586,-1944.6449366058596,-290.5258717323248,184.36978572309891,0.0,0.0,0.0,0.0,0.0,0.0,-6.6,21.582630689572305,0.0,21.635295949354003,0.0,-6.6,21.68,21.09,22.18,21.53,22.02,-7.9,-6.6,1503.17,-1372.09,-1070.02,0.0,160.0,10.0,1369.0,0.0,0.0,0.0,0.0,0.0,0.0,0.0,0.0,0.0,0.0,0.0,0.0,0.0,0.0
98.0,2809.0,14596.217642499883,11714.236554287383,-0.0,0.0,0.0,0.0,23393.42868621239,0.0,0.0,0.0,23393.42868621239,0.7869505858693437,0.5315835755721998,0.47373703579792564,0.0,0.0,0.0,"[0.3224050686273152, 0.29485996536834946, 0.8152867704612099, 0.266817298787565, 0.6010232780656963, 0.5893074568501362, 0.3069189144680422, 0.93638445181168, 0.7246511804064326]",21.68,0.0,0.0,0.0,456.72036060541035,58.692755117035844,-1896.5060669838872,-375.1916468317523,1760.3406956567555,0.0,0.0,0.0,0.0,0.0,0.0,-5.9,21.549705465928852,0.0,21.584354798364977,0.0,-5.9,21.68,21.07,22.1,21.46,21.91,-7.16,-5.9,1078.53,-1338.13,-1043.54,0.0,160.0,0.0,255.0,0.0,0.0,0.0,0.0,0.0,0.0,0.0,0.0,0.0,0.0,0.0,0.0,0.0,0.0
99.0,1371.0,12550.852949098404,11117.098684352912,-0.0,0.0,0.0,0.0,22624.870203565675,0.0,0.0,0.0,22624.87020356568,0.7869505858693437,0.5315835755721998,0.47373703579792564,0.0,0.0,0.0,"[0.3224050686273152, 0.29485996536834946, 0.8152867704612099, 0.266817298787565, 0.6010232780656963, 0.5893074568501362, 0.3069189144680422, 0.93638445181168, 0.7246511804064326]",21.68,0.0,0.0,0.0,414.9812927393767,57.71190584014737,-1868.9981414856281,-401.3844855835918,3480.892562787141,0.0,0.0,0.0,0.0,0.0,0.0,-5.5,21.539415614532114,0.0,21.56892545427964,0.0,-5.5,21.68,21.06,22.08,21.57,22.03,-6.74,-5.5,1171.09,-1318.72,-1028.4,0.0,160.0,0.0,224.0,0.0,0.0,0.0,0.0,0.0,0.0,0.0,0.0,0.0,0.0,0.0,0.0,0.0,0.0
100.0,1912.0,11193.37935785866,9225.412461069365,-0.0,0.0,0.0,0.0,19214.764283224904,0.0,0.0,0.0,19214.7642832249,0.7869505858693437,0.5315835755721998,0.44262295081967207,0.0,0.0,0.0,"[0.3224050686273152, 0.29485996536834946, 0.8152867704612099, 0.266817298787565, 0.6010232780656963, 0.5893074568501362, 0.3069189144680422, 0.93638445181168, 0.7246511804064326]",22.32,0.0,0.0,0.0,701.2730315827991,67.83680160157674,-1878.9567076531132,-1506.1793063772325,2620.714198730465,0.0,0.0,0.0,0.0,0.0,0.0,-5.0,21.760054803091116,0.0,21.62171877606501,0.0,-5.0,22.32,21.08,22.16,22.01,22.44,-6.21,-5.0,2407.16,-1325.74,-1033.88,0.0,160.0,6.0,436.0,0.0,0.0,0.0,0.0,0.0,0.0,0.0,0.0,0.0,0.0,0.0,0.0,0.0,0.0
101.0,1190.0,0.0,3632.712502102835,-0.0,0.0,4822.712502102835,0.0,7704.770267200554,0.0,0.0,0.0,7704.770267200554,0.6046863189720333,0.5315835755721998,0.44262295081967207,0.0,0.0,0.0,"[0.3224050686273152, 0.29485996536834946, 0.8152867704612099, 0.266817298787565, 0.6010232780656963, 0.5893074568501362, 0.3069189144680422, 0.93638445181168, 0.7246511804064326]",22.32,0.0,0.0,0.0,287.7798889710739,68.31140609039375,-1851.448782154847,-1420.026282982134,1240.8897660177747,0.0,0.0,0.0,0.0,0.0,0.0,-4.6,21.79280320227407,0.0,21.67174438556168,0.0,-4.6,22.32,21.11,22.24,21.96,22.42,-5.62,-4.6,818.98,-1306.33,-1018.74,0.0,160.0,24.0,127.0,0.0,0.0,0.0,0.0,0.0,0.0,0.0,0.0,0.0,0.0,0.0,0.0,0.0,0.0
102.0,1291.0,11022.829846081384,9676.715696850977,-0.0,0.0,0.0,0.0,20800.50004475746,0.0,0.0,0.0,20800.500044757457,0.6046863189720333,0.5315835755721998,0.44262295081967207,0.0,0.0,0.0,"[0.3224050686273152, 0.29485996536834946, 0.8152867704612099, 0.266817298787565, 0.6010232780656963, 0.5893074568501362, 0.3069189144680422, 0.93638445181168, 0.7246511804064326]",21.68,0.0,0.0,0.0,457.00381777258207,107.29225477189681,-1786.4743649908303,-247.99234282922856,3156.8001333906595,0.0,0.0,0.0,0.0,0.0,0.0,-4.3,21.59753505717742,0.0,21.65757591867098,0.0,-4.3,21.68,21.11,22.21,21.57,22.06,-5.35,-4.3,1888.07,-1260.49,-982.99,0.0,222.0,53.0,217.0,0.0,0.0,0.0,0.0,0.0,0.0,0.0,0.0,0.0,0.0,0.0,0.0,0.0,0.0
103.0,1227.0,0.0,10153.008,-0.0,0.0,16000.0,0.0,10285.292545177443,23099.96,6650.575300332816,0.0,22114.685244844626,0.0,0.5064491262134212,0.44262295081967207,18479.968,4619.992,23099.96,"[0.3224050686273152, 0.29485996536834946, 0.8152867704612099, 0.266817298787565, 0.6010232780656963, 0.5893074568501362, 0.3069189144680422, 0.93638445181168, 0.7246511804064326]",22.32,0.0,0.0,0.0,367.43135294632316,140.9575331786494,-1810.1868939074482,-1370.7654238991433,2682.30462556008,0.0,0.0,0.0,0.0,0.0,0.0,-4.0,21.811387553950173,0.0,21.69882979320605,0.0,-4.0,22.32,21.13,22.27,22.03,22.49,-5.03,-4.0,1837.37,-1277.22,-996.04,0.0,262.0,95.0,125.0,0.0,0.0,0.0,0.0,0.0,0.0,0.0,0.0,0.0,0.0,0.0,0.0,0.0,0.0
104.0,1641.0,0.0,6141.1853604850785,-0.0,0.0,7782.1853604850785,0.0,13552.006395321572,0.0,0.0,0.0,13552.006395321572,0.28662942704138017,0.5064491262134212,0.4650384744061559,0.0,0.0,0.0,"[0.3224050686273152, 0.29485996536834946, 0.6260490964386207, 0.266817298787565, 0.6010232780656963, 0.5893074568501362, 0.3069189144680422, 0.93638445181168, 0.7246511804064362]",22.32,0.0,0.0,1.8664394855217077,187.1525946251185,87.2955856430738,-1789.555949783749,-1285.519279702613,1125.4910226692275,0.0,0.0,0.0,0.0,0.0,0.0,-3.7,21.84392336561697,0.0,21.747810178784512,0.0,-3.7,22.32,21.16,22.34,22.02,22.5,-4.68,-3.7,688.85,-1262.66,-984.69,2.95,133.0,76.0,61.0,0.0,0.0,0.0,0.0,0.0,0.0,0.0,0.0,0.0,0.0,0.0,0.0,0.0,0.0
105.0,1628.0,0.0,0.0,-0.0,11.266918835748923,1616.7330811642512,0.0,20553.234835148436,0.0,20553.23483514844,0.0,0.0,0.22552840356578488,0.42877250174196074,0.4650384744061559,0.0,0.0,0.0,"[0.3224050686273152, 0.29485996536834946, 0.6260490964386207, 0.266817298787565, 0.6010232780656963, 0.5893074568501362, 0.3069189144680422, 0.93638445181168, 0.7246511804064362]",21.68,0.0,0.0,51.328824522520435,309.1100408007448,60.68609397006725,-1642.0577561249336,-123.12304519777712,3025.06757460027,0.0,0.0,0.0,0.0,0.0,0.0,-2.2,21.644133966826157,0.0,21.726039751162396,0.0,-2.2,21.68,21.16,22.29,21.6,22.11,-2.94,-2.2,2197.58,-1158.59,-903.53,81.11,165.0,7.0,142.0,0.0,0.0,0.0,0.0,0.0,0.0,0.0,0.0,0.0,0.0,0.0,0.0,0.0,0.0
106.0,3790.0,0.0,0.0,-0.0,38.02953851435077,3751.970461485649,0.0,12484.129918314306,0.0,12484.129918314306,0.0,0.0,0.08373057811281251,0.3815913607052476,0.4650384744061559,0.0,0.0,0.0,"[0.3224050686273152, 0.29485996536834946, 0.6260490964386207, 0.266817298787565, 0.6010232780656963, 0.5893074568501362, 0.3069189144680422, 0.93638445181168, 0.7246511804064362]",22.32,0.0,0.0,65.73334259553525,100.98161580492007,2.373022444085006,-1617.6314154195861,-1253.843825145331,2699.479642599317,0.0,0.0,0.0,0.0,0.0,0.0,-1.2,21.854496075210395,0.0,21.761002045704522,0.0,-1.2,22.32,21.18,22.34,22.05,22.53,-1.84,-1.2,1785.49,-1141.36,-890.09,103.88,0.0,0.0,75.0,0.0,0.0,0.0,0.0,0.0,0.0,0.0,0.0,0.0,0.0,0.0,0.0,0.0,0.0
107.0,4736.0,7596.57436149697,3247.4412079172753,-0.0,424.8497182277905,0.0,0.0,8342.6985577298,0.0,0.0,0.0,8342.6985577298,0.08373057811281251,0.3815913607052476,0.4650384744061559,0.0,0.0,0.0,"[0.3224050686273152, 0.29485996536834946, 0.6260490964386207, 0.266817298787565, 0.6010232780656963, 0.5893074568501362, 0.3069189144680422, 0.93638445181168, 0.7246511804064362]",22.32,0.0,0.0,116.03676103233722,141.37426212688806,3.322231421719007,-1528.2306575502216,-1175.7388318340522,758.867043427274,0.0,0.0,0.0,0.0,0.0,0.0,0.1,21.883699474817952,0.0,21.803871850216908,0.0,0.1,22.32,21.21,22.39,22.03,22.52,-0.44,0.1,1711.99,-1078.28,-840.9,183.37,0.0,0.0,105.0,0.0,0.0,0.0,0.0,0.0,0.0,0.0,0.0,0.0,0.0,0.0,0.0,0.0,0.0
108.0,3361.0,8236.33956613331,5850.421594767382,-0.0,1016.2637264647383,0.0,0.0,15643.28539078054,0.0,0.0,0.0,15643.28539078054,0.08373057811281251,0.3815913607052476,0.4650384744061559,0.0,0.0,0.0,"[0.3224050686273152, 0.29485996536834946, 0.6260490964386207, 0.266817298787565, 0.6010232780656963, 0.5893074568501362, 0.3069189144680422, 0.93638445181168, 0.7246511804064362]",21.68,0.0,0.0,143.2413251544423,63.28181257108323,1.4870940649599336,-1408.2403893896728,-21.715708389301426,2894.662899341639,0.0,0.0,0.0,0.0,0.0,0.0,1.2,21.68109457215088,0.0,21.776572411901334,0.0,1.2,21.68,21.22,22.34,21.6,22.12,0.58,1.2,608.0,-993.62,-774.87,226.36,0.0,0.0,47.0,0.0,0.0,0.0,0.0,0.0,0.0,0.0,0.0,0.0,0.0,0.0,0.0,0.0,0.0
109.0,4972.0,9410.177974030756,5452.674139435924,-0.0,1061.547055275323,0.0,0.0,14995.615265221672,0.0,0.0,0.0,14995.615265221672,0.08373057811281251,0.3815913607052476,0.45851455336232855,0.0,0.0,0.0,"[0.3224050686273152, 0.29485996536834946, 0.6260490964386207, 0.266817298787565, 0.6010232780656963, 0.5893074568501362, 0.3069189144680422, 0.93638445181168, 0.7246511804064362]",22.32,0.0,0.0,144.56299762420565,674.4863292850731,66.50790903288915,-1397.5680114334584,-1152.256493281759,1662.2408366356028,0.0,0.0,0.0,0.0,0.0,0.0,2.0,21.89169618776803,0.0,21.811124292946044,0.0,2.0,22.32,21.25,22.38,22.07,22.56,1.38,2.0,1738.89,-986.09,-769.0,228.45,169.0,0.0,412.0,0.0,0.0,0.0,0.0,0.0,0.0,0.0,0.0,0.0,0.0,0.0,0.0,0.0,0.0
110.0,5258.0,9361.992867891888,4337.67689419398,-0.0,280.49399064155074,0.0,0.0,12053.274363692455,0.0,0.0,0.0,12053.274363692455,0.08373057811281251,0.3815913607052476,0.3114754098360656,0.0,0.0,0.0,"[0.3224050686273152, 0.29485996536834946, 0.6260490964386207, 0.266817298787565, 0.6010232780656963, 0.5893074568501362, 0.3069189144680422, 0.93638445181168, 0.7246511804064362]",22.32,0.0,0.0,105.92569607849858,351.9120730436722,58.02830883269203,-1376.937067309759,-1094.773061981436,275.8134570309328,0.0,0.0,0.0,0.0,0.0,0.0,2.3,21.91370193063218,0.0,21.842037812285007,0.0,2.3,22.32,21.28,22.41,22.01,22.48,1.5,2.3,303.29,-971.53,-757.65,167.39,166.0,0.0,174.0,0.0,0.0,0.0,0.0,0.0,0.0,0.0,0.0,0.0,0.0,0.0,0.0,0.0,0.0
111.0,3612.0,3786.3327235501265,2370.987906228927,-0.0,0.07574943153210091,2215.511096865019,0.0,6452.73774797749,0.0,0.0,0.0,6452.73774797749,0.0,0.3815913607052476,0.3114754098360656,0.0,0.0,0.0,"[0.3224050686273152, 0.29485996536834946, 0.6260490964386207, 0.266817298787565, 0.6010232780656963, 0.5893074568501362, 0.3069189144680422, 0.93638445181168, 0.7246511804064362]",21.68,0.0,0.0,29.67935726207877,1152.3242488447759,65.14737616494708,-1373.8554825168403,45.994419118170214,83.83124297475939,0.0,0.0,0.0,0.0,0.0,0.0,1.7,21.70705351628066,0.0,21.80823755854535,0.0,1.7,21.68,21.28,22.34,21.61,22.1,0.66,1.7,1947.46,-969.36,-755.95,46.9,127.0,0.0,789.0,0.0,0.0,0.0,0.0,0.0,0.0,0.0,0.0,0.0,0.0,0.0,0.0,0.0,0.0
112.0,2810.0,5374.87422952529,2537.9998583776633,-0.0,0.0,0.0,0.0,6713.703156194097,0.0,0.0,0.0,6713.703156194097,0.0,0.3815913607052476,0.3069588491134152,0.0,0.0,0.0,"[0.3224050686273152, 0.29485996536834946, 0.6260490964386207, 0.266817298787565, 0.6010232780656963, 0.5893074568501362, 0.3069189144680422, 0.93638445181168, 0.7246511804064362]",21.68,0.0,0.0,0.0,822.6635634240821,47.175686188409955,-1428.8713335133723,-47.98195486961632,2285.9861714871818,0.0,0.0,0.0,0.0,0.0,0.0,0.9,21.67148829153902,0.0,21.751082813055305,0.0,0.9,21.68,21.26,22.24,21.56,22.0,-0.27,0.9,452.55,-1008.17,-786.22,0.0,91.0,1.0,563.0,0.0,0.0,0.0,0.0,0.0,0.0,0.0,0.0,0.0,0.0,0.0,0.0,0.0,0.0
113.0,4441.0,19222.15862982733,5698.49121001959,-0.0,0.0,-8986.556626658603,0.0,15128.391878851506,0.0,0.0,0.0,15128.391878851506,0.3261787220046456,0.3815913607052476,0.2924054867848772,0.0,0.0,0.0,"[0.3224050686273152, 0.29485996536834946, 0.6260490964386207, 0.266817298787565, 0.6010232780656963, 0.5893074568501362, 0.3069189144680422, 0.93638445181168, 0.7246511804064362]",22.32,0.0,0.0,0.0,1948.5554314300964,165.2572830060799,-1466.2453239068543,-1200.2588860159342,0.0,0.0,0.0,0.0,0.0,0.0,0.0,1.0,21.87280925027752,0.0,21.772993200720812,0.0,1.0,22.32,21.28,22.27,22.01,22.41,-0.21,1.0,0.0,-1034.54,-806.79,0.0,272.0,67.0,1297.0,0.0,0.0,0.0,0.0,0.0,0.0,0.0,0.0,0.0,0.0,0.0,0.0,0.0,0.0
114.0,8264.0,0.0,366.6889842429224,-0.0,0.0,8630.688984242923,0.0,976.9840815512607,0.0,0.0,0.0,976.9840815512607,0.0,0.3815913607052476,0.2733355637336895,0.0,0.0,0.0,"[0.3224050686273152, 0.29485996536834946, 0.6260490964386207, 0.266817298787565, 0.6010232780656963, 0.5893074568501362, 0.3069189144680422, 0.93638445181168, 0.7246511804064362]",22.1,0.0,0.0,0.0,1165.7175999936385,149.02580948853844,-1444.471687237391,-813.0530921176138,0.0,0.0,0.0,0.0,0.0,0.0,0.0,1.1,21.804706142569355,0.0,21.7628094847257,0.0,1.1,22.1,21.28,22.24,21.77,22.15,-0.12,1.1,0.0,-1019.18,-794.81,0.0,164.0,128.0,766.0,0.0,0.0,0.0,0.0,0.0,0.0,0.0,0.0,0.0,0.0,0.0,0.0,0.0,0.0
115.0,8645.0,39519.14101355426,14676.545308486491,-0.0,0.0,-16000.0,0.0,6760.34850084278,0.0,-32622.78837712567,0.0,39383.13687796845,0.5807407407407407,0.5,0.2733355637336895,0.0,0.0,0.0,"[0.3224050686273152, 0.29485996536834946, 0.6260490964386207, 0.266817298787565, 0.6010232780656963, 0.5893074568501362, 0.3069189144680422, 0.93638445181168, 0.7246511804064362]",21.74,0.0,0.0,0.0,1709.6010395043484,150.44962295498945,-1405.5494833567927,-190.02594690116447,0.0,0.0,0.0,0.0,0.0,0.0,0.0,1.3,21.67766115216577,0.0,21.72890540545766,0.0,1.3,21.74,21.28,22.18,21.6,21.99,0.06,1.3,0.0,-991.72,-773.39,0.0,145.0,118.0,1181.0,0.0,0.0,0.0,0.0,0.0,0.0,0.0,0.0,0.0,0.0,0.0,0.0,0.0,0.0
116.0,8110.0,10715.326447786818,2039.941095109256,-0.0,0.0,-511.8087204386278,0.0,5493.43855087643,0.0,0.0,0.0,5493.43855087643,0.21572184429327287,0.5,0.2733355637336895,0.0,0.0,0.0,"[0.18683198856986039, 0.29485996536834946, 0.6260490964386207, 0.266817298787565, 0.6010232780656963, 0.4628659513008344, 0.3069189144680422, 0.6508631979740862, 0.7246511804064362]",21.84,0.0,0.0,0.0,2585.838007523883,173.70524290702255,-1405.3820091382936,-428.59948563078564,0.0,0.0,0.0,0.0,0.0,0.0,0.0,1.4,21.68359145051122,0.0,21.693410642148322,0.0,1.4,21.84,21.26,22.12,21.63,21.99,0.2,1.4,0.0,-991.6,-773.3,0.0,186.0,101.0,1812.0,0.0,0.0,0.0,0.0,0.0,0.0,0.0,0.0,0.0,0.0,0.0,0.0,0.0,0.0
117.0,5708.0,0.0,0.0,-0.0,0.0,5708.0,0.0,10886.04465607781,0.0,10886.044656077811,0.0,0.0,0.0,0.45885848580469457,0.2698226831716286,0.0,0.0,0.0,"[0.18683198856986039, 0.29485996536834946, 0.6260490964386207, 0.266817298787565, 0.6010232780656963, 0.4628659513008344, 0.3069189144680422, 0.6508631979740862, 0.7246511804064362]",22.19,0.0,0.0,0.0,1067.7122844440212,142.7926705354085,-1415.752601467247,-1092.0858734872088,1307.2015352328117,0.0,0.0,0.0,0.0,0.0,0.0,1.6,21.779713469352245,0.0,21.684016347983665,0.0,1.6,22.19,21.27,22.1,21.78,22.1,0.38,1.6,0.0,-998.92,-779.01,0.0,200.0,102.0,677.0,0.0,0.0,0.0,0.0,0.0,0.0,0.0,0.0,0.0,0.0,0.0,0.0,0.0,0.0
118.0,3638.0,3656.281407035176,0.0,-0.0,0.0,0.0,0.0,2476.6437065458654,0.0,2476.643706545866,0.0,0.0,0.0,0.44949853226521663,0.2698226831716286,0.0,0.0,0.0,"[0.18683198856986039, 0.29485996536834946, 0.6260490964386207, 0.266817298787565, 0.6010232780656963, 0.4628659513008344, 0.3069189144680422, 0.6508631979740862, 0.7246511804064362]",22.19,0.0,0.0,0.0,789.4990748649925,125.89675073352325,-1408.8756200926807,-1045.6462249920876,574.7305228295883,0.0,0.0,0.0,0.0,0.0,0.0,1.7,21.797509429851885,0.0,21.71087674427796,0.0,1.7,22.19,21.28,22.14,21.89,22.23,0.45,1.7,0.0,-994.07,-775.22,0.0,292.0,35.0,429.0,0.0,0.0,0.0,0.0,0.0,0.0,0.0,0.0,0.0,0.0,0.0,0.0,0.0,0.0
119.0,2518.0,7537.35399364634,4981.667223678109,-0.0,0.0,0.0,0.0,13652.788715585551,0.0,0.0,0.0,13652.78871558555,0.0,0.44949853226521663,0.2296754767480756,0.0,0.0,0.0,"[0.18683198856986039, 0.29485996536834946, 0.6260490964386207, 0.266817298787565, 0.6010232780656963, 0.4628659513008344, 0.3069189144680422, 0.6508631979740862, 0.7246511804064362]",21.81,0.0,0.0,0.0,660.6677923854523,97.99000679108356,-1369.4248552321847,-369.1136316575516,986.6525120547437,0.0,0.0,0.0,0.0,0.0,0.0,1.9,21.68330619276764,0.0,21.700887758248598,0.0,1.9,21.81,21.28,22.12,21.67,22.03,0.65,1.9,0.0,-966.23,-753.51,0.0,260.0,8.0,353.0,0.0,0.0,0.0,0.0,0.0,0.0,0.0,0.0,0.0,0.0,0.0,0.0,0.0,0.0
120.0,1513.0,7956.169440092627,6403.388592892164,-0.0,0.0,0.0,0.0,17304.985421929458,0.0,0.0,0.0,17304.985421929458,0.0,0.44949853226521663,0.22816995650719235,0.0,0.0,0.0,"[0.18683198856986039, 0.29485996536834946, 0.6260490964386207, 0.266817298787565, 0.6010232780656963, 0.4628659513008344, 0.3069189144680422, 0.6508631979740862, 0.7246511804064362]",21.81,0.0,0.0,0.0,328.95204250276413,67.0141538209606,-1396.9327807304503,-390.9956281656894,2369.6892600880938,0.0,0.0,0.0,0.0,0.0,0.0,1.5,21.67517486879983,0.0,21.687875509913596,0.0,1.5,21.81,21.28,22.1,21.69,22.04,0.17,1.5,42.74,-985.64,-768.65,0.0,160.0,20.0,158.0,0.0,0.0,0.0,0.0,0.0,0.0,0.0,0.0,0.0,0.0,0.0,0.0,0.0,0.0
121.0,2544.0,7221.763535420055,4641.654717742955,-0.0,0.0,0.0,0.0,12411.196058085623,0.0,0.0,0.0,12411.196058085623,0.0,0.44949853226521663,0.22816995650719238,0.0,0.0,0.0,"[0.18683198856986039, 0.29485996536834946, 0.6260490964386207, 0.266817298787565, 0.6010232780656963, 0.4628659513008344, 0.3069189144680422, 0.6508631979740862, 0.7246511804064362]",22.19,0.0,0.0,0.0,355.5261519251116,60.84429546633959,-1443.260526965513,-1028.7257440570029,1086.7247277343486,0.0,0.0,0.0,0.0,0.0,0.0,1.2,21.804356847593745,0.0,21.72019416909602,0.0,1.2,22.19,21.29,22.15,21.96,22.31,-0.18,1.2,11.31,-1018.33,-794.14,0.0,160.0,8.0,179.0,0.0,0.0,0.0,0.0,0.0,0.0,0.0,0.0,0.0,0.0,0.0,0.0,0.0,0.0
122.0,1555.0,18606.921439445574,5407.86642408508,-0.0,0.0,-11551.020408163267,0.0,14253.729588542325,0.0,0.0,0.0,14253.729588542325,0.41925925925925933,0.44949853226521663,0.22816995650719238,0.0,0.0,0.0,"[0.18683198856986039, 0.29485996536834946, 0.6260490964386207, 0.266817298787565, 0.6010232780656963, 0.4628659513008344, 0.3069189144680422, 0.6508631979740862, 0.7246511804064362]",21.81,0.0,0.0,0.0,349.0066370801623,56.16153117667851,-1445.0716503524143,-345.1908666246517,1388.9755202431288,0.0,0.0,0.0,0.0,0.0,0.0,0.8,21.693187257554815,0.0,21.715240568958365,0.0,0.8,21.81,21.29,22.14,21.7,22.07,-0.59,0.8,558.56,-1019.6,-795.14,0.0,160.0,0.0,175.0,0.0,0.0,0.0,0.0,0.0,0.0,0.0,0.0,0.0,0.0,0.0,0.0,0.0,0.0
123.0,3312.0,102734.95886922943,5962.178702121713,-76947.10537276155,0.0,-16000.0,0.0,15657.913326308368,0.0,0.0,0.0,15657.91332630837,1.0,0.44949853226521663,0.47540983606557374,0.0,0.0,0.0,"[0.18683198856986039, 0.29485996536834946, 0.6260490964386207, 0.266817298787565, 0.6010232780656963, 0.4628659513008344, 0.3069189144680422, 0.6508631979740862, 0.7246511804064362]",21.81,0.0,0.0,0.0,342.27452935983433,56.003329680406175,-1451.9486317269825,-362.40153294338063,2393.0384248697715,0.0,0.0,0.0,0.0,0.0,0.0,0.7,21.686643107425116,0.0,21.705120261077607,0.0,0.7,21.81,21.29,22.12,21.72,22.08,-0.7,0.7,775.83,-1024.46,-798.92,0.0,160.0,0.0,170.0,0.0,0.0,0.0,0.0,0.0,0.0,0.0,0.0,0.0,0.0,0.0,0.0,0.0,0.0
124.0,1515.0,0.0,3193.887992122649,-0.0,0.0,4708.887992122649,0.0,8326.913239572526,0.0,0.0,0.0,8326.913239572526,0.8220374908494842,0.44949853226521663,0.47540983606557374,0.0,0.0,0.0,"[0.18683198856986039, 0.29485996536834946, 0.6260490964386207, 0.266817298787565, 0.6010232780656963, 0.4628659513008344, 0.3069189144680422, 0.6508631979740862, 0.7246511804064362]",22.19,0.0,0.0,0.0,355.7387448004903,56.319732672950835,-1491.3993965874786,-1005.0474109628129,1115.1845538828904,0.0,0.0,0.0,0.0,0.0,0.0,0.5,21.813830647984894,0.0,21.734537173526718,0.0,0.5,22.19,21.3,22.17,21.97,22.32,-0.86,0.5,883.84,-1052.29,-820.63,0.0,160.0,0.0,180.0,0.0,0.0,0.0,0.0,0.0,0.0,0.0,0.0,0.0,0.0,0.0,0.0,0.0,0.0
125.0,1753.0,7768.1267423147165,5976.286108603143,-0.0,0.0,0.0,0.0,15467.067212859616,0.0,0.0,0.0,15467.067212859618,0.8220374908494842,0.44949853226521663,0.47540983606557374,0.0,0.0,0.0,"[0.18683198856986039, 0.29485996536834946, 0.6260490964386207, 0.266817298787565, 0.6010232780656963, 0.4628659513008344, 0.3069189144680422, 0.6508631979740862, 0.7246511804064362]",21.81,0.0,0.0,0.0,359.1402308065508,69.98834195088048,-1479.4565572252484,-324.70525896530955,2352.965829046354,0.0,0.0,0.0,0.0,0.0,0.0,0.3,21.701320081566873,0.0,21.727641561679036,0.0,0.3,21.81,21.3,22.16,21.7,22.08,-1.06,0.3,1999.17,-1043.87,-814.06,0.0,160.0,24.0,180.0,0.0,0.0,0.0,0.0,0.0,0.0,0.0,0.0,0.0,0.0,0.0,0.0,0.0,0.0
126.0,5939.0,0.0,3921.1236231729185,-0.0,0.0,9860.123623172918,0.0,10110.774540894656,0.0,0.0,0.0,10110.774540894658,0.44939487470538286,0.44949853226521663,0.47540983606557374,0.0,0.0,0.0,"[0.18683198856986039, 0.29485996536834946, 0.6260490964386207, 0.266817298787565, 0.6010232780656963, 0.4628659513008344, 0.3069189144680422, 0.6508631979740862, 0.7246511804064362]",22.19,0.0,0.0,0.0,419.23315024695233,116.56286245345557,-1512.0303407111783,-971.8800131745003,983.0738047543981,0.0,0.0,0.0,0.0,0.0,0.0,0.2,21.82671810808338,0.0,21.754238553301633,0.0,0.2,22.19,21.31,22.2,21.98,22.34,-1.13,0.2,0.0,-1066.85,-831.98,0.0,254.0,54.0,172.0,0.0,0.0,0.0,0.0,0.0,0.0,0.0,0.0,0.0,0.0,0.0,0.0,0.0,0.0
127.0,6129.0,0.0,0.0,-0.0,0.0,6129.0,0.0,10867.908363794639,0.0,10867.908363794639,0.0,0.0,0.2177622216441584,0.4084255603687894,0.47540983606557374,0.0,0.0,0.0,"[0.18683198856986039, 0.29485996536834946, 0.6260490964386207, 0.266817298787565, 0.6010232780656963, 0.4628659513008344, 0.3069189144680422, 0.6508631979740862, 0.7246511804064362]",21.81,0.0,0.0,0.0,1816.7478486952527,115.26561018402244,-1493.2105199743814,-293.80488227998427,836.0635185371709,0.0,0.0,0.0,0.0,0.0,0.0,0.1,21.71330082193648,0.0,21.745867308043387,0.0,0.1,21.81,21.31,22.18,21.72,22.1,-1.27,0.1,735.9,-1053.57,-821.63,0.0,142.0,53.0,1269.0,0.0,0.0,0.0,0.0,0.0,0.0,0.0,0.0,0.0,0.0,0.0,0.0,0.0,0.0
128.0,5339.0,1428.8317709374653,1844.6759967872092,-0.0,0.0,5761.988384704431,0.0,4756.571048740202,0.0,0.0,0.0,4756.571048740202,0.0,0.4084255603687894,0.47540983606557374,0.0,0.0,0.0,"[0.18683198856986039, 0.29485996536834946, 0.4668598877366108, 0.266817298787565, 0.6010232780656963, 0.4628659513008344, 0.3069189144680422, 0.4983597400448083, 0.7246511804064362]",22.19,0.0,0.0,3.746693438226891,207.9866964122388,60.90757606484851,-1512.0303407111783,-990.0177055353753,1260.3446649716273,0.0,0.0,0.0,0.0,0.0,0.0,0.2,21.819717160449738,0.0,21.742728365252713,0.0,0.2,22.19,21.31,22.18,21.86,22.21,-1.06,0.2,842.22,-1066.85,-831.98,5.92,83.0,55.0,105.0,0.0,0.0,0.0,0.0,0.0,0.0,0.0,0.0,0.0,0.0,0.0,0.0,0.0,0.0
129.0,4187.0,4138.769971075726,0.0,-0.0,68.9238787796527,0.0,0.0,10428.433573185119,0.0,10428.433573185119,0.0,0.0,0.0,0.36901349093120395,0.47540983606557374,0.0,0.0,0.0,"[0.18683198856986039, 0.29485996536834946, 0.4668598877366108, 0.266817298787565, 0.6010232780656963, 0.4628659513008344, 0.3069189144680422, 0.4983597400448083, 0.7246511804064362]",21.81,0.0,0.0,102.50007832342571,789.995124907543,76.94920778686317,-1307.532022861086,-301.31176786959134,1613.114874232067,0.0,0.0,0.0,0.0,0.0,0.0,2.8,21.708774091181468,0.0,21.738374828124808,0.0,2.8,21.81,21.31,22.17,21.72,22.1,1.66,2.8,190.36,-922.56,-719.46,161.98,140.0,29.0,510.0,0.0,0.0,0.0,0.0,0.0,0.0,0.0,0.0,0.0,0.0,0.0,0.0,0.0,0.0
130.0,5165.0,21073.013547792427,0.0,-0.0,197.35151994653535,-16000.0,0.0,5389.310132071084,0.0,5389.310132071083,0.0,0.0,0.5807407407407407,0.3486457277714493,0.47540983606557374,0.0,0.0,0.0,"[0.18683198856986039, 0.29485996536834946, 0.4668598877366108, 0.266817298787565, 0.6010232780656963, 0.4628659513008344, 0.3069189144680422, 0.4983597400448083, 0.7246511804064362]",22.19,0.0,0.0,136.69129130911622,961.8410325053894,51.47876688701742,-1161.3042906082867,-954.0015640680945,962.7803679631143,0.0,0.0,0.0,0.0,0.0,0.0,5.3,21.83067970891519,0.0,21.758687810592875,0.0,5.3,22.19,21.32,22.19,21.95,22.31,4.05,5.3,0.0,-819.39,-639.0,216.01,85.0,6.0,669.0,0.0,0.0,0.0,0.0,0.0,0.0,0.0,0.0,0.0,0.0,0.0,0.0,0.0,0.0
131.0,7086.0,0.0,0.0,-0.0,5866.680172043076,1219.3198279569242,0.0,3972.9635188200127,0.0,3972.9635188200127,0.0,0.0,0.5346591145896853,0.3336307484864153,0.47540983606557374,0.0,0.0,0.0,"[0.18683198856986039, 0.29485996536834946, 0.4668598877366108, 0.266817298787565, 0.6010232780656963, 0.4628659513008344, 0.3069189144680422, 0.4983597400448083, 0.7246511804064362]",22.19,0.0,0.0,206.56112268580333,1181.662065647047,63.438800005205856,-1058.1495699897891,-915.2886923307417,517.2916725174729,0.0,0.0,0.0,0.0,0.0,0.0,6.8,21.84459276795721,0.0,21.778333223390753,0.0,6.8,22.19,21.34,22.21,21.9,22.26,5.75,6.8,0.0,-746.6,-582.24,326.42,119.0,0.0,815.0,0.0,0.0,0.0,0.0,0.0,0.0,0.0,0.0,0.0,0.0,0.0,0.0,0.0,0.0
132.0,7019.0,0.0,1460.3669902228091,-26.43590162703663,8505.802891849846,0.0,0.0,4823.696488656572,0.0,0.0,0.0,4823.696488656572,0.5346591145896853,0.3336307484864153,0.47549477765112946,0.0,0.0,0.0,"[0.18683198856986039, 0.29485996536834946, 0.4668598877366108, 0.266817298787565, 0.6010232780656963, 0.4628659513008344, 0.3069189144680422, 0.4983597400448083, 0.7246511804064362]",22.19,0.0,0.0,554.9579756803045,331.85747846627413,58.756035715544776,-989.3797562441241,-881.8942792591656,388.5474249654911,0.0,0.0,0.0,0.0,0.0,0.0,7.8,21.85645111968573,0.0,21.79431431414693,0.0,7.8,22.19,21.36,22.23,21.9,22.26,7.46,7.8,0.0,-698.08,-544.4,876.98,170.0,0.0,157.0,0.0,0.0,0.0,0.0,0.0,0.0,0.0,0.0,0.0,0.0,0.0,0.0,0.0,0.0
133.0,5363.0,0.0,459.94032514206594,-2031.511412177319,7854.451737319385,0.0,0.0,1536.7547584302763,0.0,0.0,0.0,1536.7547584302763,0.5346591145896853,0.3336307484864153,0.4820222569427156,0.0,0.0,0.0,"[0.18683198856986039, 0.29485996536834946, 0.4668598877366108, 0.266817298787565, 0.6010232780656963, 0.4628659513008344, 0.3069189144680422, 0.4983597400448083, 0.7246511804064362]",21.99,0.0,0.0,529.211806375911,1311.6271767952742,78.18317945778738,-948.1000265039252,-462.6444352795621,0.0,0.0,0.0,0.0,0.0,0.0,0.0,8.2,21.816846880785047,0.0,21.82080836904843,0.0,8.2,21.99,21.39,22.26,21.88,22.31,7.86,8.2,0.0,-668.95,-521.68,836.29,158.0,0.0,891.0,0.0,0.0,0.0,0.0,0.0,0.0,0.0,0.0,0.0,0.0,0.0,0.0,0.0,0.0
134.0,4204.0,0.0,1439.7547100118898,-1027.7922033422021,6671.546913354092,0.0,0.0,4810.515148676654,0.0,0.0,0.0,4810.5151486766545,0.5346591145896853,0.3336307484864153,0.4853246712354217,0.0,0.0,0.0,"[0.18683198856986039, 0.29485996536834946, 0.4668598877366108, 0.266817298787565, 0.6010232780656963, 0.4628659513008344, 0.3069189144680422, 0.4983597400448083, 0.7246511804064362]",22.19,0.0,0.0,479.77945624168314,594.5514081426521,60.43297157603151,-961.8718307458582,-795.6899580672779,0.0,0.0,0.0,0.0,0.0,0.0,0.0,8.2,21.889483371264202,0.0,21.841163826550094,0.0,8.2,22.19,21.41,22.28,21.94,22.35,7.59,8.2,0.0,-678.67,-529.26,758.18,155.0,0.0,360.0,0.0,0.0,0.0,0.0,0.0,0.0,0.0,0.0,0.0,0.0,0.0,0.0,0.0,0.0
135.0,3379.0,13686.55372828026,1349.9704897002755,-0.0,5.7814044173984485,-8894.931874355982,0.0,4381.830863551827,0.0,0.0,0.0,4381.830863551827,0.8575121974366802,0.3336307484864153,0.4762915497901223,0.0,0.0,0.0,"[0.18683198856986039, 0.29485996536834946, 0.4668598877366108, 0.266817298787565, 0.6010232780656963, 0.4628659513008344, 0.3069189144680422, 0.4983597400448083, 0.7246511804064362]",21.95,0.0,0.0,420.6382670572969,817.3487415396125,65.36885825972833,-1014.5274732944214,-345.8011602894051,657.9607547116949,0.0,0.0,0.0,0.0,0.0,0.0,7.2,21.82867404779602,0.0,21.849930519237997,0.0,7.2,21.95,21.42,22.28,21.84,22.25,6.01,7.2,0.0,-715.82,-558.23,664.72,154.0,0.0,526.0,0.0,0.0,0.0,0.0,0.0,0.0,0.0,0.0,0.0,0.0,0.0,0.0,0.0,0.0
136.0,3537.0,17388.290829224712,8426.186023420469,-558.5753516581209,0.0,0.0,0.0,7107.354006952089,23897.94,0.0,0.0,26225.706006952092,0.8575121974366802,0.3336307484864153,0.47808631649381067,19118.352,4779.588,23897.94,"[0.18683198856986039, 0.29485996536834946, 0.4668598877366108, 0.266817298787565, 0.6010232780656963, 0.4628659513008344, 0.3069189144680422, 0.4983597400448083, 0.7246511804064362]",22.19,0.0,0.0,0.0,605.1101876197981,53.18734304675863,-1126.919383735454,-743.6128859204697,242.81449182033296,0.0,0.0,0.0,0.0,0.0,0.0,5.8,21.911351664316836,0.0,21.871327371950425,0.0,5.8,22.19,21.44,22.3,21.99,22.39,4.25,5.8,0.0,-795.12,-620.08,0.0,130.0,0.0,381.0,0.0,0.0,0.0,0.0,0.0,0.0,0.0,0.0,0.0,0.0,0.0,0.0,0.0,0.0
137.0,5661.0,0.0,2805.961688854629,-0.0,0.0,8466.96168885463,0.0,8626.289646039742,0.0,0.0,0.0,8626.289646039742,0.5375212039047591,0.3336307484864153,0.47055871528939447,0.0,0.0,0.0,"[0.18683198856986039, 0.29485996536834946, 0.4668598877366108, 0.266817298787565, 0.6010232780656963, 0.4628659513008344, 0.3069189144680422, 0.4983597400448083, 0.7246511804064362]",21.81,0.0,0.0,0.0,548.3478898936642,61.44546115217447,-1128.730507122357,-99.60026420847899,622.7837499173162,0.0,0.0,0.0,0.0,0.0,0.0,5.4,21.785004786453218,0.0,21.84152574471296,0.0,5.4,21.81,21.44,22.25,21.71,22.07,3.85,5.4,0.0,-796.4,-621.07,0.0,162.0,0.0,322.0,0.0,0.0,0.0,0.0,0.0,0.0,0.0,0.0,0.0,0.0,0.0,0.0,0.0,0.0
138.0,4165.0,0.0,1557.7645917902778,-0.0,0.0,5722.764591790277,0.0,4729.589582583889,0.0,0.0,0.0,4729.589582583889,0.321241362945187,0.3336307484864153,0.4524924723987956,0.0,0.0,0.0,"[0.18683198856986039, 0.29485996536834946, 0.4668598877366108, 0.266817298787565, 0.6010232780656963, 0.4628659513008344, 0.3069189144680422, 0.4983597400448083, 0.7246511804064362]",21.81,0.0,0.0,0.0,402.58004167561467,9.460449477085563,-1156.2384326206231,-147.8726097267246,1865.8202178652405,0.0,0.0,0.0,0.0,0.0,0.0,5.0,21.766656537988414,0.0,21.812098945480074,0.0,5.0,21.81,21.43,22.2,21.73,22.07,3.51,5.0,372.39,-815.81,-636.21,0.0,0.0,0.0,299.0,0.0,0.0,0.0,0.0,0.0,0.0,0.0,0.0,0.0,0.0,0.0,0.0,0.0,0.0
139.0,6084.0,6639.776433154952,522.5775509891771,-0.0,0.0,0.0,0.0,1566.6904314332194,0.0,0.0,0.0,1566.6904314332194,0.321241362945187,0.3336307484864153,0.4524924723987956,0.0,0.0,0.0,"[0.18683198856986039, 0.29485996536834946, 0.4668598877366108, 0.266817298787565, 0.6010232780656963, 0.4628659513008344, 0.3069189144680422, 0.4983597400448083, 0.7246511804064362]",22.19,0.0,0.0,0.0,315.20436989493646,7.973355412125625,-1209.4431602302523,-815.4815381978182,729.2021095541463,0.0,0.0,0.0,0.0,0.0,0.0,4.6,21.88435983678103,0.0,21.826153034008176,0.0,4.6,22.19,21.44,22.21,21.98,22.3,3.18,4.6,0.0,-853.35,-665.49,0.0,0.0,1.0,234.0,0.0,0.0,0.0,0.0,0.0,0.0,0.0,0.0,0.0,0.0,0.0,0.0,0.0,0.0
140.0,7409.0,30466.205060678087,1091.0464635296476,-21813.827571845053,0.0,0.0,0.0,3229.3582993519326,0.0,0.0,0.0,3229.3582993519326,0.0,0.3336307484864153,0.513549682167949,0.0,0.0,0.0,"[0.18683198856986039, 0.29485996536834946, 0.2121166164616035, 0.26681729878756144, 0.38611785166269996, 0.4628659513008344, 0.3069189144680422, 0.4983597400448083, 0.239778188429149]",21.81,0.0,0.0,0.0,692.1315379415117,98.49625157915504,-1211.2542836171551,-152.9661297569335,580.3994334030634,0.0,0.0,0.0,0.0,0.0,0.0,4.2,21.765076948290172,0.0,21.808350888652775,0.0,4.2,21.81,21.43,22.18,21.73,22.06,2.84,4.2,0.0,-854.63,-666.48,0.0,144.0,69.0,431.0,0.0,0.0,0.0,0.0,0.0,0.0,0.0,0.0,0.0,0.0,0.0,0.0,0.0,0.0
141.0,6364.0,6395.979899497487,0.0,-0.0,0.0,0.0,0.0,1240.2375425154985,0.0,1240.2375425154983,0.0,0.0,0.0,0.3289435317724489,0.4784208765473402,0.0,0.0,0.0,"[0.18683198856986039, 0.29485996536834946, 0.2121166164616035, 0.26681729878756144, 0.38611785166269996, 0.4628659513008344, 0.3069189144680422, 0.4983597400448083, 0.239778188429149]",21.81,0.0,0.0,0.0,873.1898034724385,149.2789318825742,-1238.7622091154212,-194.53110932043575,421.14084631732027,0.0,0.0,0.0,0.0,0.0,0.0,3.8,21.749304407027804,0.0,21.783659880416963,0.0,3.8,21.81,21.42,22.14,21.73,22.05,2.51,3.8,0.0,-874.04,-681.62,0.0,218.0,112.0,522.0,0.0,0.0,0.0,0.0,0.0,0.0,0.0,0.0,0.0,0.0,0.0,0.0,0.0,0.0
142.0,6491.0,22604.020100502512,0.0,-0.0,0.0,-16000.0,0.0,8735.217364869884,0.0,8735.217364869883,0.0,0.0,0.5807407407407407,0.29593061656130043,0.4784208765473402,0.0,0.0,0.0,"[0.18683198856986039, 0.29485996536834946, 0.2121166164616035, 0.26681729878756144, 0.38611785166269996, 0.4628659513008344, 0.3069189144680422, 0.4983597400448083, 0.239778188429149]",21.81,0.0,0.0,0.0,631.6134327503526,110.96252948541492,-1266.2701346136869,-232.73160501946546,1737.1899782906496,0.0,0.0,0.0,0.0,0.0,0.0,3.4,21.734864613013066,0.0,21.761307905810174,0.0,3.4,21.81,21.41,22.11,21.72,22.03,2.1,3.4,0.0,-893.45,-696.75,0.0,162.0,84.0,375.0,0.0,0.0,0.0,0.0,0.0,0.0,0.0,0.0,0.0,0.0,0.0,0.0,0.0,0.0
143.0,3183.0,0.0,0.0,-0.0,0.0,3183.0,0.0,10423.15847603331,0.0,10423.158476033313,0.0,0.0,0.4604459561602418,0.25653848324295836,0.47540983606557374,0.0,0.0,0.0,"[0.18683198856986039, 0.29485996536834946, 0.2121166164616035, 0.26681729878756144, 0.38611785166269996, 0.4628659513008344, 0.3069189144680422, 0.4983597400448083, 0.239778188429149]",22.19,0.0,0.0,0.0,410.37511377283647,90.14321257597581,-1319.474862223316,-888.2871933778316,1713.4732828684357,0.0,0.0,0.0,0.0,0.0,0.0,3.0,21.85723736047507,0.0,21.783507451200364,0.0,3.0,22.19,21.42,22.14,21.99,22.28,1.69,3.0,0.0,-930.99,-726.03,0.0,210.0,31.0,191.0,0.0,0.0,0.0,0.0,0.0,0.0,0.0,0.0,0.0,0.0,0.0,0.0,0.0,0.0
144.0,1918.0,0.0,4769.471348472997,-0.0,0.0,6687.471348472997,0.0,13344.056361641873,0.0,0.0,0.0,13344.056361641873,0.20770705410154955,0.25653848324295836,0.47540983606557374,0.0,0.0,0.0,"[0.18683198856986039, 0.29485996536834946, 0.2121166164616035, 0.26681729878756144, 0.38611785166269996, 0.4628659513008344, 0.3069189144680422, 0.4983597400448083, 0.239778188429149]",22.19,0.0,0.0,0.0,189.13679479532044,59.198999905107314,-1353.8597690961485,-840.8961551694342,1950.511212336555,0.0,0.0,0.0,0.0,0.0,0.0,2.5,21.875673823566967,0.0,21.81212591495151,0.0,2.5,22.19,21.44,22.19,21.99,22.3,1.26,2.5,0.0,-955.25,-744.95,0.0,160.0,12.0,55.0,0.0,0.0,0.0,0.0,0.0,0.0,0.0,0.0,0.0,0.0,0.0,0.0,0.0,0.0
145.0,1378.0,21641.52239953718,4155.314787539497,-0.0,0.0,-16000.0,0.0,11467.309782385617,0.0,0.0,0.0,11467.309782385617,0.7884477948422902,0.25653848324295836,0.47540983606557374,0.0,0.0,0.0,"[0.18683198856986039, 0.29485996536834946, 0.2121166164616035, 0.26681729878756144, 0.38611785166269996, 0.4628659513008344, 0.3069189144680422, 0.4983597400448083, 0.239778188429149]",22.19,0.0,0.0,0.0,339.7234148552889,56.50957446847764,-1381.3676945944144,-794.6242414298739,810.5682899595984,0.0,0.0,0.0,0.0,0.0,0.0,2.1,21.893616512433276,0.0,21.839937707604683,0.0,2.1,22.19,21.45,22.23,22.01,22.34,0.95,2.1,95.63,-974.66,-760.09,0.0,160.0,1.0,168.0,0.0,0.0,0.0,0.0,0.0,0.0,0.0,0.0,0.0,0.0,0.0,0.0,0.0,0.0
146.0,944.0,0.0,6854.282145675325,-0.0,0.0,7798.282145675325,0.0,18588.85709453651,0.0,0.0,0.0,18588.857094536506,0.49372813703143137,0.25653848324295836,0.47540983606557374,0.0,0.0,0.0,"[0.18683198856986039, 0.29485996536834946, 0.2121166164616035, 0.26681729878756144, 0.38611785166269996, 0.4628659513008344, 0.3069189144680422, 0.4983597400448083, 0.239778188429149]",21.81,0.0,0.0,0.0,248.0250212752423,53.78850873259349,-1390.055799355884,-132.0689626951706,2197.124290997459,0.0,0.0,0.0,0.0,0.0,0.0,1.6,21.77439941916364,0.0,21.822871688776228,0.0,1.6,21.81,21.44,22.21,21.75,22.1,0.53,1.6,1398.94,-980.79,-764.87,0.0,160.0,0.0,100.0,0.0,0.0,0.0,0.0,0.0,0.0,0.0,0.0,0.0,0.0,0.0,0.0,0.0,0.0
147.0,955.0,2810.229026053031,3811.6243867744374,-0.0,0.0,1970.446505851672,0.0,10264.474988012322,0.0,0.0,0.0,10264.474988012324,0.41925925925925933,0.25653848324295836,0.47540983606557374,0.0,0.0,0.0,"[0.18683198856986039, 0.29485996536834946, 0.2121166164616035, 0.26681729878756144, 0.38611785166269996, 0.4628659513008344, 0.3069189144680422, 0.4983597400448083, 0.239778188429149]",22.19,0.0,0.0,0.0,274.9534521565543,54.42131471768284,-1429.5065642163802,-792.4475385679793,923.2443651858123,0.0,0.0,0.0,0.0,0.0,0.0,1.4,21.894819117788803,0.0,21.842127945902874,0.0,1.4,22.19,21.45,22.24,22.03,22.36,0.3,1.4,544.94,-1008.62,-786.57,0.0,160.0,0.0,120.0,0.0,0.0,0.0,0.0,0.0,0.0,0.0,0.0,0.0,0.0,0.0,0.0,0.0,0.0
148.0,1945.0,22442.216737430866,4385.005653743713,-0.0,0.0,-16000.0,0.0,11724.94900932461,0.0,0.0,0.0,11724.949009324608,1.0,0.25653848324295836,0.47540983606557374,0.0,0.0,0.0,"[0.18683198856986039, 0.29485996536834946, 0.2121166164616035, 0.26681729878756144, 0.38611785166269996, 0.4628659513008344, 0.3069189144680422, 0.4983597400448083, 0.239778188429149]",21.81,0.0,0.0,0.0,170.9246718045384,55.94004908189723,-1417.56372485415,-127.92653738641002,2295.587287442762,0.0,0.0,0.0,0.0,0.0,0.0,1.2,21.776178330859487,0.0,21.826129562347646,0.0,1.2,21.81,21.44,22.21,21.76,22.11,0.19,1.2,179.4,-1000.2,-780.0,0.0,160.0,7.0,42.0,0.0,0.0,0.0,0.0,0.0,0.0,0.0,0.0,0.0,0.0,0.0,0.0,0.0,0.0
149.0,1326.0,0.0,4249.027918894325,-0.0,0.0,5575.027918894325,0.0,11239.839929728154,0.0,0.0,0.0,11239.839929728156,0.7893035555973422,0.25653848324295836,0.47540983606557374,0.0,0.0,0.0,"[0.18683198856986039, 0.29485996536834946, 0.2121166164616035, 0.26681729878756144, 0.38611785166269996, 0.4628659513008344, 0.3069189144680422, 0.4983597400448083, 0.239778188429149]",22.19,0.0,0.0,0.0,271.9771519012514,63.976685092531795,-1463.8914710892125,-786.4283347157418,1918.78722448396,0.0,0.0,0.0,0.0,0.0,0.0,0.9,21.897341937401265,0.0,21.846589849986604,0.0,0.9,22.19,21.45,22.25,22.04,22.38,-0.08,0.9,0.0,-1032.88,-805.49,0.0,160.0,17.0,116.0,0.0,0.0,0.0,0.0,0.0,0.0,0.0,0.0,0.0,0.0,0.0,0.0,0.0,0.0
150.0,5528.0,0.0,4261.084987371405,-0.0,0.0,9789.084987371405,0.0,11231.111939689757,0.0,0.0,0.0,11231.111939689757,0.4193456951524667,0.25653848324295836,0.47540983606557374,0.0,0.0,0.0,"[0.18683198856986039, 0.29485996536834946, 0.2121166164616035, 0.26681729878756144, 0.38611785166269996, 0.4628659513008344, 0.3069189144680422, 0.4983597400448083, 0.239778188429149]",22.19,0.0,0.0,0.0,166.9562714641345,57.07909985505804,-1470.768452463779,-749.8902540467353,2000.5679174038294,0.0,0.0,0.0,0.0,0.0,0.0,0.8,21.911395833455117,0.0,21.868443485819295,0.0,0.8,22.19,21.46,22.28,22.02,22.36,-0.12,0.8,0.0,-1037.74,-809.28,0.0,149.0,15.0,44.0,0.0,0.0,0.0,0.0,0.0,0.0,0.0,0.0,0.0,0.0,0.0,0.0,0.0,0.0
151.0,1633.0,5433.826586678913,3773.657453745519,-0.0,0.0,0.0,0.0,9874.42884645889,0.0,0.0,0.0,9874.428846458894,0.4193456951524667,0.25653848324295836,0.47540983606557374,0.0,0.0,0.0,"[0.18683198856986039, 0.29485996536834946, 0.2121166164616035, 0.26681729878756144, 0.38611785166269996, 0.4628659513008344, 0.3069189144680422, 0.4983597400448083, 0.239778188429149]",22.19,0.0,0.0,0.0,246.32427827221198,50.75104000416469,-1484.5224152129117,-715.5139890182464,933.3724724717886,0.0,0.0,0.0,0.0,0.0,0.0,0.6,21.924697044443,0.0,21.888989845858383,0.0,0.6,22.19,21.47,22.31,22.03,22.39,-0.3,0.6,1584.55,-1047.44,-816.85,0.0,150.0,0.0,104.0,0.0,0.0,0.0,0.0,0.0,0.0,0.0,0.0,0.0,0.0,0.0,0.0,0.0,0.0
