,load_elec,grid,hp_elec,ev,pv,bat_pow,cool,load_th_sh,load_th_dhw,tes_pow,dh,hp_th,bat_soc,tes_soc,ev_soc,eh_th_in,eh_elec_in,eh_th_out,temp_slack,temp_zone_1,temp_zone_2,temp_update,Qsolar_1,QconvInt_1,QradInt_1,Qvent_1,Qconduc_1,Qheating_1,Qsolar_2,QconvInt_2,QradInt_2,Qvent_2,Qconduc_2,Qheating_2,temp_amb,temp_aggregate_1,temp_aggregate_2,temp_wall_1,temp_wall_2,_Tamb,_Tz_1,_TEW_1,_TIW_1,_T1_1,_T2_1,_Taeq_1,_Tvent_1,_Qheating_1,_Qinfvent_1,_Qenvelope_1,_Qsolar_1,_Qint_people_1,_Qint_lighting_1,_Qint_appliances_1,_Tz_2,_TEW_2,_TIW_2,_T1_2,_T2_2,_Taeq_2,_Tvent_2,_Qheating_2,_Qinfvent_2,_Qenvelope_2,_Qsolar_2,_Qint_people_2,_Qint_lighting_2,_Qint_appliances_2
8.0,2160.0,2170.854271356784,0.0,-0.0,0.0,0.0,0.0,53651.942952495694,0.0,53651.942952495694,0.0,0.0,0.5,0.2718879976509537,0.8,0.0,0.0,0.0,"[2.0, 2.0, 2.0, 2.0, 2.0, 2.0, 2.0, 2.0]",20.0,0.0,0.0,0.8544410273778159,153.47299783483354,100.8042764083304,-1223.276535721951,-1064.433521312209,9983.3545777229,0.0,0.0,0.0,0.0,0.0,0.0,-9.4,19.47629477756384,0.0,19.0,0.0,-9.4,20.0,18.0,20.0,20.0,20.0,-9.96,-9.4,1939.24,-870.79,-1016.06,1.24,88.0,111.0,57.0,0.0,0.0,0.0,0.0,0.0,0.0,0.0,0.0,0.0,0.0,0.0,0.0,0.0,0.0
9.0,3794.0,2309.108062586516,10270.600708047841,-0.0,7.038185774257692,11760.0,0.0,17866.830499784213,0.0,0.0,0.0,17866.83049978421,0.0,0.2718879976509537,0.8,0.0,0.0,0.0,"[2.0, 2.0, 2.0, 2.0, 2.0, 2.0, 2.0, 2.0]",24.0,0.0,0.0,26.43458506120708,181.77945922038865,95.2059469178507,-1356.4222811066531,-6187.366817504509,0.0,0.0,0.0,0.0,0.0,0.0,0.0,-8.6,20.89645249916436,0.0,19.266442775356442,0.0,-8.6,24.0,18.14,20.39,22.71,22.41,-9.14,-8.6,2374.74,-965.57,-1126.66,38.48,112.0,88.0,68.0,0.0,0.0,0.0,0.0,0.0,0.0,0.0,0.0,0.0,0.0,0.0,0.0,0.0,0.0
10.0,3841.0,29185.105655067287,9571.704387733436,-0.0,373.52426094148575,-16000.0,0.0,17563.524051596843,0.0,0.0,0.0,17563.524051596843,0.6533333333333333,0.2718879976509537,0.7999999999999996,0.0,0.0,0.0,"[2.0, 2.0, 2.0, 2.0, 2.0, 2.0, 2.0, 2.0]",20.35,0.0,0.0,73.21131823655386,798.3405461742417,87.71861054408033,-1162.7795488155402,-1034.646508655738,563.2906365329306,0.0,0.0,0.0,0.0,0.0,0.0,-7.6,19.836729885847447,0.0,19.330293116661835,0.0,-7.6,20.35,18.18,20.48,19.58,20.34,-8.19,-7.6,1526.22,-827.73,-965.81,106.58,95.0,59.0,542.0,0.0,0.0,0.0,0.0,0.0,0.0,0.0,0.0,0.0,0.0,0.0,0.0,0.0,0.0
11.0,7523.0,80201.25252831,73338.59562154337,-0.0,1061.3493558749155,0.0,0.0,133308.3156075461,0.0,-6857.041140766425,0.0,140165.3567483125,0.6533333333333333,0.2998875823090833,0.7999999999999996,0.0,0.0,0.0,"[2.0, 2.0, 2.0, 2.0, 2.0, 2.0, 2.0, 2.0]",20.0,0.0,0.0,101.8063535202144,966.2828518140985,81.84551641603112,-1115.0956175968804,-580.3724531723985,5302.610796146917,0.0,0.0,0.0,0.0,0.0,0.0,-6.8,19.71910047380221,0.0,19.317182766523864,0.0,-6.8,20.0,18.19,20.44,19.51,20.27,-7.38,-6.8,8377.57,-793.78,-926.21,148.21,143.0,17.0,647.0,0.0,0.0,0.0,0.0,0.0,0.0,0.0,0.0,0.0,0.0,0.0,0.0,0.0,0.0
12.0,10497.0,8042.1776963196435,0.0,-0.0,2495.0331921619545,0.0,0.0,15110.84539065461,0.0,15110.84539065461,0.0,0.0,0.6533333333333333,0.23564079068215044,0.7999999999999996,0.0,0.0,0.0,"[2.0, 2.0, 2.0, 2.0, 2.0, 2.0, 2.0, 2.0]",22.39,0.0,0.0,155.1722153800462,708.7853643713067,62.81806526433945,-1189.6106579165723,-3691.0169644238426,7158.269058655214,0.0,0.0,0.0,0.0,0.0,0.0,-6.2,20.543432519561208,0.0,19.44789535581946,0.0,-6.2,22.39,18.27,20.62,21.39,21.61,-6.75,-6.2,0.0,-846.83,-988.1,225.9,137.0,0.0,459.0,0.0,0.0,0.0,0.0,0.0,0.0,0.0,0.0,0.0,0.0,0.0,0.0,0.0,0.0
13.0,9020.0,305.95668066268246,7087.085970732664,-0.0,436.2590734732945,15366.400000000001,0.0,14017.843416141073,0.0,0.0,0.0,14017.843416141073,0.0,0.23564079068215044,0.7661078717201162,0.0,0.0,0.0,"[2.0, 2.0, 2.0, 2.0, 2.0, 2.0, 2.0, 2.0]",24.0,0.0,0.0,75.17923866770137,1789.2071733852245,91.59966104975031,-1252.4021675248546,-5534.0708657385985,0.0,0.0,0.0,0.0,0.0,0.0,0.0,-6.1,21.224575579050672,0.0,19.699441629117587,0.0,-6.1,24.0,18.42,20.98,22.54,22.55,-6.67,-6.1,0.0,-891.52,-1040.26,109.45,140.0,0.0,1267.0,0.0,0.0,0.0,0.0,0.0,0.0,0.0,0.0,0.0,0.0,0.0,0.0,0.0,0.0
14.0,5604.0,54578.39022053594,26501.584358683744,-0.0,4.700089250482096,-16000.0,0.0,26336.896166609517,31023.07,0.0,0.0,51155.35216660952,0.6533333333333333,0.23564079068215044,0.7590014577259471,24818.456000000002,6204.6140000000005,31023.07,"[2.0, 2.0, 2.0, 2.0, 2.0, 2.0, 2.0, 2.0]",21.56,0.0,0.0,23.51639083820483,788.7177540903186,20.298237600450854,-1171.6792665033222,-2041.8958398577545,7226.829348294684,0.0,0.0,0.0,0.0,0.0,0.0,-6.6,20.543189324327244,0.0,19.779363052476093,0.0,-6.6,21.56,18.49,21.07,20.38,21.13,-7.13,-6.6,1974.49,-834.06,-973.21,34.23,0.0,0.0,591.0,0.0,0.0,0.0,0.0,0.0,0.0,0.0,0.0,0.0,0.0,0.0,0.0,0.0,0.0
15.0,3981.0,0.0,0.0,-0.0,0.0,3981.0,0.0,14493.937837251971,0.0,14493.937837251971,0.0,0.0,0.48407312925170065,0.17401690531968458,0.7590014577259471,0.0,0.0,0.0,"[2.0, 2.0, 2.0, 2.0, 2.0, 2.0, 2.0, 2.0]",24.0,0.0,0.0,2.563233979888545,378.94133790339913,15.283782964806482,-1302.3318220441179,-5106.325573181111,0.0,0.0,0.0,0.0,0.0,0.0,0.0,-7.3,21.44057317834857,0.0,19.986546337027832,0.0,-7.3,24.0,18.62,21.36,22.61,22.76,-7.81,-7.3,8718.5,-927.07,-1081.73,3.73,0.0,9.0,283.0,0.0,0.0,0.0,0.0,0.0,0.0,0.0,0.0,0.0,0.0,0.0,0.0,0.0,0.0
16.0,5672.0,18398.93846575652,0.0,-0.0,0.0,-12634.943773427738,0.0,0.0,0.0,0.0,0.0,0.0,1.0,0.17401690531968458,0.7573615160349849,0.0,0.0,0.0,"[2.0, 2.0, 2.0, 2.0, 2.0, 2.0, 2.0, 2.0]",20.97,0.0,0.0,0.0,1163.7959272884927,106.84909843486061,-1172.098622093221,-866.9865387574343,0.0,0.0,0.0,0.0,0.0,0.0,0.0,-7.2,20.545230281966926,0.0,20.022102229017193,0.0,-7.2,20.97,18.66,21.38,20.15,21.11,-7.69,-7.2,0.0,-834.36,-973.55,0.0,106.0,69.0,809.0,0.0,0.0,0.0,0.0,0.0,0.0,0.0,0.0,0.0,0.0,0.0,0.0,0.0,0.0
17.0,4753.0,18048.252044408127,13205.01078418609,-0.0,0.0,0.0,0.0,24985.755708624383,0.0,0.0,0.0,24985.755708624383,1.0,0.17401690531968458,0.7573615160349849,0.0,0.0,0.0,"[2.0, 2.0, 2.0, 2.0, 2.0, 2.0, 2.0, 2.0]",20.58,0.0,0.0,0.0,595.0678433211486,158.95134283398744,-1147.4039685733508,-386.3060680406982,7593.1046663369025,0.0,0.0,0.0,0.0,0.0,0.0,-7.0,20.393662434031565,0.0,19.9867148987419,0.0,-7.0,20.58,18.67,21.3,19.99,20.95,-7.49,-7.0,5205.12,-816.78,-953.04,0.0,92.0,185.0,378.0,0.0,0.0,0.0,0.0,0.0,0.0,0.0,0.0,0.0,0.0,0.0,0.0,0.0,0.0
18.0,4650.0,0.0,64.82422950772184,-0.0,0.0,4714.824229507722,0.0,123.27463749234695,0.0,0.0,0.0,123.27463749234694,0.799539786160386,0.17401690531968458,0.7573615160349849,0.0,0.0,0.0,"[2.0, 2.0, 2.0, 2.0, 2.0, 2.0, 2.0, 2.0]",24.0,0.0,0.0,0.0,880.0289198501738,249.03979837710514,-1285.68860387103,-4844.607728873238,0.0,0.0,0.0,0.0,0.0,0.0,0.0,-6.9,21.572264319800496,0.0,20.172468845021598,0.0,-6.9,24.0,18.79,21.56,22.81,22.95,-7.39,-6.9,0.0,-915.22,-1067.9,0.0,284.0,218.0,487.0,0.0,0.0,0.0,0.0,0.0,0.0,0.0,0.0,0.0,0.0,0.0,0.0,0.0,0.0
19.0,5688.0,11090.464848904528,5347.0125246600055,-0.0,0.0,0.0,0.0,10219.256473415584,0.0,0.0,0.0,10219.256473415582,0.799539786160386,0.17401690531968458,0.7573615160349849,0.0,0.0,0.0,"[2.0, 2.0, 2.0, 2.0, 2.0, 2.0, 2.0, 2.0]",21.47,0.0,0.0,0.0,752.3337665029301,174.78465507393298,-1176.0675969637762,-1266.8747791919607,0.0,0.0,0.0,0.0,0.0,0.0,0.0,-6.8,20.83917476429174,0.0,20.22389265209916,0.0,-6.8,21.47,18.84,21.6,20.59,21.47,-7.29,-6.8,0.0,-837.19,-976.85,0.0,166.0,165.0,459.0,0.0,0.0,0.0,0.0,0.0,0.0,0.0,0.0,0.0,0.0,0.0,0.0,0.0,0.0
20.0,6922.0,11264.896985455935,0.0,-0.0,0.0,-4286.572500528655,0.0,0.0,0.0,0.0,0.0,0.0,0.6802721088435374,0.17401690531968458,0.7573615160349849,0.0,0.0,0.0,"[1.5574138003901545, 0.5029002843097068, 0.993309556609745, 0.5969522377694005, 1.500609064421667, 2.0, 1.6274591285681872, 0.7636610716860233]",20.69,0.0,0.0,0.0,742.5002563441765,170.66318551038967,-1135.537243947224,-251.16961887995083,0.0,0.0,0.0,0.0,0.0,0.0,0.0,-6.6,20.5764255764383,0.0,20.194242650115648,0.0,-6.6,20.69,18.86,21.53,20.18,21.16,-7.08,-6.6,0.0,-808.33,-943.19,0.0,258.0,110.0,409.0,0.0,0.0,0.0,0.0,0.0,0.0,0.0,0.0,0.0,0.0,0.0,0.0,0.0,0.0
21.0,6426.0,0.0,9574.0,-0.0,0.0,16000.0,0.0,18571.727048956665,0.0,0.0,0.0,18571.727048956665,0.0,0.17401690531968458,0.7573615160349849,0.0,0.0,0.0,"[1.5574138003901545, 0.5029002843097068, 0.993309556609745, 0.5969522377694005, 1.500609064421667, 2.0, 1.6274591285681872, 0.7636610716860233]",20.44,0.0,0.0,0.0,830.8613690564056,176.22716942117316,-1121.0283506683256,6.2515641265195905,3538.732772951617,0.0,0.0,0.0,0.0,0.0,0.0,-6.5,20.45728270555081,0.0,20.144102631394983,0.0,-6.5,20.44,18.86,21.43,20.05,21.01,-7.0,-6.5,679.2,-798.01,-931.14,0.0,270.0,109.0,469.0,0.0,0.0,0.0,0.0,0.0,0.0,0.0,0.0,0.0,0.0,0.0,0.0,0.0,0.0
22.0,4350.0,33184.55172964328,12668.628970995065,-0.0,0.0,-16000.0,0.0,24816.262638804856,0.0,0.0,0.0,24816.262638804852,0.6533333333333333,0.17401690531968458,0.7573615160349849,0.0,0.0,0.0,"[1.5574138003901545, 0.5029002843097068, 0.993309556609745, 0.5969522377694005, 1.500609064421667, 2.0, 1.6274591285681872, 0.7636610716860233]",22.16,0.0,0.0,0.0,608.764518185127,175.60894898664168,-1184.2011960565223,-2290.738877378487,5482.970290185361,0.0,0.0,0.0,0.0,0.0,0.0,-6.3,21.018885947330666,0.0,20.201494245418296,0.0,-6.3,22.16,18.91,21.49,21.4,21.95,-6.83,-6.3,4137.8,-842.98,-983.61,0.0,314.0,94.0,281.0,0.0,0.0,0.0,0.0,0.0,0.0,0.0,0.0,0.0,0.0,0.0,0.0,0.0,0.0
23.0,2710.0,0.0,5745.107042757393,-0.0,0.0,8455.107042757394,0.0,11308.717362587551,0.0,0.0,0.0,11308.717362587551,0.29384748967868224,0.17401690531968458,0.7404154518950432,0.0,0.0,0.0,"[1.5574138003901545, 0.5029002843097068, 0.993309556609745, 0.5969522377694005, 1.500609064421667, 2.0, 1.6274591285681872, 0.7636610716860233]",23.56,0.0,0.0,0.0,263.8892690459815,83.2193396038789,-1238.1478253668654,-3979.5028242466524,0.0,0.0,0.0,0.0,0.0,0.0,0.0,-6.2,21.565086668422556,0.0,20.364078927363856,0.0,-6.2,23.56,19.02,21.71,22.41,22.72,-6.71,-6.2,237.76,-881.38,-1028.42,0.0,80.0,82.0,147.0,0.0,0.0,0.0,0.0,0.0,0.0,0.0,0.0,0.0,0.0,0.0,0.0,0.0,0.0
24.0,3135.0,29047.98220829838,9767.742297256887,-0.0,0.0,-16000.0,0.0,19320.025553183754,0.0,0.0,0.0,19320.02555318375,0.9471808230120156,0.17401690531968458,0.7404154518950432,0.0,0.0,0.0,"[1.5574138003901545, 0.5029002843097068, 0.993309556609745, 0.5969522377694005, 1.500609064421667, 2.0, 1.6274591285681872, 0.7636610716860233]",21.1,0.0,0.0,0.0,1187.4665910277783,91.84008010762365,-1131.6752566625917,-561.3871441412524,5304.880696344807,0.0,0.0,0.0,0.0,0.0,0.0,-6.1,20.82728499422272,0.0,20.379750793681588,0.0,-6.1,21.1,19.05,21.71,20.43,21.39,-6.63,-6.1,4548.01,-805.58,-939.98,0.0,160.0,15.0,804.0,0.0,0.0,0.0,0.0,0.0,0.0,0.0,0.0,0.0,0.0,0.0,0.0,0.0,0.0
25.0,1442.0,11856.962762246218,10355.677948434986,-0.0,0.0,0.0,0.0,20581.6518955397,0.0,0.0,0.0,20581.6518955397,0.9471808230120156,0.17401690531968458,0.7404154518950432,0.0,0.0,0.0,"[1.5574138003901545, 0.5029002843097068, 0.993309556609745, 0.5969522377694005, 1.500609064421667, 2.0, 1.6274591285681872, 0.7636610716860233]",23.56,0.0,0.0,0.0,435.34354259967887,63.26455780038997,-1229.8262162803214,-3779.736130549366,0.0,0.0,0.0,0.0,0.0,0.0,0.0,-6.0,21.665643526304592,0.0,20.50450876819412,0.0,-6.0,23.56,19.14,21.87,22.42,22.79,-6.49,-6.0,3794.71,-875.45,-1021.5,0.0,160.0,0.0,242.0,0.0,0.0,0.0,0.0,0.0,0.0,0.0,0.0,0.0,0.0,0.0,0.0,0.0,0.0
26.0,782.0,0.0,7724.8214358517935,-0.0,0.0,8506.821435851794,0.0,15573.819408655312,0.0,0.0,0.0,15573.81940865531,0.5854962381543712,0.17401690531968458,0.7404154518950432,0.0,0.0,0.0,"[1.5574138003901545, 0.5029002843097068, 0.993309556609745, 0.5969522377694005, 1.500609064421667, 2.0, 1.6274591285681872, 0.7636610716860233]",21.28,0.0,0.0,0.0,296.83152807780624,60.929058381048755,-1122.6196672918923,-618.3095326265199,0.0,0.0,0.0,0.0,0.0,0.0,0.0,-5.7,20.98085090107484,0.0,20.517499035086885,0.0,-5.7,21.28,19.18,21.86,20.58,21.54,-6.18,-5.7,3585.28,-799.14,-932.46,0.0,160.0,2.0,138.0,0.0,0.0,0.0,0.0,0.0,0.0,0.0,0.0,0.0,0.0,0.0,0.0,0.0,0.0
27.0,956.0,2453.0853886717514,7622.663929618342,-0.0,0.0,6137.843967889949,0.0,15513.200602937286,0.0,0.0,0.0,15513.200602937286,0.3245334844175537,0.17401690531968458,0.7404154518950432,0.0,0.0,0.0,"[1.5574138003901545, 0.5029002843097068, 0.993309556609745, 0.5969522377694005, 1.500609064421667, 2.0, 1.6274591285681872, 0.7636610716860233]",20.58,0.0,0.0,0.0,181.4985017872814,67.17995388575615,-1085.1509590337862,257.1278833450504,3677.558760396729,0.0,0.0,0.0,0.0,0.0,0.0,-5.5,20.721037320258187,0.0,20.462827715467526,0.0,-5.5,20.58,19.18,21.75,20.23,21.24,-5.96,-5.5,3250.59,-772.47,-901.34,0.0,160.0,17.0,50.0,0.0,0.0,0.0,0.0,0.0,0.0,0.0,0.0,0.0,0.0,0.0,0.0,0.0,0.0
28.0,940.0,5104.629783570281,4139.106634652429,-0.0,0.0,0.0,0.0,8463.127547171855,0.0,0.0,0.0,8463.127547171855,0.3245334844175537,0.17401690531968458,0.740415451895043,0.0,0.0,0.0,"[1.5574138003901545, 0.5029002843097068, 0.993309556609745, 0.5969522377694005, 1.500609064421667, 2.0, 1.6274591285681872, 0.7636610716860233]",22.14,0.0,0.0,0.0,181.4985017872814,67.17995388575615,-1145.7759020566832,-1842.105952271216,0.0,0.0,0.0,0.0,0.0,0.0,0.0,-5.4,21.221001644671574,0.0,20.504133653317652,0.0,-5.4,22.14,19.22,21.78,21.52,22.12,-5.86,-5.4,104.05,-815.62,-951.69,0.0,160.0,17.0,50.0,0.0,0.0,0.0,0.0,0.0,0.0,0.0,0.0,0.0,0.0,0.0,0.0,0.0,0.0
29.0,1615.0,22473.839764437736,4746.470565615548,-0.0,0.0,-16000.0,0.0,9795.48846814644,0.0,0.0,0.0,9795.48846814644,0.977866817750887,0.17401690531968458,0.740415451895043,0.0,0.0,0.0,"[1.5574138003901545, 0.5029002843097068, 0.993309556609745, 0.5969522377694005, 1.500609064421667, 2.0, 1.6274591285681872, 0.7636610716860233]",20.75,0.0,0.0,0.0,183.81640061041617,71.54184250717279,-1079.8637074032251,20.384473793276694,6378.0446642812185,0.0,0.0,0.0,0.0,0.0,0.0,-5.2,20.7746243522542,0.0,20.475272832130045,0.0,-5.2,20.75,19.23,21.72,20.33,21.29,-5.65,-5.2,1406.62,-768.7,-896.94,0.0,160.0,24.0,51.0,0.0,0.0,0.0,0.0,0.0,0.0,0.0,0.0,0.0,0.0,0.0,0.0,0.0,0.0
30.0,2085.0,6351.217795154359,4234.4617061785875,-0.0,0.0,0.0,0.0,8779.202939730141,0.0,0.0,0.0,8779.202939730141,0.977866817750887,0.17401690531968458,0.740415451895043,0.0,0.0,0.0,"[1.5574138003901545, 0.5029002843097068, 0.993309556609745, 0.5969522377694005, 1.500609064421667, 2.0, 1.6274591285681872, 0.7636610716860233]",23.56,0.0,0.0,0.0,304.2769000551483,118.42355879247809,-1192.3789753908738,-3663.6773345805377,0.0,0.0,0.0,0.0,0.0,0.0,0.0,-5.1,21.72372852960444,0.0,20.60713477850388,0.0,-5.1,23.56,19.32,21.89,22.64,22.91,-5.56,-5.1,845.94,-848.8,-990.4,0.0,338.0,1.0,50.0,0.0,0.0,0.0,0.0,0.0,0.0,0.0,0.0,0.0,0.0,0.0,0.0,0.0,0.0
31.0,1046.0,12446.111713672775,11337.881155104411,-0.0,0.0,0.0,0.0,23614.631300863944,0.0,0.0,0.0,23614.631300863944,0.977866817750887,0.17401690531968458,0.740415451895043,0.0,0.0,0.0,"[1.5574138003901545, 0.5029002843097068, 0.993309556609745, 0.5969522377694005, 1.500609064421667, 2.0, 1.6274591285681872, 0.7636610716860233]",21.32,0.0,0.0,0.0,66.7273903629711,1.7172789848097156,-1094.98485660416,-548.6606766058962,6022.682489783607,0.0,0.0,0.0,0.0,0.0,0.0,-5.0,21.051482927950826,0.0,20.621666487997032,0.0,-5.0,21.32,19.36,21.89,20.69,21.59,-5.45,-5.0,3853.24,-779.47,-909.5,0.0,0.0,0.0,50.0,0.0,0.0,0.0,0.0,0.0,0.0,0.0,0.0,0.0,0.0,0.0,0.0,0.0,0.0
32.0,1734.0,2117.66881851586,373.0804744232804,-0.0,0.0,0.0,0.0,784.1684349455207,0.0,0.0,0.0,784.1684349455207,0.8882800628859516,0.17401690531968458,0.740415451895043,0.0,0.0,0.0,"[1.5574138003901545, 0.5029002843097068, 0.993309556609745, 0.5969522377694005, 1.500609064421667, 0.7601237580522202, 1.3437111786392641, 0.7636610716860233]",23.56,0.0,0.0,0.8544228769205208,16.01457368711306,0.41214695635432996,-1179.8965617610584,-3461.466421538204,0.0,0.0,0.0,0.0,0.0,0.0,0.0,-4.8,21.82548630731839,0.0,20.748291216873007,0.0,-4.8,23.56,19.45,22.05,22.62,22.96,-5.26,-4.8,0.0,-839.91,-980.03,1.24,0.0,0.0,12.0,0.0,0.0,0.0,0.0,0.0,0.0,0.0,0.0,0.0,0.0,0.0,0.0,0.0,0.0
33.0,3869.0,0.0,1779.9093837655096,-0.0,6.681366405535588,5642.228017359974,0.0,3910.8308437095284,0.0,0.0,0.0,3910.8308437095284,0.6483894158893542,0.17401690531968458,0.740415451895043,0.0,0.0,0.0,"[1.5574138003901545, 0.5029002843097068, 0.993309556609745, 0.5969522377694005, 1.500609064421667, 0.7601237580522202, 1.3437111786392641, 0.7636610716860233]",21.23,0.0,0.0,26.410695759323502,49.37826886859861,1.270786448759188,-1041.3472959117732,-246.7719297154293,0.0,0.0,0.0,0.0,0.0,0.0,0.0,-3.8,21.11391555084441,0.0,20.747321539399657,0.0,-3.8,21.23,19.47,22.02,20.66,21.63,-4.21,-3.8,302.53,-741.28,-864.95,38.45,0.0,0.0,37.0,0.0,0.0,0.0,0.0,0.0,0.0,0.0,0.0,0.0,0.0,0.0,0.0,0.0,0.0
34.0,2481.0,11221.5673607256,8800.870955395683,-0.0,116.41143147371153,0.0,0.0,20260.258059252934,0.0,0.0,0.0,20260.25805925293,0.6483894158893542,0.17401690531968458,0.740415451895043,0.0,0.0,0.0,"[1.5574138003901545, 0.5029002843097068, 0.993309556609745, 0.5969522377694005, 1.500609064421667, 0.7601237580522202, 1.3437111786392641, 0.7636610716860233]",20.62,0.0,0.0,51.941485399684076,66.7273903629711,1.7172789848097156,-970.1744925814335,490.88417786599825,6196.165145336868,0.0,0.0,0.0,0.0,0.0,0.0,-2.7,20.87431006242371,0.0,20.683496834619895,0.0,-2.7,20.62,19.47,21.9,20.36,21.36,-3.12,-2.7,3430.0,-690.62,-805.84,75.62,0.0,0.0,50.0,0.0,0.0,0.0,0.0,0.0,0.0,0.0,0.0,0.0,0.0,0.0,0.0,0.0,0.0
35.0,5282.0,13548.767810010548,4796.621922001102,-0.0,578.4903827264885,-3980.8924316858834,0.0,11499.456313816674,0.0,0.0,0.0,11499.456313816672,0.8109425235165277,0.17401690531968458,0.740415451895043,0.0,0.0,0.0,"[1.5574138003901545, 0.5029002843097068, 0.993309556609745, 0.5969522377694005, 1.500609064421667, 0.7601237580522202, 1.3437111786392641, 0.7636610716860233]",23.56,0.0,0.0,81.06613818631675,66.7273903629711,1.7172789848097156,-1050.911620919628,-3402.7536839106324,0.0,0.0,0.0,0.0,0.0,0.0,0.0,-1.7,21.853740647870744,0.0,20.801950311562464,0.0,-1.7,23.56,19.55,22.05,22.71,23.0,-2.1,-1.7,325.56,-748.09,-872.9,118.02,0.0,0.0,50.0,0.0,0.0,0.0,0.0,0.0,0.0,0.0,0.0,0.0,0.0,0.0,0.0,0.0,0.0
36.0,3483.0,0.0,4314.6712122003155,-0.0,822.7288078613567,6974.942404338959,0.0,10631.95576718526,0.0,0.0,0.0,10631.955767185258,0.5143888498626604,0.17401690531968458,0.740415451895043,0.0,0.0,0.0,"[1.5574138003901545, 0.5029002843097068, 0.993309556609745, 0.5969522377694005, 1.500609064421667, 0.7601237580522202, 1.3437111786392641, 0.7636610716860233]",21.39,0.0,0.0,90.15197990129285,66.7273903629711,1.7172789848097156,-931.5120340912783,-393.82177086311606,5475.0132918902045,0.0,0.0,0.0,0.0,0.0,0.0,-1.0,21.19900624452808,0.0,20.812178781773355,0.0,-1.0,21.39,19.59,22.04,20.81,21.71,-1.54,-1.0,3364.07,-663.1,-773.72,131.24,0.0,0.0,50.0,0.0,0.0,0.0,0.0,0.0,0.0,0.0,0.0,0.0,0.0,0.0,0.0,0.0,0.0
37.0,5043.0,0.0,4669.212034939827,-0.0,236.24990020546872,9475.96213473436,0.0,11639.13323560945,0.0,0.0,0.0,11639.13323560945,0.1114993033178322,0.17401690531968458,0.7272959183673462,0.0,0.0,0.0,"[1.5574138003901545, 0.5029002843097068, 0.993309556609745, 0.5969522377694005, 1.500609064421667, 0.7601237580522202, 1.3437111786392641, 0.7636610716860233]",23.56,0.0,0.0,63.00708989417201,92.08379870090013,2.3698449990374066,-1009.3035754869086,-3220.745069583754,0.0,0.0,0.0,0.0,0.0,0.0,0.0,-0.7,21.945092036222487,0.0,20.93173122572958,0.0,-0.7,23.56,19.68,22.19,22.69,23.03,-1.26,-0.7,0.0,-718.47,-838.34,91.73,0.0,0.0,69.0,0.0,0.0,0.0,0.0,0.0,0.0,0.0,0.0,0.0,0.0,0.0,0.0,0.0,0.0
38.0,3891.0,22016.86885196951,2016.0130571736477,-0.0,0.22854946398799011,-16000.0,0.0,4910.081463912923,0.0,0.0,0.0,4910.081463912923,0.7648326366511655,0.17401690531968458,0.7272959183673458,0.0,0.0,0.0,"[1.5574138003901545, 0.5029002843097068, 0.993309556609745, 0.5969522377694005, 1.500609064421667, 0.7601237580522202, 1.3437111786392641, 0.7636610716860233]",21.5,0.0,0.0,14.815302516971652,514.011623869708,39.90956360697782,-948.8556500724441,-379.56583770506154,0.0,0.0,0.0,0.0,0.0,0.0,0.0,-1.3,21.32318215679148,0.0,20.939019822497045,0.0,-1.3,21.5,19.71,22.17,20.93,21.83,-1.8,-1.3,3720.53,-675.44,-788.13,21.57,82.0,0.0,342.0,0.0,0.0,0.0,0.0,0.0,0.0,0.0,0.0,0.0,0.0,0.0,0.0,0.0,0.0
39.0,4882.0,0.0,1346.1274657397123,-0.0,0.0,6228.1274657397125,0.0,3201.549693298045,0.0,0.0,0.0,3201.549693298045,0.5000312988220961,0.17401690531968458,0.7272959183673458,0.0,0.0,0.0,"[1.5574138003901545, 0.5029002843097068, 0.993309556609745, 0.5969522377694005, 1.500609064421667, 0.7601237580522202, 1.3437111786392641, 0.7636610716860233]",21.12,0.0,0.0,1.7002605875404284,543.5823937042458,73.53388612955209,-957.78923142434,70.89093643035469,0.0,0.0,0.0,0.0,0.0,0.0,0.0,-1.9,21.164945181728093,0.0,20.89227662179679,0.0,-1.9,21.12,19.72,22.07,20.73,21.65,-2.41,-1.9,0.0,-681.8,-795.55,2.48,166.0,9.0,319.0,0.0,0.0,0.0,0.0,0.0,0.0,0.0,0.0,0.0,0.0,0.0,0.0,0.0,0.0
40.0,7762.0,11766.749658974883,3945.9159106800093,-0.0,0.0,0.0,0.0,9309.49702006088,0.0,0.0,0.0,9309.49702006088,0.5000312988220961,0.17401690531968458,0.7092565597667626,0.0,0.0,0.0,"[1.5574138003901545, 0.5029002843097068, 0.993309556609745, 0.5969522377694005, 1.500609064421667, 0.7601237580522202, 1.3437111786392641, 0.7636610716860233]",20.98,0.0,0.0,0.0,482.0527158537586,227.2647008497179,-960.3087146797021,170.3270389859165,5223.083682006465,0.0,0.0,0.0,0.0,0.0,0.0,-2.1,21.075630411497745,0.0,20.837486775268903,0.0,-2.1,20.98,19.71,21.96,20.66,21.54,-2.62,-2.1,593.89,-683.6,-797.64,0.0,326.0,177.0,171.0,0.0,0.0,0.0,0.0,0.0,0.0,0.0,0.0,0.0,0.0,0.0,0.0,0.0,0.0
41.0,7912.0,0.0,1404.0587972673238,-0.0,0.0,9316.058797267324,0.0,3285.7888412894517,0.0,0.0,0.0,3285.7888412894517,0.10394036356413161,0.17401690531968458,0.7092565597667626,0.0,0.0,0.0,"[1.5574138003901545, 0.5029002843097068, 0.993309556609745, 0.5969522377694005, 1.500609064421667, 0.7601237580522202, 1.3437111786392641, 0.7636610716860233]",23.56,0.0,0.0,0.0,774.388925001849,329.5458371849847,-1075.8764481792596,-3227.9855014113277,2201.1940956653166,0.0,0.0,0.0,0.0,0.0,0.0,-2.3,21.94209639662779,0.0,20.95123326307902,0.0,-2.3,23.56,19.79,22.11,22.75,23.0,-2.81,-2.3,0.0,-765.86,-893.63,0.0,298.0,346.0,387.0,0.0,0.0,0.0,0.0,0.0,0.0,0.0,0.0,0.0,0.0,0.0,0.0,0.0,0.0
42.0,8043.0,43763.97248142567,13207.408619018543,-0.0,0.0,-16000.0,0.0,5477.2793328470125,31473.72,0.0,0.0,30656.255332847017,0.7572736968974649,0.17401690531968458,0.6972303206997073,25178.976000000002,6294.744000000001,31473.72,"[1.5574138003901545, 0.5029002843097068, 0.993309556609745, 0.5969522377694005, 1.500609064421667, 0.7601237580522202, 1.3437111786392641, 0.7636610716860233]",23.03,0.0,0.0,0.0,910.3020832674798,221.18553324349153,-1062.4481992864996,-2357.21529111111,0.0,0.0,0.0,0.0,0.0,0.0,0.0,-2.5,21.857989032369552,0.0,21.0515080456143,0.0,-2.5,23.03,19.87,22.24,22.17,22.66,-3.07,-2.5,3270.05,-756.31,-882.48,0.0,162.0,236.0,572.0,0.0,0.0,0.0,0.0,0.0,0.0,0.0,0.0,0.0,0.0,0.0,0.0,0.0,0.0
43.0,7778.0,9210.19896798541,1386.1479731454833,-0.0,0.0,0.0,0.0,3191.0155013715075,0.0,0.0,0.0,3191.0155013715075,0.7572736968974649,0.17401690531968458,0.6972303206997073,0.0,0.0,0.0,"[1.5574138003901545, 0.5029002843097068, 0.993309556609745, 0.5969522377694005, 1.500609064421667, 0.7601237580522202, 1.3437111786392641, 0.7636610716860233]",21.87,0.0,0.0,0.0,1044.7402150092971,180.8638226801594,-1022.255011362298,-738.698274621273,0.0,0.0,0.0,0.0,0.0,0.0,0.0,-2.7,21.507079141103087,0.0,21.059995953138966,0.0,-2.7,21.87,19.89,22.23,21.26,22.04,-3.29,-2.7,1996.09,-727.69,-849.09,0.0,256.0,115.0,636.0,0.0,0.0,0.0,0.0,0.0,0.0,0.0,0.0,0.0,0.0,0.0,0.0,0.0,0.0
44.0,5694.0,0.0,0.0,-0.0,0.0,5693.999999999996,0.0,0.0,0.0,0.0,0.0,0.0,0.5151818601627712,0.5,0.6972303206997073,0.0,0.0,0.0,"[0.5461057000086278, 0.5029002843097068, 0.830078489310182, 0.5969522377694005, 0.6430764437289049, 0.297761910316666, 0.3209050669129674, 0.7636610716860233]",21.59,0.0,0.0,0.0,971.1293675351985,203.1197583232933,-1018.9076833199795,-398.0930398850342,0.0,0.0,0.0,0.0,0.0,0.0,0.0,-2.9,21.39819608536846,0.0,21.03432165396425,0.0,-2.9,21.59,19.9,22.17,21.1,21.9,-3.46,-2.9,0.0,-725.31,-846.31,0.0,334.0,113.0,540.0,0.0,0.0,0.0,0.0,0.0,0.0,0.0,0.0,0.0,0.0,0.0,0.0,0.0,0.0
45.0,6106.0,1807.2549773779479,3247.296053519438,-0.0,0.0,7555.077351028381,0.0,7351.686620397782,0.0,0.0,0.0,7351.686620397781,0.1939625850340136,0.5,0.6972303206997073,0.0,0.0,0.0,"[0.5461057000086278, 0.5029002843097068, 0.830078489310182, 0.5969522377694005, 0.6430764437289049, 0.297761910316666, 0.3209050669129674, 0.7636610716860233]",21.45,0.0,0.0,0.0,1316.0748560326208,223.34930476435176,-1021.6395495842314,-269.47091518927124,1945.6877556528739,0.0,0.0,0.0,0.0,0.0,0.0,-3.1,21.3286879296345,0.0,21.0018674863694,0.0,-3.1,21.45,19.91,22.1,21.04,21.82,-3.66,-3.1,0.0,-727.26,-848.58,0.0,214.0,195.0,853.0,0.0,0.0,0.0,0.0,0.0,0.0,0.0,0.0,0.0,0.0,0.0,0.0,0.0,0.0
46.0,4562.0,0.0,0.0,-0.0,0.0,4562.0,0.0,3830.6140569006852,0.0,3830.6140569006852,0.0,0.0,0.0,0.48371337560841543,0.6972303206997073,0.0,0.0,0.0,"[0.5461057000086278, 0.5029002843097068, 0.830078489310182, 0.5969522377694005, 0.6430764437289049, 0.297761910316666, 0.3209050669129674, 0.7636610716860233]",22.55,0.0,0.0,0.0,1077.8931921159522,200.37211194759777,-1075.4059402248272,-1737.1070149121874,0.0,0.0,0.0,0.0,0.0,0.0,0.0,-3.3,21.681993453735153,0.0,21.034161019069415,0.0,-3.3,22.55,19.94,22.13,21.86,22.38,-3.9,-3.3,0.0,-765.53,-893.24,0.0,268.0,139.0,652.0,0.0,0.0,0.0,0.0,0.0,0.0,0.0,0.0,0.0,0.0,0.0,0.0,0.0,0.0
47.0,2812.0,8006.573116777324,5154.540251193437,-0.0,0.0,0.0,0.0,11522.155482387308,0.0,0.0,0.0,11522.155482387308,0.0,0.48371337560841543,0.6972303206997073,0.0,0.0,0.0,"[0.5461057000086278, 0.5029002843097068, 0.830078489310182, 0.5969522377694005, 0.6430764437289049, 0.297761910316666, 0.3209050669129674, 0.7636610716860233]",21.76,0.0,0.0,0.0,887.9659673354535,111.89789865020114,-1046.9086938416722,-661.4110036239592,111.67843395533208,0.0,0.0,0.0,0.0,0.0,0.0,-3.4,21.4387929831828,0.0,21.031104077401586,0.0,-3.4,21.76,19.95,22.11,21.2,21.93,-3.99,-3.4,3242.45,-745.24,-869.57,0.0,166.0,57.0,572.0,0.0,0.0,0.0,0.0,0.0,0.0,0.0,0.0,0.0,0.0,0.0,0.0,0.0,0.0
48.0,2463.0,25807.17889283853,7215.142998374335,-0.0,0.0,-16000.0,0.0,15302.89534756614,0.0,0.0,0.0,15302.89534756614,0.6533333333333333,0.48371337560841543,0.6972303206997073,0.0,0.0,0.0,"[0.5461057000086278, 0.5029002843097068, 0.830078489310182, 0.5969522377694005, 0.6430764437289049, 0.297761910316666, 0.3209050669129674, 0.7636610716860233]",21.45,0.0,0.0,0.0,1308.3485266221714,115.84764031526349,-1084.0516177333104,-288.9497491285572,2130.166950309674,0.0,0.0,0.0,0.0,0.0,0.0,-4.6,21.319510804177295,0.0,21.001042889980205,0.0,-4.6,21.45,19.95,22.05,21.02,21.78,-5.17,-4.6,2642.92,-771.68,-900.42,0.0,160.0,49.0,891.0,0.0,0.0,0.0,0.0,0.0,0.0,0.0,0.0,0.0,0.0,0.0,0.0,0.0,0.0
49.0,3499.0,0.0,1483.7618924699752,-0.0,0.0,4982.7618924699755,0.0,2977.2301061094877,0.0,0.0,0.0,2977.2301061094877,0.44148121205484797,0.48371337560841543,0.6972303206997073,0.0,0.0,0.0,"[0.5461057000086278, 0.5029002843097068, 0.830078489310182, 0.5969522377694005, 0.6430764437289049, 0.297761910316666, 0.3209050669129674, 0.7636610716860233]",22.55,0.0,0.0,0.0,901.0304879749405,80.7808034454491,-1179.426053806626,-1758.749076028731,1965.8617864778141,0.0,0.0,0.0,0.0,0.0,0.0,-5.8,21.672128947531565,0.0,21.031091672195988,0.0,-5.8,22.55,19.98,22.08,21.85,22.35,-6.37,-5.8,0.0,-839.58,-979.64,0.0,160.0,9.0,590.0,0.0,0.0,0.0,0.0,0.0,0.0,0.0,0.0,0.0,0.0,0.0,0.0,0.0,0.0
50.0,3298.0,8833.384301688684,5491.21738018024,-0.0,0.0,0.0,0.0,10390.163116598509,0.0,0.0,0.0,10390.163116598509,0.44148121205484797,0.48371337560841543,0.6972303206997073,0.0,0.0,0.0,"[0.5461057000086278, 0.5029002843097068, 0.830078489310182, 0.5969522377694005, 0.6430764437289049, 0.297761910316666, 0.3209050669129674, 0.7636610716860233]",22.55,0.0,0.0,0.0,280.53599695758595,59.280470555631425,-1229.355708325889,-1693.489226229074,2589.9984748463667,0.0,0.0,0.0,0.0,0.0,0.0,-7.0,21.70552777153584,0.0,21.075819168344953,0.0,-7.0,22.55,20.01,22.14,21.83,22.36,-7.6,-7.0,451.54,-875.12,-1021.11,0.0,160.0,0.0,126.0,0.0,0.0,0.0,0.0,0.0,0.0,0.0,0.0,0.0,0.0,0.0,0.0,0.0,0.0
51.0,1510.0,7623.74003599204,6075.62133581208,-0.0,0.0,0.0,0.0,11148.413818199731,0.0,0.0,0.0,11148.41381819973,0.44148121205484797,0.48371337560841543,0.6972303206997073,0.0,0.0,0.0,"[0.5461057000086278, 0.5029002843097068, 0.830078489310182, 0.5969522377694005, 0.6430764437289049, 0.297761910316666, 0.3209050669129674, 0.7636610716860233]",22.55,0.0,0.0,0.0,163.09578991875676,56.25805954236632,-1254.320535585521,-1620.7126976378424,2052.3600322147986,0.0,0.0,0.0,0.0,0.0,0.0,-7.6,21.742452690214357,0.0,21.124687459388444,0.0,-7.6,22.55,20.05,22.2,21.93,22.46,-8.21,-7.6,2947.64,-892.89,-1041.85,0.0,160.0,0.0,38.0,0.0,0.0,0.0,0.0,0.0,0.0,0.0,0.0,0.0,0.0,0.0,0.0,0.0,0.0
52.0,4804.0,0.0,5427.712601028619,-0.0,0.0,10231.71260102862,0.0,9597.330406806726,0.0,0.0,0.0,9597.33040680673,0.006459417793427125,0.48371337560841543,0.6972303206997073,0.0,0.0,0.0,"[0.5461057000086278, 0.5029002843097068, 0.830078489310182, 0.5969522377694005, 0.6430764437289049, 0.297761910316666, 0.3209050669129674, 0.7636610716860233]",22.24,0.0,0.0,0.0,165.69464617499878,61.856389032846,-1270.659436760801,-1156.5760978699357,2816.891369417664,0.0,0.0,0.0,0.0,0.0,0.0,-8.3,21.66916588330634,0.0,21.151664707226963,0.0,-8.3,22.24,20.07,22.24,21.72,22.33,-8.93,-8.3,280.04,-904.52,-1055.42,0.0,160.0,9.0,39.0,0.0,0.0,0.0,0.0,0.0,0.0,0.0,0.0,0.0,0.0,0.0,0.0,0.0,0.0
53.0,2461.0,26092.581024245857,8599.50432246449,-0.0,0.0,-14901.61379666014,0.0,14713.830871656315,0.0,0.0,0.0,14713.830871656315,0.6149419811570496,0.48371337560841543,0.6972303206997073,0.0,0.0,0.0,"[0.5461057000086278, 0.5029002843097068, 0.830078489310182, 0.5969522377694005, 0.6430764437289049, 0.297761910316666, 0.3209050669129674, 0.7636610716860233]",22.55,0.0,0.0,0.0,184.09735804352343,72.7782833762358,-1308.4109946480562,-1522.721654595038,415.0732892242881,0.0,0.0,0.0,0.0,0.0,0.0,-8.9,21.79238970852162,0.0,21.191464247971012,0.0,-8.9,22.55,20.09,22.29,21.99,22.53,-9.55,-8.9,3165.35,-931.39,-1086.78,0.0,160.0,26.0,51.0,0.0,0.0,0.0,0.0,0.0,0.0,0.0,0.0,0.0,0.0,0.0,0.0,0.0,0.0
54.0,1905.0,0.0,0.0,-0.0,0.0,1905.0,0.0,7752.872836126624,0.0,7752.872836126623,0.0,0.0,0.5339470831978659,0.4507504808969927,0.6972303206997073,0.0,0.0,0.0,"[0.5461057000086278, 0.5029002843097068, 0.830078489310182, 0.5969522377694005, 0.6430764437289049, 0.297761910316666, 0.3209050669129674, 0.7636610716860233]",21.45,0.0,0.0,0.0,290.1587890415091,124.64010871748924,-1283.7702358103638,-56.67167452543985,940.2977972366882,0.0,0.0,0.0,0.0,0.0,0.0,-9.4,21.438596473390366,0.0,21.16361258183986,0.0,-9.4,21.45,20.08,22.24,21.13,21.93,-10.05,-9.4,0.0,-913.85,-1066.31,0.0,294.0,35.0,59.0,0.0,0.0,0.0,0.0,0.0,0.0,0.0,0.0,0.0,0.0,0.0,0.0,0.0,0.0
55.0,1476.0,7394.008144858733,5881.03810413444,-0.0,0.0,0.0,0.0,9501.852795644048,0.0,0.0,0.0,9501.852795644047,0.5339470831978659,0.4507504808969927,0.6972303206997073,0.0,0.0,0.0,"[0.5461057000086278, 0.5029002843097068, 0.830078489310182, 0.5969522377694005, 0.6430764437289049, 0.297761910316666, 0.3209050669129674, 0.7636610716860233]",21.45,0.0,0.0,0.0,397.97620399641505,106.95213517394916,-1304.5742585267235,-117.6574666184631,929.878475374349,0.0,0.0,0.0,0.0,0.0,0.0,-9.9,21.40808601428754,0.0,21.12537319421394,0.0,-9.9,21.45,20.07,22.18,21.21,21.95,-10.57,-9.9,450.41,-928.66,-1083.59,0.0,216.0,43.0,180.0,0.0,0.0,0.0,0.0,0.0,0.0,0.0,0.0,0.0,0.0,0.0,0.0,0.0,0.0
56.0,2864.0,0.0,3207.9012055306284,-0.0,0.0,6071.901205530628,0.0,5244.093170039321,0.0,0.0,0.0,5244.093170039321,0.017628953475873677,0.4507504808969927,0.6972303206997073,0.0,0.0,0.0,"[0.5461057000086278, 0.5029002843097068, 0.4429643198569586, 0.5969522377694005, 0.6430764437289085, 0.297761910316666, 0.3209050669129674, 0.7636610716860233]",21.45,0.0,0.0,3.536977963067489,470.53346109636146,138.10357595839747,-1296.2526494401795,-175.54735573424574,875.9405677764928,0.0,0.0,0.0,0.0,0.0,0.0,-9.7,21.378841971694495,0.0,21.088244235378546,0.0,-9.7,21.45,20.05,22.13,21.19,21.91,-10.39,-9.7,820.19,-922.74,-1076.68,5.15,272.0,61.0,203.0,0.0,0.0,0.0,0.0,0.0,0.0,0.0,0.0,0.0,0.0,0.0,0.0,0.0,0.0
57.0,3368.0,0.0,3962.0995876508705,-872.9107366771941,8203.010324328065,0.0,0.0,4207.621453081252,0.0,-3175.9179090591697,0.0,7383.539362140422,0.017628953475873677,0.4637188123589843,0.7002855082780775,0.0,0.0,0.0,"[0.5461057000086278, 0.5029002843097068, 0.4429643198569586, 0.5969522377694005, 0.6430764437289085, 0.297761910316666, 0.3209050669129674, 0.7636610716860233]",21.45,0.0,0.0,978.8432473339616,534.8727132779211,137.55404668325832,-1196.3933404016527,-225.4699158839339,1975.7616818967495,0.0,0.0,0.0,0.0,0.0,0.0,-7.3,21.352396048356464,0.0,21.054553242568083,0.0,-7.3,21.45,20.03,22.08,21.18,21.88,-7.31,-7.3,0.0,-851.65,-993.73,1424.99,286.0,50.0,245.0,0.0,0.0,0.0,0.0,0.0,0.0,0.0,0.0,0.0,0.0,0.0,0.0,0.0,0.0
58.0,5897.0,0.0,0.0,-5483.6201862329435,14132.034332285612,-2751.414146052668,0.0,3170.059882148685,0.0,3170.0598821486856,0.0,0.0,0.12997836443969096,0.45024066660154943,0.7194781789298927,0.0,0.0,0.0,"[0.5461057000086278, 0.5029002843097068, 0.4429643198569586, 0.5969522377694005, 0.6430764437289085, 0.297761910316666, 0.3209050669129674, 0.7636610716860233]",22.55,0.0,0.0,1351.2939667941855,654.2796223485009,122.44199161693282,-1154.461226546994,-1639.090646766835,0.0,0.0,0.0,0.0,0.0,0.0,0.0,-5.2,21.7318670660856,0.0,21.117563050012727,0.0,-5.2,22.55,20.07,22.16,22.24,22.64,-5.06,-5.2,0.0,-821.81,-958.91,1967.2,300.0,13.0,331.0,0.0,0.0,0.0,0.0,0.0,0.0,0.0,0.0,0.0,0.0,0.0,0.0,0.0,0.0
59.0,6775.0,0.0,10965.869447482655,-0.0,17740.869447482655,0.0,0.0,6299.271780991474,0.0,-18213.186482226414,0.0,24512.458263217886,0.12997836443969096,0.5246111780706406,0.7194781789298927,0.0,0.0,0.0,"[0.5461057000086278, 0.5029002843097068, 0.4429643198569586, 0.5969522377694005, 0.6430764437289085, 0.297761910316666, 0.3209050669129674, 0.7636610716860233]",22.19,0.0,0.0,1670.9586225203882,936.5013639047303,95.03421901936973,-1064.697427587695,-1058.206823351901,177.1414106253792,0.0,0.0,0.0,0.0,0.0,0.0,-3.4,21.666208707551192,0.0,21.174435131760106,0.0,-3.4,22.19,20.11,22.24,21.94,22.48,-3.11,-3.4,2081.76,-757.91,-884.35,2432.57,218.0,0.0,587.0,0.0,0.0,0.0,0.0,0.0,0.0,0.0,0.0,0.0,0.0,0.0,0.0,0.0,0.0
60.0,10574.0,0.0,657.0096050429853,-0.0,18300.742373196867,-7069.732768153881,0.0,1531.2752906162293,0.0,0.0,0.0,1531.2752906162293,0.41865911913930776,0.5246111780706406,0.7194781789298927,0.0,0.0,0.0,"[0.5461057000086278, 0.5029002843097068, 0.4429643198569586, 0.5969522377694005, 0.6430764437289085, 0.297761910316666, 0.3209050669129674, 0.7636610716860233]",22.55,0.0,0.0,1721.9635856007624,804.1001735529403,101.38815126316568,-1037.9586993353798,-1441.5596550385537,-98.62210214044295,0.0,0.0,0.0,0.0,0.0,0.0,-2.4,21.830144450166916,0.0,21.248821730839808,0.0,-2.4,22.55,20.16,22.33,22.27,22.75,-2.09,-2.4,0.0,-738.87,-862.14,2506.82,248.0,0.0,472.0,0.0,0.0,0.0,0.0,0.0,0.0,0.0,0.0,0.0,0.0,0.0,0.0,0.0,0.0
61.0,12346.0,0.0,3825.7851761638685,-0.0,16171.785176163869,0.0,0.0,3618.326944874,0.0,-5407.748750376386,0.0,9026.075695250385,0.41865911913930776,0.5466928188013442,0.7194781789298927,0.0,0.0,0.0,"[0.5461057000086278, 0.5029002843097068, 0.4429643198569586, 0.5969522377694005, 0.6430764437289085, 0.297761910316666, 0.3209050669129674, 0.7636610716860233]",22.55,0.0,0.0,1478.5333106721596,340.8013663590903,44.2371066486983,-1025.4762857055641,-1326.6145983929562,0.0,0.0,0.0,0.0,0.0,0.0,0.0,-2.1,21.887985337014467,0.0,21.326753320392775,0.0,-2.1,22.55,20.22,22.43,22.3,22.81,-1.91,-2.1,1290.01,-729.99,-851.77,2152.44,109.0,0.0,198.0,0.0,0.0,0.0,0.0,0.0,0.0,0.0,0.0,0.0,0.0,0.0,0.0,0.0,0.0
62.0,3720.0,0.0,588.7681819321286,-0.0,9035.63384333592,-4726.865661403791,0.0,1349.7751400185753,0.0,0.0,0.0,1349.7751400185753,0.6116728003132959,0.5466928188013442,0.7052653509415545,0.0,0.0,0.0,"[0.5461057000086278, 0.5029002843097068, 0.4429643198569586, 0.5969522377694005, 0.6430764437289085, 0.297761910316666, 0.3209050669129674, 0.7636610716860233]",22.28,0.0,0.0,756.0937453425342,233.54586627039888,6.0104764468340095,-1043.5784560980724,-885.5611374761138,0.0,0.0,0.0,0.0,0.0,0.0,0.0,-2.8,21.84563045121852,0.0,21.379560529850806,0.0,-2.8,22.28,20.27,22.49,22.09,22.69,-3.03,-2.8,0.0,-742.87,-866.8,1100.71,0.0,0.0,175.0,0.0,0.0,0.0,0.0,0.0,0.0,0.0,0.0,0.0,0.0,0.0,0.0,0.0,0.0
63.0,1869.0,4616.815168642045,2724.7310927988347,-0.0,0.0,0.0,0.0,5830.946319364781,0.0,0.0,0.0,5830.946319364781,0.6116728003132959,0.5466928188013442,0.7052653509415545,0.0,0.0,0.0,"[0.5461057000086278, 0.5029002843097068, 0.4429643198569586, 0.5969522377694005, 0.6430764437289085, 0.297761910316666, 0.3209050669129674, 0.7636610716860233]",21.8,0.0,0.0,11.906531681388735,66.7273903629711,1.7172789848097156,-1090.2225420501422,-234.8872217866916,1079.7649717688857,0.0,0.0,0.0,0.0,0.0,0.0,-4.4,21.69519817840786,0.0,21.376781516335807,0.0,-4.4,21.8,20.28,22.47,21.58,22.33,-5.15,-4.4,2552.75,-776.08,-905.55,17.33,0.0,0.0,50.0,0.0,0.0,0.0,0.0,0.0,0.0,0.0,0.0,0.0,0.0,0.0,0.0,0.0,0.0
64.0,5081.0,0.0,1151.9442633687174,-0.0,0.0,6232.944263368718,0.0,2388.2970646813533,0.0,0.0,0.0,2388.2970646813533,0.3466666666666667,0.5466928188013442,0.7052653509415545,0.0,0.0,0.0,"[0.5461057000086278, 0.5029002843097068, 0.4429643198569586, 0.5969522377694005, 0.6430764437289085, 0.297761910316666, 0.3209050669129674, 0.7636610716860233]",21.72,0.0,0.0,0.0,697.8280244801242,93.5917046721296,-1115.8795751708353,-172.43339966181054,0.0,0.0,0.0,0.0,0.0,0.0,0.0,-5.1,21.643562900604582,0.0,21.34595732080988,0.0,-5.1,21.72,20.28,22.41,21.42,22.18,-5.85,-5.1,0.0,-794.34,-926.86,0.0,138.0,50.0,445.0,0.0,0.0,0.0,0.0,0.0,0.0,0.0,0.0,0.0,0.0,0.0,0.0,0.0,0.0
65.0,10195.0,10951.22752795263,701.4713903128666,-0.0,0.0,0.0,0.0,1400.844252090534,0.0,0.0,0.0,1400.844252090534,0.3466666666666667,0.5466928188013442,0.7052653509415545,0.0,0.0,0.0,"[0.5461057000086278, 0.5029002843097068, 0.4429643198569586, 0.5969522377694005, 0.6430764437289085, 0.297761910316666, 0.3209050669129674, 0.7636610716860233]",21.46,0.0,0.0,0.0,706.8889016978328,185.32874804066466,-1138.5183872621042,96.93929611182278,153.2015882767849,0.0,0.0,0.0,0.0,0.0,0.0,-5.9,21.523601961358263,0.0,21.294014909880953,0.0,-5.9,21.46,20.26,22.32,21.16,21.96,-6.63,-5.9,0.0,-810.46,-945.66,0.0,117.0,210.0,446.0,0.0,0.0,0.0,0.0,0.0,0.0,0.0,0.0,0.0,0.0,0.0,0.0,0.0,0.0
66.0,6709.0,25449.167115321787,2612.921279745175,-0.0,0.0,-16000.0,0.0,5018.747475672634,0.0,0.0,0.0,5018.747475672633,1.0,0.5466928188013442,0.7052653509415545,0.0,0.0,0.0,"[0.5461057000086278, 0.5029002843097068, 0.4429643198569586, 0.5969522377694005, 0.6430764437289085, 0.297761910316666, 0.3209050669129674, 0.7636610716860233]",21.45,0.0,0.0,0.0,814.636077294462,183.47408673707014,-1171.4285131420213,31.356809628496293,163.53383478459014,0.0,0.0,0.0,0.0,0.0,0.0,-6.7,21.481837314303863,0.0,21.245667497721435,0.0,-6.7,21.45,20.25,22.25,21.2,21.94,-7.41,-6.7,100.1,-833.88,-973.0,0.0,82.0,221.0,544.0,0.0,0.0,0.0,0.0,0.0,0.0,0.0,0.0,0.0,0.0,0.0,0.0,0.0,0.0
67.0,9162.0,10367.838468605027,1153.9992762620027,-0.0,0.0,0.0,0.0,2139.5247984911357,0.0,0.0,0.0,2139.5247984911352,1.0,0.5466928188013442,0.6620802197462192,0.0,0.0,0.0,"[0.5461057000086278, 0.5029002843097068, 0.4429643198569586, 0.5969522377694005, 0.6430764437289085, 0.297761910316666, 0.3209050669129674, 0.7636610716860233]",21.45,0.0,0.0,0.0,3258.3335911030185,223.62406940192133,-1200.554144944925,-41.90663139298599,-45.46312654488894,0.0,0.0,0.0,0.0,0.0,0.0,-7.4,21.445220943573496,0.0,21.19968260474385,0.0,-7.4,21.45,20.23,22.17,21.19,21.89,-8.12,-7.4,0.0,-854.62,-997.19,0.0,133.0,157.0,2355.0,0.0,0.0,0.0,0.0,0.0,0.0,0.0,0.0,0.0,0.0,0.0,0.0,0.0,0.0
68.0,10558.0,23717.94582494417,1003.325032863191,-0.0,0.0,-12038.03106295626,0.0,1783.6533836675765,0.0,0.0,0.0,1783.6533836675765,1.0,0.5466928188013442,0.6620802197462192,0.0,0.0,0.0,"[0.5461057000086278, 0.5029002843097068, 0.4429643198569586, 0.5969522377694005, 0.6430764437289085, 0.297761910316666, 0.17375786563558648, 0.395789629517747]",22.55,0.0,0.0,0.0,1247.4510029961757,146.99908109971176,-1279.2853628451526,-1569.5352072853307,0.0,0.0,0.0,0.0,0.0,0.0,0.0,-8.2,21.768531904441264,0.0,21.189940909756785,0.0,-8.2,22.55,20.22,22.16,21.7,22.23,-8.91,-8.2,0.0,-910.66,-1062.59,0.0,151.0,107.0,844.0,0.0,0.0,0.0,0.0,0.0,0.0,0.0,0.0,0.0,0.0,0.0,0.0,0.0,0.0
69.0,7517.0,7554.773869346734,0.0,-0.0,0.0,0.0,0.0,4355.581225715907,0.0,4355.581225715907,0.0,0.0,1.0,0.5281741911409875,0.6620802197462192,0.0,0.0,0.0,"[0.5461057000086278, 0.5029002843097068, 0.4429643198569586, 0.5969522377694005, 0.6430764437289085, 0.297761910316666, 0.17375786563558648, 0.395789629517747]",21.8,0.0,0.0,0.0,1409.914638690441,195.3233117322572,-1277.5590572292876,-566.8643032470519,926.917618255868,0.0,0.0,0.0,0.0,0.0,0.0,-8.9,21.532210559161076,0.0,21.174945224819368,0.0,-8.9,21.8,20.21,22.14,21.3,21.96,-9.59,-8.9,1613.25,-909.43,-1061.15,0.0,162.0,173.0,953.0,0.0,0.0,0.0,0.0,0.0,0.0,0.0,0.0,0.0,0.0,0.0,0.0,0.0,0.0
70.0,4554.0,0.0,662.125618810339,-0.0,0.0,5216.125618810339,0.0,1082.4050408176465,0.0,0.0,0.0,1082.4050408176467,0.7782259515811931,0.5281741911409875,0.6620802197462192,0.0,0.0,0.0,"[0.5461057000086278, 0.5029002843097068, 0.4429643198569586, 0.5969522377694005, 0.6430764437289085, 0.297761910316666, 0.17375786563558648, 0.395789629517747]",22.14,0.0,0.0,0.0,995.6429035738058,129.3111075561717,-1324.7817441373886,-1035.0207301102655,0.0,0.0,0.0,0.0,0.0,0.0,0.0,-9.7,21.63175094157139,0.0,21.171857461798265,0.0,-9.7,22.14,20.21,22.13,21.62,22.17,-10.39,-9.7,0.0,-943.05,-1100.37,0.0,92.0,120.0,685.0,0.0,0.0,0.0,0.0,0.0,0.0,0.0,0.0,0.0,0.0,0.0,0.0,0.0,0.0
71.0,3037.0,16734.161971863443,8182.289976237425,-0.0,0.0,-5431.201185766699,0.0,12829.909072811879,0.0,0.0,0.0,12829.909072811877,1.0,0.5281741911409875,0.6620802197462192,0.0,0.0,0.0,"[0.5461057000086278, 0.5029002843097068, 0.4429643198569586, 0.5969522377694005, 0.6430764437289085, 0.297761910316666, 0.17375786563558648, 0.395789629517747]",21.51,0.0,0.0,0.0,768.8400156979808,99.39610764078644,-1327.7011239646458,-215.40922942808677,2743.5008028462016,0.0,0.0,0.0,0.0,0.0,0.0,-10.4,21.414901528182362,0.0,21.137770225885518,0.0,-10.4,21.51,20.19,22.09,21.14,21.83,-11.08,-10.4,2151.7,-945.13,-1102.8,0.0,103.0,75.0,514.0,0.0,0.0,0.0,0.0,0.0,0.0,0.0,0.0,0.0,0.0,0.0,0.0,0.0,0.0
72.0,1567.0,0.0,5416.0671625235755,-0.0,0.0,6983.0671625235755,0.0,8234.280047301532,0.0,0.0,0.0,8234.280047301532,0.7031008859471269,0.5281741911409875,0.6620802197462192,0.0,0.0,0.0,"[0.5461057000086278, 0.5029002843097068, 0.4429643198569586, 0.5969522377694005, 0.6430764437289085, 0.297761910316666, 0.17375786563558648, 0.395789629517747]",22.55,0.0,0.0,0.0,296.48033128642214,88.57725003648521,-1391.627085513495,-1605.201439637362,454.44481711195016,0.0,0.0,0.0,0.0,0.0,0.0,-10.9,21.751701413222364,0.0,21.165389389381534,0.0,-10.9,22.55,20.2,22.13,22.02,22.45,-11.61,-10.9,2237.98,-990.63,-1155.9,0.0,160.0,47.0,133.0,0.0,0.0,0.0,0.0,0.0,0.0,0.0,0.0,0.0,0.0,0.0,0.0,0.0,0.0
73.0,1193.0,12985.545969719238,11727.618239870642,-0.0,0.0,0.0,0.0,17159.184934850884,0.0,0.0,0.0,17159.184934850884,0.7031008859471269,0.5281741911409875,0.6620802197462192,0.0,0.0,0.0,"[0.5461057000086278, 0.5029002843097068, 0.4429643198569586, 0.5969522377694005, 0.6430764437289085, 0.297761910316666, 0.17375786563558648, 0.395789629517747]",21.45,0.0,0.0,0.0,117.15924960572188,64.2949251912758,-1371.1471312190747,-129.36807066522732,3494.3613743933147,0.0,0.0,0.0,0.0,0.0,0.0,-11.5,21.402883744454567,0.0,21.141345851787413,0.0,-11.5,21.45,20.18,22.1,21.16,21.85,-12.23,-11.5,2028.97,-976.05,-1138.89,0.0,160.0,15.0,2.0,0.0,0.0,0.0,0.0,0.0,0.0,0.0,0.0,0.0,0.0,0.0,0.0,0.0,0.0
74.0,1586.0,0.0,9951.217717601312,-0.0,0.0,11537.217717601312,0.0,13895.9804950105,0.0,0.0,0.0,13895.9804950105,0.2125729217633977,0.5281741911409875,0.6620802197462192,0.0,0.0,0.0,"[0.5461057000086278, 0.5029002843097068, 0.4429643198569586, 0.5969522377694005, 0.6430764437289085, 0.297761910316666, 0.17375786563558648, 0.395789629517747]",22.55,0.0,0.0,0.0,222.51828702093948,60.86036722165636,-1445.7175445760301,-1585.824256022327,2755.3189133486826,0.0,0.0,0.0,0.0,0.0,0.0,-12.2,21.76202638031934,0.0,21.17559070586747,0.0,-12.2,22.55,20.19,22.16,22.11,22.52,-12.95,-12.2,691.52,-1029.14,-1200.83,0.0,160.0,5.0,82.0,0.0,0.0,0.0,0.0,0.0,0.0,0.0,0.0,0.0,0.0,0.0,0.0,0.0,0.0
75.0,724.0,1515.1500140477706,5783.289383852646,-0.0,0.0,4999.715119875114,0.0,7855.307965033291,0.0,0.0,0.0,7855.307965033291,0.0,0.5281741911409875,0.6620802197462192,0.0,0.0,0.0,"[0.5461057000086278, 0.5029002843097068, 0.4429643198569586, 0.5969522377694005, 0.6430764437289085, 0.297761910316666, 0.17375786563558648, 0.395789629517747]",22.55,0.0,0.0,0.0,112.38297324289871,54.95292751391094,-1462.3607627491178,-1519.3702033862683,653.1154985462906,0.0,0.0,0.0,0.0,0.0,0.0,-12.6,21.795675622174628,0.0,21.21696080738964,0.0,-12.6,22.55,20.2,22.23,22.02,22.5,-13.35,-12.6,1214.29,-1040.98,-1214.65,0.0,160.0,0.0,0.0,0.0,0.0,0.0,0.0,0.0,0.0,0.0,0.0,0.0,0.0,0.0,0.0,0.0,0.0
76.0,1067.0,7881.353115706816,6774.946350128283,-0.0,0.0,0.0,0.0,8943.902073742885,0.0,0.0,0.0,8943.902073742885,0.0,0.5281741911409875,0.6620802197462192,0.0,0.0,0.0,"[0.5461057000086278, 0.5029002843097068, 0.4429643198569586, 0.5969522377694005, 0.6430764437289085, 0.297761910316666, 0.17375786563558648, 0.395789629517747]",21.45,0.0,0.0,0.0,225.96001557650317,70.16801931932504,-1433.5591993681537,-50.54155590869282,1196.2228512876509,0.0,0.0,0.0,0.0,0.0,0.0,-13.0,21.44323728515975,0.0,21.188110844312973,0.0,-13.0,21.45,20.18,22.2,21.18,21.92,-13.74,-13.0,1189.13,-1020.48,-1190.73,0.0,160.0,20.0,83.0,0.0,0.0,0.0,0.0,0.0,0.0,0.0,0.0,0.0,0.0,0.0,0.0,0.0,0.0
77.0,1930.0,14703.645781968067,12700.127553058226,-0.0,0.0,0.0,0.0,16281.695271827002,0.0,0.0,0.0,16281.695271827002,0.0,0.5281741911409875,0.6620802197462192,0.0,0.0,0.0,"[0.5461057000086278, 0.5029002843097068, 0.4429643198569586, 0.5969522377694005, 0.6430764437289085, 0.297761910316666, 0.17375786563558648, 0.395789629517747]",21.45,0.0,0.0,0.0,143.85020575091036,76.65933388190577,-1450.2024175412416,-111.2634085775455,3517.710401352619,0.0,0.0,0.0,0.0,0.0,0.0,-13.4,21.41281499481672,0.0,21.14742817644521,0.0,-13.4,21.45,20.15,22.14,21.25,21.94,-14.15,-13.4,1628.08,-1032.33,-1204.55,0.0,160.0,34.0,20.0,0.0,0.0,0.0,0.0,0.0,0.0,0.0,0.0,0.0,0.0,0.0,0.0,0.0,0.0
78.0,1160.0,12749.671767864622,11525.9234090253,-0.0,0.0,0.0,0.0,14336.83271809447,0.0,0.0,0.0,14336.83271809447,0.0,0.5281741911409875,0.6620802197462192,0.0,0.0,0.0,"[0.5461057000086278, 0.5029002843097068, 0.4429643198569586, 0.5969522377694005, 0.6430764437289085, 0.297761910316666, 0.17375786563558648, 0.395789629517747]",22.55,0.0,0.0,0.0,320.92362796675263,130.20409262827275,-1512.2904172683814,-1571.391011730186,2647.862688465711,0.0,0.0,0.0,0.0,0.0,0.0,-13.8,21.769970469224646,0.0,21.178741452611547,0.0,-13.8,22.55,20.16,22.2,22.11,22.55,-14.55,-13.8,846.67,-1076.53,-1256.12,0.0,320.0,29.0,69.0,0.0,0.0,0.0,0.0,0.0,0.0,0.0,0.0,0.0,0.0,0.0,0.0,0.0,0.0
79.0,950.0,10774.299821169372,9770.428322063524,-0.0,0.0,0.0,0.0,11873.7790241794,0.0,0.0,0.0,11873.7790241794,0.0,0.5281741911409875,0.6620802197462192,0.0,0.0,0.0,"[0.5461057000086278, 0.5029002843097068, 0.4429643198569586, 0.5969522377694005, 0.6430764437289085, 0.297761910316666, 0.17375786563558648, 0.395789629517747]",22.55,0.0,0.0,0.0,138.6524932384263,78.51399518550026,-1524.7728308981973,-1507.5119577371881,656.608968230826,0.0,0.0,0.0,0.0,0.0,0.0,-14.1,21.80228798911694,0.0,21.218199139461845,0.0,-14.1,22.55,20.17,22.27,22.03,22.52,-14.86,-14.1,3161.43,-1085.41,-1266.49,0.0,117.0,60.0,36.0,0.0,0.0,0.0,0.0,0.0,0.0,0.0,0.0,0.0,0.0,0.0,0.0,0.0,0.0
80.0,1131.0,20105.950297659685,8556.588017585778,-0.0,0.0,-10317.832528585595,0.0,10317.053967143242,0.0,0.0,0.0,10317.053967143242,0.4213114949172451,0.4933231151518677,0.6620802197462192,0.0,0.0,0.0,"[0.5461057000086278, 0.5029002843097068, 0.4429643198569586, 0.5969522377694005, 0.6430764437289085, 0.297761910316666, 0.17375786563558648, 0.395789629517747]",21.45,0.0,0.0,2.615296091577371,186.20453879182787,85.48614786382772,-1483.488853887417,-41.182906464025784,1260.4737532890365,0.0,0.0,0.0,0.0,0.0,0.0,-14.2,21.44846295044614,0.0,21.187374038096053,0.0,-14.2,21.45,20.15,22.23,21.19,21.94,-14.95,-14.2,1011.21,-1056.02,-1232.2,3.81,95.0,81.0,81.0,0.0,0.0,0.0,0.0,0.0,0.0,0.0,0.0,0.0,0.0,0.0,0.0,0.0,0.0
81.0,1970.0,0.0,0.0,-0.0,7992.029240336526,0.0,0.0,5419.826316302871,0.0,0.0,0.0,0.0,0.4213114949172451,0.4933231151518677,0.6620802197462192,24088.116961346102,6022.029240336526,30110.146201682626,"[0.5461057000086278, 0.5029002843097068, 0.4429643198569586, 0.5969522377694005, 0.6430764437289085, 0.297761910316666, 0.17375786563558648, 0.395789629517747]",21.45,0.0,0.0,920.3261429535364,297.3232035857439,68.24466685633816,-1387.7903493921626,-100.20793534147278,230.11213837170746,0.0,0.0,0.0,0.0,0.0,0.0,-11.9,21.417472851133496,0.0,21.14588963362739,0.0,-11.9,21.45,20.12,22.18,21.26,21.97,-11.98,-11.9,530.31,-987.9,-1152.71,1339.8,122.0,34.0,155.0,0.0,0.0,0.0,0.0,0.0,0.0,0.0,0.0,0.0,0.0,0.0,0.0,0.0,0.0
82.0,5335.0,0.0,0.0,-0.0,14290.197225934182,-8955.197225934182,0.0,3091.4259324913974,0.0,3091.4259324913974,0.0,0.0,0.7869820483095575,0.4801792974116832,0.6620802197462192,0.0,0.0,0.0,"[0.5461057000086278, 0.5029002843097068, 0.4429643198569586, 0.5969522377694005, 0.6430764437289085, 0.297761910316666, 0.17375786563558648, 0.395789629517747]",21.45,0.0,0.0,1323.3793417378367,1382.310570887654,82.42939127086642,-1308.7350630699952,-119.5801709660156,0.0,0.0,0.0,0.0,0.0,0.0,0.0,-10.0,21.406806202767264,0.0,21.13136739331631,0.0,-10.0,21.45,20.11,22.16,21.43,22.09,-9.83,-10.0,74.54,-931.63,-1087.05,1926.56,144.0,0.0,960.0,0.0,0.0,0.0,0.0,0.0,0.0,0.0,0.0,0.0,0.0,0.0,0.0,0.0,0.0
83.0,4198.0,0.0,7836.761104408141,-0.0,17251.52726825571,-5216.76616384757,0.0,8853.56160169677,0.0,-4854.04961346534,0.0,13707.61121516211,1.0,0.5,0.6620802197462192,0.0,0.0,0.0,"[0.5461057000086278, 0.5029002843097068, 0.4429643198569586, 0.5969522377694005, 0.6430764437289085, 0.297761910316666, 0.17375786563558648, 0.395789629517747]",22.12,0.0,0.0,1575.7011678164145,105.42927677349435,2.713300795999353,-1274.024494009839,-1002.8687493386602,1473.947358245306,0.0,0.0,0.0,0.0,0.0,0.0,-8.5,21.627127339396612,0.0,21.154969200521442,0.0,-8.5,22.12,20.12,22.19,21.87,22.41,-8.19,-8.5,0.0,-906.92,-1058.22,2293.89,0.0,0.0,79.0,0.0,0.0,0.0,0.0,0.0,0.0,0.0,0.0,0.0,0.0,0.0,0.0,0.0,0.0
84.0,6604.0,0.0,846.4712037963116,-11906.513869507547,19356.98507330386,0.0,0.0,1561.2953801037393,0.0,0.0,0.0,1561.2953801037393,1.0,0.5,0.6950066626043645,0.0,0.0,0.0,"[0.5461057000086278, 0.5029002843097068, 0.4429643198569586, 0.5969522377694005, 0.6430764437289085, 0.297761910316666, 0.17375786563558648, 0.395789629517747]",22.55,0.0,0.0,1753.9364925421971,2.669095614518838,0.06869115939238765,-1250.159731042249,-1469.1157713185626,0.0,0.0,0.0,0.0,0.0,0.0,0.0,-7.5,21.818369993564122,0.0,21.23498145325253,0.0,-7.5,22.55,20.16,22.31,22.37,22.81,-7.1,-7.5,0.0,-889.93,-1038.39,2553.37,0.0,0.0,2.0,0.0,0.0,0.0,0.0,0.0,0.0,0.0,0.0,0.0,0.0,0.0,0.0,0.0,0.0
85.0,6962.0,0.0,2233.702666809504,-7931.914422090418,17127.617088899922,0.0,0.0,4183.893518060871,0.0,0.0,0.0,4183.8935180608705,1.0,0.5,0.6839564097289113,0.0,0.0,0.0,"[0.5461057000086278, 0.5029002843097068, 0.4429643198569586, 0.5969522377694005, 0.6430764437289085, 0.297761910316666, 0.17375786563558648, 0.395789629517747]",22.04,0.0,0.0,1562.6330929538894,109.43292019527262,2.8163375350879343,-1216.698643930305,-690.701518363211,1267.4739359201465,0.0,0.0,0.0,0.0,0.0,0.0,-7.2,21.706072382916293,0.0,21.288423132936135,0.0,-7.2,22.04,20.2,22.38,22.01,22.6,-6.89,-7.2,0.0,-866.11,-1010.6,2274.87,0.0,0.0,82.0,0.0,0.0,0.0,0.0,0.0,0.0,0.0,0.0,0.0,0.0,0.0,0.0,0.0,0.0
86.0,4484.0,0.0,2770.9557022090435,-6960.955577645131,14215.911279854174,0.0,0.0,5058.12710730045,0.0,0.0,0.0,5058.12710730045,1.0,0.5,0.6820806871952756,0.0,0.0,0.0,"[0.5461057000086278, 0.5029002843097068, 0.4429643198569586, 0.5969522377694005, 0.6430764437289085, 0.297761910316666, 0.17375786563558648, 0.395789629517747]",22.55,0.0,0.0,1316.119100294621,0.0,0.0,-1258.4813401287927,-1286.851759350965,0.0,0.0,0.0,0.0,0.0,0.0,0.0,-7.7,21.910388417068443,0.0,21.356221628196167,0.0,-7.7,22.55,20.24,22.47,22.39,22.89,-7.54,-7.7,2143.15,-895.85,-1045.31,1915.99,0.0,0.0,0.0,0.0,0.0,0.0,0.0,0.0,0.0,0.0,0.0,0.0,0.0,0.0,0.0,0.0,0.0
87.0,2814.0,26956.0530595196,22371.548398199157,-0.0,0.7717777856679999,4698.523826191487,0.0,11871.470582408214,31675.1,0.0,0.0,37211.55058240822,0.7812048349203102,0.5,0.6820806871952756,25340.08,6335.02,31675.1,"[0.5461057000086278, 0.5029002843097068, 0.4429643198569586, 0.5969522377694005, 0.6430764437289085, 0.297761910316666, 0.17375786563558648, 0.395789629517747]",21.91,0.0,0.0,18.383086756193748,214.0895640277221,45.74831215533086,-1302.8465106283124,-378.5959064652668,499.05089583538165,0.0,0.0,0.0,0.0,0.0,0.0,-9.4,21.73507882828447,0.0,21.379681122591933,0.0,-9.4,21.91,20.26,22.5,21.83,22.52,-10.09,-9.4,0.0,-927.43,-1082.16,26.76,118.0,3.0,98.0,0.0,0.0,0.0,0.0,0.0,0.0,0.0,0.0,0.0,0.0,0.0,0.0,0.0,0.0
88.0,3523.0,0.0,6697.337717325695,-0.0,0.0,10220.337717325696,0.0,11267.663013816933,0.0,0.0,0.0,11267.663013816933,0.3466666666666667,0.5,0.6492818533760336,0.0,0.0,0.0,"[0.5461057000086278, 0.5029002843097068, 0.4429643198569586, 0.5969522377694005, 0.6430764437289085, 0.297761910316666, 0.17375786563558648, 0.395789629517747]",21.45,0.0,0.0,0.0,305.75192657896133,110.14627408569527,-1275.4486267238199,175.1120656134759,2865.129762455742,0.0,0.0,0.0,0.0,0.0,0.0,-9.2,21.55531580342577,0.0,21.328650318387773,0.0,-9.2,21.45,20.24,22.42,21.22,22.05,-9.9,-9.2,0.0,-907.93,-1059.4,0.0,116.0,105.0,157.0,0.0,0.0,0.0,0.0,0.0,0.0,0.0,0.0,0.0,0.0,0.0,0.0,0.0,0.0
89.0,8844.0,27199.542001566544,2219.5442915587114,-0.0,0.0,-16000.0,0.0,3776.501069771166,0.0,0.0,0.0,3776.5010697711655,1.0,0.5,0.6492818533760336,0.0,0.0,0.0,"[0.5461057000086278, 0.5029002843097068, 0.4429643198569586, 0.5969522377694005, 0.6430764437289085, 0.297761910316666, 0.17375786563558648, 0.395789629517747]",22.55,0.0,0.0,0.0,1092.502978637529,224.8261646912881,-1312.571799191328,-1312.7966557115637,0.0,0.0,0.0,0.0,0.0,0.0,0.0,-9.0,21.89820545836421,0.0,21.34468528942369,0.0,-9.0,22.55,20.25,22.44,22.11,22.65,-9.66,-9.0,0.0,-934.36,-1090.23,0.0,155.0,238.0,712.0,0.0,0.0,0.0,0.0,0.0,0.0,0.0,0.0,0.0,0.0,0.0,0.0,0.0,0.0
90.0,10092.0,11966.27900839348,1814.447613351512,-0.0,0.0,0.0,0.0,3121.8342158545456,0.0,0.0,0.0,3121.8342158545456,1.0,0.5,0.6492818533760336,0.0,0.0,0.0,"[0.5461057000086278, 0.5029002843097068, 0.4429643198569586, 0.5969522377694005, 0.6430764437289085, 0.297761910316666, 0.17375786563558648, 0.395789629517747]",21.87,0.0,0.0,0.0,2483.8041873846146,249.9671290289025,-1276.2741217375758,-418.60645683357484,0.0,0.0,0.0,0.0,0.0,0.0,0.0,-8.8,21.675995725328328,0.0,21.322250185633173,0.0,-8.8,21.87,20.24,22.4,21.42,22.17,-9.44,-8.8,0.0,-908.52,-1060.08,0.0,143.0,227.0,1762.0,0.0,0.0,0.0,0.0,0.0,0.0,0.0,0.0,0.0,0.0,0.0,0.0,0.0,0.0
91.0,7909.0,0.0,1776.261382311833,-0.0,0.0,9685.261382311834,0.0,3073.0668276633387,0.0,0.0,0.0,3073.0668276633387,0.5882116759221159,0.5,0.6410821449212231,0.0,0.0,0.0,"[0.5461057000086278, 0.5029002843097068, 0.4429643198569586, 0.5969522377694005, 0.6430764437289085, 0.297761910316666, 0.17375786563558648, 0.395789629517747]",22.38,0.0,0.0,0.0,1559.5947111783264,208.68374223407682,-1293.276606760267,-1149.9135669432828,0.0,0.0,0.0,0.0,0.0,0.0,0.0,-8.7,21.816326109422643,0.0,21.305505071866122,0.0,-8.7,22.38,20.24,22.37,21.67,22.32,-9.32,-8.7,0.0,-920.62,-1074.21,0.0,144.0,198.0,1072.0,0.0,0.0,0.0,0.0,0.0,0.0,0.0,0.0,0.0,0.0,0.0,0.0,0.0,0.0
92.0,6847.0,9427.43712340971,2533.2999377926626,-0.0,0.0,0.0,0.0,4431.102361806493,0.0,0.0,0.0,4431.102361806493,0.5882116759221159,0.5,0.6410821449212231,0.0,0.0,0.0,"[0.41063810920952193, 0.5029002843097103, 0.1493976697225179, 0.09075643532713684, 0.21956386927045557, 0.297761910316666, 0.1737578656355936, 0.27071670011460824]",22.03,0.0,0.0,0.0,961.3660967347217,142.6371924782951,-1270.2916827020013,-691.3941058665773,0.0,0.0,0.0,0.0,0.0,0.0,0.0,-8.5,21.694695629978085,0.0,21.28743111227901,0.0,-8.5,22.03,20.24,22.34,21.48,22.18,-9.1,-8.5,0.0,-904.26,-1055.11,0.0,130.0,123.0,639.0,0.0,0.0,0.0,0.0,0.0,0.0,0.0,0.0,0.0,0.0,0.0,0.0,0.0,0.0
93.0,5570.0,9649.084344240908,4030.8389225197034,-0.0,0.0,0.0,0.0,7127.365761537757,0.0,0.0,0.0,7127.365761537757,0.5882116759221159,0.5,0.6410821449212231,0.0,0.0,0.0,"[0.41063810920952193, 0.5029002843097103, 0.1493976697225179, 0.09075643532713684, 0.21956386927045557, 0.297761910316666, 0.1737578656355936, 0.27071670011460824]",21.59,0.0,0.0,0.0,1043.7568639934218,138.75614197262516,-1243.6379275070026,-145.2200175625133,1852.6680010281514,0.0,0.0,0.0,0.0,0.0,0.0,-8.3,21.529016707439197,0.0,21.247104294546226,0.0,-8.3,21.59,20.22,22.28,21.22,21.98,-8.89,-8.3,1373.44,-885.29,-1032.98,0.0,155.0,100.0,690.0,0.0,0.0,0.0,0.0,0.0,0.0,0.0,0.0,0.0,0.0,0.0,0.0,0.0,0.0
94.0,5124.0,0.0,2009.876339799441,-0.0,0.0,7133.876339799441,0.0,3592.2030192836514,0.0,0.0,0.0,3592.2030192836514,0.28490060705309206,0.5,0.6203095501690364,0.0,0.0,0.0,"[0.41063810920952193, 0.5029002843097103, 0.1493976697225179, 0.09075643532713684, 0.21956386927045557, 0.297761910316666, 0.1737578656355936, 0.27071670011460824]",22.41,0.0,0.0,0.0,1108.236594891535,92.11484474519321,-1269.4880166292503,-1270.3893333326298,0.0,0.0,0.0,0.0,0.0,0.0,0.0,-8.1,21.78363369176355,0.0,21.254943156081474,0.0,-8.1,22.41,20.22,22.28,21.88,22.42,-8.67,-8.1,0.0,-903.69,-1054.45,0.0,84.0,59.0,780.0,0.0,0.0,0.0,0.0,0.0,0.0,0.0,0.0,0.0,0.0,0.0,0.0,0.0,0.0
95.0,4417.0,8233.96078910028,3775.790985154778,-0.0,0.0,0.0,0.0,6820.370793679943,0.0,0.0,0.0,6820.370793679943,0.28490060705309206,0.5,0.6203095501690362,0.0,0.0,0.0,"[0.41063810920952193, 0.5029002843097103, 0.1493976697225179, 0.09075643532713684, 0.21956386927045557, 0.297761910316666, 0.1737578656355936, 0.27071670011460824]",21.73,0.0,0.0,0.0,632.5054212826893,134.46294451060083,-1232.8573696548294,-372.1478995271102,2204.203104262515,0.0,0.0,0.0,0.0,0.0,0.0,-7.9,21.555459616355787,0.0,21.227525106912417,0.0,-7.9,21.73,20.21,22.24,21.26,21.99,-8.46,-7.9,776.85,-877.61,-1024.02,0.0,282.0,43.0,321.0,0.0,0.0,0.0,0.0,0.0,0.0,0.0,0.0,0.0,0.0,0.0,0.0,0.0,0.0
96.0,2367.0,1212.2860877151531,0.0,-0.0,0.0,1160.775342723423,0.0,6419.159908440009,0.0,6419.1599084400095,0.0,0.0,0.2355479139100894,0.4727076534505102,0.6071900166413394,0.0,0.0,0.0,"[0.41063810920952193, 0.5029002843097103, 0.1493976697225179, 0.09075643532713684, 0.21956386927045557, 0.297761910316666, 0.1737578656355936, 0.27071670011460824]",22.41,0.0,0.0,0.0,716.0902576320952,78.47964960580407,-1236.2015802830747,-1286.5028461681309,107.35334568040636,0.0,0.0,0.0,0.0,0.0,0.0,-7.3,21.775177931696827,0.0,21.245365455473944,0.0,-7.3,22.41,20.23,22.27,21.92,22.44,-7.87,-7.3,741.12,-879.99,-1026.8,0.0,160.0,13.0,451.0,0.0,0.0,0.0,0.0,0.0,0.0,0.0,0.0,0.0,0.0,0.0,0.0,0.0,0.0
97.0,1793.0,8009.8735224222355,6176.824154810124,-0.0,0.0,0.0,0.0,11922.970741445355,0.0,0.0,0.0,11922.970741445353,0.2355479139100894,0.4727076534505102,0.6071900166413394,0.0,0.0,0.0,"[0.41063810920952193, 0.5029002843097103, 0.1493976697225179, 0.09075643532713684, 0.21956386927045557, 0.297761910316666, 0.1737578656355936, 0.27071670011460824]",21.59,0.0,0.0,0.0,254.75815246999596,68.45074033451532,-1172.9042502713796,-195.6313877551813,2683.383523267212,0.0,0.0,0.0,0.0,0.0,0.0,-6.6,21.502892699509196,0.0,21.21637126732952,0.0,-6.6,21.59,20.21,22.22,21.2,21.93,-7.17,-6.6,1503.17,-834.93,-974.22,0.0,160.0,16.0,105.0,0.0,0.0,0.0,0.0,0.0,0.0,0.0,0.0,0.0,0.0,0.0,0.0,0.0,0.0
98.0,1110.0,0.0,4430.086935165303,-0.0,0.0,5540.086935165303,0.0,8846.92077979086,0.0,0.0,0.0,8846.92077979086,0.0,0.4727076534505102,0.6071900166413394,0.0,0.0,0.0,"[0.41063810920952193, 0.5029002843097103, 0.1493976697225179, 0.09075643532713684, 0.21956386927045557, 0.297761910316666, 0.1737578656355936, 0.27071670011460824]",22.41,0.0,0.0,0.0,171.10307676231332,56.464133020543485,-1177.9503166772677,-1298.8792692503882,2255.9012480050505,0.0,0.0,0.0,0.0,0.0,0.0,-5.9,21.768343991020572,0.0,21.238447288664656,0.0,-5.9,22.41,20.23,22.25,21.96,22.46,-6.45,-5.9,1078.53,-838.53,-978.42,0.0,160.0,0.0,44.0,0.0,0.0,0.0,0.0,0.0,0.0,0.0,0.0,0.0,0.0,0.0,0.0,0.0,0.0
99.0,2546.0,22189.376303647277,3532.429422129041,-0.0,0.0,-16000.0,0.0,7188.994129503672,0.0,0.0,0.0,7188.9941295036715,0.6533333333333333,0.4727076534505102,0.6071900166413394,0.0,0.0,0.0,"[0.41063810920952193, 0.5029002843097103, 0.1493976697225179, 0.09075643532713684, 0.21956386927045557, 0.297761910316666, 0.1737578656355936, 0.27071670011460824]",22.41,0.0,0.0,0.0,143.4990089595263,57.5975371505179,-1161.3070985041797,-1252.275520838196,589.2496478192461,0.0,0.0,0.0,0.0,0.0,0.0,-5.5,21.791654441002695,0.0,21.269606494176443,0.0,-5.5,22.41,20.25,22.29,21.91,22.44,-6.04,-5.5,1171.09,-826.68,-964.59,0.0,160.0,3.0,23.0,0.0,0.0,0.0,0.0,0.0,0.0,0.0,0.0,0.0,0.0,0.0,0.0,0.0,0.0
100.0,1006.0,7294.255033274025,6251.783758107655,-0.0,0.0,0.0,0.0,13021.266178467216,0.0,0.0,0.0,13021.266178467213,0.6533333333333333,0.4727076534505102,0.6071900166413394,0.0,0.0,0.0,"[0.41063810920952193, 0.5029002843097103, 0.1493976697225179, 0.09075643532713684, 0.21956386927045557, 0.297761910316666, 0.1737578656355936, 0.27071670011460824]",21.59,0.0,0.0,0.0,178.3377306648249,70.78623975385652,-1106.3313775790286,-151.0000009254819,2646.5387866702213,0.0,0.0,0.0,0.0,0.0,0.0,-5.0,21.52469212276461,0.0,21.248167496318104,0.0,-5.0,21.59,20.25,22.25,21.27,21.99,-5.53,-5.0,2407.16,-787.54,-918.93,0.0,160.0,23.0,47.0,0.0,0.0,0.0,0.0,0.0,0.0,0.0,0.0,0.0,0.0,0.0,0.0,0.0,0.0
101.0,3177.0,17792.93816337783,6037.177554193591,-0.0,0.0,-8489.795918367347,0.0,6120.659721539007,0.0,-6683.839971303626,0.0,12804.499692842634,1.0,0.5,0.6071900166413388,0.0,0.0,0.0,"[0.41063810920952193, 0.5029002843097103, 0.1493976697225179, 0.09075643532713684, 0.21956386927045557, 0.297761910316666, 0.1737578656355936, 0.27071670011460824]",22.41,0.0,0.0,0.0,192.2451236036336,73.60257728894447,-1123.8598576147324,-1255.3899609021385,492.04751355359053,0.0,0.0,0.0,0.0,0.0,0.0,-4.6,21.789665222349683,0.0,21.27029391207513,0.0,-4.6,22.41,20.27,22.27,21.98,22.48,-5.05,-4.6,818.98,-800.02,-933.49,0.0,160.0,27.0,57.0,0.0,0.0,0.0,0.0,0.0,0.0,0.0,0.0,0.0,0.0,0.0,0.0,0.0,0.0
102.0,6417.0,11308.506384329457,4834.96385240781,-0.0,0.0,0.0,0.0,10392.95448776458,0.0,0.0,0.0,10392.95448776458,1.0,0.5,0.6071900166413388,0.0,0.0,0.0,"[0.41063810920952193, 0.5029002843097103, 0.1493976697225179, 0.09075643532713684, 0.21956386927045557, 0.297761910316666, 0.1737578656355936, 0.27071670011460824]",21.59,0.0,0.0,0.0,236.49591931802496,97.98793887324246,-1077.205745776125,-153.29069497899889,1543.3865483016543,0.0,0.0,0.0,0.0,0.0,0.0,-4.3,21.523213096972498,0.0,21.24975749347417,0.0,-4.3,21.59,20.27,22.23,21.27,21.98,-4.76,-4.3,1888.07,-766.81,-894.74,0.0,222.0,32.0,57.0,0.0,0.0,0.0,0.0,0.0,0.0,0.0,0.0,0.0,0.0,0.0,0.0,0.0,0.0
103.0,1050.0,0.0,4128.91325299116,-0.0,0.0,5178.91325299116,0.0,8993.356155453346,0.0,0.0,0.0,8993.356155453344,0.7798081099918724,0.5,0.6071900166413388,0.0,0.0,0.0,"[0.41063810920952193, 0.5029002843097103, 0.1493976697225179, 0.09075643532713684, 0.21956386927045557, 0.297761910316666, 0.1737578656355936, 0.27071670011460824]",21.91,0.0,0.0,0.0,154.10515205932484,61.34120533740308,-1078.0534289968118,-611.4347442001291,845.4012603785293,0.0,0.0,0.0,0.0,0.0,0.0,-4.0,21.612755964529335,0.0,21.241842330866653,0.0,-4.0,21.91,20.27,22.21,21.58,22.18,-4.45,-4.0,1837.37,-767.41,-895.44,0.0,131.0,24.0,44.0,0.0,0.0,0.0,0.0,0.0,0.0,0.0,0.0,0.0,0.0,0.0,0.0,0.0,0.0
104.0,5542.0,18631.812895480718,2189.6765908540974,-0.0,0.0,-10806.977240149217,0.0,4832.049420601879,0.0,0.0,0.0,4832.049420601879,0.8923652677548491,0.5,0.6071900166413388,0.0,0.0,0.0,"[0.41063810920952193, 0.5029002843097103, 0.1493976697225179, 0.09075643532713684, 0.21956386927045557, 0.297761910316666, 0.1737578656355936, 0.27071670011460824]",21.59,0.0,0.0,0.8542314720981355,206.8549101252104,60.27649236682105,-1052.2409185164931,-205.4975704060308,996.8585205206064,0.0,0.0,0.0,0.0,0.0,0.0,-3.7,21.496643585691476,0.0,21.21925896945566,0.0,-3.7,21.59,20.27,22.17,21.31,21.97,-4.13,-3.7,688.85,-749.04,-874.0,1.24,133.0,19.0,83.0,0.0,0.0,0.0,0.0,0.0,0.0,0.0,0.0,0.0,0.0,0.0,0.0,0.0,0.0
105.0,4796.0,0.0,0.0,-0.0,5.43907958359153,12834.831097594053,0.0,7239.843159459877,0.0,0.0,0.0,0.0,0.3466666666666667,0.5,0.6071900166413388,32177.08070871058,8044.270177177645,40221.35088588822,"[0.41063810920952193, 0.5029002843097103, 0.1493976697225179, 0.09075643532713684, 0.21956386927045557, 0.297761910316666, 0.1737578656355936, 0.27071670011460824]",21.59,0.0,0.0,25.214354567876633,308.21030411864973,73.91168750621023,-989.828850367414,-244.82444669288103,836.55475247603,0.0,0.0,0.0,0.0,0.0,0.0,-2.2,21.476179595329942,0.0,21.19470203423503,0.0,-2.2,21.59,20.26,22.13,21.32,21.96,-2.59,-2.2,2197.58,-704.61,-822.16,36.71,165.0,20.0,142.0,0.0,0.0,0.0,0.0,0.0,0.0,0.0,0.0,0.0,0.0,0.0,0.0,0.0,0.0
106.0,3758.0,23564.329981020248,3707.063106540924,-0.0,18.55477542577994,-16000.0,0.0,9064.042929199835,0.0,0.0,0.0,9064.042929199837,1.0,0.5,0.6071900166413388,0.0,0.0,0.0,"[0.41063810920952193, 0.5029002843097103, 0.1493976697225179, 0.09075643532713684, 0.21956386927045557, 0.297761910316666, 0.1737578656355936, 0.27071670011460824]",21.59,0.0,0.0,31.733893225639758,1109.992578848455,67.90121105937621,-948.2208049346947,-280.53285969223407,1657.8072145039778,0.0,0.0,0.0,0.0,0.0,0.0,-1.2,21.45775620942171,0.0,21.173175456961935,0.0,-1.2,21.59,20.26,22.09,21.31,21.93,-1.56,-1.2,1785.49,-674.99,-787.6,46.2,102.0,10.0,777.0,0.0,0.0,0.0,0.0,0.0,0.0,0.0,0.0,0.0,0.0,0.0,0.0,0.0,0.0
107.0,5597.0,8243.728387890487,2822.1680314927203,-0.0,216.6582855416858,0.0,0.0,7250.168874067338,0.0,0.0,0.0,7250.168874067338,1.0,0.5,0.6071900166413388,0.0,0.0,0.0,"[0.41063810920952193, 0.5029002843097103, 0.1493976697225179, 0.09075643532713684, 0.21956386927045557, 0.297761910316666, 0.1737578656355936, 0.27071670011460824]",22.41,0.0,0.0,60.07612104931712,615.6479752962546,56.84193439720164,-928.3020440809511,-1388.4024332575443,130.54225739515616,0.0,0.0,0.0,0.0,0.0,0.0,0.1,21.720638136725352,0.0,21.193213144713315,0.0,0.1,22.41,20.28,22.11,21.83,22.29,-0.27,0.1,1711.99,-660.81,-771.06,87.46,126.0,0.0,395.0,0.0,0.0,0.0,0.0,0.0,0.0,0.0,0.0,0.0,0.0,0.0,0.0,0.0,0.0
108.0,4478.0,0.0,2031.465461569891,-0.0,530.1932019160979,5979.272259653793,0.0,5431.881012690519,0.0,0.0,0.0,5431.881012690518,0.7457792406609782,0.5,0.6006302498774904,0.0,0.0,0.0,"[0.41063810920952193, 0.5029002843097103, 0.1493976697225179, 0.09075643532713684, 0.21956386927045557, 0.297761910316666, 0.1737578656355936, 0.27071670011460824]",21.67,0.0,0.0,78.42458663324113,1462.5941573980501,86.44782409532115,-851.892369542888,-386.0525955750121,0.0,0.0,0.0,0.0,0.0,0.0,0.0,1.2,21.48850856565985,0.0,21.184566298113236,0.0,1.2,21.67,20.29,22.08,21.26,21.89,0.76,1.2,608.0,-606.42,-707.59,114.17,150.0,0.0,1017.0,0.0,0.0,0.0,0.0,0.0,0.0,0.0,0.0,0.0,0.0,0.0,0.0,0.0,0.0
109.0,9595.0,0.0,2082.7113212521813,-0.0,564.4009006746669,11113.310420577514,0.0,5727.746951929552,0.0,0.0,0.0,5727.746951929552,0.2732745459085329,0.5,0.6006302498774897,0.0,0.0,0.0,"[0.41063810920952193, 0.5029002843097103, 0.1493976697225179, 0.09075643532713684, 0.21956386927045557, 0.297761910316666, 0.1737578656355936, 0.27071670011460824]",21.86,0.0,0.0,82.69712342848624,780.7104672467618,20.09216412227369,-826.5231269406477,-676.6607547898892,1707.7717056280544,0.0,0.0,0.0,0.0,0.0,0.0,2.0,21.532109930683088,0.0,21.16952205533822,0.0,2.0,21.86,20.29,22.05,21.35,21.93,1.56,2.0,1738.89,-588.36,-686.52,120.39,0.0,0.0,585.0,0.0,0.0,0.0,0.0,0.0,0.0,0.0,0.0,0.0,0.0,0.0,0.0,0.0,0.0
110.0,4798.0,4670.943852963516,0.0,-0.0,150.4108663013011,0.0,0.0,1314.2403443135227,0.0,1314.2403443135227,0.0,0.0,0.2732745459085329,0.49441224343404117,0.5858707746588308,0.0,0.0,0.0,"[0.41063810920952193, 0.5029002843097103, 0.1493976697225179, 0.09075643532713684, 0.21956386927045557, 0.297761910316666, 0.1737578656355936, 0.27071670011460824]",22.41,0.0,0.0,62.508446995170736,202.85126670343217,5.22052811382154,-836.7643441289682,-1387.7644132578832,325.9110719493459,0.0,0.0,0.0,0.0,0.0,0.0,2.3,21.72007434760833,0.0,21.201232272919363,0.0,2.3,22.41,20.32,22.08,21.84,22.28,1.83,2.3,303.29,-595.65,-695.02,91.0,0.0,0.0,152.0,0.0,0.0,0.0,0.0,0.0,0.0,0.0,0.0,0.0,0.0,0.0,0.0,0.0,0.0
111.0,2755.0,22794.249158381404,3925.341000012333,-0.0,0.06308742283761291,-16000.0,0.0,10682.97142213161,0.0,0.0,0.0,10682.97142213161,0.9266078792418662,0.49441224343404117,0.5732978883614547,0.0,0.0,0.0,"[0.41063810920952193, 0.5029002843097103, 0.1493976697225179, 0.09075643532713684, 0.21956386927045557, 0.297761910316666, 0.1737578656355936, 0.27071670011460824]",21.59,0.0,0.0,14.949388195218907,170.82211932920603,4.396234201112875,-827.5574731798084,-267.62197775834306,2535.861773293873,0.0,0.0,0.0,0.0,0.0,0.0,1.7,21.463096827938557,0.0,21.194116596587122,0.0,1.7,21.59,20.33,22.06,21.24,21.86,1.21,1.7,1947.46,-589.1,-687.38,21.76,0.0,0.0,128.0,0.0,0.0,0.0,0.0,0.0,0.0,0.0,0.0,0.0,0.0,0.0,0.0,0.0,0.0
112.0,3255.0,0.0,2092.7333906677486,-0.0,0.0,5347.733390667749,0.0,5535.851676122572,0.0,0.0,0.0,5535.851676122571,0.6992382622917068,0.49441224343404117,0.5536185880699095,0.0,0.0,0.0,"[0.41063810920952193, 0.5029002843097103, 0.1493976697225179, 0.09075643532713684, 0.21956386927045557, 0.297761910316666, 0.1737578656355936, 0.27071670011460824]",22.41,0.0,0.0,0.0,76.06922501378706,1.9576980426830766,-895.0156077347756,-1356.3182541885394,543.5285594308934,0.0,0.0,0.0,0.0,0.0,0.0,0.9,21.736526658155103,0.0,21.228120143111806,0.0,0.9,22.41,20.36,22.09,21.95,22.35,0.39,0.9,452.55,-637.12,-743.41,0.0,0.0,0.0,57.0,0.0,0.0,0.0,0.0,0.0,0.0,0.0,0.0,0.0,0.0,0.0,0.0,0.0,0.0
113.0,3466.0,6474.100718974365,2975.7302153794935,-0.0,0.0,0.0,0.0,7899.9881134931875,0.0,0.0,0.0,7899.9881134931875,0.6992382622917068,0.49441224343404117,0.5536185880699095,0.0,0.0,0.0,"[0.41063810920952193, 0.5029002843097103, 0.1493976697225179, 0.09075643532713684, 0.21956386927045557, 0.297761910316666, 0.1737578656355936, 0.27071670011460824]",21.59,0.0,0.0,0.0,13.345478072594215,0.3434557969619424,-856.683104982712,-237.90711342810235,2710.9502262732417,0.0,0.0,0.0,0.0,0.0,0.0,1.0,21.478378208659354,0.0,21.218717989984242,0.0,1.0,21.59,20.37,22.07,21.26,21.87,0.47,1.0,0.0,-609.83,-711.57,0.0,0.0,0.0,10.0,0.0,0.0,0.0,0.0,0.0,0.0,0.0,0.0,0.0,0.0,0.0,0.0,0.0,0.0
114.0,9905.0,0.0,537.2364579073828,-0.0,0.0,10442.236457907384,0.0,1431.3805158018672,0.0,0.0,0.0,1431.3805158018672,0.2552656237752365,0.49441224343404117,0.5536185880699095,0.0,0.0,0.0,"[0.41063810920952193, 0.5029002843097103, 0.1493976697225179, 0.09075643532713684, 0.21956386927045557, 0.297761910316666, 0.1737578656355936, 0.27071670011460824]",22.41,0.0,0.0,0.0,1607.4979535231123,119.31654386457913,-886.6939986482316,-1325.2467187228158,499.1550769435238,0.0,0.0,0.0,0.0,0.0,0.0,1.1,21.752106102717686,0.0,21.252642953167182,0.0,1.1,22.41,20.4,22.11,21.98,22.37,0.57,1.1,0.0,-631.19,-736.5,0.0,164.0,40.0,1114.0,0.0,0.0,0.0,0.0,0.0,0.0,0.0,0.0,0.0,0.0,0.0,0.0,0.0,0.0
115.0,5888.0,7773.457330449827,1846.5900437975783,-0.0,0.0,0.0,0.0,4955.151701151492,0.0,0.0,0.0,4955.151701151492,0.2552656237752365,0.49441224343404117,0.5536185880699095,0.0,0.0,0.0,"[0.41063810920952193, 0.5029002843097103, 0.1493976697225179, 0.09075643532713684, 0.21956386927045557, 0.297761910316666, 0.1737578656355936, 0.27071670011460824]",22.41,0.0,0.0,0.0,874.269292471475,207.2068823071404,-878.3723895616877,-1297.4062732418008,1118.6652093952491,0.0,0.0,0.0,0.0,0.0,0.0,1.3,21.766053022894205,0.0,21.2728421680215,0.0,1.3,22.41,20.42,22.13,21.73,22.2,0.76,1.3,0.0,-625.27,-729.58,0.0,290.0,147.0,487.0,0.0,0.0,0.0,0.0,0.0,0.0,0.0,0.0,0.0,0.0,0.0,0.0,0.0,0.0
116.0,7500.0,23900.397131119724,280.8951454641225,-0.0,0.0,-16000.000000000005,0.0,756.4337149470525,0.0,0.0,0.0,756.4337149470525,0.90859895710857,0.49441224343404117,0.5536185880699095,0.0,0.0,0.0,"[0.41063810920952193, 0.5029002843097103, 0.1493976697225179, 0.09075643532713684, 0.21956386927045557, 0.297761910316666, 0.14288485038690624, 0.27071670011460824]",22.41,0.0,0.0,0.0,1051.2724753290404,174.2351257987939,-874.2115850184158,-1250.8029564085905,0.0,0.0,0.0,0.0,0.0,0.0,0.0,1.4,21.789484706890228,0.0,21.305323767373494,0.0,1.4,22.41,20.44,22.17,21.87,22.31,0.88,1.4,0.0,-622.31,-726.13,0.0,186.0,141.0,675.0,0.0,0.0,0.0,0.0,0.0,0.0,0.0,0.0,0.0,0.0,0.0,0.0,0.0,0.0
117.0,5786.0,0.0,526.3598161428058,-0.0,0.0,6312.359816142805,0.0,1427.4911937727222,0.0,0.0,0.0,1427.4911937727222,0.6402163118644031,0.49441224343404117,0.5536185880699095,0.0,0.0,0.0,"[0.41063810920952193, 0.5029002843097103, 0.1493976697225179, 0.09075643532713684, 0.21956386927045557, 0.297761910316666, 0.14288485038690624, 0.27071670011460824]",21.95,0.0,0.0,0.0,1230.2423602183567,129.3111075561717,-846.603131577667,-616.5884230291687,1038.8350207451654,0.0,0.0,0.0,0.0,0.0,0.0,1.6,21.64522042309899,0.0,21.303084512163263,0.0,1.6,21.95,20.45,22.15,21.48,22.04,1.07,1.6,0.0,-602.66,-703.2,0.0,200.0,53.0,811.0,0.0,0.0,0.0,0.0,0.0,0.0,0.0,0.0,0.0,0.0,0.0,0.0,0.0,0.0
118.0,4185.0,4206.030150753769,0.0,-0.0,0.0,0.0,0.0,5112.341124077004,0.0,5112.341124077004,0.0,0.0,0.6402163118644031,0.4726760991990199,0.5536185880699095,0.0,0.0,0.0,"[0.41063810920952193, 0.5029002843097103, 0.1493976697225179, 0.09075643532713684, 0.21956386927045557, 0.297761910316666, 0.14288485038690624, 0.27071670011460824]",22.41,0.0,0.0,0.0,569.0792807587283,125.6361305286789,-861.7291713886,-1234.3657562784979,0.0,0.0,0.0,0.0,0.0,0.0,0.0,1.7,21.79765044775808,0.0,21.32078938630123,0.0,1.7,22.41,20.47,22.17,21.84,22.28,1.15,1.7,0.0,-613.42,-715.76,0.0,292.0,26.0,270.0,0.0,0.0,0.0,0.0,0.0,0.0,0.0,0.0,0.0,0.0,0.0,0.0,0.0,0.0
119.0,5622.0,2685.8542421847374,0.0,-0.0,0.0,2949.5750290261867,0.0,1362.5785638385048,0.0,1362.5785638385048,0.0,0.0,0.5148092102901605,0.4668828229922235,0.5536185880699095,0.0,0.0,0.0,"[0.41063810920952193, 0.5029002843097103, 0.1493976697225179, 0.09075643532713684, 0.21956386927045557, 0.297761910316666, 0.14288485038690624, 0.27071670011460824]",21.7,0.0,0.0,0.0,399.8024273116122,99.19003416260925,-823.7191914480744,-269.5584436312604,392.0904708293536,0.0,0.0,0.0,0.0,0.0,0.0,1.9,21.569856543184386,0.0,21.308528222068468,0.0,1.9,21.7,20.48,22.14,21.35,21.94,1.35,1.9,0.0,-586.37,-684.19,0.0,260.0,7.0,162.0,0.0,0.0,0.0,0.0,0.0,0.0,0.0,0.0,0.0,0.0,0.0,0.0,0.0,0.0
120.0,2172.0,0.0,1693.5342014942241,-0.0,0.0,3865.5342014942244,0.0,4576.730623677462,0.0,0.0,0.0,4576.730623677461,0.35045826634907956,0.4668828229922235,0.5536185880699095,0.0,0.0,0.0,"[0.41063810920952193, 0.5029002843097103, 0.1493976697225179, 0.09075643532713684, 0.21956386927045557, 0.297761910316666, 0.14288485038690624, 0.27071670011460824]",21.59,0.0,0.0,0.0,388.49389062904544,36.02851310130786,-835.8790822663524,-161.28866480526145,576.8814604832327,0.0,0.0,0.0,0.0,0.0,0.0,1.5,21.516794895080984,0.0,21.28474812443885,0.0,1.5,21.59,20.48,22.09,21.33,21.9,0.92,1.5,42.74,-595.02,-694.29,0.0,80.0,0.0,249.0,0.0,0.0,0.0,0.0,0.0,0.0,0.0,0.0,0.0,0.0,0.0,0.0,0.0,0.0
121.0,2464.0,0.0,0.0,-0.0,0.0,2464.0,0.0,7026.698223458824,0.0,7026.698223458825,0.0,0.0,0.2456963615871748,0.4370074053754768,0.5536185880699095,0.0,0.0,0.0,"[0.41063810920952193, 0.5029002843097103, 0.1493976697225179, 0.09075643532713684, 0.21956386927045557, 0.297761910316666, 0.14288485038690624, 0.27071670011460824]",21.59,0.0,0.0,0.0,387.159342821786,35.994167521611665,-848.3614958961681,-202.35578363309216,2261.804407384346,0.0,0.0,0.0,0.0,0.0,0.0,1.2,21.496237792369506,0.0,21.26026093089954,0.0,1.2,21.59,20.47,22.05,21.32,21.88,0.6,1.2,11.31,-603.91,-704.66,0.0,80.0,0.0,248.0,0.0,0.0,0.0,0.0,0.0,0.0,0.0,0.0,0.0,0.0,0.0,0.0,0.0,0.0
122.0,2994.0,0.0,2784.778424530352,-0.0,0.0,5778.778424530352,0.0,7339.951750745771,0.0,0.0,0.0,7339.951750745771,0.0,0.4370074053754768,0.5536185880699095,0.0,0.0,0.0,"[0.41063810920952193, 0.5029002843097103, 0.1493976697225179, 0.09075643532713684, 0.21956386927045557, 0.297761910316666, 0.14288485038690624, 0.27071670011460824]",22.41,0.0,0.0,0.0,188.31171954013215,30.876676146878708,-899.1764122780475,-1297.2818159515214,1980.9002132009336,0.0,0.0,0.0,0.0,0.0,0.0,0.8,21.766353638081227,0.0,21.288777007941547,0.0,0.8,22.41,20.49,22.08,21.97,22.32,0.19,0.8,558.56,-640.08,-746.86,0.0,80.0,0.0,99.0,0.0,0.0,0.0,0.0,0.0,0.0,0.0,0.0,0.0,0.0,0.0,0.0,0.0,0.0
123.0,2406.0,4720.748767936036,2291.145024096355,-0.0,0.0,0.0,0.0,6017.020286986206,0.0,0.0,0.0,6017.020286986205,0.0,0.4370074053754768,0.5536185880699095,0.0,0.0,0.0,"[0.41063810920952193, 0.5029002843097103, 0.1493976697225179, 0.09075643532713684, 0.21956386927045557, 0.297761910316666, 0.14288485038690624, 0.27071670011460824]",22.41,0.0,0.0,0.0,116.24613794812336,29.02201484328421,-903.3372168213194,-1240.0986850204947,1993.2122427104393,0.0,0.0,0.0,0.0,0.0,0.0,0.7,21.795210110543387,0.0,21.32704411200996,0.0,0.7,22.41,20.52,22.13,21.94,22.33,0.09,0.7,775.83,-643.04,-750.32,0.0,80.0,0.0,45.0,0.0,0.0,0.0,0.0,0.0,0.0,0.0,0.0,0.0,0.0,0.0,0.0,0.0,0.0
124.0,895.0,27368.006212528348,10336.166181465707,-0.0,0.0,-16000.0,0.0,10185.006381695524,0.0,-16762.82623959431,0.0,26947.832621289832,0.6533333333333333,0.5054556125204869,0.5536185880699095,0.0,0.0,0.0,"[0.41063810920952193, 0.5029002843097103, 0.1493976697225179, 0.09075643532713684, 0.21956386927045557, 0.297761910316666, 0.14288485038690624, 0.27071670011460824]",22.41,0.0,0.0,0.0,119.05571227919582,41.38642353391416,-911.483401869886,-1181.2960771869125,1945.571248192846,0.0,0.0,0.0,0.0,0.0,0.0,0.5,21.820695554623047,0.0,21.362736933391606,0.0,0.5,22.41,20.55,22.18,21.96,22.36,-0.09,0.5,883.84,-648.84,-757.09,0.0,80.0,20.0,45.0,0.0,0.0,0.0,0.0,0.0,0.0,0.0,0.0,0.0,0.0,0.0,0.0,0.0,0.0
125.0,931.0,0.0,3220.073179064363,-0.0,0.0,4151.073179064363,0.0,8333.785797038448,0.0,0.0,0.0,8333.785797038448,0.4768421267404608,0.5054556125204869,0.5536185880699095,0.0,0.0,0.0,"[0.41063810920952193, 0.5029002843097103, 0.1493976697225179, 0.09075643532713684, 0.21956386927045557, 0.297761910316666, 0.14288485038690624, 0.27071670011460824]",22.41,0.0,0.0,0.0,121.44385046060741,51.89617092094964,-919.9804349944071,-1138.3040554315915,261.0376952561571,0.0,0.0,0.0,0.0,0.0,0.0,0.3,21.846659963984944,0.0,21.395830238864566,0.0,0.3,22.41,20.57,22.22,21.97,22.39,-0.3,0.3,1999.17,-654.89,-764.14,0.0,80.0,37.0,45.0,0.0,0.0,0.0,0.0,0.0,0.0,0.0,0.0,0.0,0.0,0.0,0.0,0.0,0.0
126.0,1588.0,17282.13102155227,2795.690817231307,-0.0,0.0,-12812.029549213205,0.0,7208.800909011468,0.0,0.0,0.0,7208.800909011468,1.0,0.5054556125204869,0.5536185880699095,0.0,0.0,0.0,"[0.41063810920952193, 0.5029002843097103, 0.1493976697225179, 0.09075643532713684, 0.21956386927045557, 0.297761910316666, 0.14288485038690624, 0.27071670011460824]",21.59,0.0,0.0,0.0,158.31951355593358,79.20090677942414,-889.9695413288875,-35.47165040029639,697.232960268364,0.0,0.0,0.0,0.0,0.0,0.0,0.2,21.580733418325547,0.0,21.375636762722777,0.0,0.2,21.59,20.57,22.19,21.34,21.94,-0.38,0.2,0.0,-633.53,-739.22,0.0,127.0,55.0,46.0,0.0,0.0,0.0,0.0,0.0,0.0,0.0,0.0,0.0,0.0,0.0,0.0,0.0,0.0
127.0,1300.0,3189.5496595165796,1873.6019112189965,-0.0,0.0,0.0,0.0,4813.296057332255,0.0,0.0,0.0,4813.296057332256,1.0,0.5054556125204869,0.5536185880699095,0.0,0.0,0.0,"[0.41063810920952193, 0.5029002843097103, 0.1493976697225179, 0.09075643532713684, 0.21956386927045557, 0.297761910316666, 0.14288485038690624, 0.27071670011460824]",21.59,0.0,0.0,0.0,199.76073493925244,91.90877126701608,-894.1303458721595,-80.1925726988178,693.4597512321236,0.0,0.0,0.0,0.0,0.0,0.0,0.1,21.558250436381076,0.0,21.348173624695754,0.0,0.1,21.59,20.56,22.14,21.4,21.96,-0.5,0.1,735.9,-636.49,-742.67,0.0,142.0,66.0,68.0,0.0,0.0,0.0,0.0,0.0,0.0,0.0,0.0,0.0,0.0,0.0,0.0,0.0,0.0
128.0,1281.0,0.0,2634.5393312424926,-0.0,0.0,3915.5393312424926,0.0,6793.265338509719,0.0,0.0,0.0,6793.265338509719,0.667045975234482,0.5054556125204869,0.5536185880699095,0.0,0.0,0.0,"[0.41063810920952193, 0.5029002843097103, 0.1493976697225179, 0.09075643532713684, 0.21956386927045557, 0.297761910316666, 0.14288485038690624, 0.27071670011460824]",21.59,0.0,0.0,1.7230443615705788,129.5916160207176,56.155022803277745,-889.9695413288875,-120.59592587936652,829.735725721699,0.0,0.0,0.0,0.0,0.0,0.0,0.2,21.537833815865223,0.0,21.323071407834817,0.0,0.2,21.59,20.55,22.1,21.4,21.94,-0.36,0.2,842.22,-633.53,-739.22,2.51,83.0,42.0,49.0,0.0,0.0,0.0,0.0,0.0,0.0,0.0,0.0,0.0,0.0,0.0,0.0,0.0,0.0
129.0,3150.0,0.0,0.0,-0.0,4090.2991192152886,5291.2368807847115,0.0,3394.304824925192,31157.68,28320.44882492519,0.0,0.0,0.44207842077934967,0.385045540985941,0.5536185880699095,24926.144,6231.536,31157.68,"[0.41063810920952193, 0.5029002843097103, 0.1493976697225179, 0.09075643532713684, 0.21956386927045557, 0.297761910316666, 0.14288485038690624, 0.27071670011460824]",21.59,0.0,0.0,482.1741344572433,1039.61274185509,85.82960366078966,-781.7886232038171,-154.37969259639766,0.0,0.0,0.0,0.0,0.0,0.0,0.0,2.8,21.51960239786877,0.0,21.300594783498497,0.0,2.8,21.59,20.54,22.06,21.39,21.92,2.52,2.8,190.36,-556.52,-649.36,701.94,140.0,22.0,703.0,0.0,0.0,0.0,0.0,0.0,0.0,0.0,0.0,0.0,0.0,0.0,0.0,0.0,0.0
130.0,8310.0,0.0,1896.0029404149589,-0.0,10206.002940414959,0.0,0.0,1932.3379073593499,0.0,-3878.4157967425217,0.0,5810.753704101871,0.44207842077934967,0.4008824054893063,0.5536185880699095,0.0,0.0,0.0,"[0.41063810920952193, 0.5029002843097103, 0.1493976697225179, 0.09075643532713684, 0.21956386927045557, 0.297761910316666, 0.14288485038690624, 0.27071670011460824]",21.92,0.0,0.0,919.8210686138291,1414.6206756949875,36.406314477966,-691.4137779676852,-606.6995692072335,-69.35941315777598,0.0,0.0,0.0,0.0,0.0,0.0,5.3,21.618646431415527,0.0,21.30193191686962,0.0,5.3,21.92,20.55,22.05,21.62,22.07,5.23,5.3,0.0,-492.18,-574.29,1339.07,0.0,0.0,1060.0,0.0,0.0,0.0,0.0,0.0,0.0,0.0,0.0,0.0,0.0,0.0,0.0,0.0,0.0
131.0,12839.0,0.0,922.165067966405,-0.0,10143.90892813421,3617.2561398321955,0.0,2958.0642675496715,0.0,0.0,0.0,2958.0642675496715,0.2882835168749196,0.4008824054893063,0.5536185880699095,0.0,0.0,0.0,"[0.41063810920952193, 0.5029002843097103, 0.1493976697225179, 0.09075643532713684, 0.21956386927045557, 0.297761910316666, 0.14288485038690624, 0.27071670011460824]",22.41,0.0,0.0,812.1404412931925,56.05100790489574,1.4425143472401611,-649.5281396817309,-1226.2245476463902,1023.9230733084365,0.0,0.0,0.0,0.0,0.0,0.0,6.8,21.799437130675567,0.0,21.344666116655738,0.0,6.8,22.41,20.58,22.1,22.01,22.36,6.65,6.8,0.0,-462.37,-539.5,1182.31,0.0,0.0,42.0,0.0,0.0,0.0,0.0,0.0,0.0,0.0,0.0,0.0,0.0,0.0,0.0,0.0,0.0
132.0,9247.0,15757.0223796866,716.7261422032578,-0.0,10016.17864151037,-15730.68976709528,0.0,2367.3976463592535,0.0,0.0,0.0,2367.397646359254,0.9306200156979769,0.4008824054893063,0.5536185880699095,0.0,0.0,0.0,"[0.41063810920952193, 0.5029002843097103, 0.1493976697225179, 0.09075643532713684, 0.21956386927045557, 0.297761910316666, 0.14288485038690624, 0.27071670011460824]",22.41,0.0,0.0,774.96984178102,54.71646009763631,1.4081687675439671,-607.9200942490115,-1135.2328833491542,159.3011485290376,0.0,0.0,0.0,0.0,0.0,0.0,7.8,21.844868254012326,0.0,21.406281276368027,0.0,7.8,22.41,20.63,22.18,22.13,22.47,7.64,7.8,0.0,-432.75,-504.94,1128.19,0.0,0.0,41.0,0.0,0.0,0.0,0.0,0.0,0.0,0.0,0.0,0.0,0.0,0.0,0.0,0.0,0.0
133.0,7719.0,0.0,0.0,-0.0,9418.101656376075,-1699.101656376075,0.0,307.2339060149406,0.0,307.2339060149406,0.0,0.0,1.0,0.3995761388820999,0.5536185880699095,0.0,0.0,0.0,"[0.41063810920952193, 0.5029002843097103, 0.1493976697225179, 0.09075643532713684, 0.21956386927045557, 0.297761910316666, 0.14288485038690624, 0.27071670011460824]",22.02,0.0,0.0,742.8964660103452,54.71646009763631,1.4081687675439671,-575.1397316636,-554.2944502763337,0.0,0.0,0.0,0.0,0.0,0.0,0.0,8.2,21.749397091743475,0.0,21.438619534523298,0.0,8.2,22.02,20.67,22.21,21.83,22.28,8.06,8.2,0.0,-409.41,-477.72,1081.5,0.0,0.0,41.0,0.0,0.0,0.0,0.0,0.0,0.0,0.0,0.0,0.0,0.0,0.0,0.0,0.0,0.0
134.0,3453.0,0.0,1087.9030130396743,-3830.368172118039,8371.271185157713,0.0,0.0,3634.9066185552615,0.0,0.0,0.0,3634.906618555261,1.0,0.3995761388820999,0.5631983460600777,0.0,0.0,0.0,"[0.41063810920952193, 0.5029002843097103, 0.1493976697225179, 0.09075643532713684, 0.21956386927045557, 0.297761910316666, 0.14288485038690624, 0.27071670011460824]",21.85,0.0,0.0,681.6930359131678,54.71646009763631,1.4081687675439671,-567.8712642773639,-297.0888685231629,1258.5706479691517,0.0,0.0,0.0,0.0,0.0,0.0,8.2,21.704269491282723,0.0,21.45284004282257,0.0,8.2,21.85,20.69,22.21,21.72,22.2,7.96,8.2,0.0,-404.24,-471.68,992.4,0.0,0.0,41.0,0.0,0.0,0.0,0.0,0.0,0.0,0.0,0.0,0.0,0.0,0.0,0.0,0.0,0.0
135.0,2862.0,0.0,10800.513576220197,-0.0,5373.38698425015,8289.126591970047,0.0,1081.9408473906783,0.0,-33975.139356636326,0.0,35057.08020402701,0.6475711483005933,0.5383079579216983,0.5631983460600777,0.0,0.0,0.0,"[0.41063810920952193, 0.5029002843097103, 0.1493976697225179, 0.09075643532713684, 0.21956386927045557, 0.297761910316666, 0.14288485038690624, 0.27071670011460824]",22.41,0.0,0.0,665.0753521730778,54.71646009763631,1.4081687675439671,-632.8849215086432,-1013.4899609324505,0.0,0.0,0.0,0.0,0.0,0.0,0.0,7.2,21.90650149690114,0.0,21.497439245022882,0.0,7.2,22.41,20.73,22.26,22.17,22.52,6.94,7.2,0.0,-450.52,-525.68,968.21,0.0,0.0,41.0,0.0,0.0,0.0,0.0,0.0,0.0,0.0,0.0,0.0,0.0,0.0,0.0,0.0,0.0
136.0,2602.0,1506.9043836169021,1043.3532034800448,-0.0,0.0,2145.983341781227,0.0,3247.3380364289546,0.0,0.0,0.0,3247.338036428954,0.5563303599595547,0.5383079579216983,0.49486744226999024,0.0,0.0,0.0,"[0.41063810920952193, 0.5029002843097103, 0.1493976697225179, 0.09075643532713684, 0.21956386927045557, 0.297761910316666, 0.14288485038690624, 0.27071670011460824]",21.94,0.0,0.0,0.0,41.79241817470296,2.919374274176516,-671.4344837089589,-338.3523062833871,275.1915437000586,0.0,0.0,0.0,0.0,0.0,0.0,5.8,21.773727308538206,0.0,21.51481390422677,0.0,5.8,21.94,20.76,22.27,21.77,22.25,5.12,5.8,0.0,-477.96,-557.7,0.0,0.0,3.0,31.0,0.0,0.0,0.0,0.0,0.0,0.0,0.0,0.0,0.0,0.0,0.0,0.0,0.0,0.0
137.0,4192.0,0.0,739.290066248726,-0.0,0.0,4931.290066248726,0.0,2272.7788013757936,0.0,0.0,0.0,2272.7788013757936,0.3466666666666667,0.5383079579216983,0.49486744226999024,0.0,0.0,0.0,"[0.41063810920952193, 0.5029002843097103, 0.1493976697225179, 0.09075643532713684, 0.21956386927045557, 0.297761910316666, 0.14288485038690624, 0.27071670011460824]",21.59,0.0,0.0,0.0,831.3530445643433,118.9730880676172,-673.6077050787466,93.68858073887925,0.0,0.0,0.0,0.0,0.0,0.0,0.0,5.4,21.64366446474153,0.0,21.486119418218045,0.0,5.4,21.59,20.76,22.22,21.4,21.96,4.72,5.4,0.0,-479.51,-559.5,0.0,162.0,73.0,530.0,0.0,0.0,0.0,0.0,0.0,0.0,0.0,0.0,0.0,0.0,0.0,0.0,0.0,0.0
138.0,5624.0,23070.985366254423,1331.6304394231527,-0.0,0.0,-16000.0,0.0,4043.0148992597324,0.0,0.0,0.0,4043.0148992597333,1.0,0.5383079579216983,0.48502779212421765,0.0,0.0,0.0,"[0.41063810920952193, 0.5029002843097103, 0.1493976697225179, 0.09075643532713684, 0.21956386927045557, 0.297761910316666, 0.14288485038690624, 0.27071670011460824]",21.77,0.0,0.0,0.0,370.4423755519049,161.63029805029058,-697.7229248571765,-201.33951565349756,1659.5837650561855,0.0,0.0,0.0,0.0,0.0,0.0,5.0,21.67482781685317,0.0,21.458726052421248,0.0,5.0,21.77,20.75,22.16,21.49,21.99,4.35,5.0,372.39,-496.68,-579.53,0.0,101.0,194.0,204.0,0.0,0.0,0.0,0.0,0.0,0.0,0.0,0.0,0.0,0.0,0.0,0.0,0.0,0.0
139.0,6080.0,0.0,436.14652651081076,-0.0,0.0,6516.146526510811,0.0,1307.5697348535239,0.0,0.0,0.0,1307.5697348535239,0.7229529538048125,0.5383079579216983,0.48502779212421765,0.0,0.0,0.0,"[0.41063810920952193, 0.5029002843097103, 0.1493976697225179, 0.09075643532713684, 0.21956386927045557, 0.297761910316666, 0.14288485038690624, 0.27071670011460824]",22.41,0.0,0.0,0.0,893.4446372810446,197.8305390500794,-741.0658396337136,-1053.7749993422935,0.0,0.0,0.0,0.0,0.0,0.0,0.0,4.6,21.887451966676956,0.0,21.48386812987284,0.0,4.6,22.41,20.78,22.19,22.06,22.38,3.98,4.6,0.0,-527.53,-615.54,0.0,101.0,231.0,592.0,0.0,0.0,0.0,0.0,0.0,0.0,0.0,0.0,0.0,0.0,0.0,0.0,0.0,0.0
140.0,6575.0,11537.582966593722,0.0,-0.0,0.0,-4904.8950517607545,0.0,1634.5758300460288,0.0,1634.5758300460288,0.0,0.0,1.0,0.5313582307531353,0.48502779212421765,0.0,0.0,0.0,"[0.41063810920952193, 0.4171704043550015, 0.1493976697225179, 0.0907564353271404, 0.21956386927045912, 0.297761910316666, 0.14288485038690624, 0.20480432033568974]",22.04,0.0,0.0,0.0,1984.472589394761,239.28565374338598,-742.4717900919585,-548.6666834113195,-177.65938547817362,0.0,0.0,0.0,0.0,0.0,0.0,4.2,21.77574232800742,0.0,21.4848147777342,0.0,4.2,22.04,20.78,22.19,21.67,22.11,3.61,4.2,0.0,-528.53,-616.7,0.0,144.0,230.0,1387.0,0.0,0.0,0.0,0.0,0.0,0.0,0.0,0.0,0.0,0.0,0.0,0.0,0.0,0.0
141.0,5791.0,0.0,0.0,-0.0,0.0,5791.0,0.0,875.5570449923032,0.0,875.5570449923032,0.0,0.0,0.7537840136054422,0.5276356242693244,0.4172435355644509,0.0,0.0,0.0,"[0.41063810920952193, 0.4171704043550015, 0.1493976697225179, 0.0907564353271404, 0.21956386927045912, 0.297761910316666, 0.14288485038690624, 0.20480432033568974]",22.41,0.0,0.0,0.0,1090.8172340388858,168.63679630831422,-774.3522759798892,-1047.8625943072477,0.0,0.0,0.0,0.0,0.0,0.0,0.0,3.8,21.890743694503325,0.0,21.491510300399014,0.0,3.8,22.41,20.79,22.19,21.87,22.25,3.23,3.8,0.0,-551.22,-643.18,0.0,109.0,171.0,742.0,0.0,0.0,0.0,0.0,0.0,0.0,0.0,0.0,0.0,0.0,0.0,0.0,0.0,0.0
142.0,4049.0,4069.3467336683416,0.0,-0.0,0.0,0.0,0.0,3489.152741880721,0.0,3489.152741880721,0.0,0.0,0.7537840136054422,0.5128007911830968,0.36039222361109813,0.0,0.0,0.0,"[0.41063810920952193, 0.4171704043550015, 0.1493976697225179, 0.0907564353271404, 0.21956386927045912, 0.297761910316666, 0.14288485038690624, 0.20480432033568974]",22.12,0.0,0.0,0.0,449.7426110464253,92.63002844063614,-778.7820354016682,-642.5203164878232,0.0,0.0,0.0,0.0,0.0,0.0,0.0,3.4,21.801484799378635,0.0,21.492496910166963,0.0,3.4,22.12,20.8,22.18,21.7,22.13,2.83,3.4,0.0,-554.38,-646.86,0.0,81.0,89.0,285.0,0.0,0.0,0.0,0.0,0.0,0.0,0.0,0.0,0.0,0.0,0.0,0.0,0.0,0.0
143.0,2932.0,0.0,1063.4227307096212,-0.0,0.0,3995.422730709621,0.0,6036.6864387194755,0.0,3010.746086264379,0.0,3025.9403524550967,0.5839105981841148,0.5,0.2855015530571623,0.0,0.0,0.0,"[0.41063810920952193, 0.4171704043550015, 0.1493976697225179, 0.0907564353271404, 0.21956386927045912, 0.297761910316666, 0.14288485038690624, 0.20480432033568974]",21.67,0.0,0.0,0.0,391.72490110977884,63.298903380086166,-776.7709406742509,-59.396301464883514,1860.9953884584095,0.0,0.0,0.0,0.0,0.0,0.0,3.0,21.646937471474097,0.0,21.469708315751035,0.0,3.0,21.67,20.79,22.14,21.44,21.94,2.43,3.0,0.0,-552.95,-645.19,0.0,105.0,31.0,235.0,0.0,0.0,0.0,0.0,0.0,0.0,0.0,0.0,0.0,0.0,0.0,0.0,0.0,0.0
144.0,2781.0,0.0,1097.7660095401363,-0.0,0.0,3878.766009540136,0.0,3071.3365136134453,0.0,0.0,0.0,3071.336513613445,0.41899707737033354,0.5,0.2855015530571623,0.0,0.0,0.0,"[0.41063810920952193, 0.4171704043550015, 0.1493976697225179, 0.0907564353271404, 0.21956386927045912, 0.297761910316666, 0.14288485038690624, 0.20480432033568974]",22.41,0.0,0.0,0.0,344.5942917060382,60.92905838104875,-828.4427350424245,-1056.8661822464617,1486.9494106811662,0.0,0.0,0.0,0.0,0.0,0.0,2.5,21.886743447674604,0.0,21.48949568657799,0.0,2.5,22.41,20.81,22.17,22.05,22.37,1.96,2.5,0.0,-589.73,-688.11,0.0,160.0,0.0,174.0,0.0,0.0,0.0,0.0,0.0,0.0,0.0,0.0,0.0,0.0,0.0,0.0,0.0,0.0
145.0,2325.0,0.0,1186.4530895706423,-0.0,0.0,3511.453089570642,0.0,3274.222487589515,0.0,0.0,0.0,3274.2224875895145,0.2697006024736226,0.5,0.2855015530571623,0.0,0.0,0.0,"[0.41063810920952193, 0.4171704043550015, 0.1493976697225179, 0.0907564353271404, 0.21956386927045912, 0.297761910316666, 0.14288485038690624, 0.20480432033568974]",22.41,0.0,0.0,0.0,1019.8754821793059,78.3079217073231,-845.0859532155122,-1016.0574765998762,0.0,0.0,0.0,0.0,0.0,0.0,0.0,2.1,21.907456721398237,0.0,21.516561100674373,0.0,2.1,22.41,20.82,22.21,22.01,22.35,1.6,2.1,95.63,-601.58,-701.94,0.0,160.0,0.0,680.0,0.0,0.0,0.0,0.0,0.0,0.0,0.0,0.0,0.0,0.0,0.0,0.0,0.0,0.0
146.0,1385.0,3959.570589362359,2554.772736415547,-0.0,0.0,0.0,0.0,6928.560029617448,0.0,0.0,0.0,6928.560029617449,0.2697006024736226,0.5,0.2855015530571623,0.0,0.0,0.0,"[0.41063810920952193, 0.4171704043550015, 0.1493976697225179, 0.0907564353271404, 0.21956386927045912, 0.297761910316666, 0.14288485038690624, 0.20480432033568974]",22.02,0.0,0.0,0.0,550.1146540239891,66.21827765426268,-849.7021681596957,-493.1383510381415,1343.2835753117756,0.0,0.0,0.0,0.0,0.0,0.0,1.6,21.78190653107624,0.0,21.507335730943197,0.0,1.6,22.02,20.82,22.19,21.62,22.08,1.13,1.6,1398.94,-604.86,-705.77,0.0,160.0,0.0,328.0,0.0,0.0,0.0,0.0,0.0,0.0,0.0,0.0,0.0,0.0,0.0,0.0,0.0,0.0
147.0,1870.0,68208.07209619605,1887.915528978059,-61285.27055509649,0.0,-2823.8456516405117,0.0,5084.042854252552,0.0,0.0,0.0,5084.0428542525515,0.3850076332489435,0.5,0.5,0.0,0.0,0.0,"[0.41063810920952193, 0.4171704043550015, 0.1493976697225179, 0.0907564353271404, 0.21956386927045912, 0.297761910316666, 0.14288485038690624, 0.20480432033568974]",22.33,0.0,0.0,0.0,251.1759451978786,58.52486780231514,-870.7907232124531,-898.8605170106196,0.0,0.0,0.0,0.0,0.0,0.0,0.0,1.4,21.8845411704438,0.0,21.51989883981573,0.0,1.4,22.33,20.83,22.21,21.96,22.32,0.92,1.4,544.94,-619.87,-723.29,0.0,160.0,0.0,104.0,0.0,0.0,0.0,0.0,0.0,0.0,0.0,0.0,0.0,0.0,0.0,0.0,0.0,0.0
148.0,1388.0,0.0,1664.037210547092,-0.0,0.0,3052.037210547092,0.0,4449.424466904858,0.0,0.0,0.0,4449.424466904858,0.2552441464059549,0.5,0.5,0.0,0.0,0.0,"[0.41063810920952193, 0.4171704043550015, 0.1493976697225179, 0.0907564353271404, 0.21956386927045912, 0.297761910316666, 0.14288485038690624, 0.20480432033568974]",21.59,0.0,0.0,0.0,163.09578991875676,56.25805954236632,-848.3614958961681,82.44657668446715,553.1757121514904,0.0,0.0,0.0,0.0,0.0,0.0,1.2,21.63966680971101,0.0,21.49344096210087,0.0,1.2,21.59,20.82,22.17,21.4,21.92,0.76,1.2,179.4,-603.91,-704.66,0.0,160.0,0.0,38.0,0.0,0.0,0.0,0.0,0.0,0.0,0.0,0.0,0.0,0.0,0.0,0.0,0.0,0.0
149.0,4722.0,0.0,1281.342323468059,-0.0,0.0,6003.3423234680595,0.0,3389.500583633403,0.0,0.0,0.0,3389.500583633403,0.0,0.5,0.5,0.0,0.0,0.0,"[0.41063810920952193, 0.4171704043550015, 0.1493976697225179, 0.0907564353271404, 0.21956386927045912, 0.297761910316666, 0.14288485038690624, 0.20480432033568974]",21.59,0.0,0.0,0.0,191.40225130431187,81.57075177846156,-860.8439095259839,33.497256022574675,563.9644780776366,0.0,0.0,0.0,0.0,0.0,0.0,0.9,21.6151244427652,0.0,21.46202180454887,0.0,0.9,21.59,20.8,22.12,21.46,21.94,0.47,0.9,0.0,-612.79,-715.02,0.0,160.0,40.0,55.0,0.0,0.0,0.0,0.0,0.0,0.0,0.0,0.0,0.0,0.0,0.0,0.0,0.0,0.0
150.0,3153.0,9107.822845351426,1412.135243437826,-0.0,0.0,-4497.148487686844,0.0,3722.0212786262578,0.0,0.0,0.0,3722.0212786262578,0.1836335632472128,0.5,0.5,0.0,0.0,0.0,"[0.41063810920952193, 0.4171704043550015, 0.1493976697225179, 0.0907564353271404, 0.21956386927045912, 0.297761910316666, 0.14288485038690624, 0.20480432033568974]",21.59,0.0,0.0,0.0,461.61306259520643,161.69898920968294,-865.0047140692559,-10.189255239869627,916.7240552906701,0.0,0.0,0.0,0.0,0.0,0.0,0.8,21.593144444253564,0.0,21.43358907423458,0.0,0.8,21.59,20.78,22.08,21.46,21.92,0.4,0.8,0.0,-615.75,-718.48,0.0,298.0,86.0,180.0,0.0,0.0,0.0,0.0,0.0,0.0,0.0,0.0,0.0,0.0,0.0,0.0,0.0,0.0
151.0,1452.0,0.0,2867.0614075744456,-0.0,0.0,4319.061407574445,0.0,7502.163143987181,0.0,0.0,0.0,7502.163143987183,0.0,0.5,0.5,0.0,0.0,0.0,"[0.41063810920952193, 0.4171704043550015, 0.1493976697225179, 0.0907564353271404, 0.21956386927045912, 0.297761910316666, 0.14288485038690624, 0.20480432033568974]",21.91,0.0,0.0,0.0,405.63229404858754,137.5540466832583,-886.8655838908966,-471.75358316375053,185.7759017470542,0.0,0.0,0.0,0.0,0.0,0.0,0.6,21.686203680336348,0.0,21.426007614602582,0.0,0.6,21.91,20.78,22.07,21.7,22.08,0.21,0.6,1584.55,-631.32,-736.64,0.0,300.0,48.0,141.0,0.0,0.0,0.0,0.0,0.0,0.0,0.0,0.0,0.0,0.0,0.0,0.0,0.0,0.0
