,0
import_elec,54585620.803300396
import_th,0.0
consum_elec,13812519.0
consum_th,72562765.29265702
consum_cold,2760720.0722308094
pow_elec_hp,33248606.762179263
pow_th_hp,67243557.48094276
pow_th_gb,0.0
pow_th_chp,0.0
pow_gas_gb,0.0
pow_elec_eh,10222721.150573738
pow_elec_ac,1380360.0361154047
pow_elec_chp,0.0
pow_th_eh_in,40890884.60229495
pow_th_eh_out,51113605.75286869
consum_dhw,4862385.2299999995
gen_pv,5708830.736704492
trans_to_hub,0.0
trans_to_bul,54585620.80330039
dh_to_bul_1,0.0
dh_to_bul_2,0.0
temp_zone_1,3165.5351343824213
temp_zone_2,0.0
temp_amb,-537.8
pow_elec_bat,-246855.13842180706
pow_th_tes,883896.3015979095
soc_bat_avg,68.11708068523394
soc_tes_avg,55.46730238233987
soc_ev_1,80.65020130186647
soc_ev_2,0.0
consum_ev_drive,6561000.0
consum_ev_charge,-2490821.384813585
soc_ev_1_driving,18.71828908554572
soc_ev_2_driving,0.0
obj_cost,13919.3333048416
obj_co2,450117.0430469808
obj_peak,54585620.803300396
emi_factor_elec,1294.0
emi_factor_dh,15986.0
price_elec,10800.0
price_dh,13319.09
slack_ext,0.0
restload_avg,0.0
renovation_cost_construction,9186726.659520004
renovation_cost_hp,456755.6106683336
renovation_cost_pv,1644606.4381736678
renovation_cost_total,11288088.708361996
