,load_elec,grid,hp_elec,ev,pv,bat_pow,cool,load_th_sh,load_th_dhw,tes_pow,dh,hp_th,bat_soc,tes_soc,ev_soc,eh_th_in,eh_elec_in,eh_th_out,temp_slack,temp_zone_1,temp_zone_2,temp_update,Qsolar_1,QconvInt_1,QradInt_1,Qvent_1,Qconduc_1,Qheating_1,Qsolar_2,QconvInt_2,QradInt_2,Qvent_2,Qconduc_2,Qheating_2,temp_amb,temp_aggregate_1,temp_aggregate_2,temp_wall_1,temp_wall_2,_Tamb,_Tz_1,_TEW_1,_TIW_1,_T1_1,_T2_1,_Taeq_1,_Tvent_1,_Qheating_1,_Qinfvent_1,_Qenvelope_1,_Qsolar_1,_Qint_people_1,_Qint_lighting_1,_Qint_appliances_1,_Tz_2,_TEW_2,_TIW_2,_T1_2,_T2_2,_Taeq_2,_Tvent_2,_Qheating_2,_Qinfvent_2,_Qenvelope_2,_Qsolar_2,_Qint_people_2,_Qint_lighting_2,_Qint_appliances_2
8.0,1692.0,57355.68598868209,44444.87149628687,-0.0,0.0,-5230.632062451802,0.0,51121.43430403006,28507.02,0.0,0.0,73927.05030403005,0.7135841425501153,0.5,0.8,22805.616,5701.404,28507.02,"[2.0, 2.0, 2.0, 2.0, 2.0, 2.0, 2.0, 2.0]",20.0,0.0,0.0,1.2242520557446213,1231.787626100447,128.55550480285544,-1223.276535721951,-1064.4332508157895,8880.18495890705,0.0,0.0,0.0,0.0,0.0,0.0,-9.4,19.47629477756384,0.0,19.0,0.0,-9.4,20.0,18.0,20.0,20.0,20.0,-9.96,-9.4,8969.91,-870.79,-1016.06,1.78,88.0,111.0,865.0,0.0,0.0,0.0,0.0,0.0,0.0,0.0,0.0,0.0,0.0,0.0,0.0,0.0,0.0
9.0,1381.0,20319.635904983817,18844.127284068414,-0.0,7.089558609517433,0.0,0.0,32781.41538858478,0.0,0.0,0.0,32781.415388584785,0.7135841425501153,0.5,0.8,0.0,0.0,0.0,"[2.0, 2.0, 2.0, 2.0, 2.0, 2.0, 2.0, 2.0]",24.0,0.0,0.0,37.67524193110265,141.88350371915962,94.79379996149638,-1356.4222811066531,-6211.3050627487655,0.0,0.0,0.0,0.0,0.0,0.0,0.0,-8.6,20.884387124484846,0.0,19.250987421366236,0.0,-8.6,24.0,18.13,20.37,22.56,22.29,-9.13,-8.6,0.0,-965.57,-1126.66,54.85,112.0,89.0,38.0,0.0,0.0,0.0,0.0,0.0,0.0,0.0,0.0,0.0,0.0,0.0,0.0,0.0,0.0
10.0,1337.0,16842.642389281526,15797.174406242519,-0.0,375.74522890740207,0.0,0.0,28986.901537293626,0.0,0.0,0.0,28986.901537293634,0.7135841425501153,0.5,0.7999999999999996,0.0,0.0,0.0,"[2.0, 2.0, 2.0, 2.0, 2.0, 2.0, 2.0, 2.0]",20.32,0.0,0.0,101.62191593824993,663.972653790701,62.74937410494706,-1161.6671735503278,-1020.4731320113442,729.3179675470518,0.0,0.0,0.0,0.0,0.0,0.0,-7.6,19.817114771924473,0.0,19.315464512465773,0.0,-7.6,20.32,18.18,20.46,19.57,20.32,-8.17,-7.6,1055.54,-826.93,-964.89,147.94,95.0,24.0,445.0,0.0,0.0,0.0,0.0,0.0,0.0,0.0,0.0,0.0,0.0,0.0,0.0,0.0,0.0
11.0,1070.0,15165.28094608884,15086.502019572545,-0.0,1067.0474782141487,0.0,0.0,28833.45283252674,0.0,0.0,0.0,28833.45283252674,0.7135841425501153,0.5,0.7999999999999996,0.0,0.0,0.0,"[2.0, 2.0, 2.0, 2.0, 2.0, 2.0, 2.0, 2.0]",20.0,0.0,0.0,136.5893883809093,125.79869067376974,49.7667449797856,-1115.0956175968804,-598.3652182475372,9348.593969817204,0.0,0.0,0.0,0.0,0.0,0.0,-6.8,19.71002189564991,0.0,19.305391629557448,0.0,-6.8,20.0,18.18,20.43,19.53,20.28,-7.35,-6.8,7969.19,-793.78,-926.21,198.85,143.0,0.0,19.0,0.0,0.0,0.0,0.0,0.0,0.0,0.0,0.0,0.0,0.0,0.0,0.0,0.0,0.0
12.0,2998.0,25072.06508122327,24454.928039850893,-0.0,2506.2232840337383,0.0,0.0,48137.28748078426,0.0,0.0,0.0,48137.28748078426,0.7135841425501153,0.5,0.7999999999999996,0.0,0.0,0.0,"[2.0, 2.0, 2.0, 2.0, 2.0, 2.0, 2.0, 2.0]",24.0,0.0,0.0,192.97366021144038,851.581979748065,66.49304229183224,-1256.5629720681266,-5760.63430034316,2328.790721937359,0.0,0.0,0.0,0.0,0.0,0.0,-6.2,21.11044269374234,0.0,19.54909914371392,0.0,-6.2,24.0,18.32,20.77,22.77,22.61,-6.72,-6.2,0.0,-894.49,-1043.71,280.93,137.0,0.0,566.0,0.0,0.0,0.0,0.0,0.0,0.0,0.0,0.0,0.0,0.0,0.0,0.0,0.0,0.0
13.0,981.0,0.0,14528.532527901827,-0.0,438.30591229328786,15071.226615608539,0.0,28736.591440189037,0.0,0.0,0.0,28736.591440189033,0.072800698008936,0.5,0.7999999999999996,0.0,0.0,0.0,"[2.0, 2.0, 2.0, 2.0, 2.0, 2.0, 2.0, 2.0]",22.19,0.0,0.0,101.28127129813423,149.4693544130553,3.8467049259737656,-1177.1641628827726,-3035.379254170045,0.0,0.0,0.0,0.0,0.0,0.0,0.0,-6.1,20.674509230935055,0.0,19.697383039054877,0.0,-6.1,22.19,18.42,20.97,21.0,21.51,-6.65,-6.1,3362.12,-837.97,-977.76,147.44,0.0,0.0,112.0,0.0,0.0,0.0,0.0,0.0,0.0,0.0,0.0,0.0,0.0,0.0,0.0,0.0,0.0
14.0,1717.0,0.0,0.0,-0.0,4.7275828298251685,1712.2724171701748,0.0,16389.010761107493,0.0,16389.01076110749,0.0,0.0,0.0,0.4303188317980124,0.7999999999999996,0.0,0.0,0.0,"[2.0, 2.0, 2.0, 2.0, 2.0, 2.0, 2.0, 2.0]",20.2,0.0,0.0,33.08596534067914,405.4215759737571,63.47063127856714,-1114.9445743144695,-285.9410719406217,517.2286376258478,0.0,0.0,0.0,0.0,0.0,0.0,-6.6,20.06379501644799,0.0,19.69522610215672,0.0,-6.6,20.2,18.44,20.95,19.66,20.59,-7.13,-6.6,0.0,-793.68,-926.08,48.17,163.0,0.0,218.0,0.0,0.0,0.0,0.0,0.0,0.0,0.0,0.0,0.0,0.0,0.0,0.0,0.0,0.0
15.0,1135.0,6653.252537203675,5484.986274517657,-0.0,0.0,0.0,0.0,10221.502807483117,0.0,0.0,0.0,10221.502807483117,0.0,0.4303188317980124,0.7999999999999996,0.0,0.0,0.0,"[2.0, 2.0, 2.0, 2.0, 2.0, 2.0, 2.0, 2.0]",20.0,0.0,0.0,3.673265832975757,813.2312901289258,62.5776462064661,-1135.8996403132403,-85.19847843924795,349.03949729096905,0.0,0.0,0.0,0.0,0.0,0.0,-7.3,19.968773586021634,0.0,19.65466887573168,0.0,-7.3,20.0,18.45,20.86,19.64,20.52,-7.81,-7.3,5612.07,-808.59,-943.49,5.35,128.0,0.0,542.0,0.0,0.0,0.0,0.0,0.0,0.0,0.0,0.0,0.0,0.0,0.0,0.0,0.0,0.0
16.0,1370.0,12206.026898352407,10774.996763860645,-0.0,0.0,0.0,0.0,20182.38138285218,0.0,0.0,0.0,20182.38138285218,0.0,0.4303188317980124,0.7865735767991403,0.0,0.0,0.0,"[2.0, 2.0, 2.0, 2.0, 2.0, 2.0, 2.0, 2.0]",20.0,0.0,0.0,0.0,590.2915669583256,64.43230751006057,-1131.7388357699683,-162.30506849109537,8585.80121292338,0.0,0.0,0.0,0.0,0.0,0.0,-7.2,19.929874786540594,0.0,19.60892815063169,0.0,-7.2,20.0,18.44,20.78,19.59,20.45,-7.69,-7.2,0.0,-805.63,-940.03,0.0,106.0,24.0,384.0,0.0,0.0,0.0,0.0,0.0,0.0,0.0,0.0,0.0,0.0,0.0,0.0,0.0,0.0
17.0,1845.0,5311.4302347210705,3439.8730835474657,-0.0,0.0,0.0,0.0,6508.728386433269,0.0,0.0,0.0,6508.728386433269,0.0,0.4303188317980124,0.7747583243823841,0.0,0.0,0.0,"[2.0, 2.0, 2.0, 2.0, 2.0, 2.0, 2.0, 2.0]",24.0,0.0,0.0,0.0,1208.538398510822,79.47567141699372,-1289.8494084143022,-5378.724681125584,5389.904514432406,0.0,0.0,0.0,0.0,0.0,0.0,-7.0,21.303190884586353,0.0,19.81830490785233,0.0,-7.0,24.0,18.56,21.07,22.75,22.71,-7.49,-7.0,0.0,-918.18,-1071.36,0.0,92.0,30.0,854.0,0.0,0.0,0.0,0.0,0.0,0.0,0.0,0.0,0.0,0.0,0.0,0.0,0.0,0.0
18.0,4976.0,22325.784828121847,17238.15590398124,-0.0,0.0,0.0,0.0,32781.37567137169,0.0,0.0,0.0,32781.37567137169,0.0,0.4303188317980124,0.7747583243823841,0.0,0.0,0.0,"[2.0, 2.0, 2.0, 2.0, 2.0, 2.0, 2.0, 2.0]",24.0,0.0,0.0,0.0,2426.6995891055676,147.3768824763699,-1285.68860387103,-5031.336289034815,3760.2765229980805,0.0,0.0,0.0,0.0,0.0,0.0,-6.9,21.478181546501308,0.0,20.046905885675102,0.0,-6.9,24.0,18.7,21.39,22.4,22.62,-7.39,-6.9,0.0,-915.22,-1067.9,0.0,142.0,63.0,1737.0,0.0,0.0,0.0,0.0,0.0,0.0,0.0,0.0,0.0,0.0,0.0,0.0,0.0,0.0
19.0,2792.0,5717.6808388272,2897.092434633064,-0.0,0.0,0.0,0.0,5536.948058409454,0.0,0.0,0.0,5536.948058409454,0.0,0.4303188317980124,0.7425349087003218,0.0,0.0,0.0,"[2.0, 2.0, 2.0, 2.0, 2.0, 2.0, 2.0, 2.0]",24.0,0.0,0.0,0.0,557.3493079265007,105.26920176883564,-1281.5277993277582,-4742.1731033998785,0.0,0.0,0.0,0.0,0.0,0.0,0.0,-6.8,21.623830628202672,0.0,20.239090362944385,0.0,-6.8,24.0,18.83,21.65,22.28,22.65,-7.29,-6.8,0.0,-912.26,-1064.45,0.0,83.0,104.0,363.0,0.0,0.0,0.0,0.0,0.0,0.0,0.0,0.0,0.0,0.0,0.0,0.0,0.0,0.0
20.0,3569.0,3586.934673366834,0.0,-0.0,0.0,0.0,0.0,0.0,0.0,0.0,0.0,0.0,0.22268005435054927,0.4303188317980124,0.7425349087003218,0.0,0.0,0.0,"[1.4221438308208185, 2.0, 0.996138542511126, 1.4123820692520255, 1.126097951466427, 0.9147383723645781, 1.4833026877160123, 1.7930980839504613]",21.29,0.0,0.0,0.0,594.0844923052733,111.34836937506205,-1160.5563277410126,-950.344008644431,0.0,0.0,0.0,0.0,0.0,0.0,0.0,-6.6,20.8257050916571,0.0,20.274636159476785,0.0,-6.6,21.29,18.87,21.68,20.46,21.42,-7.08,-6.6,0.0,-826.14,-963.97,0.0,129.0,88.0,368.0,0.0,0.0,0.0,0.0,0.0,0.0,0.0,0.0,0.0,0.0,0.0,0.0,0.0,0.0
21.0,3431.0,3448.241206030151,0.0,-0.0,0.0,0.0,0.0,8207.214672414273,0.0,8207.214672414271,0.0,0.0,0.22268005435054927,0.3954242115921694,0.7425349087003218,0.0,0.0,0.0,"[1.4221438308208185, 2.0, 0.996138542511126, 1.4123820692520255, 1.126097951466427, 0.9147383723645781, 1.4833026877160123, 1.7930980839504613]",20.58,0.0,0.0,0.0,736.3191928158169,119.41958060366773,-1126.6566697078492,-37.20767964407608,1532.761240723523,0.0,0.0,0.0,0.0,0.0,0.0,-6.5,20.57071274575633,0.0,20.23218253971009,0.0,-6.5,20.58,18.88,21.58,20.11,21.14,-7.0,-6.5,1258.21,-802.01,-935.81,0.0,135.0,92.0,471.0,0.0,0.0,0.0,0.0,0.0,0.0,0.0,0.0,0.0,0.0,0.0,0.0,0.0,0.0
22.0,2512.0,0.0,0.0,-0.0,0.0,2512.0,0.0,23286.73349502562,0.0,23286.73349502562,0.0,0.0,0.1158773332621139,0.29641599095005366,0.7425349087003218,0.0,0.0,0.0,"[1.4221438308208185, 2.0, 0.996138542511126, 1.4123820692520255, 1.126097951466427, 0.9147383723645781, 1.4833026877160123, 1.7930980839504613]",21.19,0.0,0.0,0.0,457.39870109859777,98.50312256868536,-1143.7141153936266,-906.144355418629,5940.076332269986,0.0,0.0,0.0,0.0,0.0,0.0,-6.3,20.74304248815125,0.0,20.222111952193544,0.0,-6.3,21.19,18.9,21.54,20.63,21.46,-6.83,-6.3,703.57,-814.15,-949.98,0.0,157.0,58.0,254.0,0.0,0.0,0.0,0.0,0.0,0.0,0.0,0.0,0.0,0.0,0.0,0.0,0.0,0.0
23.0,1529.0,12950.151544418579,11356.400786696486,-0.0,0.0,0.0,0.0,22354.035494415893,0.0,0.0,0.0,22354.03549441589,0.1158773332621139,0.29641599095005366,0.7425349087003218,0.0,0.0,0.0,"[1.4221438308208185, 2.0, 0.996138542511126, 1.4123820692520255, 1.126097951466427, 0.9147383723645781, 1.4833026877160123, 1.7930980839504613]",23.42,0.0,0.0,0.0,348.03602026160195,68.17597569694577,-1232.5195063273418,-3789.1140888544505,0.0,0.0,0.0,0.0,0.0,0.0,0.0,-6.2,21.525686728589676,0.0,20.36259631479188,0.0,-6.2,23.42,19.0,21.72,22.37,22.71,-6.71,-6.2,5438.36,-877.37,-1023.74,0.0,80.0,54.0,213.0,0.0,0.0,0.0,0.0,0.0,0.0,0.0,0.0,0.0,0.0,0.0,0.0,0.0,0.0
24.0,1529.0,28259.18911548133,10882.948595149479,-0.0,0.0,-15705.944574754447,0.0,21525.838679355922,0.0,0.0,0.0,21525.83867935592,0.7572034033979205,0.29641599095005366,0.7425349087003218,0.0,0.0,0.0,"[1.4221438308208185, 2.0, 0.996138542511126, 1.4123820692520255, 1.126097951466427, 0.9147383723645781, 1.4833026877160123, 1.7930980839504613]",21.1,0.0,0.0,0.0,189.64626734739156,30.911021726574898,-1131.6420351957106,-563.2060582788972,6091.36273532512,0.0,0.0,0.0,0.0,0.0,0.0,-6.1,20.825569763866525,0.0,20.374517915933993,0.0,-6.1,21.1,19.04,21.71,20.42,21.38,-6.63,-6.1,60.64,-805.56,-939.95,0.0,80.0,0.0,100.0,0.0,0.0,0.0,0.0,0.0,0.0,0.0,0.0,0.0,0.0,0.0,0.0,0.0,0.0
25.0,1046.0,0.0,11428.337640935368,-0.0,0.0,12474.337640935368,0.0,22713.536307487444,0.0,0.0,0.0,22713.53630748744,0.2268319050588318,0.29641599095005366,0.7425349087003218,0.0,0.0,0.0,"[1.4221438308208185, 2.0, 0.996138542511126, 1.4123820692520255, 1.126097951466427, 0.9147383723645781, 1.4833026877160123, 1.7930980839504613]",23.42,0.0,0.0,0.0,217.67177129983943,31.632278900194986,-1224.1978972407978,-3588.139799938405,0.0,0.0,0.0,0.0,0.0,0.0,0.0,-6.0,21.626852030659926,0.0,20.50414911273183,0.0,-6.0,23.42,19.13,21.88,22.44,22.81,-6.49,-6.0,5752.74,-871.45,-1016.83,0.0,80.0,0.0,121.0,0.0,0.0,0.0,0.0,0.0,0.0,0.0,0.0,0.0,0.0,0.0,0.0,0.0,0.0
26.0,966.0,5749.523592317369,4754.775974355782,-0.0,0.0,0.0,0.0,9585.984992423939,0.0,0.0,0.0,9585.984992423939,0.2268319050588318,0.29641599095005366,0.7425349087003218,0.0,0.0,0.0,"[1.4221438308208185, 2.0, 0.996138542511126, 1.4123820692520255, 1.126097951466427, 0.9147383723645781, 1.4833026877160123, 1.7930980839504613]",21.12,0.0,0.0,0.0,169.62805023850024,30.39583803113199,-1115.977519572162,-408.0422855191206,249.18993440351557,0.0,0.0,0.0,0.0,0.0,0.0,-5.7,20.92709028415916,0.0,20.507607777430465,0.0,-5.7,21.12,19.16,21.86,20.48,21.48,-6.18,-5.7,4334.84,-794.41,-926.94,0.0,80.0,0.0,85.0,0.0,0.0,0.0,0.0,0.0,0.0,0.0,0.0,0.0,0.0,0.0,0.0,0.0,0.0
27.0,1862.0,13888.90363959071,11957.459121392756,-0.0,0.0,0.0,0.0,24335.12270307787,0.0,0.0,0.0,24335.122703077865,0.2268319050588318,0.29641599095005366,0.7425349087003218,0.0,0.0,0.0,"[1.4221438308208185, 2.0, 0.996138542511126, 1.4123820692520255, 1.126097951466427, 0.9147383723645781, 1.4833026877160123, 1.7930980839504613]",20.58,0.0,0.0,0.0,1594.9251083915635,67.07691714666755,-1085.0486242751297,248.8561355291498,0.0,0.0,0.0,0.0,0.0,0.0,0.0,-5.5,20.71440908903497,0.0,20.452385035133403,0.0,-5.5,20.58,19.16,21.75,20.24,21.26,-5.96,-5.5,2689.11,-772.39,-901.25,0.0,80.0,0.0,1153.0,0.0,0.0,0.0,0.0,0.0,0.0,0.0,0.0,0.0,0.0,0.0,0.0,0.0,0.0
28.0,1667.0,11095.171185029305,9372.69532910416,-0.0,0.0,0.0,0.0,19164.115117718215,0.0,0.0,0.0,19164.115117718215,0.2268319050588318,0.29641599095005366,0.7425349087003218,0.0,0.0,0.0,"[1.4221438308208185, 2.0, 0.996138542511126, 1.4123820692520255, 1.126097951466427, 0.9147383723645781, 1.4833026877160123, 1.7930980839504613]",20.99,0.0,0.0,0.0,1127.8333758507652,55.05596425299953,-1098.0348540543507,-408.164975994898,5156.993642717612,0.0,0.0,0.0,0.0,0.0,0.0,-5.4,20.79560743653161,0.0,20.401995334631955,0.0,-5.4,20.99,19.16,21.65,20.41,21.31,-5.86,-5.4,0.0,-781.64,-912.04,0.0,80.0,0.0,803.0,0.0,0.0,0.0,0.0,0.0,0.0,0.0,0.0,0.0,0.0,0.0,0.0,0.0,0.0
29.0,740.0,31862.638470732956,30963.325278379292,-0.0,0.0,0.0,0.0,14042.992212347814,0.0,-49857.30833876236,0.0,63900.30055111018,0.2268319050588318,0.5,0.7425349087003218,0.0,0.0,0.0,"[1.4221438308208185, 2.0, 0.996138542511126, 1.4123820692520255, 1.126097951466427, 0.9147383723645781, 1.4833026877160123, 1.7930980839504613]",23.42,0.0,0.0,0.0,105.56975549004797,28.747250205714657,-1190.9114608946225,-3600.62300787124,4660.597472648594,0.0,0.0,0.0,0.0,0.0,0.0,-5.2,21.620211642175565,0.0,20.518757866130244,0.0,-5.2,23.42,19.24,21.8,22.35,22.68,-5.65,-5.2,5162.84,-847.75,-989.18,0.0,80.0,0.0,37.0,0.0,0.0,0.0,0.0,0.0,0.0,0.0,0.0,0.0,0.0,0.0,0.0,0.0,0.0
30.0,768.0,9961.55282342078,9143.745059303676,-0.0,0.0,0.0,0.0,18957.496625285625,0.0,0.0,0.0,18957.496625285625,0.2268319050588318,0.5,0.7425349087003218,0.0,0.0,0.0,"[1.4221438308208185, 2.0, 0.996138542511126, 1.4123820692520255, 1.126097951466427, 0.9147383723645781, 1.4833026877160123, 1.7930980839504613]",23.42,0.0,0.0,0.0,206.71443140865682,77.51797337431064,-1186.7506563513505,-3376.424807950805,4288.057374475754,0.0,0.0,0.0,0.0,0.0,0.0,-5.1,21.733133197401024,0.0,20.66873090977651,0.0,-5.1,23.42,19.34,22.0,22.33,22.76,-5.56,-5.1,0.0,-844.79,-985.72,0.0,169.0,28.0,63.0,0.0,0.0,0.0,0.0,0.0,0.0,0.0,0.0,0.0,0.0,0.0,0.0,0.0,0.0
31.0,1481.0,0.0,3854.0864069837244,-0.0,0.0,5335.086406983724,0.0,8027.322588543571,0.0,0.0,0.0,8027.322588543571,0.0,0.5,0.7425349087003218,0.0,0.0,0.0,"[1.4221438308208185, 2.0, 0.996138542511126, 1.4123820692520255, 1.126097951466427, 0.9147383723645781, 1.4833026877160123, 1.7930980839504613]",23.42,0.0,0.0,0.0,144.13116318401757,82.70415590843596,-1182.5898518080787,-3173.113930786459,0.0,0.0,0.0,0.0,0.0,0.0,0.0,-5.0,21.83552593138946,0.0,20.80587012043821,0.0,-5.0,23.42,19.44,22.17,22.36,22.85,-5.45,-5.0,4767.72,-841.83,-982.27,0.0,137.0,56.0,30.0,0.0,0.0,0.0,0.0,0.0,0.0,0.0,0.0,0.0,0.0,0.0,0.0,0.0,0.0
32.0,3717.0,21536.99091814886,1712.3059635581171,-0.0,0.0,-16000.0,0.0,3599.052696785847,0.0,0.0,0.0,3599.052696785847,0.6533333333333333,0.5,0.7425349087003218,0.0,0.0,0.0,"[1.1760027511935327, 1.153485418587998, 0.996138542511126, 1.4123820692520255, 0.8211611747603591, 0.9147383723645781, 1.4833026877160123, 1.206880777142949]",21.34,0.0,0.0,1.224144966357117,301.95900123201346,75.59462091132374,-1087.506283755281,-300.37879367897426,0.0,0.0,0.0,0.0,0.0,0.0,0.0,-4.8,21.19676822975967,0.0,20.803945559473057,0.0,-4.8,21.34,19.47,22.14,20.77,21.75,-5.26,-4.8,0.0,-774.14,-903.29,1.78,114.0,50.0,161.0,0.0,0.0,0.0,0.0,0.0,0.0,0.0,0.0,0.0,0.0,0.0,0.0,0.0,0.0
33.0,1716.0,0.0,509.3807368900629,-0.0,6.730546185707031,2218.6501907043557,0.0,1119.2153461243795,0.0,0.0,0.0,1119.2153461243795,0.5590029680822978,0.5,0.7425349087003218,0.0,0.0,0.0,"[1.1760027511935327, 1.153485418587998, 0.996138542511126, 1.4123820692520255, 0.8211611747603591, 0.9147383723645781, 1.4833026877160123, 1.206880777142949]",20.82,0.0,0.0,37.64656858991534,346.9824298874497,59.76130867137816,-1024.5563962634976,309.02869510858744,278.8410449967967,0.0,0.0,0.0,0.0,0.0,0.0,-3.8,20.99023118704813,0.0,20.744912616487923,0.0,-3.8,20.82,19.47,22.02,20.5,21.51,-4.2,-3.8,3839.1,-729.33,-851.01,54.81,109.0,25.0,200.0,0.0,0.0,0.0,0.0,0.0,0.0,0.0,0.0,0.0,0.0,0.0,0.0,0.0,0.0
34.0,2352.0,0.0,2432.760210151939,-0.0,117.11688078583849,4667.643329366101,0.0,5600.394540922422,0.0,0.0,0.0,5600.394540922422,0.3605487448949636,0.5,0.7425349087003218,0.0,0.0,0.0,"[1.1760027511935327, 1.153485418587998, 0.996138542511126, 1.4123820692520255, 0.8211611747603591, 0.9147383723645781, 1.4833026877160123, 1.206880777142949]",20.82,0.0,0.0,73.00739873862615,553.9778187292138,67.76382874059144,-978.7875462875061,210.46187993875776,4750.953434821251,0.0,0.0,0.0,0.0,0.0,0.0,-2.7,20.940103765048583,0.0,20.686787947113196,0.0,-2.7,20.82,19.46,21.91,20.53,21.47,-3.1,-2.7,0.0,-696.75,-812.99,106.28,155.0,5.0,333.0,0.0,0.0,0.0,0.0,0.0,0.0,0.0,0.0,0.0,0.0,0.0,0.0,0.0,0.0
35.0,2675.0,29500.933744849473,11600.06986366196,-0.0,581.6715248029304,-15660.030737266197,0.0,27810.091936274854,0.0,0.0,0.0,27810.091936274854,1.0,0.5,0.7425349087003218,0.0,0.0,0.0,"[1.1760027511935327, 1.153485418587998, 0.996138542511126, 1.4123820692520255, 0.8211611747603591, 0.9147383723645781, 1.4833026877160123, 1.206880777142949]",23.18,0.0,0.0,111.43616011994766,312.213947540428,38.295321361256676,-1035.0418526561139,-2909.978725275683,3489.618025918962,0.0,0.0,0.0,0.0,0.0,0.0,-1.7,21.720441503997936,0.0,20.778810997462095,0.0,-1.7,23.18,19.54,22.02,22.35,22.74,-2.08,-1.7,2345.87,-736.8,-859.71,162.23,93.0,0.0,185.0,0.0,0.0,0.0,0.0,0.0,0.0,0.0,0.0,0.0,0.0,0.0,0.0,0.0,0.0
36.0,1550.0,6840.556324077784,6083.23536786338,-0.0,826.8818254059847,0.0,0.0,14989.94620253296,0.0,0.0,0.0,14989.946202532958,1.0,0.5,0.7425349087003218,0.0,0.0,0.0,"[1.1760027511935327, 1.153485418587998, 0.996138542511126, 1.4123820692520255, 0.8211611747603591, 0.9147383723645781, 1.4833026877160123, 1.206880777142949]",23.18,0.0,0.0,121.96315986339722,492.4481408787269,12.673518907895714,-1005.9162208532101,-2739.0181707380884,3121.5905388821247,0.0,0.0,0.0,0.0,0.0,0.0,-1.0,21.80634121834829,0.0,20.89513970433939,0.0,-1.0,23.18,19.63,22.16,22.22,22.72,-1.51,-1.0,0.0,-716.06,-835.52,177.55,0.0,0.0,369.0,0.0,0.0,0.0,0.0,0.0,0.0,0.0,0.0,0.0,0.0,0.0,0.0,0.0,0.0
37.0,1124.0,5985.7859879422795,5069.268593645866,-0.0,237.41153564329807,0.0,0.0,12636.370361213447,0.0,0.0,0.0,12636.370361213449,1.0,0.5,0.7425349087003218,0.0,0.0,0.0,"[1.1760027511935327, 1.153485418587998, 0.996138542511126, 1.4123820692520255, 0.8211611747603591, 0.9147383723645781, 1.4833026877160123, 1.206880777142949]",23.18,0.0,0.0,86.00219547657152,138.7929719549799,3.571940288404211,-993.4338072233944,-2588.5075031031542,3355.574301686828,0.0,0.0,0.0,0.0,0.0,0.0,-0.7,21.882063537725436,0.0,20.998977394433943,0.0,-0.7,23.18,19.71,22.29,22.21,22.76,-1.24,-0.7,338.7,-707.18,-825.15,125.2,0.0,0.0,104.0,0.0,0.0,0.0,0.0,0.0,0.0,0.0,0.0,0.0,0.0,0.0,0.0,0.0,0.0
38.0,2532.0,6263.140434131618,3700.056841873794,-0.0,0.23210991283392307,0.0,0.0,9011.638317550765,0.0,0.0,0.0,9011.638317550765,1.0,0.5,0.7425349087003213,0.0,0.0,0.0,"[1.1760027511935327, 1.153485418587998, 0.996138542511126, 1.4123820692520255, 0.8211611747603591, 0.9147383723645781, 1.4833026877160123, 1.206880777142949]",23.18,0.0,0.0,21.12590573063665,92.08379870090013,2.3698449990374066,-1018.398634483026,-2445.4464623229983,788.3702675164358,0.0,0.0,0.0,0.0,0.0,0.0,-1.3,21.95437677822642,0.0,21.098783000143833,0.0,-1.3,23.18,19.79,22.4,22.28,22.85,-1.8,-1.3,4394.05,-724.95,-845.89,30.75,0.0,0.0,69.0,0.0,0.0,0.0,0.0,0.0,0.0,0.0,0.0,0.0,0.0,0.0,0.0,0.0,0.0
39.0,829.0,0.0,1352.1403023558244,-0.0,0.0,2181.140302355824,0.0,3215.850267139755,0.0,0.0,0.0,3215.850267139755,0.9072644429270483,0.5,0.7425349087003213,0.0,0.0,0.0,"[1.1760027511935327, 1.153485418587998, 0.996138542511126, 1.4123820692520255, 0.8211611747603591, 0.9147383723645781, 1.4833026877160123, 1.206880777142949]",21.89,0.0,0.0,2.4398791527184924,40.03643421778266,1.030367390885827,-989.6836984777066,-654.6985398171723,0.0,0.0,0.0,0.0,0.0,0.0,0.0,-1.9,21.566226444992665,0.0,21.109722782983653,0.0,-1.9,21.89,19.83,22.39,21.29,22.17,-2.41,-1.9,3335.19,-704.51,-822.04,3.55,0.0,0.0,30.0,0.0,0.0,0.0,0.0,0.0,0.0,0.0,0.0,0.0,0.0,0.0,0.0,0.0,0.0
40.0,914.0,5672.221207082225,4729.860101046814,-0.0,0.0,0.0,0.0,11159.036206732524,0.0,0.0,0.0,11159.036206732524,0.9072644429270483,0.5,0.7425349087003213,0.0,0.0,0.0,"[1.1760027511935327, 1.153485418587998, 0.996138542511126, 1.4123820692520255, 0.8211611747603591, 0.9147383723645781, 1.4833026877160123, 1.206880777142949]",21.08,0.0,0.0,0.0,194.07134691883067,61.71900671406124,-964.4409003406203,367.7898126878167,0.0,0.0,0.0,0.0,0.0,0.0,0.0,-2.1,21.27447555929886,0.0,21.055881917322733,0.0,-2.1,21.08,19.83,22.28,20.77,21.76,-2.62,-2.1,0.0,-686.54,-801.07,0.0,163.0,6.0,59.0,0.0,0.0,0.0,0.0,0.0,0.0,0.0,0.0,0.0,0.0,0.0,0.0,0.0,0.0
41.0,2267.0,6877.0847010181815,4575.69927751309,-0.0,0.0,0.0,0.0,10708.085485031288,0.0,0.0,0.0,10708.085485031288,0.9072644429270483,0.5,0.7425349087003213,0.0,0.0,0.0,"[1.1760027511935327, 1.153485418587998, 0.996138542511126, 1.4123820692520255, 0.8211611747603591, 0.9147383723645781, 1.4833026877160123, 1.206880777142949]",20.9,0.0,0.0,0.0,218.23368616605399,101.42249684286186,-965.4645326054233,494.5059355856844,4.851789207091891,0.0,0.0,0.0,0.0,0.0,0.0,-2.3,21.16292961342377,0.0,20.98701019664267,0.0,-2.3,20.9,19.83,22.15,20.69,21.63,-2.81,-2.3,0.0,-687.27,-801.92,0.0,149.0,77.0,77.0,0.0,0.0,0.0,0.0,0.0,0.0,0.0,0.0,0.0,0.0,0.0,0.0,0.0,0.0
42.0,5143.0,0.0,4436.449549980871,-0.0,0.0,9579.44954998087,0.0,10297.624166762133,0.0,0.0,0.0,10297.624166762133,0.4999749212441882,0.5,0.7425349087003213,0.0,0.0,0.0,"[1.1760027511935327, 1.153485418587998, 0.996138542511126, 1.4123820692520255, 0.8211611747603591, 0.9147383723645781, 1.4833026877160123, 1.206880777142949]",20.82,0.0,0.0,0.0,500.80662451366743,77.96446591036116,-970.4659372009622,491.49772583239576,4577.451251835034,0.0,0.0,0.0,0.0,0.0,0.0,-2.5,21.081692136584113,0.0,20.91903237655889,0.0,-2.5,20.82,19.81,22.02,20.65,21.54,-3.07,-2.5,0.0,-690.83,-806.08,0.0,81.0,63.0,326.0,0.0,0.0,0.0,0.0,0.0,0.0,0.0,0.0,0.0,0.0,0.0,0.0,0.0,0.0
43.0,5819.0,0.0,1266.8973645606654,-0.0,0.0,7085.897364560666,0.0,2916.4917507227005,0.0,0.0,0.0,2916.4917507227005,0.19870377479177898,0.5,0.7425349087003213,0.0,0.0,0.0,"[1.1760027511935327, 1.153485418587998, 0.996138542511126, 1.4123820692520255, 0.8211611747603591, 0.9147383723645781, 1.4833026877160123, 1.206880777142949]",23.18,0.0,0.0,0.0,855.9368199612271,110.38669314356862,-1076.649898088833,-2649.0967361706403,0.0,0.0,0.0,0.0,0.0,0.0,0.0,-2.7,21.852395699252888,0.0,20.997127171211144,0.0,-2.7,23.18,19.87,22.12,22.44,22.79,-3.29,-2.7,0.0,-766.41,-894.27,0.0,128.0,76.0,566.0,0.0,0.0,0.0,0.0,0.0,0.0,0.0,0.0,0.0,0.0,0.0,0.0,0.0,0.0
44.0,4947.0,0.0,2284.664834311816,-0.0,0.0,7231.664834311816,0.0,5215.90717345462,0.0,0.0,0.0,5215.90717345462,0.544568365169678,0.5,0.7274973147153588,0.0,0.0,0.0,"[0.2867631034102729, 1.153485418587998, 0.996138542511126, 0.18375834668568913, 0.4029386578193659, 0.39509607349749487, 0.7337049344190589, 1.206880777142949]",21.78,0.0,0.0,0.0,1475.307481246153,148.23552196877478,-1026.8505328352526,-710.0513274651051,0.0,0.0,0.0,0.0,0.0,0.0,0.0,-2.9,21.431993872997364,0.0,21.00531012264853,0.0,-2.9,21.78,19.9,22.11,21.15,21.91,-3.46,-2.9,0.0,-730.97,-852.91,0.0,167.0,91.0,1008.0,0.0,0.0,0.0,0.0,0.0,0.0,0.0,0.0,0.0,0.0,0.0,0.0,0.0,0.0
45.0,5295.0,0.0,0.0,-0.0,0.0,5295.0,0.0,10396.780539887533,0.0,10396.780539887533,0.0,0.0,0.31944081414926984,0.45579600110592033,0.6925886143931247,0.0,0.0,0.0,"[0.2867631034102729, 1.153485418587998, 0.996138542511126, 0.18375834668568913, 0.4029386578193659, 0.39509607349749487, 0.7337049344190589, 1.206880777142949]",21.71,0.0,0.0,0.0,2767.21999803155,189.00372506815745,-1032.4302881261353,-657.1253604713787,-106.15304137895457,0.0,0.0,0.0,0.0,0.0,0.0,-3.1,21.39282080704597,0.0,20.984793600106592,0.0,-3.1,21.71,19.9,22.07,21.13,21.87,-3.66,-3.1,1266.96,-734.94,-857.55,0.0,107.0,135.0,2003.0,0.0,0.0,0.0,0.0,0.0,0.0,0.0,0.0,0.0,0.0,0.0,0.0,0.0,0.0
46.0,3306.0,633.1625279701664,0.0,-0.0,0.0,2676.0032846696845,0.0,1749.3308603241087,0.0,1749.3308603241087,0.0,0.0,0.2056651642908649,0.44835836989705935,0.6925886143931245,0.0,0.0,0.0,"[0.2867631034102729, 1.153485418587998, 0.996138542511126, 0.18375834668568913, 0.4029386578193659, 0.39509607349749487, 0.7337049344190589, 1.206880777142949]",22.29,0.0,0.0,0.0,675.9133446977589,124.91487335505882,-1064.6152016829235,-1456.963718350915,597.1452119251198,0.0,0.0,0.0,0.0,0.0,0.0,-3.3,21.563691321103782,0.0,20.984574219845342,0.0,-3.3,22.29,19.92,22.05,21.43,22.06,-3.9,-3.3,0.0,-757.85,-884.28,0.0,134.0,104.0,425.0,0.0,0.0,0.0,0.0,0.0,0.0,0.0,0.0,0.0,0.0,0.0,0.0,0.0,0.0
47.0,2131.0,7467.119955947516,5298.784356167778,-0.0,0.0,0.0,0.0,11844.590253276401,0.0,0.0,0.0,11844.590253276401,0.2056651642908649,0.44835836989705935,0.6925886143931245,0.0,0.0,0.0,"[0.2867631034102729, 1.153485418587998, 0.996138542511126, 0.18375834668568913, 0.4029386578193659, 0.39509607349749487, 0.7337049344190589, 1.206880777142949]",21.71,0.0,0.0,0.0,241.69363183050902,59.04005149775807,-1044.912701755951,-669.1482753583391,1420.269033888087,0.0,0.0,0.0,0.0,0.0,0.0,-3.4,21.38690309063323,0.0,20.98411109247302,0.0,-3.4,21.71,19.93,22.03,21.21,21.9,-3.99,-3.4,3001.47,-743.82,-867.91,0.0,83.0,42.0,133.0,0.0,0.0,0.0,0.0,0.0,0.0,0.0,0.0,0.0,0.0,0.0,0.0,0.0,0.0
48.0,1359.0,6441.508947832539,5050.301403093376,-0.0,0.0,0.0,0.0,10711.393227080534,0.0,0.0,0.0,10711.393227080534,0.2056651642908649,0.44835836989705935,0.6829215896885058,0.0,0.0,0.0,"[0.2867631034102729, 1.153485418587998, 0.996138542511126, 0.18375834668568913, 0.4029386578193659, 0.39509607349749487, 0.7337049344190589, 1.206880777142949]",21.71,0.0,0.0,0.0,261.71184893940034,32.765683030169406,-1094.8423562752143,-677.9337693892464,1482.1510777305834,0.0,0.0,0.0,0.0,0.0,0.0,-4.6,21.382973778167532,0.0,20.982115856688168,0.0,-4.6,21.71,19.95,22.02,21.3,21.95,-5.17,-4.6,14.42,-779.37,-909.39,0.0,80.0,0.0,154.0,0.0,0.0,0.0,0.0,0.0,0.0,0.0,0.0,0.0,0.0,0.0,0.0,0.0,0.0
49.0,770.0,21186.883220739397,4310.948804635699,-0.0,0.0,-16000.0,0.0,8650.098531437941,0.0,0.0,0.0,8650.09853143794,0.8589984976241982,0.44835836989705935,0.6603651987110621,0.0,0.0,0.0,"[0.2867631034102729, 1.153485418587998, 0.996138542511126, 0.18375834668568913, 0.4029386578193659, 0.39509607349749487, 0.7337049344190589, 1.206880777142949]",21.71,0.0,0.0,0.0,114.91159014086394,28.98766926358802,-1144.7720107944776,-687.4613246562905,2830.034933988793,0.0,0.0,0.0,0.0,0.0,0.0,-5.8,21.378675686248613,0.0,20.978935539340824,0.0,-5.8,21.71,19.96,22.0,21.3,21.94,-6.37,-5.8,3373.85,-814.91,-950.86,0.0,80.0,0.0,44.0,0.0,0.0,0.0,0.0,0.0,0.0,0.0,0.0,0.0,0.0,0.0,0.0,0.0,0.0
50.0,2276.0,0.0,10624.112569914605,-0.0,0.0,12900.112569914605,0.0,20102.329761874054,0.0,0.0,0.0,20102.329761874058,0.3105243237332712,0.44835836989705935,0.6603651987110621,0.0,0.0,0.0,"[0.2867631034102729, 1.153485418587998, 0.996138542511126, 0.18375834668568913, 0.4029386578193659, 0.39509607349749487, 0.7337049344190589, 1.206880777142949]",22.29,0.0,0.0,0.0,201.6571976127264,31.22013194384065,-1218.5649697839822,-1431.7568652878426,2421.1152686060327,0.0,0.0,0.0,0.0,0.0,0.0,-7.0,21.57794932958852,0.0,21.013125738363463,0.0,-7.0,22.29,19.98,22.05,21.78,22.28,-7.6,-7.0,2767.82,-867.44,-1012.15,0.0,80.0,0.0,109.0,0.0,0.0,0.0,0.0,0.0,0.0,0.0,0.0,0.0,0.0,0.0,0.0,0.0,0.0
51.0,1486.0,0.0,5817.532094206539,-0.0,0.0,7303.532094206539,0.0,10674.834984297744,0.0,0.0,0.0,10674.834984297744,0.0,0.44835836989705935,0.6603651987110621,0.0,0.0,0.0,"[0.2867631034102729, 1.153485418587998, 0.996138542511126, 0.18375834668568913, 0.4029386578193659, 0.39509607349749487, 0.7337049344190589, 1.206880777142949]",22.29,0.0,0.0,0.0,192.31536296191038,30.979712885967288,-1243.5297970436172,-1378.4657769442779,2402.342993528069,0.0,0.0,0.0,0.0,0.0,0.0,-7.6,21.605056552163905,0.0,21.04904560238303,0.0,-7.6,22.29,20.0,22.09,21.74,22.28,-8.21,-7.6,0.0,-885.21,-1032.89,0.0,80.0,0.0,102.0,0.0,0.0,0.0,0.0,0.0,0.0,0.0,0.0,0.0,0.0,0.0,0.0,0.0,0.0
52.0,749.0,9254.074715255476,4398.659774006357,-0.0,0.0,-4060.1445676728426,0.0,7777.749910757708,0.0,0.0,0.0,7777.749910757707,0.16578923651330774,0.44835836989705935,0.6603651987110621,0.0,0.0,0.0,"[0.2867631034102729, 1.153485418587998, 0.996138542511126, 0.18375834668568913, 0.4029386578193659, 0.39509607349749487, 0.7337049344190589, 1.206880777142949]",22.29,0.0,0.0,0.0,166.9589546239814,30.3271468717396,-1272.6554288465206,-1330.2817447032603,1270.924260159264,0.0,0.0,0.0,0.0,0.0,0.0,-8.3,21.62963616141887,0.0,21.081611538492258,0.0,-8.3,22.29,20.03,22.14,21.75,22.3,-8.93,-8.3,1429.51,-905.94,-1057.08,0.0,80.0,0.0,83.0,0.0,0.0,0.0,0.0,0.0,0.0,0.0,0.0,0.0,0.0,0.0,0.0,0.0,0.0
53.0,581.0,0.0,3318.3628427929984,-0.0,0.0,3899.3628427929984,0.0,5677.749299119146,0.0,0.0,0.0,5677.749299119147,0.0,0.44835836989705935,0.6603651987110621,0.0,0.0,0.0,"[0.2867631034102729, 1.153485418587998, 0.996138542511126, 0.18375834668568913, 0.4029386578193659, 0.39509607349749487, 0.7337049344190589, 1.206880777142949]",21.71,0.0,0.0,0.0,139.98704104568571,40.08129150545879,-1273.756951635908,-547.4432563009577,1645.8445052281302,0.0,0.0,0.0,0.0,0.0,0.0,-8.9,21.450562346391656,0.0,21.075860797932652,0.0,-8.9,21.71,20.03,22.12,21.32,22.0,-9.55,-8.9,188.73,-906.73,-1057.99,0.0,80.0,17.0,61.0,0.0,0.0,0.0,0.0,0.0,0.0,0.0,0.0,0.0,0.0,0.0,0.0,0.0,0.0
54.0,1126.0,11763.982353117868,10579.162441352279,-0.0,0.0,0.0,0.0,17596.772082954376,0.0,0.0,0.0,17596.772082954372,0.0,0.44835836989705935,0.6603651987110621,0.0,0.0,0.0,"[0.2867631034102729, 1.153485418587998, 0.996138542511126, 0.18375834668568913, 0.4029386578193659, 0.39509607349749487, 0.7337049344190589, 1.206880777142949]",21.71,0.0,0.0,0.0,155.9313753745219,60.44822026530203,-1294.5609743522675,-566.5851582210462,2790.1664256693025,0.0,0.0,0.0,0.0,0.0,0.0,-9.4,21.44112940387952,0.0,21.064379087301475,0.0,-9.4,21.71,20.02,22.1,21.37,22.03,-10.05,-9.4,2952.71,-921.54,-1075.27,0.0,147.0,14.0,38.0,0.0,0.0,0.0,0.0,0.0,0.0,0.0,0.0,0.0,0.0,0.0,0.0,0.0,0.0
55.0,803.0,5794.62013897497,4962.647038280095,-0.0,0.0,0.0,0.0,8018.030286409181,0.0,0.0,0.0,8018.030286409181,0.0,0.44835836989705935,0.6603651987110621,0.0,0.0,0.0,"[0.2867631034102729, 1.153485418587998, 0.996138542511126, 0.18375834668568913, 0.4029386578193659, 0.39509607349749487, 0.7337049344190589, 1.206880777142949]",22.29,0.0,0.0,0.0,165.27321002533796,39.3943799115349,-1339.2283015388716,-1322.2941000569988,2461.4866766369223,0.0,0.0,0.0,0.0,0.0,0.0,-9.9,21.634351735377027,0.0,21.089453553440023,0.0,-9.9,22.29,20.04,22.14,21.83,22.35,-10.57,-9.9,283.82,-953.33,-1112.37,0.0,108.0,0.0,67.0,0.0,0.0,0.0,0.0,0.0,0.0,0.0,0.0,0.0,0.0,0.0,0.0,0.0,0.0
56.0,822.0,22204.053481343533,15807.409213936817,-0.0,0.0,0.0,0.0,3986.551271625902,27318.12,0.0,0.0,25841.047271625903,0.0,0.44835836989705935,0.6603651987110621,21854.496,5463.624,27318.12,"[0.2867631034102729, 1.0731223469519122, 0.996138542511126, 0.18375834668568913, 0.4029386578193659, 0.39509607349749487, 0.7337049344190589, 0.9513893141983942]",22.29,0.0,0.0,5.074240106199138,253.0021685130758,50.762766790975235,-1330.9066924523277,-1278.3832833840318,1168.2177433208549,0.0,0.0,0.0,0.0,0.0,0.0,-9.7,21.656399187386253,0.0,21.117845416669503,0.0,-9.7,22.29,20.05,22.18,21.78,22.34,-10.39,-9.7,1062.74,-947.41,-1105.46,7.39,136.0,0.0,118.0,0.0,0.0,0.0,0.0,0.0,0.0,0.0,0.0,0.0,0.0,0.0,0.0,0.0,0.0
57.0,1275.0,0.0,1313.75001444245,-5611.3881707609,8200.13818520335,0.0,0.0,2448.228452884392,0.0,0.0,0.0,2448.228452884392,0.0,0.44835836989705935,0.6796604983859593,0.0,0.0,0.0,"[0.2867631034102729, 1.0731223469519122, 0.996138542511126, 0.18375834668568913, 0.4029386578193659, 0.39509607349749487, 0.7337049344190589, 0.9513893141983942]",21.71,0.0,0.0,1359.5776086814344,33.36369518148555,0.8586394924048578,-1207.1840789435566,-498.52307932578816,448.56270079594975,0.0,0.0,0.0,0.0,0.0,0.0,-7.3,21.474155939554933,0.0,21.10752437050517,0.0,-7.3,21.71,20.05,22.16,21.33,22.03,-7.04,-7.3,127.2,-859.34,-1002.7,1979.26,0.0,0.0,25.0,0.0,0.0,0.0,0.0,0.0,0.0,0.0,0.0,0.0,0.0,0.0,0.0,0.0,0.0
58.0,5676.0,0.0,0.0,-0.0,14132.72773253693,-8456.72773253693,0.0,3.992905636546104,0.0,3.992905636546104,0.0,0.0,0.3453163824119247,0.4483413932574482,0.6796604983859593,0.0,0.0,0.0,"[0.2867631034102729, 1.0731223469519122, 0.996138542511126, 0.18375834668568913, 0.4029386578193659, 0.39509607349749487, 0.7337049344190589, 0.9513893141983942]",21.77,0.0,0.0,1559.290356798712,88.08015527912185,2.266808259948825,-1122.1514340851995,-536.9392527212357,0.0,0.0,0.0,0.0,0.0,0.0,0.0,-5.2,21.510229191506653,0.0,21.133512346500744,0.0,-5.2,21.77,20.07,22.2,21.74,22.32,-4.82,-5.2,0.0,-798.81,-932.07,2270.0,0.0,0.0,66.0,0.0,0.0,0.0,0.0,0.0,0.0,0.0,0.0,0.0,0.0,0.0,0.0,0.0,0.0
59.0,7364.0,0.0,4432.070594196968,-0.0,17740.178813490907,-5944.108219293939,0.0,9907.18939161074,0.0,0.0,0.0,9907.18939161074,0.5880341346997606,0.4483413932574482,0.6796604983859593,0.0,0.0,0.0,"[0.2867631034102729, 1.0731223469519122, 0.996138542511126, 0.18375834668568913, 0.4029386578193659, 0.39509607349749487, 0.7337049344190589, 0.9513893141983942]",21.75,0.0,0.0,1754.4647374203641,62.72374694119285,1.6142422457211305,-1046.3984014238224,-465.3141722257806,797.5657187097931,0.0,0.0,0.0,0.0,0.0,0.0,-3.4,21.524888095259378,0.0,21.162844253098307,0.0,-3.4,21.75,20.1,22.23,21.75,22.35,-2.95,-3.4,1700.45,-744.88,-869.15,2554.13,0.0,0.0,47.0,0.0,0.0,0.0,0.0,0.0,0.0,0.0,0.0,0.0,0.0,0.0,0.0,0.0,0.0
60.0,4157.0,0.0,290.85997160881504,-13852.356626981024,18300.21659858984,0.0,0.0,677.8998117155027,0.0,0.0,0.0,677.8998117155027,0.5880341346997606,0.4483413932574482,0.7272931632787362,0.0,0.0,0.0,"[0.2867631034102729, 1.0731223469519122, 0.996138542511126, 0.18375834668568913, 0.4029386578193659, 0.39509607349749487, 0.7337049344190589, 0.9513893141983942]",22.29,0.0,0.0,1745.3794813158972,80.49430458522619,3.915396085366153,-1027.167960793476,-1110.4009182143284,345.8429062672188,0.0,0.0,0.0,0.0,0.0,0.0,-2.4,21.737527949026973,0.0,21.229631185754467,0.0,-2.4,22.29,20.15,22.31,22.21,22.71,-2.05,-2.4,714.81,-731.19,-853.17,2540.91,0.0,3.0,60.0,0.0,0.0,0.0,0.0,0.0,0.0,0.0,0.0,0.0,0.0,0.0,0.0,0.0,0.0
61.0,7070.0,0.0,1811.8341548018375,-0.0,16169.368200748184,-7287.534045946346,0.0,4274.613308235819,0.0,0.0,0.0,4274.613308235819,0.8856084415759031,0.4483413932574482,0.7058108861573613,0.0,0.0,0.0,"[0.2867631034102729, 1.0731223469519122, 0.996138542511126, 0.18375834668568913, 0.4029386578193659, 0.39509607349749487, 0.7337049344190589, 0.9513893141983942]",22.29,0.0,0.0,1501.8527372980825,324.7867926719773,55.50245678905006,-1014.6855471636603,-1011.3110429407791,0.0,0.0,0.0,0.0,0.0,0.0,0.0,-2.1,21.78739002922652,0.0,21.297295859756872,0.0,-2.1,22.29,20.2,22.4,22.18,22.72,-1.89,-2.1,749.99,-722.31,-842.81,2186.38,109.0,19.0,184.0,0.0,0.0,0.0,0.0,0.0,0.0,0.0,0.0,0.0,0.0,0.0,0.0,0.0,0.0
62.0,2173.0,0.0,3643.9554215395624,-3215.7945565423283,9032.74997808189,0.0,0.0,8353.916856018217,0.0,0.0,0.0,8353.916856018217,0.8856084415759031,0.4483413932574482,0.7168687060359981,0.0,0.0,0.0,"[0.2867631034102729, 1.0731223469519122, 0.996138542511126, 0.18375834668568913, 0.4029386578193659, 0.39509607349749487, 0.7337049344190589, 0.9513893141983942]",22.19,0.0,0.0,778.1154653048793,316.2175909622062,71.37011460869184,-1039.9812287483394,-816.7368853948909,898.7098153820582,0.0,0.0,0.0,0.0,0.0,0.0,-2.8,21.793807816219502,0.0,21.345381507714595,0.0,-2.8,22.19,20.24,22.45,22.04,22.64,-3.01,-2.8,0.0,-740.31,-863.82,1132.77,166.0,15.0,148.0,0.0,0.0,0.0,0.0,0.0,0.0,0.0,0.0,0.0,0.0,0.0,0.0,0.0,0.0
63.0,1209.0,0.0,1217.6532311282704,-0.0,0.0,2426.6532311282704,0.0,2605.787648210397,0.0,0.0,0.0,2605.787648210397,0.7824344096401774,0.4483413932574482,0.7168687060359981,0.0,0.0,0.0,"[0.2867631034102729, 1.0731223469519122, 0.996138542511126, 0.18375834668568913, 0.4029386578193659, 0.39509607349749487, 0.7337049344190589, 0.9513893141983942]",22.29,0.0,0.0,16.64202504443587,396.1499806812179,45.336165198976516,-1110.3840516589148,-905.0293034529865,424.6252883049621,0.0,0.0,0.0,0.0,0.0,0.0,-4.4,21.842308660443596,0.0,21.375610657777386,0.0,-4.4,22.29,20.28,22.48,21.98,22.59,-5.15,-4.4,2235.41,-790.43,-922.29,24.23,108.0,0.0,240.0,0.0,0.0,0.0,0.0,0.0,0.0,0.0,0.0,0.0,0.0,0.0,0.0,0.0,0.0
64.0,1362.0,0.0,6542.376485747101,-0.0,0.0,7904.376485747101,0.0,13564.144597809216,0.0,0.0,0.0,13564.144597809218,0.4463639808243993,0.4483413932574482,0.7168687060359981,0.0,0.0,0.0,"[0.2867631034102729, 1.0731223469519122, 0.996138542511126, 0.18375834668568913, 0.4029386578193659, 0.39509607349749487, 0.7337049344190589, 0.9513893141983942]",21.71,0.0,0.0,0.0,389.2665235700904,84.42143489324567,-1115.6463789915742,-161.92376362446862,1952.1007666588864,0.0,0.0,0.0,0.0,0.0,0.0,-5.1,21.643251205959157,0.0,21.346366448792566,0.0,-5.1,21.71,20.27,22.42,21.34,22.13,-5.85,-5.1,0.0,-794.17,-926.67,0.0,138.0,48.0,214.0,0.0,0.0,0.0,0.0,0.0,0.0,0.0,0.0,0.0,0.0,0.0,0.0,0.0,0.0
65.0,1603.0,5892.473666704485,4260.011298370963,-0.0,0.0,0.0,0.0,8507.278306107473,0.0,0.0,0.0,8507.278306107472,0.4463639808243993,0.4483413932574482,0.7168687060359981,0.0,0.0,0.0,"[0.2867631034102729, 1.0731223469519122, 0.996138542511126, 0.18375834668568913, 0.4029386578193659, 0.39509607349749487, 0.7337049344190589, 0.9513893141983942]",22.29,0.0,0.0,0.0,412.4455118014383,80.64342112666431,-1172.796119807994,-955.3810819622569,506.27748327050716,0.0,0.0,0.0,0.0,0.0,0.0,-5.9,21.817563910993663,0.0,21.34934803887294,0.0,-5.9,22.29,20.29,22.41,21.85,22.46,-6.63,-5.9,0.0,-834.86,-974.13,0.0,117.0,52.0,242.0,0.0,0.0,0.0,0.0,0.0,0.0,0.0,0.0,0.0,0.0,0.0,0.0,0.0,0.0
66.0,2429.0,19365.928659079793,5160.136895148609,-0.0,0.0,-11679.962120635786,0.0,9911.291326456627,0.0,0.0,0.0,9911.291326456627,0.9232957674170272,0.4483413932574482,0.7168687060359981,0.0,0.0,0.0,"[0.2867631034102729, 1.0731223469519122, 0.996138542511126, 0.18375834668568913, 0.4029386578193659, 0.39509607349749487, 0.7337049344190589, 0.9513893141983942]",21.71,0.0,0.0,0.0,547.2348403346399,75.1824739549694,-1182.219251683925,-206.57282857547932,775.2144803871272,0.0,0.0,0.0,0.0,0.0,0.0,-6.7,21.62140870561705,0.0,21.322733058250243,0.0,-6.7,21.71,20.28,22.36,21.36,22.11,-7.41,-6.7,0.0,-841.56,-981.96,0.0,82.0,56.0,361.0,0.0,0.0,0.0,0.0,0.0,0.0,0.0,0.0,0.0,0.0,0.0,0.0,0.0,0.0
67.0,4822.0,18059.315090590404,13147.018515137455,-0.0,0.0,0.0,0.0,2159.793905125489,0.0,-22214.893946041288,0.0,24374.687851166775,0.9232957674170272,0.5390522102037835,0.7168687060359981,0.0,0.0,0.0,"[0.2867631034102729, 1.0731223469519122, 0.996138542511126, 0.18375834668568913, 0.4029386578193659, 0.39509607349749487, 0.7337049344190589, 0.9513893141983942]",21.71,0.0,0.0,0.0,1902.0818221360607,122.95717531237574,-1211.3448834868286,-260.7786072712307,599.8339847131169,0.0,0.0,0.0,0.0,0.0,0.0,-7.4,21.594394496027178,0.0,21.289484114554554,0.0,-7.4,21.71,20.27,22.31,21.38,22.1,-8.12,-7.4,2131.44,-862.3,-1006.15,0.0,133.0,50.0,1350.0,0.0,0.0,0.0,0.0,0.0,0.0,0.0,0.0,0.0,0.0,0.0,0.0,0.0,0.0
68.0,4751.0,4774.874371859297,0.0,-0.0,0.0,0.0,0.0,2823.4865479622063,0.0,2823.4865479622063,0.0,0.0,0.653770136038651,0.5270475905270734,0.7168687060359981,0.0,0.0,0.0,"[0.2867631034102729, 0.4085464017951068, 0.7016028601210067, 0.1837583466856927, 0.4029386578193659, 0.30834240106495514, 0.7337049344190554, 0.09352757549283552]",22.29,0.0,0.0,0.0,1489.7065496928994,132.9517390039683,-1268.4946243032487,-1078.2328328715123,0.0,0.0,0.0,0.0,0.0,0.0,0.0,-8.2,21.756621807578156,0.0,21.275342478568017,0.0,-8.2,22.29,20.27,22.28,21.65,22.26,-8.91,-8.2,0.0,-902.98,-1053.62,0.0,151.0,74.0,1029.0,0.0,0.0,0.0,0.0,0.0,0.0,0.0,0.0,0.0,0.0,0.0,0.0,0.0,0.0
69.0,4338.0,0.0,0.0,-0.0,0.0,4338.0,0.0,12840.256168364707,0.0,12840.256168364705,0.0,0.0,0.46933136052844693,0.47245466464116903,0.6900158596342795,0.0,0.0,0.0,"[0.2867631034102729, 0.4085464017951068, 0.7016028601210067, 0.1837583466856927, 0.4029386578193659, 0.30834240106495514, 0.7337049344190554, 0.09352757549283552]",21.91,0.0,0.0,0.0,1377.0426190168935,132.40220972882918,-1282.1130697787107,-599.2554598804378,728.6009638762499,0.0,0.0,0.0,0.0,0.0,0.0,-8.9,21.625386685324507,0.0,21.252257327310534,0.0,-8.9,21.91,20.26,22.25,21.38,22.06,-9.59,-8.9,1706.27,-912.67,-1064.93,0.0,162.0,72.0,939.0,0.0,0.0,0.0,0.0,0.0,0.0,0.0,0.0,0.0,0.0,0.0,0.0,0.0,0.0
70.0,2966.0,8730.233516388202,5720.5823488062615,-0.0,0.0,0.0,0.0,9351.680398480397,0.0,0.0,0.0,9351.680398480397,0.46933136052844693,0.47245466464116903,0.6900158596342789,0.0,0.0,0.0,"[0.2867631034102729, 0.4085464017951068, 0.7016028601210067, 0.1837583466856927, 0.4029386578193659, 0.30834240106495514, 0.7337049344190554, 0.09352757549283552]",22.09,0.0,0.0,0.0,628.6422565774648,73.15608475289395,-1322.5505743095234,-858.3497982254336,1886.2948619353895,0.0,0.0,0.0,0.0,0.0,0.0,-9.7,21.667120119653976,0.0,21.2388388313264,0.0,-9.7,22.09,20.25,22.23,21.56,22.18,-10.39,-9.7,1569.74,-941.46,-1098.52,0.0,92.0,44.0,418.0,0.0,0.0,0.0,0.0,0.0,0.0,0.0,0.0,0.0,0.0,0.0,0.0,0.0,0.0
71.0,2166.0,2176.884422110553,0.0,-0.0,0.0,0.0,0.0,7507.317056154939,0.0,7507.317056154938,0.0,0.0,0.46933136052844693,0.4405357996064967,0.6782006072175227,0.0,0.0,0.0,"[0.2867631034102729, 0.4085464017951068, 0.7016028601210067, 0.1837583466856927, 0.4029386578193659, 0.30834240106495514, 0.7337049344190554, 0.09352757549283552]",22.29,0.0,0.0,0.0,554.1885368040441,53.922560123025114,-1360.0323242552315,-1118.5819535072897,738.5506420355404,0.0,0.0,0.0,0.0,0.0,0.0,-10.4,21.73720891764786,0.0,21.250041332047516,0.0,-10.4,22.29,20.25,22.25,21.8,22.35,-11.08,-10.4,0.0,-968.14,-1129.65,0.0,103.0,10.0,360.0,0.0,0.0,0.0,0.0,0.0,0.0,0.0,0.0,0.0,0.0,0.0,0.0,0.0,0.0
72.0,1223.0,0.0,7059.335723611399,-0.0,0.0,8282.335723611399,0.0,10732.611976889095,0.0,0.0,0.0,10732.611976889095,0.11719123622524119,0.4405357996064967,0.6782006072175227,0.0,0.0,0.0,"[0.2867631034102729, 0.4085464017951068, 0.7016028601210067, 0.1837583466856927, 0.4029386578193659, 0.30834240106495514, 0.7337049344190554, 0.09352757549283552]",21.71,0.0,0.0,0.0,174.96624146753794,30.533220349916768,-1356.9730425013465,-359.54364649857814,1514.6072254086082,0.0,0.0,0.0,0.0,0.0,0.0,-10.9,21.54610411299581,0.0,21.22716738099094,0.0,-10.9,21.71,20.24,22.22,21.34,22.03,-11.61,-10.9,371.87,-965.96,-1127.11,0.0,80.0,0.0,89.0,0.0,0.0,0.0,0.0,0.0,0.0,0.0,0.0,0.0,0.0,0.0,0.0,0.0,0.0
73.0,1398.0,0.0,0.0,-0.0,0.0,1398.0,0.0,7395.773537554804,0.0,7395.773537554802,0.0,0.0,0.05775246071503711,0.4090911842257365,0.6717559240811103,0.0,0.0,0.0,"[0.2867631034102729, 0.4085464017951068, 0.7016028601210067, 0.1837583466856927, 0.4029386578193659, 0.30834240106495514, 0.7337049344190554, 0.09352757549283552]",21.71,0.0,0.0,0.0,170.96259804575968,30.43018361082818,-1381.9378697609784,-393.86831590952426,1577.9912875103785,0.0,0.0,0.0,0.0,0.0,0.0,-11.5,21.529067593998924,0.0,21.204257046000805,0.0,-11.5,21.71,20.22,22.19,21.43,22.08,-12.23,-11.5,756.93,-983.73,-1147.85,0.0,80.0,0.0,86.0,0.0,0.0,0.0,0.0,0.0,0.0,0.0,0.0,0.0,0.0,0.0,0.0,0.0,0.0
74.0,966.0,0.0,0.0,-0.0,0.0,966.0,0.0,17726.81067823716,0.0,17726.810678237158,0.0,0.0,0.01668103214360854,0.3337220912060207,0.6717559240811103,0.0,0.0,0.0,"[0.2867631034102729, 0.4085464017951068, 0.7016028601210067, 0.1837583466856927, 0.4029386578193659, 0.30834240106495514, 0.7337049344190554, 0.09352757549283552]",21.71,0.0,0.0,0.0,118.91523356264221,29.0907060026766,-1411.0635015638818,-425.3604181645431,2830.1309528354177,0.0,0.0,0.0,0.0,0.0,0.0,-12.2,21.513504293577924,0.0,21.182899176946478,0.0,-12.2,21.71,20.2,22.16,21.43,22.07,-12.95,-12.2,3398.91,-1004.47,-1172.04,0.0,80.0,0.0,47.0,0.0,0.0,0.0,0.0,0.0,0.0,0.0,0.0,0.0,0.0,0.0,0.0,0.0,0.0
75.0,631.0,7167.380296588779,6500.543395105835,-0.0,0.0,0.0,0.0,8829.537468969316,0.0,0.0,0.0,8829.537468969318,0.01668103214360854,0.3337220912060207,0.643828963823323,0.0,0.0,0.0,"[0.2867631034102729, 0.4085464017951068, 0.7016028601210067, 0.1837583466856927, 0.4029386578193659, 0.30834240106495514, 0.7337049344190554, 0.09352757549283552]",22.29,0.0,0.0,0.0,108.23885110456682,28.815941365107047,-1451.5700242072141,-1191.8024247250562,1371.4131618659462,0.0,0.0,0.0,0.0,0.0,0.0,-12.6,21.701268210277885,0.0,21.198912143232988,0.0,-12.6,22.29,20.2,22.2,21.89,22.39,-13.35,-12.6,217.71,-1033.3,-1205.69,0.0,80.0,0.0,39.0,0.0,0.0,0.0,0.0,0.0,0.0,0.0,0.0,0.0,0.0,0.0,0.0,0.0,0.0
76.0,737.0,346.3940944546001,0.0,-0.0,0.0,392.3378760176729,0.0,15136.860603899046,0.0,15136.860603899046,0.0,0.0,0.0,0.26936469067923907,0.643828963823323,0.0,0.0,0.0,"[0.2867631034102729, 0.4085464017951068, 0.7016028601210067, 0.1837583466856927, 0.4029386578193659, 0.30834240106495514, 0.7337049344190554, 0.09352757549283552]",21.71,0.0,0.0,0.0,118.91523356264221,29.0907060026766,-1444.3499379100574,-418.2711255874799,2856.3280966045336,0.0,0.0,0.0,0.0,0.0,0.0,-13.0,21.517409267209416,0.0,21.18434016869639,0.0,-13.0,21.71,20.19,22.18,21.4,22.06,-13.74,-13.0,3384.39,-1028.16,-1199.69,0.0,80.0,0.0,47.0,0.0,0.0,0.0,0.0,0.0,0.0,0.0,0.0,0.0,0.0,0.0,0.0,0.0,0.0
77.0,706.0,16512.057188849518,15723.49690290527,-0.0,0.0,0.0,0.0,20157.686142213,0.0,0.0,0.0,20157.686142212995,0.0,0.26936469067923907,0.643828963823323,0.0,0.0,0.0,"[0.2867631034102729, 0.4085464017951068, 0.7016028601210067, 0.1837583466856927, 0.4029386578193659, 0.30834240106495514, 0.7337049344190554, 0.09352757549283552]",22.29,0.0,0.0,0.0,134.92980724975527,29.502852959030935,-1484.8564605533895,-1186.4164930094973,2510.309144283505,0.0,0.0,0.0,0.0,0.0,0.0,-13.4,21.704320716560737,0.0,21.19914172678193,0.0,-13.4,22.29,20.19,22.21,21.89,22.4,-14.15,-13.4,0.0,-1057.0,-1233.33,0.0,80.0,0.0,59.0,0.0,0.0,0.0,0.0,0.0,0.0,0.0,0.0,0.0,0.0,0.0,0.0,0.0,0.0
78.0,617.0,8767.522819159432,8106.685205063635,-0.0,0.0,0.0,0.0,10083.72045854826,0.0,0.0,0.0,10083.72045854826,0.0,0.26936469067923907,0.643828963823323,0.0,0.0,0.0,"[0.2867631034102729, 0.4085464017951068, 0.7016028601210067, 0.1837583466856927, 0.4029386578193659, 0.30834240106495514, 0.7337049344190554, 0.09352757549283552]",22.29,0.0,0.0,0.0,172.43762456957268,56.49847860023968,-1501.4996787264777,-1153.866537334612,1294.780442333169,0.0,0.0,0.0,0.0,0.0,0.0,-13.8,21.720887540118305,0.0,21.21845081491189,0.0,-13.8,22.29,20.19,22.25,21.84,22.39,-14.55,-13.8,598.19,-1068.84,-1247.16,0.0,160.0,0.0,45.0,0.0,0.0,0.0,0.0,0.0,0.0,0.0,0.0,0.0,0.0,0.0,0.0,0.0,0.0
79.0,1796.0,13162.786679000918,11300.972745605914,-0.0,0.0,0.0,0.0,13733.814804882424,0.0,0.0,0.0,13733.814804882424,0.0,0.26936469067923907,0.643828963823323,0.0,0.0,0.0,"[0.2867631034102729, 0.4085464017951068, 0.7016028601210067, 0.1837583466856927, 0.4029386578193659, 0.30834240106495514, 0.7337049344190554, 0.09352757549283552]",21.71,0.0,0.0,0.0,52.04736448311748,1.3394776081515756,-1490.118787886049,-385.79076604681694,2960.9727839889165,0.0,0.0,0.0,0.0,0.0,0.0,-14.1,21.53424550553197,0.0,21.200263973814717,0.0,-14.1,21.71,20.17,22.23,21.4,22.09,-14.86,-14.1,1190.84,-1060.74,-1237.71,0.0,0.0,0.0,39.0,0.0,0.0,0.0,0.0,0.0,0.0,0.0,0.0,0.0,0.0,0.0,0.0,0.0,0.0
80.0,1583.0,24622.101708342154,6915.991199800443,-0.0,0.0,-16000.0,0.0,8338.914331037395,0.0,0.0,0.0,8338.914331037395,0.6533333333333333,0.26936469067923907,0.643828963823323,0.0,0.0,0.0,"[0.2867631034102729, 0.4085464017951068, 0.7016028601210067, 0.18375834668569624, 0.40293865781936944, 0.30834240106495514, 0.7337049344190554, 0.09352757549297053]",22.29,0.0,0.0,3.749761979897129,61.38919913393343,1.5798966660249363,-1518.142896899565,-1158.0462927200858,1471.4307800590977,0.0,0.0,0.0,0.0,0.0,0.0,-14.2,21.718952610495098,0.0,21.212175180956585,0.0,-14.2,22.29,20.17,22.26,21.89,22.43,-14.95,-14.2,1257.59,-1080.69,-1260.98,5.46,0.0,0.0,46.0,0.0,0.0,0.0,0.0,0.0,0.0,0.0,0.0,0.0,0.0,0.0,0.0,0.0,0.0
81.0,4888.0,0.0,0.0,-0.0,7988.894981624691,-185.49923546873197,0.0,2623.8561715403616,0.0,0.0,0.0,0.0,0.6609078854483066,0.26936469067923907,0.643828963823323,11661.582984623836,2915.395746155959,14576.978730779794,"[0.2867631034102729, 0.4085464017951068, 0.7016028601210067, 0.18375834668569624, 0.40293865781936944, 0.30834240106495514, 0.7337049344190554, 0.09352757549297053]",21.71,0.0,0.0,1279.809211429975,70.73103378474937,1.820315723898297,-1398.5810879340659,-387.186293141478,456.8881551723723,0.0,0.0,0.0,0.0,0.0,0.0,-11.9,21.53222278809877,0.0,21.193855419165033,0.0,-11.9,21.71,20.15,22.24,21.4,22.09,-11.72,-11.9,365.13,-995.58,-1161.67,1863.14,0.0,0.0,53.0,0.0,0.0,0.0,0.0,0.0,0.0,0.0,0.0,0.0,0.0,0.0,0.0,0.0,0.0
82.0,2104.0,0.0,12186.819338387331,-0.0,14290.819338387333,0.0,0.0,8576.59517447437,0.0,-10997.177058372401,0.0,19573.77223284677,0.6609078854483066,0.3142698303342597,0.643828963823323,0.0,0.0,0.0,"[0.2867631034102729, 0.4085464017951068, 0.7016028601210067, 0.18375834668569624, 0.40293865781936944, 0.30834240106495514, 0.7337049344190554, 0.09352757549297053]",21.71,0.0,0.0,1528.0584418983415,65.3928425557117,1.682933405113522,-1319.5258016118992,-367.79346672107425,1261.2727268005528,0.0,0.0,0.0,0.0,0.0,0.0,-10.0,21.541097600923514,0.0,21.2047020086584,0.0,-10.0,21.71,20.15,22.26,21.72,22.33,-9.59,-10.0,0.0,-939.31,-1096.01,2224.53,0.0,0.0,49.0,0.0,0.0,0.0,0.0,0.0,0.0,0.0,0.0,0.0,0.0,0.0,0.0,0.0,0.0
83.0,1335.0,0.0,1691.0543817652356,-14224.408303827353,17250.46268559259,0.0,0.0,2957.8949390067987,0.0,0.0,0.0,2957.8949390067987,0.6609078854483066,0.3142698303342597,0.6927409643066591,0.0,0.0,0.0,"[0.2867631034102729, 0.4085464017951068, 0.7016028601210067, 0.18375834668569624, 0.40293865781936944, 0.30834240106495514, 0.7337049344190554, 0.09352757549297053]",22.29,0.0,0.0,1652.306905614564,61.38919913393343,1.5798966660249363,-1280.9770379330646,-1078.117126614393,0.0,0.0,0.0,0.0,0.0,0.0,0.0,-8.5,21.756316273724654,0.0,21.258018099050403,0.0,-8.5,22.29,20.18,22.33,22.22,22.71,-8.04,-8.5,0.0,-911.87,-1063.99,2405.41,0.0,0.0,46.0,0.0,0.0,0.0,0.0,0.0,0.0,0.0,0.0,0.0,0.0,0.0,0.0,0.0,0.0
84.0,1093.0,0.0,5050.202056561031,-13213.345264925394,19356.547321486425,0.0,0.0,9314.973863418625,0.0,0.0,0.0,9314.973863418623,0.6609078854483066,0.3142698303342597,0.7381763269720166,0.0,0.0,0.0,"[0.2867631034102729, 0.4085464017951068, 0.7016028601210067, 0.18375834668569624, 0.40293865781936944, 0.30834240106495514, 0.7337049344190554, 0.09352757549297053]",21.94,0.0,0.0,1779.611449074184,54.71646009763631,1.4081687675439671,-1225.1361399648147,-546.0920609348673,0.0,0.0,0.0,0.0,0.0,0.0,0.0,-7.5,21.681748373860415,0.0,21.296535187792244,0.0,-7.5,21.94,20.21,22.39,21.93,22.54,-7.06,-7.5,0.0,-872.12,-1017.61,2590.74,0.0,0.0,41.0,0.0,0.0,0.0,0.0,0.0,0.0,0.0,0.0,0.0,0.0,0.0,0.0,0.0,0.0
85.0,2875.0,0.0,2198.590274073307,-12052.67012528306,17126.260399356368,0.0,0.0,4118.125358960977,0.0,0.0,0.0,4118.125358960977,0.6609078854483066,0.3142698303342597,0.7796205961747443,0.0,0.0,0.0,"[0.2867631034102729, 0.4085464017951068, 0.7016028601210067, 0.18375834668569624, 0.40293865781936944, 0.30834240106495514, 0.7337049344190554, 0.09352757549297053]",21.96,0.0,0.0,1581.7203191207948,1770.7342221584233,99.25872532200165,-1213.1993062062477,-510.89396409070605,-1028.960372462284,0.0,0.0,0.0,0.0,0.0,0.0,-7.2,21.712523172355194,0.0,21.33261236455601,0.0,-7.2,21.96,20.23,22.43,22.0,22.61,-6.87,-7.2,0.0,-863.62,-1007.69,2302.65,165.0,0.0,1240.0,0.0,0.0,0.0,0.0,0.0,0.0,0.0,0.0,0.0,0.0,0.0,0.0,0.0,0.0
86.0,3540.0,0.0,2477.4575430286754,-0.0,14215.44226900891,-8197.984725980235,0.0,4522.372965251375,0.0,0.0,0.0,4522.372965251374,0.9956589284258328,0.3142698303342597,0.7796205961747443,0.0,0.0,0.0,"[0.2867631034102729, 0.4085464017951068, 0.7016028601210067, 0.18375834668569624, 0.40293865781936944, 0.30834240106495514, 0.7337049344190554, 0.09352757549297053]",22.29,0.0,0.0,1332.0369215861406,681.6027327181806,51.38098722550673,-1247.690601586889,-906.1893166622896,123.61809717424106,0.0,0.0,0.0,0.0,0.0,0.0,-7.7,21.842726768262605,0.0,21.373672458528283,0.0,-7.7,22.29,20.26,22.48,22.15,22.73,-7.53,-7.7,0.0,-888.17,-1036.34,1939.17,104.0,0.0,456.0,0.0,0.0,0.0,0.0,0.0,0.0,0.0,0.0,0.0,0.0,0.0,0.0,0.0,0.0
87.0,3697.0,10579.522397331633,0.0,-0.0,0.7778421078042074,0.0,0.0,6147.362364707498,0.0,0.0,0.0,0.0,0.9956589284258328,0.3142698303342597,0.7796205961747443,27321.610509811115,6830.402627452779,34152.01313726389,"[0.2867631034102729, 0.4085464017951068, 0.7016028601210067, 0.18375834668569624, 0.40293865781936944, 0.30834240106495514, 0.7337049344190554, 0.09352757549297053]",22.29,0.0,0.0,25.17523952709517,332.4428827241497,46.95040744469765,-1318.424278822512,-858.3463121472898,833.4040521111106,0.0,0.0,0.0,0.0,0.0,0.0,-9.4,21.867905840861702,0.0,21.407791722809225,0.0,-9.4,22.29,20.29,22.53,22.07,22.69,-10.08,-9.4,0.0,-938.52,-1095.09,36.65,118.0,0.0,187.0,0.0,0.0,0.0,0.0,0.0,0.0,0.0,0.0,0.0,0.0,0.0,0.0,0.0,0.0
88.0,1924.0,1933.6683417085428,0.0,-0.0,0.0,0.0,0.0,7682.563037864736,0.0,7682.5630378647365,0.0,0.0,0.9956589284258328,0.28160587183993685,0.7796205961747443,0.0,0.0,0.0,"[0.2867631034102729, 0.4085464017951068, 0.7016028601210067, 0.18375834668569624, 0.40293865781936944, 0.30834240106495514, 0.7337049344190554, 0.09352757549297053]",21.81,0.0,0.0,0.0,133.4547807259422,3.4345579696194313,-1290.2961859952914,-244.9974018626955,1205.2955218891825,0.0,0.0,0.0,0.0,0.0,0.0,-9.2,21.700638185343326,0.0,21.37952689403148,0.0,-9.2,21.81,20.28,22.48,21.46,22.24,-9.9,-9.2,0.0,-918.5,-1071.73,0.0,0.0,0.0,100.0,0.0,0.0,0.0,0.0,0.0,0.0,0.0,0.0,0.0,0.0,0.0,0.0,0.0,0.0
89.0,2228.0,0.0,5295.995017359525,-0.0,0.0,7523.995017359525,0.0,9011.00776615521,0.0,0.0,0.0,9011.00776615521,0.6757611810891183,0.28160587183993685,0.7667312299019194,0.0,0.0,0.0,"[0.2867631034102729, 0.4085464017951068, 0.7016028601210067, 0.18375834668569624, 0.40293865781936944, 0.30834240106495514, 0.7337049344190554, 0.09352757549297053]",21.71,0.0,0.0,0.0,62.72374694119285,1.6142422457211305,-1277.9177561791796,-166.94444657233998,2519.0065916577205,0.0,0.0,0.0,0.0,0.0,0.0,-9.0,21.642321334711724,0.0,21.34367833338427,0.0,-9.0,21.71,20.27,22.42,21.43,22.19,-9.66,-9.0,0.0,-909.69,-1061.45,0.0,0.0,0.0,47.0,0.0,0.0,0.0,0.0,0.0,0.0,0.0,0.0,0.0,0.0,0.0,0.0,0.0,0.0
90.0,3779.0,6569.811484378183,2757.9624269562923,-0.0,0.0,0.0,0.0,4745.191543232174,0.0,0.0,0.0,4745.191543232174,0.6757611810891183,0.28160587183993685,0.7667312299019194,0.0,0.0,0.0,"[0.2867631034102729, 0.4085464017951068, 0.7016028601210067, 0.18375834668569624, 0.40293865781936944, 0.30834240106495514, 0.7337049344190554, 0.09352757549297053]",22.29,0.0,0.0,0.0,70.73103378474937,1.820315723898297,-1293.4594515628803,-957.0124662511635,1039.842014534676,0.0,0.0,0.0,0.0,0.0,0.0,-8.8,21.8179238367464,0.0,21.346713613846454,0.0,-8.8,22.29,20.27,22.42,21.89,22.5,-9.44,-8.8,0.0,-920.75,-1074.36,0.0,0.0,0.0,53.0,0.0,0.0,0.0,0.0,0.0,0.0,0.0,0.0,0.0,0.0,0.0,0.0,0.0,0.0
91.0,4844.0,31969.76789076274,19458.676209326335,-0.0,0.0,-535.5968419825931,0.0,5778.40076214955,34858.23,0.0,0.0,33664.98476214956,0.6715943801530042,0.28160587183993685,0.7618977175496101,27886.584000000003,6971.646000000001,34858.23,"[0.2867631034102729, 0.4085464017951068, 0.7016028601210067, 0.18375834668569624, 0.40293865781936944, 0.30834240106495514, 0.7337049344190554, 0.09352757549297053]",21.71,0.0,0.0,0.0,234.59945664455108,52.89219273213929,-1265.435342549364,-204.54710313354437,2327.0022715327573,0.0,0.0,0.0,0.0,0.0,0.0,-8.7,21.62323363182072,0.0,21.320898213584417,0.0,-8.7,21.71,20.26,22.38,21.4,22.15,-9.32,-8.7,870.92,-900.8,-1051.08,0.0,144.0,0.0,100.0,0.0,0.0,0.0,0.0,0.0,0.0,0.0,0.0,0.0,0.0,0.0,0.0,0.0,0.0
92.0,5300.0,1650.121841994236,3392.494650779201,-0.0,0.0,7050.623417994936,0.0,5933.956273879617,0.0,0.0,0.0,5933.956273879617,0.3718229763266889,0.5278447837488198,0.7565271482692665,0.0,0.0,0.0,"[0.2867631034102729, 0.4085464017951068, 0.7016028601210067, 0.160009614824137, 0.40293865781936944, 0.30834240106495514, 0.7337049344190554, 0.09352757549297053]",22.29,0.0,0.0,0.0,589.0974978676196,69.13765192843921,-1280.9770379330646,-992.2258608828856,484.804151968207,0.0,0.0,0.0,0.0,0.0,0.0,-8.5,21.8000400999477,0.0,21.32541447740416,0.0,-8.5,22.29,20.27,22.38,21.88,22.47,-9.1,-8.5,0.0,-911.87,-1063.99,0.0,130.0,19.0,371.0,0.0,0.0,0.0,0.0,0.0,0.0,0.0,0.0,0.0,0.0,0.0,0.0,0.0,0.0
93.0,4487.0,8710.463754532353,4179.911435759693,-0.0,0.0,0.0,0.0,7390.957124843565,0.0,0.0,0.0,7390.957124843565,0.3718229763266889,0.5278447837488198,0.7516936359169571,0.0,0.0,0.0,"[0.2867631034102729, 0.4085464017951068, 0.7016028601210067, 0.160009614824137, 0.40293865781936944, 0.30834240106495514, 0.7337049344190554, 0.09352757549297053]",21.71,0.0,0.0,0.0,803.5382586867256,85.86394924048585,-1248.792124376276,-244.918845008129,1752.6969501787714,0.0,0.0,0.0,0.0,0.0,0.0,-8.3,21.602710799222635,0.0,21.29617399239764,0.0,-8.3,21.71,20.26,22.34,21.34,22.08,-8.89,-8.3,398.79,-888.95,-1037.26,0.0,155.0,24.0,518.0,0.0,0.0,0.0,0.0,0.0,0.0,0.0,0.0,0.0,0.0,0.0,0.0,0.0,0.0
94.0,2960.0,0.0,2976.276403203731,-0.0,0.0,5936.276403203731,0.0,5319.426310017654,0.0,0.0,0.0,5319.426310017654,0.11943027210884322,0.5278447837488198,0.6625421858632514,0.0,0.0,0.0,"[0.2867631034102729, 0.4085464017951068, 0.7016028601210067, 0.160009614824137, 0.40293865781936944, 0.30834240106495514, 0.7337049344190554, 0.09352757549297053]",22.29,0.0,0.0,0.0,512.0449218379573,60.79167606226399,-1264.333819759977,-1040.0059097478043,1738.6508221140289,0.0,0.0,0.0,0.0,0.0,0.0,-8.1,21.775784745584097,0.0,21.29586470430521,0.0,-8.1,22.29,20.26,22.33,21.8,22.39,-8.67,-8.1,298.12,-900.02,-1050.17,0.0,84.0,33.0,336.0,0.0,0.0,0.0,0.0,0.0,0.0,0.0,0.0,0.0,0.0,0.0,0.0,0.0,0.0
95.0,1518.0,0.0,0.0,-0.0,0.0,1517.9999999999927,0.0,9200.717762680559,0.0,9200.717762680571,0.0,0.0,0.05488945578231292,0.48872608577823917,0.6625421858632506,0.0,0.0,0.0,"[0.2867631034102729, 0.4085464017951068, 0.7016028601210067, 0.160009614824137, 0.40293865781936944, 0.30834240106495514, 0.7337049344190554, 0.09352757549297053]",22.29,0.0,0.0,0.0,327.0344521368353,59.211779396239045,-1256.0122106734327,-1024.9555933247082,763.3909231216617,0.0,0.0,0.0,0.0,0.0,0.0,-7.9,21.783277174474534,0.0,21.3061756368002,0.0,-7.9,22.29,20.27,22.34,21.79,22.39,-8.46,-7.9,1765.61,-894.09,-1043.25,0.0,141.0,8.0,170.0,0.0,0.0,0.0,0.0,0.0,0.0,0.0,0.0,0.0,0.0,0.0,0.0,0.0,0.0
96.0,1291.0,0.0,0.0,-0.0,0.0,1291.0,0.0,7389.719469371271,0.0,7389.719469371271,0.0,0.0,0.0,0.4573072104832933,0.6233370301167415,0.0,0.0,0.0,"[0.2867631034102729, 0.4085464017951068, 0.7016028601210067, 0.160009614824137, 0.40293865781936944, 0.30834240106495514, 0.7337049344190554, 0.09352757549297053]",21.71,0.0,0.0,0.0,263.0463967466598,32.80002860986559,-1207.1840789435566,-267.7388048081477,1182.9329806741093,0.0,0.0,0.0,0.0,0.0,0.0,-7.3,21.590785303669485,0.0,21.283159191556116,0.0,-7.3,21.71,20.26,22.31,21.37,22.09,-7.87,-7.3,680.81,-859.34,-1002.7,0.0,80.0,0.0,155.0,0.0,0.0,0.0,0.0,0.0,0.0,0.0,0.0,0.0,0.0,0.0,0.0,0.0,0.0
97.0,1461.0,9023.155412512639,7517.039635450075,-0.0,0.0,0.0,0.0,14509.955502936182,0.0,0.0,0.0,14509.955502936184,0.0,0.4573072104832933,0.6233370301167415,0.0,0.0,0.0,"[0.2867631034102729, 0.4085464017951068, 0.7016028601210067, 0.160009614824137, 0.40293865781936944, 0.30834240106495514, 0.7337049344190554, 0.09352757549297053]",21.71,0.0,0.0,0.0,316.4283090370367,34.17385179771337,-1178.0584471406532,-310.2176957017675,2279.984614677132,0.0,0.0,0.0,0.0,0.0,0.0,-6.6,21.569085767069257,0.0,21.256281938053156,0.0,-6.6,21.71,20.25,22.26,21.41,22.09,-7.17,-6.6,1880.73,-838.6,-978.51,0.0,80.0,0.0,195.0,0.0,0.0,0.0,0.0,0.0,0.0,0.0,0.0,0.0,0.0,0.0,0.0,0.0,0.0
98.0,1354.0,23142.03951509482,5672.329317519345,-0.0,0.0,-16000.0,0.0,11327.689240280404,0.0,0.0,0.0,11327.689240280404,0.6533333333333333,0.4573072104832933,0.6233370301167415,0.0,0.0,0.0,"[0.2867631034102729, 0.4085464017951068, 0.7016028601210067, 0.160009614824137, 0.40293865781936944, 0.30834240106495514, 0.7337049344190554, 0.09352757549297053]",22.29,0.0,0.0,0.0,187.11765044942638,31.460551001714013,-1172.796119807994,-1088.0871761385342,907.7115446269858,0.0,0.0,0.0,0.0,0.0,0.0,-5.9,21.75062399618138,0.0,21.26709941606093,0.0,-5.9,22.29,20.26,22.27,21.84,22.39,-6.45,-5.9,1098.24,-834.86,-974.13,0.0,80.0,1.0,98.0,0.0,0.0,0.0,0.0,0.0,0.0,0.0,0.0,0.0,0.0,0.0,0.0,0.0,0.0
99.0,977.0,0.0,6142.3118973827395,-0.0,0.0,7119.3118973827395,0.0,12500.47457289353,0.0,0.0,0.0,12500.474572893532,0.3506415009616182,0.4573072104832933,0.6233370301167415,0.0,0.0,0.0,"[0.2867631034102729, 0.4085464017951068, 0.7016028601210067, 0.160009614824137, 0.40293865781936944, 0.30834240106495514, 0.7337049344190554, 0.09352757549297053]",21.71,0.0,0.0,0.0,118.91523356264221,29.0907060026766,-1132.2895971646617,-321.447274015522,2447.4439042871745,0.0,0.0,0.0,0.0,0.0,0.0,-5.5,21.56295555679698,0.0,21.250707441280646,0.0,-5.5,21.71,20.26,22.24,21.37,22.06,-6.04,-5.5,1979.7,-806.02,-940.49,0.0,80.0,0.0,47.0,0.0,0.0,0.0,0.0,0.0,0.0,0.0,0.0,0.0,0.0,0.0,0.0,0.0,0.0
100.0,877.0,1565.348633555981,4411.88846790051,-0.0,0.0,3731.3665775123086,0.0,9189.117268450023,0.0,0.0,0.0,9189.117268450023,0.1919949628020813,0.4573072104832933,0.6233370301167415,0.0,0.0,0.0,"[0.2867631034102729, 0.4085464017951068, 0.7016028601210067, 0.160009614824137, 0.40293865781936944, 0.30834240106495514, 0.7337049344190554, 0.09352757549297053]",22.29,0.0,0.0,0.0,284.3991616628105,33.3495578850047,-1135.3488789185465,-1093.0631650745247,1914.5844586157552,0.0,0.0,0.0,0.0,0.0,0.0,-5.0,21.747730318648536,0.0,21.265982456017788,0.0,-5.0,22.29,20.27,22.26,21.87,22.4,-5.53,-5.0,1121.27,-808.2,-943.03,0.0,80.0,0.0,171.0,0.0,0.0,0.0,0.0,0.0,0.0,0.0,0.0,0.0,0.0,0.0,0.0,0.0,0.0
101.0,904.0,6751.276157284877,5813.519776498452,-0.0,0.0,0.0,0.0,12330.134657179571,0.0,0.0,0.0,12330.134657179571,0.1919949628020813,0.4573072104832933,0.623337030116741,0.0,0.0,0.0,"[0.2867631034102729, 0.4085464017951068, 0.7016028601210067, 0.160009614824137, 0.40293865781936944, 0.30834240106495514, 0.7337049344190554, 0.09352757549297053]",22.29,0.0,0.0,0.0,164.7112951591234,32.11311701594171,-1118.705660745459,-1065.9737083351772,853.3381336583581,0.0,0.0,0.0,0.0,0.0,0.0,-4.6,21.761175057385874,0.0,21.28471011968157,0.0,-4.6,22.29,20.29,22.28,21.8,22.36,-5.05,-4.6,1944.96,-796.35,-929.21,0.0,80.0,3.0,81.0,0.0,0.0,0.0,0.0,0.0,0.0,0.0,0.0,0.0,0.0,0.0,0.0,0.0,0.0
102.0,697.0,4298.668603752331,3580.1752607335693,-0.0,0.0,0.0,0.0,7695.734586411605,0.0,0.0,0.0,7695.734586411605,0.1919949628020813,0.4573072104832933,0.623337030116741,0.0,0.0,0.0,"[0.2867631034102729, 0.4085464017951068, 0.7016028601210067, 0.160009614824137, 0.40293865781936944, 0.30834240106495514, 0.7337049344190554, 0.09352757549297053]",21.71,0.0,0.0,0.0,141.32158885294515,48.35857621224164,-1082.359942645397,-299.5335767545441,2336.191781455798,0.0,0.0,0.0,0.0,0.0,0.0,-4.3,21.57345606961184,0.0,21.268717704091245,0.0,-4.3,21.71,20.29,22.25,21.37,22.06,-4.76,-4.3,624.79,-770.48,-899.02,0.0,111.0,14.0,46.0,0.0,0.0,0.0,0.0,0.0,0.0,0.0,0.0,0.0,0.0,0.0,0.0,0.0,0.0
103.0,1076.0,0.0,3439.721525104953,-0.0,0.0,4515.721525104953,0.0,7492.1992435752,0.0,0.0,0.0,7492.199243575201,0.0,0.4573072104832933,0.623337030116741,0.0,0.0,0.0,"[0.2867631034102729, 0.4085464017951068, 0.7016028601210067, 0.160009614824137, 0.40293865781936944, 0.30834240106495514, 0.7337049344190554, 0.09352757549297053]",22.29,0.0,0.0,0.0,168.71493858090167,55.57114794844245,-1093.7408334858274,-1071.610671092299,809.3067149236276,0.0,0.0,0.0,0.0,0.0,0.0,-4.0,21.758084125159897,0.0,21.284204322604474,0.0,-4.0,22.29,20.3,22.27,21.87,22.4,-4.45,-4.0,1139.22,-778.58,-908.47,0.0,131.0,14.0,56.0,0.0,0.0,0.0,0.0,0.0,0.0,0.0,0.0,0.0,0.0,0.0,0.0,0.0,0.0
104.0,2048.0,21545.21916996309,3389.4930741132757,-0.0,0.0,-16000.0,0.0,7479.733816999302,0.0,0.0,0.0,7479.733816999302,0.6533333333333333,0.4573072104832933,0.623337030116741,0.0,0.0,0.0,"[0.2867631034102729, 0.4085464017951068, 0.7016028601210067, 0.160009614824137, 0.40293865781936944, 0.30834240106495514, 0.4299479524172085, 0.09352757549297053]",21.71,0.0,0.0,1.2237527182492913,160.5671730207915,60.92905838104875,-1057.3951153857668,-302.75035457890596,2282.9038749032134,0.0,0.0,0.0,0.0,0.0,0.0,-3.7,21.571569974802113,0.0,21.269817931461024,0.0,-3.7,21.71,20.3,22.24,21.38,22.05,-4.13,-3.7,1179.86,-752.71,-878.28,1.78,133.0,22.0,48.0,0.0,0.0,0.0,0.0,0.0,0.0,0.0,0.0,0.0,0.0,0.0,0.0,0.0,0.0
105.0,1828.0,4080.1570925043015,2377.188501624579,-0.0,5.47993646369194,139.95225811910666,0.0,5585.776681452447,0.0,0.0,0.0,5585.776681452446,0.6473829822228271,0.4573072104832933,0.623337030116741,0.0,0.0,0.0,"[0.2867631034102729, 0.4085464017951068, 0.7016028601210067, 0.160009614824137, 0.40293865781936944, 0.30834240106495514, 0.4299479524172085, 0.09352757549297053]",22.29,0.0,0.0,35.97575525811195,233.05419076246122,70.13367373962885,-1018.8463517069321,-1072.3618332303088,622.6448524452309,0.0,0.0,0.0,0.0,0.0,0.0,-2.2,21.756917385759426,0.0,21.286302170098672,0.0,-2.2,22.29,20.32,22.25,21.88,22.39,-2.58,-2.2,1986.94,-725.27,-846.26,52.37,165.0,17.0,86.0,0.0,0.0,0.0,0.0,0.0,0.0,0.0,0.0,0.0,0.0,0.0,0.0,0.0,0.0
106.0,4098.0,4099.8249412123305,0.0,-0.0,18.67418349373117,0.0,0.0,3583.4237688043163,0.0,3583.4237688043168,0.0,0.0,0.6473829822228271,0.44207156520776475,0.6233370301167408,0.0,0.0,0.0,"[0.2867631034102729, 0.4085464017951068, 0.7016028601210067, 0.160009614824137, 0.40293865781936944, 0.30834240106495514, 0.4299479524172085, 0.09352757549297053]",21.71,0.0,0.0,45.18279003179987,90.74925089364072,2.335499419341213,-953.3750018039682,-300.7258041128139,2255.213643221383,0.0,0.0,0.0,0.0,0.0,0.0,-1.2,21.571504208640867,0.0,21.273932867300815,0.0,-1.2,21.71,20.32,22.22,21.38,22.04,-1.55,-1.2,1686.36,-678.66,-791.88,65.78,0.0,0.0,68.0,0.0,0.0,0.0,0.0,0.0,0.0,0.0,0.0,0.0,0.0,0.0,0.0,0.0,0.0
107.0,6608.0,0.0,0.0,-0.0,217.88542898038207,6390.114571019618,0.0,1890.3311993212835,0.0,1890.3311993212833,0.0,0.0,0.37569443753661885,0.43403444276167086,0.6233370301167408,0.0,0.0,0.0,"[0.2867631034102729, 0.4085464017951068, 0.7016028601210067, 0.160009614824137, 0.40293865781936944, 0.30834240106495514, 0.4299479524172085, 0.09352757549297053]",22.29,0.0,0.0,83.89301161875878,28.025503952447863,0.7212571736200785,-923.1478472116761,-1067.987254441273,741.8117724275372,0.0,0.0,0.0,0.0,0.0,0.0,0.1,21.758142714494465,0.0,21.292911318215275,0.0,0.1,22.29,20.35,22.24,21.87,22.38,-0.25,0.1,1621.97,-657.14,-766.77,122.13,0.0,0.0,21.0,0.0,0.0,0.0,0.0,0.0,0.0,0.0,0.0,0.0,0.0,0.0,0.0,0.0,0.0
108.0,3379.0,0.0,3514.357315159285,-0.0,532.9417993853374,6360.415515773948,0.0,9396.945768042528,0.0,0.0,0.0,9396.945768042528,0.10526860778432519,0.43403444276167086,0.6233370301167408,0.0,0.0,0.0,"[0.2867631034102729, 0.4085464017951068, 0.7016028601210067, 0.160009614824137, 0.40293865781936944, 0.30834240106495514, 0.4299479524172085, 0.09352757549297053]",21.71,0.0,0.0,107.25373181338816,64.05829474845225,1.6485878254173278,-853.5156927654416,-291.1826347505642,2112.1929363945947,0.0,0.0,0.0,0.0,0.0,0.0,1.2,21.575329024447353,0.0,21.28456350024342,0.0,1.2,21.71,20.36,22.21,21.4,22.04,0.79,1.2,1150.73,-607.58,-708.94,156.14,0.0,0.0,48.0,0.0,0.0,0.0,0.0,0.0,0.0,0.0,0.0,0.0,0.0,0.0,0.0,0.0,0.0
109.0,1173.0,0.0,1869.9307790264806,-0.0,567.0131239391521,2475.9176550873285,0.0,5142.5707492907595,0.0,0.0,0.0,5142.570749290759,0.0,0.43403444276167086,0.6233370301167408,0.0,0.0,0.0,"[0.2867631034102729, 0.4085464017951068, 0.7016028601210067, 0.160009614824137, 0.40293865781936944, 0.30834240106495514, 0.4299479524172085, 0.09352757549297053]",22.29,0.0,0.0,110.8982008448988,88.08015527912185,2.266808259948825,-844.0925608895105,-1054.7283801901654,561.6052470298429,0.0,0.0,0.0,0.0,0.0,0.0,2.0,21.764049161179088,0.0,21.306926944530865,0.0,2.0,22.29,20.38,22.23,21.89,22.37,1.59,2.0,725.39,-600.87,-701.11,161.44,0.0,0.0,66.0,0.0,0.0,0.0,0.0,0.0,0.0,0.0,0.0,0.0,0.0,0.0,0.0,0.0,0.0
110.0,2456.0,28990.940505588387,10541.034565519132,-0.0,151.0487624586904,-16000.0,0.0,8235.5205038407,0.0,-21055.269196385867,0.0,29290.789700226567,0.6533333333333333,0.5200101253135798,0.6233370301167408,0.0,0.0,0.0,"[0.2867631034102729, 0.4085464017951068, 0.7016028601210067, 0.160009614824137, 0.40293865781936944, 0.30834240106495514, 0.4299479524172085, 0.09352757549297053]",21.71,0.0,0.0,82.31481864778925,25.356408337929018,0.6525660142276909,-807.7468427894503,-278.1764980011146,979.2159522982861,0.0,0.0,0.0,0.0,0.0,0.0,2.3,21.58143582879685,0.0,21.299321451524303,0.0,2.3,21.71,20.39,22.2,21.4,22.03,1.85,2.3,1554.05,-575.0,-670.92,119.83,0.0,0.0,19.0,0.0,0.0,0.0,0.0,0.0,0.0,0.0,0.0,0.0,0.0,0.0,0.0,0.0,0.0
111.0,3406.0,0.0,2721.429010187485,-0.0,0.06533722731502031,6127.363672960169,0.0,7406.477129783493,0.0,0.0,0.0,7406.477129783494,0.39281617036733973,0.5200101253135798,0.6233370301167408,0.0,0.0,0.0,"[0.2867631034102729, 0.4085464017951068, 0.7016028601210067, 0.160009614824137, 0.40293865781936944, 0.30834240106495514, 0.4299479524172085, 0.09352757549297053]",21.71,0.0,0.0,20.737338978189335,186.6259749414886,46.126113531989,-832.711670049082,-303.74470996178064,2027.0608560441385,0.0,0.0,0.0,0.0,0.0,0.0,1.7,21.56882146205023,0.0,21.286647389241246,0.0,1.7,21.71,20.4,22.17,21.44,22.04,1.21,1.7,792.25,-592.77,-691.66,30.19,127.0,0.0,73.0,0.0,0.0,0.0,0.0,0.0,0.0,0.0,0.0,0.0,0.0,0.0,0.0,0.0,0.0
112.0,4402.0,0.0,0.0,-0.0,0.0,4402.0,0.0,4706.381473753961,0.0,4706.381473753961,0.0,0.0,0.20565630642176153,0.5,0.6179664608363971,0.0,0.0,0.0,"[0.2867631034102729, 0.4085464017951068, 0.7016028601210067, 0.160009614824137, 0.40293865781936944, 0.30834240106495514, 0.4299479524172085, 0.09352757549297053]",22.29,0.0,0.0,0.0,397.5547678467542,39.84087244758544,-889.8614108655021,-1069.647897516988,388.5054495663988,0.0,0.0,0.0,0.0,0.0,0.0,0.9,21.757037759098182,0.0,21.307977157341597,0.0,0.9,22.29,20.43,22.19,21.87,22.33,0.39,0.9,1691.49,-633.45,-739.13,0.0,91.0,0.0,250.0,0.0,0.0,0.0,0.0,0.0,0.0,0.0,0.0,0.0,0.0,0.0,0.0,0.0,0.0
113.0,4555.0,11818.682596283857,2551.4181255593403,-0.0,0.0,-4653.171057743098,0.0,6773.521591539625,0.0,0.0,0.0,6773.521591539625,0.3956607912796047,0.5,0.6125958915560533,0.0,0.0,0.0,"[0.2867631034102729, 0.4085464017951068, 0.7016028601210067, 0.160009614824137, 0.40293865781936944, 0.30834240106495514, 0.4299479524172085, 0.09352757549297053]",21.71,0.0,0.0,0.0,13.345478072594215,0.3434557969619424,-861.8373018519856,-300.4643704190055,1148.6531208336844,0.0,0.0,0.0,0.0,0.0,0.0,1.0,21.57078599881889,0.0,21.29464023809838,0.0,1.0,21.71,20.43,22.16,21.35,21.97,0.47,1.0,0.0,-613.5,-715.85,0.0,0.0,0.0,10.0,0.0,0.0,0.0,0.0,0.0,0.0,0.0,0.0,0.0,0.0,0.0,0.0,0.0,0.0
114.0,3183.0,0.0,1913.563597852203,-0.0,0.0,5096.563597852203,0.0,5098.383792459522,0.0,0.0,0.0,5098.383792459522,0.1789701621192219,0.5,0.6125958915560533,0.0,0.0,0.0,"[0.2867631034102729, 0.4085464017951068, 0.7016028601210067, 0.160009614824137, 0.40293865781936944, 0.30834240106495514, 0.4299479524172085, 0.09352757549297053]",21.71,0.0,0.0,0.0,61.38919913393343,1.5798966660249363,-857.6764973087136,-325.2398601973436,2258.4256015559845,0.0,0.0,0.0,0.0,0.0,0.0,1.1,21.55826270947894,0.0,21.28094524287379,0.0,1.1,21.71,20.44,22.13,21.44,22.01,0.57,1.1,0.0,-610.54,-712.39,0.0,0.0,0.0,46.0,0.0,0.0,0.0,0.0,0.0,0.0,0.0,0.0,0.0,0.0,0.0,0.0,0.0,0.0
115.0,2536.0,4542.683813681728,1983.97039461332,-0.0,0.0,0.0,0.0,5323.799025627175,0.0,0.0,0.0,5323.799025627174,0.1789701621192219,0.5,0.5647978249609943,0.0,0.0,0.0,"[0.2867631034102729, 0.4085464017951068, 0.7016028601210067, 0.160009614824137, 0.40293865781936944, 0.30834240106495514, 0.4299479524172085, 0.09352757549297053]",22.29,0.0,0.0,0.0,108.09837238801322,2.781991955391741,-873.2181926924142,-1086.9515208948337,1849.616446944986,0.0,0.0,0.0,0.0,0.0,0.0,1.3,21.748163059654463,0.0,21.303636529608394,0.0,1.3,22.29,20.46,22.15,21.89,22.31,0.76,1.3,0.0,-621.6,-725.3,0.0,0.0,0.0,81.0,0.0,0.0,0.0,0.0,0.0,0.0,0.0,0.0,0.0,0.0,0.0,0.0,0.0,0.0
116.0,3498.0,4230.530867381004,711.3782130440992,-0.0,0.0,0.0,0.0,1915.6986979473245,0.0,0.0,0.0,1915.6986979473245,0.0,0.5,0.5647978249609937,0.0,0.0,0.0,"[0.2867631034102729, 0.35887405858775523, 0.40025201328220916, 0.160009614824137, 0.40293865781936944, 0.30834240106495514, 0.4299479524172085, 0.09352757549297053]",22.29,0.0,0.0,0.0,30.694599566966716,0.7899483330124663,-869.0573881491423,-1048.3255313960883,747.6986705778274,0.0,0.0,0.0,0.0,0.0,0.0,1.4,21.767575384863097,0.0,21.330715875032325,0.0,1.4,22.29,20.48,22.18,21.84,22.3,0.88,1.4,0.0,-618.64,-721.85,0.0,0.0,0.0,23.0,0.0,0.0,0.0,0.0,0.0,0.0,0.0,0.0,0.0,0.0,0.0,0.0,0.0,0.0
117.0,2903.0,23154.376450627904,0.0,-0.0,0.0,-8551.492973947237,0.0,10425.70043498477,0.0,0.0,0.0,0.0,0.34918596310284555,0.5,0.530426181566794,46336.4463777101,11584.111594427524,57920.55797213762,"[0.2867631034102729, 0.35887405858775523, 0.40025201328220916, 0.160009614824137, 0.40293865781936944, 0.30834240106495514, 0.4299479524172085, 0.09352757549297053]",21.71,0.0,0.0,0.0,267.4012369598221,55.399420049961456,-836.8724745923538,-272.3609833372499,1931.239067901705,0.0,0.0,0.0,0.0,0.0,0.0,1.6,21.584695466775543,0.0,21.321479333755313,0.0,1.6,21.71,20.49,22.16,21.41,21.99,1.07,1.6,0.0,-595.73,-695.11,0.0,100.0,26.0,145.0,0.0,0.0,0.0,0.0,0.0,0.0,0.0,0.0,0.0,0.0,0.0,0.0,0.0,0.0
118.0,2240.0,0.0,0.0,-0.0,0.0,2240.0,0.0,3758.1768126649777,0.0,3758.1768126649777,0.0,0.0,0.2539478678647503,0.48402135708900945,0.530426181566794,0.0,0.0,0.0,"[0.2867631034102729, 0.35887405858775523, 0.40025201328220916, 0.160009614824137, 0.40293865781936944, 0.30834240106495514, 0.4299479524172085, 0.09352757549297053]",22.29,0.0,0.0,0.0,434.92210645001796,76.52195156312096,-856.5749745193265,-1040.258779711891,256.0943214595695,0.0,0.0,0.0,0.0,0.0,0.0,1.7,21.771523693738402,0.0,21.34032826495855,0.0,1.7,22.29,20.51,22.17,21.89,22.31,1.15,1.7,586.64,-609.75,-711.48,0.0,146.0,29.0,246.0,0.0,0.0,0.0,0.0,0.0,0.0,0.0,0.0,0.0,0.0,0.0,0.0,0.0,0.0
119.0,1587.0,0.0,0.0,-0.0,0.0,1587.0,0.0,3087.1235603798136,0.0,3087.1235603798136,0.0,0.0,0.186473378068832,0.4708958317472585,0.5014251074529379,0.0,0.0,0.0,"[0.2867631034102729, 0.35887405858775523, 0.40025201328220916, 0.160009614824137, 0.40293865781936944, 0.30834240106495514, 0.4299479524172085, 0.09352757549297053]",21.71,0.0,0.0,0.0,386.31647052246433,58.38748548353038,-824.3900609625381,-270.2187280150677,1795.0624271139911,0.0,0.0,0.0,0.0,0.0,0.0,1.9,21.585654197059956,0.0,21.327210295620716,0.0,1.9,21.71,20.51,22.14,21.38,21.96,1.35,1.9,0.0,-586.84,-684.75,0.0,130.0,10.0,220.0,0.0,0.0,0.0,0.0,0.0,0.0,0.0,0.0,0.0,0.0,0.0,0.0,0.0,0.0
120.0,1154.0,0.0,3231.8538521789283,-0.0,0.0,4385.853852178929,0.0,8733.998099044427,0.0,0.0,0.0,8733.998099044426,0.0,0.4708958317472585,0.5014251074529379,0.0,0.0,0.0,"[0.2867631034102729, 0.35887405858775523, 0.40025201328220916, 0.160009614824137, 0.40293865781936944, 0.30834240106495514, 0.4299479524172085, 0.09352757549297053]",22.29,0.0,0.0,0.0,181.4985017872814,4.670998838682429,-864.8965836058703,-1040.457576536473,1719.733860594844,0.0,0.0,0.0,0.0,0.0,0.0,1.5,21.77152222136322,0.0,21.3447203845663,0.0,1.5,22.29,20.53,22.16,21.87,22.3,0.92,1.5,165.3,-615.68,-718.39,0.0,0.0,0.0,136.0,0.0,0.0,0.0,0.0,0.0,0.0,0.0,0.0,0.0,0.0,0.0,0.0,0.0,0.0
121.0,828.0,10763.220369683306,3803.530763136112,-0.0,0.0,-6077.873504698776,0.0,10170.158894799659,0.0,0.0,0.0,10170.15889479966,0.2481798347752,0.4708958317472585,0.5014251074529379,0.0,0.0,0.0,"[0.2867631034102729, 0.35887405858775523, 0.40025201328220916, 0.160009614824137, 0.40293865781936944, 0.30834240106495514, 0.4299479524172085, 0.09352757549297053]",22.29,0.0,0.0,0.0,224.3445103361365,31.804006798675957,-877.3789972356863,-1006.2387220180591,492.91603468276617,0.0,0.0,0.0,0.0,0.0,0.0,1.2,21.78889779031597,0.0,21.368846035290524,0.0,1.2,22.29,20.55,22.19,21.85,22.29,0.6,1.2,0.0,-624.56,-728.76,0.0,80.0,0.0,126.0,0.0,0.0,0.0,0.0,0.0,0.0,0.0,0.0,0.0,0.0,0.0,0.0,0.0,0.0
122.0,1037.0,2860.1862358518947,1808.8853046726354,-0.0,0.0,0.0,0.0,4767.751265944748,0.0,0.0,0.0,4767.751265944748,0.2481798347752,0.4708958317472585,0.5014251074529379,0.0,0.0,0.0,"[0.2867631034102729, 0.35887405858775523, 0.40025201328220916, 0.160009614824137, 0.40293865781936944, 0.30834240106495514, 0.4299479524172085, 0.09352757549297053]",21.71,0.0,0.0,0.0,228.3481537579149,31.90704353776454,-870.1589109385294,-236.20419174586073,849.859433343809,0.0,0.0,0.0,0.0,0.0,0.0,0.8,21.603280615468833,0.0,21.35559108887038,0.0,0.8,21.71,20.55,22.16,21.41,21.98,0.19,0.8,773.49,-619.42,-722.76,0.0,80.0,0.0,129.0,0.0,0.0,0.0,0.0,0.0,0.0,0.0,0.0,0.0,0.0,0.0,0.0,0.0,0.0
123.0,833.0,0.0,3202.4149128275826,-0.0,0.0,4035.4149128275826,0.0,8410.203324178729,0.0,0.0,0.0,8410.20332417873,0.07660607147470755,0.4708958317472585,0.5014251074529379,0.0,0.0,0.0,"[0.2867631034102729, 0.35887405858775523, 0.40025201328220916, 0.160009614824137, 0.40293865781936944, 0.30834240106495514, 0.4299479524172085, 0.09352757549297053]",21.71,0.0,0.0,0.0,110.90794671908564,28.884632524499438,-874.3197154818014,-267.63318229910794,1487.5498219445687,0.0,0.0,0.0,0.0,0.0,0.0,0.7,21.587490065911698,0.0,21.336833348043722,0.0,0.7,21.71,20.55,22.13,21.46,21.99,0.09,0.7,878.86,-622.39,-726.22,0.0,80.0,0.0,41.0,0.0,0.0,0.0,0.0,0.0,0.0,0.0,0.0,0.0,0.0,0.0,0.0,0.0,0.0
124.0,633.0,21411.182335100846,4671.126423425344,-0.0,0.0,-16000.0,0.0,12178.280689513893,0.0,0.0,0.0,12178.280689513893,0.7299394048080409,0.4708958317472585,0.501425107452938,0.0,0.0,0.0,"[0.2867631034102729, 0.35887405858775523, 0.40025201328220916, 0.160009614824137, 0.40293865781936944, 0.30834240106495514, 0.4299479524172085, 0.09352757549297053]",21.96,0.0,0.0,0.0,105.56975549004797,28.747250205714657,-892.7458917427958,-606.0958925967637,2024.204028027997,0.0,0.0,0.0,0.0,0.0,0.0,0.5,21.65998559950938,0.0,21.33661009963148,0.0,0.5,21.96,20.55,22.12,21.66,22.13,-0.09,0.5,977.42,-635.5,-741.52,0.0,80.0,0.0,37.0,0.0,0.0,0.0,0.0,0.0,0.0,0.0,0.0,0.0,0.0,0.0,0.0,0.0,0.0
125.0,904.0,0.0,3414.191989047232,-0.0,0.0,4318.191989047232,0.0,8836.179528985649,0.0,0.0,0.0,8836.17952898565,0.546342806634264,0.4708958317472585,0.501425107452938,0.0,0.0,0.0,"[0.2867631034102729, 0.35887405858775523, 0.40025201328220916, 0.160009614824137, 0.40293865781936944, 0.30834240106495514, 0.4299479524172085, 0.09352757549297053]",22.29,0.0,0.0,0.0,150.38246607065383,50.79711237067142,-914.8262381251336,-1029.5741942406012,1267.2000747967643,0.0,0.0,0.0,0.0,0.0,0.0,0.3,21.7775161386406,0.0,21.359799233383214,0.0,0.3,22.29,20.57,22.15,21.91,22.31,-0.3,0.3,1004.27,-651.22,-759.86,0.0,80.0,34.0,67.0,0.0,0.0,0.0,0.0,0.0,0.0,0.0,0.0,0.0,0.0,0.0,0.0,0.0,0.0
126.0,2339.0,0.0,1342.573532088472,-0.0,0.0,3681.573532088472,0.0,3461.8797038933644,0.0,0.0,0.0,3461.879703893364,0.38981331972574057,0.4708958317472585,0.501425107452938,0.0,0.0,0.0,"[0.2867631034102729, 0.35887405858775523, 0.40025201328220916, 0.160009614824137, 0.40293865781936944, 0.30834240106495514, 0.4299479524172085, 0.09352757549297053]",22.04,0.0,0.0,0.0,860.6428569657737,81.29598714089202,-908.8824754939534,-679.7970867071539,0.0,0.0,0.0,0.0,0.0,0.0,0.0,0.2,21.710832650304607,0.0,21.369726368156336,0.0,0.2,22.04,20.58,22.16,21.7,22.17,-0.38,0.2,175.99,-646.99,-754.93,0.0,127.0,29.0,575.0,0.0,0.0,0.0,0.0,0.0,0.0,0.0,0.0,0.0,0.0,0.0,0.0,0.0,0.0
127.0,2403.0,0.0,3844.3152653546367,-0.0,0.0,6247.315265354637,0.0,9876.072072233734,0.0,0.0,0.0,9876.072072233734,0.12419617408991418,0.4708958317472585,0.501425107452938,0.0,0.0,0.0,"[0.2867631034102729, 0.35887405858775523, 0.40025201328220916, 0.160009614824137, 0.40293865781936944, 0.30834240106495514, 0.4299479524172085, 0.09352757549297053]",21.71,0.0,0.0,0.0,2269.7848627151698,134.1194887136389,-899.2845427414329,-260.937484706907,-89.62040352917666,0.0,0.0,0.0,0.0,0.0,0.0,0.1,21.59110963716509,0.0,21.345807104680254,0.0,0.1,21.71,20.57,22.12,21.37,21.92,-0.5,0.1,969.89,-640.16,-746.95,0.0,142.0,48.0,1621.0,0.0,0.0,0.0,0.0,0.0,0.0,0.0,0.0,0.0,0.0,0.0,0.0,0.0,0.0
128.0,2137.0,13018.753996335663,784.0940145947815,-0.0,0.0,-10032.566211759202,0.0,2021.817867098446,0.0,0.0,0.0,2021.817867098446,0.4096631203135007,0.4708958317472585,0.5014251074529379,0.0,0.0,0.0,"[0.2867631034102729, 0.35887405858775523, 0.40025201328220916, 0.160009614824137, 0.40293865781936944, 0.30834240106495514, 0.4299479524172085, 0.09352757549297053]",22.29,0.0,0.0,2.469171343968526,713.8425981672373,93.31694003456003,-918.9870426684056,-1068.8859466149363,50.96791592244696,0.0,0.0,0.0,0.0,0.0,0.0,0.2,21.757734348812953,0.0,21.337321535896145,0.0,0.2,22.29,20.57,22.1,21.66,22.11,-0.36,0.2,988.65,-654.18,-763.32,3.59,83.0,78.0,483.0,0.0,0.0,0.0,0.0,0.0,0.0,0.0,0.0,0.0,0.0,0.0,0.0,0.0,0.0
129.0,2017.0,0.0,0.0,-0.0,4086.8401186267606,767.6062499289314,0.0,2553.7017317001214,0.0,0.0,0.0,0.0,0.37702680016346113,0.4708958317472585,0.5014251074529379,11349.785474222768,2837.446368555692,14187.23184277846,"[0.2867631034102729, 0.35887405858775523, 0.40025201328220916, 0.160009614824137, 0.40293865781936944, 0.30834240106495514, 0.4299479524172085, 0.09352757549297053]",21.71,0.0,0.0,670.6591660830695,1441.100913765346,124.43403523931208,-786.9428200730907,-297.3839653927699,0.0,0.0,0.0,0.0,0.0,0.0,0.0,2.8,21.571418677628166,0.0,21.32211188888745,0.0,2.8,21.71,20.57,22.08,21.37,21.91,2.66,2.8,321.23,-560.19,-653.64,976.34,140.0,68.0,999.0,0.0,0.0,0.0,0.0,0.0,0.0,0.0,0.0,0.0,0.0,0.0,0.0,0.0,0.0
130.0,1025.0,0.0,0.0,-9180.921433287209,10205.921433287209,0.0,0.0,2610.5891997386,0.0,2610.5891997386,0.0,0.0,0.37702680016346113,0.4597963878708189,0.5329945916796799,0.0,0.0,0.0,"[0.2867631034102729, 0.35887405858775523, 0.40025201328220916, 0.160009614824137, 0.40293865781936944, 0.30834240106495514, 0.4299479524172085, 0.09352757549297053]",22.28,0.0,0.0,1072.8051032625904,320.22123438398455,48.805068748292165,-706.5083766681034,-1046.0461250707608,0.0,0.0,0.0,0.0,0.0,0.0,0.0,5.3,21.760144826662856,0.0,21.345604723851125,0.0,5.3,22.28,20.59,22.1,21.91,22.28,5.4,5.3,0.0,-502.93,-586.83,1561.78,85.0,21.0,193.0,0.0,0.0,0.0,0.0,0.0,0.0,0.0,0.0,0.0,0.0,0.0,0.0,0.0,0.0
131.0,2665.0,0.0,7479.582992387026,-0.0,10144.582992387026,0.0,0.0,2417.283747257516,0.0,-21575.261573010823,0.0,23992.545320268342,0.37702680016346113,0.5478953726272797,0.5329945916796799,0.0,0.0,0.0,"[0.2867631034102729, 0.35887405858775523, 0.40025201328220916, 0.160009614824137, 0.40293865781936944, 0.30834240106495514, 0.4299479524172085, 0.09352757549297053]",22.11,0.0,0.0,879.8249522895378,207.6977824245322,44.065378750217334,-637.0142157689974,-744.7028613930311,624.6223758790794,0.0,0.0,0.0,0.0,0.0,0.0,6.8,21.741126990187862,0.0,21.390257368051586,0.0,6.8,22.11,20.62,22.16,21.96,22.34,6.75,6.8,0.0,-453.46,-529.11,1280.84,119.0,0.0,93.0,0.0,0.0,0.0,0.0,0.0,0.0,0.0,0.0,0.0,0.0,0.0,0.0,0.0,0.0
132.0,2946.0,0.0,0.0,-0.0,10017.092566912848,-1709.9005669128483,0.0,713.08858790152,26805.96,22157.85658790152,0.0,0.0,0.4468477399790691,0.453686798699127,0.5329945916796799,21444.768,5361.192,26805.96,"[0.2867631034102729, 0.35887405858775523, 0.40025201328220916, 0.160009614824137, 0.40293865781936944, 0.30834240106495514, 0.4299479524172085, 0.09352757549297053]",22.29,0.0,0.0,816.8266319439492,116.10565923156972,2.9880654335689036,-602.7658973797379,-920.5407476252852,0.0,0.0,0.0,0.0,0.0,0.0,0.0,7.8,21.829094099399974,0.0,21.437840634458052,0.0,7.8,22.29,20.66,22.21,22.08,22.44,7.69,7.8,0.0,-429.08,-500.66,1189.13,0.0,0.0,87.0,0.0,0.0,0.0,0.0,0.0,0.0,0.0,0.0,0.0,0.0,0.0,0.0,0.0,0.0
133.0,2474.0,0.0,0.0,-0.0,9416.038023600955,-6942.038023600955,0.0,3894.149786524585,0.0,3894.149786524585,0.0,0.0,0.7303142926094415,0.4371300394026789,0.5329945916796799,0.0,0.0,0.0,"[0.2867631034102729, 0.35887405858775523, 0.40025201328220916, 0.160009614824137, 0.40293865781936944, 0.30834240106495514, 0.4299479524172085, 0.09352757549297053]",21.98,0.0,0.0,776.127412428351,21.352764916150754,0.5495292751391094,-573.4404755212813,-463.9482964030256,89.17672323602201,0.0,0.0,0.0,0.0,0.0,0.0,8.2,21.75404876703218,0.0,21.46410995574967,0.0,8.2,21.98,20.7,22.23,21.82,22.27,8.09,8.2,0.0,-408.2,-476.3,1129.88,0.0,0.0,16.0,0.0,0.0,0.0,0.0,0.0,0.0,0.0,0.0,0.0,0.0,0.0,0.0,0.0,0.0
134.0,1764.0,0.0,0.0,-0.0,8368.54793609531,-6604.54793609531,0.0,57.21520082304658,0.0,57.21520082304658,0.0,0.0,1.0,0.4368867774944177,0.5329945916796799,0.0,0.0,0.0,"[0.2867631034102729, 0.35887405858775523, 0.40025201328220916, 0.160009614824137, 0.40293865781936944, 0.30834240106495514, 0.4299479524172085, 0.09352757549297053]",21.9,0.0,0.0,707.4674552335118,175.59839569202924,54.95292751391095,-569.9462583111874,-328.8415461858522,0.0,0.0,0.0,0.0,0.0,0.0,0.0,8.2,21.73815247804274,0.0,21.48050807400007,0.0,8.2,21.9,20.72,22.24,21.79,22.25,7.98,8.2,0.0,-405.72,-473.4,1029.93,155.0,0.0,50.0,0.0,0.0,0.0,0.0,0.0,0.0,0.0,0.0,0.0,0.0,0.0,0.0,0.0,0.0
135.0,4135.0,338.4727875065165,1576.0282533999791,-0.0,5374.247829830995,0.0,0.0,5115.585337062423,0.0,0.0,0.0,5115.585337062423,1.0,0.4368867774944177,0.5319204778236112,0.0,0.0,0.0,"[0.2867631034102729, 0.35887405858775523, 0.40025201328220916, 0.160009614824137, 0.40293865781936944, 0.30834240106495514, 0.4299479524172085, 0.09352757549297053]",21.91,0.0,0.0,675.2273966780076,257.6379661593453,56.73889765811306,-611.9261580075464,-328.8609918363716,726.2710798722065,0.0,0.0,0.0,0.0,0.0,0.0,7.2,21.747515601258367,0.0,21.49303446475043,0.0,7.2,21.91,20.75,22.24,21.79,22.24,6.95,7.2,0.0,-435.6,-508.27,982.99,154.0,0.0,112.0,0.0,0.0,0.0,0.0,0.0,0.0,0.0,0.0,0.0,0.0,0.0,0.0,0.0,0.0
136.0,2491.0,3174.4550499922684,667.5827747423074,-0.0,0.0,0.0,0.0,2077.788163830504,0.0,0.0,0.0,2077.7881638305043,1.0,0.4368867774944177,0.526012851615233,0.0,0.0,0.0,"[0.2867631034102729, 0.35887405858775523, 0.40025201328220916, 0.160009614824137, 0.40293865781936944, 0.30834240106495514, 0.4299479524172085, 0.09352757549297053]",22.29,0.0,0.0,0.0,442.2269997108064,59.211779396239045,-685.9819882451768,-810.3514661300707,0.0,0.0,0.0,0.0,0.0,0.0,0.0,5.8,21.885690689635805,0.0,21.52591933612264,0.0,5.8,22.29,20.78,22.27,22.08,22.45,5.12,5.8,0.0,-488.32,-569.78,0.0,130.0,9.0,262.0,0.0,0.0,0.0,0.0,0.0,0.0,0.0,0.0,0.0,0.0,0.0,0.0,0.0,0.0
137.0,3510.0,0.0,1005.4123431709895,-0.0,0.0,4515.4123431709895,0.0,3090.91108419114,0.0,0.0,0.0,3090.91108419114,0.8080181826883083,0.4368867774944177,0.5056046883499269,0.0,0.0,0.0,"[0.2867631034102729, 0.35887405858775523, 0.40025201328220916, 0.160009614824137, 0.40293865781936944, 0.30834240106495514, 0.4299479524172085, 0.09352757549297053]",21.78,0.0,0.0,0.0,564.2327650376283,81.98289873481589,-681.6221623462374,-143.64696839146728,1190.5493601273072,0.0,0.0,0.0,0.0,0.0,0.0,5.4,21.716782486062623,0.0,21.50830677859612,0.0,5.4,21.78,20.78,22.23,21.49,22.02,4.72,5.4,0.0,-485.21,-566.16,0.0,162.0,24.0,335.0,0.0,0.0,0.0,0.0,0.0,0.0,0.0,0.0,0.0,0.0,0.0,0.0,0.0,0.0
138.0,3155.0,0.0,1371.1483460587333,-0.0,0.0,4526.148346058733,0.0,4162.99675051902,0.0,0.0,0.0,4162.99675051902,0.6155799026688044,0.4368867774944177,0.4862706389406895,0.0,0.0,0.0,"[0.2867631034102729, 0.35887405858775523, 0.40025201328220916, 0.160009614824137, 0.40293865781936944, 0.30834240106495514, 0.4299479524172085, 0.09352757549297053]",22.29,0.0,0.0,0.0,452.4117066609441,49.42328918282365,-719.2684245913524,-833.3045002520143,0.0,0.0,0.0,0.0,0.0,0.0,0.0,5.0,21.874452045903723,0.0,21.516571887917536,0.0,5.0,22.29,20.8,22.24,21.91,22.31,4.35,5.0,0.0,-512.01,-597.43,0.0,101.0,8.0,285.0,0.0,0.0,0.0,0.0,0.0,0.0,0.0,0.0,0.0,0.0,0.0,0.0,0.0,0.0
139.0,2746.0,0.0,284.9962229781563,-0.0,0.0,3030.9962229781563,0.0,854.4202763576673,0.0,0.0,0.0,854.4202763576673,0.48671101563742014,0.4368867774944177,0.4862706389406895,0.0,0.0,0.0,"[0.2867631034102729, 0.35887405858775523, 0.40025201328220916, 0.160009614824137, 0.40293865781936944, 0.30834240106495514, 0.4299479524172085, 0.09352757549297053]",21.75,0.0,0.0,0.0,302.9423522478889,7.7964465910361165,-713.7620215050376,-128.91554430457737,451.11182852005805,0.0,0.0,0.0,0.0,0.0,0.0,4.6,21.69694939154916,0.0,21.497960871182215,0.0,4.6,21.75,20.8,22.2,21.47,21.99,3.98,4.6,242.81,-508.09,-592.86,0.0,0.0,0.0,227.0,0.0,0.0,0.0,0.0,0.0,0.0,0.0,0.0,0.0,0.0,0.0,0.0,0.0,0.0
140.0,5210.0,5518.834507370689,281.2403348338348,-0.0,0.0,0.0,0.0,832.4355009317908,0.0,0.0,0.0,832.4355009317908,0.48671101563742014,0.4368867774944177,0.4733812726678646,0.0,0.0,0.0,"[0.2867631034102729, 0.15243415949936434, 0.38589436708441127, 0.160009614824137, 0.40293865781936944, 0.11474265440063647, 0.2905178639921857, 0.09352757549297053]",21.71,0.0,0.0,0.0,288.2623263680352,7.418645214377976,-728.6915564672835,-112.77181917882685,546.654664600076,0.0,0.0,0.0,0.0,0.0,0.0,4.2,21.664036081902363,0.0,21.473449290348725,0.0,4.2,21.71,20.79,22.15,21.49,21.98,3.61,4.2,0.0,-518.72,-605.26,0.0,0.0,0.0,216.0,0.0,0.0,0.0,0.0,0.0,0.0,0.0,0.0,0.0,0.0,0.0,0.0,0.0,0.0
141.0,3675.0,5863.906657053176,747.8964466247913,-0.0,0.0,-1411.6906771431184,0.0,2185.1583346415846,0.0,0.0,0.0,2185.1583346415846,0.5443550516207641,0.4368867774944177,0.4733812726678646,0.0,0.0,0.0,"[0.2867631034102729, 0.15243415949936434, 0.38589436708441127, 0.160009614824137, 0.40293865781936944, 0.11474265440063647, 0.2905178639921857, 0.09352757549297053]",21.71,0.0,0.0,0.0,230.87677065588002,5.941785287441621,-745.3347746403709,-149.921348930115,659.1361837049296,0.0,0.0,0.0,0.0,0.0,0.0,3.8,21.645474767135415,0.0,21.450927515673285,0.0,3.8,21.71,20.79,22.12,21.49,21.97,3.23,3.8,0.0,-530.57,-619.08,0.0,0.0,0.0,173.0,0.0,0.0,0.0,0.0,0.0,0.0,0.0,0.0,0.0,0.0,0.0,0.0,0.0,0.0
142.0,2743.0,0.0,1906.630814120373,-0.0,0.0,4649.6308141203735,0.0,5497.971923815068,0.0,0.0,0.0,5497.971923815068,0.3466666666666667,0.4368867774944177,0.4733812726678646,0.0,0.0,0.0,"[0.2867631034102729, 0.15243415949936434, 0.38589436708441127, 0.160009614824137, 0.40293865781936944, 0.11474265440063647, 0.2905178639921857, 0.09352757549297053]",21.71,0.0,0.0,0.0,190.8403364380974,4.911417896555791,-761.977992813459,-182.13291580583473,748.9366230656688,0.0,0.0,0.0,0.0,0.0,0.0,3.4,21.62941482594942,0.0,21.431242534263,0.0,3.4,21.71,20.78,22.08,21.5,21.95,2.83,3.4,0.0,-542.42,-632.91,0.0,0.0,0.0,143.0,0.0,0.0,0.0,0.0,0.0,0.0,0.0,0.0,0.0,0.0,0.0,0.0,0.0,0.0
143.0,1393.0,20027.863951648746,2534.7246318905018,-0.0,0.0,-16000.0,0.0,7212.489750789157,0.0,0.0,0.0,7212.4897507891565,1.0,0.4368867774944177,0.4733812726678646,0.0,0.0,0.0,"[0.2867631034102729, 0.15243415949936434, 0.38589436708441127, 0.160009614824137, 0.40293865781936944, 0.11474265440063647, 0.2905178639921857, 0.09352757549297053]",21.71,0.0,0.0,0.0,144.1311631840176,3.7093226071889864,-778.6212109865467,-210.3568142217981,1979.8662503469104,0.0,0.0,0.0,0.0,0.0,0.0,3.0,21.615364111756392,0.0,21.41378893514676,0.0,3.0,21.71,20.77,22.05,21.51,21.94,2.43,3.0,0.0,-554.26,-646.73,0.0,0.0,0.0,108.0,0.0,0.0,0.0,0.0,0.0,0.0,0.0,0.0,0.0,0.0,0.0,0.0,0.0,0.0
144.0,1067.0,2710.1163308762493,1629.5657492218681,-0.0,0.0,0.0,0.0,4559.209105969301,0.0,0.0,0.0,4559.209105969302,1.0,0.4368867774944177,0.4733812726678646,0.0,0.0,0.0,"[0.2867631034102729, 0.15243415949936434, 0.38589436708441127, 0.160009614824137, 0.40293865781936944, 0.11474265440063647, 0.2905178639921857, 0.09352757549297053]",22.29,0.0,0.0,0.0,28.025503952447863,0.7212571736200785,-823.288538173151,-973.7669109771242,630.100910470334,0.0,0.0,0.0,0.0,0.0,0.0,2.5,21.804685706113926,0.0,21.433807431575595,0.0,2.5,22.29,20.79,22.08,21.96,22.27,1.96,2.5,0.0,-586.06,-683.83,0.0,0.0,0.0,21.0,0.0,0.0,0.0,0.0,0.0,0.0,0.0,0.0,0.0,0.0,0.0,0.0,0.0,0.0
145.0,1980.0,0.0,2362.501226566759,-0.0,0.0,4342.501226566759,0.0,6519.730709102025,0.0,0.0,0.0,6519.730709102026,0.8153698458092364,0.4368867774944177,0.4733812726678646,0.0,0.0,0.0,"[0.2867631034102729, 0.15243415949936434, 0.38589436708441127, 0.160009614824137, 0.40293865781936944, 0.11474265440063647, 0.2905178639921857, 0.09352757549297053]",21.71,0.0,0.0,0.0,102.7601811589755,2.6446096366069614,-816.0684518759941,-194.6993127706597,2043.9664992409116,0.0,0.0,0.0,0.0,0.0,0.0,2.1,21.623601577258825,0.0,21.42467507666155,0.0,2.1,21.71,20.78,22.07,21.49,21.94,1.6,2.1,213.35,-580.92,-677.83,0.0,0.0,0.0,77.0,0.0,0.0,0.0,0.0,0.0,0.0,0.0,0.0,0.0,0.0,0.0,0.0,0.0,0.0
146.0,1405.0,3765.190872669123,2341.3649183057773,-0.0,0.0,0.0,0.0,6349.796659597393,0.0,0.0,0.0,6349.796659597394,0.8153698458092364,0.4368867774944177,0.4733812726678646,0.0,0.0,0.0,"[0.2867631034102729, 0.15243415949936434, 0.38589436708441127, 0.160009614824137, 0.40293865781936944, 0.11474265440063647, 0.2905178639921857, 0.09352757549297053]",22.29,0.0,0.0,0.0,34.69824298874497,0.8929850721010517,-860.7357790625985,-958.9478442030781,1784.1973895286496,0.0,0.0,0.0,0.0,0.0,0.0,1.6,21.812500764927538,0.0,21.443844291454756,0.0,1.6,22.29,20.79,22.1,21.98,22.28,1.13,1.6,632.46,-612.72,-714.93,0.0,0.0,0.0,26.0,0.0,0.0,0.0,0.0,0.0,0.0,0.0,0.0,0.0,0.0,0.0,0.0,0.0,0.0
147.0,778.0,0.0,3036.2486842602925,-0.0,0.0,3814.2486842602925,0.0,8176.434904003932,0.0,0.0,0.0,8176.434904003934,0.6531994085532716,0.4368867774944177,0.4733812726678646,0.0,0.0,0.0,"[0.2867631034102729, 0.15243415949936434, 0.38589436708441127, 0.160009614824137, 0.40293865781936944, 0.11474265440063647, 0.2905178639921857, 0.09352757549297053]",22.29,0.0,0.0,0.0,77.40377282104649,1.9920436223792706,-869.0573881491423,-920.4574858136365,572.0606949647628,0.0,0.0,0.0,0.0,0.0,0.0,1.4,21.83198340599733,0.0,21.468603968449912,0.0,1.4,22.29,20.8,22.13,21.95,22.28,0.92,1.4,899.22,-618.64,-721.85,0.0,0.0,0.0,58.0,0.0,0.0,0.0,0.0,0.0,0.0,0.0,0.0,0.0,0.0,0.0,0.0,0.0,0.0
148.0,903.0,12459.502005570652,2862.6786044085743,-7741.160499651488,0.0,-890.3653914827371,0.0,7654.439541741305,0.0,0.0,0.0,7654.439541741305,0.6895559953721501,0.4368867774944177,0.49999999999999956,0.0,0.0,0.0,"[0.2867631034102729, 0.15243415949936434, 0.38589436708441127, 0.160009614824137, 0.40293865781936944, 0.11474265440063647, 0.2905178639921857, 0.09352757549297053]",21.71,0.0,0.0,0.0,36.03279079600439,0.9273306517972455,-853.5156927654416,-147.9236140562526,2102.880798602453,0.0,0.0,0.0,0.0,0.0,0.0,1.2,21.64752242322979,0.0,21.45491983163295,0.0,1.2,21.71,20.79,22.11,21.5,21.97,0.76,1.2,297.84,-607.58,-708.94,0.0,0.0,0.0,27.0,0.0,0.0,0.0,0.0,0.0,0.0,0.0,0.0,0.0,0.0,0.0,0.0,0.0,0.0
149.0,1738.0,0.0,2579.1496138258913,-0.0,0.0,4317.149613825892,0.0,6822.5555038872835,0.0,0.0,0.0,6822.555503887283,0.50600371587275,0.4368867774944177,0.49999999999999956,0.0,0.0,0.0,"[0.2867631034102729, 0.15243415949936434, 0.38589436708441127, 0.160009614824137, 0.40293865781936944, 0.11474265440063647, 0.2905178639921857, 0.09352757549297053]",22.29,0.0,0.0,0.0,94.75289431541898,2.438536158429798,-889.8614108655005,-915.4602054275038,1708.41690108814,0.0,0.0,0.0,0.0,0.0,0.0,0.9,21.834688962155955,0.0,21.471715687564526,0.0,0.9,22.29,20.8,22.14,21.99,22.31,0.47,0.9,0.0,-633.45,-739.13,0.0,0.0,0.0,71.0,0.0,0.0,0.0,0.0,0.0,0.0,0.0,0.0,0.0,0.0,0.0,0.0,0.0,0.0
150.0,819.0,0.0,1236.9085551101537,-0.0,0.0,2055.9085551101534,0.0,3260.1692955604994,0.0,0.0,0.0,3260.169295560499,0.41859263784935913,0.4368867774944177,0.49999999999999956,0.0,0.0,0.0,"[0.2867631034102729, 0.15243415949936434, 0.38589436708441127, 0.160009614824137, 0.40293865781936944, 0.11474265440063647, 0.2905178639921857, 0.09352757549297053]",22.29,0.0,0.0,0.0,36.03279079600439,0.9273306517972455,-894.022215408774,-882.7583092187892,601.636855085229,0.0,0.0,0.0,0.0,0.0,0.0,0.8,21.851197094311544,0.0,21.492583159120993,0.0,0.8,22.29,20.81,22.17,21.95,22.3,0.4,0.8,0.0,-636.41,-742.58,0.0,0.0,0.0,27.0,0.0,0.0,0.0,0.0,0.0,0.0,0.0,0.0,0.0,0.0,0.0,0.0,0.0,0.0
151.0,902.0,3659.319888682337,2739.0232892389254,-0.0,0.0,0.0,0.0,7167.129213474041,0.0,0.0,0.0,7167.12921347404,0.41859263784935913,0.4368867774944177,0.49999999999999956,0.0,0.0,0.0,"[0.2867631034102729, 0.15243415949936434, 0.38589436708441127, 0.160009614824137, 0.40293865781936944, 0.11474265440063647, 0.2905178639921857, 0.09352757549297053]",21.71,0.0,0.0,0.0,89.41470308638127,2.301153839645019,-878.4805200250732,-113.25657356333011,2038.5843796199724,0.0,0.0,0.0,0.0,0.0,0.0,0.6,21.665221756226405,0.0,21.47691769263524,0.0,0.6,21.71,20.8,22.15,21.51,21.99,0.21,0.6,875.25,-625.35,-729.67,0.0,0.0,0.0,67.0,0.0,0.0,0.0,0.0,0.0,0.0,0.0,0.0,0.0,0.0,0.0,0.0,0.0,0.0
