,load_elec,grid,hp_elec,ev,pv,bat_pow,cool,load_th_sh,load_th_dhw,tes_pow,dh,hp_th,bat_soc,tes_soc,ev_soc,eh_th_in,eh_elec_in,eh_th_out,temp_slack,temp_zone_1,temp_zone_2,temp_update,Qsolar_1,QconvInt_1,QradInt_1,Qvent_1,Qconduc_1,Qheating_1,Qsolar_2,QconvInt_2,QradInt_2,Qvent_2,Qconduc_2,Qheating_2,temp_amb,temp_aggregate_1,temp_aggregate_2,temp_wall_1,temp_wall_2,_Tamb,_Tz_1,_TEW_1,_TIW_1,_T1_1,_T2_1,_Taeq_1,_Tvent_1,_Qheating_1,_Qinfvent_1,_Qenvelope_1,_Qsolar_1,_Qint_people_1,_Qint_lighting_1,_Qint_appliances_1,_Tz_2,_TEW_2,_TIW_2,_T1_2,_T2_2,_Taeq_2,_Tvent_2,_Qheating_2,_Qinfvent_2,_Qenvelope_2,_Qsolar_2,_Qint_people_2,_Qint_lighting_2,_Qint_appliances_2
8.0,1837.0,52357.168830260474,50258.38298610917,-0.0,0.0,0.0,0.0,83596.91190745612,0.0,0.0,0.0,83596.91190745613,0.5,0.5,0.8,0.0,0.0,0.0,"[2.0, 2.0, 2.0, 2.0, 2.0, 2.0, 2.0, 2.0, 2.0]",20.0,0.0,0.0,0.7646367727868043,90.01097497653289,2.0764141916903442,-2047.9325874962904,-1445.8777800757348,14215.107755165021,0.0,0.0,0.0,0.0,0.0,0.0,-9.4,19.480147761413434,0.0,19.0,0.0,-9.4,20.0,18.0,20.0,20.0,20.0,-9.94,-9.4,8969.91,-1426.55,-1126.98,1.22,0.0,0.0,66.0,0.0,0.0,0.0,0.0,0.0,0.0,0.0,0.0,0.0,0.0,0.0,0.0,0.0,0.0
9.0,1367.0,1359.2658229314525,0.0,-0.0,14.530506183204698,0.0,0.0,51263.68465998419,0.0,51263.68465998418,0.0,0.0,0.5,0.30625969516256923,0.8,0.0,0.0,0.0,"[2.0, 2.0, 2.0, 2.0, 2.0, 2.0, 2.0, 2.0, 2.0]",24.0,0.0,0.0,22.768225110046686,106.37660679044798,2.4539440447249508,-2270.8368147067713,-8629.38246846336,10768.255622464396,0.0,0.0,0.0,0.0,0.0,0.0,-8.6,20.82461687186654,0.0,19.32410940594334,0.0,-8.6,24.0,18.23,20.42,22.37,22.44,-9.12,-8.6,0.0,-1581.82,-1249.64,36.19,0.0,0.0,78.0,0.0,0.0,0.0,0.0,0.0,0.0,0.0,0.0,0.0,0.0,0.0,0.0,0.0,0.0
10.0,5022.0,26093.302417404033,21638.44418302655,-0.0,697.6082777095382,0.0,0.0,39705.29379644968,0.0,0.0,0.0,39705.29379644968,0.5,0.30625969516256923,0.7999999999999999,0.0,0.0,0.0,"[2.0, 2.0, 2.0, 2.0, 2.0, 2.0, 2.0, 2.0, 2.0]",24.0,0.0,0.0,61.65194429474363,94.10238293001169,2.1707966549489948,-2201.179243703496,-7890.575699548084,0.0,0.0,0.0,0.0,0.0,0.0,0.0,-7.6,21.097422611167424,0.0,19.67223071768585,0.0,-7.6,24.0,18.49,20.86,22.21,22.49,-8.18,-7.6,1055.54,-1533.3,-1211.31,97.98,0.0,0.0,69.0,0.0,0.0,0.0,0.0,0.0,0.0,0.0,0.0,0.0,0.0,0.0,0.0,0.0,0.0
11.0,6365.0,329.1401543275329,9097.218179840695,-0.0,1904.7237262847998,13230.0,0.0,17386.681879957316,0.0,0.0,0.0,17386.681879957316,0.0,0.30625969516256923,0.7999999999999999,0.0,0.0,0.0,"[2.0, 2.0, 2.0, 2.0, 2.0, 2.0, 2.0, 2.0, 2.0]",20.33,0.0,0.0,88.7758796771146,61.371119302181526,1.415736948879781,-1889.5368149654544,-562.7918029724019,3137.321988269383,0.0,0.0,0.0,0.0,0.0,0.0,-6.8,20.13174656146647,0.0,19.72562704265959,0.0,-6.8,20.33,18.56,20.89,19.68,20.58,-7.36,-6.8,7969.19,-1316.22,-1039.81,141.09,0.0,0.0,45.0,0.0,0.0,0.0,0.0,0.0,0.0,0.0,0.0,0.0,0.0,0.0,0.0,0.0,0.0
12.0,4112.0,23706.203724278974,23384.445891922933,-0.0,3908.773186265353,0.0,0.0,46030.141354086045,0.0,0.0,0.0,46030.14135408604,0.0,0.30625969516256923,0.7999999999999999,0.0,0.0,0.0,"[2.0, 2.0, 2.0, 2.0, 2.0, 2.0, 2.0, 2.0, 2.0]",20.64,0.0,0.0,145.3238753162912,84.55576437189454,1.9505709073454736,-1869.353266367652,-1142.867840154814,1056.465028799061,0.0,0.0,0.0,0.0,0.0,0.0,-6.2,20.227267623745846,0.0,19.749510747770152,0.0,-6.2,20.64,18.61,20.89,20.14,20.9,-6.73,-6.2,0.0,-1302.16,-1028.7,230.96,0.0,0.0,62.0,0.0,0.0,0.0,0.0,0.0,0.0,0.0,0.0,0.0,0.0,0.0,0.0,0.0,0.0
13.0,8697.0,50304.2398758319,26187.4524703597,-0.0,831.7337939069539,-16000.0,0.0,51797.25626486073,0.0,0.0,0.0,51797.25626486073,0.5807407407407407,0.30625969516256923,0.7999999999999999,0.0,0.0,0.0,"[2.0, 2.0, 2.0, 2.0, 2.0, 2.0, 2.0, 2.0, 2.0]",20.0,0.0,0.0,64.81666552896392,98.19379088349044,2.2651791182076497,-1818.0626031854824,51.35458485520339,12413.921417335756,0.0,0.0,0.0,0.0,0.0,0.0,-6.1,20.032317691372214,0.0,19.73222284147662,0.0,-6.1,20.0,18.64,20.83,19.69,20.53,-6.65,-6.1,3362.12,-1266.43,-1000.48,103.01,0.0,0.0,72.0,0.0,0.0,0.0,0.0,0.0,0.0,0.0,0.0,0.0,0.0,0.0,0.0,0.0,0.0
14.0,9390.0,5195.908763157881,11156.302539710523,-0.0,9.97332036843323,15366.399999999998,0.0,21534.734586882536,0.0,0.0,0.0,21534.734586882536,0.0,0.30625969516256923,0.7882653061224489,0.0,0.0,0.0,"[2.0, 2.0, 2.0, 2.0, 2.0, 2.0, 2.0, 2.0, 2.0]",24.0,0.0,0.0,20.627110427528002,2153.0854907464764,103.3173364471378,-2131.5216727002207,-7275.667623947281,0.0,0.0,0.0,0.0,0.0,0.0,0.0,-6.6,21.324342397501287,0.0,19.99418172093344,0.0,-6.6,24.0,18.84,21.15,22.58,22.81,-7.12,-6.6,0.0,-1484.78,-1172.98,32.78,163.0,9.0,1492.0,0.0,0.0,0.0,0.0,0.0,0.0,0.0,0.0,0.0,0.0,0.0,0.0,0.0,0.0
15.0,6629.0,29356.479390422992,22144.11857582957,-0.0,0.0,-436.57841764130666,0.0,41266.49710021117,0.0,0.0,0.0,41266.49710021117,0.015846179603277055,0.30625969516256923,0.7811224489795918,0.0,0.0,0.0,"[2.0, 2.0, 2.0, 2.0, 2.0, 2.0, 2.0, 2.0, 2.0]",21.36,0.0,0.0,2.277480141726704,1317.4333610201634,82.61611617240679,-1996.3305953410875,-1932.1080113184744,0.0,0.0,0.0,0.0,0.0,0.0,0.0,-7.3,20.65910388226571,0.0,20.07106318329338,0.0,-7.3,21.36,18.93,21.21,20.34,21.14,-7.79,-7.3,5612.07,-1390.61,-1098.58,3.62,128.0,25.0,896.0,0.0,0.0,0.0,0.0,0.0,0.0,0.0,0.0,0.0,0.0,0.0,0.0,0.0,0.0
16.0,6434.0,33697.09985336355,11094.61435409673,-0.0,0.0,-16000.0,0.0,20781.049228809068,0.0,0.0,0.0,20781.049228809065,0.5965869203440177,0.30625969516256923,0.7811224489795914,0.0,0.0,0.0,"[2.0, 2.0, 2.0, 2.0, 2.0, 2.0, 2.0, 2.0, 2.0]",20.42,0.0,0.0,0.0,649.3136201257707,80.35093705419914,-1924.0782310703491,-156.01506244141262,217.26377594621738,0.0,0.0,0.0,0.0,0.0,0.0,-7.2,20.37828874254816,0.0,20.04831485046082,0.0,-7.2,20.42,18.95,21.15,19.93,20.79,-7.68,-7.2,0.0,-1340.28,-1058.82,0.0,106.0,60.0,414.0,0.0,0.0,0.0,0.0,0.0,0.0,0.0,0.0,0.0,0.0,0.0,0.0,0.0,0.0
17.0,9501.0,0.0,6284.689912302711,-0.0,0.0,15785.68991230271,0.0,11891.525832095725,0.0,0.0,0.0,11891.525832095725,0.0,0.30625969516256923,0.7770408163265301,0.0,0.0,0.0,"[2.0, 2.0, 2.0, 2.0, 2.0, 2.0, 2.0, 2.0, 2.0]",20.0,0.0,0.0,0.0,680.3221856679256,109.54657902220885,-1880.75441708843,540.2285708995665,11374.97184536811,0.0,0.0,0.0,0.0,0.0,0.0,-7.0,20.213557146580065,0.0,19.994552737876706,0.0,-7.0,20.0,18.95,21.04,19.76,20.61,-7.47,-7.0,0.0,-1310.1,-1034.98,0.0,92.0,118.0,438.0,0.0,0.0,0.0,0.0,0.0,0.0,0.0,0.0,0.0,0.0,0.0,0.0,0.0,0.0
18.0,9720.0,55951.90287534581,45952.14336096908,-0.0,0.0,0.0,0.0,87386.05700118716,0.0,0.0,0.0,87386.05700118718,0.0,0.30625969516256923,0.7719387755102028,0.0,0.0,0.0,"[2.0, 2.0, 2.0, 2.0, 2.0, 2.0, 2.0, 2.0, 2.0]",24.0,0.0,0.0,0.0,661.9467394207228,157.24118378891436,-2152.4189440012033,-6842.636685920108,8190.711468862918,0.0,0.0,0.0,0.0,0.0,0.0,-6.9,21.484647300396176,0.0,20.228939087280708,0.0,-6.9,24.0,19.13,21.33,22.65,22.88,-7.38,-6.9,0.0,-1499.34,-1184.47,0.0,142.0,177.0,392.0,0.0,0.0,0.0,0.0,0.0,0.0,0.0,0.0,0.0,0.0,0.0,0.0,0.0,0.0
19.0,6837.0,32910.60257519186,25909.049562315897,-0.0,0.0,0.0,0.0,49517.59907773502,0.0,0.0,0.0,49517.59907773502,0.0,0.30625969516256923,0.7688775510204069,0.0,0.0,0.0,"[2.0, 2.0, 2.0, 2.0, 2.0, 2.0, 2.0, 2.0, 2.0]",24.0,0.0,0.0,0.0,884.7490251680576,136.351198587666,-2145.4531869008756,-6279.9831716893,0.0,0.0,0.0,0.0,0.0,0.0,0.0,-6.8,21.69271471314038,0.0,20.497011721383508,0.0,-6.8,24.0,19.33,21.66,22.5,22.88,-7.27,-6.8,0.0,-1494.48,-1180.64,0.0,83.0,162.0,588.0,0.0,0.0,0.0,0.0,0.0,0.0,0.0,0.0,0.0,0.0,0.0,0.0,0.0,0.0
20.0,9511.0,25639.195979899494,0.0,-0.0,0.0,-15999.999999999998,0.0,0.0,0.0,0.0,0.0,0.0,0.5807407407407407,0.30625969516256923,0.7382653061224478,0.0,0.0,0.0,"[1.3346469839597113, 2.0, 2.0, 0.4506796190862161, 2.0, 2.0, 1.191873977119851, 2.0, 2.0]",21.26,0.0,0.0,0.0,1028.52253623504,133.11073401578562,-1940.411647807759,-806.6439199158667,0.0,0.0,0.0,0.0,0.0,0.0,0.0,-6.6,20.972221064770025,0.0,20.5398865328922,0.0,-6.6,21.26,19.4,21.68,20.58,21.43,-7.07,-6.6,0.0,-1351.66,-1067.81,0.0,129.0,126.0,673.0,0.0,0.0,0.0,0.0,0.0,0.0,0.0,0.0,0.0,0.0,0.0,0.0,0.0,0.0
21.0,5727.0,36948.20724190404,0.0,-0.0,0.0,0.0,0.0,27932.819585125057,0.0,0.0,0.0,0.0,0.5807407407407407,0.30625969516256923,0.7382653061224478,124145.8648227781,31036.466205694524,155182.3310284726,"[1.3346469839597113, 2.0, 2.0, 0.4506796190862161, 2.0, 2.0, 1.191873977119851, 2.0, 2.0]",20.67,0.0,0.0,0.0,954.1594022033906,102.7825024886721,-1892.2725065438622,247.37281970467498,7814.079089856915,0.0,0.0,0.0,0.0,0.0,0.0,-6.5,20.77067287138662,0.0,20.49862408834659,0.0,-6.5,20.67,19.41,21.59,20.32,21.18,-6.98,-6.5,1258.21,-1318.12,-1041.32,0.0,135.0,72.0,621.0,0.0,0.0,0.0,0.0,0.0,0.0,0.0,0.0,0.0,0.0,0.0,0.0,0.0,0.0
22.0,4555.0,0.0,8659.937433737216,-0.0,0.0,13214.937433737216,0.0,16963.73635089263,0.0,0.0,0.0,16963.73635089263,0.08130999872497291,0.30625969516256923,0.7382653061224478,0.0,0.0,0.0,"[1.3346469839597113, 2.0, 2.0, 0.4506796190862161, 2.0, 2.0, 1.191873977119851, 2.0, 2.0]",23.33,0.0,0.0,0.0,774.1374522503247,75.34866650149057,-2064.2775264421684,-4705.762636162131,0.0,0.0,0.0,0.0,0.0,0.0,0.0,-6.3,21.609092467499895,0.0,20.64617923558226,0.0,-6.3,23.33,19.54,21.76,22.26,22.7,-6.81,-6.3,703.57,-1437.94,-1135.97,0.0,157.0,19.0,483.0,0.0,0.0,0.0,0.0,0.0,0.0,0.0,0.0,0.0,0.0,0.0,0.0,0.0,0.0
23.0,4675.0,17091.24237597638,0.0,-0.0,0.0,-12330.786164096498,0.0,19143.71585797958,0.0,19143.715857979583,0.0,0.0,0.5288718669032902,0.23391005095251788,0.7382653061224478,0.0,0.0,0.0,"[1.3346469839597113, 2.0, 2.0, 0.4506796190862161, 2.0, 2.0, 1.191873977119851, 2.0, 2.0]",21.14,0.0,0.0,0.0,465.0567040454199,44.705826763514864,-1904.5809008528845,-376.88289118250515,487.1700852677655,0.0,0.0,0.0,0.0,0.0,0.0,-6.2,21.01655910344601,0.0,20.660557068846018,0.0,-6.2,21.14,19.58,21.74,20.59,21.43,-6.7,-6.2,5438.36,-1326.7,-1048.09,0.0,80.0,18.0,297.0,0.0,0.0,0.0,0.0,0.0,0.0,0.0,0.0,0.0,0.0,0.0,0.0,0.0,0.0
24.0,1816.0,0.0,12177.94959826106,-0.0,0.0,13993.94959826106,0.0,30511.874746235364,0.0,6424.59948203622,0.0,24087.27526419914,0.0,0.20962962962962967,0.7382653061224478,0.0,0.0,0.0,"[1.3346469839597113, 2.0, 2.0, 0.4506796190862161, 2.0, 2.0, 1.191873977119851, 2.0, 2.0]",20.67,0.0,0.0,0.0,841.6097939392729,43.25862899354887,-1864.409478142552,443.1206228562376,540.5041004123177,0.0,0.0,0.0,0.0,0.0,0.0,-6.1,20.84289262710364,0.0,20.614084731452685,0.0,-6.1,20.67,19.58,21.65,20.42,21.24,-6.61,-6.1,60.64,-1298.71,-1025.98,0.0,80.0,0.0,575.0,0.0,0.0,0.0,0.0,0.0,0.0,0.0,0.0,0.0,0.0,0.0,0.0,0.0,0.0
25.0,1578.0,32841.73231744746,19548.503247696954,-0.0,0.0,-11551.020408163267,0.0,38852.16312503521,0.0,0.0,0.0,38852.16312503521,0.41925925925925933,0.20962962962962967,0.7382653061224478,0.0,0.0,0.0,"[1.3346469839597113, 2.0, 2.0, 0.4506796190862161, 2.0, 2.0, 1.191873977119851, 2.0, 2.0]",20.67,0.0,0.0,0.0,170.61888956875492,27.77990501912993,-1857.4437210422248,314.0426791892485,1347.624704643938,0.0,0.0,0.0,0.0,0.0,0.0,-6.0,20.795077398769667,0.0,20.561724956849147,0.0,-6.0,20.67,19.57,21.55,20.4,21.19,-6.47,-6.0,5752.74,-1293.86,-1022.15,0.0,80.0,0.0,83.0,0.0,0.0,0.0,0.0,0.0,0.0,0.0,0.0,0.0,0.0,0.0,0.0,0.0,0.0
26.0,1446.0,30997.89118563217,13396.901729704008,-0.0,0.0,-16000.0,0.0,27009.15871085193,0.0,0.0,0.0,27009.15871085193,1.0,0.20962962962962967,0.7382653061224478,0.0,0.0,0.0,"[1.3346469839597113, 2.0, 2.0, 0.4506796190862161, 2.0, 2.0, 1.191873977119851, 2.0, 2.0]",20.67,0.0,0.0,0.0,214.26057440586186,28.786651293888887,-1836.546449741242,217.90557550892575,8594.729656406484,0.0,0.0,0.0,0.0,0.0,0.0,-5.7,20.759362372102757,0.0,20.52360710648091,0.0,-5.7,20.67,19.57,21.47,20.46,21.19,-6.16,-5.7,4334.84,-1279.3,-1010.65,0.0,80.0,0.0,115.0,0.0,0.0,0.0,0.0,0.0,0.0,0.0,0.0,0.0,0.0,0.0,0.0,0.0,0.0
27.0,1597.0,0.0,11492.751093300432,-0.0,0.0,13089.751093300432,0.0,23389.376054904093,0.0,0.0,0.0,23389.376054904096,0.5053004121957508,0.20962962962962967,0.7382653061224478,0.0,0.0,0.0,"[1.3346469839597113, 2.0, 2.0, 0.4506796190862161, 2.0, 2.0, 1.191873977119851, 2.0, 2.0]",23.33,0.0,0.0,0.0,137.88762594092478,27.024845313060712,-2008.5514696395483,-4707.981682173839,4020.9707786980853,0.0,0.0,0.0,0.0,0.0,0.0,-5.5,21.607838448360415,0.0,20.681145220806783,0.0,-5.5,23.33,19.7,21.66,22.37,22.69,-5.95,-5.5,2689.11,-1399.12,-1105.3,0.0,80.0,0.0,59.0,0.0,0.0,0.0,0.0,0.0,0.0,0.0,0.0,0.0,0.0,0.0,0.0,0.0,0.0
28.0,1741.0,17972.59322360733,16141.730257489293,-0.0,0.0,0.0,0.0,33004.59110125016,0.0,0.0,0.0,33004.59110125016,0.5053004121957508,0.20962962962962967,0.7382653061224478,0.0,0.0,0.0,"[1.3346469839597113, 2.0, 2.0, 0.4506796190862161, 2.0, 2.0, 1.191873977119851, 2.0, 2.0]",22.4,0.0,0.0,0.0,176.07410017339328,27.905748303474798,-1936.315852108299,-2632.999362772364,6901.170784214706,0.0,0.0,0.0,0.0,0.0,0.0,-5.4,21.437825392778844,0.0,20.79384912868599,0.0,-5.4,22.4,19.8,21.79,21.59,22.15,-5.84,-5.4,0.0,-1348.8,-1065.55,0.0,80.0,0.0,87.0,0.0,0.0,0.0,0.0,0.0,0.0,0.0,0.0,0.0,0.0,0.0,0.0,0.0,0.0
29.0,819.0,0.0,8844.26264142919,-0.0,0.0,9663.26264142919,0.0,18252.272191672768,0.0,0.0,0.0,18252.272191672768,0.14009774245163936,0.20962962962962967,0.7382653061224478,0.0,0.0,0.0,"[1.3346469839597113, 2.0, 2.0, 0.4506796190862161, 2.0, 2.0, 1.191873977119851, 2.0, 2.0]",23.33,0.0,0.0,0.0,143.34283654556316,27.150688597405576,-1987.6541983385657,-4152.245161241654,0.0,0.0,0.0,0.0,0.0,0.0,0.0,-5.2,21.8132462587879,0.0,20.950715846335562,0.0,-5.2,23.33,19.92,21.98,22.35,22.78,-5.64,-5.2,5162.84,-1384.56,-1093.8,0.0,80.0,0.0,63.0,0.0,0.0,0.0,0.0,0.0,0.0,0.0,0.0,0.0,0.0,0.0,0.0,0.0,0.0
30.0,2136.0,22593.41578425445,11996.333657473406,-0.0,0.0,-8348.11504785977,0.0,24871.69681048295,0.0,0.0,0.0,24871.69681048295,0.44310339974432733,0.20962962962962967,0.7382653061224478,0.0,0.0,0.0,"[1.3346469839597113, 2.0, 2.0, 0.4506796190862161, 2.0, 2.0, 1.191873977119851, 2.0, 2.0]",21.13,0.0,0.0,0.0,60.007316651021945,1.384276127793561,-1826.8161019601896,174.2044478634562,7563.319631703789,0.0,0.0,0.0,0.0,0.0,0.0,-5.1,21.20343025249781,0.0,20.947807065533,0.0,-5.1,21.13,19.95,21.94,20.76,21.56,-5.54,-5.1,0.0,-1272.53,-1005.3,0.0,0.0,0.0,44.0,0.0,0.0,0.0,0.0,0.0,0.0,0.0,0.0,0.0,0.0,0.0,0.0,0.0,0.0
31.0,1985.0,13829.189305655735,11775.043359127456,-0.0,0.0,0.0,0.0,24525.156303327,0.0,0.0,0.0,24525.156303327,0.44310339974432733,0.20962962962962967,0.7382653061224478,0.0,0.0,0.0,"[1.3346469839597113, 2.0, 2.0, 0.4506796190862161, 2.0, 2.0, 1.191873977119851, 2.0, 2.0]",23.33,0.0,0.0,0.0,135.01646246479936,3.1146212875355186,-1973.7226841379106,-3913.114158827319,5748.999783313128,0.0,0.0,0.0,0.0,0.0,0.0,-5.0,21.901597669700866,0.0,21.07530244674871,0.0,-5.0,23.33,20.06,22.09,22.48,22.9,-5.44,-5.0,4767.72,-1374.86,-1086.14,0.0,0.0,0.0,99.0,0.0,0.0,0.0,0.0,0.0,0.0,0.0,0.0,0.0,0.0,0.0,0.0,0.0,0.0
32.0,1714.0,13418.464082756216,2500.73553107134,-0.0,0.0,-9136.636231271093,0.0,5256.232909653717,0.0,0.0,0.0,5256.232909653717,0.6154423984382584,0.20962962962962967,0.7382653061224478,0.0,0.0,0.0,"[1.3346469839597113, 2.0, 1.2195614024773498, 0.4506796190862161, 2.0, 0.9336532806442257, 0.6669453091885664, 1.0465614302429955, 1.3921868638916415]",23.33,0.0,0.0,0.7646887670166577,42.27788218594727,0.9752854536727346,-1959.7911699372557,-3614.7155313208295,0.0,0.0,0.0,0.0,0.0,0.0,0.0,-4.8,22.011876817141626,0.0,21.220123528242837,0.0,-4.8,23.33,20.18,22.26,22.38,22.88,-5.24,-4.8,0.0,-1365.15,-1078.47,1.22,0.0,0.0,31.0,0.0,0.0,0.0,0.0,0.0,0.0,0.0,0.0,0.0,0.0,0.0,0.0,0.0,0.0
33.0,6890.0,0.0,0.0,-0.0,13.819573836443075,6876.180426163557,0.0,18282.099501020504,0.0,18282.099501020508,0.0,0.0,0.3555716340329842,0.14053628306492633,0.7382653061224478,0.0,0.0,0.0,"[1.3346469839597113, 2.0, 1.2195614024773498, 0.4506796190862161, 2.0, 0.9336532806442257, 0.6669453091885664, 1.0465614302429955, 1.3921868638916415]",21.29,0.0,0.0,22.7546989074359,129.56125186016098,2.988778003190648,-1747.6344742695755,367.13620773504283,6755.440374118839,0.0,0.0,0.0,0.0,0.0,0.0,-3.8,21.437478301537322,0.0,21.206253073792745,0.0,-3.8,21.29,20.2,22.21,20.97,21.79,-4.2,-3.8,3839.1,-1217.37,-961.72,36.16,0.0,0.0,95.0,0.0,0.0,0.0,0.0,0.0,0.0,0.0,0.0,0.0,0.0,0.0,0.0,0.0,0.0
34.0,4489.0,43259.86977374617,30055.61779923043,-0.0,228.33737435298437,0.0,0.0,34281.10262615012,43636.45,0.0,0.0,69190.26262615013,0.3555716340329842,0.14053628306492633,0.7382653061224478,34909.159999999996,8727.289999999999,43636.45,"[1.3346469839597113, 2.0, 1.2195614024773498, 0.4506796190862161, 2.0, 0.9336532806442257, 0.6669453091885664, 1.0465614302429955, 1.3921868638916415]",23.33,0.0,0.0,44.6266609632533,61.371119302181526,1.415736948879781,-1813.5102708303777,-3441.5652239441324,0.0,0.0,0.0,0.0,0.0,0.0,0.0,-2.7,22.07485524085018,0.0,21.314086267109815,0.0,-2.7,23.33,20.3,22.33,22.55,23.0,-3.11,-2.7,0.0,-1263.26,-997.97,70.92,0.0,0.0,45.0,0.0,0.0,0.0,0.0,0.0,0.0,0.0,0.0,0.0,0.0,0.0,0.0,0.0,0.0
35.0,6127.0,9784.933406395598,4708.327245179004,-0.0,1099.3185058153845,0.0,0.0,11287.778012843832,0.0,0.0,0.0,11287.778012843832,0.3555716340329842,0.14053628306492633,0.7382653061224478,0.0,0.0,0.0,"[1.3346469839597113, 2.0, 1.2195614024773498, 0.4506796190862161, 2.0, 0.9336532806442257, 0.6669453091885664, 1.0465614302429955, 1.3921868638916415]",21.43,0.0,0.0,69.63600684266135,88.6471723253733,2.044953370604124,-1611.2459406626776,270.47020104224026,0.0,0.0,0.0,0.0,0.0,0.0,0.0,-1.7,21.542754270653607,0.0,21.3052505488804,0.0,-1.7,21.43,20.33,22.28,21.1,21.89,-2.09,-1.7,2345.87,-1122.36,-886.67,110.67,0.0,0.0,65.0,0.0,0.0,0.0,0.0,0.0,0.0,0.0,0.0,0.0,0.0,0.0,0.0,0.0,0.0
36.0,4388.0,9757.565478893921,6872.243419987574,-0.0,1551.4657684881229,0.0,0.0,16934.17284173023,0.0,0.0,0.0,16934.17284173023,0.3555716340329842,0.14053628306492633,0.7382653061224478,0.0,0.0,0.0,"[1.3346469839597113, 2.0, 1.2195614024773498, 0.4506796190862161, 2.0, 0.9336532806442257, 0.6669453091885664, 1.0465614302429955, 1.3921868638916415]",20.99,0.0,0.0,77.78584432676202,106.37660679044798,2.4539440447249508,-1532.112542570054,975.4903676792239,6693.641935748335,0.0,0.0,0.0,0.0,0.0,0.0,-1.0,21.36699814840653,0.0,21.242225272683733,0.0,-1.0,20.99,20.32,22.17,20.9,21.69,-1.52,-1.0,0.0,-1067.24,-843.12,123.62,0.0,0.0,78.0,0.0,0.0,0.0,0.0,0.0,0.0,0.0,0.0,0.0,0.0,0.0,0.0,0.0,0.0
37.0,4719.0,0.0,5150.182554711113,-0.0,460.7571181983508,9408.425436512762,0.0,12838.067856724907,0.0,0.0,0.0,12838.067856724907,0.0,0.14053628306492633,0.7382653061224478,0.0,0.0,0.0,"[1.3346469839597113, 2.0, 1.2195614024773498, 0.4506796190862161, 2.0, 0.9336532806442257, 0.6669453091885664, 1.0465614302429955, 1.3921868638916415]",23.33,0.0,0.0,54.632393967730664,42.27788218594727,0.9752854536727346,-1674.1951288238274,-3415.919336077009,0.0,0.0,0.0,0.0,0.0,0.0,0.0,-0.7,22.08341216403317,0.0,21.34847699862869,0.0,-0.7,23.33,20.41,22.28,22.6,22.99,-1.25,-0.7,338.7,-1166.21,-921.31,86.83,0.0,0.0,31.0,0.0,0.0,0.0,0.0,0.0,0.0,0.0,0.0,0.0,0.0,0.0,0.0,0.0,0.0
38.0,3453.0,10488.805278495014,6983.801919601854,-0.0,0.44066749931424,0.0,0.0,17009.332469875426,0.0,0.0,0.0,17009.33246987543,0.0,0.14053628306492633,0.7382653061224478,0.0,0.0,0.0,"[1.3346469839597113, 2.0, 1.2195614024773498, 0.4506796190862161, 2.0, 0.9336532806442257, 0.6669453091885664, 1.0465614302429955, 1.3921868638916415]",21.49,0.0,0.0,13.089553142757836,150.01829162755482,3.460690319483909,-1587.3955900849878,192.90967381653047,0.0,0.0,0.0,0.0,0.0,0.0,0.0,-1.3,21.571545240484582,0.0,21.3446123982175,0.0,-1.3,21.49,20.44,22.25,21.17,21.9,-1.78,-1.3,4394.05,-1105.75,-873.54,20.8,0.0,0.0,110.0,0.0,0.0,0.0,0.0,0.0,0.0,0.0,0.0,0.0,0.0,0.0,0.0,0.0,0.0
39.0,4151.0,33104.237080140614,12787.715894739906,-0.0,0.0,-16000.0,0.0,8197.57090470674,0.0,-22215.973832150557,0.0,30413.544736857297,0.5807407407407407,0.2211720399371765,0.7382653061224478,0.0,0.0,0.0,"[1.3346469839597113, 2.0, 1.2195614024773498, 0.4506796190862161, 2.0, 0.9336532806442257, 0.6669453091885664, 1.0465614302429955, 1.3921868638916415]",21.03,0.0,0.0,1.512658500567087,144.63486010981958,35.39342372199452,-1597.5523225630966,935.9673464106089,0.0,0.0,0.0,0.0,0.0,0.0,0.0,-1.9,21.392281776449405,0.0,21.281983596702215,0.0,-1.9,21.03,20.43,22.14,20.95,21.68,-2.39,-1.9,3335.19,-1112.83,-879.13,2.4,83.0,13.0,61.0,0.0,0.0,0.0,0.0,0.0,0.0,0.0,0.0,0.0,0.0,0.0,0.0,0.0,0.0
40.0,2684.0,0.0,6169.122255884292,-0.0,0.0,8853.122255884293,0.0,14554.650062892182,0.0,0.0,0.0,14554.650062892184,0.24615562147073716,0.2211720399371765,0.7382653061224478,0.0,0.0,0.0,"[1.3346469839597113, 2.0, 1.2195614024773498, 0.4506796190862161, 2.0, 0.9336532806442257, 0.6669453091885664, 1.0465614302429955, 1.3921868638916415]",20.86,0.0,0.0,0.0,386.96105749480773,73.27225230980024,-1599.0300686570627,1114.5298065668687,6733.3202213136565,0.0,0.0,0.0,0.0,0.0,0.0,-2.1,21.27956279946421,0.0,21.207557507728993,0.0,-2.1,20.86,20.4,22.02,20.85,21.55,-2.6,-2.1,0.0,-1113.86,-879.95,0.0,163.0,28.0,195.0,0.0,0.0,0.0,0.0,0.0,0.0,0.0,0.0,0.0,0.0,0.0,0.0,0.0,0.0
41.0,6483.0,28126.68410121793,5503.05068071184,-0.0,0.0,-16000.0,0.0,12878.280136790181,0.0,0.0,0.0,12878.28013679018,0.8268963622114778,0.2211720399371765,0.7382653061224478,0.0,0.0,0.0,"[1.3346469839597113, 2.0, 1.2195614024773498, 0.4506796190862161, 2.0, 0.9336532806442257, 0.6669453091885664, 1.0465614302429955, 1.3921868638916415]",23.33,0.0,0.0,0.0,486.94932555087655,80.41385869637156,-1785.6472424290675,-3544.5727544225356,1991.7201439744083,0.0,0.0,0.0,0.0,0.0,0.0,-2.3,22.03659897318105,0.0,21.314236974843556,0.0,-2.3,23.33,20.49,22.14,22.61,22.91,-2.8,-2.3,0.0,-1243.85,-982.64,0.0,149.0,44.0,274.0,0.0,0.0,0.0,0.0,0.0,0.0,0.0,0.0,0.0,0.0,0.0,0.0,0.0,0.0
42.0,5305.0,7841.602100296361,2497.3940897948787,-0.0,0.0,0.0,0.0,5796.803376950731,0.0,0.0,0.0,5796.803376950731,0.8268963622114778,0.2211720399371765,0.5852040816326518,0.0,0.0,0.0,"[1.3346469839597113, 2.0, 1.2195614024773498, 0.4506796190862161, 2.0, 0.9336532806442257, 0.6669453091885664, 1.0465614302429955, 1.3921868638916415]",22.31,0.0,0.0,0.0,305.7789102073605,8.17981348241651,-1727.982711832762,-1411.8128930772157,0.0,0.0,0.0,0.0,0.0,0.0,0.0,-2.5,21.797275352452825,0.0,21.36946778846496,0.0,-2.5,22.31,20.54,22.2,21.76,22.29,-3.05,-2.5,0.0,-1203.68,-950.91,0.0,0.0,2.0,224.0,0.0,0.0,0.0,0.0,0.0,0.0,0.0,0.0,0.0,0.0,0.0,0.0,0.0,0.0
43.0,7713.0,0.0,6444.690375433327,-0.0,0.0,14157.690375433327,0.0,14836.155510064793,0.0,0.0,0.0,14836.155510064793,0.29183625731981766,0.2211720399371765,0.5806122448979572,0.0,0.0,0.0,"[1.3346469839597113, 2.0, 1.2195614024773498, 0.4506796190862161, 2.0, 0.9336532806442257, 0.6669453091885664, 1.0465614302429955, 1.3921868638916415]",21.26,0.0,0.0,0.0,317.7660177201844,7.3303713130886425,-1669.0844847939736,553.3550734673225,6396.661920442679,0.0,0.0,0.0,0.0,0.0,0.0,-2.7,21.478219501980497,0.0,21.331103343123655,0.0,-2.7,21.26,20.53,22.13,21.09,21.75,-3.27,-2.7,0.0,-1162.65,-918.5,0.0,0.0,0.0,233.0,0.0,0.0,0.0,0.0,0.0,0.0,0.0,0.0,0.0,0.0,0.0,0.0,0.0,0.0
44.0,7711.0,19347.316582200492,0.0,-0.0,0.0,-11539.57999928949,0.0,0.0,0.0,0.0,0.0,0.0,0.41925925925925933,0.2211720399371765,0.5275510204081613,0.0,0.0,0.0,"[1.3346469839597113, 0.9486249538667266, 1.2195614024773498, 0.3112705179315469, 0.09395376251816856, 0.4486104155208075, 0.6669453091885664, 0.6026549389859639, 0.8160707775660434]",23.33,0.0,0.0,0.0,62.73492195334111,1.4471977699659964,-1827.4417850310326,-3319.4764530075913,0.0,0.0,0.0,0.0,0.0,0.0,0.0,-2.9,22.12018000349149,0.0,21.43140470844596,0.0,-2.9,23.33,20.61,22.25,22.63,22.95,-3.44,-2.9,0.0,-1272.96,-1005.64,0.0,0.0,0.0,46.0,0.0,0.0,0.0,0.0,0.0,0.0,0.0,0.0,0.0,0.0,0.0,0.0,0.0,0.0
45.0,7179.0,23295.47738693467,0.0,-0.0,0.0,-16000.0,0.0,15068.528791737848,0.0,15068.528791737848,0.0,0.0,1.0,0.16422370739092612,0.5102040816326511,0.0,0.0,0.0,"[1.3346469839597113, 0.9486249538667266, 1.2195614024773498, 0.3112705179315469, 0.09395376251816856, 0.4486104155208075, 0.6669453091885664, 0.6026549389859639, 0.8160707775660434]",21.45,0.0,0.0,0.0,137.74406776711854,3.1775429297079487,-1710.4092014462676,344.72749578067743,6307.932794523834,0.0,0.0,0.0,0.0,0.0,0.0,-3.1,21.594587558376396,0.0,21.41843489480532,0.0,-3.1,21.45,20.62,22.22,21.22,21.87,-3.64,-3.1,1266.96,-1191.44,-941.24,0.0,0.0,0.0,101.0,0.0,0.0,0.0,0.0,0.0,0.0,0.0,0.0,0.0,0.0,0.0,0.0,0.0,0.0
46.0,3412.0,0.0,6140.925931836812,-0.0,0.0,9552.925931836813,0.0,13785.607229387764,0.0,0.0,0.0,13785.607229387766,0.6389672739290698,0.16422370739092612,0.5051020408163246,0.0,0.0,0.0,"[1.3346469839597113, 0.9486249538667266, 1.2195614024773498, 0.3112705179315469, 0.09395376251816856, 0.4486104155208075, 0.6669453091885664, 0.6026549389859639, 0.8160707775660434]",23.33,0.0,0.0,0.0,54.55210604638358,1.2584328434486907,-1855.3048134323428,-3153.5644946761995,4953.177566834982,0.0,0.0,0.0,0.0,0.0,0.0,-3.3,22.181768539841077,0.0,21.51582907139609,0.0,-3.3,23.33,20.69,22.34,22.67,23.0,-3.87,-3.3,0.0,-1292.37,-1020.97,0.0,0.0,0.0,40.0,0.0,0.0,0.0,0.0,0.0,0.0,0.0,0.0,0.0,0.0,0.0,0.0,0.0,0.0
47.0,2028.0,0.0,11982.745392825303,-0.0,0.0,14010.745392825303,0.0,26785.52281942633,0.0,0.0,0.0,26785.52281942633,0.10946064532645061,0.16422370739092612,0.5051020408163246,0.0,0.0,0.0,"[1.3346469839597113, 0.9486249538667266, 1.2195614024773498, 0.3112705179315469, 0.09395376251816856, 0.4486104155208075, 0.6669453091885664, 0.6026549389859639, 0.8160707775660434]",23.33,0.0,0.0,0.0,85.91956702305413,1.9820317284316935,-1862.2705705326707,-2913.701603846044,4688.257681872836,0.0,0.0,0.0,0.0,0.0,0.0,-3.4,22.27053970473616,0.0,21.630352367050588,0.0,-3.4,23.33,20.78,22.48,22.59,23.0,-3.97,-3.4,3001.47,-1297.22,-1024.81,0.0,0.0,0.0,63.0,0.0,0.0,0.0,0.0,0.0,0.0,0.0,0.0,0.0,0.0,0.0,0.0,0.0,0.0
48.0,1396.0,9171.061348796995,7729.20604205301,-0.0,0.0,0.0,0.0,16393.19292881138,0.0,0.0,0.0,16393.192928811382,0.10946064532645061,0.16422370739092612,0.5051020408163246,0.0,0.0,0.0,"[1.3346469839597113, 0.9486249538667266, 1.2195614024773498, 0.3112705179315469, 0.09395376251816856, 0.4486104155208075, 0.6669453091885664, 0.6026549389859639, 0.8160707775660434]",23.33,0.0,0.0,0.0,275.27279827352766,55.528349217173634,-1945.8596557366004,-2700.166769199442,0.0,0.0,0.0,0.0,0.0,0.0,0.0,-4.6,22.350115495901246,0.0,21.73384215085801,0.0,-4.6,23.33,20.87,22.6,22.62,23.06,-5.15,-4.6,14.42,-1355.45,-1070.81,0.0,80.0,45.0,155.0,0.0,0.0,0.0,0.0,0.0,0.0,0.0,0.0,0.0,0.0,0.0,0.0,0.0,0.0
49.0,1161.0,0.0,1735.3286753378834,-0.0,0.0,2896.3286753378834,0.0,23436.964574306698,0.0,19954.955228716502,0.0,3482.009345590192,0.0,0.08880815475027418,0.5051020408163246,0.0,0.0,0.0,"[1.3346469839597113, 0.9486249538667266, 1.2195614024773498, 0.3112705179315469, 0.09395376251816856, 0.4486104155208075, 0.6669453091885664, 0.6026549389859639, 0.8160707775660434]",21.74,0.0,0.0,0.0,166.52748161527617,27.685522555871273,-1918.128603449186,387.3823810596478,0.0,0.0,0.0,0.0,0.0,0.0,0.0,-5.8,21.893867320313692,0.0,21.71154486586523,0.0,-5.8,21.74,20.87,22.56,21.51,22.2,-6.35,-5.8,3373.85,-1336.13,-1055.55,0.0,80.0,0.0,80.0,0.0,0.0,0.0,0.0,0.0,0.0,0.0,0.0,0.0,0.0,0.0,0.0,0.0,0.0
50.0,1026.0,31072.538941552986,13891.176246845223,-0.0,0.0,-16000.0,0.0,26284.07820952138,0.0,0.0,0.0,26284.078209521384,0.5807407407407407,0.08880815475027418,0.5051020408163246,0.0,0.0,0.0,"[1.3346469839597113, 0.9486249538667266, 1.2195614024773498, 0.3112705179315469, 0.09395376251816856, 0.4486104155208075, 0.6669453091885664, 0.6026549389859639, 0.8160707775660434]",21.24,0.0,0.0,0.0,148.7980471502015,27.27653188175044,-1967.2135495361422,1188.0831818388572,2293.1190505858403,0.0,0.0,0.0,0.0,0.0,0.0,-7.0,21.69506753556446,0.0,21.634722808464943,0.0,-7.0,21.24,20.83,22.44,21.26,21.96,-7.58,-7.0,2767.82,-1370.33,-1082.56,0.0,80.0,0.0,67.0,0.0,0.0,0.0,0.0,0.0,0.0,0.0,0.0,0.0,0.0,0.0,0.0,0.0,0.0
51.0,959.0,12061.600888171284,11042.292883730428,-0.0,0.0,0.0,0.0,20261.96890249983,0.0,0.0,0.0,20261.96890249983,0.5807407407407407,0.08880815475027418,0.5051020408163246,0.0,0.0,0.0,"[1.3346469839597113, 0.9486249538667266, 1.2195614024773498, 0.3112705179315469, 0.09395376251816856, 0.4486104155208075, 0.6669453091885664, 0.6026549389859639, 0.8160707775660434]",21.87,0.0,0.0,0.0,181.02685716970976,42.09457861335883,-2052.4875175180537,-113.08278619448767,0.0,0.0,0.0,0.0,0.0,0.0,0.0,-7.6,21.838581649623855,0.0,21.60323348676691,0.0,-7.6,21.87,20.81,22.39,21.73,22.29,-8.19,-7.6,0.0,-1429.73,-1129.48,0.0,80.0,25.0,88.0,0.0,0.0,0.0,0.0,0.0,0.0,0.0,0.0,0.0,0.0,0.0,0.0,0.0,0.0
52.0,673.0,0.0,0.0,-0.0,0.0,673.0,0.0,19465.570405345334,0.0,19465.570405345334,0.0,0.0,0.5553061224489795,0.01524212903090405,0.5051020408163246,0.0,0.0,0.0,"[1.3346469839597113, 0.9486249538667266, 1.2195614024773498, 0.3112705179315469, 0.09395376251816856, 0.4486104155208075, 0.6669453091885664, 0.6026549389859639, 0.8160707775660434]",21.15,0.0,0.0,0.0,146.50111636930117,61.00253208617545,-2051.096751220668,1145.5837787629123,0.0,0.0,0.0,0.0,0.0,0.0,0.0,-8.3,21.584185116223004,0.0,21.531289081796643,0.0,-8.3,21.15,20.77,22.29,21.18,21.83,-8.9,-8.3,1429.51,-1428.76,-1128.72,0.0,80.0,60.0,59.0,0.0,0.0,0.0,0.0,0.0,0.0,0.0,0.0,0.0,0.0,0.0,0.0,0.0,0.0
53.0,2392.0,11753.07823733479,9302.312846148116,-0.0,0.0,0.0,0.0,15916.342710114901,0.0,0.0,0.0,15916.342710114901,0.5553061224489795,0.01524212903090405,0.5051020408163246,0.0,0.0,0.0,"[1.3346469839597113, 0.9486249538667266, 1.2195614024773498, 0.3112705179315469, 0.09395376251816856, 0.4486104155208075, 0.6669453091885664, 0.6026549389859639, 0.8160707775660434]",20.89,0.0,0.0,0.0,120.73242417107525,60.971071265089236,-2074.758172849371,1456.4247687076495,7064.7020043072425,0.0,0.0,0.0,0.0,0.0,0.0,-8.9,21.43902562979368,0.0,21.438562429093423,0.0,-8.9,20.89,20.71,22.17,21.03,21.67,-9.53,-8.9,188.73,-1445.24,-1141.74,0.0,80.0,61.0,40.0,0.0,0.0,0.0,0.0,0.0,0.0,0.0,0.0,0.0,0.0,0.0,0.0,0.0,0.0
54.0,3638.0,3901.2491658516024,8085.514341650575,-0.0,0.0,7841.77142162823,0.0,13448.980846284961,0.0,0.0,0.0,13448.980846284961,0.25894287900120055,0.01524212903090405,0.5051020408163246,0.0,0.0,0.0,"[1.3346469839597113, 0.9486249538667266, 1.2195614024773498, 0.3112705179315469, 0.09395376251816856, 0.4486104155208075, 0.6669453091885664, 0.6026549389859639, 0.8160707775660434]",23.33,0.0,0.0,0.0,250.29367603123615,87.87007329380505,-2280.215996552322,-3172.6734072582476,0.0,0.0,0.0,0.0,0.0,0.0,0.0,-9.4,22.177776366610562,0.0,21.527025887666817,0.0,-9.4,23.33,20.76,22.29,22.78,23.04,-10.03,-9.4,2952.71,-1588.36,-1254.8,0.0,147.0,68.0,99.0,0.0,0.0,0.0,0.0,0.0,0.0,0.0,0.0,0.0,0.0,0.0,0.0,0.0,0.0
55.0,2083.0,53160.401752055506,42124.46774329523,-0.0,0.0,0.0,0.0,33310.968385554675,43435.66,0.0,0.0,68059.49638555468,0.25894287900120055,0.01524212903090405,0.5051020408163246,34748.528000000006,8687.132000000001,43435.66,"[1.3346469839597113, 0.9486249538667266, 1.2195614024773498, 0.3112705179315469, 0.09395376251816856, 0.4486104155208075, 0.6669453091885664, 0.6026549389859639, 0.8160707775660434]",21.44,0.0,0.0,0.0,161.3593873582504,43.793462952014565,-2183.046241354876,505.50214382296843,0.0,0.0,0.0,0.0,0.0,0.0,0.0,-9.9,21.64265048061612,0.0,21.50253280418665,0.0,-9.9,21.44,20.75,22.26,21.3,21.92,-10.54,-9.9,283.82,-1520.67,-1201.33,0.0,108.0,14.0,60.0,0.0,0.0,0.0,0.0,0.0,0.0,0.0,0.0,0.0,0.0,0.0,0.0,0.0,0.0
56.0,1136.0,3855.4928713875256,2700.215407030588,-0.0,0.0,0.0,0.0,4414.1575024913445,0.0,0.0,0.0,4414.1575024913445,0.25894287900120055,0.01524212903090405,0.5051020408163246,0.0,0.0,0.0,"[1.3079372154003401, 0.9486249538667266, 1.2195614024773498, 0.3112705179315469, 0.09395376251816856, 0.4486104155208075, 0.6669453091885664, 0.6026549389859639, 0.8160707775660399]",20.89,0.0,0.0,3.1168653599206886,149.44405893232974,43.98222787853186,-2131.070922501436,1393.935355215426,0.0,0.0,0.0,0.0,0.0,0.0,0.0,-9.7,21.42475604505595,0.0,21.41522465559759,0.0,-9.7,20.89,20.69,22.14,21.01,21.66,-10.36,-9.7,1062.74,-1484.47,-1172.73,4.95,136.0,0.0,38.0,0.0,0.0,0.0,0.0,0.0,0.0,0.0,0.0,0.0,0.0,0.0,0.0,0.0,0.0
57.0,1318.0,48762.81145372586,46796.14113005655,-0.0,11.279774092829538,-416.13604049350744,0.0,16665.600866255696,0.0,-70540.97796557787,0.0,87206.57883183357,0.27404707602652045,0.2712797527578163,0.5051020408163246,0.0,0.0,0.0,"[1.3079372154003401, 0.9486249538667266, 1.2195614024773498, 0.3112705179315469, 0.09395376251816856, 0.4486104155208075, 0.6669453091885664, 0.6026549389859639, 0.8160707775660399]",20.69,0.0,0.0,36.042683214149115,133.6526598136398,3.083160466449298,-1949.8591009463878,1579.1628935850815,2436.542194115976,0.0,0.0,0.0,0.0,0.0,0.0,-7.3,21.290490880452854,0.0,21.31473705672495,0.0,-7.3,20.69,20.62,22.01,20.88,21.51,-7.94,-7.3,127.2,-1358.24,-1073.01,57.28,0.0,0.0,98.0,0.0,0.0,0.0,0.0,0.0,0.0,0.0,0.0,0.0,0.0,0.0,0.0,0.0,0.0
58.0,2244.0,25826.825561208552,7505.064286510661,-0.0,51.37285310814971,-16000.0,0.0,15488.512918162154,0.0,0.0,0.0,15488.512918162158,0.8547878167672611,0.2712797527578163,0.5051020408163246,0.0,0.0,0.0,"[1.3079372154003401, 0.9486249538667266, 1.2195614024773498, 0.3112705179315469, 0.09395376251816856, 0.4486104155208075, 0.6669453091885664, 0.6026549389859639, 0.8160707775660399]",21.52,0.0,0.0,65.08721461543833,77.73675111609658,1.7932668019143876,-1861.2749038161794,-118.42760950877576,0.0,0.0,0.0,0.0,0.0,0.0,0.0,-5.2,21.490252235306297,0.0,21.28179688991391,0.0,-5.2,21.52,20.59,21.97,21.44,21.92,-5.9,-5.2,0.0,-1296.53,-1024.26,103.44,0.0,0.0,57.0,0.0,0.0,0.0,0.0,0.0,0.0,0.0,0.0,0.0,0.0,0.0,0.0,0.0,0.0
59.0,2656.0,0.0,5919.74686481563,-0.0,8575.74686481563,0.0,0.0,13232.653247200495,0.0,0.0,0.0,13232.653247200496,0.8547878167672611,0.2712797527578163,0.5051020408163246,0.0,0.0,0.0,"[1.3079372154003401, 0.9486249538667266, 1.2195614024773498, 0.3112705179315469, 0.09395376251816856, 0.4486104155208075, 0.6669453091885664, 0.6026549389859639, 0.8160707775660399]",20.84,0.0,0.0,1886.7180286450523,88.6471723253733,2.044953370604124,-1688.6484794106987,1080.0705593514613,0.0,0.0,0.0,0.0,0.0,0.0,0.0,-3.4,21.253499215525974,0.0,21.21693475613705,0.0,-3.4,20.84,20.55,21.88,20.89,21.48,-2.87,-3.4,1700.45,-1176.28,-929.26,2998.52,0.0,0.0,65.0,0.0,0.0,0.0,0.0,0.0,0.0,0.0,0.0,0.0,0.0,0.0,0.0,0.0,0.0
60.0,4439.0,0.0,5190.81640858302,-0.0,13630.560232342152,-4000.7438237591314,0.0,12098.10152481472,0.0,0.0,0.0,12098.10152481472,1.0,0.2712797527578163,0.5051020408163246,0.0,0.0,0.0,"[1.3079372154003401, 0.9486249538667266, 1.2195614024773498, 0.3112705179315469, 0.09395376251816856, 0.4486104155208075, 0.6669453091885664, 0.6026549389859639, 0.8160707775660399]",21.37,0.0,0.0,1957.0236422444648,264.9366097594761,43.06986406703157,-1655.5286227922556,84.96942556279112,0.0,0.0,0.0,0.0,0.0,0.0,0.0,-2.4,21.40969627022085,0.0,21.23389929205291,0.0,-2.4,21.37,20.56,21.91,21.58,22.05,-1.83,-2.4,714.81,-1153.21,-911.04,3110.26,124.0,0.0,129.0,0.0,0.0,0.0,0.0,0.0,0.0,0.0,0.0,0.0,0.0,0.0,0.0,0.0,0.0
61.0,3942.0,0.0,6267.568784380859,-1725.1729348511399,11934.741719231999,0.0,0.0,14786.912403099072,0.0,0.0,0.0,14786.912403099072,1.0,0.2712797527578163,0.5107376057368384,0.0,0.0,0.0,"[1.3079372154003401, 0.9486249538667266, 1.2195614024773498, 0.3112705179315469, 0.09395376251816856, 0.4486104155208075, 0.6669453091885664, 0.6026549389859639, 0.8160707775660399]",21.64,0.0,0.0,1661.7239237505705,245.98693081704803,38.161975977581655,-1653.7413075929333,-362.923147867553,4537.374275838433,0.0,0.0,0.0,0.0,0.0,0.0,-2.1,21.51843975481096,0.0,21.277266357782125,0.0,-2.1,21.64,20.59,21.96,21.75,22.2,-1.71,-2.1,749.99,-1151.97,-910.05,2640.94,109.0,0.0,123.0,0.0,0.0,0.0,0.0,0.0,0.0,0.0,0.0,0.0,0.0,0.0,0.0,0.0,0.0
62.0,3366.0,10.37329265130156,3719.155461827529,-0.0,6424.372869797907,650.4611658415772,0.0,8526.316024356418,0.0,0.0,0.0,8526.316024356416,0.9754171894995625,0.2712797527578163,0.5107376057368384,0.0,0.0,0.0,"[1.3079372154003401, 0.9486249538667266, 1.2195614024773498, 0.3112705179315469, 0.09395376251816856, 0.4486104155208075, 0.6669453091885664, 0.6026549389859639, 0.8160707775660399]",23.31,0.0,0.0,817.546627498565,238.66546395292815,5.505643690088034,-1818.6154903308,-3312.1873201956187,0.0,0.0,0.0,0.0,0.0,0.0,0.0,-2.8,22.095903060730155,0.0,21.43274789588454,0.0,-2.8,23.31,20.7,22.17,22.89,23.12,-2.94,-2.8,0.0,-1266.81,-1000.78,1299.31,0.0,0.0,175.0,0.0,0.0,0.0,0.0,0.0,0.0,0.0,0.0,0.0,0.0,0.0,0.0,0.0,0.0
63.0,4592.0,12267.111049786805,7613.775494537871,-0.0,0.0,0.0,0.0,16293.540420806235,0.0,0.0,0.0,16293.540420806235,0.9754171894995625,0.2712797527578163,0.5107376057368384,0.0,0.0,0.0,"[1.3079372154003401, 0.9486249538667266, 1.2195614024773498, 0.3112705179315469, 0.09395376251816856, 0.4486104155208075, 0.6669453091885664, 0.6026549389859639, 0.8160707775660399]",21.81,0.0,0.0,10.386440532601432,302.5488512967194,39.16872225234061,-1825.7630351074529,-300.1941236444764,0.0,0.0,0.0,0.0,0.0,0.0,0.0,-4.4,21.712969795298253,0.0,21.4657508957452,0.0,-4.4,21.81,20.73,22.2,21.62,22.16,-5.12,-4.4,2235.41,-1271.79,-1004.72,16.51,108.0,0.0,165.0,0.0,0.0,0.0,0.0,0.0,0.0,0.0,0.0,0.0,0.0,0.0,0.0,0.0,0.0
64.0,3585.0,0.0,6804.743835180899,-0.0,0.0,10389.7438351809,0.0,14108.104223675597,0.0,0.0,0.0,14108.104223675597,0.5827586923271928,0.2712797527578163,0.5107376057368384,0.0,0.0,0.0,"[1.3079372154003401, 0.9486249538667266, 1.2195614024773498, 0.3112705179315469, 0.09395376251816856, 0.4486104155208075, 0.6669453091885664, 0.6026549389859639, 0.8160707775660399]",21.15,0.0,0.0,0.0,488.0260118544236,53.51485666765573,-1828.730394644036,863.0893163094787,6254.6153087919365,0.0,0.0,0.0,0.0,0.0,0.0,-5.1,21.485881060130687,0.0,21.407216629978308,0.0,-5.1,21.15,20.7,22.12,21.12,21.73,-5.83,-5.1,0.0,-1273.86,-1006.35,0.0,138.0,2.0,285.0,0.0,0.0,0.0,0.0,0.0,0.0,0.0,0.0,0.0,0.0,0.0,0.0,0.0,0.0
65.0,5834.0,12227.18974862306,6332.053799879945,-0.0,0.0,0.0,0.0,12645.164566916397,0.0,0.0,0.0,12645.164566916399,0.5827586923271928,0.2712797527578163,0.5107376057368384,0.0,0.0,0.0,"[1.3079372154003401, 0.9486249538667266, 1.2195614024773498, 0.3112705179315469, 0.09395376251816856, 0.4486104155208075, 0.6669453091885664, 0.6026549389859639, 0.8160707775660399]",23.31,0.0,0.0,0.0,499.8695611934411,51.469903297051594,-2034.553960440953,-3185.292441152925,4673.365759608272,0.0,0.0,0.0,0.0,0.0,0.0,-5.9,22.144674661155765,0.0,21.497655930213455,0.0,-5.9,23.31,20.76,22.24,22.68,22.94,-6.61,-5.9,0.0,-1417.23,-1119.61,0.0,117.0,9.0,304.0,0.0,0.0,0.0,0.0,0.0,0.0,0.0,0.0,0.0,0.0,0.0,0.0,0.0,0.0
66.0,7075.0,16098.354722967279,8942.862949352442,-0.0,0.0,0.0,0.0,17176.931888558847,0.0,0.0,0.0,17176.931888558847,0.5827586923271928,0.2712797527578163,0.5107376057368384,0.0,0.0,0.0,"[1.3079372154003401, 0.9486249538667266, 1.2195614024773498, 0.3112705179315469, 0.09395376251816856, 0.4486104155208075, 0.6669453091885664, 0.6026549389859639, 0.8160707775660399]",23.31,0.0,0.0,0.0,1778.9728898073297,72.23404521395506,-2090.280017243573,-2949.28706882264,0.0,0.0,0.0,0.0,0.0,0.0,0.0,-6.7,22.232359888167245,0.0,21.60773681014542,0.0,-6.7,23.31,20.83,22.39,22.58,22.92,-7.38,-6.7,0.0,-1456.05,-1150.28,0.0,82.0,12.0,1260.0,0.0,0.0,0.0,0.0,0.0,0.0,0.0,0.0,0.0,0.0,0.0,0.0,0.0,0.0
67.0,10374.0,0.0,5045.7949989775225,-0.0,0.0,15419.794998977522,0.0,9354.948265984822,0.0,0.0,0.0,9354.948265984822,0.0,0.2712797527578163,0.5107376057368384,0.0,0.0,0.0,"[1.3079372154003401, 0.9486249538667266, 1.2195614024773498, 0.3112705179315469, 0.09395376251816856, 0.4486104155208075, 0.6669453091885664, 0.6026549389859639, 0.8160707775660399]",22.13,0.0,0.0,0.0,4694.424062552016,164.82324167069268,-2056.7140864174107,-629.2547337074785,0.0,0.0,0.0,0.0,0.0,0.0,0.0,-7.4,21.90841254794235,0.0,21.606029186508902,0.0,-7.4,22.13,20.83,22.38,21.64,22.22,-8.09,-7.4,2131.44,-1432.67,-1131.81,0.0,133.0,30.0,3369.0,0.0,0.0,0.0,0.0,0.0,0.0,0.0,0.0,0.0,0.0,0.0,0.0,0.0,0.0
68.0,5590.0,0.0,2217.3870917953313,-0.0,0.0,7807.387091795332,0.0,3941.942899495903,0.0,0.0,0.0,3941.942899495903,0.28567698065777275,0.2712797527578163,0.4984927077776547,0.0,0.0,0.0,"[0.9241892158354545, 0.9486249538667266, 0.7732052240552534, 0.3112705179315469, 0.09395376251816856, 0.21624492011713414, 0.5153786239890081, 0.6026549389859639, 0.33896918357904227]",22.92,0.0,0.0,0.0,535.9744419057187,12.364102686883417,-2168.03542022143,-2192.907002279965,0.0,0.0,0.0,0.0,0.0,0.0,0.0,-8.2,22.128946788704404,0.0,21.610443270008282,0.0,-8.2,22.92,20.84,22.38,22.01,22.5,-8.88,-8.2,0.0,-1510.21,-1193.07,0.0,0.0,0.0,393.0,0.0,0.0,0.0,0.0,0.0,0.0,0.0,0.0,0.0,0.0,0.0,0.0,0.0,0.0
69.0,4379.0,0.0,0.0,-0.0,0.0,4379.0,0.0,15206.666222169788,0.0,15206.666222169788,0.0,0.0,0.12018189373411439,0.21380935887206504,0.4984927077776547,0.0,0.0,0.0,"[0.9241892158354545, 0.9486249538667266, 0.7732052240552534, 0.3112705179315469, 0.09395376251816856, 0.21624492011713414, 0.5153786239890081, 0.6026549389859639, 0.33896918357904227]",21.51,0.0,0.0,0.0,486.1597555949422,60.62500223314084,-2118.53099589764,502.01435028641885,1788.7752731067233,0.0,0.0,0.0,0.0,0.0,0.0,-8.9,21.714729435442113,0.0,21.573003662751127,0.0,-8.9,21.51,20.81,22.33,21.35,21.98,-9.56,-8.9,1706.27,-1475.73,-1165.83,0.0,162.0,2.0,271.0,0.0,0.0,0.0,0.0,0.0,0.0,0.0,0.0,0.0,0.0,0.0,0.0,0.0,0.0
70.0,4195.0,28193.91035317663,9849.624379299814,-0.0,0.0,-14008.316422110931,0.0,16101.60183421078,0.0,0.0,0.0,16101.60183421078,0.6286318972033259,0.21380935887206504,0.4984927077776547,0.0,0.0,0.0,"[0.9241892158354545, 0.9486249538667266, 0.7732052240552534, 0.3112705179315469, 0.09395376251816856, 0.21624492011713414, 0.5153786239890081, 0.6026549389859639, 0.33896918357904227]",21.78,0.0,0.0,0.0,709.895169472018,65.75311607019428,-2192.636295249135,-87.22506224819361,0.0,0.0,0.0,0.0,0.0,0.0,0.0,-9.7,21.761159035836894,0.0,21.540827857003233,0.0,-9.7,21.78,20.79,22.29,21.63,22.17,-10.36,-9.7,1569.74,-1527.35,-1206.61,0.0,92.0,39.0,468.0,0.0,0.0,0.0,0.0,0.0,0.0,0.0,0.0,0.0,0.0,0.0,0.0,0.0,0.0
71.0,3162.0,3851.3794421689117,16670.122544958067,-0.0,0.0,16000.0,0.0,26138.911857874893,0.0,0.0,0.0,26138.911857874893,0.02394557823129262,0.21380935887206504,0.4556355649205118,0.0,0.0,0.0,"[0.9241892158354545, 0.9486249538667266, 0.7732052240552534, 0.3112705179315469, 0.09395376251816856, 0.21624492011713414, 0.5153786239890081, 0.6026549389859639, 0.33896918357904227]",21.22,0.0,0.0,0.0,628.4259058369581,75.0340582906284,-2202.479463779969,864.7067976305643,5252.267011623705,0.0,0.0,0.0,0.0,0.0,0.0,-10.4,21.554646861464153,0.0,21.47190057997586,0.0,-10.4,21.22,20.74,22.2,21.19,21.81,-11.06,-10.4,0.0,-1534.21,-1212.02,0.0,103.0,53.0,401.0,0.0,0.0,0.0,0.0,0.0,0.0,0.0,0.0,0.0,0.0,0.0,0.0,0.0,0.0
72.0,2341.0,19433.52133654291,16995.3537298602,-0.0,0.0,0.0,0.0,25838.767857785104,0.0,0.0,0.0,25838.7678577851,0.02394557823129262,0.21380935887206504,0.4556355649205118,0.0,0.0,0.0,"[0.9241892158354545, 0.9486249538667266, 0.7732052240552534, 0.3112705179315469, 0.09395376251816856, 0.21624492011713414, 0.5153786239890081, 0.6026549389859639, 0.33896918357904227]",22.92,0.0,0.0,0.0,235.22006778157763,36.588934923270784,-2356.1108619302727,-2373.9200939983034,4461.675993916388,0.0,0.0,0.0,0.0,0.0,0.0,-10.9,22.063345422913976,0.0,21.525319319223648,0.0,-10.9,22.92,20.77,22.28,22.44,22.78,-11.59,-10.9,371.87,-1641.22,-1296.57,0.0,80.0,13.0,129.0,0.0,0.0,0.0,0.0,0.0,0.0,0.0,0.0,0.0,0.0,0.0,0.0,0.0,0.0
73.0,3003.0,35704.32579077246,16522.804161818596,-0.0,0.0,-16000.0,0.0,24175.22863176832,0.0,0.0,0.0,24175.228631768317,0.6046863189720333,0.21380935887206504,0.4556355649205118,0.0,0.0,0.0,"[0.9241892158354545, 0.9486249538667266, 0.7732052240552534, 0.3112705179315469, 0.09395376251816856, 0.21624492011713414, 0.5153786239890081, 0.6026549389859639, 0.33896918357904227]",22.92,0.0,0.0,0.0,272.90408840572405,30.13946660059623,-2397.905404532238,-2209.513831631718,4307.220884066976,0.0,0.0,0.0,0.0,0.0,0.0,-11.5,22.12446406550513,0.0,21.59993921092375,0.0,-11.5,22.92,20.81,22.39,22.38,22.78,-12.2,-11.5,756.93,-1670.34,-1319.57,0.0,80.0,0.0,158.0,0.0,0.0,0.0,0.0,0.0,0.0,0.0,0.0,0.0,0.0,0.0,0.0,0.0,0.0
74.0,1327.0,1105.088639336118,15772.563196139437,-0.0,0.0,16000.0,0.0,22024.965863444613,0.0,0.0,0.0,22024.965863444613,0.0,0.21380935887206504,0.4556355649205118,0.0,0.0,0.0,"[0.9241892158354545, 0.9486249538667266, 0.7732052240552534, 0.3112705179315469, 0.09395376251816856, 0.21624492011713414, 0.5153786239890081, 0.6026549389859639, 0.33896918357904227]",22.92,0.0,0.0,0.0,185.62071873151044,28.12597405107832,-2446.665704234531,-2064.193767533266,4299.76790570854,0.0,0.0,0.0,0.0,0.0,0.0,-12.2,22.17857739534403,0.0,21.66613997859454,0.0,-12.2,22.92,20.85,22.48,22.4,22.83,-12.92,-12.2,3398.91,-1704.3,-1346.4,0.0,80.0,0.0,94.0,0.0,0.0,0.0,0.0,0.0,0.0,0.0,0.0,0.0,0.0,0.0,0.0,0.0,0.0
75.0,789.0,16321.565500272709,15450.957672771345,-0.0,0.0,0.0,0.0,20986.67779156829,0.0,0.0,0.0,20986.67779156829,0.0,0.21380935887206504,0.4556355649205118,0.0,0.0,0.0,"[0.9241892158354545, 0.9486249538667266, 0.7732052240552534, 0.3112705179315469, 0.09395376251816856, 0.21624492011713414, 0.5153786239890081, 0.6026549389859639, 0.33896918357904227]",22.92,0.0,0.0,0.0,161.07227101063782,27.55967927152641,-2474.5287326358407,-1931.6178359395005,0.0,0.0,0.0,0.0,0.0,0.0,0.0,-12.6,22.227814025588465,0.0,21.726445039876257,0.0,-12.6,22.92,20.88,22.57,22.42,22.89,-13.32,-12.6,217.71,-1723.71,-1361.73,0.0,80.0,0.0,76.0,0.0,0.0,0.0,0.0,0.0,0.0,0.0,0.0,0.0,0.0,0.0,0.0,0.0,0.0
76.0,875.0,12738.193941937365,11799.502972227678,-0.0,0.0,0.0,0.0,15577.038348125694,0.0,0.0,0.0,15577.038348125694,0.0,0.21380935887206504,0.4556355649205118,0.0,0.0,0.0,"[0.9241892158354545, 0.9486249538667266, 0.7732052240552534, 0.3112705179315469, 0.09395376251816856, 0.21624492011713414, 0.5153786239890081, 0.6026549389859639, 0.33896918357904227]",21.36,0.0,0.0,0.0,276.99549635920295,30.233849063854883,-2393.6572420536036,1017.8617508372644,5291.53654461303,0.0,0.0,0.0,0.0,0.0,0.0,-13.0,21.75723364388745,0.0,21.668841069035224,0.0,-13.0,21.36,20.84,22.49,21.32,22.03,-13.71,-13.0,3384.39,-1667.38,-1317.23,0.0,80.0,0.0,161.0,0.0,0.0,0.0,0.0,0.0,0.0,0.0,0.0,0.0,0.0,0.0,0.0,0.0,0.0
77.0,892.0,102793.06774308972,85387.10240437427,-0.0,0.0,-16000.0,0.0,29467.151072631,0.0,-80000.0,0.0,109467.15107263101,0.5807407407407407,0.5041797292424354,0.4556355649205118,0.0,0.0,0.0,"[0.9241892158354545, 0.9486249538667266, 0.7732052240552534, 0.3112705179315469, 0.09395376251816856, 0.21624492011713414, 0.5153786239890081, 0.6026549389859639, 0.33896918357904227]",22.92,0.0,0.0,0.0,225.8170073972668,36.93500395521918,-2530.254789438461,-1972.1166564529883,0.0,0.0,0.0,0.0,0.0,0.0,0.0,-13.4,22.21323623317604,0.0,21.706113064061682,0.0,-13.4,22.92,20.86,22.55,22.51,22.94,-14.12,-13.4,0.0,-1762.53,-1392.4,0.0,80.0,14.0,122.0,0.0,0.0,0.0,0.0,0.0,0.0,0.0,0.0,0.0,0.0,0.0,0.0,0.0,0.0
78.0,2159.0,16030.133573445499,13790.982905578272,-0.0,0.0,0.0,0.0,17154.28846078862,0.0,0.0,0.0,17154.28846078862,0.5807407407407407,0.5041797292424354,0.4556355649205118,0.0,0.0,0.0,"[0.9241892158354545, 0.9486249538667266, 0.7732052240552534, 0.3112705179315469, 0.09395376251816856, 0.21624492011713414, 0.5153786239890081, 0.6026549389859639, 0.33896918357904227]",21.35,0.0,0.0,0.0,221.58204126998172,59.555334316209446,-2448.790947595119,995.0544857847701,424.2485151859652,0.0,0.0,0.0,0.0,0.0,0.0,-13.8,21.740691876704535,0.0,21.648559355941735,0.0,-13.8,21.35,20.82,22.48,21.31,22.02,-14.52,-13.8,598.19,-1705.78,-1347.57,0.0,160.0,12.0,77.0,0.0,0.0,0.0,0.0,0.0,0.0,0.0,0.0,0.0,0.0,0.0,0.0,0.0,0.0
79.0,1065.0,26383.007801203585,18059.000839768465,-0.0,0.0,-7127.091922429104,0.0,21946.692437695852,0.0,0.0,0.0,21946.692437695856,0.8394277808881674,0.5041797292424354,0.4556355649205118,0.0,0.0,0.0,"[0.9241892158354545, 0.9486249538667266, 0.7732052240552534, 0.3112705179315469, 0.09395376251816856, 0.21624492011713414, 0.5153786239890081, 0.6026549389859639, 0.33896918357904227]",21.08,0.0,0.0,0.0,157.62687483928727,38.50804500953004,-2450.261537295715,1346.2399171035777,911.5219074007631,0.0,0.0,0.0,0.0,0.0,0.0,-14.1,21.591721574989702,0.0,21.555790270663294,0.0,-14.1,21.08,20.75,22.36,21.2,21.88,-14.83,-14.1,1190.84,-1706.81,-1348.38,0.0,117.0,0.0,54.0,0.0,0.0,0.0,0.0,0.0,0.0,0.0,0.0,0.0,0.0,0.0,0.0,0.0,0.0
80.0,1289.0,6723.538772569848,13929.104737439808,-0.0,0.0,8528.183658732809,0.0,16794.933330295335,0.0,0.0,0.0,16794.933330295335,0.5171230318808806,0.5041797292424354,0.4556355649205118,0.0,0.0,0.0,"[0.9241892158354545, 0.9486249538667266, 0.7732052240552534, 0.3112705179315469, 0.09395376251816856, 0.21624492011713414, 0.5153786239890081, 0.6026549389859639, 0.33896918357904227]",21.08,0.0,0.0,2.3186229832385647,160.92871283683155,32.02711586576927,-2457.2272943960425,1161.018627671885,1103.896865165284,0.0,0.0,0.0,0.0,0.0,0.0,-14.2,21.523256517552976,0.0,21.46803449122868,0.0,-14.2,21.08,20.69,22.25,21.19,21.84,-14.93,-14.2,1257.59,-1711.66,-1352.21,3.68,95.0,0.0,68.0,0.0,0.0,0.0,0.0,0.0,0.0,0.0,0.0,0.0,0.0,0.0,0.0,0.0,0.0
81.0,1464.0,1457.3029102483595,0.0,-0.0,13.983604302882458,0.0,0.0,22327.193032634328,0.0,22327.19303263433,0.0,0.0,0.5171230318808806,0.41979880319317486,0.4556355649205118,0.0,0.0,0.0,"[0.9241892158354545, 0.9486249538667266, 0.7732052240552534, 0.3112705179315469, 0.09395376251816856, 0.21624492011713414, 0.5153786239890081, 0.6026549389859639, 0.33896918357904227]",21.08,0.0,0.0,37.08351911305442,84.55576437189454,1.9505709073454736,-2297.01488108851,997.3882896246876,3050.1266997232583,0.0,0.0,0.0,0.0,0.0,0.0,-11.9,21.461549172706945,0.0,21.38823437615286,0.0,-11.9,21.08,20.63,22.15,21.17,21.79,-12.56,-11.9,365.13,-1600.06,-1264.05,58.94,0.0,0.0,62.0,0.0,0.0,0.0,0.0,0.0,0.0,0.0,0.0,0.0,0.0,0.0,0.0,0.0,0.0
82.0,2341.0,0.0,0.0,-0.0,48.03613676792861,2292.963863232071,0.0,20880.9057855897,0.0,20880.9057855897,0.0,0.0,0.4304652895062747,0.3408838153413619,0.4556355649205118,0.0,0.0,0.0,"[0.9241892158354545, 0.9486249538667266, 0.7732052240552534, 0.3112705179315469, 0.09395376251816856, 0.21624492011713414, 0.5153786239890081, 0.6026549389859639, 0.33896918357904227]",21.77,0.0,0.0,63.4931023395252,72.28154051145825,1.6674235175695173,-2212.9731451278662,-404.9541312772046,604.1016273267803,0.0,0.0,0.0,0.0,0.0,0.0,-10.0,21.635729539942695,0.0,21.368007432622317,0.0,-10.0,21.77,20.61,22.13,21.63,22.14,-10.66,-10.0,0.0,-1541.52,-1217.8,100.91,0.0,0.0,53.0,0.0,0.0,0.0,0.0,0.0,0.0,0.0,0.0,0.0,0.0,0.0,0.0,0.0,0.0
83.0,4261.0,0.0,4176.4717534216625,-0.0,8140.960193085636,296.5115603360264,0.0,7305.243873621206,0.0,0.0,0.0,7305.243873621207,0.41925925925925933,0.3408838153413619,0.4556355649205118,0.0,0.0,0.0,"[0.9241892158354545, 0.9486249538667266, 0.7732052240552534, 0.3112705179315469, 0.09395376251816856, 0.21624492011713414, 0.5153786239890081, 0.6026549389859639, 0.33896918357904227]",21.08,0.0,0.0,1784.104654182236,114.55942269740554,2.6427089712422562,-2060.1791396773738,842.4288927042851,0.0,0.0,0.0,0.0,0.0,0.0,0.0,-8.5,21.401932072516882,0.0,21.310979741707282,0.0,-8.5,21.08,20.57,22.06,21.08,21.7,-7.96,-8.5,0.0,-1435.08,-1133.72,2835.44,0.0,0.0,84.0,0.0,0.0,0.0,0.0,0.0,0.0,0.0,0.0,0.0,0.0,0.0,0.0,0.0,0.0
84.0,4832.0,0.0,9705.164852578462,-0.0,14537.164852578462,0.0,0.0,17900.938601949365,0.0,0.0,0.0,17900.938601949365,0.41925925925925933,0.3408838153413619,0.4556355649205118,0.0,0.0,0.0,"[0.9241892158354545, 0.9486249538667266, 0.7732052240552534, 0.3112705179315469, 0.09395376251816856, 0.21624492011713414, 0.5153786239890081, 0.6026549389859639, 0.33896918357904227]",21.35,0.0,0.0,1990.067209982578,99.55759353465002,2.296639939293865,-2009.3319055357397,319.07817157310706,3813.4354512217146,0.0,0.0,0.0,0.0,0.0,0.0,-7.5,21.47796630484465,0.0,21.313360363678314,0.0,-7.5,21.35,20.56,22.06,21.57,22.12,-6.85,-7.5,0.0,-1399.66,-1105.73,3162.77,0.0,0.0,73.0,0.0,0.0,0.0,0.0,0.0,0.0,0.0,0.0,0.0,0.0,0.0,0.0,0.0,0.0
85.0,3194.0,0.0,6691.633459740789,-2528.7375248524413,12414.37098459323,0.0,0.0,12533.934025085882,0.0,0.0,0.0,12533.934025085884,0.41925925925925933,0.3408838153413619,0.46389610750169646,0.0,0.0,0.0,"[0.9241892158354545, 0.9486249538667266, 0.7732052240552534, 0.3112705179315469, 0.09395376251816856, 0.21624492011713414, 0.5153786239890081, 0.6026549389859639, 0.33896918357904227]",22.92,0.0,0.0,1774.7277955702334,284.8194168316448,55.74857496477715,-2098.377849218155,-2516.7215478772578,2458.5674926285706,0.0,0.0,0.0,0.0,0.0,0.0,-7.2,22.008060445716204,0.0,21.438306199849336,0.0,-7.2,22.92,20.64,22.23,22.72,23.05,-6.66,-7.2,0.0,-1461.69,-1154.74,2820.54,165.0,0.0,122.0,0.0,0.0,0.0,0.0,0.0,0.0,0.0,0.0,0.0,0.0,0.0,0.0,0.0,0.0
86.0,6149.0,0.0,3131.9724724996904,-0.0,9280.97247249969,0.0,0.0,5717.130320719349,0.0,0.0,0.0,5717.130320719349,0.41925925925925933,0.3408838153413619,0.46389610750169646,0.0,0.0,0.0,"[0.9241892158354545, 0.9486249538667266, 0.7732052240552534, 0.3112705179315469, 0.09395376251816856, 0.21624492011713414, 0.5153786239890081, 0.6026549389859639, 0.33896918357904227]",22.92,0.0,0.0,1487.822259036671,408.78189991336114,40.4271550957893,-2133.2066347197924,-2242.1555307488366,0.0,0.0,0.0,0.0,0.0,0.0,0.0,-7.7,22.109966260474984,0.0,21.56633183800261,0.0,-7.7,22.92,20.73,22.4,22.61,23.03,-7.35,-7.7,0.0,-1485.95,-1173.9,2364.56,104.0,0.0,245.0,0.0,0.0,0.0,0.0,0.0,0.0,0.0,0.0,0.0,0.0,0.0,0.0,0.0,0.0
87.0,3547.0,40642.94062455961,20894.28505052448,-0.0,1.5591290876684307,-16000.0,0.0,13740.332144883912,0.0,-21014.023307036197,0.0,34754.35545192011,1.0,0.4171569369743081,0.45522263811394137,0.0,0.0,0.0,"[0.9241892158354545, 0.9486249538667266, 0.7732052240552534, 0.3112705179315469, 0.09395376251816856, 0.21624492011713414, 0.5153786239890081, 0.6026549389859639, 0.33896918357904227]",22.04,0.0,0.0,15.793622831885989,189.71212668498916,39.54625210537522,-2189.705112136385,-407.188964479656,0.0,0.0,0.0,0.0,0.0,0.0,0.0,-9.4,21.900705169717785,0.0,21.608721857341557,0.0,-9.4,22.04,20.76,22.45,21.95,22.54,-10.06,-9.4,0.0,-1525.31,-1204.99,25.1,118.0,0.0,77.0,0.0,0.0,0.0,0.0,0.0,0.0,0.0,0.0,0.0,0.0,0.0,0.0,0.0,0.0
88.0,4838.0,0.0,7735.61600754634,-0.0,0.0,12573.616007546341,0.0,13014.47202697205,0.0,0.0,0.0,13014.472026972051,0.5248066512643106,0.4171569369743081,0.4434879442363904,0.0,0.0,0.0,"[0.9241892158354545, 0.9486249538667266, 0.7732052240552534, 0.3112705179315469, 0.09395376251816856, 0.21624492011713414, 0.5153786239890081, 0.6026549389859639, 0.33896918357904227]",21.16,0.0,0.0,0.0,1151.910786621531,80.2880154120267,-2115.0910635667924,1150.9793352145,4497.81916000896,0.0,0.0,0.0,0.0,0.0,0.0,-9.2,21.6053739686201,0.0,21.537259754483586,0.0,-9.2,21.16,20.72,22.35,21.17,21.88,-9.87,-9.2,0.0,-1473.33,-1163.93,0.0,116.0,34.0,780.0,0.0,0.0,0.0,0.0,0.0,0.0,0.0,0.0,0.0,0.0,0.0,0.0,0.0,0.0
89.0,4579.0,10176.648980834854,5546.76573593068,-0.0,0.0,0.0,0.0,9437.688094433848,0.0,0.0,0.0,9437.688094433848,0.5248066512643106,0.4171569369743081,0.4434879442363904,0.0,0.0,0.0,"[0.9241892158354545, 0.9486249538667266, 0.7732052240552534, 0.3112705179315469, 0.09395376251816856, 0.21624492011713414, 0.5153786239890081, 0.6026549389859639, 0.33896918357904227]",22.92,0.0,0.0,0.0,1261.9481268440388,132.73320416275104,-2223.76147702405,-2231.2861826119574,0.0,0.0,0.0,0.0,0.0,0.0,0.0,-9.0,22.11512737549593,0.0,21.575849269044085,0.0,-9.0,22.92,20.75,22.4,22.38,22.8,-9.63,-9.0,0.0,-1549.03,-1223.73,0.0,155.0,102.0,833.0,0.0,0.0,0.0,0.0,0.0,0.0,0.0,0.0,0.0,0.0,0.0,0.0,0.0,0.0
90.0,6164.0,6194.974874371859,0.0,-0.0,0.0,0.0,0.0,22171.24616682458,0.0,22171.24616682458,0.0,0.0,0.5248066512643106,0.33336537927655835,0.43532467893026794,0.0,0.0,0.0,"[0.9241892158354545, 0.9486249538667266, 0.7732052240552534, 0.3112705179315469, 0.09395376251816856, 0.21624492011713414, 0.5153786239890081, 0.6026549389859639, 0.33896918357904227]",21.79,0.0,0.0,0.0,1181.1966540780106,138.55345606370125,-2130.654437566323,-44.546205679628265,3941.426657857942,0.0,0.0,0.0,0.0,0.0,0.0,-8.8,21.786669453111216,0.0,21.553113294427696,0.0,-8.8,21.79,20.74,22.37,21.47,22.11,-9.42,-8.8,0.0,-1484.17,-1172.5,0.0,143.0,122.0,778.0,0.0,0.0,0.0,0.0,0.0,0.0,0.0,0.0,0.0,0.0,0.0,0.0,0.0,0.0
91.0,9440.0,15461.198370442848,5943.892378590634,-0.0,0.0,0.0,0.0,10283.384347451358,0.0,0.0,0.0,10283.384347451358,0.5248066512643106,0.33336537927655835,0.43532467893026794,0.0,0.0,0.0,"[0.9241892158354545, 0.9486249538667266, 0.7732052240552534, 0.3112705179315469, 0.09395376251816856, 0.21624492011713414, 0.5153786239890081, 0.6026549389859639, 0.33896918357904227]",22.92,0.0,0.0,0.0,1876.8077852563047,157.7130961052076,-2202.8642057230677,-2181.466109022037,0.0,0.0,0.0,0.0,0.0,0.0,0.0,-8.7,22.13338776825865,0.0,21.600350371519035,0.0,-8.7,22.92,20.77,22.43,22.36,22.79,-9.3,-8.7,870.92,-1534.47,-1212.23,0.0,144.0,127.0,1287.0,0.0,0.0,0.0,0.0,0.0,0.0,0.0,0.0,0.0,0.0,0.0,0.0,0.0,0.0
92.0,6388.0,27173.099263759053,4649.233767440259,-0.0,0.0,-16000.000000000002,0.0,8132.171962805745,0.0,0.0,0.0,8132.171962805745,0.6884183758508465,0.33336537927655835,0.39348794423639044,0.0,0.0,0.0,"[0.1308869464212279, 0.494249576222483, 0.7732052240552534, 0.3112705179315469, 0.09395376251816856, 0.2162449201171306, 0.5153786239890081, 0.5700511202039422, 0.33896918357904227]",22.05,0.0,0.0,0.0,1137.7703065016133,155.07038713396534,-2128.004448229077,-490.00533503600496,1559.818254410035,0.0,0.0,0.0,0.0,0.0,0.0,-8.5,21.88381813513307,0.0,21.58723460285976,0.0,-8.5,22.05,20.77,22.41,21.61,22.22,-9.08,-8.5,0.0,-1482.33,-1171.04,0.0,130.0,160.0,749.0,0.0,0.0,0.0,0.0,0.0,0.0,0.0,0.0,0.0,0.0,0.0,0.0,0.0,0.0
93.0,5443.0,0.0,0.0,-0.0,0.0,5443.0,0.0,18313.382752934223,0.0,18313.382752934227,0.0,0.0,0.48271164871554795,0.2641538042465726,0.39348794423639044,0.0,0.0,0.0,"[0.1308869464212279, 0.494249576222483, 0.7732052240552534, 0.3112705179315469, 0.09395376251816856, 0.2162449201171306, 0.5153786239890081, 0.5700511202039422, 0.33896918357904227]",22.13,0.0,0.0,0.0,748.2252018782925,122.57135895190284,-2119.7416681629766,-669.5722169924151,1222.384231592142,0.0,0.0,0.0,0.0,0.0,0.0,-8.3,21.898710962443253,0.0,21.57925412729203,0.0,-8.3,22.13,20.76,22.39,21.79,22.35,-8.87,-8.3,398.79,-1476.57,-1166.49,0.0,155.0,105.0,456.0,0.0,0.0,0.0,0.0,0.0,0.0,0.0,0.0,0.0,0.0,0.0,0.0,0.0,0.0
94.0,3234.0,0.0,0.0,-0.0,0.0,3234.0,0.0,19966.74155175018,0.0,19966.74155175018,0.0,0.0,0.3604894264933257,0.1886937076791116,0.3654267197465945,0.0,0.0,0.0,"[0.1308869464212279, 0.494249576222483, 0.7732052240552534, 0.3112705179315469, 0.09395376251816856, 0.2162449201171306, 0.5153786239890081, 0.5700511202039422, 0.33896918357904227]",21.87,0.0,0.0,0.0,449.9830957957614,71.44752468679962,-2087.5756204348445,-200.71193695754258,2481.3056521292274,0.0,0.0,0.0,0.0,0.0,0.0,-8.1,21.810126331549547,0.0,21.558720043370457,0.0,-8.1,21.87,20.76,22.36,21.63,22.21,-8.65,-8.1,298.12,-1454.17,-1148.79,0.0,84.0,64.0,279.0,0.0,0.0,0.0,0.0,0.0,0.0,0.0,0.0,0.0,0.0,0.0,0.0,0.0,0.0
95.0,2513.0,90165.18180487394,52964.63745092954,-18236.718444920025,0.0,-16000.0,0.0,15672.262524181748,0.0,-80000.0,0.0,95672.26252418174,0.9412301672340664,0.4790640780494819,0.42499999999999993,0.0,0.0,0.0,"[0.1308869464212279, 0.494249576222483, 0.7732052240552534, 0.3112705179315469, 0.09395376251816856, 0.2162449201171306, 0.5153786239890081, 0.5700511202039422, 0.33896918357904227]",22.13,0.0,0.0,0.0,304.41510755620095,70.44077841204066,-2091.8786397616664,-719.1515404779409,1735.1200102848863,0.0,0.0,0.0,0.0,0.0,0.0,-7.9,21.880157117629125,0.0,21.55808274534935,0.0,-7.9,22.13,20.76,22.36,21.84,22.37,-8.44,-7.9,1765.61,-1457.16,-1151.16,0.0,141.0,38.0,145.0,0.0,0.0,0.0,0.0,0.0,0.0,0.0,0.0,0.0,0.0,0.0,0.0,0.0,0.0
96.0,1877.0,0.0,10150.125315036481,-0.0,0.0,12027.125315036481,0.0,18915.185783773806,0.0,0.0,0.0,18915.185783773806,0.48669028382376855,0.4790640780494819,0.42499999999999993,0.0,0.0,0.0,"[0.1308869464212279, 0.494249576222483, 0.7732052240552534, 0.3112705179315469, 0.09395376251816856, 0.2162449201171306, 0.5153786239890081, 0.5700511202039422, 0.33896918357904227]",21.87,0.0,0.0,0.0,250.2218969443331,36.93500395521918,-2031.8495636322245,-234.87493538555947,2690.7582887117956,0.0,0.0,0.0,0.0,0.0,0.0,-7.3,21.797089406804748,0.0,21.544337991956787,0.0,-7.3,21.87,20.75,22.33,21.66,22.22,-7.85,-7.3,680.81,-1415.35,-1118.13,0.0,80.0,13.0,140.0,0.0,0.0,0.0,0.0,0.0,0.0,0.0,0.0,0.0,0.0,0.0,0.0,0.0,0.0
97.0,1125.0,0.0,8600.595328443966,-0.0,0.0,9725.595328443966,0.0,16601.51623066582,0.0,0.0,0.0,16601.516230665824,0.11913188138824454,0.4790640780494819,0.42499999999999993,0.0,0.0,0.0,"[0.1308869464212279, 0.494249576222483, 0.7732052240552534, 0.3112705179315469, 0.09395376251816856, 0.2162449201171306, 0.5153786239890081, 0.5700511202039422, 0.33896918357904227]",22.13,0.0,0.0,0.0,167.89128426643578,27.71698337695749,-2001.323797457409,-745.0464307381927,2553.3784780502647,0.0,0.0,0.0,0.0,0.0,0.0,-6.6,21.869933597358933,0.0,21.54736667919866,0.0,-6.6,22.13,20.76,22.33,21.85,22.37,-7.15,-6.6,1880.73,-1394.09,-1101.33,0.0,80.0,0.0,81.0,0.0,0.0,0.0,0.0,0.0,0.0,0.0,0.0,0.0,0.0,0.0,0.0,0.0,0.0
98.0,1378.0,28150.344459246407,10631.592736950177,-0.0,0.0,-16000.0,0.0,21231.379899159583,0.0,0.0,0.0,21231.379899159583,0.6998726221289853,0.4790640780494819,0.42499999999999993,0.0,0.0,0.0,"[0.1308869464212279, 0.494249576222483, 0.7732052240552534, 0.3112705179315469, 0.09395376251816856, 0.2162449201171306, 0.5153786239890081, 0.5700511202039422, 0.33896918357904227]",22.13,0.0,0.0,0.0,238.80902212673448,29.352946073440798,-1952.5634977551163,-730.5898258152974,1710.058329212991,0.0,0.0,0.0,0.0,0.0,0.0,-5.9,21.874923161361526,0.0,21.554967581643055,0.0,-5.9,22.13,20.77,22.34,21.84,22.36,-6.43,-5.9,1098.24,-1360.12,-1074.49,0.0,80.0,0.0,133.0,0.0,0.0,0.0,0.0,0.0,0.0,0.0,0.0,0.0,0.0,0.0,0.0,0.0,0.0
99.0,1098.0,10573.206308084353,9422.340276543931,-0.0,0.0,0.0,0.0,19175.796835435216,0.0,0.0,0.0,19175.796835435216,0.6998726221289853,0.4790640780494819,0.42499999999999993,0.0,0.0,0.0,"[0.1308869464212279, 0.494249576222483, 0.7732052240552534, 0.3112705179315469, 0.09395376251816856, 0.2162449201171306, 0.5153786239890081, 0.5700511202039422, 0.33896918357904227]",21.87,0.0,0.0,0.0,173.34649487107413,27.84282666130236,-1906.4659358263289,-244.79009853403969,1952.6951100876581,0.0,0.0,0.0,0.0,0.0,0.0,-5.5,21.792509035800766,0.0,21.542771937009658,0.0,-5.5,21.87,20.77,22.32,21.64,22.2,-6.02,-5.5,1979.7,-1328.01,-1049.13,0.0,80.0,0.0,85.0,0.0,0.0,0.0,0.0,0.0,0.0,0.0,0.0,0.0,0.0,0.0,0.0,0.0,0.0
100.0,859.0,0.0,9620.099551055715,-0.0,0.0,10479.099551055715,0.0,20036.82177189794,0.0,0.0,0.0,20036.821771897943,0.3038371137746498,0.4790640780494819,0.42499999999999993,0.0,0.0,0.0,"[0.1308869464212279, 0.494249576222483, 0.7732052240552534, 0.3112705179315469, 0.09395376251816856, 0.2162449201171306, 0.5153786239890081, 0.5700511202039422, 0.33896918357904227]",21.87,0.0,0.0,0.0,162.43607366179742,27.591140092612623,-1871.6371503246914,-276.5735295186089,2668.492084381733,0.0,0.0,0.0,0.0,0.0,0.0,-5.0,21.780496499245594,0.0,21.529478821239714,0.0,-5.0,21.87,20.77,22.29,21.66,22.2,-5.51,-5.0,1121.27,-1303.75,-1029.96,0.0,80.0,0.0,77.0,0.0,0.0,0.0,0.0,0.0,0.0,0.0,0.0,0.0,0.0,0.0,0.0,0.0,0.0
101.0,1261.0,9065.897465977348,7759.567978647461,-0.0,0.0,0.0,0.0,16457.588816510215,0.0,0.0,0.0,16457.588816510215,0.3038371137746498,0.4790640780494819,0.42499999999999993,0.0,0.0,0.0,"[0.1308869464212279, 0.494249576222483, 0.7732052240552534, 0.3112705179315469, 0.09395376251816856, 0.2162449201171306, 0.5153786239890081, 0.5700511202039422, 0.33896918357904227]",22.13,0.0,0.0,0.0,109.24777026657343,26.364168070250148,-1862.0086554508587,-778.9487587858355,2507.8342859604486,0.0,0.0,0.0,0.0,0.0,0.0,-4.6,21.856335710094488,0.0,21.53689837009133,0.0,-4.6,22.13,20.78,22.3,21.85,22.34,-5.03,-4.6,1944.96,-1297.04,-1024.66,0.0,80.0,0.0,38.0,0.0,0.0,0.0,0.0,0.0,0.0,0.0,0.0,0.0,0.0,0.0,0.0,0.0,0.0
102.0,3777.0,0.0,4262.530030477234,-0.0,0.0,8039.530030477234,0.0,9162.484345651961,0.0,0.0,0.0,9162.484345651961,0.0,0.4790640780494819,0.42499999999999993,0.0,0.0,0.0,"[0.1308869464212279, 0.494249576222483, 0.7732052240552534, 0.3112705179315469, 0.09395376251816856, 0.2162449201171306, 0.5153786239890081, 0.5700511202039422, 0.33896918357904227]",22.13,0.0,0.0,0.0,154.6839322762587,36.65185656544322,-1841.111384149876,-757.889614654721,1703.4212099799265,0.0,0.0,0.0,0.0,0.0,0.0,-4.3,21.863981762775158,0.0,21.548332629885927,0.0,-4.3,22.13,20.79,22.3,21.84,22.33,-4.74,-4.3,624.79,-1282.48,-1013.16,0.0,111.0,0.0,55.0,0.0,0.0,0.0,0.0,0.0,0.0,0.0,0.0,0.0,0.0,0.0,0.0,0.0,0.0
103.0,1341.0,36200.735244102645,18678.73156788213,-0.0,0.0,-16000.0,0.0,18355.6713557237,0.0,-22329.24383361294,0.0,40684.91518933664,0.5807407407407407,0.5601109630751882,0.42499999999999993,0.0,0.0,0.0,"[0.1308869464212279, 0.494249576222483, 0.7732052240552534, 0.3112705179315469, 0.09395376251816856, 0.2162449201171306, 0.5153786239890081, 0.5700511202039422, 0.33896918357904227]",21.87,0.0,0.0,0.0,203.13481593587568,43.730541309842124,-1801.9795793214164,-264.55451345545634,2531.500933252505,0.0,0.0,0.0,0.0,0.0,0.0,-4.0,21.784403232175116,0.0,21.53996009514276,0.0,-4.0,21.87,20.8,22.28,21.65,22.18,-4.43,-4.0,1139.22,-1255.23,-991.63,0.0,131.0,0.0,80.0,0.0,0.0,0.0,0.0,0.0,0.0,0.0,0.0,0.0,0.0,0.0,0.0,0.0,0.0
104.0,2704.0,21196.466695754716,18074.114516378755,-312.3698458971896,0.0,0.0,0.0,39884.892107603155,0.0,0.0,0.0,39884.892107603155,1.0,0.5601109630751882,0.4260204081632641,0.0,0.0,0.0,"[0.1308869464212279, 0.494249576222483, 0.7732052240552534, 0.3112705179315469, 0.09395376251816856, 0.21624492011713414, 0.5153786239890081, 0.5700511202039422, 0.33896918357904227]",22.13,0.0,0.0,0.7647234298365599,105.01280413928838,2.4224832236387353,-1799.3168415479106,-766.9652551835306,1750.5867546159975,0.0,0.0,0.0,0.0,0.0,0.0,-3.7,21.860310289801625,0.0,21.54766132155526,0.0,-3.7,22.13,20.81,22.29,21.85,22.33,-4.11,-3.7,1179.86,-1253.37,-990.16,1.22,0.0,0.0,77.0,0.0,0.0,0.0,0.0,0.0,0.0,0.0,0.0,0.0,0.0,0.0,0.0,0.0,0.0
105.0,2584.0,7127.434885056694,4519.167584859336,-0.0,11.369874227925932,0.0,0.0,10618.87220884328,0.0,0.0,0.0,10618.87220884328,1.0,0.5601109630751882,0.4260204081632641,0.0,0.0,0.0,"[0.1308869464212279, 0.494249576222483, 0.7732052240552534, 0.3112705179315469, 0.09395376251816856, 0.21624492011713414, 0.5153786239890081, 0.5700511202039422, 0.33896918357904227]",21.87,0.0,0.0,21.79669366811168,68.19013255797947,1.5730410543108668,-1676.595951515521,-270.6898943166421,1939.7671538024465,0.0,0.0,0.0,0.0,0.0,0.0,-2.2,21.781203832036482,0.0,21.539867067566814,0.0,-2.2,21.87,20.81,22.27,21.65,22.17,-2.57,-2.2,1986.94,-1167.89,-922.63,34.64,0.0,0.0,50.0,0.0,0.0,0.0,0.0,0.0,0.0,0.0,0.0,0.0,0.0,0.0,0.0,0.0,0.0
106.0,4041.0,0.0,2329.5325295534076,-0.0,38.29608312287261,6332.236446430536,0.0,5695.878987218552,0.0,0.0,0.0,5695.878987218552,0.7606864532717107,0.5601109630751882,0.4260204081632641,0.0,0.0,0.0,"[0.1308869464212279, 0.494249576222483, 0.7732052240552534, 0.3112705179315469, 0.09395376251816856, 0.21624492011713414, 0.5153786239890081, 0.5700511202039422, 0.33896918357904227]",21.9,0.0,0.0,27.790259188835254,343.24759357079773,38.31928008301274,-1609.1146538878438,-349.7408333526098,1467.9238579448277,0.0,0.0,0.0,0.0,0.0,0.0,-1.2,21.782709140800975,0.0,21.533693112161643,0.0,-1.2,21.9,20.82,22.25,21.69,22.19,-1.55,-1.2,1686.36,-1120.88,-885.49,44.17,102.0,0.0,198.0,0.0,0.0,0.0,0.0,0.0,0.0,0.0,0.0,0.0,0.0,0.0,0.0,0.0,0.0
107.0,10223.0,14392.288792871313,4524.7618860352995,-0.0,427.4345371283443,0.0,0.0,11624.1440703117,0.0,0.0,0.0,11624.144070311702,0.7606864532717107,0.5601109630751882,0.4260204081632641,0.0,0.0,0.0,"[0.1308869464212279, 0.494249576222483, 0.7732052240552534, 0.3112705179315469, 0.09395376251816856, 0.21624492011713414, 0.5153786239890081, 0.5700511202039422, 0.33896918357904227]",21.87,0.0,0.0,52.1872670975463,405.48006191581686,46.908084239550085,-1516.383538207988,-311.83309085126854,1326.7020616409184,0.0,0.0,0.0,0.0,0.0,0.0,0.1,21.764829200614987,0.0,21.52485951206649,0.0,0.1,21.87,20.82,22.23,21.64,22.14,-0.26,0.1,1621.97,-1056.29,-834.46,82.94,126.0,0.0,231.0,0.0,0.0,0.0,0.0,0.0,0.0,0.0,0.0,0.0,0.0,0.0,0.0,0.0,0.0
108.0,6455.0,29430.866864588,15399.348247901735,-0.0,1021.7997176366769,0.0,0.0,7371.2482612246895,42255.82,0.0,0.0,41175.90426122468,0.7606864532717107,0.5601109630751882,0.4260204081632641,33804.656,8451.164,42255.82,"[0.1308869464212279, 0.494249576222483, 0.7732052240552534, 0.3112705179315469, 0.09395376251816856, 0.21624492011713414, 0.5153786239890081, 0.5700511202039422, 0.33896918357904227]",21.87,0.0,0.0,67.97662255115988,2971.654197789842,113.25895591038248,-1439.7602101043854,-333.233694098211,-663.2811312013546,0.0,0.0,0.0,0.0,0.0,0.0,1.2,21.756395067036358,0.0,21.517572754647905,0.0,1.2,21.87,20.83,22.21,21.63,22.12,0.78,1.2,1150.73,-1002.91,-792.3,108.03,150.0,0.0,2100.0,0.0,0.0,0.0,0.0,0.0,0.0,0.0,0.0,0.0,0.0,0.0,0.0,0.0,0.0
109.0,3252.0,6027.206008804931,3811.8983957615224,-0.0,1066.8284170006152,0.0,0.0,10483.252861112442,0.0,0.0,0.0,10483.252861112443,0.7606864532717107,0.5601109630751882,0.41938775510203957,0.0,0.0,0.0,"[0.1308869464212279, 0.494249576222483, 0.7732052240552534, 0.3112705179315469, 0.09395376251816856, 0.21624492011713414, 0.5153786239890081, 0.5700511202039422, 0.33896918357904227]",22.13,0.0,0.0,71.21997446661639,2323.8479384890375,103.97801368994838,-1402.2686868292421,-874.9219677701665,-213.90562179218875,0.0,0.0,0.0,0.0,0.0,0.0,2.0,21.81753400419617,0.0,21.508326806404163,0.0,2.0,22.13,20.84,22.18,21.64,22.12,1.58,2.0,725.39,-976.79,-771.67,113.19,169.0,0.0,1615.0,0.0,0.0,0.0,0.0,0.0,0.0,0.0,0.0,0.0,0.0,0.0,0.0,0.0,0.0
110.0,2895.0,0.0,1985.3227575450662,-0.0,281.83188464883665,4598.49087289623,0.0,5516.694876283478,0.0,0.0,0.0,5516.694876283478,0.5868961708493285,0.5601109630751882,0.41530612244897835,0.0,0.0,0.0,"[0.1308869464212279, 0.494249576222483, 0.7732052240552534, 0.3112705179315469, 0.09395376251816856, 0.21624492011713414, 0.5153786239890081, 0.5700511202039422, 0.33896918357904227]",22.13,0.0,0.0,54.47524005317534,210.02560827857675,4.8449664472774705,-1381.3714155282596,-885.5623963435528,1288.91410588851,0.0,0.0,0.0,0.0,0.0,0.0,2.3,21.813462894177555,0.0,21.506733407114947,0.0,2.3,22.13,20.85,22.16,21.64,22.11,1.85,2.3,1554.05,-962.24,-760.17,86.58,0.0,0.0,154.0,0.0,0.0,0.0,0.0,0.0,0.0,0.0,0.0,0.0,0.0,0.0,0.0,0.0,0.0
111.0,2789.0,0.0,5967.04815547377,-0.0,0.0812191455510646,8755.96693632822,0.0,16239.55852987273,0.0,0.0,0.0,16239.558529872727,0.25598283236375713,0.5601109630751882,0.2586734693877538,0.0,0.0,0.0,"[0.1308869464212279, 0.494249576222483, 0.7732052240552534, 0.3112705179315469, 0.09395376251816856, 0.21624492011713414, 0.5153786239890081, 0.5700511202039422, 0.33896918357904227]",21.87,0.0,0.0,12.971485801033815,381.7929632377819,47.222692450412254,-1404.931424602748,-374.7594947046447,1341.8217982535832,0.0,0.0,0.0,0.0,0.0,0.0,1.7,21.740810921458067,0.0,21.50839822037488,0.0,1.7,21.87,20.86,22.15,21.62,22.08,1.22,1.7,792.25,-978.65,-773.13,20.62,127.0,1.0,213.0,0.0,0.0,0.0,0.0,0.0,0.0,0.0,0.0,0.0,0.0,0.0,0.0,0.0,0.0
112.0,2989.0,0.0,2849.9771181398187,-0.0,0.0,5838.977118139819,0.0,7538.968258795334,0.0,0.0,0.0,7538.968258795334,0.0353109836056385,0.5601109630751882,0.2499999999999987,0.0,0.0,0.0,"[0.1308869464212279, 0.494249576222483, 0.7732052240552534, 0.3112705179315469, 0.09395376251816856, 0.21624492011713414, 0.5153786239890081, 0.5700511202039422, 0.33896918357904227]",21.87,0.0,0.0,0.0,549.6124684173146,61.75759179224466,-1460.657481405368,-390.7349805899583,1953.5563753599886,0.0,0.0,0.0,0.0,0.0,0.0,0.9,21.735311205760624,0.0,21.50437155245872,0.0,0.9,21.87,20.87,22.14,21.63,22.08,0.41,0.9,1691.49,-1017.47,-803.8,0.0,91.0,39.0,351.0,0.0,0.0,0.0,0.0,0.0,0.0,0.0,0.0,0.0,0.0,0.0,0.0,0.0,0.0
113.0,6195.0,7124.701185616289,894.0776796882069,-0.0,0.0,0.0,0.0,11270.745908111652,0.0,8897.142613844053,0.0,2373.603294267601,0.0353109836056385,0.526486085471847,0.24540816326530482,0.0,0.0,0.0,"[0.1308869464212279, 0.494249576222483, 0.7732052240552534, 0.3112705179315469, 0.09395376251816856, 0.21624492011713414, 0.5153786239890081, 0.5700511202039422, 0.33896918357904227]",22.13,0.0,0.0,0.0,597.776235729319,90.35547815961624,-1471.9262578325174,-882.6927176355225,967.3129498698909,0.0,0.0,0.0,0.0,0.0,0.0,1.0,21.815202162420793,0.0,21.517266326304117,0.0,1.0,22.13,20.89,22.15,21.81,22.21,0.49,1.0,0.0,-1025.32,-810.0,0.0,136.0,64.0,360.0,0.0,0.0,0.0,0.0,0.0,0.0,0.0,0.0,0.0,0.0,0.0,0.0,0.0,0.0
114.0,7722.0,10845.770389681782,3069.5415377333734,-0.0,0.0,0.0,0.0,8178.3019094983,0.0,0.0,0.0,8178.3019094983,0.0353109836056385,0.526486085471847,0.24540816326530482,0.0,0.0,0.0,"[0.1308869464212279, 0.494249576222483, 0.7732052240552534, 0.3112705179315469, 0.09395376251816856, 0.21624492011713414, 0.5153786239890081, 0.5700511202039422, 0.33896918357904227]",21.87,0.0,0.0,0.0,2338.6344303910832,121.40730857171278,-1446.7259672047128,-378.6145548537046,0.0,0.0,0.0,0.0,0.0,0.0,0.0,1.1,21.739703955072184,0.0,21.514132727646206,0.0,1.1,21.87,20.89,22.13,21.62,22.06,0.59,1.1,0.0,-1007.76,-796.13,0.0,164.0,33.0,1625.0,0.0,0.0,0.0,0.0,0.0,0.0,0.0,0.0,0.0,0.0,0.0,0.0,0.0,0.0
115.0,10551.0,24013.004725799212,1732.8674981478684,-0.0,0.0,-11609.07220402235,0.0,4649.987884511089,0.0,0.0,0.0,4649.987884511089,0.4566773080479312,0.526486085471847,0.239285714285713,0.0,0.0,0.0,"[0.1308869464212279, 0.494249576222483, 0.7732052240552534, 0.3112705179315469, 0.09395376251816856, 0.21624492011713414, 0.5153786239890081, 0.5700511202039422, 0.33896918357904227]",22.1,0.0,0.0,0.0,240.02926660408778,5.537104511174254,-1448.852713155941,-860.6114911587197,2148.8843063912946,0.0,0.0,0.0,0.0,0.0,0.0,1.3,21.791968206730125,0.0,21.502941421073707,0.0,1.3,22.1,20.89,22.11,21.63,22.06,0.78,1.3,0.0,-1009.24,-797.3,0.0,0.0,0.0,176.0,0.0,0.0,0.0,0.0,0.0,0.0,0.0,0.0,0.0,0.0,0.0,0.0,0.0,0.0
116.0,9434.0,26462.053972775826,1926.6491287222952,-0.0,0.0,-14969.094574189652,0.0,5188.350106339068,0.0,0.0,0.0,5188.350106339068,1.0,0.526486085471847,0.239285714285713,0.0,0.0,0.0,"[0.1308869464212279, 0.494249576222483, 0.49245320071544896, 0.3112705179315469, 0.09395376251816856, 0.21624492011713414, 0.5153786239890081, 0.4858806059369769, 0.33896918357904227]",22.13,0.0,0.0,0.0,211.38941092973636,4.87642726836369,-1444.0632294312074,-883.8185219575348,1404.3722733972006,0.0,0.0,0.0,0.0,0.0,0.0,1.4,21.814583939521924,0.0,21.522353647823962,0.0,1.4,22.13,20.91,22.13,21.82,22.21,0.89,1.4,0.0,-1005.91,-794.67,0.0,0.0,0.0,155.0,0.0,0.0,0.0,0.0,0.0,0.0,0.0,0.0,0.0,0.0,0.0,0.0,0.0,0.0
117.0,6121.0,8426.899833189267,2263.765334023321,-0.0,0.0,0.0,0.0,6139.346089841937,0.0,0.0,0.0,6139.346089841937,1.0,0.526486085471847,0.239285714285713,0.0,0.0,0.0,"[0.1308869464212279, 0.494249576222483, 0.49245320071544896, 0.3112705179315469, 0.09395376251816856, 0.21624492011713414, 0.5153786239890081, 0.4858806059369769, 0.33896918357904227]",21.87,0.0,0.0,0.0,120.01463330204389,2.768552255587127,-1411.8971817030747,-372.64682472416445,1662.0221756253895,0.0,0.0,0.0,0.0,0.0,0.0,1.6,21.741661721716472,0.0,21.52216907827142,0.0,1.6,21.87,20.92,22.12,21.64,22.07,1.09,1.6,0.0,-983.5,-776.97,0.0,0.0,0.0,88.0,0.0,0.0,0.0,0.0,0.0,0.0,0.0,0.0,0.0,0.0,0.0,0.0,0.0,0.0
118.0,3283.0,0.0,0.0,-0.0,0.0,3283.0,0.0,12727.66659969456,0.0,12727.666599694558,0.0,0.0,0.8759259259259259,0.4783845488138933,0.2107142857142844,0.0,0.0,0.0,"[0.1308869464212279, 0.494249576222483, 0.49245320071544896, 0.3112705179315469, 0.09395376251816856, 0.21624492011713414, 0.5153786239890081, 0.4858806059369769, 0.33896918357904227]",21.87,0.0,0.0,0.0,344.32427987434477,54.83621115327685,-1404.931424602748,-381.3319243029756,2099.983444562918,0.0,0.0,0.0,0.0,0.0,0.0,1.7,21.73840651413593,0.0,21.51992845022545,0.0,1.7,21.87,20.93,22.11,21.67,22.08,1.17,1.7,586.64,-978.65,-773.13,0.0,146.0,6.0,175.0,0.0,0.0,0.0,0.0,0.0,0.0,0.0,0.0,0.0,0.0,0.0,0.0,0.0,0.0
119.0,4424.0,0.0,3719.8675274439574,-0.0,0.0,8143.867527443957,0.0,10194.69248382729,0.0,0.0,0.0,10194.69248382729,0.5681455960905534,0.4783845488138933,0.2107142857142844,0.0,0.0,0.0,"[0.1308869464212279, 0.494249576222483, 0.49245320071544896, 0.3112705179315469, 0.09395376251816856, 0.21624492011713414, 0.5153786239890081, 0.4858806059369769, 0.33896918357904227]",22.13,0.0,0.0,0.0,446.3223623637013,64.24299665805584,-1409.2344439295698,-866.3204892712142,1771.0541924889196,0.0,0.0,0.0,0.0,0.0,0.0,1.9,21.820817065073637,0.0,21.53553916224881,0.0,1.9,22.13,20.94,22.13,21.85,22.21,1.37,1.9,0.0,-981.65,-775.5,0.0,130.0,27.0,256.0,0.0,0.0,0.0,0.0,0.0,0.0,0.0,0.0,0.0,0.0,0.0,0.0,0.0,0.0
120.0,3263.0,0.0,4405.741543246953,-0.0,0.0,7668.741543246953,0.0,11906.39800672198,0.0,0.0,0.0,11906.39800672198,0.278321652657184,0.4783845488138933,0.2107142857142844,0.0,0.0,0.0,"[0.1308869464212279, 0.494249576222483, 0.49245320071544896, 0.3112705179315469, 0.09395376251816856, 0.21624492011713414, 0.5153786239890081, 0.4858806059369769, 0.33896918357904227]",22.13,0.0,0.0,0.0,2092.145045965714,77.17339412449118,-1437.09747233088,-834.1989887996111,109.26328485721562,0.0,0.0,0.0,0.0,0.0,0.0,1.5,21.83291604313278,0.0,21.552430633603066,0.0,1.5,22.13,20.96,22.14,21.83,22.2,0.94,1.5,165.3,-1001.06,-790.83,0.0,80.0,9.0,1491.0,0.0,0.0,0.0,0.0,0.0,0.0,0.0,0.0,0.0,0.0,0.0,0.0,0.0,0.0
121.0,2113.0,0.0,1940.2988201567039,-0.0,0.0,4053.298820156704,0.0,5188.112975354374,0.0,0.0,0.0,5188.112975354375,0.12513575620379383,0.4783845488138933,0.1999999999999987,0.0,0.0,0.0,"[0.1308869464212279, 0.494249576222483, 0.49245320071544896, 0.3112705179315469, 0.09395376251816856, 0.21624492011713414, 0.5153786239890081, 0.4858806059369769, 0.33896918357904227]",22.13,0.0,0.0,0.0,1581.795738084414,64.27445747914206,-1457.9947436318623,-850.3732578383617,0.0,0.0,0.0,0.0,0.0,0.0,0.0,1.2,21.82709270113489,0.0,21.54662972838145,0.0,1.2,22.13,20.96,22.13,21.67,22.08,0.62,1.2,0.0,-1015.61,-802.33,0.0,80.0,7.0,1117.0,0.0,0.0,0.0,0.0,0.0,0.0,0.0,0.0,0.0,0.0,0.0,0.0,0.0,0.0
122.0,1813.0,19220.128080908977,5389.536900124281,-0.0,0.0,-11921.490540380153,0.0,14205.41772993939,0.0,0.0,0.0,14205.417729939392,0.5578417091509252,0.4783845488138933,0.1999999999999987,0.0,0.0,0.0,"[0.1308869464212279, 0.494249576222483, 0.49245320071544896, 0.3112705179315469, 0.09395376251816856, 0.21624492011713414, 0.5153786239890081, 0.4858806059369769, 0.33896918357904227]",21.88,0.0,0.0,0.0,169.25508691759538,27.74844419804371,-1468.6368272268733,-403.0915597266831,2345.7097374333325,0.0,0.0,0.0,0.0,0.0,0.0,0.8,21.7453941265292,0.0,21.529846636471397,0.0,0.8,21.88,20.96,22.1,21.54,21.97,0.21,0.8,773.49,-1023.03,-808.19,0.0,80.0,0.0,82.0,0.0,0.0,0.0,0.0,0.0,0.0,0.0,0.0,0.0,0.0,0.0,0.0,0.0,0.0
123.0,1730.0,29845.32385742109,19502.717238133984,-0.0,0.0,0.0,0.0,17364.64560673228,42316.9,0.0,0.0,51218.16560673229,0.5338961309196326,0.4783845488138933,0.1999999999999987,33853.520000000004,8463.380000000001,42316.9,"[0.1308869464212279, 0.494249576222483, 0.49245320071544896, 0.3112705179315469, 0.09395376251816856, 0.21624492011713414, 0.5153786239890081, 0.4858806059369769, 0.33896918357904227]",22.13,0.0,0.0,0.0,118.79438882469056,26.584393817853666,-1492.8235291335,-856.0801234835558,2166.695883218493,0.0,0.0,0.0,0.0,0.0,0.0,0.7,21.825237003545332,0.0,21.546256343513946,0.0,0.7,22.13,20.97,22.12,21.87,22.22,0.11,0.7,878.86,-1039.87,-821.5,0.0,80.0,0.0,45.0,0.0,0.0,0.0,0.0,0.0,0.0,0.0,0.0,0.0,0.0,0.0,0.0,0.0,0.0
124.0,716.0,0.0,5797.386392582547,-0.0,0.0,6513.386392582547,0.0,15114.598140691289,0.0,0.0,0.0,15114.598140691287,0.2877364033088031,0.4783845488138933,0.1999999999999987,0.0,0.0,0.0,"[0.1308869464212279, 0.494249576222483, 0.49245320071544896, 0.3112705179315469, 0.09395376251816856, 0.21624492011713414, 0.5153786239890081, 0.4858806059369769, 0.33896918357904227]",22.12,0.0,0.0,0.0,144.70663919672276,27.182149418491793,-1505.7414546129783,-790.9034335257257,1458.956733877615,0.0,0.0,0.0,0.0,0.0,0.0,0.5,21.8348773950101,0.0,21.564003029538128,0.0,0.5,22.12,20.98,22.14,21.86,22.22,-0.07,0.5,977.42,-1048.87,-828.61,0.0,80.0,0.0,64.0,0.0,0.0,0.0,0.0,0.0,0.0,0.0,0.0,0.0,0.0,0.0,0.0,0.0,0.0
125.0,931.0,0.0,6682.50523155093,-0.0,0.0,7613.50523155093,0.0,17294.814151868417,0.0,0.0,0.0,17294.814151868417,0.0,0.4783845488138933,0.1999999999999987,0.0,0.0,0.0,"[0.1308869464212279, 0.494249576222483, 0.49245320071544896, 0.3112705179315469, 0.09395376251816856, 0.21624492011713414, 0.5153786239890081, 0.4858806059369769, 0.33896918357904227]",21.87,0.0,0.0,0.0,163.79987631295697,27.622600913698843,-1502.452024007333,-310.90177617562057,2332.242911189552,0.0,0.0,0.0,0.0,0.0,0.0,0.3,21.76518067015719,0.0,21.56177912482746,0.0,0.3,21.87,20.99,22.14,21.68,22.09,-0.27,0.3,1004.27,-1046.58,-826.8,0.0,80.0,0.0,78.0,0.0,0.0,0.0,0.0,0.0,0.0,0.0,0.0,0.0,0.0,0.0,0.0,0.0,0.0
126.0,890.0,4884.8259826548665,3970.401852741592,-0.0,0.0,0.0,0.0,10237.840432415856,0.0,0.0,0.0,10237.840432415858,0.0,0.4783845488138933,0.1999999999999987,0.0,0.0,0.0,"[0.1308869464212279, 0.494249576222483, 0.49245320071544896, 0.3112705179315469, 0.09395376251816856, 0.21624492011713414, 0.5153786239890081, 0.4858806059369769, 0.33896918357904227]",22.13,0.0,0.0,0.0,204.355060413229,42.566490929652076,-1527.6523146351376,-799.01273807669,1376.0578501823852,0.0,0.0,0.0,0.0,0.0,0.0,0.2,21.846579674668178,0.0,21.574965562565644,0.0,0.2,22.13,21.0,22.15,21.89,22.24,-0.36,0.2,175.99,-1064.13,-840.67,0.0,127.0,0.0,83.0,0.0,0.0,0.0,0.0,0.0,0.0,0.0,0.0,0.0,0.0,0.0,0.0,0.0,0.0
127.0,730.0,8382.974266270932,7611.059394939578,-0.0,0.0,0.0,0.0,19552.86336890499,0.0,0.0,0.0,19552.86336890499,0.0,0.4783845488138933,0.1999999999999987,0.0,0.0,0.0,"[0.1308869464212279, 0.494249576222483, 0.49245320071544896, 0.3112705179315469, 0.09395376251816856, 0.21624492011713414, 0.5153786239890081, 0.4858806059369769, 0.33896918357904227]",21.87,0.0,0.0,0.0,176.93544921623095,46.4047111021706,-1516.383538207988,-292.4725218966625,2297.6005424421373,0.0,0.0,0.0,0.0,0.0,0.0,0.1,21.772098556119513,0.0,21.571542805581352,0.0,0.1,21.87,21.0,22.15,21.69,22.09,-0.48,0.1,969.89,-1056.29,-834.46,0.0,142.0,0.0,55.0,0.0,0.0,0.0,0.0,0.0,0.0,0.0,0.0,0.0,0.0,0.0,0.0,0.0,0.0
128.0,1031.0,0.0,3787.8817602736412,-0.0,0.0,4818.881760273642,0.0,9767.205053000453,0.0,0.0,0.0,9767.205053000453,0.3986212486669069,0.5,0.35764544667109044,0.0,0.0,0.0,"[0.1308869464212279, 0.494249576222483, 0.49245320071544896, 0.3112705179315469, 0.09395376251816856, 0.21624492011713414, 0.5153786239890081, 0.4858806059369769, 0.33896918357904227]",22.13,0.0,0.0,1.5359384355559422,116.85635347830589,27.433835987181528,-1527.6523146351376,-781.2360077099249,1457.9077594840048,0.0,0.0,0.0,0.0,0.0,0.0,0.2,21.853143797421854,0.0,21.584170148333882,0.0,0.2,22.13,21.01,22.16,21.89,22.25,-0.34,0.2,988.65,-1064.13,-840.67,2.44,83.0,0.0,42.0,0.0,0.0,0.0,0.0,0.0,0.0,0.0,0.0,0.0,0.0,0.0,0.0,0.0,0.0
129.0,1720.0,1869.407480553468,0.0,-210.5775496661763,70.51710651547569,0.0,0.0,9755.335118227484,0.0,9755.335118227484,0.0,0.0,0.3986212486669069,0.4631317644813776,0.3583333333333333,0.0,0.0,0.0,"[0.1308869464212279, 0.494249576222483, 0.49245320071544896, 0.3112705179315469, 0.09395376251816856, 0.21624492011713414, 0.5153786239890081, 0.4858806059369769, 0.33896918357904227]",21.87,0.0,0.0,53.03189795581884,100.9213961858096,2.3281007603800807,-1328.308096499145,-271.03266399044713,1651.0643569370839,0.0,0.0,0.0,0.0,0.0,0.0,2.8,21.778670050661773,0.0,21.58074368030313,0.0,2.8,21.87,21.01,22.16,21.7,22.1,2.24,2.8,321.23,-925.28,-730.97,84.28,0.0,0.0,74.0,0.0,0.0,0.0,0.0,0.0,0.0,0.0,0.0,0.0,0.0,0.0,0.0,0.0,0.0
130.0,1781.0,1596.3313645411306,0.0,-0.0,192.65029228157513,0.0,0.0,4410.104596828498,0.0,4410.104596828498,0.0,0.0,0.3986212486669069,0.44646470251301595,0.3583333333333333,0.0,0.0,0.0,"[0.1308869464212279, 0.494249576222483, 0.49245320071544896, 0.3112705179315469, 0.09395376251816856, 0.21624492011713414, 0.5153786239890081, 0.4858806059369769, 0.33896918357904227]",21.95,0.0,0.0,91.12329825461252,114.55942269740554,2.6427089712422562,-1159.553714388701,-421.23916217978785,1161.154759872611,0.0,0.0,0.0,0.0,0.0,0.0,5.3,21.799296213198417,0.0,21.581997944213043,0.0,5.3,21.95,21.01,22.15,21.75,22.14,4.69,5.3,0.0,-807.72,-638.1,144.82,0.0,0.0,84.0,0.0,0.0,0.0,0.0,0.0,0.0,0.0,0.0,0.0,0.0,0.0,0.0,0.0,0.0
131.0,3681.0,926.3527382890358,3084.499155573835,-0.0,5843.778180976245,0.0,0.0,9894.266278716266,0.0,0.0,0.0,9894.266278716268,0.3986212486669069,0.44646470251301595,0.3583333333333333,0.0,0.0,0.0,"[0.1308869464212279, 0.494249576222483, 0.49245320071544896, 0.3112705179315469, 0.09395376251816856, 0.21624492011713414, 0.5153786239890081, 0.4858806059369769, 0.33896918357904227]",21.87,0.0,0.0,860.9375429681014,91.3747776276925,2.1078750127765598,-1049.677812486044,-274.6876498650568,347.58721213683543,0.0,0.0,0.0,0.0,0.0,0.0,6.8,21.77507138258025,0.0,21.580996251251158,0.0,6.8,21.87,21.02,22.14,21.69,22.08,6.74,6.8,0.0,-731.19,-577.64,1368.27,0.0,0.0,67.0,0.0,0.0,0.0,0.0,0.0,0.0,0.0,0.0,0.0,0.0,0.0,0.0,0.0,0.0
132.0,5383.0,0.0,1968.8402355833537,-0.0,8499.662166860307,-1147.8219312769538,0.0,6503.219940393356,0.0,0.0,0.0,6503.2199403933555,0.44028293357992226,0.44646470251301595,0.3583333333333333,0.0,0.0,0.0,"[0.1308869464212279, 0.494249576222483, 0.49245320071544896, 0.3112705179315469, 0.09395376251816856, 0.21624492011713414, 0.5153786239890081, 0.4858806059369769, 0.33896918357904227]",21.87,0.0,0.0,822.2317413150138,75.00914581377741,1.7303451597419526,-980.020241482769,-239.28990571872947,1006.6633150263989,0.0,0.0,0.0,0.0,0.0,0.0,7.8,21.787672609512388,0.0,21.600081863504847,0.0,7.8,21.87,21.05,22.15,21.81,22.2,7.72,7.8,0.0,-682.66,-539.3,1306.76,0.0,0.0,55.0,0.0,0.0,0.0,0.0,0.0,0.0,0.0,0.0,0.0,0.0,0.0,0.0,0.0,0.0
133.0,4201.0,0.0,2210.4754466046147,-1448.245440063692,7859.720886668307,0.0,0.0,7385.6508665851,0.0,0.0,0.0,7385.6508665851,0.44028293357992226,0.44646470251301595,0.36306426843754136,0.0,0.0,0.0,"[0.1308869464212279, 0.494249576222483, 0.49245320071544896, 0.3112705179315469, 0.09395376251816856, 0.21624492011713414, 0.5153786239890081, 0.4858806059369769, 0.33896918357904227]",22.13,0.0,0.0,790.2799529110746,80.46435641841576,1.856188444086823,-970.3917466089362,-683.6699115825878,760.9306142950733,0.0,0.0,0.0,0.0,0.0,0.0,8.2,21.884998019884346,0.0,21.63633715671199,0.0,8.2,22.13,21.09,22.18,22.0,22.34,8.14,8.2,0.0,-675.96,-534.01,1255.97,0.0,0.0,59.0,0.0,0.0,0.0,0.0,0.0,0.0,0.0,0.0,0.0,0.0,0.0,0.0,0.0,0.0
134.0,4717.0,0.0,1970.2702252115687,-0.0,6687.270225211569,0.0,0.0,6583.076061121927,0.0,0.0,0.0,6583.0760611219275,0.44028293357992226,0.44646470251301595,0.36306426843754136,0.0,0.0,0.0,"[0.1308869464212279, 0.494249576222483, 0.49245320071544896, 0.3112705179315469, 0.09395376251816856, 0.21624492011713414, 0.5153786239890081, 0.4858806059369769, 0.33896918357904227]",22.13,0.0,0.0,725.4796455538478,129.56125186016098,2.988778003190648,-970.3917466089362,-614.0677336787182,0.0,0.0,0.0,0.0,0.0,0.0,0.0,8.2,21.910795372971375,0.0,21.67246138011452,0.0,8.2,22.13,21.13,22.22,21.99,22.34,8.03,8.2,0.0,-675.96,-534.01,1152.99,0.0,0.0,95.0,0.0,0.0,0.0,0.0,0.0,0.0,0.0,0.0,0.0,0.0,0.0,0.0,0.0,0.0
135.0,3662.0,22313.945378968045,3125.436736089096,-0.0,5.837403752723963,-15420.776319736835,0.0,10144.766316569277,0.0,0.0,0.0,10144.766316569277,1.0,0.44646470251301595,0.36306426843754136,0.0,0.0,0.0,"[0.1308869464212279, 0.494249576222483, 0.49245320071544896, 0.3112705179315469, 0.09395376251816856, 0.21624492011713414, 0.5153786239890081, 0.4858806059369769, 0.33896918357904227]",21.87,0.0,0.0,31.835941768010187,297.3807570396936,52.7597969615865,-1021.8147840847341,-83.14506404538766,1434.8338036663624,0.0,0.0,0.0,0.0,0.0,0.0,7.2,21.846020829559944,0.0,21.684430514583326,0.0,7.2,21.87,21.15,22.22,21.8,22.19,6.54,7.2,0.0,-711.78,-562.3,50.6,154.0,0.0,137.0,0.0,0.0,0.0,0.0,0.0,0.0,0.0,0.0,0.0,0.0,0.0,0.0,0.0,0.0
136.0,3589.0,6776.855882018921,3153.9716026088267,-0.0,0.0,0.0,0.0,9816.437920357921,0.0,0.0,0.0,9816.437920357923,1.0,0.44646470251301595,0.3508193704783577,0.0,0.0,0.0,"[0.1308869464212279, 0.494249576222483, 0.49245320071544896, 0.3112705179315469, 0.09395376251816856, 0.21624492011713414, 0.5153786239890081, 0.4858806059369769, 0.33896918357904227]",22.13,0.0,0.0,0.0,91.3747776276925,2.1078750127765598,-1137.5699170167964,-590.8889106166002,927.4711804437334,0.0,0.0,0.0,0.0,0.0,0.0,5.8,21.920810153572504,0.0,21.692041248256217,0.0,5.8,22.13,21.17,22.22,21.9,22.24,5.15,5.8,0.0,-792.41,-626.0,0.0,0.0,0.0,67.0,0.0,0.0,0.0,0.0,0.0,0.0,0.0,0.0,0.0,0.0,0.0,0.0,0.0,0.0
137.0,4916.0,5828.41566415815,883.2735858373602,-0.0,0.0,0.0,0.0,2715.423314008034,0.0,0.0,0.0,2715.423314008034,1.0,0.44646470251301595,0.33296222762121486,0.0,0.0,0.0,"[0.1308869464212279, 0.494249576222483, 0.49245320071544896, 0.3112705179315469, 0.09395376251816856, 0.21624492011713414, 0.5153786239890081, 0.4858806059369769, 0.33896918357904227]",21.87,0.0,0.0,0.0,204.9292931084541,53.011483530276244,-1147.1984118906296,-99.28349277339237,1701.2494581665387,0.0,0.0,0.0,0.0,0.0,0.0,5.4,21.840947913563344,0.0,21.68361825338401,0.0,5.4,21.87,21.17,22.2,21.71,22.09,4.74,5.4,0.0,-799.12,-631.3,0.0,162.0,0.0,65.0,0.0,0.0,0.0,0.0,0.0,0.0,0.0,0.0,0.0,0.0,0.0,0.0,0.0,0.0
138.0,6343.0,11518.439809088548,5117.847610043105,-0.0,0.0,0.0,0.0,15538.495912205515,0.0,0.0,0.0,15538.495912205515,1.0,0.44646470251301595,0.3140846766008067,0.0,0.0,0.0,"[0.1308869464212279, 0.494249576222483, 0.49245320071544896, 0.3112705179315469, 0.09395376251816856, 0.21624492011713414, 0.5153786239890081, 0.4858806059369769, 0.33896918357904227]",22.13,0.0,0.0,0.0,79.10055376725617,1.824727623000603,-1193.2959738194168,-602.5238927654157,1007.3628611817165,0.0,0.0,0.0,0.0,0.0,0.0,5.0,21.91689440718528,0.0,21.69129946862981,0.0,5.0,22.13,21.18,22.2,21.92,22.24,4.37,5.0,0.0,-831.23,-656.67,0.0,0.0,0.0,58.0,0.0,0.0,0.0,0.0,0.0,0.0,0.0,0.0,0.0,0.0,0.0,0.0,0.0,0.0
139.0,7400.0,9026.610519858155,1581.4774672588655,-0.0,0.0,0.0,0.0,4741.27832470366,0.0,0.0,0.0,4741.27832470366,1.0,0.44646470251301595,0.3140846766008067,0.0,0.0,0.0,"[0.1308869464212279, 0.494249576222483, 0.49245320071544896, 0.3112705179315469, 0.09395376251816856, 0.21624492011713414, 0.5153786239890081, 0.4858806059369769, 0.33896918357904227]",21.87,0.0,0.0,0.0,87.2833696742137,2.0134925495179083,-1202.9244686932495,-108.7162749380892,1930.2379381500405,0.0,0.0,0.0,0.0,0.0,0.0,4.6,21.837831329623853,0.0,21.68312589046151,0.0,4.6,21.87,21.18,22.18,21.72,22.09,4.0,4.6,242.81,-837.94,-661.97,0.0,0.0,0.0,64.0,0.0,0.0,0.0,0.0,0.0,0.0,0.0,0.0,0.0,0.0,0.0,0.0,0.0,0.0
140.0,5249.0,0.0,2366.3740994806853,-0.0,0.0,7615.374099480685,0.0,7004.165352231812,0.0,0.0,0.0,7004.165352231812,0.7121929667618789,0.44646470251301595,0.3140846766008067,0.0,0.0,0.0,"[0.1308869464212279, 0.494249576222483, 0.4545223784757759, 0.2912022006220383, 0.09395376251816856, 0.21624492011713414, 0.39448600436054804, 0.4858806059369769, 0.33896918357904227]",22.13,0.0,0.0,0.0,205.934200325098,4.75058398401882,-1249.022030622037,-610.26542860355,941.3471553614073,0.0,0.0,0.0,0.0,0.0,0.0,4.2,21.914403429530815,0.0,21.69088855547746,0.0,4.2,22.13,21.19,22.19,21.93,22.24,3.63,4.2,0.0,-870.05,-687.34,0.0,0.0,0.0,151.0,0.0,0.0,0.0,0.0,0.0,0.0,0.0,0.0,0.0,0.0,0.0,0.0,0.0,0.0
141.0,4377.0,0.0,0.0,-0.0,0.0,4377.0,0.0,10813.186849113183,0.0,10813.186849113185,0.0,0.0,0.546773465628092,0.40559853906209686,0.3140846766008067,0.0,0.0,0.0,"[0.1308869464212279, 0.494249576222483, 0.4545223784757759, 0.2912022006220383, 0.09395376251816856, 0.21624492011713414, 0.39448600436054804, 0.4858806059369769, 0.33896918357904227]",21.87,0.0,0.0,0.0,167.7477260926295,3.8696809936047316,-1258.6505254958702,-118.61300623457674,1704.5407270034743,0.0,0.0,0.0,0.0,0.0,0.0,3.8,21.834543190834506,0.0,21.681103305537555,0.0,3.8,21.87,21.19,22.17,21.72,22.08,3.25,3.8,0.0,-876.75,-692.63,0.0,0.0,0.0,123.0,0.0,0.0,0.0,0.0,0.0,0.0,0.0,0.0,0.0,0.0,0.0,0.0,0.0,0.0
142.0,2669.0,0.0,0.0,-0.0,0.0,2669.0,0.0,5315.490101432967,0.0,5315.490101432968,0.0,0.0,0.4459042290445697,0.38550976316854824,0.3140846766008067,0.0,0.0,0.0,"[0.1308869464212279, 0.494249576222483, 0.4545223784757759, 0.2912022006220383, 0.09395376251816856, 0.21624492011713414, 0.39448600436054804, 0.4858806059369769, 0.33896918357904227]",22.05,0.0,0.0,0.0,129.77658912087043,29.950701674078925,-1299.3585420269148,-480.7401952820236,1832.373510648067,0.0,0.0,0.0,0.0,0.0,0.0,3.4,21.88529100507322,0.0,21.6823562498815,0.0,3.4,22.05,21.19,22.17,21.87,22.19,2.85,3.4,0.0,-905.11,-715.04,0.0,81.0,5.0,52.0,0.0,0.0,0.0,0.0,0.0,0.0,0.0,0.0,0.0,0.0,0.0,0.0,0.0,0.0
143.0,2853.0,19250.97716730442,1035.818387797881,-0.0,0.0,-15265.903893670018,0.0,2947.392948203258,0.0,0.0,0.0,2947.3929482032586,1.0,0.38550976316854824,0.31051324802937813,0.0,0.0,0.0,"[0.1308869464212279, 0.494249576222483, 0.4545223784757759, 0.2912022006220383, 0.09395376251816856, 0.21624492011713414, 0.39448600436054804, 0.4858806059369769, 0.33896918357904227]",22.13,0.0,0.0,0.0,312.59792346315857,43.573237204411036,-1332.611115825967,-612.1862716209757,885.0356136858217,0.0,0.0,0.0,0.0,0.0,0.0,3.0,21.914282532117134,0.0,21.692591266606414,0.0,3.0,22.13,21.2,22.18,21.93,22.24,2.45,3.0,0.0,-928.27,-733.34,0.0,105.0,9.0,173.0,0.0,0.0,0.0,0.0,0.0,0.0,0.0,0.0,0.0,0.0,0.0,0.0,0.0,0.0
144.0,2692.0,0.0,5583.626365373317,-0.0,0.0,8275.626365373317,0.0,15621.904290450511,0.0,0.0,0.0,15621.904290450511,0.6872401222459064,0.38550976316854824,0.31051324802937813,0.0,0.0,0.0,"[0.1308869464212279, 0.494249576222483, 0.4545223784757759, 0.2912022006220383, 0.09395376251816856, 0.21624492011713414, 0.39448600436054804, 0.4858806059369769, 0.33896918357904227]",21.87,0.0,0.0,0.0,722.4565096800666,65.28120375390101,-1349.2053678001275,-121.00908662288103,1396.3433478887791,0.0,0.0,0.0,0.0,0.0,0.0,2.5,21.834294315543694,0.0,21.681909288662062,0.0,2.5,21.87,21.19,22.17,21.73,22.08,1.98,2.5,0.0,-939.83,-742.47,0.0,80.0,44.0,483.0,0.0,0.0,0.0,0.0,0.0,0.0,0.0,0.0,0.0,0.0,0.0,0.0,0.0,0.0
145.0,1455.0,14500.7530994018,12973.24933390479,-0.0,0.0,0.0,0.0,13129.90228828342,0.0,-22672.02286119601,0.0,35801.92514947943,0.6872401222459064,0.4678008091091856,0.31051324802937813,0.0,0.0,0.0,"[0.1308869464212279, 0.494249576222483, 0.4545223784757759, 0.2912022006220383, 0.09395376251816856, 0.21624492011713414, 0.39448600436054804, 0.4858806059369769, 0.33896918357904227]",22.13,0.0,0.0,0.0,244.33601181827592,45.806955501532464,-1395.3029297289147,-634.9869771288892,1036.7671922133002,0.0,0.0,0.0,0.0,0.0,0.0,2.1,21.906263994678824,0.0,21.6826116855312,0.0,2.1,22.13,21.19,22.17,21.89,22.21,1.62,2.1,213.35,-971.94,-767.83,0.0,80.0,29.0,134.0,0.0,0.0,0.0,0.0,0.0,0.0,0.0,0.0,0.0,0.0,0.0,0.0,0.0,0.0
146.0,1986.0,10796.393236373722,4073.3325981610947,-0.0,0.0,-4683.07867203076,0.0,11046.90410410198,0.0,0.0,0.0,11046.904104101981,0.8572185333048006,0.4678008091091856,0.31051324802937813,0.0,0.0,0.0,"[0.1308869464212279, 0.494249576222483, 0.4545223784757759, 0.2912022006220383, 0.09395376251816856, 0.21624492011713414, 0.39448600436054804, 0.4858806059369769, 0.33896918357904227]",21.87,0.0,0.0,0.0,209.4513755833517,36.55747410218457,-1411.8971817030751,-139.51251321309925,2016.555896539316,0.0,0.0,0.0,0.0,0.0,0.0,1.6,21.827865348394823,0.0,21.673409691560458,0.0,1.6,21.87,21.19,22.16,21.74,22.09,1.15,1.6,632.46,-983.5,-776.97,0.0,80.0,14.0,110.0,0.0,0.0,0.0,0.0,0.0,0.0,0.0,0.0,0.0,0.0,0.0,0.0,0.0,0.0
147.0,2027.0,6008.230630769618,3951.1894776157696,-0.0,0.0,0.0,0.0,10640.315374885497,0.0,0.0,0.0,10640.315374885497,0.8572185333048006,0.4678008091091856,0.31051324802937813,0.0,0.0,0.0,"[0.1308869464212279, 0.494249576222483, 0.4545223784757759, 0.2912022006220383, 0.09395376251816856, 0.21624492011713414, 0.39448600436054804, 0.4858806059369769, 0.33896918357904227]",22.13,0.0,0.0,0.0,165.16367896411663,27.654061734785056,-1444.0632294312074,-638.9789119579235,1185.1309977510302,0.0,0.0,0.0,0.0,0.0,0.0,1.4,21.905127484102625,0.0,21.680263941378193,0.0,1.4,22.13,21.19,22.17,21.94,22.25,0.94,1.4,899.22,-1005.91,-794.67,0.0,80.0,0.0,79.0,0.0,0.0,0.0,0.0,0.0,0.0,0.0,0.0,0.0,0.0,0.0,0.0,0.0,0.0
148.0,973.0,0.0,6519.664245517273,-0.0,0.0,7492.664245517273,0.0,17432.755365171208,0.0,0.0,0.0,17432.75536517121,0.5740490606851001,0.4678008091091856,0.31051324802937813,0.0,0.0,0.0,"[0.1308869464212279, 0.494249576222483, 0.4545223784757759, 0.2912022006220383, 0.09395376251816856, 0.21624492011713414, 0.39448600436054804, 0.4858806059369769, 0.33896918357904227]",21.87,0.0,0.0,0.0,148.7980471502015,27.27653188175044,-1439.7602101043854,-141.9188669608531,2115.883416922083,0.0,0.0,0.0,0.0,0.0,0.0,1.2,21.827161569159344,0.0,21.67129402052972,0.0,1.2,21.87,21.18,22.16,21.74,22.09,0.77,1.2,297.84,-1002.91,-792.3,0.0,80.0,0.0,67.0,0.0,0.0,0.0,0.0,0.0,0.0,0.0,0.0,0.0,0.0,0.0,0.0,0.0,0.0
149.0,1575.0,3298.1827715370814,1706.691857679396,-0.0,0.0,0.0,0.0,4514.666332123925,0.0,0.0,0.0,4514.666332123925,0.5740490606851001,0.4678008091091856,0.31051324802937813,0.0,0.0,0.0,"[0.1308869464212279, 0.494249576222483, 0.4545223784757759, 0.2912022006220383, 0.09395376251816856, 0.21624492011713414, 0.39448600436054804, 0.4858806059369769, 0.33896918357904227]",22.13,0.0,0.0,0.0,319.2733785451502,31.20913451752762,-1478.8920149328449,-640.4097853336921,1771.765468087022,0.0,0.0,0.0,0.0,0.0,0.0,0.9,21.904822153587773,0.0,21.678531183503875,0.0,0.9,22.13,21.18,22.17,21.95,22.25,0.49,0.9,0.0,-1030.17,-813.83,0.0,80.0,0.0,192.0,0.0,0.0,0.0,0.0,0.0,0.0,0.0,0.0,0.0,0.0,0.0,0.0,0.0,0.0
150.0,1276.0,0.0,6078.650028118408,-0.0,0.0,7354.650028118408,0.0,16021.740732777733,0.0,0.0,0.0,16021.740732777733,0.296095544883195,0.4678008091091856,0.31051324802937813,0.0,0.0,0.0,"[0.1308869464212279, 0.494249576222483, 0.4545223784757759, 0.2912022006220383, 0.09395376251816856, 0.21624492011713414, 0.39448600436054804, 0.4858806059369769, 0.33896918357904227]",22.13,0.0,0.0,0.0,151.95632697393953,47.91483051430904,-1485.8577720331725,-622.1079392426599,1204.9137924701101,0.0,0.0,0.0,0.0,0.0,0.0,0.8,21.91162956561678,0.0,21.68624821287257,0.0,0.8,22.13,21.18,22.19,21.92,22.24,0.41,0.8,0.0,-1035.02,-817.67,0.0,149.0,0.0,33.0,0.0,0.0,0.0,0.0,0.0,0.0,0.0,0.0,0.0,0.0,0.0,0.0,0.0,0.0
151.0,1203.0,4520.205600117181,3294.604572116595,-0.0,0.0,0.0,0.0,8620.903943545194,0.0,0.0,0.0,8620.903943545196,0.296095544883195,0.4678008091091856,0.31051324802937813,0.0,0.0,0.0,"[0.1308869464212279, 0.494249576222483, 0.4545223784757759, 0.2912022006220383, 0.09395376251816856, 0.21624492011713414, 0.39448600436054804, 0.4858806059369769, 0.33896918357904227]",21.87,0.0,0.0,0.0,95.46618558117126,2.2022574760352143,-1481.5547527063502,-125.63832084647225,2217.4365068805055,0.0,0.0,0.0,0.0,0.0,0.0,0.6,21.833460572016936,0.0,21.67697775820547,0.0,0.6,21.87,21.18,22.18,21.75,22.11,0.22,0.6,875.25,-1032.02,-815.3,0.0,0.0,0.0,70.0,0.0,0.0,0.0,0.0,0.0,0.0,0.0,0.0,0.0,0.0,0.0,0.0,0.0,0.0
