,load_elec,grid,hp_elec,ev,pv,bat_pow,cool,load_th_sh,load_th_dhw,tes_pow,dh,hp_th,bat_soc,tes_soc,ev_soc,eh_th_in,eh_elec_in,eh_th_out,temp_slack,temp_zone_1,temp_zone_2,temp_update,Qsolar_1,QconvInt_1,QradInt_1,Qvent_1,Qconduc_1,Qheating_1,Qsolar_2,QconvInt_2,QradInt_2,Qvent_2,Qconduc_2,Qheating_2,temp_amb,temp_aggregate_1,temp_aggregate_2,temp_wall_1,temp_wall_2,_Tamb,_Tz_1,_TEW_1,_TIW_1,_T1_1,_T2_1,_Taeq_1,_Tvent_1,_Qheating_1,_Qinfvent_1,_Qenvelope_1,_Qsolar_1,_Qint_people_1,_Qint_lighting_1,_Qint_appliances_1,_Tz_2,_TEW_2,_TIW_2,_T1_2,_T2_2,_Taeq_2,_Tvent_2,_Qheating_2,_Qinfvent_2,_Qenvelope_2,_Qsolar_2,_Qint_people_2,_Qint_lighting_2,_Qint_appliances_2
8.0,4420.0,10011.984265815752,5541.924344486672,-0.0,0.0,0.0,0.0,61518.1191215779,0.0,52299.99999999999,0.0,9218.11912157791,0.5,0.30234315948601664,0.8,0.0,0.0,0.0,"[2.0, 2.0, 2.0, 2.0, 2.0, 2.0, 2.0, 2.0, 2.0]",20.0,0.0,0.0,1.0030283909529314,874.1974993932969,87.49254344077045,-2047.9325874962904,-1445.8774816599496,2539.3501223018957,0.0,0.0,0.0,0.0,0.0,0.0,-9.4,19.480147761413434,0.0,19.0,0.0,-9.4,20.0,18.0,20.0,20.0,20.0,-9.94,-9.4,8969.91,-1426.55,-1126.98,1.59,88.0,73.0,587.0,0.0,0.0,0.0,0.0,0.0,0.0,0.0,0.0,0.0,0.0,0.0,0.0,0.0,0.0
9.0,5806.0,24099.37486446262,18188.748368197656,-0.0,15.870378057347668,0.0,0.0,31641.31225967823,0.0,0.0,0.0,31641.312259678234,0.5,0.30234315948601664,0.8,0.0,0.0,0.0,"[2.0, 2.0, 2.0, 2.0, 2.0, 2.0, 2.0, 2.0, 2.0]",20.0,0.0,0.0,30.997993131129924,2018.14080736858,137.92423964197687,-1992.2065306936704,-1393.5858443273332,12024.910820401348,0.0,0.0,0.0,0.0,0.0,0.0,-8.6,19.49907557689494,0.0,19.029301131922992,0.0,-8.6,20.0,18.04,20.02,19.44,20.08,-9.11,-8.6,0.0,-1387.73,-1096.31,49.26,112.0,103.0,1410.0,0.0,0.0,0.0,0.0,0.0,0.0,0.0,0.0,0.0,0.0,0.0,0.0,0.0,0.0
10.0,2804.0,43458.30251012023,0.0,-0.0,824.9669833934568,13230.0,0.0,86984.19858286678,42916.92,80000.0,0.0,0.0,0.0,0.0,0.7999999999999992,217967.91192385234,54491.977980963085,272459.8899048154,"[2.0, 2.0, 2.0, 2.0, 2.0, 2.0, 2.0, 2.0, 2.0]",24.0,0.0,0.0,85.73857746262468,1275.3708160949254,74.62506761650756,-2201.179243703496,-8624.904891141498,9395.147974083484,0.0,0.0,0.0,0.0,0.0,0.0,-7.6,20.825789118589,0.0,19.331418949709736,0.0,-7.6,24.0,18.26,20.4,22.22,22.31,-8.15,-7.6,1055.54,-1533.3,-1211.31,136.26,95.0,30.0,882.0,0.0,0.0,0.0,0.0,0.0,0.0,0.0,0.0,0.0,0.0,0.0,0.0,0.0,0.0
11.0,5046.0,90514.24384561059,0.0,-0.0,2327.6306770684423,0.0,0.0,78608.97297310585,0.0,0.0,0.0,0.0,0.0,0.0,0.7999999999999992,349373.21321380395,87343.30330345099,436716.5165172549,"[2.0, 2.0, 2.0, 2.0, 2.0, 2.0, 2.0, 2.0, 2.0]",24.0,0.0,0.0,119.19965623659125,1916.501620313739,86.83186619795991,-2145.4531869008756,-7910.276745025331,7938.270727665752,0.0,0.0,0.0,0.0,0.0,0.0,-6.8,21.089714799345646,0.0,19.66850642311764,0.0,-6.8,24.0,18.51,20.83,22.13,22.4,-7.33,-6.8,7969.19,-1494.48,-1180.64,189.44,143.0,0.0,1330.0,0.0,0.0,0.0,0.0,0.0,0.0,0.0,0.0,0.0,0.0,0.0,0.0,0.0,0.0
12.0,4669.0,78096.32706225441,62347.4901554289,-0.0,5310.644728485764,-16000.0,0.0,42725.32768963923,0.0,-80000.0,0.0,122725.32768963925,0.5807407407407407,0.29037037037037033,0.7999999999999992,0.0,0.0,0.0,"[2.0, 2.0, 2.0, 2.0, 2.0, 2.0, 2.0, 2.0, 2.0]",24.0,0.0,0.0,181.51141060338773,1115.5905686485441,25.734951648525797,-2103.6586442989105,-7283.219557851528,0.0,0.0,0.0,0.0,0.0,0.0,0.0,-6.2,21.321340636487076,0.0,19.967393772698408,0.0,-6.2,24.0,18.74,21.2,22.15,22.55,-6.7,-6.2,0.0,-1465.37,-1157.64,288.47,0.0,0.0,818.0,0.0,0.0,0.0,0.0,0.0,0.0,0.0,0.0,0.0,0.0,0.0,0.0,0.0,0.0
13.0,1214.0,34262.78105839388,33842.460806429284,-0.0,964.9936533273801,0.0,0.0,60785.839648376204,0.0,-6152.577404912874,0.0,66938.41705328907,0.5807407407407407,0.3127019476178319,0.7999999999999992,0.0,0.0,0.0,"[2.0, 2.0, 2.0, 2.0, 2.0, 2.0, 2.0, 2.0, 2.0]",21.02,0.0,0.0,88.0606128079114,70.91773786029864,1.635962696483302,-1888.976643988308,-1290.7351367039485,11078.659650366133,0.0,0.0,0.0,0.0,0.0,0.0,-6.1,20.55442559448999,0.0,20.035135752657126,0.0,-6.1,21.02,18.82,21.25,20.17,21.06,-6.63,-6.1,3362.12,-1315.83,-1039.5,139.95,0.0,0.0,52.0,0.0,0.0,0.0,0.0,0.0,0.0,0.0,0.0,0.0,0.0,0.0,0.0,0.0,0.0
14.0,2210.0,0.0,0.0,-0.0,10.64259601160123,2199.357403988399,0.0,41691.043204412264,0.0,41691.043204412264,0.0,0.0,0.49762065744563866,0.15513942605920655,0.7999999999999992,0.0,0.0,0.0,"[2.0, 2.0, 2.0, 2.0, 2.0, 2.0, 2.0, 2.0, 2.0]",24.0,0.0,0.0,27.582846503100743,84.55576437189454,1.9505709073454736,-2131.5216727002207,-6650.71496945204,0.0,0.0,0.0,0.0,0.0,0.0,0.0,-6.6,21.555504033454497,0.0,20.282252106717127,0.0,-6.6,24.0,19.03,21.54,22.6,22.97,-7.11,-6.6,0.0,-1484.78,-1172.98,43.84,0.0,0.0,62.0,0.0,0.0,0.0,0.0,0.0,0.0,0.0,0.0,0.0,0.0,0.0,0.0,0.0,0.0
15.0,3765.0,0.0,0.0,-0.0,0.0,3765.0,0.0,0.0,0.0,0.0,0.0,0.0,0.3553304080125321,0.15513942605920655,0.7820408163265298,0.0,0.0,0.0,"[2.0, 2.0, 2.0, 2.0, 2.0, 2.0, 2.0, 2.0, 2.0]",20.79,0.0,0.0,3.0080433625495084,117.2870279997247,2.7056306134146912,-1956.9544094247726,-294.6911229461842,0.0,0.0,0.0,0.0,0.0,0.0,0.0,-7.3,20.69920585993241,0.0,20.314871246439598,0.0,-7.3,20.79,19.09,21.54,20.19,21.15,-7.79,-7.3,5612.07,-1363.18,-1076.91,4.78,0.0,0.0,86.0,0.0,0.0,0.0,0.0,0.0,0.0,0.0,0.0,0.0,0.0,0.0,0.0,0.0,0.0
16.0,3306.0,2216.8427717955783,0.0,-0.0,0.0,5753.042596011599,0.0,4187.521038553377,0.0,0.0,0.0,0.0,0.13790627362055932,0.15513942605920655,0.7648979591836726,18611.204615792798,4652.8011539481995,23264.005769740997,"[2.0, 2.0, 2.0, 2.0, 2.0, 2.0, 2.0, 2.0, 2.0]",20.01,0.0,0.0,0.0,327.02551993068886,39.13726143125439,-1895.137942340993,1080.3146228637268,434.81205628914495,0.0,0.0,0.0,0.0,0.0,0.0,-7.2,20.419924202699363,0.0,20.244712203049637,0.0,-7.2,20.01,19.09,21.4,19.83,20.81,-7.68,-7.2,0.0,-1320.12,-1042.89,0.0,106.0,0.0,184.0,0.0,0.0,0.0,0.0,0.0,0.0,0.0,0.0,0.0,0.0,0.0,0.0,0.0,0.0
17.0,2714.0,73153.12890625685,70073.36326172556,-0.0,0.0,0.0,0.0,52588.75473512801,0.0,-80000.0,0.0,132588.754735128,0.13790627362055932,0.4455097964295769,0.7648979591836726,0.0,0.0,0.0,"[2.0, 2.0, 2.0, 2.0, 2.0, 2.0, 2.0, 2.0, 2.0]",20.0,0.0,0.0,0.0,105.01280413928838,2.4224832236387353,-1880.75441708843,910.5052242060777,11677.01602230498,0.0,0.0,0.0,0.0,0.0,0.0,-7.0,20.350519441024858,0.0,20.169829263578805,0.0,-7.0,20.0,19.08,21.26,19.86,20.76,-7.47,-7.0,0.0,-1310.1,-1034.98,0.0,0.0,0.0,77.0,0.0,0.0,0.0,0.0,0.0,0.0,0.0,0.0,0.0,0.0,0.0,0.0,0.0,0.0
18.0,3649.0,0.0,0.0,-0.0,0.0,3649.0,0.0,350.4421717204609,0.0,350.4421717204609,0.0,0.0,0.0,0.44418537401188807,0.7608163265306108,0.0,0.0,0.0,"[2.0, 2.0, 2.0, 2.0, 2.0, 2.0, 2.0, 2.0, 2.0]",24.0,0.0,0.0,0.0,405.33650374201056,97.93753604139464,-2152.4189440012033,-6500.1661367879415,0.0,0.0,0.0,0.0,0.0,0.0,0.0,-6.9,21.611324345168107,0.0,20.392199589030206,0.0,-6.9,24.0,19.25,21.53,22.73,23.01,-7.38,-6.9,0.0,-1499.34,-1184.47,0.0,284.0,7.0,147.0,0.0,0.0,0.0,0.0,0.0,0.0,0.0,0.0,0.0,0.0,0.0,0.0,0.0,0.0
19.0,4303.0,16095.593259947973,0.0,-0.0,0.0,-11712.115293648232,0.0,34036.219328655316,0.0,34036.219328655316,0.0,0.0,0.4251064069546395,0.3155526479020796,0.7526530612244884,0.0,0.0,0.0,"[2.0, 2.0, 2.0, 2.0, 2.0, 2.0, 2.0, 2.0, 2.0]",20.98,0.0,0.0,0.0,417.6107276024469,95.7038177442732,-1935.2417489366007,-496.66885691434646,2514.6040621841767,0.0,0.0,0.0,0.0,0.0,0.0,-6.8,20.812623809243693,0.0,20.430141899990588,0.0,-6.8,20.98,19.31,21.55,20.39,21.24,-7.27,-6.8,0.0,-1348.05,-1064.96,0.0,166.0,65.0,212.0,0.0,0.0,0.0,0.0,0.0,0.0,0.0,0.0,0.0,0.0,0.0,0.0,0.0,0.0
20.0,5285.0,9661.59399464252,0.0,-0.0,0.0,-4328.286024669307,0.0,2094.6601464859823,0.0,2094.6601464859823,0.0,0.0,0.3824717092257054,0.29971999373362923,0.7371428571428558,0.0,0.0,0.0,"[1.6187655934192158, 2.0, 2.0, 1.2723807679918728, 2.0, 1.4226444077152998, 2.0, 1.2850485309778463, 1.8482110677284709]",21.2,0.0,0.0,0.0,534.6106392545591,122.44551566755797,-1936.4340537613018,-920.7888159735022,0.0,0.0,0.0,0.0,0.0,0.0,0.0,-6.6,20.87286915767255,0.0,20.44037470927696,0.0,-6.6,21.2,19.35,21.53,20.74,21.48,-7.07,-6.6,0.0,-1348.88,-1065.62,0.0,258.0,59.0,250.0,0.0,0.0,0.0,0.0,0.0,0.0,0.0,0.0,0.0,0.0,0.0,0.0,0.0,0.0
21.0,4590.0,0.0,4106.6014261121645,-0.0,0.0,8696.601426112164,0.0,7966.020554064267,0.0,0.0,0.0,7966.020554064268,0.05380196523053671,0.29971999373362923,0.7371428571428558,0.0,0.0,0.0,"[1.6187655934192158, 2.0, 2.0, 1.2723807679918728, 2.0, 1.4226444077152998, 2.0, 1.2850485309778463, 1.8482110677284709]",20.38,0.0,0.0,0.0,752.2448307448682,127.10171718831813,-1872.4814943320848,571.8324868423863,433.301018798408,0.0,0.0,0.0,0.0,0.0,0.0,-6.5,20.60642722278941,0.0,20.39419715680146,0.0,-6.5,20.38,19.36,21.43,20.15,20.99,-6.98,-6.5,1258.21,-1304.34,-1030.43,0.0,270.0,52.0,404.0,0.0,0.0,0.0,0.0,0.0,0.0,0.0,0.0,0.0,0.0,0.0,0.0,0.0,0.0
22.0,3344.0,47985.346441160174,0.0,-0.0,0.0,-16000.0,0.0,25561.27773805893,0.0,0.0,0.0,0.0,0.6345427059712774,0.29971999373362923,0.7371428571428558,113605.67883581748,28401.41970895437,142007.09854477184,"[1.6187655934192158, 2.0, 2.0, 1.2723807679918728, 2.0, 1.4226444077152998, 2.0, 1.2850485309778463, 1.8482110677284709]",20.38,0.0,0.0,0.0,575.3093815286372,136.6972676196144,-1858.54998013143,438.1345886655027,721.3131333835202,0.0,0.0,0.0,0.0,0.0,0.0,-6.3,20.55688908965599,0.0,20.339764720465467,0.0,-6.3,20.38,19.35,21.33,20.17,20.96,-6.81,-6.3,703.57,-1294.63,-1022.76,0.0,314.0,53.0,251.0,0.0,0.0,0.0,0.0,0.0,0.0,0.0,0.0,0.0,0.0,0.0,0.0,0.0,0.0
23.0,2137.0,0.0,13863.0,-0.0,0.0,16000.0,0.0,27288.046616152755,0.0,0.0,0.0,27288.046616152755,0.02985638699924414,0.29971999373362923,0.7371428571428558,0.0,0.0,0.0,"[1.6187655934192158, 2.0, 2.0, 1.2723807679918728, 2.0, 1.4226444077152998, 2.0, 1.2850485309778463, 1.8482110677284709]",20.38,0.0,0.0,0.0,323.5801237593384,71.47898550788584,-1851.584223031102,325.14545552042165,4339.090646460353,0.0,0.0,0.0,0.0,0.0,0.0,-6.2,20.51503616310719,0.0,20.29405206171091,0.0,-6.2,20.38,19.34,21.24,20.19,20.92,-6.7,-6.2,5438.36,-1289.78,-1018.93,0.0,160.0,29.0,150.0,0.0,0.0,0.0,0.0,0.0,0.0,0.0,0.0,0.0,0.0,0.0,0.0,0.0,0.0
24.0,847.0,30424.11288975186,0.0,-0.0,0.0,0.0,0.0,26482.493092772784,0.0,0.0,0.0,0.0,0.02985638699924414,0.29971999373362923,0.7371428571428558,117699.9693012124,29424.9923253031,147124.9616265155,"[1.6187655934192158, 2.0, 2.0, 1.2723807679918728, 2.0, 1.4226444077152998, 2.0, 1.2850485309778463, 1.8482110677284709]",21.57,0.0,0.0,0.0,243.04398825401944,53.2946309200522,-1927.0937294857179,-1918.5932407321052,9106.060205907786,0.0,0.0,0.0,0.0,0.0,0.0,-6.1,20.869655267189902,0.0,20.339922555641333,0.0,-6.1,21.57,19.4,21.28,21.04,21.58,-6.61,-6.1,60.64,-1342.38,-1060.48,0.0,160.0,0.0,94.0,0.0,0.0,0.0,0.0,0.0,0.0,0.0,0.0,0.0,0.0,0.0,0.0,0.0,0.0
25.0,790.0,0.0,0.0,-0.0,0.0,790.0,0.0,12791.644048795879,0.0,12791.644048795877,0.0,0.0,0.0,0.25137666777446116,0.7371428571428558,0.0,0.0,0.0,"[1.6187655934192158, 2.0, 2.0, 1.2723807679918728, 2.0, 1.4226444077152998, 2.0, 1.2850485309778463, 1.8482110677284709]",23.62,0.0,0.0,0.0,262.1372253702537,53.73508241525925,-2063.1712673529632,-5526.835669656013,0.0,0.0,0.0,0.0,0.0,0.0,0.0,-6.0,21.589473180380537,0.0,20.54587857176775,0.0,-6.0,23.62,19.55,21.54,22.46,22.74,-6.47,-6.0,5752.74,-1437.17,-1135.36,0.0,160.0,0.0,108.0,0.0,0.0,0.0,0.0,0.0,0.0,0.0,0.0,0.0,0.0,0.0,0.0,0.0,0.0
26.0,610.0,27552.266634360138,26804.505301188336,-0.0,0.0,0.0,0.0,54039.893137415966,0.0,0.0,0.0,54039.893137415966,0.0,0.25137666777446116,0.7371428571428558,0.0,0.0,0.0,"[1.6187655934192158, 2.0, 2.0, 1.2723807679918728, 2.0, 1.4226444077152998, 2.0, 1.2850485309778463, 1.8482110677284709]",20.93,0.0,0.0,0.0,206.22131667271057,52.44518875072433,-1854.7196612128917,-194.5250398319845,9074.736373716552,0.0,0.0,0.0,0.0,0.0,0.0,-5.7,20.867831628454788,0.0,20.566837159585127,0.0,-5.7,20.93,19.59,21.54,20.47,21.23,-6.16,-5.7,4334.84,-1291.96,-1020.65,0.0,160.0,0.0,67.0,0.0,0.0,0.0,0.0,0.0,0.0,0.0,0.0,0.0,0.0,0.0,0.0,0.0,0.0
27.0,2098.0,2108.542713567839,0.0,-0.0,0.0,0.0,0.0,60615.36655269248,0.0,60615.366552692474,0.0,0.0,0.0,0.02229364981266041,0.7371428571428558,0.0,0.0,0.0,"[1.6187655934192158, 2.0, 2.0, 1.2723807679918728, 2.0, 1.4226444077152998, 2.0, 1.2850485309778463, 1.8482110677284709]",23.62,0.0,0.0,0.0,174.85385569604003,51.72158986574133,-2028.3424818513256,-5123.775884752236,6930.425503069912,0.0,0.0,0.0,0.0,0.0,0.0,-5.5,21.738300202066334,0.0,20.74451205833359,0.0,-5.5,23.62,19.73,21.76,22.57,22.88,-5.95,-5.5,2689.11,-1412.91,-1116.2,0.0,160.0,0.0,44.0,0.0,0.0,0.0,0.0,0.0,0.0,0.0,0.0,0.0,0.0,0.0,0.0,0.0,0.0
28.0,686.0,79632.96276640867,62548.79795257663,-0.0,0.0,-16000.0,0.0,47891.95875341087,0.0,-80000.0,0.0,127891.95875341087,0.5807407407407407,0.31266402018303074,0.7371428571428558,0.0,0.0,0.0,"[1.6187655934192158, 2.0, 2.0, 1.2723807679918728, 2.0, 1.4226444077152998, 2.0, 1.2850485309778463, 1.8482110677284709]",23.62,0.0,0.0,0.0,258.045817416775,53.6406999520006,-2021.3767247509982,-4710.122366909502,6424.8763226846595,0.0,0.0,0.0,0.0,0.0,0.0,-5.4,21.891253876333472,0.0,20.94249836853991,0.0,-5.4,23.62,19.88,22.0,22.47,22.89,-5.84,-5.4,0.0,-1408.05,-1112.36,0.0,160.0,0.0,105.0,0.0,0.0,0.0,0.0,0.0,0.0,0.0,0.0,0.0,0.0,0.0,0.0,0.0,0.0
29.0,623.0,13217.33581884152,16801.04913974731,-0.0,0.0,4272.7999999999965,0.0,34673.02300226389,0.0,0.0,0.0,34673.02300226389,0.41925925925925933,0.31266402018303074,0.7371428571428558,0.0,0.0,0.0,"[1.6187655934192158, 2.0, 2.0, 1.2723807679918728, 2.0, 1.4226444077152998, 2.0, 1.2850485309778463, 1.8482110677284709]",23.62,0.0,0.0,0.0,255.3182121144558,53.57777830982816,-2007.445210550343,-4339.777089099755,0.0,0.0,0.0,0.0,0.0,0.0,0.0,-5.2,22.028140354100298,0.0,21.121288190761135,0.0,-5.2,23.62,20.03,22.21,22.51,22.99,-5.64,-5.2,5162.84,-1398.35,-1104.7,0.0,160.0,0.0,103.0,0.0,0.0,0.0,0.0,0.0,0.0,0.0,0.0,0.0,0.0,0.0,0.0,0.0,0.0
30.0,677.0,52955.09306807999,0.0,-0.0,0.0,-16000.0,0.0,32411.985842465612,0.0,0.0,0.0,0.0,1.0,0.31266402018303074,0.7371428571428558,144053.27041095836,36013.31760273959,180066.58801369794,"[1.6187655934192158, 2.0, 2.0, 1.2723807679918728, 2.0, 1.4226444077152998, 2.0, 1.2850485309778463, 1.8482110677284709]",21.38,0.0,0.0,0.0,353.2966657372368,115.0836835333831,-1844.7670463675067,46.97485954544905,0.0,0.0,0.0,0.0,0.0,0.0,0.0,-5.1,21.414200579760255,0.0,21.123478436365687,0.0,-5.1,21.38,20.07,22.18,20.96,21.8,-5.54,-5.1,0.0,-1285.03,-1015.17,0.0,338.0,11.0,80.0,0.0,0.0,0.0,0.0,0.0,0.0,0.0,0.0,0.0,0.0,0.0,0.0,0.0,0.0
31.0,798.0,0.0,0.0,-0.0,0.0,798.0,0.0,21035.733632184267,0.0,21035.733632184267,0.0,0.0,0.9698412698412698,0.2331638930772701,0.7371428571428558,0.0,0.0,0.0,"[1.6187655934192158, 2.0, 2.0, 1.2723807679918728, 2.0, 1.4226444077152998, 2.0, 1.2850485309778463, 1.8482110677284709]",20.89,0.0,0.0,0.0,139.6821031135032,45.744033859360044,-1803.2680576713117,870.8823924319555,8134.937818913525,0.0,0.0,0.0,0.0,0.0,0.0,-5.0,21.222899047580185,0.0,21.061406617670272,0.0,-5.0,20.89,20.06,22.07,20.75,21.58,-5.44,-5.0,4767.72,-1256.12,-992.34,0.0,137.0,3.0,30.0,0.0,0.0,0.0,0.0,0.0,0.0,0.0,0.0,0.0,0.0,0.0,0.0,0.0,0.0
32.0,1029.0,0.0,0.0,-0.0,0.0,1029.0,0.0,0.0,0.0,0.0,0.0,0.0,0.930952380952381,0.2331638930772701,0.7371428571428558,0.0,0.0,0.0,"[1.6187655934192158, 2.0, 1.1475056816768472, 0.5946592913679254, 2.0, 1.4226444077152998, 1.2772614502969795, 0.7020668763560742, 1.1689008141678308]",23.62,0.0,0.0,1.0030091338307638,192.29617381350207,38.41366254627139,-1979.582182149033,-4228.3833076713345,0.0,0.0,0.0,0.0,0.0,0.0,0.0,-4.8,22.069146649911392,0.0,21.196446026393552,0.0,-4.8,23.62,20.17,22.22,22.74,23.12,-5.24,-4.8,0.0,-1378.94,-1089.36,1.59,114.0,0.0,81.0,0.0,0.0,0.0,0.0,0.0,0.0,0.0,0.0,0.0,0.0,0.0,0.0,0.0,0.0
33.0,2835.0,0.0,0.0,-0.0,15.073048524836931,2819.926951475163,0.0,9377.743244389805,0.0,9377.743244389807,0.0,0.0,0.8243791779487845,0.1977226865603018,0.7371428571428558,0.0,0.0,0.0,"[1.6187655934192158, 2.0, 1.1475056816768472, 0.5946592913679254, 2.0, 1.4226444077152998, 1.2772614502969795, 0.7020668763560742, 1.1689008141678308]",21.41,0.0,0.0,30.970287909466876,129.56125186016098,2.988778003190648,-1755.8491405345246,111.2701444041592,0.0,0.0,0.0,0.0,0.0,0.0,0.0,-3.8,21.460819950461065,0.0,21.196439676055746,0.0,-3.8,21.41,20.2,22.19,21.03,21.82,-4.19,-3.8,3839.1,-1223.09,-966.24,49.22,0.0,0.0,95.0,0.0,0.0,0.0,0.0,0.0,0.0,0.0,0.0,0.0,0.0,0.0,0.0,0.0,0.0
34.0,8727.0,21130.63969277861,14814.453760144912,-0.0,259.1624085644748,2257.3048572657167,0.0,34103.971948752594,0.0,0.0,0.0,34103.971948752594,0.7390690926401784,0.1977226865603018,0.7371428571428558,0.0,0.0,0.0,"[1.6187655934192158, 2.0, 1.1475056816768472, 0.5946592913679254, 2.0, 1.4226444077152998, 1.2772614502969795, 0.7020668763560742, 1.1689008141678308]",20.86,0.0,0.0,60.87909435935218,117.2870279997247,2.7056306134146912,-1641.0788421826626,1029.537366250698,7889.712117995615,0.0,0.0,0.0,0.0,0.0,0.0,-2.7,21.252019145570557,0.0,21.129454288711994,0.0,-2.7,20.86,20.19,22.07,20.77,21.57,-3.09,-2.7,0.0,-1143.15,-903.08,96.75,0.0,0.0,86.0,0.0,0.0,0.0,0.0,0.0,0.0,0.0,0.0,0.0,0.0,0.0,0.0,0.0,0.0
35.0,9228.0,0.0,0.0,-0.0,1280.0088345035792,7947.991165496421,0.0,3828.0593829500904,0.0,3828.059382950091,0.0,0.0,0.43869149757228654,0.18325534195353654,0.7371428571428558,0.0,0.0,0.0,"[1.6187655934192158, 2.0, 1.1475056816768472, 0.5946592913679254, 2.0, 1.4226444077152998, 1.2772614502969795, 0.7020668763560742, 1.1689008141678308]",23.62,0.0,0.0,94.97277001601803,68.19013255797947,1.5730410543108668,-1763.6437120388796,-4129.535113168236,5.736541603016807,0.0,0.0,0.0,0.0,0.0,0.0,-1.7,22.104123652539062,0.0,21.26202356306648,0.0,-1.7,23.62,20.3,22.23,22.77,23.12,-2.07,-1.7,2345.87,-1228.52,-970.53,150.94,0.0,0.0,50.0,0.0,0.0,0.0,0.0,0.0,0.0,0.0,0.0,0.0,0.0,0.0,0.0,0.0,0.0
36.0,2331.0,0.0,0.0,-0.0,1816.8229742373,514.1770257626999,0.0,33166.256425424894,0.0,33166.256425424894,0.0,0.0,0.41925925925925933,0.05791045750370702,0.7371428571428558,0.0,0.0,0.0,"[1.6187655934192158, 2.0, 1.1475056816768472, 0.5946592913679254, 2.0, 1.4226444077152998, 1.2772614502969795, 0.7020668763560742, 1.1689008141678308]",21.5,0.0,0.0,105.59844370302436,215.69615614392458,40.74176330665148,-1567.493800917917,36.90252830657388,0.0,0.0,0.0,0.0,0.0,0.0,0.0,-1.0,21.52799447256138,0.0,21.269864073790558,0.0,-1.0,21.5,20.33,22.21,21.14,21.88,-1.5,-1.0,0.0,-1091.89,-862.59,167.83,120.0,0.0,95.0,0.0,0.0,0.0,0.0,0.0,0.0,0.0,0.0,0.0,0.0,0.0,0.0,0.0,0.0
37.0,4530.0,10977.383029990056,6917.2097626288205,-0.0,524.7136477887145,0.0,0.0,17242.80787495503,0.0,0.0,0.0,17242.80787495503,0.41925925925925933,0.05791045750370702,0.7371428571428558,0.0,0.0,0.0,"[1.6187655934192158, 2.0, 1.1475056816768472, 0.5946592913679254, 2.0, 1.4226444077152998, 1.2772614502969795, 0.7020668763560742, 1.1689008141678308]",21.07,0.0,0.0,73.83216264874454,1746.6005216140154,65.02951718521128,-1516.4600100647372,760.3224959412265,5764.880478286582,0.0,0.0,0.0,0.0,0.0,0.0,-0.7,21.362592942609123,0.0,21.218068646561143,0.0,-0.7,21.07,20.33,22.11,20.95,21.69,-1.23,-0.7,338.7,-1056.34,-834.51,117.34,83.0,0.0,1237.0,0.0,0.0,0.0,0.0,0.0,0.0,0.0,0.0,0.0,0.0,0.0,0.0,0.0,0.0
38.0,2643.0,28798.321551066587,10011.847440360447,-0.0,0.5174970491936491,-16000.0,0.0,24384.259993512336,0.0,0.0,0.0,24384.259993512336,1.0,0.05791045750370702,0.7371428571428547,0.0,0.0,0.0,"[1.6187655934192158, 2.0, 1.1475056816768472, 0.5946592913679254, 2.0, 1.4226444077152998, 1.2772614502969795, 0.7020668763560742, 1.1689008141678308]",23.62,0.0,0.0,17.383706517841603,860.7748101424103,44.296836089394034,-1735.7806836375698,-4030.8846024624822,4847.936146700747,0.0,0.0,0.0,0.0,0.0,0.0,-1.3,22.140468822609865,0.0,21.3294441677284,0.0,-1.3,23.62,20.43,22.23,22.64,23.0,-1.78,-1.3,4394.05,-1209.11,-955.2,27.63,82.0,0.0,588.0,0.0,0.0,0.0,0.0,0.0,0.0,0.0,0.0,0.0,0.0,0.0,0.0,0.0,0.0
39.0,2019.0,2029.145728643216,0.0,-0.0,0.0,0.0,0.0,7991.497612478038,0.0,7991.497612478038,0.0,0.0,1.0,0.02770827453893741,0.7371428571428547,0.0,0.0,0.0,"[1.6187655934192158, 2.0, 1.1475056816768472, 0.5946592913679254, 2.0, 1.4226444077152998, 1.2772614502969795, 0.7020668763560742, 1.1689008141678308]",23.62,0.0,0.0,1.9954152961958453,201.41211785020045,29.38440689452701,-1777.5752262395347,-3732.1704963318048,0.0,0.0,0.0,0.0,0.0,0.0,0.0,-1.9,22.25126564143127,0.0,21.47432227290752,0.0,-1.9,23.62,20.55,22.4,22.61,23.03,-2.39,-1.9,3335.19,-1238.23,-978.2,3.17,83.0,0.0,104.0,0.0,0.0,0.0,0.0,0.0,0.0,0.0,0.0,0.0,0.0,0.0,0.0,0.0,0.0
40.0,2683.0,47211.49714013445,44292.43965443378,-0.0,0.0,0.0,0.0,24498.003583436235,0.0,-80000.0,0.0,104498.00358343624,1.0,0.31807864490930776,0.7371428571428547,0.0,0.0,0.0,"[1.6187655934192158, 2.0, 1.1475056816768472, 0.5946592913679254, 2.0, 1.4226444077152998, 1.2772614502969795, 0.7020668763560742, 1.1689008141678308]",21.67,0.0,0.0,0.0,375.47640359030595,70.75538662290283,-1655.471871042141,94.9493282485682,0.0,0.0,0.0,0.0,0.0,0.0,0.0,-2.1,21.713108538908426,0.0,21.473205216829736,0.0,-2.1,21.67,20.57,22.38,21.32,22.04,-2.6,-2.1,0.0,-1153.17,-911.01,0.0,163.0,24.0,187.0,0.0,0.0,0.0,0.0,0.0,0.0,0.0,0.0,0.0,0.0,0.0,0.0,0.0,0.0
41.0,3705.0,348.6225203566652,0.0,-0.0,0.0,6728.112497000441,0.0,3032.9927142797897,0.0,0.0,0.0,0.0,0.7457251512849418,0.31807864490930776,0.7371428571428547,13479.967619021292,3369.991904755323,16849.959523776615,"[1.6187655934192158, 2.0, 1.1475056816768472, 0.5946592913679254, 2.0, 1.4226444077152998, 1.2772614502969795, 0.7020668763560742, 1.1689008141678308]",21.25,0.0,0.0,0.0,1619.049084187142,181.34017274095686,-1640.520733288451,772.9320342182083,0.0,0.0,0.0,0.0,0.0,0.0,0.0,-2.3,21.54913957985081,0.0,21.415732122275863,0.0,-2.3,21.25,20.56,22.27,21.14,21.85,-2.8,-2.3,0.0,-1142.76,-902.78,0.0,298.0,98.0,1020.0,0.0,0.0,0.0,0.0,0.0,0.0,0.0,0.0,0.0,0.0,0.0,0.0,0.0,0.0
42.0,3952.0,3971.859296482412,0.0,-0.0,0.0,0.0,0.0,0.0,0.0,0.0,0.0,0.0,0.7457251512849418,0.31807864490930776,0.7371428571428547,0.0,0.0,0.0,"[1.6187655934192158, 2.0, 1.1475056816768472, 0.5946592913679254, 2.0, 1.4226444077152998, 1.2772614502969795, 0.7020668763560742, 1.1689008141678308]",21.59,0.0,0.0,0.0,2138.7296733658486,156.8007322937073,-1678.0454889159473,-4.236160368895344,0.0,0.0,0.0,0.0,0.0,0.0,0.0,-2.5,21.60067227575082,0.0,21.3702088558299,0.0,-2.5,21.59,20.55,22.19,21.3,21.93,-3.05,-2.5,0.0,-1168.9,-923.43,0.0,81.0,148.0,1510.0,0.0,0.0,0.0,0.0,0.0,0.0,0.0,0.0,0.0,0.0,0.0,0.0,0.0,0.0
43.0,5226.0,0.0,0.0,-0.0,0.0,5226.0,0.0,11118.79182950556,0.0,11118.79182950556,0.0,0.0,0.5482194823507014,0.27605751176680754,0.7334693877550995,0.0,0.0,0.0,"[1.6187655934192158, 2.0, 1.1475056816768472, 0.5946592913679254, 2.0, 1.4226444077152998, 1.2772614502969795, 0.7020668763560742, 1.1689008141678308]",21.81,0.0,0.0,0.0,2541.9845835876686,163.78503457484757,-1707.3964361093185,-509.8549675884381,0.0,0.0,0.0,0.0,0.0,0.0,0.0,-2.7,21.63522585952299,0.0,21.342438897474217,0.0,-2.7,21.81,20.55,22.14,21.37,21.96,-3.27,-2.7,0.0,-1189.34,-939.58,0.0,128.0,119.0,1784.0,0.0,0.0,0.0,0.0,0.0,0.0,0.0,0.0,0.0,0.0,0.0,0.0,0.0,0.0
44.0,4804.0,0.0,786.4390830759204,-0.0,0.0,5590.43908307592,0.0,1795.446401282035,0.0,0.0,0.0,1795.446401282035,0.33694060543929094,0.2692720000461649,0.7244897959183647,0.0,0.0,0.0,"[0.4227291237348183, 0.8865061531093552, 1.0028297398580008, 0.5946592913679254, 0.7694628591542454, 0.3948962096052142, 0.8849354812285242, 0.5960137848679352, 0.8945643810729074]",21.99,0.0,0.0,0.0,1389.4277851840093,145.44337588158285,-1733.5166175768038,-893.3314419039455,0.0,0.0,0.0,0.0,0.0,0.0,0.0,-2.9,21.668532995251987,0.0,21.328194637550858,0.0,-2.9,21.99,20.55,22.1,21.45,22.0,-3.44,-2.9,0.0,-1207.54,-953.95,0.0,167.0,113.0,919.0,0.0,0.0,0.0,0.0,0.0,0.0,0.0,0.0,0.0,0.0,0.0,0.0,0.0,0.0
45.0,4030.0,35955.36730432286,15745.590467801241,-0.0,0.0,-16000.0,0.0,35647.08756595798,0.0,0.0,0.0,35647.08756595799,0.9176813461800316,0.2692720000461649,0.7093877551020382,0.0,0.0,0.0,"[0.4227291237348183, 0.8865061531093552, 1.0028297398580008, 0.5946592913679254, 0.7694628591542454, 0.3948962096052142, 0.8849354812285242, 0.5960137848679352, 0.8945643810729074]",21.58,0.0,0.0,0.0,802.4184124901606,88.1217598624948,-1718.958748230497,-149.82005472404077,3272.248190048465,0.0,0.0,0.0,0.0,0.0,0.0,-3.1,21.53445661651567,0.0,21.30307431680464,0.0,-3.1,21.58,20.55,22.06,21.26,21.84,-3.64,-3.1,1266.96,-1197.4,-945.94,0.0,107.0,67.0,525.0,0.0,0.0,0.0,0.0,0.0,0.0,0.0,0.0,0.0,0.0,0.0,0.0,0.0,0.0
46.0,2364.0,51179.13701743567,48559.241332348494,-0.0,0.0,0.0,0.0,29009.396269428515,0.0,-80000.0,0.0,109009.39626942851,0.9176813461800316,0.5596423704165352,0.7093877551020382,0.0,0.0,0.0,"[0.4227291237348183, 0.8865061531093552, 1.0028297398580008, 0.5946592913679254, 0.7694628591542454, 0.3948962096052142, 0.8849354812285242, 0.5960137848679352, 0.8945643810729074]",22.42,0.0,0.0,0.0,715.7092755111719,111.02523761326107,-1791.7828303345725,-1736.5216876930056,2712.050924597359,0.0,0.0,0.0,0.0,0.0,0.0,-3.3,21.793547391884065,0.0,21.341757453640696,0.0,-3.3,22.42,20.58,22.1,21.93,22.36,-3.87,-3.3,0.0,-1248.12,-986.02,0.0,268.0,26.0,381.0,0.0,0.0,0.0,0.0,0.0,0.0,0.0,0.0,0.0,0.0,0.0,0.0,0.0,0.0
47.0,1455.0,0.0,0.0,-0.0,0.0,1455.0,0.0,5226.609724174341,0.0,5226.609724174341,0.0,0.0,0.8626926840485123,0.5398894991989451,0.7093877551020382,0.0,0.0,0.0,"[0.4227291237348183, 0.8865061531093552, 1.0028297398580008, 0.5946592913679254, 0.7694628591542454, 0.3948962096052142, 0.8849354812285242, 0.5960137848679352, 0.8945643810729074]",22.42,0.0,0.0,0.0,238.09123125770307,56.09464399672553,-1798.7485874349002,-1637.7531326415456,3147.6112485666417,0.0,0.0,0.0,0.0,0.0,0.0,-3.4,21.830128920222673,0.0,21.389990925309643,0.0,-3.4,22.42,20.63,22.15,21.91,22.36,-3.97,-3.4,3001.47,-1252.98,-989.85,0.0,166.0,2.0,87.0,0.0,0.0,0.0,0.0,0.0,0.0,0.0,0.0,0.0,0.0,0.0,0.0,0.0,0.0
48.0,1644.0,0.0,0.0,-0.0,0.0,1644.0,0.0,29000.68356933303,0.0,29000.68356933303,0.0,0.0,0.8005611647741359,0.43028752047886565,0.7093877551020382,0.0,0.0,0.0,"[0.4227291237348183, 0.8865061531093552, 1.0028297398580008, 0.5946592913679254, 0.7694628591542454, 0.3948962096052142, 0.8849354812285242, 0.5960137848679352, 0.8945643810729074]",22.42,0.0,0.0,0.0,426.5113343784358,71.0385340126788,-1882.3376726388303,-1540.151575330203,645.9547486473729,0.0,0.0,0.0,0.0,0.0,0.0,-4.6,21.866821943801554,0.0,21.438424686017747,0.0,-4.6,22.42,20.67,22.21,21.96,22.41,-5.15,-4.6,14.42,-1311.2,-1035.85,0.0,160.0,24.0,226.0,0.0,0.0,0.0,0.0,0.0,0.0,0.0,0.0,0.0,0.0,0.0,0.0,0.0,0.0
49.0,1546.0,0.0,0.0,-0.0,0.0,1546.0,0.0,22069.144625579112,0.0,22069.144625579112,0.0,0.0,0.7421333492034632,0.3468818340632227,0.6922448979591811,0.0,0.0,0.0,"[0.4227291237348183, 0.8865061531093552, 1.0028297398580008, 0.5946592913679254, 0.7694628591542454, 0.3948962096052142, 0.8849354812285242, 0.5960137848679352, 0.8945643810729074]",21.58,0.0,0.0,0.0,340.7353255291879,58.92611789448511,-1907.0341899393397,76.13397040116195,3722.492230863932,0.0,0.0,0.0,0.0,0.0,0.0,-5.8,21.619388733441845,0.0,21.41910980887832,0.0,-5.8,21.58,20.66,22.18,21.37,21.95,-6.35,-5.8,3373.85,-1328.41,-1049.44,0.0,160.0,6.0,165.0,0.0,0.0,0.0,0.0,0.0,0.0,0.0,0.0,0.0,0.0,0.0,0.0,0.0,0.0
50.0,1895.0,0.0,0.0,-0.0,0.0,1895.0,0.0,19091.941349387267,0.0,19091.941349387263,0.0,0.0,0.670515813300213,0.27472786070952937,0.6922448979591811,0.0,0.0,0.0,"[0.4227291237348183, 0.8865061531093552, 1.0028297398580008, 0.5946592913679254, 0.7694628591542454, 0.3948962096052142, 0.8849354812285242, 0.5960137848679352, 0.8945643810729074]",22.42,0.0,0.0,0.0,185.76427690531676,51.97327643443108,-2049.515843046691,-1522.9161794792058,1053.9100543693112,0.0,0.0,0.0,0.0,0.0,0.0,-7.0,21.87440856439258,0.0,21.451283996790963,0.0,-7.0,22.42,20.69,22.21,22.03,22.46,-7.58,-7.0,2767.82,-1427.66,-1127.85,0.0,160.0,0.0,52.0,0.0,0.0,0.0,0.0,0.0,0.0,0.0,0.0,0.0,0.0,0.0,0.0,0.0,0.0
51.0,2383.0,121059.41536932565,0.0,-0.0,0.0,-9077.625551932906,0.0,18094.14346649145,0.0,-80000.0,0.0,0.0,1.0,0.5650982310798998,0.6922448979591811,435973.9709621845,108993.49274054612,544967.4637027306,"[0.4227291237348183, 0.8865061531093552, 1.0028297398580008, 0.5946592913679254, 0.7694628591542454, 0.3948962096052142, 0.8849354812285242, 0.5960137848679352, 0.8945643810729074]",21.58,0.0,0.0,0.0,273.0476465795304,53.986768983948984,-2032.4178177452352,97.86254862344687,1612.6172712957143,0.0,0.0,0.0,0.0,0.0,0.0,-7.6,21.628345159411083,0.0,21.432216759108293,0.0,-7.6,21.58,20.68,22.19,21.41,21.98,-8.19,-7.6,0.0,-1415.75,-1118.44,0.0,160.0,0.0,116.0,0.0,0.0,0.0,0.0,0.0,0.0,0.0,0.0,0.0,0.0,0.0,0.0,0.0,0.0
52.0,1452.0,0.0,9437.868119950117,-0.0,0.0,10889.868119950117,0.0,16688.123587432285,0.0,0.0,0.0,16688.12358743228,0.5884403582785291,0.5650982310798998,0.6922448979591811,0.0,0.0,0.0,"[0.4227291237348183, 0.8865061531093552, 1.0028297398580008, 0.5946592913679254, 0.7694628591542454, 0.3948962096052142, 0.8849354812285242, 0.5960137848679352, 0.8945643810729074]",21.58,0.0,0.0,0.0,128.48456555661397,50.65192194880994,-2081.1781174475277,31.537864873423672,3659.487309261593,0.0,0.0,0.0,0.0,0.0,0.0,-8.3,21.604170848429842,0.0,21.40226233200902,0.0,-8.3,21.58,20.66,22.14,21.45,21.99,-8.9,-8.3,1429.51,-1449.71,-1145.27,0.0,160.0,0.0,10.0,0.0,0.0,0.0,0.0,0.0,0.0,0.0,0.0,0.0,0.0,0.0,0.0,0.0,0.0
53.0,740.0,0.0,0.0,-0.0,0.0,740.0,0.0,11670.71649792959,0.0,11670.716497929592,0.0,0.0,0.5604736160260726,0.5209912148367796,0.6922448979591811,0.0,0.0,0.0,"[0.4227291237348183, 0.8865061531093552, 1.0028297398580008, 0.5946592913679254, 0.7694628591542454, 0.3948962096052142, 0.8849354812285242, 0.5960137848679352, 0.8945643810729074]",22.24,0.0,0.0,0.0,288.04947574228595,54.33283801589738,-2168.9439856193544,-1220.7668519191109,3553.946427091796,0.0,0.0,0.0,0.0,0.0,0.0,-8.9,21.801556237081154,0.0,21.4239203227824,0.0,-8.9,22.24,20.67,22.18,21.93,22.37,-9.53,-8.9,188.73,-1510.85,-1193.57,0.0,160.0,0.0,127.0,0.0,0.0,0.0,0.0,0.0,0.0,0.0,0.0,0.0,0.0,0.0,0.0,0.0,0.0
54.0,673.0,1414.6228037313563,7172.858059485229,-0.0,0.0,6438.30836977253,0.0,11930.92072797495,0.0,0.0,0.0,11930.92072797495,0.31715130424328614,0.5209912148367796,0.6922448979591811,0.0,0.0,0.0,"[0.4227291237348183, 0.8865061531093552, 1.0028297398580008, 0.5946592913679254, 0.7694628591542454, 0.3948962096052142, 0.8849354812285242, 0.5960137848679352, 0.8945643810729074]",22.42,0.0,0.0,0.0,281.94825335551934,94.13077668996229,-2216.694013454551,-1500.137618146442,1565.436723113293,0.0,0.0,0.0,0.0,0.0,0.0,-9.4,21.88405997539259,0.0,21.463272093218947,0.0,-9.4,22.42,20.7,22.23,22.02,22.46,-10.03,-9.4,2952.71,-1544.11,-1219.85,0.0,294.0,0.0,52.0,0.0,0.0,0.0,0.0,0.0,0.0,0.0,0.0,0.0,0.0,0.0,0.0,0.0,0.0
55.0,1927.0,0.0,6464.823510277351,-0.0,0.0,8391.82351027735,0.0,10445.060932574084,0.0,0.0,0.0,10445.060932574084,0.0,0.5209912148367796,0.6922448979591811,0.0,0.0,0.0,"[0.4227291237348183, 0.8865061531093552, 1.0028297398580008, 0.5946592913679254, 0.7694628591542454, 0.3948962096052142, 0.8849354812285242, 0.5960137848679352, 0.8945643810729074]",21.76,0.0,0.0,0.0,1834.529903070357,97.59146700944626,-2205.551473386337,-218.84595778280283,0.0,0.0,0.0,0.0,0.0,0.0,0.0,-9.9,21.697965335741102,0.0,21.45482413723232,0.0,-9.9,21.76,20.69,22.22,21.56,22.11,-10.54,-9.9,283.82,-1536.35,-1213.71,0.0,108.0,41.0,1284.0,0.0,0.0,0.0,0.0,0.0,0.0,0.0,0.0,0.0,0.0,0.0,0.0,0.0,0.0
56.0,3541.0,8828.915535762248,5243.770958083436,-0.0,0.0,0.0,0.0,8572.216444548278,0.0,0.0,0.0,8572.216444548278,0.0,0.48859432729124563,0.6922448979591811,0.0,0.0,0.0,"[0.4227291237348183, 0.8865061531093552, 1.0028297398580008, 0.5946592913679254, 0.7694628591542454, 0.3948962096052142, 0.8849354812285242, 0.5960137848679352, 0.8945643810729038]",21.58,0.0,0.0,4.150418215222064,258.8353873727094,90.41839980178865,-2178.698716852113,39.5375414070216,1794.1838355266916,0.0,0.0,0.0,0.0,0.0,0.0,-9.7,21.60785849698156,0.0,21.404590934931615,0.0,-9.7,21.58,20.65,22.16,21.3,21.9,-10.36,-9.7,1062.74,-1517.64,-1198.94,6.6,136.0,78.0,110.0,0.0,0.0,0.0,0.0,0.0,0.0,0.0,0.0,0.0,0.0,0.0,0.0,0.0,0.0
57.0,2709.0,0.0,0.0,-11653.861368645008,14362.861368645008,0.0,0.0,4258.967551463326,0.0,4258.967551463327,0.0,0.0,0.0,0.47249845597052254,0.7227003223359068,0.0,0.0,0.0,"[0.4227291237348183, 0.8865061531093552, 1.0028297398580008, 0.5946592913679254, 0.7694628591542454, 0.3948962096052142, 0.8849354812285242, 0.5960137848679352, 0.8945643810729038]",21.58,0.0,0.0,1142.2271471966924,413.447540562065,72.98910492002427,-2011.5205464442527,-13.766779714380974,2659.2775675037196,0.0,0.0,0.0,0.0,0.0,0.0,-7.3,21.586526903628517,0.0,21.37703694116345,0.0,-7.3,21.58,20.63,22.12,21.46,22.0,-7.13,-7.3,127.2,-1401.19,-1106.94,1815.32,143.0,37.0,224.0,0.0,0.0,0.0,0.0,0.0,0.0,0.0,0.0,0.0,0.0,0.0,0.0,0.0,0.0
58.0,2894.0,0.0,3397.6596195444713,-4174.243776999052,26465.903396543523,-16000.0,0.0,19413.127172678684,0.0,12401.23588169824,0.0,7011.891290980444,0.5807407407407407,0.4256305954954725,0.7336090127397976,0.0,0.0,0.0,"[0.4227291237348183, 0.8865061531093552, 1.0028297398580008, 0.5946592913679254, 0.7694628591542454, 0.3948962096052142, 0.8849354812285242, 0.5960137848679352, 0.8945643810729038]",22.42,0.0,0.0,1576.2834600517713,446.17880418989506,66.82278398712567,-1924.1322152407954,-1537.5290150580968,0.0,0.0,0.0,0.0,0.0,0.0,0.0,-5.2,21.8676209305844,0.0,21.440525648001,0.0,-5.2,22.42,20.67,22.21,22.21,22.63,-4.81,-5.2,0.0,-1340.32,-1058.85,2505.15,150.0,21.0,246.0,0.0,0.0,0.0,0.0,0.0,0.0,0.0,0.0,0.0,0.0,0.0,0.0,0.0,0.0
59.0,3765.0,12539.05698393135,42394.95373906491,-0.0,33683.59204005322,0.0,0.0,14767.180940535753,0.0,-80000.0,0.0,94767.18094053576,0.5807407407407407,0.7160009658658428,0.7336090127397976,0.0,0.0,0.0,"[0.4227291237348183, 0.8865061531093552, 1.0028297398580008, 0.5946592913679254, 0.7694628591542454, 0.3948962096052142, 0.8849354812285242, 0.5960137848679352, 0.8945643810729038]",21.93,0.0,0.0,1949.8764056127668,1257.9284979774634,61.50590522355493,-1764.2898457963372,-467.06680727054805,0.0,0.0,0.0,0.0,0.0,0.0,0.0,-3.4,21.76764232509198,0.0,21.48527595191689,0.0,-3.4,21.93,20.71,22.26,21.88,22.41,-2.81,-3.4,1700.45,-1228.97,-970.89,3098.9,109.0,0.0,865.0,0.0,0.0,0.0,0.0,0.0,0.0,0.0,0.0,0.0,0.0,0.0,0.0,0.0,0.0
60.0,9375.0,0.0,0.0,-25472.334972207274,34847.334972207274,0.0,0.0,5575.363740610994,0.0,5575.363740610995,0.0,0.0,0.5807407407407407,0.6949300522580916,0.8001767148004993,0.0,0.0,0.0,"[0.4227291237348183, 0.8865061531093552, 1.0028297398580008, 0.5946592913679254, 0.7694628591542454, 0.3948962096052142, 0.8849354812285242, 0.5960137848679352, 0.8945643810729038]",22.33,0.0,0.0,2009.6180010532175,6057.006469234252,176.68397122019667,-1722.5426715215165,-1124.3764106410197,-5178.214207889189,0.0,0.0,0.0,0.0,0.0,0.0,-2.4,21.924875415944886,0.0,21.547758741532874,0.0,-2.4,22.33,20.76,22.34,22.17,22.66,-1.78,-2.4,714.81,-1199.89,-947.91,3193.84,124.0,0.0,4376.0,0.0,0.0,0.0,0.0,0.0,0.0,0.0,0.0,0.0,0.0,0.0,0.0,0.0,0.0
61.0,8845.0,0.0,0.0,-10382.028034311212,30778.04844247448,-11551.020408163267,0.0,10623.367623307564,0.0,10623.367623307564,0.0,0.0,1.0,0.6547812706129382,0.8195533126893497,0.0,0.0,0.0,"[0.4227291237348183, 0.8865061531093552, 1.0028297398580008, 0.5946592913679254, 0.7694628591542454, 0.3948962096052142, 0.8849354812285242, 0.5960137848679352, 0.8945643810729038]",22.42,0.0,0.0,1724.9560959361438,5973.096716644486,202.76499190067085,-1708.1937451306426,-1144.6746003467845,-5074.002998479372,0.0,0.0,0.0,0.0,0.0,0.0,-2.1,22.011353741161678,0.0,21.62698783726622,0.0,-2.1,22.42,20.82,22.43,22.31,22.79,-1.65,-2.1,749.99,-1189.9,-940.02,2741.44,218.0,0.0,4265.0,0.0,0.0,0.0,0.0,0.0,0.0,0.0,0.0,0.0,0.0,0.0,0.0,0.0,0.0
62.0,5224.0,0.0,0.0,-0.0,17204.178334664863,0.0,0.0,10782.160501198372,0.0,0.0,0.0,0.0,1.0,0.6547812706129382,0.8195533126893496,47920.71333865945,11980.178334664863,59900.89167332431,"[0.4227291237348183, 0.8865061531093552, 1.0028297398580008, 0.5946592913679254, 0.7694628591542454, 0.3948962096052142, 0.8849354812285242, 0.5960137848679352, 0.8945643810729038]",22.42,0.0,0.0,881.9827491849434,1258.4309515857854,127.9826201787322,-1756.954044832935,-1009.9179878644559,487.4489926456849,0.0,0.0,0.0,0.0,0.0,0.0,-2.8,22.061813220517887,0.0,21.693739177907133,0.0,-2.8,22.42,20.88,22.51,22.28,22.79,-2.88,-2.8,0.0,-1223.86,-966.85,1401.72,332.0,0.0,748.0,0.0,0.0,0.0,0.0,0.0,0.0,0.0,0.0,0.0,0.0,0.0,0.0,0.0,0.0
63.0,3857.0,0.0,0.0,-0.0,0.0,3857.0,0.0,10138.93705379549,0.0,10138.937053795491,0.0,0.0,0.8542328042328042,0.6164632923295086,0.8195533126893496,0.0,0.0,0.0,"[0.4227291237348183, 0.8865061531093552, 1.0028297398580008, 0.5946592913679254, 0.7694628591542454, 0.3948962096052142, 0.8849354812285242, 0.5960137848679352, 0.8945643810729038]",22.42,0.0,0.0,13.963807232061356,680.2504065810226,91.33076361328897,-1868.4061584381752,-951.0765673517043,2042.193625877427,0.0,0.0,0.0,0.0,0.0,0.0,-4.4,22.084700218533552,0.0,21.72597632508866,0.0,-4.4,22.42,20.91,22.54,22.11,22.65,-5.12,-4.4,2235.41,-1301.5,-1028.18,22.19,216.0,20.0,383.0,0.0,0.0,0.0,0.0,0.0,0.0,0.0,0.0,0.0,0.0,0.0,0.0,0.0,0.0
64.0,4636.0,13642.01206030151,0.0,-0.0,0.0,0.0,0.0,19033.789966750766,44689.01,54784.997966750765,0.0,0.0,0.8542328042328042,0.40941492510822824,0.8195533126893496,35751.208000000006,8937.802000000001,44689.01,"[0.4227291237348183, 0.8865061531093552, 1.0028297398580008, 0.5946592913679254, 0.7694628591542454, 0.3948962096052142, 0.8849354812285242, 0.5960137848679352, 0.8945643810729038]",22.42,0.0,0.0,0.0,293.7200236076337,100.29709762286095,-1917.1664581404682,-930.1639593444908,177.09070990188135,0.0,0.0,0.0,0.0,0.0,0.0,-5.1,22.09278888572471,0.0,21.738958776550678,0.0,-5.1,22.42,20.93,22.55,22.04,22.57,-5.83,-5.1,0.0,-1335.46,-1055.02,0.0,276.0,20.0,68.0,0.0,0.0,0.0,0.0,0.0,0.0,0.0,0.0,0.0,0.0,0.0,0.0,0.0,0.0
65.0,4058.0,0.0,0.0,-0.0,0.0,4058.0,0.0,13664.366092526587,0.0,13664.366092526587,0.0,0.0,0.7008692365835223,0.3577733298983772,0.8195533126893496,0.0,0.0,0.0,"[0.4227291237348183, 0.8865061531093552, 1.0028297398580008, 0.5946592913679254, 0.7694628591542454, 0.3948962096052142, 0.8849354812285242, 0.5960137848679352, 0.8945643810729038]",21.58,0.0,0.0,0.0,308.43473642277655,119.64550259088462,-1913.9999470396672,632.3861019351938,3150.5190458246193,0.0,0.0,0.0,0.0,0.0,0.0,-5.9,21.825271264070206,0.0,21.694840087977262,0.0,-5.9,21.58,20.91,22.48,21.48,22.12,-6.61,-5.9,0.0,-1333.26,-1053.27,0.0,234.0,76.0,95.0,0.0,0.0,0.0,0.0,0.0,0.0,0.0,0.0,0.0,0.0,0.0,0.0,0.0,0.0
66.0,5779.0,0.0,1161.4157758755032,-0.0,0.0,6940.415775875503,0.0,2230.7799850556585,0.0,0.0,0.0,2230.7799850556585,0.43857083235542316,0.3577733298983772,0.8195533126893496,0.0,0.0,0.0,"[0.4227291237348183, 0.8865061531093552, 1.0028297398580008, 0.5946592913679254, 0.7694628591542454, 0.3948962096052142, 0.8849354812285242, 0.5960137848679352, 0.8945643810729038]",22.42,0.0,0.0,0.0,296.59118708375917,104.70161257493136,-2028.6185717457083,-1015.4855845495063,367.0045619408287,0.0,0.0,0.0,0.0,0.0,0.0,-6.7,22.062006651331348,0.0,21.704499433355505,0.0,-6.7,22.42,20.93,22.48,22.14,22.61,-7.38,-6.7,0.0,-1413.1,-1116.35,0.0,164.0,87.0,122.0,0.0,0.0,0.0,0.0,0.0,0.0,0.0,0.0,0.0,0.0,0.0,0.0,0.0,0.0
67.0,5034.0,0.0,0.0,-0.0,0.0,5034.0,0.0,1151.2928768781287,0.0,1151.2928768781287,0.0,0.0,0.2483213992488472,0.3534222608247637,0.8195533126893496,0.0,0.0,0.0,"[0.4227291237348183, 0.8865061531093552, 1.0028297398580008, 0.5946592913679254, 0.7694628591542454, 0.3948962096052142, 0.8849354812285242, 0.5960137848679352, 0.8945643810729038]",21.58,0.0,0.0,0.0,918.7723123601443,130.8770157186642,-2018.4863035445803,556.560405236026,424.63152232041284,0.0,0.0,0.0,0.0,0.0,0.0,-7.4,21.797965730792864,0.0,21.66334508305662,0.0,-7.4,21.58,20.9,22.42,21.49,22.1,-8.09,-7.4,2131.44,-1406.04,-1110.77,0.0,266.0,54.0,528.0,0.0,0.0,0.0,0.0,0.0,0.0,0.0,0.0,0.0,0.0,0.0,0.0,0.0,0.0
68.0,4820.0,13720.05459926401,8831.45432626769,-0.0,0.0,0.0,0.0,15700.050208854833,0.0,0.0,0.0,15700.050208854833,0.06615964565852217,0.2940872260218354,0.7477165779954721,0.0,0.0,0.0,"[0.4227291237348183, 0.8865061531093552, 1.0028297398579973, 0.5111274947816185, 0.7694628591542454, 0.3948962096052142, 0.8849354812285242, 0.5960137848679352, 0.7479166700092854]",21.58,0.0,0.0,0.0,699.9896554793851,118.544373852867,-2074.2123603472,433.11345418604935,833.7556122802571,0.0,0.0,0.0,0.0,0.0,0.0,-8.2,21.75269864999727,0.0,21.60717458416487,0.0,-8.2,21.58,20.87,22.35,21.48,22.06,-8.88,-8.2,0.0,-1444.86,-1141.44,0.0,302.0,22.0,352.0,0.0,0.0,0.0,0.0,0.0,0.0,0.0,0.0,0.0,0.0,0.0,0.0,0.0,0.0
69.0,3172.0,3243.8374461598946,0.0,-0.0,0.0,-55.61825892909537,0.0,22135.082530849606,0.0,22135.08253084961,0.0,0.0,0.06817838246409674,0.21043234117357534,0.7085329045260843,0.0,0.0,0.0,"[0.4227291237348183, 0.8865061531093552, 1.0028297398579973, 0.5111274947816185, 0.7694628591542454, 0.3948962096052142, 0.8849354812285242, 0.5960137848679352, 0.7479166700092854]",21.58,0.0,0.0,0.0,810.4576702233118,119.20505109567758,-2122.972660049493,327.76554937075025,3162.488249927856,0.0,0.0,0.0,0.0,0.0,0.0,-8.9,21.71407237449555,0.0,21.558461629771028,0.0,-8.9,21.58,20.83,22.28,21.49,22.05,-9.56,-8.9,1706.27,-1478.82,-1168.27,0.0,324.0,7.0,423.0,0.0,0.0,0.0,0.0,0.0,0.0,0.0,0.0,0.0,0.0,0.0,0.0,0.0,0.0
70.0,2250.0,2261.3065326633164,0.0,-0.0,0.0,0.0,0.0,14880.225967238359,0.0,14880.225967238359,0.0,0.0,0.06817838246409674,0.15419565951356642,0.706083924934247,0.0,0.0,0.0,"[0.4227291237348183, 0.8865061531093552, 1.0028297398579973, 0.5111274947816185, 0.7694628591542454, 0.3948962096052142, 0.8849354812285242, 0.5960137848679352, 0.7479166700092854]",22.42,0.0,0.0,0.0,662.5209721159479,75.19136239605949,-2237.5912847555337,-1303.1160424038828,524.4023938505093,0.0,0.0,0.0,0.0,0.0,0.0,-9.7,21.957104699465933,0.0,21.573258787515684,0.0,-9.7,22.42,20.84,22.31,22.07,22.5,-10.36,-9.7,1569.74,-1558.67,-1231.35,0.0,184.0,9.0,388.0,0.0,0.0,0.0,0.0,0.0,0.0,0.0,0.0,0.0,0.0,0.0,0.0,0.0,0.0
71.0,1804.0,0.0,0.0,-0.0,0.0,1804.0,0.0,20543.040655766614,0.0,20543.04065576661,0.0,0.0,0.0,0.07655756179713932,0.6971043330975123,0.0,0.0,0.0,"[0.4227291237348183, 0.8865061531093552, 1.0028297398579973, 0.5111274947816185, 0.7694628591542454, 0.3948962096052142, 0.8849354812285242, 0.5960137848679352, 0.7479166700092854]",21.58,0.0,0.0,0.0,608.1842033302737,88.93974121073646,-2227.4590165544055,285.65125106695046,3265.9026399967884,0.0,0.0,0.0,0.0,0.0,0.0,-10.4,21.69924319731769,0.0,21.537324299775335,0.0,-10.4,21.58,20.81,22.26,21.43,22.0,-11.06,-10.4,0.0,-1551.61,-1225.77,0.0,206.0,24.0,335.0,0.0,0.0,0.0,0.0,0.0,0.0,0.0,0.0,0.0,0.0,0.0,0.0,0.0,0.0
72.0,1233.0,34399.40670132581,0.0,-0.0,0.0,0.0,0.0,29694.96870103724,0.0,0.0,0.0,0.0,0.0,0.07655756179713932,0.6971043330975123,131977.6386712767,32994.40966781918,164972.04833909587,"[0.4227291237348183, 0.8865061531093552, 1.0028297398579973, 0.5111274947816185, 0.7694628591542454, 0.3948962096052142, 0.8849354812285242, 0.5960137848679352, 0.7479166700092854]",22.32,0.0,0.0,0.0,241.68018560285986,53.263170098965986,-2314.1497186124784,-1154.6612462911698,3030.474786317735,0.0,0.0,0.0,0.0,0.0,0.0,-10.9,21.911646467725827,0.0,21.547465392591555,0.0,-10.9,22.32,20.81,22.29,22.02,22.45,-11.59,-10.9,371.87,-1611.99,-1273.48,0.0,160.0,0.0,93.0,0.0,0.0,0.0,0.0,0.0,0.0,0.0,0.0,0.0,0.0,0.0,0.0,0.0,0.0
73.0,893.0,41444.74678553278,0.0,-0.0,0.0,-11551.020408163267,0.0,25914.152379097657,0.0,0.0,0.0,0.0,0.41925925925925933,0.07655756179713932,0.6971043330975123,115174.01057376739,28793.502643441847,143967.51321720923,"[0.4227291237348183, 0.8865061531093552, 1.0028297398579973, 0.5111274947816185, 0.7694628591542454, 0.3948962096052142, 0.8849354812285242, 0.5960137848679352, 0.7479166700092854]",22.27,0.0,0.0,0.0,203.49371137039137,52.38226710855189,-2352.120082553668,-1003.2491262302817,3525.7270719206163,0.0,0.0,0.0,0.0,0.0,0.0,-11.5,21.913031559754785,0.0,21.565848954617486,0.0,-11.5,22.27,20.81,22.32,21.97,22.43,-12.2,-11.5,756.93,-1638.44,-1294.37,0.0,160.0,0.0,65.0,0.0,0.0,0.0,0.0,0.0,0.0,0.0,0.0,0.0,0.0,0.0,0.0,0.0,0.0
74.0,785.0,93125.28116999108,75874.65476414113,-0.0,0.0,-16000.0,0.0,25952.130944061664,0.0,-80000.0,0.0,105952.13094406168,1.0,0.36692793216750963,0.6971043330975123,0.0,0.0,0.0,"[0.4227291237348183, 0.8865061531093552, 1.0028297398579973, 0.5111274947816185, 0.7694628591542454, 0.3948962096052142, 0.8849354812285242, 0.5960137848679352, 0.7479166700092854]",22.42,0.0,0.0,0.0,236.22497499822148,53.137326814621105,-2411.735212263721,-1248.2575099857129,1089.9558934147979,0.0,0.0,0.0,0.0,0.0,0.0,-12.2,21.97867478999426,0.0,21.59277858611648,0.0,-12.2,22.42,20.82,22.36,22.09,22.54,-12.92,-12.2,3398.91,-1679.97,-1327.18,0.0,160.0,0.0,89.0,0.0,0.0,0.0,0.0,0.0,0.0,0.0,0.0,0.0,0.0,0.0,0.0,0.0,0.0
75.0,739.0,11393.811567449115,10597.842509611868,-0.0,0.0,0.0,0.0,14394.803917362411,0.0,0.0,0.0,14394.803917362411,1.0,0.36692793216750963,0.6758798433015939,0.0,0.0,0.0,"[0.4227291237348183, 0.8865061531093552, 1.0028297398579973, 0.5111274947816185, 0.7694628591542454, 0.3948962096052142, 0.8849354812285242, 0.5960137848679352, 0.7479166700092854]",21.58,0.0,0.0,0.0,307.14271285852016,54.773289511104416,-2380.705672761611,343.52125692610895,1680.4390797134329,0.0,0.0,0.0,0.0,0.0,0.0,-12.6,21.721777750882257,0.0,21.55743972986723,0.0,-12.6,21.58,20.79,22.32,21.48,22.07,-13.32,-12.6,217.71,-1658.36,-1310.1,0.0,160.0,0.0,141.0,0.0,0.0,0.0,0.0,0.0,0.0,0.0,0.0,0.0,0.0,0.0,0.0,0.0,0.0
76.0,1904.0,0.0,0.0,-0.0,0.0,14237.866,0.0,11100.479399999997,0.0,0.0,0.0,0.0,0.4619098261526833,0.36692793216750963,0.6758798433015939,49335.464,12333.866,61669.329999999994,"[0.4227291237348183, 0.8865061531093552, 1.0028297398579973, 0.5111274947816185, 0.7694628591542454, 0.3948962096052142, 0.8849354812285242, 0.5960137848679352, 0.7479166700092854]",21.58,0.0,0.0,0.0,342.6015817886696,55.59127085934606,-2408.568701162921,251.31702417477467,1764.3067090382656,0.0,0.0,0.0,0.0,0.0,0.0,-13.0,21.687870067905205,0.0,21.512808991279382,0.0,-13.0,21.58,20.75,22.27,21.51,22.08,-13.71,-13.0,3384.39,-1677.76,-1325.43,0.0,160.0,0.0,167.0,0.0,0.0,0.0,0.0,0.0,0.0,0.0,0.0,0.0,0.0,0.0,0.0,0.0,0.0
77.0,2160.0,0.0,0.0,-0.0,0.0,2160.0,0.0,23723.456941192413,0.0,23723.45694119241,0.0,0.0,0.3802771730914588,0.2772701205983773,0.6758798433015939,0.0,0.0,0.0,"[0.4227291237348183, 0.8865061531093552, 1.0028297398579973, 0.5111274947816185, 0.7694628591542454, 0.3948962096052142, 0.8849354812285242, 0.5960137848679352, 0.7479166700092854]",21.58,0.0,0.0,0.0,351.6457467384647,69.87448363248875,-2436.4317295642313,167.09943483834846,4140.099058365781,0.0,0.0,0.0,0.0,0.0,0.0,-13.4,21.656923155983918,0.0,21.471540698122464,0.0,-13.4,21.58,20.72,22.23,21.5,22.06,-14.12,-13.4,0.0,-1697.17,-1340.77,0.0,160.0,25.0,171.0,0.0,0.0,0.0,0.0,0.0,0.0,0.0,0.0,0.0,0.0,0.0,0.0,0.0,0.0
78.0,1207.0,8821.560143541043,0.0,-0.0,0.0,0.0,0.0,6813.407108541,0.0,0.0,0.0,0.0,0.3802771730914588,0.2772701205983773,0.6758798433015939,30281.809371293344,7570.452342823336,37852.26171411668,"[0.4227291237348183, 0.8865061531093552, 1.0028297398579973, 0.5111274947816185, 0.7694628591542454, 0.3948962096052142, 0.8849354812285242, 0.5960137848679352, 0.7479166700092854]",22.42,0.0,0.0,0.0,375.2610663295966,129.36689630652577,-2523.1873258689625,-1441.366848338664,1186.4478501544481,0.0,0.0,0.0,0.0,0.0,0.0,-13.8,21.90804348142068,0.0,21.49467482176224,0.0,-13.8,22.42,20.72,22.27,22.1,22.53,-14.52,-13.8,598.19,-1757.61,-1388.51,0.0,320.0,45.0,102.0,0.0,0.0,0.0,0.0,0.0,0.0,0.0,0.0,0.0,0.0,0.0,0.0,0.0,0.0
79.0,1301.0,0.0,0.0,-0.0,0.0,10062.134,0.0,38321.13791033063,43805.67,73365.67391033063,0.0,0.0,0.0,0.0,0.6758798433015939,35044.536,8761.134,43805.67,"[0.4227291237348183, 0.8865061531093552, 1.0028297398579973, 0.5111274947816185, 0.7694628591542454, 0.3948962096052142, 0.8849354812285242, 0.5960137848679352, 0.7479166700092854]",21.58,0.0,0.0,0.0,176.7201119555215,60.34185484336489,-2485.192029266524,168.8094752384894,2085.016932928648,0.0,0.0,0.0,0.0,0.0,0.0,-14.1,21.657910449078127,0.0,21.467105378259426,0.0,-14.1,21.58,20.69,22.24,21.46,22.04,-14.83,-14.1,1190.84,-1731.14,-1367.6,0.0,117.0,38.0,64.0,0.0,0.0,0.0,0.0,0.0,0.0,0.0,0.0,0.0,0.0,0.0,0.0,0.0,0.0
80.0,933.0,6693.550939481346,5727.08318478394,-0.0,0.0,0.0,0.0,6905.395722021177,0.0,0.0,0.0,6905.395722021177,0.0,0.015573366494360122,0.675879843301594,0.0,0.0,0.0,"[0.4227291237348183, 0.8865061531093552, 1.0028297398579973, 0.5111274947816185, 0.7694628591542454, 0.3948962096052142, 0.8849354812285242, 0.5960137848679352, 0.7479166700092854]",21.58,0.0,0.0,3.0693484109712306,197.75138441814042,32.87655803509714,-2492.157786366851,96.4666826022885,2165.0169819961634,0.0,0.0,0.0,0.0,0.0,0.0,-14.2,21.63119787337725,0.0,21.43089773953875,0.0,-14.2,21.58,20.66,22.2,21.5,22.06,-14.93,-14.2,1257.59,-1735.99,-1371.43,4.88,95.0,0.0,95.0,0.0,0.0,0.0,0.0,0.0,0.0,0.0,0.0,0.0,0.0,0.0,0.0,0.0,0.0
81.0,3497.0,0.0,0.0,-0.0,13990.86729525298,0.0,0.0,13565.193340135367,0.0,4120.712774407688,0.0,0.0,0.0,0.0,0.675879843301594,41975.46918101192,10493.86729525298,52469.33647626489,"[0.4227291237348183, 0.8865061531093552, 1.0028297398579973, 0.5111274947816185, 0.7694628591542454, 0.3948962096052142, 0.8849354812285242, 0.5960137848679352, 0.7479166700092854]",21.58,0.0,0.0,1073.9329935378894,148.94160532400778,39.79793867406495,-2331.945373059318,33.238728516692866,1011.6534421965813,0.0,0.0,0.0,0.0,0.0,0.0,-11.9,21.606250830432536,0.0,21.39680345055418,0.0,-11.9,21.58,20.63,22.17,21.48,22.04,-11.81,-11.9,365.13,-1624.39,-1283.27,1706.78,122.0,0.0,45.0,0.0,0.0,0.0,0.0,0.0,0.0,0.0,0.0,0.0,0.0,0.0,0.0,0.0,0.0
82.0,1909.0,2443.6043764394803,7277.084160631647,-20000.0,26754.697806074364,0.0,0.0,11688.03638786933,0.0,0.0,0.0,11688.036387869332,0.0,0.0,0.7281465099682607,0.0,0.0,0.0,"[0.4227291237348183, 0.8865061531093552, 1.0028297398579973, 0.5111274947816185, 0.7694628591542454, 0.3948962096052142, 0.8849354812285242, 0.5960137848679352, 0.7479166700092854]",21.58,0.0,0.0,1543.7222982654434,262.92679532618826,48.984498431240425,-2199.5959881530957,36.63088795240355,2557.2000822723476,0.0,0.0,0.0,0.0,0.0,0.0,-10.0,21.606397464864145,0.0,21.395102966926544,0.0,-10.0,21.58,20.62,22.17,21.64,22.19,-9.59,-10.0,0.0,-1532.2,-1210.44,2453.4,144.0,0.0,117.0,0.0,0.0,0.0,0.0,0.0,0.0,0.0,0.0,0.0,0.0,0.0,0.0,0.0,0.0
83.0,3098.0,0.0,0.0,-20000.0,32689.200485882946,0.0,0.0,8632.080437294648,0.0,0.0,0.0,0.0,0.0,0.0,0.7804131766349274,38364.801943531784,9591.200485882946,47956.00242941473,"[0.4227291237348183, 0.8865061531093552, 1.0028297398579973, 0.5111274947816185, 0.7694628591542454, 0.3948962096052142, 0.8849354812285242, 0.5960137848679352, 0.7479166700092854]",22.42,0.0,0.0,1838.7176812622022,45.005487488266446,1.0382070958451697,-2154.0021995516036,-1470.4389278164817,0.0,0.0,0.0,0.0,0.0,0.0,0.0,-8.5,21.89398751332105,0.0,21.465849040816174,0.0,-8.5,22.42,20.66,22.27,22.3,22.74,-7.91,-8.5,0.0,-1500.44,-1185.35,2922.23,0.0,0.0,33.0,0.0,0.0,0.0,0.0,0.0,0.0,0.0,0.0,0.0,0.0,0.0,0.0,0.0,0.0
84.0,9132.0,0.0,0.0,-487.1922869526188,36889.19255155311,-11551.020408163267,0.0,14147.081870793496,0.0,0.0,0.0,0.0,0.41925925925925933,0.0,0.7816863724781635,62875.9194257489,15718.979856437225,78594.89928218612,"[0.4227291237348183, 0.8865061531093552, 1.0028297398579973, 0.5111274947816185, 0.7694628591542454, 0.3948962096052142, 0.8849354812285242, 0.5960137848679352, 0.7479166700092854]",21.8,0.0,0.0,2046.9278012649836,594.3308395579685,56.62947795519124,-2040.7592024555956,-151.233904758147,0.0,0.0,0.0,0.0,0.0,0.0,0.0,-7.5,21.755369330667232,0.0,21.50589519150543,0.0,-7.5,21.8,20.69,22.32,21.87,22.44,-6.79,-7.5,0.0,-1421.56,-1123.03,3253.14,144.0,0.0,360.0,0.0,0.0,0.0,0.0,0.0,0.0,0.0,0.0,0.0,0.0,0.0,0.0,0.0,0.0
85.0,7973.0,0.0,0.0,-19534.253879181484,32532.03765767112,0.0,0.0,4522.305400640671,0.0,0.0,0.0,0.0,0.41925925925925933,0.0,0.8327358892824245,20099.135113958546,5024.7837784896365,25123.918892448182,"[0.4227291237348183, 0.8865061531093552, 1.0028297398579973, 0.5111274947816185, 0.7694628591542454, 0.3948962096052142, 0.8849354812285242, 0.5960137848679352, 0.7479166700092854]",22.0,0.0,0.0,1823.2566196325681,2802.1837736115376,162.9985140476921,-2034.1407959273486,-464.1692104089064,-1185.0893969800493,0.0,0.0,0.0,0.0,0.0,0.0,-7.2,21.844615949495488,0.0,21.54876379853934,0.0,-7.2,22.0,20.72,22.38,22.05,22.6,-6.61,-7.2,0.0,-1416.95,-1119.39,2897.66,330.0,0.0,1881.0,0.0,0.0,0.0,0.0,0.0,0.0,0.0,0.0,0.0,0.0,0.0,0.0,0.0,0.0
86.0,5428.0,2030.375670172493,0.0,-0.0,26769.13633506964,-16000.0,0.0,6625.224114202142,0.0,0.0,0.0,0.0,1.0,0.0,0.8327358892824245,29445.440507565087,7361.360126891272,36806.800634456355,"[0.4227291237348183, 0.8865061531093552, 1.0028297398579973, 0.5111274947816185, 0.7694628591542454, 0.3948962096052142, 0.8849354812285242, 0.5960137848679352, 0.7479166700092854]",22.42,0.0,0.0,1535.6598544759233,94.10238293001169,2.1707966549489948,-2098.2761427489836,-1175.0182831112957,1601.3311786950983,0.0,0.0,0.0,0.0,0.0,0.0,-7.7,22.00295868918541,0.0,21.60497717965277,0.0,-7.7,22.42,20.76,22.45,22.23,22.76,-7.31,-7.7,0.0,-1461.62,-1154.68,2440.59,0.0,0.0,69.0,0.0,0.0,0.0,0.0,0.0,0.0,0.0,0.0,0.0,0.0,0.0,0.0,0.0,0.0
87.0,4103.0,46588.112725213476,44572.76829749043,-0.0,1.747104877759015,2318.849031025266,0.0,17897.87373331259,0.0,-56241.91277487299,0.0,74139.78650818559,0.9123639821985916,0.20413731303472415,0.8327358892824245,0.0,0.0,0.0,"[0.4227291237348183, 0.8865061531093552, 1.0028297398579973, 0.5111274947816185, 0.7694628591542454, 0.3948962096052142, 0.8849354812285242, 0.5960137848679352, 0.7479166700092854]",22.42,0.0,0.0,21.54900085993842,567.3419028823891,13.08770157186642,-2216.694013454551,-1043.1912184477997,2658.577526035855,0.0,0.0,0.0,0.0,0.0,0.0,-9.4,22.053095228507047,0.0,21.669127700246705,0.0,-9.4,22.42,20.81,22.53,22.29,22.83,-10.06,-9.4,0.0,-1544.11,-1219.85,34.25,0.0,0.0,416.0,0.0,0.0,0.0,0.0,0.0,0.0,0.0,0.0,0.0,0.0,0.0,0.0,0.0,0.0
88.0,4606.0,0.0,0.0,-0.0,0.0,13047.55096897473,0.0,7597.395872077254,0.0,0.0,0.0,0.0,0.41925925925925933,0.20413731303472415,0.8327358892824245,33766.20387589892,8441.55096897473,42207.75484487365,"[0.4227291237348183, 0.8865061531093552, 1.0028297398579973, 0.5111274947816185, 0.7694628591542454, 0.3948962096052142, 0.8849354812285242, 0.5960137848679352, 0.7479166700092854]",22.42,0.0,0.0,0.0,2640.6808280794808,107.31286072508742,-2202.7624992538963,-1017.5570482607515,0.0,0.0,0.0,0.0,0.0,0.0,0.0,-9.2,22.062485214963743,0.0,21.682094785432433,0.0,-9.2,22.42,20.82,22.54,22.03,22.59,-9.87,-9.2,0.0,-1534.4,-1212.18,0.0,116.0,21.0,1873.0,0.0,0.0,0.0,0.0,0.0,0.0,0.0,0.0,0.0,0.0,0.0,0.0,0.0,0.0
89.0,3466.0,19563.819095477385,0.0,-0.0,0.0,-16000.0,0.0,33897.33561688522,0.0,33897.33561688522,0.0,0.0,1.0,0.07602946867763714,0.797633848466098,0.0,0.0,0.0,"[0.4227291237348183, 0.8865061531093552, 1.0028297398579973, 0.5111274947816185, 0.7694628591542454, 0.3948962096052142, 0.8849354812285242, 0.5960137848679352, 0.7479166700092854]",22.24,0.0,0.0,0.0,701.8559117388666,78.71497435771583,-2176.4001293799474,-724.0929202092346,2609.8092798257944,0.0,0.0,0.0,0.0,0.0,0.0,-9.0,21.992369232253914,0.0,21.656553309787906,0.0,-9.0,22.24,20.81,22.5,21.71,22.34,-9.63,-9.0,0.0,-1516.04,-1197.67,0.0,155.0,29.0,430.0,0.0,0.0,0.0,0.0,0.0,0.0,0.0,0.0,0.0,0.0,0.0,0.0,0.0,0.0
90.0,2532.0,0.0,4913.7132329298365,-0.0,0.0,7445.7132329298365,0.0,8454.252404192091,0.0,0.0,0.0,8454.252404192091,0.7186049420661438,0.07602946867763714,0.7927358892824246,0.0,0.0,0.0,"[0.4227291237348183, 0.8865061531093552, 1.0028297398579973, 0.5111274947816185, 0.7694628591542454, 0.3948962096052142, 0.8849354812285242, 0.5960137848679352, 0.7479166700092854]",22.42,0.0,0.0,0.0,538.0560354259096,129.74442615956036,-2174.899470852586,-1051.8364268119165,2005.4400466053055,0.0,0.0,0.0,0.0,0.0,0.0,-8.8,22.049577641123882,0.0,21.66853613610899,0.0,-8.8,22.42,20.82,22.51,22.03,22.58,-9.42,-8.8,0.0,-1515.0,-1196.85,0.0,286.0,57.0,238.0,0.0,0.0,0.0,0.0,0.0,0.0,0.0,0.0,0.0,0.0,0.0,0.0,0.0,0.0
91.0,2902.0,14063.563950976139,11091.246131221258,-0.0,0.0,0.0,0.0,19188.69649631426,0.0,0.0,0.0,19188.69649631426,0.7186049420661438,0.07602946867763714,0.7890624198946694,0.0,0.0,0.0,"[0.4227291237348183, 0.8865061531093552, 1.0028297398579973, 0.5111274947816185, 0.7694628591542454, 0.3948962096052142, 0.8849354812285242, 0.5960137848679352, 0.7479166700092854]",22.21,0.0,0.0,0.0,838.2361768548254,132.19837020428534,-2153.3569023861924,-638.1374638650876,113.59217612142308,0.0,0.0,0.0,0.0,0.0,0.0,-8.7,21.993173194633485,0.0,21.670631496170962,0.0,-8.7,22.21,20.83,22.51,21.91,22.48,-9.3,-8.7,870.92,-1499.99,-1184.99,0.0,288.0,48.0,458.0,0.0,0.0,0.0,0.0,0.0,0.0,0.0,0.0,0.0,0.0,0.0,0.0,0.0,0.0
92.0,3709.0,0.0,0.0,-0.0,0.0,3708.9999999999927,0.0,1294.295132516323,0.0,1294.295132516323,0.0,0.0,0.43825724743273486,0.0662464366858282,0.7555930321395674,0.0,0.0,0.0,"[0.4227291237348183, 0.7245959846837415, 0.7309416397507214, 0.4636529658599713, 0.7694628591542454, 0.39489620960521776, 0.8849354812285242, 0.5960137848679352, 0.7479166700092854]",21.58,0.0,0.0,0.0,752.9626216138996,133.70848961642375,-2095.1096316481826,503.0252676741131,718.0354994709943,0.0,0.0,0.0,0.0,0.0,0.0,-8.5,21.778659917264676,0.0,21.620470088382795,0.0,-8.5,21.58,20.8,22.44,21.43,22.09,-9.08,-8.5,0.0,-1459.42,-1152.94,0.0,260.0,69.0,408.0,0.0,0.0,0.0,0.0,0.0,0.0,0.0,0.0,0.0,0.0,0.0,0.0,0.0,0.0
93.0,4033.0,0.0,0.0,-0.0,0.0,4033.0,0.0,3409.7405430114964,0.0,3409.740543011497,0.0,0.0,0.2858385021568467,0.05336004007580743,0.7555930321395674,0.0,0.0,0.0,"[0.4227291237348183, 0.7245959846837415, 0.7309416397507214, 0.4636529658599713, 0.7694628591542454, 0.39489620960521776, 0.8849354812285242, 0.5960137848679352, 0.7479166700092854]",21.58,0.0,0.0,0.0,586.0044654772047,162.21199352053668,-2081.1781174475277,387.4996675674694,960.7750036177702,0.0,0.0,0.0,0.0,0.0,0.0,-8.3,21.735820399681824,0.0,21.568035709330275,0.0,-8.3,21.58,20.77,22.36,21.47,22.09,-8.87,-8.3,398.79,-1449.71,-1145.27,0.0,310.0,100.0,256.0,0.0,0.0,0.0,0.0,0.0,0.0,0.0,0.0,0.0,0.0,0.0,0.0,0.0,0.0
94.0,3725.0,0.0,3838.2867670701635,-0.0,0.0,7563.2867670701635,0.0,20979.143037876347,0.0,14119.066604058644,0.0,6860.076433817702,0.0,0.0,0.744164460710996,0.0,0.0,0.0,"[0.4227291237348183, 0.7245959846837415, 0.7309416397507214, 0.4636529658599713, 0.7694628591542454, 0.39489620960521776, 0.8849354812285242, 0.5960137848679352, 0.7479166700092854]",21.58,0.0,0.0,0.0,457.51989992059066,87.64984754620157,-2067.246603246873,290.61123178274505,2831.27378465206,0.0,0.0,0.0,0.0,0.0,0.0,-8.1,21.699874694204258,0.0,21.523898196805725,0.0,-8.1,21.58,20.75,22.3,21.48,22.07,-8.65,-8.1,298.12,-1440.01,-1137.6,0.0,168.0,48.0,242.0,0.0,0.0,0.0,0.0,0.0,0.0,0.0,0.0,0.0,0.0,0.0,0.0,0.0,0.0
95.0,2086.0,11903.554447864297,9758.036675624975,-0.0,0.0,0.0,0.0,17626.353950141154,0.0,0.0,0.0,17626.353950141158,0.0,0.0,0.7441644607109958,0.0,0.0,0.0,"[0.4227291237348183, 0.7245959846837415, 0.7309416397507214, 0.4636529658599713, 0.7694628591542454, 0.39489620960521776, 0.8849354812285242, 0.5960137848679352, 0.7479166700092854]",22.17,0.0,0.0,0.0,386.8174993210015,94.09931586887612,-2094.322175594891,-864.4073252863287,3180.852627132666,0.0,0.0,0.0,0.0,0.0,0.0,-7.9,21.861524985319697,0.0,21.52598879993502,0.0,-7.9,22.17,20.75,22.3,21.89,22.38,-8.44,-7.9,1765.61,-1458.87,-1152.5,0.0,282.0,2.0,135.0,0.0,0.0,0.0,0.0,0.0,0.0,0.0,0.0,0.0,0.0,0.0,0.0,0.0,0.0
96.0,1357.0,20891.97165099512,0.0,-0.0,0.0,-1238.1661922589317,0.0,16373.111040433088,0.0,0.0,0.0,0.0,0.04494084697828715,0.0,0.694776705608955,72769.38240192486,18192.345600481214,90961.72800240607,"[0.4227291237348183, 0.7245959846837415, 0.7309416397507214, 0.4636529658599713, 0.7694628591542454, 0.39489620960521776, 0.8849354812285242, 0.5960137848679352, 0.7479166700092854]",22.42,0.0,0.0,0.0,400.4555258325974,46.5934760286879,-2070.4131143476734,-1306.2111699979246,648.2830078579838,0.0,0.0,0.0,0.0,0.0,0.0,-7.3,21.954703703578286,0.0,21.555507658126352,0.0,-7.3,22.42,20.77,22.34,22.04,22.51,-7.85,-7.3,680.81,-1442.21,-1139.35,0.0,80.0,24.0,249.0,0.0,0.0,0.0,0.0,0.0,0.0,0.0,0.0,0.0,0.0,0.0,0.0,0.0,0.0
97.0,936.0,11988.335689349862,10992.394010903114,-0.0,0.0,0.0,0.0,21218.346011740367,0.0,0.0,0.0,21218.346011740367,0.04494084697828715,0.0,0.694776705608955,0.0,0.0,0.0,"[0.4227291237348183, 0.7245959846837415, 0.7309416397507214, 0.4636529658599713, 0.7694628591542454, 0.39489620960521776, 0.8849354812285242, 0.5960137848679352, 0.7479166700092854]",21.58,0.0,0.0,0.0,389.2579882757082,45.20919990089434,-1962.76024674196,288.40526387617774,1244.1555990531945,0.0,0.0,0.0,0.0,0.0,0.0,-6.6,21.69830612023558,0.0,21.523784238615534,0.0,-6.6,21.58,20.75,22.29,21.41,22.02,-7.15,-6.6,1880.73,-1367.22,-1080.11,0.0,80.0,22.0,241.0,0.0,0.0,0.0,0.0,0.0,0.0,0.0,0.0,0.0,0.0,0.0,0.0,0.0,0.0
98.0,733.0,48628.293275920776,31652.151809541174,-0.0,0.0,-16000.0,0.0,16956.092859322947,0.0,-46253.51987900494,0.0,63209.61273832789,0.6256815877190278,0.1678831462274994,0.694776705608955,0.0,0.0,0.0,"[0.4227291237348183, 0.7245959846837415, 0.7309416397507214, 0.4636529658599713, 0.7694628591542454, 0.39489620960521776, 0.8849354812285242, 0.5960137848679352, 0.7479166700092854]",21.58,0.0,0.0,0.0,200.6225478942659,28.47204308302671,-1913.9999470396672,201.78772516592048,1485.8054269642548,0.0,0.0,0.0,0.0,0.0,0.0,-5.9,21.665909188229254,0.0,21.48439558409826,0.0,-5.9,21.58,20.73,22.24,21.45,22.03,-6.43,-5.9,1098.24,-1333.26,-1053.27,0.0,80.0,0.0,105.0,0.0,0.0,0.0,0.0,0.0,0.0,0.0,0.0,0.0,0.0,0.0,0.0,0.0,0.0
99.0,459.0,0.0,14467.534811045476,-0.0,0.0,14926.534811045476,0.0,29443.482203335727,0.0,0.0,0.0,29443.48220333573,0.061564625850340136,0.1678831462274994,0.694776705608955,0.0,0.0,0.0,"[0.4227291237348183, 0.7245959846837415, 0.7309416397507214, 0.4636529658599713, 0.7694628591542454, 0.39489620960521776, 0.8849354812285242, 0.5960137848679352, 0.7479166700092854]",21.58,0.0,0.0,0.0,95.60974375497756,26.049559859387973,-1886.1369186383572,128.38565736713446,1638.5510683133596,0.0,0.0,0.0,0.0,0.0,0.0,-5.5,21.638555640322306,0.0,21.451317485045237,0.0,-5.5,21.58,20.72,22.19,21.46,22.01,-6.02,-5.5,1979.7,-1313.85,-1037.94,0.0,80.0,0.0,28.0,0.0,0.0,0.0,0.0,0.0,0.0,0.0,0.0,0.0,0.0,0.0,0.0,0.0,0.0
100.0,558.0,11229.800437296466,10615.651435109983,-0.0,0.0,0.0,0.0,22110.365352149514,0.0,0.0,0.0,22110.365352149514,0.061564625850340136,0.1678831462274994,0.694776705608955,0.0,0.0,0.0,"[0.4227291237348183, 0.7245959846837415, 0.7309416397507214, 0.4636529658599713, 0.7694628591542454, 0.39489620960521776, 0.8849354812285242, 0.5960137848679352, 0.7479166700092854]",21.58,0.0,0.0,0.0,244.33601181827592,58.39128393601942,-1851.3081331367198,65.82915955633524,3773.954643588604,0.0,0.0,0.0,0.0,0.0,0.0,-5.0,21.615160398965234,0.0,21.423080817109085,0.0,-5.0,21.58,20.7,22.15,21.46,21.99,-5.51,-5.0,1121.27,-1289.59,-1018.77,0.0,160.0,9.0,94.0,0.0,0.0,0.0,0.0,0.0,0.0,0.0,0.0,0.0,0.0,0.0,0.0,0.0,0.0
101.0,539.0,541.7085427135678,0.0,-0.0,0.0,0.0,0.0,21791.435593404225,0.0,21791.43559340422,0.0,0.0,0.061564625850340136,0.08552700263942599,0.6947767056089544,0.0,0.0,0.0,"[0.4227291237348183, 0.7245959846837415, 0.7309416397507214, 0.4636529658599713, 0.7694628591542454, 0.39489620960521776, 0.8849354812285242, 0.5960137848679352, 0.7479166700092854]",22.42,0.0,0.0,0.0,187.48697499099197,58.768813789054036,-1882.3376726388303,-1525.0495220236253,3166.6792545615863,0.0,0.0,0.0,0.0,0.0,0.0,-4.6,21.872347206712845,0.0,21.457683080249417,0.0,-4.6,22.42,20.73,22.19,22.05,22.45,-5.03,-4.6,1944.96,-1311.2,-1035.85,0.0,160.0,12.0,52.0,0.0,0.0,0.0,0.0,0.0,0.0,0.0,0.0,0.0,0.0,0.0,0.0,0.0,0.0
102.0,1629.0,0.0,0.0,-0.0,0.0,1629.0,0.0,22630.444898392114,0.0,22630.444898392114,0.0,0.0,0.0,0.0,0.6947767056089544,0.0,0.0,0.0,"[0.4227291237348183, 0.7245959846837415, 0.7309416397507214, 0.4636529658599713, 0.7694628591542454, 0.39489620960521776, 0.8849354812285242, 0.5960137848679352, 0.7479166700092854]",22.42,0.0,0.0,0.0,312.09546985483655,73.36663477305888,-1861.4404013378478,-1432.5941815473304,629.807622916822,0.0,0.0,0.0,0.0,0.0,0.0,-4.3,21.906402126327862,0.0,21.50152937909762,0.0,-4.3,22.42,20.76,22.24,22.01,22.44,-4.74,-4.3,624.79,-1296.65,-1024.35,0.0,222.0,0.0,112.0,0.0,0.0,0.0,0.0,0.0,0.0,0.0,0.0,0.0,0.0,0.0,0.0,0.0,0.0
103.0,816.0,10140.891626988265,9274.187168853323,-0.0,0.0,0.0,0.0,17845.43203223331,0.0,-2355.057334166081,0.0,20200.489366399393,0.0,0.008547985879565775,0.6947767056089544,0.0,0.0,0.0,"[0.4227291237348183, 0.7245959846837415, 0.7309416397507214, 0.4636529658599713, 0.7694628591542454, 0.39489620960521776, 0.8849354812285242, 0.5960137848679352, 0.7479166700092854]",21.58,0.0,0.0,0.0,231.77467161022707,89.06558449508134,-1781.6505621334445,181.00388934780128,3573.905074339106,0.0,0.0,0.0,0.0,0.0,0.0,-4.0,21.657223583594195,0.0,21.47959006363695,0.0,-4.0,21.58,20.75,22.21,21.41,21.97,-4.43,-4.0,1139.22,-1241.07,-980.44,0.0,262.0,10.0,31.0,0.0,0.0,0.0,0.0,0.0,0.0,0.0,0.0,0.0,0.0,0.0,0.0,0.0,0.0
104.0,936.0,40980.71686879005,0.0,-0.0,0.0,0.0,0.0,2261.7970637331036,0.0,-33594.03489226837,0.0,0.0,0.0,0.12193390442378889,0.6947767056089544,159359.2531377844,39839.8132844461,199199.06642223048,"[0.4227291237348183, 0.7245959846837415, 0.7309416397507178, 0.4636529658599713, 0.7694628591542418, 0.39489620960521776, 0.8849354812285242, 0.5960137848679352, 0.7479166700092854]",22.42,0.0,0.0,1.0027857512136156,307.21449194542333,103.82070958451729,-1819.6458587358827,-1418.4787209936862,550.1703658790877,0.0,0.0,0.0,0.0,0.0,0.0,-3.7,21.91130874103914,0.0,21.510979192397727,0.0,-3.7,22.42,20.78,22.24,22.07,22.48,-4.11,-3.7,1179.86,-1267.53,-1001.35,1.59,266.0,31.0,82.0,0.0,0.0,0.0,0.0,0.0,0.0,0.0,0.0,0.0,0.0,0.0,0.0,0.0,0.0
105.0,1389.0,1383.6186961234187,0.0,-0.0,12.299397357198357,0.0,0.0,22093.034390088433,0.0,22093.034390088433,0.0,0.0,0.0,0.038437931672131914,0.6947767056089544,0.0,0.0,0.0,"[0.4227291237348183, 0.7245959846837415, 0.7309416397507178, 0.4636529658599713, 0.7694628591542418, 0.39489620960521776, 0.8849354812285242, 0.5960137848679352, 0.7479166700092854]",21.58,0.0,0.0,29.57044340769639,141.8354757205973,3.271925392966604,-1656.266934327549,198.29406271168716,1938.9317034512678,0.0,0.0,0.0,0.0,0.0,0.0,-2.2,21.66268550421298,0.0,21.489881805391963,0.0,-2.2,21.58,20.77,22.21,21.42,21.97,-2.57,-2.2,1986.94,-1153.73,-911.44,47.0,0.0,0.0,104.0,0.0,0.0,0.0,0.0,0.0,0.0,0.0,0.0,0.0,0.0,0.0,0.0,0.0,0.0
106.0,2177.0,2146.0289981816886,0.0,-0.0,41.70114680921977,0.0,0.0,10170.676720446105,0.0,10170.676720446105,0.0,0.0,0.0,0.0,0.6947767056089544,0.0,0.0,0.0,"[0.4227291237348183, 0.7245959846837415, 0.7309416397507178, 0.4636529658599713, 0.7694628591542418, 0.39489620960521776, 0.8849354812285242, 0.5960137848679352, 0.7479166700092854]",21.82,0.0,0.0,37.225357446382574,257.32802654774355,36.33724835458105,-1603.514346960835,-308.91684272184546,3213.583705327807,0.0,0.0,0.0,0.0,0.0,0.0,-1.2,21.717367369740863,0.0,21.477977760001018,0.0,-1.2,21.82,20.77,22.18,21.63,22.12,-1.54,-1.2,1686.36,-1116.98,-882.41,59.16,102.0,0.0,135.0,0.0,0.0,0.0,0.0,0.0,0.0,0.0,0.0,0.0,0.0,0.0,0.0,0.0,0.0
107.0,4977.0,39994.56062356382,19299.963727975442,-0.0,482.37590752943805,-16000.0,0.0,17887.09402670892,0.0,-31694.644101472095,0.0,49581.738128181016,0.5807407407407407,0.11503981933126908,0.6947767056089544,0.0,0.0,0.0,"[0.4227291237348183, 0.7245959846837415, 0.7309416397507178, 0.4636529658599713, 0.7694628591542418, 0.39489620960521776, 0.8849354812285242, 0.5960137848679352, 0.7479166700092854]",22.42,0.0,0.0,70.42686411299205,1709.275396424384,76.98462919797387,-1554.9470889234367,-1420.7591937035256,1124.441614207583,0.0,0.0,0.0,0.0,0.0,0.0,0.1,21.90853086829297,0.0,21.514293641777932,0.0,0.1,22.42,20.81,22.22,22.04,22.44,-0.24,0.1,1621.97,-1083.15,-855.69,111.93,126.0,0.0,1187.0,0.0,0.0,0.0,0.0,0.0,0.0,0.0,0.0,0.0,0.0,0.0,0.0,0.0,0.0
108.0,2955.0,0.0,0.0,-0.0,1175.2267691331335,1779.7732308668665,0.0,2095.854173475756,0.0,2095.854173475756,0.0,0.0,0.5134779580171251,0.1071189796733864,0.6947767056089544,0.0,0.0,0.0,"[0.4227291237348183, 0.7245959846837415, 0.7309416397507178, 0.4636529658599713, 0.7694628591542418, 0.39489620960521776, 0.8849354812285242, 0.5960137848679352, 0.7479166700092854]",22.42,0.0,0.0,91.89415892928399,424.07084542372917,54.49014212132847,-1478.3237608198344,-1371.9258444521292,0.0,0.0,0.0,0.0,0.0,0.0,0.0,1.2,21.926073068156335,0.0,21.539422366437172,0.0,1.2,22.42,20.84,22.24,21.87,22.32,0.8,1.2,1150.73,-1029.77,-813.52,146.05,150.0,0.0,232.0,0.0,0.0,0.0,0.0,0.0,0.0,0.0,0.0,0.0,0.0,0.0,0.0,0.0,0.0
109.0,5022.0,8180.946118118009,4364.538658753325,-0.0,1246.4972712259064,0.0,0.0,12003.090752021748,0.0,0.0,0.0,12003.090752021748,0.5134779580171251,0.1071189796733864,0.6894705831599749,0.0,0.0,0.0,"[0.4227291237348183, 0.7245959846837415, 0.7309416397507178, 0.4636529658599713, 0.7694628591542418, 0.39489620960521776, 0.8849354812285242, 0.5960137848679352, 0.7479166700092854]",21.58,0.0,0.0,96.85379800653617,759.5662976089883,67.89245190405705,-1363.7865569232438,238.93794840195636,2486.938286936081,0.0,0.0,0.0,0.0,0.0,0.0,2.0,21.676806455602637,0.0,21.519010119193933,0.0,2.0,21.58,20.84,22.2,21.4,21.94,1.6,2.0,725.39,-949.99,-750.49,153.93,169.0,0.0,468.0,0.0,0.0,0.0,0.0,0.0,0.0,0.0,0.0,0.0,0.0,0.0,0.0,0.0,0.0
110.0,4442.0,3765.63850598088,3228.9913423931757,-0.0,331.55425980906904,3592.6267691331313,0.0,8972.525966594521,0.0,0.0,0.0,8972.52596659452,0.3777021919879063,0.1071189796733864,0.6894705831599746,0.0,0.0,0.0,"[0.4227291237348183, 0.7245959846837415, 0.7309416397507178, 0.4636529658599713, 0.7694628591542418, 0.39489620960521776, 0.8849354812285242, 0.5960137848679352, 0.7479166700092854]",22.42,0.0,0.0,73.19729345314404,393.27761714228365,58.54858804145049,-1401.7004327162317,-1370.510326366421,0.0,0.0,0.0,0.0,0.0,0.0,0.0,2.3,21.926064011189872,0.0,21.546887416340155,0.0,2.3,22.42,20.87,22.22,22.02,22.41,1.86,2.3,1554.05,-976.4,-771.35,116.33,166.0,0.0,201.0,0.0,0.0,0.0,0.0,0.0,0.0,0.0,0.0,0.0,0.0,0.0,0.0,0.0,0.0
111.0,1490.0,121402.46156871866,0.0,-0.0,0.14270568046892307,0.0,0.0,27375.032769899914,0.0,-80000.0,0.0,0.0,0.3777021919879063,0.39748935004375674,0.6894705831599746,477222.3678662221,119305.59196655553,596527.9598327776,"[0.4227291237348183, 0.7245959846837415, 0.7309416397507178, 0.4636529658599713, 0.7694628591542418, 0.39489620960521776, 0.8849354812285242, 0.5960137848679352, 0.7479166700092854]",21.59,0.0,0.0,17.52911704733192,142.98394111104747,41.15075398077229,-1385.5014843235156,218.80522947438624,3219.2543620831984,0.0,0.0,0.0,0.0,0.0,0.0,1.7,21.681289032332824,0.0,21.528114431627614,0.0,1.7,21.59,20.87,22.18,21.41,21.94,1.23,1.7,792.25,-965.12,-762.44,27.86,127.0,0.0,38.0,0.0,0.0,0.0,0.0,0.0,0.0,0.0,0.0,0.0,0.0,0.0,0.0,0.0,0.0
112.0,2982.0,0.0,0.0,-0.0,0.0,2982.0,0.0,7857.49545894763,0.0,7857.49545894763,0.0,0.0,0.2650037792894936,0.36779360000994105,0.5964093586701786,0.0,0.0,0.0,"[0.4227291237348183, 0.7245959846837415, 0.7309416397507178, 0.4636529658599713, 0.7694628591542418, 0.39489620960521776, 0.8849354812285242, 0.5960137848679352, 0.7479166700092854]",22.42,0.0,0.0,0.0,198.97162889549378,31.712507654907096,-1499.221032120817,-1356.383252275645,2627.913847775725,0.0,0.0,0.0,0.0,0.0,0.0,0.9,21.93201861242476,0.0,21.561133143861305,0.0,0.9,22.42,20.91,22.22,22.07,22.44,0.41,0.9,1691.49,-1044.33,-825.02,0.0,91.0,0.0,98.0,0.0,0.0,0.0,0.0,0.0,0.0,0.0,0.0,0.0,0.0,0.0,0.0,0.0,0.0
113.0,2489.0,0.0,0.0,-0.0,0.0,2489.0,0.0,3750.5446169520383,0.0,3750.5446169520383,0.0,0.0,0.17093726379440666,0.3536192061439092,0.5821236443844644,0.0,0.0,0.0,"[0.4227291237348183, 0.7245959846837415, 0.7309416397507178, 0.4636529658599713, 0.7694628591542418, 0.39489620960521776, 0.8849354812285242, 0.5960137848679352, 0.7479166700092854]",22.42,0.0,0.0,0.0,235.36362595538387,45.964259606963566,-1492.255275020489,-1276.4137130568752,205.98942908056324,0.0,0.0,0.0,0.0,0.0,0.0,1.0,21.96155604245729,0.0,21.600560929061334,0.0,1.0,22.42,20.94,22.26,22.03,22.42,0.49,1.0,0.0,-1039.48,-821.19,0.0,136.0,0.0,101.0,0.0,0.0,0.0,0.0,0.0,0.0,0.0,0.0,0.0,0.0,0.0,0.0,0.0,0.0
114.0,4523.0,0.0,0.0,-0.0,0.0,4523.0,0.0,3741.3068245568265,0.0,3741.3068245568265,0.0,0.0,0.0,0.33947972456962033,0.5821236443844644,0.0,0.0,0.0,"[0.4227291237348183, 0.7245959846837415, 0.7309416397507178, 0.4636529658599713, 0.7694628591542418, 0.39489620960521776, 0.8849354812285242, 0.5960137848679352, 0.7479166700092854]",21.58,0.0,0.0,0.0,152.745896929874,3.52361196165634,-1426.3969500167407,328.5972484475691,3227.5535823713776,0.0,0.0,0.0,0.0,0.0,0.0,1.1,21.709307751414066,0.0,21.575778383694843,0.0,1.1,21.58,20.94,22.22,21.44,21.95,0.59,1.1,0.0,-993.6,-784.95,0.0,0.0,0.0,112.0,0.0,0.0,0.0,0.0,0.0,0.0,0.0,0.0,0.0,0.0,0.0,0.0,0.0,0.0
115.0,3842.0,59118.544220009695,38980.95149890965,-0.0,0.0,-16000.0,0.0,24601.73809617895,0.0,-80000.0,0.0,104601.73809617896,0.5807407407407407,0.6298500949399907,0.5457971137722195,0.0,0.0,0.0,"[0.4227291237348183, 0.7245959846837415, 0.7309416397507178, 0.4636529658599713, 0.7694628591542418, 0.39489620960521776, 0.8849354812285242, 0.5960137848679352, 0.7479166700092854]",22.42,0.0,0.0,0.0,57.27971134870277,1.3213544856211261,-1471.3580037195068,-1281.8737045952985,2694.7553799775496,0.0,0.0,0.0,0.0,0.0,0.0,1.3,21.95939288455026,0.0,21.60291173252871,0.0,1.3,22.42,20.96,22.24,22.09,22.45,0.78,1.3,0.0,-1024.92,-809.69,0.0,0.0,0.0,42.0,0.0,0.0,0.0,0.0,0.0,0.0,0.0,0.0,0.0,0.0,0.0,0.0,0.0,0.0
116.0,4419.0,0.0,0.0,-0.0,0.0,4419.0,0.0,1814.0296388396414,0.0,1814.0296388396414,0.0,0.0,0.7745113368517973,0.6161386086297892,0.545797113772219,0.0,0.0,0.0,"[0.4227291237348183, 0.6428115246891899, 0.627238024479265, 0.4636529658599713, 0.7694628591542418, 0.39489620960521776, 0.8849354812285242, 0.5960137848679352, 0.7479166700092854]",22.42,0.0,0.0,0.0,94.10238293001169,2.1707966549489948,-1464.3922466191793,-1205.892726011842,288.5259625658847,0.0,0.0,0.0,0.0,0.0,0.0,1.4,21.987439379534212,0.0,21.640335746614124,0.0,1.4,22.42,21.0,22.29,22.05,22.44,0.89,1.4,0.0,-1020.07,-805.85,0.0,0.0,0.0,69.0,0.0,0.0,0.0,0.0,0.0,0.0,0.0,0.0,0.0,0.0,0.0,0.0,0.0,0.0
117.0,4414.0,9219.793755504865,1474.5887326561933,-0.0,0.0,-3285.1060540711487,0.0,3999.094090670669,0.0,0.0,0.0,3999.09409067067,0.8937485195551205,0.6161386086297892,0.545797113772219,0.0,0.0,0.0,"[0.4227291237348183, 0.6428115246891899, 0.627238024479265, 0.4636529658599713, 0.7694628591542418, 0.39489620960521776, 0.8849354812285242, 0.5960137848679352, 0.7479166700092854]",21.58,0.0,0.0,0.0,329.53778797229864,37.406916271512436,-1391.5681645151033,394.83489751353517,633.3198219009796,0.0,0.0,0.0,0.0,0.0,0.0,1.6,21.733558866315185,0.0,21.61337805011381,0.0,1.6,21.58,20.99,22.24,21.46,21.97,1.09,1.6,0.0,-969.34,-765.78,0.0,100.0,0.0,189.0,0.0,0.0,0.0,0.0,0.0,0.0,0.0,0.0,0.0,0.0,0.0,0.0,0.0,0.0
118.0,3117.0,0.0,0.0,-0.0,0.0,3117.0,0.0,17173.218896516097,0.0,17173.2188965161,0.0,0.0,0.7759480660403812,0.5512360428833186,0.5408991545885452,0.0,0.0,0.0,"[0.4227291237348183, 0.6428115246891899, 0.627238024479265, 0.4636529658599713, 0.7694628591542418, 0.39489620960521776, 0.8849354812285242, 0.5960137848679352, 0.7479166700092854]",21.58,0.0,0.0,0.0,331.18870697107076,51.15529508618943,-1384.6024074147758,309.02525658558267,2983.7530282409725,0.0,0.0,0.0,0.0,0.0,0.0,1.7,21.701775924007503,0.0,21.576025263170038,0.0,1.7,21.58,20.97,22.18,21.49,21.96,1.17,1.7,586.64,-964.49,-761.95,0.0,146.0,0.0,166.0,0.0,0.0,0.0,0.0,0.0,0.0,0.0,0.0,0.0,0.0,0.0,0.0,0.0,0.0
119.0,1503.0,0.0,12602.956079262252,-0.0,0.0,14105.956079262252,0.0,22651.257512224423,0.0,-11888.483666017315,0.0,34539.74117824174,0.24284314996848969,0.594386835448863,0.5188583382620146,0.0,0.0,0.0,"[0.4227291237348183, 0.6428115246891899, 0.627238024479265, 0.4636529658599713, 0.7694628591542418, 0.39489620960521776, 0.8849354812285242, 0.5960137848679352, 0.7479166700092854]",22.42,0.0,0.0,0.0,232.0617879578396,48.040673798653906,-1429.563461117542,-1299.4454241767094,2453.441522538352,0.0,0.0,0.0,0.0,0.0,0.0,1.9,21.95259575136319,0.0,21.603630119869685,0.0,1.9,22.42,21.0,22.21,22.09,22.42,1.37,1.9,0.0,-995.81,-786.69,0.0,130.0,7.0,101.0,0.0,0.0,0.0,0.0,0.0,0.0,0.0,0.0,0.0,0.0,0.0,0.0,0.0,0.0
120.0,1669.0,0.0,3669.629748166237,-0.0,0.0,5338.629748166237,0.0,9917.075681832637,0.0,0.0,0.0,9917.075681832639,0.04108087679516251,0.594386835448863,0.5188583382620146,0.0,0.0,0.0,"[0.4227291237348183, 0.6428115246891899, 0.627238024479265, 0.4636529658599713, 0.7694628591542418, 0.39489620960521776, 0.8849354812285242, 0.5960137848679352, 0.7479166700092854]",22.42,0.0,0.0,0.0,613.9983093694277,61.85197425550332,-1457.4264895188517,-1222.4478048546114,0.0,0.0,0.0,0.0,0.0,0.0,0.0,1.5,21.98129403739559,0.0,21.64146646839534,0.0,1.5,22.42,21.03,22.25,22.06,22.41,0.94,1.5,165.3,-1015.22,-802.02,0.0,160.0,0.0,366.0,0.0,0.0,0.0,0.0,0.0,0.0,0.0,0.0,0.0,0.0,0.0,0.0,0.0,0.0
121.0,998.0,1003.0150753768844,0.0,-0.0,0.0,0.0,0.0,14382.261513194037,0.0,14382.26151319404,0.0,0.0,0.04108087679516251,0.5400321056181976,0.5188583382620146,0.0,0.0,0.0,"[0.4227291237348183, 0.6428115246891899, 0.627238024479265, 0.4636529658599713, 0.7694628591542418, 0.39489620960521776, 0.8849354812285242, 0.5960137848679352, 0.7479166700092854]",21.68,0.0,0.0,0.0,253.95440946329623,53.546317488741934,-1426.5381079333981,185.0510488586463,2948.90408428195,0.0,0.0,0.0,0.0,0.0,0.0,1.2,21.758272326061913,0.0,21.61768196151941,0.0,1.2,21.68,21.02,22.21,21.5,21.98,0.62,1.2,0.0,-993.7,-785.02,0.0,160.0,0.0,102.0,0.0,0.0,0.0,0.0,0.0,0.0,0.0,0.0,0.0,0.0,0.0,0.0,0.0,0.0
122.0,626.0,0.0,0.0,-0.0,0.0,626.0,0.0,1729.0921213491888,0.0,1729.0921213491888,0.0,0.0,0.01742252456538171,0.533497365930559,0.5188583382620146,0.0,0.0,0.0,"[0.4227291237348183, 0.6428115246891899, 0.627238024479265, 0.4636529658599713, 0.7694628591542418, 0.39489620960521776, 0.8849354812285242, 0.5960137848679352, 0.7479166700092854]",22.42,0.0,0.0,0.0,258.045817416775,53.6406999520006,-1506.1867892211442,-1225.1464842689297,139.01974814601152,0.0,0.0,0.0,0.0,0.0,0.0,0.8,21.98065724055543,0.0,21.644002960799774,0.0,0.8,22.42,21.04,22.24,22.11,22.44,0.21,0.8,773.49,-1049.18,-828.85,0.0,160.0,0.0,105.0,0.0,0.0,0.0,0.0,0.0,0.0,0.0,0.0,0.0,0.0,0.0,0.0,0.0,0.0
123.0,545.0,6758.768192496599,6179.974351534116,-0.0,0.0,0.0,0.0,16229.889708051654,0.0,0.0,0.0,16229.889708051654,0.01742252456538171,0.533497365930559,0.5188583382620146,0.0,0.0,0.0,"[0.4227291237348183, 0.6428115246891899, 0.627238024479265, 0.4636529658599713, 0.7694628591542418, 0.39489620960521776, 0.8849354812285242, 0.5960137848679352, 0.7479166700092854]",21.58,0.0,0.0,0.0,165.30723713792287,51.501364118137815,-1454.2599784180509,377.7660734149068,864.5470961923792,0.0,0.0,0.0,0.0,0.0,0.0,0.7,21.72773380777177,0.0,21.616955068869316,0.0,0.7,21.58,21.03,22.2,21.47,21.95,0.11,0.7,878.86,-1013.01,-800.28,0.0,160.0,0.0,37.0,0.0,0.0,0.0,0.0,0.0,0.0,0.0,0.0,0.0,0.0,0.0,0.0,0.0,0.0
124.0,461.0,0.0,0.0,-0.0,0.0,461.0,0.0,18013.331038224147,0.0,18013.331038224147,0.0,0.0,0.0,0.46541977319350625,0.5188583382620146,0.0,0.0,0.0,"[0.4227291237348183, 0.6428115246891899, 0.627238024479265, 0.4636529658599713, 0.7694628591542418, 0.39489620960521776, 0.8849354812285242, 0.5960137848679352, 0.7479166700092854]",21.58,0.0,0.0,0.0,143.19927837175683,3.3033862140528196,-1468.191492618706,300.51762976889245,3307.173798374898,0.0,0.0,0.0,0.0,0.0,0.0,0.5,21.69925060447282,0.0,21.582371916505714,0.0,0.5,21.58,21.01,22.15,21.53,21.97,-0.07,0.5,977.42,-1022.72,-807.94,0.0,0.0,0.0,105.0,0.0,0.0,0.0,0.0,0.0,0.0,0.0,0.0,0.0,0.0,0.0,0.0,0.0,0.0
125.0,660.0,16743.718592964826,0.0,-0.0,0.0,-16000.0,0.0,7570.669616395911,0.0,7570.669616395912,0.0,0.0,0.5807407407407407,0.43680802105293215,0.5188583382620146,0.0,0.0,0.0,"[0.4227291237348183, 0.6428115246891899, 0.627238024479265, 0.4636529658599713, 0.7694628591542418, 0.39489620960521776, 0.8849354812285242, 0.5960137848679352, 0.7479166700092854]",22.42,0.0,0.0,0.0,50.4606980929048,1.1640503801900404,-1541.015574722782,-1303.8779243109814,507.6878819874816,0.0,0.0,0.0,0.0,0.0,0.0,0.3,21.95177971965803,0.0,21.610708320087305,0.0,0.3,22.42,21.03,22.19,22.12,22.42,-0.27,0.3,1004.27,-1073.44,-848.02,0.0,0.0,0.0,37.0,0.0,0.0,0.0,0.0,0.0,0.0,0.0,0.0,0.0,0.0,0.0,0.0,0.0,0.0
126.0,672.0,0.0,0.0,-0.0,0.0,672.0,0.0,24656.789570860223,0.0,24656.78957086022,0.0,0.0,0.5553439153439153,0.34362287528248536,0.5188583382620146,0.0,0.0,0.0,"[0.4227291237348183, 0.6428115246891899, 0.627238024479265, 0.4636529658599713, 0.7694628591542418, 0.39489620960521776, 0.8849354812285242, 0.5960137848679352, 0.7479166700092854]",21.58,0.0,0.0,0.0,143.19927837175683,3.3033862140528196,-1489.0887639196887,310.19133169919445,2348.4126752791144,0.0,0.0,0.0,0.0,0.0,0.0,0.2,21.702972379263315,0.0,21.588060656616676,0.0,0.2,21.58,21.02,22.16,21.48,21.93,-0.36,0.2,175.99,-1037.27,-819.44,0.0,0.0,0.0,105.0,0.0,0.0,0.0,0.0,0.0,0.0,0.0,0.0,0.0,0.0,0.0,0.0,0.0,0.0
127.0,793.0,0.0,307.15550649658,-0.0,0.0,1100.15550649658,0.0,789.0845859812287,0.0,0.0,0.0,789.0845859812288,0.513765853873901,0.34362287528248536,0.5188583382620146,0.0,0.0,0.0,"[0.4227291237348183, 0.6428115246891899, 0.627238024479265, 0.4636529658599713, 0.7694628591542418, 0.39489620960521776, 0.8849354812285242, 0.5960137848679352, 0.7479166700092854]",22.06,0.0,0.0,0.0,70.91773786029864,1.635962696483302,-1529.954692551704,-644.4122511709876,786.26161616528,0.0,0.0,0.0,0.0,0.0,0.0,0.1,21.836843011541113,0.0,21.59005402434007,0.0,0.1,22.06,21.02,22.16,21.86,22.22,-0.48,0.1,969.89,-1065.74,-841.93,0.0,0.0,0.0,52.0,0.0,0.0,0.0,0.0,0.0,0.0,0.0,0.0,0.0,0.0,0.0,0.0,0.0,0.0
128.0,854.0,858.2914572864322,0.0,-0.0,0.0,0.0,0.0,4498.428255677045,0.0,4498.428255677045,0.0,0.0,0.0,0.42953218717757646,0.5188583382620146,0.0,0.0,0.0,"[0.4227291237348183, 0.6428115246891934, 0.627238024479265, 0.46365296585996774, 0.7694628591542418, 0.3948962096052142, 0.6493676013956602, 0.5960137848679352, 0.7479166700092854]",21.58,0.0,0.0,2.022467701417405,122.74223860436305,2.831473897759562,-1489.0887639196887,257.55790780403,1104.1489807744053,0.0,0.0,0.0,0.0,0.0,0.0,0.2,21.68349213867902,0.0,21.56429740337894,0.0,0.2,21.58,21.01,22.12,21.49,21.93,-0.34,0.2,988.65,-1037.27,-819.44,3.21,0.0,0.0,90.0,0.0,0.0,0.0,0.0,0.0,0.0,0.0,0.0,0.0,0.0,0.0,0.0,0.0,0.0
129.0,974.0,0.0,0.0,-6189.533385909383,7163.533385909383,0.0,0.0,1563.68837455314,0.0,1563.6883745531404,0.0,0.0,0.0,0.4236225561324021,0.5350336521771911,0.0,0.0,0.0,"[0.4227291237348183, 0.6428115246891934, 0.627238024479265, 0.46365296585996774, 0.7694628591542418, 0.3948962096052142, 0.6493676013956602, 0.5960137848679352, 0.7479166700092854]",21.58,0.0,0.0,562.5404423515445,70.91773786029864,1.635962696483302,-1307.979079311173,195.7411177393802,462.5593843094475,0.0,0.0,0.0,0.0,0.0,0.0,2.8,21.659148056522035,0.0,21.534041260883285,0.0,2.8,21.58,20.99,22.08,21.51,21.93,2.62,2.8,321.23,-911.11,-719.78,894.03,0.0,0.0,52.0,0.0,0.0,0.0,0.0,0.0,0.0,0.0,0.0,0.0,0.0,0.0,0.0,0.0,0.0
130.0,2471.0,0.0,3648.491722393265,-13133.652643027723,19253.144365420987,0.0,0.0,11181.674003966335,0.0,0.0,0.0,11181.674003966336,0.0,0.4236225561324021,0.5693562644176369,0.0,0.0,0.0,"[0.4227291237348183, 0.6428115246891934, 0.627238024479265, 0.46365296585996774, 0.7694628591542418, 0.3948962096052142, 0.6493676013956602, 0.5960137848679352, 0.7479166700092854]",21.58,0.0,0.0,1072.508084065674,122.74223860436305,2.831473897759562,-1133.8351518029851,173.18268967356855,0.0,0.0,0.0,0.0,0.0,0.0,0.0,5.3,21.64941139365376,0.0,21.523052391150113,0.0,5.3,21.58,20.99,22.06,21.59,21.99,5.41,5.3,0.0,-789.81,-623.95,1704.51,0.0,0.0,90.0,0.0,0.0,0.0,0.0,0.0,0.0,0.0,0.0,0.0,0.0,0.0,0.0,0.0,0.0
131.0,3177.0,0.0,16327.418722157678,-0.0,19504.418722157676,0.0,0.0,5493.181591691986,0.0,-46880.90584782014,0.0,52374.08743951213,0.0,0.593782881061527,0.5693562644176369,0.0,0.0,0.0,"[0.4227291237348183, 0.6428115246891934, 0.627238024479265, 0.46365296585996774, 0.7694628591542418, 0.3948962096052142, 0.6493676013956602, 0.5960137848679352, 0.7479166700092854]",21.68,0.0,0.0,947.504686997686,995.5759353465003,22.966399392938673,-1036.183482216771,0.8438097250413562,1067.0639700636416,0.0,0.0,0.0,0.0,0.0,0.0,6.8,21.683127485729155,0.0,21.533966322355397,0.0,6.8,21.68,21.0,22.07,21.72,22.1,6.82,6.8,0.0,-721.79,-570.21,1505.85,0.0,0.0,730.0,0.0,0.0,0.0,0.0,0.0,0.0,0.0,0.0,0.0,0.0,0.0,0.0,0.0,0.0
132.0,5678.0,0.0,2083.115527548054,-0.0,19356.722378058577,-11595.606850510523,0.0,6880.679392901406,0.0,0.0,0.0,6880.679392901406,0.42087758198149305,0.593782881061527,0.5693562644176369,0.0,0.0,0.0,"[0.4227291237348183, 0.6428115246891934, 0.627238024479265, 0.46365296585996774, 0.7694628591542418, 0.3948962096052142, 0.6493676013956602, 0.5960137848679352, 0.7479166700092854]",22.42,0.0,0.0,904.2833289845254,3491.9807987506765,131.2230847506126,-1018.5837921982179,-1362.4811539444368,-2157.7273691295395,0.0,0.0,0.0,0.0,0.0,0.0,7.8,21.926068170400473,0.0,21.586023085327696,0.0,7.8,22.42,21.05,22.13,22.14,22.44,7.8,7.8,0.0,-709.53,-560.53,1437.16,170.0,0.0,2471.0,0.0,0.0,0.0,0.0,0.0,0.0,0.0,0.0,0.0,0.0,0.0,0.0,0.0,0.0
133.0,3323.0,0.0,1994.9895532864273,-0.0,18161.691404849546,-12843.701851563119,0.0,6665.6683953176835,0.0,0.0,0.0,6665.6683953176835,0.8870563899271173,0.593782881061527,0.5693562644176369,0.0,0.0,0.0,"[0.4227291237348183, 0.6428115246891934, 0.627238024479265, 0.46365296585996774, 0.7694628591542418, 0.3948962096052142, 0.6493676013956602, 0.5960137848679352, 0.7479166700092854]",22.42,0.0,0.0,866.3484740428687,532.0983712129494,59.36656938969216,-990.720763796908,-1249.0084342459759,764.82125093936,0.0,0.0,0.0,0.0,0.0,0.0,8.2,21.967836763694734,0.0,21.641697595202203,0.0,8.2,22.42,21.1,22.19,22.09,22.42,8.21,8.2,0.0,-690.12,-545.19,1376.87,158.0,0.0,307.0,0.0,0.0,0.0,0.0,0.0,0.0,0.0,0.0,0.0,0.0,0.0,0.0,0.0,0.0
134.0,1030.0,0.0,4317.934195474705,-10731.965083981664,16079.89927945637,0.0,0.0,10849.67015599944,0.0,-3577.4317064757834,0.0,14427.101862475225,0.8870563899271173,0.606767633181328,0.5974024665037756,0.0,0.0,0.0,"[0.4227291237348183, 0.6428115246891934, 0.627238024479265, 0.46365296585996774, 0.7694628591542418, 0.3948962096052142, 0.6493676013956602, 0.5960137848679352, 0.7479166700092854]",22.42,0.0,0.0,795.1534233159293,243.54644186234145,51.81597232899999,-990.720763796908,-1131.097039195591,0.0,0.0,0.0,0.0,0.0,0.0,0.0,8.2,22.011506260565596,0.0,21.70006848759987,0.0,8.2,22.42,21.15,22.25,22.17,22.49,8.1,8.2,0.0,-690.12,-545.19,1263.72,155.0,0.0,97.0,0.0,0.0,0.0,0.0,0.0,0.0,0.0,0.0,0.0,0.0,0.0,0.0,0.0,0.0
135.0,1698.0,0.0,1741.0452707620757,-6009.009943016197,9448.055213778272,0.0,0.0,5651.209386036294,0.0,0.0,0.0,5651.209386036295,0.8870563899271173,0.606767633181328,0.612289685957579,0.0,0.0,0.0,"[0.4227291237348183, 0.6428115246891934, 0.627238024479265, 0.46365296585996774, 0.7694628591542418, 0.3948962096052142, 0.6493676013956602, 0.5960137848679352, 0.7479166700092854]",22.05,0.0,0.0,776.3949898711561,654.697051643506,61.00253208617545,-1034.216809051694,-341.31379499904676,884.2127631185325,0.0,0.0,0.0,0.0,0.0,0.0,7.2,21.928388960028936,0.0,21.727933612502845,0.0,7.2,22.05,21.18,22.27,21.93,22.31,7.08,7.2,0.0,-720.42,-569.13,1233.91,154.0,0.0,399.0,0.0,0.0,0.0,0.0,0.0,0.0,0.0,0.0,0.0,0.0,0.0,0.0,0.0,0.0
136.0,2468.0,28014.9054493153,13008.678999540254,-0.0,0.0,-3622.087922528477,0.0,5384.0254161116145,43880.32,0.0,0.0,40488.28141611161,1.0,0.606767633181328,0.612289685957579,35104.256,8776.064,43880.32,"[0.4227291237348183, 0.6428115246891934, 0.627238024479265, 0.46365296585996774, 0.7694628591542418, 0.3948962096052142, 0.6493676013956602, 0.5960137848679352, 0.7479166700092854]",22.42,0.0,0.0,0.0,517.7425538323221,73.20933066762777,-1157.8989342047682,-1000.7650347305618,1260.793027982423,0.0,0.0,0.0,0.0,0.0,0.0,5.8,22.06118838412359,0.0,21.769331884855376,0.0,5.8,22.42,21.22,22.32,22.2,22.52,5.15,5.8,0.0,-806.57,-637.19,0.0,130.0,40.0,307.0,0.0,0.0,0.0,0.0,0.0,0.0,0.0,0.0,0.0,0.0,0.0,0.0,0.0,0.0
137.0,4458.0,8086.053437080359,3587.623169894957,-0.0,0.0,0.0,0.0,11029.329704422951,0.0,0.0,0.0,11029.329704422951,1.0,0.606767633181328,0.5984121349371708,0.0,0.0,0.0,"[0.4227291237348183, 0.6428115246891934, 0.627238024479265, 0.46365296585996774, 0.7694628591542418, 0.3948962096052142, 0.6493676013956602, 0.5960137848679352, 0.7479166700092854]",22.31,0.0,0.0,0.0,845.5576437189454,103.82070958451729,-1177.6758902093643,-743.7158552740011,0.0,0.0,0.0,0.0,0.0,0.0,0.0,5.4,22.040329247516862,0.0,21.785476429316933,0.0,5.4,22.31,21.24,22.33,22.0,22.36,4.74,5.4,0.0,-820.35,-648.07,0.0,162.0,64.0,528.0,0.0,0.0,0.0,0.0,0.0,0.0,0.0,0.0,0.0,0.0,0.0,0.0,0.0,0.0
138.0,6126.0,0.0,761.5572779219552,-0.0,0.0,6887.557277921956,0.0,2312.193631299036,0.0,0.0,0.0,2312.193631299036,0.7396992714315209,0.606767633181328,0.5898407063657423,0.0,0.0,0.0,"[0.4227291237348183, 0.6428115246891934, 0.627238024479265, 0.46365296585996774, 0.7694628591542418, 0.3948962096052142, 0.6493676013956602, 0.5960137848679352, 0.7479166700092854]",21.94,0.0,0.0,0.0,1951.099140201051,125.780362702697,-1180.2417260586342,-69.90722643446217,480.78757463390514,0.0,0.0,0.0,0.0,0.0,0.0,5.0,21.926405257118432,0.0,21.76914103418393,0.0,5.0,21.94,21.24,22.3,21.73,22.14,4.37,5.0,0.0,-822.13,-649.49,0.0,101.0,90.0,1368.0,0.0,0.0,0.0,0.0,0.0,0.0,0.0,0.0,0.0,0.0,0.0,0.0,0.0,0.0
139.0,10090.0,0.0,943.0416463994651,-0.0,0.0,11033.041646399464,0.0,2827.2441498116905,0.0,0.0,0.0,2827.2441498116905,0.32272868766736884,0.606767633181328,0.5898407063657423,0.0,0.0,0.0,"[0.4227291237348183, 0.6428115246891934, 0.627238024479265, 0.46365296585996774, 0.7694628591542418, 0.3948962096052142, 0.6493676013956602, 0.5960137848679352, 0.7479166700092854]",22.42,0.0,0.0,0.0,619.381740887163,132.48151759406133,-1241.4880194086986,-1015.5214206985289,0.0,0.0,0.0,0.0,0.0,0.0,0.0,4.6,22.05630432552257,0.0,21.770270636974466,0.0,4.6,22.42,21.25,22.29,21.99,22.33,4.0,4.6,242.81,-864.8,-683.19,0.0,202.0,103.0,337.0,0.0,0.0,0.0,0.0,0.0,0.0,0.0,0.0,0.0,0.0,0.0,0.0,0.0,0.0
140.0,5147.0,5172.86432160804,0.0,-0.0,0.0,0.0,0.0,2858.7107970901825,0.0,2858.7107970901825,0.0,0.0,0.32272868766736884,0.5959637375007151,0.5702488696310484,0.0,0.0,0.0,"[0.3301666781764965, 0.37627480708652783, 0.627238024479265, 0.46365296585996774, 0.21893982939427659, 0.2639825707131074, 0.6493676013956566, 0.5960137848679352, 0.4052874988319175]",21.86,0.0,0.0,0.0,520.9726127429632,153.5917285429131,-1230.2475695331784,52.38627837324589,0.0,0.0,0.0,0.0,0.0,0.0,0.0,4.2,21.889853082545788,0.0,21.754920956163744,0.0,4.2,21.86,21.25,22.26,21.7,22.1,3.63,4.2,0.0,-856.97,-677.0,0.0,288.0,99.0,220.0,0.0,0.0,0.0,0.0,0.0,0.0,0.0,0.0,0.0,0.0,0.0,0.0,0.0,0.0
141.0,6175.0,0.0,0.0,-0.0,0.0,6175.0,0.0,514.0386747817843,0.0,514.0386747817843,0.0,0.0,0.08935756143909976,0.5940210365378209,0.5702488696310484,0.0,0.0,0.0,"[0.3301666781764965, 0.37627480708652783, 0.627238024479265, 0.46365296585996774, 0.21893982939427659, 0.2639825707131074, 0.6493676013956566, 0.5960137848679352, 0.4052874988319175]",21.67,0.0,0.0,0.0,494.6296878495121,134.93546163878625,-1244.7691834316136,354.1974077400058,273.7447006064138,0.0,0.0,0.0,0.0,0.0,0.0,3.8,21.810052547054994,0.0,21.72163496073315,0.0,3.8,21.67,21.23,22.21,21.62,22.01,3.25,3.8,0.0,-867.08,-685.0,0.0,218.0,104.0,237.0,0.0,0.0,0.0,0.0,0.0,0.0,0.0,0.0,0.0,0.0,0.0,0.0,0.0,0.0
142.0,4716.0,3453.661362093604,1084.7941309617156,-0.0,0.0,2364.4010756785797,0.0,3128.1187899496194,0.0,0.0,0.0,3128.118789949619,0.0,0.5940210365378209,0.5702488696310484,0.0,0.0,0.0,"[0.3301666781764965, 0.37627480708652783, 0.627238024479265, 0.46365296585996774, 0.21893982939427659, 0.2639825707131074, 0.6493676013956566, 0.5960137848679352, 0.4052874988319175]",21.67,0.0,0.0,0.0,1528.8945510368028,103.82070958451729,-1272.6322118329238,280.8622434885349,0.0,0.0,0.0,0.0,0.0,0.0,0.0,3.4,21.78312809836741,0.0,21.688718607233042,0.0,3.4,21.67,21.21,22.17,21.62,21.99,2.85,3.4,0.0,-886.49,-700.33,0.0,162.0,36.0,1032.0,0.0,0.0,0.0,0.0,0.0,0.0,0.0,0.0,0.0,0.0,0.0,0.0,0.0,0.0
143.0,3103.0,23363.440055022485,4143.622854747375,-0.0,0.0,-16000.0,0.0,11790.565726546422,0.0,0.0,0.0,11790.565726546423,0.5807407407407407,0.5940210365378209,0.5702488696310484,0.0,0.0,0.0,"[0.3301666781764965, 0.37627480708652783, 0.627238024479265, 0.46365296585996774, 0.21893982939427659, 0.2639825707131074, 0.6493676013956566, 0.5960137848679352, 0.4052874988319175]",21.9,0.0,0.0,0.0,895.3723300297219,83.24533259413111,-1316.7571599921714,-239.05667543995105,1739.116989050722,0.0,0.0,0.0,0.0,0.0,0.0,3.0,21.82458789054608,0.0,21.661236915876074,0.0,3.0,21.9,21.19,22.13,21.67,22.02,2.45,3.0,0.0,-917.23,-724.61,0.0,210.0,0.0,546.0,0.0,0.0,0.0,0.0,0.0,0.0,0.0,0.0,0.0,0.0,0.0,0.0,0.0,0.0
144.0,2068.0,0.0,2667.9629716789664,-0.0,0.0,4735.962971678966,0.0,7464.443260835583,0.0,0.0,0.0,7464.443260835584,0.4017549897324653,0.5940210365378209,0.5702488696310484,0.0,0.0,0.0,"[0.3301666781764965, 0.37627480708652783, 0.627238024479265, 0.46365296585996774, 0.21893982939427659, 0.2639825707131074, 0.6493676013956566, 0.5960137848679352, 0.4052874988319175]",22.33,0.0,0.0,0.0,536.5486746009437,61.19129701269276,-1381.321243391861,-1044.0455528682826,48.1965158741138,0.0,0.0,0.0,0.0,0.0,0.0,2.5,21.95415476965667,0.0,21.677566359271502,0.0,2.5,22.33,21.2,22.15,22.02,22.29,1.98,2.5,0.0,-962.2,-760.14,0.0,160.0,2.0,309.0,0.0,0.0,0.0,0.0,0.0,0.0,0.0,0.0,0.0,0.0,0.0,0.0,0.0,0.0
145.0,1463.0,1470.3517587939698,0.0,-0.0,0.0,0.0,0.0,12282.045556291525,0.0,12282.045556291525,0.0,0.0,0.4017549897324653,0.5476036308073162,0.5702488696310484,0.0,0.0,0.0,"[0.3301666781764965, 0.37627480708652783, 0.627238024479265, 0.46365296585996774, 0.21893982939427659, 0.2639825707131074, 0.6493676013956566, 0.5960137848679352, 0.4052874988319175]",21.67,0.0,0.0,0.0,734.0129426714716,64.62052651109046,-1363.1870541371813,206.11099558479194,2149.7496898274626,0.0,0.0,0.0,0.0,0.0,0.0,2.1,21.756095164444265,0.0,21.654388841040543,0.0,2.1,21.67,21.19,22.12,21.56,21.93,1.62,2.1,213.35,-949.57,-750.16,0.0,160.0,0.0,454.0,0.0,0.0,0.0,0.0,0.0,0.0,0.0,0.0,0.0,0.0,0.0,0.0,0.0,0.0
146.0,1323.0,2023.873475175766,0.0,-0.0,0.0,-690.7541077998873,0.0,13542.607647028814,0.0,13542.607647028817,0.0,0.0,0.4268268054970538,0.49642219601128895,0.5702488696310484,0.0,0.0,0.0,"[0.3301666781764965, 0.37627480708652783, 0.627238024479265, 0.46365296585996774, 0.21893982939427659, 0.2639825707131074, 0.6493676013956566, 0.5960137848679352, 0.4052874988319175]",22.33,0.0,0.0,0.0,680.8246392762477,63.39355448872797,-1444.0130572948085,-1060.6656083144476,1766.4449017632014,0.0,0.0,0.0,0.0,0.0,0.0,1.6,21.94842244603333,0.0,21.669280985920906,0.0,1.6,22.33,21.19,22.15,22.05,22.31,1.15,1.6,632.46,-1005.87,-794.64,0.0,160.0,0.0,415.0,0.0,0.0,0.0,0.0,0.0,0.0,0.0,0.0,0.0,0.0,0.0,0.0,0.0,0.0
147.0,952.0,956.78391959799,0.0,-0.0,0.0,0.0,0.0,11168.399163066704,0.0,11168.399163066706,0.0,0.0,0.4268268054970538,0.4542135823942568,0.5702488696310484,0.0,0.0,0.0,"[0.3301666781764965, 0.37627480708652783, 0.627238024479265, 0.46365296585996774, 0.21893982939427659, 0.2639825707131074, 0.6493676013956566, 0.5960137848679352, 0.4052874988319175]",22.33,0.0,0.0,0.0,384.8794639746167,56.566556313018815,-1457.9445714954638,-1010.0926328338089,2031.93113689237,0.0,0.0,0.0,0.0,0.0,0.0,1.4,21.967234899827826,0.0,21.691929452183892,0.0,1.4,22.33,21.2,22.18,22.02,22.3,0.94,1.4,899.22,-1015.58,-802.31,0.0,160.0,0.0,198.0,0.0,0.0,0.0,0.0,0.0,0.0,0.0,0.0,0.0,0.0,0.0,0.0,0.0,0.0
148.0,677.0,680.4020100502513,0.0,-0.0,0.0,0.0,0.0,5843.074379351669,0.0,5843.07437935167,0.0,0.0,0.4268268054970538,0.43213091278219457,0.5702488696310484,0.0,0.0,0.0,"[0.3301666781764965, 0.37627480708652783, 0.627238024479265, 0.46365296585996774, 0.21893982939427659, 0.2639825707131074, 0.6493676013956566, 0.5960137848679352, 0.4052874988319175]",22.33,0.0,0.0,0.0,226.6783564401044,52.917101067017605,-1471.8760856961187,-957.0471132724986,369.1163383622189,0.0,0.0,0.0,0.0,0.0,0.0,1.2,21.986936388003674,0.0,21.715809450933314,0.0,1.2,22.33,21.22,22.22,22.05,22.34,0.77,1.2,297.84,-1025.28,-809.97,0.0,160.0,0.0,82.0,0.0,0.0,0.0,0.0,0.0,0.0,0.0,0.0,0.0,0.0,0.0,0.0,0.0,0.0
149.0,572.0,574.8743718592965,0.0,-0.0,0.0,0.0,0.0,21354.803901295396,0.0,21354.80390129539,0.0,0.0,0.4268268054970538,0.35142492676067005,0.5702488696310484,0.0,0.0,0.0,"[0.3301666781764965, 0.37627480708652783, 0.627238024479265, 0.46365296585996774, 0.21893982939427659, 0.2639825707131074, 0.6493676013956566, 0.5960137848679352, 0.4052874988319175]",21.67,0.0,0.0,0.0,219.8593431843064,52.7597969615865,-1446.7761393411117,291.7172968927138,2672.6271352269196,0.0,0.0,0.0,0.0,0.0,0.0,0.9,21.788324243701002,0.0,21.691799324327498,0.0,0.9,21.67,21.2,22.19,21.6,21.99,0.49,0.9,0.0,-1007.8,-796.16,0.0,160.0,0.0,77.0,0.0,0.0,0.0,0.0,0.0,0.0,0.0,0.0,0.0,0.0,0.0,0.0,0.0,0.0
150.0,584.0,586.9346733668342,0.0,-0.0,0.0,0.0,0.0,18627.43896016476,0.0,18627.43896016476,0.0,0.0,0.4268268054970538,0.28102644240630587,0.5702488696310484,0.0,0.0,0.0,"[0.3301666781764965, 0.37627480708652783, 0.627238024479265, 0.46365296585996774, 0.21893982939427659, 0.2639825707131074, 0.6493676013956566, 0.5960137848679352, 0.4052874988319175]",22.33,0.0,0.0,0.0,320.27828576179417,96.20719088165269,-1499.739114097429,-970.4323140718185,277.56118642573824,0.0,0.0,0.0,0.0,0.0,0.0,0.8,21.98216657336617,0.0,21.708491665439944,0.0,0.8,22.33,21.21,22.21,22.11,22.38,0.41,0.8,0.0,-1044.69,-825.31,0.0,298.0,0.0,78.0,0.0,0.0,0.0,0.0,0.0,0.0,0.0,0.0,0.0,0.0,0.0,0.0,0.0,0.0
151.0,644.0,647.2361809045226,0.0,-0.0,0.0,0.0,0.0,13041.179237389402,0.0,13041.179237389402,0.0,0.0,0.4268268054970538,0.23174005073060894,0.5702488696310484,0.0,0.0,0.0,"[0.3301666781764965, 0.37627480708652783, 0.627238024479265, 0.46365296585996774, 0.21893982939427659, 0.2639825707131074, 0.6493676013956566, 0.5960137848679352, 0.4052874988319175]",21.67,0.0,0.0,0.0,177.22256556384352,48.79573350472313,-1467.673410642094,279.5779236201671,966.6835655237044,0.0,0.0,0.0,0.0,0.0,0.0,0.6,21.78396739981921,0.0,21.684890914927532,0.0,0.6,21.67,21.19,22.18,21.6,21.99,0.22,0.6,875.25,-1022.35,-807.66,0.0,150.0,0.0,51.0,0.0,0.0,0.0,0.0,0.0,0.0,0.0,0.0,0.0,0.0,0.0,0.0,0.0,0.0
