,load_elec,grid,hp_elec,ev,pv,bat_pow,cool,load_th_sh,load_th_dhw,tes_pow,dh,hp_th,bat_soc,tes_soc,ev_soc,eh_th_in,eh_elec_in,eh_th_out,temp_slack,temp_zone_1,temp_zone_2,temp_update,Qsolar_1,QconvInt_1,QradInt_1,Qvent_1,Qconduc_1,Qheating_1,Qsolar_2,QconvInt_2,QradInt_2,Qvent_2,Qconduc_2,Qheating_2,temp_amb,temp_aggregate_1,temp_aggregate_2,temp_wall_1,temp_wall_2,_Tamb,_Tz_1,_TEW_1,_TIW_1,_T1_1,_T2_1,_Taeq_1,_Tvent_1,_Qheating_1,_Qinfvent_1,_Qenvelope_1,_Qsolar_1,_Qint_people_1,_Qint_lighting_1,_Qint_appliances_1,_Tz_2,_TEW_2,_TIW_2,_T1_2,_T2_2,_Taeq_2,_Tvent_2,_Qheating_2,_Qinfvent_2,_Qenvelope_2,_Qsolar_2,_Qint_people_2,_Qint_lighting_2,_Qint_appliances_2
8.0,2160.0,2170.854271356784,0.0,-0.0,0.0,0.0,0.0,37092.83157361884,0.0,37092.831573618845,0.0,0.0,0.5,0.342292382765226,0.8,0.0,0.0,0.0,"[2.0, 2.0, 2.0, 2.0, 2.0, 2.0, 2.0, 2.0]",20.0,0.0,0.0,0.8544410273778159,153.47299783483354,100.8042764083304,-1223.276535721951,-1064.433521312209,2044.4491388804151,0.0,0.0,0.0,0.0,0.0,0.0,-9.4,19.47629477756384,0.0,19.0,0.0,-9.4,20.0,18.0,20.0,20.0,20.0,-9.96,-9.4,8969.91,-870.79,-1016.06,1.24,88.0,111.0,57.0,0.0,0.0,0.0,0.0,0.0,0.0,0.0,0.0,0.0,0.0,0.0,0.0,0.0,0.0
9.0,3794.0,11697.995483538984,19612.543691895546,-0.0,7.038185774257692,11760.0,0.0,34118.15956764166,0.0,0.0,0.0,34118.15956764166,0.0,0.342292382765226,0.8,0.0,0.0,0.0,"[2.0, 2.0, 2.0, 2.0, 2.0, 2.0, 2.0, 2.0]",20.0,0.0,0.0,26.43458506120708,181.77945922038865,95.2059469178507,-1189.9900993757753,-1034.544644094941,9871.788199494484,0.0,0.0,0.0,0.0,0.0,0.0,-8.6,19.491007590923008,0.0,19.019537464900946,0.0,-8.6,20.0,18.01,20.03,19.58,20.13,-9.14,-8.6,0.0,-847.1,-988.42,38.48,112.0,88.0,68.0,0.0,0.0,0.0,0.0,0.0,0.0,0.0,0.0,0.0,0.0,0.0,0.0,0.0,0.0
10.0,3841.0,13466.526061207487,9931.717691842936,-0.0,373.52426094148575,0.0,0.0,18224.12764626337,0.0,0.0,0.0,18224.12764626337,0.0,0.342292382765226,0.7999999999999997,0.0,0.0,0.0,"[2.0, 2.0, 2.0, 2.0, 2.0, 2.0, 2.0, 2.0]",24.0,0.0,0.0,73.21131823655386,798.3405461742417,87.71861054408033,-1314.8142356739336,-6159.644026669504,0.0,0.0,0.0,0.0,0.0,0.0,0.0,-7.6,20.910021889529645,0.0,19.284934290001893,0.0,-7.6,24.0,18.15,20.42,22.71,22.42,-8.19,-7.6,1055.54,-935.95,-1092.1,106.58,95.0,59.0,542.0,0.0,0.0,0.0,0.0,0.0,0.0,0.0,0.0,0.0,0.0,0.0,0.0,0.0,0.0
11.0,7523.0,62605.081476799205,55830.405425290126,-0.0,1061.3493558749155,0.0,0.0,44327.27127402423,0.0,-62376.28130313963,0.0,106703.55257716385,0.0,0.5969955314197128,0.7999999999999997,0.0,0.0,0.0,"[2.0, 2.0, 2.0, 2.0, 2.0, 2.0, 2.0, 2.0]",20.71,0.0,0.0,101.8063535202144,966.2828518140985,81.84551641603112,-1144.6930642090354,-1492.6200466785012,8026.303301050035,0.0,0.0,0.0,0.0,0.0,0.0,-6.8,19.971105340209853,0.0,19.36208722364936,0.0,-6.8,20.71,18.21,20.52,19.79,20.5,-7.38,-6.8,7969.19,-814.85,-950.79,148.21,143.0,17.0,647.0,0.0,0.0,0.0,0.0,0.0,0.0,0.0,0.0,0.0,0.0,0.0,0.0,0.0,0.0
12.0,10497.0,17001.090740426236,8914.118478886057,-0.0,2495.0331921619545,0.0,0.0,17546.62631419977,0.0,0.0,0.0,17546.62631419977,0.0,0.5969955314197128,0.7999999999999997,0.0,0.0,0.0,"[2.0, 2.0, 2.0, 2.0, 2.0, 2.0, 2.0, 2.0]",24.0,0.0,0.0,155.1722153800462,708.7853643713067,62.81806526433945,-1256.5629720681266,-5686.169723642664,6026.712392853361,0.0,0.0,0.0,0.0,0.0,0.0,-6.2,21.147975662698553,0.0,19.59604287315248,0.0,-6.2,24.0,18.34,20.85,22.6,22.54,-6.75,-6.2,0.0,-894.49,-1043.71,225.9,137.0,0.0,459.0,0.0,0.0,0.0,0.0,0.0,0.0,0.0,0.0,0.0,0.0,0.0,0.0,0.0,0.0
13.0,9020.0,37995.239724109655,13221.522598962403,-0.0,436.2590734732945,-16000.0,0.0,26151.40189925837,0.0,0.0,0.0,26151.40189925837,0.6533333333333333,0.5969955314197128,0.7661078717201163,0.0,0.0,0.0,"[2.0, 2.0, 2.0, 2.0, 2.0, 2.0, 2.0, 2.0]",24.0,0.0,0.0,75.17923866770137,1789.2071733852245,91.59966104975031,-1252.4021675248546,-5295.997246249619,4488.959930617488,0.0,0.0,0.0,0.0,0.0,0.0,-6.1,21.344528447275636,0.0,19.852597145112835,0.0,-6.1,24.0,18.5,21.21,22.44,22.59,-6.67,-6.1,3362.12,-891.52,-1040.26,109.45,140.0,0.0,1267.0,0.0,0.0,0.0,0.0,0.0,0.0,0.0,0.0,0.0,0.0,0.0,0.0,0.0,0.0
14.0,5604.0,20395.68827046921,0.0,-0.0,4.700089250482096,-8489.795918367347,0.0,34357.00331493852,31023.07,59175.45931493852,0.0,0.0,1.0,0.3453991907949743,0.7590014577259472,24818.456000000002,6204.6140000000005,31023.07,"[2.0, 2.0, 2.0, 2.0, 2.0, 2.0, 2.0, 2.0]",23.94,0.0,0.0,23.51639083820483,788.7177540903186,20.298237600450854,-1270.777374286551,-4895.096306371278,5452.094372484983,0.0,0.0,0.0,0.0,0.0,0.0,-6.6,21.488318093219583,0.0,20.06553812858434,0.0,-6.6,23.94,18.63,21.5,22.27,22.6,-7.13,-6.6,0.0,-904.6,-1055.52,34.23,0.0,0.0,591.0,0.0,0.0,0.0,0.0,0.0,0.0,0.0,0.0,0.0,0.0,0.0,0.0,0.0,0.0
15.0,3981.0,4001.005025125628,0.0,-0.0,0.0,0.0,0.0,23275.864753758167,0.0,23275.864753758167,0.0,0.0,1.0,0.24643718078749907,0.7590014577259472,0.0,0.0,0.0,"[2.0, 2.0, 2.0, 2.0, 2.0, 2.0, 2.0, 2.0]",24.0,0.0,0.0,2.563233979888545,378.94133790339913,15.283782964806482,-1302.3318220441179,-4663.285764054691,0.0,0.0,0.0,0.0,0.0,0.0,0.0,-7.3,21.66379780926999,0.0,20.27443720736683,0.0,-7.3,24.0,18.77,21.78,22.47,22.86,-7.81,-7.3,5612.07,-927.07,-1081.73,3.73,0.0,9.0,283.0,0.0,0.0,0.0,0.0,0.0,0.0,0.0,0.0,0.0,0.0,0.0,0.0,0.0,0.0
16.0,5672.0,0.0,2696.8850907738906,-0.0,0.0,8368.88509077389,0.0,5051.4691225043725,0.0,0.0,0.0,5051.4691225043725,0.6441800556643754,0.24643718078749907,0.757361516034985,0.0,0.0,0.0,"[2.0, 2.0, 2.0, 2.0, 2.0, 2.0, 2.0, 2.0]",21.19,0.0,0.0,0.0,1163.7959272884927,106.84909843486061,-1181.386562678301,-754.0515600421454,0.0,0.0,0.0,0.0,0.0,0.0,0.0,-7.2,20.825450874559543,0.0,20.297919690022546,0.0,-7.2,21.19,18.82,21.78,20.37,21.43,-7.69,-7.2,0.0,-840.97,-981.27,0.0,106.0,69.0,809.0,0.0,0.0,0.0,0.0,0.0,0.0,0.0,0.0,0.0,0.0,0.0,0.0,0.0,0.0
17.0,4753.0,13534.63097534098,0.0,-0.0,0.0,-8713.957820464275,0.0,7729.869468634977,0.0,7729.869468634976,0.0,0.0,1.0,0.21357208950928913,0.7573615160349849,0.0,0.0,0.0,"[2.0, 2.0, 2.0, 2.0, 2.0, 2.0, 2.0, 2.0]",20.85,0.0,0.0,0.0,595.0678433211486,158.95134283398744,-1158.8647783050462,-355.44995416324207,0.0,0.0,0.0,0.0,0.0,0.0,0.0,-7.0,20.684772075703258,0.0,20.257623090439743,0.0,-7.0,20.85,18.83,21.68,20.24,21.29,-7.49,-7.0,0.0,-824.94,-962.56,0.0,92.0,185.0,378.0,0.0,0.0,0.0,0.0,0.0,0.0,0.0,0.0,0.0,0.0,0.0,0.0,0.0,0.0
18.0,4650.0,2669.704024397115,2490.3555042751286,-0.0,0.0,4484.0,0.0,4735.847604328531,0.0,0.0,0.0,4735.847604328531,0.8093537414965987,0.21357208950928913,0.7573615160349849,0.0,0.0,0.0,"[2.0, 2.0, 2.0, 2.0, 2.0, 2.0, 2.0, 2.0]",20.46,0.0,0.0,0.0,880.0289198501738,249.03979837710514,-1138.3732469566555,94.38358781635381,0.0,0.0,0.0,0.0,0.0,0.0,0.0,-6.9,20.51872471987622,0.0,20.20419601204278,0.0,-6.9,20.46,18.83,21.57,20.06,21.1,-7.39,-6.9,0.0,-810.35,-945.54,0.0,284.0,218.0,487.0,0.0,0.0,0.0,0.0,0.0,0.0,0.0,0.0,0.0,0.0,0.0,0.0,0.0,0.0
19.0,5688.0,0.0,0.0,-0.0,0.0,5688.0,0.0,0.0,0.0,0.0,0.0,0.0,0.5675170068027211,0.21357208950928913,0.7573615160349849,0.0,0.0,0.0,"[2.0, 2.0, 2.0, 2.0, 2.0, 2.0, 2.0, 2.0]",20.49,0.0,0.0,0.0,752.3337665029301,174.78465507393298,-1135.3821934052457,-34.5738821535138,0.0,0.0,0.0,0.0,0.0,0.0,0.0,-6.8,20.481830037053186,0.0,20.15226566666336,0.0,-6.8,20.49,18.84,21.47,20.1,21.07,-7.29,-6.8,0.0,-808.22,-943.06,0.0,166.0,165.0,459.0,0.0,0.0,0.0,0.0,0.0,0.0,0.0,0.0,0.0,0.0,0.0,0.0,0.0,0.0
20.0,6922.0,23037.18592964824,0.0,-0.0,0.0,-16000.0,0.0,0.0,0.0,0.0,0.0,0.0,0.926547619047619,0.21357208950928913,0.7573615160349849,0.0,0.0,0.0,"[1.731752799528632, 0.7906104461816668, 0.8616885653654194, 1.2437457952028659, 1.2389377868449927, 1.4646394979027022, 1.553508042290101, 1.032314270488964]",20.35,0.0,0.0,0.0,742.5002563441765,170.66318551038967,-1121.5388804289007,56.54635121999442,0.0,0.0,0.0,0.0,0.0,0.0,0.0,-6.6,20.394891978221864,0.0,20.098006876875154,0.0,-6.6,20.35,18.83,21.36,19.99,20.94,-7.08,-6.6,0.0,-798.37,-931.56,0.0,258.0,110.0,409.0,0.0,0.0,0.0,0.0,0.0,0.0,0.0,0.0,0.0,0.0,0.0,0.0,0.0,0.0
21.0,6426.0,0.0,8567.530530107462,-0.0,0.0,14993.530530107462,0.0,16619.368966864295,0.0,0.0,0.0,16619.3689668643,0.2890675795022337,0.21357208950928913,0.7573615160349849,0.0,0.0,0.0,"[1.731752799528632, 0.7906104461816668, 0.8616885653654194, 1.2437457952028659, 1.2389377868449927, 1.4646394979027022, 1.553508042290101, 1.032314270488964]",20.27,0.0,0.0,0.0,830.8613690564056,176.22716942117316,-1113.7744456714772,83.21778900770005,6918.299203622809,0.0,0.0,0.0,0.0,0.0,0.0,-6.5,20.321649616047996,0.0,20.042830690673142,0.0,-6.5,20.27,18.83,21.26,19.93,20.85,-7.0,-6.5,1258.21,-792.84,-925.11,0.0,270.0,109.0,469.0,0.0,0.0,0.0,0.0,0.0,0.0,0.0,0.0,0.0,0.0,0.0,0.0,0.0,0.0
22.0,4350.0,4132.804355655136,6561.009803769398,-0.0,0.0,6798.869469892537,0.0,12852.199147902435,0.0,0.0,0.0,12852.199147902435,0.0,0.21357208950928913,0.7573615160349849,0.0,0.0,0.0,"[1.731752799528632, 0.7906104461816668, 0.8616885653654194, 1.2437457952028659, 1.2389377868449927, 1.4646394979027022, 1.553508042290101, 1.032314270488964]",23.73,0.0,0.0,0.0,608.764518185127,175.60894898664168,-1249.5625349069858,-4465.016620493933,0.0,0.0,0.0,0.0,0.0,0.0,0.0,-6.3,21.49492407050146,0.0,20.20511291820555,0.0,-6.3,23.73,18.93,21.48,22.64,22.77,-6.83,-6.3,703.57,-889.5,-1037.9,0.0,314.0,94.0,281.0,0.0,0.0,0.0,0.0,0.0,0.0,0.0,0.0,0.0,0.0,0.0,0.0,0.0,0.0
23.0,2710.0,14255.361254566093,0.0,-0.0,0.0,-11474.084448293263,0.0,17230.064027499797,0.0,17230.064027499797,0.0,0.0,0.4685251149719749,0.14031501456243625,0.7404154518950432,0.0,0.0,0.0,"[1.731752799528632, 0.7906104461816668, 0.8616885653654194, 1.2437457952028659, 1.2389377868449927, 1.4646394979027022, 1.553508042290101, 1.032314270488964]",21.24,0.0,0.0,0.0,263.8892690459815,83.2193396038789,-1141.6114396048213,-961.9098892682239,634.7962975629086,0.0,0.0,0.0,0.0,0.0,0.0,-6.2,20.76438053601552,0.0,20.243001659239745,0.0,-6.2,21.24,18.97,21.51,20.48,21.33,-6.71,-6.2,5438.36,-812.66,-948.23,0.0,80.0,82.0,147.0,0.0,0.0,0.0,0.0,0.0,0.0,0.0,0.0,0.0,0.0,0.0,0.0,0.0,0.0
24.0,3135.0,0.0,0.0,-0.0,0.0,3135.0,0.0,892.910049725846,0.0,892.910049725846,0.0,0.0,0.3352342986454443,0.13651862829659506,0.7404154518950432,0.0,0.0,0.0,"[1.731752799528632, 0.7906104461816668, 0.8616885653654194, 1.2437457952028659, 1.2389377868449927, 1.4646394979027022, 1.553508042290101, 1.032314270488964]",20.67,0.0,0.0,0.0,1187.4665910277783,91.84008010762365,-1113.7318047259419,-221.61276752010164,0.0,0.0,0.0,0.0,0.0,0.0,0.0,-6.1,20.567048540948797,0.0,20.216681252156363,0.0,-6.1,20.67,18.98,21.45,20.25,21.14,-6.63,-6.1,60.64,-792.81,-925.07,0.0,160.0,15.0,804.0,0.0,0.0,0.0,0.0,0.0,0.0,0.0,0.0,0.0,0.0,0.0,0.0,0.0,0.0
25.0,1442.0,48965.983225487355,31279.15330935992,-0.0,0.0,-16000.0,0.0,31402.6695601812,0.0,-30763.868275978148,0.0,62166.53783615935,0.9885676319787776,0.2621377570901725,0.7404154518950432,0.0,0.0,0.0,"[1.731752799528632, 0.7906104461816668, 0.8616885653654194, 1.2437457952028659, 1.2389377868449927, 1.4646394979027022, 1.553508042290101, 1.032314270488964]",20.63,0.0,0.0,0.0,435.34354259967887,63.26455780038997,-1108.1698387008862,-252.60342234399064,144.58322052621466,0.0,0.0,0.0,0.0,0.0,0.0,-6.0,20.517684670268473,0.0,20.171210802146362,0.0,-6.0,20.63,18.98,21.36,20.14,21.02,-6.49,-6.0,5752.74,-788.85,-920.46,0.0,160.0,0.0,242.0,0.0,0.0,0.0,0.0,0.0,0.0,0.0,0.0,0.0,0.0,0.0,0.0,0.0,0.0
26.0,782.0,0.0,14315.51070414085,-0.0,0.0,15097.51070414085,0.0,28861.143302839067,0.0,0.0,0.0,28861.143302839064,0.3466666666666667,0.2621377570901725,0.7404154518950432,0.0,0.0,0.0,"[1.731752799528632, 0.7906104461816668, 0.8616885653654194, 1.2437457952028659, 1.2389377868449927, 1.4646394979027022, 1.553508042290101, 1.032314270488964]",20.27,0.0,0.0,0.0,296.83152807780624,60.929058381048755,-1080.4880093253016,164.705162749499,7439.296963050599,0.0,0.0,0.0,0.0,0.0,0.0,-5.7,20.362360678394108,0.0,20.118306786294518,0.0,-5.7,20.27,18.97,21.27,19.96,20.85,-6.18,-5.7,4334.84,-769.15,-897.46,0.0,160.0,2.0,138.0,0.0,0.0,0.0,0.0,0.0,0.0,0.0,0.0,0.0,0.0,0.0,0.0,0.0,0.0
27.0,956.0,28906.200936407837,0.0,-0.0,0.0,0.0,0.0,25025.102938553213,0.0,0.0,0.0,0.0,0.3466666666666667,0.2621377570901725,0.7404154518950432,111222.6797269032,27805.6699317258,139028.34965862898,"[1.731752799528632, 0.7906104461816668, 0.8616885653654194, 1.2437457952028659, 1.2389377868449927, 1.4646394979027022, 1.553508042290101, 1.032314270488964]",23.73,0.0,0.0,0.0,181.4985017872814,67.17995388575615,-1216.2760985608104,-4379.307570964295,5354.804017598206,0.0,0.0,0.0,0.0,0.0,0.0,-5.5,21.537742641673,0.0,20.28265185269722,0.0,-5.5,23.73,19.07,21.49,22.71,22.8,-5.96,-5.5,2689.11,-865.81,-1010.25,0.0,160.0,17.0,50.0,0.0,0.0,0.0,0.0,0.0,0.0,0.0,0.0,0.0,0.0,0.0,0.0,0.0,0.0
28.0,940.0,17025.125628140704,0.0,-0.0,0.0,-16000.0,0.0,8115.381794542664,0.0,8115.381794542664,0.0,0.0,1.0,0.22763358279364757,0.740415451895043,0.0,0.0,0.0,"[1.731752799528632, 0.7906104461816668, 0.8616885653654194, 1.2437457952028659, 1.2389377868449927, 1.4646394979027022, 1.553508042290101, 1.032314270488964]",23.73,0.0,0.0,0.0,181.4985017872814,67.17995388575615,-1212.1152940175384,-4088.0768503061813,5059.412492396821,0.0,0.0,0.0,0.0,0.0,0.0,-5.4,21.684433566058804,0.0,20.474940121135887,0.0,-5.4,23.73,19.19,21.76,22.5,22.78,-5.86,-5.4,0.0,-862.85,-1006.79,0.0,160.0,17.0,50.0,0.0,0.0,0.0,0.0,0.0,0.0,0.0,0.0,0.0,0.0,0.0,0.0,0.0,0.0
29.0,1615.0,1623.1155778894472,0.0,-0.0,0.0,0.0,0.0,29166.149086591715,0.0,29166.149086591715,0.0,0.0,1.0,0.10362784688126783,0.740415451895043,0.0,0.0,0.0,"[1.731752799528632, 0.7906104461816668, 0.8616885653654194, 1.2437457952028659, 1.2389377868449927, 1.4646394979027022, 1.553508042290101, 1.032314270488964]",23.73,0.0,0.0,0.0,183.81640061041617,71.54184250717279,-1203.7936849309947,-3824.106040436855,4780.953142885849,0.0,0.0,0.0,0.0,0.0,0.0,-5.2,21.817349445548803,0.0,20.65052053657748,0.0,-5.2,23.73,19.31,22.0,22.54,22.91,-5.65,-5.2,5162.84,-856.92,-999.88,0.0,160.0,24.0,51.0,0.0,0.0,0.0,0.0,0.0,0.0,0.0,0.0,0.0,0.0,0.0,0.0,0.0,0.0
30.0,2085.0,0.0,3671.6567930705833,-0.0,0.0,5756.656793070583,0.0,7612.35367044926,0.0,0.0,0.0,7612.35367044926,0.7552441839680875,0.10362784688126783,0.740415451895043,0.0,0.0,0.0,"[1.731752799528632, 0.7906104461816668, 0.8616885653654194, 1.2437457952028659, 1.2389377868449927, 1.4646394979027022, 1.553508042290101, 1.032314270488964]",23.73,0.0,0.0,0.0,304.2769000551483,118.42355879247809,-1199.6328803877225,-3584.5739664308553,0.0,0.0,0.0,0.0,0.0,0.0,0.0,-5.1,21.937996939420938,0.0,20.811211409849633,0.0,-5.1,23.73,19.42,22.21,22.57,23.02,-5.56,-5.1,0.0,-853.96,-996.43,0.0,338.0,1.0,50.0,0.0,0.0,0.0,0.0,0.0,0.0,0.0,0.0,0.0,0.0,0.0,0.0,0.0,0.0
31.0,1046.0,0.0,0.0,-0.0,0.0,1046.0,0.0,16862.56574967195,0.0,16862.56574967195,0.0,0.0,0.7107713948524412,0.031933264612254444,0.740415451895043,0.0,0.0,0.0,"[1.731752799528632, 0.7906104461816668, 0.8616885653654194, 1.2437457952028659, 1.2389377868449927, 1.4646394979027022, 1.553508042290101, 1.032314270488964]",21.53,0.0,0.0,0.0,66.7273903629711,1.7172789848097156,-1103.7450225082382,-527.882658304851,0.0,0.0,0.0,0.0,0.0,0.0,0.0,-5.0,21.272580664071597,0.0,20.821798098821134,0.0,-5.0,21.53,19.45,22.19,20.87,21.86,-5.45,-5.0,4767.72,-785.7,-916.78,0.0,0.0,0.0,50.0,0.0,0.0,0.0,0.0,0.0,0.0,0.0,0.0,0.0,0.0,0.0,0.0,0.0,0.0
32.0,1734.0,0.0,0.0,-0.0,0.0,1734.0,0.0,361.5633261027236,0.0,361.5633261027236,0.0,0.0,0.6370469050565228,0.03039600557270205,0.740415451895043,0.0,0.0,0.0,"[1.5584654628075754, 0.7906104461816668, 0.8616885653654194, 0.6908296799887452, 0.21043209652974681, 1.4646394979027022, 1.1552526449757252, 1.032314270488964]",20.74,0.0,0.0,0.8544228769205208,16.01457368711306,0.41214695635432996,-1062.6484212355836,454.0665492680753,0.0,0.0,0.0,0.0,0.0,0.0,0.0,-4.8,20.979213391007775,0.0,20.75853521650032,0.0,-4.8,20.74,19.45,22.07,20.43,21.49,-5.26,-4.8,0.0,-756.45,-882.64,1.24,0.0,0.0,12.0,0.0,0.0,0.0,0.0,0.0,0.0,0.0,0.0,0.0,0.0,0.0,0.0,0.0,0.0
33.0,3869.0,45293.53645938732,41204.75014349592,-0.0,6.681366405535588,0.0,0.0,19233.726154740252,0.0,-71301.6737023112,0.0,90535.39985705145,0.6370469050565228,0.3215445065238061,0.740415451895043,0.0,0.0,0.0,"[1.5584654628075754, 0.7906104461816668, 0.8616885653654194, 0.6908296799887452, 0.21043209652974681, 1.4646394979027022, 1.1552526449757252, 1.032314270488964]",20.44,0.0,0.0,26.410695759323502,49.37826886859861,1.270786448759188,-1008.6428703823394,729.1658356251166,203.14017811353693,0.0,0.0,0.0,0.0,0.0,0.0,-3.8,20.81929686708851,0.0,20.675395341426146,0.0,-3.8,20.44,19.44,21.92,20.26,21.3,-4.21,-3.8,3839.1,-718.0,-837.79,38.45,0.0,0.0,37.0,0.0,0.0,0.0,0.0,0.0,0.0,0.0,0.0,0.0,0.0,0.0,0.0,0.0,0.0
34.0,2481.0,5766.746173896505,3373.3238745007334,-0.0,116.41143147371153,0.0,0.0,7765.641896262875,0.0,0.0,0.0,7765.641896262877,0.6370469050565228,0.3215445065238061,0.740415451895043,0.0,0.0,0.0,"[1.5584654628075754, 0.7906104461816668, 0.8616885653654194, 0.6908296799887452, 0.21043209652974681, 1.4646394979027022, 1.1552526449757252, 1.032314270488964]",20.44,0.0,0.0,51.941485399684076,66.7273903629711,1.7172789848097156,-962.8740204063479,601.7641842559319,242.05344623050456,0.0,0.0,0.0,0.0,0.0,0.0,-2.7,20.75464469918402,0.0,20.598185397493644,0.0,-2.7,20.44,19.42,21.78,20.27,21.24,-3.12,-2.7,0.0,-685.42,-799.77,75.62,0.0,0.0,50.0,0.0,0.0,0.0,0.0,0.0,0.0,0.0,0.0,0.0,0.0,0.0,0.0,0.0,0.0
35.0,5282.0,0.0,0.0,-0.0,578.4903827264885,4703.509617273511,0.0,15357.864895629467,0.0,15357.864895629467,0.0,0.0,0.4370677546622409,0.2562474618995312,0.740415451895043,0.0,0.0,0.0,"[1.5584654628075754, 0.7906104461816668, 0.8616885653654194, 0.6908296799887452, 0.21043209652974681, 1.4646394979027022, 1.1552526449757252, 1.032314270488964]",20.44,0.0,0.0,81.06613818631675,66.7273903629711,1.7172789848097156,-921.2659749736284,488.78151739801103,6471.190794383225,0.0,0.0,0.0,0.0,0.0,0.0,-1.7,20.697291810110816,0.0,20.529995969444023,0.0,-1.7,20.44,19.41,21.65,20.27,21.17,-2.1,-1.7,2345.87,-655.8,-765.21,118.02,0.0,0.0,50.0,0.0,0.0,0.0,0.0,0.0,0.0,0.0,0.0,0.0,0.0,0.0,0.0,0.0,0.0
36.0,3483.0,0.0,0.0,-0.0,822.7288078613567,2660.2711921386435,0.0,5061.481313722718,0.0,5061.481313722718,0.0,0.0,0.3239609862889993,0.23472755835479173,0.740415451895043,0.0,0.0,0.0,"[1.5584654628075754, 0.7906104461816668, 0.8616885653654194, 0.6908296799887452, 0.21043209652974681, 1.4646394979027022, 1.1552526449757252, 1.032314270488964]",23.56,0.0,0.0,90.15197990129285,66.7273903629711,1.7172789848097156,-1021.8297467343683,-3626.2850591060774,0.0,0.0,0.0,0.0,0.0,0.0,0.0,-1.0,21.7419291093074,0.0,20.66264961876381,0.0,-1.0,23.56,19.5,21.83,22.71,22.89,-1.54,-1.0,0.0,-727.39,-848.74,131.24,0.0,0.0,50.0,0.0,0.0,0.0,0.0,0.0,0.0,0.0,0.0,0.0,0.0,0.0,0.0,0.0,0.0
37.0,5043.0,0.0,0.0,-0.0,236.24990020546872,4806.750099794532,0.0,6758.2108288805275,0.0,6758.2108288805275,0.0,0.0,0.11959235959705491,0.20599366877621805,0.7272959183673462,0.0,0.0,0.0,"[1.5584654628075754, 0.7906104461816668, 0.8616885653654194, 0.6908296799887452, 0.21043209652974681, 1.4646394979027022, 1.1552526449757252, 1.032314270488964]",21.3,0.0,0.0,63.00708989417201,92.08379870090013,2.3698449990374066,-915.1832557279265,-474.2469201928058,5725.293831904009,0.0,0.0,0.0,0.0,0.0,0.0,-0.7,21.065887105134095,0.0,20.681043447789264,0.0,-0.7,21.3,19.53,21.83,20.72,21.55,-1.26,-0.7,338.7,-651.47,-760.16,91.73,0.0,0.0,69.0,0.0,0.0,0.0,0.0,0.0,0.0,0.0,0.0,0.0,0.0,0.0,0.0,0.0,0.0
38.0,3891.0,33484.39368482567,0.0,-0.0,0.22854946398799011,-16000.0,0.0,12083.580239278977,0.0,0.0,0.0,0.0,0.7729256929303883,0.20599366877621805,0.7272959183673458,53704.80106346214,13426.200265865535,67131.00132932767,"[1.5584654628075754, 0.7906104461816668, 0.8616885653654194, 0.6908296799887452, 0.21043209652974681, 1.4646394979027022, 1.1552526449757252, 1.032314270488964]",23.56,0.0,0.0,14.815302516971652,514.011623869708,39.90956360697782,-1034.3121603641841,-3413.521583677856,0.0,0.0,0.0,0.0,0.0,0.0,0.0,-1.3,21.849240221273558,0.0,20.81116479233927,0.0,-1.3,23.56,19.63,22.0,22.67,22.93,-1.8,-1.3,4394.05,-736.28,-859.11,21.57,82.0,0.0,342.0,0.0,0.0,0.0,0.0,0.0,0.0,0.0,0.0,0.0,0.0,0.0,0.0,0.0,0.0
39.0,4882.0,0.0,0.0,-0.0,0.0,4882.0,0.0,5112.275037013122,0.0,5112.275037013122,0.0,0.0,0.565357665719504,0.18425780552361123,0.7272959183673458,0.0,0.0,0.0,"[1.5584654628075754, 0.7906104461816668, 0.8616885653654194, 0.6908296799887452, 0.21043209652974681, 1.4646394979027022, 1.1552526449757252, 1.032314270488964]",21.6,0.0,0.0,1.7002605875404284,543.5823937042458,73.53388612955209,-977.8500027785669,-686.9537203231644,0.0,0.0,0.0,0.0,0.0,0.0,0.0,-1.9,21.265446516795972,0.0,20.828998209280314,0.0,-1.9,21.6,19.66,22.0,20.93,21.76,-2.41,-1.9,3335.19,-696.08,-812.21,2.48,166.0,9.0,319.0,0.0,0.0,0.0,0.0,0.0,0.0,0.0,0.0,0.0,0.0,0.0,0.0,0.0,0.0
40.0,7762.0,7801.005025125628,0.0,-0.0,0.0,0.0,0.0,5934.350226056416,0.0,5934.350226056416,0.0,0.0,0.565357665719504,0.15902672463051423,0.7092565597667626,0.0,0.0,0.0,"[1.5584654628075754, 0.7906104461816668, 0.8616885653654194, 0.6908296799887452, 0.21043209652974681, 1.4646394979027022, 1.1552526449757252, 1.032314270488964]",21.07,0.0,0.0,0.0,482.0527158537586,227.2647008497179,-964.0613817772868,-19.874042947742616,5240.120434960073,0.0,0.0,0.0,0.0,0.0,0.0,-2.1,21.070026864331155,0.0,20.79037194834857,0.0,-2.1,21.07,19.67,21.92,20.68,21.54,-2.62,-2.1,0.0,-686.27,-800.76,0.0,326.0,177.0,171.0,0.0,0.0,0.0,0.0,0.0,0.0,0.0,0.0,0.0,0.0,0.0,0.0,0.0,0.0
41.0,7912.0,10647.864285556961,0.0,-0.0,0.0,-2682.624964129175,0.0,1726.0590339611447,0.0,1726.0590339611445,0.0,0.0,0.674898185088112,0.15168803826163182,0.7092565597667626,0.0,0.0,0.0,"[1.5584654628075754, 0.7906104461816668, 0.8616885653654194, 0.6908296799887452, 0.21043209652974681, 1.4646394979027022, 1.1552526449757252, 1.032314270488964]",23.56,0.0,0.0,0.0,774.388925001849,329.5458371849847,-1075.9202057969037,-3287.671979820491,0.0,0.0,0.0,0.0,0.0,0.0,0.0,-2.3,21.913075600994507,0.0,20.90874021127656,0.0,-2.3,23.56,19.75,22.07,22.73,22.98,-2.81,-2.3,0.0,-765.9,-893.67,0.0,298.0,346.0,387.0,0.0,0.0,0.0,0.0,0.0,0.0,0.0,0.0,0.0,0.0,0.0,0.0,0.0,0.0
42.0,8043.0,14409.79296482412,0.0,-0.0,0.0,0.0,0.0,5599.828951818111,31473.72,30778.804951818114,0.0,0.0,0.674898185088112,0.020825772310024197,0.6972303206997073,25178.976000000002,6294.744000000001,31473.72,"[1.5584654628075754, 0.7906104461816668, 0.8616885653654194, 0.6908296799887452, 0.21043209652974681, 1.4646394979027022, 1.1552526449757252, 1.032314270488964]",21.9,0.0,0.0,0.0,910.3020832674798,221.18553324349153,-1015.0936635058017,-944.5746575613167,4152.591358083509,0.0,0.0,0.0,0.0,0.0,0.0,-2.5,21.43115596462245,0.0,20.941865909081613,0.0,-2.5,21.9,19.79,22.1,21.26,21.99,-3.07,-2.5,0.0,-722.6,-843.15,0.0,162.0,236.0,572.0,0.0,0.0,0.0,0.0,0.0,0.0,0.0,0.0,0.0,0.0,0.0,0.0,0.0,0.0
43.0,7778.0,0.0,0.0,-0.0,0.0,7778.0,0.0,1512.7810259575313,0.0,1512.7810259575313,0.0,0.0,0.3442009061765473,0.014393880192857821,0.6972303206997073,0.0,0.0,0.0,"[1.5584654628075754, 0.7906104461816668, 0.8616885653654194, 0.6908296799887452, 0.21043209652974681, 1.4646394979027022, 1.1552526449757252, 1.032314270488964]",23.56,0.0,0.0,0.0,1044.7402150092971,180.8638226801594,-1092.5634239699912,-3083.593311656454,1026.027928451298,0.0,0.0,0.0,0.0,0.0,0.0,-2.7,22.01609919040008,0.0,21.05064278117887,0.0,-2.7,23.56,19.87,22.24,22.64,22.98,-3.29,-2.7,0.0,-777.74,-907.49,0.0,256.0,115.0,636.0,0.0,0.0,0.0,0.0,0.0,0.0,0.0,0.0,0.0,0.0,0.0,0.0,0.0,0.0
44.0,5694.0,0.0,0.0,-0.0,0.0,5693.999999999996,0.0,398.62555522686023,0.0,398.62555522686023,0.0,0.0,0.10210906944185345,0.011004207104194044,0.6972303206997073,0.0,0.0,0.0,"[0.5780833820319877, 0.7906104461816668, 0.8616885653654194, 0.09094538790119344, 0.21043209652974681, 0.21805431170123413, 0.23006812705681057, 0.6076214762282213]",22.58,0.0,0.0,0.0,971.1293675351985,203.1197583232933,-1060.0932508982005,-1649.449752661727,0.0,0.0,0.0,0.0,0.0,0.0,0.0,-2.9,21.757965488352742,0.0,21.105724214735076,0.0,-2.9,22.58,19.92,22.29,21.74,22.4,-3.46,-2.9,0.0,-754.63,-880.52,0.0,334.0,113.0,540.0,0.0,0.0,0.0,0.0,0.0,0.0,0.0,0.0,0.0,0.0,0.0,0.0,0.0,0.0
45.0,6106.0,8846.175063254024,2268.627771103511,-0.0,0.0,-427.31641683424243,0.0,7724.228897709052,0.0,2588.1895109064394,0.0,5136.039386802613,0.11955782312925169,0.0,0.6972303206997073,0.0,0.0,0.0,"[0.5780833820319877, 0.7906104461816668, 0.8616885653654194, 0.09094538790119344, 0.21043209652974681, 0.21805431170123413, 0.23006812705681057, 0.6076214762282213]",21.79,0.0,0.0,0.0,1316.0748560326208,223.34930476435176,-1035.728103177835,-581.7010239943638,0.0,0.0,0.0,0.0,0.0,0.0,0.0,-3.1,21.51011561247975,0.0,21.098382649112885,0.0,-3.1,21.79,19.94,22.26,21.23,22.03,-3.66,-3.1,1266.96,-737.28,-860.28,0.0,214.0,195.0,853.0,0.0,0.0,0.0,0.0,0.0,0.0,0.0,0.0,0.0,0.0,0.0,0.0,0.0,0.0
46.0,4562.0,12733.122152899128,8107.456542134632,-0.0,0.0,0.0,0.0,8867.42906004938,0.0,-9332.792333236164,0.0,18200.221393285545,0.11955782312925169,0.03810890202738101,0.6972303206997073,0.0,0.0,0.0,"[0.5780833820319877, 0.7906104461816668, 0.8616885653654194, 0.09094538790119344, 0.21043209652974681, 0.21805431170123413, 0.23006812705681057, 0.6076214762282213]",21.74,0.0,0.0,0.0,1077.8931921159522,200.37211194759777,-1041.863874210243,-552.1065288436183,2002.7059201481488,0.0,0.0,0.0,0.0,0.0,0.0,-3.3,21.47257039531165,0.0,21.07538786243508,0.0,-3.3,21.74,19.95,22.21,21.21,21.99,-3.9,-3.3,0.0,-741.65,-865.38,0.0,268.0,139.0,652.0,0.0,0.0,0.0,0.0,0.0,0.0,0.0,0.0,0.0,0.0,0.0,0.0,0.0,0.0
47.0,2812.0,0.0,0.0,-0.0,0.0,2812.0,0.0,8963.213756840014,0.0,8963.213756840014,0.0,0.0,0.0,0.0,0.6972303206997073,0.0,0.0,0.0,"[0.5780833820319877, 0.7906104461816668, 0.8616885653654194, 0.09094538790119344, 0.21043209652974681, 0.21805431170123413, 0.23006812705681057, 0.6076214762282213]",22.58,0.0,0.0,0.0,887.9659673354535,111.89789865020114,-1080.8972736145604,-1666.2704291937346,393.7288858452023,0.0,0.0,0.0,0.0,0.0,0.0,-3.4,21.749715661318806,0.0,21.109087580437873,0.0,-3.4,22.58,19.98,22.24,21.91,22.46,-3.99,-3.4,3001.47,-769.44,-897.8,0.0,166.0,57.0,572.0,0.0,0.0,0.0,0.0,0.0,0.0,0.0,0.0,0.0,0.0,0.0,0.0,0.0,0.0
48.0,2463.0,36924.666933928245,18277.043599258606,-0.0,0.0,-16000.0,0.0,13173.224571087369,0.0,-25591.313501876146,0.0,38764.538072963514,0.6533333333333333,0.10449786346599427,0.6972303206997073,0.0,0.0,0.0,"[0.5780833820319877, 0.7906104461816668, 0.8616885653654194, 0.09094538790119344, 0.21043209652974681, 0.21805431170123413, 0.23006812705681057, 0.6076214762282213]",21.89,0.0,0.0,0.0,1308.3485266221714,115.84764031526349,-1102.174601307826,-722.4129365188955,1780.743912685063,0.0,0.0,0.0,0.0,0.0,0.0,-4.6,21.536859002077136,0.0,21.107828780473305,0.0,-4.6,21.89,20.0,22.22,21.31,22.06,-5.17,-4.6,14.42,-784.58,-915.48,0.0,160.0,49.0,891.0,0.0,0.0,0.0,0.0,0.0,0.0,0.0,0.0,0.0,0.0,0.0,0.0,0.0,0.0
49.0,3499.0,10189.725649375336,0.0,-0.0,0.0,-6639.777021128459,0.0,11680.711637399494,0.0,11680.711637399494,0.0,0.0,0.9244575616960787,0.05483497385120051,0.6972303206997073,0.0,0.0,0.0,"[0.5780833820319877, 0.7906104461816668, 0.8616885653654194, 0.09094538790119344, 0.21043209652974681, 0.21805431170123413, 0.23006812705681057, 0.6076214762282213]",22.58,0.0,0.0,0.0,901.0304879749405,80.7808034454491,-1180.756582653087,-1639.6181927329512,1848.0614320284935,0.0,0.0,0.0,0.0,0.0,0.0,-5.8,21.764143917014852,0.0,21.134816258801152,0.0,-5.8,22.58,20.03,22.24,21.85,22.43,-6.37,-5.8,3373.85,-840.52,-980.75,0.0,160.0,9.0,590.0,0.0,0.0,0.0,0.0,0.0,0.0,0.0,0.0,0.0,0.0,0.0,0.0,0.0,0.0
50.0,3298.0,0.0,7449.069167548771,-0.0,0.0,10747.06916754877,0.0,14094.696741930104,0.0,0.0,0.0,14094.696741930104,0.46752434879009364,0.05483497385120051,0.6972303206997073,0.0,0.0,0.0,"[0.5780833820319877, 0.7906104461816668, 0.8616885653654194, 0.09094538790119344, 0.21043209652974681, 0.21805431170123413, 0.23006812705681057, 0.6076214762282213]",22.58,0.0,0.0,0.0,280.53599695758595,59.280470555631425,-1230.68623717235,-1586.8618394781595,2484.7016169419167,0.0,0.0,0.0,0.0,0.0,0.0,-7.0,21.791242881855325,0.0,21.172193518198128,0.0,-7.0,22.58,20.06,22.29,21.87,22.45,-7.6,-7.0,2767.82,-876.07,-1022.22,0.0,160.0,0.0,126.0,0.0,0.0,0.0,0.0,0.0,0.0,0.0,0.0,0.0,0.0,0.0,0.0,0.0,0.0
51.0,1510.0,0.0,4682.172683543004,-0.0,0.0,6192.172683543004,0.0,8591.51611979635,0.0,0.0,0.0,8591.516119796352,0.2042517006802721,0.05483497385120051,0.6972303206997073,0.0,0.0,0.0,"[0.5780833820319877, 0.7906104461816668, 0.8616885653654194, 0.09094538790119344, 0.21043209652974681, 0.21805431170123413, 0.23006812705681057, 0.6076214762282213]",22.58,0.0,0.0,0.0,163.09578991875676,56.25805954236632,-1255.651064431982,-1525.2451106116562,273.48231512431886,0.0,0.0,0.0,0.0,0.0,0.0,-7.6,21.82254496005,0.0,21.21449241544004,0.0,-7.6,22.58,20.09,22.34,21.97,22.54,-8.21,-7.6,0.0,-893.84,-1042.95,0.0,160.0,0.0,38.0,0.0,0.0,0.0,0.0,0.0,0.0,0.0,0.0,0.0,0.0,0.0,0.0,0.0,0.0
52.0,4804.0,0.0,0.0,-0.0,0.0,4804.0,0.0,6575.032426815819,0.0,6575.032426815818,0.0,0.0,0.0,0.026879904009296518,0.6972303206997073,0.0,0.0,0.0,"[0.5780833820319877, 0.7906104461816668, 0.8616885653654194, 0.09094538790119344, 0.21043209652974681, 0.21805431170123413, 0.23006812705681057, 0.6076214762282213]",21.42,0.0,0.0,0.0,165.69464617499878,61.856389032846,-1236.6708569879113,22.426284005574892,993.9664138209146,0.0,0.0,0.0,0.0,0.0,0.0,-8.3,21.44598474971809,0.0,21.183200028669702,0.0,-8.3,21.42,20.08,22.28,21.09,21.92,-8.93,-8.3,1429.51,-880.33,-1027.19,0.0,160.0,9.0,39.0,0.0,0.0,0.0,0.0,0.0,0.0,0.0,0.0,0.0,0.0,0.0,0.0,0.0,0.0
53.0,2461.0,2473.3668341708544,0.0,-0.0,0.0,0.0,0.0,6322.153422986541,0.0,6322.153422986541,0.0,0.0,0.0,0.0,0.6972303206997073,0.0,0.0,0.0,"[0.5780833820319877, 0.7906104461816668, 0.8616885653654194, 0.09094538790119344, 0.21043209652974681, 0.21805431170123413, 0.23006812705681057, 0.6076214762282213]",21.42,0.0,0.0,0.0,184.09735804352343,72.7782833762358,-1261.6356842475432,-45.42050576404167,1058.737585983479,0.0,0.0,0.0,0.0,0.0,0.0,-8.9,21.412062550780217,0.0,21.141288515329393,0.0,-8.9,21.42,20.07,22.21,21.18,21.95,-9.55,-8.9,188.73,-898.1,-1047.93,0.0,160.0,26.0,51.0,0.0,0.0,0.0,0.0,0.0,0.0,0.0,0.0,0.0,0.0,0.0,0.0,0.0,0.0
54.0,1905.0,13705.41264146752,6358.974011831933,-0.0,0.0,-5372.911566428249,0.0,10577.152679899044,0.0,0.0,0.0,10577.152679899042,0.21939388896248682,0.0,0.6972303206997073,0.0,0.0,0.0,"[0.5780833820319877, 0.7906104461816668, 0.8616885653654194, 0.09094538790119344, 0.21043209652974681, 0.21805431170123413, 0.23006812705681057, 0.6076214762282213]",21.42,0.0,0.0,0.0,290.1587890415091,124.64010871748924,-1282.4397069639028,-106.56207980998315,3283.532326533877,0.0,0.0,0.0,0.0,0.0,0.0,-9.4,21.381468166077138,0.0,21.103038673999563,0.0,-9.4,21.42,20.05,22.15,21.18,21.92,-10.05,-9.4,2952.71,-912.91,-1065.21,0.0,294.0,35.0,59.0,0.0,0.0,0.0,0.0,0.0,0.0,0.0,0.0,0.0,0.0,0.0,0.0,0.0,0.0
55.0,1476.0,0.0,3684.14426839769,-0.0,0.0,5160.14426839769,0.0,5952.383898281633,0.0,0.0,0.0,5952.383898281633,0.0,0.0,0.6972303206997073,0.0,0.0,0.0,"[0.5780833820319877, 0.7906104461816668, 0.8616885653654194, 0.09094538790119344, 0.21043209652974681, 0.21805431170123413, 0.23006812705681057, 0.6076214762282213]",22.58,0.0,0.0,0.0,397.97620399641505,106.95213517394916,-1351.3495689272365,-1651.41410152743,215.73576782472335,0.0,0.0,0.0,0.0,0.0,0.0,-9.9,21.759968199853432,0.0,21.139353273454763,0.0,-9.9,22.58,20.07,22.2,22.09,22.55,-10.57,-9.9,283.82,-961.96,-1122.44,0.0,216.0,43.0,180.0,0.0,0.0,0.0,0.0,0.0,0.0,0.0,0.0,0.0,0.0,0.0,0.0,0.0,0.0
56.0,2864.0,2878.391959798995,0.0,-0.0,0.0,0.0,0.0,7167.389178988208,0.0,7167.389178988208,0.0,0.0,0.0,0.2961930732185876,0.6972303206997073,0.0,0.0,0.0,"[0.5780833820319877, 0.7906104461816668, 0.8010675620758363, 0.09094538790119344, 0.21043209652974681, 0.21805431170123413, 0.23006812705681057, 0.6076214762282213]",21.42,0.0,0.0,3.536977963067489,470.53346109636146,138.10357595839747,-1294.9221205937185,-94.21293927775316,793.2756224735377,0.0,0.0,0.0,0.0,0.0,0.0,-9.7,21.38783100146353,0.0,21.112001433623995,0.0,-9.7,21.42,20.06,22.16,21.08,21.85,-10.39,-9.7,1062.74,-921.79,-1075.57,5.15,272.0,61.0,203.0,0.0,0.0,0.0,0.0,0.0,0.0,0.0,0.0,0.0,0.0,0.0,0.0,0.0,0.0
57.0,3368.0,0.0,0.0,-4835.010324328065,8203.010324328065,0.0,0.0,4689.409300658128,0.0,4689.409300658128,0.0,0.0,0.0,0.2762551085049051,0.7141528568348555,0.0,0.0,0.0,"[0.5780833820319877, 0.7906104461816668, 0.8010675620758363, 0.09094538790119344, 0.21043209652974681, 0.21805431170123413, 0.23006812705681057, 0.6076214762282213]",21.42,0.0,0.0,978.8432473339616,534.8727132779211,137.55404668325832,-1195.0628115551917,-151.39642110340878,0.0,0.0,0.0,0.0,0.0,0.0,0.0,-7.3,21.35772667874946,0.0,21.073779102246633,0.0,-7.3,21.42,20.04,22.1,21.16,21.88,-7.31,-7.3,127.2,-850.71,-992.63,1424.99,286.0,50.0,245.0,0.0,0.0,0.0,0.0,0.0,0.0,0.0,0.0,0.0,0.0,0.0,0.0,0.0,0.0
58.0,5897.0,0.0,948.4423070601814,-0.0,14132.034332285612,-7286.59202522543,0.0,1957.3397860743657,0.0,0.0,0.0,1957.3397860743657,0.2975358410300384,0.2762551085049051,0.7141528568348555,0.0,0.0,0.0,"[0.5780833820319877, 0.7906104461816668, 0.8010675620758363, 0.09094538790119344, 0.21043209652974681, 0.21805431170123413, 0.23006812705681057, 0.6076214762282213]",21.56,0.0,0.0,1351.2939667941855,654.2796223485009,122.44199161693282,-1113.2913680131735,-338.1010832485218,0.0,0.0,0.0,0.0,0.0,0.0,0.0,-5.2,21.397482772601705,0.0,21.073591219130073,0.0,-5.2,21.56,20.05,22.1,21.46,22.09,-5.06,-5.2,0.0,-792.5,-924.71,1967.2,300.0,13.0,331.0,0.0,0.0,0.0,0.0,0.0,0.0,0.0,0.0,0.0,0.0,0.0,0.0,0.0,0.0
59.0,6775.0,30958.53222923707,29791.146405919848,-0.0,17740.869447482655,-11978.462609653694,0.0,5203.006334423124,0.0,-61390.36652906307,0.0,66593.37286348619,0.7866563975908976,0.5269324384985793,0.7141528568348555,0.0,0.0,0.0,"[0.5780833820319877, 0.7906104461816668, 0.8010675620758363, 0.09094538790119344, 0.21043209652974681, 0.21805431170123413, 0.23006812705681057, 0.6076214762282213]",21.88,0.0,0.0,1670.9586225203882,936.5013639047303,95.03421901936973,-1051.664762847602,-734.2743497514995,525.3084053709182,0.0,0.0,0.0,0.0,0.0,0.0,-3.4,21.516064948460915,0.0,21.10365349893653,0.0,-3.4,21.88,20.07,22.13,21.76,22.31,-3.11,-3.4,1700.45,-748.63,-873.52,2432.57,218.0,0.0,587.0,0.0,0.0,0.0,0.0,0.0,0.0,0.0,0.0,0.0,0.0,0.0,0.0,0.0,0.0
60.0,10574.0,0.0,0.0,-0.0,18300.742373196867,-5224.7412834882225,0.0,2251.8009807377784,0.0,0.0,0.0,0.0,1.0,0.5269324384985793,0.7141528568348555,10008.004358834574,2502.0010897086436,12510.005448543217,"[0.5780833820319877, 0.7906104461816668, 0.8010675620758363, 0.09094538790119344, 0.21043209652974681, 0.21805431170123413, 0.23006812705681057, 0.6076214762282213]",22.58,0.0,0.0,1721.9635856007624,804.1001735529403,101.38815126316568,-1039.2892281818408,-1587.3573718987952,48.50614356626281,0.0,0.0,0.0,0.0,0.0,0.0,-2.4,21.788675728631635,0.0,21.182794262752942,0.0,-2.4,22.58,20.13,22.24,22.31,22.73,-2.09,-2.4,714.81,-739.82,-863.24,2506.82,248.0,0.0,472.0,0.0,0.0,0.0,0.0,0.0,0.0,0.0,0.0,0.0,0.0,0.0,0.0,0.0,0.0
61.0,12346.0,0.0,3825.7851761638685,-0.0,16171.785176163869,0.0,0.0,2266.472526905485,0.0,-6759.6031683449,0.0,9026.075695250385,1.0,0.5545341514359876,0.7141528568348555,0.0,0.0,0.0,"[0.5780833820319877, 0.7906104461816668, 0.8010675620758363, 0.09094538790119344, 0.21043209652974681, 0.21805431170123413, 0.23006812705681057, 0.6076214762282213]",22.58,0.0,0.0,1478.5333106721596,340.8013663590903,44.2371066486983,-1026.8068145520251,-1461.334940588166,0.0,0.0,0.0,0.0,0.0,0.0,0.0,-2.1,21.852097926278446,0.0,21.267505091714824,0.0,-2.1,22.58,20.19,22.35,22.3,22.77,-1.91,-2.1,749.99,-730.93,-852.87,2152.44,109.0,0.0,198.0,0.0,0.0,0.0,0.0,0.0,0.0,0.0,0.0,0.0,0.0,0.0,0.0,0.0,0.0
62.0,3720.0,0.0,0.0,-0.0,9035.63384333592,0.0,0.0,4775.928250857933,0.0,-8.142208144393408,0.0,0.0,1.0,0.5545673987859105,0.6999400288465173,21262.53537334368,5315.63384333592,26578.1692166796,"[0.5780833820319877, 0.7906104461816668, 0.8010675620758363, 0.09094538790119344, 0.21043209652974681, 0.21805431170123413, 0.23006812705681057, 0.6076214762282213]",22.24,0.0,0.0,756.0937453425342,233.54586627039888,6.0104764468340095,-1042.0567978932725,-919.7364534770319,1645.1435722503818,0.0,0.0,0.0,0.0,0.0,0.0,-2.8,21.79182465691325,0.0,21.323674592002153,0.0,-2.8,22.24,20.23,22.42,22.04,22.63,-3.03,-2.8,0.0,-741.79,-865.54,1100.71,0.0,0.0,175.0,0.0,0.0,0.0,0.0,0.0,0.0,0.0,0.0,0.0,0.0,0.0,0.0,0.0,0.0
63.0,1869.0,0.0,0.0,-0.0,0.0,1869.0,0.0,7034.53642591559,0.0,7034.53642591559,0.0,0.0,0.9205357142857142,0.5246586554784463,0.6999400288465173,0.0,0.0,0.0,"[0.5780833820319877, 0.7906104461816668, 0.8010675620758363, 0.09094538790119344, 0.21043209652974681, 0.21805431170123413, 0.23006812705681057, 0.6076214762282213]",22.58,0.0,0.0,11.906531681388735,66.7273903629711,1.7172789848097156,-1122.5053190472797,-1311.8285685784144,751.521010038895,0.0,0.0,0.0,0.0,0.0,0.0,-4.4,21.928788344415153,0.0,21.37325806454888,0.0,-4.4,22.58,20.27,22.47,22.19,22.73,-5.15,-4.4,2235.41,-799.06,-932.36,17.33,0.0,0.0,50.0,0.0,0.0,0.0,0.0,0.0,0.0,0.0,0.0,0.0,0.0,0.0,0.0,0.0,0.0
64.0,5081.0,0.0,1548.3161727739707,-0.0,0.0,6629.316172773971,0.0,3210.0849739212836,0.0,0.0,0.0,3210.0849739212836,0.6386770334704944,0.5246586554784463,0.6999400288465173,0.0,0.0,0.0,"[0.5780833820319877, 0.7906104461816668, 0.8010675620758363, 0.09094538790119344, 0.21043209652974681, 0.21805431170123413, 0.23006812705681057, 0.6076214762282213]",21.77,0.0,0.0,0.0,697.8280244801242,93.5917046721296,-1118.0270959308998,-228.06995064571765,775.3110402940301,0.0,0.0,0.0,0.0,0.0,0.0,-5.1,21.667165376492612,0.0,21.354722469971705,0.0,-5.1,21.77,20.28,22.43,21.4,22.17,-5.85,-5.1,0.0,-795.87,-928.64,0.0,138.0,50.0,445.0,0.0,0.0,0.0,0.0,0.0,0.0,0.0,0.0,0.0,0.0,0.0,0.0,0.0,0.0
65.0,10195.0,0.0,386.12395477339845,-0.0,0.0,10581.123954773399,0.0,771.0927774225138,0.0,0.0,0.0,771.0927774225138,0.18879931430495883,0.5246586554784463,0.6999400288465173,0.0,0.0,0.0,"[0.5780833820319877, 0.7906104461816668, 0.8010675620758363, 0.09094538790119344, 0.21043209652974681, 0.21805431170123413, 0.23006812705681057, 0.6076214762282213]",21.88,0.0,0.0,0.0,706.8889016978328,185.32874804066466,-1155.7082308897834,-420.33615438508536,0.0,0.0,0.0,0.0,0.0,0.0,0.0,-5.9,21.676285187824007,0.0,21.327860588753577,0.0,-5.9,21.88,20.28,22.38,21.48,22.2,-6.63,-5.9,0.0,-822.69,-959.94,0.0,117.0,210.0,446.0,0.0,0.0,0.0,0.0,0.0,0.0,0.0,0.0,0.0,0.0,0.0,0.0,0.0,0.0
66.0,6709.0,49660.46322198816,42703.16090587822,-0.0,0.0,0.0,0.0,2021.7519222468545,0.0,-80000.0,0.0,82021.75192224687,0.18879931430495883,0.851325322145113,0.6999400288465173,0.0,0.0,0.0,"[0.5780833820319877, 0.7906104461816668, 0.8010675620758363, 0.09094538790119344, 0.21043209652974681, 0.21805431170123413, 0.23006812705681057, 0.6076214762282213]",21.52,0.0,0.0,0.0,814.636077294462,183.47408673707014,-1174.2020243893999,1.8992147496029332,0.0,0.0,0.0,0.0,0.0,0.0,0.0,-6.7,21.5336812682163,0.0,21.285145506649215,0.0,-6.7,21.52,20.26,22.31,21.23,21.99,-7.41,-6.7,0.0,-835.86,-975.3,0.0,82.0,221.0,544.0,0.0,0.0,0.0,0.0,0.0,0.0,0.0,0.0,0.0,0.0,0.0,0.0,0.0,0.0
67.0,9162.0,28243.79031896032,2940.5713673655177,-0.0,0.0,-16000.0,0.0,5451.845154175915,0.0,0.0,0.0,5451.845154175914,0.8421326476382922,0.851325322145113,0.656754897651182,0.0,0.0,0.0,"[0.5780833820319877, 0.7906104461816668, 0.8010675620758363, 0.09094538790119344, 0.21043209652974681, 0.21805431170123413, 0.23006812705681057, 0.6076214762282213]",21.42,0.0,0.0,0.0,3258.3335911030185,223.62406940192133,-1199.223616098464,57.007470169033525,-18.773860084952453,0.0,0.0,0.0,0.0,0.0,0.0,-7.4,21.46306745891958,0.0,21.234209415666463,0.0,-7.4,21.42,20.24,22.23,21.16,21.9,-8.12,-7.4,2131.44,-853.67,-996.09,0.0,133.0,157.0,2355.0,0.0,0.0,0.0,0.0,0.0,0.0,0.0,0.0,0.0,0.0,0.0,0.0,0.0,0.0
68.0,10558.0,28529.981525280422,0.0,-0.0,0.0,-15884.60702207307,0.0,1750.252136022857,0.0,0.0,0.0,0.0,1.0,0.851325322145113,0.656754897651182,7778.898382323812,1944.724595580953,9723.622977904764,"[0.5780833820319877, 0.7906104461816668, 0.8010675620758363, 0.09094538790119344, 0.12900072452919886, 0.21805431170123413, 0.23006812705681057, 0.6076214762282213]",22.58,0.0,0.0,0.0,1247.4510029961757,146.99908109971176,-1280.6158916916136,-1562.7019729376204,0.0,0.0,0.0,0.0,0.0,0.0,0.0,-8.2,21.803965951119434,0.0,21.222412259643285,0.0,-8.2,22.58,20.24,22.21,21.73,22.28,-8.91,-8.2,0.0,-911.61,-1063.69,0.0,151.0,107.0,844.0,0.0,0.0,0.0,0.0,0.0,0.0,0.0,0.0,0.0,0.0,0.0,0.0,0.0,0.0
69.0,7517.0,6449.513246280535,0.0,-0.0,0.0,6130.860656713637,0.0,4528.013703086491,0.0,0.0,0.0,0.0,0.7393341557519713,0.851325322145113,0.656754897651182,20124.505347051076,5031.126336762769,25155.631683813845,"[0.5780833820319877, 0.7906104461816668, 0.8010675620758363, 0.09094538790119344, 0.12900072452919886, 0.21805431170123413, 0.23006812705681057, 0.6076214762282213]",21.84,0.0,0.0,0.0,1409.914638690441,195.3233117322572,-1279.004945464905,-565.0048576133827,1727.888803402517,0.0,0.0,0.0,0.0,0.0,0.0,-8.9,21.56791226593536,0.0,21.20690394741687,0.0,-8.9,21.84,20.23,22.18,21.33,22.0,-9.59,-8.9,1706.27,-910.46,-1062.35,0.0,162.0,173.0,953.0,0.0,0.0,0.0,0.0,0.0,0.0,0.0,0.0,0.0,0.0,0.0,0.0,0.0,0.0
70.0,4554.0,0.0,0.0,-0.0,0.0,4554.0,0.0,10359.85614472768,0.0,10359.856144727682,0.0,0.0,0.5457117067723795,0.8072783147270531,0.656754897651182,0.0,0.0,0.0,"[0.5780833820319877, 0.7906104461816668, 0.8010675620758363, 0.09094538790119344, 0.12900072452919886, 0.21805431170123413, 0.23006812705681057, 0.6076214762282213]",22.58,0.0,0.0,0.0,995.6429035738058,129.3111075561717,-1343.0279598406926,-1554.2435819919178,1787.5215164409815,0.0,0.0,0.0,0.0,0.0,0.0,-9.7,21.808852305756712,0.0,21.228340660600395,0.0,-9.7,22.58,20.24,22.22,21.96,22.44,-10.39,-9.7,1569.74,-956.04,-1115.53,0.0,92.0,120.0,685.0,0.0,0.0,0.0,0.0,0.0,0.0,0.0,0.0,0.0,0.0,0.0,0.0,0.0,0.0
71.0,3037.0,0.0,1218.855540917054,-0.0,0.0,4255.855540917054,0.0,6190.532688910139,0.0,4279.355523559947,0.0,1911.1771653501928,0.3647654677878108,0.7890837759364071,0.656754897651182,0.0,0.0,0.0,"[0.5780833820319877, 0.7906104461816668, 0.8010675620758363, 0.09094538790119344, 0.12900072452919886, 0.21805431170123413, 0.23006812705681057, 0.6076214762282213]",22.58,0.0,0.0,0.0,768.8400156979808,99.39610764078644,-1372.1535916435964,-1504.610566289524,0.0,0.0,0.0,0.0,0.0,0.0,0.0,-10.4,21.834152103798832,0.0,21.26014645460178,0.0,-10.4,22.58,20.25,22.27,21.95,22.46,-11.08,-10.4,0.0,-976.77,-1139.72,0.0,103.0,75.0,514.0,0.0,0.0,0.0,0.0,0.0,0.0,0.0,0.0,0.0,0.0,0.0,0.0,0.0,0.0
72.0,1567.0,0.0,0.0,-0.0,0.0,8579.283802369311,0.0,6311.055422132378,0.0,0.0,0.0,0.0,0.0,0.7890837759364071,0.656754897651182,28049.135209477245,7012.283802369311,35061.419011846556,"[0.5780833820319877, 0.7906104461816668, 0.8010675620758363, 0.09094538790119344, 0.12900072452919886, 0.21805431170123413, 0.23006812705681057, 0.6076214762282213]",21.56,0.0,0.0,0.0,296.48033128642214,88.57725003648521,-1350.6055868139786,-144.85052637494783,846.353218766215,0.0,0.0,0.0,0.0,0.0,0.0,-10.9,21.50117813723476,0.0,21.22822915392711,0.0,-10.9,21.56,20.23,22.22,21.19,21.92,-11.61,-10.9,371.87,-961.43,-1121.82,0.0,160.0,47.0,133.0,0.0,0.0,0.0,0.0,0.0,0.0,0.0,0.0,0.0,0.0,0.0,0.0,0.0,0.0
73.0,1193.0,26364.513679980846,9039.69111158094,-0.0,0.0,-16000.0,0.0,13226.362622395187,0.0,0.0,0.0,13226.362622395187,0.6533333333333333,0.7890837759364071,0.656754897651182,0.0,0.0,0.0,"[0.5780833820319877, 0.7906104461816668, 0.8010675620758363, 0.09094538790119344, 0.12900072452919886, 0.21805431170123413, 0.23006812705681057, 0.6076214762282213]",21.42,0.0,0.0,0.0,117.15924960572188,64.2949251912758,-1369.8166023726137,-19.14736003681319,3509.744031786861,0.0,0.0,0.0,0.0,0.0,0.0,-11.5,21.426427069847573,0.0,21.18519394120019,0.0,-11.5,21.42,20.21,22.16,21.22,21.92,-12.23,-11.5,756.93,-975.11,-1137.78,0.0,160.0,15.0,2.0,0.0,0.0,0.0,0.0,0.0,0.0,0.0,0.0,0.0,0.0,0.0,0.0,0.0,0.0
74.0,1586.0,11324.702066700036,9682.078556366536,-0.0,0.0,0.0,0.0,13520.151863671555,0.0,0.0,0.0,13520.15186367156,0.6533333333333333,0.7890837759364071,0.656754897651182,0.0,0.0,0.0,"[0.5780833820319877, 0.7906104461816668, 0.8010675620758363, 0.09094538790119344, 0.12900072452919886, 0.21805431170123413, 0.23006812705681057, 0.6076214762282213]",22.58,0.0,0.0,0.0,222.51828702093948,60.86036722165636,-1447.0480734224911,-1567.7824283032305,1635.6244807741182,0.0,0.0,0.0,0.0,0.0,0.0,-12.2,21.80310785205263,0.0,21.2172569539373,0.0,-12.2,22.58,20.22,22.22,22.15,22.57,-12.95,-12.2,3398.91,-1030.08,-1201.93,0.0,160.0,5.0,82.0,0.0,0.0,0.0,0.0,0.0,0.0,0.0,0.0,0.0,0.0,0.0,0.0,0.0,0.0
75.0,724.0,0.0,8694.758684557532,-0.0,0.0,9418.758684557532,0.0,11809.889254296286,0.0,0.0,0.0,11809.889254296286,0.25287590626881246,0.7890837759364071,0.656754897651182,0.0,0.0,0.0,"[0.5780833820319877, 0.7906104461816668, 0.8010675620758363, 0.09094538790119344, 0.12900072452919886, 0.21805431170123413, 0.23006812705681057, 0.6076214762282213]",22.02,0.0,0.0,0.0,112.38297324289871,54.95292751391094,-1440.5682186772124,-787.5524524580653,3170.2290932387887,0.0,0.0,0.0,0.0,0.0,0.0,-12.6,21.64042207358182,0.0,21.223112162149246,0.0,-12.6,22.02,20.21,22.23,21.61,22.22,-13.35,-12.6,217.71,-1025.47,-1196.55,0.0,160.0,0.0,0.0,0.0,0.0,0.0,0.0,0.0,0.0,0.0,0.0,0.0,0.0,0.0,0.0,0.0,0.0
76.0,1067.0,1072.3618090452262,0.0,-0.0,0.0,0.0,0.0,16284.721295398294,0.0,16284.721295398298,0.0,0.0,0.25287590626881246,0.7198460153267204,0.656754897651182,0.0,0.0,0.0,"[0.5780833820319877, 0.7906104461816668, 0.8010675620758363, 0.09094538790119344, 0.12900072452919886, 0.21805431170123413, 0.23006812705681057, 0.6076214762282213]",22.58,0.0,0.0,0.0,225.96001557650317,70.16801931932504,-1480.334509768667,-1501.5730486931855,399.3550016135383,0.0,0.0,0.0,0.0,0.0,0.0,-13.0,21.836800351175345,0.0,21.257269914467287,0.0,-13.0,22.58,20.22,22.29,22.11,22.58,-13.74,-13.0,3384.39,-1053.78,-1229.58,0.0,160.0,20.0,83.0,0.0,0.0,0.0,0.0,0.0,0.0,0.0,0.0,0.0,0.0,0.0,0.0,0.0,0.0
77.0,1930.0,1939.6984924623116,0.0,-0.0,0.0,0.0,0.0,7746.572867472845,0.0,7746.572867472845,0.0,0.0,0.25287590626881246,0.6869099061963087,0.656754897651182,0.0,0.0,0.0,"[0.5780833820319877, 0.7906104461816668, 0.8010675620758363, 0.09094538790119344, 0.12900072452919886, 0.21805431170123413, 0.23006812705681057, 0.6076214762282213]",21.42,0.0,0.0,0.0,143.85020575091036,76.65933388190577,-1448.8718886947806,45.1146903856924,1192.2610175522325,0.0,0.0,0.0,0.0,0.0,0.0,-13.4,21.459614618544755,0.0,21.221631351769005,0.0,-13.4,21.42,20.2,22.25,21.15,21.92,-14.15,-13.4,0.0,-1031.38,-1203.45,0.0,160.0,34.0,20.0,0.0,0.0,0.0,0.0,0.0,0.0,0.0,0.0,0.0,0.0,0.0,0.0,0.0,0.0
78.0,1160.0,18958.996271166838,0.0,-0.0,0.0,0.0,0.0,15933.781160829896,0.0,0.0,0.0,0.0,0.25287590626881246,0.6869099061963087,0.656754897651182,70816.80515924402,17704.201289811004,88521.00644905501,"[0.5780833820319877, 0.7906104461816668, 0.8010675620758363, 0.09094538790119344, 0.12900072452919886, 0.21805431170123413, 0.23006812705681057, 0.6076214762282213]",21.42,0.0,0.0,0.0,320.92362796675263,130.20409262827275,-1465.515106867868,-22.177146577439938,3346.5481657715573,0.0,0.0,0.0,0.0,0.0,0.0,-13.8,21.425876375033745,0.0,21.176727399811227,0.0,-13.8,21.42,20.17,22.19,21.25,21.96,-14.55,-13.8,598.19,-1043.23,-1217.27,0.0,320.0,29.0,69.0,0.0,0.0,0.0,0.0,0.0,0.0,0.0,0.0,0.0,0.0,0.0,0.0,0.0,0.0
79.0,950.0,0.0,0.0,-0.0,0.0,950.0,0.0,8570.385525928861,0.0,8570.38552592886,0.0,0.0,0.21248474980622742,0.6504711922255227,0.656754897651182,0.0,0.0,0.0,"[0.5780833820319877, 0.7906104461816668, 0.8010675620758363, 0.09094538790119344, 0.12900072452919886, 0.21805431170123413, 0.23006812705681057, 0.6076214762282213]",22.58,0.0,0.0,0.0,138.6524932384263,78.51399518550026,-1526.103359744658,-1574.518816798753,598.0124592704352,0.0,0.0,0.0,0.0,0.0,0.0,-14.1,21.800517867548944,0.0,21.205633125417798,0.0,-14.1,22.58,20.17,22.24,22.14,22.58,-14.86,-14.1,1190.84,-1086.36,-1267.59,0.0,117.0,60.0,36.0,0.0,0.0,0.0,0.0,0.0,0.0,0.0,0.0,0.0,0.0,0.0,0.0,0.0,0.0
80.0,1131.0,2349.9706770539424,0.0,-2.9103830456733704e-11,0.0,-1207.220823668658,0.0,10497.678408018612,0.0,10497.678408018612,0.0,0.0,0.049294850299803544,0.6058382057968722,0.6567548976511821,0.0,0.0,0.0,"[0.5780833820319877, 0.7906104461816668, 0.8010675620758363, 0.09094538790119344, 0.12900072452919886, 0.21805431170123057, 0.23006812705681057, 0.6076214762282213]",21.42,0.0,0.0,2.615296091577371,186.20453879182787,85.48614786382772,-1482.158325040956,-19.569903078972864,1237.5302210575085,0.0,0.0,0.0,0.0,0.0,0.0,-14.2,21.427361477925402,0.0,21.174680012249468,0.0,-14.2,21.42,20.15,22.2,21.16,21.91,-14.95,-14.2,1257.59,-1055.08,-1231.09,3.81,95.0,81.0,81.0,0.0,0.0,0.0,0.0,0.0,0.0,0.0,0.0,0.0,0.0,0.0,0.0,0.0,0.0
81.0,1970.0,0.0,0.0,-0.0,7992.029240336526,-6022.029240336526,0.0,14155.189927120296,0.0,14155.1899271203,0.0,0.0,0.295194377613545,0.5456545751543539,0.656754897651182,0.0,0.0,0.0,"[0.5780833820319877, 0.7906104461816668, 0.8010675620758363, 0.09094538790119344, 0.12900072452919886, 0.21805431170123057, 0.23006812705681057, 0.6076214762282213]",21.42,0.0,0.0,920.3261429535364,297.3232035857439,68.24466685633816,-1386.4598205457014,-79.68585461423065,2341.3945117816975,0.0,0.0,0.0,0.0,0.0,0.0,-11.9,21.39582171963711,0.0,21.132304986782266,0.0,-11.9,21.42,20.12,22.15,21.24,21.94,-11.98,-11.9,365.13,-986.95,-1151.61,1339.8,122.0,34.0,155.0,0.0,0.0,0.0,0.0,0.0,0.0,0.0,0.0,0.0,0.0,0.0,0.0,0.0,0.0
82.0,5335.0,0.0,0.0,-0.0,14290.197225934182,-8955.197225934182,0.0,2729.3806006523205,0.0,2729.3806006523205,0.0,0.0,0.6608649310058574,0.534050065797839,0.656754897651182,0.0,0.0,0.0,"[0.5780833820319877, 0.7906104461816668, 0.8010675620758363, 0.09094538790119344, 0.12900072452919886, 0.21805431170123057, 0.23006812705681057, 0.6076214762282213]",22.5,0.0,0.0,1323.3793417378367,1382.310570887654,82.42939127086642,-1352.1238361322614,-1484.609366177698,0.0,0.0,0.0,0.0,0.0,0.0,0.0,-10.0,21.762275684909266,0.0,21.183285698336043,0.0,-10.0,22.5,20.14,22.23,22.25,22.67,-9.83,-10.0,0.0,-962.51,-1123.09,1926.56,144.0,0.0,960.0,0.0,0.0,0.0,0.0,0.0,0.0,0.0,0.0,0.0,0.0,0.0,0.0,0.0,0.0
83.0,4198.0,0.0,0.0,-0.0,17251.52726825571,-8305.348628427982,0.0,4273.360775844953,0.0,0.0,0.0,0.0,1.0,0.534050065797839,0.656754897651182,18992.714559310913,4748.178639827728,23740.893199138638,"[0.5780833820319877, 0.7906104461816668, 0.8010675620758363, 0.09094538790119344, 0.12900072452919886, 0.21805431170123057, 0.23006812705681057, 0.6076214762282213]",22.45,0.0,0.0,1575.7011678164145,105.42927677349435,2.713300795999353,-1287.8870210354746,-1342.4102716179373,0.0,0.0,0.0,0.0,0.0,0.0,0.0,-8.5,21.789359660796485,0.0,21.23508416156173,0.0,-8.5,22.45,20.17,22.3,22.06,22.59,-8.19,-8.5,0.0,-916.78,-1069.73,2293.89,0.0,0.0,79.0,0.0,0.0,0.0,0.0,0.0,0.0,0.0,0.0,0.0,0.0,0.0,0.0,0.0,0.0
84.0,6604.0,0.0,0.0,-9635.902256528192,19356.98507330386,0.0,0.0,2805.374535098098,0.0,0.0,0.0,0.0,1.0,0.534050065797839,0.6817341998638995,12468.331267102663,3117.082816775666,15585.414083878328,"[0.5780833820319877, 0.7906104461816668, 0.8010675620758363, 0.09094538790119344, 0.12900072452919886, 0.21805431170123057, 0.23006812705681057, 0.6076214762282213]",21.96,0.0,0.0,1753.9364925421971,2.669095614518838,0.06869115939238765,-1225.7134403233676,-596.1572909138519,0.0,0.0,0.0,0.0,0.0,0.0,0.0,-7.5,21.670423403307513,0.0,21.27568332886075,0.0,-7.5,21.96,20.19,22.36,21.9,22.51,-7.1,-7.5,0.0,-872.53,-1018.09,2553.37,0.0,0.0,2.0,0.0,0.0,0.0,0.0,0.0,0.0,0.0,0.0,0.0,0.0,0.0,0.0,0.0,0.0
85.0,6962.0,0.0,10165.617088899922,-0.0,17127.617088899922,0.0,0.0,4161.8112044279205,0.0,-14879.156099464557,0.0,19040.967303892478,1.0,0.5948066198706526,0.6429222465111297,0.0,0.0,0.0,"[0.5780833820319877, 0.7906104461816668, 0.8010675620758363, 0.09094538790119344, 0.12900072452919886, 0.21805431170123057, 0.23006812705681057, 0.6076214762282213]",21.91,0.0,0.0,1562.6330929538894,109.43292019527262,2.8163375350879343,-1211.0656562674146,-472.4646925142427,1375.7676409936187,0.0,0.0,0.0,0.0,0.0,0.0,-7.2,21.680591390021775,0.0,21.310570495851255,0.0,-7.2,21.91,20.22,22.4,21.96,22.57,-6.89,-7.2,0.0,-862.1,-1005.92,2274.87,0.0,0.0,82.0,0.0,0.0,0.0,0.0,0.0,0.0,0.0,0.0,0.0,0.0,0.0,0.0,0.0,0.0
86.0,4484.0,0.0,1563.0434547500804,-8168.867825104093,14215.911279854174,0.0,0.0,2853.1933809180346,0.0,0.0,0.0,2853.193380918034,1.0,0.5948066198706526,0.6452742168436004,0.0,0.0,0.0,"[0.5780833820319877, 0.7906104461816668, 0.8010675620758363, 0.09094538790119344, 0.12900072452919886, 0.21805431170123057, 0.23006812705681057, 0.6076214762282213]",22.58,0.0,0.0,1316.119100294621,0.0,0.0,-1259.811868975254,-1302.1910007593717,1274.4618592866855,0.0,0.0,0.0,0.0,0.0,0.0,-7.7,21.93465091072741,0.0,21.37710612377014,0.0,-7.7,22.58,20.26,22.49,22.43,22.93,-7.54,-7.7,0.0,-896.8,-1046.41,1915.99,0.0,0.0,0.0,0.0,0.0,0.0,0.0,0.0,0.0,0.0,0.0,0.0,0.0,0.0,0.0,0.0,0.0
87.0,2814.0,0.0,0.0,-0.0,0.7717777856679999,9148.248222214334,0.0,10977.507912963962,31675.1,36317.587912963965,0.0,0.0,0.611043868103132,0.4403951066352616,0.6452742168436004,25340.08,6335.02,31675.1,"[0.5780833820319877, 0.7906104461816668, 0.8010675620758363, 0.09094538790119344, 0.12900072452919886, 0.21805431170123057, 0.23006812705681057, 0.6076214762282213]",22.58,0.0,0.0,18.383086756193748,214.0895640277221,45.74831215533086,-1330.5455462108769,-1209.0693676465262,0.0,0.0,0.0,0.0,0.0,0.0,0.0,-9.4,21.982640157359807,0.0,21.440480438085284,0.0,-9.4,22.58,20.3,22.58,22.36,22.91,-10.09,-9.4,0.0,-947.15,-1105.16,26.76,118.0,3.0,98.0,0.0,0.0,0.0,0.0,0.0,0.0,0.0,0.0,0.0,0.0,0.0,0.0,0.0,0.0
88.0,3523.0,8603.393281045659,5037.376314640431,-0.0,0.0,0.0,0.0,8474.928573531151,0.0,0.0,0.0,8474.928573531151,0.611043868103132,0.4403951066352616,0.6124753830243584,0.0,0.0,0.0,"[0.5780833820319877, 0.7906104461816668, 0.8010675620758363, 0.09094538790119344, 0.12900072452919886, 0.21805431170123057, 0.23006812705681057, 0.6076214762282213]",21.44,0.0,0.0,0.0,305.75192657896133,110.14627408569527,-1274.6946655971292,292.8967751319353,551.3477425188794,0.0,0.0,0.0,0.0,0.0,0.0,-9.2,21.596533184349827,0.0,21.39088254337459,0.0,-9.2,21.44,20.28,22.5,21.17,22.05,-9.9,-9.2,0.0,-907.39,-1058.77,0.0,116.0,105.0,157.0,0.0,0.0,0.0,0.0,0.0,0.0,0.0,0.0,0.0,0.0,0.0,0.0,0.0,0.0
89.0,8844.0,8888.442211055277,0.0,-0.0,0.0,0.0,0.0,2328.084161698488,0.0,2328.0841616984876,0.0,0.0,0.611043868103132,0.43049678962123744,0.6124753830243584,0.0,0.0,0.0,"[0.5780833820319877, 0.7906104461816668, 0.8010675620758363, 0.09094538790119344, 0.12900072452919886, 0.21805431170123057, 0.23006812705681057, 0.6076214762282213]",21.42,0.0,0.0,0.0,1092.502978637529,224.8261646912881,-1265.796488790815,219.23480427279293,0.0,0.0,0.0,0.0,0.0,0.0,0.0,-9.0,21.54545404721658,0.0,21.33203695167387,0.0,-9.0,21.42,20.26,22.41,21.24,22.05,-9.66,-9.0,0.0,-901.06,-1051.38,0.0,155.0,238.0,712.0,0.0,0.0,0.0,0.0,0.0,0.0,0.0,0.0,0.0,0.0,0.0,0.0,0.0,0.0
90.0,10092.0,13112.594174918067,0.0,-0.0,0.0,0.0,0.0,2659.528083639128,0.0,0.0,0.0,0.0,0.611043868103132,0.43049678962123744,0.6124753830243584,11820.124816173906,2955.0312040434765,14775.15602021738,"[0.5780833820319877, 0.7906104461816668, 0.8010675620758363, 0.09094538790119344, 0.12900072452919886, 0.21805431170123057, 0.23006812705681057, 0.6076214762282213]",21.55,0.0,0.0,0.0,2483.8041873846146,249.9671290289025,-1262.5971089992333,-36.406805191948955,0.0,0.0,0.0,0.0,0.0,0.0,0.0,-8.8,21.539717100071204,0.0,21.277823661768046,0.0,-8.8,21.55,20.23,22.32,21.25,22.01,-9.44,-8.8,0.0,-898.78,-1048.72,0.0,143.0,227.0,1762.0,0.0,0.0,0.0,0.0,0.0,0.0,0.0,0.0,0.0,0.0,0.0,0.0,0.0,0.0
91.0,7909.0,0.0,3783.5112598830956,-0.0,0.0,11692.511259883096,0.0,6545.761260487891,0.0,0.0,0.0,6545.7612604878905,0.11391328732578954,0.43049678962123744,0.6042756745695479,0.0,0.0,0.0,"[0.5780833820319877, 0.7906104461816668, 0.8010675620758363, 0.09094538790119344, 0.12900072452919886, 0.21805431170123057, 0.23006812705681057, 0.6076214762282213]",22.25,0.0,0.0,0.0,1559.5947111783264,208.68374223407682,-1287.8988006892237,-1054.552687792869,0.0,0.0,0.0,0.0,0.0,0.0,0.0,-8.7,21.73506990894061,0.0,21.25371145915653,0.0,-8.7,22.25,20.22,22.28,21.59,22.23,-9.32,-8.7,870.92,-916.79,-1069.74,0.0,144.0,198.0,1072.0,0.0,0.0,0.0,0.0,0.0,0.0,0.0,0.0,0.0,0.0,0.0,0.0,0.0,0.0
92.0,6847.0,22961.809045226128,0.0,-0.0,0.0,-16000.0,0.0,759.4591181016376,0.0,759.4591181016376,0.0,0.0,0.7672466206591229,0.42726779677216586,0.6042756745695479,0.0,0.0,0.0,"[0.4755195630195175, 0.7906104461816668, 0.13128739605717854, 0.07443543754252246, 0.12900072452919886, 0.21805431170123057, 0.23006812705681057, 0.1765068133825558]",21.95,0.0,0.0,0.0,961.3660967347217,142.6371924782951,-1267.025774712532,-667.646361050364,0.0,0.0,0.0,0.0,0.0,0.0,0.0,-8.5,21.62813563005954,0.0,21.234327523239273,0.0,-8.5,21.95,20.22,22.25,21.42,22.1,-9.1,-8.5,0.0,-901.93,-1052.4,0.0,130.0,123.0,639.0,0.0,0.0,0.0,0.0,0.0,0.0,0.0,0.0,0.0,0.0,0.0,0.0,0.0,0.0
93.0,5570.0,0.0,0.0,-0.0,0.0,5570.0,0.0,5930.981911351425,0.0,5930.981911351424,0.0,0.0,0.5304268927679664,0.40205103694499145,0.6042756745695479,0.0,0.0,0.0,"[0.4755195630195175, 0.7906104461816668, 0.13128739605717854, 0.07443543754252246, 0.12900072452919886, 0.21805431170123057, 0.23006812705681057, 0.1765068133825558]",21.52,0.0,0.0,0.0,1043.7568639934218,138.75614197262516,-1240.9383370291355,-139.40533854473114,2101.6975947985948,0.0,0.0,0.0,0.0,0.0,0.0,-8.3,21.467037667986894,0.0,21.19417260611597,0.0,-8.3,21.52,20.2,22.19,21.17,21.9,-8.89,-8.3,398.79,-883.36,-1030.73,0.0,155.0,100.0,690.0,0.0,0.0,0.0,0.0,0.0,0.0,0.0,0.0,0.0,0.0,0.0,0.0,0.0,0.0
94.0,5124.0,7236.424067408321,2076.2419470712803,-0.0,0.0,0.0,0.0,3710.816652420047,0.0,0.0,0.0,3710.8166524200474,0.5304268927679664,0.40205103694499145,0.5835030798173613,0.0,0.0,0.0,"[0.4755195630195175, 0.7906104461816668, 0.13128739605717854, 0.07443543754252246, 0.12900072452919886, 0.21805431170123057, 0.23006812705681057, 0.1765068133825558]",22.48,0.0,0.0,0.0,1108.236594891535,92.11484474519321,-1272.1876071071174,-1430.7505023574672,0.0,0.0,0.0,0.0,0.0,0.0,0.0,-8.1,21.76774482300226,0.0,21.210271111705623,0.0,-8.1,22.48,20.21,22.21,21.93,22.42,-8.67,-8.1,298.12,-905.61,-1056.69,0.0,84.0,59.0,780.0,0.0,0.0,0.0,0.0,0.0,0.0,0.0,0.0,0.0,0.0,0.0,0.0,0.0,0.0
95.0,4417.0,4439.195979899498,0.0,-0.0,0.0,0.0,0.0,10578.614443432252,0.0,10578.614443432252,0.0,0.0,0.5304268927679664,0.3570739347195142,0.583503079817361,0.0,0.0,0.0,"[0.4755195630195175, 0.7906104461816668, 0.13128739605717854, 0.07443543754252246, 0.12900072452919886, 0.21805431170123057, 0.23006812705681057, 0.1765068133825558]",21.71,0.0,0.0,0.0,632.5054212826893,134.46294451060083,-1232.1385344860141,-412.296272189166,2406.6934012584647,0.0,0.0,0.0,0.0,0.0,0.0,-7.9,21.517947327985585,0.0,21.18673664790368,0.0,-7.9,21.71,20.2,22.18,21.23,21.94,-8.46,-7.9,1765.61,-877.1,-1023.42,0.0,282.0,43.0,321.0,0.0,0.0,0.0,0.0,0.0,0.0,0.0,0.0,0.0,0.0,0.0,0.0,0.0,0.0
96.0,2367.0,0.0,0.0,-0.0,0.0,2367.0,0.0,7019.926974829825,0.0,7019.926974829825,0.0,0.0,0.4297891376659256,0.32722730642516973,0.5703835462896643,0.0,0.0,0.0,"[0.4755195630195175, 0.7906104461816668, 0.13128739605717854, 0.07443543754252246, 0.12900072452919886, 0.21805431170123057, 0.23006812705681057, 0.1765068133825558]",22.48,0.0,0.0,0.0,716.0902576320952,78.47964960580407,-1238.9011707609418,-1428.1467982294996,0.0,0.0,0.0,0.0,0.0,0.0,0.0,-7.3,21.76871969143094,0.0,21.212174420445937,0.0,-7.3,22.48,20.21,22.21,21.97,22.45,-7.87,-7.3,680.81,-881.91,-1029.04,0.0,160.0,13.0,451.0,0.0,0.0,0.0,0.0,0.0,0.0,0.0,0.0,0.0,0.0,0.0,0.0,0.0,0.0
97.0,1793.0,5640.129205586294,3818.928559558363,-0.0,0.0,0.0,0.0,7371.583250241337,0.0,0.0,0.0,7371.583250241336,0.4297891376659256,0.32722730642516973,0.5703835462896643,0.0,0.0,0.0,"[0.4755195630195175, 0.7906104461816668, 0.13128739605717854, 0.07443543754252246, 0.12900072452919886, 0.21805431170123057, 0.23006812705681057, 0.1765068133825558]",21.53,0.0,0.0,0.0,254.75815246999596,68.45074033451532,-1170.3272364913967,-161.45565705970367,1010.7752444455615,0.0,0.0,0.0,0.0,0.0,0.0,-6.6,21.458150538414973,0.0,21.183169904045926,0.0,-6.6,21.53,20.2,22.17,21.14,21.87,-7.17,-6.6,1880.73,-833.1,-972.08,0.0,160.0,16.0,105.0,0.0,0.0,0.0,0.0,0.0,0.0,0.0,0.0,0.0,0.0,0.0,0.0,0.0,0.0
98.0,1110.0,0.0,0.0,-0.0,0.0,1110.0,0.0,7937.352465493545,0.0,7937.352465493545,0.0,0.0,0.3825952601149052,0.2934800595480713,0.5703835462896643,0.0,0.0,0.0,"[0.4755195630195175, 0.7906104461816668, 0.13128739605717854, 0.07443543754252246, 0.12900072452919886, 0.21805431170123057, 0.23006812705681057, 0.1765068133825558]",21.52,0.0,0.0,0.0,171.10307676231332,56.464133020543485,-1141.0790279906087,-204.9792399135926,1125.129929981602,0.0,0.0,0.0,0.0,0.0,0.0,-5.9,21.43297258605073,0.0,21.152853636932996,0.0,-5.9,21.52,20.19,22.12,21.27,21.93,-6.45,-5.9,1098.24,-812.28,-947.79,0.0,160.0,0.0,44.0,0.0,0.0,0.0,0.0,0.0,0.0,0.0,0.0,0.0,0.0,0.0,0.0,0.0,0.0
99.0,2546.0,1709.507017183347,0.0,-0.0,0.0,845.0405179025698,0.0,11860.548670819671,0.0,11860.54867081967,0.0,0.0,0.3466666666666667,0.2430525566959469,0.5703835462896643,0.0,0.0,0.0,"[0.4755195630195175, 0.7906104461816668, 0.13128739605717854, 0.07443543754252246, 0.12900072452919886, 0.21805431170123057, 0.23006812705681057, 0.1765068133825558]",21.52,0.0,0.0,0.0,143.4990089595263,57.5975371505179,-1124.435809817521,-246.3739039983486,1176.4853015924741,0.0,0.0,0.0,0.0,0.0,0.0,-5.5,21.41194522993359,0.0,21.126782023172296,0.0,-5.5,21.52,20.18,22.08,21.27,21.91,-6.04,-5.5,1979.7,-800.43,-933.97,0.0,160.0,3.0,23.0,0.0,0.0,0.0,0.0,0.0,0.0,0.0,0.0,0.0,0.0,0.0,0.0,0.0,0.0
100.0,1006.0,17091.45728643216,0.0,-0.0,0.0,-16000.0,0.0,9363.229895410848,0.0,9363.22989541085,0.0,0.0,1.0,0.20324290578008442,0.5703835462896643,0.0,0.0,0.0,"[0.4755195630195175, 0.7906104461816668, 0.13128739605717854, 0.07443543754252246, 0.12900072452919886, 0.21805431170123057, 0.23006812705681057, 0.1765068133825558]",21.52,0.0,0.0,0.0,178.3377306648249,70.78623975385652,-1103.6317871011613,-282.62778253118825,3033.0108410641546,0.0,0.0,0.0,0.0,0.0,0.0,-5.0,21.393463002589073,0.0,21.103938228999,0.0,-5.0,21.52,20.17,22.04,21.27,21.9,-5.53,-5.0,1121.27,-785.62,-916.69,0.0,160.0,23.0,47.0,0.0,0.0,0.0,0.0,0.0,0.0,0.0,0.0,0.0,0.0,0.0,0.0,0.0,0.0
101.0,3177.0,0.0,5725.7719763487285,-0.0,0.0,8902.77197634873,0.0,12144.02671684174,0.0,0.0,0.0,12144.026716841741,0.6214807833185064,0.20324290578008442,0.5703835462896636,0.0,0.0,0.0,"[0.4755195630195175, 0.7906104461816668, 0.13128739605717854, 0.07443543754252246, 0.12900072452919886, 0.21805431170123057, 0.23006812705681057, 0.1765068133825558]",22.48,0.0,0.0,0.0,192.2451236036336,73.60257728894447,-1126.5594480925995,-1540.3614524982997,2409.7271549273473,0.0,0.0,0.0,0.0,0.0,0.0,-4.6,21.710991717327758,0.0,21.142212939984226,0.0,-4.6,22.48,20.19,22.09,22.01,22.42,-5.05,-4.6,1944.96,-801.94,-935.73,0.0,160.0,27.0,57.0,0.0,0.0,0.0,0.0,0.0,0.0,0.0,0.0,0.0,0.0,0.0,0.0,0.0,0.0
102.0,6417.0,15765.68680171864,0.0,-0.0,0.0,-9269.858367710047,0.0,8975.476660104567,0.0,8975.476660104567,0.0,0.0,1.0,0.1650818655585514,0.5703835462896636,0.0,0.0,0.0,"[0.4755195630195175, 0.7906104461816668, 0.13128739605717854, 0.07443543754252246, 0.12900072452919886, 0.21805431170123057, 0.23006812705681057, 0.1765068133825558]",22.48,0.0,0.0,0.0,236.49591931802496,97.98793887324246,-1114.0770344627838,-1470.3412623525483,2261.4555465421245,0.0,0.0,0.0,0.0,0.0,0.0,-4.3,21.74615059540155,0.0,21.188435889530762,0.0,-4.3,22.48,20.22,22.16,21.94,22.4,-4.76,-4.3,624.79,-793.06,-925.36,0.0,222.0,32.0,57.0,0.0,0.0,0.0,0.0,0.0,0.0,0.0,0.0,0.0,0.0,0.0,0.0,0.0,0.0
103.0,1050.0,1055.2763819095478,0.0,-0.0,0.0,0.0,0.0,11707.170765599,0.0,11707.170765599001,0.0,0.0,1.0,0.11530647965039237,0.5703835462896636,0.0,0.0,0.0,"[0.4755195630195175, 0.7906104461816668, 0.13128739605717854, 0.07443543754252246, 0.12900072452919886, 0.21805431170123057, 0.23006812705681057, 0.1765068133825558]",22.48,0.0,0.0,0.0,154.10515205932484,61.34120533740308,-1101.5946208329678,-1406.7037025504126,1920.0821089266929,0.0,0.0,0.0,0.0,0.0,0.0,-4.0,21.778084118952055,0.0,21.23087101263194,0.0,-4.0,22.48,20.25,22.21,21.95,22.43,-4.45,-4.0,1139.22,-784.17,-914.99,0.0,131.0,24.0,44.0,0.0,0.0,0.0,0.0,0.0,0.0,0.0,0.0,0.0,0.0,0.0,0.0,0.0,0.0
104.0,5542.0,0.0,0.0,-0.0,0.0,5542.0,0.0,3799.1046706538873,0.0,3799.1046706538873,0.0,0.0,0.7643707482993197,0.08300116782510422,0.5703835462896636,0.0,0.0,0.0,"[0.4755195630195175, 0.7906104461816668, 0.13128739605717854, 0.07443543754252246, 0.12900072452919886, 0.21805431170123057, 0.23006812705681057, 0.1765068133825558]",22.28,0.0,0.0,0.8542314720981355,206.8549101252104,60.27649236682105,-1081.1462148752944,-1101.8533358184332,414.54931918400206,0.0,0.0,0.0,0.0,0.0,0.0,-3.7,21.74001350543308,0.0,21.258258945769875,0.0,-3.7,22.28,20.27,22.24,21.8,22.35,-4.13,-3.7,1179.86,-769.62,-898.01,1.24,133.0,19.0,83.0,0.0,0.0,0.0,0.0,0.0,0.0,0.0,0.0,0.0,0.0,0.0,0.0,0.0,0.0
105.0,4796.0,1171.4591432391423,5233.253988074005,-0.0,5.43907958359153,8858.213060967466,0.0,12296.790126119438,0.0,0.0,0.0,12296.79012611944,0.3877460433262132,0.08300116782510422,0.5703835462896636,0.0,0.0,0.0,"[0.4755195630195175, 0.7906104461816668, 0.13128739605717854, 0.07443543754252246, 0.12900072452919886, 0.21805431170123057, 0.23006812705681057, 0.1765068133825558]",21.52,0.0,0.0,25.214354567876633,308.21030411864973,73.91168750621023,-987.1292598895469,-90.49992376829594,2567.0830616393973,0.0,0.0,0.0,0.0,0.0,0.0,-2.2,21.48902691326449,0.0,21.23375384148757,0.0,-2.2,21.52,20.27,22.2,21.22,21.93,-2.59,-2.2,1986.94,-702.69,-819.92,36.71,165.0,20.0,142.0,0.0,0.0,0.0,0.0,0.0,0.0,0.0,0.0,0.0,0.0,0.0,0.0,0.0,0.0
106.0,3758.0,0.0,0.0,-0.0,18.55477542577994,3739.44522457422,0.0,8160.497452264129,0.0,8160.49745226413,0.0,0.0,0.2287560252745882,0.048305175255954014,0.5703835462896636,0.0,0.0,0.0,"[0.4755195630195175, 0.7906104461816668, 0.13128739605717854, 0.07443543754252246, 0.12900072452919886, 0.21805431170123057, 0.23006812705681057, 0.1765068133825558]",22.48,0.0,0.0,31.733893225639758,1109.992578848455,67.90121105937621,-985.0920936213535,-1365.4524777062463,0.0,0.0,0.0,0.0,0.0,0.0,0.0,-1.2,21.797652374834648,0.0,21.262216494212357,0.0,-1.2,22.48,20.29,22.23,22.01,22.47,-1.56,-1.2,1686.36,-701.24,-818.23,46.2,102.0,10.0,777.0,0.0,0.0,0.0,0.0,0.0,0.0,0.0,0.0,0.0,0.0,0.0,0.0,0.0,0.0
107.0,5597.0,0.0,0.0,-0.0,216.6582855416858,5380.3417144583145,0.0,7134.12663913657,0.0,7134.12663913657,0.0,0.0,0.0,0.017973004171189688,0.5703835462896636,0.0,0.0,0.0,"[0.4755195630195175, 0.7906104461816668, 0.13128739605717854, 0.07443543754252246, 0.12900072452919886, 0.21805431170123057, 0.23006812705681057, 0.1765068133825558]",21.9,0.0,0.0,60.07612104931712,615.6479752962546,56.84193439720164,-906.9014987961768,-582.5021908294289,26.862578158953774,0.0,0.0,0.0,0.0,0.0,0.0,0.1,21.612136077803058,0.0,21.252355636644474,0.0,0.1,21.9,20.3,22.2,21.37,22.02,-0.27,0.1,1621.97,-645.58,-753.28,87.46,126.0,0.0,395.0,0.0,0.0,0.0,0.0,0.0,0.0,0.0,0.0,0.0,0.0,0.0,0.0,0.0,0.0
108.0,4478.0,6298.889920077132,2319.5886723928443,-0.0,530.1932019160979,0.0,0.0,6202.285938489836,0.0,0.0,0.0,6202.285938489835,0.0,0.017973004171189688,0.5638237795258152,0.0,0.0,0.0,"[0.4755195630195175, 0.7906104461816668, 0.13128739605717854, 0.07443543754252246, 0.12900072452919886, 0.21805431170123057, 0.23006812705681057, 0.1765068133825558]",21.52,0.0,0.0,78.42458663324113,1462.5941573980501,86.44782409532115,-845.661905418301,-117.74307204241995,1235.3579944006656,0.0,0.0,0.0,0.0,0.0,0.0,1.2,21.473890911477792,0.0,21.222867716009336,0.0,1.2,21.52,20.3,22.14,21.19,21.87,0.76,1.2,1150.73,-601.99,-702.41,114.17,150.0,0.0,1017.0,0.0,0.0,0.0,0.0,0.0,0.0,0.0,0.0,0.0,0.0,0.0,0.0,0.0,0.0
109.0,9595.0,55868.69742481705,30558.75483836764,-0.0,564.4009006746669,-16000.0,0.0,4040.842863901252,0.0,-80000.0,0.0,84040.84286390124,0.6533333333333333,0.3446396708378564,0.5638237795258145,0.0,0.0,0.0,"[0.4755195630195175, 0.7906104461816668, 0.13128739605717854, 0.07443543754252246, 0.12900072452919886, 0.21805431170123057, 0.23006812705681057, 0.1765068133825558]",22.48,0.0,0.0,82.69712342848624,780.7104672467618,20.09216412227369,-851.9463482366514,-1411.5212743696698,1384.1259178742096,0.0,0.0,0.0,0.0,0.0,0.0,2.0,21.773126120126165,0.0,21.240143996130143,0.0,2.0,22.48,20.32,22.16,21.85,22.32,1.56,2.0,725.39,-606.46,-707.63,120.39,0.0,0.0,585.0,0.0,0.0,0.0,0.0,0.0,0.0,0.0,0.0,0.0,0.0,0.0,0.0,0.0,0.0
110.0,4798.0,0.0,0.0,-0.0,150.4108663013011,4647.589133698699,0.0,5118.625457380145,0.0,5118.625457380145,0.0,0.0,0.4557317545196131,0.3228768074986551,0.5490643043071556,0.0,0.0,0.0,"[0.4755195630195175, 0.7906104461816668, 0.13128739605717854, 0.07443543754252246, 0.12900072452919886, 0.21805431170123057, 0.23006812705681057, 0.1765068133825558]",22.48,0.0,0.0,62.508446995170736,202.85126670343217,5.22052811382154,-839.4639346068356,-1360.461563680533,1871.7998596392954,0.0,0.0,0.0,0.0,0.0,0.0,2.3,21.798739580818832,0.0,21.27640659008804,0.0,2.3,22.48,20.36,22.19,21.86,22.34,1.83,2.3,1554.05,-597.57,-697.27,91.0,0.0,0.0,152.0,0.0,0.0,0.0,0.0,0.0,0.0,0.0,0.0,0.0,0.0,0.0,0.0,0.0,0.0
111.0,2755.0,0.0,5822.673953724137,-0.0,0.06308742283761291,8577.610866301302,0.0,9559.1785484995,0.0,-6287.45985764906,0.0,15846.638406148559,0.09103741496598639,0.3485506019173888,0.5364914180097795,0.0,0.0,0.0,"[0.4755195630195175, 0.7906104461816668, 0.13128739605717854, 0.07443543754252246, 0.12900072452919886, 0.21805431170123057, 0.23006812705681057, 0.1765068133825558]",22.45,0.0,0.0,14.949388195218907,170.82211932920603,4.396234201112875,-863.1810504404517,-1263.6943389708533,1997.065664977576,0.0,0.0,0.0,0.0,0.0,0.0,1.7,21.817758607059698,0.0,21.315999740583194,0.0,1.7,22.45,20.4,22.24,21.92,22.4,1.21,1.7,792.25,-614.46,-716.97,21.76,0.0,0.0,128.0,0.0,0.0,0.0,0.0,0.0,0.0,0.0,0.0,0.0,0.0,0.0,0.0,0.0,0.0
112.0,3255.0,19351.75879396985,0.0,-0.0,0.0,-16000.0,0.0,4959.748339980918,0.0,4959.748339980918,0.0,0.0,0.7443707482993197,0.3274632365263135,0.5168121177182343,0.0,0.0,0.0,"[0.4755195630195175, 0.7906104461816668, 0.13128739605717854, 0.07443543754252246, 0.12900072452919886, 0.21805431170123057, 0.23006812705681057, 0.1765068133825558]",22.48,0.0,0.0,0.0,76.06922501378706,1.9576980426830766,-897.7151982126428,-1253.927681264761,186.29371371887643,0.0,0.0,0.0,0.0,0.0,0.0,0.9,21.853024675204573,0.0,21.35288388960786,0.0,0.9,22.48,20.43,22.28,21.95,22.43,0.39,0.9,1691.49,-639.04,-745.65,0.0,0.0,0.0,57.0,0.0,0.0,0.0,0.0,0.0,0.0,0.0,0.0,0.0,0.0,0.0,0.0,0.0,0.0
113.0,3466.0,0.0,0.0,-0.0,0.0,3466.0,0.0,5068.442678513622,0.0,5068.442678513622,0.0,0.0,0.5970068027210884,0.30591373534215693,0.5168121177182343,0.0,0.0,0.0,"[0.4755195630195175, 0.7906104461816668, 0.13128739605717854, 0.07443543754252246, 0.12900072452919886, 0.21805431170123057, 0.23006812705681057, 0.1765068133825558]",21.52,0.0,0.0,0.0,13.345478072594215,0.3434557969619424,-853.9835145048448,20.548669607751794,819.7862934597861,0.0,0.0,0.0,0.0,0.0,0.0,1.0,21.543691832390557,0.0,21.329008603556396,0.0,1.0,21.52,20.43,22.23,21.23,21.92,0.47,1.0,0.0,-607.91,-709.33,0.0,0.0,0.0,10.0,0.0,0.0,0.0,0.0,0.0,0.0,0.0,0.0,0.0,0.0,0.0,0.0,0.0,0.0
114.0,9905.0,9954.773869346735,0.0,-0.0,0.0,0.0,0.0,1891.9781544256798,0.0,1891.9781544256798,0.0,0.0,0.5970068027210884,0.2978696105359253,0.5168121177182343,0.0,0.0,0.0,"[0.4755195630195175, 0.7906104461816668, 0.13128739605717854, 0.07443543754252246, 0.12900072452919886, 0.21805431170123057, 0.23006812705681057, 0.1765068133825558]",21.52,0.0,0.0,0.0,1607.4979535231123,119.31654386457913,-849.8227099615727,-32.268927045263204,0.0,0.0,0.0,0.0,0.0,0.0,0.0,1.1,21.517039589334907,0.0,21.297684385242565,0.0,1.1,21.52,20.43,22.17,21.31,21.94,0.57,1.1,0.0,-604.95,-705.87,0.0,164.0,40.0,1114.0,0.0,0.0,0.0,0.0,0.0,0.0,0.0,0.0,0.0,0.0,0.0,0.0,0.0,0.0
115.0,5888.0,0.0,0.0,-0.0,0.0,5888.0,0.0,2169.6822968794017,0.0,2169.6822968794017,0.0,0.0,0.3466666666666667,0.2886447708383088,0.5168121177182343,0.0,0.0,0.0,"[0.4755195630195175, 0.7906104461816668, 0.13128739605717854, 0.07443543754252246, 0.12900072452919886, 0.21805431170123057, 0.23006812705681057, 0.1765068133825558]",21.94,0.0,0.0,0.0,874.269292471475,207.2068823071404,-858.9158712618419,-650.4795145721899,0.0,0.0,0.0,0.0,0.0,0.0,0.0,1.3,21.624194564946876,0.0,21.2749555323078,0.0,1.3,21.94,20.43,22.12,21.44,22.0,0.76,1.3,0.0,-611.42,-713.42,0.0,290.0,147.0,487.0,0.0,0.0,0.0,0.0,0.0,0.0,0.0,0.0,0.0,0.0,0.0,0.0,0.0,0.0
116.0,7500.0,23618.090452261305,0.0,-0.0,0.0,-16000.0,0.0,191.87414990473798,0.0,191.87414990473798,0.0,0.0,1.0,0.2870131879309556,0.5168121177182343,0.0,0.0,0.0,"[0.2865352020627263, 0.3410008426664959, 0.13128739605717854, 0.07443543754252246, 0.12900072452919886, 0.21805431170123057, 0.07789461614299142, 0.1765068133825558]",21.72,0.0,0.0,0.0,1051.2724753290404,174.2351257987939,-845.2733731336094,-363.0780483497748,0.0,0.0,0.0,0.0,0.0,0.0,0.0,1.4,21.540974730243132,0.0,21.259236342532624,0.0,1.4,21.72,20.43,22.09,21.37,21.93,0.88,1.4,0.0,-601.71,-702.09,0.0,186.0,141.0,675.0,0.0,0.0,0.0,0.0,0.0,0.0,0.0,0.0,0.0,0.0,0.0,0.0,0.0,0.0
117.0,5786.0,0.0,0.0,-0.0,0.0,8763.157044347778,0.0,2679.4413399129985,0.0,0.0,0.0,0.0,0.6274167923321523,0.2870131879309556,0.5168121177182343,11908.62817739111,2977.1570443477776,14885.785221738886,"[0.2865352020627263, 0.3410008426664959, 0.13128739605717854, 0.07443543754252246, 0.12900072452919886, 0.21805431170123057, 0.07789461614299142, 0.1765068133825558]",21.71,0.0,0.0,0.0,1230.2423602183567,129.3111075561717,-836.8819571219767,-395.3076046178179,1025.2280167414162,0.0,0.0,0.0,0.0,0.0,0.0,1.6,21.52297707997872,0.0,21.239026361084264,0.0,1.6,21.71,20.43,22.05,21.34,21.9,1.07,1.6,0.0,-595.74,-695.12,0.0,200.0,53.0,811.0,0.0,0.0,0.0,0.0,0.0,0.0,0.0,0.0,0.0,0.0,0.0,0.0,0.0,0.0
118.0,4185.0,5582.765039867086,1369.8512146677506,-0.0,0.0,0.0,0.0,3728.1044828517765,0.0,0.0,0.0,3728.104482851776,0.6274167923321523,0.2870131879309556,0.5168121177182343,0.0,0.0,0.0,"[0.2865352020627263, 0.3410008426664959, 0.13128739605717854, 0.07443543754252246, 0.12900072452919886, 0.21805431170123057, 0.07789461614299142, 0.1765068133825558]",22.29,0.0,0.0,0.0,569.0792807587283,125.6361305286789,-856.5654919897036,-1170.5488790124432,1347.1708534281186,0.0,0.0,0.0,0.0,0.0,0.0,1.7,21.705649317259766,0.0,21.252461215860777,0.0,1.7,22.29,20.45,22.06,21.75,22.17,1.15,1.7,586.64,-609.75,-711.47,0.0,292.0,26.0,270.0,0.0,0.0,0.0,0.0,0.0,0.0,0.0,0.0,0.0,0.0,0.0,0.0,0.0,0.0
119.0,5622.0,0.0,0.0,-0.0,0.0,5622.0,0.0,3446.0791866401028,0.0,3446.0791866401028,0.0,0.0,0.38838618008725434,0.2723614907088463,0.5168121177182343,0.0,0.0,0.0,"[0.2865352020627263, 0.3410008426664959, 0.13128739605717854, 0.07443543754252246, 0.12900072452919886, 0.21805431170123057, 0.07789461614299142, 0.1765068133825558]",22.29,0.0,0.0,0.0,399.8024273116122,99.19003416260925,-848.2438829031597,-1128.327874432214,351.85380525425853,0.0,0.0,0.0,0.0,0.0,0.0,1.9,21.726837316266696,0.0,21.281558823319276,0.0,1.9,22.29,20.47,22.09,21.81,22.23,1.35,1.9,0.0,-603.82,-704.56,0.0,260.0,7.0,162.0,0.0,0.0,0.0,0.0,0.0,0.0,0.0,0.0,0.0,0.0,0.0,0.0,0.0,0.0
120.0,2172.0,12645.064789691738,0.0,-0.0,0.0,-2095.7486925736966,0.0,7482.681695852623,0.0,0.0,0.0,0.0,0.4739625850340136,0.2723614907088463,0.5168121177182343,33256.36309267834,8314.090773169584,41570.45386584792,"[0.2865352020627263, 0.3410008426664959, 0.13128739605717854, 0.07443543754252246, 0.12900072452919886, 0.21805431170123057, 0.07789461614299142, 0.1765068133825558]",21.71,0.0,0.0,0.0,388.49389062904544,36.02851310130786,-841.0427616652488,-349.25766951220567,1907.4020816268774,0.0,0.0,0.0,0.0,0.0,0.0,1.5,21.546242249924813,0.0,21.274865161826632,0.0,1.5,21.71,20.48,22.07,21.38,21.93,0.92,1.5,165.3,-598.7,-698.58,0.0,80.0,0.0,249.0,0.0,0.0,0.0,0.0,0.0,0.0,0.0,0.0,0.0,0.0,0.0,0.0,0.0,0.0
121.0,2464.0,4956.5582268140815,2467.7754356800115,-0.0,0.0,0.0,0.0,6598.518550394339,0.0,0.0,0.0,6598.518550394339,0.4739625850340136,0.2723614907088463,0.5168121177182343,0.0,0.0,0.0,"[0.2865352020627263, 0.3410008426664959, 0.13128739605717854, 0.07443543754252246, 0.12900072452919886, 0.21805431170123057, 0.07789461614299142, 0.1765068133825558]",22.29,0.0,0.0,0.0,387.159342821786,35.994167521611665,-877.3695147060633,-1112.7602643322807,1571.208347593696,0.0,0.0,0.0,0.0,0.0,0.0,1.2,21.734999148865008,0.0,21.295843487351966,0.0,1.2,22.29,20.49,22.1,21.86,22.26,0.6,1.2,0.0,-624.56,-728.75,0.0,80.0,0.0,248.0,0.0,0.0,0.0,0.0,0.0,0.0,0.0,0.0,0.0,0.0,0.0,0.0,0.0,0.0
122.0,2994.0,0.0,0.0,-0.0,0.0,2994.0,0.0,5455.755207344276,0.0,5455.755207344277,0.0,0.0,0.3466666666666667,0.24916525258238253,0.5168121177182343,0.0,0.0,0.0,"[0.2865352020627263, 0.3410008426664959, 0.13128739605717854, 0.07443543754252246, 0.12900072452919886, 0.21805431170123057, 0.07789461614299142, 0.1765068133825558]",22.29,0.0,0.0,0.0,188.31171954013215,30.876676146878708,-894.012732879151,-1075.5900019235219,616.6567827362353,0.0,0.0,0.0,0.0,0.0,0.0,0.8,21.753897446354706,0.0,21.32163589269203,0.0,0.8,22.29,20.51,22.13,21.82,22.25,0.19,0.8,773.49,-636.4,-742.57,0.0,80.0,0.0,99.0,0.0,0.0,0.0,0.0,0.0,0.0,0.0,0.0,0.0,0.0,0.0,0.0,0.0,0.0
123.0,2406.0,2418.0904522613064,0.0,-0.0,0.0,0.0,0.0,7195.192873614322,0.0,7195.192873614322,0.0,0.0,0.3466666666666667,0.2185734461469475,0.5168121177182343,0.0,0.0,0.0,"[0.2865352020627263, 0.3410008426664959, 0.13128739605717854, 0.07443543754252246, 0.12900072452919886, 0.21805431170123057, 0.07789461614299142, 0.1765068133825558]",21.71,0.0,0.0,0.0,116.24613794812336,29.02201484328421,-874.3291980114243,-299.013709663802,2168.875007445895,0.0,0.0,0.0,0.0,0.0,0.0,0.7,21.571907053630294,0.0,21.31253996628042,0.0,0.7,21.71,20.52,22.11,21.41,21.96,0.09,0.7,878.86,-622.39,-726.23,0.0,80.0,0.0,45.0,0.0,0.0,0.0,0.0,0.0,0.0,0.0,0.0,0.0,0.0,0.0,0.0,0.0,0.0
124.0,895.0,3683.660500295526,2770.2421977940485,-0.0,0.0,0.0,0.0,7222.409330110265,0.0,0.0,0.0,7222.409330110264,0.3466666666666667,0.2185734461469475,0.5168121177182343,0.0,0.0,0.0,"[0.2865352020627263, 0.3410008426664959, 0.13128739605717854, 0.07443543754252246, 0.12900072452919886, 0.21805431170123057, 0.07789461614299142, 0.1765068133825558]",22.29,0.0,0.0,0.0,119.05571227919582,41.38642353391416,-906.4951465089669,-1060.7340159925386,674.265172734995,0.0,0.0,0.0,0.0,0.0,0.0,0.5,21.76150324244442,0.0,21.334181140083665,0.0,0.5,22.29,20.53,22.13,21.91,22.31,-0.09,0.5,977.42,-645.29,-752.94,0.0,80.0,20.0,45.0,0.0,0.0,0.0,0.0,0.0,0.0,0.0,0.0,0.0,0.0,0.0,0.0,0.0,0.0
125.0,931.0,17016.08040201005,0.0,-0.0,0.0,-16000.0,0.0,8797.55326419613,0.0,8797.55326419613,0.0,0.0,1.0,0.18116888294883468,0.5168121177182343,0.0,0.0,0.0,"[0.2865352020627263, 0.3410008426664959, 0.13128739605717854, 0.07443543754252246, 0.12900072452919886, 0.21805431170123057, 0.07789461614299142, 0.1765068133825558]",21.71,0.0,0.0,0.0,121.44385046060741,51.89617092094964,-890.9724161845013,-283.19280424951666,2144.3149216022257,0.0,0.0,0.0,0.0,0.0,0.0,0.3,21.58003923571908,0.0,21.32555469667335,0.0,0.3,21.71,20.53,22.12,21.43,21.97,-0.3,0.3,1004.27,-634.24,-740.05,0.0,80.0,37.0,45.0,0.0,0.0,0.0,0.0,0.0,0.0,0.0,0.0,0.0,0.0,0.0,0.0,0.0,0.0
126.0,1588.0,1595.9798994974874,0.0,-0.0,0.0,0.0,0.0,5237.01869106735,0.0,5237.01869106735,0.0,0.0,1.0,0.15890264701742587,0.5168121177182343,0.0,0.0,0.0,"[0.2865352020627263, 0.3410008426664959, 0.13128739605717854, 0.07443543754252246, 0.12900072452919886, 0.21805431170123057, 0.07789461614299142, 0.1765068133825558]",22.29,0.0,0.0,0.0,158.31951355593358,79.20090677942414,-918.9775601387828,-1045.1509773824976,598.532369022658,0.0,0.0,0.0,0.0,0.0,0.0,0.2,21.769475362423318,0.0,21.346766713782543,0.0,0.2,22.29,20.55,22.14,21.93,22.32,-0.38,0.2,175.99,-654.18,-763.31,0.0,127.0,55.0,46.0,0.0,0.0,0.0,0.0,0.0,0.0,0.0,0.0,0.0,0.0,0.0,0.0,0.0,0.0
127.0,1300.0,0.0,2449.230183450424,-0.0,0.0,3749.230183450424,0.0,6292.089005092363,0.0,0.0,0.0,6292.089005092363,0.8405939547852711,0.15890264701742587,0.5168121177182343,0.0,0.0,0.0,"[0.2865352020627263, 0.3410008426664959, 0.13128739605717854, 0.07443543754252246, 0.12900072452919886, 0.21805431170123057, 0.07789461614299142, 0.1765068133825558]",21.71,0.0,0.0,0.0,199.76073493925244,91.90877126701608,-899.294025271056,-267.9717152338062,886.4025731659979,0.0,0.0,0.0,0.0,0.0,0.0,0.1,21.587793452861597,0.0,21.337697391158947,0.0,0.1,21.71,20.55,22.12,21.44,21.98,-0.5,0.1,969.89,-640.16,-746.96,0.0,142.0,66.0,68.0,0.0,0.0,0.0,0.0,0.0,0.0,0.0,0.0,0.0,0.0,0.0,0.0,0.0,0.0
128.0,1281.0,15816.1770957964,0.0,-0.0,0.0,-5237.640757445256,0.0,8296.609907584942,0.0,0.0,0.0,0.0,1.0,0.12362794502939467,0.5168121177182343,36873.82181148865,9218.455452872162,46092.277264360804,"[0.2865352020627263, 0.3410008426664959, 0.13128739605717854, 0.07443543754252246, 0.12900072452919886, 0.21805431170123057, 0.07789461614299142, 0.1765068133825558]",21.71,0.0,0.0,1.7230443615705788,129.5916160207176,56.155022803277745,-895.133220727784,-292.72857559958175,1007.0320548408106,0.0,0.0,0.0,0.0,0.0,0.0,0.2,21.575260283249804,0.0,21.322628680178884,0.0,0.2,21.71,20.55,22.1,21.49,21.99,-0.36,0.2,988.65,-637.2,-743.51,2.51,83.0,42.0,49.0,0.0,0.0,0.0,0.0,0.0,0.0,0.0,0.0,0.0,0.0,0.0,0.0,0.0,0.0
129.0,3150.0,0.0,0.0,-0.0,4090.2991192152886,5291.2368807847115,0.0,4151.148670913627,31157.68,29077.292670913626,0.0,0.0,0.7750324455448677,0.0,0.5168121177182343,24926.144,6231.536,31157.68,"[0.2865352020627263, 0.3410008426664959, 0.13128739605717854, 0.07443543754252246, 0.12900072452919886, 0.21805431170123057, 0.07789461614299142, 0.1765068133825558]",21.71,0.0,0.0,482.1741344572433,1039.61274185509,85.82960366078966,-786.9523026027133,-312.39308445189494,0.0,0.0,0.0,0.0,0.0,0.0,0.0,2.8,21.56414282219539,0.0,21.309263715178737,0.0,2.8,21.71,20.54,22.07,21.48,21.98,2.52,2.8,321.23,-560.19,-653.65,701.94,140.0,22.0,703.0,0.0,0.0,0.0,0.0,0.0,0.0,0.0,0.0,0.0,0.0,0.0,0.0,0.0,0.0
130.0,8310.0,0.0,977.8010572441877,-918.2018831707713,10206.002940414959,0.0,0.0,2996.704801529939,0.0,0.0,0.0,2996.704801529939,0.7750324455448677,0.0,0.520025824309332,0.0,0.0,0.0,"[0.2865352020627263, 0.3410008426664959, 0.13128739605717854, 0.07443543754252246, 0.12900072452919886, 0.21805431170123057, 0.07789461614299142, 0.1765068133825558]",21.96,0.0,0.0,919.8210686138291,1414.6206756949875,36.406314477966,-693.1565933461525,-646.0496158369735,-357.71010215709657,0.0,0.0,0.0,0.0,0.0,0.0,5.3,21.64072412051742,0.0,21.313809527621643,0.0,5.3,21.96,20.56,22.07,21.65,22.1,5.23,5.3,0.0,-493.42,-575.74,1339.07,0.0,0.0,1060.0,0.0,0.0,0.0,0.0,0.0,0.0,0.0,0.0,0.0,0.0,0.0,0.0,0.0,0.0
131.0,12839.0,28220.653231332395,25384.458893309944,-0.0,10143.90892813421,0.0,0.0,1426.7026715429024,0.0,-80000.0,0.0,81426.70267154291,0.7750324455448677,0.3266666666666667,0.520025824309332,0.0,0.0,0.0,"[0.2865352020627263, 0.3410008426664959, 0.13128739605717854, 0.07443543754252246, 0.12900072452919886, 0.21805431170123057, 0.07789461614299142, 0.1765068133825558]",22.29,0.0,0.0,812.1404412931925,56.05100790489574,1.4425143472401611,-644.3644602828344,-1042.074260299035,0.0,0.0,0.0,0.0,0.0,0.0,0.0,6.8,21.76806572351042,0.0,21.352620778925903,0.0,6.8,22.29,20.59,22.12,21.96,22.33,6.65,6.8,0.0,-458.69,-535.21,1182.31,0.0,0.0,42.0,0.0,0.0,0.0,0.0,0.0,0.0,0.0,0.0,0.0,0.0,0.0,0.0,0.0,0.0
132.0,9247.0,0.0,331.6870313796036,-0.0,10016.17864151037,-437.49161013076707,0.0,1095.5859583998194,0.0,0.0,0.0,1095.5859583998194,0.792896686291874,0.3266666666666667,0.520025824309332,0.0,0.0,0.0,"[0.2865352020627263, 0.3410008426664959, 0.13128739605717854, 0.07443543754252246, 0.12900072452919886, 0.21805431170123057, 0.07789461614299142, 0.1765068133825558]",21.87,0.0,0.0,774.96984178102,54.71646009763631,1.4081687675439671,-585.2595677636157,-424.69979511157084,0.0,0.0,0.0,0.0,0.0,0.0,0.0,7.8,21.6580207704664,0.0,21.378446461811926,0.0,7.8,21.87,20.62,22.14,21.72,22.17,7.64,7.8,0.0,-416.62,-486.12,1128.19,0.0,0.0,41.0,0.0,0.0,0.0,0.0,0.0,0.0,0.0,0.0,0.0,0.0,0.0,0.0,0.0,0.0
133.0,7719.0,0.0,0.0,-0.0,9418.101656376075,-1699.101656376075,0.0,938.1049339460847,0.0,938.1049339460847,0.0,0.0,0.8622766705938971,0.3226781252808415,0.520025824309332,0.0,0.0,0.0,"[0.2865352020627263, 0.3410008426664959, 0.13128739605717854, 0.07443543754252246, 0.12900072452919886, 0.21805431170123057, 0.07789461614299142, 0.1765068133825558]",21.77,0.0,0.0,742.8964660103452,54.71646009763631,1.4081687675439671,-564.5103568228947,-274.02078183608864,0.0,0.0,0.0,0.0,0.0,0.0,0.0,8.2,21.635040463525222,0.0,21.391223486531405,0.0,8.2,21.77,20.64,22.14,21.66,22.13,8.06,8.2,0.0,-401.85,-468.89,1081.5,0.0,0.0,41.0,0.0,0.0,0.0,0.0,0.0,0.0,0.0,0.0,0.0,0.0,0.0,0.0,0.0,0.0
134.0,3453.0,0.0,922.8380964164722,-3995.433088741241,8371.271185157713,0.0,0.0,3083.390949664409,0.0,0.0,0.0,3083.390949664409,0.8622766705938971,0.3226781252808415,0.5301833095076814,0.0,0.0,0.0,"[0.2865352020627263, 0.3410008426664959, 0.13128739605717854, 0.07443543754252246, 0.12900072452919886, 0.21805431170123057, 0.07789461614299142, 0.1765068133825558]",21.74,0.0,0.0,681.6930359131678,54.71646009763631,1.4081687675439671,-563.3404163102146,-227.61468246786998,732.8170998366311,0.0,0.0,0.0,0.0,0.0,0.0,8.2,21.6303345352183,0.0,21.40004443835146,0.0,8.2,21.74,20.66,22.14,21.65,22.12,7.96,8.2,0.0,-401.01,-467.92,992.4,0.0,0.0,41.0,0.0,0.0,0.0,0.0,0.0,0.0,0.0,0.0,0.0,0.0,0.0,0.0,0.0,0.0
135.0,2862.0,7112.53526588096,9588.359573801705,-0.0,5373.38698425015,0.0,0.0,31122.583961553966,0.0,0.0,0.0,31122.583961553966,0.8622766705938971,0.3226781252808415,0.5301833095076814,0.0,0.0,0.0,"[0.2865352020627263, 0.3410008426664959, 0.13128739605717854, 0.07443543754252246, 0.12900072452919886, 0.21805431170123057, 0.07789461614299142, 0.1765068133825558]",22.07,0.0,0.0,665.0753521730778,54.71646009763631,1.4081687675439671,-618.8835626031516,-655.3943399983676,989.2469861400896,0.0,0.0,0.0,0.0,0.0,0.0,7.2,21.750279553803608,0.0,21.427346162376253,0.0,7.2,22.07,20.69,22.16,21.9,22.29,6.94,7.2,0.0,-440.55,-514.05,968.21,0.0,0.0,41.0,0.0,0.0,0.0,0.0,0.0,0.0,0.0,0.0,0.0,0.0,0.0,0.0,0.0,0.0
136.0,2602.0,0.0,0.0,-0.0,0.0,2602.0,0.0,3188.863137090226,0.0,3188.863137090226,0.0,0.0,0.7516474188932168,0.3091200337115803,0.461852405717594,0.0,0.0,0.0,"[0.2865352020627263, 0.3410008426664959, 0.13128739605717854, 0.07443543754252246, 0.12900072452919886, 0.21805431170123057, 0.07789461614299142, 0.1765068133825558]",22.29,0.0,0.0,0.0,41.79241817470296,2.919374274176516,-685.9725057155539,-232.90516234411226,0.0,0.0,0.0,0.0,0.0,0.0,0.0,5.8,22.176407739286915,0.0,21.894391741153903,0.0,5.8,22.29,20.95,22.84,26.25,25.46,5.12,5.8,0.0,-488.31,-569.77,0.0,0.0,3.0,31.0,0.0,0.0,0.0,0.0,0.0,0.0,0.0,0.0,0.0,0.0,0.0,0.0,0.0,0.0
137.0,4192.0,0.0,0.0,-0.0,0.0,4192.0,0.0,4586.681864968819,0.0,4586.681864968819,0.0,0.0,0.5734161263762101,0.28961883530610066,0.461852405717594,0.0,0.0,0.0,"[0.2865352020627263, 0.3410008426664959, 0.13128739605717854, 0.07443543754252246, 0.12900072452919886, 0.21805431170123057, 0.07789461614299142, 0.1765068133825558]",21.85,0.0,0.0,0.0,831.3530445643433,118.9730880676172,-684.2824079230634,301.3496904990146,321.1041856048467,0.0,0.0,0.0,0.0,0.0,0.0,5.4,22.00495581820263,0.0,21.851014537794693,0.0,5.4,21.85,20.95,22.75,21.63,22.36,4.72,5.4,0.0,-487.11,-568.37,0.0,162.0,73.0,530.0,0.0,0.0,0.0,0.0,0.0,0.0,0.0,0.0,0.0,0.0,0.0,0.0,0.0,0.0
138.0,5624.0,16151.710559912784,0.0,-0.0,0.0,-10446.952007113223,0.0,2818.3776921650806,0.0,2818.37769216508,0.0,0.0,1.0,0.27763593695505867,0.4520127555718214,0.0,0.0,0.0,"[0.2865352020627263, 0.3410008426664959, 0.13128739605717854, 0.07443543754252246, 0.12900072452919886, 0.21805431170123057, 0.07789461614299142, 0.1765068133825558]",22.29,0.0,0.0,0.0,370.4423755519049,161.63029805029058,-719.2589420617295,-354.9422731178181,0.0,0.0,0.0,0.0,0.0,0.0,0.0,5.0,22.11524580201516,0.0,21.82566492955923,0.0,5.0,22.29,20.96,22.69,21.93,22.53,4.35,5.0,0.0,-512.01,-597.42,0.0,101.0,194.0,204.0,0.0,0.0,0.0,0.0,0.0,0.0,0.0,0.0,0.0,0.0,0.0,0.0,0.0,0.0
139.0,6080.0,0.0,0.0,-0.0,0.0,6080.0,0.0,2725.132486944313,0.0,2725.1324869443124,0.0,0.0,0.7414965986394557,0.2660494893064859,0.4520127555718214,0.0,0.0,0.0,"[0.2865352020627263, 0.3410008426664959, 0.13128739605717854, 0.07443543754252246, 0.12900072452919886, 0.21805431170123057, 0.07789461614299142, 0.1765068133825558]",22.0,0.0,0.0,0.0,893.4446372810446,197.8305390500794,-724.1385097799621,-11.451219464346675,0.0,0.0,0.0,0.0,0.0,0.0,0.0,4.6,22.00562504488789,0.0,21.79895782487329,0.0,4.6,22.0,20.96,22.63,21.76,22.38,3.98,4.6,242.81,-515.48,-601.48,0.0,101.0,231.0,592.0,0.0,0.0,0.0,0.0,0.0,0.0,0.0,0.0,0.0,0.0,0.0,0.0,0.0,0.0
140.0,6575.0,0.0,0.0,-0.0,0.0,6575.0,0.0,198.56506993027335,0.0,198.56506993027335,0.0,0.0,0.46194727891156456,0.2652052500635851,0.4520127555718214,0.0,0.0,0.0,"[0.2865352020627263, 0.17814128750415037, 0.13128739605717854, 0.07443543754252246, 0.12900072452919886, 0.21805431170123057, 0.07789461614299142, 0.1765068133825558]",22.17,0.0,0.0,0.0,1984.472589394761,239.28565374338598,-747.7507296731537,-285.4987278008139,-933.66699704969,0.0,0.0,0.0,0.0,0.0,0.0,4.2,22.035265352796102,0.0,21.775281943808483,0.0,4.2,22.17,20.97,22.58,21.85,22.41,3.61,4.2,0.0,-532.29,-621.09,0.0,144.0,230.0,1387.0,0.0,0.0,0.0,0.0,0.0,0.0,0.0,0.0,0.0,0.0,0.0,0.0,0.0,0.0
141.0,5791.0,5820.100502512563,0.0,-0.0,0.0,0.0,0.0,1939.247715118906,0.0,1939.247715118906,0.0,0.0,0.46194727891156456,0.2569601492339979,0.38422849901205464,0.0,0.0,0.0,"[0.2865352020627263, 0.17814128750415037, 0.13128739605717854, 0.07443543754252246, 0.12900072452919886, 0.21805431170123057, 0.07789461614299142, 0.1765068133825558]",22.29,0.0,0.0,0.0,1090.8172340388858,168.63679630831422,-769.1885965809928,-470.43765953636347,0.0,0.0,0.0,0.0,0.0,0.0,0.0,3.8,22.057522851268246,0.0,21.761953496329923,0.0,3.8,22.29,20.97,22.55,21.93,22.44,3.23,3.8,0.0,-547.55,-638.89,0.0,109.0,171.0,742.0,0.0,0.0,0.0,0.0,0.0,0.0,0.0,0.0,0.0,0.0,0.0,0.0,0.0,0.0
142.0,4049.0,32301.962773979176,28091.452960109284,-0.0,0.0,0.0,0.0,1004.6803660342706,0.0,-80000.0,0.0,81004.68036603427,0.46194727891156456,0.5836268159006646,0.3273771870587019,0.0,0.0,0.0,"[0.2865352020627263, 0.17814128750415037, 0.13128739605717854, 0.07443543754252246, 0.12900072452919886, 0.21805431170123057, 0.07789461614299142, 0.1765068133825558]",22.29,0.0,0.0,0.0,449.7426110464253,92.63002844063614,-785.8318147540805,-495.0448217811911,0.0,0.0,0.0,0.0,0.0,0.0,0.0,3.4,22.04529437258774,0.0,21.748736837595537,0.0,3.4,22.29,20.98,22.52,21.89,22.4,2.83,3.4,0.0,-559.4,-652.72,0.0,81.0,89.0,285.0,0.0,0.0,0.0,0.0,0.0,0.0,0.0,0.0,0.0,0.0,0.0,0.0,0.0,0.0
143.0,2932.0,0.0,1502.1045498928997,-0.0,0.0,4434.1045498929,0.0,4274.197494437857,0.0,0.0,0.0,4274.197494437856,0.27342242559979163,0.5836268159006646,0.25248651650476606,0.0,0.0,0.0,"[0.2865352020627263, 0.17814128750415037, 0.13128739605717854, 0.07443543754252246, 0.12900072452919886, 0.21805431170123057, 0.07789461614299142, 0.1765068133825558]",21.91,0.0,0.0,0.0,391.72490110977884,63.298903380086166,-786.7646218475835,-18.98637118745472,1107.5648098303307,0.0,0.0,0.0,0.0,0.0,0.0,3.0,21.90758525254057,0.0,21.720986134085194,0.0,3.0,21.91,20.97,22.47,21.67,22.23,2.43,3.0,0.0,-560.06,-653.49,0.0,105.0,31.0,235.0,0.0,0.0,0.0,0.0,0.0,0.0,0.0,0.0,0.0,0.0,0.0,0.0,0.0,0.0
144.0,2781.0,0.0,0.0,-0.0,0.0,2781.0,0.0,3434.421101699942,0.0,3434.4211016999416,0.0,0.0,0.1551826296814243,0.5690246853662261,0.25248651650476606,0.0,0.0,0.0,"[0.2865352020627263, 0.17814128750415037, 0.13128739605717854, 0.07443543754252246, 0.12900072452919886, 0.21805431170123057, 0.07789461614299142, 0.1765068133825558]",22.29,0.0,0.0,0.0,344.5942917060382,60.92905838104875,-823.2790556435281,-553.9889360777719,0.0,0.0,0.0,0.0,0.0,0.0,0.0,2.5,22.01596191591566,0.0,21.71474590550471,0.0,2.5,22.29,20.98,22.45,21.99,22.44,1.96,2.5,0.0,-586.05,-683.82,0.0,160.0,0.0,174.0,0.0,0.0,0.0,0.0,0.0,0.0,0.0,0.0,0.0,0.0,0.0,0.0,0.0,0.0
145.0,2325.0,3745.884007651412,1402.1545876131547,-0.0,0.0,0.0,0.0,3869.488075167968,0.0,0.0,0.0,3869.4880751679675,0.1551826296814243,0.5690246853662261,0.25248651650476606,0.0,0.0,0.0,"[0.2865352020627263, 0.17814128750415037, 0.13128739605717854, 0.07443543754252246, 0.12900072452919886, 0.21805431170123057, 0.07789461614299142, 0.1765068133825558]",21.79,0.0,0.0,0.0,1019.8754821793059,78.3079217073231,-819.4003169615562,78.1334199789485,631.1991727602817,0.0,0.0,0.0,0.0,0.0,0.0,2.1,21.841178864348734,0.0,21.683609325535002,0.0,2.1,21.79,20.97,22.4,21.59,22.14,1.6,2.1,213.35,-583.29,-680.6,0.0,160.0,0.0,680.0,0.0,0.0,0.0,0.0,0.0,0.0,0.0,0.0,0.0,0.0,0.0,0.0,0.0,0.0
146.0,1385.0,1391.9597989949748,0.0,-0.0,0.0,0.0,0.0,4577.441622149176,0.0,4577.441622149176,0.0,0.0,0.1551826296814243,0.5495627737074286,0.25248651650476606,0.0,0.0,0.0,"[0.2865352020627263, 0.17814128750415037, 0.13128739605717854, 0.07443543754252246, 0.12900072452919886, 0.21805431170123057, 0.07789461614299142, 0.1765068133825558]",22.29,0.0,0.0,0.0,550.1146540239891,66.21827765426268,-860.7262965329754,-626.6973559969393,0.0,0.0,0.0,0.0,0.0,0.0,0.0,1.6,21.979676443557825,0.0,21.67031065515293,0.0,1.6,22.29,20.96,22.38,21.91,22.35,1.13,1.6,632.46,-612.71,-714.93,0.0,160.0,0.0,328.0,0.0,0.0,0.0,0.0,0.0,0.0,0.0,0.0,0.0,0.0,0.0,0.0,0.0,0.0
147.0,1870.0,0.0,0.0,-0.0,0.0,1870.0,0.0,6472.064866402987,0.0,6472.064866402987,0.0,0.0,0.07567582696033587,0.5220454911121778,0.25248651650476606,0.0,0.0,0.0,"[0.2865352020627263, 0.17814128750415037, 0.13128739605717854, 0.07443543754252246, 0.12900072452919886, 0.21805431170123057, 0.07789461614299142, 0.1765068133825558]",21.84,0.0,0.0,0.0,251.1759451978786,58.52486780231514,-850.6230324676002,-56.82872795480226,346.1206306256243,0.0,0.0,0.0,0.0,0.0,0.0,1.4,21.82388657447748,0.0,21.643190138451132,0.0,1.4,21.84,20.95,22.34,21.6,22.12,0.92,1.4,899.22,-605.52,-706.53,0.0,160.0,0.0,104.0,0.0,0.0,0.0,0.0,0.0,0.0,0.0,0.0,0.0,0.0,0.0,0.0,0.0,0.0
148.0,1388.0,1574.018940564869,1958.044295969144,-0.0,0.0,1779.8954501070998,0.0,5235.562127186009,0.0,0.0,0.0,5235.562127186009,0.0,0.5220454911121778,0.25248651650476606,0.0,0.0,0.0,"[0.2865352020627263, 0.17814128750415037, 0.13128739605717854, 0.07443543754252246, 0.12900072452919886, 0.21805431170123057, 0.07789461614299142, 0.1765068133825558]",21.71,0.0,0.0,0.0,163.09578991875676,56.25805954236632,-853.5251752950645,70.84074987577114,1288.0648281488905,0.0,0.0,0.0,0.0,0.0,0.0,1.2,21.757974362856412,0.0,21.6095653304157,0.0,1.2,21.71,20.93,22.28,21.57,22.07,0.76,1.2,297.84,-607.58,-708.95,0.0,160.0,0.0,38.0,0.0,0.0,0.0,0.0,0.0,0.0,0.0,0.0,0.0,0.0,0.0,0.0,0.0,0.0
149.0,4722.0,91899.63632311097,0.0,-70718.13814149541,0.0,-16000.0,0.0,5702.69667327632,0.0,5702.696673276319,0.0,0.0,0.6533333333333333,0.4977993317870234,0.5,0.0,0.0,0.0,"[0.2865352020627263, 0.17814128750415037, 0.13128739605717854, 0.07443543754252246, 0.12900072452919886, 0.21805431170123057, 0.07789461614299142, 0.1765068133825558]",22.08,0.0,0.0,0.0,191.40225130431187,81.57075177846156,-881.0623359957148,-443.24528908175006,1094.4783709581984,0.0,0.0,0.0,0.0,0.0,0.0,0.9,21.86104910482551,0.0,21.60103542247957,0.0,0.9,22.08,20.93,22.27,21.87,22.27,0.47,0.9,0.0,-627.19,-731.82,0.0,160.0,40.0,55.0,0.0,0.0,0.0,0.0,0.0,0.0,0.0,0.0,0.0,0.0,0.0,0.0,0.0,0.0
150.0,3153.0,0.0,0.0,-0.0,0.0,3153.0,0.0,1815.6828735000997,0.0,1815.6828735000997,0.0,0.0,0.5192772108843537,0.4900795916786046,0.5,0.0,0.0,0.0,"[0.2865352020627263, 0.17814128750415037, 0.13128739605717854, 0.07443543754252246, 0.12900072452919886, 0.21805431170123057, 0.07789461614299142, 0.1765068133825558]",22.09,0.0,0.0,0.0,461.61306259520643,161.69898920968294,-885.9265480728722,-470.0459857297578,0.0,0.0,0.0,0.0,0.0,0.0,0.0,0.8,21.86448966519919,0.0,21.598645258552253,0.0,0.8,22.09,20.93,22.27,21.86,22.26,0.4,0.8,0.0,-630.65,-735.86,0.0,298.0,86.0,180.0,0.0,0.0,0.0,0.0,0.0,0.0,0.0,0.0,0.0,0.0,0.0,0.0,0.0,0.0
151.0,1452.0,29257.899244210243,27659.60974798919,-0.0,0.0,0.0,0.0,5886.9394938705755,0.0,-66489.223876828,0.0,72376.16337069857,0.5192772108843537,0.761577255842319,0.5,0.0,0.0,0.0,"[0.2865352020627263, 0.17814128750415037, 0.13128739605717854, 0.07443543754252246, 0.12900072452919886, 0.21805431170123057, 0.07789461614299142, 0.1765068133825558]",21.71,0.0,0.0,0.0,405.63229404858754,137.5540466832583,-878.4900025546962,12.146088880315192,339.3307370546474,0.0,0.0,0.0,0.0,0.0,0.0,0.6,21.728633608421532,0.0,21.571480161400103,0.0,0.6,21.71,20.91,22.23,21.55,22.03,0.21,0.6,875.25,-625.35,-729.68,0.0,300.0,48.0,141.0,0.0,0.0,0.0,0.0,0.0,0.0,0.0,0.0,0.0,0.0,0.0,0.0,0.0,0.0
