,load_elec,grid,hp_elec,ev,pv,bat_pow,cool,load_th_sh,load_th_dhw,tes_pow,dh,hp_th,bat_soc,tes_soc,ev_soc,eh_th_in,eh_elec_in,eh_th_out,temp_slack,temp_zone_1,temp_zone_2,temp_update,Qsolar_1,QconvInt_1,QradInt_1,Qvent_1,Qconduc_1,Qheating_1,Qsolar_2,QconvInt_2,QradInt_2,Qvent_2,Qconduc_2,Qheating_2,temp_amb,temp_aggregate_1,temp_aggregate_2,temp_wall_1,temp_wall_2,_Tamb,_Tz_1,_TEW_1,_TIW_1,_T1_1,_T2_1,_Taeq_1,_Tvent_1,_Qheating_1,_Qinfvent_1,_Qenvelope_1,_Qsolar_1,_Qint_people_1,_Qint_lighting_1,_Qint_appliances_1,_Tz_2,_TEW_2,_TIW_2,_T1_2,_T2_2,_Taeq_2,_Tvent_2,_Qheating_2,_Qinfvent_2,_Qenvelope_2,_Qsolar_2,_Qint_people_2,_Qint_lighting_2,_Qint_appliances_2
8.0,2346.0,2357.788944723618,0.0,-0.0,0.0,0.0,0.0,32987.811722245446,0.0,32987.811722245446,0.0,0.0,0.5,0.35974569845984083,0.8,0.0,0.0,0.0,"[2.0, 2.0, 2.0, 2.0, 2.0, 2.0, 2.0, 2.0]",20.0,0.0,0.0,0.7792922355953545,164.48726651874114,52.281627288517555,-1247.6837248037693,-1753.6808614084118,2786.766740890081,0.0,0.0,0.0,0.0,0.0,0.0,-9.4,19.165290701529738,0.0,19.0,0.0,-9.4,20.0,18.0,20.0,20.0,20.0,-10.72,-9.4,8969.91,-870.79,-819.76,1.28,88.0,43.0,70.0,0.0,0.0,0.0,0.0,0.0,0.0,0.0,0.0,0.0,0.0,0.0,0.0,0.0,0.0
9.0,3968.0,3980.865593756551,0.0,-0.0,7.03873421223174,0.0,0.0,45168.034810142766,0.0,45168.03481014276,0.0,0.0,0.5,0.16770473413100262,0.8,0.0,0.0,0.0,"[2.0, 2.0, 2.0, 2.0, 2.0, 2.0, 2.0, 2.0]",20.0,0.0,0.0,23.956055811602486,100.87024009511649,2.7899708297816774,-1213.7331472580886,-1652.4274459314436,2737.604341928196,0.0,0.0,0.0,0.0,0.0,0.0,-8.6,19.21389886832509,0.0,19.066711085187983,0.0,-8.6,20.0,18.08,20.06,19.33,20.19,-9.72,-8.6,0.0,-847.1,-797.45,39.5,0.0,1.0,74.0,0.0,0.0,0.0,0.0,0.0,0.0,0.0,0.0,0.0,0.0,0.0,0.0,0.0,0.0
10.0,1521.0,6691.112213765462,17270.002686563654,-0.0,373.3460338670186,11760.0,0.0,31689.456262912136,0.0,0.0,0.0,31689.456262912132,0.0,0.16770473413100262,0.7999999999999999,0.0,0.0,0.0,"[2.0, 2.0, 2.0, 2.0, 2.0, 2.0, 2.0, 2.0]",20.0,0.0,0.0,65.9239024325196,238.20564511098183,32.600202630601146,-1171.2949253259876,-1560.0801582390836,4086.728136167532,0.0,0.0,0.0,0.0,0.0,0.0,-7.6,19.258139909954263,0.0,19.126688168474196,0.0,-7.6,20.0,18.15,20.1,19.35,20.22,-8.64,-7.6,1055.54,-817.48,-769.57,108.69,95.0,0.0,125.0,0.0,0.0,0.0,0.0,0.0,0.0,0.0,0.0,0.0,0.0,0.0,0.0,0.0,0.0
11.0,1727.0,54993.99407106419,31294.838535845534,-0.0,1061.0224351366662,-16000.0,0.0,32778.13343480983,33791.04,0.0,0.0,59810.96543480984,0.6533333333333333,0.16770473413100262,0.7999999999999999,27032.832000000002,6758.2080000000005,33791.04,"[2.0, 2.0, 2.0, 2.0, 2.0, 2.0, 2.0, 2.0]",20.82,0.0,0.0,91.52374748275953,442.74011632657675,50.94729341340458,-1172.2159646230741,-2561.56428720827,9696.650635306009,0.0,0.0,0.0,0.0,0.0,0.0,-6.8,19.59378592506178,0.0,19.26581841133465,0.0,-6.8,20.82,18.26,20.27,19.91,20.78,-7.72,-6.8,7969.19,-818.12,-770.18,150.9,143.0,0.0,250.0,0.0,0.0,0.0,0.0,0.0,0.0,0.0,0.0,0.0,0.0,0.0,0.0,0.0,0.0
12.0,3070.0,6480.767774546884,5871.312375346758,-0.0,2492.948439672608,0.0,0.0,11557.141008184151,0.0,0.0,0.0,11557.141008184151,0.6533333333333333,0.16770473413100262,0.7729591836734693,0.0,0.0,0.0,"[2.0, 2.0, 2.0, 2.0, 2.0, 2.0, 2.0, 2.0]",24.0,0.0,0.0,138.86476331069215,487.4439727323671,50.21947493607023,-1281.63430234945,-6576.583553909341,7178.185506912193,0.0,0.0,0.0,0.0,0.0,0.0,-6.2,20.824969894355746,0.0,19.723962960746974,0.0,-6.2,24.0,18.53,20.92,21.97,22.88,-7.0,-6.2,0.0,-894.49,-842.07,228.96,137.0,0.0,286.0,0.0,0.0,0.0,0.0,0.0,0.0,0.0,0.0,0.0,0.0,0.0,0.0,0.0,0.0
13.0,4083.0,0.0,1734.0401615608507,-0.0,436.3552422311943,5380.684919329657,0.0,42873.983945532076,0.0,39444.15346761182,0.0,3429.830477920259,0.4245627160148956,0.0,0.7729591836734693,0.0,0.0,0.0,"[2.0, 2.0, 2.0, 2.0, 2.0, 2.0, 2.0, 2.0]",24.0,0.0,0.0,67.83521902540917,1410.6789046256672,111.87176512026755,-1277.3904801562403,-5970.272605358166,5660.553895528792,0.0,0.0,0.0,0.0,0.0,0.0,-6.1,21.11924307804628,0.0,20.16871078395723,0.0,-6.1,24.0,18.82,21.52,21.92,22.99,-7.08,-6.1,3362.12,-891.52,-839.28,111.84,280.0,0.0,889.0,0.0,0.0,0.0,0.0,0.0,0.0,0.0,0.0,0.0,0.0,0.0,0.0,0.0,0.0
14.0,2721.0,6552.908831798441,3803.850619391748,-0.0,4.7063317522995725,0.0,0.0,7342.478675634365,0.0,0.0,0.0,7342.478675634365,0.4245627160148956,0.0,0.7663265306122448,0.0,0.0,0.0,"[2.0, 2.0, 2.0, 2.0, 2.0, 2.0, 2.0, 2.0]",24.0,0.0,0.0,21.375947122601776,650.0685785675337,108.14169542392901,-1298.6095911222906,-5474.472166688842,0.0,0.0,0.0,0.0,0.0,0.0,0.0,-6.6,21.360187384462854,0.0,20.527056126029613,0.0,-6.6,24.0,19.08,21.97,21.95,23.09,-7.72,-6.6,0.0,-906.33,-853.22,35.24,326.0,0.0,306.0,0.0,0.0,0.0,0.0,0.0,0.0,0.0,0.0,0.0,0.0,0.0,0.0,0.0,0.0
15.0,4150.0,19272.83463835955,0.0,-0.0,0.0,0.0,0.0,13523.823418650969,0.0,0.0,0.0,0.0,0.4245627160148956,0.0,0.7663265306122442,60105.881860671,15026.47046516775,75132.35232583874,"[2.0, 2.0, 2.0, 2.0, 2.0, 2.0, 2.0, 2.0]",21.09,0.0,0.0,2.3369151392198493,488.3036622786322,84.42694337078476,-1204.7760840935248,-1169.0372454364294,0.0,0.0,0.0,0.0,0.0,0.0,0.0,-7.3,20.53733709969436,0.0,20.555100300315054,0.0,-7.3,21.09,19.19,21.92,20.24,21.44,-8.48,-7.3,5612.07,-840.84,-791.57,3.85,256.0,0.0,224.0,0.0,0.0,0.0,0.0,0.0,0.0,0.0,0.0,0.0,0.0,0.0,0.0,0.0,0.0
16.0,3949.0,132760.8394003826,0.0,-0.0,0.0,0.0,0.0,35333.23168304257,0.0,-80000.0,0.0,0.0,0.4245627160148956,0.3266666666666667,0.7663265306122442,512592.14081352274,128148.03520338068,640740.1760169034,"[2.0, 2.0, 2.0, 2.0, 2.0, 2.0, 2.0, 2.0]",20.21,0.0,0.0,0.0,207.97322940065573,35.086915761493515,-1163.3908259329799,-8.906516016999698,8733.393074934116,0.0,0.0,0.0,0.0,0.0,0.0,-7.2,20.22460916468063,0.0,20.451373551928448,0.0,-7.2,20.21,19.22,21.68,19.87,21.0,-8.36,-7.2,0.0,-811.96,-764.38,0.0,106.0,0.0,97.0,0.0,0.0,0.0,0.0,0.0,0.0,0.0,0.0,0.0,0.0,0.0,0.0,0.0,0.0
17.0,4063.0,0.0,0.0,-0.0,0.0,4063.0,0.0,22290.96402132504,0.0,22290.96402132504,0.0,0.0,0.25181611737543985,0.23189215977327796,0.7663265306122442,0.0,0.0,0.0,"[2.0, 2.0, 2.0, 2.0, 2.0, 2.0, 2.0, 2.0]",24.0,0.0,0.0,0.0,203.38821848724135,30.96261105659886,-1315.5848798951308,-5121.008066379407,6204.010568201957,0.0,0.0,0.0,0.0,0.0,0.0,-7.0,21.531945986937288,0.0,20.74728112383529,0.0,-7.0,24.0,19.43,22.07,22.4,23.48,-8.15,-7.0,0.0,-918.18,-864.37,0.0,92.0,0.0,101.0,0.0,0.0,0.0,0.0,0.0,0.0,0.0,0.0,0.0,0.0,0.0,0.0,0.0,0.0
18.0,7291.0,23408.040201005024,0.0,-0.0,0.0,-16000.0,0.0,0.0,0.0,0.0,0.0,0.0,0.9051494507087732,0.23189215977327796,0.7612244897959177,0.0,0.0,0.0,"[2.0, 2.0, 2.0, 2.0, 2.0, 2.0, 2.0, 2.0]",24.0,0.0,0.0,0.0,206.89861746782424,4.609517023117558,-1311.3410577019208,-4685.092060184393,0.0,0.0,0.0,0.0,0.0,0.0,0.0,-6.9,21.7434408792887,0.0,21.061105205508802,0.0,-6.9,24.0,19.66,22.46,22.3,23.43,-8.06,-6.9,0.0,-915.22,-861.59,0.0,0.0,0.0,152.0,0.0,0.0,0.0,0.0,0.0,0.0,0.0,0.0,0.0,0.0,0.0,0.0,0.0,0.0
19.0,4242.0,0.0,4559.633439555819,-0.0,0.0,8801.633439555819,0.0,8714.410772124722,0.0,0.0,0.0,8714.410772124722,0.5309303418841209,0.23189215977327796,0.7602040816326512,0.0,0.0,0.0,"[2.0, 2.0, 2.0, 2.0, 2.0, 2.0, 2.0, 2.0]",21.19,0.0,0.0,0.0,674.5697306360917,58.953296664082444,-1187.9539669654182,-592.0814462382589,0.0,0.0,0.0,0.0,0.0,0.0,0.0,-6.8,20.920702331982458,0.0,21.04335339330937,0.0,-6.8,21.19,19.74,22.34,20.56,21.73,-7.94,-6.8,0.0,-829.1,-780.52,0.0,83.0,37.0,448.0,0.0,0.0,0.0,0.0,0.0,0.0,0.0,0.0,0.0,0.0,0.0,0.0,0.0,0.0
20.0,5368.0,5394.974874371859,0.0,-0.0,0.0,0.0,0.0,0.0,0.0,0.0,0.0,0.0,0.3026990493671141,0.23189215977327796,0.7295918367346921,0.0,0.0,0.0,"[1.5093130496117908, 1.5490474441078383, 0.5824745073084294, 1.0778508591705744, 0.7780636998154513, 0.16481159180889904, 1.7838439533689687, 2.0]",20.68,0.0,0.0,0.0,623.9913289974893,125.85194503906492,-1157.844540367413,18.77573731807802,0.0,0.0,0.0,0.0,0.0,0.0,0.0,-6.6,20.707271826850743,0.0,20.92856979499949,0.0,-6.6,20.68,19.76,22.1,20.36,21.44,-7.74,-6.6,0.0,-808.09,-760.73,0.0,129.0,138.0,376.0,0.0,0.0,0.0,0.0,0.0,0.0,0.0,0.0,0.0,0.0,0.0,0.0,0.0,0.0
21.0,6751.0,0.0,0.0,-0.0,0.0,6751.0,0.0,11044.195646609041,0.0,11044.195646609041,0.0,0.0,0.01566673644194405,0.18493554562953202,0.719387755102039,0.0,0.0,0.0,"[1.5093130496117908, 1.5490474441078383, 0.5824745073084294, 1.0778508591705744, 0.7780636998154513, 0.16481159180889904, 1.7838439533689687, 2.0]",20.49,0.0,0.0,0.0,546.1177842649669,152.14438753276832,-1145.436762900437,161.26536334758595,294.59906226179004,0.0,0.0,0.0,0.0,0.0,0.0,-6.5,20.58391164305158,0.0,20.811851886478497,0.0,-6.5,20.49,19.77,21.86,20.29,21.26,-7.67,-6.5,1258.21,-799.43,-752.58,0.0,270.0,115.0,247.0,0.0,0.0,0.0,0.0,0.0,0.0,0.0,0.0,0.0,0.0,0.0,0.0,0.0,0.0
22.0,2820.0,2834.170854271357,0.0,-0.0,0.0,0.0,0.0,22122.20357228645,0.0,22122.203572286446,0.0,0.0,0.01566673644194405,0.09087855765212366,0.7193877551020387,0.0,0.0,0.0,"[1.5093130496117908, 1.5490474441078383, 0.5824745073084294, 1.0778508591705744, 0.7780636998154513, 0.16481159180889904, 1.7838439533689687, 2.0]",20.49,0.0,0.0,0.0,556.290777229105,125.39705849073093,-1136.9491185140168,47.71107766139487,6635.057568966303,0.0,0.0,0.0,0.0,0.0,0.0,-6.3,20.528739797172562,0.0,20.715792936526114,0.0,-6.3,20.49,19.77,21.66,20.31,21.19,-7.55,-6.3,703.57,-793.51,-747.01,0.0,314.0,42.0,239.0,0.0,0.0,0.0,0.0,0.0,0.0,0.0,0.0,0.0,0.0,0.0,0.0,0.0,0.0
23.0,2059.0,1699.0134260155537,0.0,-0.0,0.0,368.4816411145241,0.0,6548.676835812722,0.0,6548.676835812722,0.0,0.0,0.0,0.06303554389441651,0.7193877551020387,0.0,0.0,0.0,"[1.5093130496117908, 1.5490474441078383, 0.5824745073084294, 1.0778508591705744, 0.7780636998154513, 0.16481159180889904, 1.7838439533689687, 2.0]",23.51,0.0,0.0,0.0,319.01646245991043,59.044273973749235,-1260.8104206496896,-4039.9403485366493,0.0,0.0,0.0,0.0,0.0,0.0,0.0,-6.2,21.5652262384541,0.0,20.944805536116228,0.0,-6.2,23.51,19.92,21.97,22.26,23.09,-7.41,-6.2,5438.36,-879.95,-828.39,0.0,160.0,11.0,149.0,0.0,0.0,0.0,0.0,0.0,0.0,0.0,0.0,0.0,0.0,0.0,0.0,0.0,0.0
24.0,1420.0,1427.1356783919598,0.0,-0.0,0.0,0.0,0.0,3314.065581723169,0.0,3314.065581723169,0.0,0.0,0.0,0.04894512900613773,0.7193877551020387,0.0,0.0,0.0,"[1.5093130496117908, 1.5490474441078383, 0.5824745073084294, 1.0778508591705744, 0.7780636998154513, 0.16481159180889904, 1.7838439533689687, 2.0]",21.12,0.0,0.0,0.0,517.5331068516489,57.49765970941374,-1155.1166286902762,-539.6130671730746,952.8345350224051,0.0,0.0,0.0,0.0,0.0,0.0,-6.1,20.872038453048134,0.0,20.94525662275507,0.0,-6.1,21.12,19.97,21.92,20.63,21.49,-7.34,-6.1,60.64,-806.19,-758.94,0.0,160.0,0.0,296.0,0.0,0.0,0.0,0.0,0.0,0.0,0.0,0.0,0.0,0.0,0.0,0.0,0.0,0.0
25.0,1681.0,75883.19549283625,57822.77951537206,-0.0,0.0,-16000.0,0.0,34921.333547050395,0.0,-80000.0,0.0,114921.3335470504,0.6533333333333333,0.37561179567280445,0.7193877551020387,0.0,0.0,0.0,"[1.5093130496117908, 1.5490474441078383, 0.5824745073084294, 1.0778508591705744, 0.7780636998154513, 0.16481159180889904, 1.7838439533689687, 2.0]",21.04,0.0,0.0,0.0,439.94612530121486,55.76909082574466,-1147.3686788427588,-469.2956659623573,0.0,0.0,0.0,0.0,0.0,0.0,0.0,-6.0,20.823442420164838,0.0,20.89833419480169,0.0,-6.0,21.04,20.0,21.8,20.69,21.51,-7.14,-6.0,5752.74,-800.78,-753.85,0.0,160.0,0.0,239.0,0.0,0.0,0.0,0.0,0.0,0.0,0.0,0.0,0.0,0.0,0.0,0.0,0.0,0.0
26.0,1154.0,12014.281384468446,10800.209977546103,-0.0,0.0,0.0,0.0,21774.0333757389,0.0,0.0,0.0,21774.033375738898,0.6533333333333333,0.37561179567280445,0.6903061224489775,0.0,0.0,0.0,"[1.5093130496117908, 1.5490474441078383, 0.5824745073084294, 1.0778508591705744, 0.7780636998154513, 0.16481159180889904, 1.7838439533689687, 2.0]",20.49,0.0,0.0,0.0,360.9979686358609,54.01019617218663,-1111.4861853547563,213.49341132584323,6706.414661826812,0.0,0.0,0.0,0.0,0.0,0.0,-5.7,20.608803570915583,0.0,20.805183118019837,0.0,-5.7,20.49,19.99,21.62,20.36,21.12,-6.82,-5.7,4334.84,-775.74,-730.28,0.0,160.0,0.0,181.0,0.0,0.0,0.0,0.0,0.0,0.0,0.0,0.0,0.0,0.0,0.0,0.0,0.0,0.0
27.0,748.0,751.7587939698492,0.0,-0.0,0.0,0.0,0.0,27147.259382632776,0.0,27147.259382632772,0.0,0.0,0.6533333333333333,0.2601897744881413,0.6903061224489775,0.0,0.0,0.0,"[1.5093130496117908, 1.5490474441078383, 0.5824745073084294, 1.0778508591705744, 0.7780636998154513, 0.16481159180889904, 1.7838439533689687, 2.0]",23.51,0.0,0.0,0.0,207.1851806499126,50.5833841747374,-1231.1036652972189,-3880.5051413405854,0.0,0.0,0.0,0.0,0.0,0.0,0.0,-5.5,21.642162870426308,0.0,21.031628620749835,0.0,-5.5,23.51,20.13,21.94,22.35,23.08,-6.59,-5.5,2689.11,-859.22,-808.87,0.0,160.0,0.0,68.0,0.0,0.0,0.0,0.0,0.0,0.0,0.0,0.0,0.0,0.0,0.0,0.0,0.0,0.0
28.0,627.0,6339.963692987122,5681.263874522187,-0.0,0.0,0.0,0.0,11616.337785716052,0.0,0.0,0.0,11616.337785716052,0.6533333333333333,0.2601897744881413,0.6903061224489775,0.0,0.0,0.0,"[1.5093130496117908, 1.5490474441078383, 0.5824745073084294, 1.0778508591705744, 0.7780636998154513, 0.16481159180889904, 1.7838439533689687, 2.0]",21.15,0.0,0.0,0.0,242.57573363782998,51.371854191849614,-1126.8377551476362,-429.1935620769773,6121.747216895032,0.0,0.0,0.0,0.0,0.0,0.0,-5.4,20.958823696273935,0.0,21.034122534349727,0.0,-5.4,21.15,20.17,21.89,20.74,21.51,-6.47,-5.4,0.0,-786.45,-740.36,0.0,160.0,0.0,94.0,0.0,0.0,0.0,0.0,0.0,0.0,0.0,0.0,0.0,0.0,0.0,0.0,0.0,0.0
29.0,635.0,0.0,6577.799999999999,-0.0,0.0,7212.8,0.0,13574.8790928018,0.0,0.0,0.0,13574.8790928018,0.3466666666666667,0.2601897744881413,0.6903061224489775,0.0,0.0,0.0,"[1.5093130496117908, 1.5490474441078383, 0.5824745073084294, 1.0778508591705744, 0.7780636998154513, 0.16481159180889904, 1.7838439533689687, 2.0]",23.51,0.0,0.0,0.0,249.3816092124294,51.52348304129428,-1218.3721987175884,-3578.6301558476075,4499.040062556001,0.0,0.0,0.0,0.0,0.0,0.0,-5.2,21.78848621590586,0.0,21.244251075679365,0.0,-5.2,23.51,20.31,22.18,22.4,23.17,-6.27,-5.2,5162.84,-850.33,-800.5,0.0,160.0,0.0,99.0,0.0,0.0,0.0,0.0,0.0,0.0,0.0,0.0,0.0,0.0,0.0,0.0,0.0,0.0
30.0,923.0,67727.27530659185,50465.63893005889,-0.0,0.0,-16000.0,0.0,24629.13975669506,0.0,-80000.0,0.0,104629.13975669506,1.0,0.5868564411548081,0.6903061224489775,0.0,0.0,0.0,"[1.5093130496117908, 1.5490474441078383, 0.5824745073084294, 1.0778508591705744, 0.7780636998154513, 0.16481159180889904, 1.7838439533689687, 2.0]",23.51,0.0,0.0,0.0,361.4278134089935,118.72538911516604,-1214.1283765243784,-3279.5829217431565,4020.339180474017,0.0,0.0,0.0,0.0,0.0,0.0,-5.1,21.933561057141546,0.0,21.461363133949426,0.0,-5.1,23.51,20.46,22.46,22.34,23.16,-6.18,-5.1,0.0,-847.37,-797.71,0.0,338.0,25.0,85.0,0.0,0.0,0.0,0.0,0.0,0.0,0.0,0.0,0.0,0.0,0.0,0.0,0.0,0.0
31.0,1302.0,0.0,1391.2837581739643,-0.0,0.0,2693.283758173964,0.0,2897.7771538350507,0.0,0.0,0.0,2897.777153835051,0.8854896361320593,0.5868564411548081,0.6903061224489762,0.0,0.0,0.0,"[1.5093130496117908, 1.5490474441078383, 0.5824745073084294, 1.0778508591705744, 0.7780636998154513, 0.16481159180889904, 1.7838439533689687, 2.0]",23.51,0.0,0.0,0.0,233.04750783339068,104.53292880714618,-1209.8845543311684,-3016.2265168601443,112.4679790219296,0.0,0.0,0.0,0.0,0.0,0.0,-5.0,22.061301558573113,0.0,21.650318175156045,0.0,-5.0,23.51,20.6,22.7,22.41,23.27,-6.06,-5.0,4767.72,-844.41,-794.93,0.0,274.0,38.0,23.0,0.0,0.0,0.0,0.0,0.0,0.0,0.0,0.0,0.0,0.0,0.0,0.0,0.0,0.0
32.0,1647.0,6197.2320559209675,0.0,-0.0,0.0,-4519.245895641363,0.0,2472.8901036540146,0.0,2472.8901036540146,0.0,0.0,1.0,0.5658284640829201,0.6903061224489762,0.0,0.0,0.0,"[0.8305100557113292, 0.8044293041870745, 0.4902936824792583, 0.5500693822399505, 0.505992522277289, 0.16481159180889904, 1.4710227515174665, 0.9763791406031359]",21.67,0.0,0.0,0.7792864079131352,347.5294990777061,95.49584938024464,-1123.5076921011873,-354.4120934525194,0.0,0.0,0.0,0.0,0.0,0.0,0.0,-4.8,21.516604634113975,0.0,21.628409853577658,0.0,-4.8,21.67,20.65,22.61,21.29,22.17,-5.87,-4.8,0.0,-784.13,-738.17,1.28,228.0,41.0,131.0,0.0,0.0,0.0,0.0,0.0,0.0,0.0,0.0,0.0,0.0,0.0,0.0,0.0,0.0
33.0,2807.0,0.0,0.0,-0.0,6.682075555198164,2800.317924444802,0.0,3502.0836982038204,0.0,3502.08369820382,0.0,0.0,0.8809388637565986,0.550938652440897,0.6903061224489762,0.0,0.0,0.0,"[0.8305100557113292, 0.8044293041870745, 0.4902936824792583, 0.5500693822399505, 0.505992522277289, 0.16481159180889904, 1.4710227515174665, 0.9763791406031359]",21.17,0.0,0.0,23.935610845455972,1162.3002665505473,104.80586073614657,-1059.6607557870868,263.65766045013504,0.0,0.0,0.0,0.0,0.0,0.0,0.0,-3.8,21.311145451630036,0.0,21.529313931729256,0.0,-3.8,21.17,20.65,22.41,21.05,21.88,-4.63,-3.8,3839.1,-739.57,-696.23,39.46,218.0,30.0,736.0,0.0,0.0,0.0,0.0,0.0,0.0,0.0,0.0,0.0,0.0,0.0,0.0,0.0,0.0
34.0,2604.0,0.0,13512.389944116994,-0.0,116.38994411699393,16000.0,0.0,16791.842251946924,0.0,-14314.682165073833,0.0,31106.524417020755,0.20066675491306118,0.6093902712816152,0.6903061224489758,0.0,0.0,0.0,"[0.8305100557113292, 0.8044293041870745, 0.4902936824792583, 0.5500693822399505, 0.505992522277289, 0.16481159180889904, 1.4710227515174665, 0.9763791406031359]",21.41,0.0,0.0,46.97072094975402,318.0851321181231,109.1727716001527,-1023.0731437065983,-183.24144759720144,3462.936383083592,0.0,0.0,0.0,0.0,0.0,0.0,-2.7,21.331614627199404,0.0,21.444706676764675,0.0,-2.7,21.41,20.65,22.24,21.14,21.87,-3.41,-2.7,0.0,-714.03,-672.19,77.44,310.0,24.0,68.0,0.0,0.0,0.0,0.0,0.0,0.0,0.0,0.0,0.0,0.0,0.0,0.0,0.0,0.0
35.0,6313.0,7396.978786373402,1625.4534911021556,-0.0,578.4595986606207,0.0,0.0,3896.874032396532,0.0,0.0,0.0,3896.8740323965317,0.20066675491306118,0.6093902712816152,0.6903061224489758,0.0,0.0,0.0,"[0.8305100557113292, 0.8044293041870745, 0.4902936824792583, 0.5500693822399505, 0.505992522277289, 0.16481159180889904, 1.4710227515174665, 0.9763791406031359]",22.73,0.0,0.0,73.11056663641821,403.6242419715103,43.85106325939466,-1036.7914934120165,-1979.5704761569898,0.0,0.0,0.0,0.0,0.0,0.0,0.0,-1.7,21.783230176792777,0.0,21.53800870926765,0.0,-1.7,22.73,20.72,22.35,22.08,22.79,-2.25,-1.7,2345.87,-723.6,-681.2,120.54,93.0,15.0,246.0,0.0,0.0,0.0,0.0,0.0,0.0,0.0,0.0,0.0,0.0,0.0,0.0,0.0,0.0
36.0,5811.0,5013.188854424921,0.0,-0.0,822.8770898472031,0.0,0.0,6039.2736476794435,0.0,6039.273647679442,0.0,0.0,0.20066675491306118,0.583713087405427,0.6903061224489758,0.0,0.0,0.0,"[0.8305100557113292, 0.8044293041870745, 0.4902936824792583, 0.5500693822399505, 0.505992522277289, 0.16481159180889904, 1.4710227515174665, 0.9763791406031359]",21.52,0.0,0.0,81.25694520358644,1343.90968319907,98.89233560780498,-955.7029014085339,-239.6653484217803,2374.0214506112407,0.0,0.0,0.0,0.0,0.0,0.0,-1.0,21.415966638431424,0.0,21.510941102437478,0.0,-1.0,21.52,20.75,22.27,21.22,21.94,-1.84,-1.0,0.0,-667.01,-627.92,133.97,240.0,0.0,861.0,0.0,0.0,0.0,0.0,0.0,0.0,0.0,0.0,0.0,0.0,0.0,0.0,0.0,0.0
37.0,1630.0,17481.114030138848,0.0,-0.0,236.2915400118476,-16000.0,0.0,13798.510761016432,0.0,13798.51076101643,0.0,0.0,0.8540000882463945,0.5250459498160714,0.6780612244897921,0.0,0.0,0.0,"[0.8305100557113292, 0.8044293041870745, 0.4902936824792583, 0.5500693822399505, 0.505992522277289, 0.16481159180889904, 1.4710227515174665, 0.9763791406031359]",22.83,0.0,0.0,56.96512602398766,613.030287282608,61.349032485308015,-998.5930079198116,-2044.186097747329,2312.3245420520307,0.0,0.0,0.0,0.0,0.0,0.0,-0.7,21.851537726102197,0.0,21.58490074140319,0.0,-0.7,22.83,20.81,22.36,22.06,22.71,-1.7,-0.7,338.7,-696.94,-656.1,93.92,166.0,0.0,363.0,0.0,0.0,0.0,0.0,0.0,0.0,0.0,0.0,0.0,0.0,0.0,0.0,0.0,0.0
38.0,2383.0,0.0,7774.711261391286,-0.0,0.22918583608694337,10157.4820755552,0.0,11367.811736779304,0.0,-7567.81247259519,0.0,18935.624209374495,0.4221343537414966,0.5559478507458351,0.6780612244897921,0.0,0.0,0.0,"[0.8305100557113292, 0.8044293041870745, 0.4902936824792583, 0.5500693822399505, 0.505992522277289, 0.16481159180889904, 1.4710227515174665, 0.9763791406031359]",22.83,0.0,0.0,13.492950653343273,1074.3970104449309,71.05327884976603,-1024.0559410790722,-1903.665283744059,0.0,0.0,0.0,0.0,0.0,0.0,0.0,-1.3,21.920093757702848,0.0,21.684848615605468,0.0,-1.3,22.83,20.9,22.47,22.08,22.76,-2.39,-1.3,4394.05,-714.72,-672.83,22.25,164.0,0.0,703.0,0.0,0.0,0.0,0.0,0.0,0.0,0.0,0.0,0.0,0.0,0.0,0.0,0.0,0.0
39.0,1775.0,0.0,0.0,-0.0,0.0,1775.0,0.0,9840.737549577028,0.0,9840.737549577028,0.0,0.0,0.3466666666666667,0.5141079802119192,0.6142857142857104,0.0,0.0,0.0,"[0.8305100557113292, 0.8044293041870745, 0.4902936824792583, 0.5500693822399505, 0.505992522277289, 0.16481159180889904, 1.4710227515174665, 0.9763791406031359]",21.97,0.0,0.0,1.5504577683356355,354.4070154478277,55.58713620641109,-1013.0208860711241,-661.4240036524154,0.0,0.0,0.0,0.0,0.0,0.0,0.0,-1.9,21.66281786095795,0.0,21.669169571440612,0.0,-1.9,21.97,20.93,22.41,21.51,22.16,-3.08,-1.9,3335.19,-707.01,-665.58,2.56,166.0,0.0,173.0,0.0,0.0,0.0,0.0,0.0,0.0,0.0,0.0,0.0,0.0,0.0,0.0,0.0,0.0
40.0,1681.0,22735.904284838347,4941.224763414158,-0.0,0.0,-16000.0,0.0,11657.703370198726,0.0,0.0,0.0,11657.70337019873,1.0,0.5141079802119192,0.6142857142857093,0.0,0.0,0.0,"[0.8305100557113292, 0.8044293041870745, 0.4902936824792583, 0.5500693822399505, 0.505992522277289, 0.16481159180889904, 1.4710227515174665, 0.9763791406031359]",21.36,0.0,0.0,0.0,428.19703483559056,103.19859493203322,-995.4357647597882,148.45194744291285,0.0,0.0,0.0,0.0,0.0,0.0,0.0,-2.1,21.44127083803546,0.0,21.598557827344237,0.0,-2.1,21.36,20.92,22.27,21.24,21.87,-3.33,-2.1,0.0,-694.74,-654.03,0.0,326.0,0.0,143.0,0.0,0.0,0.0,0.0,0.0,0.0,0.0,0.0,0.0,0.0,0.0,0.0,0.0,0.0
41.0,2752.0,3780.348513615109,4022.152771047034,-0.0,0.0,3012.706000000001,0.0,9412.671833109536,0.0,0.0,0.0,9412.671833109536,0.8719087585034013,0.5141079802119192,0.6142857142857093,0.0,0.0,0.0,"[0.8305100557113292, 0.8044293041870745, 0.4902936824792583, 0.5500693822399505, 0.505992522277289, 0.16481159180889904, 1.4710227515174665, 0.9763791406031359]",21.2,0.0,0.0,0.0,335.99533099864806,93.10011355901908,-997.3026272513638,271.0610937219708,3662.167101412418,0.0,0.0,0.0,0.0,0.0,0.0,-2.3,21.344773397981385,0.0,21.514969907860035,0.0,-2.3,21.2,20.91,22.12,21.17,21.75,-3.51,-2.3,0.0,-696.04,-655.25,0.0,298.0,0.0,90.0,0.0,0.0,0.0,0.0,0.0,0.0,0.0,0.0,0.0,0.0,0.0,0.0,0.0,0.0
42.0,3024.0,0.0,0.0,-0.0,0.0,9944.294000000002,0.0,12172.225520211367,34601.47,39853.401520211366,0.0,0.0,0.4491071428571428,0.34466324585727903,0.6030612244897909,27681.176000000003,6920.294000000001,34601.47,"[0.8305100557113292, 0.8044293041870745, 0.4902936824792583, 0.5500693822399505, 0.505992522277289, 0.16481159180889904, 1.4710227515174665, 0.9763791406031359]",22.83,0.0,0.0,0.0,117.20434147415527,3.1538800684488546,-1074.9818073975932,-1974.5222325813802,2368.3718506916425,0.0,0.0,0.0,0.0,0.0,0.0,-2.5,21.88648277454957,0.0,21.611810007167925,0.0,-2.5,22.83,20.97,22.26,22.24,22.78,-3.85,-2.5,0.0,-750.26,-706.29,0.0,0.0,1.0,86.0,0.0,0.0,0.0,0.0,0.0,0.0,0.0,0.0,0.0,0.0,0.0,0.0,0.0,0.0
43.0,8860.0,8904.522613065326,0.0,-0.0,0.0,0.0,0.0,6494.45513707682,0.0,6494.45513707682,0.0,0.0,0.4491071428571428,0.3170507665329728,0.6030612244897909,0.0,0.0,0.0,"[0.8305100557113292, 0.8044293041870745, 0.4902936824792583, 0.5500693822399505, 0.505992522277289, 0.16481159180889904, 1.4710227515174665, 0.9763791406031359]",22.56,0.0,0.0,0.0,490.52452693981735,68.32395955976222,-1071.9168622329905,-1465.6243392228857,0.0,0.0,0.0,0.0,0.0,0.0,0.0,-2.7,21.8611999074893,0.0,21.69266540839216,0.0,-2.7,22.56,21.03,22.36,22.0,22.57,-4.08,-2.7,0.0,-748.12,-704.28,0.0,128.0,38.0,289.0,0.0,0.0,0.0,0.0,0.0,0.0,0.0,0.0,0.0,0.0,0.0,0.0,0.0,0.0
44.0,5671.0,17425.9194562403,0.0,-0.0,0.0,-11667.789858959099,0.0,2462.7911179252815,0.0,2462.7911179252815,0.0,0.0,0.6844279498530748,0.29610866519007073,0.5908163265306073,0.0,0.0,0.0,"[0.5921142858816033, 0.8044293041870674, 0.4902936824792583, 0.5500693822399505, 0.505992522277289, 0.16481159180889904, 1.4710227515174665, 0.8558349315852212]",21.6,0.0,0.0,0.0,653.0774919794617,113.5396824641588,-1039.5738805104693,-108.54634575875977,0.0,0.0,0.0,0.0,0.0,0.0,0.0,-2.9,21.557202765305064,0.0,21.653751121136168,0.0,-2.9,21.6,21.03,22.28,21.39,21.96,-4.2,-2.9,0.0,-725.55,-683.03,0.0,167.0,94.0,382.0,0.0,0.0,0.0,0.0,0.0,0.0,0.0,0.0,0.0,0.0,0.0,0.0,0.0,0.0
45.0,4027.0,0.0,4635.745380544321,-0.0,0.0,8662.745380544322,0.0,10495.05395505341,0.0,0.0,0.0,10495.053955053409,0.31611394557823114,0.29610866519007073,0.5908163265306073,0.0,0.0,0.0,"[0.5921142858816033, 0.8044293041870674, 0.4902936824792583, 0.5500693822399505, 0.505992522277289, 0.16481159180889904, 1.4710227515174665, 0.8558349315852212]",21.41,0.0,0.0,0.0,386.0006062730737,87.09561112101068,-1040.0710930223242,80.69810571189186,2931.5371414082765,0.0,0.0,0.0,0.0,0.0,0.0,-3.1,21.460765407157037,0.0,21.586077087632372,0.0,-3.1,21.41,21.01,22.16,21.32,21.85,-4.41,-3.1,1266.96,-725.89,-683.35,0.0,107.0,88.0,218.0,0.0,0.0,0.0,0.0,0.0,0.0,0.0,0.0,0.0,0.0,0.0,0.0,0.0,0.0
46.0,3966.0,0.0,0.0,-0.0,0.0,3965.9999999999964,0.0,12578.720479739859,0.0,12578.72047973986,0.0,0.0,0.14749149659863947,0.24262771076940806,0.5908163265306073,0.0,0.0,0.0,"[0.5921142858816033, 0.8044293041870674, 0.4902936824792583, 0.5500693822399505, 0.505992522277289, 0.16481159180889904, 1.4710227515174665, 0.8558349315852212]",22.59,0.0,0.0,0.0,419.67178016846054,123.78979268661756,-1098.8152923555663,-1554.380115038913,2116.80417626876,0.0,0.0,0.0,0.0,0.0,0.0,-3.3,21.8523006096733,0.0,21.653487307909685,0.0,-3.3,22.59,21.06,22.25,22.11,22.62,-4.7,-3.3,0.0,-766.89,-721.95,0.0,268.0,69.0,160.0,0.0,0.0,0.0,0.0,0.0,0.0,0.0,0.0,0.0,0.0,0.0,0.0,0.0,0.0
47.0,1932.0,0.0,0.0,-0.0,0.0,1932.0,0.0,14667.101619978446,0.0,14667.101619978444,0.0,0.0,0.06534863945578231,0.18026758483412555,0.5908163265306073,0.0,0.0,0.0,"[0.5921142858816033, 0.8044293041870674, 0.4902936824792583, 0.5500693822399505, 0.505992522277289, 0.16481159180889904, 1.4710227515174665, 0.8558349315852212]",22.59,0.0,0.0,0.0,494.39312989801067,73.35803736132483,-1103.0591145487763,-1448.410699459749,1987.9085430361426,0.0,0.0,0.0,0.0,0.0,0.0,-3.4,21.90377335313358,0.0,21.730824327814645,0.0,-3.4,22.59,21.11,22.35,22.08,22.6,-4.79,-3.4,3001.47,-769.85,-724.74,0.0,166.0,27.0,273.0,0.0,0.0,0.0,0.0,0.0,0.0,0.0,0.0,0.0,0.0,0.0,0.0,0.0,0.0
48.0,1988.0,5832.960071238055,3815.7952708818652,-0.0,0.0,0.0,0.0,8093.078087461277,0.0,0.0,0.0,8093.0780874612765,0.06534863945578231,0.18026758483412555,0.5637755102040767,0.0,0.0,0.0,"[0.5921142858816033, 0.8044293041870674, 0.4902936824792583, 0.5500693822399505, 0.505992522277289, 0.16481159180889904, 1.4710227515174665, 0.8558349315852212]",22.59,0.0,0.0,0.0,282.1930935615511,52.79716537662938,-1153.9849808672973,-1363.2167218113298,0.0,0.0,0.0,0.0,0.0,0.0,0.0,-4.6,21.945731421293875,0.0,21.792926267937784,0.0,-4.6,22.59,21.16,22.43,22.08,22.62,-5.94,-4.6,14.42,-805.4,-758.2,0.0,160.0,1.0,123.0,0.0,0.0,0.0,0.0,0.0,0.0,0.0,0.0,0.0,0.0,0.0,0.0,0.0,0.0
49.0,865.0,0.0,0.0,-0.0,0.0,865.0,0.0,13901.071445302838,0.0,13901.071445302836,0.0,0.0,0.02857142857142857,0.1211643899136203,0.5637755102040767,0.0,0.0,0.0,"[0.5921142858816033, 0.8044293041870674, 0.4902936824792583, 0.5500693822399505, 0.505992522277289, 0.16481159180889904, 1.4710227515174665, 0.8558349315852212]",21.53,0.0,0.0,0.0,238.49220829307026,51.28087688218282,-1159.9071109924782,119.07946759797173,2603.8179662719986,0.0,0.0,0.0,0.0,0.0,0.0,-5.8,21.604677821737603,0.0,21.742414773767713,0.0,-5.8,21.53,21.15,22.34,21.43,21.98,-7.13,-5.8,3373.85,-809.53,-762.09,0.0,160.0,0.0,91.0,0.0,0.0,0.0,0.0,0.0,0.0,0.0,0.0,0.0,0.0,0.0,0.0,0.0,0.0
50.0,672.0,0.0,0.0,-0.0,0.0,672.0,0.0,9038.044680371746,0.0,9038.044680371744,0.0,0.0,0.0,0.08273732919775403,0.5637755102040767,0.0,0.0,0.0,"[0.5921142858816033, 0.8044293041870674, 0.4902936824792583, 0.5500693822399505, 0.505992522277289, 0.16481159180889904, 1.4710227515174665, 0.8558349315852212]",22.43,0.0,0.0,0.0,238.49220829307026,51.28087688218282,-1248.9294599975963,-1142.807998677525,0.0,0.0,0.0,0.0,0.0,0.0,0.0,-7.0,21.891151146883125,0.0,21.777469547927446,0.0,-7.0,22.43,21.17,22.38,22.07,22.61,-8.4,-7.0,2767.82,-871.66,-820.58,0.0,160.0,0.0,91.0,0.0,0.0,0.0,0.0,0.0,0.0,0.0,0.0,0.0,0.0,0.0,0.0,0.0,0.0
51.0,944.0,3099.0718813779176,2139.576521971028,-0.0,0.0,0.0,0.0,3925.9991932083267,0.0,0.0,0.0,3925.999193208327,0.0,0.08273732919775403,0.5637755102040767,0.0,0.0,0.0,"[0.5921142858816033, 0.8044293041870674, 0.4902936824792583, 0.5500693822399505, 0.505992522277289, 0.16481159180889904, 1.4710227515174665, 0.8558349315852212]",21.41,0.0,0.0,0.0,601.9259639766825,59.37785744252748,-1231.0430917167785,267.563298742414,2628.739666787511,0.0,0.0,0.0,0.0,0.0,0.0,-7.6,21.55390003991384,0.0,21.7165061393608,0.0,-7.6,21.41,21.15,22.28,21.37,21.91,-9.03,-7.6,0.0,-859.18,-808.83,0.0,160.0,0.0,358.0,0.0,0.0,0.0,0.0,0.0,0.0,0.0,0.0,0.0,0.0,0.0,0.0,0.0,0.0
52.0,808.0,11298.482990150094,0.0,-0.0,0.0,0.0,0.0,9390.591517679406,0.0,0.0,0.0,0.0,0.0,0.08273732919775403,0.5637755102040767,41735.96230079738,10433.990575199345,52169.95287599672,"[0.5921142858816033, 0.8044293041870674, 0.4902936824792583, 0.5500693822399505, 0.505992522277289, 0.16481159180889904, 1.4710227515174665, 0.8558349315852212]",22.54,0.0,0.0,0.0,316.07918984350425,53.00944576585191,-1308.5945026343395,-1323.8402505670306,0.0,0.0,0.0,0.0,0.0,0.0,0.0,-8.3,21.91000845877222,0.0,21.756252469308862,0.0,-8.3,22.54,21.17,22.34,22.11,22.62,-9.77,-8.3,1429.51,-913.3,-859.78,0.0,160.0,0.0,148.0,0.0,0.0,0.0,0.0,0.0,0.0,0.0,0.0,0.0,0.0,0.0,0.0,0.0,0.0
53.0,664.0,12035.0494483552,0.0,-0.0,0.0,0.0,0.0,10179.786781002076,0.0,0.0,0.0,0.0,0.0,0.08273732919775403,0.5637755102040767,45243.496804453694,11310.874201113424,56554.37100556711,"[0.5921142858816033, 0.8044293041870674, 0.4902936824792583, 0.5500693822399505, 0.505992522277289, 0.16481159180889904, 1.4710227515174665, 0.8558349315852212]",21.44,0.0,0.0,0.0,149.72926264118857,58.5287358856374,-1287.3825189299757,208.02330175078146,3257.93147564455,0.0,0.0,0.0,0.0,0.0,0.0,-8.9,21.553326813928926,0.0,21.70154150765294,0.0,-8.9,21.44,21.15,22.25,21.38,21.9,-10.42,-8.9,188.73,-898.5,-845.84,0.0,160.0,17.0,24.0,0.0,0.0,0.0,0.0,0.0,0.0,0.0,0.0,0.0,0.0,0.0,0.0,0.0,0.0
54.0,842.0,67335.99831635201,0.0,-0.0,0.0,-10048.256911050308,0.0,3129.6069774397015,0.0,-47368.54829490823,0.0,0.0,0.4103038238678876,0.27615890140196264,0.5637755102040767,224436.2456548798,56109.06141371995,280545.30706859974,"[0.5921142858816033, 0.8044293041870674, 0.4902936824792583, 0.5500693822399505, 0.505992522277289, 0.16481159180889904, 1.4710227515174665, 0.8558349315852212]",22.59,0.0,0.0,0.0,347.7444214642724,116.63291099282976,-1357.6884461413822,-1399.6644248290952,0.0,0.0,0.0,0.0,0.0,0.0,0.0,-9.4,21.93069303838273,0.0,21.76194037893385,0.0,-9.4,22.59,21.18,22.35,22.2,22.72,-10.93,-9.4,2952.71,-947.57,-892.04,0.0,294.0,45.0,96.0,0.0,0.0,0.0,0.0,0.0,0.0,0.0,0.0,0.0,0.0,0.0,0.0,0.0,0.0
55.0,1837.0,0.0,3276.868974316677,-0.0,0.0,5113.868974316677,0.0,5294.358933447642,0.0,0.0,0.0,5294.358933447642,0.19287742189864115,0.27615890140196264,0.5637755102040767,0.0,0.0,0.0,"[0.5921142858816033, 0.8044293041870674, 0.4902936824792583, 0.5500693822399505, 0.505992522277289, 0.16481159180889904, 1.4710227515174665, 0.8558349315852212]",21.48,0.0,0.0,0.0,133.39516126214983,70.90165000032137,-1331.5475975941386,164.99724328563133,825.6544069565622,0.0,0.0,0.0,0.0,0.0,0.0,-9.9,21.57371478668173,0.0,21.714479376337053,0.0,-9.9,21.48,21.16,22.27,21.43,21.95,-11.47,-9.9,283.82,-929.32,-874.86,0.0,108.0,68.0,34.0,0.0,0.0,0.0,0.0,0.0,0.0,0.0,0.0,0.0,0.0,0.0,0.0,0.0,0.0
56.0,3189.0,18149.0055103498,0.0,-0.0,0.0,-12421.72918567707,0.0,2202.7781674088847,0.0,0.0,0.0,0.0,0.507220608415147,0.27615890140196264,0.5637755102040767,9790.125188483935,2447.5312971209837,12237.656485604919,"[0.5921142858816033, 0.8044293041870638, 0.4902936824792583, 0.5500693822399505, 0.505992522277289, 0.16481159180889904, 1.4106962142586141, 0.8558349315852212]",21.41,0.0,0.0,3.2189086185692246,339.36244838818675,81.36404061200268,-1320.1633577741907,182.88372195083306,717.8336883606293,0.0,0.0,0.0,0.0,0.0,0.0,-9.7,21.514009936941104,0.0,21.65311169900174,0.0,-9.7,21.41,21.13,22.18,21.44,21.95,-11.29,-9.7,1062.74,-921.38,-867.38,5.31,136.0,64.0,171.0,0.0,0.0,0.0,0.0,0.0,0.0,0.0,0.0,0.0,0.0,0.0,0.0,0.0,0.0
57.0,2848.0,0.0,0.0,-5347.324133522978,8195.324133522978,0.0,0.0,4276.809583369122,0.0,4276.809583369122,0.0,0.0,0.507220608415147,0.2579751871869579,0.5812434357069184,0.0,0.0,0.0,"[0.5921142858816033, 0.8044293041870638, 0.4902936824792583, 0.5500693822399505, 0.505992522277289, 0.16481159180889904, 1.4106962142586141, 0.8558349315852212]",21.41,0.0,0.0,865.0353236671399,470.9665897622841,100.25699525280689,-1218.3116251371482,108.61224449693407,0.0,0.0,0.0,0.0,0.0,0.0,0.0,-7.3,21.47603177693485,0.0,21.594829494248728,0.0,-7.3,21.41,21.09,22.1,21.41,21.89,-7.65,-7.3,127.2,-850.29,-800.46,1426.24,286.0,14.0,194.0,0.0,0.0,0.0,0.0,0.0,0.0,0.0,0.0,0.0,0.0,0.0,0.0,0.0,0.0
58.0,4029.0,0.0,10094.741690353054,-0.0,14123.741690353054,0.0,0.0,5473.004769149297,0.0,-15359.932978974448,0.0,20832.937748123746,0.507220608415147,0.32069491351777024,0.5812434357069184,0.0,0.0,0.0,"[0.5921142858816033, 0.8044293041870638, 0.4902936824792583, 0.5500693822399505, 0.505992522277289, 0.16481159180889904, 1.4106962142586141, 0.8558349315852212]",21.58,0.0,0.0,1194.0545155378572,1776.6917289480755,132.8268721135191,-1136.6162962936585,-114.7773770411646,0.0,0.0,0.0,0.0,0.0,0.0,0.0,-5.2,21.54124747721548,0.0,21.620922304769778,0.0,-5.2,21.58,21.08,22.16,21.58,22.33,-4.96,-5.2,0.0,-793.27,-746.79,1968.71,300.0,13.0,1146.0,0.0,0.0,0.0,0.0,0.0,0.0,0.0,0.0,0.0,0.0,0.0,0.0,0.0,0.0
59.0,5667.0,0.0,0.0,-0.0,17735.066732690277,-12068.066732690277,0.0,8400.224996975458,0.0,8400.224996975456,0.0,0.0,1.0,0.28497967118369094,0.5812434357069184,0.0,0.0,0.0,"[0.5921142858816033, 0.8044293041870638, 0.4902936824792583, 0.5500693822399505, 0.505992522277289, 0.16481159180889904, 1.4106962142586141, 0.8558349315852212]",22.5,0.0,0.0,1477.4894550548033,4055.8719976881584,133.61534213063132,-1099.3445058035898,-1316.698849578859,-3130.734766461162,0.0,0.0,0.0,0.0,0.0,0.0,-3.4,21.878960716348367,0.0,21.73035037047967,0.0,-3.4,22.5,21.12,22.34,22.06,22.91,-2.62,-3.4,1700.45,-767.26,-722.3,2436.03,109.0,22.0,2920.0,0.0,0.0,0.0,0.0,0.0,0.0,0.0,0.0,0.0,0.0,0.0,0.0,0.0,0.0
60.0,2651.0,0.0,0.0,-0.0,18297.878721444373,0.0,0.0,3949.82940186434,0.0,-10132.361447435589,0.0,0.0,1.0,0.32635348042738627,0.5812434357069184,62587.51488577749,15646.878721444373,78234.39360722186,"[0.5921142858816033, 0.8044293041870638, 0.4902936824792583, 0.5500693822399505, 0.505992522277289, 0.16481159180889904, 1.4106962142586141, 0.8558349315852212]",22.59,0.0,0.0,1522.811934122369,316.580675412159,54.61671156996527,-1060.6208926166753,-1238.754499178738,0.0,0.0,0.0,0.0,0.0,0.0,0.0,-2.4,22.003773120311738,0.0,21.888168593725062,0.0,-2.4,22.59,21.18,22.6,22.21,23.23,-1.51,-2.4,714.81,-740.24,-696.86,2510.76,124.0,22.0,165.0,0.0,0.0,0.0,0.0,0.0,0.0,0.0,0.0,0.0,0.0,0.0,0.0,0.0,0.0
61.0,5679.0,26841.83736246067,37199.35586194486,-0.0,16170.727686296492,0.0,0.0,7763.475042041608,0.0,-80000.0,0.0,87763.47504204161,1.0,0.653020147094053,0.5812434357069184,0.0,0.0,0.0,"[0.5921142858816033, 0.8044293041870638, 0.4902936824792583, 0.5500693822399505, 0.505992522277289, 0.16481159180889904, 1.4106962142586141, 0.8558349315852212]",22.43,0.0,0.0,1307.3817000650683,1363.7541835586917,64.41193524409007,-1040.9160297416295,-825.337087526637,-587.0068997697381,0.0,0.0,0.0,0.0,0.0,0.0,-2.1,22.039983161778952,0.0,22.021286195058252,0.0,-2.1,22.43,21.24,22.81,22.17,23.3,-1.49,-2.1,749.99,-726.48,-683.91,2155.56,109.0,5.0,944.0,0.0,0.0,0.0,0.0,0.0,0.0,0.0,0.0,0.0,0.0,0.0,0.0,0.0,0.0
62.0,3943.0,28038.697993832568,32995.520244128806,-0.0,9040.0157402654,0.0,0.0,3440.1672283496623,0.0,-72203.41257813983,0.0,75643.57980648949,1.0,0.9478507484547907,0.5786924152987551,0.0,0.0,0.0,"[0.5921142858816033, 0.8044293041870638, 0.4902936824792583, 0.5500693822399505, 0.505992522277289, 0.16481159180889904, 1.4106962142586141, 0.8558349315852212]",22.59,0.0,0.0,668.6532943575183,2118.489964384013,94.88933398246604,-1077.5961813895158,-931.955248711495,-897.7457754010594,0.0,0.0,0.0,0.0,0.0,0.0,-2.8,22.15354232807328,0.0,22.122432144802445,0.0,-2.8,22.59,21.29,22.96,22.24,23.34,-3.17,-2.8,0.0,-752.08,-708.01,1102.45,166.0,0.0,1469.0,0.0,0.0,0.0,0.0,0.0,0.0,0.0,0.0,0.0,0.0,0.0,0.0,0.0,0.0
63.0,2130.0,2140.7035175879396,0.0,-0.0,0.0,0.0,0.0,11494.403058137257,0.0,11494.403058137257,0.0,0.0,1.0,0.8989799871531867,0.5786924152987551,0.0,0.0,0.0,"[0.5921142858816033, 0.8044293041870638, 0.4902936824792583, 0.5500693822399505, 0.505992522277289, 0.16481159180889904, 1.4106962142586141, 0.8558349315852212]",22.59,0.0,0.0,10.817056722462524,1207.505608524992,91.12893851623853,-1145.4973364808773,-883.9500523356908,0.0,0.0,0.0,0.0,0.0,0.0,0.0,-4.4,22.178391191712088,0.0,22.15671609175324,0.0,-4.4,22.59,21.33,22.99,22.15,23.06,-6.1,-4.4,2235.41,-799.47,-752.62,17.83,216.0,4.0,773.0,0.0,0.0,0.0,0.0,0.0,0.0,0.0,0.0,0.0,0.0,0.0,0.0,0.0,0.0
64.0,1841.0,0.0,5995.693958495884,-0.0,0.0,7836.693958495883,0.0,12430.721465574954,0.0,0.0,0.0,12430.721465574952,0.6668072296557873,0.8989799871531867,0.5786924152987551,0.0,0.0,0.0,"[0.5921142858816033, 0.8044293041870638, 0.4902936824792583, 0.5500693822399505, 0.505992522277289, 0.16481159180889904, 1.4106962142586141, 0.8558349315852212]",22.24,0.0,0.0,0.0,939.2108292947283,114.328152481271,-1160.2791432067309,-432.2142796493961,0.0,0.0,0.0,0.0,0.0,0.0,0.0,-5.1,22.046150051197017,0.0,22.104546643354716,0.0,-5.1,22.24,21.34,22.87,21.87,22.56,-6.87,-5.1,0.0,-809.79,-762.33,0.0,276.0,26.0,542.0,0.0,0.0,0.0,0.0,0.0,0.0,0.0,0.0,0.0,0.0,0.0,0.0,0.0,0.0
65.0,2351.0,0.0,0.0,-0.0,0.0,9206.59,0.0,2403.9547419970168,34277.95,29826.314741997016,0.0,0.0,0.2753705799959234,0.7721674244746279,0.5786924152987551,27422.36,6855.59,34277.95,"[0.5921142858816033, 0.8044293041870638, 0.4902936824792583, 0.5500693822399505, 0.505992522277289, 0.16481159180889904, 1.4106962142586141, 0.8558349315852212]",21.98,0.0,0.0,0.0,543.395434035127,105.38205036403626,-1182.9957231004798,-129.9395668470609,0.0,0.0,0.0,0.0,0.0,0.0,0.0,-5.9,21.92838029391131,0.0,22.036696755064444,0.0,-5.9,21.98,21.33,22.74,21.76,22.4,-7.62,-5.9,0.0,-825.64,-777.26,0.0,234.0,48.0,271.0,0.0,0.0,0.0,0.0,0.0,0.0,0.0,0.0,0.0,0.0,0.0,0.0,0.0,0.0
66.0,6451.0,6483.417085427136,0.0,-0.0,0.0,0.0,0.0,3673.0020797282045,0.0,3673.002079728204,0.0,0.0,0.2753705799959234,0.7565509190336067,0.5786924152987551,0.0,0.0,0.0,"[0.5921142858816033, 0.8044293041870638, 0.4902936824792583, 0.5500693822399505, 0.505992522277289, 0.16481159180889904, 1.4106962142586141, 0.8558349315852212]",21.65,0.0,0.0,0.0,1961.5966221906142,120.66623838805765,-1203.1443208279961,236.9677181973805,831.1711180223798,0.0,0.0,0.0,0.0,0.0,0.0,-6.7,21.781432438614797,0.0,21.95253644666294,0.0,-6.7,21.65,21.31,22.6,21.6,22.21,-8.36,-6.7,0.0,-839.71,-790.5,0.0,164.0,55.0,1349.0,0.0,0.0,0.0,0.0,0.0,0.0,0.0,0.0,0.0,0.0,0.0,0.0,0.0,0.0
67.0,4837.0,4861.306532663317,0.0,-0.0,0.0,0.0,0.0,1961.0460280454588,0.0,1961.0460280454586,0.0,0.0,0.2753705799959234,0.7482131383021209,0.5383862928497756,0.0,0.0,0.0,"[0.5921142858816033, 0.8044293041870638, 0.4902936824792583, 0.5500693822399505, 0.505992522277289, 0.16481159180889904, 1.4106962142586141, 0.8558349315852212]",22.59,0.0,0.0,0.0,862.5551780860816,135.2529337046336,-1272.8120022771805,-1153.3296256148894,0.0,0.0,0.0,0.0,0.0,0.0,0.0,-7.4,22.049251329605582,0.0,21.93731480148761,0.0,-7.4,22.59,21.31,22.56,22.07,22.59,-9.08,-7.4,2131.44,-888.33,-836.27,0.0,266.0,73.0,486.0,0.0,0.0,0.0,0.0,0.0,0.0,0.0,0.0,0.0,0.0,0.0,0.0,0.0,0.0
68.0,5147.0,8036.404757716312,0.0,-0.0,0.0,-2849.2227339277306,0.0,1313.1621775053602,0.0,1313.1621775053602,0.0,0.0,0.560895528110805,0.7426299657787138,0.5383862928497756,0.0,0.0,0.0,"[0.10478014115190248, 0.501810557635519, 0.08198960113194786, 0.5500693822399505, 0.3735780180296544, 0.16481159180889904, 0.4561676560206429, 0.8558349315852212]",21.9,0.0,0.0,0.0,1383.5270431227916,166.42782515045496,-1277.1876194651688,-188.27419689973055,0.0,0.0,0.0,0.0,0.0,0.0,0.0,-8.2,21.8207236821746,0.0,21.897269736785933,0.0,-8.2,21.9,21.3,22.49,21.7,22.23,-9.85,-8.2,0.0,-891.38,-839.15,0.0,302.0,90.0,848.0,0.0,0.0,0.0,0.0,0.0,0.0,0.0,0.0,0.0,0.0,0.0,0.0,0.0,0.0
69.0,4573.0,0.0,5368.262821166134,-0.0,0.0,9941.262821166136,0.0,9185.146987937369,0.0,0.0,0.0,9185.146987937369,0.13822278911564626,0.7426299657787138,0.5332842520334491,0.0,0.0,0.0,"[0.10478014115190248, 0.501810557635519, 0.08198960113194786, 0.5500693822399505, 0.3735780180296544, 0.16481159180889904, 0.4561676560206429, 0.8558349315852212]",21.93,0.0,0.0,0.0,1092.8086948941104,160.30201963289085,-1308.4387057152032,-309.5647645533279,299.06111044569155,0.0,0.0,0.0,0.0,0.0,0.0,-8.9,21.798621992454986,0.0,21.84498887429401,0.0,-8.9,21.93,21.28,22.41,21.7,22.2,-10.51,-8.9,1706.27,-913.19,-859.68,0.0,324.0,79.0,624.0,0.0,0.0,0.0,0.0,0.0,0.0,0.0,0.0,0.0,0.0,0.0,0.0,0.0,0.0
70.0,3251.0,0.0,0.0,-0.0,0.0,3251.0,0.0,3253.062784420028,0.0,3253.062784420028,0.0,0.0,0.0,0.7287989165252272,0.511345476523245,0.0,0.0,0.0,"[0.10478014115190248, 0.501810557635519, 0.08198960113194786, 0.5500693822399505, 0.3735780180296544, 0.16481159180889904, 0.4561676560206429, 0.8558349315852212]",21.9,0.0,0.0,0.0,914.7813180216923,105.26074728448054,-1340.8449523633203,-310.10249843053055,636.9174276588335,0.0,0.0,0.0,0.0,0.0,0.0,-9.7,21.76238022078193,0.0,21.804776331321957,0.0,-9.7,21.9,21.27,22.34,21.7,22.19,-11.32,-9.7,1569.74,-935.81,-880.97,0.0,184.0,59.0,569.0,0.0,0.0,0.0,0.0,0.0,0.0,0.0,0.0,0.0,0.0,0.0,0.0,0.0,0.0
71.0,1905.0,13314.903587835177,0.0,-0.0,0.0,-11343.329069896,0.0,14685.060372980195,0.0,14685.060372980193,0.0,0.0,0.4631859370207534,0.6663624353475903,0.46848833366610215,0.0,0.0,0.0,"[0.10478014115190248, 0.501810557635519, 0.08198960113194786, 0.5500693822399505, 0.3735780180296544, 0.16481159180889904, 0.4561676560206429, 0.8558349315852212]",21.9,0.0,0.0,0.0,704.0140975956747,94.40412166424314,-1370.551707715791,-355.3317026794392,1364.6884720019684,0.0,0.0,0.0,0.0,0.0,0.0,-10.4,21.74079664969829,0.0,21.771520757068977,0.0,-10.4,21.9,21.25,22.3,21.7,22.18,-12.01,-10.4,0.0,-956.54,-900.49,0.0,206.0,36.0,405.0,0.0,0.0,0.0,0.0,0.0,0.0,0.0,0.0,0.0,0.0,0.0,0.0,0.0,0.0
72.0,1489.0,0.0,0.0,-0.0,0.0,10894.13323872812,0.0,8464.619914855306,0.0,0.0,0.0,0.0,0.0,0.6663624353475903,0.46848833366610215,37620.53295491248,9405.13323872812,47025.6661936406,"[0.10478014115190248, 0.501810557635519, 0.08198960113194786, 0.5500693822399505, 0.3735780180296544, 0.16481159180889904, 0.4561676560206429, 0.8558349315852212]",22.1,0.0,0.0,0.0,335.8520494076039,56.163325834300764,-1400.6641844504043,-665.4293626941561,1245.4546574951632,0.0,0.0,0.0,0.0,0.0,0.0,-10.9,21.80028614181449,0.0,21.76951329340454,0.0,-10.9,22.1,21.24,22.3,21.86,22.33,-12.58,-10.9,371.87,-977.56,-920.27,0.0,160.0,5.0,162.0,0.0,0.0,0.0,0.0,0.0,0.0,0.0,0.0,0.0,0.0,0.0,0.0,0.0,0.0
73.0,1047.0,15172.957175657059,0.0,-0.0,0.0,-14050.092389778772,0.0,9804.191597524601,0.0,9804.191597524601,0.0,0.0,0.5737121059159666,0.6246779472628768,0.46848833366610215,0.0,0.0,0.0,"[0.10478014115190248, 0.501810557635519, 0.08198960113194786, 0.5500693822399505, 0.3735780180296544, 0.16481159180889904, 0.4561676560206429, 0.8558349315852212]",21.9,0.0,0.0,0.0,207.1851806499126,50.5833841747374,-1417.2337518411023,-379.10492080603893,1541.4592136540948,0.0,0.0,0.0,0.0,0.0,0.0,-11.5,21.72989774677509,0.0,21.756613616963495,0.0,-11.5,21.9,21.23,22.28,21.74,22.22,-13.21,-11.5,756.93,-989.12,-931.16,0.0,160.0,0.0,68.0,0.0,0.0,0.0,0.0,0.0,0.0,0.0,0.0,0.0,0.0,0.0,0.0,0.0,0.0
74.0,959.0,0.0,0.0,-0.0,0.0,13493.708731143535,0.0,11281.237858029177,0.0,0.0,0.0,0.0,0.0,0.6246779472628768,0.46848833366610215,50138.83492457414,12534.708731143535,62673.54365571767,"[0.10478014115190248, 0.501810557635519, 0.08198960113194786, 0.5500693822399505, 0.3735780180296544, 0.16481159180889904, 0.4561676560206429, 0.8558349315852212]",21.9,0.0,0.0,0.0,314.7180147285844,52.97911999596298,-1446.9405071935728,-396.9648339434558,1479.2341463931805,0.0,0.0,0.0,0.0,0.0,0.0,-12.2,21.721630442103876,0.0,21.745193360767196,0.0,-12.2,21.9,21.22,22.27,21.76,22.25,-13.96,-12.2,3398.91,-1009.86,-950.68,0.0,160.0,0.0,147.0,0.0,0.0,0.0,0.0,0.0,0.0,0.0,0.0,0.0,0.0,0.0,0.0,0.0,0.0
75.0,1169.0,8163.681445405051,6953.863038178026,-0.0,0.0,0.0,0.0,9445.271036249123,0.0,0.0,0.0,9445.271036249125,0.0,0.6246779472628768,0.46848833366610215,0.0,0.0,0.0,"[0.10478014115190248, 0.501810557635519, 0.08198960113194786, 0.5500693822399505, 0.3735780180296544, 0.16481159180889904, 0.4561676560206429, 0.8558349315852212]",21.9,0.0,0.0,0.0,212.62988110959222,50.70468725429313,-1463.9157959664133,-416.4655866331378,1619.942848378612,0.0,0.0,0.0,0.0,0.0,0.0,-12.6,21.712374306013707,0.0,21.73239468945556,0.0,-12.6,21.9,21.2,22.26,21.74,22.23,-14.35,-12.6,217.71,-1021.71,-961.83,0.0,160.0,0.0,72.0,0.0,0.0,0.0,0.0,0.0,0.0,0.0,0.0,0.0,0.0,0.0,0.0,0.0,0.0
76.0,1282.0,16312.126838084283,0.0,-0.0,0.0,0.0,0.0,13453.70958350447,0.0,0.0,0.0,0.0,0.0,0.6246779472628768,0.46848833366610215,59794.26481557544,14948.56620389386,74742.8310194693,"[0.10478014115190248, 0.501810557635519, 0.08198960113194786, 0.5500693822399505, 0.3735780180296544, 0.16481159180889904, 0.4561676560206429, 0.8558349315852212]",21.9,0.0,0.0,0.0,195.22116779772196,51.40217996173855,-1480.8910847392535,-430.8179902736348,2099.8529217476685,0.0,0.0,0.0,0.0,0.0,0.0,-13.0,21.70561663782732,0.0,21.723618373041514,0.0,-13.0,21.9,21.19,22.26,21.75,22.25,-14.74,-13.0,3384.39,-1033.55,-972.98,0.0,160.0,2.0,59.0,0.0,0.0,0.0,0.0,0.0,0.0,0.0,0.0,0.0,0.0,0.0,0.0,0.0,0.0
77.0,1175.0,12463.363087719881,9359.115826633633,-0.0,0.0,-1866.9304456476466,0.0,11998.48357950452,0.0,0.0,0.0,11998.483579504524,0.0762329931972789,0.6246779472628768,0.46848833366610215,0.0,0.0,0.0,"[0.10478014115190248, 0.501810557635519, 0.08198960113194786, 0.5500693822399505, 0.3735780180296544, 0.16481159180889904, 0.4561676560206429, 0.8558349315852212]",22.1,0.0,0.0,0.0,217.57309600061708,74.69237123643778,-1506.7597392806567,-720.5479909376332,1939.308370692991,0.0,0.0,0.0,0.0,0.0,0.0,-13.4,21.774911639255397,0.0,21.737754818872713,0.0,-13.4,22.1,21.19,22.29,21.89,22.39,-15.16,-13.4,0.0,-1051.61,-989.98,0.0,160.0,44.0,71.0,0.0,0.0,0.0,0.0,0.0,0.0,0.0,0.0,0.0,0.0,0.0,0.0,0.0,0.0
78.0,1793.0,0.0,0.0,-0.0,0.0,1793.0,0.0,8714.808418295275,0.0,8714.808418295275,0.0,0.0,0.0,0.5876251903823697,0.46848833366610215,0.0,0.0,0.0,"[0.10478014115190248, 0.501810557635519, 0.08198960113194786, 0.5500693822399505, 0.3735780180296544, 0.16481159180889904, 0.4561676560206429, 0.8558349315852212]",22.1,0.0,0.0,0.0,313.07027643157613,137.98225299463738,-1523.735028053497,-702.4776782656321,1351.2098084888105,0.0,0.0,0.0,0.0,0.0,0.0,-13.8,21.783888347753138,0.0,21.75332001978779,0.0,-13.8,22.1,21.19,22.32,21.88,22.4,-15.55,-13.8,598.19,-1063.45,-1001.13,0.0,320.0,72.0,54.0,0.0,0.0,0.0,0.0,0.0,0.0,0.0,0.0,0.0,0.0,0.0,0.0,0.0,0.0
79.0,1036.0,2346.14806644635,0.0,-0.0,0.0,-1298.417326114119,0.0,10557.282042727944,0.0,10557.282042727944,0.0,0.0,0.05301870748299319,0.5427387871394788,0.46848833366610215,0.0,0.0,0.0,"[0.10478014115190248, 0.501810557635519, 0.08198960113194786, 0.5500693822399505, 0.3735780180296544, 0.16481159180889904, 0.4561676560206429, 0.8558349315852212]",21.9,0.0,0.0,0.0,267.0768857063881,119.84744260105649,-1527.573128864565,-408.98404134261494,1556.4780135103401,0.0,0.0,0.0,0.0,0.0,0.0,-14.1,21.71682122102764,0.0,21.745839096411494,0.0,-14.1,21.9,21.18,22.32,21.75,22.28,-15.89,-14.1,1190.84,-1066.13,-1003.66,0.0,234.0,86.0,64.0,0.0,0.0,0.0,0.0,0.0,0.0,0.0,0.0,0.0,0.0,0.0,0.0,0.0,0.0
80.0,1247.0,27936.49755776792,0.0,-0.0,0.0,-16000.0,0.0,9494.833562981172,0.0,0.0,0.0,0.0,0.6533333333333333,0.5023695968206813,0.46848833366610215,42199.260279916336,10549.815069979084,52749.075349895415,"[0.10478014115190248, 0.501810557635519, 0.08198960113194786, 0.5500693822399505, 0.3735780180296544, 0.16481159180889904, 0.4561676560206429, 0.8558349315852212]",21.9,0.0,0.0,2.382203514668038,164.70218890530745,61.89489634330877,-1531.8169510577748,-423.9676631238104,1730.2311777309164,0.0,0.0,0.0,0.0,0.0,0.0,-14.2,21.70958639741341,0.0,21.736073763203784,0.0,-14.2,21.9,21.16,22.31,21.76,22.29,-15.95,-14.2,1257.59,-1069.1,-1006.44,3.93,95.0,57.0,65.0,0.0,0.0,0.0,0.0,0.0,0.0,0.0,0.0,0.0,0.0,0.0,0.0,0.0,0.0
81.0,1962.0,0.0,0.0,-6021.994283130099,7983.994283130099,0.0,0.0,11976.220703129826,0.0,11976.220703129826,0.0,0.0,0.6533333333333333,0.45145029111009527,0.48816018165766045,0.0,0.0,0.0,"[0.10478014115190248, 0.501810557635519, 0.08198960113194786, 0.5500693822399505, 0.3735780180296544, 0.16481159180889904, 0.4561676560206429, 0.8558349315852212]",21.9,0.0,0.0,813.316244806963,72.1422810907545,1.6072658041133565,-1434.2090406139428,-434.19586403968543,944.1080925426371,0.0,0.0,0.0,0.0,0.0,0.0,-11.9,21.70271890305901,0.0,21.72690570273411,0.0,-11.9,21.9,21.15,22.3,21.75,22.29,-12.37,-11.9,365.13,-1000.97,-942.31,1340.97,0.0,0.0,53.0,0.0,0.0,0.0,0.0,0.0,0.0,0.0,0.0,0.0,0.0,0.0,0.0,0.0,0.0
82.0,1603.0,0.0,4657.386800134089,-8021.305042363212,14281.691842497301,0.0,0.0,7480.4283131479615,0.0,0.0,0.0,7480.4283131479615,0.6533333333333333,0.45145029111009527,0.5143631114627136,0.0,0.0,0.0,"[0.10478014115190248, 0.501810557635519, 0.08198960113194786, 0.5500693822399505, 0.3735780180296544, 0.16481159180889904, 0.4561676560206429, 0.8558349315852212]",21.9,0.0,0.0,1169.3937802721057,111.61635942343149,2.4867131308923653,-1353.5764189429506,-373.74487838484026,822.1346934876732,0.0,0.0,0.0,0.0,0.0,0.0,-10.0,21.73062926991749,0.0,21.77473599881579,0.0,-10.0,21.9,21.15,22.4,21.81,22.62,-9.69,-10.0,0.0,-944.7,-889.34,1928.05,0.0,0.0,82.0,0.0,0.0,0.0,0.0,0.0,0.0,0.0,0.0,0.0,0.0,0.0,0.0,0.0,0.0
83.0,4674.0,0.0,0.0,-0.0,17245.624574292226,-6242.222028739749,0.0,5696.462290997227,0.0,0.0,0.0,0.0,0.9082240661735397,0.45145029111009527,0.5143631114627136,25317.610182209908,6329.402545552477,31647.012727762383,"[0.10478014115190248, 0.501810557635519, 0.08198960113194786, 0.5500693822399505, 0.3735780180296544, 0.16481159180889904, 0.4561676560206429, 0.8558349315852212]",22.1,0.0,0.0,1393.2640179103787,283.8408318585594,44.82148789584047,-1298.8124518133618,-569.8518560772652,85.36154420640806,0.0,0.0,0.0,0.0,0.0,0.0,-8.5,21.844075019226068,0.0,21.860268464366914,0.0,-8.5,22.1,21.17,22.55,21.98,22.94,-7.7,-8.5,0.0,-906.48,-853.35,2297.16,134.0,0.0,138.0,0.0,0.0,0.0,0.0,0.0,0.0,0.0,0.0,0.0,0.0,0.0,0.0,0.0,0.0
84.0,6610.0,0.0,12744.061082336073,-0.0,19354.061082336073,0.0,0.0,4891.977064552246,0.0,-18614.131120079033,0.0,23506.10818463128,0.9082240661735397,0.5274579931837513,0.5061998461565912,0.0,0.0,0.0,"[0.10478014115190248, 0.501810557635519, 0.08198960113194786, 0.5500693822399505, 0.3735780180296544, 0.16481159180889904, 0.4561676560206429, 0.8558349315852212]",22.1,0.0,0.0,1551.122899061405,413.51067175356,50.58338417473741,-1256.3742298812606,-455.5850915288339,-371.5490580254628,0.0,0.0,0.0,0.0,0.0,0.0,-7.5,21.89882664073679,0.0,21.94916770345167,0.0,-7.5,22.1,21.2,22.7,21.99,23.07,-6.38,-7.5,0.0,-876.86,-825.47,2557.43,144.0,0.0,228.0,0.0,0.0,0.0,0.0,0.0,0.0,0.0,0.0,0.0,0.0,0.0,0.0,0.0,0.0
85.0,1907.0,0.0,15219.105186931236,-0.0,17126.105186931236,0.0,0.0,6613.101775841853,0.0,-21893.42977306754,0.0,28506.531548909392,0.9082240661735397,0.6168561647571105,0.5061998461565913,0.0,0.0,0.0,"[0.10478014115190248, 0.501810557635519, 0.08198960113194786, 0.5500693822399505, 0.3735780180296544, 0.16481159180889904, 0.4561676560206429, 0.8558349315852212]",22.1,0.0,0.0,1381.8377588498206,217.57309600061708,52.25130151862863,-1243.6427633016306,-336.5886063640507,-131.85850630452586,0.0,0.0,0.0,0.0,0.0,0.0,-7.2,21.956553513417415,0.0,22.04205292791018,0.0,-7.2,22.1,21.23,22.85,22.04,23.23,-6.34,-7.2,0.0,-867.97,-817.11,2278.32,165.0,0.0,73.0,0.0,0.0,0.0,0.0,0.0,0.0,0.0,0.0,0.0,0.0,0.0,0.0,0.0,0.0
86.0,2384.0,0.0,0.0,-9585.65466879072,14217.22855841832,-2247.5738896276,0.0,1377.9497921144707,0.0,1377.9497921144707,0.0,0.0,1.0,0.6109975346885965,0.5375129847413076,0.0,0.0,0.0,"[0.10478014115190248, 0.501810557635519, 0.08198960113194786, 0.5500693822399505, 0.3735780180296544, 0.16481159180889904, 0.4561676560206429, 0.8558349315852212]",22.1,0.0,0.0,1163.5239865377594,488.3036622786322,40.75783473072366,-1264.8618742676808,-252.19771517016903,-226.5917225100708,0.0,0.0,0.0,0.0,0.0,0.0,-7.7,21.998037177624422,0.0,22.10769253064013,0.0,-7.7,22.1,21.26,22.96,22.03,23.21,-7.34,-7.7,0.0,-882.78,-831.05,1918.38,104.0,0.0,304.0,0.0,0.0,0.0,0.0,0.0,0.0,0.0,0.0,0.0,0.0,0.0,0.0,0.0,0.0
87.0,2212.0,2222.3376034105027,0.0,-0.0,0.774084606550006,0.0,0.0,13083.25285364002,0.0,13083.25285364002,0.0,0.0,1.0,0.5553714596306032,0.5375129847413076,0.0,0.0,0.0,"[0.10478014115190248, 0.501810557635519, 0.08198960113194786, 0.5500693822399505, 0.3735780180296544, 0.16481159180889904, 0.4561676560206429, 0.8558349315852212]",22.1,0.0,0.0,16.657143163553737,511.9451248009252,45.30670021406336,-1337.0068515522528,-209.05662794942162,973.9778446760283,0.0,0.0,0.0,0.0,0.0,0.0,-9.4,22.020873156624052,0.0,22.14278950184731,0.0,-9.4,22.1,21.28,23.01,22.0,23.13,-10.91,-9.4,0.0,-933.13,-878.45,27.46,118.0,0.0,314.0,0.0,0.0,0.0,0.0,0.0,0.0,0.0,0.0,0.0,0.0,0.0,0.0,0.0,0.0
88.0,5759.0,3308.3479767523413,3964.090633103073,-0.0,0.0,6431.284396234493,0.0,6669.222800947416,0.0,0.0,0.0,6669.222800947416,0.7265610375750641,0.5553714596306032,0.5273089031086545,0.0,0.0,0.0,"[0.10478014115190248, 0.501810557635519, 0.08198960113194786, 0.5500693822399505, 0.3735780180296544, 0.16481159180889904, 0.4561676560206429, 0.8558349315852212]",22.1,0.0,0.0,0.0,382.4902072924908,8.521541338789694,-1328.5192071658323,-277.4704474015893,1215.4646198082448,0.0,0.0,0.0,0.0,0.0,0.0,-9.2,21.98763359083372,0.0,22.085669240152452,0.0,-9.2,22.1,21.27,22.9,21.87,22.62,-10.84,-9.2,0.0,-927.21,-872.87,0.0,0.0,0.0,281.0,0.0,0.0,0.0,0.0,0.0,0.0,0.0,0.0,0.0,0.0,0.0,0.0,0.0,0.0
89.0,3727.0,5862.724296149297,2106.4106746685507,-0.0,0.0,0.0,0.0,3584.0069497674913,0.0,0.0,0.0,3584.006949767491,0.7265610375750641,0.5553714596306032,0.5273089031086545,0.0,0.0,0.0,"[0.10478014115190248, 0.501810557635519, 0.08198960113194786, 0.5500693822399505, 0.3735780180296544, 0.16481159180889904, 0.4561676560206429, 0.8558349315852212]",22.1,0.0,0.0,0.0,111.32979624134308,11.705747177127483,-1320.0315627794123,-334.1236126742277,1099.9568915190964,0.0,0.0,0.0,0.0,0.0,0.0,-9.0,21.95998231138514,0.0,22.038186488908124,0.0,-9.0,22.1,21.27,22.8,21.87,22.58,-10.54,-9.0,0.0,-921.28,-867.3,0.0,0.0,17.0,80.0,0.0,0.0,0.0,0.0,0.0,0.0,0.0,0.0,0.0,0.0,0.0,0.0,0.0,0.0
90.0,5261.0,0.0,0.0,-0.0,0.0,5261.0,0.0,9248.129484868317,0.0,9248.12948486832,0.0,0.0,0.5028790647859485,0.516051181208544,0.5211864541290627,0.0,0.0,0.0,"[0.10478014115190248, 0.501810557635519, 0.08198960113194786, 0.5500693822399505, 0.3735780180296544, 0.16481159180889904, 0.4561676560206429, 0.8558349315852212]",21.9,0.0,0.0,0.0,566.463770193243,170.2185463865714,-1302.6505526244296,-94.54528053389889,1102.0669920368944,0.0,0.0,0.0,0.0,0.0,0.0,-8.8,21.86644737770407,0.0,21.984514527015904,0.0,-8.8,21.9,21.27,22.7,21.76,22.44,-10.3,-8.8,0.0,-909.15,-855.88,0.0,286.0,139.0,251.0,0.0,0.0,0.0,0.0,0.0,0.0,0.0,0.0,0.0,0.0,0.0,0.0,0.0,0.0
91.0,4494.0,0.0,0.0,-0.0,0.0,4494.0,0.0,3824.8765751928045,0.0,3824.876575192805,0.0,0.0,0.3118076362145199,0.4997889508718399,0.5211864541290627,0.0,0.0,0.0,"[0.10478014115190248, 0.501810557635519, 0.08198960113194786, 0.5500693822399505, 0.3735780180296544, 0.16481159180889904, 0.4561676560206429, 0.8558349315852212]",22.1,0.0,0.0,0.0,712.3244298762384,205.51774253728746,-1307.3000961997818,-434.97971158245537,761.1885181274145,0.0,0.0,0.0,0.0,0.0,0.0,-8.7,21.9108333558568,0.0,21.955057551749896,0.0,-8.7,22.1,21.27,22.64,21.9,22.53,-10.16,-8.7,870.92,-912.4,-858.93,0.0,288.0,197.0,351.0,0.0,0.0,0.0,0.0,0.0,0.0,0.0,0.0,0.0,0.0,0.0,0.0,0.0,0.0
92.0,5529.0,12650.771140165634,0.0,-0.0,0.0,-7058.517284464806,0.0,3156.7046029307876,0.0,3156.7046029307876,0.0,0.0,0.28822278911564625,0.48636758776414096,0.4946558418841647,0.0,0.0,0.0,"[0.10478014115189893, 0.2522591774783649, 0.08198960113195142, 0.09475851577484917, 0.3735780180296544, 0.16481159180889904, 0.4561676560206429, 0.7226865259858783]",22.07,0.0,0.0,0.0,852.8836706905981,149.05115900409734,-1297.268120915799,-413.57454975591685,360.57708972386257,0.0,0.0,0.0,0.0,0.0,0.0,-8.5,21.884685371129766,0.0,21.928303204562283,0.0,-8.5,22.07,21.27,22.59,21.86,22.46,-9.92,-8.5,0.0,-905.4,-852.34,0.0,260.0,102.0,479.0,0.0,0.0,0.0,0.0,0.0,0.0,0.0,0.0,0.0,0.0,0.0,0.0,0.0,0.0
93.0,3843.0,0.0,0.0,-0.0,0.0,3843.0,0.0,6037.03840291622,0.0,6037.038402916219,0.0,0.0,0.1248299319727891,0.46069990747963324,0.4742476786188586,0.0,0.0,0.0,"[0.10478014115189893, 0.2522591774783649, 0.08198960113195142, 0.09475851577484917, 0.3735780180296544, 0.16481159180889904, 0.4561676560206429, 0.7226865259858783]",21.9,0.0,0.0,0.0,861.8387701308606,139.19528379019465,-1281.4314416583793,-220.54871007349934,940.7276576422558,0.0,0.0,0.0,0.0,0.0,0.0,-8.3,21.804969371964415,0.0,21.88085664457393,0.0,-8.3,21.9,21.25,22.51,21.71,22.28,-9.68,-8.3,398.79,-894.34,-841.93,0.0,310.0,57.0,464.0,0.0,0.0,0.0,0.0,0.0,0.0,0.0,0.0,0.0,0.0,0.0,0.0,0.0,0.0
94.0,2451.0,2463.316582914573,0.0,-0.0,0.0,0.0,0.0,10774.191937402431,0.0,10774.191937402431,0.0,0.0,0.1248299319727891,0.41489126828999706,0.4742476786188583,0.0,0.0,0.0,"[0.10478014115189893, 0.2522591774783649, 0.08198960113195142, 0.09475851577484917, 0.3735780180296544, 0.16481159180889904, 0.4561676560206429, 0.7226865259858783]",22.1,0.0,0.0,0.0,686.963588261415,70.08285421332023,-1281.837163040521,-552.5537840100052,649.5160138953528,0.0,0.0,0.0,0.0,0.0,0.0,-8.1,21.85339897074901,0.0,21.85900483684184,0.0,-8.1,22.1,21.25,22.47,21.85,22.39,-9.45,-8.1,298.12,-894.63,-842.2,0.0,168.0,12.0,415.0,0.0,0.0,0.0,0.0,0.0,0.0,0.0,0.0,0.0,0.0,0.0,0.0,0.0,0.0
95.0,2032.0,0.0,0.0,-0.0,0.0,2032.0,0.0,4778.71300532035,0.0,4778.71300532035,0.0,0.0,0.03843537414965986,0.39457361095445137,0.4742476786188583,0.0,0.0,0.0,"[0.10478014115189893, 0.2522591774783649, 0.08198960113195142, 0.09475851577484917, 0.3735780180296544, 0.16481159180889904, 0.4561676560206429, 0.7226865259858783]",21.9,0.0,0.0,0.0,552.4938150664337,111.23492395260001,-1264.4561528855386,-292.4615513673781,899.5422267388672,0.0,0.0,0.0,0.0,0.0,0.0,-7.9,21.76982010490513,0.0,21.823018673936893,0.0,-7.9,21.9,21.24,22.4,21.7,22.23,-9.21,-7.9,1765.61,-882.5,-830.78,0.0,282.0,33.0,254.0,0.0,0.0,0.0,0.0,0.0,0.0,0.0,0.0,0.0,0.0,0.0,0.0,0.0,0.0
96.0,1245.0,5626.653579677533,4353.520311779145,-0.0,0.0,0.0,0.0,8112.968358010803,0.0,0.0,0.0,8112.968358010803,0.03843537414965986,0.39457361095445137,0.4742476786188583,0.0,0.0,0.0,"[0.10478014115189893, 0.2522591774783649, 0.08198960113195142, 0.09475851577484917, 0.3735780180296544, 0.16481159180889904, 0.4561676560206429, 0.7226865259858783]",21.9,0.0,0.0,0.0,343.875818506079,33.35834687782444,-1238.993219726278,-327.28766009297004,1190.9520000557125,0.0,0.0,0.0,0.0,0.0,0.0,-7.3,21.75261883558631,0.0,21.79530049265027,0.0,-7.3,21.9,21.23,22.36,21.73,22.25,-8.64,-7.3,680.81,-864.73,-814.05,0.0,80.0,5.0,210.0,0.0,0.0,0.0,0.0,0.0,0.0,0.0,0.0,0.0,0.0,0.0,0.0,0.0,0.0
97.0,933.0,937.6884422110553,0.0,-0.0,0.0,0.0,0.0,8902.574422021256,0.0,8902.574422021256,0.0,0.0,0.03843537414965986,0.3567225292281705,0.4742476786188583,0.0,0.0,0.0,"[0.10478014115189893, 0.2522591774783649, 0.08198960113195142, 0.09475851577484917, 0.3735780180296544, 0.16481159180889904, 0.4561676560206429, 0.7226865259858783]",21.9,0.0,0.0,0.0,211.1254244036281,27.687427908594277,-1209.2864643738073,-355.43810703158243,1759.3244287190962,0.0,0.0,0.0,0.0,0.0,0.0,-6.6,21.7385796993944,0.0,21.772739555687814,0.0,-6.6,21.9,21.22,22.32,21.72,22.23,-7.93,-6.6,1880.73,-843.99,-794.53,0.0,80.0,0.0,113.0,0.0,0.0,0.0,0.0,0.0,0.0,0.0,0.0,0.0,0.0,0.0,0.0,0.0,0.0
98.0,904.0,0.0,0.0,-0.0,0.0,904.0,0.0,9745.582366594148,0.0,9745.582366594148,0.0,0.0,0.0,0.31528723005047427,0.4742476786188583,0.0,0.0,0.0,"[0.10478014115189893, 0.2522591774783649, 0.08198960113195142, 0.09475851577484917, 0.3735780180296544, 0.16481159180889904, 0.4561676560206429, 0.7226865259858783]",22.1,0.0,0.0,0.0,92.70318940559713,25.049085928257252,-1188.4730747898989,-652.1294327274543,1292.4496059155797,0.0,0.0,0.0,0.0,0.0,0.0,-5.9,21.803879641414518,0.0,21.778248696417556,0.0,-5.9,22.1,21.23,22.33,21.87,22.37,-7.19,-5.9,1098.24,-829.47,-780.86,0.0,80.0,0.0,26.0,0.0,0.0,0.0,0.0,0.0,0.0,0.0,0.0,0.0,0.0,0.0,0.0,0.0,0.0
99.0,889.0,63114.92727672994,45910.35264034629,-0.0,0.0,-16000.0,0.0,13434.069353880495,0.0,-80000.0,0.0,93434.0693538805,0.6533333333333333,0.641953896717141,0.4742476786188583,0.0,0.0,0.0,"[0.10478014115189893, 0.2522591774783649, 0.08198960113195142, 0.09475851577484917, 0.3735780180296544, 0.16481159180889904, 0.4561676560206429, 0.7226865259858783]",21.9,0.0,0.0,0.0,174.37369630079093,26.86863212159313,-1162.6044202484964,-359.0033939235019,1321.9001067129277,0.0,0.0,0.0,0.0,0.0,0.0,-5.5,21.736237229411625,0.0,21.767645954717363,0.0,-5.5,21.9,21.23,22.31,21.73,22.23,-6.78,-5.5,1979.7,-811.41,-763.86,0.0,80.0,0.0,86.0,0.0,0.0,0.0,0.0,0.0,0.0,0.0,0.0,0.0,0.0,0.0,0.0,0.0,0.0
100.0,919.0,923.6180904522613,0.0,-0.0,0.0,0.0,0.0,12534.457478519394,0.0,12534.457478519396,0.0,0.0,0.6533333333333333,0.5886611353288782,0.4426150255576338,0.0,0.0,0.0,"[0.10478014115189893, 0.2522591774783649, 0.08198960113195142, 0.09475851577484917, 0.3735780180296544, 0.16481159180889904, 0.4561676560206429, 0.7226865259858783]",21.9,0.0,0.0,0.0,309.4165958599491,53.40368077440801,-1141.3853092824459,-376.0287276585299,1232.6313581176942,0.0,0.0,0.0,0.0,0.0,0.0,-5.0,21.727693406843407,0.0,21.753555166755014,0.0,-5.0,21.9,21.23,22.28,21.73,22.22,-6.25,-5.0,1121.27,-796.6,-749.92,0.0,160.0,1.0,143.0,0.0,0.0,0.0,0.0,0.0,0.0,0.0,0.0,0.0,0.0,0.0,0.0,0.0,0.0
101.0,687.0,3455.0960644929214,2750.820584170456,-0.0,0.0,0.0,0.0,5834.329205807274,0.0,0.0,0.0,5834.329205807275,0.6533333333333333,0.5886611353288782,0.4426150255576338,0.0,0.0,0.0,"[0.10478014115189893, 0.2522591774783649, 0.08198960113195142, 0.09475851577484917, 0.3735780180296544, 0.16481159180889904, 0.4561676560206429, 0.7226865259858783]",21.93,0.0,0.0,0.0,96.14194759065794,38.149818520275566,-1125.9543514071704,-440.7966884688105,1359.6508189429462,0.0,0.0,0.0,0.0,0.0,0.0,-4.6,21.732353047355105,0.0,21.743398623762666,0.0,-4.6,21.93,21.23,22.26,21.75,22.22,-5.65,-4.6,1944.96,-785.83,-739.78,0.0,80.0,24.0,26.0,0.0,0.0,0.0,0.0,0.0,0.0,0.0,0.0,0.0,0.0,0.0,0.0,0.0,0.0
102.0,1033.0,13003.504729402359,3415.6912873880005,-0.0,0.0,-8489.795918367347,0.0,7342.169492414912,0.0,0.0,0.0,7342.169492414912,1.0,0.5886611353288782,0.4426150255576338,0.0,0.0,0.0,"[0.10478014115189893, 0.2522591774783649, 0.08198960113195142, 0.09475851577484917, 0.3735780180296544, 0.16481159180889904, 0.4561676560206429, 0.7226865259858783]",21.9,0.0,0.0,0.0,214.3492602021226,52.40293036807328,-1111.6785539299751,-395.43511954296446,1243.354513404552,0.0,0.0,0.0,0.0,0.0,0.0,-4.3,21.717813954391122,0.0,21.736591908343634,0.0,-4.3,21.9,21.23,22.25,21.74,22.21,-5.38,-4.3,624.79,-775.87,-730.4,0.0,111.0,29.0,96.0,0.0,0.0,0.0,0.0,0.0,0.0,0.0,0.0,0.0,0.0,0.0,0.0,0.0,0.0
103.0,914.0,0.0,0.0,-0.0,0.0,914.0,0.0,12549.208378743375,0.0,12549.208378743373,0.0,0.0,0.961139455782313,0.5353056575280986,0.4426150255576338,0.0,0.0,0.0,"[0.10478014115189893, 0.2522591774783649, 0.08198960113195142, 0.09475851577484917, 0.3735780180296544, 0.16481159180889904, 0.4561676560206429, 0.7226865259858783]",21.9,0.0,0.0,0.0,161.7649162889013,61.31870671541909,-1098.9470873503446,-405.35232826555597,1716.5493765584063,0.0,0.0,0.0,0.0,0.0,0.0,-4.0,21.712830355392555,0.0,21.728070881831968,0.0,-4.0,21.9,21.23,22.23,21.73,22.19,-5.06,-4.0,1139.22,-766.98,-722.04,0.0,131.0,37.0,46.0,0.0,0.0,0.0,0.0,0.0,0.0,0.0,0.0,0.0,0.0,0.0,0.0,0.0,0.0
104.0,2800.0,0.0,0.0,-0.0,0.0,2800.0,0.0,8717.663243736213,0.0,8717.663243736213,0.0,0.0,0.6786897025387577,0.49824076278432217,0.4426150255576338,0.0,0.0,0.0,"[0.10478014115189893, 0.2522591774783649, 0.08198960113195142, 0.09475851577485628, 0.3735780180296544, 0.16481159180889904, 0.4561676560206429, 0.5336854108281557]",22.1,0.0,0.0,0.7791246897315448,177.02440573510862,68.2026564802065,-1095.1089865392767,-688.0300466229694,1109.1612129698015,0.0,0.0,0.0,0.0,0.0,0.0,-3.7,21.785134974215307,0.0,21.74440089541328,0.0,-3.7,22.1,21.24,22.25,21.87,22.33,-4.7,-3.7,1179.86,-764.31,-719.52,1.28,133.0,48.0,55.0,0.0,0.0,0.0,0.0,0.0,0.0,0.0,0.0,0.0,0.0,0.0,0.0,0.0,0.0
105.0,3772.0,0.0,0.0,-0.0,5.440196288417861,10609.181803711583,0.0,9196.585078973578,34213.11,36567.073078973575,0.0,0.0,0.2276190476190476,0.34276851329889024,0.4426150255576338,27370.488,6842.622,34213.11,"[0.10478014115189893, 0.2522591774783649, 0.08198960113195142, 0.09475851577485628, 0.3735780180296544, 0.16481159180889904, 0.4561676560206429, 0.5336854108281557]",21.9,0.0,0.0,22.865753288238096,256.4740479691173,81.87957870011451,-1022.558287872563,-384.7947944211999,1481.5923330022222,0.0,0.0,0.0,0.0,0.0,0.0,-2.2,21.721696519918567,0.0,21.740242292369864,0.0,-2.2,21.9,21.24,22.24,21.73,22.19,-2.97,-2.2,1986.94,-713.67,-671.85,37.7,165.0,53.0,96.0,0.0,0.0,0.0,0.0,0.0,0.0,0.0,0.0,0.0,0.0,0.0,0.0,0.0,0.0
106.0,1596.0,4515.472701310895,0.0,-0.0,18.55655723939068,-2915.4518950437323,0.0,9223.673003511265,0.0,9223.673003511265,0.0,0.0,0.3466666666666667,0.30355221651525394,0.4426150255576329,0.0,0.0,0.0,"[0.10478014115189893, 0.2522591774783649, 0.08198960113195142, 0.09475851577485628, 0.3735780180296544, 0.16481159180889904, 0.4561676560206429, 0.5336854108281557]",22.1,0.0,0.0,28.830225778622047,265.5007882049019,52.58488498740689,-989.0134317090243,-667.2197364410586,1310.9976823721595,0.0,0.0,0.0,0.0,0.0,0.0,-1.2,21.793725808287537,0.0,21.755595659553215,0.0,-1.2,22.1,21.25,22.26,21.87,22.33,-1.86,-1.2,1686.36,-690.26,-649.81,47.53,102.0,32.0,138.0,0.0,0.0,0.0,0.0,0.0,0.0,0.0,0.0,0.0,0.0,0.0,0.0,0.0,0.0
107.0,4525.0,33149.8870045928,12675.783503870836,-0.0,216.64593430099447,-16000.0,0.0,4763.628946810429,0.0,-27800.54511676273,0.0,32564.17406357316,1.0,0.41707110907536843,0.4426150255576329,0.0,0.0,0.0,"[0.10478014115189893, 0.2522591774783649, 0.08198960113195142, 0.09475851577485628, 0.3735780180296544, 0.16481159180889904, 0.4561676560206429, 0.5336854108281557]",22.1,0.0,0.0,54.37708877332733,415.58825482370094,45.45832906350802,-933.843743197293,-643.4939790782673,1062.0150872013046,0.0,0.0,0.0,0.0,0.0,0.0,0.1,21.804490769959056,0.0,21.770721116401695,0.0,0.1,22.1,21.27,22.27,21.85,22.31,-0.46,0.1,1621.97,-651.75,-613.56,89.65,126.0,0.0,239.0,0.0,0.0,0.0,0.0,0.0,0.0,0.0,0.0,0.0,0.0,0.0,0.0,0.0,0.0
108.0,4025.0,0.0,2692.0509078518658,-0.0,530.2694189685868,6186.781488883279,0.0,7198.202720245328,0.0,0.0,0.0,7198.202720245328,0.7369565693502007,0.41707110907536843,0.4426150255576329,0.0,0.0,0.0,"[0.10478014115189893, 0.2522591774783649, 0.08198960113195142, 0.09475851577485628, 0.3735780180296544, 0.16481159180889904, 0.4561676560206429, 0.5336854108281557]",22.1,0.0,0.0,70.8207726787046,219.14919350210326,4.8824489521179375,-887.1616990719818,-625.4806925244723,1214.8188985458144,0.0,0.0,0.0,0.0,0.0,0.0,1.2,21.812689675076804,0.0,21.78148194816572,0.0,1.2,22.1,21.28,22.28,21.84,22.29,0.57,1.2,1150.73,-619.17,-582.89,116.77,0.0,0.0,161.0,0.0,0.0,0.0,0.0,0.0,0.0,0.0,0.0,0.0,0.0,0.0,0.0,0.0,0.0
109.0,3744.0,242.70985244696766,2509.543611670774,-0.0,564.5540096757325,5447.493298810309,0.0,6901.595351121205,0.0,0.0,0.0,6901.595351121205,0.5053454597069053,0.41707110907536843,0.4426150255576329,0.0,0.0,0.0,"[0.10478014115189893, 0.2522591774783649, 0.08198960113195142, 0.09475851577485628, 0.3735780180296544, 0.16481159180889904, 0.4561676560206429, 0.5336854108281557]",22.1,0.0,0.0,74.56773486778432,171.50806447990692,3.8210470060053443,-853.2111215263011,-603.9987566433753,772.2780617248557,0.0,0.0,0.0,0.0,0.0,0.0,2.0,21.8226879033402,0.0,21.79496961283577,0.0,2.0,22.1,21.3,22.29,21.85,22.31,1.37,2.0,725.39,-595.48,-560.58,122.94,0.0,0.0,126.0,0.0,0.0,0.0,0.0,0.0,0.0,0.0,0.0,0.0,0.0,0.0,0.0,0.0,0.0
110.0,2730.0,0.0,2244.588782785997,-0.0,150.44725244422833,4824.141530341769,0.0,6237.127635947023,0.0,0.0,0.0,6237.12763594702,0.30023740144407496,0.41707110907536843,0.4426150255576329,0.0,0.0,0.0,"[0.10478014115189893, 0.2522591774783649, 0.08198960113195142, 0.09475851577485628, 0.3735780180296544, 0.16481159180889904, 0.4561676560206429, 0.5336854108281557]",21.9,0.0,0.0,56.3448549134887,397.9646191252643,56.55756084285687,-831.5862891781085,-306.061356533726,1059.256611311339,0.0,0.0,0.0,0.0,0.0,0.0,2.3,21.75753890379564,0.0,21.786857837265003,0.0,2.3,21.9,21.31,22.26,21.72,22.18,1.48,2.3,1554.05,-580.39,-546.37,92.9,166.0,0.0,205.0,0.0,0.0,0.0,0.0,0.0,0.0,0.0,0.0,0.0,0.0,0.0,0.0,0.0,0.0
111.0,2562.0,20833.73476415627,2167.6298682387055,-0.0,0.06377790322042153,-16000.0,0.0,5899.2907714464145,0.0,0.0,0.0,5899.2907714464145,0.9535707347774083,0.41707110907536843,0.4308803316800819,0.0,0.0,0.0,"[0.10478014115189893, 0.2522591774783649, 0.08198960113195142, 0.09475851577485628, 0.3735780180296544, 0.16481159180889904, 0.4561676560206429, 0.5336854108281557]",22.1,0.0,0.0,13.56834774897845,378.1917595611649,44.91246520550725,-865.9425881059315,-599.6855706241008,955.9107376415512,0.0,0.0,0.0,0.0,0.0,0.0,1.7,21.825175506548245,0.0,21.794485022056833,0.0,1.7,22.1,21.32,22.27,21.86,22.3,0.63,1.7,792.25,-604.36,-568.95,22.37,127.0,0.0,211.0,0.0,0.0,0.0,0.0,0.0,0.0,0.0,0.0,0.0,0.0,0.0,0.0,0.0,0.0
112.0,1755.0,1763.819095477387,0.0,-0.0,0.0,0.0,0.0,8088.619787096601,0.0,8088.619787096601,0.0,0.0,0.9535707347774083,0.38268071882410737,0.4308803316800819,0.0,0.0,0.0,"[0.10478014115189893, 0.2522591774783649, 0.08198960113195142, 0.09475851577485628, 0.3735780180296544, 0.16481159180889904, 0.4561676560206429, 0.5336854108281557]",22.07,0.0,0.0,0.0,73.50345620567438,1.6375915740022873,-898.3488347540477,-540.7519678326103,1439.0406957507942,0.0,0.0,0.0,0.0,0.0,0.0,0.9,21.817860041030006,0.0,21.79770730387444,0.0,0.9,22.07,21.33,22.26,21.83,22.24,-0.3,0.9,1691.49,-626.98,-590.24,0.0,0.0,0.0,54.0,0.0,0.0,0.0,0.0,0.0,0.0,0.0,0.0,0.0,0.0,0.0,0.0,0.0,0.0
113.0,2981.0,0.0,2006.1092333177562,-0.0,0.0,4987.109233317757,0.0,5325.831964090901,0.0,0.0,0.0,5325.8319640909,0.7415337775785241,0.38268071882410737,0.39567625004742885,0.0,0.0,0.0,"[0.10478014115189893, 0.2522591774783649, 0.08198960113195142, 0.09475851577485628, 0.3735780180296544, 0.16481159180889904, 0.4561676560206429, 0.5336854108281557]",22.1,0.0,0.0,0.0,263.4948459302831,44.94279097539618,-895.6493434584021,-577.2623179239931,1167.0409638306876,0.0,0.0,0.0,0.0,0.0,0.0,1.0,21.836517489004336,0.0,21.808703409415337,0.0,1.0,22.1,21.35,22.27,21.88,22.3,-0.24,1.0,0.0,-625.1,-588.47,0.0,136.0,0.0,122.0,0.0,0.0,0.0,0.0,0.0,0.0,0.0,0.0,0.0,0.0,0.0,0.0,0.0,0.0
114.0,2822.0,0.0,0.0,-0.0,0.0,2822.0,0.0,1905.713978760708,0.0,1905.713978760708,0.0,0.0,0.6215507843812452,0.3745781934042064,0.39567625004742885,0.0,0.0,0.0,"[0.10478014115189893, 0.2522591774783649, 0.08198960113195142, 0.09475851577485628, 0.3735780180296544, 0.16481159180889904, 0.4561676560206429, 0.5336854108281557]",22.1,0.0,0.0,0.0,726.2227442075256,74.6923712364378,-891.405521265192,-564.819771016559,227.74496198852668,0.0,0.0,0.0,0.0,0.0,0.0,1.1,21.84250802574261,0.0,21.81649820011494,0.0,1.1,22.1,21.36,22.27,21.88,22.28,-0.15,1.1,0.0,-622.14,-585.68,0.0,164.0,21.0,445.0,0.0,0.0,0.0,0.0,0.0,0.0,0.0,0.0,0.0,0.0,0.0,0.0,0.0,0.0
115.0,4623.0,0.0,0.0,-0.0,0.0,4623.0,0.0,4041.6204391408883,0.0,4041.6204391408883,0.0,0.0,0.42499466193226565,0.35739443303370944,0.389553801067837,0.0,0.0,0.0,"[0.10478014115189893, 0.2522591774783649, 0.08198960113195142, 0.09475851577485628, 0.3735780180296544, 0.16481159180889904, 0.4561676560206429, 0.5336854108281557]",21.9,0.0,0.0,0.0,2536.800569437554,115.54118327682822,-874.0245111102095,-289.7602963482653,-1050.1264061370875,0.0,0.0,0.0,0.0,0.0,0.0,1.3,21.766222775356855,0.0,21.791587687032475,0.0,1.3,21.9,21.36,22.23,21.7,22.09,0.03,1.3,0.0,-610.0,-574.26,0.0,145.0,32.0,1784.0,0.0,0.0,0.0,0.0,0.0,0.0,0.0,0.0,0.0,0.0,0.0,0.0,0.0,0.0
116.0,4418.0,16641.7991494339,0.0,-0.0,0.0,-12140.590153686731,0.0,836.7009650501315,0.0,836.7009650501315,0.0,0.0,0.9207354265411405,0.35383703097142144,0.389553801067837,0.0,0.0,0.0,"[0.10478014115189893, 0.2522591774783649, 0.08198960113195142, 0.09475851577485628, 0.3735780180296544, 0.16481159180889904, 0.32831467932526337, 0.5336854108281521]",22.1,0.0,0.0,0.0,543.1088708530385,75.1775835546607,-878.6740546855617,-619.6296226646715,452.47972133866614,0.0,0.0,0.0,0.0,0.0,0.0,1.4,21.81573998608681,0.0,21.771486559244515,0.0,1.4,22.1,21.35,22.19,21.77,22.12,0.17,1.4,0.0,-613.25,-577.31,0.0,93.0,67.0,343.0,0.0,0.0,0.0,0.0,0.0,0.0,0.0,0.0,0.0,0.0,0.0,0.0,0.0,0.0
117.0,3535.0,0.0,0.0,-0.0,0.0,3535.0,0.0,2929.4668916643773,0.0,2929.4668916643773,0.0,0.0,0.7704378074935214,0.3413818145952974,0.389553801067837,0.0,0.0,0.0,"[0.10478014115189893, 0.2522591774783649, 0.08198960113195142, 0.09475851577485628, 0.3735780180296544, 0.16481159180889904, 0.32831467932526337, 0.5336854108281521]",21.9,0.0,0.0,0.0,482.9306026144747,107.32289963692789,-861.2930445305791,-329.3532823349879,681.5100568188554,0.0,0.0,0.0,0.0,0.0,0.0,1.6,21.74683921778278,0.0,21.758747388291212,0.0,1.6,21.9,21.35,22.16,21.72,22.08,0.35,1.6,0.0,-601.12,-565.89,0.0,100.0,125.0,289.0,0.0,0.0,0.0,0.0,0.0,0.0,0.0,0.0,0.0,0.0,0.0,0.0,0.0,0.0
118.0,3130.0,0.0,0.0,-0.0,0.0,3130.0,0.0,5413.5043466023035,0.0,5413.504346602303,0.0,0.0,0.6373595762010045,0.31836521448219235,0.389553801067837,0.0,0.0,0.0,"[0.10478014115189893, 0.2522591774783649, 0.08198960113195142, 0.09475851577485628, 0.3735780180296544, 0.16481159180889904, 0.32831467932526337, 0.5336854108281521]",21.93,0.0,0.0,0.0,982.9833553587312,137.64866952585916,-858.593553234934,-390.1653348606102,61.001355771039464,0.0,0.0,0.0,0.0,0.0,0.0,1.7,21.753703431778973,0.0,21.752046919309798,0.0,1.7,21.93,21.35,22.15,21.76,22.12,0.41,1.7,586.64,-599.24,-564.12,0.0,146.0,136.0,631.0,0.0,0.0,0.0,0.0,0.0,0.0,0.0,0.0,0.0,0.0,0.0,0.0,0.0,0.0
119.0,2058.0,29428.23510074465,27223.093925240926,-0.0,0.0,0.0,0.0,5534.262345369756,0.0,-69073.52112504827,0.0,74607.78347041803,0.6373595762010045,0.6004154257428062,0.351288494945388,0.0,0.0,0.0,"[0.10478014115189893, 0.2522591774783649, 0.08198960113195142, 0.09475851577485628, 0.3735780180296544, 0.16481159180889904, 0.32831467932526337, 0.5336854108281521]",21.9,0.0,0.0,0.0,475.26503749361007,72.35728695499009,-848.561577950949,-362.29911153261696,667.3711027533027,0.0,0.0,0.0,0.0,0.0,0.0,1.9,21.730708326799803,0.0,21.731931000316067,0.0,1.9,21.9,21.35,22.12,21.69,22.03,0.62,1.9,0.0,-592.23,-557.53,0.0,130.0,45.0,276.0,0.0,0.0,0.0,0.0,0.0,0.0,0.0,0.0,0.0,0.0,0.0,0.0,0.0,0.0
120.0,1096.0,0.0,0.0,-0.0,0.0,1096.0,0.0,5174.080226090135,0.0,5174.080226090135,0.0,0.0,0.5907609367452221,0.5784167853257562,0.351288494945388,0.0,0.0,0.0,"[0.10478014115189893, 0.2522591774783649, 0.08198960113195142, 0.09475851577485628, 0.3735780180296544, 0.16481159180889904, 0.32831467932526337, 0.5336854108281521]",21.9,0.0,0.0,0.0,352.8309179463415,53.828241552853044,-865.5368667237893,-372.7537438567554,834.7058892414735,0.0,0.0,0.0,0.0,0.0,0.0,1.5,21.725892914195253,0.0,21.723943928355002,0.0,1.5,21.9,21.35,22.1,21.73,22.07,0.13,1.5,165.3,-604.08,-568.68,0.0,160.0,0.0,175.0,0.0,0.0,0.0,0.0,0.0,0.0,0.0,0.0,0.0,0.0,0.0,0.0,0.0,0.0
121.0,1242.0,0.0,2957.785966600657,-0.0,0.0,4199.785966600657,0.0,7908.744566675878,0.0,0.0,0.0,7908.744566675878,0.4121986082332894,0.5784167853257562,0.351288494945388,0.0,0.0,0.0,"[0.10478014115189893, 0.2522591774783649, 0.08198960113195142, 0.09475851577485628, 0.3735780180296544, 0.16481159180889904, 0.32831467932526337, 0.5336854108281521]",21.9,0.0,0.0,0.0,482.1425538637316,56.709189692301536,-878.2683333034197,-378.99417704943426,721.6497523514308,0.0,0.0,0.0,0.0,0.0,0.0,1.2,21.723048393753125,0.0,21.719345867744998,0.0,1.2,21.9,21.35,22.09,21.74,22.07,-0.21,1.2,0.0,-612.97,-577.05,0.0,160.0,0.0,270.0,0.0,0.0,0.0,0.0,0.0,0.0,0.0,0.0,0.0,0.0,0.0,0.0,0.0,0.0
122.0,969.0,49926.072444328296,3183.511963347887,-45523.93011875876,0.0,0.0,0.0,8390.909669172765,0.0,0.0,0.0,8390.909669172765,0.4121986082332894,0.5784167853257562,0.49999999999999994,0.0,0.0,0.0,"[0.10478014115189893, 0.2522591774783649, 0.08198960113195142, 0.09475851577485628, 0.3735780180296544, 0.16481159180889904, 0.32831467932526337, 0.5336854108281521]",21.9,0.0,0.0,0.0,213.99105622451208,50.73501302418207,-895.24362207626,-388.7882613827705,1454.0349029921524,0.0,0.0,0.0,0.0,0.0,0.0,0.8,21.71851349190549,0.0,21.71222675994099,0.0,0.8,21.9,21.34,22.08,21.72,22.06,-0.62,0.8,773.49,-624.81,-588.2,0.0,160.0,0.0,73.0,0.0,0.0,0.0,0.0,0.0,0.0,0.0,0.0,0.0,0.0,0.0,0.0,0.0,0.0
123.0,501.0,0.0,3446.3724666171643,-0.0,0.0,3947.3724666171643,0.0,9050.886273043738,0.0,0.0,0.0,9050.886273043738,0.24436814621725353,0.5784167853257562,0.49999999999999994,0.0,0.0,0.0,"[0.10478014115189893, 0.2522591774783649, 0.08198960113195142, 0.09475851577485628, 0.3735780180296544, 0.16481159180889904, 0.32831467932526337, 0.5336854108281521]",22.1,0.0,0.0,0.0,223.51928202895135,50.94729341340457,-908.3808100380325,-665.4903101358459,1302.314435497164,0.0,0.0,0.0,0.0,0.0,0.0,0.7,21.793967839011703,0.0,21.734412649692608,0.0,0.7,22.1,21.35,22.12,21.89,22.23,-0.74,0.7,878.86,-633.98,-596.83,0.0,160.0,0.0,80.0,0.0,0.0,0.0,0.0,0.0,0.0,0.0,0.0,0.0,0.0,0.0,0.0,0.0,0.0
124.0,787.0,790.9547738693467,0.0,-0.0,0.0,0.0,0.0,4441.407152496689,0.0,4441.4071524966885,0.0,0.0,0.24436814621725353,0.5595332515141207,0.5,0.0,0.0,0.0,"[0.10478014115189893, 0.2522591774783649, 0.08198960113195142, 0.09475851577485628, 0.3735780180296544, 0.16481159180889904, 0.32831467932526337, 0.5336854108281521]",22.1,0.0,0.0,0.0,193.57342950071362,50.280126475848085,-916.8684544244526,-636.7783182724144,880.8336792125124,0.0,0.0,0.0,0.0,0.0,0.0,0.5,21.807982679569555,0.0,21.756259742510686,0.0,0.5,22.1,21.36,22.15,21.88,22.23,-0.89,0.5,977.42,-639.91,-602.41,0.0,160.0,0.0,58.0,0.0,0.0,0.0,0.0,0.0,0.0,0.0,0.0,0.0,0.0,0.0,0.0,0.0,0.0
125.0,579.0,11359.818603848138,0.0,-0.0,0.0,0.0,0.0,9651.617559746002,0.0,0.0,0.0,0.0,0.24436814621725353,0.5595332515141207,0.5,42896.07804331559,10724.019510828897,53620.097554144486,"[0.10478014115189893, 0.2522591774783649, 0.08198960113195142, 0.09475851577485628, 0.3735780180296544, 0.16481159180889904, 0.32831467932526337, 0.5336854108281521]",21.9,0.0,0.0,0.0,203.10165530515292,50.49240686507061,-916.4627330423104,-333.974447049424,1431.5583500806283,0.0,0.0,0.0,0.0,0.0,0.0,0.3,21.745365597036777,0.0,21.75421095819619,0.0,0.3,21.9,21.36,22.15,21.75,22.11,-1.1,0.3,1004.27,-639.62,-602.14,0.0,160.0,0.0,65.0,0.0,0.0,0.0,0.0,0.0,0.0,0.0,0.0,0.0,0.0,0.0,0.0,0.0,0.0
126.0,1628.0,1636.180904522613,0.0,-0.0,0.0,0.0,0.0,3638.2944998233775,0.0,3638.2944998233766,0.0,0.0,0.24436814621725353,0.5440643123141914,0.5,0.0,0.0,0.0,"[0.10478014115189893, 0.2522591774783649, 0.08198960113195142, 0.09475851577485628, 0.3735780180296544, 0.16481159180889904, 0.32831467932526337, 0.5336854108281521]",22.1,0.0,0.0,0.0,279.97222890036596,79.21091094988856,-929.599921004083,-617.930538090825,761.0401839930685,0.0,0.0,0.0,0.0,0.0,0.0,0.2,21.81727203086474,0.0,21.770647232439373,0.0,0.2,22.1,21.37,22.17,21.9,22.26,-1.16,0.2,175.99,-648.79,-610.77,0.0,254.0,0.0,72.0,0.0,0.0,0.0,0.0,0.0,0.0,0.0,0.0,0.0,0.0,0.0,0.0,0.0,0.0
127.0,766.0,0.0,4110.538799029803,-0.0,0.0,4876.538799029803,0.0,10560.002141548208,0.0,0.0,0.0,10560.002141548208,0.03703231292517006,0.5440643123141914,0.5,0.0,0.0,0.0,"[0.10478014115189893, 0.2522591774783649, 0.08198960113195142, 0.09475851577485628, 0.3735780180296544, 0.16481159180889904, 0.32831467932526337, 0.5336854108281521]",21.9,0.0,0.0,0.0,295.9481263017943,103.38054955136681,-924.9503774287306,-318.40834021253255,849.934695133388,0.0,0.0,0.0,0.0,0.0,0.0,0.1,21.753028658586512,0.0,21.76599790163142,0.0,0.1,21.9,21.37,22.16,21.76,22.12,-1.3,0.1,969.89,-645.55,-607.72,0.0,284.0,28.0,65.0,0.0,0.0,0.0,0.0,0.0,0.0,0.0,0.0,0.0,0.0,0.0,0.0,0.0,0.0
128.0,871.0,9601.956768146683,0.0,-0.0,0.0,-3183.7526192709265,0.0,4949.274928531511,0.0,0.0,0.0,0.0,0.13000323195356284,0.5230214767337003,0.5,21996.77746014006,5499.194365035015,27495.97182517507,"[0.10478014115189893, 0.2522591774783649, 0.08198960113195142, 0.09475851577485628, 0.3735780180296544, 0.16481159180889904, 0.32831467932526337, 0.5336854108281521]",21.9,0.0,0.0,1.5706186349739504,288.9989691361506,79.6354717283336,-920.7065552355206,-326.30470116153174,881.2825581134184,0.0,0.0,0.0,0.0,0.0,0.0,0.2,21.74908642932013,0.0,21.7598251550166,0.0,0.2,21.9,21.37,22.15,21.77,22.13,-1.1,0.2,988.65,-642.59,-604.93,2.59,166.0,47.0,120.0,0.0,0.0,0.0,0.0,0.0,0.0,0.0,0.0,0.0,0.0,0.0,0.0,0.0,0.0
129.0,1058.0,0.0,3023.937268592027,-0.0,4081.937268592027,0.0,0.0,8546.874710719896,0.0,0.0,0.0,8546.874710719896,0.13000323195356284,0.5230214767337003,0.5,0.0,0.0,0.0,"[0.10478014115189893, 0.2522591774783649, 0.08198960113195142, 0.09475851577485628, 0.3735780180296544, 0.16481159180889904, 0.32831467932526337, 0.5336854108281521]",21.9,0.0,0.0,425.9398337483579,322.81342462258175,107.1712707874832,-810.3671782120579,-330.9825724529117,272.0001427904881,0.0,0.0,0.0,0.0,0.0,0.0,2.8,21.745097960645214,0.0,21.753583536895224,0.0,2.8,21.9,21.36,22.14,21.76,22.12,2.14,2.8,321.23,-565.58,-532.43,702.27,280.0,36.0,86.0,0.0,0.0,0.0,0.0,0.0,0.0,0.0,0.0,0.0,0.0,0.0,0.0,0.0,0.0
130.0,2277.0,0.0,0.0,-0.0,10195.229787736329,-7918.229787736329,0.0,5170.369477322213,0.0,5170.369477322214,0.0,0.0,0.45333094828612963,0.5010386133097112,0.5,0.0,0.0,0.0,"[0.10478014115189893, 0.2522591774783649, 0.08198960113195142, 0.09475851577485628, 0.3735780180296544, 0.16481159180889904, 0.32831467932526337, 0.5336854108281521]",21.9,0.0,0.0,812.1659449137101,1093.5251028493312,52.039021129406116,-704.2716233818055,-295.9319357531312,-559.9929752716067,0.0,0.0,0.0,0.0,0.0,0.0,5.3,21.760480783804873,0.0,21.77861205107389,0.0,5.3,21.9,21.37,22.19,21.8,22.29,5.2,5.3,0.0,-491.53,-462.73,1339.07,85.0,6.0,758.0,0.0,0.0,0.0,0.0,0.0,0.0,0.0,0.0,0.0,0.0,0.0,0.0,0.0,0.0
131.0,2127.0,0.0,871.4587514273036,-0.0,10138.317278554381,-7139.858527127078,0.0,2795.4116706299587,0.0,0.0,0.0,2795.411670629959,0.744875171477152,0.5010386133097112,0.5,0.0,0.0,0.0,"[0.10478014115189893, 0.2522591774783649, 0.08198960113195142, 0.09475851577485628, 0.3735780180296544, 0.16481159180889904, 0.32831467932526337, 0.5336854108281521]",22.1,0.0,0.0,717.8401003177336,786.2577308550453,51.705437660627865,-649.5076562522162,-521.2111966290141,-415.0726742539217,0.0,0.0,0.0,0.0,0.0,0.0,6.8,21.860001086790398,0.0,21.83961770571816,0.0,6.8,22.1,21.39,22.29,21.93,22.56,6.76,6.8,0.0,-453.31,-426.74,1183.55,119.0,0.0,515.0,0.0,0.0,0.0,0.0,0.0,0.0,0.0,0.0,0.0,0.0,0.0,0.0,0.0,0.0
132.0,1547.0,0.0,8468.211485505173,-0.0,10015.211485505173,0.0,0.0,1097.9458738384621,0.0,-26873.161581555567,0.0,27971.10745539403,0.744875171477152,0.6107706897677299,0.5,0.0,0.0,0.0,"[0.10478014115189893, 0.2522591774783649, 0.08198960113195142, 0.09475851577485628, 0.3735780180296544, 0.16481159180889904, 0.32831467932526337, 0.5336854108281521]",22.1,0.0,0.0,685.3955977601597,630.8688453676108,62.89564674964352,-607.0694343201153,-450.53728975330114,-349.4136196108411,0.0,0.0,0.0,0.0,0.0,0.0,7.8,21.893751676237894,0.0,21.892153878215566,0.0,7.8,22.1,21.42,22.37,21.93,22.56,7.78,7.8,0.0,-423.69,-398.86,1130.05,170.0,0.0,374.0,0.0,0.0,0.0,0.0,0.0,0.0,0.0,0.0,0.0,0.0,0.0,0.0,0.0,0.0
133.0,5349.0,0.0,290.1251385447293,-0.0,9417.04936870806,-3777.9242301633303,0.0,969.3674653579066,0.0,0.0,0.0,969.3674653579066,0.899140410875488,0.6107706897677299,0.5,0.0,0.0,0.0,"[0.10478014115189893, 0.2522591774783649, 0.08198960113195142, 0.09475851577485628, 0.3735780180296544, 0.16481159180889904, 0.32831467932526337, 0.5336854108281521]",22.1,0.0,0.0,657.1337970926904,461.86820873097736,101.07579103980802,-590.0941455472749,-388.5172070192145,-265.84908717690206,0.0,0.0,0.0,0.0,0.0,0.0,8.2,21.92363663962358,0.0,21.93776349884229,0.0,8.2,22.1,21.44,22.43,21.95,22.59,8.18,8.2,0.0,-411.84,-387.71,1083.46,316.0,0.0,173.0,0.0,0.0,0.0,0.0,0.0,0.0,0.0,0.0,0.0,0.0,0.0,0.0,0.0,0.0
134.0,4834.0,0.0,1068.3135238751347,-0.0,8372.344277944816,-2470.0307540696813,0.0,3569.4541260400074,0.0,0.0,0.0,3569.4541260400074,1.0,0.6107706897677299,0.5,0.0,0.0,0.0,"[0.10478014115189893, 0.2522591774783649, 0.08198960113195142, 0.09475851577485628, 0.3735780180296544, 0.16481159180889904, 0.32831467932526337, 0.5336854108281521]",22.1,0.0,0.0,603.0995940018488,947.5928023708143,110.17352200648742,-590.0941455472749,-331.7557023051236,-760.3994778782741,0.0,0.0,0.0,0.0,0.0,0.0,8.2,21.951346817453977,0.0,21.979442446250044,0.0,8.2,22.1,21.47,22.49,21.98,22.62,7.87,8.2,0.0,-411.84,-387.71,994.37,310.0,0.0,533.0,0.0,0.0,0.0,0.0,0.0,0.0,0.0,0.0,0.0,0.0,0.0,0.0,0.0,0.0
135.0,2123.0,12365.199748109155,15556.489134794001,-0.0,5376.115385425392,0.0,0.0,865.8870510619159,0.0,-49628.47911429286,0.0,50494.366165354775,1.0,0.8134203128177591,0.5,0.0,0.0,0.0,"[0.10478014115189893, 0.2522591774783649, 0.08198960113195142, 0.09475851577485628, 0.3735780180296544, 0.16481159180889904, 0.32831467932526337, 0.5336854108281521]",22.1,0.0,0.0,587.8671315843537,221.44169895881046,52.43325613796222,-632.5323674793759,-287.4299502424075,34.2379602825739,0.0,0.0,0.0,0.0,0.0,0.0,7.2,21.973579489834027,0.0,22.012194854103072,0.0,7.2,22.1,21.5,22.53,21.99,22.62,6.51,7.2,0.0,-441.46,-415.59,969.25,154.0,6.0,81.0,0.0,0.0,0.0,0.0,0.0,0.0,0.0,0.0,0.0,0.0,0.0,0.0,0.0,0.0
136.0,3271.0,3287.4371859296484,0.0,-0.0,0.0,0.0,0.0,2526.6274192525434,0.0,2526.627419252544,0.0,0.0,1.0,0.8026778493005289,0.5,0.0,0.0,0.0,"[0.10478014115189893, 0.2522591774783649, 0.08198960113195142, 0.09475851577485628, 0.3735780180296544, 0.16481159180889904, 0.32831467932526337, 0.5336854108281521]",22.1,0.0,0.0,0.0,505.8556571815467,70.32546037243169,-691.9458781843173,-257.2966971605888,162.1252180449008,0.0,0.0,0.0,0.0,0.0,0.0,5.8,21.989425389424976,0.0,22.03522713941442,0.0,5.8,22.1,21.52,22.55,21.98,22.62,4.21,5.8,0.0,-482.93,-454.63,0.0,130.0,40.0,299.0,0.0,0.0,0.0,0.0,0.0,0.0,0.0,0.0,0.0,0.0,0.0,0.0,0.0,0.0
137.0,2304.0,0.0,0.0,-0.0,0.0,2304.0,0.0,3383.204721629506,0.0,3383.204721629506,0.0,0.0,0.9020408163265307,0.7882934754840769,0.4653061224489796,0.0,0.0,0.0,"[0.10478014115189893, 0.2522591774783649, 0.08198960113195142, 0.09475851577485628, 0.3735780180296544, 0.16481159180889904, 0.32831467932526337, 0.5336854108281521]",22.0,0.0,0.0,0.0,642.1880910601026,144.83587698953588,-704.4943111130576,-151.17012799156703,0.0,0.0,0.0,0.0,0.0,0.0,0.0,5.4,21.936775496794787,0.0,21.99682770374791,0.0,5.4,22.0,21.52,22.47,21.84,22.27,3.8,5.4,0.0,-491.69,-462.87,0.0,324.0,69.0,294.0,0.0,0.0,0.0,0.0,0.0,0.0,0.0,0.0,0.0,0.0,0.0,0.0,0.0,0.0
138.0,5185.0,5211.05527638191,0.0,-0.0,0.0,0.0,0.0,3523.4561513089902,0.0,3523.4561513089902,0.0,0.0,0.9020408163265307,0.7733127945686475,0.46530612244897934,0.0,0.0,0.0,"[0.10478014115189893, 0.2522591774783649, 0.08198960113195142, 0.09475851577485628, 0.3735780180296544, 0.16481159180889904, 0.32831467932526337, 0.5336854108281521]",21.96,0.0,0.0,0.0,2004.222895526264,165.09349127534196,-719.8856149079719,-141.2008148795419,-1006.9347222188371,0.0,0.0,0.0,0.0,0.0,0.0,5.0,21.90444624783599,0.0,21.960318832592648,0.0,5.0,21.96,21.52,22.4,21.83,22.23,3.47,5.0,0.0,-502.43,-472.98,0.0,202.0,115.0,1354.0,0.0,0.0,0.0,0.0,0.0,0.0,0.0,0.0,0.0,0.0,0.0,0.0,0.0,0.0
139.0,4856.0,1391.672589431339,0.0,-0.0,0.0,10497.727773515817,0.0,5281.047592880297,35132.21,33386.815592880295,0.0,0.0,0.4557088531668446,0.631362048000279,0.46530612244897934,28105.768,7026.442,35132.21,"[0.10478014115189893, 0.2522591774783649, 0.08198960113195142, 0.09475851577485628, 0.3735780180296544, 0.16481159180889904, 0.32831467932526337, 0.5336854108281521]",22.1,0.0,0.0,0.0,998.601048782549,133.46371328118664,-742.8717445028384,-376.9802674059374,-4.5898755956883335,0.0,0.0,0.0,0.0,0.0,0.0,4.6,21.931916416382126,0.0,21.935895065000764,0.0,4.6,22.1,21.52,22.35,21.89,22.25,3.14,4.6,242.81,-518.47,-488.09,0.0,202.0,98.0,617.0,0.0,0.0,0.0,0.0,0.0,0.0,0.0,0.0,0.0,0.0,0.0,0.0,0.0,0.0
140.0,3723.0,19822.110552763817,0.0,-0.0,0.0,-16000.0,0.0,1599.1570994419126,0.0,1599.1570994419126,0.0,0.0,0.9507513701736473,0.6177637733451607,0.46530612244897934,0.0,0.0,0.0,"[0.10478014115189893, 0.2522591774783649, 0.08198960113195142, 0.09475851577485628, 0.3735780180296544, 0.16481159180889904, 0.32831467932526337, 0.5336854108281521]",22.1,0.0,0.0,0.0,1119.3874300328093,158.14888997077674,-759.8470332756789,-400.6312979120208,-108.0252028975463,0.0,0.0,0.0,0.0,0.0,0.0,4.2,21.92061618992985,0.0,21.91621863848217,0.0,4.2,22.1,21.52,22.31,21.87,22.22,2.8,4.2,0.0,-530.32,-499.24,0.0,288.0,93.0,661.0,0.0,0.0,0.0,0.0,0.0,0.0,0.0,0.0,0.0,0.0,0.0,0.0,0.0,0.0
141.0,3422.0,0.0,0.0,-0.0,0.0,3422.0,0.0,2378.3252191294114,0.0,2378.3252191294114,0.0,0.0,0.8052581728947358,0.6076518463930799,0.46530612244897934,0.0,0.0,0.0,"[0.10478014115189893, 0.2522591774783649, 0.08198960113195142, 0.09475851577485628, 0.3735780180296544, 0.16481159180889904, 0.32831467932526337, 0.5336854108281521]",22.1,0.0,0.0,0.0,793.7800143848659,103.10761762236642,-776.8223220485193,-419.0033412844828,0.0,0.0,0.0,0.0,0.0,0.0,0.0,3.8,21.911877800857273,0.0,21.900994147000933,0.0,3.8,22.1,21.52,22.28,21.88,22.21,2.47,3.8,0.0,-542.16,-510.39,0.0,218.0,42.0,464.0,0.0,0.0,0.0,0.0,0.0,0.0,0.0,0.0,0.0,0.0,0.0,0.0,0.0,0.0
142.0,2483.0,0.0,0.0,-0.0,0.0,2483.0,0.0,1859.2135770166371,0.0,1859.2135770166371,0.0,0.0,0.6996884450035793,0.5997470267629071,0.4122448979591834,0.0,0.0,0.0,"[0.10478014115189893, 0.2522591774783649, 0.08198960113195142, 0.09475851577485628, 0.3735780180296544, 0.16481159180889904, 0.32831467932526337, 0.5336854108281521]",21.96,0.0,0.0,0.0,810.1857565594266,69.47633881554161,-787.5198381842179,-235.50827899304116,20.329985535628683,0.0,0.0,0.0,0.0,0.0,0.0,3.4,21.853135800974403,0.0,21.875843668802226,0.0,3.4,21.96,21.51,22.24,21.79,22.11,2.06,3.4,0.0,-549.63,-517.42,0.0,162.0,9.0,509.0,0.0,0.0,0.0,0.0,0.0,0.0,0.0,0.0,0.0,0.0,0.0,0.0,0.0,0.0
143.0,1530.0,0.0,1910.6696420104997,-0.0,0.0,3440.6696420105,0.0,5436.758311638182,0.0,0.0,0.0,5436.758311638182,0.553401470428303,0.5997470267629071,0.3780612244897956,0.0,0.0,0.0,"[0.10478014115189893, 0.2522591774783649, 0.08198960113195142, 0.09475851577485628, 0.3735780180296544, 0.16481159180889904, 0.32831467932526337, 0.5336854108281521]",21.9,0.0,0.0,0.0,561.5921960977404,78.27081208333169,-801.8795338256377,-187.69721048822828,354.18422902929655,0.0,0.0,0.0,0.0,0.0,0.0,3.0,21.814889066518493,0.0,21.843735996766533,0.0,3.0,21.9,21.5,22.19,21.75,22.05,1.65,3.0,0.0,-559.65,-526.86,0.0,210.0,10.0,301.0,0.0,0.0,0.0,0.0,0.0,0.0,0.0,0.0,0.0,0.0,0.0,0.0,0.0,0.0
144.0,1679.0,0.0,0.0,-0.0,0.0,1679.0,0.0,3586.2282719034188,0.0,3586.2282719034188,0.0,0.0,0.4820154160065343,0.5844994575796443,0.3780612244897956,0.0,0.0,0.0,"[0.10478014115189893, 0.2522591774783649, 0.08198960113195142, 0.09475851577485628, 0.3735780180296544, 0.16481159180889904, 0.32831467932526337, 0.5336854108281521]",21.9,0.0,0.0,0.0,233.04750783339063,51.159573802627094,-823.0986447916883,-216.11266399230703,757.9262424584783,0.0,0.0,0.0,0.0,0.0,0.0,2.5,21.80132429134713,0.0,21.822545622836827,0.0,2.5,21.9,21.49,22.16,21.78,22.08,1.23,2.5,0.0,-574.46,-540.8,0.0,160.0,0.0,87.0,0.0,0.0,0.0,0.0,0.0,0.0,0.0,0.0,0.0,0.0,0.0,0.0,0.0,0.0
145.0,1407.0,3656.6002529220314,2231.3172516574214,-0.0,0.0,0.0,0.0,6157.705843192686,0.0,0.0,0.0,6157.705843192687,0.4820154160065343,0.5844994575796443,0.3780612244897956,0.0,0.0,0.0,"[0.10478014115189893, 0.2522591774783649, 0.08198960113195142, 0.09475851577485628, 0.3735780180296544, 0.16481159180889904, 0.32831467932526337, 0.5336854108281521]",21.9,0.0,0.0,0.0,182.68402858135448,50.03752031673664,-840.0739335645287,-231.44191044187443,841.6522235388471,0.0,0.0,0.0,0.0,0.0,0.0,2.1,21.794049191307497,0.0,21.811615498606756,0.0,2.1,21.9,21.48,22.14,21.8,22.11,0.92,2.1,213.35,-586.31,-551.95,0.0,160.0,0.0,50.0,0.0,0.0,0.0,0.0,0.0,0.0,0.0,0.0,0.0,0.0,0.0,0.0,0.0,0.0
146.0,940.0,11075.69348062208,10080.31501321897,-0.0,0.0,0.0,0.0,5695.554348852798,0.0,-21642.32455169198,0.0,27337.87890054478,0.4820154160065343,0.6728722828323865,0.3780612244897956,0.0,0.0,0.0,"[0.10478014115189893, 0.2522591774783649, 0.08198960113195142, 0.09475851577485628, 0.3735780180296544, 0.16481159180889904, 0.32831467932526337, 0.5336854108281521]",21.9,0.0,0.0,0.0,188.128729041034,50.15882339629236,-861.2930445305791,-243.34459383129933,1301.0462652274757,0.0,0.0,0.0,0.0,0.0,0.0,1.6,21.788497887266566,0.0,21.803550098311426,0.0,1.6,21.9,21.48,22.13,21.81,22.11,0.5,1.6,632.46,-601.12,-565.89,0.0,160.0,0.0,54.0,0.0,0.0,0.0,0.0,0.0,0.0,0.0,0.0,0.0,0.0,0.0,0.0,0.0,0.0
147.0,2225.0,0.0,0.0,-0.0,0.0,2225.0,0.0,3638.2108288181853,0.0,3638.2108288181853,0.0,0.0,0.3874150758704799,0.6574036993765269,0.3780612244897956,0.0,0.0,0.0,"[0.10478014115189893, 0.2522591774783649, 0.08198960113195142, 0.09475851577485628, 0.3735780180296544, 0.16481159180889904, 0.32831467932526337, 0.5336854108281521]",22.1,0.0,0.0,0.0,208.54635576483253,50.61370994462634,-878.6740546855617,-530.9756239970219,721.549128321534,0.0,0.0,0.0,0.0,0.0,0.0,1.4,21.858708853451088,0.0,21.818048147977397,0.0,1.4,22.1,21.48,22.16,21.94,22.25,0.27,1.4,899.22,-613.25,-577.31,0.0,160.0,0.0,69.0,0.0,0.0,0.0,0.0,0.0,0.0,0.0,0.0,0.0,0.0,0.0,0.0,0.0,0.0
148.0,2126.0,0.0,0.0,-0.0,0.0,2126.0,0.0,9094.00097756874,0.0,9094.000977568741,0.0,0.0,0.29702391940789485,0.6187387292338026,0.3780612244897956,0.0,0.0,0.0,"[0.10478014115189893, 0.2522591774783649, 0.08198960113195142, 0.09475851577485628, 0.3735780180296544, 0.16481159180889904, 0.32831467932526337, 0.5336854108281521]",21.9,0.0,0.0,0.0,292.93921288986604,52.493907677740076,-878.2683333034197,-235.06625016713798,770.8996896382753,0.0,0.0,0.0,0.0,0.0,0.0,1.2,21.792692506593955,0.0,21.81136819815848,0.0,1.2,21.9,21.47,22.15,21.79,22.11,0.16,1.2,297.84,-612.97,-577.05,0.0,160.0,0.0,131.0,0.0,0.0,0.0,0.0,0.0,0.0,0.0,0.0,0.0,0.0,0.0,0.0,0.0,0.0
149.0,1211.0,0.0,0.0,-0.0,0.0,1211.0,0.0,4192.400983610555,0.0,4192.400983610555,0.0,0.0,0.24553582416979963,0.6009138951198121,0.3780612244897956,0.0,0.0,0.0,"[0.10478014115189893, 0.2522591774783649, 0.08198960113195142, 0.09475851577485628, 0.3735780180296544, 0.16481159180889904, 0.32831467932526337, 0.5336854108281521]",21.9,0.0,0.0,0.0,181.10793107986828,54.34377964096489,-890.99979988305,-250.7423296613499,909.3943023069141,0.0,0.0,0.0,0.0,0.0,0.0,0.9,21.785228025080137,0.0,21.800353604049803,0.0,0.9,21.9,21.46,22.14,21.79,22.1,-0.1,0.9,0.0,-621.85,-585.41,0.0,160.0,8.0,48.0,0.0,0.0,0.0,0.0,0.0,0.0,0.0,0.0,0.0,0.0,0.0,0.0,0.0,0.0
150.0,2670.0,41473.96549018366,1268.3990779763042,-37328.19658475644,0.0,0.0,0.0,3343.170124785281,0.0,0.0,0.0,3343.170124785281,0.24553582416979963,0.6009138951198121,0.5,0.0,0.0,0.0,"[0.10478014115189893, 0.2522591774783649, 0.08198960113195142, 0.09475851577485628, 0.3735780180296544, 0.16481159180889904, 0.32831467932526337, 0.5336854108281521]",21.9,0.0,0.0,0.0,1346.2738294512997,137.31508605708092,-895.24362207626,-260.40674394347656,0.0,0.0,0.0,0.0,0.0,0.0,0.0,0.8,21.780559408138387,0.0,21.793866654531403,0.0,0.8,21.9,21.46,22.13,21.81,22.12,-0.14,0.8,0.0,-624.81,-588.2,0.0,298.0,40.0,828.0,0.0,0.0,0.0,0.0,0.0,0.0,0.0,0.0,0.0,0.0,0.0,0.0,0.0,0.0
151.0,3247.0,19343.718592964826,0.0,-0.0,0.0,-16000.0,0.0,2884.451499762573,0.0,2884.451499762573,0.0,0.0,0.8988691575031329,0.5886500707160597,0.5,0.0,0.0,0.0,"[0.10478014115189893, 0.2522591774783649, 0.08198960113195142, 0.09475851577485628, 0.3735780180296544, 0.16481159180889904, 0.32831467932526337, 0.5336854108281521]",22.05,0.0,0.0,0.0,2440.945185028984,119.72613952150077,-910.3234889384535,-507.9706755771582,-1023.8032952187131,0.0,0.0,0.0,0.0,0.0,0.0,0.6,21.815935592416245,0.0,21.778408338983333,0.0,0.6,22.05,21.45,22.11,21.8,22.08,-0.32,0.6,875.25,-635.34,-598.11,0.0,150.0,41.0,1710.0,0.0,0.0,0.0,0.0,0.0,0.0,0.0,0.0,0.0,0.0,0.0,0.0,0.0,0.0
