,load_elec,grid,hp_elec,ev,pv,bat_pow,cool,load_th_sh,load_th_dhw,tes_pow,dh,hp_th,bat_soc,tes_soc,ev_soc,eh_th_in,eh_elec_in,eh_th_out,temp_slack,temp_zone_1,temp_zone_2,temp_update,Qsolar_1,QconvInt_1,QradInt_1,Qvent_1,Qconduc_1,Qheating_1,Qsolar_2,QconvInt_2,QradInt_2,Qvent_2,Qconduc_2,Qheating_2,temp_amb,temp_aggregate_1,temp_aggregate_2,temp_wall_1,temp_wall_2,_Tamb,_Tz_1,_TEW_1,_TIW_1,_T1_1,_T2_1,_Taeq_1,_Tvent_1,_Qheating_1,_Qinfvent_1,_Qenvelope_1,_Qsolar_1,_Qint_people_1,_Qint_lighting_1,_Qint_appliances_1,_Tz_2,_TEW_2,_TIW_2,_T1_2,_T2_2,_Taeq_2,_Tvent_2,_Qheating_2,_Qinfvent_2,_Qenvelope_2,_Qsolar_2,_Qint_people_2,_Qint_lighting_2,_Qint_appliances_2
8.0,967.0,25485.85237203621,34947.74246212922,-0.0,0.0,10556.319351953194,0.0,58130.070535268824,0.0,0.0,0.0,58130.070535268824,0.05117689830130978,0.5,0.8,0.0,0.0,0.0,"[2.0, 2.0, 2.0, 2.0, 2.0, 2.0, 2.0, 2.0]",20.0,0.0,0.0,1.0946031042211108,74.86463132059427,1.6679173438912216,-1247.6837248037693,-1753.6804361482152,2923.771012184107,0.0,0.0,0.0,0.0,0.0,0.0,-9.4,19.165290701529738,0.0,19.0,0.0,-9.4,20.0,18.0,20.0,20.0,20.0,-10.72,-9.4,8969.91,-870.79,-819.76,1.8,0.0,0.0,55.0,0.0,0.0,0.0,0.0,0.0,0.0,0.0,0.0,0.0,0.0,0.0,0.0,0.0,0.0
9.0,1832.0,1834.1282800330248,0.0,-0.0,7.042361367140277,0.0,0.0,11616.405960667455,0.0,11616.405960667455,0.0,0.0,0.05117689830130978,0.4506105188747132,0.8,0.0,0.0,0.0,"[2.0, 2.0, 2.0, 2.0, 2.0, 2.0, 2.0, 2.0]",20.0,0.0,0.0,33.49794443942408,96.64343315931264,2.153129662114122,-1213.7331472580886,-1653.1616438976428,2732.852406550601,0.0,0.0,0.0,0.0,0.0,0.0,-8.6,19.213536337942333,0.0,19.06618443981127,0.0,-8.6,20.0,18.08,20.05,19.33,20.19,-9.71,-8.6,0.0,-847.1,-797.45,55.23,0.0,0.0,71.0,0.0,0.0,0.0,0.0,0.0,0.0,0.0,0.0,0.0,0.0,0.0,0.0,0.0,0.0
10.0,5727.0,17328.176377833093,11888.185215114521,-0.0,373.6497191705939,0.0,0.0,21814.13241544383,0.0,0.0,0.0,21814.13241544383,0.05117689830130978,0.4506105188747132,0.7999999999999999,0.0,0.0,0.0,"[2.0, 2.0, 2.0, 2.0, 2.0, 2.0, 2.0, 2.0]",20.0,0.0,0.0,90.14282414463709,62.61405528631523,1.394985414890837,-1171.2949253259876,-1559.9967386791907,10814.853667816978,0.0,0.0,0.0,0.0,0.0,0.0,-7.6,19.258164581468524,0.0,19.126767732311176,0.0,-7.6,20.0,18.15,20.1,19.36,20.22,-8.61,-7.6,1055.54,-817.48,-769.57,148.62,0.0,0.0,46.0,0.0,0.0,0.0,0.0,0.0,0.0,0.0,0.0,0.0,0.0,0.0,0.0,0.0,0.0
11.0,3875.0,39315.400424711544,20305.668041179935,-0.0,1061.8446185919502,-16000.0,0.0,38808.36796619448,0.0,0.0,0.0,38808.36796619447,0.7045102316346431,0.4506105188747132,0.7999999999999999,0.0,0.0,0.0,"[2.0, 2.0, 2.0, 2.0, 2.0, 2.0, 2.0, 2.0]",24.0,0.0,0.0,121.34070545080435,99.36578338915241,2.213781201891984,-1307.0972355087106,-6758.628746248372,7836.318861221003,0.0,0.0,0.0,0.0,0.0,0.0,-6.8,20.736989057975876,0.0,19.596731157958697,0.0,-6.8,24.0,18.42,20.77,21.99,22.9,-7.68,-6.8,7969.19,-912.26,-858.8,200.06,0.0,0.0,73.0,0.0,0.0,0.0,0.0,0.0,0.0,0.0,0.0,0.0,0.0,0.0,0.0,0.0,0.0
12.0,3660.0,0.0,0.0,-0.0,2495.195903424032,1164.8040965759678,0.0,32172.740017612297,0.0,32172.740017612297,0.0,0.0,0.6549862479366853,0.3138216582556133,0.7999999999999999,0.0,0.0,0.0,"[2.0, 2.0, 2.0, 2.0, 2.0, 2.0, 2.0, 2.0]",24.0,0.0,0.0,171.5327568304589,96.64343315931264,2.153129662114122,-1281.63430234945,-6123.679571641261,7126.088147874151,0.0,0.0,0.0,0.0,0.0,0.0,-6.2,21.04473475155625,0.0,20.062832568483785,0.0,-6.2,24.0,18.72,21.41,21.91,22.96,-6.96,-6.2,0.0,-894.49,-842.07,282.82,0.0,0.0,71.0,0.0,0.0,0.0,0.0,0.0,0.0,0.0,0.0,0.0,0.0,0.0,0.0,0.0,0.0
13.0,4291.0,0.0,3397.2152525320303,-0.0,436.5387010611915,7251.676551470839,0.0,6719.493972216767,0.0,0.0,0.0,6719.493972216767,0.3466666666666667,0.3138216582556133,0.7986690328305235,0.0,0.0,0.0,"[2.0, 2.0, 2.0, 2.0, 2.0, 2.0, 2.0, 2.0]",24.0,0.0,0.0,90.49207604114501,35.390552987917296,0.7884700171122129,-1277.3904801562403,-5565.65956545922,0.0,0.0,0.0,0.0,0.0,0.0,0.0,-6.1,21.31558000970869,0.0,20.46861456667147,0.0,-6.1,24.0,19.0,21.94,22.03,23.24,-7.05,-6.1,3362.12,-891.52,-839.28,149.2,0.0,0.0,26.0,0.0,0.0,0.0,0.0,0.0,0.0,0.0,0.0,0.0,0.0,0.0,0.0,0.0,0.0
14.0,3590.0,15078.8359217313,11418.14754834127,-0.0,4.705806218628434,0.0,0.0,22040.16752433579,0.0,0.0,0.0,22040.16752433579,0.3466666666666667,0.3138216582556133,0.7986690328305235,0.0,0.0,0.0,"[2.0, 2.0, 2.0, 2.0, 2.0, 2.0, 2.0, 2.0]",20.74,0.0,0.0,29.622677547194563,127.95046080247025,2.850622369559539,-1160.3898613672088,-776.1368964054908,243.4758352207501,0.0,0.0,0.0,0.0,0.0,0.0,-6.6,20.381509123802044,0.0,20.480992373809045,0.0,-6.6,20.74,19.1,21.86,20.03,21.28,-7.71,-6.6,0.0,-809.87,-762.41,48.84,0.0,0.0,94.0,0.0,0.0,0.0,0.0,0.0,0.0,0.0,0.0,0.0,0.0,0.0,0.0,0.0,0.0
15.0,6763.0,59962.19084297774,33038.42588876285,-0.0,0.0,-16000.0,0.0,46124.68136265012,19304.77,0.0,0.0,61568.49736265011,1.0,0.3138216582556133,0.7986690328305235,15443.816,3860.954,19304.77,"[2.0, 2.0, 2.0, 2.0, 2.0, 2.0, 2.0, 2.0]",20.0,0.0,0.0,3.290337162061425,108.89400919359169,2.4260615911145034,-1158.5634587463574,173.60829687623047,9112.91670066892,0.0,0.0,0.0,0.0,0.0,0.0,-7.3,20.099381795717076,0.0,20.364388785069806,0.0,-7.3,20.0,19.13,21.6,19.73,20.89,-8.48,-7.3,5612.07,-808.59,-761.21,5.42,0.0,0.0,80.0,0.0,0.0,0.0,0.0,0.0,0.0,0.0,0.0,0.0,0.0,0.0,0.0,0.0,0.0
16.0,5601.0,12527.777935064394,6864.139045389073,-0.0,0.0,0.0,0.0,12857.049994076535,0.0,0.0,0.0,12857.049994076533,1.0,0.3138216582556133,0.7926796805678793,0.0,0.0,0.0,"[2.0, 2.0, 2.0, 2.0, 2.0, 2.0, 2.0, 2.0]",24.0,0.0,0.0,0.0,113.12081612939559,55.223226967743905,-1324.0725242815513,-5240.299692708913,6399.182287633936,0.0,0.0,0.0,0.0,0.0,0.0,-7.2,21.474165736920085,0.0,20.66778216877706,0.0,-7.2,24.0,19.34,22.0,22.38,23.46,-8.36,-7.2,0.0,-924.11,-869.95,0.0,106.0,41.0,23.0,0.0,0.0,0.0,0.0,0.0,0.0,0.0,0.0,0.0,0.0,0.0,0.0,0.0,0.0
17.0,6229.0,3268.7008608235396,6469.688543890038,-0.0,0.0,9446.331187370617,0.0,12241.569515574298,0.0,0.0,0.0,12241.569515574298,0.5983702726458071,0.3138216582556133,0.7926796805678793,0.0,0.0,0.0,"[2.0, 2.0, 2.0, 2.0, 2.0, 2.0, 2.0, 2.0]",24.0,0.0,0.0,0.0,295.733203915228,119.84744260105649,-1315.5848798951308,-4787.50766480317,0.0,0.0,0.0,0.0,0.0,0.0,0.0,-7.0,21.693787971646188,0.0,20.994100079017066,0.0,-7.0,24.0,19.57,22.41,22.28,23.42,-8.15,-7.0,0.0,-918.18,-864.37,0.0,92.0,160.0,152.0,0.0,0.0,0.0,0.0,0.0,0.0,0.0,0.0,0.0,0.0,0.0,0.0,0.0,0.0
18.0,6532.0,0.0,7541.668812629384,-0.0,0.0,14073.668812629385,0.0,14341.80546416646,0.0,0.0,0.0,14341.805464166462,0.0,0.3138216582556133,0.7826974267968057,0.0,0.0,0.0,"[2.0, 2.0, 2.0, 2.0, 2.0, 2.0, 2.0, 2.0]",21.24,0.0,0.0,0.0,1230.7172262741524,111.62915896115611,-1194.0684153698967,-737.4436951704487,992.6945859369117,0.0,0.0,0.0,0.0,0.0,0.0,-6.9,20.894325025130403,0.0,20.99212275181406,0.0,-6.9,21.24,19.67,22.32,20.58,21.76,-8.06,-6.9,0.0,-833.37,-784.53,0.0,142.0,80.0,821.0,0.0,0.0,0.0,0.0,0.0,0.0,0.0,0.0,0.0,0.0,0.0,0.0,0.0,0.0
19.0,5681.0,5709.547738693467,0.0,-0.0,0.0,0.0,0.0,0.0,0.0,0.0,0.0,0.0,0.0,0.3138216582556133,0.7787045252883762,0.0,0.0,0.0,"[2.0, 2.0, 2.0, 2.0, 2.0, 2.0, 2.0, 2.0]",21.43,0.0,0.0,0.0,515.8853685546405,11.493466787904964,-1198.0037766699395,-1056.3308775512362,0.0,0.0,0.0,0.0,0.0,0.0,0.0,-6.8,20.932346266635754,0.0,20.94799697341816,0.0,-6.8,21.43,19.72,22.17,20.77,21.86,-7.94,-6.8,0.0,-836.12,-787.12,0.0,0.0,0.0,379.0,0.0,0.0,0.0,0.0,0.0,0.0,0.0,0.0,0.0,0.0,0.0,0.0,0.0,0.0
20.0,5499.0,21607.035175879395,0.0,-0.0,0.0,-16000.0,0.0,0.0,0.0,0.0,0.0,0.0,0.6533333333333333,0.3138216582556133,0.7787045252883762,0.0,0.0,0.0,"[1.8034134515169349, 1.7213731861458683, 0.8147554682780758, 1.0915951256995982, 0.696846283841392, 0.7339491073827276, 1.2707657604583176, 0.9404463357966719]",20.59,0.0,0.0,0.0,288.569124363018,6.429063216453437,-1153.9367588629561,46.601285444684024,0.0,0.0,0.0,0.0,0.0,0.0,0.0,-6.6,20.628644508022123,0.0,20.843976069928928,0.0,-6.6,20.59,19.74,21.95,20.28,21.3,-7.74,-6.6,0.0,-805.36,-758.17,0.0,0.0,0.0,212.0,0.0,0.0,0.0,0.0,0.0,0.0,0.0,0.0,0.0,0.0,0.0,0.0,0.0,0.0
21.0,5174.0,18979.983328416307,13711.083411774229,-0.0,0.0,0.0,0.0,26596.876819401346,0.0,0.0,0.0,26596.876819401346,0.6533333333333333,0.3138216582556133,0.7560780834072759,0.0,0.0,0.0,"[1.8034134515169349, 1.7213731861458683, 0.8147554682780758, 1.0915951256995982, 0.696846283841392, 0.7339491073827276, 1.2707657604583176, 0.9404463357966719]",20.2,0.0,0.0,0.0,245.79956943632445,46.97461755795458,-1132.9556647740665,460.32556828754036,7814.962707873973,0.0,0.0,0.0,0.0,0.0,0.0,-6.5,20.434783726182207,0.0,20.710880422655208,0.0,-6.5,20.2,19.73,21.69,20.09,21.02,-7.67,-6.5,1258.21,-790.72,-744.38,0.0,135.0,5.0,109.0,0.0,0.0,0.0,0.0,0.0,0.0,0.0,0.0,0.0,0.0,0.0,0.0,0.0,0.0
22.0,5225.0,21814.833433993266,7990.963348455955,-0.0,0.0,-8489.795918367347,0.0,15653.299630636384,0.0,0.0,0.0,15653.299630636384,1.0,0.3138216582556133,0.7560780834072759,0.0,0.0,0.0,"[1.8034134515169349, 1.7213731861458683, 0.8147554682780758, 1.0915951256995982, 0.696846283841392, 0.7339491073827276, 1.2707657604583176, 0.9404463357966719]",23.8,0.0,0.0,0.0,389.51100525365666,66.80767106531566,-1277.5353409692702,-4447.089189652619,0.0,0.0,0.0,0.0,0.0,0.0,0.0,-6.3,21.661977543859237,0.0,20.968240001646972,0.0,-6.3,23.8,19.89,22.04,22.47,23.34,-7.55,-6.3,703.57,-891.63,-839.37,0.0,157.0,24.0,201.0,0.0,0.0,0.0,0.0,0.0,0.0,0.0,0.0,0.0,0.0,0.0,0.0,0.0,0.0
23.0,3484.0,9468.768317482469,5937.424475895057,-0.0,0.0,0.0,0.0,24527.71187710971,0.0,12840.435250253282,0.0,11687.276626856426,1.0,0.25922797096712147,0.7560780834072759,0.0,0.0,0.0,"[1.8034134515169349, 1.7213731861458683, 0.8147554682780758, 1.0915951256995982, 0.696846283841392, 0.7339491073827276, 1.2707657604583176, 0.9404463357966719]",21.24,0.0,0.0,0.0,313.9299659778413,43.001941702504574,-1164.714619627704,-686.3046514749099,6768.665071571841,0.0,0.0,0.0,0.0,0.0,0.0,-6.2,20.927115408684788,0.0,20.979494616759872,0.0,-6.2,21.24,19.96,22.0,20.68,21.58,-7.41,-6.2,5438.36,-812.89,-765.25,0.0,80.0,24.0,186.0,0.0,0.0,0.0,0.0,0.0,0.0,0.0,0.0,0.0,0.0,0.0,0.0,0.0,0.0
24.0,1580.0,0.0,6129.759022666016,-0.0,0.0,7709.759022666016,0.0,12124.30645165817,0.0,0.0,0.0,12124.30645165817,0.6722041231859688,0.25922797096712147,0.7560780834072759,0.0,0.0,0.0,"[1.8034134515169349, 1.7213731861458683, 0.8147554682780758, 1.0915951256995982, 0.696846283841392, 0.7339491073827276, 1.2707657604583176, 0.9404463357966719]",23.8,0.0,0.0,0.0,224.73717555282707,48.61220913195687,-1269.04769658285,-4089.987631868422,0.0,0.0,0.0,0.0,0.0,0.0,0.0,-6.1,21.83516284618885,0.0,21.217096909138505,0.0,-6.1,23.8,20.12,22.31,22.5,23.39,-7.34,-6.1,60.64,-885.7,-833.8,0.0,80.0,38.0,119.0,0.0,0.0,0.0,0.0,0.0,0.0,0.0,0.0,0.0,0.0,0.0,0.0,0.0,0.0
25.0,1632.0,10810.331362518247,9124.279705705656,-0.0,0.0,0.0,0.0,18134.2785702168,0.0,0.0,0.0,18134.2785702168,0.6722041231859688,0.25922797096712147,0.7560780834072759,0.0,0.0,0.0,"[1.8034134515169349, 1.7213731861458683, 0.8147554682780758, 1.0915951256995982, 0.696846283841392, 0.7339491073827276, 1.2707657604583176, 0.9404463357966719]",21.33,0.0,0.0,0.0,230.18187601250662,38.42275044927596,-1160.00935038809,-482.65250643445063,6464.7142375185385,0.0,0.0,0.0,0.0,0.0,0.0,-6.0,21.11497937750459,0.0,21.210304908892425,0.0,-6.0,21.33,20.18,22.24,20.85,21.77,-7.14,-6.0,5752.74,-809.6,-762.16,0.0,80.0,19.0,125.0,0.0,0.0,0.0,0.0,0.0,0.0,0.0,0.0,0.0,0.0,0.0,0.0,0.0,0.0
26.0,1279.0,8727.680802775281,10687.254563898061,-0.0,0.0,3282.2121651366556,0.0,21546.30678969509,0.0,0.0,0.0,21546.30678969509,0.5326542862328797,0.25922797096712147,0.7560780834072758,0.0,0.0,0.0,"[1.8034134515169349, 1.7213731861458683, 0.8147554682780758, 1.0915951256995982, 0.696846283841392, 0.7339491073827276, 1.2707657604583176, 0.9404463357966719]",23.8,0.0,0.0,0.0,175.73487141571078,26.89895789148206,-1252.0724078100095,-3788.274308660472,4839.249240204437,0.0,0.0,0.0,0.0,0.0,0.0,-5.7,21.981301497225637,0.0,21.42342762288235,0.0,-5.7,23.8,20.33,22.52,22.59,23.49,-6.82,-5.7,4334.84,-873.85,-822.64,0.0,80.0,0.0,87.0,0.0,0.0,0.0,0.0,0.0,0.0,0.0,0.0,0.0,0.0,0.0,0.0,0.0,0.0
27.0,673.0,676.3819095477387,0.0,-0.0,0.0,0.0,0.0,11683.293279622165,0.0,11683.293279622167,0.0,0.0,0.5326542862328797,0.20955410498233332,0.7560780834072758,0.0,0.0,0.0,"[1.8034134515169349, 1.7213731861458683, 0.8147554682780758, 1.0915951256995982, 0.696846283841392, 0.7339491073827276, 1.2707657604583176, 0.9404463357966719]",23.8,0.0,0.0,0.0,92.70318940559713,25.049085928257252,-1243.5847634235895,-3477.748195882015,0.0,0.0,0.0,0.0,0.0,0.0,0.0,-5.5,22.131870528688513,0.0,21.64648086092097,0.0,-5.5,23.8,20.5,22.8,22.53,23.48,-6.59,-5.5,2689.11,-867.93,-817.07,0.0,80.0,0.0,26.0,0.0,0.0,0.0,0.0,0.0,0.0,0.0,0.0,0.0,0.0,0.0,0.0,0.0,0.0
28.0,721.0,0.0,10847.028812197339,-0.0,0.0,11568.028812197339,0.0,22178.647821471932,0.0,0.0,0.0,22178.64782147193,0.04081632653061193,0.20955410498233332,0.7560780834072758,0.0,0.0,0.0,"[1.8034134515169349, 1.7213731861458683, 0.8147554682780758, 1.0915951256995982, 0.696846283841392, 0.7339491073827276, 1.2707657604583176, 0.9404463357966719]",21.57,0.0,0.0,0.0,215.8537169080867,35.390173460382826,-1144.5028680442929,-247.26519320888804,963.1360531571734,0.0,0.0,0.0,0.0,0.0,0.0,-5.4,21.463586347788503,0.0,21.612578695520213,0.0,-5.4,21.57,20.55,22.68,21.16,22.12,-6.47,-5.4,0.0,-798.78,-751.97,0.0,80.0,14.0,115.0,0.0,0.0,0.0,0.0,0.0,0.0,0.0,0.0,0.0,0.0,0.0,0.0,0.0,0.0
29.0,960.0,0.0,0.0,-0.0,0.0,959.9999999999927,0.0,8519.125491844794,0.0,8519.125491844808,0.0,0.0,0.0,0.17333333333333328,0.7560780834072758,0.0,0.0,0.0,"[1.8034134515169349, 1.7213731861458683, 0.8147554682780758, 1.0915951256995982, 0.696846283841392, 0.7339491073827276, 1.2707657604583176, 0.9404463357966719]",21.48,0.0,0.0,0.0,141.7771343382355,41.87988821661412,-1132.3203692074885,-200.34179207933394,0.0,0.0,0.0,0.0,0.0,0.0,0.0,-5.2,21.399137422399313,0.0,21.54140679319936,0.0,-5.2,21.48,20.57,22.52,21.22,22.12,-6.27,-5.2,5162.84,-790.28,-743.96,0.0,80.0,29.0,59.0,0.0,0.0,0.0,0.0,0.0,0.0,0.0,0.0,0.0,0.0,0.0,0.0,0.0,0.0
30.0,3084.0,60498.27764823528,41111.7862599941,-0.0,0.0,-16000.0,0.0,5236.0323071664925,0.0,-80000.0,0.0,85236.03230716649,0.6533333333333333,0.5,0.7560780834072758,0.0,0.0,0.0,"[1.8034134515169349, 1.7213731861458683, 0.8147554682780758, 1.0915951256995982, 0.696846283841392, 0.7339491073827276, 1.2707657604583176, 0.9404463357966719]",20.92,0.0,0.0,0.0,1159.7211979117517,110.74971163437712,-1104.3640570670977,474.7213917278291,0.0,0.0,0.0,0.0,0.0,0.0,0.0,-5.1,21.167636277642984,0.0,21.426773051462703,0.0,-5.1,20.92,20.56,22.3,20.87,21.7,-6.18,-5.1,0.0,-770.76,-725.6,0.0,169.0,67.0,756.0,0.0,0.0,0.0,0.0,0.0,0.0,0.0,0.0,0.0,0.0,0.0,0.0,0.0,0.0
31.0,1400.0,5888.527769700228,4459.085130851728,-0.0,0.0,0.0,0.0,9287.418862811188,0.0,0.0,0.0,9287.418862811188,0.6533333333333333,0.5,0.7560780834072758,0.0,0.0,0.0,"[1.8034134515169349, 1.7213731861458683, 0.8147554682780758, 1.0915951256995982, 0.696846283841392, 0.7339491073827276, 1.2707657604583176, 0.9404463357966719]",21.23,0.0,0.0,0.0,250.16965796317248,84.54824645034047,-1113.18752356136,-90.35557623596225,0.0,0.0,0.0,0.0,0.0,0.0,0.0,-5.0,21.201429177494752,0.0,21.33151725709665,0.0,-5.0,21.23,20.54,22.12,21.0,21.72,-6.06,-5.0,4767.72,-776.92,-731.39,0.0,137.0,73.0,104.0,0.0,0.0,0.0,0.0,0.0,0.0,0.0,0.0,0.0,0.0,0.0,0.0,0.0,0.0
32.0,1012.0,0.0,3272.6367770719044,-0.0,0.0,4284.636777071904,0.0,6878.672660606786,0.0,0.0,0.0,6878.672660606786,0.47116340233537823,0.5,0.7560780834072758,0.0,0.0,0.0,"[1.408219303581781, 1.3881628101518473, 0.8147554682780758, 0.9194461651135661, 0.696846283841392, 0.7339491073827276, 1.2707657604583176, 0.9404463357966719]",20.81,0.0,0.0,1.0945238934892365,156.46349742026592,82.36479101833741,-1086.707375615292,408.33189378418876,0.0,0.0,0.0,0.0,0.0,0.0,0.0,-4.8,21.019139869054154,0.0,21.235328113405252,0.0,-4.8,20.81,20.53,21.94,20.8,21.47,-5.87,-4.8,0.0,-758.44,-714.0,1.8,114.0,85.0,46.0,0.0,0.0,0.0,0.0,0.0,0.0,0.0,0.0,0.0,0.0,0.0,0.0,0.0,0.0
33.0,802.0,0.0,0.0,-0.0,6.685424768058948,4862.308575231942,0.0,16196.991812983964,20334.97,32464.967812983967,0.0,0.0,0.2644325955653127,0.36196867426452395,0.7560780834072758,16267.976000000002,4066.9940000000006,20334.97,"[1.408219303581781, 1.3881628101518473, 0.8147554682780758, 0.9194461651135661, 0.696846283841392, 0.7339491073827276, 1.2707657604583176, 0.9404463357966719]",20.59,0.0,0.0,33.473627286733084,393.3079674163279,68.83949764787404,-1035.1438025137336,587.3018959608751,0.0,0.0,0.0,0.0,0.0,0.0,0.0,-3.8,20.890181967309257,0.0,21.128338776469775,0.0,-3.8,20.59,20.5,21.76,20.68,21.29,-4.62,-3.8,3839.1,-722.45,-680.12,55.19,109.0,53.0,226.0,0.0,0.0,0.0,0.0,0.0,0.0,0.0,0.0,0.0,0.0,0.0,0.0,0.0,0.0
34.0,4011.0,9643.89082244973,5029.735143538292,-0.0,116.4783587925412,-671.414583591731,0.0,11578.823561241257,0.0,0.0,0.0,11578.823561241255,0.29184869106197503,0.36196867426452395,0.7560780834072758,0.0,0.0,0.0,"[1.408219303581781, 1.3881628101518473, 0.8147554682780758, 0.9194461651135661, 0.696846283841392, 0.7339491073827276, 1.2707657604583176, 0.9404463357966719]",20.61,0.0,0.0,64.93338646151477,1360.1005029870648,78.08885746399811,-989.4032782714515,433.289108442094,4811.8332386921265,0.0,0.0,0.0,0.0,0.0,0.0,-2.7,20.836987566256923,0.0,21.032141538651313,0.0,-2.7,20.61,20.46,21.6,20.66,21.21,-3.39,-2.7,0.0,-690.53,-650.06,107.06,155.0,6.0,917.0,0.0,0.0,0.0,0.0,0.0,0.0,0.0,0.0,0.0,0.0,0.0,0.0,0.0,0.0
35.0,3670.0,0.0,3773.1430210466265,-0.0,578.8618072689733,6864.281213777653,0.0,9045.760546039965,0.0,0.0,0.0,9045.760546039963,0.0,0.36196867426452395,0.7560780834072758,0.0,0.0,0.0,"[1.408219303581781, 1.3881628101518473, 0.8147554682780758, 0.9194461651135661, 0.696846283841392, 0.7339491073827276, 1.2707657604583176, 0.9404463357966719]",23.41,0.0,0.0,99.12880083229989,123.86693545771055,2.7596450598927467,-1065.548183125266,-3393.764866668577,4228.254842558408,0.0,0.0,0.0,0.0,0.0,0.0,-1.7,21.774902096285068,0.0,21.215607667665783,0.0,-1.7,23.41,20.56,21.87,22.36,22.86,-2.22,-1.7,2345.87,-743.67,-700.09,163.44,0.0,0.0,91.0,0.0,0.0,0.0,0.0,0.0,0.0,0.0,0.0,0.0,0.0,0.0,0.0,0.0,0.0
36.0,3726.0,26489.789414679002,7454.609468311008,-0.0,823.2690007053959,-16000.0,0.0,18369.2045652547,0.0,0.0,0.0,18369.204565254695,0.6533333333333333,0.36196867426452395,0.7560780834072758,0.0,0.0,0.0,"[1.408219303581781, 1.3881628101518473, 0.8147554682780758, 0.9194461651135661, 0.696846283841392, 0.7339491073827276, 1.2707657604583176, 0.9404463357966719]",23.41,0.0,0.0,108.69247456941935,138.83986172182938,3.093228528670989,-1035.8414277727952,-3082.6426725094393,3862.084729412263,0.0,0.0,0.0,0.0,0.0,0.0,-1.0,21.925661611011773,0.0,21.44588886355429,0.0,-1.0,23.41,20.7,22.19,22.38,22.98,-1.8,-1.0,0.0,-722.94,-680.58,179.21,0.0,0.0,102.0,0.0,0.0,0.0,0.0,0.0,0.0,0.0,0.0,0.0,0.0,0.0,0.0,0.0,0.0
37.0,3513.0,0.0,5812.9103671905095,-0.0,236.41870074560683,9089.491666444903,0.0,14490.076215024083,0.0,0.0,0.0,14490.076215024083,0.2668753543178188,0.36196867426452395,0.7560780834072758,0.0,0.0,0.0,"[1.408219303581781, 1.3881628101518473, 0.8147554682780758, 0.9194461651135661, 0.696846283841392, 0.7339491073827276, 1.2707657604583176, 0.9404463357966719]",23.41,0.0,0.0,76.87009282603792,310.3479262017364,6.914275534676336,-1023.109961193165,-2812.1636526244683,2344.62511568696,0.0,0.0,0.0,0.0,0.0,0.0,-0.7,22.056854685909133,0.0,21.643998223526285,0.0,-0.7,23.41,20.83,22.46,22.43,23.11,-1.68,-0.7,338.7,-714.06,-672.21,126.74,0.0,0.0,228.0,0.0,0.0,0.0,0.0,0.0,0.0,0.0,0.0,0.0,0.0,0.0,0.0,0.0,0.0
38.0,3455.0,0.0,1582.9230499053747,-0.0,0.22927292869037352,5037.693776976685,0.0,3855.2732079212083,0.0,0.0,0.0,3855.2732079212083,0.05268769373207541,0.36196867426452395,0.7560780834072758,0.0,0.0,0.0,"[1.408219303581781, 1.3881628101518473, 0.8147554682780758, 0.9194461651135661, 0.696846283841392, 0.7339491073827276, 1.2707657604583176, 0.9404463357966719]",22.88,0.0,0.0,18.91370749327213,76.22580643551417,1.6982431137801528,-1026.0695458520752,-1883.954526229415,0.0,0.0,0.0,0.0,0.0,0.0,0.0,-1.3,21.977128609597216,0.0,21.754080106407734,0.0,-1.3,22.88,20.92,22.59,22.12,22.83,-2.38,-1.3,4394.05,-716.12,-674.15,31.18,0.0,0.0,56.0,0.0,0.0,0.0,0.0,0.0,0.0,0.0,0.0,0.0,0.0,0.0,0.0,0.0,0.0
39.0,2899.0,18993.96984924623,0.0,-0.0,0.0,-16000.0,0.0,10596.970132171524,0.0,10596.970132171526,0.0,0.0,0.7060210270654087,0.3169135291447471,0.7161490683229812,0.0,0.0,0.0,"[1.408219303581781, 1.3881628101518473, 0.8147554682780758, 0.9194461651135661, 0.696846283841392, 0.7339491073827276, 1.2707657604583176, 0.9404463357966719]",21.51,0.0,0.0,2.1857252721944502,119.78341011295086,2.668667750225954,-993.6159930939154,49.236068646082636,4724.683230267915,0.0,0.0,0.0,0.0,0.0,0.0,-1.9,21.55019517028849,0.0,21.703984626277048,0.0,-1.9,21.51,20.94,22.47,21.31,22.02,-3.08,-1.9,3335.19,-693.47,-652.83,3.6,0.0,0.0,88.0,0.0,0.0,0.0,0.0,0.0,0.0,0.0,0.0,0.0,0.0,0.0,0.0,0.0,0.0
40.0,3757.0,12741.531707512298,1721.3389975153577,-0.0,0.0,-7199.485051459378,0.0,4061.1104318039593,0.0,0.0,0.0,4061.1104318039593,1.0,0.3169135291447471,0.7161490683229812,0.0,0.0,0.0,"[1.408219303581781, 1.3881628101518473, 0.8147554682780758, 0.9194461651135661, 0.696846283841392, 0.7339491073827276, 1.2707657604583176, 0.9404463357966719]",23.41,0.0,0.0,0.0,42.196428562516786,0.940098866556867,-1082.5234718981064,-2532.8468897019566,0.0,0.0,0.0,0.0,0.0,0.0,0.0,-2.1,22.1932786523162,0.0,21.835181310096807,0.0,-2.1,23.41,21.03,22.64,22.61,23.29,-3.33,-2.1,0.0,-755.52,-711.25,0.0,0.0,0.0,31.0,0.0,0.0,0.0,0.0,0.0,0.0,0.0,0.0,0.0,0.0,0.0,0.0,0.0,0.0
41.0,5692.0,0.0,1049.0896557100418,-0.0,0.0,6741.089655710042,0.0,2455.087415821337,0.0,0.0,0.0,2455.087415821337,0.7133890452504235,0.3169135291447471,0.710159716060337,0.0,0.0,0.0,"[1.408219303581781, 1.3881628101518473, 0.8147554682780758, 0.9194461651135661, 0.696846283841392, 0.7339491073827276, 1.2707657604583176, 0.9404463357966719]",21.67,0.0,0.0,0.0,111.61635942343149,2.4867131308923653,-1017.4415117598793,-40.78776332831609,0.0,0.0,0.0,0.0,0.0,0.0,0.0,-2.3,21.668236585513785,0.0,21.801187890758726,0.0,-2.3,21.67,21.05,22.55,21.44,22.13,-3.51,-2.3,0.0,-710.1,-668.49,0.0,0.0,0.0,82.0,0.0,0.0,0.0,0.0,0.0,0.0,0.0,0.0,0.0,0.0,0.0,0.0,0.0,0.0
42.0,8568.0,7506.24070352887,0.0,-0.0,0.0,1099.2904999887749,0.0,2700.685598414781,0.0,2700.685598414781,0.0,0.0,0.666650503584234,0.30543102234876585,0.710159716060337,0.0,0.0,0.0,"[1.408219303581781, 1.3881628101518473, 0.8147554682780758, 0.9194461651135661, 0.696846283841392, 0.7339491073827276, 1.2707657604583176, 0.9404463357966719]",21.22,0.0,0.0,0.0,115.69988476819118,2.5776904405591576,-1006.4823899201804,499.1160460037297,0.0,0.0,0.0,0.0,0.0,0.0,0.0,-2.5,21.47194181971641,0.0,21.698880180923673,0.0,-2.5,21.22,21.03,22.37,21.22,21.87,-3.85,-2.5,0.0,-702.45,-661.29,0.0,0.0,0.0,85.0,0.0,0.0,0.0,0.0,0.0,0.0,0.0,0.0,0.0,0.0,0.0,0.0,0.0,0.0
43.0,6343.0,7266.179739408711,886.8488407116677,-0.0,0.0,0.0,0.0,2041.5918451061827,0.0,0.0,0.0,2041.5918451061825,0.666650503584234,0.30543102234876585,0.646938775510204,0.0,0.0,0.0,"[1.408219303581781, 1.3881628101518473, 0.8147554682780758, 0.9194461651135661, 0.696846283841392, 0.7339491073827276, 1.2707657604583176, 0.9404463357966719]",21.03,0.0,0.0,0.0,13.611751149198955,0.3032576988893121,-1006.9538995432036,630.5359150782409,0.0,0.0,0.0,0.0,0.0,0.0,0.0,-2.7,21.346851496867394,0.0,21.586233821064056,0.0,-2.7,21.03,20.99,22.18,21.11,21.69,-4.08,-2.7,0.0,-702.78,-661.6,0.0,0.0,0.0,10.0,0.0,0.0,0.0,0.0,0.0,0.0,0.0,0.0,0.0,0.0,0.0,0.0,0.0,0.0
44.0,5507.0,0.0,0.0,-0.0,0.0,5507.0,0.0,0.0,0.0,0.0,0.0,0.0,0.198368190659064,0.30543102234876585,0.6469387755102036,0.0,0.0,0.0,"[1.1484015422373588, 0.42551392940660193, 0.032768592226993576, 0.39851245469108676, 0.696846283841392, 0.7339491073827276, 0.8265465013526985, 0.8799095530944463]",20.85,0.0,0.0,0.0,351.89958760455426,69.38536150587483,-1007.9756065926787,739.701286907393,0.0,0.0,0.0,0.0,0.0,0.0,0.0,-2.9,21.223875962929203,0.0,21.472475544059996,0.0,-2.9,20.85,20.95,21.99,21.0,21.53,-4.2,-2.9,0.0,-703.49,-662.27,0.0,167.0,25.0,168.0,0.0,0.0,0.0,0.0,0.0,0.0,0.0,0.0,0.0,0.0,0.0,0.0,0.0,0.0
45.0,4919.0,6810.307454083486,1857.2559168130679,-0.0,0.0,0.0,0.0,4204.71778650764,0.0,0.0,0.0,4204.717786507639,0.198368190659064,0.30543102234876585,0.6469387755102036,0.0,0.0,0.0,"[1.1484015422373588, 0.42551392940660193, 0.032768592226993576, 0.39851245469108676, 0.696846283841392, 0.7339491073827276, 0.8265465013526985, 0.8799095530944463]",20.92,0.0,0.0,0.0,652.1461616376744,75.11693201488283,-1019.5328178880263,507.764541199412,0.0,0.0,0.0,0.0,0.0,0.0,0.0,-3.1,21.18379921343818,0.0,21.375754002951876,0.0,-3.1,20.92,20.91,21.84,21.02,21.48,-4.41,-3.1,1266.96,-711.56,-669.86,0.0,107.0,55.0,417.0,0.0,0.0,0.0,0.0,0.0,0.0,0.0,0.0,0.0,0.0,0.0,0.0,0.0,0.0
46.0,3773.0,24537.44764852459,4641.760410281969,-0.0,0.0,-16000.0,0.0,10420.168974408904,0.0,0.0,0.0,10420.168974408904,0.8517015239923973,0.30543102234876585,0.6469387755102036,0.0,0.0,0.0,"[1.1484015422373588, 0.42551392940660193, 0.032768592226993576, 0.39851245469108676, 0.696846283841392, 0.7339491073827276, 0.8265465013526985, 0.8799095530944463]",21.03,0.0,0.0,0.0,487.87381750549963,79.75677480788931,-1032.3701201571514,254.9710983796478,0.0,0.0,0.0,0.0,0.0,0.0,0.0,-3.3,21.163823880776032,0.0,21.297467705629025,0.0,-3.3,21.03,20.87,21.72,21.04,21.44,-4.7,-3.3,0.0,-720.52,-678.29,0.0,134.0,56.0,282.0,0.0,0.0,0.0,0.0,0.0,0.0,0.0,0.0,0.0,0.0,0.0,0.0,0.0,0.0
47.0,2796.0,0.0,6966.704414542955,-0.0,0.0,9762.704414542955,0.0,15572.960448919308,0.0,0.0,0.0,15572.960448919306,0.43662055398631927,0.30543102234876585,0.6469387755102036,0.0,0.0,0.0,"[1.1484015422373588, 0.42551392940660193, 0.032768592226993576, 0.39851245469108676, 0.696846283841392, 0.7339491073827276, 0.8265465013526985, 0.8799095530944463]",20.92,0.0,0.0,0.0,335.06400065686074,59.52948629197215,-1032.200043230685,311.352780040853,4916.642977909141,0.0,0.0,0.0,0.0,0.0,0.0,-3.4,21.08716965455806,0.0,21.225951282653472,0.0,-3.4,20.92,20.84,21.62,20.97,21.35,-4.79,-3.4,3001.47,-720.4,-678.18,0.0,83.0,52.0,197.0,0.0,0.0,0.0,0.0,0.0,0.0,0.0,0.0,0.0,0.0,0.0,0.0,0.0,0.0
48.0,1905.0,4593.886307523384,2665.9168759857666,-0.0,0.0,0.0,0.0,5654.253417806491,0.0,0.0,0.0,5654.25341780649,0.43662055398631927,0.30543102234876585,0.6469387755102036,0.0,0.0,0.0,"[1.1484015422373588, 0.42551392940660193, 0.032768592226993576, 0.39851245469108676, 0.696846283841392, 0.7339491073827276, 0.8265465013526985, 0.8799095530944463]",23.15,0.0,0.0,0.0,298.16899096297936,44.82148789584047,-1177.5928229105227,-2713.9933076473503,0.0,0.0,0.0,0.0,0.0,0.0,0.0,-4.6,21.846805708246322,0.0,21.394863476995297,0.0,-4.6,23.15,20.91,21.88,22.42,22.79,-5.94,-4.6,14.42,-821.87,-773.71,0.0,80.0,28.0,174.0,0.0,0.0,0.0,0.0,0.0,0.0,0.0,0.0,0.0,0.0,0.0,0.0,0.0,0.0
49.0,2042.0,7325.0379682847115,5246.412778443288,-0.0,0.0,0.0,0.0,10527.14600120717,0.0,0.0,0.0,10527.14600120717,0.43662055398631927,0.30543102234876585,0.6303016858917475,0.0,0.0,0.0,"[1.1484015422373588, 0.42551392940660193, 0.032768592226993576, 0.39851245469108676, 0.696846283841392, 0.7339491073827276, 0.8265465013526985, 0.8799095530944463]",21.43,0.0,0.0,0.0,352.6876363552973,30.841307977043133,-1155.3842856786857,-200.13659029156298,4524.909117539505,0.0,0.0,0.0,0.0,0.0,0.0,-5.8,21.343136819400183,0.0,21.395866800388397,0.0,-5.8,21.43,20.92,21.88,21.22,21.65,-7.13,-5.8,3373.85,-806.37,-759.12,0.0,80.0,0.0,217.0,0.0,0.0,0.0,0.0,0.0,0.0,0.0,0.0,0.0,0.0,0.0,0.0,0.0,0.0
50.0,1020.0,38806.7919801026,32788.257578479024,-0.0,0.0,-4804.5004417230575,0.0,50559.26617173048,0.0,-11480.773579575487,0.0,62040.039751305965,0.6328043220233441,0.3523108477986991,0.6303016858917475,0.0,0.0,0.0,"[1.1484015422373588, 0.42551392940660193, 0.032768592226993576, 0.39851245469108676, 0.696846283841392, 0.7339491073827276, 0.8265465013526985, 0.8799095530944463]",23.15,0.0,0.0,0.0,128.09374239351445,25.837555945369466,-1279.444555547565,-2516.2899804015096,2939.1372089597044,0.0,0.0,0.0,0.0,0.0,0.0,-7.0,21.944053578672246,0.0,21.54595360939968,0.0,-7.0,23.15,20.99,22.11,22.43,22.88,-8.4,-7.0,2767.82,-892.96,-840.63,0.0,80.0,0.0,52.0,0.0,0.0,0.0,0.0,0.0,0.0,0.0,0.0,0.0,0.0,0.0,0.0,0.0,0.0
51.0,1118.0,0.0,5166.9745540442655,-0.0,0.0,6284.9745540442655,0.0,9481.099517683166,0.0,0.0,0.0,9481.099517683168,0.3655860161541152,0.3523108477986991,0.6303016858917475,0.0,0.0,0.0,"[1.1484015422373588, 0.42551392940660193, 0.032768592226993576, 0.39851245469108676, 0.696846283841392, 0.7339491073827276, 0.8265465013526985, 0.8799095530944463]",22.81,0.0,0.0,0.0,155.03068150982398,35.66310538938321,-1290.4060158208922,-1851.991245847878,0.0,0.0,0.0,0.0,0.0,0.0,0.0,-7.6,21.924868064051097,0.0,21.67091377086247,0.0,-7.6,22.81,21.05,22.29,22.18,22.69,-9.03,-7.6,0.0,-900.61,-847.83,0.0,80.0,17.0,70.0,0.0,0.0,0.0,0.0,0.0,0.0,0.0,0.0,0.0,0.0,0.0,0.0,0.0,0.0
52.0,1156.0,0.0,7442.583099944791,-0.0,0.0,8598.58309994479,0.0,13160.04260740507,0.0,0.0,0.0,13160.04260740507,0.0,0.3523108477986991,0.6303016858917475,0.0,0.0,0.0,"[1.1484015422373588, 0.42551392940660193, 0.032768592226993576, 0.39851245469108676, 0.696846283841392, 0.7339491073827276, 0.8265465013526985, 0.8799095530944463]",21.37,0.0,0.0,0.0,152.88145764416097,37.78590928160841,-1259.281857862767,179.57503141432144,4549.079785780059,0.0,0.0,0.0,0.0,0.0,0.0,-8.3,21.47698592961869,0.0,21.625415415688074,0.0,-8.3,21.37,21.04,22.21,21.29,21.84,-9.77,-8.3,1429.51,-878.89,-827.38,0.0,80.0,21.0,68.0,0.0,0.0,0.0,0.0,0.0,0.0,0.0,0.0,0.0,0.0,0.0,0.0,0.0,0.0
53.0,1540.0,24659.81924243531,6996.5201462231325,-0.0,0.0,-16000.0,0.0,11971.110224660086,0.0,0.0,0.0,11971.110224660088,0.6533333333333333,0.3523108477986991,0.6303016858917475,0.0,0.0,0.0,"[1.1484015422373588, 0.42551392940660193, 0.032768592226993576, 0.39851245469108676, 0.696846283841392, 0.7339491073827276, 0.8265465013526985, 0.8799095530944463]",23.15,0.0,0.0,0.0,147.36511638895928,32.23629339193397,-1360.077177218557,-2246.6974247109,0.0,0.0,0.0,0.0,0.0,0.0,0.0,-8.9,22.075955900378972,0.0,21.748016906244224,0.0,-8.9,23.15,21.1,22.39,22.52,23.06,-10.42,-8.9,188.73,-949.23,-893.61,0.0,80.0,11.0,65.0,0.0,0.0,0.0,0.0,0.0,0.0,0.0,0.0,0.0,0.0,0.0,0.0,0.0,0.0
54.0,1630.0,0.0,9326.730979268867,-0.0,0.0,10956.730979268867,0.0,15513.54941670084,0.0,0.0,0.0,15513.54941670084,0.18748592775217404,0.3523108477986991,0.6303016858917475,0.0,0.0,0.0,"[1.1484015422373588, 0.42551392940660193, 0.032768592226993576, 0.39851245469108676, 0.696846283841392, 0.7339491073827276, 0.8265465013526985, 0.8799095530944463]",21.48,0.0,0.0,0.0,108.89400919359169,2.4260615911145034,-1310.6773274686911,129.70274851111014,4498.807465288771,0.0,0.0,0.0,0.0,0.0,0.0,-9.4,21.564525717217993,0.0,21.708656034389122,0.0,-9.4,21.48,21.1,22.32,21.37,21.95,-10.93,-9.4,2952.71,-914.76,-861.15,0.0,0.0,0.0,80.0,0.0,0.0,0.0,0.0,0.0,0.0,0.0,0.0,0.0,0.0,0.0,0.0,0.0,0.0
55.0,961.0,8026.787963486692,7025.654023669259,-0.0,0.0,0.0,0.0,11351.181397566326,0.0,0.0,0.0,11351.181397566326,0.18748592775217404,0.3523108477986991,0.6303016858917475,0.0,0.0,0.0,"[1.1484015422373588, 0.42551392940660193, 0.032768592226993576, 0.39851245469108676, 0.696846283841392, 0.7339491073827276, 0.8265465013526985, 0.8799095530944463]",23.15,0.0,0.0,0.0,38.112903217757086,0.8491215568900745,-1402.515399150658,-2148.1844923205313,0.0,0.0,0.0,0.0,0.0,0.0,0.0,-9.9,22.12431760827227,0.0,21.82075978400414,0.0,-9.9,23.15,21.15,22.49,22.53,23.1,-11.47,-9.9,283.82,-978.85,-921.49,0.0,0.0,0.0,28.0,0.0,0.0,0.0,0.0,0.0,0.0,0.0,0.0,0.0,0.0,0.0,0.0,0.0,0.0
56.0,2212.0,3848.5430434590057,1617.3003282417108,-0.0,0.0,0.0,0.0,2643.869951671967,0.0,0.0,0.0,2643.869951671967,0.024675539646659167,0.3523108477986991,0.6303016858917475,0.0,0.0,0.0,"[0.9900553193509332, 0.42551392940660193, 0.032768592226993576, 0.39851245469108676, 0.696846283841392, 0.5855266056812596, 0.7295652059924826, 0.8799095530944463]",21.44,0.0,0.0,4.525724488469834,148.36808752626868,3.305508917893509,-1321.7041436406419,270.60600803967185,0.0,0.0,0.0,0.0,0.0,0.0,0.0,-9.7,21.592905043971655,0.0,21.768580485034843,0.0,-9.7,21.44,21.14,22.4,21.37,21.97,-11.29,-9.7,1062.74,-922.45,-868.39,7.46,0.0,0.0,109.0,0.0,0.0,0.0,0.0,0.0,0.0,0.0,0.0,0.0,0.0,0.0,0.0,0.0,0.0
57.0,1747.0,0.0,0.0,-0.0,8196.12414086507,-2831.5114833303246,0.0,3255.851391781269,0.0,0.0,0.0,0.0,0.14029559188264742,0.3523108477986991,0.6303016858917475,14470.450630138977,3617.6126575347444,18088.06328767372,"[0.9900553193509332, 0.42551392940660193, 0.032768592226993576, 0.39851245469108676, 0.696846283841392, 0.5855266056812596, 0.7295652059924826, 0.8799095530944463]",21.01,0.0,0.0,1199.634928195741,9.528225804439266,0.212280389222516,-1201.4237152428873,754.4450946394859,0.0,0.0,0.0,0.0,0.0,0.0,0.0,-7.3,21.391112378815574,0.0,21.65146156529561,0.0,-7.3,21.01,21.09,22.22,21.16,21.72,-7.31,-7.3,127.2,-838.51,-789.37,1977.91,0.0,0.0,7.0,0.0,0.0,0.0,0.0,0.0,0.0,0.0,0.0,0.0,0.0,0.0,0.0,0.0,0.0
58.0,2444.0,0.0,6627.421180338933,-0.0,14125.406685253689,-5053.985504914757,0.0,5064.904927299383,0.0,-8612.379456563736,0.0,13677.284383863118,0.3466666666666667,0.387478063913001,0.6303016858917475,0.0,0.0,0.0,"[0.9900553193509332, 0.42551392940660193, 0.032768592226993576, 0.39851245469108676, 0.696846283841392, 0.5855266056812596, 0.7295652059924826, 0.8799095530944463]",21.41,0.0,0.0,1377.362150221465,167.42453913514723,3.7300696963385485,-1129.380375867346,185.82077091963242,0.0,0.0,0.0,0.0,0.0,0.0,0.0,-5.2,21.516370067942496,0.0,21.66647372460379,0.0,-5.2,21.41,21.07,22.26,21.59,22.4,-4.66,-5.2,0.0,-788.22,-742.03,2270.94,0.0,0.0,123.0,0.0,0.0,0.0,0.0,0.0,0.0,0.0,0.0,0.0,0.0,0.0,0.0,0.0,0.0
59.0,1265.0,0.0,16470.024212341126,-0.0,17735.024212341126,0.0,0.0,2043.5366069469083,0.0,-34772.58481713942,0.0,36816.12142408633,0.3466666666666667,0.529466118582987,0.6303016858917475,0.0,0.0,0.0,"[0.9900553193509332, 0.42551392940660193, 0.032768592226993576, 0.39851245469108676, 0.696846283841392, 0.5855266056812596, 0.7295652059924826, 0.8799095530944463]",21.74,0.0,0.0,1549.6733424994252,29.94585252823771,0.6671669375564858,-1066.8799461181686,-209.4913388379667,0.0,0.0,0.0,0.0,0.0,0.0,0.0,-3.4,21.650773784384846,0.0,21.73011095291102,0.0,-3.4,21.74,21.09,22.37,21.75,22.69,-2.42,-3.4,1700.45,-744.6,-700.97,2555.04,0.0,0.0,22.0,0.0,0.0,0.0,0.0,0.0,0.0,0.0,0.0,0.0,0.0,0.0,0.0,0.0,0.0
60.0,2283.0,2175.1386690903855,2176.645794026435,-0.0,18295.3828182815,-16000.0,0.0,5073.052045560819,0.0,0.0,0.0,5073.052045560819,1.0,0.529466118582987,0.6303016858917475,0.0,0.0,0.0,"[0.9900553193509332, 0.42551392940660193, 0.032768592226993576, 0.39851245469108676, 0.696846283841392, 0.5855266056812596, 0.7295652059924826, 0.8799095530944463]",21.92,0.0,0.0,1542.1714504942947,104.81048384883199,2.3350842814477075,-1032.2169134547873,-353.94155465558134,0.0,0.0,0.0,0.0,0.0,0.0,0.0,-2.4,21.763472607285614,0.0,21.825377147592867,0.0,-2.4,21.92,21.12,22.53,21.87,22.94,-1.46,-2.4,714.81,-720.41,-678.19,2542.67,0.0,0.0,77.0,0.0,0.0,0.0,0.0,0.0,0.0,0.0,0.0,0.0,0.0,0.0,0.0,0.0,0.0
61.0,3576.0,0.0,1534.467389445373,-11056.804052387713,16167.271441833087,0.0,0.0,3620.2290957995883,0.0,0.0,0.0,3620.2290957995883,1.0,0.529466118582987,0.6774132857671387,0.0,0.0,0.0,"[0.9900553193509332, 0.42551392940660193, 0.032768592226993576, 0.39851245469108676, 0.696846283841392, 0.5855266056812596, 0.7295652059924826, 0.8799095530944463]",22.09,0.0,0.0,1327.7051017798324,91.19873269963304,2.031826582558396,-1026.3740818696363,-462.69180648672875,0.0,0.0,0.0,0.0,0.0,0.0,0.0,-2.1,21.873112427239125,0.0,21.924092249712803,0.0,-2.1,22.09,21.16,22.69,21.97,23.1,-1.47,-2.1,749.99,-716.33,-674.36,2189.07,0.0,0.0,67.0,0.0,0.0,0.0,0.0,0.0,0.0,0.0,0.0,0.0,0.0,0.0,0.0,0.0,0.0
62.0,2378.0,0.0,6657.179217075494,-0.0,9035.179217075494,0.0,0.0,6996.659361095266,0.0,-8265.196298918421,0.0,15261.855660013687,1.0,0.5632156701369039,0.6774132857671387,0.0,0.0,0.0,"[0.9900553193509332, 0.42551392940660193, 0.032768592226993576, 0.39851245469108676, 0.696846283841392, 0.5855266056812596, 0.7295652059924826, 0.8799095530944463]",22.08,0.0,0.0,688.7370632860618,28.58467741331782,0.6368411676675549,-1055.9453381444853,-365.4846800999336,0.0,0.0,0.0,0.0,0.0,0.0,0.0,-2.8,21.917983534918786,0.0,21.995291626099537,0.0,-2.8,22.08,21.19,22.8,21.95,23.06,-3.15,-2.8,0.0,-736.97,-693.78,1135.56,0.0,0.0,21.0,0.0,0.0,0.0,0.0,0.0,0.0,0.0,0.0,0.0,0.0,0.0,0.0,0.0,0.0
63.0,3328.0,7655.807914756343,4289.528875182561,-0.0,0.0,0.0,0.0,7197.943856639301,0.0,-1981.6822256037162,0.0,9179.626082243018,1.0,0.5713075392247857,0.6774132857671387,0.0,0.0,0.0,"[0.9900553193509332, 0.42551392940660193, 0.032768592226993576, 0.39851245469108676, 0.696846283841392, 0.5855266056812596, 0.7295652059924826, 0.8799095530944463]",21.76,0.0,0.0,14.911360009504405,167.42453913514723,3.7300696963385485,-1110.0239990734742,89.36214995667149,3376.4637357968368,0.0,0.0,0.0,0.0,0.0,0.0,-4.4,21.814394172349296,0.0,21.979182642793106,0.0,-4.4,21.76,21.2,22.76,21.7,22.62,-6.09,-4.4,2235.41,-774.72,-729.32,24.59,0.0,0.0,123.0,0.0,0.0,0.0,0.0,0.0,0.0,0.0,0.0,0.0,0.0,0.0,0.0,0.0,0.0
64.0,1843.0,7688.39393517031,5806.951965494459,-0.0,0.0,0.0,0.0,12039.407439192128,0.0,0.0,0.0,12039.407439192128,1.0,0.5713075392247857,0.6774132857671387,0.0,0.0,0.0,"[0.9900553193509332, 0.42551392940660193, 0.032768592226993576, 0.39851245469108676, 0.696846283841392, 0.5855266056812596, 0.7295652059924826, 0.8799095530944463]",22.99,0.0,0.0,0.0,14.184877513375753,2.4867131308923653,-1192.092001727609,-1626.8634744445,2802.4259159104467,0.0,0.0,0.0,0.0,0.0,0.0,-5.1,22.216433244613295,0.0,22.03738728921867,0.0,-5.1,22.99,21.25,22.82,22.44,23.13,-6.87,-5.1,0.0,-831.99,-783.24,0.0,0.0,4.0,10.0,0.0,0.0,0.0,0.0,0.0,0.0,0.0,0.0,0.0,0.0,0.0,0.0,0.0,0.0
65.0,3011.0,6231.847188050547,3189.6879521102937,-0.0,0.0,0.0,0.0,6369.833603168367,0.0,0.0,0.0,6369.8336031683675,1.0,0.5713075392247857,0.6774132857671387,0.0,0.0,0.0,"[0.9900553193509332, 0.42551392940660193, 0.032768592226993576, 0.39851245469108676, 0.696846283841392, 0.5855266056812596, 0.7295652059924826, 0.8799095530944463]",22.99,0.0,0.0,0.0,397.8929783297423,77.20941013721908,-1226.04257927329,-1524.368870777245,345.30631991224857,0.0,0.0,0.0,0.0,0.0,0.0,-5.9,22.26656844938162,0.0,22.110216946935978,0.0,-5.9,22.99,21.32,22.9,22.42,23.11,-7.62,-5.9,0.0,-855.69,-805.54,0.0,117.0,64.0,224.0,0.0,0.0,0.0,0.0,0.0,0.0,0.0,0.0,0.0,0.0,0.0,0.0,0.0,0.0
66.0,8484.0,0.0,1262.6694043931216,-0.0,0.0,9746.669404393122,0.0,2425.2620754518343,0.0,0.0,0.0,2425.2620754518343,0.5856007906295442,0.5713075392247857,0.6774132857671387,0.0,0.0,0.0,"[0.9900553193509332, 0.42551392940660193, 0.032768592226993576, 0.39851245469108676, 0.696846283841392, 0.5855266056812596, 0.7295652059924826, 0.8799095530944463]",22.05,0.0,0.0,0.0,582.2247452081051,106.53442961981565,-1220.154826420848,-200.12552194799838,0.0,0.0,0.0,0.0,0.0,0.0,0.0,-6.7,21.97036145253465,0.0,22.071736708205556,0.0,-6.7,22.05,21.33,22.82,21.81,22.5,-8.36,-6.7,0.0,-851.58,-801.67,0.0,82.0,129.0,371.0,0.0,0.0,0.0,0.0,0.0,0.0,0.0,0.0,0.0,0.0,0.0,0.0,0.0,0.0
67.0,9625.0,21803.060562358005,1920.4931933309706,-0.0,0.0,-10148.552066215245,0.0,3560.6112559919425,0.0,0.0,0.0,3560.6112559919425,1.0,0.5713075392247857,0.667431031996065,0.0,0.0,0.0,"[0.9900553193509332, 0.42551392940660193, 0.032768592226993576, 0.39851245469108676, 0.696846283841392, 0.5855266056812596, 0.7295652059924826, 0.8799095530944463]",21.69,0.0,0.0,0.0,2053.511762845468,159.39224653622293,-1234.6709291292239,213.32477593435215,0.0,0.0,0.0,0.0,0.0,0.0,0.0,-7.4,21.813244138190395,0.0,21.986184437383415,0.0,-7.4,21.69,21.3,22.67,21.62,22.26,-9.08,-7.4,2131.44,-861.71,-811.21,0.0,133.0,139.0,1424.0,0.0,0.0,0.0,0.0,0.0,0.0,0.0,0.0,0.0,0.0,0.0,0.0,0.0,0.0
68.0,6699.0,6732.663316582914,0.0,-0.0,0.0,0.0,0.0,2989.839946163568,0.0,2989.839946163568,0.0,0.0,1.0,0.5585956346917773,0.667431031996065,0.0,0.0,0.0,"[0.26719538548418953, 0.42551392940660193, 0.032768592226993576, 0.23677566548398232, 0.696846283841392, 0.5855266056812596, 0.24146938667602313, 0.8799095530944427]",22.27,0.0,0.0,0.0,837.051054880214,152.1140617628794,-1292.9735994178614,-691.3152001454469,0.0,0.0,0.0,0.0,0.0,0.0,0.0,-8.2,21.948779743598994,0.0,21.932250528266795,0.0,-8.2,22.27,21.29,22.57,21.86,22.41,-9.85,-8.2,0.0,-902.4,-849.52,0.0,151.0,166.0,518.0,0.0,0.0,0.0,0.0,0.0,0.0,0.0,0.0,0.0,0.0,0.0,0.0,0.0,0.0
69.0,5102.0,0.0,2535.691041673562,-0.0,0.0,7637.691041673562,0.0,4338.590659521455,0.0,0.0,0.0,4338.590659521455,0.6752682380240833,0.5585956346917773,0.667431031996065,0.0,0.0,0.0,"[0.26719538548418953, 0.42551392940660193, 0.032768592226993576, 0.23677566548398232, 0.696846283841392, 0.5855266056812596, 0.24146938667602313, 0.8799095530944427]",21.78,0.0,0.0,0.0,997.3831552586732,127.91409739151223,-1302.0073167031571,-52.144607958734326,1142.589441354625,0.0,0.0,0.0,0.0,0.0,0.0,-8.9,21.771915936028343,0.0,21.877080577612624,0.0,-8.9,21.78,21.28,22.48,21.64,22.19,-10.51,-8.9,1706.27,-908.71,-855.45,0.0,162.0,109.0,636.0,0.0,0.0,0.0,0.0,0.0,0.0,0.0,0.0,0.0,0.0,0.0,0.0,0.0,0.0
70.0,3248.0,26100.426146357808,0.0,-0.0,0.0,-7952.614579002041,0.0,13292.378492961576,0.0,0.0,0.0,0.0,1.0,0.5585956346917773,0.6101994437085762,59077.23774649592,14769.30943662398,73846.5471831199,"[0.26719538548418953, 0.42551392940660193, 0.032768592226993576, 0.23677566548398232, 0.696846283841392, 0.5855266056812596, 0.24146938667602313, 0.8799095530944427]",22.22,0.0,0.0,0.0,1006.9113810631127,81.42469215178053,-1354.6253762463614,-712.0830764463963,1080.4059287906593,0.0,0.0,0.0,0.0,0.0,0.0,-9.7,21.892195801657515,0.0,21.862789144186557,0.0,-9.7,22.22,21.27,22.45,21.92,22.44,-11.32,-9.7,1569.74,-945.43,-890.02,0.0,92.0,60.0,685.0,0.0,0.0,0.0,0.0,0.0,0.0,0.0,0.0,0.0,0.0,0.0,0.0,0.0,0.0
71.0,2055.0,2065.326633165829,0.0,-0.0,0.0,0.0,0.0,5029.230915977449,0.0,5029.230915977449,0.0,0.0,1.0,0.5372128501850705,0.6101994437085762,0.0,0.0,0.0,"[0.26719538548418953, 0.42551392940660193, 0.032768592226993576, 0.23677566548398232, 0.696846283841392, 0.5855266056812596, 0.24146938667602313, 0.8799095530944427]",22.27,0.0,0.0,0.0,447.46840883103533,73.20640851188016,-1386.3376876684836,-785.2460998982127,553.8955004514098,0.0,0.0,0.0,0.0,0.0,0.0,-10.4,21.904339789994225,0.0,21.859524892533848,0.0,-10.4,22.27,21.28,22.44,21.92,22.43,-12.01,-10.4,0.0,-967.56,-910.86,0.0,103.0,62.0,268.0,0.0,0.0,0.0,0.0,0.0,0.0,0.0,0.0,0.0,0.0,0.0,0.0,0.0,0.0
72.0,2159.0,11690.081585452344,9472.631177525083,-0.0,0.0,0.0,0.0,14401.648938230224,0.0,0.0,0.0,14401.64893823022,1.0,0.5372128501850705,0.6101994437085762,0.0,0.0,0.0,"[0.26719538548418953, 0.42551392940660193, 0.032768592226993576, 0.23677566548398232, 0.696846283841392, 0.5855266056812596, 0.24146938667602313, 0.8799095530944427]",21.73,0.0,0.0,0.0,283.0527831078163,43.942040569061454,-1384.8782044977115,-62.84139467245375,1123.234556278665,0.0,0.0,0.0,0.0,0.0,0.0,-10.9,21.720538503033506,0.0,21.81691389497376,0.0,-10.9,21.73,21.26,22.38,21.63,22.15,-12.58,-10.9,371.87,-966.54,-909.9,0.0,80.0,27.0,163.0,0.0,0.0,0.0,0.0,0.0,0.0,0.0,0.0,0.0,0.0,0.0,0.0,0.0,0.0
73.0,986.0,0.0,2993.8220969947038,-0.0,0.0,3979.8220969947033,0.0,11935.084325221567,0.0,7554.693867956663,0.0,4380.390457264904,0.8307898768284565,0.5050925531274316,0.6101994437085762,0.0,0.0,0.0,"[0.26719538548418953, 0.42551392940660193, 0.032768592226993576, 0.23677566548398232, 0.696846283841392, 0.5855266056812596, 0.24146938667602313, 0.8799095530944427]",21.73,0.0,0.0,0.0,234.83852772144314,30.386421428709163,-1410.3411376569725,-119.84859783437344,2367.8950340037004,0.0,0.0,0.0,0.0,0.0,0.0,-11.5,21.693208820542093,0.0,21.775012826077784,0.0,-11.5,21.73,21.23,22.32,21.66,22.17,-13.21,-11.5,756.93,-984.31,-926.63,0.0,80.0,4.0,130.0,0.0,0.0,0.0,0.0,0.0,0.0,0.0,0.0,0.0,0.0,0.0,0.0,0.0,0.0
74.0,576.0,0.0,7204.235075923756,-0.0,0.0,7780.235075923756,0.0,10060.066309215268,0.0,0.0,0.0,10060.066309215268,0.4999975691786369,0.5050925531274316,0.6101994437085762,0.0,0.0,0.0,"[0.26719538548418953, 0.42551392940660193, 0.032768592226993576, 0.23677566548398232, 0.696846283841392, 0.5855266056812596, 0.24146938667602313, 0.8799095530944427]",22.27,0.0,0.0,0.0,103.5925903249563,25.291692087368702,-1462.7264871462653,-875.7785584227698,1109.870610402361,0.0,0.0,0.0,0.0,0.0,0.0,-12.2,21.861443583463164,0.0,21.79447413607744,0.0,-12.2,22.27,21.23,22.35,22.0,22.51,-13.96,-12.2,3398.91,-1020.88,-961.05,0.0,80.0,0.0,34.0,0.0,0.0,0.0,0.0,0.0,0.0,0.0,0.0,0.0,0.0,0.0,0.0,0.0,0.0
75.0,975.0,979.8994974874372,0.0,-0.0,0.0,0.0,0.0,15401.427834286516,0.0,15401.427834286516,0.0,0.0,0.4999975691786369,0.43961029192723383,0.6101994437085762,0.0,0.0,0.0,"[0.26719538548418953, 0.42551392940660193, 0.032768592226993576, 0.23677566548398232, 0.696846283841392, 0.5855266056812596, 0.24146938667602313, 0.8799095530944427]",21.73,0.0,0.0,0.0,158.03959492175213,26.504722882925954,-1457.0231817822832,-134.54359731702039,2509.7310029940463,0.0,0.0,0.0,0.0,0.0,0.0,-12.6,21.686684636179198,0.0,21.767118662517824,0.0,-12.6,21.73,21.22,22.32,21.64,22.16,-14.35,-12.6,217.71,-1016.89,-957.3,0.0,80.0,0.0,74.0,0.0,0.0,0.0,0.0,0.0,0.0,0.0,0.0,0.0,0.0,0.0,0.0,0.0,0.0
76.0,863.0,10030.839455759547,9117.68525848075,-0.0,0.0,0.0,0.0,12036.65385328355,0.0,0.0,0.0,12036.65385328355,0.4999975691786369,0.43961029192723383,0.6101994437085762,0.0,0.0,0.0,"[0.26719538548418953, 0.42551392940660193, 0.032768592226993576, 0.23677566548398232, 0.696846283841392, 0.5855266056812596, 0.24146938667602313, 0.8799095530944427]",22.27,0.0,0.0,0.0,161.83655708442348,35.81473423882787,-1496.677064691946,-887.2157627163315,2188.2871200101577,0.0,0.0,0.0,0.0,0.0,0.0,-13.0,21.856307853544536,0.0,21.789000963393576,0.0,-13.0,22.27,21.22,22.36,22.01,22.52,-14.74,-13.0,3384.39,-1044.57,-983.36,0.0,80.0,17.0,75.0,0.0,0.0,0.0,0.0,0.0,0.0,0.0,0.0,0.0,0.0,0.0,0.0,0.0,0.0
77.0,752.0,755.7788944723618,0.0,-0.0,0.0,0.0,0.0,12143.591196392354,0.0,12143.591196392354,0.0,0.0,0.4999975691786369,0.3879793769765861,0.6101994437085762,0.0,0.0,0.0,"[0.26719538548418953, 0.42551392940660193, 0.032768592226993576, 0.23677566548398232, 0.696846283841392, 0.5855266056812596, 0.24146938667602313, 0.8799095530944427]",22.27,0.0,0.0,0.0,126.80420807411666,31.235542985599235,-1513.6523534647868,-853.5407494749073,1109.7426863816154,0.0,0.0,0.0,0.0,0.0,0.0,-13.4,21.872874092500357,0.0,21.81592187542875,0.0,-13.4,22.27,21.23,22.41,21.99,22.52,-15.16,-13.4,0.0,-1056.42,-994.51,0.0,80.0,10.0,50.0,0.0,0.0,0.0,0.0,0.0,0.0,0.0,0.0,0.0,0.0,0.0,0.0,0.0,0.0
78.0,932.0,0.0,0.0,-0.0,0.0,932.0,0.0,11642.974136106044,0.0,11642.974136106044,0.0,0.0,0.46037171883850087,0.33847693592171346,0.6101994437085762,0.0,0.0,0.0,"[0.26719538548418953, 0.42551392940660193, 0.032768592226993576, 0.23677566548398232, 0.696846283841392, 0.5855266056812596, 0.24146938667602313, 0.8799095530944427]",21.73,0.0,0.0,0.0,99.36578338915241,2.213781201891984,-1507.9490481008045,-117.64636824544452,2625.3369991074287,0.0,0.0,0.0,0.0,0.0,0.0,-13.8,21.695523709534733,0.0,21.784385251424215,0.0,-13.8,21.73,21.21,22.36,21.65,22.19,-15.55,-13.8,598.19,-1052.44,-990.76,0.0,0.0,0.0,73.0,0.0,0.0,0.0,0.0,0.0,0.0,0.0,0.0,0.0,0.0,0.0,0.0,0.0,0.0
79.0,1416.0,0.0,9411.94282708154,-0.0,0.0,10827.94282708154,0.0,11438.119766419177,0.0,0.0,0.0,11438.119766419177,0.0,0.33847693592171346,0.6101994437085762,0.0,0.0,0.0,"[0.26719538548418953, 0.42551392940660193, 0.032768592226993576, 0.23677566548398232, 0.696846283841392, 0.5855266056812596, 0.24146938667602313, 0.8799095530944427]",22.27,0.0,0.0,0.0,87.11520735487336,1.940849272891603,-1543.3591088172575,-874.3067197820019,1227.5259192829044,0.0,0.0,0.0,0.0,0.0,0.0,-14.1,21.86318133401449,0.0,21.803145456798664,0.0,-14.1,22.27,21.21,22.4,22.01,22.55,-15.89,-14.1,1190.84,-1077.15,-1014.03,0.0,0.0,0.0,64.0,0.0,0.0,0.0,0.0,0.0,0.0,0.0,0.0,0.0,0.0,0.0,0.0,0.0,0.0
80.0,1872.0,24855.322477502043,6859.045865114534,-0.0,0.0,-16000.0,0.0,8270.25284004074,0.0,0.0,0.0,8270.25284004074,0.6533333333333333,0.33847693592171346,0.6101994437085762,0.0,0.0,0.0,"[0.26719538548418953, 0.4255139294065984, 0.032768592226993576, 0.23677566548398232, 0.696846283841392, 0.5855266056812596, 0.24146938667602313, 0.8799095530944427]",21.73,0.0,0.0,3.3480489825092357,59.89170505647543,1.3343338751129752,-1524.9243368736447,-137.37568363760326,2460.266406513765,0.0,0.0,0.0,0.0,0.0,0.0,-14.2,21.68616236122552,0.0,21.77227238964001,0.0,-14.2,21.73,21.19,22.36,21.64,22.19,-15.95,-14.2,1257.59,-1064.28,-1001.92,5.52,0.0,0.0,44.0,0.0,0.0,0.0,0.0,0.0,0.0,0.0,0.0,0.0,0.0,0.0,0.0,0.0,0.0
81.0,3387.0,914.7707138205978,0.0,-0.0,7984.8754683647085,376.3550466946239,0.0,5295.984637779742,0.0,0.0,0.0,0.0,0.6373318432527796,0.33847693592171346,0.6101994437085762,23537.70950124331,5884.427375310827,29422.136876554134,"[0.26719538548418953, 0.4255139294065984, 0.032768592226993576, 0.23677566548398232, 0.696846283841392, 0.5855266056812596, 0.24146938667602313, 0.8799095530944427]",22.15,0.0,0.0,1129.1180229588847,121.14458522787073,2.6989935201148847,-1445.0823377053307,-733.2924794320445,0.0,0.0,0.0,0.0,0.0,0.0,0.0,-11.9,21.813754651395183,0.0,21.781470116507272,0.0,-11.9,22.15,21.19,22.38,21.93,22.48,-12.05,-11.9,365.13,-1008.56,-949.46,1861.65,0.0,0.0,89.0,0.0,0.0,0.0,0.0,0.0,0.0,0.0,0.0,0.0,0.0,0.0,0.0,0.0,0.0
82.0,3680.0,0.0,3451.0904586349793,-7152.309690954837,14283.400149589816,0.0,0.0,5542.944119922493,0.0,0.0,0.0,5542.944119922493,0.6373318432527796,0.33847693592171346,0.640674502391775,0.0,0.0,0.0,"[0.26719538548418953, 0.4255139294065984, 0.032768592226993576, 0.23677566548398232, 0.696846283841392, 0.5855266056812596, 0.24146938667602313, 0.8799095530944427]",21.73,0.0,0.0,1349.7580891616165,87.11520735487336,1.940849272891603,-1346.6838047588205,-70.10053443033851,0.0,0.0,0.0,0.0,0.0,0.0,0.0,-10.0,21.715326473758584,0.0,21.823082778035,0.0,-10.0,21.73,21.19,22.46,21.77,22.61,-9.4,-10.0,0.0,-939.89,-884.81,2225.43,0.0,0.0,64.0,0.0,0.0,0.0,0.0,0.0,0.0,0.0,0.0,0.0,0.0,0.0,0.0,0.0,0.0
83.0,5123.0,0.0,12122.709264192024,-0.0,17245.709264192024,0.0,0.0,5501.8779333620105,0.0,-15702.466980829191,0.0,21204.344914191202,0.6373318432527796,0.40259534276009934,0.640674502391775,0.0,0.0,0.0,"[0.26719538548418953, 0.4255139294065984, 0.032768592226993576, 0.23677566548398232, 0.696846283841392, 0.5855266056812596, 0.24146938667602313, 0.8799095530944427]",21.78,0.0,0.0,1459.55567572546,46.279953907276465,1.0310761762236633,-1284.883619430127,-68.21030124610377,0.0,0.0,0.0,0.0,0.0,0.0,0.0,-8.5,21.759025292159052,0.0,21.87539682110117,0.0,-8.5,21.78,21.19,22.56,21.83,22.81,-7.51,-8.5,0.0,-896.75,-844.2,2406.46,0.0,0.0,34.0,0.0,0.0,0.0,0.0,0.0,0.0,0.0,0.0,0.0,0.0,0.0,0.0,0.0,0.0
84.0,6417.0,0.0,12934.27357954824,-0.0,19351.27357954824,0.0,0.0,0.0,0.0,-23856.950471768097,0.0,23856.950471768094,0.6373318432527796,0.5000112238531524,0.640674502391775,0.0,0.0,0.0,"[0.26719538548418953, 0.4255139294065984, 0.032768592226993576, 0.23677566548398232, 0.696846283841392, 0.5855266056812596, 0.24146938667602313, 0.8799095530944427]",21.88,0.0,0.0,1572.3704189254952,112.97753453835138,2.5170389007812966,-1247.038575956721,-141.53318997371238,0.0,0.0,0.0,0.0,0.0,0.0,0.0,-7.5,21.83110201299352,0.0,21.942120394657977,0.0,-7.5,21.88,21.21,22.68,21.9,22.98,-6.32,-7.5,0.0,-870.34,-819.34,2592.47,0.0,0.0,83.0,0.0,0.0,0.0,0.0,0.0,0.0,0.0,0.0,0.0,0.0,0.0,0.0,0.0,0.0
85.0,4545.0,0.0,1940.9925888922292,-10637.616932836587,17123.609521728817,0.0,0.0,3635.625471526984,0.0,0.0,0.0,3635.625471526984,0.6373318432527796,0.5000112238531524,0.6720248453478365,0.0,0.0,0.0,"[0.26719538548418953, 0.4255139294065984, 0.032768592226993576, 0.23677566548398232, 0.696846283841392, 0.5855266056812596, 0.24146938667602313, 0.8799095530944427]",22.07,0.0,0.0,1398.0504561460555,108.89400919359169,2.4260615911145034,-1241.9696494699842,-298.658889051037,382.5749786831784,0.0,0.0,0.0,0.0,0.0,0.0,-7.2,21.935504488433253,0.0,22.025594279740417,0.0,-7.2,22.07,21.23,22.82,22.01,23.19,-6.32,-7.2,0.0,-866.8,-816.01,2305.05,0.0,0.0,80.0,0.0,0.0,0.0,0.0,0.0,0.0,0.0,0.0,0.0,0.0,0.0,0.0,0.0,0.0
86.0,2137.0,0.0,3196.9612502269874,-0.0,14215.630395056874,-8881.669144829888,0.0,5835.7614118012825,0.0,0.0,0.0,5835.7614118012825,1.0,0.5000112238531524,0.6720248453478365,0.0,0.0,0.0,"[0.26719538548418953, 0.4255139294065984, 0.032768592226993576, 0.23677566548398232, 0.696846283841392, 0.5855266056812596, 0.24146938667602313, 0.8799095530944427]",22.27,0.0,0.0,1177.3556806726908,46.279953907276465,1.0310761762236633,-1271.7544884518109,-487.49892080471784,0.0,0.0,0.0,0.0,0.0,0.0,0.0,-7.7,22.046342282954846,0.0,22.10748035931397,0.0,-7.7,22.27,21.26,22.95,22.13,23.29,-7.32,-7.7,0.0,-887.59,-835.58,1941.18,0.0,0.0,34.0,0.0,0.0,0.0,0.0,0.0,0.0,0.0,0.0,0.0,0.0,0.0,0.0,0.0,0.0
87.0,3053.0,0.0,3097.7326438160153,-0.0,0.7733020905268307,6149.959341725489,0.0,5155.230672960871,0.0,2.639850261454413,0.0,5152.590822699416,0.7385221368313992,0.5,0.6720248453478365,0.0,0.0,0.0,"[0.26719538548418953, 0.4255139294065984, 0.032768592226993576, 0.23677566548398232, 0.696846283841392, 0.5855266056812596, 0.24146938667602313, 0.8799095530944427]",22.03,0.0,0.0,22.569691686584292,235.91313965427466,40.242296642611834,-1334.0117344479559,-105.33965896431195,520.6011229699618,0.0,0.0,0.0,0.0,0.0,0.0,-9.4,22.00058791022702,0.0,22.142198733728236,0.0,-9.4,22.03,21.28,23.0,21.97,23.1,-10.91,-9.4,0.0,-931.04,-876.48,37.21,118.0,2.0,111.0,0.0,0.0,0.0,0.0,0.0,0.0,0.0,0.0,0.0,0.0,0.0,0.0,0.0,0.0
88.0,5151.0,0.0,3804.5131346009507,-0.0,0.0,8955.513134600951,0.0,6400.748139283232,0.0,0.0,0.0,6400.748139283232,0.35776052396571256,0.5,0.6720248453478365,0.0,0.0,0.0,"[0.26719538548418953, 0.4255139294065984, 0.032768592226993576, 0.23677566548398232, 0.696846283841392, 0.5855266056812596, 0.24146938667602313, 0.8799095530944427]",21.73,0.0,0.0,0.0,1746.2443908511823,86.88333073178813,-1312.7332272131398,223.48288682966918,0.0,0.0,0.0,0.0,0.0,0.0,0.0,-9.2,21.85856441969456,0.0,22.05337272678191,0.0,-9.2,21.73,21.26,22.84,21.67,22.42,-10.84,-9.2,0.0,-916.19,-862.5,0.0,116.0,27.0,1219.0,0.0,0.0,0.0,0.0,0.0,0.0,0.0,0.0,0.0,0.0,0.0,0.0,0.0,0.0
89.0,4845.0,22508.387213729726,1822.5315788621986,-0.0,0.0,-15728.313698798876,0.0,3100.993516300263,0.0,0.0,0.0,3100.993516300263,1.0,0.5,0.6700283945936217,0.0,0.0,0.0,"[0.26719538548418953, 0.4255139294065984, 0.032768592226993576, 0.23677566548398232, 0.696846283841392, 0.5855266056812596, 0.24146938667602313, 0.8799095530944427]",22.09,0.0,0.0,0.0,2662.601806374361,178.7400877253611,-1319.4631940319605,-399.99537731609695,-749.3947285094594,0.0,0.0,0.0,0.0,0.0,0.0,-9.0,21.914615915424513,0.0,21.972585516988424,0.0,-9.0,22.09,21.25,22.7,21.75,22.39,-10.54,-9.0,0.0,-920.89,-866.92,0.0,155.0,138.0,1860.0,0.0,0.0,0.0,0.0,0.0,0.0,0.0,0.0,0.0,0.0,0.0,0.0,0.0,0.0
90.0,5750.0,12877.493132593814,17755.907666930845,-0.0,0.0,16000.0,0.0,9321.001601255182,26535.99,0.0,0.0,30549.793601255187,0.3197278911564626,0.5,0.6700283945936217,21228.792,5307.198,26535.99,"[0.26719538548418953, 0.4255139294065984, 0.032768592226993576, 0.23677566548398232, 0.696846283841392, 0.5855266056812596, 0.24146938667602313, 0.8799095530944427]",22.27,0.0,0.0,0.0,1502.5940452805212,201.54506668183743,-1318.436532577122,-708.7972723910514,0.0,0.0,0.0,0.0,0.0,0.0,0.0,-8.8,21.94053466717723,0.0,21.9291025652146,0.0,-8.8,22.27,21.24,22.61,21.84,22.43,-10.3,-8.8,0.0,-920.17,-866.25,0.0,143.0,234.0,1004.0,0.0,0.0,0.0,0.0,0.0,0.0,0.0,0.0,0.0,0.0,0.0,0.0,0.0,0.0
91.0,6441.0,9707.481390535297,3217.943983582619,-0.0,0.0,0.0,0.0,5567.28700387323,0.0,0.0,0.0,5567.28700387323,0.3197278911564626,0.5,0.6320958302635419,0.0,0.0,0.0,"[0.26719538548418953, 0.4255139294065984, 0.032768592226993576, 0.23677566548398232, 0.696846283841392, 0.5855266056812596, 0.24146938667602313, 0.8799095530944427]",22.1,0.0,0.0,0.0,1751.4741689242958,209.00520607451452,-1307.3016533371313,-518.5932715427514,0.0,0.0,0.0,0.0,0.0,0.0,0.0,-8.7,21.870293850727762,0.0,21.890875601488197,0.0,-8.7,22.1,21.24,22.54,21.78,22.35,-10.16,-8.7,870.92,-912.4,-858.93,0.0,144.0,237.0,1186.0,0.0,0.0,0.0,0.0,0.0,0.0,0.0,0.0,0.0,0.0,0.0,0.0,0.0,0.0
92.0,5303.0,23638.19095477387,2217.0000000000005,-0.0,0.0,-16000.0,0.0,3877.8487259130943,0.0,0.0,0.0,3877.8487259130943,0.6533333333333333,0.5,0.577526176315006,0.0,0.0,0.0,"[0.2671953854841931, 0.4255139294065984, 0.032768592226993576, 0.23677566548398232, 0.4709956464003824, 0.33810982299675274, 0.24146938667602313, 0.6147133457495464]",22.16,0.0,0.0,0.0,636.3851866228125,186.1092498083714,-1301.339866397083,-647.3707723715562,1348.8050766612344,0.0,0.0,0.0,0.0,0.0,0.0,-8.5,21.867224324054945,0.0,21.856540072019918,0.0,-8.5,22.16,21.23,22.48,21.8,22.33,-9.92,-8.5,0.0,-908.24,-855.01,0.0,130.0,248.0,373.0,0.0,0.0,0.0,0.0,0.0,0.0,0.0,0.0,0.0,0.0,0.0,0.0,0.0,0.0
93.0,4799.0,0.0,0.0,-0.0,0.0,4799.0,0.0,7810.086316588264,0.0,7810.086316588264,0.0,0.0,0.44929421768707484,0.4667938506947778,0.577526176315006,0.0,0.0,0.0,"[0.2671953854841931, 0.4255139294065984, 0.032768592226993576, 0.23677566548398232, 0.4709956464003824, 0.33810982299675274, 0.24146938667602313, 0.6147133457495464]",22.27,0.0,0.0,0.0,647.9193547018706,112.6905609072687,-1297.2174216110718,-781.0670983537146,1277.9307859284193,0.0,0.0,0.0,0.0,0.0,0.0,-8.3,21.90513265117357,0.0,21.867150564214,0.0,-8.3,22.27,21.25,22.49,21.97,22.52,-9.68,-8.3,398.79,-905.36,-852.31,0.0,155.0,99.0,384.0,0.0,0.0,0.0,0.0,0.0,0.0,0.0,0.0,0.0,0.0,0.0,0.0,0.0,0.0
94.0,3551.0,19417.770261917685,2283.009190699728,-0.0,0.0,-13486.672219908369,0.0,4080.3667098754163,0.0,0.0,0.0,4080.3667098754163,1.0,0.4667938506947778,0.577526176315006,0.0,0.0,0.0,"[0.2671953854841931, 0.4255139294065984, 0.032768592226993576, 0.23677566548398232, 0.4709956464003824, 0.33810982299675274, 0.24146938667602313, 0.6147133457495464]",22.24,0.0,0.0,0.0,548.4819305171961,60.772842857418325,-1287.77871702284,-740.4241228806314,367.40466451179014,0.0,0.0,0.0,0.0,0.0,0.0,-8.1,21.902307911551475,0.0,21.871401839260855,0.0,-8.1,22.24,21.26,22.49,21.93,22.48,-9.45,-8.1,298.12,-898.77,-846.1,0.0,84.0,45.0,354.0,0.0,0.0,0.0,0.0,0.0,0.0,0.0,0.0,0.0,0.0,0.0,0.0,0.0,0.0
95.0,2778.0,8930.128505147246,6590.315926660231,-0.0,0.0,482.83806403872103,0.0,11904.366116673344,0.0,0.0,0.0,11904.366116673344,0.979471170746653,0.4667938506947778,0.577526176315006,0.0,0.0,0.0,"[0.2671953854841931, 0.4255139294065984, 0.032768592226993576, 0.23677566548398232, 0.4709956464003824, 0.33810982299675274, 0.24146938667602313, 0.6147133457495464]",21.73,0.0,0.0,0.0,178.60050323659485,65.10942795153551,-1257.5635387014083,-56.805369596050014,1074.3777482247033,0.0,0.0,0.0,0.0,0.0,0.0,-7.9,21.721678437766204,0.0,21.822112037485347,0.0,-7.9,21.73,21.24,22.4,21.6,22.14,-9.21,-7.9,1765.61,-877.69,-826.25,0.0,141.0,38.0,53.0,0.0,0.0,0.0,0.0,0.0,0.0,0.0,0.0,0.0,0.0,0.0,0.0,0.0,0.0
96.0,1954.0,0.0,5117.473060969769,-0.0,0.0,7071.473060969769,0.0,9536.626463941635,0.0,0.0,0.0,9536.626463941633,0.6788133025081425,0.4667938506947778,0.5615545702812882,0.0,0.0,0.0,"[0.2671953854841931, 0.4255139294065984, 0.032768592226993576, 0.23677566548398232, 0.4709956464003824, 0.33810982299675274, 0.24146938667602313, 0.6147133457495464]",21.73,0.0,0.0,0.0,228.17593373788785,41.0914181995019,-1232.1006055421478,-107.61664357172303,2173.991568315363,0.0,0.0,0.0,0.0,0.0,0.0,-7.3,21.69671984384524,0.0,21.78251615026604,0.0,-7.3,21.73,21.23,22.34,21.66,22.19,-8.64,-7.3,680.81,-859.92,-809.52,0.0,80.0,24.0,123.0,0.0,0.0,0.0,0.0,0.0,0.0,0.0,0.0,0.0,0.0,0.0,0.0,0.0,0.0
97.0,1600.0,0.0,0.0,-0.0,0.0,1600.0,0.0,13010.173968936493,0.0,13010.173968936491,0.0,0.0,0.6107860916237888,0.41147848518059205,0.5615545702812882,0.0,0.0,0.0,"[0.2671953854841931, 0.4255139294065984, 0.032768592226993576, 0.23677566548398232, 0.4709956464003824, 0.33810982299675274, 0.24146938667602313, 0.6147133457495464]",22.27,0.0,0.0,0.0,194.79132302458936,27.323518669927097,-1225.0724443265,-860.9631173191214,764.2866164117959,0.0,0.0,0.0,0.0,0.0,0.0,-6.6,21.86543031510485,0.0,21.801013747847563,0.0,-6.6,22.27,21.24,22.37,21.99,22.5,-7.93,-6.6,1880.73,-855.01,-804.91,0.0,80.0,0.0,101.0,0.0,0.0,0.0,0.0,0.0,0.0,0.0,0.0,0.0,0.0,0.0,0.0,0.0,0.0
98.0,1009.0,4890.607164920704,3857.1541290961004,-0.0,0.0,0.0,0.0,7702.769158926927,0.0,0.0,0.0,7702.769158926927,0.6107860916237888,0.41147848518059205,0.5615545702812882,0.0,0.0,0.0,"[0.2671953854841931, 0.4255139294065984, 0.032768592226993576, 0.23677566548398232, 0.4709956464003824, 0.33810982299675274, 0.24146938667602313, 0.6147133457495464]",21.73,0.0,0.0,0.0,141.7054935427134,26.140813644258778,-1172.6870948372064,-120.45686109305751,1126.7906998385183,0.0,0.0,0.0,0.0,0.0,0.0,-5.9,21.689717985608382,0.0,21.770124711672473,0.0,-5.9,21.73,21.23,22.31,21.61,22.12,-7.19,-5.9,1098.24,-818.45,-770.49,0.0,80.0,0.0,62.0,0.0,0.0,0.0,0.0,0.0,0.0,0.0,0.0,0.0,0.0,0.0,0.0,0.0,0.0
99.0,1030.0,0.0,4445.307322556939,-0.0,0.0,5475.307322556939,0.0,9046.829936786235,0.0,0.0,0.0,9046.829936786236,0.37799241294364694,0.41147848518059205,0.5615545702812882,0.0,0.0,0.0,"[0.2671953854841931, 0.4255139294065984, 0.032768592226993576, 0.23677566548398232, 0.4709956464003824, 0.33810982299675274, 0.24146938667602313, 0.6147133457495464]",21.73,0.0,0.0,0.0,405.7734658371732,32.02401300271144,-1155.7118060643659,-162.7233091901058,882.4667106101409,0.0,0.0,0.0,0.0,0.0,0.0,-5.5,21.668987022479076,0.0,21.737138633907527,0.0,-5.5,21.73,21.21,22.26,21.64,22.13,-6.78,-5.5,1979.7,-806.6,-759.33,0.0,80.0,0.0,256.0,0.0,0.0,0.0,0.0,0.0,0.0,0.0,0.0,0.0,0.0,0.0,0.0,0.0,0.0
100.0,3878.0,0.0,0.0,-0.0,0.0,3878.0,0.0,12048.678754632067,0.0,12048.678754632065,0.0,0.0,0.21311146056269453,0.36025110952314277,0.5615545702812882,0.0,0.0,0.0,"[0.2671953854841931, 0.4255139294065984, 0.032768592226993576, 0.23677566548398232, 0.4709956464003824, 0.33810982299675274, 0.24146938667602313, 0.6147133457495464]",21.73,0.0,0.0,0.0,4656.436786549921,135.950426412079,-1134.4926950983154,-207.20289564762194,-2341.7320116040128,0.0,0.0,0.0,0.0,0.0,0.0,-5.0,21.647120125250957,0.0,21.702492579182838,0.0,-5.0,21.73,21.2,22.21,21.6,22.07,-6.25,-5.0,1121.27,-791.79,-745.39,0.0,80.0,17.0,3377.0,0.0,0.0,0.0,0.0,0.0,0.0,0.0,0.0,0.0,0.0,0.0,0.0,0.0,0.0
101.0,1759.0,5232.680106326021,3447.5167057943913,-0.0,0.0,0.0,0.0,7311.980839415707,0.0,0.0,0.0,7311.980839415708,0.21311146056269453,0.36025110952314277,0.5615545702812882,0.0,0.0,0.0,"[0.2671953854841931, 0.4255139294065984, 0.032768592226993576, 0.23677566548398232, 0.4709956464003824, 0.33810982299675274, 0.24146938667602313, 0.6147133457495464]",22.27,0.0,0.0,0.0,1562.9872359056515,74.08585583865914,-1140.1960004622981,-1008.8126252099912,0.0,0.0,0.0,0.0,0.0,0.0,0.0,-4.6,21.792468466017834,0.0,21.683921473381343,0.0,-4.6,22.27,21.2,22.17,21.76,22.16,-5.65,-4.6,1944.96,-795.77,-749.14,0.0,80.0,30.0,1103.0,0.0,0.0,0.0,0.0,0.0,0.0,0.0,0.0,0.0,0.0,0.0,0.0,0.0,0.0
102.0,1490.0,1497.4874371859296,0.0,-0.0,0.0,0.0,0.0,12892.009137073026,0.0,12892.009137073026,0.0,0.0,0.21311146056269453,0.30543814550497517,0.5615545702812882,0.0,0.0,0.0,"[0.2671953854841931, 0.4255139294065984, 0.032768592226993576, 0.23677566548398232, 0.4709956464003824, 0.33810982299675274, 0.24146938667602313, 0.6147133457495464]",22.02,0.0,0.0,0.0,866.3521402487527,66.92897414487136,-1116.8343139575004,-664.4488215211641,1367.991716953613,0.0,0.0,0.0,0.0,0.0,0.0,-4.3,21.70881939951901,0.0,21.666963232024415,0.0,-4.3,22.02,21.19,22.14,21.64,22.04,-5.38,-4.3,624.79,-779.47,-733.79,0.0,111.0,29.0,575.0,0.0,0.0,0.0,0.0,0.0,0.0,0.0,0.0,0.0,0.0,0.0,0.0,0.0,0.0
103.0,2122.0,0.0,2890.381552434576,-0.0,0.0,5012.3815524345755,0.0,6295.65920460183,0.0,0.0,0.0,6295.65920460183,0.0,0.30543814550497517,0.5615545702812882,0.0,0.0,0.0,"[0.2671953854841931, 0.4255139294065984, 0.032768592226993576, 0.23677566548398232, 0.4709956464003824, 0.33810982299675274, 0.24146938667602313, 0.6147133457495464]",22.27,0.0,0.0,0.0,440.94909643852424,47.45982987617749,-1114.7330673030374,-995.1211998938506,522.9613370264473,0.0,0.0,0.0,0.0,0.0,0.0,-4.0,21.798798880243474,0.0,21.69241575341998,0.0,-4.0,22.27,21.21,22.18,21.88,22.3,-5.06,-4.0,1139.22,-778.0,-732.41,0.0,131.0,0.0,255.0,0.0,0.0,0.0,0.0,0.0,0.0,0.0,0.0,0.0,0.0,0.0,0.0,0.0,0.0
104.0,1496.0,5475.57462386332,3952.196750744003,-0.0,0.0,0.0,0.0,8721.475170946684,0.0,0.0,0.0,8721.475170946684,0.6533333333333333,0.5,0.5615545702812882,0.0,0.0,0.0,"[0.2671953854841931, 0.4255139294065984, 0.032768592226993576, 0.23677566548398232, 0.4709956464003824, 0.33810982299675274, 0.24146938667602313, 0.399111410687901]",21.73,0.0,0.0,1.0941968421730057,253.17857137510063,43.85106325939466,-1079.3230065865841,-240.1507632036018,1023.7932883088541,0.0,0.0,0.0,0.0,0.0,0.0,-3.7,21.630309676670468,0.0,21.67314568364573,0.0,-3.7,21.73,21.2,22.15,21.57,22.0,-4.7,-3.7,1179.86,-753.29,-709.14,1.8,133.0,0.0,116.0,0.0,0.0,0.0,0.0,0.0,0.0,0.0,0.0,0.0,0.0,0.0,0.0,0.0,0.0
105.0,2055.0,0.0,2638.453645398382,-0.0,5.44262398926938,4688.011021409113,0.0,6199.682035096337,0.0,0.0,0.0,6199.682035096336,0.4540131368448507,0.5,0.5615545702812882,0.0,0.0,0.0,"[0.2671953854841931, 0.4255139294065984, 0.032768592226993576, 0.23677566548398232, 0.4709956464003824, 0.33810982299675274, 0.24146938667602313, 0.399111410687901]",21.73,0.0,0.0,32.00465874970872,42.196428562516786,0.940098866556867,-1015.6656736884327,-263.8328487551664,1743.784441218133,0.0,0.0,0.0,0.0,0.0,0.0,-2.2,21.617889746751953,0.0,21.653521127582138,0.0,-2.2,21.73,21.19,22.11,21.61,22.04,-2.96,-2.2,1986.94,-708.86,-667.32,52.77,0.0,0.0,31.0,0.0,0.0,0.0,0.0,0.0,0.0,0.0,0.0,0.0,0.0,0.0,0.0,0.0,0.0
106.0,4297.0,4299.930667814931,0.0,-0.0,18.568985524143862,0.0,0.0,5572.41557135586,0.0,5572.415571355859,0.0,0.0,0.4540131368448507,0.4763077569245074,0.5615545702812882,0.0,0.0,0.0,"[0.2671953854841931, 0.4255139294065984, 0.032768592226993576, 0.23677566548398232, 0.4709956464003824, 0.33810982299675274, 0.24146938667602313, 0.399111410687901]",22.0,0.0,0.0,40.30723409277237,1024.9648615346819,22.83530472636527,-984.3724249398833,-624.657859919278,0.0,0.0,0.0,0.0,0.0,0.0,0.0,-1.2,21.704955611856583,0.0,21.66889873607957,0.0,-1.2,22.0,21.2,22.14,21.79,22.22,-1.85,-1.2,1686.36,-687.02,-646.76,66.46,0.0,0.0,753.0,0.0,0.0,0.0,0.0,0.0,0.0,0.0,0.0,0.0,0.0,0.0,0.0,0.0,0.0
107.0,5977.0,5706.031026519073,2766.296357831817,-0.0,216.81700542885437,2848.9784810164856,0.0,7106.634164298811,0.0,0.0,0.0,7106.63416429881,0.33288309938666677,0.4763077569245074,0.5615545702812882,0.0,0.0,0.0,"[0.2671953854841931, 0.4255139294065984, 0.032768592226993576, 0.23677566548398232, 0.4709956464003824, 0.33810982299675274, 0.24146938667602313, 0.399111410687901]",21.74,0.0,0.0,74.76579695693593,649.2805298167905,14.465392237020232,-918.4940701880278,-296.57689718680814,1553.2498687704126,0.0,0.0,0.0,0.0,0.0,0.0,0.1,21.610943590926606,0.0,21.636247151199047,0.0,0.1,21.74,21.19,22.08,21.51,21.91,-0.43,0.1,1621.97,-641.04,-603.48,123.27,0.0,0.0,477.0,0.0,0.0,0.0,0.0,0.0,0.0,0.0,0.0,0.0,0.0,0.0,0.0,0.0,0.0
108.0,8360.0,0.0,0.0,-0.0,530.5895024255965,7829.410497574403,0.0,6877.598874966843,0.0,6877.598874966842,0.0,0.0,0.0,0.4470662651091722,0.5615545702812882,0.0,0.0,0.0,"[0.2671953854841931, 0.4255139294065984, 0.032768592226993576, 0.23677566548398232, 0.4709956464003824, 0.33810982299675274, 0.24146938667602313, 0.399111410687901]",22.27,0.0,0.0,95.65086728287535,103.44930873391209,2.3047585115587763,-894.0543132561122,-1013.3975136340889,1700.9186017770655,0.0,0.0,0.0,0.0,0.0,0.0,1.2,21.786925668727797,0.0,21.670246007533947,0.0,1.2,22.27,21.21,22.13,21.9,22.31,0.6,1.2,1150.73,-623.98,-587.42,157.71,0.0,0.0,76.0,0.0,0.0,0.0,0.0,0.0,0.0,0.0,0.0,0.0,0.0,0.0,0.0,0.0,0.0
109.0,3250.0,4498.605075333215,1790.8727166792696,-0.0,564.7606667227212,0.0,0.0,4925.15003859791,0.0,0.0,0.0,4925.150038597909,0.0,0.4470662651091722,0.552903283679691,0.0,0.0,0.0,"[0.2671953854841931, 0.4255139294065984, 0.032768592226993576, 0.23677566548398232, 0.4709956464003824, 0.33810982299675274, 0.24146938667602313, 0.399111410687901]",22.27,0.0,0.0,99.06739350551634,209.620967697664,58.65003896519313,-860.1037357104315,-941.8646515378424,331.3783412617021,0.0,0.0,0.0,0.0,0.0,0.0,2.0,21.82121297560989,0.0,21.72226959908204,0.0,2.0,22.27,21.25,22.2,21.94,22.37,1.4,2.0,725.39,-600.29,-565.11,163.34,169.0,10.0,64.0,0.0,0.0,0.0,0.0,0.0,0.0,0.0,0.0,0.0,0.0,0.0,0.0,0.0,0.0
110.0,2289.0,10675.25305272317,2203.8623767328386,-0.0,150.4977994122986,-6279.512210139013,0.0,6123.959560504859,0.0,0.0,0.0,6123.959560504859,0.25641341524734307,0.4470662651091722,0.5529032836796905,0.0,0.0,0.0,"[0.2671953854841931, 0.4255139294065984, 0.032768592226993576, 0.23677566548398232, 0.4709956464003824, 0.33810982299675274, 0.24146938667602313, 0.399111410687901]",21.73,0.0,0.0,73.65318378549043,344.37730407473373,68.93047495754085,-824.6936749939781,-172.40296772320474,510.0842277297348,0.0,0.0,0.0,0.0,0.0,0.0,2.3,21.65988816821567,0.0,21.71277143057661,0.0,2.3,21.73,21.25,22.17,21.6,22.05,1.51,2.3,1554.05,-575.58,-541.85,121.44,166.0,25.0,163.0,0.0,0.0,0.0,0.0,0.0,0.0,0.0,0.0,0.0,0.0,0.0,0.0,0.0,0.0
111.0,1860.0,20417.93740615882,2455.9113171301206,-0.0,0.06359800209491384,-16000.0,0.0,6683.860183384895,0.0,0.0,0.0,6683.860183384895,0.9097467485806764,0.4470662651091722,0.5529032836796905,0.0,0.0,0.0,"[0.2671953854841931, 0.4255139294065984, 0.032768592226993576, 0.23677566548398232, 0.4709956464003824, 0.33810982299675274, 0.24146938667602313, 0.399111410687901]",21.73,0.0,0.0,18.58520565599771,357.9890552239326,60.74251708752941,-850.1566081532388,-198.07765049927767,613.3581352305339,0.0,0.0,0.0,0.0,0.0,0.0,1.7,21.647892437452604,0.0,21.692307676035828,0.0,1.7,21.73,21.25,22.13,21.62,22.04,0.63,1.7,792.25,-593.35,-558.58,30.64,127.0,30.0,193.0,0.0,0.0,0.0,0.0,0.0,0.0,0.0,0.0,0.0,0.0,0.0,0.0,0.0,0.0
112.0,6834.0,9125.561258295375,2245.9334520038974,-0.0,0.0,0.0,0.0,5941.107701620971,0.0,0.0,0.0,5941.10770162097,0.9097467485806764,0.4470662651091722,0.5529032836796905,0.0,0.0,0.0,"[0.2671953854841931, 0.4255139294065984, 0.032768592226993576, 0.23677566548398232, 0.4709956464003824, 0.33810982299675274, 0.24146938667602313, 0.399111410687901]",21.73,0.0,0.0,0.0,2702.290807093604,114.02489478238168,-884.1071856989197,-225.86020410644315,-598.640993734514,0.0,0.0,0.0,0.0,0.0,0.0,0.9,21.634907833131244,0.0,21.670699878193076,0.0,0.9,21.73,21.25,22.09,21.61,22.0,-0.3,0.9,1691.49,-617.04,-580.88,0.0,91.0,51.0,1932.0,0.0,0.0,0.0,0.0,0.0,0.0,0.0,0.0,0.0,0.0,0.0,0.0,0.0,0.0
113.0,6509.0,8480.82540271753,1929.4212757039413,-0.0,0.0,0.0,0.0,5122.240270708863,0.0,0.0,0.0,5122.240270708862,0.9097467485806764,0.4470662651091722,0.5415900627391405,0.0,0.0,0.0,"[0.2671953854841931, 0.4255139294065984, 0.032768592226993576, 0.23677566548398232, 0.4709956464003824, 0.33810982299675274, 0.24146938667602313, 0.399111410687901]",22.27,0.0,0.0,0.0,544.3984051724364,58.255803956637024,-902.5419576425325,-1012.2779952149559,1315.4930652526896,0.0,0.0,0.0,0.0,0.0,0.0,1.0,21.78791343627915,0.0,21.663685384554398,0.0,1.0,22.27,21.25,22.08,21.78,22.1,-0.24,1.0,0.0,-629.91,-592.99,0.0,136.0,13.0,327.0,0.0,0.0,0.0,0.0,0.0,0.0,0.0,0.0,0.0,0.0,0.0,0.0,0.0,0.0
114.0,3651.0,0.0,1870.6727825516143,-0.0,0.0,5521.672782551615,0.0,4984.108083087052,0.0,0.0,0.0,4984.108083087052,0.6749817493225295,0.4470662651091722,0.5402590955696631,0.0,0.0,0.0,"[0.2671953854841931, 0.4255139294065984, 0.032768592226993576, 0.23677566548398232, 0.4709956464003824, 0.33810982299675274, 0.24146938667602313, 0.399111410687901]",22.27,0.0,0.0,0.0,348.46082941949345,7.763397091566412,-898.2981354493222,-958.0340231938562,1500.5513440583072,0.0,0.0,0.0,0.0,0.0,0.0,1.1,21.814189482636248,0.0,21.703745609116215,0.0,1.1,22.27,21.28,22.13,21.91,22.27,-0.15,1.1,0.0,-626.95,-590.21,0.0,0.0,0.0,256.0,0.0,0.0,0.0,0.0,0.0,0.0,0.0,0.0,0.0,0.0,0.0,0.0,0.0,0.0
115.0,5402.0,0.0,818.7686034635793,-0.0,0.0,6220.768603463579,0.0,2197.088981352011,0.0,0.0,0.0,2197.0889813520107,0.4104932882909148,0.4470662651091722,0.528945874629113,0.0,0.0,0.0,"[0.2671953854841931, 0.4255139294065984, 0.032768592226993576, 0.23677566548398232, 0.4709956464003824, 0.33810982299675274, 0.24146938667602313, 0.399111410687901]",22.27,0.0,0.0,0.0,224.5938939617829,5.003752031673666,-889.810491062902,-907.8168740773556,1568.3155119898533,0.0,0.0,0.0,0.0,0.0,0.0,1.3,21.83846376501868,0.0,21.740471456782362,0.0,1.3,22.27,21.3,22.18,21.92,22.3,0.03,1.3,0.0,-621.02,-584.63,0.0,0.0,0.0,165.0,0.0,0.0,0.0,0.0,0.0,0.0,0.0,0.0,0.0,0.0,0.0,0.0,0.0,0.0
116.0,4821.0,21459.161483579537,530.8656761616419,-0.0,0.0,-16000.0,0.0,1429.5893041986367,0.0,0.0,0.0,1429.5893041986367,0.8362813122636341,0.4470662651091722,0.5156362029343481,0.0,0.0,0.0,"[0.2671953854841931, 0.24452387780026186, 0.032768592226993576, 0.23677566548398232, 0.4709956464003824, 0.2865597486509408, 0.24146938667602313, 0.18293146626812273]",22.27,0.0,0.0,0.0,171.50806447990692,3.8210470060053443,-885.5666688696921,-859.9630154769854,469.22410899803015,0.0,0.0,0.0,0.0,0.0,0.0,1.4,21.861611883491733,0.0,21.77521598589952,0.0,1.4,22.27,21.32,22.23,21.94,22.34,0.17,1.4,0.0,-618.06,-581.84,0.0,0.0,0.0,126.0,0.0,0.0,0.0,0.0,0.0,0.0,0.0,0.0,0.0,0.0,0.0,0.0,0.0,0.0
117.0,7116.0,0.0,1249.6055112733961,-0.0,0.0,8365.605511273396,0.0,3388.9381528104213,0.0,0.0,0.0,3388.9381528104213,0.48060080583194215,0.4470662651091722,0.5156362029343481,0.0,0.0,0.0,"[0.2671953854841931, 0.24452387780026186, 0.032768592226993576, 0.23677566548398232, 0.4709956464003824, 0.2865597486509408, 0.24146938667602313, 0.18293146626812273]",21.73,0.0,0.0,0.0,180.53480471569148,32.7518314800458,-854.4004303464488,-109.62669805336492,752.6111362677094,0.0,0.0,0.0,0.0,0.0,0.0,1.6,21.690967192116062,0.0,21.751678183253098,0.0,1.6,21.73,21.32,22.18,21.61,22.01,0.35,1.6,0.0,-596.31,-561.36,0.0,100.0,0.0,80.0,0.0,0.0,0.0,0.0,0.0,0.0,0.0,0.0,0.0,0.0,0.0,0.0,0.0,0.0
118.0,4070.0,0.0,0.0,-0.0,0.0,4070.0,0.0,4763.71753385696,0.0,4763.71753385696,0.0,0.0,0.3075565881448673,0.4268123640298484,0.5156362029343481,0.0,0.0,0.0,"[0.2671953854841931, 0.24452387780026186, 0.032768592226993576, 0.23677566548398232, 0.4709956464003824, 0.2865597486509408, 0.24146938667602313, 0.18293146626812273]",21.73,0.0,0.0,0.0,352.97419953738563,57.40668239974695,-850.1566081532388,-143.10967123643127,1687.358926467558,0.0,0.0,0.0,0.0,0.0,0.0,1.7,21.674684306517843,0.0,21.725215837013174,0.0,1.7,21.73,21.31,22.14,21.64,22.03,0.41,1.7,586.64,-593.35,-558.58,0.0,146.0,14.0,181.0,0.0,0.0,0.0,0.0,0.0,0.0,0.0,0.0,0.0,0.0,0.0,0.0,0.0,0.0
119.0,2142.0,1066.1313739956508,2407.0927334673584,-0.0,0.0,3488.292016341685,0.0,6596.8935766422055,0.0,0.0,0.0,6596.8935766422055,0.1592448527561902,0.4268123640298484,0.5156362029343481,0.0,0.0,0.0,"[0.2671953854841931, 0.24452387780026186, 0.032768592226993576, 0.23677566548398232, 0.4709956464003824, 0.2865597486509408, 0.24146938667602313, 0.18293146626812273]",22.27,0.0,0.0,0.0,128.88179114425756,57.04277316107978,-864.3475579036415,-882.0548759183738,1563.7359079274877,0.0,0.0,0.0,0.0,0.0,0.0,1.9,21.85065300333814,0.0,21.754668434123595,0.0,1.9,22.27,21.33,22.18,21.97,22.34,0.62,1.9,0.0,-603.25,-567.9,0.0,130.0,31.0,23.0,0.0,0.0,0.0,0.0,0.0,0.0,0.0,0.0,0.0,0.0,0.0,0.0,0.0,0.0
120.0,1462.0,0.0,2283.438936825594,-0.0,0.0,3745.438936825594,0.0,6170.932302546026,0.0,0.0,0.0,6170.932302546026,0.0,0.4268123640298484,0.5156362029343481,0.0,0.0,0.0,"[0.2671953854841931, 0.24452387780026186, 0.032768592226993576, 0.23677566548398232, 0.4709956464003824, 0.2865597486509408, 0.24146938667602313, 0.18293146626812273]",22.27,0.0,0.0,0.0,73.50345620567438,1.6375915740022873,-881.3228466764818,-829.0271986584811,534.1078240883019,0.0,0.0,0.0,0.0,0.0,0.0,1.5,21.876644459116434,0.0,21.794006187162758,0.0,1.5,22.27,21.36,22.23,21.98,22.36,0.13,1.5,165.3,-615.1,-579.05,0.0,0.0,0.0,54.0,0.0,0.0,0.0,0.0,0.0,0.0,0.0,0.0,0.0,0.0,0.0,0.0,0.0,0.0
121.0,1016.0,15931.221371763117,2730.8944803525947,-0.0,0.0,-12104.670784551708,0.0,7302.065506949428,0.0,0.0,0.0,7302.065506949427,0.4942740570358614,0.4268123640298484,0.5156362029343481,0.0,0.0,0.0,"[0.2671953854841931, 0.24452387780026186, 0.032768592226993576, 0.23677566548398232, 0.4709956464003824, 0.2865597486509408, 0.24146938667602313, 0.18293146626812273]",21.73,0.0,0.0,0.0,95.28225804439273,2.1228038922251877,-871.3757191192893,-78.63300544496762,852.7249080762091,0.0,0.0,0.0,0.0,0.0,0.0,1.2,21.70630694060396,0.0,21.771256523140643,0.0,1.2,21.73,21.35,22.19,21.63,22.03,-0.21,1.2,0.0,-608.16,-572.52,0.0,0.0,0.0,70.0,0.0,0.0,0.0,0.0,0.0,0.0,0.0,0.0,0.0,0.0,0.0,0.0,0.0,0.0
122.0,941.0,0.0,3463.815069640944,-0.0,0.0,4404.815069640944,0.0,9129.71576507326,0.0,0.0,0.0,9129.71576507326,0.30699450475520906,0.4268123640298484,0.5156362029343481,0.0,0.0,0.0,"[0.2671953854841931, 0.24452387780026186, 0.032768592226993576, 0.23677566548398232, 0.4709956464003824, 0.2865597486509408, 0.24146938667602313, 0.18293146626812273]",21.73,0.0,0.0,0.0,268.2947792302637,28.96111024392939,-888.3510078921297,-114.97274684255456,1808.9167052646928,0.0,0.0,0.0,0.0,0.0,0.0,0.8,21.68888988987622,0.0,21.743465186768134,0.0,0.8,21.73,21.34,22.15,21.66,22.04,-0.62,0.8,773.49,-620.0,-583.67,0.0,80.0,0.0,155.0,0.0,0.0,0.0,0.0,0.0,0.0,0.0,0.0,0.0,0.0,0.0,0.0,0.0,0.0
123.0,2031.0,0.0,2159.8602153204715,-0.0,0.0,4190.860215320472,0.0,5672.239249788809,0.0,0.0,0.0,5672.239249788809,0.12881167247117536,0.4268123640298484,0.5156362029343481,0.0,0.0,0.0,"[0.2671953854841931, 0.24452387780026186, 0.032768592226993576, 0.23677566548398232, 0.4709956464003824, 0.2865597486509408, 0.24146938667602313, 0.18293146626812273]",22.27,0.0,0.0,0.0,167.56782072619143,26.717003272148474,-915.2734242221628,-856.4110289368202,1016.5783699833992,0.0,0.0,0.0,0.0,0.0,0.0,0.7,21.863818853664977,0.0,21.771859629892617,0.0,0.7,22.27,21.36,22.19,21.99,22.36,-0.74,0.7,878.86,-638.79,-601.36,0.0,80.0,0.0,81.0,0.0,0.0,0.0,0.0,0.0,0.0,0.0,0.0,0.0,0.0,0.0,0.0,0.0,0.0
124.0,1787.0,5679.801938190995,3864.4029285000406,-0.0,0.0,0.0,0.0,10075.03957174906,0.0,0.0,0.0,10075.039571749057,0.12881167247117536,0.4268123640298484,0.5156362029343481,0.0,0.0,0.0,"[0.2671953854841931, 0.24452387780026186, 0.032768592226993576, 0.23677566548398232, 0.4709956464003824, 0.2865597486509408, 0.24146938667602313, 0.18293146626812273]",21.99,0.0,0.0,0.0,174.37369630079093,26.86863212159313,-912.1797884816044,-448.7344898817204,1723.5537906556021,0.0,0.0,0.0,0.0,0.0,0.0,0.5,21.788696249490613,0.0,21.778760777405317,0.0,0.5,21.99,21.36,22.2,21.8,22.18,-0.89,0.5,977.42,-636.63,-599.33,0.0,80.0,0.0,86.0,0.0,0.0,0.0,0.0,0.0,0.0,0.0,0.0,0.0,0.0,0.0,0.0,0.0,0.0
125.0,697.0,4016.061996156819,3298.981686176035,-0.0,0.0,0.0,0.0,8538.00680670626,0.0,0.0,0.0,8538.006806706258,0.12881167247117536,0.4268123640298484,0.5156362029343481,0.0,0.0,0.0,"[0.2671953854841931, 0.24452387780026186, 0.032768592226993576, 0.23677566548398232, 0.4709956464003824, 0.2865597486509408, 0.24146938667602313, 0.18293146626812273]",22.27,0.0,0.0,0.0,148.51136911731288,26.292442493703437,-932.2487129950031,-806.7496691216908,464.5015763199344,0.0,0.0,0.0,0.0,0.0,0.0,0.3,21.888109119317967,0.0,21.808650120111437,0.0,0.3,22.27,21.38,22.24,22.0,22.38,-1.1,0.3,1004.27,-650.64,-612.51,0.0,80.0,0.0,67.0,0.0,0.0,0.0,0.0,0.0,0.0,0.0,0.0,0.0,0.0,0.0,0.0,0.0,0.0
126.0,930.0,0.0,2099.6505365220446,-0.0,0.0,3029.6505365220446,0.0,5414.033126623182,0.0,0.0,0.0,5414.033126623182,0.0,0.4268123640298484,0.5156362029343481,0.0,0.0,0.0,"[0.2671953854841931, 0.24452387780026186, 0.032768592226993576, 0.23677566548398232, 0.4709956464003824, 0.2865597486509408, 0.24146938667602313, 0.18293146626812273]",21.73,0.0,0.0,0.0,149.51434025462228,39.8177358641668,-913.8139410513903,-59.019604105306136,785.7756872374869,0.0,0.0,0.0,0.0,0.0,0.0,0.2,21.71632868185011,0.0,21.784181619612504,0.0,0.2,21.73,21.37,22.2,21.65,22.03,-1.16,0.2,175.99,-637.77,-600.4,0.0,127.0,0.0,43.0,0.0,0.0,0.0,0.0,0.0,0.0,0.0,0.0,0.0,0.0,0.0,0.0,0.0,0.0
127.0,674.0,6371.434092912821,4250.136362712701,-0.0,0.0,-1415.4405597355565,0.0,10918.629232428422,0.0,0.0,0.0,10918.629232428424,0.05779715618920189,0.4268123640298484,0.5156362029343481,0.0,0.0,0.0,"[0.2671953854841931, 0.24452387780026186, 0.032768592226993576, 0.23677566548398232, 0.4709956464003824, 0.2865597486509408, 0.24146938667602313, 0.18293146626812273]",21.73,0.0,0.0,0.0,108.89400919359169,2.4260615911145034,-918.0577632446003,-95.96235730942341,2004.0333216664196,0.0,0.0,0.0,0.0,0.0,0.0,0.1,21.698476310101697,0.0,21.756126785864325,0.0,0.1,21.73,21.36,22.15,21.67,22.05,-1.3,0.1,969.89,-640.74,-603.19,0.0,0.0,0.0,80.0,0.0,0.0,0.0,0.0,0.0,0.0,0.0,0.0,0.0,0.0,0.0,0.0,0.0,0.0
128.0,1632.0,3957.4308955262227,2305.6437410485914,-0.0,0.0,0.0,0.0,5945.19486700182,0.0,0.0,0.0,5945.19486700182,0.05779715618920189,0.4268123640298484,0.5156362029343481,0.0,0.0,0.0,"[0.2671953854841931, 0.24452387780026186, 0.03276859222702555, 0.23677566548398232, 0.4709956464003824, 0.2865597486509408, 0.24146938667602313, 0.1829314662674797]",22.27,0.0,0.0,2.206529993297092,62.61405528631523,1.394985414890837,-936.4925351882132,-835.5335770772654,604.5720112546707,0.0,0.0,0.0,0.0,0.0,0.0,0.2,21.87413920681526,0.0,21.78604630002168,0.0,0.2,22.27,21.37,22.2,22.01,22.38,-1.1,0.2,988.65,-653.6,-615.3,3.64,0.0,0.0,46.0,0.0,0.0,0.0,0.0,0.0,0.0,0.0,0.0,0.0,0.0,0.0,0.0,0.0,0.0
129.0,1734.0,0.0,1184.842042558403,-1164.7306467982605,4083.5726893566634,0.0,0.0,3348.844764380712,0.0,0.0,0.0,3348.844764380712,0.05779715618920189,0.4268123640298484,0.5205989682989668,0.0,0.0,0.0,"[0.2671953854841931, 0.24452387780026186, 0.03276859222702555, 0.23677566548398232, 0.4709956464003824, 0.2865597486509408, 0.24146938667602313, 0.1829314662674797]",21.73,0.0,0.0,590.3950860003414,84.39285712503357,1.8801977331137376,-803.4745640279276,-78.38956400392568,1273.6254926269455,0.0,0.0,0.0,0.0,0.0,0.0,2.8,21.705085141790565,0.0,21.766143313881734,0.0,2.8,21.73,21.36,22.17,21.65,22.02,2.31,2.8,321.23,-560.77,-527.9,973.42,0.0,0.0,62.0,0.0,0.0,0.0,0.0,0.0,0.0,0.0,0.0,0.0,0.0,0.0,0.0,0.0,0.0
130.0,6009.0,11870.979514221242,0.0,-0.0,10197.375383349863,-16000.0,0.0,3625.805786325521,0.0,3625.805786325521,0.0,0.0,0.7111304895225352,0.41139652310159364,0.5205989682989667,0.0,0.0,0.0,"[0.2671953854841931, 0.24452387780026186, 0.03276859222702555, 0.23677566548398232, 0.4709956464003824, 0.2865597486509408, 0.24146938667602313, 0.1829314662674797]",22.27,0.0,0.0,946.8116102530608,108.89400919359169,2.4260615911145034,-720.057603334498,-766.9842798023756,0.0,0.0,0.0,0.0,0.0,0.0,0.0,5.3,21.903948667469933,0.0,21.83315652998403,0.0,5.3,22.27,21.39,22.27,22.09,22.6,5.41,5.3,0.0,-502.55,-473.1,1561.07,0.0,0.0,80.0,0.0,0.0,0.0,0.0,0.0,0.0,0.0,0.0,0.0,0.0,0.0,0.0,0.0,0.0
131.0,5670.0,0.0,522.4038630212243,-3945.7282677729154,10138.13213079414,0.0,0.0,1675.7349135342579,0.0,0.0,0.0,1675.7349135342579,0.7111304895225352,0.41139652310159364,0.5374112017877383,0.0,0.0,0.0,"[0.2671953854841931, 0.24452387780026186, 0.03276859222702555, 0.23677566548398232, 0.4709956464003824, 0.2865597486509408, 0.24146938667602313, 0.1829314662674797]",22.08,0.0,0.0,775.7383418162839,38.112903217757086,0.8491215568900745,-648.5559530420688,-403.18637918917887,0.0,0.0,0.0,0.0,0.0,0.0,0.0,6.8,21.894777877817727,0.0,21.904308040931443,0.0,6.8,22.08,21.42,22.39,21.97,22.64,6.87,6.8,0.0,-452.64,-426.12,1279.01,0.0,0.0,28.0,0.0,0.0,0.0,0.0,0.0,0.0,0.0,0.0,0.0,0.0,0.0,0.0,0.0,0.0
132.0,7322.0,0.0,228.67843170460492,-0.0,10011.232091107335,-2460.55365940273,0.0,755.3411953502849,0.0,0.0,0.0,755.3411953502849,0.8116030972814801,0.41139652310159364,0.5374112017877383,0.0,0.0,0.0,"[0.2671953854841931, 0.24452387780026186, 0.03276859222702555, 0.23677566548398232, 0.4709956464003824, 0.2865597486509408, 0.24146938667602313, 0.1829314662674797]",21.99,0.0,0.0,720.8455700207807,108.89400919359169,2.4260615911145034,-602.0102727732723,-208.49283895308946,0.0,0.0,0.0,0.0,0.0,0.0,0.0,7.8,21.891907460844003,0.0,21.94349413125488,0.0,7.8,21.99,21.44,22.44,21.91,22.57,7.84,7.8,0.0,-420.16,-395.54,1188.5,0.0,0.0,80.0,0.0,0.0,0.0,0.0,0.0,0.0,0.0,0.0,0.0,0.0,0.0,0.0,0.0,0.0
133.0,4681.0,0.0,4732.694954589268,-0.0,9413.694954589268,0.0,0.0,2629.5927218399347,0.0,-13183.309722444641,0.0,15812.902444284575,0.8116030972814801,0.4652283711349093,0.5374112017877383,0.0,0.0,0.0,"[0.2671953854841931, 0.24452387780026186, 0.03276859222702555, 0.23677566548398232, 0.4709956464003824, 0.2865597486509408, 0.24146938667602313, 0.1829314662674797]",22.01,0.0,0.0,686.4131104179054,99.36578338915241,2.213781201891984,-586.1857227917637,-206.57386983761253,496.798451179507,0.0,0.0,0.0,0.0,0.0,0.0,8.2,21.91976644134402,0.0,21.973243003335597,0.0,8.2,22.01,21.46,22.48,21.92,22.58,8.22,8.2,0.0,-409.11,-385.14,1131.73,0.0,0.0,73.0,0.0,0.0,0.0,0.0,0.0,0.0,0.0,0.0,0.0,0.0,0.0,0.0,0.0,0.0
134.0,3226.0,0.0,570.0736602306984,-4574.2813763881495,8370.355036618848,0.0,0.0,1904.7327710278341,0.0,0.0,0.0,1904.7327710278341,0.8116030972814801,0.4652283711349093,0.5569016180871313,0.0,0.0,0.0,"[0.2671953854841931, 0.24452387780026186, 0.03276859222702555, 0.23677566548398232, 0.4709956464003824, 0.2865597486509408, 0.24146938667602313, 0.1829314662674797]",22.27,0.0,0.0,626.6853360966007,69.4199308609147,1.5466142643354945,-596.9867597314053,-509.2978195122387,0.0,0.0,0.0,0.0,0.0,0.0,0.0,8.2,22.027675053532548,0.0,22.023536667116883,0.0,8.2,22.27,21.5,22.55,22.09,22.75,7.9,8.2,0.0,-416.65,-392.24,1033.26,0.0,0.0,51.0,0.0,0.0,0.0,0.0,0.0,0.0,0.0,0.0,0.0,0.0,0.0,0.0,0.0,0.0
135.0,3358.0,0.0,594.7615567303684,-1420.3470900539223,5373.108646784291,0.0,0.0,1930.5196414433349,0.0,0.0,0.0,1930.5196414433349,0.8116030972814801,0.4652283711349093,0.5629535317751871,0.0,0.0,0.0,"[0.2671953854841931, 0.24452387780026186, 0.03276859222702555, 0.23677566548398232, 0.4709956464003824, 0.2865597486509408, 0.24146938667602313, 0.1829314662674797]",22.08,0.0,0.0,596.9955394160942,118.42223499803096,2.6383419803370196,-631.6174119682056,-206.77868951646903,0.0,0.0,0.0,0.0,0.0,0.0,0.0,7.2,21.991141309501526,0.0,22.04836625387044,0.0,7.2,22.08,21.52,22.58,21.96,22.62,6.52,7.2,0.0,-440.82,-414.99,984.3,0.0,0.0,87.0,0.0,0.0,0.0,0.0,0.0,0.0,0.0,0.0,0.0,0.0,0.0,0.0,0.0,0.0
136.0,1982.0,11407.850975578602,4755.0100214716485,-0.0,0.0,-4613.8016992290595,0.0,6284.017428262865,0.0,-8515.50094655283,0.0,14799.518374815692,1.0,0.5,0.4677893791576184,0.0,0.0,0.0,"[0.2671953854841931, 0.24452387780026186, 0.03276859222702555, 0.23677566548398232, 0.4709956464003824, 0.2865597486509408, 0.24146938667602313, 0.1829314662674797]",22.04,0.0,0.0,0.0,68.0587557459948,1.5162884944465638,-689.1205746271243,-126.44705297027205,813.3801913369523,0.0,0.0,0.0,0.0,0.0,0.0,5.8,21.986314584522116,0.0,22.05955880007858,0.0,5.8,22.04,21.54,22.58,21.95,22.6,4.21,5.8,0.0,-480.96,-452.77,0.0,0.0,0.0,50.0,0.0,0.0,0.0,0.0,0.0,0.0,0.0,0.0,0.0,0.0,0.0,0.0,0.0,0.0
137.0,4009.0,0.0,218.5455436117126,-0.0,0.0,4227.545543611713,0.0,671.8684604761594,0.0,0.0,0.0,671.8684604761593,0.8202574173634476,0.5,0.4598035761407595,0.0,0.0,0.0,"[0.2671953854841931, 0.24452387780026186, 0.03276859222702555, 0.23677566548398232, 0.4709956464003824, 0.2865597486509408, 0.24146938667602313, 0.1829314662674797]",22.07,0.0,0.0,0.0,84.39285712503357,1.8801977331137376,-707.4818963593108,-206.21960090190348,130.90885823272728,0.0,0.0,0.0,0.0,0.0,0.0,5.4,21.98049679860975,0.0,22.031718026412214,0.0,5.4,22.07,21.54,22.52,21.92,22.38,3.8,5.4,0.0,-493.77,-464.83,0.0,0.0,0.0,62.0,0.0,0.0,0.0,0.0,0.0,0.0,0.0,0.0,0.0,0.0,0.0,0.0,0.0,0.0
138.0,4064.0,914.8847022228429,7715.230278711727,-0.0,0.0,16000.0,0.0,2900.1903180156332,25655.4,0.0,0.0,23424.510318015637,0.1399853085199102,0.5,0.44982132236968586,20524.320000000003,5131.080000000001,25655.4,"[0.2671953854841931, 0.24452387780026186, 0.03276859222702555, 0.23677566548398232, 0.4709956464003824, 0.2865597486509408, 0.24146938667602313, 0.1829314662674797]",21.73,0.0,0.0,0.0,108.89400919359169,2.4260615911145034,-710.1104757773055,214.58550571489937,384.3434655046255,0.0,0.0,0.0,0.0,0.0,0.0,5.0,21.846642722967555,0.0,21.9742738938806,0.0,5.0,21.73,21.53,22.42,21.7,22.13,3.47,5.0,0.0,-495.6,-466.56,0.0,0.0,0.0,80.0,0.0,0.0,0.0,0.0,0.0,0.0,0.0,0.0,0.0,0.0,0.0,0.0,0.0,0.0
139.0,3292.0,20758.20148684055,1362.4104794063471,-0.0,0.0,-16000.0,0.0,4084.514265356331,0.0,0.0,0.0,4084.5142653563307,0.7933186418532435,0.5,0.4258639133191091,0.0,0.0,0.0,"[0.2671953854841931, 0.24452387780026186, 0.03276859222702555, 0.23677566548398232, 0.4709956464003824, 0.2865597486509408, 0.24146938667602313, 0.1829314662674797]",21.73,0.0,0.0,0.0,38.112903217757086,0.8491215568900745,-727.0857645501459,145.77099075618094,1643.5959528689036,0.0,0.0,0.0,0.0,0.0,0.0,4.6,21.813425401235673,0.0,21.92034027087751,0.0,4.6,21.73,21.51,22.33,21.71,22.1,3.14,4.6,242.81,-507.45,-477.71,0.0,0.0,0.0,28.0,0.0,0.0,0.0,0.0,0.0,0.0,0.0,0.0,0.0,0.0,0.0,0.0,0.0,0.0
140.0,3584.0,9809.559905195114,1114.9278245240823,-0.0,0.0,-5061.584281145057,0.0,3300.044080301812,0.0,0.0,0.0,3300.044080301812,1.0,0.5,0.4258639133191091,0.0,0.0,0.0,"[0.2671953854841931, 0.24452387780026186, 0.03276859222702555, 0.23677566548398232, 0.4709956464003824, 0.2865597486509408, 0.24146938667602313, 0.1829314662674797]",22.27,0.0,0.0,0.0,125.22811057263046,2.7899708297816774,-766.7396474598092,-617.1348688496113,1256.015786067979,0.0,0.0,0.0,0.0,0.0,0.0,4.2,21.978052288304955,0.0,21.93160233623779,0.0,4.2,22.27,21.53,22.34,22.06,22.43,2.8,4.2,0.0,-535.13,-503.77,0.0,0.0,0.0,92.0,0.0,0.0,0.0,0.0,0.0,0.0,0.0,0.0,0.0,0.0,0.0,0.0,0.0,0.0
141.0,3613.0,3631.1557788944724,0.0,-0.0,0.0,0.0,0.0,1656.5936721624707,0.0,1656.593672162471,0.0,0.0,1.0,0.49295665955713236,0.4258639133191091,0.0,0.0,0.0,"[0.2671953854841931, 0.24452387780026186, 0.03276859222702555, 0.23677566548398232, 0.4709956464003824, 0.2865597486509408, 0.24146938667602313, 0.1829314662674797]",22.27,0.0,0.0,0.0,538.1656559620137,43.30519940139389,-783.7149362326496,-594.4093383478067,0.0,0.0,0.0,0.0,0.0,0.0,0.0,3.8,21.98925784200155,0.0,21.947636199872452,0.0,3.8,22.27,21.54,22.35,22.03,22.4,2.47,3.8,0.0,-546.98,-514.92,0.0,109.0,0.0,338.0,0.0,0.0,0.0,0.0,0.0,0.0,0.0,0.0,0.0,0.0,0.0,0.0,0.0,0.0
142.0,3486.0,0.0,0.0,-0.0,0.0,3486.0,0.0,4985.394797010148,0.0,4985.394797010148,0.0,0.0,0.8517857142857143,0.4717602531072593,0.4258639133191091,0.0,0.0,0.0,"[0.2671953854841931, 0.24452387780026186, 0.03276859222702555, 0.23677566548398232, 0.4709956464003824, 0.2865597486509408, 0.24146938667602313, 0.1829314662674797]",21.88,0.0,0.0,0.0,83.03168201011367,1.8498719632248068,-784.2325787184836,-72.57579204590292,469.9645942367774,0.0,0.0,0.0,0.0,0.0,0.0,3.4,21.854703087918224,0.0,21.913465323289827,0.0,3.4,21.88,21.53,22.3,21.76,22.1,2.06,3.4,0.0,-547.34,-515.26,0.0,0.0,0.0,61.0,0.0,0.0,0.0,0.0,0.0,0.0,0.0,0.0,0.0,0.0,0.0,0.0,0.0,0.0
143.0,2169.0,1463.7431656738547,2308.112620955599,-0.0,0.0,3020.688171110113,0.0,6567.671459401554,0.0,0.0,0.0,6567.671459401554,0.7233550947657265,0.4717602531072593,0.4258639133191091,0.0,0.0,0.0,"[0.2671953854841931, 0.24452387780026186, 0.03276859222702555, 0.23677566548398232, 0.4709956464003824, 0.2865597486509408, 0.24146938667602313, 0.1829314662674797]",21.73,0.0,0.0,0.0,108.89400919359169,2.4260615911145034,-794.9869196415075,88.39090173356658,1696.609219020334,0.0,0.0,0.0,0.0,0.0,0.0,3.0,21.786368316892077,0.0,21.873254694753747,0.0,3.0,21.73,21.52,22.23,21.71,22.06,1.65,3.0,0.0,-554.84,-522.33,0.0,0.0,0.0,80.0,0.0,0.0,0.0,0.0,0.0,0.0,0.0,0.0,0.0,0.0,0.0,0.0,0.0,0.0
144.0,968.0,0.0,0.0,-0.0,0.0,968.0,0.0,5981.013555918919,0.0,5981.013555918918,0.0,0.0,0.6821986321806924,0.44633077370284213,0.4258639133191091,0.0,0.0,0.0,"[0.2671953854841931, 0.24452387780026186, 0.03276859222702555, 0.23677566548398232, 0.4709956464003824, 0.2865597486509408, 0.24146938667602313, 0.1829314662674797]",22.27,0.0,0.0,0.0,158.03959492175213,26.504722882925954,-838.8846247443809,-667.5681262765538,222.22756357536034,0.0,0.0,0.0,0.0,0.0,0.0,2.5,21.954413924821296,0.0,21.891152142044078,0.0,2.5,22.27,21.52,22.26,22.06,22.39,1.23,2.5,0.0,-585.48,-551.17,0.0,80.0,0.0,74.0,0.0,0.0,0.0,0.0,0.0,0.0,0.0,0.0,0.0,0.0,0.0,0.0,0.0,0.0
145.0,1542.0,3661.64506934848,2101.3368440017375,-0.0,0.0,0.0,0.0,5799.002429266474,0.0,0.0,0.0,5799.002429266474,0.6821986321806924,0.44633077370284213,0.4258639133191091,0.0,0.0,0.0,"[0.2671953854841931, 0.24452387780026186, 0.03276859222702555, 0.23677566548398232, 0.4709956464003824, 0.2865597486509408, 0.24146938667602313, 0.1829314662674797]",21.73,0.0,0.0,0.0,248.5219196661642,36.11799193771718,-833.1813193803983,70.26608970051736,480.338222779498,0.0,0.0,0.0,0.0,0.0,0.0,2.1,21.777961330785537,0.0,21.859840746427405,0.0,2.1,21.73,21.51,22.21,21.69,22.02,0.92,2.1,213.35,-581.5,-547.42,0.0,80.0,14.0,139.0,0.0,0.0,0.0,0.0,0.0,0.0,0.0,0.0,0.0,0.0,0.0,0.0,0.0,0.0
146.0,827.0,0.0,2488.6471402813136,-0.0,0.0,3315.6471402813136,0.0,6749.226989233949,0.0,0.0,0.0,6749.226989233948,0.5412272401619291,0.44633077370284213,0.4258639133191091,0.0,0.0,0.0,"[0.2671953854841931, 0.24452387780026186, 0.03276859222702555, 0.23677566548398232, 0.4709956464003824, 0.2865597486509408, 0.24146938667602313, 0.1829314662674797]",21.73,0.0,0.0,0.0,184.54668926492906,34.69268075293741,-854.4004303464488,21.188939560612766,1717.1483234833033,0.0,0.0,0.0,0.0,0.0,0.0,1.6,21.754369900103207,0.0,21.823343555768027,0.0,1.6,21.73,21.49,22.16,21.71,22.02,0.5,1.6,632.46,-596.31,-561.36,0.0,80.0,14.0,92.0,0.0,0.0,0.0,0.0,0.0,0.0,0.0,0.0,0.0,0.0,0.0,0.0,0.0,0.0
147.0,522.0,0.0,1944.9232033971196,-0.0,0.0,2466.9232033971193,0.0,5237.561089215462,0.0,0.0,0.0,5237.561089215462,0.4363410495413033,0.44633077370284213,0.4258639133191091,0.0,0.0,0.0,"[0.2671953854841931, 0.24452387780026186, 0.03276859222702555, 0.23677566548398232, 0.4709956464003824, 0.2865597486509408, 0.24146938667602313, 0.1829314662674797]",22.27,0.0,0.0,0.0,142.13533831584598,27.778405218261067,-885.5666688696921,-725.6776675942965,341.7224705581239,0.0,0.0,0.0,0.0,0.0,0.0,1.4,21.926724856491273,0.0,21.848736713906728,0.0,1.4,22.27,21.5,22.2,22.06,22.37,0.27,1.4,899.22,-618.06,-581.84,0.0,80.0,3.0,62.0,0.0,0.0,0.0,0.0,0.0,0.0,0.0,0.0,0.0,0.0,0.0,0.0,0.0,0.0
148.0,654.0,3331.474906774823,2660.817532240949,-0.0,0.0,0.0,0.0,7114.688634895307,0.0,0.0,0.0,7114.688634895306,0.4363410495413033,0.44633077370284213,0.4258639133191091,0.0,0.0,0.0,"[0.2671953854841931, 0.24452387780026186, 0.03276859222702555, 0.23677566548398232, 0.4709956464003824, 0.2865597486509408, 0.24146938667602313, 0.1829314662674797]",21.73,0.0,0.0,0.0,54.44700459679584,1.2130307955572517,-871.3757191192893,20.41567057778334,1032.1489028791925,0.0,0.0,0.0,0.0,0.0,0.0,1.2,21.7541719281513,0.0,21.824120393951304,0.0,1.2,21.73,21.49,22.16,21.69,22.01,0.16,1.2,297.84,-608.16,-572.52,0.0,0.0,0.0,40.0,0.0,0.0,0.0,0.0,0.0,0.0,0.0,0.0,0.0,0.0,0.0,0.0,0.0,0.0
149.0,704.0,3163.1130838486765,2443.2975184294332,-0.0,0.0,0.0,0.0,6463.189588783649,0.0,0.0,0.0,6463.189588783649,0.4363410495413033,0.44633077370284213,0.4258639133191091,0.0,0.0,0.0,"[0.2671953854841931, 0.24452387780026186, 0.03276859222702555, 0.23677566548398232, 0.4709956464003824, 0.2865597486509408, 0.24146938667602313, 0.1829314662674797]",21.85,0.0,0.0,0.0,95.28225804439273,2.1228038922251877,-888.9835518589493,-170.32662987851717,1826.4414643030125,0.0,0.0,0.0,0.0,0.0,0.0,0.9,21.776716940356906,0.0,21.807583761364043,0.0,0.9,21.85,21.47,22.14,21.79,22.1,-0.1,0.9,0.0,-620.45,-584.09,0.0,0.0,0.0,70.0,0.0,0.0,0.0,0.0,0.0,0.0,0.0,0.0,0.0,0.0,0.0,0.0,0.0,0.0
150.0,1145.0,4397.519060450844,3230.5314651485905,-0.0,0.0,0.0,0.0,8514.840848587683,0.0,0.0,0.0,8514.840848587684,0.4363410495413033,0.44633077370284213,0.4258639133191091,0.0,0.0,0.0,"[0.2671953854841931, 0.24452387780026186, 0.03276859222702555, 0.23677566548398232, 0.4709956464003824, 0.2865597486509408, 0.24146938667602313, 0.1829314662674797]",22.27,0.0,0.0,0.0,117.06105988311108,2.6080162104480924,-911.0296020289526,-744.1123853388533,1535.6218699681947,0.0,0.0,0.0,0.0,0.0,0.0,0.8,21.91799858671087,0.0,21.83716513396289,0.0,0.8,22.27,21.48,22.19,22.05,22.36,-0.14,0.8,0.0,-635.83,-598.57,0.0,0.0,0.0,86.0,0.0,0.0,0.0,0.0,0.0,0.0,0.0,0.0,0.0,0.0,0.0,0.0,0.0,0.0
151.0,1889.0,0.0,2529.2553770120167,-0.0,0.0,4418.255377012017,0.0,6618.235110354279,0.0,0.0,0.0,6618.23511035428,0.2484900556207244,0.44633077370284213,0.4258639133191091,0.0,0.0,0.0,"[0.2671953854841931, 0.24452387780026186, 0.03276859222702555, 0.23677566548398232, 0.4709956464003824, 0.2865597486509408, 0.24146938667602313, 0.1829314662674797]",22.27,0.0,0.0,0.0,69.4199308609147,1.5466142643354945,-919.5172464153727,-703.9334569082466,451.37778849786895,0.0,0.0,0.0,0.0,0.0,0.0,0.6,21.93759195945262,0.0,21.868124180726287,0.0,0.6,22.27,21.5,22.24,22.03,22.36,-0.32,0.6,875.25,-641.76,-604.15,0.0,0.0,0.0,51.0,0.0,0.0,0.0,0.0,0.0,0.0,0.0,0.0,0.0,0.0,0.0,0.0,0.0,0.0
