,0
import_elec,16037108.65779495
import_th,0.0
consum_elec,2304480.0
consum_th,30307781.947365537
consum_cold,200000.0
pow_elec_hp,13158446.162095897
pow_th_hp,29741750.2209844
pow_th_gb,0.0
pow_th_chp,0.0
pow_gas_gb,0.0
pow_elec_eh,599857.935005315
pow_elec_ac,100000.0
pow_elec_chp,0.0
pow_th_eh_in,2399431.74002126
pow_th_eh_out,2999289.675026575
consum_dhw,877185.21
gen_pv,46584.89266875454
trans_to_hub,39323.58062680054
trans_to_bul,16076235.620518617
dh_to_bul_1,0.0
dh_to_bul_2,0.0
temp_zone_1,535.6889208240399
temp_zone_2,0.0
temp_amb,-78.9
pow_elec_bat,88625.02735793301
pow_th_tes,885801.0906763528
soc_bat_avg,10.733886721207867
soc_tes_avg,8.709199960518315
soc_ev_1,18.668213834206213
soc_ev_2,0.0
consum_ev_drive,1132350.0
consum_ev_charge,-28956.684714702205
soc_ev_1_driving,3.97787610619469
soc_ev_2_driving,0.0
obj_cost,4089.462707737713
obj_co2,75591.36492697566
obj_peak,16037108.65779495
emi_factor_elec,113.0
emi_factor_dh,2124.0
price_elec,1800.0
price_dh,2202.33
slack_ext,0.0
restload_avg,0.0
renovation_cost_construction,6640156.578815999
renovation_cost_hp,815685.8690585487
renovation_cost_pv,1644606.4381736678
renovation_cost_total,9100448.886048215
