,import_elec,import_th,consum_elec,consum_th,consum_cold,pow_elec_hp,pow_th_hp,pow_th_gb,pow_th_chp,pow_gas_gb,pow_elec_eh,pow_elec_ac,pow_elec_chp,pow_th_eh_in,pow_th_eh_out,consum_dhw,gen_pv,trans_to_hub,trans_to_bul,dh_to_bul_1,dh_to_bul_2,temp_zone_1,temp_zone_2,temp_amb,pow_elec_bat,pow_th_tes,soc_bat_avg,soc_tes_avg,soc_ev_1,soc_ev_2,consum_ev_drive,consum_ev_charge,soc_ev_1_driving,soc_ev_2_driving,obj_cost,obj_co2,obj_peak,emi_factor_elec,emi_factor_dh,price_elec,price_dh,slack_ext,restload_avg,renovation_cost_construction,renovation_cost_hp,renovation_cost_pv,renovation_cost_total
8.0,1309882.7334982932,0.0,69287.0,2514371.779465792,0.0,1357880.8264886257,2258621.091414092,0.0,0.0,0.0,5701.404,0.0,0.0,22805.616,28507.02,28507.02,0.0,0.0,1309882.7334982934,0.0,,20.0,,-9.4,129535.910657824,278556.3040516969,0.32669391373700635,0.44756889388666743,0.8,,0.0,0.0,0.09882005899705015,,235.79199085702774,6549.413667491466,1309882.7334982932,5.0,77.0,0.01,91.52000000000001,,,8329549.151200001,584534.1623520406,1644606.4381736678,10558689.751725705
9.0,1119647.8297983804,0.0,82052.0,1908009.1502319875,0.0,821290.700287784,1428724.779612234,0.0,0.0,0.0,153240.5735605504,0.0,0.0,612962.2942422016,766202.867802752,0.0,309.1126808240767,0.0,1119647.8297983804,0.0,,20.0,,-8.6,-57775.42948187821,341367.85441525915,0.40692219807754854,0.39127792582874743,0.8,,0.0,0.0,0.13126843657817108,,201.54780584200643,5598.239148991902,1119647.8297983804,5.0,79.0,0.01,91.52000000000001,,,,,,
10.0,928715.5300353611,0.0,109330.0,1687813.9494073098,0.0,801007.8545130877,1469803.0934060223,0.0,0.0,0.0,21616.433442116482,0.0,0.0,86465.73376846593,108082.16721058241,42916.92,15448.341916689384,0.0,928715.530035361,0.0,,24.0,,-7.6,-7566.006346669475,240614.6475033829,0.44355291514690104,0.34756121042900834,0.8,,0.0,0.0,0.2713864306784661,,167.18736971696572,4643.577650176805,928715.5300353611,5.0,82.0,0.02,91.52000000000001,,,,,,
11.0,1228615.4267137288,0.0,155740.0,1490599.2342774784,9375.60820399334,826071.1832141122,1578794.3730503356,0.0,0.0,0.0,238072.92223672464,4687.80410199667,0.0,952291.6889468986,1190364.611183623,33791.04,42875.801929513436,0.0,1228615.4267137286,0.0,,20.22892655332487,,-6.8,-45464.0460588367,-269345.5495859113,0.5484721193898038,0.40728993634173477,0.8,,0.0,0.0,0.34513274336283184,,221.2490660426083,4914.461706854915,1228615.4267137288,4.0,85.0,0.08,91.52000000000001,,,,,,
12.0,398297.2347711084,0.0,155636.0,1132101.096014405,0.0,359944.2020068354,708517.2158678805,0.0,0.0,0.0,35108.58350861347,0.0,0.0,140434.33403445387,175542.91754306733,38034.24,92453.65374194663,0.0,398297.2347711085,0.0,,24.0,,-6.2,61929.3831762494,429259.71018877206,0.4508617472993115,0.36420361017150005,0.8,,34200.0,0.0,0.38495575221238937,,71.7293490099289,1593.1889390844335,398297.2347711084,4.0,86.0,0.09,91.52000000000001,,,,,,
13.0,1188333.8532955067,0.0,139377.0,1571348.0122509117,9572.110911065913,858613.5903964123,1698287.6904346799,0.0,0.0,0.0,146297.34632405164,4786.055455532956,0.0,585189.3852962066,731486.7316202582,0.0,18108.070853137448,0.0,1188333.853295507,0.0,,23.943504893397492,,-6.1,-56212.31816170288,-258607.28987541428,0.5333080210509203,0.38833152275674754,0.7956655228463068,,74100.0,0.0,0.35250737463126847,,214.01892697852077,4753.335413182027,1188333.8532955067,4.0,87.0,0.1,91.53,,,,,,
14.0,525816.3368862554,0.0,110966.0,1015365.8597563563,0.0,469155.0925812689,905598.4599610973,0.0,0.0,0.0,6204.6140000000005,0.0,0.0,24818.456000000002,31023.07,31023.07,209.14370235410638,0.0,525816.3368862553,0.0,,20.811436593935703,,-6.6,62929.30767709065,134585.85579525898,0.46038493316942836,0.3633286636791164,0.7903377280115587,,28350.0,0.0,0.29646017699115046,,94.74684574353437,2629.0816844312767,525816.3368862554,5.0,88.0,0.19,91.53999999999999,,,,,,
15.0,591431.6223348269,0.0,93163.0,1031358.5812636287,0.0,377834.9388193072,704111.3130673027,0.0,0.0,0.0,115192.07431660467,0.0,0.0,460768.2972664187,575960.3715830233,19304.77,0.0,0.0,591431.6223348269,0.0,,20.0,,-7.3,-2284.4510872409082,242493.07591138204,0.4685285453228148,0.3532144032609985,0.7866353621094456,,52950.0,0.0,0.2743362831858407,,106.57006402851245,2957.1581116741345,591431.6223348269,5.0,89.0,0.19,91.53999999999999,,,,,,
16.0,822135.4026708127,0.0,87131.0,1026889.4247261273,0.0,399854.0417808396,748956.7695985425,0.0,0.0,0.0,349114.7846436673,0.0,0.0,1396459.1385746691,1745573.9232183364,0.0,0.0,0.0,822135.4026708124,0.0,,24.0,,-7.2,18075.100767048545,-36270.65105171542,0.4289026419620224,0.36948919584885764,0.7769730901210042,,114750.0,0.0,0.20501474926253688,,148.2063490394674,4110.677013354063,822135.4026708127,5.0,96.0,0.27,91.55,,,,,,
17.0,522357.2291822217,0.0,122923.0,925870.361449042,0.0,420611.3306442337,795856.3705485092,0.0,0.0,0.0,0.0,0.0,0.0,0.0,0.0,0.0,0.0,0.0,522357.22918222175,0.0,,20.938971106991303,,-7.0,23788.88760792312,130013.99090053322,0.4051509311894338,0.35462453363035595,0.7764312804767926,,54000.0,0.0,0.19174041297935104,,97.43529395935981,2089.4289167288866,522357.2291822217,4.0,99.0,6.53,91.56,,,,,,
18.0,795630.6057770096,0.0,146883.0,1167680.600215273,46853.60526597627,655667.004037731,1246865.7607232549,0.0,0.0,0.0,9523.235365125574,23426.802632988136,0.0,38092.9414605023,47616.17682562787,0.0,0.0,0.0,795630.6057770097,0.0,,20.07681157228599,,-6.9,20420.786654730884,-87756.07233659508,0.3124963222800788,0.35726899315478083,0.7704713743904642,,42600.0,0.0,0.11946902654867256,,152.9599839606301,3182.5224231080383,795630.6057770096,4.0,97.0,12.25,91.56,,,,,,
19.0,792335.2758790143,0.0,155233.0,748999.8906846525,0.0,128969.17912265641,246487.00793984105,0.0,0.0,0.0,491259.537959982,0.0,0.0,1965038.151839928,2456297.68979991,0.0,0.0,0.0,792335.2758790142,0.0,,24.0,,-6.8,-12911.882416980821,60379.29858082782,0.2591108000788155,0.3460753952364605,0.7660465956294022,,54450.0,0.0,0.07374631268436578,,150.65462935563576,3169.341103516057,792335.2758790143,4.0,94.0,10.14,91.55,,,,,,
20.0,594005.8391675784,0.0,163615.0,221419.36544803638,0.0,282201.32319306815,544726.2274753143,0.0,0.0,0.0,5635.3060000000005,0.0,0.0,22541.224000000002,28176.53,28176.53,0.0,0.0,594005.8391675783,0.0,,22.000349280064647,,-6.6,-139584.18077867234,-300765.6380272779,0.5652887945238114,0.39560330049546605,0.7606284991872856,,69000.0,0.0,0.045722713864306784,,107.34873525436477,2376.0233566703137,594005.8391675784,4.0,91.0,0.72,91.53999999999999,,,,,,
21.0,1135149.4407978544,0.0,149252.0,1580682.9494587295,95064.74606397172,776641.7329978368,1506536.273246763,0.0,0.0,0.0,121723.17842193683,47532.37303198586,0.0,486892.7136877473,608615.8921096841,0.0,0.0,0.0,1135149.4407978544,0.0,,21.508970547082043,,-6.5,-81856.78217409413,-35404.1843677773,0.6319122693105514,0.3889510599220904,0.7606284991872856,,20250.0,0.0,0.045722713864306784,,204.73555314230103,4540.5977631914175,1135149.4407978544,4.0,94.0,0.36,91.55,,,,,,
22.0,755214.9728501332,0.0,110385.0,1112157.3339090815,36126.72031345441,448534.66936287563,878623.4234977621,0.0,0.0,0.0,244267.66281470074,18063.360156727205,0.0,977070.651258803,1221338.3140735035,0.0,0.0,0.0,755214.9728501332,0.0,,22.491029452917957,,-6.3,51748.43419169374,13693.01387808886,0.5556241173147439,0.384437149189465,0.7606284991872856,,32400.0,0.0,0.045722713864306784,,136.0821859578655,3020.859891400533,755214.9728501332,4.0,95.0,0.19,91.55,,,,,,
23.0,403886.146060829,0.0,79276.0,857984.1906567594,57115.5427804875,338363.3390185054,666037.2623771243,0.0,0.0,0.0,4455.799999999996,28557.77139024375,0.0,17823.199999999983,22278.999999999978,0.0,0.0,0.0,403886.146060829,0.0,,22.491029452917957,,-6.2,20228.423687980598,187936.70827963506,0.5153823745691748,0.37251490608208565,0.7518692432725304,,53100.0,0.0,0.016224188790560472,,72.77220579724018,2019.430730304145,403886.146060829,5.0,91.0,0.18,91.55,,,,,,
24.0,769405.5031330421,0.0,60882.0,1020053.2312905971,59320.56707952374,587801.285514742,1162636.7189814497,0.0,0.0,0.0,125735.53203272259,29660.28353976187,0.0,502942.12813089037,628677.6601636129,291453.74,0.0,0.0,769405.5031330421,0.0,,22.491029452917957,,-6.1,8860.34193008651,29879.198679697773,0.458226443592208,0.37329291619894994,0.7518692432725295,,21000.0,0.0,0.016224188790560472,,138.51607272904158,3077.6220125321684,769405.5031330421,4.0,85.0,0.03,91.53999999999999,,,,,,
25.0,299464.0359159826,0.0,52437.0,734845.7082832231,0.0,146315.16507867374,290797.74493593554,0.0,0.0,0.0,96102.4949429889,0.0,0.0,384409.9797719556,480512.47471494443,0.0,0.0,0.0,299464.0359159826,0.0,,21.508970547082043,,-6.0,-3112.0557147401014,357555.7178985973,0.5174771997723949,0.35020021517871286,0.7518692432725295,,0.0,0.0,0.016224188790560472,,53.90652110523603,1497.320179579913,299464.0359159826,5.0,82.0,0.01,91.53999999999999,,,,,,
26.0,659107.466709338,0.0,38667.0,995310.4193482114,0.0,593813.9313159371,1197173.4240661198,0.0,0.0,0.0,31381.915999999997,0.0,0.0,125527.66399999999,156909.58,156909.58,0.0,0.0,659107.4667093381,0.0,,22.491029452917957,,-5.7,8050.9179401453675,-76335.34071790801,0.5181058248416586,0.36474733911561413,0.7467220516525185,,36000.0,0.0,0.011799410029498525,,118.64593508234793,3295.53733354669,659107.466709338,5.0,80.0,0.01,91.53999999999999,,,,,,
27.0,192712.1830314751,0.0,35396.0,732832.8067496964,0.0,222655.35875842418,453135.1870724997,0.0,0.0,0.0,0.0,0.0,0.0,0.0,0.0,0.0,0.0,0.0,192712.18303147514,0.0,,21.508970547082043,,-5.5,66302.73664210638,279697.6196771963,0.42349079275416707,0.3292847833035979,0.7467220516525186,,7200.0,0.0,0.011799410029498525,,34.68819294566552,963.5609151573756,192712.1830314751,5.0,81.0,0.0,91.53999999999999,,,,,,
28.0,357533.6103176471,0.0,34490.0,752032.6782445936,0.0,316592.140330811,647328.0107403602,0.0,0.0,0.0,0.0,0.0,0.0,0.0,0.0,0.0,0.0,0.0,357533.6103176471,0.0,,22.491029452917957,,-5.4,-4663.801935247899,104704.66750423338,0.4032584889299652,0.30935346285544735,0.7334477153693327,,88200.0,0.0,0.0,,64.42040590703367,1787.6680515882356,357533.6103176471,5.0,90.0,0.18,91.57,,,,,,
29.0,446077.7984258348,0.0,38411.0,701082.0984904417,0.0,377639.7433082438,779350.8249028729,0.0,0.0,0.0,1750.3860000000002,0.0,0.0,7001.544000000001,8751.93,8751.93,0.0,0.0,446077.79842583486,0.0,,21.508970547082043,,-5.2,-26046.280125461977,-71267.1824124316,0.4584135067314512,0.3240604325097915,0.7334477153693327,,0.0,0.0,0.0,,82.58238282257479,2230.3889921291743,446077.7984258348,5.0,105.0,5.13,92.05,,,,,,
30.0,507045.68546251405,0.0,52131.0,660116.9403446023,0.0,480345.94204537565,995889.1587894199,0.0,0.0,0.0,4655.834,0.0,0.0,18623.336,23279.17,23279.17,0.0,0.0,507045.6854625141,0.0,,22.491029452917957,,-5.1,32622.319010174186,-317148.8824448176,0.4345616315272915,0.35631992344086505,0.7334477153693327,,0.0,0.0,0.0,,101.97702826022083,2535.22842731257,507045.68546251405,5.0,119.0,21.12,94.75999999999999,,,,,,
31.0,475056.8241499536,0.0,54227.0,533991.9337160472,0.0,319244.9219512577,664925.9260543566,0.0,0.0,0.0,117451.9066523383,0.0,0.0,469807.6266093532,587259.5332616915,187551.86,0.0,0.0,475056.8241499536,0.0,,21.508970547082043,,-5.0,18242.28857439216,-52839.88552541381,0.398967671266642,0.35693247527900385,0.7334477153693327,,0.0,0.0,0.0,,110.78325139176917,9976.193307149026,475056.8241499536,21.0,129.0,53.2,96.11,,,,,,
32.0,226648.15493278886,0.0,65818.0,111021.71741777529,0.0,107917.08743610723,226828.20292181568,0.0,0.0,0.0,0.0,0.0,0.0,0.0,0.0,0.0,0.0,0.0,226648.15493278884,0.0,,21.508970547082043,,-4.8,-51779.82672201769,-115806.48550404036,0.6336764225766638,0.3823736909796177,0.7334477153693327,,0.0,0.0,0.01032448377581121,,57.64115876250686,9745.87066210992,226648.15493278886,43.0,169.0,74.32,91.72,,,,,,
33.0,445280.27928903035,0.0,91985.0,694304.4432891599,3331.016308987515,121279.48346235881,266476.2312957381,0.0,0.0,0.0,216853.8469299625,1665.5081544937575,0.0,867415.38771985,1084269.2346498123,20334.97,293.81152601583824,0.0,445280.27928903024,0.0,,21.508970547082043,,-3.8,-13229.359026279668,252588.0203564554,0.6655639605995283,0.36957785390933584,0.7334477153693327,,0.0,0.0,0.03392330383480826,,113.2436806287862,17811.211171561215,445280.27928903035,40.0,168.0,74.32,91.74000000000001,,,,,,
34.0,210525.96221178886,0.0,106474.0,682456.0044496111,34574.13804623296,118942.4127227515,273814.2609028598,0.0,0.0,0.0,48978.04680248051,17287.06902311648,0.0,195912.18720992203,244890.23401240254,84460.0,4939.076712440339,0.0,210525.96221178886,0.0,,22.491029452917957,,-2.7,59982.05041206174,447332.3014245191,0.6057048855376732,0.3209042908500305,0.7334477153693327,,0.0,0.0,0.05752212389380531,,53.54096270970214,8210.512526259765,210525.96221178886,39.0,166.0,74.32,91.75,,,,,,
35.0,404924.8614077946,0.0,149396.0,675932.4754520059,7572.21416072928,288793.4792722288,692355.5895396986,0.0,0.0,0.0,0.0,3786.10708036464,0.0,0.0,0.0,0.0,24062.603974953952,0.0,404924.86140779464,0.0,,22.491029452917957,,-1.7,11226.638196519096,-16423.11408769237,0.5678939220639324,0.3308614683765229,0.7334477153693327,,0.0,0.0,0.08997050147492625,,102.98049075323031,15387.144733496194,404924.8614077946,38.0,165.0,74.32,91.78,,,,,,
36.0,555296.4624310788,0.0,155092.0,837533.2727148306,151262.55942367745,347778.24740617385,856974.4393863182,0.0,0.0,0.0,0.0,75631.27971183872,0.0,0.0,0.0,0.0,33984.432958609716,0.0,555296.4624310788,0.0,,21.51317044546736,,-1.0,8752.339951298238,-19441.166671487903,0.5045929785670111,0.3342408868081904,0.7868629221600144,,0.0,-92386.50562265862,0.10176991150442477,,141.22299632547194,21101.265572380995,555296.4624310788,38.0,164.0,74.32,91.84,,,,,,
37.0,566439.7696255194,0.0,133187.0,694584.4304004306,41463.80362424359,255221.95760514395,636202.0715680816,0.0,0.0,0.0,222899.21362436726,20731.901812121796,0.0,891596.854497469,1114496.068121836,77304.31,9941.227623027782,0.0,566439.7696255193,0.0,,22.491029452917957,,-0.7,37759.37282909161,-66468.70962958175,0.3793890093655205,0.357406313634704,0.7795484919631569,,90000.0,0.0,0.14454277286135692,,144.0569622111621,21524.711245769737,566439.7696255194,38.0,162.0,74.32,91.84,,,,,,
38.0,509065.53151709447,0.0,105852.0,459612.97436278436,810.6187856584065,162840.21675056432,396603.9441071136,0.0,0.0,0.0,233090.50367535785,405.30939282920326,0.0,932362.0147014314,1165452.5183767893,47083.2,9.963167547039804,0.0,509065.53151709447,0.0,,21.938721037009078,,-1.3,-4747.446601133875,-100630.88705215098,0.43669497514764605,0.38044627460688446,0.7795484919631569,,8550.0,0.0,0.19911504424778761,,125.72900497409199,19344.49019764959,509065.53151709447,38.0,161.0,66.98,91.84,,,,,,
39.0,668001.8354170289,0.0,91064.0,533858.4717584775,40.5662008512467,240653.87672804043,572356.9014367178,0.0,0.0,0.0,320250.7218897392,20.28310042562335,0.0,1281002.8875589569,1601253.609448696,0.0,0.0,0.0,668001.8354170287,0.0,,22.491029452917957,,-1.9,-12693.22762216398,-326724.0793790056,0.4599667668994777,0.4329833721603289,0.7741303955210402,,176550.0,0.0,0.24041297935103245,,169.87286674655044,24716.067910430065,668001.8354170289,37.0,164.0,74.3,91.84,,,,,,
40.0,335988.7383119696,0.0,89856.0,438653.7394717067,2841.739385904593,243166.45469987387,573696.3069284277,0.0,0.0,0.0,0.0,1420.8696929522964,0.0,0.0,0.0,0.0,0.0,0.0,335988.7383119697,0.0,,22.057079064605645,,-2.1,-1286.33992053594,-135042.56745672075,0.4855172251340602,0.4331156272063662,0.7741303955210402,,24750.0,0.0,0.25073746312684364,,85.44865592750011,12095.594579230905,335988.7383119696,36.0,164.0,74.32,91.84,,,,,,
41.0,393328.1872353047,0.0,116208.0,504182.13099997333,3002.522164438845,283723.63624854945,663972.1639933971,0.0,0.0,0.0,0.0,1501.2610822194224,0.0,0.0,0.0,0.0,0.0,0.0,393328.1872353046,0.0,,21.508970547082043,,-2.3,8570.08994942129,-159790.03299342364,0.44093587853855415,0.4391917849367934,0.7717825537294564,,19800.0,0.0,0.2345132743362832,,100.03122457768268,13766.486553235663,393328.1872353047,35.0,164.0,74.32,91.85,,,,,,
42.0,669824.3157460334,0.0,156438.0,568765.8812351719,1665.7195883764616,257222.22115324065,597048.9985144237,0.0,0.0,0.0,206197.1413037582,832.8597941882308,0.0,824788.5652150328,1030985.7065187908,66075.19,0.0,0.0,669824.3157460336,0.0,,21.508970547082043,,-2.5,-46617.8317103045,-149106.85825263403,0.4211396766027591,0.42908721589341875,0.7397254831135994,,164700.0,0.0,0.1799410029498525,,170.3497199805312,22774.026735365136,669824.3157460334,34.0,165.0,74.32,91.77000000000001,,,,,,
43.0,1121318.2967259288,0.0,164162.0,559028.7464022828,27003.87599486412,259030.08009798688,596306.4672226208,0.0,0.0,0.0,166721.49471602065,13501.93799743206,0.0,666885.9788640826,833607.4735801033,36095.17,0.0,0.0,1121318.2967259286,0.0,,22.491029452917957,,-2.7,-45798.130428292105,-151953.79946475654,0.4488504847562244,0.4432791297282031,1.0,,74100.0,-480000.0,0.11799410029498525,,285.16245604037096,39246.14038540751,1121318.2967259288,35.0,166.0,74.31,91.75999999999999,,,,,,
44.0,353645.75647320587,0.0,166276.0,266725.43838268635,23063.355954224608,102954.02070296863,235044.81141207024,0.0,0.0,0.0,0.0,11531.677977112304,0.0,0.0,0.0,0.0,0.0,0.0,353645.7564732059,0.0,,21.508970547082043,,-2.9,-82647.50698787173,31680.62697061603,0.5503661366804014,0.4555762630698362,0.9978327614231532,,31500.0,0.0,0.1135693215339233,,82.70359660882393,8133.852398883735,353645.75647320587,23.0,125.0,53.86,95.97999999999999,,,,,,
45.0,677261.6500347203,0.0,158556.0,987341.4210900537,206339.49188916877,508478.2146078312,1151164.669154416,0.0,0.0,0.0,1660.7663620287833,103169.74594458439,0.0,6643.065448115133,8303.831810143916,0.0,0.0,0.0,677261.6500347204,0.0,,21.508970547082043,,-3.1,-5180.360814688613,-165317.9377901871,0.4843243824815544,0.46007627188123285,0.9877189813978688,,117150.0,0.0,0.045722713864306784,,137.6534303695569,3386.3082501736017,677261.6500347203,5.0,94.0,23.25,95.03,,,,,,
46.0,349685.5255271679,0.0,111584.0,632033.0332318452,355.8645211793954,203071.39322349738,455869.7658263961,0.0,0.0,0.0,2527.7178290438815,177.9322605896977,0.0,10110.871316175526,12638.589145219406,0.0,0.0,0.0,349685.52552716783,0.0,,21.508970547082075,,-3.3,-30753.986846991436,173888.3213593089,0.5640394660673296,0.4374457517314799,0.9877189813978688,,43500.0,0.0,0.045722713864306784,,71.05260193186525,1398.7421021086716,349685.5255271679,4.0,99.0,23.19,94.97999999999999,,,,,,
47.0,122398.28360141096,0.0,77971.0,584404.9993335634,38256.81116400805,145454.95640204215,325141.4368061557,0.0,0.0,0.0,16064.693107717503,19128.405582004027,0.0,64258.77243087001,80323.46553858751,17220.08,0.0,0.0,122398.28360141098,0.0,,22.491029452917957,,-3.4,117704.35732635573,261681.0171304616,0.40342081065980057,0.4059792696011353,0.9877189813978688,,13500.0,0.0,0.045722713864306784,,23.47231884624258,611.9914180070548,122398.28360141096,5.0,95.0,11.77,93.72,,,,,,
48.0,337287.56741079345,0.0,59497.0,658383.4089971223,56.83449333056469,184422.39324142542,391149.08521662,0.0,0.0,0.0,117842.49288284186,28.417246665282345,0.0,471369.97153136745,589212.4644142092,0.0,0.0,0.0,337287.56741079333,0.0,,22.491029452917957,,-4.6,26160.75655052792,161176.08018594503,0.39403885534562655,0.39631132746818426,0.9877189813978688,,73500.0,0.0,0.045722713864306784,,63.98345153782752,1686.437837053967,337287.56741079345,5.0,92.0,9.7,93.50999999999999,,,,,,
49.0,304997.7612523325,0.0,59857.0,640884.0432011448,776.3115234769717,165213.56063015494,331507.8983642222,0.0,0.0,0.0,90524.90622127705,388.15576173848586,0.0,362099.6248851082,452624.5311063852,0.0,0.0,0.0,304997.7612523324,0.0,,22.491029452917957,,-5.8,12122.694405361191,227903.72923777325,0.39228121737748284,0.3714075793173797,0.974444645114683,,93000.0,0.0,0.0,,54.90874695825742,1524.9888062616624,304997.7612523325,5.0,93.0,0.03,92.62,,,,,,
50.0,490419.23437630414,0.0,44749.0,574655.4339944269,24192.692391276367,274570.31439487316,519526.02784135786,0.0,0.0,0.0,163140.2456848537,12096.346195638183,0.0,652560.9827394148,815701.2284242685,0.0,0.0,0.0,490419.2343763041,0.0,,22.491029452917957,,-7.0,-5507.578124695672,-91696.81496329956,0.42586824405569307,0.37588253326245713,0.974444645114683,,0.0,0.0,0.0,,88.2803663800785,2452.0961718815206,490419.23437630414,5.0,93.0,0.01,92.62,,,,,,
51.0,350767.50016856263,0.0,34388.0,585172.5590489488,0.0,353703.95642597554,649026.3065158916,0.0,0.0,0.0,36240.663615285,0.0,0.0,144962.65446114,181203.318076425,0.0,0.0,0.0,350767.5001685627,0.0,,22.491029452917957,,-7.6,75318.95737354073,-96470.34472069883,0.30868354429284955,0.3891311576136385,0.974444645114683,,0.0,0.0,0.0,,63.14165770534295,1753.837500842813,350767.50016856263,5.0,95.0,0.01,92.62,,,,,,
52.0,372029.79894420074,0.0,35471.0,600153.1676953108,19564.77867542108,276942.041760003,489691.4176706243,0.0,0.0,0.0,34419.04835946924,9782.38933771054,0.0,137676.19343787697,172095.2417973462,24354.83,0.0,0.0,372029.79894420074,0.0,,21.508970547082043,,-8.3,-23337.55983000741,103352.33990116396,0.3799817517263778,0.3891116764214895,0.974444645114683,,0.0,0.0,0.0,,66.96908410794558,1860.1489947210039,372029.79894420074,5.0,100.0,0.01,92.64,,,,,,
53.0,385529.781057943,0.0,39869.0,434894.93846283545,0.0,282165.3278297478,482787.46725980396,0.0,0.0,0.0,53231.905470336555,0.0,0.0,212927.62188134622,266159.5273516828,0.0,0.0,0.0,385529.781057943,0.0,,21.508970547082043,,-8.9,24963.397169441,-95801.24372027133,0.4083303386809926,0.40680142789720686,0.9936973354400929,,0.0,-33299.29602200995,0.0,,69.39921588824032,1542.119124231772,385529.781057943,4.0,110.0,0.01,92.86,,,,,,
54.0,481064.1881815509,0.0,46611.0,508782.0320679743,0.0,371778.6312037316,618395.2533929114,0.0,0.0,0.0,16771.270147415962,0.0,0.0,67085.08058966385,83856.3507370798,0.0,0.0,0.0,481064.1881815509,0.0,,22.491029452917957,,-9.4,-43497.96588949542,-124707.36445761166,0.47645050479731843,0.4047117639507912,0.9936973354400929,,0.0,0.0,0.0,,86.59636451456097,1924.2567527262036,481064.1881815509,4.0,120.0,0.01,92.92,,,,,,
55.0,234139.93248031024,0.0,55714.0,494841.97871877404,0.0,278706.5441442715,450299.5064391441,0.0,0.0,0.0,21300.170000000002,0.0,0.0,85200.68000000001,106500.85,106500.85,0.0,0.0,234139.93248031024,0.0,,21.508970547082043,,-9.9,122751.48132636287,129743.15227963007,0.2917093922509474,0.3811454994309847,0.9936973354400929,,0.0,0.0,0.0,,42.147529245780646,936.5597299212409,234139.93248031024,4.0,127.0,0.01,92.92,,,,,,
56.0,416365.8428758202,0.0,69299.0,254371.99235738907,0.0,205787.6102216372,336409.799460608,0.0,0.0,0.0,12307.648085252331,0.0,0.0,49230.592341009324,61538.24042626165,27318.12,0.0,0.0,416365.8428758201,0.0,,21.508970547082043,,-9.7,-126889.75535455153,-66342.93277994602,0.4040077914612603,0.3759433031486255,0.9936973354400929,,0.0,0.0,0.0,,75.00414293565024,1665.4633715032808,416365.8428758202,4.0,126.0,0.14,92.92,,,,,,
57.0,251113.62910414033,0.0,76362.0,519567.57611576904,9.085218423323365,253547.17557455896,472495.8344937106,0.0,0.0,0.0,42992.888305004126,4.5426092116616825,0.0,171971.5532200165,214964.44152502064,0.0,134134.13055538983,0.0,251113.6291041403,0.0,,22.49102945291796,,-7.3,12106.225003427146,8378.14214755464,0.38125375698135094,0.3873760944229542,0.9936973354400929,,0.0,-23196.352637873464,0.0,,45.23560914681983,753.340887312421,251113.62910414033,3.0,126.0,0.14,92.92,,,,,,
58.0,143493.56646875275,0.0,114096.0,429983.66886024043,7281.421489145495,178325.67945443062,368018.1120945645,0.0,0.0,0.0,40886.321097812615,3640.7107445727465,0.0,163545.28439125046,204431.60548906308,0.0,301358.1891124045,0.0,143493.56646875275,0.0,,22.491029452917957,,-5.2,-48955.72225071318,25167.86777764462,0.4526652428445254,0.39536358259399274,0.9936973354400929,,0.0,-61870.56494585705,0.028023598820058997,,25.833146771369556,430.48069940625817,143493.56646875275,3.0,128.0,0.03,92.91,,,,,,
59.0,327092.00298834755,0.0,155896.0,473178.0563683942,21958.30580882227,434517.5139701734,971294.841402307,0.0,0.0,0.0,85810.10681276406,10979.152904411138,0.0,343240.42725105624,429050.53406382026,239569.1,433629.07983900723,0.0,327092.00298834755,0.0,,21.646740981223697,,-3.4,-36647.96106384556,-340568.16316540074,0.4730210933183394,0.45595057840878345,0.9936973354400929,,0.0,-46214.04096563009,0.08407079646017698,,58.88310237796233,981.2760089650426,327092.00298834755,3.0,129.0,0.02,92.91,,,,,,
60.0,342903.49760422873,0.0,148380.0,430995.7911749096,65455.53435317179,250985.13664333263,584964.5653638934,0.0,0.0,0.0,222089.0013745056,32727.76717658589,0.0,888356.0054980224,1110445.006872528,11802.45,474310.68080396485,0.0,342903.49760422873,0.0,,21.508970547082043,,-2.4,-143200.09797109332,-342282.4744260389,0.6652335188276203,0.49718654669268936,1.0,,0.0,-50845.424931240894,0.13716814159292035,,61.72605860373721,1028.7104928126862,342903.49760422873,3.0,129.0,0.01,92.91,,,,,,
61.0,116593.4856590258,0.0,136052.0,404566.07524323015,24868.953486188053,143498.616429857,338552.56226339453,0.0,0.0,0.0,66489.53608056478,12434.476743094026,0.0,265958.1443222591,332447.6804028239,0.0,394716.8510462536,0.0,116593.4856590258,0.0,,22.491029452917957,,-2.1,-104716.23787368856,6172.930507327255,0.8112100445009721,0.5078374750005016,0.9985551742821023,,34650.0,-59970.97889287378,0.13274336283185842,,20.987993353481233,349.7804569770774,116593.4856590258,3.0,132.0,0.01,92.92,,,,,,
62.0,99346.824295535,0.0,106914.0,382499.4097934128,23038.310380131497,177573.21201263036,407093.85198320093,0.0,0.0,0.0,13340.292673809046,11519.155190065747,0.0,53361.170695236186,66701.46336904523,34678.2,211984.8747040524,0.0,99346.82429553499,0.0,,22.491029452917957,,-2.8,-3991.8215850861616,-2616.069596216381,0.826234128014926,0.5166836342483929,0.9962073324905184,,26400.0,-9015.63860658418,0.15634218289085547,,17.883421841439255,397.38729718214,99346.824295535,4.0,133.0,0.01,92.92,,,,,,
63.0,243652.29637990278,0.0,89363.0,510287.6207022241,30040.65596413937,200800.93669986073,429715.6096869545,0.0,0.0,0.0,12640.72744623218,15020.327982069684,0.0,50562.90978492872,63203.637231160894,0.0,0.0,0.0,243652.2963799028,0.0,,21.57628041233371,,-4.4,60370.62924808963,69195.35631366035,0.7527310654883921,0.5205335273836291,0.9935885858768286,,6150.0,0.0,0.17699115044247787,,43.89152466987568,730.9568891397083,243652.29637990278,3.0,130.0,0.14,92.92,,,,,,
64.0,279023.4368631321,0.0,87401.0,523112.21053597354,27317.197404160874,207148.67066010245,429476.12816212425,0.0,0.0,0.0,16019.220000000001,13658.598702080437,0.0,64076.880000000005,80096.1,80096.1,0.0,0.0,279023.43686313205,0.0,,22.277452710662843,,-5.1,32940.570981286015,157712.96237384944,0.7317905007784666,0.5110664636859461,0.9920534585515622,,16950.0,0.0,0.17551622418879056,,50.26607215089326,837.0703105893964,279023.4368631321,3.0,130.0,0.15,92.92,,,,,,
65.0,197875.5438353236,0.0,106872.0,293829.0457078688,1849.288224351435,119049.73306661606,237743.31581064124,0.0,0.0,0.0,16062.59,924.6441121757175,0.0,64250.36,80312.95,34277.95,0.0,0.0,197875.54383532362,0.0,,22.491029452917957,,-5.9,45098.15695046907,75221.78989722759,0.6643209481923069,0.5015288840356279,0.9920534585515622,,7650.0,0.0,0.2669616519174042,,35.65519424368696,593.6266315059707,197875.5438353236,3.0,129.0,0.19,92.92,,,,,,
66.0,580159.5748744942,0.0,152936.0,446808.53431094147,18825.7818544689,301980.16977530025,580025.9757197071,0.0,0.0,0.0,155889.43475655525,9412.890927234448,0.0,623557.739026221,779447.1737827761,170570.27,0.0,0.0,580159.5748744942,0.0,,21.51746698994386,,-6.7,33546.82753173372,-106359.0680896652,0.5583130838788569,0.5101795800312758,0.9868159653241828,,47250.0,0.0,0.2271386430678466,,104.53895379663511,1740.4787246234825,580159.5748744942,3.0,128.0,0.19,92.91,,,,,,
67.0,569014.5627039068,0.0,165993.0,478272.0858775802,63960.23906836001,281247.07292008406,521434.54453861143,0.0,0.0,0.0,151059.32252336867,31980.119534180005,0.0,604237.2900934747,755296.6126168433,0.0,0.0,0.0,569014.5627039069,0.0,,21.508970547082043,,-7.4,32129.90555306546,-179115.84893206327,0.446277554936007,0.5210021264958778,0.9750767563662633,,104250.0,0.0,0.1873156342182891,,102.52504390798994,1707.0436881117203,569014.5627039068,3.0,126.0,0.18,92.91,,,,,,
68.0,688376.4732453303,0.0,173720.0,421746.6060852052,58448.56940002903,426139.2777376488,757565.8333584669,0.0,0.0,0.0,18172.459959521293,29224.284700014516,0.0,72689.83983808517,90862.29979760645,71624.38,0.0,0.0,688376.4732453303,0.0,,21.508970547082043,,-8.2,-66902.85318193589,-281982.54883683054,0.4751904657184349,0.539622788369803,0.9720065017157306,,27300.0,4.4134967827371186e-10,0.17699115044247787,,124.00413789041379,2065.129419735991,688376.4732453303,3.0,121.0,0.14,92.9,,,,,,
69.0,715454.9134084899,0.0,146762.0,846171.569959518,105121.34721483951,543843.5044817338,930521.2307050546,0.0,0.0,0.0,0.0,52560.673607419754,0.0,0.0,0.0,0.0,0.0,0.0,715454.91340849,0.0,,22.491029452917957,,-8.9,-21272.134359713655,-84349.66074553733,0.508002977357746,0.5300022338046407,0.9646017699115038,,117600.0,0.0,0.17256637168141592,,128.7818844135282,2861.8196536339597,715454.9134084899,4.0,115.0,0.0,92.86,,,,,,
70.0,792734.7746072452,0.0,118656.0,958328.4509354384,200737.1760696395,603677.1349303188,986856.8067928813,0.0,0.0,0.0,29044.28237042939,100368.58803481977,0.0,116177.12948171757,145221.41185214696,0.0,0.0,0.0,792734.774607245,0.0,,21.508970547082043,,-9.7,-37393.68343346189,-54668.20999082921,0.5545600456850267,0.5147134510898881,0.9607188007946535,,41400.0,0.0,0.140117994100295,,142.69225942930413,3170.9390984289807,792734.7746072452,4.0,112.0,0.0,92.46000000000001,,,,,,
71.0,417118.4207312445,0.0,78694.0,627961.9638192279,32492.16746471497,315258.7804485346,494328.7880662732,0.0,0.0,0.0,10405.048179053616,16246.083732357485,0.0,41620.192716214464,52025.24089526808,0.0,0.0,0.0,417118.42073124443,0.0,,22.491029452917957,,-10.4,-10675.0,124268.63239180682,0.6209073623894862,0.5122910042993867,0.9433808921798802,,119550.0,0.0,0.016224188790560472,,75.08131573162402,1668.473682924978,417118.4207312445,4.0,104.0,0.0,92.21000000000001,,,,,,
72.0,490362.72303169395,0.0,56776.0,712040.4894780437,769.6036403977707,422766.1786405514,642749.6197871708,0.0,0.0,0.0,29768.782975792183,384.80182019888537,0.0,119075.13190316873,148843.9148789609,0.0,0.0,0.0,490362.723031694,0.0,,22.491029452917957,,-10.9,21400.052199808168,42498.96501265972,0.5926348446023518,0.526143062056183,0.9433808921798802,,0.0,0.0,0.016224188790560472,,88.26529014570491,1961.450892126776,490362.72303169395,4.0,95.0,0.0,92.18,,,,,,
73.0,401691.0858124268,0.0,46701.0,620334.2487791523,179.7368437766504,160749.3211951037,235199.27696494956,0.0,0.0,0.0,240954.40954124802,89.8684218883252,0.0,963817.6381649921,1204772.04770624,0.0,0.0,0.0,401691.0858124268,0.0,,21.50897054708206,,-11.5,48722.100352987036,168276.00322707958,0.5138418537808898,0.5062754652421391,0.9433808921798802,,24750.0,0.0,0.016224188790560472,,72.30439544623682,1606.7643432497073,401691.0858124268,4.0,90.0,0.0,92.17,,,,,,
74.0,370254.8294440084,0.0,40106.0,634832.5901142923,0.0,324297.3545606434,452852.08719606395,0.0,0.0,0.0,31423.17415259219,0.0,0.0,125692.69661036876,157115.87076296093,0.0,0.0,0.0,370254.82944400836,0.0,,21.508970547082043,,-12.2,27422.973416447236,153699.6461808957,0.5085275867114332,0.48977867818779963,0.9433808921798802,,0.0,0.0,0.016224188790560472,,66.64586929992151,1851.274147220042,370254.8294440084,5.0,90.0,0.0,92.17,,,,,,
75.0,323629.4112268928,0.0,39167.0,675793.2293387465,0.0,304104.86231700785,413058.58804747823,0.0,0.0,0.0,1001.8135481865206,0.0,0.0,4007.2541927460825,5009.067740932603,0.0,0.0,0.0,323629.4112268928,0.0,,21.508970547082043,,-12.6,22262.41169443608,261833.00909789963,0.49939704296737003,0.46365433210351575,0.9433808921798802,,31200.0,0.0,0.016224188790560472,,58.2532940208407,1618.147056134464,323629.4112268928,5.0,90.0,0.0,92.17,,,,,,
76.0,368337.1329366288,0.0,36601.0,575124.8647665028,0.0,332564.3459422749,439032.69333929685,0.0,0.0,0.0,61848.40174020287,0.0,0.0,247393.60696081148,309242.00870101433,0.0,0.0,0.0,368337.1329366288,0.0,,22.491029452917957,,-13.0,64518.30041053208,80428.60986102345,0.42805328972238754,0.4394874564163483,0.9332671121545958,,134400.0,0.0,0.0,,66.30068392859319,1473.3485317465154,368337.1329366288,4.0,94.0,0.0,92.17,,,,,,
77.0,579773.9750796824,0.0,43581.0,760308.3885065768,22287.912346408757,483909.0953211094,620376.4801863378,0.0,0.0,0.0,64263.062894694725,11143.956173204379,0.0,257052.2515787789,321315.3144734736,45780.52,0.0,0.0,579773.9750796824,0.0,,21.508970547082043,,-13.4,14878.053011520124,126960.06131501372,0.3901718035777309,0.4154282451120217,0.9332671121545958,,0.0,0.0,0.0,,104.35931551434284,2319.0959003187295,579773.9750796824,4.0,98.0,0.0,92.18,,,,,,
78.0,369120.4394873277,0.0,48451.0,550389.9989416854,11367.659043096435,327789.2916587782,407729.6086849494,0.0,0.0,0.0,18375.27691486194,5683.829521548218,0.0,73501.10765944776,91876.3845743097,38019.6,0.0,0.0,369120.4394873277,0.0,,22.491029452917957,,-13.8,27340.731283749155,163381.84903336025,0.40817776520010296,0.3849690630118936,0.9332671121545958,,0.0,0.0,0.0,,66.44167910771898,1476.4817579493108,369120.4394873277,4.0,102.0,0.0,92.18,,,,,,
79.0,673661.8339255996,0.0,58440.0,628092.7323828087,1049.1849995796983,599067.0337207597,728032.5226897129,0.0,0.0,0.0,77102.74097736759,524.5924997898492,0.0,308410.96390947036,385513.7048868378,241716.31,0.0,0.0,673661.8339255996,0.0,,21.508970547082043,,-14.1,64316.24994215423,67549.72661346477,0.27257297212989484,0.3620097726695797,0.933267112154595,,0.0,0.0,0.07817109144542772,,121.25913010660791,2694.6473357023983,673661.8339255996,4.0,97.0,0.0,92.15,,,,,,
80.0,511642.571267038,0.0,68235.0,407194.0532708175,129.48472556712784,375906.6445654003,453247.1506888333,0.0,0.0,0.0,11779.690774375571,64.74236278356392,0.0,47118.763097502284,58898.45387187785,0.0,0.0,0.0,511642.57126703806,0.0,,22.491029452917957,,-14.2,-53163.02307092693,-56654.81911495351,0.37377238746492913,0.3549121986482078,0.933267112154595,,0.0,0.0,0.1710914454277286,,92.18775849089492,2046.570285068152,511642.571267038,4.0,87.0,0.18,92.13,,,,,,
81.0,125338.8655103299,0.0,74796.0,590921.0458162745,0.0,192241.1503580181,273945.55727645796,0.0,0.0,0.0,18752.26939510297,0.0,0.0,75009.07758041187,93761.34697551484,0.0,130649.16244251488,0.0,125338.8655103299,0.0,,22.491029452917957,,-11.9,42888.76546067727,300098.44608422386,0.29489508101948436,0.3231323504465914,0.933267112154595,,0.0,-12460.679332849322,0.2079646017699115,,22.58355678765124,376.01659653098966,125338.8655103299,3.0,83.0,0.18,92.11,,,,,,
82.0,270148.7165142627,0.0,101789.0,483922.37120220636,6915.472745056078,151239.25630607863,242911.8438045257,0.0,0.0,0.0,205054.82369736282,3457.736372528039,0.0,820219.2947894513,1025274.1184868141,0.0,304446.39366620925,0.0,270148.7165142627,0.0,,22.491029452917957,,-10.0,-66815.31815463332,56461.18607005421,0.3388939991140691,0.33145368578187606,0.933267112154595,,0.0,-48345.96843982591,0.32005899705014756,,48.67539574153985,810.4461495427881,270148.7165142627,3.0,81.0,0.18,92.1,,,,,,
83.0,103140.22463442502,0.0,152565.0,485455.96311308886,59445.75172611397,222181.55185766262,388627.1753688006,0.0,0.0,0.0,21801.534097715346,29722.875863056983,0.0,87206.13639086139,109007.67048857672,0.0,418558.26530197123,0.0,103140.22463442502,0.0,,22.333642565923988,,-8.5,-67914.80746164301,77207.4070563444,0.4161346230062553,0.3328678766269146,0.933267112154595,,0.0,-56719.89539620323,0.3554572271386431,,18.5838056746307,309.42067390327503,103140.22463442502,3.0,83.0,0.18,92.1,,,,,,
84.0,127906.64748591441,0.0,155654.0,478365.81909659156,72414.00489925944,238229.50400148716,439408.47879265784,0.0,0.0,0.0,19141.773346463284,36207.00244962971,0.0,76567.09338585314,95708.86673231641,0.0,503248.532879148,0.0,127906.64748591441,0.0,,21.508970547082043,,-7.5,-93798.34290102948,21729.744292116928,0.537392067196394,0.33781291775959954,0.9445980952115053,,19800.0,-123692.02687865293,0.3820058997050148,,23.02959187983889,383.71994245774323,127906.64748591441,3.0,84.0,0.05,92.09,,,,,,
85.0,78181.70876615692,0.0,130732.0,406158.0792651464,16045.879966400065,169558.4738795019,317595.80643292575,0.0,0.0,0.0,38811.675847782986,8022.939983200033,0.0,155246.70339113194,194058.37923891493,0.0,415184.38407903607,0.0,78181.70876615692,0.0,,21.827868618321297,,-7.2,-88744.78089306215,53631.76456921602,0.6197868529134295,0.3413466413006745,0.9381866810883339,,76050.0,-65128.25368101518,0.37315634218289084,,14.076616663346554,312.7268350646277,78181.70876615692,4.0,87.0,0.05,92.1,,,,,,
86.0,458591.0962398235,0.0,104264.0,419073.6508357479,6562.053551001822,442705.07519370073,808117.769472668,0.0,0.0,0.0,95169.29212777468,3281.0267755009104,0.0,380677.1685110987,475846.4606388733,17200.35,321613.6305171841,0.0,458591.09623982356,0.0,,22.491029452917957,,-7.7,-106963.62767698738,-457840.1385519171,0.7665633975491126,0.4040042612865061,0.9381866810883339,,36000.0,-28809.776277345816,0.40117994100294985,,82.57391278894262,1834.364384959294,458591.0962398235,4.0,97.0,0.06,92.14,,,,,,
87.0,460438.2528336289,0.0,100857.0,598874.8371444654,2462.684028158787,154265.91158223737,256597.07007342565,0.0,0.0,0.0,263286.51621875307,1231.3420140793935,0.0,1053146.0648750123,1316432.581093765,31675.1,33.78415046536309,0.0,460438.2528336288,0.0,,21.512934704902428,,-9.4,60239.582081064334,136361.50047416252,0.6475806731640681,0.3800534068380509,0.9364709505483303,,26700.0,0.0,0.3790560471976401,,82.96176439556326,1841.7530113345156,460438.2528336289,4.0,105.0,0.18,92.27000000000001,,,,,,
88.0,430146.63977602444,0.0,97938.0,407408.6664448243,1709.7308818965237,208651.8019434187,351037.72435458074,0.0,0.0,0.0,174911.50695340653,854.8654409482618,0.0,699646.0278136261,874557.5347670327,0.0,0.0,0.0,430146.63977602444,0.0,,22.491029452917957,,-9.2,53505.4023196809,-101049.41416782216,0.5767177082041267,0.4037768602313865,0.9252735512346225,,100950.0,0.0,0.29646017699115046,,77.50812302124184,1290.4399193280733,430146.63977602444,3.0,110.0,0.19,92.39,,,,,,
89.0,373973.911036518,0.0,124198.0,475242.5359010631,2792.536581911944,256487.78336267237,436407.7761080109,0.0,0.0,0.0,9492.722154318966,1396.2682909559717,0.0,37970.888617275865,47463.61077159483,0.0,0.0,0.0,373973.911036518,0.0,,21.508970547082043,,-9.0,18074.46403565602,30291.3098541655,0.5820910346710804,0.3860194338294527,0.9217517885472467,,72300.0,0.0,0.2920353982300885,,71.10365970537316,1121.921733109554,373973.911036518,3.0,113.0,10.13,92.99000000000001,,,,,,
90.0,691211.5743171441,0.0,149732.0,479335.6510742226,5453.800029052119,276016.9594164684,474898.90681982116,0.0,0.0,0.0,232758.16389091927,2726.9000145260593,0.0,931032.6555636771,1163790.8194545961,26535.99,0.0,0.0,691211.5743171441,0.0,,21.508970547082043,,-8.8,-29248.39313817081,-179040.33304742575,0.6095130153664637,0.40730734609212227,0.9063102136872142,,150300.0,0.0,0.16666666666666666,,124.60471050215158,2073.634722951432,691211.5743171441,3.0,111.0,0.27,92.39,,,,,,
91.0,744201.5584308434,0.0,166666.0,493589.1261668999,4694.740764209505,354004.9145030946,612455.3347961446,0.0,0.0,0.0,252180.43981283033,2347.3703821047525,0.0,1008721.7592513213,1260902.1990641516,326830.81,0.0,0.0,744201.5584308435,0.0,,21.508970547082043,,-8.7,32370.803677235737,-25534.410660792208,0.4971509403665437,0.3996511778171324,0.898002465809302,,100350.0,0.0,0.1209439528023599,,134.0976788136537,2232.6046752925304,744201.5584308434,3.0,109.0,0.19,92.38,,,,,,
92.0,483667.05427400616,0.0,169348.0,257099.75960372368,14089.70398801152,179656.74843147688,314245.2381626936,0.0,0.0,0.0,0.0,7044.85199400576,0.0,0.0,0.0,0.0,0.0,0.0,483667.0542740062,0.0,,22.3255541108523,,-8.5,-62481.37165404391,-57145.47855896975,0.644242706318467,0.4126025014878528,0.881748176482952,,145350.0,-69762.59891711827,0.08849557522123894,,87.14712983909044,1451.0011628220184,483667.05427400616,3.0,105.0,0.18,92.27000000000001,,,,,,
93.0,729806.9547600258,0.0,148804.0,792693.856365521,99228.04558080889,397550.268373059,702951.9724695566,0.0,0.0,0.0,0.0,49614.022790404444,0.0,0.0,0.0,0.0,0.0,0.0,729806.9547600258,0.0,,21.508970547082043,,-8.3,30971.133938862586,89741.88389596465,0.5803653264272233,0.3829913235629911,1.0,,81300.0,-210774.78555202938,0.08407079646017698,,131.36525185680466,2919.2278190401034,729806.9547600258,4.0,105.0,0.0,92.2,,,,,,
94.0,525438.3753542713,0.0,112642.0,624736.5475401056,19526.716722056673,263614.9663717091,471152.6074401697,0.0,0.0,0.0,131979.5497685387,9763.358361028337,0.0,527918.1990741548,659897.7488426934,0.0,0.0,0.0,525438.3753542714,0.0,,21.508970547082043,,-8.1,-14574.667337252253,34802.34530825126,0.6054736533517834,0.37709300100145554,0.9870868701462888,,194700.0,0.0,0.045722713864306784,,94.57890756376884,2101.753501417085,525438.3753542713,4.0,105.0,0.0,92.22,,,,,,
95.0,206089.63085929397,0.0,75289.0,517350.64843742305,6806.021887868081,158191.2351313808,285747.51201753784,0.0,0.0,0.0,19182.36031030324,3403.0109439340404,0.0,76729.44124121296,95911.8015515162,0.0,0.0,0.0,206089.6308592939,0.0,,22.491029452917957,,-7.9,48623.66816836397,214339.01214061218,0.5812035688500421,0.34859143833949285,0.9870868701462888,,77550.0,-1020.2554316774335,0.045722713864306784,,37.09613355467291,824.3585234371759,206089.63085929397,4.0,100.0,0.0,92.18,,,,,,
96.0,243826.21549088383,0.0,58923.0,639819.2773518811,54938.87091548277,227579.9694978008,424104.8529065385,0.0,0.0,0.0,14123.0,27469.435457741383,0.0,56492.0,70615.0,0.0,0.0,0.0,243826.21549088383,0.0,,22.491029452917957,,-7.3,58018.885084371424,203003.72444534246,0.45776713084511333,0.3326759754959699,0.9820299801336466,,78600.0,0.0,0.004424778761061947,,43.888718788359085,975.3048619635354,243826.21549088383,4.0,97.0,0.0,92.18,,,,,,
97.0,268321.34436909115,0.0,49623.0,552606.2894047902,0.0,152828.08582522275,295000.27038105694,0.0,0.0,0.0,2885.490116518307,0.0,0.0,11541.960466073228,14427.450582591533,0.0,0.0,0.0,268321.34436909115,0.0,,22.491029452917957,,-6.6,17438.470947556554,255009.0779188666,0.4213709842079556,0.30786907362755,0.9820299801336466,,0.0,-79081.63265306123,0.004424778761061947,,48.29784198643641,1073.2853774763646,268321.34436909115,4.0,95.0,0.0,92.17,,,,,,
98.0,307803.81046617957,0.0,42000.0,583487.584262227,0.0,213558.68403860324,426478.48387097416,0.0,0.0,0.0,31735.416989317222,0.0,0.0,126941.66795726889,158677.0849465861,0.0,0.0,0.0,307803.81046617957,0.0,,21.66316378936574,,-5.9,-18970.690385928247,128447.22510086755,0.4764514539024189,0.31382835592103425,0.9820299801336466,,0.0,0.0,0.004424778761061947,,55.40468588391232,1231.2152418647183,307803.81046617957,4.0,95.0,0.0,92.17,,,,,,
99.0,292371.9032026015,0.0,39737.0,527333.5707725509,0.0,272126.11228187545,553815.1764402313,0.0,0.0,0.0,16753.342752990935,0.0,0.0,67013.37101196374,83766.71376495468,0.0,0.0,0.0,292371.9032026015,0.0,,22.491029452917957,,-5.5,37706.41134827791,-41559.6141453724,0.4062025147532303,0.3270640800781152,0.9820299801336466,,0.0,0.0,0.004424778761061947,,52.62694257646827,1169.4876128104058,292371.9032026015,4.0,96.0,0.0,92.18,,,,,,
100.0,454494.0713056086,0.0,38490.0,634353.1552108079,1634.356510517554,369300.03089391685,769181.1150297069,0.0,0.0,0.0,31489.534000000003,817.178255258777,0.0,125958.13600000001,157447.67,157447.67,0.0,0.0,454494.07130560855,0.0,,21.508970547082043,,-5.0,-12942.036055163495,-8869.823818898896,0.4522512942378537,0.32779792654215645,0.9764312804767928,,37200.0,-2.3283064365386963e-10,0.0,,81.80893283500954,1817.9762852224344,454494.0713056086,4.0,99.0,0.0,92.19,,,,,,
101.0,287217.1415494077,0.0,44220.0,513211.8965718826,1284.17756953684,199854.5225959566,423879.7269455093,0.0,0.0,0.0,6314.878000000001,642.08878476842,0.0,25259.512000000002,31574.39,31574.39,0.0,0.0,287217.1415494077,0.0,,21.508970547082043,,-4.6,-35391.65524570405,114591.68162637347,0.48832211846891826,0.3204260917310964,0.9764312804767928,,0.0,0.0,0.0,,51.69908547889339,1148.8685661976308,287217.1415494077,4.0,101.0,0.0,92.19,,,,,,
102.0,400803.4470710124,0.0,54562.0,478115.98962107685,5367.503149749347,295481.4346898736,635149.5474328975,0.0,0.0,0.0,53435.180565288574,2683.7515748746737,0.0,213740.7222611543,267175.90282644285,72848.51000000001,0.0,0.0,400803.4470710124,0.0,,22.052242638808522,,-4.3,4679.185419504865,-133733.6805205804,0.5324958875666504,0.32096888583935895,0.9764312804767928,,0.0,0.0,0.0,,72.14462047278224,1603.2137882840495,400803.4470710124,4.0,106.0,0.0,92.33,,,,,,
103.0,246324.07583108693,0.0,52001.0,450307.86291062884,21179.368365454167,173555.01992152352,378027.3430521509,0.0,0.0,0.0,129326.04992507516,10589.684182727084,0.0,517304.19970030064,646630.2496253757,69643.65,0.0,0.0,246324.07583108693,0.0,,22.491029452917957,,-4.0,109789.6143946672,24137.851925910465,0.4010962386814505,0.31584686345679824,0.9764312804767928,,0.0,0.0,0.048672566371681415,,44.33833364959565,985.2963033243477,246324.07583108693,4.0,114.0,0.0,92.4,,,,,,
104.0,198607.14677413294,0.0,69012.0,268201.9032136309,3532.6308681313476,144615.94538291433,319129.9564584267,0.0,0.0,0.0,1621.508,1766.3154340656738,0.0,6486.032,8107.54,8107.54,0.0,0.0,198607.14677413294,0.0,,21.79356411890782,,-3.7,24819.848798313662,-44442.02124479571,0.4657281464067567,0.35634945953931485,0.9764312804767928,,0.0,-7184.506455661591,0.10914454277286137,,35.77907749136005,595.8214403223988,198607.14677413294,3.0,117.0,0.15,92.41,,,,,,
105.0,289918.775588038,0.0,75074.0,541263.5255856728,3709.5073025934416,148480.93937403458,348891.7131429983,0.0,0.0,0.0,55631.91705029732,1854.7536512967208,0.0,222527.66820118928,278159.5852514866,34213.11,240.7748290297899,0.0,289918.7755880381,0.0,,22.18847279953933,,-2.2,-1185.7292951034997,175831.93489740678,0.4905591294405728,0.35283468539783247,0.9764312804767928,,0.0,-8337.370819692254,0.2876106194690266,,52.23756498545269,869.7563267641142,289918.775588038,3.0,117.0,0.18,92.41,,,,,,
106.0,312990.2851054785,0.0,101266.0,438868.6365467501,25107.38647161476,215382.37585832606,526625.8072403199,0.0,0.0,0.0,34173.608,12553.69323580738,0.0,136694.432,170868.04,170868.04,810.2856416094746,0.0,312990.2851054785,0.0,,22.20643588109218,,-1.2,38586.364536765475,48937.26130643034,0.40715906871623425,0.35420739503679466,0.9764312804767928,,0.0,0.0,0.32890855457227136,,56.394589570305115,938.9708553164355,312990.2851054785,3.0,115.0,0.18,92.4,,,,,,
107.0,669114.0860025958,0.0,161982.0,511318.1247667326,70641.35624795483,157873.73957014296,405578.7110800231,0.0,0.0,0.0,251153.46131846914,35320.67812397741,0.0,1004613.8452738766,1255767.3065923457,11330.21,9199.630676643726,0.0,669114.0860025956,0.0,,22.20643588109218,,0.1,-86101.80250347161,-109195.09569991236,0.4829868264613327,0.34996085629802715,0.9764312804767928,,2400.0,-17857.142857142913,0.38790560471976393,,120.56097601594772,2676.4563440103834,669114.0860025958,4.0,114.0,0.18,92.39,,,,,,
108.0,357329.8876672155,0.0,137681.0,424862.2484797597,42636.64242096367,223193.91384564948,596792.2200505284,0.0,0.0,0.0,20735.53520549616,21318.321210481834,0.0,82942.14082198463,103677.67602748079,42255.82,22177.338456027122,0.0,357329.88766721543,0.0,,21.79356411890782,,1.2,10866.132257950903,-149181.2496557152,0.43522956772895655,0.36666215514281186,0.9757991692252126,,13350.0,-6976.259891711812,0.3820058997050147,,64.38369915987889,1429.319550668862,357329.8876672155,4.0,114.0,0.18,92.39,,,,,,
109.0,280671.6388400374,0.0,133176.0,328928.5527264686,30102.63476297731,116192.67764803211,319546.08804590313,0.0,0.0,0.0,40014.0909979868,15051.317381488658,0.0,160056.3639919472,200070.454989934,0.0,23304.48281474619,0.0,280671.6388400374,0.0,,21.79356411890782,,2.0,-13189.994814564545,-26630.21721762275,0.4583128112298355,0.36561925955589913,0.9757991692252126,,11700.0,0.0,0.3820058997050147,,50.53773528953713,1122.6865553601497,280671.6388400374,4.0,114.0,0.06,92.39,,,,,,
110.0,547462.7761068537,0.0,104309.0,460869.6256466846,60398.31782914183,318733.3749922386,885677.0366620398,0.0,0.0,0.0,47993.654,30199.158914570915,0.0,191974.616,239968.27,239968.27,6150.404844661109,0.0,547462.7761068536,0.0,,21.811527200460706,,2.3,-79839.83807874206,-232832.7950153554,0.5537590472977791,0.38458809704091174,0.9458190355788337,,385500.0,0.0,0.3510324483775811,,98.57067283803903,2189.851104427415,547462.7761068537,4.0,115.0,0.05,92.39,,,,,,
111.0,633531.8181922208,0.0,93976.0,471262.7268629759,47898.32243392231,256726.6465674958,698691.764249685,0.0,0.0,0.0,222249.63067729987,23949.161216961154,0.0,888998.5227091995,1111248.1533864995,375736.84,2.5110413681686152,0.0,633531.8181922209,0.0,,21.79356411890782,,1.7,-57414.392897832084,-59231.6017962789,0.6330993741225646,0.3824946899590528,0.916019505147192,,163350.0,0.0,0.31710914454277284,,114.08640982005511,2534.127272768883,633531.8181922208,4.0,114.0,0.08,92.39,,,,,,
112.0,229709.23434074165,0.0,104311.0,396825.07008243015,13521.177283120624,180936.94086234443,478627.6511914867,0.0,0.0,0.0,0.0,6760.588641560312,0.0,0.0,0.0,0.0,0.0,0.0,229709.23434074165,0.0,,22.20643588109218,,0.9,56687.25269330648,-81802.58110905631,0.5266578334612936,0.37772940239451946,0.9080729636987542,,127800.0,0.0,0.3023598820058997,,41.38900984351483,689.127703022225,229709.23434074165,3.0,116.0,0.18,92.4,,,,,,
113.0,330713.6423560836,0.0,114721.0,358543.49311896163,21494.064359054173,86429.6283153174,229453.94472111625,0.0,0.0,0.0,106014.74487000203,10747.032179527087,0.0,424058.9794800081,530073.7243500102,0.0,0.0,0.0,330713.6423560836,0.0,,21.79356411890782,,1.0,-21894.70095898376,33676.27801484323,0.541650155702338,0.37179988541579373,0.9025645656492689,,113400.0,0.0,0.24778761061946902,,59.59129121614271,992.1409270682508,330713.6423560836,3.0,115.0,0.19,92.4,,,,,,
114.0,511003.6961408307,0.0,151296.0,349553.8760551542,45073.17589698573,165856.26837900904,441897.4689581586,0.0,0.0,0.0,0.0,22536.587948492866,0.0,0.0,0.0,0.0,0.0,0.0,511003.6961408307,0.0,,22.20643588109218,,1.1,-8247.679585156668,-92343.59290300461,0.5524464459939635,0.38186918054328034,1.0,,86700.0,-183048.72969596085,0.21091445427728614,,92.07775600761629,1533.011088422492,511003.6961408307,3.0,112.0,0.19,92.39,,,,,,
115.0,302350.90004093054,0.0,167812.0,320774.26730154274,30285.96206961664,68503.81805909956,183823.58971936995,0.0,0.0,0.0,89789.6517486052,15142.981034808323,0.0,359158.6069944208,448948.258743026,0.0,0.0,0.0,302350.90004093054,0.0,,21.79356411890782,,1.3,25266.32426697889,56139.991008428326,0.4772945817315507,0.3714412286313452,0.9678526277767753,,180900.0,0.0,0.1430678466076696,,54.480608678375276,907.0527001227915,302350.90004093054,3.0,107.0,0.19,92.38,,,,,,
116.0,685034.5371774121,0.0,165920.0,175659.73815748465,8031.74104919341,78940.54400408694,212582.13224827577,0.0,0.0,0.0,8654.584190000154,4015.8705245967044,0.0,34618.33676000062,43272.92095000077,0.0,0.0,0.0,685034.5371774123,0.0,,22.20643588109218,,1.4,-45038.77169918411,-44711.5198617912,0.5198039285622335,0.3952880270171306,0.9454578291493597,,72150.0,-383055.464598254,0.1032448377581121,,123.43637325399787,2055.1036115322363,685034.5371774121,3.0,104.0,0.19,92.28999999999999,,,,,,
117.0,390533.13929154887,0.0,152164.0,519930.9407760974,52850.16057586041,155052.2045982758,420502.57229179295,0.0,0.0,0.0,98589.08500309351,26425.080287930203,0.0,394356.34001237404,492945.4250154675,0.0,0.0,0.0,390533.139291549,0.0,,21.79356411890782,,1.6,22736.361994741208,10698.191981520133,0.45215588871018547,0.3935418471543715,0.9378724941303964,,90300.0,-5511.545988463088,0.0663716814159292,,70.36626103755128,1562.1325571661955,390533.13929154887,4.0,104.0,0.18,92.28,,,,,,
118.0,151454.6032507115,0.0,109106.0,320504.9040459156,1096.2953640515404,49772.21532635638,135457.06065943712,0.0,0.0,0.0,12863.757735816627,548.1476820257702,0.0,51455.03094326651,64318.78867908313,0.0,0.0,0.0,151454.6032507115,0.0,,22.20643588109218,,1.7,21044.642827715084,173470.46142424355,0.45268019450146796,0.37677917552080187,0.9250496658840524,,97650.0,0.0,0.04424778761061947,,27.26637222322559,605.818413002846,151454.6032507115,4.0,104.0,0.03,92.25999999999999,,,,,,
119.0,299345.0723034714,0.0,82128.0,368258.9564888237,9609.49440345536,174739.02782451027,478890.88534770714,0.0,0.0,0.0,14208.901901346437,4804.74720172768,0.0,56835.60760538575,71044.50950673217,0.0,0.0,0.0,299345.0723034714,0.0,,22.20643588109218,,1.9,23269.232096690597,-123419.94057009509,0.4353504540149595,0.3885731493161559,0.9199927758714102,,116250.0,-50041.64931278795,0.03982300884955752,,53.88510646534788,1197.3802892138856,299345.0723034714,4.0,102.0,0.01,92.2,,,,,,
120.0,189612.109783307,0.0,57123.0,368609.6043266076,0.0,172630.75242276085,466529.96467661025,0.0,0.0,0.0,0.0,0.0,0.0,0.0,0.0,0.0,0.0,0.0,189612.109783307,0.0,,21.79356411890782,,1.5,56630.03945804623,-97920.36035000265,0.39310304515857347,0.41789880383149525,0.9197218710493044,,19800.0,-15540.33626967582,0.011799410029498525,,34.13017976099526,758.448439133228,189612.109783307,4.0,95.0,0.0,92.18,,,,,,
121.0,242292.9003703216,0.0,49911.0,464616.37490403303,0.0,165691.52921347093,443038.1360275687,0.0,0.0,0.0,0.0,0.0,0.0,0.0,0.0,0.0,0.0,0.0,242292.90037032156,0.0,,22.206435881092162,,1.2,-25478.906654999017,21578.238876464195,0.4739277525397457,0.41044888797957857,0.9197218710493044,,21600.0,0.0,0.011799410029498525,,43.61272206665789,1211.4645018516078,242292.9003703216,5.0,91.0,0.0,92.17,,,,,,
122.0,121931.00569971156,0.0,40161.0,377067.9566306412,867.0124341144227,98306.22347129598,259109.64072448033,0.0,0.0,0.0,28057.27177219273,433.50621705721136,0.0,112229.08708877092,140286.35886096364,0.0,0.0,0.0,121931.00569971156,0.0,,21.79356411890782,,0.8,45203.14457227571,92706.77131118739,0.4662478739106515,0.399070685092436,0.9197218710493044,,0.0,0.0,0.011799410029498525,,21.947581025948082,609.6550284985578,121931.00569971156,5.0,91.0,0.0,92.17,,,,,,
123.0,408534.4483049064,0.0,37141.0,550787.5200149395,37685.81698477885,205549.3274839008,539815.0097175988,0.0,0.0,0.0,42692.102,18842.908492389426,0.0,170768.408,213460.50999999998,213460.50999999998,0.0,0.0,408534.4483049064,0.0,,22.20643588109218,,0.7,5151.273017505813,181740.91829734054,0.4055711335127338,0.37317577591100787,0.9103305038829688,,15600.0,-126260.61959698686,0.0,,73.53620069488315,2042.672241524532,408534.4483049064,5.0,92.0,0.0,92.17,,,,,,
124.0,138222.6647013125,0.0,36057.0,366744.6307102574,0.0,114473.36071214333,298448.08122366475,0.0,0.0,0.0,21910.396594922302,0.0,0.0,87641.58637968921,109551.9829746115,0.0,0.0,0.0,138222.6647013125,0.0,,21.79356411890782,,0.5,34909.20592925972,48577.19255116263,0.34826097608338835,0.37743762189261837,0.9103305038829688,,9450.0,0.0,0.0,,24.88007964623625,691.1133235065624,138222.6647013125,5.0,94.0,0.0,92.18,,,,,,
125.0,211509.45853362326,0.0,38154.0,435349.8032879747,0.0,152974.62884556223,395909.57046224724,0.0,0.0,0.0,0.0,0.0,0.0,0.0,0.0,0.0,0.0,0.0,211509.45853362323,0.0,,22.20643588109218,,0.3,24616.742594194882,39440.23282572748,0.33519510261919183,0.3707685498868306,0.9103305038829688,,0.0,-43940.02498958778,0.0,,38.071702536052186,846.037834134493,211509.45853362326,4.0,94.0,0.0,92.18,,,,,,
126.0,302916.7501024495,0.0,51065.0,340682.0794256457,603.7101543889485,189783.99511004283,489365.6437373886,0.0,0.0,0.0,0.0,301.85507719447423,0.0,0.0,0.0,0.0,0.0,0.0,302916.7501024495,0.0,,21.79356411890782,,0.2,-12083.783486792032,-148683.5643117431,0.3251259650742298,0.3770331566645447,0.9103305038829688,,0.0,-48469.38775510243,0.0,,54.53107335344296,1211.667000409798,302916.7501024495,4.0,97.0,0.02,92.19,,,,,,
127.0,85235.79523396227,0.0,52400.0,341266.130522801,2172.3364972764375,122046.26258107217,313537.6789359756,0.0,0.0,0.0,0.0,1086.1682486382188,0.0,0.0,0.0,0.0,0.0,0.0,85235.79523396227,0.0,,21.79356411890782,,0.1,117697.87081307564,27728.451586825402,0.1779464881335272,0.3717536420602177,0.9103305038829688,,0.0,-28061.22448979591,0.017699115044247787,,15.358637943207661,340.9431809358491,85235.79523396227,4.0,103.0,0.19,92.4,,,,,,
128.0,362323.7633134175,0.0,63897.0,195292.15372616556,2461.206801343593,120714.09722940523,311266.1416184911,0.0,0.0,0.0,7784.561347881206,1230.6034006717964,0.0,31138.245391524822,38922.80673940603,0.0,0.0,0.0,362323.7633134173,0.0,,22.20643588109218,,0.2,-136934.6939248506,-122980.09310541871,0.37765244780678975,0.3930606379528753,0.9103305038829681,,0.0,-31181.791994713298,0.11799410029498528,,72.87055527759452,1449.29505325367,362323.7633134175,4.0,105.0,21.12,94.09,,,,,,
129.0,143378.40973625457,0.0,87267.0,310272.6814978825,8598.510954574791,82447.63894357666,233030.50878880196,0.0,0.0,0.0,61901.33545010414,4299.2554772873955,0.0,247605.34180041656,309506.6772505207,31157.68,67493.89806428684,0.0,143378.40973625457,0.0,,21.793564118907824,,2.8,30577.793057647574,52065.49720398692,0.3052950282470827,0.3891311058767081,0.9103305038829681,,0.0,-9117.234415826895,0.29646017699115046,,32.99854100079899,1433.7840973625457,143378.40973625457,10.0,118.0,50.15,95.92,,,,,,
130.0,88766.86665869798,0.0,105890.0,233496.30741986708,20544.965229160633,73650.81671437132,225720.5128276312,0.0,0.0,0.0,13330.007914324488,10272.482614580316,0.0,53320.03165729795,66650.03957162244,0.0,223464.61360396835,0.0,88766.866658698,0.0,,22.20643588109218,,5.3,-64818.12614972351,-4221.212530656103,0.3610098486739329,0.38752321421893127,0.9103305038829681,,0.0,-54098.695150953536,0.33185840707964603,,20.923238140121704,1686.5704665152616,88766.86665869798,19.0,116.0,55.71,95.71000000000001,,,,,,
131.0,36881.03526649993,0.0,152630.0,212267.562373027,62634.31629051822,86176.27515717645,276430.94399045134,0.0,0.0,0.0,12903.642931517166,31317.158145259113,0.0,51614.571726068665,64518.214657585835,0.0,260321.88462975802,0.0,36881.03526649993,0.0,,21.793564118907863,,6.8,-8020.030413836514,-75776.66025578977,0.36504726129871473,0.39752970733051385,0.9103305038829681,,0.0,-37288.56621739531,0.35693215339233036,,8.693228822666699,700.7396700634987,36881.03526649993,19.0,116.0,55.71,95.25999999999999,,,,,,
132.0,186311.81745169824,0.0,140791.0,178882.22093172403,36335.462248302065,45011.56077635916,148676.40060307656,0.0,0.0,0.0,10804.032,18167.731124151032,0.0,43216.128,54020.16,54020.16,273337.72312448727,0.0,186311.81745169827,0.0,,22.20643588109218,,7.8,-110484.25535185263,73421.94832864746,0.5417533037044456,0.39120475388741127,0.9681476130275108,,0.0,-151627.13336071523,0.3997050147492625,,43.9155584915398,3539.9245315822664,186311.81745169824,19.0,116.0,55.71,95.56,,,,,,
133.0,284495.5522492075,0.0,129217.0,202369.2888199793,40398.469154879946,158051.03770780706,528080.8639627178,0.0,0.0,0.0,57787.378000000004,20199.234577439987,0.0,231149.51200000002,288936.89,288936.89,241511.58988416725,0.0,284495.55224920757,0.0,,21.79356411890782,,8.2,-115847.56255511926,-94562.06314273851,0.7086709106935949,0.4131518855341464,0.9681476130275108,,2850.0,-63681.68610920242,0.3997050147492625,,65.47380639463262,5689.91104498415,284495.5522492075,20.0,116.0,50.14,94.47,,,,,,
134.0,35404.91077134068,0.0,109216.0,129189.95865505679,20959.653527605624,84853.26471122605,283512.12360656355,0.0,0.0,0.0,0.0,10479.826763802808,0.0,0.0,0.0,0.0,203135.81045397796,0.0,35404.91077134068,0.0,,22.20643588109218,,8.2,-15347.53465236343,-154322.16495150683,0.7252611138114875,0.442956485727287,0.9675155017759306,,6300.0,-28946.89730787244,0.415929203539823,,8.148440214024056,743.5031261981542,35404.91077134068,21.0,116.0,50.15,94.28999999999999,,,,,,
135.0,113191.17572201736,0.0,98694.0,208051.75093442237,12813.278713091724,112492.67298477904,365136.77163238433,0.0,0.0,0.0,0.0,6406.63935654586,0.0,0.0,0.0,0.0,91176.58875509926,0.0,113191.17572201737,0.0,,21.79356411890782,,7.2,22762.83359509839,-157085.0206979619,0.7071531432579936,0.4722169030792645,0.9654385648064525,,19800.0,-15377.969208825894,0.35250737463126847,,28.247989813186653,3961.6911502706075,113191.17572201736,35.0,179.0,69.56,92.43,,,,,,
136.0,225734.63329912006,0.0,98868.0,232758.7264522284,5287.219161958757,91932.3723360614,286130.80256071774,0.0,0.0,0.0,16512.174,2643.6095809793783,0.0,66048.696,82560.87,82560.87,0.0,0.0,225734.63329912006,0.0,,21.79356411890782,,5.8,-17293.4137965631,12676.619891510527,0.6875528193158028,0.46966364918549064,0.9519836253085294,,128550.0,0.0,0.3569321533923304,,57.40883194063221,8577.916065366562,225734.63329912006,38.0,176.0,74.32,94.03,,,,,,
137.0,157459.23496837035,0.0,119554.0,227385.96335815798,38325.53988049857,96335.87183394862,296162.67999817873,0.0,0.0,0.0,0.0,19162.769940249284,0.0,0.0,0.0,0.0,0.0,0.0,157459.23496837032,0.0,,22.20643588109218,,5.4,59217.93304042012,-68776.7166400208,0.615692316239737,0.4718775271630316,0.9387092890253436,,155550.0,0.0,0.22861356932153393,,40.509537380312636,5668.532458861332,157459.23496837035,36.0,175.0,77.27,94.12,,,,,,
138.0,232836.2178019862,0.0,155108.0,214428.29427922284,22943.819889656545,74968.8747262395,227615.9124375547,0.0,0.0,0.0,41022.34458902409,11471.909944828274,0.0,164089.37835609636,205111.72294512042,25655.4,0.0,0.0,232836.21780198617,0.0,,22.20643588109218,,5.0,39427.18260228733,-24965.43628845347,0.5119136460507805,0.4758698112821231,0.9274215881042671,,140700.0,0.0,0.15781710914454278,,59.90177375391699,8149.267623069517,232836.2178019862,35.0,178.0,77.27,91.13,,,,,,
139.0,528858.0523450405,0.0,172447.0,265493.2636736592,39084.650176484545,43734.72851148727,131116.96158891404,0.0,0.0,0.0,251769.53566882425,19542.325088242276,0.0,1007078.142675297,1258847.6783441212,65189.81,0.0,0.0,528858.0523450405,0.0,,21.79356411890782,,4.6,-58262.49790300368,-28330.266217196644,0.5406653249549545,0.46755782558311043,0.9207392691589898,,74850.0,0.0,0.1415929203539823,,134.4991798723907,19038.889884421456,528858.0523450405,36.0,180.0,74.32,89.59,,,,,,
140.0,587775.7038581477,0.0,170389.0,146110.5060877075,10321.82702365606,47701.3177617032,141189.81322337975,0.0,0.0,0.0,7348.43,5160.91351182803,0.0,29393.72,36742.15,36742.15,0.0,0.0,587775.7038581478,0.0,,22.20643588109218,,4.2,27263.73000302344,34314.41286432778,0.535875986461526,0.4819649878780177,0.916765998434771,,28350.0,-386661.80758017744,0.14749262536873156,,146.67942689780077,19984.373931177022,587775.7038581477,34.0,181.0,69.55,90.75999999999999,,,,,,
141.0,733165.1209648498,0.0,150246.0,363537.07855757314,49719.882243081396,41015.59594551362,119836.8727851364,0.0,0.0,0.0,299111.886357972,24859.9411215407,0.0,1196447.545431888,1495559.4317898597,0.0,0.0,0.0,733165.1209648497,0.0,,22.206435881092183,,3.8,-57766.44201965663,-25500.491949737825,0.5748606076807949,0.47439986817852675,0.8833544037083849,,429300.0,-181359.37103688344,0.10471976401179942,,168.64997277554443,7331.6512096484985,733165.1209648498,10.0,105.0,50.03,95.86,,,,,,
142.0,206919.48397242135,0.0,111684.0,337960.29504175513,24563.285209045796,116067.09608105892,334691.766652692,0.0,0.0,0.0,0.0,12281.642604522898,0.0,0.0,0.0,0.0,0.0,0.0,206919.48397242132,0.0,,22.20643588109218,,3.4,21866.209528499705,3268.5283890631636,0.5414613555131668,0.46711519570243953,0.8728794172536247,,202500.0,0.0,0.06489675516224189,,41.61564661653338,827.6779358896854,206919.48397242135,4.0,89.0,21.12,93.89,,,,,,
143.0,168977.63876703283,0.0,78249.0,322670.1745863643,259.2604301750078,71253.671158823,202750.37630253824,0.0,0.0,0.0,3933.347418926993,129.6302150875039,0.0,15733.389675707973,19666.737094634966,0.0,0.0,0.0,168977.63876703283,0.0,,22.20643588109218,,3.0,-14696.731995447652,116379.78560679182,0.5693620348147341,0.4575958980960914,0.8705315754620409,,166800.0,0.0,0.030973451327433628,,30.44808072943165,675.9105550681313,168977.63876703283,4.0,90.0,0.19,92.24000000000001,,,,,,
144.0,204576.99749302922,0.0,59297.0,363703.3561633092,31743.078135772077,94957.43067591343,265672.48533776647,0.0,0.0,0.0,0.0,15871.539067886039,0.0,0.0,0.0,0.0,0.0,0.0,204576.99749302925,0.0,,21.79356411890782,,2.5,-26184.31323323233,98030.8708255425,0.5969449611853461,0.4517150474124385,0.8698994642104606,,4200.0,-23115.3685964183,0.019174041297935103,,36.842271478519635,818.3079899721168,204576.99749302922,4.0,89.0,0.09,92.22999999999999,,,,,,
145.0,163758.4276784681,0.0,46825.0,382471.681058824,337.77924197603664,110665.77396923954,305401.3419676868,0.0,0.0,0.0,0.0,168.88962098801832,0.0,0.0,0.0,0.0,0.0,0.0,163758.42767846808,0.0,,21.79356411890782,,2.1,15688.164668231077,77070.33909113692,0.5668349158605632,0.44678353275812993,0.8698994642104606,,0.0,-21137.026239067298,0.019174041297935103,,29.491255240615324,655.0337107138724,163758.4276784681,4.0,89.0,0.09,92.24000000000001,,,,,,
146.0,77010.14986558352,0.0,41176.0,326490.8979744385,264.2774542998258,111187.56309701264,301541.3834991017,0.0,0.0,0.0,25439.706394780434,132.1387271499129,0.0,101758.82557912174,127198.53197390217,0.0,0.0,0.0,77010.14986558353,0.0,,21.79356411890782,,1.6,101178.17037553745,2053.7787200343155,0.43460132793400047,0.45533780376300514,0.8667389079525593,,5250.0,0.0,0.0,,13.868757889292937,385.0507493279176,77010.14986558352,5.0,88.0,0.09,92.22999999999999,,,,,,
147.0,141708.33218089092,0.0,37896.0,431426.27266584226,3527.677356487402,97281.76102278096,261973.92541428786,0.0,0.0,0.0,0.0,1763.838678243701,0.0,0.0,0.0,0.0,0.0,0.0,141708.33218089095,0.0,,21.79356411890782,,1.4,31485.23403313851,169452.34725155443,0.3697870126448999,0.4393890986823734,0.8667389079525593,,1800.0,-37307.26353034405,0.0,,25.510333959203987,566.8333287235637,141708.33218089092,4.0,88.0,0.02,92.22,,,,,,
148.0,153424.8684500184,0.0,34853.0,328590.1824362178,552.990954383679,73356.0798381106,196144.8544294308,0.0,0.0,0.0,24944.0172462208,276.4954771918395,0.0,99776.0689848832,124720.08623110398,0.0,0.0,0.0,153424.8684500184,0.0,,22.20643588109218,,1.2,-19504.647023436897,109995.7124851882,0.4416349187457372,0.43031179690329097,0.8667389079525593,,16500.0,0.0,0.0,,27.61801056968781,613.6994738000736,153424.8684500184,4.0,91.0,0.01,92.22999999999999,,,,,,
149.0,293732.7196861704,0.0,38253.0,357302.1286029493,272.8258962163499,147382.40230575914,389866.7276365171,0.0,0.0,0.0,10988.265560435273,136.41294810817496,0.0,43953.06224174109,54941.32780217637,36801.43,0.0,0.0,293732.71968617034,0.0,,22.20643588109218,,0.9,13116.37979178282,-6388.6366379596475,0.47126050778767337,0.43522042351140494,0.8667389079525593,,0.0,-108756.76801332788,0.0,,52.87188954351067,1174.9308787446816,293732.7196861704,4.0,96.0,0.0,92.28,,,,,,
150.0,190377.02543322876,0.0,45916.0,355563.1478816465,50.7116672776845,101936.8588184974,268679.0513599081,0.0,0.0,0.0,17027.78291685764,25.35583363884225,0.0,68111.13166743056,85138.9145842882,0.0,0.0,0.0,190377.02543322873,0.0,,21.79356411890782,,0.8,15526.305261029338,71559.09189656675,0.44285621747228837,0.4273715412794418,0.8667389079525593,,0.0,-40070.80383173693,0.004424778761061947,,34.26786457798118,761.5081017329151,190377.02543322876,4.0,100.0,0.0,92.46000000000001,,,,,,
151.0,264146.3266064193,0.0,54961.0,353021.5534721827,1552.1347781188683,231368.89350864632,605416.8149171708,0.0,0.0,0.0,12771.580939500109,776.0673890594342,0.0,51086.323758000435,63857.90469750054,47042.56,0.0,0.0,264146.3266064193,0.0,,22.20643588109218,,0.6,36275.87947475919,-217787.97549053814,0.3969863389405671,0.44232268064291674,0.8667389079525591,,0.0,0.0,0.0855457227138643,,47.548980252421536,1056.5853064256771,264146.3266064193,4.0,104.0,0.01,92.52000000000001,,,,,,
