,load_elec,grid,hp_elec,ev,pv,bat_pow,cool,load_th_sh,load_th_dhw,tes_pow,dh,hp_th,bat_soc,tes_soc,ev_soc,eh_th_in,eh_elec_in,eh_th_out,temp_slack,temp_zone_1,temp_zone_2,temp_update,Qsolar_1,QconvInt_1,QradInt_1,Qvent_1,Qconduc_1,Qheating_1,Qsolar_2,QconvInt_2,QradInt_2,Qvent_2,Qconduc_2,Qheating_2,temp_amb,temp_aggregate_1,temp_aggregate_2,temp_wall_1,temp_wall_2,_Tamb,_Tz_1,_TEW_1,_TIW_1,_T1_1,_T2_1,_Taeq_1,_Tvent_1,_Qheating_1,_Qinfvent_1,_Qenvelope_1,_Qsolar_1,_Qint_people_1,_Qint_lighting_1,_Qint_appliances_1,_Tz_2,_TEW_2,_TIW_2,_T1_2,_T2_2,_Taeq_2,_Tvent_2,_Qheating_2,_Qinfvent_2,_Qenvelope_2,_Qsolar_2,_Qint_people_2,_Qint_lighting_2,_Qint_appliances_2
8.0,2647.0,20938.38705461162,21793.09511933856,-0.0,0.0,3606.4,0.0,47751.41043252196,0.0,11502.025859490792,0.0,36249.38457303116,0.3466666666666667,0.4510968288286956,0.8,0.0,0.0,0.0,"[2.0, 2.0, 2.0, 2.0, 2.0, 2.0, 2.0, 2.0]",20.0,0.0,0.0,1.0190460647285016,300.5338531825865,108.93075482046788,-1472.9959741227121,-1115.1577884158437,2190.0143148771967,0.0,0.0,0.0,0.0,0.0,0.0,-9.4,19.465865585142524,0.0,19.0,0.0,-9.4,20.0,18.0,20.0,20.0,20.0,-9.85,-9.4,8969.91,-1044.95,-1627.53,1.5,176.0,74.0,124.0,0.0,0.0,0.0,0.0,0.0,0.0,0.0,0.0,0.0,0.0,0.0,0.0,0.0,0.0
9.0,4756.0,4772.7805623424665,0.0,-0.0,7.08334046924592,0.0,0.0,31697.49682740386,0.0,31697.496827403855,0.0,0.0,0.3466666666666667,0.31632856000469967,0.8,0.0,0.0,0.0,"[2.0, 2.0, 2.0, 2.0, 2.0, 2.0, 2.0, 2.0]",20.0,0.0,0.0,31.507258832200677,336.6204696998202,69.91078294447938,-1432.9144510173323,-1106.301948453229,10132.282093648615,0.0,0.0,0.0,0.0,0.0,0.0,-8.6,19.469675381820835,0.0,18.998402892110054,0.0,-8.6,20.0,17.97,20.03,19.55,20.14,-9.02,-8.6,0.0,-1016.52,-1583.24,46.51,112.0,42.0,188.0,0.0,0.0,0.0,0.0,0.0,0.0,0.0,0.0,0.0,0.0,0.0,0.0,0.0,0.0
10.0,5714.0,25489.891838240823,20023.90006727775,-0.0,375.45768822813204,0.0,0.0,36742.6987077778,0.0,0.0,0.0,36742.6987077778,0.3466666666666667,0.31632856000469967,0.8,0.0,0.0,0.0,"[2.0, 2.0, 2.0, 2.0, 2.0, 2.0, 2.0, 2.0]",24.0,0.0,0.0,87.22886529273329,506.19937466166425,54.804092443879675,-1583.220162662507,-6311.3968467939385,2596.3668618280585,0.0,0.0,0.0,0.0,0.0,0.0,-7.6,20.87673105747087,0.0,19.246877263694167,0.0,-7.6,24.0,18.07,20.42,22.62,22.42,-8.05,-7.6,1055.54,-1123.14,-1749.31,128.76,95.0,19.0,326.0,0.0,0.0,0.0,0.0,0.0,0.0,0.0,0.0,0.0,0.0,0.0,0.0,0.0,0.0
11.0,8061.0,23013.369080032266,15904.297909609117,-0.0,1066.9956749770122,0.0,0.0,30396.431393853432,0.0,0.0,0.0,30396.431393853432,0.3466666666666667,0.31632856000469967,0.8,0.0,0.0,0.0,"[2.0, 2.0, 2.0, 2.0, 2.0, 2.0, 2.0, 2.0]",21.68,0.0,0.0,120.82144665725784,529.0354366764761,69.57206791083364,-1426.7976040178712,-2858.006434145649,8232.266554561687,0.0,0.0,0.0,0.0,0.0,0.0,-6.8,20.27413779400997,0.0,19.372872071304723,0.0,-6.8,21.68,18.12,20.62,20.54,21.1,-7.23,-6.8,7969.19,-1012.18,-1576.48,178.35,143.0,17.0,318.0,0.0,0.0,0.0,0.0,0.0,0.0,0.0,0.0,0.0,0.0,0.0,0.0,0.0,0.0
12.0,3385.0,16879.52148442145,15917.155319630237,-0.0,2507.031442630896,0.0,0.0,31331.463345496188,0.0,0.0,0.0,31331.46334549619,0.3466666666666667,0.31632856000469967,0.7977736549165121,0.0,0.0,0.0,"[2.0, 2.0, 2.0, 2.0, 2.0, 2.0, 2.0, 2.0]",24.0,0.0,0.0,181.55270239224376,605.2966067382864,113.53727927804982,-1513.077497228092,-5741.735100211563,0.0,0.0,0.0,0.0,0.0,0.0,0.0,-6.2,21.15968972377337,0.0,19.607346713008283,0.0,-6.2,24.0,18.24,20.97,22.53,22.62,-6.6,-6.2,0.0,-1073.38,-1671.81,268.0,274.0,17.0,306.0,0.0,0.0,0.0,0.0,0.0,0.0,0.0,0.0,0.0,0.0,0.0,0.0,0.0,0.0
13.0,4006.0,11169.955592378972,7546.72703246659,-0.0,438.62121804951266,0.0,0.0,14926.986674403102,0.0,0.0,0.0,14926.986674403102,0.3466666666666667,0.31632856000469967,0.7977736549165119,0.0,0.0,0.0,"[2.0, 2.0, 2.0, 2.0, 2.0, 2.0, 2.0, 2.0]",20.82,0.0,0.0,89.63728863575422,919.221977769065,72.41727419345781,-1348.95266476869,-1227.0498918105238,0.0,0.0,0.0,0.0,0.0,0.0,0.0,-6.1,20.232432689440078,0.0,19.650960310398865,0.0,-6.1,20.82,18.26,21.04,19.95,20.89,-6.53,-6.1,0.0,-956.95,-1490.47,132.32,140.0,7.0,612.0,0.0,0.0,0.0,0.0,0.0,0.0,0.0,0.0,0.0,0.0,0.0,0.0,0.0,0.0
14.0,7053.0,39990.287735771846,16742.066123012984,-0.0,4.7298259199940915,-16000.0,0.0,32316.795740506786,0.0,0.0,0.0,32316.795740506786,1.0,0.31632856000469967,0.7977736549165119,0.0,0.0,0.0,"[2.0, 2.0, 2.0, 2.0, 2.0, 2.0, 2.0, 2.0]",20.07,0.0,0.0,28.03637812919738,1822.9379875033815,106.8984646185935,-1336.4307211310854,-260.25244605718194,7525.131692579062,0.0,0.0,0.0,0.0,0.0,0.0,-6.6,19.964336960558306,0.0,19.598092003406578,0.0,-6.6,20.07,18.24,20.96,19.53,20.56,-7.02,-6.6,2720.4,-948.07,-1476.63,41.39,163.0,14.0,1274.0,0.0,0.0,0.0,0.0,0.0,0.0,0.0,0.0,0.0,0.0,0.0,0.0,0.0,0.0
15.0,3103.0,0.0,2170.193292444452,-0.0,0.0,5273.193292444452,0.0,4044.24655254998,0.0,0.0,0.0,4044.24655254998,0.775799604913076,0.31632856000469967,0.7860853432282002,0.0,0.0,0.0,"[2.0, 2.0, 2.0, 2.0, 2.0, 2.0, 2.0, 2.0]",24.0,0.0,0.0,3.055321296585275,419.2249903213003,61.3751640966069,-1568.189591497989,-5487.274209584468,0.0,0.0,0.0,0.0,0.0,0.0,0.0,-7.3,21.28737071507129,0.0,19.772324520396342,0.0,-7.3,24.0,18.33,21.22,22.48,22.69,-7.71,-7.3,0.0,-1112.48,-1732.71,4.51,128.0,16.0,244.0,0.0,0.0,0.0,0.0,0.0,0.0,0.0,0.0,0.0,0.0,0.0,0.0,0.0,0.0
16.0,3399.0,0.0,10752.254147607537,-0.0,0.0,14151.254147607537,0.0,22168.890454142445,0.0,2029.1077063454104,0.0,20139.782747797035,0.17413063605221138,0.3077014013892855,0.7649350649350648,0.0,0.0,0.0,"[2.0, 2.0, 2.0, 2.0, 2.0, 2.0, 2.0, 2.0]",20.72,0.0,0.0,0.0,228.99495520408624,5.79202707534204,-1398.8419699040164,-868.0146243172925,588.7546850010208,0.0,0.0,0.0,0.0,0.0,0.0,-7.2,20.307897655993823,0.0,19.789382004911,0.0,-7.2,20.72,18.34,21.24,19.87,20.93,-7.59,-7.2,7040.01,-992.34,-1545.59,0.0,0.0,0.0,171.0,0.0,0.0,0.0,0.0,0.0,0.0,0.0,0.0,0.0,0.0,0.0,0.0,0.0,0.0
17.0,3441.0,3458.291457286432,0.0,-0.0,0.0,0.0,0.0,16465.181153578724,0.0,16465.181153578724,0.0,0.0,0.17413063605221138,0.2376963794778113,0.7649350649350642,0.0,0.0,0.0,"[2.0, 2.0, 2.0, 2.0, 2.0, 2.0, 2.0, 2.0]",20.0,0.0,0.0,0.0,238.36901769782074,6.0291275988940525,-1352.7514048065725,36.35772169031142,9095.445357710352,0.0,0.0,0.0,0.0,0.0,0.0,-7.0,20.038188735517796,0.0,19.722723461100394,0.0,-7.0,20.0,18.3,21.14,19.57,20.67,-7.39,-7.0,0.0,-959.65,-1494.67,0.0,0.0,0.0,178.0,0.0,0.0,0.0,0.0,0.0,0.0,0.0,0.0,0.0,0.0,0.0,0.0,0.0,0.0
18.0,4286.0,20621.944034387787,16232.834314215846,-0.0,0.0,0.0,0.0,30869.580413908643,0.0,0.0,0.0,30869.580413908643,0.17413063605221138,0.2376963794778113,0.7649350649350642,0.0,0.0,0.0,"[2.0, 2.0, 2.0, 2.0, 2.0, 2.0, 2.0, 2.0]",24.0,0.0,0.0,0.0,214.2642855710748,5.419440538331734,-1548.1488299452994,-5282.239799150234,0.0,0.0,0.0,0.0,0.0,0.0,0.0,-6.9,21.38929553533185,0.0,19.90460226712659,0.0,-6.9,24.0,18.4,21.41,22.7,22.93,-7.3,-6.9,0.0,-1098.26,-1710.56,0.0,0.0,0.0,160.0,0.0,0.0,0.0,0.0,0.0,0.0,0.0,0.0,0.0,0.0,0.0,0.0,0.0,0.0
19.0,4272.0,13225.60843509942,8887.480392923924,-0.0,0.0,0.0,0.0,16985.82921189566,0.0,0.0,0.0,16985.82921189566,0.17413063605221138,0.2376963794778113,0.7615955473098324,0.0,0.0,0.0,"[2.0, 2.0, 2.0, 2.0, 2.0, 2.0, 2.0, 2.0]",20.7,0.0,0.0,0.0,452.4218582502399,90.80950052042112,-1377.9888239155105,-658.8806969670619,8115.235788934296,0.0,0.0,0.0,0.0,0.0,0.0,-6.8,20.3956449987551,0.0,19.910621670914033,0.0,-6.8,20.7,18.41,21.41,19.89,21.02,-7.19,-6.8,0.0,-977.55,-1522.55,0.0,83.0,87.0,285.0,0.0,0.0,0.0,0.0,0.0,0.0,0.0,0.0,0.0,0.0,0.0,0.0,0.0,0.0
20.0,7124.0,31122.11308643916,7842.502521006968,-0.0,0.0,-16000.0,0.0,15138.188453181227,0.0,0.0,0.0,15138.188453181227,0.8274639693855447,0.17333333333333328,0.7582560296846004,0.0,0.0,0.0,"[2.0, 0.41537279428873575, 0.9981750094888007, 1.2003635793735903, 2.0, 0.2965477860500165, 2.0, 1.7321382242025045]",24.0,0.0,0.0,0.0,869.7438434036393,164.61550635182644,-1533.1182587807818,-5007.918650281937,5525.311363546687,0.0,0.0,0.0,0.0,0.0,0.0,-6.6,21.525841200485544,0.0,20.083346561304122,0.0,-6.6,24.0,18.51,21.66,22.68,23.02,-6.99,-6.6,0.0,-1087.6,-1693.96,0.0,129.0,167.0,564.0,0.0,0.0,0.0,0.0,0.0,0.0,0.0,0.0,0.0,0.0,0.0,0.0,0.0,0.0
21.0,4434.0,20623.183491386473,16086.067573929538,-0.0,0.0,0.0,0.0,31203.891401095876,0.0,0.0,0.0,31203.891401095876,0.8274639693855447,0.17333333333333328,0.7582560296846004,0.0,0.0,0.0,"[2.0, 0.41537279428873575, 0.9981750094888007, 1.2003635793735903, 2.0, 0.2965477860500165, 2.0, 1.7321382242025045]",24.0,0.0,0.0,0.0,1336.75540794112,210.47752190745877,-1528.1080683926095,-4713.376044200455,4718.076380181484,0.0,0.0,0.0,0.0,0.0,0.0,-6.5,21.67263077747289,0.0,20.27522520853581,0.0,-6.5,24.0,18.62,21.93,22.43,22.97,-6.9,-6.5,4599.33,-1084.05,-1688.42,0.0,135.0,220.0,904.0,0.0,0.0,0.0,0.0,0.0,0.0,0.0,0.0,0.0,0.0,0.0,0.0,0.0,0.0
22.0,3853.0,3469.135484191829,12240.718612093287,-0.0,0.0,12641.928805322417,0.0,23978.039664820506,0.0,0.0,0.0,23978.039664820506,0.28996699637013584,0.17333333333333328,0.7582560296846004,0.0,0.0,0.0,"[2.0, 0.41537279428873575, 0.9981750094888007, 1.2003635793735903, 2.0, 0.2965477860500165, 2.0, 1.7321382242025045]",24.0,0.0,0.0,0.0,1367.9787890292735,176.50440403279174,-1518.0876876162645,-4455.620198591361,4449.204272135618,0.0,0.0,0.0,0.0,0.0,0.0,-6.3,21.801015442630792,0.0,20.444315516619636,0.0,-6.3,24.0,18.72,22.16,22.41,23.06,-6.73,-6.3,3566.48,-1076.94,-1677.35,0.0,157.0,151.0,923.0,0.0,0.0,0.0,0.0,0.0,0.0,0.0,0.0,0.0,0.0,0.0,0.0,0.0,0.0
23.0,2753.0,0.0,0.0,-0.0,0.0,2753.0,0.0,9608.941608074432,0.0,9608.941608074434,0.0,0.0,0.1729176766422447,0.13247898976158823,0.7582560296846004,0.0,0.0,0.0,"[2.0, 0.41537279428873575, 0.9981750094888007, 1.2003635793735903, 2.0, 0.2965477860500165, 2.0, 1.7321382242025045]",24.0,0.0,0.0,0.0,777.3423702511133,64.72844292969967,-1513.077497228092,-4224.374844876524,0.0,0.0,0.0,0.0,0.0,0.0,0.0,-6.2,21.916225582301156,0.0,20.597207870660334,0.0,-6.2,24.0,18.83,22.37,22.43,23.16,-6.61,-6.2,0.0,-1073.38,-1671.81,0.0,80.0,32.0,535.0,0.0,0.0,0.0,0.0,0.0,0.0,0.0,0.0,0.0,0.0,0.0,0.0,0.0,0.0
24.0,1801.0,0.0,2266.0237546255958,-0.0,0.0,4067.0237546255958,0.0,11198.183351014666,0.0,6716.120299885369,0.0,4482.0630511292975,0.0,0.10392405651377629,0.7582560296846004,0.0,0.0,0.0,"[2.0, 0.41537279428873575, 0.9981750094888007, 1.2003635793735903, 2.0, 0.2965477860500165, 2.0, 1.7321382242025045]",21.56,0.0,0.0,0.0,307.30009377956776,41.323234104779466,-1385.5983279262969,-820.8492311726834,2873.099108193699,0.0,0.0,0.0,0.0,0.0,0.0,-6.1,21.166907338570667,0.0,20.589408066163347,0.0,-6.1,21.56,18.84,22.34,20.62,21.9,-6.52,-6.1,938.42,-982.95,-1530.96,0.0,80.0,13.0,186.0,0.0,0.0,0.0,0.0,0.0,0.0,0.0,0.0,0.0,0.0,0.0,0.0,0.0,0.0
25.0,1099.0,33247.113335736976,15981.877769058294,-0.0,0.0,-16000.0,0.0,31763.583853969973,0.0,0.0,0.0,31763.583853969973,0.6533333333333333,0.10392405651377629,0.7582560296846004,0.0,0.0,0.0,"[2.0, 0.41537279428873575, 0.9981750094888007, 1.2003635793735903, 2.0, 0.2965477860500165, 2.0, 1.7321382242025045]",22.06,0.0,0.0,0.0,188.9613650052801,30.450481524751435,-1405.8327168004794,-1528.1004476270546,0.0,0.0,0.0,0.0,0.0,0.0,0.0,-6.0,21.31842093742031,0.0,20.592587012558567,0.0,-6.0,22.06,18.87,22.32,21.25,22.32,-6.39,-6.0,1381.55,-997.3,-1553.32,0.0,80.0,0.0,99.0,0.0,0.0,0.0,0.0,0.0,0.0,0.0,0.0,0.0,0.0,0.0,0.0,0.0,0.0
26.0,747.0,23915.93787256766,14559.562264837474,-0.0,0.0,-8489.795918367347,0.0,29353.169554093194,0.0,0.0,0.0,29353.16955409319,1.0,0.10392405651377629,0.7582560296846002,0.0,0.0,0.0,"[2.0, 0.41537279428873575, 0.9981750094888007, 1.2003635793735903, 2.0, 0.2965477860500165, 2.0, 1.7321382242025045]",20.7,0.0,0.0,0.0,168.87408823299188,29.942408974282834,-1322.9076772917456,248.77445477719434,7488.785541658259,0.0,0.0,0.0,0.0,0.0,0.0,-5.7,20.84799165673575,0.0,20.518834798713936,0.0,-5.7,20.7,18.85,22.19,20.18,21.53,-6.08,-5.7,5384.51,-938.48,-1461.69,0.0,80.0,0.0,84.0,0.0,0.0,0.0,0.0,0.0,0.0,0.0,0.0,0.0,0.0,0.0,0.0,0.0,0.0
27.0,1495.0,0.0,2214.3276242992297,-0.0,0.0,3709.3276242992297,0.0,4506.470304023941,0.0,0.0,0.0,4506.470304023941,0.8422904921641484,0.10392405651377629,0.7582560296846002,0.0,0.0,0.0,"[2.0, 0.41537279428873575, 0.9981750094888007, 1.2003635793735903, 2.0, 0.2965477860500165, 2.0, 1.7321382242025045]",24.0,0.0,0.0,0.0,203.69203463829152,30.823068061761738,-1478.0061645108847,-4177.379287477139,0.0,0.0,0.0,0.0,0.0,0.0,0.0,-5.5,21.939114614766797,0.0,20.64388689996559,0.0,-5.5,24.0,18.93,22.36,22.83,23.4,-5.87,-5.5,3922.41,-1048.5,-1633.06,0.0,80.0,0.0,110.0,0.0,0.0,0.0,0.0,0.0,0.0,0.0,0.0,0.0,0.0,0.0,0.0,0.0,0.0
28.0,989.0,0.0,9973.569298211465,-0.0,0.0,10962.569298211465,0.0,20392.707055349594,0.0,0.0,0.0,20392.707055349594,0.37619485873679026,0.10392405651377629,0.7582560296846002,0.0,0.0,0.0,"[2.0, 0.41537279428873575, 0.9981750094888007, 1.2003635793735903, 2.0, 0.2965477860500165, 2.0, 1.7321382242025045]",21.3,0.0,0.0,0.0,159.50002573925735,29.705308450730822,-1337.4962288289157,-423.25444115967457,0.0,0.0,0.0,0.0,0.0,0.0,0.0,-5.4,21.10430919550934,0.0,20.62701298541524,0.0,-5.4,21.3,18.94,22.31,20.51,21.8,-5.77,-5.4,0.0,-948.83,-1477.81,0.0,80.0,0.0,77.0,0.0,0.0,0.0,0.0,0.0,0.0,0.0,0.0,0.0,0.0,0.0,0.0,0.0,0.0
29.0,1764.0,5576.184354260849,3784.303432489545,-0.0,0.0,0.0,0.0,7809.824188409562,0.0,0.0,0.0,7809.824188409561,0.37619485873679026,0.10392405651377629,0.7582560296846002,0.0,0.0,0.0,"[2.0, 0.41537279428873575, 0.9981750094888007, 1.2003635793735903, 2.0, 0.2965477860500165, 2.0, 1.7321382242025045]",20.51,0.0,0.0,0.0,168.87408823299188,29.942408974282834,-1288.134868268585,523.1349928977709,0.0,0.0,0.0,0.0,0.0,0.0,0.0,-5.2,20.79021873862821,0.0,20.532295399934767,0.0,-5.2,20.51,18.91,22.15,20.11,21.45,-5.56,-5.2,4938.34,-913.81,-1423.27,0.0,80.0,0.0,84.0,0.0,0.0,0.0,0.0,0.0,0.0,0.0,0.0,0.0,0.0,0.0,0.0,0.0,0.0
30.0,2204.0,3934.663104827642,6879.06511563957,-0.0,0.0,5168.075326336065,0.0,14262.192664937262,0.0,0.0,0.0,14262.192664937262,0.1564637649299848,0.10392405651377629,0.7582560296846002,0.0,0.0,0.0,"[2.0, 0.41537279428873575, 0.9981750094888007, 1.2003635793735903, 2.0, 0.2965477860500165, 2.0, 1.7321382242025045]",20.23,0.0,0.0,0.0,216.87210746782804,59.715460431742805,-1268.8968299184942,741.2510600502715,0.0,0.0,0.0,0.0,0.0,0.0,0.0,-5.1,20.614710465011846,0.0,20.420035066296276,0.0,-5.1,20.23,18.87,21.97,19.94,21.24,-5.47,-5.1,2803.96,-900.16,-1402.02,0.0,169.0,0.0,73.0,0.0,0.0,0.0,0.0,0.0,0.0,0.0,0.0,0.0,0.0,0.0,0.0,0.0,0.0
31.0,1239.0,13790.853470251986,12482.899202900726,-0.0,0.0,0.0,0.0,25999.484225466327,0.0,0.0,0.0,25999.484225466327,0.1564637649299848,0.10392405651377629,0.7582560296846002,0.0,0.0,0.0,"[2.0, 0.41537279428873575, 0.9981750094888007, 1.2003635793735903, 2.0, 0.2965477860500165, 2.0, 1.7321382242025045]",20.1,0.0,0.0,0.0,115.16705349445273,2.912949289353308,-1257.4463879299255,742.4400547938334,3311.3333377854738,0.0,0.0,0.0,0.0,0.0,0.0,-5.0,20.48658876613929,0.0,20.30748527037545,0.0,-5.0,20.1,18.82,21.79,19.85,21.09,-5.36,-5.0,0.0,-892.04,-1389.36,0.0,0.0,0.0,86.0,0.0,0.0,0.0,0.0,0.0,0.0,0.0,0.0,0.0,0.0,0.0,0.0,0.0,0.0
32.0,2358.0,28526.593919496183,10025.960949898707,-0.0,0.0,-16000.0,0.0,2778.736770341403,0.0,-18294.577556977303,0.0,21073.314327318705,0.6533333333333333,0.17862691487143362,0.7582560296846002,0.0,0.0,0.0,"[1.70340907323207, 0.41537279428873575, 0.9973440574560932, 1.2003635793735903, 2.0, 0.2965477860500165, 1.7515527974824607, 1.7321382242025045]",21.55,0.0,0.0,1.0190225196192115,115.16705349445273,2.912949289353308,-1320.219253244029,-1313.8532333425612,0.0,0.0,0.0,0.0,0.0,0.0,0.0,-4.8,20.91518579244323,0.0,20.29518141613854,0.0,-4.8,21.55,18.82,21.77,20.96,21.84,-5.17,-4.8,383.74,-936.57,-1458.72,1.5,0.0,0.0,86.0,0.0,0.0,0.0,0.0,0.0,0.0,0.0,0.0,0.0,0.0,0.0,0.0,0.0,0.0
33.0,3547.0,17185.698721498113,0.0,-0.0,6.72452149643876,-7362.433973589316,0.0,5577.35469821797,0.0,0.0,0.0,0.0,0.9539660539215638,0.17862691487143362,0.7582560296846002,24788.24310319098,6197.060775797745,30985.303878988725,"[1.70340907323207, 0.41537279428873575, 0.9973440574560932, 1.2003635793735903, 2.0, 0.2965477860500165, 1.7515527974824607, 1.7321382242025045]",20.3,0.0,0.0,31.478828112732717,213.06609713202602,44.60876993114309,-1207.2850824901711,328.7337784135331,594.8700006892564,0.0,0.0,0.0,0.0,0.0,0.0,-3.8,20.47837586053807,0.0,20.22302327359164,0.0,-3.8,20.3,18.8,21.65,19.89,21.05,-4.12,-3.8,272.2,-856.45,-1333.94,46.47,109.0,7.0,101.0,0.0,0.0,0.0,0.0,0.0,0.0,0.0,0.0,0.0,0.0,0.0,0.0,0.0,0.0
34.0,1423.0,6830.705857079546,5490.605839431645,-0.0,117.05351163749637,0.0,0.0,12639.782104784294,0.0,0.0,0.0,12639.782104784292,0.9539660539215638,0.17862691487143362,0.7582560296846002,0.0,0.0,0.0,"[1.70340907323207, 0.41537279428873575, 0.9973440574560932, 1.2003635793735903, 2.0, 0.2965477860500165, 1.7515527974824607, 1.7321382242025045]",20.3,0.0,0.0,61.90547041941092,355.79148472460054,70.85918503868743,-1152.1729882202737,206.15817264678884,466.3112338369786,0.0,0.0,0.0,0.0,0.0,0.0,-2.7,20.416453052037532,0.0,20.145154811752384,0.0,-2.7,20.3,18.76,21.53,19.97,21.05,-3.02,-2.7,0.0,-817.36,-1273.05,91.38,155.0,20.0,182.0,0.0,0.0,0.0,0.0,0.0,0.0,0.0,0.0,0.0,0.0,0.0,0.0,0.0,0.0
35.0,4031.0,0.0,6520.210406749436,-0.0,581.6508676727364,9969.5595390767,0.0,15631.599894374736,0.0,0.0,0.0,15631.599894374736,0.5300902231785068,0.17862691487143362,0.7582560296846002,0.0,0.0,0.0,"[1.70340907323207, 0.41537279428873575, 0.9973440574560932, 1.2003635793735903, 2.0, 0.2965477860500165, 1.7515527974824607, 1.7321382242025045]",20.3,0.0,0.0,96.62634039377022,470.11275814443053,53.85569034967161,-1102.0710843385489,96.23946671648305,5722.516827923171,0.0,0.0,0.0,0.0,0.0,0.0,-1.7,20.360902350859995,0.0,20.07572016731649,0.0,-1.7,20.3,18.74,21.41,19.95,20.98,-2.0,-1.7,3061.36,-781.81,-1217.69,142.64,93.0,20.0,300.0,0.0,0.0,0.0,0.0,0.0,0.0,0.0,0.0,0.0,0.0,0.0,0.0,0.0,0.0
36.0,7470.0,0.0,5824.975801349251,-0.0,827.2537521907701,12467.722049158481,0.0,14353.55836378721,0.0,0.0,0.0,14353.55836378721,0.0,0.17862691487143362,0.7582560296846002,0.0,0.0,0.0,"[1.70340907323207, 0.41537279428873575, 0.9973440574560932, 1.2003635793735903, 2.0, 0.2965477860500165, 1.7515527974824607, 1.7321382242025045]",22.95,0.0,0.0,107.47379199813537,556.1003990644015,64.69457142633507,-1200.1395584983893,-3466.3582220848516,0.0,0.0,0.0,0.0,0.0,0.0,0.0,-1.0,21.243549161914846,0.0,20.179649104291848,0.0,-1.0,22.95,18.81,21.55,21.98,22.43,-1.4,-1.0,3575.26,-851.38,-1326.05,158.65,120.0,20.0,350.0,0.0,0.0,0.0,0.0,0.0,0.0,0.0,0.0,0.0,0.0,0.0,0.0,0.0,0.0
37.0,6615.0,58009.88603320426,45328.227696205315,-0.0,237.5370931670784,0.0,0.0,8934.918108337013,30070.73,-80000.0,0.0,112991.50210833701,0.0,0.5052935815381003,0.7582560296846002,24056.584000000003,6014.146000000001,30070.73,"[1.70340907323207, 0.41537279428873575, 0.9973440574560932, 1.2003635793735903, 2.0, 0.2965477860500165, 1.7515527974824607, 1.7321382242025045]",20.99,0.0,0.0,75.12246650508143,478.6410405635424,42.98293776964358,-1086.5135773478426,-711.3607756508333,6657.14002110367,0.0,0.0,0.0,0.0,0.0,0.0,-0.7,20.64760142081633,0.0,20.182326919984206,0.0,-0.7,20.99,18.82,21.54,20.27,21.25,-1.13,-0.7,3302.95,-770.78,-1200.5,110.89,83.0,7.0,313.0,0.0,0.0,0.0,0.0,0.0,0.0,0.0,0.0,0.0,0.0,0.0,0.0,0.0,0.0
38.0,5900.0,30601.092976961725,8548.319719165927,-0.0,0.23220708901215875,-16000.0,0.0,20819.77894504412,0.0,0.0,0.0,20819.778945044123,0.6533333333333333,0.5052935815381003,0.7582560296845996,0.0,0.0,0.0,"[1.70340907323207, 0.41537279428873575, 0.9973440574560932, 1.2003635793735903, 2.0, 0.2965477860500165, 1.7515527974824607, 1.7321382242025045]",23.7,0.0,0.0,17.66167111543895,539.8896143008003,39.96837397019655,-1252.7183981025214,-4288.943473405192,4948.903721593544,0.0,0.0,0.0,0.0,0.0,0.0,-1.3,21.58362541366883,0.0,20.33258250280764,0.0,-1.3,23.7,18.92,21.75,22.52,22.88,-1.7,-1.3,962.98,-888.68,-1384.14,26.07,82.0,0.0,360.0,0.0,0.0,0.0,0.0,0.0,0.0,0.0,0.0,0.0,0.0,0.0,0.0,0.0,0.0
39.0,8610.0,11576.865638665862,2908.9813104725326,-0.0,0.0,0.0,0.0,6918.548547135799,0.0,0.0,0.0,6918.548547135799,0.6533333333333333,0.5052935815381003,0.7582560296845996,0.0,0.0,0.0,"[1.70340907323207, 0.41537279428873575, 0.9973440574560932, 1.2003635793735903, 2.0, 0.2965477860500165, 1.7515527974824607, 1.7321382242025045]",23.7,0.0,0.0,2.026643320064626,559.9064094002033,43.22003829319559,-1282.7795404315564,-4038.24389843365,0.0,0.0,0.0,0.0,0.0,0.0,0.0,-1.9,21.70906601157483,0.0,20.498139292326776,0.0,-1.9,23.7,19.02,21.97,22.33,22.85,-2.31,-1.9,0.0,-910.01,-1417.36,2.99,83.0,4.0,374.0,0.0,0.0,0.0,0.0,0.0,0.0,0.0,0.0,0.0,0.0,0.0,0.0,0.0,0.0
40.0,5631.0,20074.06787061969,5852.901612899241,-0.0,0.0,-8489.795918367347,0.0,13808.598905141147,0.0,0.0,0.0,13808.598905141145,1.0,0.5052935815381003,0.7582560296845996,0.0,0.0,0.0,"[1.70340907323207, 0.41537279428873575, 0.9973440574560932, 1.2003635793735903, 2.0, 0.2965477860500165, 1.7515527974824607, 1.7321382242025045]",21.35,0.0,0.0,0.0,472.2976900038724,86.67717710994317,-1174.8752442017028,-745.5847382112927,6092.086522661637,0.0,0.0,0.0,0.0,0.0,0.0,-2.1,20.99545886046581,0.0,20.50013416952451,0.0,-2.1,21.35,19.04,21.96,20.54,21.61,-2.52,-2.1,363.92,-833.46,-1298.13,0.0,163.0,37.0,263.0,0.0,0.0,0.0,0.0,0.0,0.0,0.0,0.0,0.0,0.0,0.0,0.0,0.0,0.0
41.0,3982.0,0.0,4851.260194424562,-0.0,0.0,8833.260194424562,0.0,11352.955192514637,0.0,0.0,0.0,11352.955192514637,0.6244362162234456,0.5052935815381003,0.7526901669758798,0.0,0.0,0.0,"[1.70340907323207, 0.41537279428873575, 0.9973440574560932, 1.2003635793735903, 2.0, 0.2965477860500165, 1.7515527974824607, 1.7321382242025045]",23.7,0.0,0.0,0.0,676.0602063150493,135.75698548520995,-1302.8203019842463,-3853.504541655177,0.0,0.0,0.0,0.0,0.0,0.0,0.0,-2.3,21.801470479635068,0.0,20.62476212851012,0.0,-2.3,23.7,19.12,22.13,22.56,23.06,-2.71,-2.3,3165.6,-924.23,-1439.5,0.0,298.0,38.0,344.0,0.0,0.0,0.0,0.0,0.0,0.0,0.0,0.0,0.0,0.0,0.0,0.0,0.0,0.0
42.0,3838.0,13676.93298347898,9770.548318561585,-0.0,0.0,0.0,0.0,22678.818580991352,0.0,0.0,0.0,22678.818580991352,0.6244362162234456,0.5052935815381003,0.7526901669758798,0.0,0.0,0.0,"[1.70340907323207, 0.41537279428873575, 0.9973440574560932, 1.2003635793735903, 2.0, 0.2965477860500165, 1.7515527974824607, 1.7321382242025045]",21.53,0.0,0.0,0.0,732.5160262961119,86.2707190695683,-1203.9316152685492,-811.007876028203,5565.793028796874,0.0,0.0,0.0,0.0,0.0,0.0,-2.5,21.143239658764205,0.0,20.627977589915012,0.0,-2.5,21.53,19.14,22.11,20.72,21.79,-2.96,-2.5,2747.1,-854.07,-1330.24,0.0,162.0,26.0,459.0,0.0,0.0,0.0,0.0,0.0,0.0,0.0,0.0,0.0,0.0,0.0,0.0,0.0,0.0
43.0,5147.0,13356.774505600148,1884.0542789050803,-0.0,0.0,-6258.936354167066,0.0,4337.2327672699585,0.0,0.0,0.0,4337.2327672699585,0.8800094506852675,0.5052935815381003,0.7476808905380319,0.0,0.0,0.0,"[1.70340907323207, 0.41537279428873575, 0.9973440574560932, 1.2003635793735903, 2.0, 0.2965477860500165, 1.7515527974824607, 1.7321382242025045]",23.7,0.0,0.0,0.0,497.3186838781263,53.652461329484176,-1322.8610635369364,-3687.1751095211025,0.0,0.0,0.0,0.0,0.0,0.0,0.0,-2.7,21.8847348839353,0.0,20.739541284596484,0.0,-2.7,23.7,19.22,22.26,22.55,23.1,-3.17,-2.7,0.0,-938.44,-1461.64,0.0,128.0,0.0,304.0,0.0,0.0,0.0,0.0,0.0,0.0,0.0,0.0,0.0,0.0,0.0,0.0,0.0,0.0
44.0,4998.0,14436.669007407285,0.0,-0.0,0.0,-9366.485662370249,0.0,2683.4359662581555,0.0,2683.4359662581555,0.0,0.0,1.0,0.4938844150148939,0.7476808905380319,0.0,0.0,0.0,"[1.0048920868529834, 0.41537279428872864, 0.9973440574560932, 0.7122607330361497, 0.46935469318277256, 0.2965477860500165, 1.147786197523292, 0.49509430850126535]",21.48,0.0,0.0,0.0,774.2411766441635,80.44482049086169,-1221.3429097267938,-591.1163223189203,0.0,0.0,0.0,0.0,0.0,0.0,0.0,-2.9,21.20063519850511,0.0,20.729673166941794,0.0,-2.9,21.48,19.23,22.23,20.71,21.83,-3.34,-2.9,0.0,-866.43,-1349.47,0.0,167.0,12.0,489.0,0.0,0.0,0.0,0.0,0.0,0.0,0.0,0.0,0.0,0.0,0.0,0.0,0.0,0.0
45.0,5630.0,0.0,5413.405241125375,-0.0,0.0,11043.405241125376,0.0,12255.629984472685,0.0,0.0,0.0,12255.629984472685,0.5304674642378666,0.4938844150148939,0.7476808905380319,0.0,0.0,0.0,"[1.0048920868529834, 0.41537279428872864, 0.9973440574560932, 0.7122607330361497, 0.46935469318277256, 0.2965477860500165, 1.147786197523292, 0.49509430850126535]",21.0,0.0,0.0,0.0,814.0633218243139,87.04976364695351,-1207.210780684281,-27.51224336157999,3469.192997110561,0.0,0.0,0.0,0.0,0.0,0.0,-3.1,20.999364746410166,0.0,20.661363736405264,0.0,-3.1,21.0,19.21,22.11,20.48,21.61,-3.55,-3.1,1609.95,-856.4,-1333.86,0.0,107.0,53.0,546.0,0.0,0.0,0.0,0.0,0.0,0.0,0.0,0.0,0.0,0.0,0.0,0.0,0.0,0.0
46.0,5123.0,11441.643548078167,6261.435330337776,-0.0,0.0,0.0,0.0,14056.135689366627,0.0,0.0,0.0,14056.135689366625,0.5304674642378666,0.4938844150148939,0.6730983302411859,0.0,0.0,0.0,"[1.0048920868529834, 0.41537279428872864, 0.9973440574560932, 0.7122607330361497, 0.46935469318277256, 0.2965477860500165, 1.147786197523292, 0.49509430850126535]",22.55,0.0,0.0,0.0,467.08204621036606,96.63539909912775,-1295.311447819345,-2167.786559293508,3815.5976258149262,0.0,0.0,0.0,0.0,0.0,0.0,-3.3,21.492003614168887,0.0,20.69112199721158,0.0,-3.3,22.55,19.24,22.14,21.71,22.46,-3.78,-3.3,1324.12,-918.9,-1431.2,0.0,134.0,69.0,271.0,0.0,0.0,0.0,0.0,0.0,0.0,0.0,0.0,0.0,0.0,0.0,0.0,0.0,0.0
47.0,2428.0,0.0,0.0,-0.0,0.0,2428.0,0.0,20297.54070107209,0.0,20297.540701072085,0.0,0.0,0.4272361717208598,0.4075853474082949,0.6730983302411859,0.0,0.0,0.0,"[1.0048920868529834, 0.41537279428872864, 0.9973440574560932, 0.7122607330361497, 0.46935469318277256, 0.2965477860500165, 1.147786197523292, 0.49509430850126535]",23.0,0.0,0.0,0.0,177.4728523249889,59.00415886108677,-1322.9353653428266,-2680.7222350773973,0.0,0.0,0.0,0.0,0.0,0.0,0.0,-3.4,21.688019450361274,0.0,20.770307318873336,0.0,-3.4,23.0,19.29,22.25,22.01,22.71,-3.87,-3.4,177.9,-938.5,-1461.72,0.0,83.0,46.0,84.0,0.0,0.0,0.0,0.0,0.0,0.0,0.0,0.0,0.0,0.0,0.0,0.0,0.0,0.0
48.0,1573.0,15502.707142278176,8888.450113054918,-0.0,0.0,-4963.743493511867,0.0,18851.881648470266,0.0,0.0,0.0,18851.881648470266,0.6299223643725944,0.4075853474082949,0.6730983302411859,0.0,0.0,0.0,"[1.0048920868529834, 0.41537279428872864, 0.9973440574560932, 0.7122607330361497, 0.46935469318277256, 0.2965477860500165, 1.147786197523292, 0.49509430850126535]",21.12,0.0,0.0,0.0,338.4529931948359,74.44956439533219,-1288.7871601636941,-109.52155054774884,4767.693159784098,0.0,0.0,0.0,0.0,0.0,0.0,-4.6,21.08788662203755,0.0,20.733153336551666,0.0,-4.6,21.12,19.28,22.18,20.56,21.69,-5.06,-4.6,2494.63,-914.27,-1423.99,0.0,160.0,24.0,166.0,0.0,0.0,0.0,0.0,0.0,0.0,0.0,0.0,0.0,0.0,0.0,0.0,0.0,0.0
49.0,1299.0,0.0,5227.2157339241485,-0.0,0.0,6526.2157339241485,0.0,10488.626330914545,0.0,0.0,0.0,10488.626330914543,0.3524472056173161,0.4075853474082949,0.6730983302411859,0.0,0.0,0.0,"[1.0048920868529834, 0.41537279428872864, 0.9973440574560932, 0.7122607330361497, 0.46935469318277256, 0.2965477860500165, 1.147786197523292, 0.49509430850126535]",23.0,0.0,0.0,0.0,251.9719805646685,63.17035377492927,-1443.1799346589662,-2656.801909516277,0.0,0.0,0.0,0.0,0.0,0.0,0.0,-5.8,21.701689175044972,0.0,20.792014071141008,0.0,-5.8,23.0,19.32,22.26,22.14,22.8,-6.25,-5.8,2133.34,-1023.8,-1594.58,0.0,160.0,9.0,103.0,0.0,0.0,0.0,0.0,0.0,0.0,0.0,0.0,0.0,0.0,0.0,0.0,0.0,0.0
50.0,986.0,12112.73878669154,11066.175092758082,-0.0,0.0,0.0,0.0,20938.774834447024,0.0,0.0,0.0,20938.77483444702,0.3524472056173161,0.4075853474082949,0.6730983302411859,0.0,0.0,0.0,"[1.0048920868529834, 0.41537279428872864, 0.9973440574560932, 0.7122607330361497, 0.46935469318277256, 0.2965477860500165, 1.147786197523292, 0.49509430850126535]",21.11,0.0,0.0,0.0,273.68033581331696,76.44798309384203,-1408.578831682944,-80.0866515761145,4939.180900746182,0.0,0.0,0.0,0.0,0.0,0.0,-7.0,21.095288268954082,0.0,20.748539589289763,0.0,-7.0,21.11,19.3,22.19,20.57,21.7,-7.48,-7.0,633.38,-999.25,-1556.35,0.0,160.0,30.0,117.0,0.0,0.0,0.0,0.0,0.0,0.0,0.0,0.0,0.0,0.0,0.0,0.0,0.0,0.0
51.0,1273.0,0.0,7016.5582761192745,-0.0,0.0,8289.558276119275,0.0,12874.978692403361,0.0,0.0,0.0,12874.978692403363,0.0,0.4075853474082949,0.6730983302411858,0.0,0.0,0.0,"[1.0048920868529834, 0.41537279428872864, 0.9973440574560932, 0.7122607330361497, 0.46935469318277256, 0.2965477860500165, 1.147786197523292, 0.49509430850126535]",23.0,0.0,0.0,0.0,324.35665861779154,59.54610291491994,-1533.3633616460713,-2642.083386971853,3798.2843631866344,0.0,0.0,0.0,0.0,0.0,0.0,-7.6,21.71036960570553,0.0,20.803812725205837,0.0,-7.6,23.0,19.33,22.28,22.17,22.83,-8.09,-7.6,1839.65,-1087.77,-1694.23,0.0,160.0,0.0,158.0,0.0,0.0,0.0,0.0,0.0,0.0,0.0,0.0,0.0,0.0,0.0,0.0,0.0,0.0
52.0,851.0,13373.25674785308,12455.390464113814,-0.0,0.0,0.0,0.0,22023.733829833964,0.0,0.0,0.0,22023.733829833964,0.0,0.4075853474082949,0.6730983302411858,0.0,0.0,0.0,"[1.0048920868529834, 0.41537279428872864, 0.9973440574560932, 0.7122607330361497, 0.46935469318277256, 0.2965477860500165, 1.147786197523292, 0.49509430850126535]",23.0,0.0,0.0,0.0,298.91277470622634,58.90254435099305,-1568.4346943632784,-2533.6135657284226,0.0,0.0,0.0,0.0,0.0,0.0,0.0,-8.3,21.764973947691235,0.0,20.873970770392482,0.0,-8.3,23.0,19.37,22.38,22.04,22.78,-8.8,-8.3,0.0,-1112.65,-1732.98,0.0,160.0,0.0,139.0,0.0,0.0,0.0,0.0,0.0,0.0,0.0,0.0,0.0,0.0,0.0,0.0,0.0,0.0
53.0,1491.0,48151.061561006136,30419.306253201103,-0.0,0.0,-16000.0,0.0,19402.079660031974,0.0,-32645.63270328332,0.0,52047.712363315295,0.6533333333333333,0.5408883476133685,0.6730983302411858,0.0,0.0,0.0,"[1.0048920868529834, 0.41537279428872864, 0.9973440574560932, 0.7122607330361497, 0.46935469318277256, 0.2965477860500165, 1.147786197523292, 0.49509430850126535]",21.13,0.0,0.0,0.0,199.81554262960432,56.39605310201462,-1504.7988632512247,0.7265406037467862,5005.144999150146,0.0,0.0,0.0,0.0,0.0,0.0,-8.9,21.15750340027678,0.0,20.819800514606293,0.0,-8.9,21.13,19.34,22.3,20.61,21.77,-9.42,-8.9,868.68,-1067.51,-1662.67,0.0,160.0,0.0,65.0,0.0,0.0,0.0,0.0,0.0,0.0,0.0,0.0,0.0,0.0,0.0,0.0,0.0,0.0
54.0,1247.0,0.0,4749.983253749311,-0.0,0.0,5996.983253749311,0.0,7900.84972959282,0.0,0.0,0.0,7900.849729592819,0.39835955553786945,0.5408883476133685,0.6730983302411858,0.0,0.0,0.0,"[1.0048920868529834, 0.41537279428872864, 0.9973440574560932, 0.7122607330361497, 0.46935469318277256, 0.2965477860500165, 1.147786197523292, 0.49509430850126535]",23.0,0.0,0.0,0.0,213.6299505151078,59.241259384638774,-1623.546788633176,-2544.620840438564,0.0,0.0,0.0,0.0,0.0,0.0,0.0,-9.4,21.76030699679247,0.0,20.866344594717333,0.0,-9.4,23.0,19.35,22.38,22.2,22.89,-9.92,-9.4,724.28,-1151.75,-1793.87,0.0,147.0,11.0,81.0,0.0,0.0,0.0,0.0,0.0,0.0,0.0,0.0,0.0,0.0,0.0,0.0,0.0,0.0
55.0,2013.0,479.82069615070793,6864.838338920645,-0.0,0.0,8400.41674625069,0.0,11091.355336817323,0.0,0.0,0.0,11091.355336817325,0.04119897959183673,0.5408883476133685,0.6730983302411858,0.0,0.0,0.0,"[1.0048920868529834, 0.41537279428872864, 0.9973440574560932, 0.7122607330361497, 0.46935469318277256, 0.2965477860500165, 1.147786197523292, 0.49509430850126535]",21.06,0.0,0.0,0.0,199.81554262960432,70.62208451513543,-1551.1262646456182,89.33491313651595,1070.3424337139904,0.0,0.0,0.0,0.0,0.0,0.0,-9.9,21.127033711388744,0.0,20.807586125239098,0.0,-9.9,21.06,19.32,22.3,20.56,21.74,-10.43,-9.9,1911.56,-1100.38,-1713.85,0.0,108.0,51.0,87.0,0.0,0.0,0.0,0.0,0.0,0.0,0.0,0.0,0.0,0.0,0.0,0.0,0.0,0.0
56.0,969.0,22966.679173365224,5882.845777498401,-0.0,0.0,-16000.0,0.0,9616.939358664258,0.0,0.0,0.0,9616.939358664258,0.6533333333333333,0.5,0.6730983302411858,0.0,0.0,0.0,"[1.0048920868529834, 0.41537279428872864, 0.9913831061500602, 0.7122607330361497, 0.46935469318277256, 0.2965477860500165, 1.1477861975232884, 0.49509430850126535]",21.0,0.0,0.0,4.217170411251499,216.94258914071327,74.58505040879051,-1537.8833463036653,57.28716322584143,1193.350746791911,0.0,0.0,0.0,0.0,0.0,0.0,-9.7,21.046552135583646,0.0,20.72701660803954,0.0,-9.7,21.0,19.27,22.19,20.65,21.76,-10.25,-9.7,1271.86,-1090.98,-1699.22,6.23,136.0,42.0,86.0,0.0,0.0,0.0,0.0,0.0,0.0,0.0,0.0,0.0,0.0,0.0,0.0,0.0,0.0
57.0,3615.0,2684.636305877461,7252.852333003849,-0.0,8196.639208655775,0.0,0.0,13515.9956239961,0.0,0.0,0.0,13515.995623996097,0.6533333333333333,0.5,0.6730983302411858,0.0,0.0,0.0,"[1.0048920868529834, 0.41537279428872864, 0.9913831061500602, 0.7122607330361497, 0.46935469318277256, 0.2965477860500165, 1.1477861975232884, 0.49509430850126535]",21.0,0.0,0.0,1094.8036929176772,1214.3287421394896,91.14821555406688,-1417.6387769875253,-49.94596489882169,0.0,0.0,0.0,0.0,0.0,0.0,0.0,-7.3,20.990766103339176,0.0,20.65300218566889,0.0,-7.3,21.0,19.22,22.09,20.64,21.7,-7.08,-7.3,437.44,-1005.68,-1566.36,1616.11,143.0,24.0,829.0,0.0,0.0,0.0,0.0,0.0,0.0,0.0,0.0,0.0,0.0,0.0,0.0,0.0,0.0
58.0,2425.0,0.0,3247.357864771884,-8455.305304589536,14127.66316936142,0.0,0.0,6701.7073163272435,0.0,0.0,0.0,6701.707316327244,0.6533333333333333,0.5,0.7032299636902686,0.0,0.0,0.0,"[1.0048920868529834, 0.41537279428872864, 0.9913831061500602, 0.7122607330361497, 0.46935469318277256, 0.2965477860500165, 1.1477861975232884, 0.49509430850126535]",21.45,0.0,0.0,1506.7413615982905,294.6133926602279,7.451730740206137,-1335.0982895786324,-711.4927839332552,0.0,0.0,0.0,0.0,0.0,0.0,0.0,-5.2,21.112116768665484,0.0,20.632583019650404,0.0,-5.2,21.45,19.21,22.06,21.07,22.01,-4.77,-5.2,0.0,-947.12,-1475.16,2224.2,0.0,0.0,220.0,0.0,0.0,0.0,0.0,0.0,0.0,0.0,0.0,0.0,0.0,0.0,0.0,0.0,0.0
59.0,2976.0,0.0,5902.742501646024,-8860.095886727771,17738.838388373795,0.0,0.0,13194.642695963883,0.0,0.0,0.0,13194.642695963881,0.6533333333333333,0.5,0.7348041235775167,0.0,0.0,0.0,"[1.0048920868529834, 0.41537279428872864, 0.9913831061500602, 0.7122607330361497, 0.46935469318277256, 0.2965477860500165, 1.1477861975232884, 0.49509430850126535]",21.32,0.0,0.0,1859.948300822709,191.49870522914816,4.8436249811339875,-1238.4483651707915,-522.8978021767206,3112.793378270203,0.0,0.0,0.0,0.0,0.0,0.0,-3.4,21.075527685745616,0.0,20.63686918323436,0.0,-3.4,21.32,19.21,22.06,21.13,22.05,-2.77,-3.4,1153.89,-878.56,-1368.37,2745.59,0.0,0.0,143.0,0.0,0.0,0.0,0.0,0.0,0.0,0.0,0.0,0.0,0.0,0.0,0.0,0.0,0.0
60.0,3613.0,0.0,3265.017886898277,-2930.220362169615,18298.03416743524,-8489.795918367347,0.0,7609.692727856303,0.0,0.0,0.0,7609.692727856303,1.0,0.5,0.7452463634136121,0.0,0.0,0.0,"[1.0048920868529834, 0.41537279428872864, 0.9913831061500602, 0.7122607330361497, 0.46935469318277256, 0.2965477860500165, 1.1477861975232884, 0.49509430850126535]",23.0,0.0,0.0,1915.290113987554,215.603437355894,5.453312041696306,-1272.8334614611015,-2697.0212236886523,0.0,0.0,0.0,0.0,0.0,0.0,0.0,-2.4,21.678337397625217,0.0,20.758769775439543,0.0,-2.4,23.0,19.29,22.23,22.53,23.08,-1.75,-2.4,0.0,-902.95,-1406.37,2827.29,0.0,0.0,161.0,0.0,0.0,0.0,0.0,0.0,0.0,0.0,0.0,0.0,0.0,0.0,0.0,0.0,0.0
61.0,2549.0,0.0,2556.898617725178,-11063.849736631317,16169.748354356494,0.0,0.0,6032.424562795162,0.0,0.0,0.0,6032.424562795162,1.0,0.5,0.78467390065688,0.0,0.0,0.0,"[1.0048920868529834, 0.41537279428872864, 0.9913831061500602, 0.7122607330361497, 0.46935469318277256, 0.2965477860500165, 1.1477861975232884, 0.49509430850126535]",22.08,0.0,0.0,1648.1809891872617,996.8222996156945,60.18966147884683,-1211.3440063718813,-1286.9151619982242,934.8287394843061,0.0,0.0,0.0,0.0,0.0,0.0,-2.1,21.453315918897733,0.0,20.834115092491878,0.0,-2.1,22.08,19.35,22.32,21.72,22.57,-1.6,-2.1,0.0,-859.33,-1338.43,2432.99,109.0,0.0,687.0,0.0,0.0,0.0,0.0,0.0,0.0,0.0,0.0,0.0,0.0,0.0,0.0,0.0,0.0
62.0,2354.0,0.0,6285.242477078302,-401.37590705687035,9040.618384135172,0.0,0.0,14409.175469891532,0.0,0.0,0.0,14409.175469891532,1.0,0.5,0.7861042584347554,0.0,0.0,0.0,"[1.0048920868529834, 0.41537279428872864, 0.9913831061500602, 0.7122607330361497, 0.46935469318277256, 0.2965477860500165, 1.1477861975232884, 0.49509430850126535]",22.63,0.0,0.0,849.652612816852,727.6527908670316,71.6721011194372,-1274.2131530256218,-1953.8993593232597,0.0,0.0,0.0,0.0,0.0,0.0,0.0,-2.8,21.676877875509057,0.0,20.909948143053256,0.0,-2.8,22.63,19.41,22.41,22.07,22.84,-2.8,-2.8,1287.26,-903.93,-1407.89,1254.23,166.0,0.0,456.0,0.0,0.0,0.0,0.0,0.0,0.0,0.0,0.0,0.0,0.0,0.0,0.0,0.0,0.0
63.0,3303.0,7782.769219778485,4440.855373679593,-0.0,0.0,0.0,0.0,9503.465998690424,0.0,0.0,0.0,9503.465998690424,1.0,0.5,0.7861042584347554,0.0,0.0,0.0,"[1.0048920868529834, 0.41537279428872864, 0.9913831061500602, 0.7122607330361497, 0.46935469318277256, 0.2965477860500165, 1.1477861975232884, 0.49509430850126535]",21.84,0.0,0.0,14.195522979402984,1961.3639930499571,135.89247149866827,-1314.4418557862516,-834.4581520147873,2398.7273021070105,0.0,0.0,0.0,0.0,0.0,0.0,-4.4,21.438973826587084,0.0,20.917611687769067,0.0,-4.4,21.84,19.43,22.41,21.29,22.29,-5.0,-4.4,1586.09,-932.47,-1452.34,20.95,216.0,28.0,1348.0,0.0,0.0,0.0,0.0,0.0,0.0,0.0,0.0,0.0,0.0,0.0,0.0,0.0,0.0
64.0,2263.0,30456.835451470688,20960.133274213335,-0.0,0.0,0.0,0.0,15130.445076135507,35407.09,0.0,0.0,43456.11707613552,1.0,0.5,0.7861042584347554,28325.672,7081.418,35407.09,"[1.0048920868529834, 0.41537279428872864, 0.9913831061500602, 0.7122607330361497, 0.46935469318277256, 0.2965477860500165, 1.1477861975232884, 0.49509430850126535]",23.0,0.0,0.0,0.0,1292.3519540234304,166.1058524998677,-1408.108601941759,-2430.6156588645936,0.0,0.0,0.0,0.0,0.0,0.0,0.0,-5.1,21.814058814878614,0.0,20.946893254951004,0.0,-5.1,23.0,19.45,22.44,21.92,22.72,-5.7,-5.1,1381.77,-998.92,-1555.83,0.0,276.0,74.0,812.0,0.0,0.0,0.0,0.0,0.0,0.0,0.0,0.0,0.0,0.0,0.0,0.0,0.0,0.0
65.0,5009.0,6362.456287301332,7361.564012172269,-0.0,0.0,6039.920006307443,0.0,14701.105098881608,0.0,0.0,0.0,14701.105098881606,0.7432006800039352,0.5,0.7861042584347554,0.0,0.0,0.0,"[1.0048920868529834, 0.41537279428872864, 0.9913831061500602, 0.7122607330361497, 0.46935469318277256, 0.2965477860500165, 1.1477861975232884, 0.49509430850126535]",21.81,0.0,0.0,0.0,973.3519025449153,190.01913387525647,-1388.261715201065,-797.4983376946868,3442.9673674198207,0.0,0.0,0.0,0.0,0.0,0.0,-5.9,21.43186620799227,0.0,20.92223779420457,0.0,-5.9,21.81,19.44,22.4,21.03,22.09,-6.49,-5.9,0.0,-984.84,-1533.9,0.0,234.0,149.0,588.0,0.0,0.0,0.0,0.0,0.0,0.0,0.0,0.0,0.0,0.0,0.0,0.0,0.0,0.0
66.0,7600.0,0.0,3129.0799936925596,-0.0,0.0,10729.07999369256,0.0,6010.155162827488,0.0,0.0,0.0,6010.155162827488,0.28703231292517006,0.5,0.7861042584347554,0.0,0.0,0.0,"[1.0048920868529834, 0.41537279428872864, 0.9913831061500602, 0.7122607330361497, 0.46935469318277256, 0.2965477860500165, 1.1477861975232884, 0.49509430850126535]",23.0,0.0,0.0,0.0,943.4676732415813,184.73517935038302,-1488.2716481525188,-2407.560344555647,0.0,0.0,0.0,0.0,0.0,0.0,0.0,-6.7,21.82669861165491,0.0,20.965496459770065,0.0,-6.7,23.0,19.47,22.46,22.1,22.84,-7.27,-6.7,0.0,-1055.79,-1644.41,0.0,82.0,222.0,638.0,0.0,0.0,0.0,0.0,0.0,0.0,0.0,0.0,0.0,0.0,0.0,0.0,0.0,0.0
67.0,4236.0,9297.664966583383,5015.176641750465,-0.0,0.0,0.0,0.0,9298.181562639442,0.0,0.0,0.0,9298.181562639442,0.28703231292517006,0.5,0.7861042584347554,0.0,0.0,0.0,"[1.0048920868529834, 0.41537279428872864, 0.9913831061500602, 0.7122607330361497, 0.46935469318277256, 0.2965477860500165, 1.1477861975232884, 0.49509430850126535]",21.61,0.0,0.0,0.0,1078.3695951438965,192.39013911077654,-1453.685628232528,-516.0402035528317,0.0,0.0,0.0,0.0,0.0,0.0,0.0,-7.4,21.37895950121624,0.0,20.930989906053192,0.0,-7.4,21.61,19.45,22.41,20.95,22.03,-7.97,-7.4,0.0,-1031.25,-1606.19,0.0,133.0,202.0,714.0,0.0,0.0,0.0,0.0,0.0,0.0,0.0,0.0,0.0,0.0,0.0,0.0,0.0,0.0
68.0,6751.0,12398.01430087831,570.4469698987026,-0.0,0.0,-5014.577259475219,0.0,1014.1077265451584,0.0,0.0,0.0,1014.1077265451584,0.20476190476190476,0.49568831748917874,0.7760857055590596,0.0,0.0,0.0,"[0.7673189642280995, 0.41537279428872864, 0.9913831061500602, 0.4167146393228549, 0.46935469318277256, 0.2965477860500165, 1.1477861975232884, 0.49509430850126535]",21.26,0.0,0.0,0.0,1371.8552810379606,209.19040477960496,-1475.7630692627451,-126.8280674915769,0.0,0.0,0.0,0.0,0.0,0.0,0.0,-8.2,21.213980792038058,0.0,20.85806836189232,0.0,-8.2,21.26,19.41,22.3,20.75,21.85,-8.76,-8.2,0.0,-1046.91,-1630.58,0.0,302.0,128.0,852.0,0.0,0.0,0.0,0.0,0.0,0.0,0.0,0.0,0.0,0.0,0.0,0.0,0.0,0.0
69.0,4816.0,0.0,0.0,-0.0,0.0,4816.0,0.0,14622.71082290318,0.0,14622.71082290318,0.0,0.0,0.0,0.433516927936019,0.7415773567649966,0.0,0.0,0.0,"[0.7673189642280995, 0.41537279428872864, 0.9913831061500602, 0.4167146393228549, 0.46935469318277256, 0.2965477860500165, 1.1477861975232884, 0.49509430850126535]",21.23,0.0,0.0,0.0,1512.8186268084044,183.44806222252924,-1509.7046889529188,-213.99569866213224,48.199271374385546,0.0,0.0,0.0,0.0,0.0,0.0,-8.9,21.148457782716928,0.0,20.781050905304085,0.0,-8.9,21.23,19.37,22.19,20.72,21.78,-9.45,-8.9,1524.03,-1070.99,-1668.09,0.0,324.0,68.0,952.0,0.0,0.0,0.0,0.0,0.0,0.0,0.0,0.0,0.0,0.0,0.0,0.0,0.0,0.0
70.0,3397.0,3414.070351758794,0.0,-0.0,0.0,0.0,0.0,12457.15218939392,0.0,12457.15218939392,0.0,0.0,0.0,0.38055284549811963,0.7415773567649966,0.0,0.0,0.0,"[0.7673189642280995, 0.41537279428872864, 0.9913831061500602, 0.4167146393228549, 0.46935469318277256, 0.2965477860500165, 1.1477861975232884, 0.49509430850126535]",21.23,0.0,0.0,0.0,1286.8543835383828,126.74716559023346,-1549.7862120582984,-327.4271006170248,3555.9697915457946,0.0,0.0,0.0,0.0,0.0,0.0,-9.7,21.092490601882258,0.0,20.706726134112607,0.0,-9.7,21.23,19.32,22.09,20.68,21.71,-10.25,-9.7,0.0,-1099.42,-1712.37,0.0,184.0,58.0,858.0,0.0,0.0,0.0,0.0,0.0,0.0,0.0,0.0,0.0,0.0,0.0,0.0,0.0,0.0
71.0,2585.0,24907.620605813918,6198.082502784847,-0.0,0.0,-16000.0,0.0,9718.652744825235,0.0,0.0,0.0,9718.652744825235,0.6533333333333333,0.38055284549811963,0.7271061137223249,0.0,0.0,0.0,"[0.7673189642280995, 0.41537279428872864, 0.9913831061500602, 0.4167146393228549, 0.46935469318277256, 0.2965477860500165, 1.1477861975232884, 0.49509430850126535]",22.77,0.0,0.0,0.0,717.8558383359859,110.92917351897769,-1661.7458267602678,-2427.963829725611,195.4706092960324,0.0,0.0,0.0,0.0,0.0,0.0,-10.4,21.58147419556438,0.0,20.735630663487328,0.0,-10.4,22.77,19.32,22.15,21.87,22.56,-10.95,-10.4,2080.5,-1178.85,-1836.08,0.0,206.0,44.0,423.0,0.0,0.0,0.0,0.0,0.0,0.0,0.0,0.0,0.0,0.0,0.0,0.0,0.0,0.0
72.0,1507.0,18740.60245203973,17139.899439779532,-0.0,0.0,0.0,0.0,26058.526922692487,0.0,0.0,0.0,26058.52692269249,0.6533333333333333,0.38055284549811963,0.7271061137223249,0.0,0.0,0.0,"[0.7673189642280995, 0.41537279428872864, 0.9913831061500602, 0.4167146393228549, 0.46935469318277256, 0.2965477860500165, 1.1477861975232884, 0.49509430850126535]",21.23,0.0,0.0,0.0,321.67835504815315,59.47835990819079,-1609.9084967163685,-345.3430683878657,4658.8383235750625,0.0,0.0,0.0,0.0,0.0,0.0,-10.9,21.08445130762869,0.0,20.69043164561164,0.0,-10.9,21.23,19.28,22.1,20.65,21.71,-11.47,-10.9,2188.25,-1142.08,-1778.8,0.0,160.0,0.0,156.0,0.0,0.0,0.0,0.0,0.0,0.0,0.0,0.0,0.0,0.0,0.0,0.0,0.0,0.0
73.0,974.0,0.0,0.0,-0.0,0.0,974.0,0.0,17269.125816032676,0.0,17269.125816032676,0.0,0.0,0.6119217687074829,0.30712969151838887,0.7271061137223249,0.0,0.0,0.0,"[0.7673189642280995, 0.41537279428872864, 0.9913831061500602, 0.4167146393228549, 0.46935469318277256, 0.2965477860500165, 1.1477861975232884, 0.49509430850126535]",22.77,0.0,0.0,0.0,254.72076580719224,57.78478473996211,-1716.857921030165,-2427.0476760998145,3837.9410486471106,0.0,0.0,0.0,0.0,0.0,0.0,-11.5,21.58276165567935,0.0,20.730815880480584,0.0,-11.5,22.77,19.29,22.17,21.99,22.66,-12.08,-11.5,2216.95,-1217.95,-1896.97,0.0,160.0,0.0,106.0,0.0,0.0,0.0,0.0,0.0,0.0,0.0,0.0,0.0,0.0,0.0,0.0,0.0,0.0
74.0,606.0,609.0452261306533,0.0,-0.0,0.0,0.0,0.0,23731.20612197299,0.0,23731.206121972988,0.0,0.0,0.6119217687074829,0.2062317063059187,0.7271061137223249,0.0,0.0,0.0,"[0.7673189642280995, 0.41537279428872864, 0.9913831061500602, 0.4167146393228549, 0.46935469318277256, 0.2965477860500165, 1.1477861975232884, 0.49509430850126535]",22.77,0.0,0.0,0.0,205.1721497688812,56.53153911547291,-1751.9292537473725,-2338.598002339545,757.2119414132582,0.0,0.0,0.0,0.0,0.0,0.0,-12.2,21.627386746329332,0.0,20.78502084451648,0.0,-12.2,22.77,19.3,22.27,21.89,22.64,-12.8,-12.2,658.88,-1242.83,-1935.72,0.0,160.0,0.0,69.0,0.0,0.0,0.0,0.0,0.0,0.0,0.0,0.0,0.0,0.0,0.0,0.0,0.0,0.0
75.0,745.0,14953.156076956937,14133.390296572152,-0.0,0.0,0.0,0.0,19197.056553934362,0.0,0.0,0.0,19197.056553934362,0.6119217687074829,0.2062317063059187,0.7271061137223249,0.0,0.0,0.0,"[0.7673189642280995, 0.41537279428872864, 0.9913831061500602, 0.4167146393228549, 0.46935469318277256, 0.2965477860500165, 1.1477861975232884, 0.49509430850126535]",21.23,0.0,0.0,0.0,211.86790869297724,56.700896632295766,-1695.0817333153007,-259.1822006968758,4770.124204593984,0.0,0.0,0.0,0.0,0.0,0.0,-12.6,21.128672714634995,0.0,20.737240814984588,0.0,-12.6,21.23,19.26,22.22,20.71,21.82,-13.2,-12.6,1219.75,-1202.5,-1872.91,0.0,160.0,0.0,74.0,0.0,0.0,0.0,0.0,0.0,0.0,0.0,0.0,0.0,0.0,0.0,0.0,0.0,0.0
76.0,499.0,19610.37425011188,19013.32237886132,-0.0,0.0,0.0,0.0,25100.31587922757,0.0,0.0,0.0,25100.315879227568,0.6119217687074829,0.2062317063059187,0.7271061137223249,0.0,0.0,0.0,"[0.7673189642280995, 0.41537279428872864, 0.9913831061500602, 0.4167146393228549, 0.46935469318277256, 0.2965477860500165, 1.1477861975232884, 0.49509430850126535]",22.77,0.0,0.0,0.0,234.63348903490402,57.27671218949351,-1792.0107768527523,-2350.684619407422,3857.2686853586715,0.0,0.0,0.0,0.0,0.0,0.0,-13.0,21.621941552367346,0.0,20.770835006834616,0.0,-13.0,22.77,19.26,22.28,22.0,22.73,-13.59,-13.0,1547.85,-1271.26,-1980.01,0.0,160.0,0.0,91.0,0.0,0.0,0.0,0.0,0.0,0.0,0.0,0.0,0.0,0.0,0.0,0.0,0.0,0.0
77.0,3265.0,0.0,0.0,-0.0,0.0,3265.0,0.0,23446.638501628022,0.0,23446.638501628022,0.0,0.0,0.4731037414965986,0.10654361743845261,0.7271061137223249,0.0,0.0,0.0,"[0.7673189642280995, 0.41537279428872864, 0.9913831061500602, 0.4167146393228549, 0.46935469318277256, 0.2965477860500165, 1.1477861975232884, 0.49509430850126535]",22.77,0.0,0.0,0.0,234.63348903490402,57.27671218949351,-1812.0515384054447,-2272.7130505964574,3799.3378781002302,0.0,0.0,0.0,0.0,0.0,0.0,-13.4,21.661115197715493,0.0,20.81784492435759,0.0,-13.4,22.77,19.27,22.37,21.89,22.7,-14.0,-13.4,1428.37,-1285.48,-2002.15,0.0,160.0,0.0,91.0,0.0,0.0,0.0,0.0,0.0,0.0,0.0,0.0,0.0,0.0,0.0,0.0,0.0,0.0
78.0,2286.0,0.0,8841.4,-0.0,0.0,11127.4,0.0,10997.61540099283,0.0,0.0,0.0,10997.615400992832,0.0,0.10654361743845261,0.7271061137223249,0.0,0.0,0.0,"[0.7673189642280995, 0.41537279428872864, 0.9913831061500602, 0.4167146393228549, 0.46935469318277256, 0.2965477860500165, 1.1477861975232884, 0.49509430850126535]",22.77,0.0,0.0,0.0,347.4041656512592,111.47111757281085,-1832.0922999581323,-2203.494914958129,511.3192422148832,0.0,0.0,0.0,0.0,0.0,0.0,-13.8,21.695916637969475,0.0,20.85940995856145,0.0,-13.8,22.77,19.27,22.45,21.89,22.74,-14.4,-13.8,856.84,-1299.69,-2024.3,0.0,320.0,0.0,91.0,0.0,0.0,0.0,0.0,0.0,0.0,0.0,0.0,0.0,0.0,0.0,0.0,0.0,0.0
79.0,3096.0,14000.215770281628,10834.21469143022,-0.0,0.0,0.0,0.0,13166.574371776453,0.0,0.0,0.0,13166.574371776453,0.0,0.10654361743845261,0.7271061137223249,0.0,0.0,0.0,"[0.7673189642280995, 0.41537279428872864, 0.9913831061500602, 0.4167146393228549, 0.46935469318277256, 0.2965477860500165, 1.1477861975232884, 0.49509430850126535]",21.23,0.0,0.0,0.0,193.6131554157048,42.44099371581039,-1770.234589137888,-142.64468130175533,1681.6292687797313,0.0,0.0,0.0,0.0,0.0,0.0,-14.1,21.1878837306015,0.0,20.79982050244377,0.0,-14.1,21.23,19.23,22.37,20.71,21.9,-14.71,-14.1,1520.24,-1255.81,-1955.95,0.0,117.0,0.0,83.0,0.0,0.0,0.0,0.0,0.0,0.0,0.0,0.0,0.0,0.0,0.0,0.0,0.0,0.0
80.0,4298.0,97785.69814859917,78392.76567626913,-0.0,0.0,-14606.003981587044,0.0,14521.600485315768,0.0,-80000.0,0.0,94521.60048531576,0.5964118292481376,0.4332102841051193,0.7271061137223249,0.0,0.0,0.0,"[0.7673189642280995, 0.41537279428872864, 0.9913831061500602, 0.4167146393228549, 0.46935469318277256, 0.2965477860500165, 1.1477861975232884, 0.49509430850126535]",21.23,0.0,0.0,3.118522256197591,77.67080351951462,1.9645471951452524,-1775.2447795260605,-250.27071686469458,5021.036659394489,0.0,0.0,0.0,0.0,0.0,0.0,-14.2,21.134292148739778,0.0,20.727025852605713,0.0,-14.2,21.23,19.17,22.28,20.81,21.94,-14.8,-14.2,1553.87,-1259.37,-1961.48,4.6,0.0,0.0,58.0,0.0,0.0,0.0,0.0,0.0,0.0,0.0,0.0,0.0,0.0,0.0,0.0,0.0,0.0
81.0,2046.0,0.0,5939.4082645907165,-0.0,7985.4082645907165,0.0,0.0,8463.716035331356,0.0,0.0,0.0,8463.716035331356,0.5964118292481376,0.4332102841051193,0.7271061137223249,0.0,0.0,0.0,"[0.7673189642280995, 0.41537279428872864, 0.9913831061500602, 0.4167146393228549, 0.46935469318277256, 0.2965477860500165, 1.1477861975232884, 0.49509430850126535]",22.77,0.0,0.0,1029.8045750355325,57.583526747226365,1.4564746446766523,-1736.8986825828551,-2342.1777390108286,0.0,0.0,0.0,0.0,0.0,0.0,0.0,-11.9,21.624830120661613,0.0,20.756993979543893,0.0,-11.9,22.77,19.17,22.35,21.99,22.78,-11.75,-11.9,632.66,-1232.16,-1919.12,1520.16,0.0,0.0,43.0,0.0,0.0,0.0,0.0,0.0,0.0,0.0,0.0,0.0,0.0,0.0,0.0,0.0,0.0
82.0,8048.0,0.0,6237.685387004492,-0.0,14285.685387004492,0.0,0.0,14244.805140986715,0.0,4226.191618031241,0.0,10018.613522955473,0.5964118292481376,0.4152417823277756,0.7271061137223249,0.0,0.0,0.0,"[0.7673189642280995, 0.41537279428872864, 0.9913831061500602, 0.4167146393228549, 0.46935469318277256, 0.2965477860500165, 1.1477861975232884, 0.49509430850126535]",21.27,0.0,0.0,1475.6060794915838,119.18450884891035,3.0145637994470262,-1566.6598098583831,-266.1376539797043,3259.385902226756,0.0,0.0,0.0,0.0,0.0,0.0,-10.0,21.15934696376387,0.0,20.73965332386151,0.0,-10.0,21.27,19.15,22.33,20.94,22.07,-9.55,-10.0,163.64,-1111.4,-1731.02,2178.24,0.0,0.0,89.0,0.0,0.0,0.0,0.0,0.0,0.0,0.0,0.0,0.0,0.0,0.0,0.0,0.0,0.0
83.0,5467.0,0.0,4554.486313827169,-7227.708627852028,17249.194941679198,0.0,0.0,7966.445173325804,0.0,0.0,0.0,7966.445173325805,0.5964118292481376,0.4152417823277756,0.7528630390143067,0.0,0.0,0.0,"[0.7673189642280995, 0.41537279428872864, 0.9913831061500602, 0.4167146393228549, 0.46935469318277256, 0.2965477860500165, 1.1477861975232884, 0.49509430850126535]",22.77,0.0,0.0,1752.7901929533411,121.86281241854881,3.082306806176172,-1566.5522093849904,-2245.3744923904997,0.0,0.0,0.0,0.0,0.0,0.0,0.0,-8.5,21.670265992145797,0.0,20.81405771671412,0.0,-8.5,22.77,19.19,22.44,22.29,23.05,-7.88,-8.5,0.0,-1111.32,-1730.9,2587.41,0.0,0.0,91.0,0.0,0.0,0.0,0.0,0.0,0.0,0.0,0.0,0.0,0.0,0.0,0.0,0.0,0.0
84.0,1402.0,0.0,4807.062797389662,-13145.274548740374,19354.337346130036,0.0,0.0,8866.509461601296,0.0,0.0,0.0,8866.509461601298,0.5964118292481376,0.4152417823277756,0.7863499469052538,0.0,0.0,0.0,"[0.7673189642280995, 0.41537279428872864, 0.9913831061500602, 0.4167146393228549, 0.46935469318277256, 0.2965477860500165, 1.1477861975232884, 0.49509430850126535]",21.79,0.0,0.0,1951.665417523692,121.86281241854881,3.082306806176172,-1467.5375926401266,-826.6837873722343,2202.2626754119465,0.0,0.0,0.0,0.0,0.0,0.0,-7.5,21.399804353601763,0.0,20.84768363044261,0.0,-7.5,21.79,19.21,22.48,21.49,22.52,-6.77,-7.5,0.0,-1041.08,-1621.5,2880.98,0.0,0.0,91.0,0.0,0.0,0.0,0.0,0.0,0.0,0.0,0.0,0.0,0.0,0.0,0.0,0.0,0.0
85.0,4434.0,0.0,2807.6166660596587,-0.0,17125.40860283996,-9883.791936780302,0.0,5258.877712271842,0.0,0.0,0.0,5258.877712271842,1.0,0.4152417823277756,0.7774445665713021,0.0,0.0,0.0,"[0.7673189642280995, 0.41537279428872864, 0.9913831061500602, 0.4167146393228549, 0.46935469318277256, 0.2965477860500165, 1.1477861975232884, 0.49509430850126535]",22.77,0.0,0.0,1737.9805773166422,290.3844922871146,60.29127598894055,-1501.419734338748,-2061.212686173465,0.0,0.0,0.0,0.0,0.0,0.0,0.0,-7.2,21.761135717023667,0.0,20.935057577075774,0.0,-7.2,22.77,19.27,22.6,22.37,23.17,-6.59,-7.2,0.0,-1065.11,-1658.93,2565.55,165.0,0.0,130.0,0.0,0.0,0.0,0.0,0.0,0.0,0.0,0.0,0.0,0.0,0.0,0.0,0.0,0.0
86.0,2686.0,0.0,7922.390121840791,-3609.7632391864836,14218.153361027275,0.0,0.0,14461.601171735052,0.0,0.0,0.0,14461.60117173505,1.0,0.4152417823277756,0.7903084501145848,0.0,0.0,0.0,"[0.7673189642280995, 0.41537279428872864, 0.9913831061500602, 0.4167146393228549, 0.46935469318277256, 0.2965477860500165, 1.1477861975232884, 0.49509430850126535]",22.02,0.0,0.0,1467.2409744450772,361.2185735367627,42.50873672253954,-1488.8972925057194,-957.4654253690172,0.0,0.0,0.0,0.0,0.0,0.0,0.0,-7.7,21.5614522512629,0.0,20.973005177525152,0.0,-7.7,22.02,19.3,22.64,21.68,22.71,-7.27,-7.7,0.0,-1056.23,-1645.1,2165.89,104.0,0.0,215.0,0.0,0.0,0.0,0.0,0.0,0.0,0.0,0.0,0.0,0.0,0.0,0.0,0.0,0.0
87.0,2154.0,2164.041207386485,0.0,-0.0,0.7789986504474854,0.0,0.0,9963.881144993182,0.0,9963.881144993182,0.0,0.0,1.0,0.37287834208545767,0.7903084501145848,0.0,0.0,0.0,"[0.7673189642280995, 0.41537279428872864, 0.9913831061500602, 0.4167146393228549, 0.46935469318277256, 0.2965477860500165, 1.1477861975232884, 0.49509430850126535]",21.72,0.0,0.0,21.920810684000287,312.1633292086482,45.76040104553857,-1559.0847114686921,-549.9210820527474,760.6882251114732,0.0,0.0,0.0,0.0,0.0,0.0,-9.4,21.467281226308994,0.0,20.970636892575882,0.0,-9.4,21.72,19.31,22.63,21.43,22.53,-9.94,-9.4,0.0,-1106.02,-1722.65,32.36,118.0,0.0,171.0,0.0,0.0,0.0,0.0,0.0,0.0,0.0,0.0,0.0,0.0,0.0,0.0,0.0,0.0
88.0,4928.0,0.0,0.0,-0.0,0.0,4928.0,0.0,15601.984156526962,0.0,15601.984156526962,0.0,0.0,0.7904761904761906,0.3065433754335573,0.7903084501145848,0.0,0.0,0.0,"[0.7673189642280995, 0.41537279428872864, 0.9913831061500602, 0.4167146393228549, 0.46935469318277256, 0.2965477860500165, 1.1477861975232884, 0.49509430850126535]",21.23,0.0,0.0,0.0,250.9852371442755,51.45081361078691,-1524.735260117436,9.738842070739212,3632.889767274837,0.0,0.0,0.0,0.0,0.0,0.0,-9.2,21.26023443591596,0.0,20.8936220921103,0.0,-9.2,21.23,19.28,22.51,20.77,22.0,-9.76,-9.2,0.0,-1081.65,-1684.69,0.0,116.0,13.0,125.0,0.0,0.0,0.0,0.0,0.0,0.0,0.0,0.0,0.0,0.0,0.0,0.0,0.0,0.0
89.0,4916.0,0.0,1974.4000000000015,-0.0,0.0,6890.400000000002,0.0,7506.761070691069,0.0,4147.367099363797,0.0,3359.3939713272716,0.4975170068027211,0.2889100119158541,0.7903084501145848,0.0,0.0,0.0,"[0.7673189642280995, 0.41537279428872864, 0.9913831061500602, 0.4167146393228549, 0.46935469318277256, 0.2965477860500165, 1.1477861975232884, 0.49509430850126535]",22.44,0.0,0.0,0.0,531.502295227459,128.67784128201413,-1575.028888767643,-1675.0323588280878,189.9415405156538,0.0,0.0,0.0,0.0,0.0,0.0,-9.0,21.624776754152425,0.0,20.894281359534276,0.0,-9.0,22.44,19.28,22.51,21.73,22.66,-9.53,-9.0,0.0,-1117.33,-1740.26,0.0,310.0,26.0,231.0,0.0,0.0,0.0,0.0,0.0,0.0,0.0,0.0,0.0,0.0,0.0,0.0,0.0,0.0
90.0,6183.0,10086.507672392681,3853.0751340307183,-0.0,0.0,0.0,0.0,6629.379487819431,0.0,0.0,0.0,6629.379487819431,0.4975170068027211,0.2889100119158541,0.7903084501145848,0.0,0.0,0.0,"[0.7673189642280995, 0.41537279428872864, 0.9913831061500602, 0.4167146393228549, 0.46935469318277256, 0.2965477860500165, 1.1477861975232884, 0.49509430850126535]",21.23,0.0,0.0,0.0,381.37633198193606,120.20996544087082,-1504.694498564746,-86.54823980956743,1103.2637189856114,0.0,0.0,0.0,0.0,0.0,0.0,-8.8,21.21190052620518,0.0,20.831985014208957,0.0,-8.8,21.23,19.25,22.42,20.69,21.91,-9.31,-8.8,0.0,-1067.44,-1662.55,0.0,286.0,31.0,131.0,0.0,0.0,0.0,0.0,0.0,0.0,0.0,0.0,0.0,0.0,0.0,0.0,0.0,0.0
91.0,3548.0,0.0,0.0,-0.0,0.0,3548.0,0.0,14863.208782737594,0.0,14863.208782737596,0.0,0.0,0.3466666666666667,0.22571609702326226,0.7558001013205218,0.0,0.0,0.0,"[0.7673189642280995, 0.41537279428872864, 0.9913831061500602, 0.4167146393228549, 0.46935469318277256, 0.2965477860500165, 1.1477861975232884, 0.49509430850126535]",21.23,0.0,0.0,0.0,415.5599433312688,59.74933193510738,-1499.6843081765735,-192.7999338166365,4301.949113082801,0.0,0.0,0.0,0.0,0.0,0.0,-8.7,21.158840194441616,0.0,20.763710514454907,0.0,-8.7,21.23,19.21,22.31,20.79,21.92,-9.2,-8.7,0.0,-1063.88,-1657.02,0.0,144.0,5.0,234.0,0.0,0.0,0.0,0.0,0.0,0.0,0.0,0.0,0.0,0.0,0.0,0.0,0.0,0.0
92.0,7949.0,15067.699962318018,7043.361462506427,-0.0,0.0,0.0,0.0,12319.842252379762,0.0,0.0,0.0,12319.842252379762,1.0,0.22571609702326226,0.7101600271090189,0.0,0.0,0.0,"[0.7673189642280995, 0.41537279428872864, 0.9913831061500566, 0.4167146393228549, 0.46935469318277256, 0.2965477860500165, 1.1477861975232884, 0.49509430850126535]",22.77,0.0,0.0,0.0,1061.806402015869,77.05767015440435,-1566.5522093849904,-2291.519190243186,2495.1048281511303,0.0,0.0,0.0,0.0,0.0,0.0,-8.5,21.648064559773893,0.0,20.795728056795106,0.0,-8.5,22.77,19.23,22.36,21.94,22.74,-8.98,-8.5,1447.32,-1111.32,-1730.9,0.0,130.0,14.0,723.0,0.0,0.0,0.0,0.0,0.0,0.0,0.0,0.0,0.0,0.0,0.0,0.0,0.0,0.0
93.0,4680.0,0.0,0.0,-0.0,0.0,4680.0,0.0,13546.756392393487,0.0,13546.756392393487,0.0,0.0,0.8010204081632653,0.16811934365424233,0.7101600271090189,0.0,0.0,0.0,"[0.7673189642280995, 0.41537279428872864, 0.9913831061500566, 0.4167146393228549, 0.46935469318277256, 0.2965477860500165, 1.1477861975232884, 0.49509430850126535]",22.65,0.0,0.0,0.0,687.4782373224552,111.97919012327948,-1550.7158895693983,-2081.251602180964,3078.010765557949,0.0,0.0,0.0,0.0,0.0,0.0,-8.3,21.63657708747379,0.0,20.82648947400938,0.0,-8.3,22.65,19.25,22.41,21.65,22.56,-8.77,-8.3,0.0,-1100.08,-1713.4,0.0,155.0,74.0,424.0,0.0,0.0,0.0,0.0,0.0,0.0,0.0,0.0,0.0,0.0,0.0,0.0,0.0,0.0
94.0,3754.0,10807.617715800072,6999.579627221073,-0.0,0.0,0.0,0.0,12510.178150128831,0.0,0.0,0.0,12510.17815012883,0.8010204081632653,0.16811934365424233,0.7062639232129149,0.0,0.0,0.0,"[0.7673189642280995, 0.41537279428872864, 0.9913831061500566, 0.4167146393228549, 0.46935469318277256, 0.2965477860500165, 1.1477861975232884, 0.49509430850126535]",22.77,0.0,0.0,0.0,336.197579662509,100.59836499278285,-1546.5114478323003,-2180.7481433286002,3301.8509713185886,0.0,0.0,0.0,0.0,0.0,0.0,-8.1,21.702981602364442,0.0,20.867455784926058,0.0,-8.1,22.77,19.27,22.46,21.82,22.7,-8.56,-8.1,1439.26,-1097.1,-1708.75,0.0,168.0,63.0,156.0,0.0,0.0,0.0,0.0,0.0,0.0,0.0,0.0,0.0,0.0,0.0,0.0,0.0,0.0
95.0,2004.0,6911.52723216248,0.0,-0.0,0.0,-4872.969596001667,0.0,8908.812794081517,0.0,8908.812794081517,0.0,0.0,1.0,0.13024173823722907,0.700698060504195,0.0,0.0,0.0,"[0.7673189642280995, 0.41537279428872864, 0.9913831061500566, 0.4167146393228549, 0.46935469318277256, 0.2965477860500165, 1.1477861975232884, 0.49509430850126535]",22.77,0.0,0.0,0.0,521.987269387954,111.57273208290458,-1536.4910670559555,-2113.5248293985387,0.0,0.0,0.0,0.0,0.0,0.0,0.0,-7.9,21.736342362886493,0.0,20.9114495820604,0.0,-7.9,22.77,19.3,22.52,21.87,22.76,-8.35,-7.9,230.89,-1089.99,-1697.68,0.0,282.0,13.0,240.0,0.0,0.0,0.0,0.0,0.0,0.0,0.0,0.0,0.0,0.0,0.0,0.0,0.0,0.0
96.0,2671.0,14614.609697260435,11870.536648774134,-0.0,0.0,0.0,0.0,22121.24472315951,0.0,0.0,0.0,22121.244723159507,1.0,0.13024173823722907,0.700698060504195,0.0,0.0,0.0,"[0.7673189642280995, 0.41537279428872864, 0.9913831061500566, 0.4167146393228549, 0.46935469318277256, 0.2965477860500165, 1.1477861975232884, 0.49509430850126535]",21.26,0.0,0.0,0.0,226.59857832598868,57.073483169306094,-1430.7637897537136,-87.90609278892923,4270.543780086143,0.0,0.0,0.0,0.0,0.0,0.0,-7.3,21.234495799232462,0.0,20.85473765833327,0.0,-7.3,21.26,19.27,22.44,20.68,21.9,-7.76,-7.3,566.6,-1014.99,-1580.86,0.0,160.0,0.0,85.0,0.0,0.0,0.0,0.0,0.0,0.0,0.0,0.0,0.0,0.0,0.0,0.0,0.0,0.0
97.0,2165.0,0.0,8009.902610967641,-0.0,0.0,10174.902610967642,0.0,15461.316702374163,0.0,0.0,0.0,15461.31670237416,0.5673935964724642,0.13024173823722907,0.700698060504195,0.0,0.0,0.0,"[0.7673189642280995, 0.41537279428872864, 0.9913831061500566, 0.4167146393228549, 0.46935469318277256, 0.2965477860500165, 1.1477861975232884, 0.49509430850126535]",22.77,0.0,0.0,0.0,442.2020156818827,62.52679521100238,-1471.358592009713,-2157.965036921888,3131.6725963568156,0.0,0.0,0.0,0.0,0.0,0.0,-6.6,21.71323874505362,0.0,20.88405950253383,0.0,-6.6,22.77,19.3,22.47,21.97,22.8,-7.05,-6.6,880.74,-1043.79,-1625.72,0.0,160.0,0.0,246.0,0.0,0.0,0.0,0.0,0.0,0.0,0.0,0.0,0.0,0.0,0.0,0.0,0.0,0.0
98.0,1366.0,10024.723108912482,8608.59949336792,-0.0,0.0,0.0,0.0,17191.44541797393,0.0,0.0,0.0,17191.44541797393,0.5673935964724642,0.13024173823722907,0.700698060504195,0.0,0.0,0.0,"[0.7673189642280995, 0.41537279428872864, 0.9913831061500566, 0.4167146393228549, 0.46935469318277256, 0.2965477860500165, 1.1477861975232884, 0.49509430850126535]",22.77,0.0,0.0,0.0,565.4039798852508,65.64297352054312,-1436.2872592925057,-2093.8401789670243,0.0,0.0,0.0,0.0,0.0,0.0,0.0,-5.9,21.74468785340628,0.0,20.926464746092513,0.0,-5.9,22.77,19.33,22.53,21.84,22.73,-6.34,-5.9,1098.3,-1018.91,-1586.97,0.0,160.0,0.0,338.0,0.0,0.0,0.0,0.0,0.0,0.0,0.0,0.0,0.0,0.0,0.0,0.0,0.0,0.0
99.0,1025.0,0.0,7337.732226573145,-0.0,0.0,8362.732226573145,0.0,14933.324235791975,0.0,0.0,0.0,14933.324235791973,0.21183525350591897,0.13024173823722907,0.700698060504195,0.0,0.0,0.0,"[0.7673189642280995, 0.41537279428872864, 0.9913831061500566, 0.4167146393228549, 0.46935469318277256, 0.2965477860500165, 1.1477861975232884, 0.49509430850126535]",21.32,0.0,0.0,0.0,415.4189799854983,61.84936514371092,-1343.6422560643418,-149.7120830905265,863.9873838975981,0.0,0.0,0.0,0.0,0.0,0.0,-5.5,21.263504265753973,0.0,20.873712512362694,0.0,-5.5,21.32,19.31,22.44,20.7,21.92,-5.94,-5.5,2624.43,-953.19,-1484.6,0.0,160.0,0.0,226.0,0.0,0.0,0.0,0.0,0.0,0.0,0.0,0.0,0.0,0.0,0.0,0.0,0.0,0.0
100.0,1327.0,6832.625800521696,5471.462671519087,-0.0,0.0,0.0,0.0,11396.007057826093,0.0,0.0,0.0,11396.007057826091,0.21183525350591897,0.13024173823722907,0.7006980605041948,0.0,0.0,0.0,"[0.7673189642280995, 0.41537279428872864, 0.9913831061500566, 0.4167146393228549, 0.46935469318277256, 0.2965477860500165, 1.1477861975232884, 0.49509430850126535]",21.24,0.0,0.0,0.0,862.6956761151172,73.16244726747843,-1314.6170155325974,-144.9824329176286,519.6229582598485,0.0,0.0,0.0,0.0,0.0,0.0,-5.0,21.186106449201507,0.0,20.80697144646671,0.0,-5.0,21.24,19.29,22.33,20.76,21.9,-5.43,-5.0,685.35,-932.59,-1452.53,0.0,160.0,0.0,560.0,0.0,0.0,0.0,0.0,0.0,0.0,0.0,0.0,0.0,0.0,0.0,0.0,0.0,0.0
101.0,1429.0,0.0,3553.365162459215,-0.0,0.0,4982.365162459215,0.0,16125.94394224158,0.0,8589.464731080761,0.0,7536.47921116082,0.0,0.0937219051969197,0.7006980605041948,0.0,0.0,0.0,"[0.7673189642280995, 0.41537279428872864, 0.9913831061500566, 0.4167146393228549, 0.46935469318277256, 0.2965477860500165, 1.1477861975232884, 0.49509430850126535]",21.23,0.0,0.0,0.0,979.2018813943891,76.1092680601963,-1294.2665022615013,-243.4170589251069,3568.998436163633,0.0,0.0,0.0,0.0,0.0,0.0,-4.6,21.130498878937683,0.0,20.73962567389911,0.0,-4.6,21.23,19.26,22.22,20.69,21.8,-4.96,-4.6,2561.38,-918.16,-1430.05,0.0,160.0,0.0,647.0,0.0,0.0,0.0,0.0,0.0,0.0,0.0,0.0,0.0,0.0,0.0,0.0,0.0,0.0
102.0,1213.0,42551.370112848264,19026.585262284025,-0.0,0.0,-16000.0,0.0,16502.318831083576,30495.14,0.0,0.0,40898.43083108358,0.6533333333333333,0.0937219051969197,0.7006980605041948,24396.112,6099.028,30495.14,"[0.7673189642280995, 0.41537279428872864, 0.9913831061500566, 0.4167146393228549, 0.46935469318277256, 0.2965477860500165, 1.1477861975232884, 0.49509430850126535]",22.77,0.0,0.0,0.0,423.17196400287276,88.60785280172388,-1356.124213081746,-2341.6021950053773,117.96587343863237,0.0,0.0,0.0,0.0,0.0,0.0,-4.3,21.61993340239319,0.0,20.773890043035998,0.0,-4.3,22.77,19.29,22.26,21.85,22.61,-4.67,-4.3,317.02,-962.04,-1498.39,0.0,222.0,11.0,198.0,0.0,0.0,0.0,0.0,0.0,0.0,0.0,0.0,0.0,0.0,0.0,0.0,0.0,0.0
103.0,1027.0,15139.70164734771,5547.207220743625,-0.0,0.0,-8489.795918367347,0.0,12082.600710515999,0.0,0.0,0.0,12082.600710515999,1.0,0.0937219051969197,0.7006980605041948,0.0,0.0,0.0,"[0.7673189642280995, 0.41537279428872864, 0.9913831061500566, 0.4167146393228549, 0.46935469318277256, 0.2965477860500165, 1.1477861975232884, 0.49509430850126535]",21.23,0.0,0.0,0.0,381.51729532770656,93.72244980977442,-1264.2053599324665,-253.92491208578835,1053.4995261257354,0.0,0.0,0.0,0.0,0.0,0.0,-4.0,21.124822782648923,0.0,20.736361687201057,0.0,-4.0,21.23,19.28,22.2,20.64,21.75,-4.36,-4.0,2411.47,-896.83,-1396.83,0.0,262.0,0.0,147.0,0.0,0.0,0.0,0.0,0.0,0.0,0.0,0.0,0.0,0.0,0.0,0.0,0.0,0.0
104.0,3322.0,2853.0435014833965,3666.4408431460374,-0.0,0.0,4149.662559170059,0.0,8090.885853095078,0.0,0.0,0.0,8090.885853095078,0.5264411818743157,0.0937219051969197,0.7006980605041948,0.0,0.0,0.0,"[0.7673189642280995, 0.41537279428872864, 0.9913831061500602, 0.4167146393228549, 0.46935469318277256, 0.2965477860500165, 1.128157084868164, 0.49509430850126535]",21.23,0.0,0.0,1.0187929548036316,2340.414429826681,165.76713746622193,-1249.1747887679492,-335.04639039213146,2173.8094342902127,0.0,0.0,0.0,0.0,0.0,0.0,-3.7,21.084144926957155,0.0,20.685872282674932,0.0,-3.7,21.23,19.26,22.11,20.76,21.79,-4.04,-3.7,446.96,-886.17,-1380.22,1.5,266.0,35.0,1604.0,0.0,0.0,0.0,0.0,0.0,0.0,0.0,0.0,0.0,0.0,0.0,0.0,0.0,0.0
105.0,1450.0,0.0,2451.1431055993003,-0.0,5.475357537901451,3895.667748061399,0.0,5759.550827712087,0.0,0.0,0.0,5759.550827712086,0.36080904972884803,0.0937219051969197,0.7006980605041948,0.0,0.0,0.0,"[0.7673189642280995, 0.41537279428872864, 0.9913831061500602, 0.4167146393228549, 0.46935469318277256, 0.2965477860500165, 1.128157084868164, 0.49509430850126535]",22.77,0.0,0.0,30.054466726219882,835.4897503814212,162.7864451701395,-1250.9102149301234,-2448.143159349118,0.0,0.0,0.0,0.0,0.0,0.0,0.0,-2.2,21.56522753611212,0.0,20.709312089087085,0.0,-2.2,22.77,19.28,22.14,21.68,22.43,-2.5,-2.2,2510.97,-887.4,-1382.14,44.37,330.0,59.0,444.0,0.0,0.0,0.0,0.0,0.0,0.0,0.0,0.0,0.0,0.0,0.0,0.0,0.0,0.0
106.0,2728.0,0.0,5776.894565969475,-0.0,18.665716346968697,8486.228849622506,0.0,14124.933630349713,0.0,0.0,0.0,14124.933630349715,0.0,0.0937219051969197,0.7006980605041948,0.0,0.0,0.0,"[0.7673189642280995, 0.41537279428872864, 0.9913831061500602, 0.4167146393228549, 0.46935469318277256, 0.2965477860500165, 1.128157084868164, 0.49509430850126535]",21.43,0.0,0.0,37.83111416254895,955.9429293422658,75.0931229592591,-1133.623645141119,-602.5188228019282,3365.8369303326604,0.0,0.0,0.0,0.0,0.0,0.0,-1.2,21.142729280048975,0.0,20.69065386783405,0.0,-1.2,21.43,19.29,22.1,20.75,21.77,-1.48,-1.2,1965.2,-804.2,-1252.55,55.85,102.0,30.0,657.0,0.0,0.0,0.0,0.0,0.0,0.0,0.0,0.0,0.0,0.0,0.0,0.0,0.0,0.0
107.0,3939.0,8859.203512132168,5093.764181678072,-0.0,217.85668710656472,0.0,0.0,13085.91483913445,0.0,0.0,0.0,13085.91483913445,0.0,0.0937219051969197,0.7006980605041948,0.0,0.0,0.0,"[0.7673189642280995, 0.41537279428872864, 0.9913831061500602, 0.4167146393228549, 0.46935469318277256, 0.2965477860500165, 1.128157084868164, 0.49509430850126535]",22.77,0.0,0.0,71.61561476136,1077.2418883777327,68.28495078297985,-1135.6758360021563,-2407.2443970131453,1911.0142079163272,0.0,0.0,0.0,0.0,0.0,0.0,0.1,21.583917936499954,0.0,20.739719385386937,0.0,0.1,22.77,19.33,22.15,21.84,22.54,-0.18,0.1,1872.95,-805.65,-1254.82,105.72,126.0,1.0,738.0,0.0,0.0,0.0,0.0,0.0,0.0,0.0,0.0,0.0,0.0,0.0,0.0,0.0,0.0
108.0,4996.0,24617.095627241186,4031.125247472568,-0.0,533.1150983675924,-16000.0,0.0,10778.717682259878,0.0,0.0,0.0,10778.717682259878,0.6533333333333333,0.0937219051969197,0.7006980605041948,0.0,0.0,0.0,"[0.7673189642280995, 0.41537279428872864, 0.9913831061500602, 0.4167146393228549, 0.46935469318277256, 0.2965477860500165, 1.128157084868164, 0.49509430850126535]",22.56,0.0,0.0,93.49487813792523,1479.6922405523505,85.55941749891227,-1069.9858901977218,-2041.7233001844534,0.0,0.0,0.0,0.0,0.0,0.0,0.0,1.2,21.554106642263868,0.0,20.787975440672675,0.0,1.2,22.56,19.37,22.2,21.57,22.37,0.87,1.2,0.0,-759.05,-1182.24,138.01,150.0,0.0,1026.0,0.0,0.0,0.0,0.0,0.0,0.0,0.0,0.0,0.0,0.0,0.0,0.0,0.0,0.0
109.0,9988.0,4562.390034890412,2331.8551975065284,-0.0,567.4771127905689,7212.8,0.0,6412.927400725393,0.0,0.0,0.0,6412.927400725393,0.3466666666666667,0.0937219051969197,0.693462438982859,0.0,0.0,0.0,"[0.7673189642280995, 0.41537279428872864, 0.9913831061500602, 0.4167146393228549, 0.46935469318277256, 0.2965477860500165, 1.128157084868164, 0.49509430850126535]",21.83,0.0,0.0,98.60123744989225,2486.663901063517,171.35593552137655,-993.3362590822863,-1037.5118044202547,1182.3070516679843,0.0,0.0,0.0,0.0,0.0,0.0,2.0,21.32379121978307,0.0,20.780711179437645,0.0,2.0,21.83,19.39,22.17,20.98,21.95,1.68,2.0,578.07,-704.68,-1097.55,145.55,338.0,0.0,1679.0,0.0,0.0,0.0,0.0,0.0,0.0,0.0,0.0,0.0,0.0,0.0,0.0,0.0,0.0
110.0,4135.0,52801.76784470721,32553.983255247265,-0.0,151.2242497635906,-16000.0,0.0,10459.040951563811,0.0,-80000.0,0.0,90459.0409515638,1.0,0.4203885718635864,0.6934624389828586,0.0,0.0,0.0,"[0.7673189642280995, 0.41537279428872864, 0.9913831061500602, 0.4167146393228549, 0.46935469318277256, 0.2965477860500165, 1.128157084868164, 0.49509430850126535]",22.77,0.0,0.0,74.22372994424069,803.1386625271045,126.84878010032716,-1025.4516474623615,-2311.3686731267417,0.0,0.0,0.0,0.0,0.0,0.0,0.0,2.3,21.630164400519238,0.0,20.813835600042083,0.0,2.3,22.77,19.43,22.19,21.65,22.4,1.94,2.3,2109.83,-727.46,-1133.03,109.57,332.0,0.0,425.0,0.0,0.0,0.0,0.0,0.0,0.0,0.0,0.0,0.0,0.0,0.0,0.0,0.0,0.0
111.0,3767.0,38.82873799907452,3319.320532982166,-0.0,0.06562030385975631,7047.620318369227,0.0,9033.662653673075,0.0,0.0,0.0,9033.662653673076,0.7003562789809002,0.4203885718635864,0.6845570586489069,0.0,0.0,0.0,"[0.7673189642280995, 0.41537279428872864, 0.9913831061500602, 0.4167146393228549, 0.46935469318277256, 0.2965477860500165, 1.128157084868164, 0.49509430850126535]",21.6,0.0,0.0,17.82436585854203,339.43973661522904,111.91144711655032,-996.8609504224406,-692.7486164919355,503.29558316037014,0.0,0.0,0.0,0.0,0.0,0.0,1.7,21.26613389288671,0.0,20.806426987823382,0.0,1.7,21.6,19.46,22.16,20.91,21.88,1.31,1.7,279.71,-707.18,-1101.44,26.31,254.0,36.0,116.0,0.0,0.0,0.0,0.0,0.0,0.0,0.0,0.0,0.0,0.0,0.0,0.0,0.0,0.0
112.0,2892.0,0.0,0.0,-0.0,0.0,2892.0,0.0,10633.292939172616,0.0,10633.292939172616,0.0,0.0,0.5773970953074309,0.3751789930405736,0.681217541023675,0.0,0.0,0.0,"[0.7673189642280995, 0.41537279428872864, 0.9913831061500602, 0.4167146393228549, 0.46935469318277256, 0.2965477860500165, 1.128157084868164, 0.49509430850126535]",21.23,0.0,0.0,0.0,519.0270391267748,116.38248556067398,-1018.7060309120146,-250.54689859780305,1839.3279868482955,0.0,0.0,0.0,0.0,0.0,0.0,0.9,21.122955021336857,0.0,20.768216522369606,0.0,0.9,21.23,19.46,22.08,20.77,21.74,0.49,0.9,1368.26,-722.67,-1125.58,0.0,182.0,74.0,284.0,0.0,0.0,0.0,0.0,0.0,0.0,0.0,0.0,0.0,0.0,0.0,0.0,0.0,0.0
113.0,4574.0,8147.887686134996,3533.1482477043214,-0.0,0.0,0.0,0.0,9379.82516553969,0.0,0.0,0.0,9379.825165539693,0.5773970953074309,0.3751789930405736,0.681217541023675,0.0,0.0,0.0,"[0.7673189642280995, 0.41537279428872864, 0.9913831061500602, 0.4167146393228549, 0.46935469318277256, 0.2965477860500165, 1.128157084868164, 0.49509430850126535]",21.83,0.0,0.0,0.0,809.4820130867745,155.63955796021452,-1043.479592909684,-1096.3347737749984,0.0,0.0,0.0,0.0,0.0,0.0,0.0,1.0,21.29609573365065,0.0,20.76293116071484,0.0,1.0,21.83,19.47,22.06,21.23,22.04,0.58,1.0,0.0,-740.25,-1152.95,0.0,272.0,79.0,453.0,0.0,0.0,0.0,0.0,0.0,0.0,0.0,0.0,0.0,0.0,0.0,0.0,0.0,0.0
114.0,4702.0,6887.95851406623,2151.5187214958987,-0.0,0.0,0.0,0.0,5732.377116266167,0.0,0.0,0.0,5732.377116266167,0.5773970953074309,0.3751789930405736,0.681217541023675,0.0,0.0,0.0,"[0.7673189642280995, 0.41537279428872864, 0.9913831061500602, 0.4167146393228549, 0.46935469318277256, 0.2965477860500165, 1.128157084868164, 0.49509430850126535]",21.23,0.0,0.0,0.0,925.9882183660463,202.6193331268777,-1008.6856501356693,-327.37028529102673,230.38406643587146,0.0,0.0,0.0,0.0,0.0,0.0,1.1,21.08451737038195,0.0,20.725240319909776,0.0,1.1,21.23,19.47,21.99,20.7,21.64,0.67,1.1,0.0,-715.57,-1114.51,0.0,328.0,122.0,506.0,0.0,0.0,0.0,0.0,0.0,0.0,0.0,0.0,0.0,0.0,0.0,0.0,0.0,0.0
115.0,3930.0,8861.016293068345,4886.711211603003,-0.0,0.0,0.0,0.0,13113.032562123492,0.0,0.0,0.0,13113.032562123492,0.5773970953074309,0.3751789930405736,0.681217541023675,0.0,0.0,0.0,"[0.7673189642280995, 0.41537279428872864, 0.9913831061500602, 0.4167146393228549, 0.46935469318277256, 0.2965477860500165, 1.128157084868164, 0.49509430850126535]",21.23,0.0,0.0,0.0,1161.3265241298025,177.58829214045804,-998.6652693593245,-395.19875553863176,3153.062244890852,0.0,0.0,0.0,0.0,0.0,0.0,1.3,21.050558084683786,0.0,20.68431378049715,0.0,1.3,21.23,19.46,21.91,20.74,21.63,0.87,1.3,0.0,-708.46,-1103.43,0.0,290.0,91.0,705.0,0.0,0.0,0.0,0.0,0.0,0.0,0.0,0.0,0.0,0.0,0.0,0.0,0.0,0.0
116.0,5510.0,429.89986682164704,0.0,-0.0,0.0,5082.249632512461,0.0,2734.6475488969922,0.0,2734.6475488969922,0.0,0.0,0.3613150531087718,0.3635520901966238,0.681217541023675,0.0,0.0,0.0,"[0.7673189642280995, 0.41537279428872864, 0.9913831061500602, 0.254644714220138, 0.46935469318277256, 0.2965477860500165, 0.5563966425526417, 0.49509430850126535]",22.77,0.0,0.0,0.0,1402.5852904159174,161.2283560153691,-1070.5433609559138,-2462.0255211630997,0.0,0.0,0.0,0.0,0.0,0.0,0.0,1.4,21.555755949979147,0.0,20.739692244350245,0.0,1.4,22.77,19.5,21.98,21.89,22.44,0.98,1.4,0.0,-759.45,-1182.85,0.0,186.0,109.0,938.0,0.0,0.0,0.0,0.0,0.0,0.0,0.0,0.0,0.0,0.0,0.0,0.0,0.0,0.0
117.0,4863.0,5615.617147652574,724.5390619143107,-0.0,0.0,0.0,0.0,1964.9545780417643,0.0,0.0,0.0,1964.9545780417643,0.3613150531087718,0.3635520901966238,0.681217541023675,0.0,0.0,0.0,"[0.7673189642280995, 0.41537279428872864, 0.9913831061500602, 0.254644714220138, 0.46935469318277256, 0.2965477860500165, 0.5563966425526417, 0.49509430850126535]",21.78,0.0,0.0,0.0,1103.6020340368057,131.48917606127372,-1010.8878551940087,-1074.8661746066064,0.0,0.0,0.0,0.0,0.0,0.0,0.0,1.6,21.2558170888622,0.0,20.742315004100114,0.0,1.6,21.78,19.51,21.97,20.98,21.81,1.17,1.6,0.0,-717.13,-1116.94,0.0,200.0,65.0,712.0,0.0,0.0,0.0,0.0,0.0,0.0,0.0,0.0,0.0,0.0,0.0,0.0,0.0,0.0
118.0,3287.0,8552.556344908222,5222.79356318368,-0.0,0.0,0.0,0.0,14214.040099703154,0.0,0.0,0.0,14214.040099703154,0.3613150531087718,0.3635520901966238,0.681217541023675,0.0,0.0,0.0,"[0.7673189642280995, 0.41537279428872864, 0.9913831061500602, 0.254644714220138, 0.46935469318277256, 0.2965477860500165, 0.5563966425526417, 0.49509430850126535]",21.35,0.0,0.0,0.0,831.4018133540784,121.39546805863087,-984.2564243396979,-524.3104197273035,3422.0635214666195,0.0,0.0,0.0,0.0,0.0,0.0,1.7,21.09838809299343,0.0,20.71043370628537,0.0,1.7,21.35,19.51,21.91,20.75,21.63,1.26,1.7,80.23,-698.24,-1087.51,0.0,292.0,11.0,466.0,0.0,0.0,0.0,0.0,0.0,0.0,0.0,0.0,0.0,0.0,0.0,0.0,0.0,0.0
119.0,3518.0,5748.8349557281645,2202.0907809495243,-0.0,0.0,0.0,0.0,6035.063928386009,0.0,0.0,0.0,6035.06392838601,0.3613150531087718,0.3635520901966238,0.681217541023675,0.0,0.0,0.0,"[0.7673189642280995, 0.41537279428872864, 0.9913831061500602, 0.254644714220138, 0.46935469318277256, 0.2965477860500165, 0.5563966425526417, 0.49509430850126535]",22.77,0.0,0.0,0.0,464.47422431361286,95.1789244544511,-1045.4924090150514,-2427.0032441757508,2923.616370659935,0.0,0.0,0.0,0.0,0.0,0.0,1.9,21.572864160076648,0.0,20.76993624728816,0.0,1.9,22.77,19.55,21.99,21.92,22.45,1.46,1.9,0.0,-741.68,-1155.17,0.0,260.0,0.0,210.0,0.0,0.0,0.0,0.0,0.0,0.0,0.0,0.0,0.0,0.0,0.0,0.0,0.0,0.0
120.0,1821.0,0.0,6677.130049118314,-0.0,0.0,8498.130049118314,0.0,18044.764343769297,0.0,0.0,0.0,18044.764343769293,0.0,0.3635520901966238,0.6494921235839719,0.0,0.0,0.0,"[0.7673189642280995, 0.41537279428872864, 0.9913831061500602, 0.254644714220138, 0.46935469318277256, 0.2965477860500165, 0.5563966425526417, 0.49509430850126535]",22.77,0.0,0.0,0.0,163.517481093715,29.806922960824544,-1065.5331705677413,-2313.681795643293,111.2538187653535,0.0,0.0,0.0,0.0,0.0,0.0,1.5,21.629678416517475,0.0,20.846136318706,0.0,1.5,22.77,19.61,22.08,21.87,22.46,1.03,1.5,660.22,-755.89,-1177.32,0.0,80.0,0.0,80.0,0.0,0.0,0.0,0.0,0.0,0.0,0.0,0.0,0.0,0.0,0.0,0.0,0.0,0.0
121.0,1989.0,22881.988503776483,4778.5785612576,-0.0,0.0,-16000.0,0.0,12777.313050887977,0.0,0.0,0.0,12777.313050887975,0.6533333333333333,0.3635520901966238,0.6494921235839719,0.0,0.0,0.0,"[0.7673189642280995, 0.41537279428872864, 0.9913831061500602, 0.254644714220138, 0.46935469318277256, 0.2965477860500165, 0.5563966425526417, 0.49509430850126535]",21.23,0.0,0.0,0.0,218.56366761707335,56.870254149118644,-1003.6754597474971,-207.55014899641537,4020.2399334652973,0.0,0.0,0.0,0.0,0.0,0.0,1.2,21.144225132280212,0.0,20.82163009266408,0.0,1.2,21.23,19.61,22.04,20.73,21.66,0.72,1.2,0.0,-712.01,-1108.97,0.0,160.0,0.0,79.0,0.0,0.0,0.0,0.0,0.0,0.0,0.0,0.0,0.0,0.0,0.0,0.0,0.0,0.0
122.0,2304.0,727.3377078924664,5079.241350777925,-0.0,0.0,6659.540331424921,0.0,13387.559353627996,0.0,0.0,0.0,13387.559353627994,0.37018961175914455,0.3635520901966238,0.6494921235839719,0.0,0.0,0.0,"[0.7673189642280995, 0.41537279428872864, 0.9913831061500602, 0.254644714220138, 0.46935469318277256, 0.2965477860500165, 0.5563966425526417, 0.49509430850126535]",22.77,0.0,0.0,0.0,253.381614022373,57.75091323659755,-1100.6045032849488,-2273.7211820096086,1560.9748951011431,0.0,0.0,0.0,0.0,0.0,0.0,0.8,21.650128741835776,0.0,20.87750662118041,0.0,0.8,22.77,19.65,22.11,22.03,22.57,0.31,0.8,1765.9,-780.77,-1216.07,0.0,160.0,0.0,105.0,0.0,0.0,0.0,0.0,0.0,0.0,0.0,0.0,0.0,0.0,0.0,0.0,0.0,0.0
123.0,710.0,5244.005331925917,4507.785305266288,-0.0,0.0,0.0,0.0,11838.375723013536,0.0,0.0,0.0,11838.375723013536,0.37018961175914455,0.3635520901966238,0.6494921235839719,0.0,0.0,0.0,"[0.7673189642280995, 0.41537279428872864, 0.9913831061500602, 0.254644714220138, 0.46935469318277256, 0.2965477860500165, 0.5563966425526417, 0.49509430850126535]",22.02,0.0,0.0,0.0,285.52125685803423,58.5638293173473,-1067.9261922832584,-1191.4495846430068,3430.6753083680737,0.0,0.0,0.0,0.0,0.0,0.0,0.7,21.4370181862421,0.0,20.898367016496813,0.0,0.7,22.02,19.67,22.13,21.34,22.11,0.21,0.7,53.43,-757.59,-1179.96,0.0,160.0,0.0,129.0,0.0,0.0,0.0,0.0,0.0,0.0,0.0,0.0,0.0,0.0,0.0,0.0,0.0,0.0
124.0,1683.0,0.0,3567.8351790840825,-0.0,0.0,5250.8351790840825,0.0,9301.845920270769,0.0,0.0,0.0,9301.845920270769,0.14693981673005943,0.3635520901966238,0.6494921235839719,0.0,0.0,0.0,"[0.7673189642280995, 0.41537279428872864, 0.9913831061500602, 0.254644714220138, 0.46935469318277256, 0.2965477860500165, 0.5563966425526417, 0.49509430850126535]",22.77,0.0,0.0,0.0,321.18498333795657,63.10261076820015,-1115.6350744494664,-2159.682518756258,0.0,0.0,0.0,0.0,0.0,0.0,0.0,0.5,21.7071982023303,0.0,20.955369124386817,0.0,0.5,22.77,19.71,22.2,21.98,22.58,0.03,0.5,602.41,-791.44,-1232.68,0.0,160.0,6.0,155.0,0.0,0.0,0.0,0.0,0.0,0.0,0.0,0.0,0.0,0.0,0.0,0.0,0.0,0.0
125.0,695.0,5912.080395394532,5187.51999341756,-0.0,0.0,0.0,0.0,13425.682597548233,0.0,0.0,0.0,13425.682597548235,0.14693981673005943,0.3635520901966238,0.6494921235839719,0.0,0.0,0.0,"[0.7673189642280995, 0.41537279428872864, 0.9913831061500602, 0.254644714220138, 0.46935469318277256, 0.2965477860500165, 0.5563966425526417, 0.49509430850126535]",21.32,0.0,0.0,0.0,227.09195003618524,64.96554345325166,-1053.2594967444495,-186.92817898845948,775.6462087540885,0.0,0.0,0.0,0.0,0.0,0.0,0.3,21.24489150077723,0.0,20.925077252169864,0.0,0.3,21.32,19.7,22.15,20.82,21.76,-0.18,0.3,670.46,-747.19,-1163.76,0.0,160.0,13.0,84.0,0.0,0.0,0.0,0.0,0.0,0.0,0.0,0.0,0.0,0.0,0.0,0.0,0.0,0.0
126.0,932.0,8157.186317459173,7184.400385871877,-0.0,0.0,0.0,0.0,18525.264565438,0.0,0.0,0.0,18525.264565438,0.14693981673005943,0.3635520901966238,0.6494921235839719,0.0,0.0,0.0,"[0.7673189642280995, 0.41537279428872864, 0.9913831061500602, 0.254644714220138, 0.46935469318277256, 0.2965477860500165, 0.5563966425526417, 0.49509430850126535]",21.23,0.0,0.0,0.0,341.55418680178565,98.02413073707527,-1053.777363629222,-139.44348116123416,3842.749224799033,0.0,0.0,0.0,0.0,0.0,0.0,0.2,21.178901228993478,0.0,20.876544245317994,0.0,0.2,21.23,19.68,22.07,20.87,21.75,-0.26,0.2,0.0,-747.55,-1164.33,0.0,254.0,13.0,120.0,0.0,0.0,0.0,0.0,0.0,0.0,0.0,0.0,0.0,0.0,0.0,0.0,0.0,0.0
127.0,1247.0,0.0,2209.0244894909983,-0.0,0.0,3456.0244894909983,0.0,5674.998943024997,0.0,0.0,0.0,5674.998943024998,0.0,0.3635520901966238,0.6494921235839719,0.0,0.0,0.0,"[0.7673189642280995, 0.41537279428872864, 0.9913831061500602, 0.254644714220138, 0.46935469318277256, 0.2965477860500165, 0.5563966425526417, 0.49509430850126535]",22.77,0.0,0.0,0.0,215.53295568300882,75.26248047608195,-1135.6758360021563,-2212.1567531114392,0.0,0.0,0.0,0.0,0.0,0.0,0.0,0.1,21.681331136093995,0.0,20.926958494240914,0.0,0.1,22.77,19.72,22.14,22.05,22.59,-0.38,0.1,660.81,-805.65,-1254.82,0.0,142.0,40.0,82.0,0.0,0.0,0.0,0.0,0.0,0.0,0.0,0.0,0.0,0.0,0.0,0.0,0.0,0.0
128.0,4349.0,42383.5609995781,25353.291665868186,-0.0,0.0,-12469.351528712023,0.0,3545.2525983036026,0.0,-61829.22689737444,0.0,65374.479495678046,0.5091651874224076,0.6160214333609029,0.6494921235839719,0.0,0.0,0.0,"[0.7673189642281031, 0.41537279428872864, 0.6424479446744442, 0.254644714220138, 0.46935469318277256, 0.2965477860500165, 0.5563966425526417, 0.49509430850126535]",21.24,0.0,0.0,2.0548209296077165,326.96448051454473,54.905706953973386,-1054.0884679834212,-121.63154972740146,785.5835076637518,0.0,0.0,0.0,0.0,0.0,0.0,0.2,21.19398170113894,0.0,20.896207061640347,0.0,0.2,21.24,19.71,22.08,20.78,21.7,-0.24,0.2,739.24,-747.77,-1164.67,3.03,83.0,33.0,197.0,0.0,0.0,0.0,0.0,0.0,0.0,0.0,0.0,0.0,0.0,0.0,0.0,0.0,0.0
129.0,8796.0,0.0,0.0,-0.0,4084.322608770187,4711.677391229813,0.0,6488.981334703631,0.0,6488.981334703632,0.0,0.0,0.3088387677272625,0.5884322270058704,0.6494921235839719,0.0,0.0,0.0,"[0.7673189642281031, 0.41537279428872864, 0.6424479446744442, 0.254644714220138, 0.46935469318277256, 0.2965477860500165, 0.5563966425526417, 0.49509430850126535]",21.23,0.0,0.0,543.970333642039,214.75765728127135,60.05417546538854,-923.5124135367371,-185.05935789222028,3381.9055119625864,0.0,0.0,0.0,0.0,0.0,0.0,2.8,21.15399179066911,0.0,20.8481593689259,0.0,2.8,21.23,19.69,22.01,20.86,21.72,2.69,2.8,95.97,-655.14,-1020.4,802.99,140.0,16.0,85.0,0.0,0.0,0.0,0.0,0.0,0.0,0.0,0.0,0.0,0.0,0.0,0.0,0.0,0.0
130.0,6858.0,0.0,0.0,-679.3621760125966,10200.583464020343,0.0,0.0,2396.89915920697,0.0,0.0,0.0,0.0,0.3088387677272625,0.5884322270058704,0.6519131233384896,10652.885152030984,2663.221288007746,13316.10644003873,"[0.7673189642281031, 0.41537279428872864, 0.6424479446744442, 0.254644714220138, 0.46935469318277256, 0.2965477860500165, 0.5563966425526417, 0.49509430850126535]",22.77,0.0,0.0,1031.3269857467549,1111.1435730355245,55.37990800107742,-875.1459358171869,-2220.7473081681387,0.0,0.0,0.0,0.0,0.0,0.0,0.0,5.3,21.672766822934022,0.0,20.921198967601175,0.0,5.3,22.77,19.74,22.1,22.17,22.66,5.47,5.3,0.0,-620.83,-966.96,1522.41,85.0,0.0,785.0,0.0,0.0,0.0,0.0,0.0,0.0,0.0,0.0,0.0,0.0,0.0,0.0,0.0,0.0
131.0,8184.0,0.0,1162.5555744460803,-798.7304076757059,10145.285982121786,0.0,0.0,3729.174117810883,0.0,0.0,0.0,3729.1741178108837,0.3088387677272625,0.5884322270058704,0.6547595080640248,0.0,0.0,0.0,"[0.7673189642281031, 0.41537279428872864, 0.6424479446744442, 0.254644714220138, 0.46935469318277256, 0.2965477860500165, 0.5563966425526417, 0.49509430850126535]",22.31,0.0,0.0,915.6889247862912,504.3668511666485,50.94274106031831,-777.05743160922,-1493.2362933371376,0.0,0.0,0.0,0.0,0.0,0.0,0.0,6.8,21.5763365975021,0.0,20.98033471657068,0.0,6.8,22.31,19.79,22.17,21.69,22.36,6.88,6.8,0.0,-551.25,-858.58,1351.71,119.0,0.0,314.0,0.0,0.0,0.0,0.0,0.0,0.0,0.0,0.0,0.0,0.0,0.0,0.0,0.0,0.0
132.0,6142.0,12185.602413533332,0.0,-0.0,10017.325598534335,-16000.0,0.0,0.0,0.0,0.0,0.0,0.0,0.9621721010605958,0.5884322270058704,0.6547595080640248,0.0,0.0,0.0,"[0.7673189642281031, 0.41537279428872864, 0.6424479446744442, 0.254644714220138, 0.46935469318277256, 0.2965477860500165, 0.5563966425526417, 0.49509430850126535]",21.9,0.0,0.0,875.921542236443,334.7879462048044,8.467875841143334,-706.537929940955,-881.0155039684796,0.0,0.0,0.0,0.0,0.0,0.0,0.0,7.8,21.473039977876418,0.0,21.011989146868913,0.0,7.8,21.9,19.84,22.19,21.47,22.21,7.87,7.8,0.0,-501.22,-780.66,1293.01,0.0,0.0,250.0,0.0,0.0,0.0,0.0,0.0,0.0,0.0,0.0,0.0,0.0,0.0,0.0,0.0,0.0
133.0,4291.0,0.0,1061.7116201362219,-4064.8631830606323,9417.574803196854,0.0,0.0,3547.395814492005,0.0,0.0,0.0,3547.3958144920052,0.9621721010605958,0.5884322270058704,0.6692452023163864,0.0,0.0,0.0,"[0.7673189642281031, 0.41537279428872864, 0.6424479446744442, 0.254644714220138, 0.46935469318277256, 0.2965477860500165, 0.5563966425526417, 0.49509430850126535]",21.71,0.0,0.0,838.2992495164563,739.4232302388639,69.4027103940108,-676.9773179245753,-601.3286726222816,877.6221124745734,0.0,0.0,0.0,0.0,0.0,0.0,8.2,21.422041824722985,0.0,21.026647977360838,0.0,8.2,21.71,19.88,22.18,21.36,22.12,8.27,8.2,0.0,-480.25,-748.0,1237.47,158.0,0.0,469.0,0.0,0.0,0.0,0.0,0.0,0.0,0.0,0.0,0.0,0.0,0.0,0.0,0.0,0.0
134.0,2736.0,0.0,907.6215188981125,-4731.009423590206,8374.630942488318,0.0,0.0,3032.5492499262105,0.0,0.0,0.0,3032.54924992621,0.9621721010605958,0.5884322270058704,0.6861047995349987,0.0,0.0,0.0,"[0.7673189642281031, 0.41537279428872864, 0.6424479446744442, 0.254644714220138, 0.46935469318277256, 0.2965477860500165, 0.5563966425526417, 0.49509430850126535]",22.32,0.0,0.0,768.6336434147768,524.3836462660516,63.00099625810642,-707.6357057090917,-1397.0942979634817,1655.4731026606157,0.0,0.0,0.0,0.0,0.0,0.0,8.2,21.63772797544535,0.0,21.072342816864975,0.0,8.2,22.32,19.93,22.22,21.81,22.44,8.17,8.2,0.0,-502.0,-781.87,1134.63,155.0,0.0,310.0,0.0,0.0,0.0,0.0,0.0,0.0,0.0,0.0,0.0,0.0,0.0,0.0,0.0,0.0
135.0,2952.0,0.0,1496.5796810327843,-0.0,5374.9772060794185,-926.3975250466342,0.0,4857.705472932209,0.0,0.0,0.0,4857.705472932209,1.0,0.5884322270058704,0.6861047995349987,0.0,0.0,0.0,"[0.7673189642281031, 0.41537279428872864, 0.6424479446744442, 0.254644714220138, 0.46935469318277256, 0.2965477860500165, 0.5563966425526417, 0.49509430850126535]",22.77,0.0,0.0,745.0925172325267,324.14521359913584,57.615427223139264,-779.9523184419097,-1906.9799535464153,0.0,0.0,0.0,0.0,0.0,0.0,0.0,7.2,21.82797068506552,0.0,21.15085320501048,0.0,7.2,22.77,20.0,22.3,22.14,22.69,7.15,7.2,0.0,-553.3,-861.78,1099.88,154.0,0.0,161.0,0.0,0.0,0.0,0.0,0.0,0.0,0.0,0.0,0.0,0.0,0.0,0.0,0.0,0.0
136.0,4179.0,0.0,0.0,-0.0,0.0,4179.0,0.0,5342.022473944956,0.0,5342.022473944956,0.0,0.0,0.8223214285714286,0.5657195464193697,0.6777560054719189,0.0,0.0,0.0,"[0.7673189642281031, 0.41537279428872864, 0.6424479446744442, 0.254644714220138, 0.46935469318277256, 0.2965477860500165, 0.5563966425526417, 0.49509430850126535]",21.98,0.0,0.0,0.0,895.2582089880895,76.48185459720659,-810.7114870045715,-772.4510545280384,0.0,0.0,0.0,0.0,0.0,0.0,0.0,5.8,21.608368697534868,0.0,21.179873901830202,0.0,5.8,21.98,20.04,22.32,21.55,22.29,5.26,5.8,0.0,-575.12,-895.76,0.0,130.0,20.0,598.0,0.0,0.0,0.0,0.0,0.0,0.0,0.0,0.0,0.0,0.0,0.0,0.0,0.0,0.0
137.0,5205.0,0.0,2307.966412470175,-0.0,0.0,7512.966412470175,0.0,7095.316677479561,0.0,0.0,0.0,7095.31667747956,0.5028925845038192,0.5657195464193697,0.6477003468448318,0.0,0.0,0.0,"[0.7673189642281031, 0.41537279428872864, 0.6424479446744442, 0.254644714220138, 0.46935469318277256, 0.2965477860500165, 0.5563966425526417, 0.49509430850126535]",21.67,0.0,0.0,0.0,1814.409705084269,192.28852460068285,-815.2627383619196,-396.086018487072,0.0,0.0,0.0,0.0,0.0,0.0,0.0,5.4,21.486925738289763,0.0,21.147934450134045,0.0,5.4,21.67,20.04,22.25,21.14,21.96,4.86,5.4,0.0,-578.35,-900.79,0.0,324.0,70.0,1177.0,0.0,0.0,0.0,0.0,0.0,0.0,0.0,0.0,0.0,0.0,0.0,0.0,0.0,0.0
138.0,6949.0,8562.45052263485,1570.6382700216764,-0.0,0.0,0.0,0.0,4768.675857091377,0.0,0.0,0.0,4768.675857091377,0.5028925845038192,0.5657195464193697,0.639351552781752,0.0,0.0,0.0,"[0.7673189642281031, 0.41537279428872864, 0.6424479446744442, 0.254644714220138, 0.46935469318277256, 0.2965477860500165, 0.5563966425526417, 0.49509430850126535]",22.06,0.0,0.0,0.0,1067.0220458093759,146.35876603832142,-854.6275008435831,-971.4381243656427,0.0,0.0,0.0,0.0,0.0,0.0,0.0,5.0,21.586318812695254,0.0,21.129002639741323,0.0,5.0,22.06,20.05,22.21,21.37,22.09,4.48,5.0,0.0,-606.28,-944.29,0.0,202.0,90.0,681.0,0.0,0.0,0.0,0.0,0.0,0.0,0.0,0.0,0.0,0.0,0.0,0.0,0.0,0.0
139.0,5887.0,6698.483838592585,777.9914193996221,-0.0,0.0,0.0,0.0,2332.422642731892,0.0,0.0,0.0,2332.422642731892,0.5028925845038192,0.5657195464193697,0.6220973783847205,0.0,0.0,0.0,"[0.7673189642281031, 0.41537279428872864, 0.6424479446744442, 0.254644714220138, 0.46935469318277256, 0.2965477860500165, 0.5563966425526417, 0.49509430850126535]",21.74,0.0,0.0,0.0,893.0027954557623,122.27612714610979,-858.9496339923553,-571.7911825635925,0.0,0.0,0.0,0.0,0.0,0.0,0.0,4.6,21.47188863209277,0.0,21.106670850213384,0.0,4.6,21.74,20.05,22.16,21.2,21.95,4.1,4.6,0.0,-609.34,-949.06,0.0,101.0,111.0,602.0,0.0,0.0,0.0,0.0,0.0,0.0,0.0,0.0,0.0,0.0,0.0,0.0,0.0,0.0
140.0,7794.0,2734.4621573508543,1038.3964897910307,-0.0,0.0,6111.606643226931,0.0,3073.5210959541846,0.0,0.0,0.0,3073.5210959541846,0.1453656462585034,0.5526518546848707,0.6220973783847205,0.0,0.0,0.0,"[0.7673189642281031, 0.4066362511650148, 0.6424479446744442, 0.254644714220138, 0.12878243513299736, 0.2965477860500165, 0.5563966425526417, 0.49509430850126535]",21.53,0.0,0.0,0.0,1155.124136915903,120.27770844759995,-868.266464826287,-331.34542312303967,2419.4866975158425,0.0,0.0,0.0,0.0,0.0,0.0,4.2,21.37784755940416,0.0,21.07114308910181,0.0,4.2,21.53,20.04,22.1,21.07,21.83,3.72,4.2,0.0,-615.95,-959.36,0.0,144.0,74.0,779.0,0.0,0.0,0.0,0.0,0.0,0.0,0.0,0.0,0.0,0.0,0.0,0.0,0.0,0.0
141.0,5151.0,7855.844769659157,2665.5655458108604,-0.0,0.0,0.0,0.0,7788.087234868497,0.0,0.0,0.0,7788.087234868497,0.1453656462585034,0.5526518546848707,0.6220973783847205,0.0,0.0,0.0,"[0.7673189642281031, 0.4066362511650148, 0.6424479446744442, 0.254644714220138, 0.12878243513299736, 0.2965477860500165, 0.5563966425526417, 0.49509430850126535]",22.77,0.0,0.0,0.0,986.1090853371406,59.918689451930234,-950.2987916397743,-2007.2273521230215,174.57593866284313,0.0,0.0,0.0,0.0,0.0,0.0,3.8,21.780776676156638,0.0,21.10967581356084,0.0,3.8,22.77,20.07,22.15,22.01,22.49,3.35,3.8,0.0,-674.15,-1049.99,0.0,109.0,0.0,679.0,0.0,0.0,0.0,0.0,0.0,0.0,0.0,0.0,0.0,0.0,0.0,0.0,0.0,0.0
142.0,3419.0,0.0,0.0,-0.0,0.0,3419.0,0.0,2737.2968352633643,0.0,2737.2968352633648,0.0,0.0,0.0,0.5410136878682748,0.6220973783847205,0.0,0.0,0.0,"[0.7673189642281031, 0.4066362511650148, 0.6424479446744442, 0.254644714220138, 0.12878243513299736, 0.2965477860500165, 0.5563966425526417, 0.49509430850126535]",21.9,0.0,0.0,0.0,361.07761019099223,35.12474898906256,-926.7820446123848,-799.750120041951,0.0,0.0,0.0,0.0,0.0,0.0,0.0,3.4,21.51308196955846,0.0,21.105193228916605,0.0,3.4,21.9,20.08,22.13,21.26,21.97,2.94,3.4,0.0,-657.46,-1024.01,0.0,81.0,0.0,227.0,0.0,0.0,0.0,0.0,0.0,0.0,0.0,0.0,0.0,0.0,0.0,0.0,0.0,0.0
143.0,1958.0,12195.36284215611,3975.5707471834407,-0.0,0.0,-6200.815280761888,0.0,11312.378041717173,0.0,0.0,0.0,11312.378041717173,0.2531999572977771,0.5410136878682748,0.6220973783847205,0.0,0.0,0.0,"[0.7673189642281031, 0.4066362511650148, 0.6424479446744442, 0.254644714220138, 0.12878243513299736, 0.2965477860500165, 0.5563966425526417, 0.49509430850126535]",21.23,0.0,0.0,0.0,281.57428317646185,40.81516155431088,-913.492032760392,55.700268983315134,3618.033194503135,0.0,0.0,0.0,0.0,0.0,0.0,3.0,21.274141595080636,0.0,21.05768241290239,0.0,3.0,21.23,20.06,22.06,20.89,21.69,2.54,3.0,0.0,-648.04,-1009.33,0.0,105.0,0.0,155.0,0.0,0.0,0.0,0.0,0.0,0.0,0.0,0.0,0.0,0.0,0.0,0.0,0.0,0.0
144.0,2737.0,0.0,3218.2629956437177,-0.0,0.0,5955.262995643718,0.0,9004.076062686787,0.0,0.0,0.0,9004.076062686787,0.0,0.5410136878682748,0.6220973783847205,0.0,0.0,0.0,"[0.7673189642281031, 0.4066362511650148, 0.6424479446744442, 0.254644714220138, 0.12878243513299736, 0.2965477860500165, 0.5563966425526417, 0.49509430850126535]",22.77,0.0,0.0,0.0,629.6832655565731,67.26880568204265,-1015.4312666860168,-2022.952859934534,0.0,0.0,0.0,0.0,0.0,0.0,0.0,2.5,21.773873322946148,0.0,21.103870067440663,0.0,2.5,22.77,20.08,22.12,22.14,22.57,2.07,2.5,0.0,-720.35,-1121.96,0.0,160.0,0.0,386.0,0.0,0.0,0.0,0.0,0.0,0.0,0.0,0.0,0.0,0.0,0.0,0.0,0.0,0.0
145.0,1744.0,4160.735834718861,2395.932155545267,-0.0,0.0,0.0,0.0,6611.989139211597,0.0,0.0,0.0,6611.989139211597,0.0,0.5410136878682748,0.6220973783847205,0.0,0.0,0.0,"[0.7673189642281031, 0.4066362511650148, 0.6424479446744442, 0.254644714220138, 0.12878243513299736, 0.2965477860500165, 0.5563966425526417, 0.49509430850126535]",21.6,0.0,0.0,0.0,458.27183709971337,62.93325325137727,-976.7931697491583,-412.9725591615475,146.720270666788,0.0,0.0,0.0,0.0,0.0,0.0,2.1,21.40480120274627,0.0,21.085321737896372,0.0,2.1,21.6,20.08,22.1,21.09,21.84,1.7,2.1,0.0,-692.94,-1079.27,0.0,160.0,0.0,258.0,0.0,0.0,0.0,0.0,0.0,0.0,0.0,0.0,0.0,0.0,0.0,0.0,0.0,0.0
146.0,1294.0,6301.030881524492,4975.525727116869,-0.0,0.0,0.0,0.0,13493.65765019186,0.0,0.0,0.0,13493.657650191859,0.0,0.5410136878682748,0.6220973783847205,0.0,0.0,0.0,"[0.7673189642281031, 0.4066362511650148, 0.6424479446744442, 0.254644714220138, 0.12878243513299736, 0.2965477860500165, 0.5563966425526417, 0.49509430850126535]",21.23,0.0,0.0,0.0,371.2269710864641,60.73160553268001,-983.6346981948068,15.53787806413848,3621.0235792343656,0.0,0.0,0.0,0.0,0.0,0.0,1.6,21.25508150593611,0.0,21.034022034846593,0.0,1.6,21.23,20.05,22.02,20.92,21.68,1.22,1.6,461.13,-697.79,-1086.83,0.0,160.0,0.0,193.0,0.0,0.0,0.0,0.0,0.0,0.0,0.0,0.0,0.0,0.0,0.0,0.0,0.0,0.0
147.0,951.0,4648.225900732932,3673.9847712292676,-0.0,0.0,0.0,0.0,9893.81979018508,0.0,0.0,0.0,9893.81979018508,0.0,0.5410136878682748,0.6220973783847205,0.0,0.0,0.0,"[0.7673189642281031, 0.4066362511650148, 0.6424479446744442, 0.254644714220138, 0.12878243513299736, 0.2965477860500165, 0.5563966425526417, 0.49509430850126535]",22.77,0.0,0.0,0.0,324.35665861779154,59.54610291491994,-1070.543360955914,-2061.487836844492,0.0,0.0,0.0,0.0,0.0,0.0,0.0,1.4,21.755431385691175,0.0,21.079930805100688,0.0,1.4,22.77,20.07,22.09,22.14,22.55,1.01,1.4,762.27,-759.45,-1182.85,0.0,160.0,0.0,158.0,0.0,0.0,0.0,0.0,0.0,0.0,0.0,0.0,0.0,0.0,0.0,0.0,0.0,0.0
148.0,922.0,5280.172670833881,4331.771807479711,-0.0,0.0,0.0,0.0,11582.608455559808,0.0,0.0,0.0,11582.60845555981,0.0,0.5410136878682748,0.6220973783847205,0.0,0.0,0.0,"[0.7673189642281031, 0.4066362511650148, 0.6424479446744442, 0.254644714220138, 0.12878243513299736, 0.2965477860500165, 0.5563966425526417, 0.49509430850126535]",21.39,0.0,0.0,0.0,222.58112297153096,56.97186865921236,-1011.7475009163936,-178.3385870591096,593.8401264338399,0.0,0.0,0.0,0.0,0.0,0.0,1.2,21.319925224288795,0.0,21.053816483092675,0.0,1.2,21.39,20.05,22.05,20.98,21.74,0.85,1.2,174.85,-717.74,-1117.89,0.0,160.0,0.0,82.0,0.0,0.0,0.0,0.0,0.0,0.0,0.0,0.0,0.0,0.0,0.0,0.0,0.0,0.0
149.0,909.0,4819.146419865279,3886.0506877659527,-0.0,0.0,0.0,0.0,10279.665966672512,0.0,0.0,0.0,10279.66596667251,0.0,0.5410136878682748,0.6220973783847205,0.0,0.0,0.0,"[0.7673189642281031, 0.4066362511650148, 0.6424479446744442, 0.254644714220138, 0.12878243513299736, 0.2965477860500165, 0.5563966425526417, 0.49509430850126535]",21.23,0.0,0.0,0.0,261.1345980397474,68.25107927961528,-1018.7060309120144,-27.788810487122394,3802.8456735765,0.0,0.0,0.0,0.0,0.0,0.0,0.9,21.233967975151963,0.0,21.005103950032115,0.0,0.9,21.23,20.03,21.99,20.96,21.7,0.56,0.9,0.0,-722.67,-1125.58,0.0,160.0,17.0,109.0,0.0,0.0,0.0,0.0,0.0,0.0,0.0,0.0,0.0,0.0,0.0,0.0,0.0,0.0
150.0,2252.0,2263.316582914573,0.0,-0.0,0.0,0.0,0.0,10228.26079531573,0.0,10228.26079531573,0.0,0.0,0.0,0.49752618448683034,0.6220973783847205,0.0,0.0,0.0,"[0.7673189642281031, 0.4066362511650148, 0.6424479446744442, 0.254644714220138, 0.12878243513299736, 0.2965477860500165, 0.5563966425526417, 0.49509430850126535]",22.77,0.0,0.0,0.0,313.99585270366384,130.2359304367845,-1100.604503284949,-2098.6322918085993,2769.747188352392,0.0,0.0,0.0,0.0,0.0,0.0,0.8,21.737304784041594,0.0,21.054368309350735,0.0,0.8,22.77,20.05,22.06,22.16,22.55,0.48,0.8,346.54,-780.77,-1216.07,0.0,298.0,44.0,73.0,0.0,0.0,0.0,0.0,0.0,0.0,0.0,0.0,0.0,0.0,0.0,0.0,0.0,0.0
151.0,2487.0,20853.03548906096,12328.494311615652,-0.0,0.0,0.0,0.0,7920.705993944221,29666.38,-605.8323705721625,0.0,32259.642364516385,0.0,0.5,0.6220973783847205,23733.104000000003,5933.276000000001,29666.38,"[0.7673189642281031, 0.4066362511650148, 0.6424479446744442, 0.254644714220138, 0.12878243513299736, 0.2965477860500165, 0.5563966425526417, 0.49509430850126535]",22.77,0.0,0.0,0.0,296.72784284678454,113.46953627132069,-1110.624884061294,-1999.1249726781837,325.9848738902281,0.0,0.0,0.0,0.0,0.0,0.0,0.6,21.78705854439507,0.0,21.1178864457833,0.0,0.6,22.77,20.08,22.16,22.06,22.53,0.29,0.6,565.17,-787.88,-1227.14,0.0,300.0,16.0,62.0,0.0,0.0,0.0,0.0,0.0,0.0,0.0,0.0,0.0,0.0,0.0,0.0,0.0,0.0
