,load_elec,grid,hp_elec,ev,pv,bat_pow,cool,load_th_sh,load_th_dhw,tes_pow,dh,hp_th,bat_soc,tes_soc,ev_soc,eh_th_in,eh_elec_in,eh_th_out,temp_slack,temp_zone_1,temp_zone_2,temp_update,Qsolar_1,QconvInt_1,QradInt_1,Qvent_1,Qconduc_1,Qheating_1,Qsolar_2,QconvInt_2,QradInt_2,Qvent_2,Qconduc_2,Qheating_2,temp_amb,temp_aggregate_1,temp_aggregate_2,temp_wall_1,temp_wall_2,_Tamb,_Tz_1,_TEW_1,_TIW_1,_T1_1,_T2_1,_Taeq_1,_Tvent_1,_Qheating_1,_Qinfvent_1,_Qenvelope_1,_Qsolar_1,_Qint_people_1,_Qint_lighting_1,_Qint_appliances_1,_Tz_2,_TEW_2,_TIW_2,_T1_2,_T2_2,_Taeq_2,_Tvent_2,_Qheating_2,_Qinfvent_2,_Qenvelope_2,_Qsolar_2,_Qint_people_2,_Qint_lighting_2,_Qint_appliances_2
8.0,1433.0,0.0,2173.3999999999996,-0.0,0.0,3606.4,0.0,49788.84555810332,0.0,46173.736644036544,0.0,3615.108914066773,0.3466666666666667,0.3036830924998446,0.8,0.0,0.0,0.0,"[2.0, 2.0, 2.0, 2.0, 2.0, 2.0, 2.0, 2.0]",20.0,0.0,0.0,1.3049539660058436,43.70517602470855,0.9558949670765189,-1502.2930247366216,-1820.7561346684681,11611.065004329846,0.0,0.0,0.0,0.0,0.0,0.0,-9.4,19.156976502960116,0.0,19.0,0.0,-9.4,20.0,18.0,20.0,20.0,20.0,-10.57,-9.4,8969.91,-1044.95,-1473.11,2.18,0.0,0.0,32.0,0.0,0.0,0.0,0.0,0.0,0.0,0.0,0.0,0.0,0.0,0.0,0.0,0.0,0.0
9.0,1811.0,1813.0241984140469,0.0,-0.0,7.040922578023344,0.0,0.0,38302.118241745135,0.0,38302.118241745135,0.0,0.0,0.3466666666666667,0.14083395031555407,0.8,0.0,0.0,0.0,"[2.0, 2.0, 2.0, 2.0, 2.0, 2.0, 2.0, 2.0]",24.0,0.0,0.0,39.006777997049966,83.31299179710066,1.8221747809896118,-1665.8079117827847,-7098.7757242583575,7419.236107846364,0.0,0.0,0.0,0.0,0.0,0.0,-8.6,20.626744083538732,0.0,19.46759744147171,0.0,-8.6,24.0,18.24,20.7,21.88,22.88,-9.55,-8.6,0.0,-1158.69,-1633.45,65.29,0.0,0.0,61.0,0.0,0.0,0.0,0.0,0.0,0.0,0.0,0.0,0.0,0.0,0.0,0.0,0.0,0.0
10.0,2035.0,1669.7368830596256,0.0,-0.0,373.61180135567236,0.0,0.0,23606.28045180943,0.0,23606.28045180943,0.0,0.0,0.3466666666666667,0.04046711165990173,0.8,0.0,0.0,0.0,"[2.0, 2.0, 2.0, 2.0, 2.0, 2.0, 2.0, 2.0]",23.42,0.0,0.0,104.15733630055227,42.33938927393641,0.9260232493553745,-1584.8213140563446,-5684.8446795739055,0.0,0.0,0.0,0.0,0.0,0.0,0.0,-7.6,20.718715868876725,0.0,19.870383577789916,0.0,-7.6,23.42,18.48,21.26,21.42,22.57,-8.41,-7.6,1055.54,-1102.35,-1554.04,174.34,0.0,0.0,31.0,0.0,0.0,0.0,0.0,0.0,0.0,0.0,0.0,0.0,0.0,0.0,0.0,0.0,0.0
11.0,2395.0,74530.52656761625,56824.3730591559,-0.0,1061.4991243777322,-16000.0,0.0,36114.01411882663,0.0,-72489.2179765546,0.0,108603.23209538123,1.0,0.33646475173083307,0.8,0.0,0.0,0.0,"[2.0, 2.0, 2.0, 2.0, 2.0, 2.0, 2.0, 2.0]",20.0,0.0,0.0,141.961921724035,55.99725678165783,1.2247404265667894,-1369.437179011614,-640.9390114859386,7970.58385330996,0.0,0.0,0.0,0.0,0.0,0.0,-6.8,19.72010234064794,0.0,19.858570019369875,0.0,-6.8,20.0,18.53,21.19,19.37,20.59,-7.46,-6.8,7969.19,-952.54,-1342.84,237.62,0.0,0.0,41.0,0.0,0.0,0.0,0.0,0.0,0.0,0.0,0.0,0.0,0.0,0.0,0.0,0.0,0.0
12.0,4943.0,0.0,0.0,-0.0,2494.6212878857523,2448.3787121142477,0.0,9057.41845241992,0.0,9057.418452419919,0.0,0.0,0.8959022656414011,0.2979553195351701,0.8,0.0,0.0,0.0,"[2.0, 2.0, 2.0, 2.0, 2.0, 2.0, 2.0, 2.0]",22.96,0.0,0.0,202.37977667419284,250.08274241769908,44.24001394501014,-1490.0678583476456,-4663.899448159038,0.0,0.0,0.0,0.0,0.0,0.0,0.0,-6.2,20.75223463536903,0.0,20.109882968170012,0.0,-6.2,22.96,18.7,21.52,21.45,22.71,-6.72,-6.2,0.0,-1036.45,-1461.12,338.75,137.0,0.0,111.0,0.0,0.0,0.0,0.0,0.0,0.0,0.0,0.0,0.0,0.0,0.0,0.0,0.0,0.0
13.0,6237.0,22380.86535213042,16468.206224013382,-0.0,436.24519864361787,0.0,0.0,32573.153076774972,0.0,0.0,0.0,32573.153076774972,0.8959022656414011,0.2979553195351701,0.8,0.0,0.0,0.0,"[2.0, 2.0, 2.0, 2.0, 2.0, 2.0, 2.0, 2.0]",20.25,0.0,0.0,110.12926253099074,2462.082210562981,93.46860474945086,-1346.4795191703602,-670.0437655888195,7159.918321499609,0.0,0.0,0.0,0.0,0.0,0.0,-6.1,19.9564766273155,0.0,20.09227629138605,0.0,-6.1,20.25,18.75,21.44,19.63,20.9,-6.84,-6.1,0.0,-936.57,-1320.33,184.34,140.0,0.0,1729.0,0.0,0.0,0.0,0.0,0.0,0.0,0.0,0.0,0.0,0.0,0.0,0.0,0.0,0.0
14.0,7255.0,1177.5109776165302,9921.322483126143,-0.0,4.699060397696799,16000.0,0.0,19150.883159048466,0.0,0.0,0.0,19150.883159048466,0.21563015679786368,0.2979553195351701,0.799999999999999,0.0,0.0,0.0,"[2.0, 2.0, 2.0, 2.0, 2.0, 2.0, 2.0, 2.0]",24.0,0.0,0.0,35.67351020145888,929.8132432230348,66.46457192953919,-1563.6111073789327,-5826.910466205992,0.0,0.0,0.0,0.0,0.0,0.0,0.0,-6.6,21.235169866152766,0.0,20.3669347819733,0.0,-6.6,24.0,18.93,21.8,21.95,23.15,-7.55,-6.6,2720.4,-1087.6,-1533.24,59.71,163.0,0.0,595.0,0.0,0.0,0.0,0.0,0.0,0.0,0.0,0.0,0.0,0.0,0.0,0.0,0.0,0.0
15.0,2238.0,18355.9512634294,16381.593649760945,-0.0,0.0,355.4221426486903,0.0,30527.78933285553,0.0,0.0,0.0,30527.789332855526,0.2005186711410316,0.2979553195351701,0.799999999999999,0.0,0.0,0.0,"[2.0, 2.0, 2.0, 2.0, 2.0, 2.0, 2.0, 2.0]",20.95,0.0,0.0,3.9162907552399573,1567.851306373221,78.53274588888026,-1443.4097980954198,-1290.380974287162,0.0,0.0,0.0,0.0,0.0,0.0,0.0,-7.3,20.357895889705876,0.0,20.377237828546093,0.0,-7.3,20.95,19.0,21.75,20.04,21.26,-8.35,-7.3,0.0,-1003.99,-1415.37,6.56,128.0,15.0,1079.0,0.0,0.0,0.0,0.0,0.0,0.0,0.0,0.0,0.0,0.0,0.0,0.0,0.0,0.0
16.0,3083.0,14869.804336552766,11712.455314870003,-0.0,0.0,0.0,0.0,21938.311934084,0.0,0.0,0.0,21938.311934084,0.2005186711410316,0.2979553195351701,0.799999999999999,0.0,0.0,0.0,"[2.0, 2.0, 2.0, 2.0, 2.0, 2.0, 2.0, 2.0]",20.43,0.0,0.0,0.0,1013.198118533334,77.81582466357287,-1411.6339838844765,-648.7974053738476,86.29850015642083,0.0,0.0,0.0,0.0,0.0,0.0,-7.2,20.14333087089957,0.0,20.26964289578963,0.0,-7.2,20.43,19.0,21.54,19.81,20.96,-8.23,-7.2,7040.01,-981.89,-1384.21,0.0,106.0,48.0,681.0,0.0,0.0,0.0,0.0,0.0,0.0,0.0,0.0,0.0,0.0,0.0,0.0,0.0,0.0
17.0,5915.0,34747.568439976145,12658.830597776268,-0.0,0.0,-16000.0,0.0,23952.305230350667,0.0,0.0,0.0,23952.305230350667,0.8538520044743649,0.2979553195351701,0.7805194805194796,0.0,0.0,0.0,"[2.0, 2.0, 2.0, 2.0, 2.0, 2.0, 2.0, 2.0]",20.0,0.0,0.0,0.0,587.935254450808,105.17831809613823,-1379.6568594519995,-178.35983912870068,870.3463887281315,0.0,0.0,0.0,0.0,0.0,0.0,-7.0,19.942689300497122,0.0,20.14225737214539,0.0,-7.0,20.0,18.98,21.31,19.62,20.7,-8.03,-7.0,0.0,-959.65,-1352.86,0.0,92.0,124.0,369.0,0.0,0.0,0.0,0.0,0.0,0.0,0.0,0.0,0.0,0.0,0.0,0.0,0.0,0.0
18.0,4528.0,0.0,0.0,-0.0,0.0,4528.0,0.0,23836.980995983467,0.0,23836.980995983467,0.0,0.0,0.6613349976716438,0.19660761121891387,0.7735621521335798,0.0,0.0,0.0,"[2.0, 2.0, 2.0, 2.0, 2.0, 2.0, 2.0, 2.0]",20.0,0.0,0.0,0.0,442.94620832936533,128.98607711988777,-1374.5470192318069,-304.0176490089227,9447.328898994308,0.0,0.0,0.0,0.0,0.0,0.0,-6.9,19.88228693016508,0.0,20.041686616241517,0.0,-6.9,20.0,18.96,21.13,19.68,20.69,-7.94,-6.9,0.0,-956.09,-1347.85,0.0,142.0,148.0,234.0,0.0,0.0,0.0,0.0,0.0,0.0,0.0,0.0,0.0,0.0,0.0,0.0,0.0,0.0
19.0,6745.0,17884.26297798334,11049.84166309342,-0.0,0.0,0.0,0.0,21118.552729211126,0.0,0.0,0.0,21118.55272921113,0.6613349976716438,0.19660761121891387,0.7638218923933201,0.0,0.0,0.0,"[2.0, 2.0, 2.0, 2.0, 2.0, 2.0, 2.0, 2.0]",24.0,0.0,0.0,0.0,482.6977911281545,108.88241109355975,-1573.8307878193177,-5754.853364973185,6742.738910105285,0.0,0.0,0.0,0.0,0.0,0.0,-6.8,21.270023567285882,0.0,20.378535176726302,0.0,-6.8,24.0,19.14,21.62,22.26,23.29,-7.82,-6.8,0.0,-1094.71,-1543.26,0.0,83.0,140.0,295.0,0.0,0.0,0.0,0.0,0.0,0.0,0.0,0.0,0.0,0.0,0.0,0.0,0.0,0.0
20.0,6973.0,9858.213134721647,2835.922069048039,-0.0,0.0,0.0,0.0,5474.110158688553,0.0,0.0,0.0,5474.110158688553,0.36486390923626977,0.17333333333333328,0.7638218923933201,0.0,0.0,0.0,"[2.0, 1.1857732808397685, 1.1928035985219196, 2.0, 0.6883811792915857, 2.0, 1.8138920883107517, 1.5024590652398295]",24.0,0.0,0.0,0.0,983.7977616351335,100.78717559113046,-1563.6111073789327,-5278.615745638999,5474.110158688553,0.0,0.0,0.0,0.0,0.0,0.0,-6.6,21.498390813177046,0.0,20.726571096725117,0.0,-6.6,24.0,19.36,22.1,22.14,23.27,-7.61,-6.6,0.0,-1087.6,-1533.24,0.0,129.0,80.0,644.0,0.0,0.0,0.0,0.0,0.0,0.0,0.0,0.0,0.0,0.0,0.0,0.0,0.0,0.0
21.0,5128.0,0.0,0.0,-0.0,0.0,5128.0,0.0,22781.359633111344,0.0,22781.359633111344,0.0,0.0,0.14683669835191604,0.07647381108371022,0.7638218923933201,0.0,0.0,0.0,"[2.0, 1.1857732808397685, 1.1928035985219196, 2.0, 0.6883811792915857, 2.0, 1.8138920883107517, 1.5024590652398295]",23.86,0.0,0.0,0.0,627.6868372495971,85.07465206981017,-1551.4196678908336,-4696.175899877187,0.0,0.0,0.0,0.0,0.0,0.0,0.0,-6.5,21.63914461069742,0.0,20.998335881407414,0.0,-6.5,23.86,19.55,22.45,22.08,23.3,-7.55,-6.5,4599.33,-1079.12,-1521.29,0.0,135.0,62.0,382.0,0.0,0.0,0.0,0.0,0.0,0.0,0.0,0.0,0.0,0.0,0.0,0.0,0.0,0.0
22.0,3300.0,18370.49765520167,14978.645166925662,-0.0,0.0,0.0,0.0,29341.295990823837,0.0,0.0,0.0,29341.295990823834,0.14683669835191604,0.07647381108371022,0.7638218923933201,0.0,0.0,0.0,"[2.0, 1.1857732808397685, 1.1928035985219196, 2.0, 0.6883811792915857, 2.0, 1.8138920883107517, 1.5024590652398295]",21.2,0.0,0.0,0.0,483.847927339331,68.37636186369225,-1405.349045168723,-800.1279816390098,5951.9923264432155,0.0,0.0,0.0,0.0,0.0,0.0,-6.3,20.84766145638705,0.0,20.963160996858168,0.0,-6.3,21.2,19.59,22.33,20.5,21.73,-7.42,-6.3,3566.48,-977.52,-1378.05,0.0,157.0,25.0,269.0,0.0,0.0,0.0,0.0,0.0,0.0,0.0,0.0,0.0,0.0,0.0,0.0,0.0,0.0
23.0,3186.0,27293.30902592041,8650.027903576545,-0.0,0.0,-15320.814577214262,0.0,17026.78818897921,0.0,0.0,0.0,17026.788188979215,0.7724366269214984,0.07647381108371022,0.7638218923933201,0.0,0.0,0.0,"[2.0, 1.1857732808397685, 1.1928035985219196, 2.0, 0.6883811792915857, 2.0, 1.8138920883107517, 1.5024590652398295]",23.26,0.0,0.0,0.0,290.1218592692824,30.588638946448608,-1505.5799046585432,-3630.758038561954,0.0,0.0,0.0,0.0,0.0,0.0,0.0,-6.2,21.55253738293778,0.0,21.112788941762815,0.0,-6.2,23.26,19.71,22.51,21.97,23.2,-7.28,-6.2,0.0,-1047.24,-1476.34,0.0,80.0,3.0,170.0,0.0,0.0,0.0,0.0,0.0,0.0,0.0,0.0,0.0,0.0,0.0,0.0,0.0,0.0
24.0,2185.0,4887.826661424703,2678.3875281175797,-0.0,0.0,0.0,0.0,5297.694585891407,0.0,0.0,0.0,5297.694585891407,0.7724366269214984,0.07647381108371022,0.7638218923933201,0.0,0.0,0.0,"[2.0, 1.1857732808397685, 1.1928035985219196, 2.0, 0.6883811792915857, 2.0, 1.8138920883107517, 1.5024590652398295]",20.95,0.0,0.0,0.0,55.99725678165783,1.2247404265667894,-1382.326971186661,-302.3918036565547,0.0,0.0,0.0,0.0,0.0,0.0,0.0,-6.1,20.835550151594628,0.0,21.037072972366737,0.0,-6.1,20.95,19.73,22.34,20.45,21.65,-7.21,-6.1,938.42,-961.5,-1355.48,0.0,0.0,0.0,41.0,0.0,0.0,0.0,0.0,0.0,0.0,0.0,0.0,0.0,0.0,0.0,0.0,0.0,0.0
25.0,1690.0,19195.205453856215,17409.229426586935,-0.0,0.0,0.0,0.0,34600.40970873845,0.0,0.0,0.0,34600.40970873844,0.7724366269214984,0.07647381108371022,0.7638218923933201,0.0,0.0,0.0,"[2.0, 1.1857732808397685, 1.1928035985219196, 2.0, 0.6883811792915857, 2.0, 1.8138920883107517, 1.5024590652398295]",20.17,0.0,0.0,0.0,55.99725678165783,1.2247404265667894,-1337.3008781248286,630.8554224936269,8626.841254481973,0.0,0.0,0.0,0.0,0.0,0.0,-6.0,20.501328374271676,0.0,20.862898304112324,0.0,-6.0,20.17,19.69,22.04,20.08,21.21,-7.02,-6.0,1381.55,-930.19,-1311.33,0.0,0.0,0.0,41.0,0.0,0.0,0.0,0.0,0.0,0.0,0.0,0.0,0.0,0.0,0.0,0.0,0.0,0.0
26.0,2061.0,0.0,10135.420312141776,-0.0,0.0,12196.420312141776,0.0,20433.767548273107,0.0,0.0,0.0,20433.767548273107,0.25388134154132097,0.07647381108371022,0.76382189239332,0.0,0.0,0.0,"[2.0, 1.1857732808397685, 1.1928035985219196, 2.0, 0.6883811792915857, 2.0, 1.8138920883107517, 1.5024590652398295]",24.0,0.0,0.0,0.0,55.99725678165783,1.2247404265667894,-1517.6225453971995,-4694.416381465236,0.0,0.0,0.0,0.0,0.0,0.0,0.0,-5.7,21.777860743845803,0.0,21.102669203767597,0.0,-5.7,24.0,19.83,22.37,22.55,23.66,-6.7,-5.7,5384.51,-1055.61,-1488.14,0.0,0.0,0.0,41.0,0.0,0.0,0.0,0.0,0.0,0.0,0.0,0.0,0.0,0.0,0.0,0.0,0.0,0.0
27.0,1076.0,0.0,4895.289153051869,-0.0,0.0,5971.289153051869,0.0,9962.606687355154,0.0,0.0,0.0,9962.606687355154,0.0,0.07647381108371022,0.76382189239332,0.0,0.0,0.0,"[2.0, 1.1857732808397685, 1.1928035985219196, 2.0, 0.6883811792915857, 2.0, 1.8138920883107517, 1.5024590652398295]",21.05,0.0,0.0,0.0,55.99725678165783,1.2247404265667894,-1356.4531399378372,-375.8107909227754,0.0,0.0,0.0,0.0,0.0,0.0,0.0,-5.5,20.893307391501665,0.0,21.06041655243731,0.0,-5.5,21.05,19.86,22.26,20.54,21.64,-6.47,-5.5,3922.41,-943.51,-1330.11,0.0,0.0,0.0,41.0,0.0,0.0,0.0,0.0,0.0,0.0,0.0,0.0,0.0,0.0,0.0,0.0,0.0,0.0
28.0,2134.0,20408.92914040845,6402.327942206483,-0.0,0.0,-11770.55655249993,0.0,13090.679404123572,0.0,0.0,0.0,13090.679404123572,0.48063105922708044,0.07647381108371022,0.76382189239332,0.0,0.0,0.0,"[2.0, 1.1857732808397685, 1.1928035985219196, 2.0, 0.6883811792915857, 2.0, 1.8138920883107517, 1.5024590652398295]",20.24,0.0,0.0,0.0,117.45766056640424,34.830422862850654,-1310.2609919957308,604.4489752200844,51.29099506442218,0.0,0.0,0.0,0.0,0.0,0.0,-5.4,20.558881554283897,0.0,20.897936820721743,0.0,-5.4,20.24,19.81,21.98,20.17,21.21,-6.36,-5.4,0.0,-911.38,-1284.81,0.0,80.0,18.0,42.0,0.0,0.0,0.0,0.0,0.0,0.0,0.0,0.0,0.0,0.0,0.0,0.0,0.0,0.0
29.0,1163.0,29041.79304424507,27733.584079023844,-0.0,0.0,0.0,0.0,33514.2501525367,0.0,-23720.699326438298,0.0,57234.94947897499,0.48063105922708044,0.17333333333333328,0.76382189239332,0.0,0.0,0.0,"[2.0, 1.1857732808397685, 1.1928035985219196, 2.0, 0.6883811792915857, 2.0, 1.8138920883107517, 1.5024590652398295]",20.0,0.0,0.0,0.0,116.37940786842621,35.87593298309059,-1287.6797354885327,736.1132421392763,8735.188966678883,0.0,0.0,0.0,0.0,0.0,0.0,-5.2,20.379706530395513,0.0,20.723673534861113,0.0,-5.2,20.0,19.75,21.7,20.03,20.98,-6.15,-5.2,4938.34,-895.67,-1262.67,0.0,80.0,20.0,41.0,0.0,0.0,0.0,0.0,0.0,0.0,0.0,0.0,0.0,0.0,0.0,0.0,0.0,0.0
30.0,1520.0,6872.348354142573,5317.98661237186,-0.0,0.0,0.0,0.0,11025.64787223312,0.0,0.0,0.0,11025.64787223312,0.48063105922708044,0.17333333333333328,0.76382189239332,0.0,0.0,0.0,"[2.0, 1.1857732808397685, 1.1928035985219196, 2.0, 0.6883811792915857, 2.0, 1.8138920883107517, 1.5024590652398295]",24.0,0.0,0.0,0.0,181.14645326030518,60.34086979670527,-1486.9635040760438,-4813.404459909789,6062.00344429225,0.0,0.0,0.0,0.0,0.0,0.0,-5.1,21.720104547274417,0.0,20.988450293120476,0.0,-5.1,24.0,19.89,22.09,22.58,23.52,-6.06,-5.1,2803.96,-1034.29,-1458.08,0.0,169.0,16.0,42.0,0.0,0.0,0.0,0.0,0.0,0.0,0.0,0.0,0.0,0.0,0.0,0.0,0.0,0.0
31.0,1515.0,0.0,1635.8425130209316,-0.0,0.0,3150.8425130209316,0.0,3407.146122172621,0.0,0.0,0.0,3407.146122172621,0.3466666666666667,0.17333333333333328,0.76382189239332,0.0,0.0,0.0,"[2.0, 1.1857732808397685, 1.1928035985219196, 2.0, 0.6883811792915857, 2.0, 1.8138920883107517, 1.5024590652398295]",24.0,0.0,0.0,0.0,154.47766986364917,42.148993704530255,-1481.8536638558512,-4420.7665395265485,0.0,0.0,0.0,0.0,0.0,0.0,0.0,-5.0,21.908439518708565,0.0,21.276306035915955,0.0,-5.0,24.0,20.06,22.49,22.45,23.47,-5.95,-5.0,0.0,-1030.73,-1453.07,0.0,137.0,0.0,41.0,0.0,0.0,0.0,0.0,0.0,0.0,0.0,0.0,0.0,0.0,0.0,0.0,0.0,0.0
32.0,2179.0,2189.949748743719,0.0,-0.0,0.0,0.0,0.0,12272.56517691946,0.0,12272.56517691946,0.0,0.0,1.0,0.44782072628860775,0.76382189239332,0.0,0.0,0.0,"[1.5493105953606268, 1.1857732808397685, 0.6310721736560438, 1.2703495724947018, 0.6883811792915857, 1.4276407040982448, 1.6729876676177469, 1.502459065239833]",21.26,0.0,0.0,1.3049487275753258,55.99725678165783,1.2247404265667894,-1331.6398028182318,-413.7450143087579,0.0,0.0,0.0,0.0,0.0,0.0,0.0,-4.8,21.088996157340453,0.0,21.23866861816167,0.0,-4.8,21.26,20.09,22.39,20.77,21.82,-5.76,-4.8,383.74,-926.25,-1305.77,2.18,0.0,0.0,41.0,0.0,0.0,0.0,0.0,0.0,0.0,0.0,0.0,0.0,0.0,0.0,0.0,0.0,0.0
33.0,1089.0,0.0,0.0,-0.0,6.684058455219355,1082.3159415447806,0.0,12517.723834766604,0.0,12517.723834766604,0.0,0.0,0.9539831657506471,0.3945991113448722,0.76382189239332,0.0,0.0,0.0,"[1.5493105953606268, 1.1857732808397685, 0.6310721736560438, 1.2703495724947018, 0.6883811792915857, 1.4276407040982448, 1.6729876676177469, 1.502459065239833]",20.45,0.0,0.0,38.98337948705481,55.99725678165783,1.2247404265667894,-1239.1714808722459,585.2067129671348,7011.190279580565,0.0,0.0,0.0,0.0,0.0,0.0,-3.8,20.756744630848985,0.0,21.08283625718711,0.0,-3.8,20.45,20.04,22.12,20.38,21.38,-4.49,-3.8,272.2,-861.93,-1215.1,65.25,0.0,0.0,41.0,0.0,0.0,0.0,0.0,0.0,0.0,0.0,0.0,0.0,0.0,0.0,0.0,0.0,0.0
34.0,3714.0,16598.91859393588,12918.376229462925,-0.0,116.45222849672467,0.0,0.0,29739.06076363672,0.0,0.0,0.0,29739.060763636713,0.9539831657506471,0.3945991113448722,0.76382189239332,0.0,0.0,0.0,"[1.5493105953606268, 1.1857732808397685, 0.6310721736560438, 1.2703495724947018, 0.6883811792915857, 1.4276407040982448, 1.6729876676177469, 1.502459065239833]",23.55,0.0,0.0,75.8324067197162,55.99725678165783,1.2247404265667894,-1341.2978303250125,-3738.9919181701407,4942.205579614425,0.0,0.0,0.0,0.0,0.0,0.0,-2.7,21.781789849537944,0.0,21.264567857347508,0.0,-2.7,23.55,20.15,22.38,22.39,23.38,-3.24,-2.7,0.0,-932.97,-1315.24,126.93,0.0,0.0,41.0,0.0,0.0,0.0,0.0,0.0,0.0,0.0,0.0,0.0,0.0,0.0,0.0,0.0,0.0
35.0,3771.0,0.0,0.0,-0.0,578.647741965856,3192.352258034144,0.0,21347.858324619476,0.0,21347.858324619472,0.0,0.0,0.8182539030791274,0.303834407583735,0.76382189239332,0.0,0.0,0.0,"[1.5493105953606268, 1.1857732808397685, 0.6310721736560438, 1.2703495724947018, 0.6883811792915857, 1.4276407040982448, 1.6729876676177469, 1.502459065239833]",23.55,0.0,0.0,116.7303877478678,55.99725678165783,1.2247404265667894,-1290.1994281230866,-3450.2272861508886,4558.7268645106315,0.0,0.0,0.0,0.0,0.0,0.0,-1.7,21.91918938535884,0.0,21.471591861307044,0.0,-1.7,23.55,20.29,22.65,22.29,23.32,-2.06,-1.7,3061.36,-897.42,-1265.14,195.39,0.0,0.0,41.0,0.0,0.0,0.0,0.0,0.0,0.0,0.0,0.0,0.0,0.0,0.0,0.0,0.0,0.0
36.0,3335.0,0.0,7348.874755432759,-0.0,822.8688731307767,9861.005882301983,0.0,18108.659384616403,0.0,0.0,0.0,18108.659384616403,0.39899344889962135,0.303834407583735,0.76382189239332,0.0,0.0,0.0,"[1.5493105953606268, 1.1857732808397685, 0.6310721736560438, 1.2703495724947018, 0.6883811792915857, 1.4276407040982448, 1.6729876676177469, 1.502459065239833]",23.55,0.0,0.0,130.14263639011762,55.99725678165783,1.2247404265667894,-1254.4305465817386,-3193.572047610709,4251.982285934187,0.0,0.0,0.0,0.0,0.0,0.0,-1.0,22.041907866599225,0.0,21.6539643341623,0.0,-1.0,23.55,20.43,22.88,22.35,23.44,-1.6,-1.0,3575.26,-872.54,-1230.06,217.84,0.0,0.0,41.0,0.0,0.0,0.0,0.0,0.0,0.0,0.0,0.0,0.0,0.0,0.0,0.0,0.0,0.0
37.0,3077.0,0.0,1646.186035263936,-0.0,236.23880367883393,4486.947231585102,0.0,4103.514351385318,0.0,0.0,0.0,4103.514351385318,0.20822188293086705,0.303834407583735,0.76382189239332,0.0,0.0,0.0,"[1.5493105953606268, 1.1857732808397685, 0.6310721736560438, 1.2703495724947018, 0.6883811792915857, 1.4276407040982448, 1.6729876676177469, 1.502459065239833]",23.55,0.0,0.0,93.1410873924757,62.82619053551855,1.3740990151724932,-1239.1010259211605,-2967.5402167498605,4043.0861286041345,0.0,0.0,0.0,0.0,0.0,0.0,-0.7,22.150281275585314,0.0,21.81291905571129,0.0,-0.7,23.55,20.55,23.07,22.41,23.54,-1.48,-0.7,3302.95,-861.88,-1215.03,155.9,0.0,0.0,46.0,0.0,0.0,0.0,0.0,0.0,0.0,0.0,0.0,0.0,0.0,0.0,0.0,0.0,0.0
38.0,5484.0,9785.625466135762,4252.925721754237,-0.0,0.2283829491556461,0.0,0.0,10358.172869703441,0.0,0.0,0.0,10358.172869703441,0.20822188293086705,0.303834407583735,0.76382189239332,0.0,0.0,0.0,"[1.5493105953606268, 1.1857732808397685, 0.6310721736560438, 1.2703495724947018, 0.6883811792915857, 1.4276407040982448, 1.6729876676177469, 1.502459065239833]",23.55,0.0,0.0,22.609595165961135,55.99725678165783,1.2247404265667894,-1269.7600672423164,-2773.564531636256,0.0,0.0,0.0,0.0,0.0,0.0,0.0,-1.3,22.244147043989255,0.0,21.948513482396308,0.0,-1.3,23.55,20.67,23.22,22.45,23.59,-2.24,-1.3,962.98,-883.21,-1245.1,37.84,0.0,0.0,41.0,0.0,0.0,0.0,0.0,0.0,0.0,0.0,0.0,0.0,0.0,0.0,0.0,0.0,0.0
39.0,3647.0,59102.89050547178,39160.376052944426,-0.0,0.0,-16000.0,0.0,13136.714859945252,0.0,-80000.0,0.0,93136.71485994526,0.8615552162642004,0.6305010742504017,0.6768552875695724,0.0,0.0,0.0,"[1.5493105953606268, 1.1857732808397685, 0.6310721736560438, 1.2703495724947018, 0.6883811792915857, 1.4276407040982448, 1.6729876676177469, 1.502459065239833]",21.65,0.0,0.0,2.5985325649799056,55.99725678165783,1.2247404265667894,-1203.24977496182,-64.6822518896141,0.0,0.0,0.0,0.0,0.0,0.0,0.0,-1.9,21.641489026866303,0.0,21.864262979104367,0.0,-1.9,21.65,20.69,23.04,21.28,22.37,-2.95,-1.9,0.0,-836.94,-1179.88,4.35,0.0,0.0,41.0,0.0,0.0,0.0,0.0,0.0,0.0,0.0,0.0,0.0,0.0,0.0,0.0,0.0,0.0
40.0,2896.0,0.0,839.982021482402,-0.0,0.0,3735.982021482402,0.0,1981.747787561831,0.0,0.0,0.0,1981.747787561831,0.7027124432419894,0.6305010742504017,0.6768552875695715,0.0,0.0,0.0,"[1.5493105953606268, 1.1857732808397685, 0.6310721736560438, 1.2703495724947018, 0.6883811792915857, 1.4276407040982448, 1.6729876676177469, 1.502459065239833]",21.07,0.0,0.0,0.0,55.99725678165783,1.2247404265667894,-1183.843048559969,587.820211303879,1002.8233187921383,0.0,0.0,0.0,0.0,0.0,0.0,-2.1,21.374534261707453,0.0,21.703714571304147,0.0,-2.1,21.07,20.65,22.76,21.0,22.01,-3.2,-2.1,363.92,-823.45,-1160.85,0.0,0.0,0.0,41.0,0.0,0.0,0.0,0.0,0.0,0.0,0.0,0.0,0.0,0.0,0.0,0.0,0.0,0.0
41.0,4636.0,0.0,1359.8871784716068,-0.0,0.0,5995.887178471607,0.0,3182.418090418379,0.0,0.0,0.0,3182.418090418379,0.44778526728656404,0.6305010742504017,0.6768552875695715,0.0,0.0,0.0,"[1.5493105953606268, 1.1857732808397685, 0.6310721736560438, 1.2703495724947018, 0.6883811792915857, 1.4276407040982448, 1.6729876676177469, 1.502459065239833]",21.29,0.0,0.0,0.0,55.99725678165783,1.2247404265667894,-1205.4414226974468,104.29694093475612,0.0,0.0,0.0,0.0,0.0,0.0,0.0,-2.3,21.365552244143235,0.0,21.582340561052362,0.0,-2.3,21.29,20.61,22.55,21.15,22.08,-3.38,-2.3,3165.6,-838.47,-1182.03,0.0,0.0,0.0,41.0,0.0,0.0,0.0,0.0,0.0,0.0,0.0,0.0,0.0,0.0,0.0,0.0,0.0,0.0
42.0,4963.0,10111.688992991954,5098.130548026994,-0.0,0.0,0.0,0.0,11833.47894419253,0.0,0.0,0.0,11833.478944192528,0.44778526728656404,0.6305010742504017,0.6768552875695715,0.0,0.0,0.0,"[1.5493105953606268, 1.1857732808397685, 0.6310721736560438, 1.2703495724947018, 0.6883811792915857, 1.4276407040982448, 1.6729876676177469, 1.502459065239833]",20.79,0.0,0.0,0.0,55.99725678165783,1.2247404265667894,-1190.0571317029458,647.1040677932754,0.0,0.0,0.0,0.0,0.0,0.0,0.0,-2.5,21.124827028229408,0.0,21.43107961876691,0.0,-2.5,20.79,20.56,22.31,20.8,21.65,-3.7,-2.5,2747.1,-827.77,-1166.94,0.0,0.0,0.0,41.0,0.0,0.0,0.0,0.0,0.0,0.0,0.0,0.0,0.0,0.0,0.0,0.0,0.0,0.0
43.0,8000.0,0.0,0.0,-0.0,0.0,8000.0,0.0,9320.088403149864,0.0,9320.088403149863,0.0,0.0,0.10764921286479534,0.5908748480465332,0.6685064935064917,0.0,0.0,0.0,"[1.5493105953606268, 1.1857732808397685, 0.6310721736560438, 1.2703495724947018, 0.6883811792915857, 1.4276407040982448, 1.6729876676177469, 1.502459065239833]",20.56,0.0,0.0,0.0,55.99725678165783,1.2247404265667894,-1188.3626017994882,779.1628971955653,131.88543868058736,0.0,0.0,0.0,0.0,0.0,0.0,-2.7,20.955044120203432,0.0,21.27043525018592,0.0,-2.7,20.56,20.48,22.06,20.65,21.42,-3.93,-2.7,0.0,-826.59,-1165.28,0.0,0.0,0.0,41.0,0.0,0.0,0.0,0.0,0.0,0.0,0.0,0.0,0.0,0.0,0.0,0.0,0.0,0.0
44.0,6423.0,9951.604278078918,3478.8462566885228,-0.0,0.0,0.0,0.0,7942.232433000674,0.0,0.0,0.0,7942.232433000674,0.10764921286479534,0.557106853008265,0.6685064935064917,0.0,0.0,0.0,"[1.5493105953606268, 0.48122259587765015, 0.5678785200000931, 1.2703495724947018, 0.6486182442156974, 1.4276407040982448, 1.6729876676177469, 0.7682385991388436]",20.45,0.0,0.0,0.0,55.99725678165783,1.2247404265667894,-1193.1829188905124,732.6820999116694,2176.480379412653,0.0,0.0,0.0,0.0,0.0,0.0,-2.9,20.827097337552427,0.0,21.118789310563372,0.0,-2.9,20.45,20.41,21.83,20.56,21.26,-4.06,-2.9,0.0,-829.94,-1170.01,0.0,0.0,0.0,41.0,0.0,0.0,0.0,0.0,0.0,0.0,0.0,0.0,0.0,0.0,0.0,0.0,0.0,0.0
45.0,6518.0,6550.753768844221,0.0,-0.0,0.0,0.0,0.0,5275.712663076766,0.0,5275.712663076766,0.0,0.0,0.10764921286479534,0.5346761018897414,0.6302411873840428,0.0,0.0,0.0,"[1.5493105953606268, 0.48122259587765015, 0.5678785200000931, 1.2703495724947018, 0.6486182442156974, 1.4276407040982448, 1.6729876676177469, 0.7682385991388436]",21.3,0.0,0.0,0.0,55.99725678165783,1.2247404265667894,-1246.8891833363696,-583.4076042486425,0.0,0.0,0.0,0.0,0.0,0.0,0.0,-3.1,21.047529024579703,0.0,21.076054946848274,0.0,-3.1,21.3,20.38,21.77,21.08,21.74,-4.27,-3.1,1609.95,-867.3,-1222.67,0.0,0.0,0.0,41.0,0.0,0.0,0.0,0.0,0.0,0.0,0.0,0.0,0.0,0.0,0.0,0.0,0.0,0.0
46.0,4085.0,18199.414935380788,0.0,-0.0,0.0,-14023.417860703887,0.0,10178.072579927984,0.0,10178.072579927984,0.0,0.0,0.6802721088435374,0.49140198377780264,0.6302411873840428,0.0,0.0,0.0,"[1.5493105953606268, 0.48122259587765015, 0.5678785200000931, 1.2703495724947018, 0.6486182442156974, 1.4276407040982448, 1.6729876676177469, 0.7682385991388436]",20.45,0.0,0.0,0.0,55.99725678165783,1.2247404265667894,-1213.6222797712828,520.4438619703475,636.0198042253397,0.0,0.0,0.0,0.0,0.0,0.0,-3.3,20.725719268389902,0.0,20.963479972380206,0.0,-3.3,20.45,20.32,21.61,20.48,21.11,-4.55,-3.3,1324.12,-844.16,-1190.05,0.0,0.0,0.0,41.0,0.0,0.0,0.0,0.0,0.0,0.0,0.0,0.0,0.0,0.0,0.0,0.0,0.0,0.0
47.0,1497.0,2763.8525216776934,13809.017259069306,-0.0,0.0,16000.0,0.0,17091.799313537518,17220.08,0.0,0.0,30867.86331353752,0.0,0.49140198377780264,0.6302411873840428,13776.064000000002,3444.0160000000005,17220.08,"[1.5493105953606268, 0.48122259587765015, 0.5678785200000931, 1.2703495724947018, 0.6486182442156974, 1.4276407040982448, 1.6729876676177469, 0.7682385991388436]",20.45,0.0,0.0,0.0,57.363043532429984,1.25461214428793,-1218.7321199914754,369.8464605401759,7246.326558515199,0.0,0.0,0.0,0.0,0.0,0.0,-3.4,20.65353008093651,0.0,20.853608756793307,0.0,-3.4,20.45,20.25,21.46,20.5,21.09,-4.64,-3.4,177.9,-847.71,-1195.06,0.0,0.0,0.0,42.0,0.0,0.0,0.0,0.0,0.0,0.0,0.0,0.0,0.0,0.0,0.0,0.0,0.0,0.0
48.0,1389.0,20420.43214980924,10306.942212790242,-0.0,0.0,-8622.38777626995,0.0,21860.42023994238,0.0,0.0,0.0,21860.42023994238,0.35208083419768965,0.49140198377780264,0.6177179962894231,0.0,0.0,0.0,"[1.5493105953606268, 0.48122259587765015, 0.5678785200000931, 1.2703495724947018, 0.6486182442156974, 1.4276407040982448, 1.6729876676177469, 0.7682385991388436]",23.55,0.0,0.0,0.0,289.6905581900912,28.975566189506978,-1438.3847945086716,-3909.4605136732,5030.678747793621,0.0,0.0,0.0,0.0,0.0,0.0,-4.6,21.702554691480028,0.0,21.0812666885515,0.0,-4.6,23.55,20.34,21.82,22.45,23.08,-5.8,-4.6,2494.63,-1000.5,-1410.45,0.0,80.0,0.0,170.0,0.0,0.0,0.0,0.0,0.0,0.0,0.0,0.0,0.0,0.0,0.0,0.0,0.0,0.0
49.0,3841.0,0.0,4373.80568245738,-0.0,0.0,8214.80568245738,0.0,8776.22347774939,0.0,0.0,0.0,8776.22347774939,0.0028118851136174072,0.49140198377780264,0.6177179962894231,0.0,0.0,0.0,"[1.5493105953606268, 0.48122259587765015, 0.5678785200000931, 1.2703495724947018, 0.6486182442156974, 1.4276407040982448, 1.6729876676177469, 0.7682385991388436]",23.55,0.0,0.0,0.0,222.76700740225624,27.51185202117106,-1499.7028771509827,-3598.3042923977127,0.0,0.0,0.0,0.0,0.0,0.0,0.0,-5.8,21.853095996615995,0.0,21.317303935882336,0.0,-5.8,23.55,20.45,22.18,22.34,23.05,-6.99,-5.8,2133.34,-1043.15,-1470.57,0.0,80.0,0.0,121.0,0.0,0.0,0.0,0.0,0.0,0.0,0.0,0.0,0.0,0.0,0.0,0.0,0.0,0.0
50.0,1671.0,32044.059116879733,14212.838821295332,-0.0,0.0,-16000.0,0.0,26892.70948117793,0.0,0.0,0.0,26892.70948117793,0.6561452184469507,0.49140198377780264,0.6177179962894231,0.0,0.0,0.0,"[1.5493105953606268, 0.48122259587765015, 0.5678785200000931, 1.2703495724947018, 0.6486182442156974, 1.4276407040982448, 1.6729876676177469, 0.7682385991388436]",21.22,0.0,0.0,0.0,207.7433531437627,27.1832631262385,-1442.0944913201834,-215.96244396970877,6273.689249421615,0.0,0.0,0.0,0.0,0.0,0.0,-7.0,21.14801179386355,0.0,21.27789828262538,0.0,-7.0,21.22,20.44,22.12,20.9,21.67,-8.25,-7.0,633.38,-1003.08,-1414.08,0.0,80.0,0.0,110.0,0.0,0.0,0.0,0.0,0.0,0.0,0.0,0.0,0.0,0.0,0.0,0.0,0.0,0.0
51.0,780.0,0.0,0.0,-0.0,0.0,780.0,0.0,8657.674362050568,0.0,8657.674362050568,0.0,0.0,0.6229819531408283,0.45459214380309787,0.6177179962894231,0.0,0.0,0.0,"[1.5493105953606268, 0.48122259587765015, 0.5678785200000931, 1.2703495724947018, 0.6486182442156974, 1.4276407040982448, 1.6729876676177469, 0.7682385991388436]",23.55,0.0,0.0,0.0,210.61869367170405,27.78069748066133,-1591.6800011144492,-3425.4828248133194,1327.5380259577257,0.0,0.0,0.0,0.0,0.0,0.0,-7.6,21.937946477718782,0.0,21.45063122462687,0.0,-7.6,23.55,20.52,22.38,22.51,23.32,-8.87,-7.6,1839.65,-1107.12,-1560.76,0.0,80.0,1.0,112.0,0.0,0.0,0.0,0.0,0.0,0.0,0.0,0.0,0.0,0.0,0.0,0.0,0.0,0.0
52.0,1315.0,18653.799736831716,17245.530738147558,-0.0,0.0,0.0,0.0,30493.703093892127,0.0,0.0,0.0,30493.703093892123,0.6229819531408283,0.45459214380309787,0.6177179962894231,0.0,0.0,0.0,"[1.5493105953606268, 0.48122259587765015, 0.5678785200000931, 1.2703495724947018, 0.6486182442156974, 1.4276407040982448, 1.6729876676177469, 0.7682385991388436]",21.89,0.0,0.0,0.0,1033.9724538477103,50.06499890063268,-1542.7715982406598,-965.6140753397857,4879.602355177058,0.0,0.0,0.0,0.0,0.0,0.0,-8.3,21.460516737686454,0.0,21.460719791125406,0.0,-8.3,21.89,20.53,22.39,21.37,22.22,-9.61,-8.3,0.0,-1073.11,-1512.8,0.0,80.0,9.0,714.0,0.0,0.0,0.0,0.0,0.0,0.0,0.0,0.0,0.0,0.0,0.0,0.0,0.0,0.0
53.0,2275.0,10206.845816227173,7880.811587146035,-0.0,0.0,0.0,0.0,13484.141001213495,0.0,0.0,0.0,13484.141001213497,0.6229819531408283,0.45459214380309787,0.617717996289423,0.0,0.0,0.0,"[1.5493105953606268, 0.48122259587765015, 0.5678785200000931, 1.2703495724947018, 0.6486182442156974, 1.4276407040982448, 1.6729876676177469, 0.7682385991388436]",23.55,0.0,0.0,0.0,2188.5654428425596,92.42309462921094,-1658.1079239769533,-3233.586878402979,0.0,0.0,0.0,0.0,0.0,0.0,0.0,-8.9,22.031449201329615,0.0,21.595899343799026,0.0,-8.9,23.55,20.59,22.6,22.44,23.3,-10.26,-8.9,868.68,-1153.33,-1625.9,0.0,80.0,41.0,1556.0,0.0,0.0,0.0,0.0,0.0,0.0,0.0,0.0,0.0,0.0,0.0,0.0,0.0,0.0
54.0,2435.0,0.0,7859.064907144709,-0.0,0.0,10294.064907144708,0.0,13072.317843953344,0.0,0.0,0.0,13072.317843953344,0.18530912545610434,0.45459214380309787,0.617717996289423,0.0,0.0,0.0,"[1.5493105953606268, 0.48122259587765015, 0.5678785200000931, 1.2703495724947018, 0.6486182442156974, 1.4276407040982448, 1.6729876676177469, 0.7682385991388436]",22.29,0.0,0.0,0.0,760.5275696404876,116.49969911245073,-1619.5117010936044,-1402.3047073478137,0.0,0.0,0.0,0.0,0.0,0.0,0.0,-9.4,21.65430470709292,0.0,21.57793933886016,0.0,-9.4,22.29,20.6,22.56,21.47,22.32,-10.77,-9.4,724.28,-1126.48,-1588.05,0.0,147.0,109.0,468.0,0.0,0.0,0.0,0.0,0.0,0.0,0.0,0.0,0.0,0.0,0.0,0.0,0.0,0.0
55.0,1396.0,5378.367901720631,3955.476062212028,-0.0,0.0,0.0,0.0,6390.768196759382,0.0,0.0,0.0,6390.768196759381,0.18530912545610434,0.45459214380309787,0.617717996289423,0.0,0.0,0.0,"[1.5493105953606268, 0.48122259587765015, 0.5678785200000931, 1.2703495724947018, 0.6486182442156974, 1.4276407040982448, 1.6729876676177469, 0.7682385991388436]",21.26,0.0,0.0,0.0,323.40392588020364,93.22963100768172,-1592.3116338719099,-15.809164792436315,505.1131958969958,0.0,0.0,0.0,0.0,0.0,0.0,-9.9,21.286956448678108,0.0,21.475150106988792,0.0,-9.9,21.26,20.55,22.4,21.03,21.9,-11.3,-9.9,1911.56,-1107.56,-1561.38,0.0,108.0,104.0,169.0,0.0,0.0,0.0,0.0,0.0,0.0,0.0,0.0,0.0,0.0,0.0,0.0,0.0,0.0
56.0,1400.0,14925.631559055084,2958.470630727574,-0.0,0.0,-10492.532770532236,0.0,4836.338351571552,0.0,0.0,0.0,4836.338351571552,0.4284450881300663,0.45459214380309787,0.617717996289423,0.0,0.0,0.0,"[1.5493105953606232, 0.48122259587765015, 0.5678785200000931, 1.2703495724947054, 0.6486182442156974, 1.416895684249507, 1.1341229014715744, 0.7682385991388436]",20.93,0.0,0.0,5.341931356908242,178.9180643511506,85.1642672229736,-1565.1401552878972,301.2742456722556,0.0,0.0,0.0,0.0,0.0,0.0,0.0,-9.7,21.106872456792033,0.0,21.346855388846947,0.0,-9.7,20.93,20.48,22.22,20.89,21.73,-11.11,-9.7,1271.86,-1088.66,-1534.74,8.94,136.0,80.0,51.0,0.0,0.0,0.0,0.0,0.0,0.0,0.0,0.0,0.0,0.0,0.0,0.0,0.0,0.0
57.0,4467.0,0.0,3726.6907615132295,-0.0,8193.69076151323,0.0,0.0,6944.845105337783,0.0,0.0,0.0,6944.845105337783,0.4284450881300663,0.45459214380309787,0.617717996289423,0.0,0.0,0.0,"[1.5493105953606232, 0.48122259587765015, 0.5678785200000931, 1.2703495724947054, 0.6486182442156974, 1.416895684249507, 1.1341229014715744, 0.7682385991388436]",20.45,0.0,0.0,980.6054227836054,269.6350580077003,72.55840234465201,-1418.0158885789865,798.1365433025514,0.0,0.0,0.0,0.0,0.0,0.0,0.0,-7.3,20.861879982465638,0.0,21.185597164079663,0.0,-7.3,20.45,20.38,21.99,20.58,21.37,-7.4,-7.3,437.44,-986.33,-1390.47,1641.36,143.0,49.0,117.0,0.0,0.0,0.0,0.0,0.0,0.0,0.0,0.0,0.0,0.0,0.0,0.0,0.0,0.0
58.0,4218.0,0.0,0.0,-0.0,14126.929203394691,-9908.929203394691,0.0,2331.5341922961024,0.0,2331.5341922961024,0.0,0.0,0.8330596972686829,0.44467915829163485,0.617717996289423,0.0,0.0,0.0,"[1.5493105953606232, 0.48122259587765015, 0.5678785200000931, 1.2703495724947054, 0.6486182442156974, 1.416895684249507, 1.1341229014715744, 0.7682385991388436]",20.81,0.0,0.0,1350.2030424931124,535.0289887366872,63.23842641565595,-1329.2811062839924,205.90904176137565,0.0,0.0,0.0,0.0,0.0,0.0,0.0,-5.2,20.93865571031507,0.0,21.146492055455216,0.0,-5.2,20.81,20.33,21.96,20.88,21.94,-4.63,-5.2,0.0,-924.61,-1303.46,2260.0,150.0,17.0,311.0,0.0,0.0,0.0,0.0,0.0,0.0,0.0,0.0,0.0,0.0,0.0,0.0,0.0,0.0
59.0,6373.0,0.0,7273.996830425887,-0.0,17735.330774866306,-4088.333944440419,0.0,16259.863804372162,0.0,0.0,0.0,16259.86380437216,1.0,0.44467915829163485,0.617717996289423,0.0,0.0,0.0,"[1.5493105953606232, 0.48122259587765015, 0.5678785200000931, 1.2703495724947054, 0.6486182442156974, 1.416895684249507, 1.1341229014715744, 0.7682385991388436]",21.25,0.0,0.0,1667.7316104441838,1833.3890041286043,70.94532958771039,-1259.4208467662972,-388.7070383900668,2777.8426501650465,0.0,0.0,0.0,0.0,0.0,0.0,-3.4,21.084096814098995,0.0,21.18270609180392,0.0,-3.4,21.25,20.32,22.05,21.12,22.31,-2.22,-3.4,1153.89,-876.02,-1234.96,2791.49,109.0,0.0,1285.0,0.0,0.0,0.0,0.0,0.0,0.0,0.0,0.0,0.0,0.0,0.0,0.0,0.0,0.0
60.0,5369.0,0.0,17781.12519658256,-0.0,18299.030672620345,4851.094523962215,0.0,6173.113329426094,0.0,-35268.89519509026,0.0,41442.00852451636,0.7937459811240555,0.5886938136715868,0.617717996289423,0.0,0.0,0.0,"[1.5493105953606232, 0.48122259587765015, 0.5678785200000931, 1.2703495724947054, 0.6486182442156974, 1.416895684249507, 1.1341229014715744, 0.7682385991388436]",23.55,0.0,0.0,1717.5027900914615,772.028931752253,51.97678883478573,-1325.9683096644344,-3438.01579558023,0.0,0.0,0.0,0.0,0.0,0.0,0.0,-2.4,21.92408257083719,0.0,21.448864515328424,0.0,-2.4,23.55,20.42,22.48,22.46,23.79,-1.1,-2.4,0.0,-922.3,-1300.21,2874.8,124.0,0.0,500.0,0.0,0.0,0.0,0.0,0.0,0.0,0.0,0.0,0.0,0.0,0.0,0.0,0.0,0.0
61.0,6009.0,0.0,5111.909843877565,-0.0,16172.028673492534,-5051.1188296149685,0.0,12060.396251626378,0.0,0.0,0.0,12060.396251626378,1.0,0.5886938136715868,0.6031076066790334,0.0,0.0,0.0,"[1.5493105953606232, 0.48122259587765015, 0.5678785200000931, 1.2703495724947054, 0.6486182442156974, 1.416895684249507, 1.1341229014715744, 0.7682385991388436]",22.53,0.0,0.0,1562.0158954607466,612.3756489383094,44.24001394501014,-1258.5622400886728,-1686.2586282023788,2756.645604694712,0.0,0.0,0.0,0.0,0.0,0.0,-2.1,21.744589827695222,0.0,21.635328022414125,0.0,-2.1,22.53,20.51,22.76,21.85,23.33,-1.0,-2.1,0.0,-875.42,-1234.12,2614.54,109.0,0.0,391.0,0.0,0.0,0.0,0.0,0.0,0.0,0.0,0.0,0.0,0.0,0.0,0.0,0.0,0.0
62.0,5583.0,0.0,3456.8681444236317,-0.0,9039.868144423632,0.0,0.0,7925.0116206229395,0.0,0.0,0.0,7925.0116206229395,1.0,0.5886938136715868,0.6031076066790334,0.0,0.0,0.0,"[1.5493105953606232, 0.48122259587765015, 0.5678785200000931, 1.2703495724947054, 0.6486182442156974, 1.416895684249507, 1.1341229014715744, 0.7682385991388436]",23.55,0.0,0.0,896.5068053030891,726.3110173579855,65.00085776120328,-1346.4076705452046,-2872.616533681335,0.0,0.0,0.0,0.0,0.0,0.0,0.0,-2.8,22.19711511747701,0.0,21.87572078936353,0.0,-2.8,23.55,20.64,23.12,22.6,24.11,-2.75,-2.8,1287.26,-936.52,-1320.26,1500.59,166.0,4.0,444.0,0.0,0.0,0.0,0.0,0.0,0.0,0.0,0.0,0.0,0.0,0.0,0.0,0.0,0.0
63.0,3114.0,7835.806765516908,4682.627731689324,-0.0,0.0,0.0,0.0,10020.86077749514,0.0,0.0,0.0,10020.86077749514,1.0,0.5886938136715868,0.6031076066790334,0.0,0.0,0.0,"[1.5493105953606232, 0.48122259587765015, 0.5678785200000931, 1.2703495724947054, 0.6486182442156974, 1.416895684249507, 1.1341229014715744, 0.7682385991388436]",22.36,0.0,0.0,18.10020184260616,463.1454755381532,57.2640828714277,-1367.4115327895088,-1053.7896470673584,4361.6134216387,0.0,0.0,0.0,0.0,0.0,0.0,-4.4,21.883101265082566,0.0,21.92164039774522,0.0,-4.4,22.36,20.69,23.15,21.78,23.1,-5.89,-4.4,1586.09,-951.13,-1340.85,30.3,108.0,31.0,279.0,0.0,0.0,0.0,0.0,0.0,0.0,0.0,0.0,0.0,0.0,0.0,0.0,0.0,0.0
64.0,3901.0,10978.387982815015,7022.496042900939,-0.0,0.0,0.0,0.0,14559.564398497609,0.0,0.0,0.0,14559.564398497609,1.0,0.5886938136715868,0.5912801484230037,0.0,0.0,0.0,"[1.5493105953606232, 0.48122259587765015, 0.5678785200000931, 1.2703495724947054, 0.6486182442156974, 1.416895684249507, 1.1341229014715744, 0.7682385991388436]",23.55,0.0,0.0,0.0,502.3219902313541,76.2326236243524,-1463.9339956096346,-2680.1639621389754,0.0,0.0,0.0,0.0,0.0,0.0,0.0,-5.1,22.293457919398286,0.0,22.012023548592808,0.0,-5.1,23.55,20.77,23.25,22.54,23.64,-6.68,-5.1,1381.77,-1018.27,-1435.5,0.0,138.0,49.0,290.0,0.0,0.0,0.0,0.0,0.0,0.0,0.0,0.0,0.0,0.0,0.0,0.0,0.0,0.0
65.0,3259.0,0.0,149.60453864208918,-0.0,0.0,3408.604538642089,0.0,298.76151891234554,0.0,0.0,0.0,298.76151891234554,0.8550763376427684,0.5886938136715868,0.5912801484230037,0.0,0.0,0.0,"[1.5493105953606232, 0.48122259587765015, 0.5678785200000931, 1.2703495724947054, 0.6486182442156974, 1.416895684249507, 1.1341229014715744, 0.7682385991388436]",21.84,0.0,0.0,0.0,429.8634089272321,89.01771880900083,-1417.2702643140371,-251.55356541677924,0.0,0.0,0.0,0.0,0.0,0.0,0.0,-5.9,21.744910911374927,0.0,21.92944560165487,0.0,-5.9,21.84,20.77,23.09,21.42,22.49,-7.43,-5.9,0.0,-985.81,-1389.74,0.0,117.0,87.0,244.0,0.0,0.0,0.0,0.0,0.0,0.0,0.0,0.0,0.0,0.0,0.0,0.0,0.0,0.0
66.0,7532.0,5755.231163092011,5221.250468634465,-0.0,0.0,7026.795461357913,0.0,10028.67472986761,0.0,0.0,0.0,10028.67472986761,0.5563180272108843,0.5886938136715868,0.5912801484230037,0.0,0.0,0.0,"[1.5493105953606232, 0.48122259587765015, 0.5678785200000931, 1.2703495724947054, 0.6486182442156974, 1.416895684249507, 1.1341229014715744, 0.7682385991388436]",21.28,0.0,0.0,0.0,1415.458258392329,95.85834216714217,-1429.8334157852848,371.9027239164775,0.0,0.0,0.0,0.0,0.0,0.0,0.0,-6.7,21.49020673848408,0.0,21.779244984028942,0.0,-6.7,21.28,20.72,22.84,21.16,22.16,-8.18,-6.7,0.0,-994.55,-1402.06,0.0,82.0,78.0,985.0,0.0,0.0,0.0,0.0,0.0,0.0,0.0,0.0,0.0,0.0,0.0,0.0,0.0,0.0
67.0,4931.0,0.0,0.0,-0.0,0.0,4931.0,0.0,3636.910834167857,0.0,3636.910834167857,0.0,0.0,0.3466666666666667,0.5732307574038663,0.5912801484230037,0.0,0.0,0.0,"[1.5493105953606232, 0.48122259587765015, 0.5678785200000931, 1.2703495724947054, 0.6486182442156974, 1.416895684249507, 1.1341229014715744, 0.7682385991388436]",21.5,0.0,0.0,0.0,967.8396217050591,102.63922208984121,-1476.60001360613,-128.5723385989834,201.04213633758994,0.0,0.0,0.0,0.0,0.0,0.0,-7.4,21.46616245614111,0.0,21.640185121368198,0.0,-7.4,21.5,20.66,22.62,21.2,22.1,-8.9,-7.4,0.0,-1027.08,-1447.92,0.0,133.0,82.0,630.0,0.0,0.0,0.0,0.0,0.0,0.0,0.0,0.0,0.0,0.0,0.0,0.0,0.0,0.0
68.0,8003.0,13120.855522969847,0.0,-0.0,0.0,-5052.251245354996,0.0,3667.331157233076,0.0,3667.331157233076,0.0,0.0,0.5529669258519957,0.5576383630278754,0.5912801484230037,0.0,0.0,0.0,"[0.6896179537375708, 0.48122259587765015, 0.5678785200000931, 0.2317419425110394, 0.39328577766764283, 1.1767482315166156, 0.6190497517553091, 0.7290473034938145]",21.33,0.0,0.0,0.0,1402.4473425033946,110.82407274543394,-1509.1655913735426,-48.61339333492996,0.0,0.0,0.0,0.0,0.0,0.0,0.0,-8.2,21.342472470112416,0.0,21.520148965948763,0.0,-8.2,21.33,20.61,22.43,21.11,21.96,-9.68,-8.2,0.0,-1049.73,-1479.85,0.0,151.0,70.0,940.0,0.0,0.0,0.0,0.0,0.0,0.0,0.0,0.0,0.0,0.0,0.0,0.0,0.0,0.0
69.0,6972.0,0.0,6033.782096038941,-0.0,0.0,13005.78209603894,0.0,10323.856579224544,0.0,0.0,0.0,10323.856579224543,0.0,0.5576383630278754,0.5912801484230037,0.0,0.0,0.0,"[0.6896179537375708, 0.48122259587765015, 0.5678785200000931, 0.2317419425110394, 0.39328577766764283, 1.1767482315166156, 0.6190497517553091, 0.7290473034938145]",21.31,0.0,0.0,0.0,1323.2317109586102,103.11716957337947,-1543.702252473759,-173.30190131280227,3169.6371675669066,0.0,0.0,0.0,0.0,0.0,0.0,-8.9,21.25915588708203,0.0,21.40145385509106,0.0,-8.9,21.31,20.55,22.25,21.04,21.82,-10.34,-8.9,1524.03,-1073.75,-1513.72,0.0,162.0,53.0,878.0,0.0,0.0,0.0,0.0,0.0,0.0,0.0,0.0,0.0,0.0,0.0,0.0,0.0,0.0
70.0,3458.0,21407.83324322478,9352.99815864131,-0.0,0.0,-8489.795918367347,0.0,15289.745731121438,0.0,0.0,0.0,15289.745731121438,0.3466666666666667,0.5576383630278754,0.5871057513914635,0.0,0.0,0.0,"[0.6896179537375708, 0.48122259587765015, 0.5678785200000931, 0.2317419425110394, 0.39328577766764283, 1.1767482315166156, 0.6190497517553091, 0.7290473034938145]",22.69,0.0,0.0,0.0,948.9342577338446,74.05198823070909,-1655.0577253668027,-2157.0836789259174,2792.987549188535,0.0,0.0,0.0,0.0,0.0,0.0,-9.7,21.688461217886495,0.0,21.444306324927805,0.0,-9.7,22.69,20.56,22.33,21.9,22.68,-11.14,-9.7,0.0,-1151.21,-1622.91,0.0,92.0,51.0,641.0,0.0,0.0,0.0,0.0,0.0,0.0,0.0,0.0,0.0,0.0,0.0,0.0,0.0,0.0
71.0,1765.0,17854.27135678392,0.0,-0.0,0.0,-16000.0,0.0,23833.274938751805,0.0,23833.2749387518,0.0,0.0,1.0,0.45630641175767217,0.5738868274582538,0.0,0.0,0.0,"[0.6896179537375708, 0.48122259587765015, 0.5678785200000931, 0.2317419425110394, 0.39328577766764283, 1.1767482315166156, 0.6190497517553091, 0.7290473034938145]",22.69,0.0,0.0,0.0,504.3347286009132,55.680881832207234,-1690.826606908151,-2074.0430000663237,334.09033127850785,0.0,0.0,0.0,0.0,0.0,0.0,-10.4,21.729013031842587,0.0,21.509234525179355,0.0,-10.4,22.69,20.58,22.44,21.88,22.69,-11.83,-10.4,2080.5,-1176.09,-1657.98,0.0,103.0,29.0,312.0,0.0,0.0,0.0,0.0,0.0,0.0,0.0,0.0,0.0,0.0,0.0,0.0,0.0,0.0
72.0,2020.0,2030.1507537688442,0.0,-0.0,0.0,0.0,0.0,18776.890922629387,0.0,18776.890922629387,0.0,0.0,1.0,0.3764726918485336,0.5738868274582538,0.0,0.0,0.0,"[0.6896179537375708, 0.48122259587765015, 0.5678785200000931, 0.2317419425110394, 0.39328577766764283, 1.1767482315166156, 0.6190497517553091, 0.7290473034938145]",21.31,0.0,0.0,0.0,159.22198173475238,43.76206646147188,-1645.899056877611,-144.6542914189216,4463.4794071438855,0.0,0.0,0.0,0.0,0.0,0.0,-10.9,21.274982765776063,0.0,21.431159033231516,0.0,-10.9,21.31,20.54,22.32,21.05,21.88,-12.4,-10.9,2188.25,-1144.84,-1613.93,0.0,80.0,33.0,71.0,0.0,0.0,0.0,0.0,0.0,0.0,0.0,0.0,0.0,0.0,0.0,0.0,0.0,0.0
73.0,1157.0,1162.8140703517588,0.0,-0.0,0.0,0.0,0.0,18827.424095082286,0.0,18827.424095082286,0.0,0.0,1.0,0.29642412001570073,0.5738868274582538,0.0,0.0,0.0,"[0.6896179537375708, 0.48122259587765015, 0.5678785200000931, 0.2317419425110394, 0.39328577766764283, 1.1767482315166156, 0.6190497517553091, 0.7290473034938145]",22.69,0.0,0.0,0.0,190.99449456850425,50.87153527910348,-1747.0348493302722,-2102.1227686215,3609.9243277713363,0.0,0.0,0.0,0.0,0.0,0.0,-11.5,21.716736868667066,0.0,21.494501895746183,0.0,-11.5,22.69,20.55,22.43,22.02,22.87,-13.02,-11.5,2216.95,-1215.18,-1713.1,0.0,80.0,45.0,93.0,0.0,0.0,0.0,0.0,0.0,0.0,0.0,0.0,0.0,0.0,0.0,0.0,0.0,0.0
74.0,988.0,0.0,13583.713201760513,-0.0,0.0,14571.713201760513,0.0,18968.43371918307,0.0,0.0,0.0,18968.43371918307,0.3804543706734477,0.29642412001570073,0.5738868274582538,0.0,0.0,0.0,"[0.6896179537375708, 0.48122259587765015, 0.5678785200000931, 0.2317419425110394, 0.39328577766764283, 1.1767482315166156, 0.6190497517553091, 0.7290473034938145]",22.69,0.0,0.0,0.0,342.0217557986238,41.88014824503998,-1782.8037308716175,-2008.1071882150989,3409.176426090346,0.0,0.0,0.0,0.0,0.0,0.0,-12.2,21.76261457824598,0.0,21.56821748630566,0.0,-12.2,22.69,20.58,22.55,21.96,22.85,-13.77,-12.2,658.88,-1240.06,-1748.17,0.0,80.0,22.0,206.0,0.0,0.0,0.0,0.0,0.0,0.0,0.0,0.0,0.0,0.0,0.0,0.0,0.0,0.0
75.0,852.0,17554.50969439524,13926.083434885095,-0.0,0.0,-2688.6537110381682,0.0,18915.476447228448,0.0,0.0,0.0,18915.47644722845,0.4902410638741729,0.29642412001570073,0.5738868274582538,0.0,0.0,0.0,"[0.6896179537375708, 0.48122259587765015, 0.5678785200000931, 0.2317419425110394, 0.39328577766764283, 1.1767482315166156, 0.6190497517553091, 0.7290473034938145]",22.69,0.0,0.0,0.0,133.9189850888685,30.379536922400614,-1803.2430917523877,-1934.1897467032252,3574.706539721876,0.0,0.0,0.0,0.0,0.0,0.0,-12.6,21.798486872185915,0.0,21.62583551037087,0.0,-12.6,22.69,20.6,22.65,21.96,22.88,-14.16,-12.6,1219.75,-1254.28,-1768.22,0.0,80.0,9.0,55.0,0.0,0.0,0.0,0.0,0.0,0.0,0.0,0.0,0.0,0.0,0.0,0.0,0.0,0.0
76.0,614.0,617.0854271356784,0.0,-0.0,0.0,0.0,0.0,13452.964277807052,0.0,13452.964277807052,0.0,0.0,0.4902410638741729,0.2392261426440721,0.5738868274582538,0.0,0.0,0.0,"[0.6896179537375708, 0.48122259587765015, 0.5678785200000931, 0.2317419425110394, 0.39328577766764283, 1.1767482315166156, 0.6190497517553091, 0.7290473034938145]",22.69,0.0,0.0,0.0,86.5477498910347,41.103483584290316,-1823.6824526331582,-1865.30411015843,689.8172442309808,0.0,0.0,0.0,0.0,0.0,0.0,-13.0,21.83194420597056,0.0,21.679341580940346,0.0,-13.0,22.69,20.62,22.73,21.99,22.94,-14.55,-13.0,1547.85,-1268.5,-1788.26,0.0,80.0,31.0,18.0,0.0,0.0,0.0,0.0,0.0,0.0,0.0,0.0,0.0,0.0,0.0,0.0,0.0,0.0
77.0,2054.0,0.0,9476.469822320547,-0.0,0.0,11530.469822320547,0.0,12148.932619384092,0.0,0.0,0.0,12148.93261938409,0.0,0.2392261426440721,0.5738868274582538,0.0,0.0,0.0,"[0.6896179537375708, 0.48122259587765015, 0.5678785200000931, 0.2317419425110394, 0.39328577766764283, 1.1767482315166156, 0.6190497517553091, 0.7290473034938145]",21.31,0.0,0.0,0.0,653.5649020010693,59.38497482962873,-1773.6450623824257,40.76623703414716,1023.0022817287158,0.0,0.0,0.0,0.0,0.0,0.0,-13.4,21.366577965659225,0.0,21.58299440614985,0.0,-13.4,21.31,20.57,22.59,21.12,22.08,-14.97,-13.4,1428.37,-1233.69,-1739.19,0.0,80.0,42.0,432.0,0.0,0.0,0.0,0.0,0.0,0.0,0.0,0.0,0.0,0.0,0.0,0.0,0.0,0.0
78.0,3311.0,35339.43202930545,15851.73486915892,-0.0,0.0,-16000.0,0.0,19717.610732408582,0.0,0.0,0.0,19717.610732408582,0.6533333333333333,0.2392261426440721,0.5738868274582538,0.0,0.0,0.0,"[0.6896179537375708, 0.48122259587765015, 0.5678785200000931, 0.2317419425110394, 0.39328577766764283, 1.1767482315166156, 0.6190497517553091, 0.7290473034938145]",21.31,0.0,0.0,0.0,308.38027162170994,90.51130469505789,-1794.084423263196,-119.91542771211823,1519.7924797036953,0.0,0.0,0.0,0.0,0.0,0.0,-13.8,21.289852415357938,0.0,21.465288236772352,0.0,-13.8,21.31,20.51,22.43,21.11,22.02,-15.36,-13.8,856.84,-1247.91,-1759.24,0.0,160.0,72.0,134.0,0.0,0.0,0.0,0.0,0.0,0.0,0.0,0.0,0.0,0.0,0.0,0.0,0.0,0.0
79.0,1112.0,0.0,11775.196692775407,-0.0,0.0,12887.196692775407,0.0,14310.12836771254,0.0,0.0,0.0,14310.12836771254,0.10540830387859668,0.2392261426440721,0.5738868274582538,0.0,0.0,0.0,"[0.6896179537375708, 0.48122259587765015, 0.5678785200000931, 0.2317419425110394, 0.39328577766764283, 1.1767482315166156, 0.6190497517553091, 0.7290473034938145]",21.31,0.0,0.0,0.0,175.75518977041511,98.42730989116032,-1809.4139439237738,-245.82844061706098,1786.1537646230813,0.0,0.0,0.0,0.0,0.0,0.0,-14.1,21.22975206018083,0.0,21.37481077673623,0.0,-14.1,21.31,20.44,22.31,21.13,22.01,-15.69,-14.1,1520.24,-1258.57,-1774.27,0.0,117.0,115.0,55.0,0.0,0.0,0.0,0.0,0.0,0.0,0.0,0.0,0.0,0.0,0.0,0.0,0.0,0.0
80.0,1010.0,13235.475536303502,14638.501465846579,-0.0,0.0,2479.203307224594,0.0,17650.28412152725,0.0,0.0,0.0,17650.28412152725,0.0,0.2392261426440721,0.5738868274582538,0.0,0.0,0.0,"[0.6896179537375708, 0.48122259587765015, 0.5678785200000931, 0.2317419425110394, 0.39328577766764283, 1.1767482315166156, 0.6190497517553091, 0.7290473034938145]",21.31,0.0,0.0,3.969988548145637,118.32026272478663,83.46157931286855,-1814.5237841439664,-350.82181106539394,4191.718641248207,0.0,0.0,0.0,0.0,0.0,0.0,-14.2,21.17942683305893,0.0,21.300363351995095,0.0,-14.2,21.31,20.39,22.21,21.12,21.99,-15.76,-14.2,1553.87,-1262.13,-1779.28,6.65,95.0,101.0,26.0,0.0,0.0,0.0,0.0,0.0,0.0,0.0,0.0,0.0,0.0,0.0,0.0,0.0,0.0
81.0,2474.0,0.0,0.0,-5508.2743475815505,7982.2743475815505,0.0,0.0,12042.721265590826,0.0,12042.721265590824,0.0,0.0,0.0,0.1880240964468322,0.5984236859156625,0.0,0.0,0.0,"[0.6896179537375708, 0.48122259587765015, 0.5678785200000931, 0.2317419425110394, 0.39328577766764283, 1.1767482315166156, 0.6190497517553091, 0.7290473034938145]",22.38,0.0,0.0,923.6283794504274,345.9034655113447,67.7490557915483,-1751.6414647270285,-1864.9640043511881,0.0,0.0,0.0,0.0,0.0,0.0,0.0,-11.9,21.519487373832362,0.0,21.34786520261747,0.0,-11.9,22.38,20.39,22.31,21.79,22.67,-12.12,-11.9,632.66,-1218.39,-1717.62,1545.99,122.0,48.0,184.0,0.0,0.0,0.0,0.0,0.0,0.0,0.0,0.0,0.0,0.0,0.0,0.0,0.0,0.0
82.0,5100.0,0.0,9184.907202560413,-0.0,14284.907202560413,0.0,0.0,7491.394801736226,0.0,-7260.87784387943,0.0,14752.272645615656,0.0,0.21767268097600656,0.5984236859156625,0.0,0.0,0.0,"[0.6896179537375708, 0.48122259587765015, 0.5678785200000931, 0.2317419425110394, 0.39328577766764283, 1.1767482315166156, 0.6190497517553091, 0.7290473034938145]",21.31,0.0,0.0,1322.2683877201207,449.0563069512407,50.57281810189208,-1599.9104948958773,-280.15795662609906,2856.1136817447655,0.0,0.0,0.0,0.0,0.0,0.0,-10.0,21.20689231337869,0.0,21.353685868673185,0.0,-10.0,21.31,20.36,22.34,21.11,22.3,-9.37,-10.0,163.64,-1112.85,-1568.83,2213.24,144.0,0.0,253.0,0.0,0.0,0.0,0.0,0.0,0.0,0.0,0.0,0.0,0.0,0.0,0.0,0.0,0.0
83.0,7720.0,0.0,4894.374946857474,-0.0,17246.0926697521,-4631.717722894625,0.0,8295.857212006826,0.0,-265.1015844804191,0.0,8560.958796487244,0.18912847368486385,0.21875517911263495,0.5984236859156625,0.0,0.0,0.0,"[0.6896179537375708, 0.48122259587765015, 0.5678785200000931, 0.2317419425110394, 0.39328577766764283, 1.1767482315166156, 0.6190497517553091, 0.7290473034938145]",22.69,0.0,0.0,1569.186006649593,620.7860199825378,51.498841351247464,-1593.7396427244917,-2110.3936610062046,0.0,0.0,0.0,0.0,0.0,0.0,0.0,-8.5,21.707024103853318,0.0,21.51126324385381,0.0,-8.5,22.69,20.41,22.61,22.06,23.42,-7.33,-8.5,0.0,-1108.56,-1562.78,2626.54,134.0,0.0,384.0,0.0,0.0,0.0,0.0,0.0,0.0,0.0,0.0,0.0,0.0,0.0,0.0,0.0,0.0
84.0,8140.0,0.0,11215.153013193452,-0.0,19355.153013193452,0.0,0.0,4544.567759083217,0.0,-16141.506980523616,0.0,20686.074739606833,0.18912847368486385,0.2846663326164397,0.5984236859156625,0.0,0.0,0.0,"[0.6896179537375708, 0.48122259587765015, 0.5678785200000931, 0.2317419425110394, 0.39328577766764283, 1.1767482315166156, 0.6190497517553091, 0.7290473034938145]",22.03,0.0,0.0,1752.0968903085895,4428.958898701264,137.6190035412976,-1508.9823672766152,-1005.5979396848571,-2528.4420835141677,0.0,0.0,0.0,0.0,0.0,0.0,-7.5,21.576539277498796,0.0,21.611736866236747,0.0,-7.5,22.03,20.45,22.78,21.6,23.1,-5.98,-7.5,0.0,-1049.6,-1479.67,2932.7,144.0,0.0,3167.0,0.0,0.0,0.0,0.0,0.0,0.0,0.0,0.0,0.0,0.0,0.0,0.0,0.0,0.0
85.0,4142.0,0.0,0.0,-0.0,17128.043386217505,-12986.043386217505,0.0,3823.705341557567,0.0,3823.705341557567,0.0,0.0,0.719391911955412,0.2684090820145793,0.5984236859156625,0.0,0.0,0.0,"[0.6896179537375708, 0.48122259587765015, 0.5678785200000931, 0.2317419425110394, 0.39328577766764283, 1.1767482315166156, 0.6190497517553091, 0.7290473034938145]",22.69,0.0,0.0,1638.3612391442452,49.16832302779712,1.075381837961082,-1527.311719861988,-1808.9290327930287,0.0,0.0,0.0,0.0,0.0,0.0,0.0,-7.2,21.850237145048766,0.0,21.74062146539238,0.0,-7.2,22.69,20.5,22.98,21.97,23.55,-5.87,-7.2,0.0,-1062.35,-1497.65,2742.33,0.0,0.0,36.0,0.0,0.0,0.0,0.0,0.0,0.0,0.0,0.0,0.0,0.0,0.0,0.0,0.0,0.0
86.0,3906.0,0.0,0.0,-0.0,14218.104809255217,-6872.034809255218,0.0,6945.784295425798,17200.35,20706.064295425796,0.0,0.0,1.0,0.18037309436395943,0.5984236859156625,13760.279999999999,3440.0699999999997,17200.35,"[0.6896179537375708, 0.48122259587765015, 0.5678785200000931, 0.2317419425110394, 0.39328577766764283, 1.1767482315166156, 0.6190497517553091, 0.7290473034938145]",21.95,0.0,0.0,1525.7842814189933,73.75248454169568,1.613072756941623,-1514.8937042478874,-616.3023692518989,0.0,0.0,0.0,0.0,0.0,0.0,0.0,-7.7,21.67981626866314,0.0,21.81389214374056,0.0,-7.7,21.95,20.54,23.09,21.64,23.27,-6.8,-7.7,0.0,-1053.71,-1485.47,2553.89,0.0,0.0,54.0,0.0,0.0,0.0,0.0,0.0,0.0,0.0,0.0,0.0,0.0,0.0,0.0,0.0,0.0
87.0,5219.0,0.0,4297.509422561339,-0.0,0.7715098418505906,9515.737912719489,0.0,7148.230708469428,0.0,0.0,0.0,7148.230708469426,0.5954193064319946,0.18037309436395943,0.5984236859156625,0.0,0.0,0.0,"[0.6896179537375708, 0.48122259587765015, 0.5678785200000931, 0.2317419425110394, 0.39328577766764283, 1.1767482315166156, 0.6190497517553091, 0.7290473034938145]",21.74,0.0,0.0,27.83424128223242,73.75248454169568,1.613072756941623,-1591.1392706967363,-293.35889862184405,887.0277305617284,0.0,0.0,0.0,0.0,0.0,0.0,-9.4,21.630695033544242,0.0,21.831177696551357,0.0,-9.4,21.74,20.55,23.11,21.56,23.14,-10.72,-9.4,0.0,-1106.75,-1560.23,46.59,0.0,0.0,54.0,0.0,0.0,0.0,0.0,0.0,0.0,0.0,0.0,0.0,0.0,0.0,0.0,0.0,0.0
88.0,3380.0,62703.76615317922,59010.24732241332,-0.0,0.0,0.0,0.0,19279.386713747754,0.0,-80000.0,0.0,99279.38671374775,0.5954193064319946,0.5070397610306261,0.5984236859156625,0.0,0.0,0.0,"[0.6896179537375708, 0.48122259587765015, 0.5678785200000931, 0.2317419425110394, 0.39328577766764283, 1.1767482315166156, 0.6190497517553091, 0.7290473034938145]",21.31,0.0,0.0,0.0,109.55047411456552,41.103483584290316,-1559.0317731343366,162.09236911956887,4122.05796449831,0.0,0.0,0.0,0.0,0.0,0.0,-9.2,21.420460463003273,0.0,21.692857140621836,0.0,-9.2,21.31,20.51,22.88,21.13,22.26,-10.66,-9.2,0.0,-1084.42,-1528.75,0.0,116.0,11.0,18.0,0.0,0.0,0.0,0.0,0.0,0.0,0.0,0.0,0.0,0.0,0.0,0.0,0.0,0.0
89.0,3793.0,0.0,6109.219559064209,-0.0,0.0,9902.219559064208,0.0,10394.689706358864,0.0,0.0,0.0,10394.689706358864,0.17440657007722388,0.5070397610306261,0.5879876933368128,0.0,0.0,0.0,"[0.6896179537375708, 0.48122259587765015, 0.5678785200000931, 0.2317419425110394, 0.39328577766764283, 1.1767482315166156, 0.6190497517553091, 0.7290473034938145]",22.69,0.0,0.0,0.0,174.96447112523128,101.14563620378418,-1619.2888438254547,-1843.1455752801937,317.9135706321901,0.0,0.0,0.0,0.0,0.0,0.0,-9.0,21.83836356946963,0.0,21.71223718864723,0.0,-9.0,22.69,20.53,22.89,22.01,23.09,-10.38,-9.0,0.0,-1126.33,-1587.84,0.0,155.0,100.0,36.0,0.0,0.0,0.0,0.0,0.0,0.0,0.0,0.0,0.0,0.0,0.0,0.0,0.0,0.0
90.0,7295.0,3209.002484204718,0.0,-0.0,0.0,4102.042528216306,0.0,12732.453088564162,0.0,12732.453088564162,0.0,0.0,0.0,0.45290518157244514,0.5378949289583341,0.0,0.0,0.0,"[0.6896179537375708, 0.48122259587765015, 0.5678785200000931, 0.2317419425110394, 0.39328577766764283, 1.1767482315166156, 0.6190497517553091, 0.7290473034938145]",21.31,0.0,0.0,0.0,283.14915848902467,133.25773275401096,-1538.5924122535664,62.29187226354357,3940.435398798774,0.0,0.0,0.0,0.0,0.0,0.0,-8.8,21.372033443894185,0.0,21.609282524140234,0.0,-8.8,21.31,20.5,22.71,21.08,22.12,-10.14,-8.8,0.0,-1070.2,-1508.71,0.0,143.0,162.0,115.0,0.0,0.0,0.0,0.0,0.0,0.0,0.0,0.0,0.0,0.0,0.0,0.0,0.0,0.0
91.0,6415.0,15321.311062248293,4082.1600704793223,-0.0,0.0,-4747.544436457729,0.0,7062.4463396680085,0.0,0.0,0.0,7062.446339668009,0.19385806448869058,0.45290518157244514,0.5378949289583341,0.0,0.0,0.0,"[0.6896179537375708, 0.48122259587765015, 0.5678785200000931, 0.2317419425110394, 0.39328577766764283, 1.1767482315166156, 0.6190497517553091, 0.7290473034938145]",22.69,0.0,0.0,0.0,405.4948979529292,121.24930223011219,-1603.9593231648769,-1924.4164156371187,134.26121661490583,0.0,0.0,0.0,0.0,0.0,0.0,-8.7,21.79897618894626,0.0,21.643894997562512,0.0,-8.7,22.69,20.53,22.76,22.02,23.03,-10.0,-8.7,0.0,-1115.67,-1572.8,0.0,144.0,134.0,207.0,0.0,0.0,0.0,0.0,0.0,0.0,0.0,0.0,0.0,0.0,0.0,0.0,0.0,0.0
92.0,6736.0,10530.906011969466,0.0,-0.0,0.0,-3742.2514819096186,0.0,7214.948714277231,0.0,7214.948714277231,0.0,0.0,1.0,0.42222937921582426,0.5017168213516552,0.0,0.0,0.0,"[0.6896179537375673, 0.48122259587765015, 0.5678785200000931, 0.2317419425110394, 0.39328577766764283, 1.1767482315166156, 0.6190497517553091, 0.6804740899660437]",21.31,0.0,0.0,0.0,461.4202712213885,109.95779293152083,-1523.2628915929888,-10.990745763750986,3842.2114882934975,0.0,0.0,0.0,0.0,0.0,0.0,-8.5,21.336480806124083,0.0,21.547865485841363,0.0,-8.5,21.31,20.5,22.59,21.06,22.04,-9.77,-8.5,1447.32,-1059.54,-1493.68,0.0,130.0,118.0,257.0,0.0,0.0,0.0,0.0,0.0,0.0,0.0,0.0,0.0,0.0,0.0,0.0,0.0,0.0
93.0,4549.0,0.0,0.0,-0.0,0.0,4549.0,0.0,19651.633849010013,0.0,19651.633849010013,0.0,0.0,0.8065901360544218,0.33867651421153,0.49545522580434537,0.0,0.0,0.0,"[0.6896179537375673, 0.48122259587765015, 0.5678785200000931, 0.2317419425110394, 0.39328577766764283, 1.1767482315166156, 0.6190497517553091, 0.6804740899660437]",22.69,0.0,0.0,0.0,364.01811083737516,87.1059288748478,-1583.5199622841062,-1992.536454440408,3129.4403446398974,0.0,0.0,0.0,0.0,0.0,0.0,-8.3,21.76581048664853,0.0,21.587015061941635,0.0,-8.3,22.69,20.53,22.65,21.99,22.94,-9.53,-8.3,0.0,-1101.45,-1552.76,0.0,155.0,66.0,178.0,0.0,0.0,0.0,0.0,0.0,0.0,0.0,0.0,0.0,0.0,0.0,0.0,0.0,0.0
94.0,3289.0,0.0,0.0,-0.0,0.0,3289.0,0.0,9418.795430071981,0.0,9418.795430071983,0.0,0.0,0.6667517006802721,0.29863061527414914,0.49545522580434537,0.0,0.0,0.0,"[0.6896179537375673, 0.48122259587765015, 0.5678785200000931, 0.2317419425110394, 0.39328577766764283, 1.1767482315166156, 0.6190497517553091, 0.6804740899660437]",22.69,0.0,0.0,0.0,502.4657572577512,53.470374720842784,-1573.3002818437212,-1913.5421282529735,60.0282131281129,0.0,0.0,0.0,0.0,0.0,0.0,-8.1,21.803489759401625,0.0,21.64333905018605,0.0,-8.1,22.69,20.57,22.72,21.93,22.9,-9.3,-8.1,1439.26,-1094.34,-1542.74,0.0,84.0,35.0,320.0,0.0,0.0,0.0,0.0,0.0,0.0,0.0,0.0,0.0,0.0,0.0,0.0,0.0,0.0
95.0,2134.0,12603.105735794275,9385.83477543787,-1020.2554316774335,0.0,0.0,0.0,16954.02993131461,0.0,0.0,0.0,16954.029931314613,0.6667517006802721,0.29863061527414914,0.4999999999999994,0.0,0.0,0.0,"[0.6896179537375673, 0.48122259587765015, 0.5678785200000931, 0.2317419425110394, 0.39328577766764283, 1.1767482315166156, 0.6190497517553091, 0.6804740899660437]",21.31,0.0,0.0,0.0,319.88163373347544,46.89859682219171,-1492.6038502718332,-5.973486445521853,1134.224235508516,0.0,0.0,0.0,0.0,0.0,0.0,-7.9,21.33818426307532,0.0,21.54317720355558,0.0,-7.9,21.31,20.53,22.55,21.04,21.98,-9.07,-7.9,230.89,-1038.21,-1463.61,0.0,141.0,0.0,160.0,0.0,0.0,0.0,0.0,0.0,0.0,0.0,0.0,0.0,0.0,0.0,0.0,0.0,0.0
96.0,2365.0,0.0,7016.399835359552,-0.0,0.0,9381.399835359553,0.0,13075.356441408516,0.0,0.0,0.0,13075.356441408514,0.26788266006124356,0.29863061527414914,0.4999999999999994,0.0,0.0,0.0,"[0.6896179537375673, 0.48122259587765015, 0.5678785200000931, 0.2317419425110394, 0.39328577766764283, 1.1767482315166156, 0.6190497517553091, 0.6804740899660437]",21.31,0.0,0.0,0.0,109.40670708816845,25.03249945031634,-1461.9448089506777,-138.11279916529534,4340.559202824463,0.0,0.0,0.0,0.0,0.0,0.0,-7.3,21.27418748677976,0.0,21.441776988839777,0.0,-7.3,21.31,20.49,22.39,21.11,22.01,-8.5,-7.3,566.6,-1016.88,-1433.55,0.0,80.0,0.0,38.0,0.0,0.0,0.0,0.0,0.0,0.0,0.0,0.0,0.0,0.0,0.0,0.0,0.0,0.0
97.0,1947.0,20806.913204375996,8513.749391833877,-0.0,0.0,-10242.12924652024,0.0,16433.879669341808,0.0,0.0,0.0,16433.879669341808,0.6861029376274868,0.29863061527414914,0.4999999999999994,0.0,0.0,0.0,"[0.6896179537375673, 0.48122259587765015, 0.5678785200000931, 0.2317419425110394, 0.39328577766764283, 1.1767482315166156, 0.6190497517553091, 0.6804740899660437]",22.69,0.0,0.0,0.0,132.62508185129482,25.540318651575735,-1496.652678540832,-2090.25052446114,556.4142814968305,0.0,0.0,0.0,0.0,0.0,0.0,-6.6,21.717149715035582,0.0,21.5033937315141,0.0,-6.6,22.69,20.52,22.49,21.99,22.88,-7.79,-6.6,880.74,-1041.03,-1467.58,0.0,80.0,0.0,55.0,0.0,0.0,0.0,0.0,0.0,0.0,0.0,0.0,0.0,0.0,0.0,0.0,0.0,0.0
98.0,1059.0,9822.889821742558,8714.775372633845,-0.0,0.0,0.0,0.0,17403.479539727625,0.0,0.0,0.0,17403.47953972762,0.6861029376274868,0.29863061527414914,0.4999999999999994,0.0,0.0,0.0,"[0.6896179537375673, 0.48122259587765015, 0.5678785200000931, 0.2317419425110394, 0.39328577766764283, 1.1767482315166156, 0.6190497517553091, 0.6804740899660437]",21.31,0.0,0.0,0.0,140.81980235592772,25.719548957902585,-1390.4070458679812,-142.46257672087432,4241.30662919395,0.0,0.0,0.0,0.0,0.0,0.0,-5.9,21.270640838714996,0.0,21.43357309924897,0.0,-5.9,21.31,20.5,22.37,21.05,21.92,-7.05,-5.9,1098.3,-967.13,-1363.4,0.0,80.0,0.0,61.0,0.0,0.0,0.0,0.0,0.0,0.0,0.0,0.0,0.0,0.0,0.0,0.0,0.0,0.0
99.0,538.0,0.0,7445.541092998487,-0.0,0.0,7983.541092998487,0.0,15152.730546639963,0.0,0.0,0.0,15152.730546639963,0.3466666666666667,0.29863061527414914,0.4999999999999994,0.0,0.0,0.0,"[0.6896179537375673, 0.48122259587765015, 0.5678785200000931, 0.2317419425110394, 0.39328577766764283, 1.1767482315166156, 0.6190497517553091, 0.6804740899660437]",22.69,0.0,0.0,0.0,99.84619983276346,24.82339742626835,-1440.4444361187138,-2092.0009116820315,3409.060428559053,0.0,0.0,0.0,0.0,0.0,0.0,-5.5,21.71515188464991,0.0,21.497027408168137,0.0,-5.5,22.69,20.53,22.46,21.98,22.85,-6.64,-5.5,2624.43,-1001.93,-1412.47,0.0,80.0,0.0,31.0,0.0,0.0,0.0,0.0,0.0,0.0,0.0,0.0,0.0,0.0,0.0,0.0,0.0,0.0
100.0,581.0,23493.624789434863,6795.156665487687,-0.0,0.0,-16000.0,0.0,14153.007699755,0.0,0.0,0.0,14153.007699754997,1.0,0.29863061527414914,0.4999999999999994,0.0,0.0,0.0,"[0.6896179537375673, 0.48122259587765015, 0.5678785200000931, 0.2317419425110394, 0.39328577766764283, 1.1767482315166156, 0.6190497517553091, 0.6804740899660437]",22.69,0.0,0.0,0.0,120.33300109434559,25.27147319208547,-1414.895235017751,-1985.2647663598773,382.2180926085864,0.0,0.0,0.0,0.0,0.0,0.0,-5.0,21.765848997962475,0.0,21.573862086939656,0.0,-5.0,22.69,20.58,22.57,21.93,22.82,-6.11,-5.0,685.35,-984.16,-1387.41,0.0,80.0,0.0,46.0,0.0,0.0,0.0,0.0,0.0,0.0,0.0,0.0,0.0,0.0,0.0,0.0,0.0,0.0
101.0,1894.0,10231.75438171646,8286.595609807879,-0.0,0.0,0.0,0.0,17575.383527819577,0.0,0.0,0.0,17575.383527819573,1.0,0.29863061527414914,0.4999999999999994,0.0,0.0,0.0,"[0.6896179537375673, 0.48122259587765015, 0.5678785200000931, 0.2317419425110394, 0.39328577766764283, 1.1767482315166156, 0.6190497517553091, 0.6804740899660437]",21.31,0.0,0.0,0.0,121.69878784511774,25.30134490980661,-1323.9791230054775,-46.4328895943998,4098.36659457225,0.0,0.0,0.0,0.0,0.0,0.0,-4.6,21.3151987414559,0.0,21.49643279084048,0.0,-4.6,21.31,20.56,22.43,21.07,21.94,-5.54,-4.6,2561.38,-920.92,-1298.26,0.0,80.0,0.0,47.0,0.0,0.0,0.0,0.0,0.0,0.0,0.0,0.0,0.0,0.0,0.0,0.0,0.0,0.0
102.0,1681.0,0.0,5461.398970843811,-0.0,0.0,7142.398970843811,0.0,11739.50264700274,0.0,0.0,0.0,11739.50264700274,0.6963265743688856,0.29863061527414914,0.4999999999999994,0.0,0.0,0.0,"[0.6896179537375673, 0.48122259587765015, 0.5678785200000931, 0.2317419425110394, 0.39328577766764283, 1.1767482315166156, 0.6190497517553091, 0.6804740899660437]",22.69,0.0,0.0,0.0,42.33938927393641,0.9260232493553745,-1379.1263534764028,-2003.059887180061,465.3234507093784,0.0,0.0,0.0,0.0,0.0,0.0,-4.3,21.756448835000516,0.0,21.553934062914905,0.0,-4.3,22.69,20.6,22.51,22.0,22.87,-5.26,-4.3,317.02,-959.28,-1352.34,0.0,0.0,0.0,31.0,0.0,0.0,0.0,0.0,0.0,0.0,0.0,0.0,0.0,0.0,0.0,0.0,0.0,0.0
103.0,1311.0,0.0,6247.656595457389,-0.0,0.0,7558.656595457389,0.0,13608.278367003923,0.0,0.0,0.0,13608.27836700392,0.37495512048039115,0.29863061527414914,0.4999999999999994,0.0,0.0,0.0,"[0.6896179537375673, 0.48122259587765015, 0.5678785200000931, 0.2317419425110394, 0.39328577766764283, 1.1767482315166156, 0.6190497517553091, 0.6804740899660437]",21.31,0.0,0.0,0.0,156.9935928255978,40.506049229867486,-1293.3200816843223,-57.832918519308855,4029.394957485368,0.0,0.0,0.0,0.0,0.0,0.0,-4.0,21.309129927266046,0.0,21.48189876998085,0.0,-4.0,21.31,20.58,22.39,21.07,21.92,-4.94,-4.0,2411.47,-899.59,-1268.2,0.0,131.0,0.0,46.0,0.0,0.0,0.0,0.0,0.0,0.0,0.0,0.0,0.0,0.0,0.0,0.0,0.0,0.0
104.0,762.0,0.0,8492.518775242906,-0.0,0.0,9254.518775242906,0.0,18740.790580108733,0.0,0.0,0.0,18740.790580108733,0.6065255622770873,0.29863061527414914,0.4999999999999994,0.0,0.0,0.0,"[0.6896179537375673, 0.48122259587765015, 0.5678785200000931, 0.2317419425110394, 0.39328577766764283, 1.06176783112236, 0.6190497517553126, 0.6804740899660437]",22.69,0.0,0.0,1.3047104469032922,173.45491734806208,41.432072479222875,-1348.4673121552473,-2009.858985484399,2933.5072813281167,0.0,0.0,0.0,0.0,0.0,0.0,-3.7,21.752509287850398,0.0,21.542955156664696,0.0,-3.7,22.69,20.61,22.47,22.01,22.85,-4.59,-3.7,446.96,-937.95,-1322.27,2.18,133.0,0.0,57.0,0.0,0.0,0.0,0.0,0.0,0.0,0.0,0.0,0.0,0.0,0.0,0.0,0.0,0.0
105.0,1138.0,0.0,5361.339455633221,-0.0,5.4413611965551105,6493.898094436667,0.0,12597.757768120173,0.0,0.0,0.0,12597.757768120171,0.3304244528197461,0.29863061527414914,0.4999999999999994,0.0,0.0,0.0,"[0.6896179537375673, 0.48122259587765015, 0.5678785200000931, 0.2317419425110394, 0.39328577766764283, 1.06176783112236, 0.6190497517553126, 0.6804740899660437]",22.59,0.0,0.0,37.34883706799595,282.50220687023784,52.872940366419954,-1266.6526687928051,-1768.8159840333208,0.0,0.0,0.0,0.0,0.0,0.0,0.0,-2.2,21.76520738742861,0.0,21.606069057688277,0.0,-2.2,22.59,20.66,22.55,21.89,22.74,-2.84,-2.2,2510.97,-881.05,-1242.05,62.52,165.0,0.0,120.0,0.0,0.0,0.0,0.0,0.0,0.0,0.0,0.0,0.0,0.0,0.0,0.0,0.0,0.0
106.0,1309.0,6348.181202159497,5026.001764109257,-0.0,18.561467960557874,0.0,0.0,12288.945303288572,0.0,0.0,0.0,12288.94530328857,0.3304244528197461,0.29863061527414914,0.4999999999999994,0.0,0.0,0.0,"[0.6896179537375673, 0.48122259587765015, 0.5678785200000931, 0.2317419425110394, 0.39328577766764283, 1.06176783112236, 0.6190497517553126, 0.6804740899660437]",21.31,0.0,0.0,47.59951933958972,183.01542460346704,4.00281017463292,-1150.2445555189297,21.699509306599975,3764.558233172175,0.0,0.0,0.0,0.0,0.0,0.0,-1.2,21.344059999661557,0.0,21.527587170388085,0.0,-1.2,21.31,20.64,22.41,21.09,21.92,-1.73,-1.2,1965.2,-800.08,-1127.9,79.67,0.0,0.0,134.0,0.0,0.0,0.0,0.0,0.0,0.0,0.0,0.0,0.0,0.0,0.0,0.0,0.0,0.0
107.0,1938.0,2607.9055517012375,4559.128462659881,-0.0,216.71197110773414,3685.5504676094156,0.0,11712.43203947986,0.0,0.0,0.0,11712.43203947986,0.1737258785166247,0.29863061527414914,0.4999999999999994,0.0,0.0,0.0,"[0.6896179537375673, 0.48122259587765015, 0.5678785200000931, 0.2317419425110394, 0.39328577766764283, 1.06176783112236, 0.6190497517553126, 0.6804740899660437]",22.69,0.0,0.0,88.36937148144035,64.19197728629068,1.4039707328936342,-1154.2933837879286,-1928.9430030141473,2923.3944716024544,0.0,0.0,0.0,0.0,0.0,0.0,0.1,21.786998268752242,0.0,21.586579691746046,0.0,0.1,22.69,20.68,22.49,22.02,22.84,-0.29,0.1,1872.95,-802.89,-1131.87,147.91,0.0,0.0,47.0,0.0,0.0,0.0,0.0,0.0,0.0,0.0,0.0,0.0,0.0,0.0,0.0,0.0,0.0
108.0,2270.0,38584.373120175034,36651.74856683447,-0.0,530.2973122603104,0.0,0.0,18002.127473160395,0.0,-80000.0,0.0,98002.12747316039,0.1737258785166247,0.6252972819408158,0.4999999999999994,0.0,0.0,0.0,"[0.6896179537375673, 0.48122259587765015, 0.5678785200000931, 0.2317419425110394, 0.39328577766764283, 1.06176783112236, 0.6190497517553126, 0.6804740899660437]",22.69,0.0,0.0,114.39520677077077,45.07096277548069,0.9857666847976596,-1098.0851413658102,-1815.5334743088856,0.0,0.0,0.0,0.0,0.0,0.0,0.0,1.2,21.84036295169246,0.0,21.665371586224357,0.0,1.2,22.69,20.75,22.58,21.98,22.82,0.77,1.2,0.0,-763.79,-1076.76,191.48,0.0,0.0,33.0,0.0,0.0,0.0,0.0,0.0,0.0,0.0,0.0,0.0,0.0,0.0,0.0,0.0,0.0
109.0,3341.0,22387.42054970118,3498.880953766615,-0.0,564.3975068139447,-16000.0,0.0,9622.411187572596,0.0,0.0,0.0,9622.411187572596,0.827059211849958,0.6252972819408158,0.4999999999999994,0.0,0.0,0.0,"[0.6896179537375673, 0.48122259587765015, 0.5678785200000931, 0.2317419425110394, 0.39328577766764283, 1.06176783112236, 0.6190497517553126, 0.6804740899660437]",21.37,0.0,0.0,120.70690818774663,184.30932784104067,51.85730196390116,-989.871688593753,51.21898668035353,3321.876446242025,0.0,0.0,0.0,0.0,0.0,0.0,2.0,21.416439531467564,0.0,21.599395795914813,0.0,2.0,21.37,20.74,22.46,21.17,21.99,1.58,2.0,578.07,-688.52,-970.64,202.04,169.0,0.0,46.0,0.0,0.0,0.0,0.0,0.0,0.0,0.0,0.0,0.0,0.0,0.0,0.0,0.0,0.0
110.0,3679.0,7425.7388808596315,3859.989586402154,-0.0,150.37939994682185,0.0,0.0,10725.905746501256,0.0,0.0,0.0,10725.905746501256,0.827059211849958,0.6252972819408158,0.4999999999999994,0.0,0.0,0.0,"[0.6896179537375673, 0.48122259587765015, 0.5678785200000931, 0.2317419425110394, 0.39328577766764283, 1.06176783112236, 0.6190497517553126, 0.6804740899660437]",22.69,0.0,0.0,91.37054294255219,146.1391823326192,3.1962737961621084,-1041.8768989436917,-1805.8823035387222,2601.0607991393363,0.0,0.0,0.0,0.0,0.0,0.0,2.3,21.8440820568279,0.0,21.66139541736251,0.0,2.3,22.69,20.79,22.53,22.07,22.87,1.67,2.3,2109.83,-724.7,-1021.64,152.94,0.0,0.0,107.0,0.0,0.0,0.0,0.0,0.0,0.0,0.0,0.0,0.0,0.0,0.0,0.0,0.0,0.0
111.0,2042.0,0.0,70.49496227754716,-0.0,0.06296077995896553,2112.4320014975883,0.0,8537.750127253299,0.0,8345.895287785108,0.0,191.85483946819295,0.7372449260719993,0.5898130332682601,0.4999999999999994,0.0,0.0,0.0,"[0.6896179537375673, 0.48122259587765015, 0.5678785200000931, 0.2317419425110394, 0.39328577766764283, 1.06176783112236, 0.6190497517553126, 0.6804740899660437]",22.69,0.0,0.0,22.691163304977206,62.82619053551855,1.3740990151724932,-1072.5359402648473,-1707.3225842221025,0.0,0.0,0.0,0.0,0.0,0.0,0.0,1.7,21.892300113162815,0.0,21.73158466909264,0.0,1.7,22.69,20.85,22.61,22.01,22.81,0.77,1.7,279.71,-746.02,-1051.7,37.98,0.0,0.0,46.0,0.0,0.0,0.0,0.0,0.0,0.0,0.0,0.0,0.0,0.0,0.0,0.0,0.0,0.0
112.0,2330.0,0.0,2714.4006612134226,-0.0,0.0,5044.400661213423,0.0,7180.33148276565,0.0,0.0,0.0,7180.3314827656495,0.5227721088435374,0.5898130332682601,0.4930426716140996,0.0,0.0,0.0,"[0.6896179537375673, 0.48122259587765015, 0.5678785200000931, 0.2317419425110394, 0.39328577766764283, 1.06176783112236, 0.6190497517553126, 0.6804740899660437]",21.4,0.0,0.0,0.0,62.82619053551855,1.3740990151724932,-1047.4051734700768,103.00093042742655,698.1252386406278,0.0,0.0,0.0,0.0,0.0,0.0,0.9,21.46902242622194,0.0,21.65519754305416,0.0,0.9,21.4,20.84,22.47,21.21,21.98,-0.18,0.9,1368.26,-728.54,-1027.06,0.0,0.0,0.0,46.0,0.0,0.0,0.0,0.0,0.0,0.0,0.0,0.0,0.0,0.0,0.0,0.0,0.0,0.0
113.0,5300.0,7108.381125450815,1772.8392198235608,-0.0,0.0,0.0,0.0,4706.545200689358,0.0,0.0,0.0,4706.545200689358,0.5227721088435374,0.5898130332682601,0.4450371057513909,0.0,0.0,0.0,"[0.6896179537375673, 0.48122259587765015, 0.5678785200000931, 0.2317419425110394, 0.39328577766764283, 1.06176783112236, 0.6190497517553126, 0.6804740899660437]",21.31,0.0,0.0,0.0,64.19197728629068,1.4039707328936342,-1037.8280706746928,109.29031449948276,863.0144674422083,0.0,0.0,0.0,0.0,0.0,0.0,1.0,21.384459374835867,0.0,21.560121784279822,0.0,1.0,21.31,20.8,22.32,21.2,21.93,-0.11,1.0,0.0,-721.88,-1017.67,0.0,0.0,0.0,47.0,0.0,0.0,0.0,0.0,0.0,0.0,0.0,0.0,0.0,0.0,0.0,0.0,0.0,0.0
114.0,4142.0,0.0,0.0,-0.0,0.0,4142.0,0.0,9240.202125206417,0.0,9240.202125206419,0.0,0.0,0.3466666666666667,0.5505264596066681,0.4185992578849716,0.0,0.0,0.0,"[0.6896179537375673, 0.48122259587765015, 0.5678785200000931, 0.2317419425110394, 0.39328577766764283, 1.06176783112236, 0.6190497517553126, 0.6804740899660437]",21.31,0.0,0.0,0.0,42.33938927393641,0.9260232493553745,-1032.7182304545001,2.472610415765764,3860.67343335929,0.0,0.0,0.0,0.0,0.0,0.0,1.1,21.333099508949452,0.0,21.478122203586523,0.0,1.1,21.31,20.77,22.19,21.19,21.87,-0.02,1.1,0.0,-718.33,-1012.66,0.0,0.0,0.0,31.0,0.0,0.0,0.0,0.0,0.0,0.0,0.0,0.0,0.0,0.0,0.0,0.0,0.0,0.0
115.0,5810.0,24862.65262607448,2928.3393629441066,-0.0,0.0,-16000.0,0.0,7857.924840751485,0.0,0.0,0.0,7857.924840751486,1.0,0.5505264596066681,0.4185992578849712,0.0,0.0,0.0,"[0.6896179537375673, 0.48122259587765015, 0.5678785200000931, 0.2317419425110394, 0.39328577766764283, 1.06176783112236, 0.6190497517553126, 0.6804740899660437]",22.69,0.0,0.0,0.0,62.82619053551855,1.3740990151724932,-1092.9753011456175,-1933.4143831946767,88.61520649968664,0.0,0.0,0.0,0.0,0.0,0.0,1.3,21.784395582232108,0.0,21.552487834079486,0.0,1.3,22.69,20.81,22.3,22.06,22.73,0.17,1.3,0.0,-760.24,-1071.75,0.0,0.0,0.0,46.0,0.0,0.0,0.0,0.0,0.0,0.0,0.0,0.0,0.0,0.0,0.0,0.0,0.0,0.0
116.0,3611.0,0.0,1432.8293860975753,-0.0,0.0,5043.8293860975755,0.0,3858.5232707395708,0.0,0.0,0.0,3858.5232707395708,0.5711029433590498,0.5505264596066681,0.3782467532467523,0.0,0.0,0.0,"[0.6896179537375673, 0.48122259587765015, 0.5678785200000931, 0.2317419425110394, 0.39328577766764283, 1.06176783112236, 0.6155326995759154, 0.6804740899660437]",21.31,0.0,0.0,0.0,64.19197728629068,1.4039707328936342,-1017.3887097939224,27.458751136594973,924.4066699243228,0.0,0.0,0.0,0.0,0.0,0.0,1.4,21.344771420329984,0.0,21.493391020487003,0.0,1.4,21.31,20.79,22.19,21.13,21.78,0.3,1.4,0.0,-707.66,-997.63,0.0,0.0,0.0,47.0,0.0,0.0,0.0,0.0,0.0,0.0,0.0,0.0,0.0,0.0,0.0,0.0,0.0,0.0
117.0,4760.0,0.0,2399.912039320963,-0.0,0.0,7159.912039320963,0.0,10839.20125074634,0.0,4330.624423843682,0.0,6508.5768269026585,0.2666849144763558,0.5321139407978089,0.3733766233766224,0.0,0.0,0.0,"[0.6896179537375673, 0.48122259587765015, 0.5678785200000931, 0.2317419425110394, 0.39328577766764283, 1.06176783112236, 0.6155326995759154, 0.6804740899660437]",21.31,0.0,0.0,0.0,42.33938927393641,0.9260232493553745,-1007.1690293535371,-65.56333127083664,1029.5148723111206,0.0,0.0,0.0,0.0,0.0,0.0,1.6,21.299941306915272,0.0,21.42239497241856,0.0,1.6,21.31,20.76,22.08,21.18,21.81,0.48,1.6,0.0,-700.56,-987.61,0.0,0.0,0.0,31.0,0.0,0.0,0.0,0.0,0.0,0.0,0.0,0.0,0.0,0.0,0.0,0.0,0.0,0.0
118.0,2919.0,14248.591873038353,0.0,-0.0,0.0,0.0,0.0,10132.51402230584,0.0,0.0,0.0,0.0,0.2666849144763558,0.5321139407978089,0.3733766233766224,45033.39565469264,11258.34891367316,56291.7445683658,"[0.6896179537375673, 0.48122259587765015, 0.5678785200000931, 0.2317419425110394, 0.39328577766764283, 1.06176783112236, 0.6155326995759154, 0.6804740899660437]",21.31,0.0,0.0,0.0,64.47951133908482,2.4793525708547195,-1002.0591891333447,-144.83367796148568,3953.7076180262293,0.0,0.0,0.0,0.0,0.0,0.0,1.7,21.261825873526174,0.0,21.362521693995717,0.0,1.7,21.31,20.73,21.99,21.17,21.77,0.55,1.7,80.23,-697.0,-982.6,0.0,0.0,2.0,47.0,0.0,0.0,0.0,0.0,0.0,0.0,0.0,0.0,0.0,0.0,0.0,0.0,0.0,0.0
119.0,1691.0,0.0,0.0,-0.0,0.0,1691.0,0.0,7553.198875644658,0.0,7553.198875644659,0.0,0.0,0.19478865597295442,0.5,0.36015769944341275,0.0,0.0,0.0,"[0.6896179537375673, 0.48122259587765015, 0.5678785200000931, 0.2317419425110394, 0.39328577766764283, 1.06176783112236, 0.6155326995759154, 0.6804740899660437]",22.69,0.0,0.0,0.0,205.44308072140961,41.28271389061717,-1062.3162598244623,-2058.7857075122292,2.8673632929531454,0.0,0.0,0.0,0.0,0.0,0.0,1.9,21.723627068403687,0.0,21.454390993284036,0.0,1.9,22.69,20.77,22.13,22.04,22.64,0.75,1.9,0.0,-738.92,-1041.68,0.0,130.0,0.0,82.0,0.0,0.0,0.0,0.0,0.0,0.0,0.0,0.0,0.0,0.0,0.0,0.0,0.0,0.0
120.0,1878.0,18405.46798666966,5476.528783557823,-10958.91186317849,0.0,0.0,0.0,14800.171719617701,0.0,0.0,0.0,14800.171719617701,0.19478865597295442,0.5,0.4068874719545288,0.0,0.0,0.0,"[0.6896179537375673, 0.48122259587765015, 0.5678785200000931, 0.2317419425110394, 0.39328577766764283, 1.06176783112236, 0.6155326995759154, 0.6804740899660437]",21.31,0.0,0.0,0.0,120.33300109434559,25.27147319208547,-1012.2788695737298,-81.77360602869918,3823.4011701010377,0.0,0.0,0.0,0.0,0.0,0.0,1.5,21.292367218244244,0.0,21.40912257733654,0.0,1.5,21.31,20.76,22.06,21.11,21.71,0.28,1.5,660.22,-704.11,-992.62,0.0,80.0,0.0,46.0,0.0,0.0,0.0,0.0,0.0,0.0,0.0,0.0,0.0,0.0,0.0,0.0,0.0,0.0
121.0,1526.0,22102.655820035758,4466.142540935579,-0.0,0.0,-16000.0,0.0,11941.898755851786,0.0,0.0,0.0,11941.898755851786,0.8481219893062877,0.5,0.4068874719545288,0.0,0.0,0.0,"[0.6896179537375673, 0.48122259587765015, 0.5678785200000931, 0.2317419425110394, 0.39328577766764283, 1.06176783112236, 0.6155326995759154, 0.6804740899660437]",22.69,0.0,0.0,0.0,121.69878784511774,25.30134490980661,-1098.0851413658102,-2005.7839906247257,84.53311069526977,0.0,0.0,0.0,0.0,0.0,0.0,1.2,21.74989113203977,0.0,21.49413395102171,0.0,1.2,22.69,20.8,22.19,22.06,22.67,-0.06,1.2,0.0,-763.79,-1076.76,0.0,80.0,0.0,47.0,0.0,0.0,0.0,0.0,0.0,0.0,0.0,0.0,0.0,0.0,0.0,0.0,0.0,0.0
122.0,959.0,0.0,5521.652751493771,-0.0,0.0,6480.652751493771,0.0,14553.640757674286,0.0,0.0,0.0,14553.640757674282,0.5725840321849539,0.5,0.4068874719545288,0.0,0.0,0.0,"[0.6896179537375673, 0.48122259587765015, 0.5678785200000931, 0.2317419425110394, 0.39328577766764283, 1.06176783112236, 0.6155326995759154, 0.6804740899660437]",21.31,0.0,0.0,0.0,114.86985409125703,25.1519863212009,-1048.047751115078,-35.38661498641515,3818.359510705042,0.0,0.0,0.0,0.0,0.0,0.0,0.8,21.315388567375585,0.0,21.44410304844324,0.0,0.8,21.31,20.78,22.11,21.12,21.74,-0.47,0.8,1765.9,-728.99,-1027.69,0.0,80.0,0.0,42.0,0.0,0.0,0.0,0.0,0.0,0.0,0.0,0.0,0.0,0.0,0.0,0.0,0.0,0.0
123.0,1056.0,8136.4011870088425,6004.819202635061,-0.0,0.0,-1034.8999784387374,0.0,15769.8960921035,0.0,0.0,0.0,15769.8960921035,0.6148424479712024,0.5,0.4068874719545288,0.0,0.0,0.0,"[0.6896179537375673, 0.48122259587765015, 0.5678785200000931, 0.2317419425110394, 0.39328577766764283, 1.06176783112236, 0.6155326995759154, 0.6804740899660437]",22.69,0.0,0.0,0.0,177.69604462677557,26.5260853363734,-1123.6343424667732,-1966.1104361744256,2886.8954454041536,0.0,0.0,0.0,0.0,0.0,0.0,0.7,21.76946100500418,0.0,21.52396506538568,0.0,0.7,22.69,20.82,22.23,22.07,22.69,-0.59,0.7,53.43,-781.57,-1101.81,0.0,80.0,0.0,88.0,0.0,0.0,0.0,0.0,0.0,0.0,0.0,0.0,0.0,0.0,0.0,0.0,0.0,0.0
124.0,1145.0,0.0,3277.4505622754264,-0.0,0.0,4422.450562275426,0.0,8544.772561331469,0.0,0.0,0.0,8544.772561331469,0.42681308733024037,0.5,0.4068874719545288,0.0,0.0,0.0,"[0.6896179537375673, 0.48122259587765015, 0.5678785200000931, 0.2317419425110394, 0.39328577766764283, 1.06176783112236, 0.6155326995759154, 0.6804740899660437]",22.69,0.0,0.0,0.0,121.69878784511774,25.30134490980661,-1133.8540229071584,-1848.3836140223395,2836.546917268055,0.0,0.0,0.0,0.0,0.0,0.0,0.5,21.82612496700719,0.0,21.61158379001393,0.0,0.5,22.69,20.87,22.36,22.01,22.66,-0.74,0.5,602.41,-788.67,-1111.83,0.0,80.0,0.0,47.0,0.0,0.0,0.0,0.0,0.0,0.0,0.0,0.0,0.0,0.0,0.0,0.0,0.0,0.0
125.0,987.0,0.0,5468.856579456361,-0.0,0.0,6455.856579456361,0.0,14153.802337236484,0.0,0.0,0.0,14153.802337236482,0.15232938922410258,0.5,0.4068874719545288,0.0,0.0,0.0,"[0.6896179537375673, 0.48122259587765015, 0.5678785200000931, 0.2317419425110394, 0.39328577766764283, 1.06176783112236, 0.6155326995759154, 0.6804740899660437]",22.69,0.0,0.0,0.0,99.84619983276346,24.82339742626835,-1144.0737033475434,-1744.7758477511902,0.0,0.0,0.0,0.0,0.0,0.0,0.0,0.3,21.87605923716189,0.0,21.68810253623158,0.0,0.3,22.69,20.91,22.46,22.04,22.73,-0.95,0.3,670.46,-795.78,-1121.85,0.0,80.0,0.0,31.0,0.0,0.0,0.0,0.0,0.0,0.0,0.0,0.0,0.0,0.0,0.0,0.0,0.0,0.0
126.0,1290.0,0.0,2292.7872345508927,-0.0,0.0,3582.7872345508927,0.0,5912.043849315568,0.0,0.0,0.0,5912.043849315569,0.0,0.5,0.4068874719545288,0.0,0.0,0.0,"[0.6896179537375673, 0.48122259587765015, 0.5678785200000931, 0.2317419425110394, 0.39328577766764283, 1.06176783112236, 0.6155326995759154, 0.6804740899660437]",21.36,0.0,0.0,0.0,154.1182522976565,39.311180521021846,-1081.3599459540887,121.75483966520473,660.0294637064269,0.0,0.0,0.0,0.0,0.0,0.0,0.2,21.44333469238853,0.0,21.61623669443787,0.0,0.2,21.36,20.89,22.34,21.21,21.9,-1.02,0.2,0.0,-752.16,-1060.36,0.0,127.0,0.0,46.0,0.0,0.0,0.0,0.0,0.0,0.0,0.0,0.0,0.0,0.0,0.0,0.0,0.0,0.0
127.0,2307.0,10675.98684578108,5063.61240597771,-0.0,0.0,-3251.9945055744656,0.0,13008.45472221682,0.0,0.0,0.0,13008.454722216818,0.13278977564429068,0.5,0.4068874719545288,0.0,0.0,0.0,"[0.6896179537375673, 0.48122259587765015, 0.5678785200000931, 0.2317419425110394, 0.39328577766764283, 1.06176783112236, 0.6155326995759154, 0.6804740899660437]",21.31,0.0,0.0,0.0,166.26656602820876,43.821809896914175,-1083.816632656426,82.63627253416941,3459.243602402379,0.0,0.0,0.0,0.0,0.0,0.0,0.1,21.37272303766127,0.0,21.52901811620348,0.0,0.1,21.31,20.85,22.21,21.23,21.88,-1.15,0.1,660.81,-753.87,-1062.76,0.0,142.0,0.0,47.0,0.0,0.0,0.0,0.0,0.0,0.0,0.0,0.0,0.0,0.0,0.0,0.0,0.0,0.0
128.0,866.0,18963.81713142615,2257.2155231537167,-2705.2966774453307,0.0,-13040.485845169971,0.0,5820.320764675971,0.0,0.0,0.0,5820.320764675971,0.5324865053444405,0.5,0.4189383389722398,0.0,0.0,0.0,"[0.6896179537375673, 0.48122259587765015, 0.5678785200000931, 0.2317419425110394, 0.39328577766764283, 0.9652188056381306, 0.6155326995759154, 0.6804740899660437]",22.59,0.0,0.0,2.6255340934705265,122.4895064903016,26.16762472371971,-1144.088147413257,-1729.8220898653349,57.91966252595809,0.0,0.0,0.0,0.0,0.0,0.0,0.2,21.78342381529419,0.0,21.58672590321146,0.0,0.2,22.59,20.87,22.3,22.03,22.67,-0.95,0.2,739.24,-795.79,-1121.87,4.39,83.0,0.0,46.0,0.0,0.0,0.0,0.0,0.0,0.0,0.0,0.0,0.0,0.0,0.0,0.0,0.0,0.0
129.0,2177.0,392.8686578704213,2295.2625755382874,-0.0,4081.358260957218,0.0,0.0,6487.34412088648,0.0,0.0,0.0,6487.34412088648,0.5324865053444405,0.5,0.4189383389722398,0.0,0.0,0.0,"[0.6896179537375673, 0.48122259587765015, 0.5678785200000931, 0.2317419425110394, 0.39328577766764283, 0.9652188056381306, 0.6155326995759154, 0.6804740899660437]",21.31,0.0,0.0,498.77070676511,1138.6348490647754,64.52291027766502,-945.8509467112262,82.4290079684362,0.0,0.0,0.0,0.0,0.0,0.0,0.0,2.8,21.36907541317872,0.0,21.522912600845736,0.0,2.8,21.31,20.85,22.2,21.16,21.8,2.36,2.8,95.97,-657.91,-927.48,834.85,140.0,0.0,760.0,0.0,0.0,0.0,0.0,0.0,0.0,0.0,0.0,0.0,0.0,0.0,0.0,0.0,0.0
130.0,2315.0,0.0,0.0,-7884.146499345581,10199.146499345581,0.0,0.0,3822.735337366543,0.0,3822.735337366543,0.0,0.0,0.5324865053444405,0.48374687356561846,0.45405862792387014,0.0,0.0,0.0,"[0.6896179537375673, 0.48122259587765015, 0.5678785200000931, 0.2317419425110394, 0.39328577766764283, 0.9652188056381306, 0.6155326995759154, 0.6804740899660437]",21.73,0.0,0.0,935.232366262496,328.7951893700936,31.245816736313714,-839.3213011019631,-548.6251537238269,2047.0990834016343,0.0,0.0,0.0,0.0,0.0,0.0,5.3,21.478653900210823,0.0,21.504947927737298,0.0,5.3,21.73,20.83,22.18,21.42,22.17,5.5,5.3,0.0,-583.81,-823.02,1565.41,85.0,0.0,196.0,0.0,0.0,0.0,0.0,0.0,0.0,0.0,0.0,0.0,0.0,0.0,0.0,0.0,0.0
131.0,5592.0,0.0,4546.093786156007,-0.0,10138.093786156007,0.0,0.0,4356.035235151966,0.0,-10226.644214431768,0.0,14582.679449583733,0.5324865053444405,0.5255056707745482,0.45405862792387014,0.0,0.0,0.0,"[0.6896179537375673, 0.48122259587765015, 0.5678785200000931, 0.2317419425110394, 0.39328577766764283, 0.9652188056381306, 0.6155326995759154, 0.6804740899660437]",22.69,0.0,0.0,845.3764685402508,155.6996895880242,3.4053758202100974,-811.9340890350252,-1778.926027316779,0.0,0.0,0.0,0.0,0.0,0.0,0.0,6.8,21.851562125279802,0.0,21.648500865214572,0.0,6.8,22.69,20.9,22.4,22.13,23.05,7.08,6.8,0.0,-564.76,-796.16,1415.01,0.0,0.0,114.0,0.0,0.0,0.0,0.0,0.0,0.0,0.0,0.0,0.0,0.0,0.0,0.0,0.0,0.0
132.0,5065.0,0.0,5765.454183957229,-0.0,10014.059578255987,4370.482605701242,0.0,4827.355019440173,17770.44,0.0,0.0,19043.707019440175,0.3466666666666667,0.5255056707745482,0.45405862792387014,14216.351999999999,3554.0879999999997,17770.44,"[0.6896179537375673, 0.48122259587765015, 0.5678785200000931, 0.2317419425110394, 0.39328577766764283, 0.9652188056381306, 0.6155326995759154, 0.6804740899660437]",21.95,0.0,0.0,820.259364820954,2748.609894172336,108.22523330369462,-723.172970192477,-608.6435505577341,-853.7234941795858,0.0,0.0,0.0,0.0,0.0,0.0,7.8,21.674396781338096,0.0,21.706250161102947,0.0,7.8,21.95,20.94,22.47,21.64,22.57,8.12,7.8,0.0,-503.02,-709.13,1372.97,170.0,0.0,1923.0,0.0,0.0,0.0,0.0,0.0,0.0,0.0,0.0,0.0,0.0,0.0,0.0,0.0,0.0
133.0,2628.0,0.0,2656.5061358269027,-4130.875526560472,9415.381662387375,0.0,0.0,8875.930684638819,0.0,0.0,0.0,8875.930684638819,0.3466666666666667,0.5255056707745482,0.4724598007240032,0.0,0.0,0.0,"[0.6896179537375673, 0.48122259587765015, 0.5678785200000931, 0.2317419425110394, 0.39328577766764283, 0.9652188056381306, 0.6155326995759154, 0.6804740899660437]",22.69,0.0,0.0,819.5880287451489,343.02812498340336,52.21576257655485,-740.3963259523289,-1592.0314704730108,1069.5804261129415,0.0,0.0,0.0,0.0,0.0,0.0,8.2,21.939787528688562,0.0,21.78060317835466,0.0,8.2,22.69,20.99,22.57,22.0,22.89,8.54,8.2,0.0,-515.0,-726.01,1371.85,158.0,0.0,168.0,0.0,0.0,0.0,0.0,0.0,0.0,0.0,0.0,0.0,0.0,0.0,0.0,0.0,0.0
134.0,1523.0,0.0,665.3733860650549,-6182.493715019528,8370.867101084583,0.0,0.0,2223.1486592364013,0.0,0.0,0.0,2223.1486592364013,0.3466666666666667,0.5255056707745482,0.4999999999999993,0.0,0.0,0.0,"[0.6896179537375673, 0.48122259587765015, 0.5678785200000931, 0.2317419425110394, 0.39328577766764283, 0.9652188056381306, 0.6155326995759154, 0.6804740899660437]",22.69,0.0,0.0,815.5586000721044,142.04182208030278,3.106658642998686,-740.3963259523289,-1436.9275022443233,0.0,0.0,0.0,0.0,0.0,0.0,0.0,8.2,22.01449283234335,0.0,21.893288472877522,0.0,8.2,22.69,21.07,22.72,22.14,23.08,8.28,8.2,0.0,-515.0,-726.01,1365.1,0.0,0.0,104.0,0.0,0.0,0.0,0.0,0.0,0.0,0.0,0.0,0.0,0.0,0.0,0.0,0.0,0.0
135.0,4431.0,0.0,942.9765383452213,-0.0,5373.976538345221,0.0,0.0,3060.7807584325374,0.0,0.0,0.0,3060.780758432538,0.3466666666666667,0.5255056707745482,0.4999999999999993,0.0,0.0,0.0,"[0.6896179537375673, 0.48122259587765015, 0.5678785200000931, 0.2317419425110394, 0.39328577766764283, 0.9652188056381306, 0.6155326995759154, 0.6804740899660437]",22.13,0.0,0.0,871.9802866321667,1072.1425993561318,23.449298411095857,-762.9361122462625,-555.386194301849,0.0,0.0,0.0,0.0,0.0,0.0,0.0,7.2,21.87949190978351,0.0,21.93285103881253,0.0,7.2,22.13,21.11,22.75,21.83,22.78,6.94,7.2,0.0,-530.68,-748.12,1459.54,0.0,0.0,785.0,0.0,0.0,0.0,0.0,0.0,0.0,0.0,0.0,0.0,0.0,0.0,0.0,0.0,0.0
136.0,4451.0,22578.64947961588,2014.7562322178026,-0.0,0.0,-16000.0,0.0,6270.737967919884,0.0,0.0,0.0,6270.737967919883,1.0,0.5255056707745482,0.4999999999999993,0.0,0.0,0.0,"[0.6896179537375673, 0.48122259587765015, 0.5678785200000931, 0.2317419425110394, 0.39328577766764283, 0.9652188056381306, 0.6155326995759154, 0.6804740899660437]",22.47,0.0,0.0,0.0,234.9153211328085,5.13793544803629,-851.7919469342397,-1002.9406596995265,308.74311895296245,0.0,0.0,0.0,0.0,0.0,0.0,5.8,22.00652747211469,0.0,21.972441467824474,0.0,5.8,22.47,21.15,22.79,22.01,22.93,4.38,5.8,0.0,-592.48,-835.25,0.0,0.0,0.0,172.0,0.0,0.0,0.0,0.0,0.0,0.0,0.0,0.0,0.0,0.0,0.0,0.0,0.0,0.0
137.0,3222.0,0.0,2545.2383481951265,-0.0,0.0,5767.2383481951265,0.0,7824.755162177985,0.0,0.0,0.0,7824.755162177986,0.7547942879168739,0.5255056707745482,0.4158163265306115,0.0,0.0,0.0,"[0.6896179537375673, 0.48122259587765015, 0.5678785200000931, 0.2317419425110394, 0.39328577766764283, 0.9652188056381306, 0.6155326995759154, 0.6804740899660437]",21.84,0.0,0.0,0.0,241.38483732067652,68.76469419406708,-840.1964277223217,-155.37801871081854,0.0,0.0,0.0,0.0,0.0,0.0,0.0,5.4,21.786177303856718,0.0,21.90856536584942,0.0,5.4,21.84,21.15,22.67,21.59,22.29,3.98,5.4,0.0,-584.42,-823.88,0.0,162.0,33.0,88.0,0.0,0.0,0.0,0.0,0.0,0.0,0.0,0.0,0.0,0.0,0.0,0.0,0.0,0.0
138.0,5107.0,0.0,1519.565573614468,-0.0,0.0,6626.565573614468,0.0,4613.612059804525,0.0,0.0,0.0,4613.612059804525,0.4730525543448302,0.5255056707745482,0.4012059369202219,0.0,0.0,0.0,"[0.6896179537375673, 0.48122259587765015, 0.5678785200000931, 0.2317419425110394, 0.39328577766764283, 0.9652188056381306, 0.6155326995759154, 0.6804740899660437]",21.51,0.0,0.0,0.0,503.04082536333954,96.24667449751699,-843.7383201164695,212.75746072290966,0.0,0.0,0.0,0.0,0.0,0.0,0.0,5.0,21.632192825611735,0.0,21.814698158108826,0.0,5.0,21.51,21.12,22.51,21.42,22.08,3.63,5.0,0.0,-586.88,-827.35,0.0,101.0,106.0,304.0,0.0,0.0,0.0,0.0,0.0,0.0,0.0,0.0,0.0,0.0,0.0,0.0,0.0,0.0
139.0,5401.0,0.0,871.3085231712055,-0.0,0.0,6272.308523171206,0.0,2612.187843688694,0.0,0.0,0.0,2612.187843688694,0.2063727701963946,0.5255056707745482,0.4012059369202219,0.0,0.0,0.0,"[0.6896179537375673, 0.48122259587765015, 0.5678785200000931, 0.2317419425110394, 0.39328577766764283, 0.9652188056381306, 0.6155326995759154, 0.6804740899660437]",21.49,0.0,0.0,0.0,750.9670623850825,94.18552597475826,-863.2782340342754,119.78825121219845,0.0,0.0,0.0,0.0,0.0,0.0,0.0,4.6,21.570295121036885,0.0,21.723205302561396,0.0,4.6,21.49,21.09,22.36,21.39,21.99,3.29,4.6,0.0,-600.47,-846.51,0.0,101.0,92.0,487.0,0.0,0.0,0.0,0.0,0.0,0.0,0.0,0.0,0.0,0.0,0.0,0.0,0.0,0.0
140.0,4387.0,0.0,1861.8925636247498,-0.0,0.0,6248.8925636247495,0.0,5510.964384955219,0.0,0.0,0.0,5510.964384955219,0.5940218958926213,0.5255056707745482,0.4012059369202219,0.0,0.0,0.0,"[0.45911831357745925, 0.46296017562283254, 0.5678785200000966, 0.2026863470089708, 0.08460955140935766, 0.9652188056381306, 0.6155326995759118, 0.6804740899660437]",21.54,0.0,0.0,0.0,1269.3909595729085,112.34753034921211,-886.0913469488303,-53.70712198078597,0.0,0.0,0.0,0.0,0.0,0.0,0.0,4.2,21.53386955700875,0.0,21.643468319988322,0.0,4.2,21.54,21.06,22.23,21.38,21.93,2.95,4.2,0.0,-616.34,-868.88,0.0,144.0,82.0,845.0,0.0,0.0,0.0,0.0,0.0,0.0,0.0,0.0,0.0,0.0,0.0,0.0,0.0,0.0
141.0,3510.0,1763.5671276655662,0.0,-0.0,0.0,1755.2507079727616,0.0,3864.8771205863345,0.0,3864.877120586334,0.0,0.0,0.5193938896012624,0.5090733700917832,0.4012059369202219,0.0,0.0,0.0,"[0.45911831357745925, 0.46296017562283254, 0.5678785200000966, 0.2026863470089708, 0.08460955140935766, 0.9652188056381306, 0.6155326995759118, 0.6804740899660437]",21.75,0.0,0.0,0.0,974.0934873533315,76.74044282561178,-917.2267824877092,-439.8079715969429,0.0,0.0,0.0,0.0,0.0,0.0,0.0,3.8,21.558434823687662,0.0,21.585495783167147,0.0,3.8,21.75,21.03,22.14,21.45,21.95,2.61,3.8,0.0,-638.0,-899.41,0.0,109.0,46.0,651.0,0.0,0.0,0.0,0.0,0.0,0.0,0.0,0.0,0.0,0.0,0.0,0.0,0.0,0.0
142.0,3586.0,0.0,2388.778754217638,-0.0,0.0,5974.7787542176375,0.0,6888.296583496495,0.0,0.0,0.0,6888.296583496496,0.26536418066343775,0.5090733700917832,0.4012059369202219,0.0,0.0,0.0,"[0.45911831357745925, 0.46296017562283254, 0.5678785200000966, 0.2026863470089708, 0.08460955140935766, 0.9652188056381306, 0.6155326995759118, 0.6804740899660437]",21.6,0.0,0.0,0.0,562.1290732125344,50.184485771517245,-930.0591017213957,-295.80625978290936,1741.686442231038,0.0,0.0,0.0,0.0,0.0,0.0,3.4,21.478940502166985,0.0,21.529384737309485,0.0,3.4,21.6,21.0,22.06,21.36,21.83,2.21,3.4,0.0,-646.92,-911.99,0.0,81.0,28.0,366.0,0.0,0.0,0.0,0.0,0.0,0.0,0.0,0.0,0.0,0.0,0.0,0.0,0.0,0.0
143.0,2560.0,0.0,1856.6619876697591,-0.0,0.0,4416.661987669759,0.0,5283.0810054346175,0.0,0.0,0.0,5283.0810054346175,0.07758093288836299,0.5090733700917832,0.397031539888682,0.0,0.0,0.0,"[0.45911831357745925, 0.46296017562283254, 0.5678785200000966, 0.2026863470089708, 0.08460955140935766, 0.9652188056381306, 0.6155326995759118, 0.6804740899660437]",22.14,0.0,0.0,0.0,228.44580494494045,34.710935991966096,-978.1025037762872,-1075.8476001877393,2454.2497736205846,0.0,0.0,0.0,0.0,0.0,0.0,3.0,21.645721876987384,0.0,21.544357414587754,0.0,3.0,22.14,21.0,22.09,21.74,22.22,1.8,3.0,0.0,-680.34,-959.1,0.0,105.0,0.0,112.0,0.0,0.0,0.0,0.0,0.0,0.0,0.0,0.0,0.0,0.0,0.0,0.0,0.0,0.0
144.0,1644.0,43250.835836365375,2275.213060765251,-23115.3685964183,0.0,-16000.0,0.0,6365.605137205725,0.0,0.0,0.0,6365.6051372057245,0.7309142662216963,0.5090733700917832,0.4999999999999999,0.0,0.0,0.0,"[0.45911831357745925, 0.46296017562283254, 0.5678785200000966, 0.2026863470089708, 0.08460955140935766, 0.9652188056381306, 0.6155326995759118, 0.6804740899660437]",22.46,0.0,0.0,0.0,220.1073174139105,32.79914605781306,-1019.8790551830061,-1465.142652288612,320.66182361004985,0.0,0.0,0.0,0.0,0.0,0.0,2.5,21.77720227737948,0.0,21.605822182390206,0.0,2.5,22.46,21.03,22.18,21.95,22.46,1.37,2.5,0.0,-709.4,-1000.07,0.0,80.0,10.0,118.0,0.0,0.0,0.0,0.0,0.0,0.0,0.0,0.0,0.0,0.0,0.0,0.0,0.0,0.0
145.0,531.0,0.0,5866.334676333126,-0.0,0.0,6397.334676333126,0.0,16189.165071774572,0.0,0.0,0.0,16189.165071774576,0.4589187442687574,0.5090733700917832,0.4999999999999999,0.0,0.0,0.0,"[0.45911831357745925, 0.46296017562283254, 0.5678785200000966, 0.2026863470089708, 0.08460955140935766, 0.9652188056381306, 0.6155326995759118, 0.6804740899660437]",21.54,0.0,0.0,0.0,226.8643676545727,27.60146717433448,-993.3979915728746,-161.87863262952305,2815.3901050112863,0.0,0.0,0.0,0.0,0.0,0.0,2.1,21.483875105054096,0.0,21.567422266073358,0.0,2.1,21.54,21.01,22.13,21.36,21.88,1.05,2.1,0.0,-690.98,-974.1,0.0,80.0,0.0,124.0,0.0,0.0,0.0,0.0,0.0,0.0,0.0,0.0,0.0,0.0,0.0,0.0,0.0,0.0
146.0,769.0,0.0,3157.987857660347,-0.0,0.0,3926.987857660347,0.0,8564.483303239607,0.0,0.0,0.0,8564.483303239609,0.29195497481040933,0.5090733700917832,0.4999999999999999,0.0,0.0,0.0,"[0.45911831357745925, 0.46296017562283254, 0.5678785200000966, 0.2026863470089708, 0.08460955140935766, 0.9652188056381306, 0.6155326995759118, 0.6804740899660437]",22.46,0.0,0.0,0.0,285.59319793777473,28.885951036343556,-1065.8676171647394,-1456.4816012754668,296.21413064029883,0.0,0.0,0.0,0.0,0.0,0.0,1.6,21.78211619284267,0.0,21.61544236827039,0.0,1.6,22.46,21.02,22.21,21.98,22.51,0.62,1.6,461.13,-741.39,-1045.16,0.0,80.0,0.0,167.0,0.0,0.0,0.0,0.0,0.0,0.0,0.0,0.0,0.0,0.0,0.0,0.0,0.0,0.0
147.0,363.0,0.0,6503.781007540828,-0.0,0.0,6866.781007540828,0.0,17514.29068169696,0.0,0.0,0.0,17514.29068169696,0.0,0.5090733700917832,0.4999999999999999,0.0,0.0,0.0,"[0.45911831357745925, 0.46296017562283254, 0.5678785200000966, 0.2026863470089708, 0.08460955140935766, 0.9652188056381306, 0.6155326995759118, 0.6804740899660437]",21.54,0.0,0.0,0.0,57.50681055882704,23.897374176912972,-1029.1668731142229,-158.56369084054128,3020.7139980166885,0.0,0.0,0.0,0.0,0.0,0.0,1.4,21.486129821934153,0.0,21.57305649056508,0.0,1.4,21.54,21.0,22.14,21.35,21.88,0.39,1.4,762.27,-715.86,-1009.18,0.0,80.0,0.0,0.0,0.0,0.0,0.0,0.0,0.0,0.0,0.0,0.0,0.0,0.0,0.0,0.0,0.0,0.0
148.0,599.0,5417.9961438108,4791.906163091746,-0.0,0.0,0.0,0.0,12812.949367978816,0.0,0.0,0.0,12812.949367978816,0.0,0.5090733700917832,0.4999999999999999,0.0,0.0,0.0,"[0.45911831357745925, 0.46296017562283254, 0.5678785200000966, 0.2026863470089708, 0.08460955140935766, 0.9652188056381306, 0.6155326995759118, 0.6804740899660437]",22.46,0.0,0.0,0.0,183.94991027504796,34.681064274244946,-1086.3069780455098,-1449.2944646157928,2318.765307074854,0.0,0.0,0.0,0.0,0.0,0.0,1.2,21.78590977337699,0.0,21.623711676078052,0.0,1.2,22.46,21.02,22.23,22.0,22.55,0.28,1.2,174.85,-755.6,-1065.21,0.0,80.0,15.0,91.0,0.0,0.0,0.0,0.0,0.0,0.0,0.0,0.0,0.0,0.0,0.0,0.0,0.0,0.0
149.0,699.0,19758.818925380994,2961.0248307540887,-0.0,0.0,-16000.0,0.0,7832.71980342431,0.0,0.0,0.0,7832.719803424309,0.6533333333333333,0.5090733700917832,0.4999999999999999,0.0,0.0,0.0,"[0.45911831357745925, 0.46296017562283254, 0.5678785200000966, 0.2026863470089708, 0.08460955140935766, 0.9652188056381306, 0.6155326995759118, 0.6804740899660437]",22.46,0.0,0.0,0.0,62.25112242993027,41.64117450327086,-1101.6364987060877,-1378.3757231686175,465.1241034603616,0.0,0.0,0.0,0.0,0.0,0.0,0.9,21.820222758167777,0.0,21.678017847399435,0.0,0.9,22.46,21.04,22.31,21.95,22.52,0.0,0.9,0.0,-766.27,-1080.24,0.0,80.0,33.0,0.0,0.0,0.0,0.0,0.0,0.0,0.0,0.0,0.0,0.0,0.0,0.0,0.0,0.0,0.0
150.0,702.0,6320.925459971712,5587.320832671854,-0.0,0.0,0.0,0.0,14726.724742800485,0.0,0.0,0.0,14726.724742800487,0.6533333333333333,0.5090733700917832,0.4999999999999999,0.0,0.0,0.0,"[0.45911831357745925, 0.46296017562283254, 0.5678785200000966, 0.2026863470089708, 0.08460955140935766, 0.9652188056381306, 0.6155326995759118, 0.6804740899660437]",21.54,0.0,0.0,0.0,236.99994301556595,68.1971315573654,-1059.8259144353783,-84.06880990362528,2755.3779009340224,0.0,0.0,0.0,0.0,0.0,0.0,0.8,21.52232221804373,0.0,21.632262701492184,0.0,0.8,21.54,21.02,22.25,21.39,21.97,-0.04,0.8,346.54,-737.18,-1039.24,0.0,149.0,39.0,91.0,0.0,0.0,0.0,0.0,0.0,0.0,0.0,0.0,0.0,0.0,0.0,0.0,0.0,0.0
151.0,1263.0,21442.794474082202,8107.548583344445,-0.0,0.0,-8489.795918367347,0.0,7313.862215647073,17376.18,0.0,0.0,21214.80621564707,1.0,0.5090733700917832,0.4999999999999999,13900.944000000001,3475.2360000000003,17376.18,"[0.45911831357745925, 0.46296017562283254, 0.5678785200000966, 0.2026863470089708, 0.08460955140935766, 0.9652188056381306, 0.6155326995759118, 0.6804740899660437]",22.46,0.0,0.0,0.0,117.02635948721304,79.21979539646652,-1116.9660193666653,-1389.253090495535,400.9219288593533,0.0,0.0,0.0,0.0,0.0,0.0,0.6,21.815232315886384,0.0,21.67158673539046,0.0,0.6,22.46,21.03,22.31,22.0,22.58,-0.22,0.6,565.17,-776.93,-1095.27,0.0,150.0,64.0,0.0,0.0,0.0,0.0,0.0,0.0,0.0,0.0,0.0,0.0,0.0,0.0,0.0,0.0,0.0
