,import_elec,import_th,consum_elec,consum_th,consum_cold,pow_elec_hp,pow_th_hp,pow_th_gb,pow_th_chp,pow_gas_gb,pow_elec_eh,pow_elec_ac,pow_elec_chp,pow_th_eh_in,pow_th_eh_out,consum_dhw,gen_pv,trans_to_hub,trans_to_bul,dh_to_bul_1,dh_to_bul_2,temp_zone_1,temp_zone_2,temp_amb,pow_elec_bat,pow_th_tes,soc_bat_avg,soc_tes_avg,soc_ev_1,soc_ev_2,consum_ev_drive,consum_ev_charge,soc_ev_1_driving,soc_ev_2_driving,obj_cost,obj_co2,obj_peak,emi_factor_elec,emi_factor_dh,price_elec,price_dh,slack_ext,restload_avg,renovation_cost_construction,renovation_cost_hp,renovation_cost_pv,renovation_cost_total
390.0,1342730.6540402074,0.0,55528.0,2737746.1535173855,126075.54600629123,1364765.4179854463,2686415.8079852895,0.0,0.0,0.0,4948.166000000001,63037.773003145616,0.0,19792.664000000004,24740.83,24740.83,0.0,0.0,1342730.6540402074,0.0,,20.0,,-6.2,89224.58321544007,71123.00953209568,0.40159915833412296,0.48601613400614824,0.8,,0.0,0.0,0.0,,330.311740893891,491439.4193787159,1342730.6540402074,366.0,217.0,66.0,73.89,,,5516588.0304000005,837141.3467096372,1055673.1935,7409402.570609635
391.0,1055374.3835160146,0.0,49458.0,1682186.8600213155,0.0,785862.4785946531,1539406.490744772,0.0,0.0,0.0,209595.65083211876,0.0,0.0,838382.603328475,1047978.2541605937,0.0,0.0,0.0,1055374.3835160146,0.0,,20.0,,-6.3,-5181.382171662792,-45855.716472362685,0.4159513830248741,0.48930583961992646,0.8,,0.0,0.0,0.0,,259.62209834493956,403153.0145031176,1055374.3835160146,382.0,207.0,66.0,73.9,,,,,,
392.0,716789.4769682932,0.0,65557.0,1381067.0935463707,0.0,555781.5353683706,1094005.081550101,0.0,0.0,0.0,109831.75135885632,0.0,0.0,439327.00543542526,549158.7567942815,0.0,0.0,0.0,716789.4769682934,0.0,,24.0,,-6.2,17964.75714377519,188213.4357733,0.45158185757262864,0.45239826303950004,0.8,,0.0,0.0,0.0,,176.33021133420013,250159.52746193434,716789.4769682932,349.0,210.0,66.0,73.92,,,,,,
393.0,814282.6936563372,0.0,83640.0,1453010.6327449665,0.0,512759.28084262635,1043537.7524413298,0.0,0.0,0.0,180172.7953383454,0.0,0.0,720691.1813533816,900863.9766917271,0.0,414.0666266069257,0.0,814282.6936563376,0.0,,24.0,,-5.5,-34053.27063369078,247317.3644991251,0.5269329884491672,0.44139970145399426,0.8,,0.0,0.0,0.0,,200.31354263945894,272784.702374873,814282.6936563372,335.0,211.0,66.0,73.92,,,,,,
394.0,920346.8461739299,0.0,109766.0,1575079.762372045,0.0,729650.0411052337,1519721.0540174907,0.0,0.0,0.0,71309.068,0.0,0.0,285236.272,356545.33999999997,356545.33999999997,2038.2736666551164,0.0,920346.8461739299,0.0,,21.316734904442495,,-5.0,-7058.27650448159,340594.9803545552,0.5148090375902052,0.4009581827797534,0.8,,0.0,0.0,0.0,,226.40532415878673,300953.41869887506,920346.8461739299,327.0,210.0,66.0,73.92,,,,,,
395.0,1006714.9394960603,0.0,157116.0,1742465.450446206,12253.555184933715,869805.1198281075,1861389.9094228134,0.0,0.0,0.0,0.0,6126.777592466858,0.0,0.0,0.0,0.0,16256.065339844386,0.0,1006714.9394960605,0.0,,20.0,,-4.4,8983.689689683506,-118924.45897660789,0.46810453072427044,0.4101715130945862,0.8,,0.0,-1.4551915228366852e-11,0.0,,247.6518751160308,325168.92545722745,1006714.9394960603,323.0,210.0,66.0,73.92,,,,,,
396.0,998183.1221413488,0.0,147699.0,1544027.1801474662,0.0,856633.2992937132,1865868.3007177042,0.0,0.0,0.0,9737.648,0.0,0.0,38950.592,48688.24,48688.24,24960.761679502157,0.0,998183.1221413487,0.0,,23.652483488364844,,-4.0,-4083.0209164309663,-282890.5285702376,0.42049919157155424,0.4368426966082005,0.8,,0.0,0.0,0.31666666666666665,,245.55304804677178,321414.9653295143,998183.1221413488,322.0,209.0,66.0,73.92,,,,,,
397.0,784434.4934261019,0.0,128191.0,1165194.2259260726,0.0,564635.9512860787,1240622.5361233226,0.0,0.0,0.0,34568.894,0.0,0.0,138275.576,172844.47,172844.47,15251.528716750025,0.0,784434.4934261019,0.0,,24.0,,-3.8,-68368.00438964277,62847.26580275003,0.5221649105749894,0.4488154855113707,0.8,,0.0,0.0,0.31666666666666665,,192.97088538282105,249450.1689095004,784434.4934261019,318.0,205.0,66.0,73.91,,,,,,
398.0,293076.13661270903,0.0,102534.0,873353.1724763481,0.0,205270.35693882633,449064.7312642088,0.0,0.0,0.0,0.0,0.0,0.0,0.0,0.0,0.0,3215.4731486138126,0.0,293076.1366127091,0.0,,21.15034574013668,,-3.9,12978.127860566989,424288.4412121393,0.5214339382001546,0.4035392209494832,0.8,,8700.0,0.0,0.31666666666666665,,72.09672960672643,99645.88644832108,293076.13661270903,340.0,204.0,66.0,73.91,,,,,,
399.0,755084.9977352525,0.0,98491.0,1279995.0745616823,0.0,636677.4616531528,1374634.140629158,0.0,0.0,0.0,5738.684,0.0,0.0,22954.736,28693.42,28693.42,19.856061219163134,0.0,755084.9977352525,0.0,,20.323720274751064,,-4.2,-8735.48598679611,-71684.33006747492,0.5067333299599206,0.4157111485448625,0.8,,10800.0,-1686.7971678467304,0.31666666666666665,,185.7509094428721,268810.25919374987,755084.9977352525,356.0,209.0,66.0,73.91,,,,,,
400.0,441568.056211761,0.0,94333.0,936384.6922559601,0.0,413456.7152501684,872975.8464442254,0.0,0.0,0.0,16665.186,0.0,0.0,66660.744,83325.93,83325.93,0.0,0.0,441568.05621176114,0.0,,24.0,,-4.7,85094.68531946611,130069.58981173532,0.3597353836702923,0.3905456763138057,0.8,,2400.0,0.0,0.31666666666666665,,108.62574182809321,153224.11550548108,441568.056211761,347.0,210.0,66.0,73.91,,,,,,
401.0,916136.2528138999,0.0,116456.0,1199678.280821064,27468.58582377584,703508.9560896753,1458567.422257491,0.0,0.0,0.0,0.0,13734.29291188792,0.0,0.0,0.0,0.0,0.0,0.0,916136.2528138999,0.0,,21.185993334858075,,-5.1,-91590.61546015521,-258889.141436426,0.48323915281239865,0.4293600229675256,0.8,,0.0,0.0,0.31666666666666665,,225.36951819221937,302324.96342858695,916136.2528138999,330.0,208.0,66.0,73.93,,,,,,
402.0,734289.750398773,0.0,140032.0,546128.3895644655,85502.9169049221,382042.28636960586,777510.1568138072,0.0,0.0,0.0,0.0,42751.45845246105,0.0,0.0,0.0,0.0,0.0,0.0,734289.750398773,0.0,,20.370722257446843,,-5.5,-173904.2818327752,-231381.76724934156,0.6552619201506614,0.44239454863767314,0.8,,12150.0,-34639.73344439817,0.31666666666666665,,180.63527859809815,240847.03813079753,734289.750398773,328.0,210.0,66.0,73.93,,,,,,
403.0,1729984.414693245,0.0,170267.0,2256612.975455758,355953.0960385723,1048395.5656026511,2103649.417648768,0.0,0.0,0.0,397898.45765090385,177976.54801928616,0.0,1591593.8306036154,1989492.2882545195,11533.93,0.0,0.0,1729984.414693245,0.0,,21.721024889172515,,-5.8,-104773.46936622393,-193841.8026788248,0.7666256438985318,0.4599658090234332,0.8,,7500.0,0.0,0.31666666666666665,,425.5761660145383,586464.71658101,1729984.414693245,339.0,212.0,66.0,73.93,,,,,,
404.0,696401.8148369142,0.0,168212.0,1189253.2538405063,82819.07162150503,539464.159756338,1061885.8211912734,0.0,0.0,0.0,33975.343486762045,41409.53581075252,0.0,135901.37394704818,169876.7174338102,36753.99,0.0,0.0,696401.8148369142,0.0,,23.629277742553157,,-6.2,48731.69748037056,132808.53371114703,0.6520734546925,0.434439045409037,0.7775510204081633,,3300.0,0.0,0.0,,171.3148464498809,247919.04608194146,696401.8148369142,356.0,220.0,66.0,73.92,,,,,,
405.0,1050185.313349675,0.0,153517.0,1418687.3098987918,105267.11260904509,695030.6859071618,1341600.525575027,0.0,0.0,0.0,125875.17360017238,52633.55630452254,0.0,503500.6944006895,629375.8680008618,0.0,0.0,0.0,1050185.313349675,0.0,,21.229787396422715,,-6.6,-70511.5272755925,-36200.87191639024,0.7042806245894043,0.4398754767464491,0.7775510204081633,,2400.0,0.0,0.0,,258.34558708402005,411672.6428330726,1050185.313349675,392.0,230.0,66.0,73.89,,,,,,
406.0,565543.3742591062,0.0,114577.0,986891.8781043296,0.0,385456.01787904877,729337.5262274487,0.0,0.0,0.0,139612.7612187475,0.0,0.0,558451.04487499,698063.8060937375,0.0,0.0,0.0,565543.3742591062,0.0,,23.114468252794865,,-7.0,76930.1217099856,131902.86678000784,0.5797442191590423,0.4349445576875995,0.7775510204081633,,6300.0,0.0,0.0,,139.12367006774014,210382.13522438752,565543.3742591062,372.0,238.0,66.0,73.76,,,,,,
407.0,298999.8689205203,0.0,81470.0,741500.7516901265,0.0,227355.95636309616,423687.3950004113,0.0,0.0,0.0,37898.777916137486,0.0,0.0,151595.11166454994,189493.88958068742,0.0,0.0,0.0,298999.8689205202,0.0,,23.629277742553157,,-7.3,49219.86470331607,283704.45656519127,0.5076632382939731,0.4018166708415979,0.7775510204081633,,4350.0,0.0,0.0,,73.55396775444798,104350.95425326157,298999.8689205203,349.0,197.0,66.0,71.69,,,,,,
408.0,357276.17426511477,0.0,62021.0,870911.4508680764,0.0,399667.9375909577,733367.5540091681,0.0,0.0,0.0,0.0,0.0,0.0,0.0,0.0,0.0,0.0,0.0,357276.17426511477,0.0,,21.545887582998684,,-7.6,106199.1441971686,137543.8968589076,0.3783096696599342,0.3881401991603446,0.7775510204081633,,20550.0,0.0,0.0,,87.88993886921823,120402.07072734369,357276.17426511477,337.0,199.0,66.0,74.75,,,,,,
409.0,452613.81765853293,0.0,52509.0,891437.896376306,0.0,308590.9792329868,560362.8170847017,0.0,0.0,0.0,86548.75015420053,0.0,0.0,346195.00061680214,432743.75077100267,0.0,0.0,0.0,452613.817658533,0.0,,20.862639043435518,,-7.8,-2702.0191830530057,253181.20415282392,0.43342277927676387,0.3648448200189308,0.7775510204081634,,5550.0,0.0,0.0,,111.3429991439991,155699.15327453532,452613.81765853293,344.0,202.0,66.0,75.08,,,,,,
410.0,663022.6521939206,0.0,41795.0,1104225.4983461127,14298.758256560035,524943.2754606296,938218.3280243458,0.0,0.0,0.0,105241.3786707166,7149.3791282800175,0.0,420965.5146828664,526206.893353583,0.0,0.0,0.0,663022.6521939205,0.0,,22.574376310275934,,-8.1,12272.115198395215,71289.92951812205,0.4203022809202824,0.3632188511373312,0.7775510204081634,,0.0,0.0,0.0,,163.10357243970446,222775.6111371573,663022.6521939206,336.0,199.0,66.0,75.77,,,,,,
411.0,712296.1477607554,0.0,38765.0,884077.7108927194,0.0,368661.55942632386,658899.8241539617,0.0,0.0,0.0,327587.7489345168,0.0,0.0,1310350.9957380672,1637938.7446725839,0.0,0.0,0.0,712296.1477607555,0.0,,21.088669432105934,,-8.1,26279.641338889123,-69651.08730230764,0.36488927423302525,0.3764415126683916,0.7775510204081634,,0.0,0.0,0.0,,175.2248523491458,223660.9903968772,712296.1477607554,314.0,197.0,66.0,75.78,,,,,,
412.0,574885.1074006306,0.0,33965.0,781357.3862119683,0.0,387715.63337738893,689258.4942298495,0.0,0.0,0.0,154296.96827666246,0.0,0.0,617187.8731066498,771484.8413833124,0.0,0.0,0.0,574885.1074006308,0.0,,20.60459160768753,,-8.2,3966.9197904238154,-46768.379466877326,0.42622922019727094,0.39472926112047124,0.7775510204081634,,5100.0,0.0,0.0,,141.42173642055513,173615.30243499042,574885.1074006306,302.0,194.0,66.0,75.8,,,,,,
413.0,342706.2319015653,0.0,38733.0,675567.2785428632,0.0,358596.1427087998,634072.9359049978,0.0,0.0,0.0,0.0,0.0,0.0,0.0,0.0,0.0,0.0,0.0,342706.2319015653,0.0,,20.370722257446843,,-8.3,56336.44196674227,41494.34263786526,0.37155072649651655,0.3736063248859578,0.7775510204081634,,0.0,0.0,0.0,,84.30573304778507,95957.74493243828,342706.2319015653,280.0,190.0,66.0,75.92,,,,,,
414.0,1200932.0260640166,0.0,54504.0,699313.9399021394,67345.94938092635,560023.262850717,990238.1876405404,0.0,0.0,0.0,387279.232200429,33672.974690463176,0.0,1549116.928801716,1936396.161002145,270175.98000000004,0.0,0.0,1200932.0260640164,0.0,,23.629277742553157,,-8.3,-183362.43689671144,-374703.096318787,0.6507003620061234,0.4326233920709506,0.7775510204081634,,0.0,-9758.433985839236,0.0,,295.4292784117481,313443.2588027083,1200932.0260640166,261.0,185.0,66.0,76.03999999999999,,,,,,
415.0,490452.6575237153,0.0,48458.0,1060117.9918164727,0.0,413152.79424500576,730540.4995307437,0.0,0.0,0.0,35036.18626900334,0.0,0.0,140144.74507601335,175180.9313450167,66604.92,0.0,0.0,490452.6575237153,0.0,,21.31644852202561,,-8.3,12644.920305400861,363317.7462436257,0.6847499610726354,0.3680488655979045,0.7775510204081634,,0.0,-3998.3340274885445,0.0,,120.65135375083396,117218.18514816795,490452.6575237153,239.0,192.0,66.0,75.84,,,,,,
416.0,662792.9429184152,0.0,67192.0,1145915.3404192831,0.0,527025.7894156411,941940.3544837643,0.0,0.0,0.0,121867.60164532631,0.0,0.0,487470.40658130526,609338.0082266316,19516.73,0.0,0.0,662792.9429184151,0.0,,20.647985656933443,,-8.1,56606.41285714445,113420.53985472536,0.6008409210435758,0.34950057673503165,0.7775510204081635,,0.0,0.0,0.31666666666666665,,163.04706395793013,147140.03332788817,662792.9429184152,222.0,210.0,66.0,75.24,,,,,,
417.0,413058.9244758149,0.0,79350.0,763480.330046882,0.0,385717.48118079675,704092.1100849316,0.0,0.0,0.0,13680.94740406937,0.0,0.0,54723.78961627748,68404.73702034685,0.0,0.0,0.0,413058.9244758149,0.0,,23.629277742553157,,-7.7,67754.7987314302,47075.367298287994,0.471078968679238,0.34040309348385345,0.7775510204081635,,0.0,0.0,0.31666666666666665,,101.61249542105047,83850.96166859043,413058.9244758149,203.0,221.0,66.0,75.22,,,,,,
418.0,510665.6405471258,0.0,112690.0,817013.2005391351,0.0,321318.038277204,595726.4664180948,0.0,0.0,0.0,86095.6298429419,0.0,0.0,344382.5193717676,430478.14921470947,69881.15,21.203539641708293,0.0,510665.6405471257,0.0,,23.629277742553157,,-7.4,11970.152236114005,212284.1942623924,0.4955760045828465,0.32481629732668715,0.7775510204081635,,0.0,0.0,0.31666666666666665,,125.62374757459295,97026.4717039539,510665.6405471258,190.0,223.0,66.0,75.22,,,,,,
419.0,1101971.2326644233,0.0,175464.0,973735.9383930924,1238.5359548043668,499047.2827165577,934753.1891279079,0.0,0.0,0.0,336042.34345909115,619.2679774021834,0.0,1344169.3738363646,1680211.7172954555,76691.16,85.93675149002043,0.0,1101971.2326644233,0.0,,21.56025239859961,,-7.2,-81464.32431142802,-188298.02304799753,0.6104363541741508,0.37132860259318157,0.7775510204081634,,1800.0,-4529.362765514369,0.31666666666666665,,271.0849232354481,196150.87941426734,1101971.2326644233,178.0,215.0,66.0,75.23,,,,,,
420.0,629732.2566434332,0.0,145591.0,913594.9881824569,14789.215810766505,392844.9089744098,747063.4685872465,0.0,0.0,0.0,161374.20271262457,7394.607905383253,0.0,645496.8108504983,806871.0135631227,0.0,210.26724157399374,0.0,629732.2566434332,0.0,,23.629277742553157,,-6.9,73016.24908524421,21294.737153848386,0.4440236909986078,0.36729353042887275,0.7775510204081634,,0.0,0.0,0.31666666666666665,,154.91413513428458,110832.87716924425,629732.2566434332,176.0,212.0,66.0,75.27,,,,,,
421.0,466098.4158047748,0.0,119601.0,1019548.4819058793,114303.98353993581,526741.4816591699,1112166.2167960443,0.0,0.0,0.0,3835.7364458073225,57151.991769967906,0.0,15342.94578322929,19178.68222903661,0.0,222160.7620151398,0.0,466098.41580477473,0.0,,21.684091918779664,,-4.7,-35750.46763591356,-96069.89769139199,0.46879364202602325,0.37328395588940405,0.766326530612245,,1650.0,0.0,0.0,,114.66021028797459,84363.81326066423,466098.4158047748,181.0,207.0,66.0,75.28,,,,,,
422.0,308371.00934960536,0.0,98586.0,638305.8938651391,448.4679514966636,226346.13649675637,499487.3317287528,0.0,0.0,0.0,3860.7780000000002,224.2339757483318,0.0,15443.112000000001,19303.89,19303.89,148479.10124446658,0.0,308371.00934960536,0.0,,21.189283794661463,,-3.7,-90748.9936952989,154261.67413638634,0.6567936144901013,0.34415282847287576,1.0,,2100.0,-35766.34735526866,0.05,,75.85926830000292,56740.265720327385,308371.00934960536,184.0,193.0,66.0,77.02,,,,,,
423.0,340292.56048434717,0.0,99265.0,738165.1379449049,477.6561565591991,323173.09842230164,716240.2805850428,0.0,0.0,0.0,3365.401640387201,238.82807827959954,0.0,13461.606561548804,16827.008201936005,0.0,15042.768588491721,0.0,340292.5604843472,0.0,,20.985073400466653,,-3.6,72169.63379227163,18895.995883513402,0.5857824961509992,0.33847300699488336,1.0,,4500.0,0.0,0.05,,83.7119698791494,67377.92697590074,340292.56048434717,198.0,196.0,66.0,76.56,,,,,,
424.0,402736.12322347186,0.0,92165.0,811427.3497307354,88.13054152485687,391951.7841938126,838779.951333019,0.0,0.0,0.0,0.0,44.06527076242843,0.0,0.0,0.0,0.0,0.0,0.0,402736.1232234719,0.0,,23.15746398922697,,-4.4,83394.34158645802,-27352.601602283394,0.446889850266426,0.343319160770147,1.0,,5550.0,0.0,0.05,,99.07308631297407,80949.96076791784,402736.12322347186,201.0,192.0,66.0,77.34,,,,,,
425.0,750300.313996062,0.0,137175.0,1049925.6198714955,76045.96101132073,563829.8014386878,1174349.3070060606,0.0,0.0,0.0,0.0,38022.980505660365,0.0,0.0,0.0,0.0,0.0,0.0,750300.3139960619,0.0,,21.531934170259397,,-5.0,-45544.01098739392,-124423.68713456544,0.4987939961128469,0.3530683461470881,1.0,,7500.0,0.0,0.05,,184.57387724303126,147058.86154322818,750300.313996062,196.0,188.0,66.0,77.38,,,,,,
426.0,1200932.0260640166,0.0,151270.0,381778.6113682119,6540.742676196576,560023.262850717,990238.1876405404,0.0,0.0,0.0,387279.232200429,33672.974690463176,0.0,1549116.928801716,1936396.161002145,295876.26,0.0,0.0,1200932.0260640164,0.0,,21.039632921387742,,-5.5,-183362.43689671144,-374703.096318787,0.6507003620061234,0.4326233920709506,0.7775510204081634,,0.0,-9758.433985839236,0.05,,295.4292784117481,234181.74508248322,1200932.0260640166,195.0,190.0,66.0,77.36,,,,,,
427.0,490452.6575237153,0.0,164090.0,1060117.9918164727,0.0,413152.79424500576,730540.4995307437,0.0,0.0,0.0,35036.18626900334,0.0,0.0,140144.74507601335,175180.9313450167,176201.38,0.0,0.0,490452.6575237153,0.0,,21.31644852202561,,-6.1,12644.920305400861,363317.7462436257,0.6847499610726354,0.3680488655979045,0.7775510204081634,,0.0,-3998.3340274885445,0.05,,120.65135375083396,97600.07884721934,490452.6575237153,199.0,195.0,66.0,76.7,,,,,,
428.0,662792.9429184152,0.0,161378.0,1145915.3404192831,0.0,527025.7894156411,941940.3544837643,0.0,0.0,0.0,121867.60164532631,0.0,0.0,487470.40658130526,609338.0082266316,0.0,0.0,0.0,662792.9429184151,0.0,,20.647985656933443,,-6.7,56606.41285714445,113420.53985472536,0.6008409210435758,0.34950057673503165,0.7775510204081635,,0.0,0.0,0.05,,163.04706395793013,135209.7603553567,662792.9429184152,204.0,201.0,66.0,76.52,,,,,,
429.0,413058.9244758149,0.0,151354.0,763480.330046882,0.0,385717.48118079675,704092.1100849316,0.0,0.0,0.0,13680.94740406937,0.0,0.0,54723.78961627748,68404.73702034685,0.0,0.0,0.0,413058.9244758149,0.0,,23.629277742553157,,-7.2,67754.7987314302,47075.367298287994,0.471078968679238,0.34040309348385345,0.7775510204081635,,0.0,0.0,0.05,,101.61249542105047,85090.13844201788,413058.9244758149,206.0,203.0,66.0,76.52,,,,,,
430.0,510665.6405471258,0.0,105204.0,817013.2005391351,0.0,321318.038277204,595726.4664180948,0.0,0.0,0.0,86095.6298429419,0.0,0.0,344382.5193717676,430478.14921470947,0.0,0.0,0.0,510665.6405471257,0.0,,23.629277742553157,,-7.8,11970.152236114005,212284.1942623924,0.4955760045828465,0.32481629732668715,0.7775510204081635,,0.0,0.0,0.0,,125.62374757459295,102133.12810942515,510665.6405471258,200.0,189.0,66.0,77.77,,,,,,
431.0,1101971.2326644233,0.0,72728.0,973735.9383930924,1238.5359548043668,499047.2827165577,934753.1891279079,0.0,0.0,0.0,336042.34345909115,619.2679774021834,0.0,1344169.3738363646,1680211.7172954555,0.0,0.0,0.0,1101971.2326644233,0.0,,21.56025239859961,,-8.4,-81464.32431142802,-188298.02304799753,0.6104363541741508,0.37132860259318157,0.7775510204081634,,1800.0,-4529.362765514369,0.0,,271.0849232354481,225904.10269620677,1101971.2326644233,205.0,195.0,66.0,77.72,,,,,,
432.0,629732.2566434332,0.0,60975.0,913594.9881824569,14789.215810766505,392844.9089744098,747063.4685872465,0.0,0.0,0.0,161374.20271262457,7394.607905383253,0.0,645496.8108504983,806871.0135631227,0.0,0.0,0.0,629732.2566434332,0.0,,23.629277742553157,,-9.1,73016.24908524421,21294.737153848386,0.4440236909986078,0.36729353042887275,0.7775510204081634,,0.0,0.0,0.0,,154.91413513428458,141060.02548812906,629732.2566434332,224.0,200.0,66.0,77.09,,,,,,
433.0,466098.4158047748,0.0,51728.0,1019548.4819058793,114303.98353993581,526741.4816591699,1112166.2167960443,0.0,0.0,0.0,3835.7364458073225,57151.991769967906,0.0,15342.94578322929,19178.68222903661,0.0,0.0,0.0,466098.41580477473,0.0,,21.684091918779664,,-9.9,-35750.46763591356,-96069.89769139199,0.46879364202602325,0.37328395588940405,0.766326530612245,,1650.0,0.0,0.0,,114.66021028797459,108134.83246670775,466098.4158047748,232.0,202.0,66.0,77.05,,,,,,
434.0,308371.00934960536,0.0,40253.0,638305.8938651391,448.4679514966636,226346.13649675637,499487.3317287528,0.0,0.0,0.0,3860.7780000000002,224.2339757483318,0.0,15443.112000000001,19303.89,0.0,0.0,0.0,308371.00934960536,0.0,,21.189283794661463,,-10.7,-90748.9936952989,154261.67413638634,0.6567936144901013,0.34415282847287576,1.0,,2100.0,-35766.34735526866,0.0,,75.85926830000292,74625.78426260449,308371.00934960536,242.0,202.0,66.0,77.06,,,,,,
435.0,340292.56048434717,0.0,35225.0,738165.1379449049,477.6561565591991,323173.09842230164,716240.2805850428,0.0,0.0,0.0,3365.401640387201,238.82807827959954,0.0,13461.606561548804,16827.008201936005,0.0,0.0,0.0,340292.5604843472,0.0,,20.985073400466653,,-11.2,72169.63379227163,18895.995883513402,0.5857824961509992,0.33847300699488336,1.0,,4500.0,0.0,0.0,,83.7119698791494,82691.09219769636,340292.56048434717,243.0,199.0,66.0,77.13,,,,,,
436.0,402736.12322347186,0.0,33314.0,811427.3497307354,88.13054152485687,391951.7841938126,838779.951333019,0.0,0.0,0.0,0.0,44.06527076242843,0.0,0.0,0.0,0.0,0.0,0.0,402736.1232234719,0.0,,23.15746398922697,,-11.6,83394.34158645802,-27352.601602283394,0.446889850266426,0.343319160770147,1.0,,5550.0,0.0,0.0,,99.07308631297407,97864.87794330365,402736.12322347186,243.0,196.0,66.0,77.88,,,,,,
437.0,750300.313996062,0.0,41459.0,1049925.6198714955,76045.96101132073,563829.8014386878,1174349.3070060606,0.0,0.0,0.0,0.0,38022.980505660365,0.0,0.0,0.0,103216.69,0.0,0.0,750300.3139960619,0.0,,21.531934170259397,,-12.0,-45544.01098739392,-124423.68713456544,0.4987939961128469,0.3530683461470881,1.0,,7500.0,0.0,0.0,,184.57387724303126,177821.1744170667,750300.313996062,237.0,191.0,66.0,77.93,,,,,,
438.0,374666.3206380274,0.0,52420.0,381778.6113682119,6540.742676196576,181833.98910208774,250447.85254921843,0.0,0.0,0.0,91810.87028903145,3270.371338098288,0.0,367243.4811561258,459054.35144515714,0.0,0.0,0.0,374666.3206380274,0.0,,21.039632921387742,,-12.4,-45601.515732847525,48700.97555886531,0.6359493617388271,0.3967498606387878,1.0,,0.0,-1126.6139108704688,0.0,,92.16791487695474,87297.25270866038,374666.3206380274,233.0,183.0,66.0,78.9,,,,,,
439.0,633726.8569134473,0.0,50870.0,997936.1933678673,0.0,529440.7556977738,714079.7895477661,0.0,0.0,0.0,42345.86642901971,0.0,0.0,169383.46571607885,211729.33214509854,41598.27,0.0,0.0,633726.8569134473,0.0,,20.731928340783472,,-12.7,31975.534025193632,286511.4286339829,0.6028156896191158,0.3663810466604999,1.0,,0.0,-39877.1345272803,0.31666666666666665,,155.89680680070802,141321.08909169873,633726.8569134473,223.0,190.0,66.0,78.6,,,,,,
440.0,820283.7951280775,0.0,68399.0,1089795.1798996665,0.0,692659.3527016726,934219.8149321319,0.0,0.0,0.0,45292.971258455276,0.0,0.0,181171.8850338211,226464.85629227638,46205.16,0.0,0.0,820283.7951280776,0.0,,20.731928340783472,,-12.7,9629.589207107718,160092.7476349248,0.6092552341473557,0.34624366771656045,1.0,,0.0,-19460.64139941691,0.36666666666666664,,201.78981360150706,169798.74559151204,820283.7951280775,207.0,188.0,66.0,79.24,,,,,,
441.0,1268225.626443818,0.0,81336.0,1253075.8627608432,0.0,1161111.721010446,1599249.6151724956,0.0,0.0,0.0,61423.188,0.0,0.0,245692.752,307115.94,173045.94,0.0,0.0,1268225.626443818,0.0,,23.268071659216528,,-12.4,41986.410698847416,-231869.60041165227,0.5086058005837516,0.3639466203519006,1.0,,0.0,0.0,0.36666666666666664,,311.98350410517924,253645.12528876358,1268225.626443818,200.0,190.0,66.0,78.6,,,,,,
442.0,849723.1548822498,0.0,123871.0,838937.7587494232,325.5582475064605,564634.2667747715,783078.1366089607,0.0,0.0,0.0,189345.81630040868,162.77912375323024,0.0,757383.2652016347,946729.0815020433,0.0,23.305551410838614,0.0,849723.1548822495,0.0,,21.927386583729678,,-12.3,32353.238415930802,-114551.61252990569,0.39773545115879977,0.3619712370298237,1.0,,0.0,0.0,0.36666666666666664,,209.03189610103345,163146.84573739197,849723.1548822498,192.0,194.0,66.0,78.44,,,,,,
443.0,948261.8670949099,0.0,155502.0,1049779.8411451075,5315.4748313619575,588494.4236103833,827389.8292500197,0.0,0.0,0.0,155501.6735835084,2657.7374156809788,0.0,622006.6943340336,777508.367917542,0.0,222.7516312470125,0.0,948261.8670949099,0.0,,21.46129799597258,,-12.1,-44245.21219679061,82438.50566993046,0.44539873841240396,0.35133548046245827,1.0,,0.0,0.0,0.5,,233.27241930534782,179221.49288093796,948261.8670949099,189.0,197.0,66.0,78.26,,,,,,
444.0,884278.9831094969,0.0,171481.0,1032863.31543385,41908.022203454915,739536.3366700236,1046796.4313577914,0.0,0.0,0.0,41207.08508580727,20954.011101727458,0.0,164828.3403432291,206035.42542903635,0.0,377.9349079320941,0.0,884278.983109497,0.0,,21.728683861120427,,-12.0,71988.89865394955,-51019.49250116758,0.28545477598844476,0.3632427948738875,1.0,,600.0,0.0,0.5,,217.53262984493625,173318.68068946138,884278.9831094969,196.0,196.0,66.0,78.27,,,,,,
445.0,1122471.1983220836,0.0,120284.0,931468.5756276434,3626.2003785708994,805925.4816146381,1263698.8763056144,0.0,0.0,0.0,328727.6053045515,1813.1001892854497,0.0,1314910.421218206,1643638.026522757,243135.83,251880.14187552079,0.0,1122471.1983220838,0.0,,23.268071659216528,,-10.4,-93395.81648713762,-389812.0320520672,0.40525172588469627,0.4080617504047509,1.0,,5250.0,-20406.080799666808,0.5,,276.12791478723256,213269.5276811959,1122471.1983220836,190.0,188.0,66.0,78.56,,,,,,
446.0,819587.4631347386,0.0,114711.0,942648.1738521139,148583.91501626352,673534.5099245207,1101055.6426087657,0.0,0.0,0.0,45507.76328204053,74291.95750813176,0.0,182031.0531281621,227538.8164102026,27286.38,169404.9949388158,0.0,819587.4631347385,0.0,,23.268071659216528,,-9.7,-151141.24755131948,-172623.8033104881,0.6777155163659531,0.4420194774568821,1.0,,750.0,0.0,0.5,,201.6185159311457,151623.68067992665,819587.4631347386,185.0,187.0,66.0,79.19,,,,,,
447.0,772998.2764123336,0.0,97716.0,957709.8603789575,75705.47301976646,616891.2994106334,1002577.5520188097,0.0,0.0,0.0,100923.84072032828,37852.73650988323,0.0,403695.36288131314,504619.2036016414,65403.41,26380.4021434198,0.0,772998.2764123335,0.0,,21.568954080512768,,-9.8,20017.452957269703,-71603.80648814731,0.6560908513920956,0.4411219564004321,1.0,,6000.0,0.0,0.5,,190.15757599743404,136820.69492498305,772998.2764123336,177.0,184.0,66.0,79.24,,,,,,
448.0,675417.0570830652,0.0,88016.0,799666.5292848827,63.617713066985985,700027.0326580888,1090975.5212541444,0.0,0.0,0.0,9036.336000000001,31.808856533492992,0.0,36145.344000000005,45181.68,45181.68,0.0,0.0,675417.057083065,0.0,,23.268071659216528,,-10.5,125039.39686043901,-255163.647969262,0.49285847472861405,0.4699923361190229,1.0,,6900.0,0.0,0.5,,166.15259604243406,115496.31676120414,675417.0570830652,171.0,183.0,66.0,79.26,,,,,,
449.0,474235.1079165848,0.0,111512.0,657524.8956151512,50.60926125325592,385498.91713448806,586090.5979123452,0.0,0.0,0.0,19467.994412737862,25.30463062662796,0.0,77871.97765095145,97339.97206368932,28945.27,0.0,0.0,474235.10791658476,0.0,,21.594812902257708,,-10.9,44614.979170223975,82279.46733134188,0.4794162249774089,0.46031098495091993,1.0,,0.0,0.0,0.5,,116.66183654747987,80619.96834581942,474235.1079165848,170.0,189.0,66.0,78.75,,,,,,
450.0,1008828.7338090725,0.0,135804.0,897090.0254549112,209872.6724780199,780265.0342190267,1149077.9886990017,0.0,0.0,0.0,37122.77231606463,104936.33623900995,0.0,148491.0892642585,185613.86158032314,48881.08,0.0,0.0,1008828.7338090725,0.0,,21.18272125797374,,-11.4,-38451.95505498041,-237494.99992854832,0.5453584588674545,0.46780898030414053,1.0,,30600.0,-12140.828549955477,0.5,,248.1718685170318,170492.05601373326,1008828.7338090725,169.0,196.0,66.0,78.3,,,,,,
451.0,1557591.3450668207,0.0,176843.0,1610669.7324606846,214726.08957082924,1167857.872435038,1675342.6675973225,0.0,0.0,0.0,108429.17564197295,107363.04478541463,0.0,433716.7025678918,542145.8782098647,0.0,0.0,0.0,1557591.345066821,0.0,,21.039482043572733,,-11.8,-96673.34026447608,-162259.1932144131,0.6741986908670716,0.48701462667172035,0.9336734693877551,,33750.0,0.0,0.36666666666666664,,383.1674708864379,264790.52866135957,1557591.3450668207,170.0,197.0,66.0,78.22,,,,,,
452.0,1269018.2156714909,0.0,171260.0,1408746.7336117316,297299.2590479876,1017567.0784142918,1411240.122196018,0.0,0.0,0.0,63264.25750745499,148649.6295239938,0.0,253057.03002981996,316321.28753727494,0.0,0.0,0.0,1269018.2156714909,0.0,,22.960517956427267,,-12.3,-10581.78867138692,-59431.22034099516,0.6190071168829808,0.4728307218131289,0.9153061224489792,,2700.0,0.0,0.31666666666666665,,312.17848105518675,215733.09666415345,1269018.2156714909,170.0,196.0,66.0,78.96000000000001,,,,,,
453.0,1233484.7771466877,0.0,144144.0,1407868.4751292288,150160.46358295053,943452.5632378794,1272475.533012764,0.0,0.0,0.0,111451.34764591852,75080.23179147528,0.0,445805.3905836741,557256.7382295926,0.0,0.0,0.0,1233484.7771466875,0.0,,22.960517956427267,,-12.7,-8315.256621221444,35086.72923513838,0.6029387690057534,0.4529712109543093,0.9153061224489791,,2100.0,-19954.185755935083,0.31666666666666665,,303.4372551780852,222027.2598864038,1233484.7771466877,180.0,181.0,66.0,79.2,,,,,,
454.0,622936.4388698298,0.0,106314.0,793259.9806814435,416.49482234548975,511412.97125543526,665387.6480572287,0.0,0.0,0.0,27698.046977729853,208.24741117274488,0.0,110792.18791091941,138490.23488864928,17165.62,0.0,0.0,622936.4388698299,0.0,,21.593372642835003,,-13.2,25603.2615576843,119766.3979442584,0.5722613988513425,0.44093777148203844,0.8622448979591832,,11700.0,0.0,0.0,,153.24236396197813,113374.43187430901,622936.4388698298,182.0,156.0,66.0,79.34,,,,,,
455.0,491664.59727172466,0.0,70642.0,859873.8556014256,0.0,387702.67538912845,489646.6746341755,0.0,0.0,0.0,99542.55870236295,0.0,0.0,398170.2348094518,497712.7935118147,0.0,0.0,0.0,491664.59727172466,0.0,,21.16439937033767,,-13.6,68680.95980612533,280638.878135124,0.5003319835130455,0.4219183807215329,0.8622448979591832,,6150.0,0.0,0.0,,120.94949092884427,90957.95049526906,491664.59727172466,185.0,156.0,66.0,79.48,,,,,,
456.0,489066.57365119964,0.0,60601.0,950624.4146507186,0.0,473874.6834828394,589441.8889781572,0.0,0.0,0.0,42059.77750926958,0.0,0.0,168239.11003707832,210298.88754634786,0.0,0.0,0.0,489066.57365119964,0.0,,21.039482043572733,,-13.8,89914.22020916526,323328.7259142184,0.36330913846995183,0.39210749672285444,0.8622448979591832,,4500.0,0.0,0.0,,120.31037711819512,91944.51584642554,489066.57365119964,188.0,147.0,66.0,79.61,,,,,,
457.0,694239.160278639,0.0,43125.0,974249.4728886428,0.0,604322.5485722268,734419.4301975134,0.0,0.0,0.0,0.0,0.0,0.0,0.0,0.0,0.0,0.0,0.0,694239.1602786393,0.0,,22.830935055632175,,-14.1,-36916.83406411964,239830.0426911301,0.43805174964524984,0.38090812037999866,0.8622448979591832,,19800.0,-6403.581840899624,0.0,,170.78283342854522,104135.87404179585,694239.160278639,150.0,147.0,66.0,79.71000000000001,,,,,,
458.0,891259.1563517542,0.0,39308.0,1037521.3686826717,0.0,698365.1049637371,835391.7494865338,0.0,0.0,0.0,172247.6261129846,0.0,0.0,688990.5044519384,861238.130564923,0.0,0.0,0.0,891259.156351754,0.0,,21.68294301690998,,-14.3,23117.87050672622,47106.75569445179,0.40591738230774926,0.3714006042762496,0.8622448979591832,,4200.0,0.0,0.0,,219.24975246253155,124776.28188924558,891259.1563517542,140.0,143.0,66.0,79.78,,,,,,
459.0,485592.15907820273,0.0,37661.0,729386.4271356628,0.0,388612.64852047066,461157.8104110578,0.0,0.0,0.0,62318.483563217706,0.0,0.0,249273.93425287082,311592.41781608853,0.0,0.0,0.0,485592.15907820273,0.0,,22.960517956427267,,-14.4,7770.70764510829,212141.98151770883,0.46342263521211763,0.34493439330307407,0.8622448979591832,,0.0,-2342.77384423157,0.0,,119.45567113323787,68468.49443002658,485592.15907820273,141.0,143.0,66.0,79.8,,,,,,
460.0,1508204.099110288,0.0,35721.0,1392880.6495330983,69965.61244402976,1384836.3098119323,1630151.7503767265,0.0,0.0,0.0,59242.224,34982.80622201488,0.0,236968.896,296211.12,296211.12,0.0,0.0,1508204.0991102878,0.0,,21.390515690580393,,-14.5,-20863.544802804823,-302.2048436283476,0.4795424094339438,0.33076775521077684,0.8622448979591832,,0.0,0.0,0.0,,371.0182083811309,208132.16567721975,1508204.099110288,138.0,140.0,66.0,80.27,,,,,,
461.0,579197.9611080126,0.0,40404.0,690389.3997011977,0.0,534478.8108570582,624063.1737562822,0.0,0.0,0.0,0.0,0.0,0.0,0.0,0.0,0.0,0.0,0.0,579197.9611080126,0.0,,22.960517956427267,,-14.6,-1419.1604454143162,66326.22594491561,0.5306453418810767,0.32373650951240374,0.8622448979591832,,0.0,0.0,0.0,,142.48269843257108,84562.90232176984,579197.9611080126,146.0,138.0,66.0,81.01,,,,,,
462.0,1068404.5507937362,0.0,45359.0,667483.0041842846,2068.6460241380178,696368.2248907266,806448.2923729474,0.0,0.0,0.0,279334.18143241765,1034.3230120690089,0.0,1117336.7257296706,1396670.907162088,266133.47000000003,0.0,0.0,1068404.5507937362,0.0,,21.416798310850286,,-14.7,-40126.90264123789,-129555.25087783848,0.5305360222325652,0.32392871329241146,0.8622448979591832,,0.0,-1874.2190753852556,0.0,,262.82751949525914,192312.81914287253,1068404.5507937362,180.0,141.0,66.0,81.18,,,,,,
463.0,907873.7027486889,0.0,53367.0,1134299.4883207427,20289.46998901254,671745.2523655257,777932.9847579136,0.0,0.0,0.0,232489.38273604785,10144.73499450627,0.0,929957.5309441914,1162446.9136802393,20772.72,0.0,0.0,907873.7027486888,0.0,,21.039482043572733,,-14.7,54267.30086662831,167483.32470038554,0.4727099426849587,0.3163573781176867,0.8622448979591832,,0.0,0.0,0.0,,223.33693087617746,162509.3927920153,907873.7027486889,179.0,142.0,66.0,81.55,,,,,,
464.0,684343.8385789611,0.0,71414.0,1117911.0313008002,2749.4664637705278,615575.2254143945,748094.5520908579,0.0,0.0,0.0,33405.26370986621,1374.7332318852639,0.0,133621.05483946484,167026.31854933102,0.0,0.0,0.0,684343.8385789613,0.0,,21.90539101256453,,-14.1,39472.36973819443,339751.74187106267,0.38194331607127263,0.275492331849114,0.8622448979591832,,0.0,0.0,0.13333333333333333,,168.3485842904244,126603.61013710781,684343.8385789611,185.0,184.0,66.0,80.86,,,,,,
465.0,281188.38702198805,0.0,87119.0,699039.4317498838,273.12360012338854,284914.49485091673,449464.8348533562,0.0,0.0,0.0,30203.5008399316,136.56180006169427,0.0,120814.0033597264,151017.504199658,0.0,33480.32445598682,0.0,281188.38702198805,0.0,,21.039482043572733,,-10.3,99178.30778063656,222391.44614058928,0.24041484018297318,0.25264152025860553,0.8622448979591832,,0.0,-10204.081632653062,0.18333333333333335,,69.17234320740906,51176.28643800182,281188.38702198805,182.0,185.0,66.0,80.38,,,,,,
466.0,353876.594513284,0.0,116678.0,526951.6115836914,3406.9789391003524,298352.92942666577,567370.4029983241,0.0,0.0,0.0,73767.15238328479,1703.4894695501762,0.0,295068.60953313916,368835.761916424,11094.02,160382.94064208024,0.0,353876.594513284,0.0,,21.0823746388831,,-6.9,-23161.04163482141,-95937.08895958874,0.22744425133831256,0.2890547777618843,0.8622448979591832,,0.0,-531.0287380258219,0.5,,87.05364225026786,61928.404039824694,353876.594513284,175.0,184.0,66.0,80.43,,,,,,
467.0,565435.9939279605,0.0,155186.0,758875.0449621882,9721.336620311718,471645.74293435307,1018318.3473096868,0.0,0.0,0.0,67058.56515224348,4860.668310155859,0.0,268234.2606089739,335292.82576121733,173228.8,256614.81972616204,0.0,565435.9939279606,0.0,,22.960517956427267,,-4.2,-79335.87842939087,-150031.78698451756,0.34799912885070894,0.3069337214523326,0.8622448979591832,,0.0,-45997.44716849542,0.5,,139.0972545062783,97820.42694953718,565435.9939279605,173.0,185.0,66.0,80.4,,,,,,
468.0,513772.74641401635,0.0,143078.0,684980.8563273476,12135.171635763714,352581.444365463,818391.1845149565,0.0,0.0,0.0,188992.22109148878,6067.585817881857,0.0,755968.8843659551,944961.1054574439,0.0,306862.4119934621,0.0,513772.7464140163,0.0,,22.87615558829819,,-2.5,-133414.62921845654,-303503.3271699491,0.5660372043003319,0.35138727754030297,0.8622448979591832,,0.0,0.0,0.5,,126.38809561784802,89910.23062245286,513772.74641401635,175.0,185.0,66.0,80.42,,,,,,
469.0,476938.056458856,0.0,142478.0,701045.1494929225,12886.626066910956,265316.0960694376,633541.400374663,0.0,0.0,0.0,224867.3965862044,6443.313033455475,0.0,899469.5863448177,1124336.982931022,0.0,269069.5197754236,0.0,476938.056458856,0.0,,22.28507863914169,,-1.8,-110961.39329634332,-134876.90780932404,0.7454774755512132,0.3645236740998387,0.8622448979591832,,0.0,0.0,0.5,,117.32676188887856,86802.72627551178,476938.056458856,182.0,181.0,66.0,81.14,,,,,,
470.0,241784.9145331315,0.0,105676.0,690626.4940553994,2714.630995122687,319761.04136378405,757452.3079184223,0.0,0.0,0.0,1671.448,1357.3154975613438,0.0,6685.792,8357.24,8357.24,178441.54266626464,0.0,241784.9145331315,0.0,,22.960517956427267,,-2.0,23373.989069953706,-60140.02186302289,0.7257984743807795,0.38243681749591363,0.951889960901478,,1500.0,-15283.032332900191,0.18333333333333335,,59.47908897515035,47148.05833396064,241784.9145331315,195.0,180.0,66.0,81.14,,,,,,
471.0,522454.91243940115,0.0,96821.0,876628.8460821786,1973.9089613560798,449482.8411178852,991892.278095274,0.0,0.0,0.0,0.0,986.9544806780399,0.0,0.0,0.0,0.0,33777.03643417124,0.0,522454.91243940115,0.0,,21.868599799199465,,-3.7,-7315.833193490312,-115263.43201309492,0.7453931832371625,0.4080325890794589,0.9274001649831107,,6300.0,0.0,0.05,,128.52390846009268,110760.44143715304,522454.91243940115,212.0,220.0,66.0,80.34,,,,,,
472.0,496402.8039478656,0.0,105923.0,802225.4539779107,181.30747245514354,427591.74577492866,853904.3039845251,0.0,0.0,0.0,15908.356,90.65373622757177,0.0,63633.424,79541.78,79541.78,0.0,0.0,496402.80394786573,0.0,,22.960517956427267,,-5.9,55502.31184680226,11954.57399338541,0.6627024984084147,0.40354540694137464,0.9274001649831107,,1050.0,0.0,0.05,,122.11508977117494,105733.79724089538,496402.8039478656,213.0,222.0,66.0,80.34,,,,,,
473.0,605108.7630476756,0.0,132421.0,868840.4942632375,53496.77310324335,460952.14293313905,916130.8987777752,0.0,0.0,0.0,8186.095025975068,26748.386551621676,0.0,32744.380103900272,40930.47512987534,0.0,0.0,0.0,605108.7630476756,0.0,,21.678892175231763,,-6.0,-523.9812733229683,-54657.8900379157,0.6255834837398563,0.4064485439039406,0.9202573078402536,,3750.0,0.0,0.0,,148.8567557097282,127072.84024001186,605108.7630476756,210.0,220.0,66.0,80.35,,,,,,
474.0,544879.5479992165,0.0,147535.0,484122.9739155056,82526.43658300144,322266.7011990362,640497.0388833748,0.0,0.0,0.0,51142.832073086705,41263.218291500714,0.0,204571.32829234682,255714.16036543352,0.0,0.0,0.0,544879.5479992166,0.0,,21.342990190253914,,-6.0,-21210.616987097594,-202402.61383364725,0.6200582180263952,0.4264445938345299,0.9202573078402536,,2400.0,0.0,0.0,,134.04036880780725,113879.82553183624,544879.5479992165,209.0,223.0,66.0,80.35,,,,,,
475.0,919829.2371948084,0.0,154540.0,1328127.7178810956,218423.68394988385,615503.4818504514,1217430.0504184924,0.0,0.0,0.0,109702.18546738793,109211.84197494193,0.0,438808.7418695517,548510.9273369396,0.0,0.0,0.0,919829.2371948084,0.0,,21.226977683595607,,-6.1,-35484.42369099508,11965.700541954035,0.6339079364052761,0.4209880642473979,0.9202573078402536,,33900.0,0.0,0.0,,226.2779923499229,197763.28599688382,919829.2371948084,215.0,227.0,66.0,80.34,,,,,,
476.0,673873.1717495213,0.0,164800.0,1227571.2994027182,269488.47065326065,505106.33070485527,999070.913145738,0.0,0.0,0.0,0.0,134744.23532663033,0.0,0.0,0.0,0.0,0.0,0.0,673873.1717495214,0.0,,22.773022316404393,,-6.1,13146.798033573392,228500.38625697937,0.5854123202620053,0.3880087409871977,0.9202573078402536,,24900.0,-13744.273219491872,0.0,,165.77280025038223,151621.4636436423,673873.1717495213,225.0,237.0,66.0,78.56,,,,,,
477.0,890397.4529031042,0.0,145572.0,1287080.2030965718,262353.7077085375,497958.6330306341,980185.9908429378,0.0,0.0,0.0,270899.41428454465,131176.85385426876,0.0,1083597.6571381786,1354497.0714227236,81550.75,0.0,0.0,890397.4529031042,0.0,,22.764375029146073,,-6.2,28484.5816765901,143004.47439754303,0.5143529890462728,0.3712490236794425,0.9202573078402536,,10050.0,0.0,0.0,,219.03777341416364,209243.4014322295,890397.4529031042,235.0,246.0,66.0,77.77,,,,,,
478.0,489132.5087780874,0.0,109855.0,803342.7973973971,41151.15328228904,292265.57288815273,572511.7716904354,0.0,0.0,0.0,65371.9505564794,20575.57664114452,0.0,261487.8022259176,326859.752782397,0.0,0.0,0.0,489132.50877808733,0.0,,21.81496020230078,,-6.3,-19194.32278956483,171996.27020613014,0.5476843800625317,0.3581958109803224,0.9202573078402536,,22950.0,0.0,0.0,,120.3265971594095,131576.6448613055,489132.5087780874,269.0,250.0,66.0,78.78,,,,,,
479.0,383373.60842873395,0.0,74028.0,701891.5365154187,0.0,259541.34307877498,508409.0906930347,0.0,0.0,0.0,124533.06112131235,0.0,0.0,498132.2444852494,622665.3056065617,0.0,0.0,0.0,383373.608428734,0.0,,22.773022316404393,,-6.3,86016.75919042339,81402.69081320272,0.43021837046810923,0.36085880492244465,0.9202573078402536,,6900.0,-9371.095376926281,0.0,,94.30990767346856,102360.75345047197,383373.60842873395,267.0,206.0,66.0,79.78999999999999,,,,,,
480.0,443380.4910352653,0.0,62217.0,643688.1114766725,842.3814233179469,315485.08412416495,614988.2794189324,0.0,0.0,0.0,16253.827870319717,421.19071165897344,0.0,65015.31148127887,81269.13935159858,0.0,0.0,0.0,443380.49103526527,0.0,,22.773022316404393,,-6.4,-34088.14305790742,14071.38697445199,0.49015274901178313,0.3581150167621057,0.9202573078402536,,0.0,-13119.53352769679,0.0,,109.07160079467528,112618.6447229574,443380.4910352653,254.0,211.0,66.0,79.76,,,,,,
481.0,323759.2626738636,0.0,53058.0,750599.3082648121,615.1666210192279,325638.42416632554,634780.6101410596,0.0,0.0,0.0,7091.550317724002,307.58331050961397,0.0,28366.201270896006,35457.751588620005,0.0,0.0,0.0,323759.2626738636,0.0,,21.687020546965982,,-6.4,63647.50812355515,109436.30283780082,0.44084609062857744,0.346083468106096,0.9202573078402536,,0.0,0.0,0.0,,79.64477861777046,80939.8156684659,323759.2626738636,250.0,210.0,66.0,79.78,,,,,,
482.0,555387.9568023187,0.0,42869.0,838156.108497561,15918.854862258102,532523.2984975597,1038069.9550429994,0.0,0.0,0.0,0.0,7959.427431129051,0.0,0.0,0.0,0.0,0.0,0.0,555387.9568023187,0.0,,21.318567537079062,,-6.4,24655.50055463797,-199913.84654543805,0.44187102074545104,0.3728914969638055,0.9202573078402536,,3000.0,-1874.219075385256,0.0,,136.6254373733704,133293.1096325565,555387.9568023187,240.0,209.0,66.0,79.93,,,,,,
483.0,616220.8466524122,0.0,37571.0,890864.5412285371,0.0,598474.8894988141,1172337.5966362155,0.0,0.0,0.0,0.0,0.0,0.0,0.0,0.0,0.0,0.0,0.0,616220.8466524121,0.0,,22.773022316404393,,-6.3,22906.147079663926,-281473.0554076788,0.44683340848544767,0.40136915744260937,0.9202573078402536,,0.0,0.0,0.0,,151.59032827649338,110303.53155078179,616220.8466524122,179.0,200.0,66.0,80.15,,,,,,
484.0,390047.3512296954,0.0,33431.0,850572.6235961085,0.0,375258.47260832763,735084.5016462392,0.0,0.0,0.0,0.0,0.0,0.0,0.0,0.0,0.0,0.0,0.0,390047.3512296953,0.0,,21.610502610399628,,-6.3,27933.04951337303,115488.12194986915,0.41165790991297985,0.3652866903041104,0.9202573078402536,,0.0,-7340.691378592254,0.0,,95.95164840250507,57336.96063076523,390047.3512296954,147.0,192.0,66.0,80.38,,,,,,
485.0,336073.1515102866,0.0,42470.0,672656.1227701759,9250.944590811436,284899.24072279077,558082.0465703113,0.0,0.0,0.0,46899.38728662383,4625.472295405718,0.0,187597.54914649532,234496.93643311912,0.0,0.0,0.0,336073.1515102866,0.0,,21.258529441299796,,-6.3,42843.35579270606,72364.62764190292,0.3762126775178113,0.3513669071363991,0.9202573078402536,,0.0,-2967.5135360266563,0.0,,82.6739952715305,32935.168848008085,336073.1515102866,98.0,186.0,66.0,80.88,,,,,,
486.0,396083.64364894235,0.0,44696.0,429010.8114790283,2113.879480801261,261730.42348189262,515192.38237317227,0.0,0.0,0.0,13224.992,1056.9397404006304,0.0,52899.968,66124.95999999999,66124.95999999999,0.0,0.0,396083.6436489424,0.0,,21.226977683595607,,-6.2,-70234.81702918821,-33281.602894144,0.4149800447695678,0.3741022936081137,0.9202573078402536,,0.0,-4216.992919616826,0.0,,97.4365763376398,32082.77513556433,396083.64364894235,81.0,175.0,66.0,84.91,,,,,,
487.0,469184.0322515759,0.0,54886.0,821339.1857647559,0.0,358805.01111234125,706274.8228624953,0.0,0.0,0.0,49014.969235809855,0.0,0.0,196059.87694323942,245074.84617904923,57637.590000000004,0.0,0.0,469184.0322515759,0.0,,21.226977683595607,,-6.2,9455.956554376186,127435.72879003157,0.44578950744123413,0.35015539204102114,0.9202573078402536,,0.0,-13588.088296543108,0.05,,115.41927193388767,36596.35451562292,469184.0322515759,78.0,174.0,66.0,86.34,,,,,,
488.0,270709.1914963701,0.0,69273.0,757805.692797644,9881.579811418793,253289.40497293617,515479.80945035786,0.0,0.0,0.0,21407.92317712558,4940.789905709396,0.0,85631.69270850232,107039.61588562789,29297.25,0.0,0.0,270709.1914963702,0.0,,21.226977683595607,,-5.5,91356.94142735624,251770.0574878729,0.29594233740775305,0.3332355642929525,0.9202573078402532,,0.0,-16742.25881618285,0.18333333333333335,,66.59446110810705,22198.15370270235,270709.1914963701,82.0,182.0,66.0,85.56,,,,,,
489.0,476234.45247604704,0.0,92121.0,805483.6371079733,106332.560994979,376722.7763944945,903157.9265603041,0.0,0.0,0.0,59055.21443314889,53166.2804974895,0.0,236220.85773259556,295276.07216574444,243414.53,22378.758708370835,0.0,476234.45247604704,0.0,,22.773022316404393,,-1.7,31666.951905605783,87722.25695783476,0.21833766173538255,0.32423654465113727,0.9202573078402532,,0.0,0.0,0.18333333333333335,,117.15367530910757,38098.75619808376,476234.45247604704,80.0,183.0,66.0,85.22,,,,,,
490.0,302154.7714910512,0.0,124433.0,657964.1859363165,18255.830728856214,259856.40810516008,717118.6981105622,0.0,0.0,0.0,3511.486988095547,9127.915364428105,0.0,14045.947952382188,17557.434940477735,0.0,154733.4724170964,0.0,302154.7714910511,0.0,,22.520234464096337,,2.1,-45303.84002101632,-62314.85046353222,0.2853120224223633,0.3311651019541519,0.9202573078402532,,0.0,-22272.734936420322,0.5,,74.3300737867986,22963.76263331989,302154.7714910512,76.0,180.0,66.0,87.03999999999999,,,,,,
491.0,246803.59109040955,0.0,163849.0,317220.60886617535,21666.348938985288,109520.00528392658,334606.1175726868,0.0,0.0,0.0,155789.08486991824,10833.174469492642,0.0,623156.339479673,778945.424349591,0.0,247956.90546604764,0.0,246803.59109040955,0.0,,21.825744927982427,,5.2,-63994.13885434785,-157595.6850894378,0.38045388528358853,0.3629456855074273,0.9202573078402532,,0.0,-374.2495928124797,0.5,,60.713683408240755,18510.269331780717,246803.59109040955,75.0,180.0,66.0,87.07,,,,,,
492.0,153899.09561604686,0.0,152467.0,475628.64913221647,53116.6702982222,222059.33911194606,722893.0605525769,0.0,0.0,0.0,0.0,26558.3351491111,0.0,0.0,0.0,0.0,309257.1505863771,0.0,153899.09561604686,0.0,,21.546528187312745,,7.3,-87860.41161239766,-247264.41142036032,0.5474381817872743,0.39109636323316926,0.9202573078402532,,0.0,0.0,0.5,,37.85917752154753,7387.156589570249,153899.09561604686,48.0,171.0,66.0,87.44,,,,,,
493.0,260447.1996082787,0.0,117354.0,430469.20541185635,59265.82287263826,132970.99140635465,444283.29634673666,0.0,0.0,0.0,138441.254607916,29632.91143631914,0.0,553765.018431664,692206.27303958,0.0,260469.94433826194,0.0,260447.1996082787,0.0,,22.773022316404393,,8.2,-130848.66193422861,-138411.22008200482,0.73554678549243,0.39701692955412876,0.9202573078402532,,4200.0,0.0,0.5,,64.07001110363655,12761.912780805656,260447.1996082787,49.0,169.0,66.0,87.47999999999999,,,,,,
494.0,104439.69393160482,0.0,101868.0,308519.0699677707,19626.333152576237,106164.35159142764,354716.8264348165,0.0,0.0,0.0,12147.898000000001,9813.16657628812,0.0,48591.592000000004,60739.49,60739.49,186712.7226115538,0.0,104439.69393160482,0.0,,21.87326864998345,,8.2,-55745.49560880888,2393.835532954312,0.8198676535799165,0.3983684642682561,1.0,,2400.0,-14704.472873264036,0.18333333333333335,,25.692164707174786,5535.303778375055,104439.69393160482,53.0,169.0,66.0,87.49000000000001,,,,,,
495.0,338381.92388790083,0.0,96810.0,448840.377596021,11165.4298918005,121990.71752000049,390151.32983780745,0.0,0.0,0.0,210918.17397807847,5582.71494590025,0.0,843672.6959123139,1054590.8698903923,159625.52,58686.24265759829,0.0,338381.9238879009,0.0,,22.773022316404393,,6.7,34342.63457201931,25295.70077794316,0.7399486596243239,0.3932470476870399,0.9887755102040816,,9300.0,0.0,0.05,,83.2419532764236,18949.387737722445,338381.92388790083,56.0,172.0,66.0,86.44,,,,,,
496.0,216746.29493609912,0.0,92836.0,519505.4168814174,1254.1365698721595,173479.23974331684,516784.0729399378,0.0,0.0,0.0,3306.096,627.0682849360797,0.0,13224.384,16530.48,16530.48,0.0,0.0,216746.2949360991,0.0,,22.02391711442096,,4.4,55676.806434334765,15945.727941479692,0.619512142341412,0.3908346662908487,1.0,,11850.0,-1718.0341524364885,0.05,,53.31958855428039,12137.79251642155,216746.29493609912,56.0,172.0,66.0,86.34,,,,,,
497.0,337701.0699480393,0.0,123952.0,646619.7917140243,150414.41056722123,251623.84121317219,744774.4592909259,0.0,0.0,0.0,5993.936000000001,75207.2052836106,0.0,23975.744000000002,29969.68,29969.68,0.0,0.0,337701.06994803925,0.0,,21.832506983770344,,4.2,45557.212614873046,-74178.92357690186,0.5545016694952976,0.40529394690031156,0.9887755102040816,,12000.0,0.0,0.0,,83.07446320721768,17560.455637298044,337701.0699480393,52.0,172.0,66.0,87.44,,,,,,
498.0,396083.64364894235,0.0,141922.0,142500.814386013,5090.543349266592,261730.42348189262,515192.38237317227,0.0,0.0,0.0,13224.992,1056.9397404006304,0.0,52899.968,66124.95999999999,0.0,0.0,0.0,396083.6436489424,0.0,,21.60477735602925,,3.9,-70234.81702918821,-33281.602894144,0.4149800447695678,0.3741022936081137,0.9202573078402536,,0.0,-4216.992919616826,0.0,,97.4365763376398,18615.931251500293,396083.64364894235,47.0,173.0,66.0,86.47999999999999,,,,,,
499.0,469184.0322515759,0.0,159584.0,821339.1857647559,0.0,358805.01111234125,706274.8228624953,0.0,0.0,0.0,49014.969235809855,0.0,0.0,196059.87694323942,245074.84617904923,378179.92,0.0,0.0,469184.0322515759,0.0,,21.226977683595607,,3.7,9455.956554376186,127435.72879003157,0.44578950744123413,0.35015539204102114,0.9202573078402536,,0.0,-13588.088296543108,0.05,,115.41927193388767,22520.833548075643,469184.0322515759,48.0,174.0,66.0,86.24000000000001,,,,,,
500.0,270709.1914963701,0.0,163271.0,757805.692797644,9881.579811418793,253289.40497293617,515479.80945035786,0.0,0.0,0.0,21407.92317712558,4940.789905709396,0.0,85631.69270850232,107039.61588562789,0.0,0.0,0.0,270709.1914963702,0.0,,21.226977683595607,,3.5,91356.94142735624,251770.0574878729,0.29594233740775305,0.3332355642929525,0.9202573078402532,,0.0,-16742.25881618285,0.05,,66.59446110810705,13535.459574818506,270709.1914963701,50.0,180.0,66.0,86.18,,,,,,
501.0,476234.45247604704,0.0,150507.0,805483.6371079733,106332.560994979,376722.7763944945,903157.9265603041,0.0,0.0,0.0,59055.21443314889,53166.2804974895,0.0,236220.85773259556,295276.07216574444,0.0,0.0,0.0,476234.45247604704,0.0,,22.773022316404393,,3.2,31666.951905605783,87722.25695783476,0.21833766173538255,0.32423654465113727,0.9202573078402532,,0.0,0.0,0.0,,117.15367530910757,20001.847003993975,476234.45247604704,42.0,167.0,66.0,87.45,,,,,,
502.0,302154.7714910512,0.0,115456.0,657964.1859363165,18255.830728856214,259856.40810516008,717118.6981105622,0.0,0.0,0.0,3511.486988095547,9127.915364428105,0.0,14045.947952382188,17557.434940477735,0.0,0.0,0.0,302154.7714910511,0.0,,22.520234464096337,,3.0,-45303.84002101632,-62314.85046353222,0.2853120224223633,0.3311651019541519,0.9202573078402532,,0.0,-22272.734936420322,0.0,,74.3300737867986,2115.0834004373583,302154.7714910512,7.0,78.0,66.0,87.85,,,,,,
503.0,246803.59109040955,0.0,73500.0,317220.60886617535,21666.348938985288,109520.00528392658,334606.1175726868,0.0,0.0,0.0,155789.08486991824,10833.174469492642,0.0,623156.339479673,778945.424349591,0.0,0.0,0.0,246803.59109040955,0.0,,21.825744927982427,,2.8,-63994.13885434785,-157595.6850894378,0.38045388528358853,0.3629456855074273,0.9202573078402532,,0.0,-374.2495928124797,0.0,,60.713683408240755,1480.8215465424573,246803.59109040955,6.0,75.0,66.0,85.72,,,,,,
504.0,153899.09561604686,0.0,61337.0,475628.64913221647,53116.6702982222,222059.33911194606,722893.0605525769,0.0,0.0,0.0,0.0,26558.3351491111,0.0,0.0,0.0,0.0,0.0,0.0,153899.09561604686,0.0,,21.546528187312745,,2.3,-87860.41161239766,-247264.41142036032,0.5474381817872743,0.39109636323316926,0.9202573078402532,,0.0,0.0,0.0,,37.85917752154753,923.3945736962811,153899.09561604686,6.0,74.0,66.0,85.7,,,,,,
505.0,260447.1996082787,0.0,48485.0,430469.20541185635,59265.82287263826,132970.99140635465,444283.29634673666,0.0,0.0,0.0,138441.254607916,29632.91143631914,0.0,553765.018431664,692206.27303958,0.0,0.0,0.0,260447.1996082787,0.0,,22.773022316404393,,1.9,-130848.66193422861,-138411.22008200482,0.73554678549243,0.39701692955412876,0.9202573078402532,,4200.0,0.0,0.0,,64.07001110363655,1562.6831976496724,260447.1996082787,6.0,73.0,66.0,85.7,,,,,,
506.0,104439.69393160482,0.0,37159.0,308519.0699677707,19626.333152576237,106164.35159142764,354716.8264348165,0.0,0.0,0.0,12147.898000000001,9813.16657628812,0.0,48591.592000000004,60739.49,0.0,0.0,0.0,104439.69393160482,0.0,,21.87326864998345,,1.4,-55745.49560880888,2393.835532954312,0.8198676535799165,0.3983684642682561,1.0,,2400.0,-14704.472873264036,0.0,,25.692164707174786,626.6381635896289,104439.69393160482,6.0,73.0,66.0,85.7,,,,,,
507.0,338381.92388790083,0.0,35597.0,448840.377596021,11165.4298918005,121990.71752000049,390151.32983780745,0.0,0.0,0.0,210918.17397807847,5582.71494590025,0.0,843672.6959123139,1054590.8698903923,28498.4,0.0,0.0,338381.9238879009,0.0,,22.773022316404393,,1.2,34342.63457201931,25295.70077794316,0.7399486596243239,0.3932470476870399,0.9887755102040816,,9300.0,0.0,0.0,,83.2419532764236,2030.291543327405,338381.92388790083,6.0,73.0,66.0,85.68,,,,,,
508.0,216746.29493609912,0.0,33938.0,519505.4168814174,1254.1365698721595,173479.23974331684,516784.0729399378,0.0,0.0,0.0,3306.096,627.0682849360797,0.0,13224.384,16530.48,0.0,0.0,0.0,216746.2949360991,0.0,,22.02391711442096,,1.0,55676.806434334765,15945.727941479692,0.619512142341412,0.3908346662908487,1.0,,11850.0,-1718.0341524364885,0.0,,53.31958855428039,1300.4777696165947,216746.29493609912,6.0,74.0,66.0,85.7,,,,,,
509.0,337701.0699480393,0.0,41701.0,646619.7917140243,150414.41056722123,251623.84121317219,744774.4592909259,0.0,0.0,0.0,5993.936000000001,75207.2052836106,0.0,23975.744000000002,29969.68,0.0,0.0,0.0,337701.06994803925,0.0,,21.832506983770344,,0.7,45557.212614873046,-74178.92357690186,0.5545016694952976,0.40529394690031156,0.9887755102040816,,12000.0,0.0,0.0,,83.07446320721768,2026.206419688236,337701.0699480393,6.0,76.0,66.0,85.71000000000001,,,,,,
510.0,209076.2450497049,0.0,47465.0,142500.814386013,5090.543349266592,60795.97609118223,159083.2097035055,0.0,0.0,0.0,18230.622000000003,2545.271674633296,0.0,72922.48800000001,91153.11,91153.11,0.0,0.0,209076.24504970494,0.0,,21.60477735602925,,0.6,-68919.52395901337,56340.092682507464,0.6183632214946998,0.4074703672691579,0.9887755102040816,,0.0,-12619.741774260765,0.0,,51.43275628222741,1254.4574702982295,209076.2450497049,6.0,76.0,66.0,85.72,,,,,,
511.0,317169.61589835887,0.0,49895.0,770205.8438713521,2915.9069070461383,278502.3773681038,723439.6482005338,0.0,0.0,0.0,20637.316822018438,1457.9534535230691,0.0,82549.26728807375,103186.5841100922,0.0,0.0,0.0,317169.615898359,0.0,,22.62403730446579,,0.4,42739.30982528053,28192.610531001494,0.562570561206404,0.41047123262670576,0.9887755102040816,,0.0,-9288.383454025461,0.13333333333333333,,78.02372551099627,1903.0176953901532,317169.61589835887,6.0,77.0,66.0,85.72999999999999,,,,,,
512.0,346402.0528494324,0.0,67525.0,576184.0523528337,2510.6304129269156,103225.01038859159,270106.1325122237,0.0,0.0,0.0,130446.32119349702,1255.3152064634578,0.0,521785.28477398807,652231.6059674851,0.0,0.0,0.0,346402.0528494324,0.0,,21.662995460449878,,0.6,-39474.78275334349,188676.23076646292,0.603034430074256,0.3930546327971881,0.9887755102040816,,0.0,-3998.928249753119,0.13333333333333333,,85.21490500096036,2078.412317096594,346402.0528494324,6.0,77.0,66.0,85.72,,,,,,
513.0,342690.4425622205,0.0,96959.0,485093.0422258629,11818.484203090244,122845.43753616625,331986.4904144049,0.0,0.0,0.0,111523.38534962607,5909.242101545122,0.0,446093.5413985043,557616.9267481304,0.0,447.8966753388531,0.0,342690.4425622205,0.0,,21.3881522967905,,1.5,-9545.797447208686,52735.50499679483,0.6353280944771793,0.39443232648239707,0.9887755102040816,,0.0,-551.2666917471906,0.18333333333333335,,84.30184887030623,2056.1426553733227,342690.4425622205,6.0,78.0,66.0,85.74000000000001,,,,,,
514.0,210239.42561756453,0.0,102287.0,525636.4907972002,1511.4134717244488,163607.9507015131,462422.5081807164,0.0,0.0,0.0,10764.559719609515,755.7067358622244,0.0,43058.23887843806,53822.79859804758,30502.5,21141.668047406558,0.0,210239.4256175645,0.0,,21.37596269553421,,2.8,46329.61388423935,83418.32886883541,0.5702394948993259,0.3775815601257834,0.9887755102040816,,0.0,0.0,0.18333333333333335,,51.71889870192088,1471.6759793229517,210239.42561756453,7.0,102.0,66.0,88.25,,,,,,
515.0,337911.8508317903,0.0,177330.0,593407.2058799855,71624.98225396899,171931.74863561292,502339.7225860785,0.0,0.0,0.0,7498.580000000001,35812.49112698449,0.0,29994.320000000003,37492.9,37492.9,46832.56940752411,0.0,337911.85083179025,0.0,,22.62403730446579,,3.8,-26294.532349542467,121061.80329390729,0.6347591495338872,0.36536444497661164,0.9887755102040816,,0.0,0.0,0.18333333333333335,,83.12631530462042,16219.768839925933,337911.8508317903,48.0,168.0,66.0,87.84,,,,,,
516.0,332850.6190604643,0.0,157681.0,485465.03331719676,22001.086107917406,272121.6736895466,815822.3053171971,0.0,0.0,0.0,22589.318,11000.543053958703,0.0,90357.272,112946.59,112946.59,112061.81515405566,0.0,332850.61906046426,0.0,,22.62403730446579,,4.6,14914.322856876213,-240000.0,0.6110537752456255,0.3861051857173524,0.9887755102040816,,0.0,-5770.512286547269,0.18333333333333335,,81.88125228887422,16642.530953023215,332850.6190604643,50.0,168.0,66.0,87.72,,,,,,
517.0,431160.2870077691,0.0,129550.0,625989.2250540461,83873.64695708794,276493.4468977421,842108.3903458952,0.0,0.0,0.0,65295.0286888282,41936.82347854397,0.0,261180.1147553128,326475.143444141,243666.4,90465.07051891525,0.0,431160.28700776916,0.0,,21.94603559867704,,5.1,-28131.08050507518,-36091.61911179466,0.6318613314268875,0.39529269832381253,0.9887755102040816,,0.0,-20000.0,0.5,,106.0654306039112,22420.334924403993,431160.2870077691,52.0,165.0,66.0,87.83,,,,,,
518.0,261258.32645779554,0.0,114879.0,385665.52138324926,7080.567673433483,219206.69416830371,671811.252478133,0.0,0.0,0.0,4769.984638451529,3540.2838367167415,0.0,19079.938553806114,23849.92319225764,0.0,34215.898878376465,0.0,261258.32645779557,0.0,,21.628523675543466,,5.3,44687.745102872206,-290438.7172694901,0.5645705628372603,0.41096044800645765,0.9887755102040816,,1650.0,0.0,0.5,,64.26954830861771,14369.207955178754,261258.32645779554,55.0,165.0,66.0,87.81,,,,,,
519.0,452213.94072413724,0.0,88264.0,564036.6368951291,1436.0528058134942,164229.5580778574,495492.43859919754,0.0,0.0,0.0,205929.46612078956,718.0264029067471,0.0,823717.8644831582,1029647.3306039477,0.0,1079.2946836593726,0.0,452213.94072413724,0.0,,21.484915469360985,,4.8,7390.858494471067,-116792.32121277915,0.5295500346065768,0.42061766461730427,0.9887755102040816,,3000.0,0.0,0.5,,111.24462941813776,24871.766739827548,452213.94072413724,55.0,166.0,66.0,85.96000000000001,,,,,,
520.0,242743.9273096685,0.0,100525.0,502975.81108231575,11399.431332261403,180240.7018557372,530052.8964248374,0.0,0.0,0.0,7062.336,5699.715666130702,0.0,28249.344,35311.68,35311.68,0.0,0.0,242743.92730966854,0.0,,21.393228281315047,,4.0,46297.83018261706,1172.2586574781835,0.4415056658976486,0.4190337965536231,0.9887755102040816,,8400.0,0.0,0.5,,59.71500611817845,29129.27127716022,242743.9273096685,120.0,182.0,66.0,84.78999999999999,,,,,,
521.0,496469.21722455905,0.0,117900.0,453973.07621858525,20921.011078613454,97652.04859466541,280659.0795538875,0.0,0.0,0.0,279728.5042826657,10460.505539306725,0.0,1118914.0171306627,1398642.5214133281,0.0,0.0,0.0,496469.21722455905,0.0,,22.62403730446579,,3.3,7666.026595204588,-78441.65718970106,0.3779744376501145,0.42129237826100735,0.9357142857142848,,17700.0,-6372.344856309881,0.31666666666666665,,122.13142743724153,89860.92831764519,496469.21722455905,181.0,190.0,66.0,82.65,,,,,,
522.0,209076.2450497049,0.0,136582.0,265952.0639333357,3528.548368721539,60795.97609118223,159083.2097035055,0.0,0.0,0.0,18230.622000000003,2545.271674633296,0.0,72922.48800000001,91153.11,36346.65,0.0,0.0,209076.24504970494,0.0,,22.62403730446579,,2.6,-68919.52395901337,56340.092682507464,0.6183632214946998,0.4074703672691579,0.9887755102040816,,0.0,-12619.741774260765,0.13333333333333333,,51.43275628222741,41188.02027479187,209076.2450497049,197.0,189.0,66.0,82.73,,,,,,
523.0,317169.61589835887,0.0,157321.0,770205.8438713521,2915.9069070461383,278502.3773681038,723439.6482005338,0.0,0.0,0.0,20637.316822018438,1457.9534535230691,0.0,82549.26728807375,103186.5841100922,0.0,0.0,0.0,317169.615898359,0.0,,22.62403730446579,,1.9,42739.30982528053,28192.610531001494,0.562570561206404,0.41047123262670576,0.9887755102040816,,0.0,-9288.383454025461,0.13333333333333333,,78.02372551099627,64068.262411468495,317169.61589835887,202.0,190.0,66.0,80.25,,,,,,
524.0,346402.0528494324,0.0,164816.0,576184.0523528337,2510.6304129269156,103225.01038859159,270106.1325122237,0.0,0.0,0.0,130446.32119349702,1255.3152064634578,0.0,521785.28477398807,652231.6059674851,26207.24,0.0,0.0,346402.0528494324,0.0,,21.662995460449878,,1.3,-39474.78275334349,188676.23076646292,0.603034430074256,0.3930546327971881,0.9887755102040816,,0.0,-3998.928249753119,0.13333333333333333,,85.21490500096036,72744.4310983808,346402.0528494324,210.0,197.0,66.0,79.34,,,,,,
525.0,342690.4425622205,0.0,146179.0,485093.0422258629,11818.484203090244,122845.43753616625,331986.4904144049,0.0,0.0,0.0,111523.38534962607,5909.242101545122,0.0,446093.5413985043,557616.9267481304,0.0,0.0,0.0,342690.4425622205,0.0,,21.3881522967905,,0.6,-9545.797447208686,52735.50499679483,0.6353280944771793,0.39443232648239707,0.9887755102040816,,0.0,-551.2666917471906,0.13333333333333333,,84.30184887030623,74021.13559343963,342690.4425622205,216.0,201.0,66.0,79.3,,,,,,
526.0,210239.42561756453,0.0,113607.0,525636.4907972002,1511.4134717244488,163607.9507015131,462422.5081807164,0.0,0.0,0.0,10764.559719609515,755.7067358622244,0.0,43058.23887843806,53822.79859804758,219710.0,0.0,0.0,210239.4256175645,0.0,,21.37596269553421,,-0.1,46329.61388423935,83418.32886883541,0.5702394948993259,0.3775815601257834,0.9887755102040816,,0.0,0.0,0.13333333333333333,,51.71889870192088,46252.6736358642,210239.42561756453,220.0,192.0,66.0,79.97,,,,,,
527.0,337911.8508317903,0.0,75667.0,593407.2058799855,71624.98225396899,171931.74863561292,502339.7225860785,0.0,0.0,0.0,7498.580000000001,35812.49112698449,0.0,29994.320000000003,37492.9,0.0,0.0,0.0,337911.85083179025,0.0,,22.62403730446579,,-0.7,-26294.532349542467,121061.80329390729,0.6347591495338872,0.36536444497661164,0.9887755102040816,,0.0,0.0,0.0,,83.12631530462042,78733.46124380713,337911.8508317903,233.0,203.0,66.0,79.39,,,,,,
528.0,332850.6190604643,0.0,65013.0,485465.03331719676,22001.086107917406,272121.6736895466,815822.3053171971,0.0,0.0,0.0,22589.318,11000.543053958703,0.0,90357.272,112946.59,0.0,0.0,0.0,332850.61906046426,0.0,,22.62403730446579,,-1.5,14914.322856876213,-240000.0,0.6110537752456255,0.3861051857173524,0.9887755102040816,,0.0,-5770.512286547269,0.0,,81.88125228887422,79551.29795545098,332850.6190604643,239.0,211.0,66.0,78.89,,,,,,
529.0,431160.2870077691,0.0,52018.0,625989.2250540461,83873.64695708794,276493.4468977421,842108.3903458952,0.0,0.0,0.0,65295.0286888282,41936.82347854397,0.0,261180.1147553128,326475.143444141,0.0,0.0,0.0,431160.28700776916,0.0,,21.94603559867704,,-2.2,-28131.08050507518,-36091.61911179466,0.6318613314268875,0.39529269832381253,0.9887755102040816,,0.0,-20000.0,0.0,,106.0654306039112,104771.9497428879,431160.2870077691,243.0,209.0,66.0,78.89,,,,,,
530.0,261258.32645779554,0.0,40552.0,385665.52138324926,7080.567673433483,219206.69416830371,671811.252478133,0.0,0.0,0.0,4769.984638451529,3540.2838367167415,0.0,19079.938553806114,23849.92319225764,0.0,0.0,0.0,261258.32645779557,0.0,,21.628523675543466,,-3.0,44687.745102872206,-290438.7172694901,0.5645705628372603,0.41096044800645765,0.9887755102040816,,1650.0,0.0,0.0,,64.26954830861771,66620.87324673786,261258.32645779554,255.0,209.0,66.0,78.88,,,,,,
531.0,452213.94072413724,0.0,37197.0,564036.6368951291,1436.0528058134942,164229.5580778574,495492.43859919754,0.0,0.0,0.0,205929.46612078956,718.0264029067471,0.0,823717.8644831582,1029647.3306039477,0.0,0.0,0.0,452213.94072413724,0.0,,21.484915469360985,,-3.5,7390.858494471067,-116792.32121277915,0.5295500346065768,0.42061766461730427,0.9887755102040816,,3000.0,0.0,0.0,,111.24462941813776,116671.1967068274,452213.94072413724,258.0,208.0,66.0,78.89,,,,,,
532.0,242743.9273096685,0.0,33854.0,502975.81108231575,11399.431332261403,180240.7018557372,530052.8964248374,0.0,0.0,0.0,7062.336,5699.715666130702,0.0,28249.344,35311.68,0.0,0.0,0.0,242743.92730966854,0.0,,21.393228281315047,,-3.9,46297.83018261706,1172.2586574781835,0.4415056658976486,0.4190337965536231,0.9887755102040816,,8400.0,0.0,0.0,,59.71500611817845,64327.14073706215,242743.9273096685,265.0,198.0,66.0,79.83,,,,,,
533.0,496469.21722455905,0.0,40804.0,453973.07621858525,20921.011078613454,97652.04859466541,280659.0795538875,0.0,0.0,0.0,279728.5042826657,10460.505539306725,0.0,1118914.0171306627,1398642.5214133281,173583.8,0.0,0.0,496469.21722455905,0.0,,22.62403730446579,,-4.3,7666.026595204588,-78441.65718970106,0.3779744376501145,0.42129237826100735,0.9357142857142848,,17700.0,-6372.344856309881,0.0,,122.13142743724153,138514.91160565196,496469.21722455905,279.0,183.0,66.0,79.81,,,,,,
