,building_code,power_th_kW,power_th_Wm2
0,DE.N.AB.05.Gen.ReEx.001_001,459.4165719881214,118.17728834530035
1,DE.N.AB.05.Gen.ReEx.001_002,529.5782964818329,136.22522751827222
2,DE.N.AB.06.Gen.ReEx.001_001,609.5439005728041,183.56217493398992
3,DE.N.AB.06.Gen.ReEx.001_002,510.46148287859495,153.7238251899017
4,DE.N.MFH.06.Gen.ReEx.001_003,150.37329501429514,320.7621480680357
5,DE.N.MFH.06.Gen.ReEx.001_004,97.39649568626388,207.75703004749118
6,DE.N.MFH.07.Gen.ReEx.001_001,148.59359294965836,229.31110023095428
7,DE.N.MFH.07.Gen.ReEx.001_002,176.35325695079334,272.15008788702676
8,DE.N.MFH.06.Gen.ReEx.001_005,137.02822844595664,292.2957091423989
9,DE.N.MFH.06.Gen.ReEx.001_006,255.82972782248055,545.711876754438
10,DE.N.MFH.06.Gen.ReEx.001_007,145.53288617102558,310.437043880174
11,DE.N.MFH.07.Gen.ReEx.001_003,124.77623101192904,192.55591205544607
12,DE.N.MFH.07.Gen.ReEx.001_004,293.0786795733315,452.2819129218079
13,DE.N.MFH.07.Gen.ReEx.001_005,167.6970830975694,258.79179490365647
14,DE.N.MFH.07.Gen.ReEx.001_006,291.7534446051028,450.23679723009695
15,DE.N.MFH.06.Gen.ReEx.001_008,133.71789405701065,285.23441565061995
16,DE.N.MFH.06.Gen.ReEx.001_009,75.51081208068388,161.07255136664645
17,DE.N.MFH.07.Gen.ReEx.001_007,146.6412445824055,226.29821694815666
18,DE.N.MFH.07.Gen.ReEx.001_008,108.51055030751382,167.45455294369418
19,DE.N.MFH.06.Gen.ReEx.001_001,270.14801685541227,576.2543021659817
20,DE.N.MFH.06.Gen.ReEx.001_002,90.680523002652,193.43114974968427
