,load_elec,grid,hp_elec,ev,pv,bat_pow,cool,load_th_sh,load_th_dhw,tes_pow,dh,hp_th,bat_soc,tes_soc,ev_soc,eh_th_in,eh_elec_in,eh_th_out,temp_slack,temp_zone_1,temp_zone_2,temp_update,Qsolar_1,QconvInt_1,QradInt_1,Qvent_1,Qconduc_1,Qheating_1,Qsolar_2,QconvInt_2,QradInt_2,Qvent_2,Qconduc_2,Qheating_2,temp_amb,temp_aggregate_1,temp_aggregate_2,temp_wall_1,temp_wall_2,_Tamb,_Tz_1,_TEW_1,_TIW_1,_T1_1,_T2_1,_Taeq_1,_Tvent_1,_Qheating_1,_Qinfvent_1,_Qenvelope_1,_Qsolar_1,_Qint_people_1,_Qint_lighting_1,_Qint_appliances_1,_Tz_2,_TEW_2,_TIW_2,_T1_2,_T2_2,_Taeq_2,_Tvent_2,_Qheating_2,_Qinfvent_2,_Qenvelope_2,_Qsolar_2,_Qint_people_2,_Qint_lighting_2,_Qint_appliances_2
390.0,1178.0,43272.85473434604,41878.49046067431,-0.0,0.0,0.0,0.0,82433.97532316158,0.0,0.0,0.0,82433.97532316158,0.5,0.5,0.8,0.0,0.0,0.0,"[2.0, 2.0, 2.0, 2.0, 2.0, 2.0, 2.0, 2.0, 2.0]",20.0,0.0,0.0,0.0,288.41766759721025,141.43213766746644,-1801.7691201364228,-2200.217290228491,7938.30751932342,0.0,0.0,0.0,0.0,0.0,0.0,-6.2,19.170356159705136,0.0,19.0,0.0,-6.2,20.0,18.0,20.0,20.0,20.0,-7.14,-6.2,10666.65,-1271.28,-991.41,0.0,402.0,25.0,0.0,0.0,0.0,0.0,0.0,0.0,0.0,0.0,0.0,0.0,0.0,0.0,0.0,0.0,0.0
391.0,879.0,883.4170854271357,0.0,-0.0,0.0,0.0,0.0,68079.86522958486,0.0,68079.86522958486,0.0,0.0,0.5,0.24270648061381384,0.8,0.0,0.0,0.0,"[2.0, 2.0, 2.0, 2.0, 2.0, 2.0, 2.0, 2.0, 2.0]",21.67,0.0,0.0,0.0,241.6472350138789,95.87010674103429,-1923.6866353866592,-4875.025438859311,12528.224754488401,0.0,0.0,0.0,0.0,0.0,0.0,-6.3,19.817067121646588,0.0,19.2419817475109,0.0,-6.3,21.67,18.16,20.32,20.54,21.32,-7.23,-6.3,0.0,-1357.3,-1058.49,0.0,214.0,46.0,62.0,0.0,0.0,0.0,0.0,0.0,0.0,0.0,0.0,0.0,0.0,0.0,0.0,0.0,0.0
392.0,1330.0,1758.8686446412482,420.0743014180422,-0.0,0.0,0.0,0.0,65047.01258325099,0.0,64220.134770415134,0.0,826.8778128358463,0.5,0.0,0.8,0.0,0.0,0.0,"[2.0, 2.0, 2.0, 2.0, 2.0, 2.0, 2.0, 2.0, 2.0]",24.0,0.0,0.0,1.8735026233063894,261.1349152569336,101.09075611802132,-2076.8483751190824,-8370.622102636558,10090.273542081304,0.0,0.0,0.0,0.0,0.0,0.0,-6.2,20.803189329348346,0.0,19.713687569522474,0.0,-6.2,24.0,18.44,20.99,22.09,22.89,-7.12,-6.2,10104.54,-1465.37,-1142.77,2.96,228.0,47.0,69.0,0.0,0.0,0.0,0.0,0.0,0.0,0.0,0.0,0.0,0.0,0.0,0.0,0.0,0.0
393.0,4283.0,4309.148504903405,13253.314856843423,-0.0,18.71209446453393,13230.0,0.0,26972.372641173923,0.0,0.0,0.0,26972.372641173923,0.0,0.0,0.8,0.0,0.0,0.0,"[2.0, 2.0, 2.0, 2.0, 2.0, 2.0, 2.0, 2.0, 2.0]",24.0,0.0,0.0,28.43793090762649,288.3468033054173,119.31556848859415,-2028.7095054971169,-7596.886042291929,0.0,0.0,0.0,0.0,0.0,0.0,0.0,-5.5,21.099807228428425,0.0,20.157483267784123,0.0,-5.5,24.0,18.73,21.59,22.09,23.05,-6.25,-5.5,7374.84,-1431.4,-1116.28,44.94,332.0,23.0,37.0,0.0,0.0,0.0,0.0,0.0,0.0,0.0,0.0,0.0,0.0,0.0,0.0,0.0,0.0
394.0,6065.0,11820.85721118696,5789.770387578433,-0.0,93.01746244740878,0.0,0.0,12058.98096380829,0.0,0.0,0.0,12058.98096380829,0.0,0.0,0.8,0.0,0.0,0.0,"[2.0, 2.0, 2.0, 2.0, 2.0, 2.0, 2.0, 2.0, 2.0]",20.47,0.0,0.0,40.53699200293043,274.45740211400374,61.603662648446786,-1751.4705982044545,-984.8413227024961,1141.861536090483,0.0,0.0,0.0,0.0,0.0,0.0,-5.0,20.10505922140728,0.0,20.18378463698727,0.0,-5.0,20.47,18.83,21.53,19.81,20.98,-5.61,-5.0,6829.65,-1235.79,-963.73,64.06,184.0,0.0,107.0,0.0,0.0,0.0,0.0,0.0,0.0,0.0,0.0,0.0,0.0,0.0,0.0,0.0,0.0
395.0,5369.0,51946.34321594487,31056.068698225758,-0.0,738.4571983606153,-16000.0,0.0,66460.23526815193,0.0,0.0,0.0,66460.23526815193,0.5807407407407407,0.0,0.8,0.0,0.0,0.0,"[2.0, 2.0, 2.0, 2.0, 2.0, 2.0, 2.0, 2.0, 2.0]",20.0,0.0,0.0,67.40808286642242,1487.441484733524,111.69025636826767,-1677.9834553942253,-225.769224411336,10658.791779018156,0.0,0.0,0.0,0.0,0.0,0.0,-4.4,19.927310334874644,0.0,20.10469259739533,0.0,-4.4,20.0,18.87,21.34,19.69,20.81,-4.95,-4.4,0.0,-1183.94,-923.3,106.52,256.0,0.0,970.0,0.0,0.0,0.0,0.0,0.0,0.0,0.0,0.0,0.0,0.0,0.0,0.0,0.0,0.0
396.0,4326.0,0.0,11532.547981238149,-0.0,1125.747981238154,14732.799999999996,0.0,25119.5181443913,0.0,0.0,0.0,25119.5181443913,0.02394557823129262,0.0,0.8,0.0,0.0,0.0,"[2.0, 2.0, 2.0, 2.0, 2.0, 2.0, 2.0, 2.0, 2.0]",24.0,0.0,0.0,75.06083191018668,726.9967695036315,62.04662683800932,-1925.5547848786196,-7081.290049586492,0.0,0.0,0.0,0.0,0.0,0.0,0.0,-4.0,21.296811496722434,0.0,20.418245698399907,0.0,-4.0,24.0,19.09,21.75,22.34,23.25,-4.5,-4.0,2412.23,-1358.62,-1059.52,118.62,150.0,0.0,461.0,0.0,0.0,0.0,0.0,0.0,0.0,0.0,0.0,0.0,0.0,0.0,0.0,0.0,0.0
397.0,1649.0,15360.313094279107,14318.696795926948,-0.0,684.1852671192369,0.0,0.0,31461.152787884414,0.0,0.0,0.0,31461.15278788442,0.02394557823129262,0.0,0.8,0.0,0.0,0.0,"[2.0, 2.0, 2.0, 2.0, 2.0, 2.0, 2.0, 2.0, 2.0]",20.87,0.0,0.0,66.28215827856506,212.73460396236493,4.999167282205748,-1696.7462700625867,-1210.1848078207233,347.3306971606113,0.0,0.0,0.0,0.0,0.0,0.0,-3.8,20.422311331899888,0.0,20.450678180255682,0.0,-3.8,20.87,19.19,21.71,20.17,21.25,-4.4,-3.8,0.0,-1197.18,-933.62,104.74,0.0,0.0,158.0,0.0,0.0,0.0,0.0,0.0,0.0,0.0,0.0,0.0,0.0,0.0,0.0,0.0,0.0
398.0,2766.0,36786.38345994279,17980.58831473211,-0.0,144.1367720890336,-16000.0,0.0,39335.67505771843,0.0,0.0,0.0,39335.67505771842,0.6046863189720333,0.0,0.8,0.0,0.0,0.0,"[2.0, 2.0, 2.0, 2.0, 2.0, 2.0, 2.0, 2.0, 2.0]",20.0,0.0,0.0,45.309203855362625,119.83151742183847,2.815986633647539,-1643.5985485213928,259.40875287541587,11631.23661001165,0.0,0.0,0.0,0.0,0.0,0.0,-3.9,20.113457651491526,0.0,20.351046322708648,0.0,-3.9,20.0,19.21,21.49,19.8,20.85,-4.67,-3.9,0.0,-1159.68,-904.38,71.6,0.0,0.0,89.0,0.0,0.0,0.0,0.0,0.0,0.0,0.0,0.0,0.0,0.0,0.0,0.0,0.0,0.0
399.0,5106.0,7853.582826825414,18709.11515783307,-0.0,0.8002451417826459,16000.0,0.0,40394.3754662553,0.0,0.0,0.0,40394.3754662553,0.0,0.0,0.8,0.0,0.0,0.0,"[2.0, 2.0, 2.0, 2.0, 2.0, 2.0, 2.0, 2.0, 2.0]",24.0,0.0,0.0,16.985322190794328,365.16369560894947,54.642796812464105,-1939.3087476277522,-6604.825633671484,0.0,0.0,0.0,0.0,0.0,0.0,0.0,-4.2,21.480124444257992,0.0,20.66217289338559,0.0,-4.2,24.0,19.41,21.91,22.55,23.43,-5.12,-4.2,2353.96,-1368.33,-1067.09,26.84,148.0,3.0,193.0,0.0,0.0,0.0,0.0,0.0,0.0,0.0,0.0,0.0,0.0,0.0,0.0,0.0,0.0
400.0,2406.0,6264.58094820015,3827.258043459149,-0.0,0.0,0.0,0.0,8080.903530681886,0.0,0.0,0.0,8080.903530681886,0.0,0.0,0.8,0.0,0.0,0.0,"[2.0, 2.0, 2.0, 2.0, 2.0, 2.0, 2.0, 2.0, 2.0]",20.89,0.0,0.0,0.0,446.7993597544006,64.38800898283986,-1759.521118571244,-793.0426588650388,0.0,0.0,0.0,0.0,0.0,0.0,0.0,-4.7,20.59610519258381,0.0,20.67594905224643,0.0,-4.7,20.89,19.5,21.85,20.32,21.34,-5.79,-4.7,0.0,-1241.47,-968.16,0.0,142.0,20.0,255.0,0.0,0.0,0.0,0.0,0.0,0.0,0.0,0.0,0.0,0.0,0.0,0.0,0.0,0.0
401.0,4789.0,16341.848565980805,11471.139323150901,-0.0,0.0,0.0,0.0,23782.824608123425,0.0,0.0,0.0,23782.824608123425,0.0,0.0,0.8,0.0,0.0,0.0,"[2.0, 2.0, 2.0, 2.0, 2.0, 2.0, 2.0, 2.0, 2.0]",20.1,0.0,0.0,0.0,454.169246100865,123.74521038421952,-1733.0043695912705,483.6127423191879,10836.218711894082,0.0,0.0,0.0,0.0,0.0,0.0,-5.1,20.300508397657843,0.0,20.559612346191635,0.0,-5.1,20.1,19.5,21.62,19.97,20.94,-6.15,-5.1,8887.24,-1222.76,-953.57,0.0,296.0,43.0,177.0,0.0,0.0,0.0,0.0,0.0,0.0,0.0,0.0,0.0,0.0,0.0,0.0,0.0,0.0
402.0,4115.0,57651.10369778365,41696.827771131466,-0.0,0.0,-11551.020408163267,0.0,4858.949534205146,0.0,-80000.0,0.0,84858.94953420515,0.41925925925925933,0.29037037037037033,0.8,0.0,0.0,0.0,"[2.0, 0.7841891444261897, 1.510094560291261, 0.9760489062531406, 1.9824363900221122, 1.5005420064935215, 1.4745504539485843, 1.6065937067555645, 2.0]",24.0,0.0,0.0,0.0,1776.3552023732852,132.0349687888898,-2028.7095054971169,-6235.158900688989,0.0,0.0,0.0,0.0,0.0,0.0,0.0,-5.5,21.622864944676245,0.0,20.848855946328985,0.0,-5.5,24.0,19.69,22.01,22.65,23.46,-6.53,-5.5,0.0,-1431.4,-1116.28,0.0,220.0,43.0,1199.0,0.0,0.0,0.0,0.0,0.0,0.0,0.0,0.0,0.0,0.0,0.0,0.0,0.0,0.0
403.0,4092.0,20192.9648241206,0.0,-0.0,0.0,-16000.0,0.0,18304.126265384482,0.0,18304.126265384482,0.0,0.0,1.0,0.22119377828652875,0.8,0.0,0.0,0.0,"[2.0, 0.7841891444261897, 1.510094560291261, 0.9760489062531406, 1.9824363900221122, 1.5005420064935215, 1.4745504539485843, 1.6065937067555645, 2.0]",21.56,0.0,0.0,0.0,1464.056268441858,158.83430225742313,-1881.2686878283823,-1624.2041341696386,0.0,0.0,0.0,0.0,0.0,0.0,0.0,-5.8,20.948282016662105,0.0,20.8878734765322,0.0,-5.8,21.56,19.77,22.0,20.77,21.69,-6.85,-5.8,0.0,-1327.37,-1035.15,0.0,264.0,80.0,940.0,0.0,0.0,0.0,0.0,0.0,0.0,0.0,0.0,0.0,0.0,0.0,0.0,0.0,0.0
404.0,4635.0,17578.279866342702,28855.388467010987,-0.0,0.0,16000.0,0.0,56799.191056408585,0.0,0.0,0.0,56799.19105640859,0.3953136810279667,0.22119377828652875,0.8,0.0,0.0,0.0,"[2.0, 0.7841891444261897, 1.510094560291261, 0.9760489062531406, 1.9824363900221122, 1.5005420064935215, 1.4745504539485843, 1.6065937067555645, 2.0]",20.83,0.0,0.0,0.0,1183.7879944008348,158.0432947760615,-1858.7729001359148,-377.8807120278008,0.0,0.0,0.0,0.0,0.0,0.0,0.0,-6.2,20.699555334956038,0.0,20.818747974656294,0.0,-6.2,20.83,19.8,21.84,20.47,21.37,-7.24,-6.2,0.0,-1311.5,-1022.77,0.0,340.0,50.0,695.0,0.0,0.0,0.0,0.0,0.0,0.0,0.0,0.0,0.0,0.0,0.0,0.0,0.0,0.0
405.0,5744.0,42828.376337811635,20870.23445612258,-0.0,0.0,-16000.0,0.0,40285.296869537226,0.0,0.0,0.0,40285.296869537226,0.9760544217687074,0.22119377828652875,0.8,0.0,0.0,0.0,"[2.0, 0.7841891444261897, 1.510094560291261, 0.9760489062531406, 1.9824363900221122, 1.5005420064935215, 1.4745504539485843, 1.6065937067555645, 2.0]",20.48,0.0,0.0,0.0,978.1398196177626,163.16902325528505,-1862.3625955058299,114.85493068306053,9781.380934419423,0.0,0.0,0.0,0.0,0.0,0.0,-6.6,20.540998361553775,0.0,20.721196011964366,0.0,-6.6,20.48,19.79,21.65,20.3,21.14,-7.65,-6.6,0.0,-1314.03,-1024.75,0.0,360.0,57.0,531.0,0.0,0.0,0.0,0.0,0.0,0.0,0.0,0.0,0.0,0.0,0.0,0.0,0.0,0.0
406.0,4280.0,10500.529567040967,19696.011907423035,-0.0,0.0,13527.984988217273,0.0,37267.65165102147,0.0,0.0,0.0,37267.651651021464,0.46479270641658066,0.22119377828652875,0.8,0.0,0.0,0.0,"[2.0, 0.7841891444261897, 1.510094560291261, 0.9760489062531406, 1.9824363900221122, 1.5005420064935215, 1.4745504539485843, 1.6065937067555645, 2.0]",24.0,0.0,0.0,0.0,654.0774132487102,140.16652569728777,-2131.864226115614,-5926.672044698521,0.0,0.0,0.0,0.0,0.0,0.0,0.0,-7.0,21.742138077571283,0.0,20.996056663400594,0.0,-7.0,24.0,19.96,22.04,22.71,23.41,-7.99,-7.0,0.0,-1504.19,-1173.04,0.0,388.0,15.0,280.0,0.0,0.0,0.0,0.0,0.0,0.0,0.0,0.0,0.0,0.0,0.0,0.0,0.0,0.0
407.0,4055.0,13872.966040500476,9748.601210297973,-0.0,0.0,0.0,0.0,18166.928712844725,0.0,0.0,0.0,18166.928712844725,0.46479270641658066,0.22119377828652875,0.8,0.0,0.0,0.0,"[2.0, 0.7841891444261897, 1.510094560291261, 0.9760489062531406, 1.9824363900221122, 1.5005420064935215, 1.4745504539485843, 1.6065937067555645, 2.0]",21.21,0.0,0.0,0.0,546.1510968480834,133.9333867441578,-1960.4092729601944,-712.7536377838978,0.0,0.0,0.0,0.0,0.0,0.0,0.0,-7.3,20.949698702861507,0.0,21.012101678985076,0.0,-7.3,21.21,20.02,22.01,20.74,21.6,-8.31,-7.3,8452.61,-1383.21,-1078.7,0.0,404.0,0.0,193.0,0.0,0.0,0.0,0.0,0.0,0.0,0.0,0.0,0.0,0.0,0.0,0.0,0.0,0.0
408.0,1335.0,0.0,10963.415011782725,-0.0,0.0,12298.415011782725,0.0,23177.106303336815,0.0,3059.873734615498,0.0,20117.232568721312,0.0,0.20962962962962967,0.8,0.0,0.0,0.0,"[2.0, 0.7841891444261897, 1.510094560291261, 0.9760489062531406, 1.9824363900221122, 1.5005420064935215, 1.4745504539485843, 1.6065937067555645, 2.0]",20.44,0.0,0.0,0.0,454.169246100865,82.61282135341271,-1928.1640444919683,545.9241180908834,10127.480070219464,0.0,0.0,0.0,0.0,0.0,0.0,-7.6,20.66382840685758,0.0,20.90719435264559,0.0,-7.6,20.44,20.01,21.81,20.39,21.23,-8.53,-7.6,6261.48,-1360.46,-1060.96,0.0,240.0,0.0,211.0,0.0,0.0,0.0,0.0,0.0,0.0,0.0,0.0,0.0,0.0,0.0,0.0,0.0,0.0
409.0,1137.0,31239.413620784537,13946.216552680613,-0.0,0.0,-16000.0,0.0,25324.593786110356,0.0,0.0,0.0,25324.593786110356,0.5807407407407407,0.20962962962962967,0.8,0.0,0.0,0.0,"[2.0, 0.7841891444261897, 1.510094560291261, 0.9760489062531406, 1.9824363900221122, 1.5005420064935215, 1.4745504539485843, 1.6065937067555645, 2.0]",24.0,0.0,0.0,0.0,389.5410119857163,81.09408698919832,-2186.8800771121464,-5599.820356743803,0.0,0.0,0.0,0.0,0.0,0.0,0.0,-7.8,21.868065945678392,0.0,21.168551696850514,0.0,-7.8,24.0,20.16,22.18,22.83,23.52,-8.73,-7.8,5742.78,-1543.01,-1203.31,0.0,240.0,0.0,163.0,0.0,0.0,0.0,0.0,0.0,0.0,0.0,0.0,0.0,0.0,0.0,0.0,0.0,0.0
410.0,890.0,0.0,13986.911116762562,-0.0,0.0,14876.911116762562,0.0,24998.4655021613,0.0,0.0,0.0,24998.465502161296,0.01849920193641108,0.20962962962962967,0.8,0.0,0.0,0.0,"[2.0, 0.7841891444261897, 1.510094560291261, 0.9760489062531406, 1.9824363900221122, 1.5005420064935215, 1.4745504539485843, 1.6065937067555645, 2.0]",21.19,0.0,0.0,0.0,277.7880238282713,78.46794215107758,-2014.1657438224897,-382.8399329367915,9367.84194593685,0.0,0.0,0.0,0.0,0.0,0.0,-8.1,21.05844934650389,0.0,21.16716441302322,0.0,-8.1,21.19,20.2,22.13,20.82,21.67,-9.0,-8.1,5181.47,-1421.14,-1108.28,0.0,240.0,0.0,80.0,0.0,0.0,0.0,0.0,0.0,0.0,0.0,0.0,0.0,0.0,0.0,0.0,0.0,0.0
411.0,812.0,23633.914566396827,22703.744993564844,-0.0,0.0,0.0,0.0,40577.85033832876,0.0,0.0,0.0,40577.85033832876,0.01849920193641108,0.20962962962962967,0.8,0.0,0.0,0.0,"[2.0, 0.7841891444261897, 1.510094560291261, 0.9760489062531406, 1.9824363900221122, 1.5005420064935215, 1.4745504539485843, 1.6065937067555645, 2.0]",24.0,0.0,0.0,0.0,227.97042669784412,77.29725107866231,-2207.511021235846,-5167.483183723539,7075.068331143611,0.0,0.0,0.0,0.0,0.0,0.0,-8.1,22.03423261365518,0.0,21.410427882509993,0.0,-8.1,24.0,20.35,22.47,22.89,23.64,-9.0,-8.1,0.0,-1557.56,-1214.66,0.0,240.0,0.0,43.0,0.0,0.0,0.0,0.0,0.0,0.0,0.0,0.0,0.0,0.0,0.0,0.0,0.0,0.0
412.0,565.0,17322.305238868335,5134.620254704248,-0.0,0.0,-11536.073457969746,0.0,9128.031785488303,0.0,0.0,0.0,9128.031785488303,0.43721594226272037,0.20962962962962967,0.8,0.0,0.0,0.0,"[2.0, 0.7841891444261897, 1.510094560291261, 0.9760489062531406, 1.9824363900221122, 1.5005420064935215, 1.4745504539485843, 1.6065937067555645, 2.0]",24.0,0.0,0.0,0.0,228.82079819935922,80.71440339814471,-2214.3880026104125,-4720.535053202859,0.0,0.0,0.0,0.0,0.0,0.0,0.0,-8.2,22.205908920390982,0.0,21.66667190413309,0.0,-8.2,24.0,20.52,22.81,22.81,23.65,-9.09,-8.2,0.0,-1562.41,-1218.45,0.0,240.0,6.0,43.0,0.0,0.0,0.0,0.0,0.0,0.0,0.0,0.0,0.0,0.0,0.0,0.0,0.0,0.0
413.0,754.0,0.0,10814.73383227158,-0.0,0.0,11568.73383227158,0.0,19122.709966314636,0.0,0.0,0.0,19122.709966314636,0.0,0.20962962962962967,0.8,0.0,0.0,0.0,"[2.0, 0.7841891444261897, 1.510094560291261, 0.9760489062531406, 1.9824363900221122, 1.5005420064935215, 1.4745504539485843, 1.6065937067555645, 2.0]",21.45,0.0,0.0,0.0,230.02549115983896,90.93422005733747,-2046.1593036692557,-50.977308607016475,202.21490019597093,0.0,0.0,0.0,0.0,0.0,0.0,-8.3,21.451359476282196,0.0,21.630034255551788,0.0,-8.3,21.45,20.56,22.7,21.16,22.12,-9.18,-8.3,5073.49,-1443.72,-1125.88,0.0,240.0,24.0,42.0,0.0,0.0,0.0,0.0,0.0,0.0,0.0,0.0,0.0,0.0,0.0,0.0,0.0,0.0
414.0,647.0,30879.409887264337,14078.01283782802,-0.0,0.0,-15999.999999999998,0.0,1023.6536590761003,0.0,-23869.215696294166,0.0,24892.869355370265,0.5807407407407407,0.2962660421569196,0.8,0.0,0.0,0.0,"[1.4784284509003243, 0.7841891444261897, 1.5100945602912645, 0.9760489062531406, 1.9824363900221122, 0.9744758775154416, 1.4745504539485843, 1.5322968462704836, 1.7348185007031205]",20.85,0.0,0.0,0.0,207.41978207789543,90.90257975808301,-2004.4293208553838,865.0762371110865,0.0,0.0,0.0,0.0,0.0,0.0,0.0,-8.3,21.19597225567982,0.0,21.49922187092917,0.0,-8.3,20.85,20.54,22.46,20.89,21.8,-9.18,-8.3,0.0,-1414.27,-1102.92,0.0,202.0,45.0,43.0,0.0,0.0,0.0,0.0,0.0,0.0,0.0,0.0,0.0,0.0,0.0,0.0,0.0,0.0
415.0,1834.0,18215.06274567702,16289.987431948635,-0.0,0.0,0.0,0.0,28804.10279599396,0.0,0.0,0.0,28804.10279599396,0.5807407407407407,0.2962660421569196,0.8,0.0,0.0,0.0,"[1.4784284509003243, 0.7841891444261897, 1.5100945602912645, 0.9760489062531406, 1.9824363900221122, 0.9744758775154416, 1.4745504539485843, 1.5322968462704836, 1.7348185007031205]",20.52,0.0,0.0,0.0,178.50715102638148,111.40549367497746,-1982.0541072889414,1220.9379522748923,8179.150383810933,0.0,0.0,0.0,0.0,0.0,0.0,-8.3,21.007074908532335,0.0,21.347219092579596,0.0,-8.3,20.52,20.5,22.19,20.69,21.52,-9.18,-8.3,2093.41,-1398.49,-1090.61,0.0,148.0,111.0,43.0,0.0,0.0,0.0,0.0,0.0,0.0,0.0,0.0,0.0,0.0,0.0,0.0,0.0,0.0
416.0,4757.0,14527.789977121132,11588.170402313937,-0.0,0.0,1890.0193750784122,0.0,20711.254659239083,0.0,0.0,0.0,20711.254659239086,0.5093114370718664,0.2962660421569196,0.8,0.0,0.0,0.0,"[1.4784284509003243, 0.7841891444261897, 1.5100945602912645, 0.9760489062531406, 1.9824363900221122, 0.9744758775154416, 1.4745504539485843, 1.5322968462704836, 1.7348185007031205]",23.48,0.0,0.0,1.873281839728804,150.51575576817558,86.56785876022104,-2171.6426429492235,-3963.637140635616,0.0,0.0,0.0,0.0,0.0,0.0,0.0,-8.1,21.974617521217322,0.0,21.515145991280274,0.0,-8.1,23.48,20.6,22.43,22.69,23.37,-8.96,-8.1,0.0,-1532.25,-1194.93,2.96,107.0,90.0,46.0,0.0,0.0,0.0,0.0,0.0,0.0,0.0,0.0,0.0,0.0,0.0,0.0,0.0,0.0
417.0,6352.0,0.0,7124.380624921587,-0.0,0.0,13476.380624921587,0.0,13004.907560562442,0.0,0.0,0.0,13004.907560562442,0.0,0.2962660421569196,0.8,0.0,0.0,0.0,"[1.4784284509003243, 0.7841891444261897, 1.5100945602912645, 0.9760489062531406, 1.9824363900221122, 0.9744758775154416, 1.4745504539485843, 1.5322968462704836, 1.7348185007031205]",21.21,0.0,0.0,11.227314569490726,229.45857682549553,84.85928260047984,-1988.2731823841052,179.9155536795789,0.0,0.0,0.0,0.0,0.0,0.0,0.0,-7.7,21.297804281803714,0.0,21.47727151942302,0.0,-7.7,21.21,20.62,22.34,21.05,21.84,-8.57,-7.7,0.0,-1402.87,-1094.03,17.74,114.0,80.0,102.0,0.0,0.0,0.0,0.0,0.0,0.0,0.0,0.0,0.0,0.0,0.0,0.0,0.0,0.0
418.0,5455.0,20972.811556319015,15413.831390346953,-0.0,0.8838918095370092,0.0,0.0,28577.378840505487,0.0,0.0,0.0,28577.378840505487,0.0,0.2962660421569196,0.8,0.0,0.0,0.0,"[1.4784284509003243, 0.7841891444261897, 1.5100945602912645, 0.9760489062531406, 1.9824363900221122, 0.9744758775154416, 1.4745504539485843, 1.5322968462704836, 1.7348185007031205]",20.64,0.0,0.0,16.776299212111514,532.2616956566699,71.15903302329575,-1928.3436153828964,1032.4112416441942,0.0,0.0,0.0,0.0,0.0,0.0,0.0,-7.4,21.053214125633875,0.0,21.35056469746512,0.0,-7.4,20.64,20.58,22.12,20.77,21.52,-8.26,-7.4,0.0,-1360.59,-1061.05,26.51,122.0,39.0,327.0,0.0,0.0,0.0,0.0,0.0,0.0,0.0,0.0,0.0,0.0,0.0,0.0,0.0,0.0
419.0,7936.0,112969.34944704457,79331.34612763558,-0.0,3.837427826222547,-16000.0,0.0,32029.616949658375,45704.97,-80000.0,0.0,148593.59294965837,0.5807407407407407,0.5866364125272899,0.8,36563.976,9140.994,45704.97,"[1.4784284509003243, 0.7841891444261897, 1.5100945602912645, 0.9760489062531406, 1.9824363900221122, 0.9744758775154416, 1.4745504539485843, 1.5322968462704836, 1.7348185007031205]",20.53,0.0,0.0,20.467975900511608,2192.116002322384,98.27476948437376,-1907.198206911753,1011.4714132984864,6261.041181323676,0.0,0.0,0.0,0.0,0.0,0.0,-7.2,20.937517444246417,0.0,21.216903119343925,0.0,-7.2,20.53,20.54,21.9,20.68,21.35,-8.06,-7.2,0.0,-1345.67,-1049.42,32.34,156.0,0.0,1546.0,0.0,0.0,0.0,0.0,0.0,0.0,0.0,0.0,0.0,0.0,0.0,0.0,0.0,0.0
420.0,3222.0,0.0,8091.278012341193,-0.0,9.540259298894325,11303.737753042298,0.0,15386.983715746936,0.0,0.0,0.0,15386.983715746937,0.15353976745871883,0.5866364125272899,0.8,0.0,0.0,0.0,"[1.4784284509003243, 0.7841891444261897, 1.5100945602912645, 0.9760489062531406, 1.9824363900221122, 0.9744758775154416, 1.4745504539485843, 1.5322968462704836, 1.7348185007031205]",23.48,0.0,0.0,24.21142827455351,1587.1475432861714,80.461281004109,-2089.118866454425,-4181.766372370155,4583.542483739582,0.0,0.0,0.0,0.0,0.0,0.0,-6.9,21.890169250714887,0.0,21.368749716797275,0.0,-6.9,23.48,20.62,22.12,22.52,23.02,-7.74,-6.9,0.0,-1474.03,-1149.52,38.26,144.0,0.0,1103.0,0.0,0.0,0.0,0.0,0.0,0.0,0.0,0.0,0.0,0.0,0.0,0.0,0.0,0.0
421.0,3271.0,5362.805184502742,6860.590235428228,-0.0,4795.599076848,0.0,0.0,14485.50560910863,0.0,0.0,0.0,14485.505609108634,0.15353976745871883,0.5866364125272899,0.8,0.0,0.0,0.0,"[1.4784284509003243, 0.7841891444261897, 1.5100945602912645, 0.9760489062531406, 1.9824363900221122, 0.9744758775154416, 1.4745504539485843, 1.5322968462704836, 1.7348185007031205]",23.48,0.0,0.0,555.9533111443815,1436.5609232262032,67.33055681350528,-1937.825276213962,-3850.891085585781,0.0,0.0,0.0,0.0,0.0,0.0,0.0,-4.7,22.015726965733407,0.0,21.55828218139124,0.0,-4.7,23.48,20.73,22.39,22.45,23.03,-5.07,-4.7,0.0,-1367.28,-1066.27,878.55,112.0,0.0,1008.0,0.0,0.0,0.0,0.0,0.0,0.0,0.0,0.0,0.0,0.0,0.0,0.0,0.0,0.0
422.0,4616.0,27988.146685852906,7379.597457069372,-0.0,147.39150464573515,-16000.0,0.0,16284.861319542306,0.0,0.0,0.0,16284.861319542308,0.7342805081994594,0.5866364125272899,0.8,0.0,0.0,0.0,"[1.4784284509003243, 0.7841891444261897, 1.5100945602912645, 0.9760489062531406, 1.9824363900221122, 0.9744758775154416, 1.4745504539485843, 1.5322968462704836, 1.7348185007031205]",22.05,0.0,0.0,73.8409968339336,968.9983259764751,98.9075754694631,-1770.944382204048,-1126.7455560375618,2160.8292913102396,0.0,0.0,0.0,0.0,0.0,0.0,-3.7,21.63441843056262,0.0,21.602141008596334,0.0,-3.7,22.05,20.78,22.42,21.6,22.34,-5.24,-3.7,0.0,-1249.53,-974.45,116.69,254.0,0.0,586.0,0.0,0.0,0.0,0.0,0.0,0.0,0.0,0.0,0.0,0.0,0.0,0.0,0.0,0.0
423.0,2437.0,2435.5348622472784,0.0,-0.0,13.642812063958154,0.0,0.0,22923.994754720927,0.0,22923.994754720927,0.0,0.0,0.7342805081994594,0.5,0.8,0.0,0.0,0.0,"[1.4784284509003243, 0.7841891444261897, 1.5100945602912645, 0.9760489062531406, 1.9824363900221122, 0.9744758775154416, 1.4745504539485843, 1.5322968462704836, 1.7348185007031205]",22.21,0.0,0.0,38.674881037548225,394.1471909522563,46.13155631301254,-1774.6593726910442,-1369.9240947967744,0.0,0.0,0.0,0.0,0.0,0.0,0.0,-3.6,21.695113924106636,0.0,21.621662346031314,0.0,-3.6,22.21,20.82,22.42,21.77,22.45,-5.18,-3.6,0.0,-1252.15,-976.49,61.12,123.0,0.0,228.0,0.0,0.0,0.0,0.0,0.0,0.0,0.0,0.0,0.0,0.0,0.0,0.0,0.0,0.0
424.0,3839.0,16784.017078029603,17836.614779774347,-0.0,0.0,4975.517787134893,0.0,38170.498209869125,0.0,0.0,0.0,38170.498209869125,0.5462412872193048,0.5,0.8,0.0,0.0,0.0,"[1.4784284509003243, 0.7841891444261897, 1.5100945602912645, 0.9760489062531406, 1.9824363900221122, 0.9744758775154416, 1.4745504539485843, 1.5322968462704836, 1.7348185007031205]",21.18,0.0,0.0,0.9410222150257384,1534.4953744840273,165.3522039038433,-1759.2429845455395,406.1885992219054,5645.010015157496,0.0,0.0,0.0,0.0,0.0,0.0,-4.4,21.352919325007445,0.0,21.546231570211454,0.0,-4.4,21.18,20.81,22.28,21.12,21.81,-6.13,-4.4,0.0,-1241.28,-968.01,1.49,369.0,33.0,942.0,0.0,0.0,0.0,0.0,0.0,0.0,0.0,0.0,0.0,0.0,0.0,0.0,0.0,0.0
425.0,5426.0,0.0,0.0,-0.0,0.0,5426.0,0.0,0.0,0.0,0.0,0.0,0.0,0.34117703929791393,0.5,0.8,0.0,0.0,0.0,"[1.4784284509003243, 0.7841891444261897, 1.5100945602912645, 0.9760489062531406, 1.9824363900221122, 0.9744758775154416, 1.4745504539485843, 1.5322968462704836, 1.7348185007031205]",23.48,0.0,0.0,0.0,911.8817067913761,144.02664220633272,-1958.4562203376615,-3614.9519074133273,0.0,0.0,0.0,0.0,0.0,0.0,0.0,-5.0,22.107228673420515,0.0,21.680411268990646,0.0,-5.0,23.48,20.89,22.47,22.64,23.21,-6.68,-5.0,0.0,-1381.84,-1077.62,0.0,188.0,117.0,566.0,0.0,0.0,0.0,0.0,0.0,0.0,0.0,0.0,0.0,0.0,0.0,0.0,0.0,0.0
426.0,3983.0,30879.409887264337,14078.01283782802,-0.0,0.0,-15999.999999999998,0.0,10266.362373867014,0.0,-23869.215696294166,0.0,24892.869355370265,0.5807407407407407,0.2962660421569196,0.8,0.0,0.0,0.0,"[1.4784284509003243, 0.7841891444261897, 1.5100945602912645, 0.9760489062531406, 1.9824363900221122, 0.9744758775154416, 1.4745504539485843, 1.5322968462704836, 1.7348185007031205]",21.74,0.0,0.0,0.0,819.1912131262285,182.24812370572855,-1873.2834680526653,-408.20539441795853,5820.097271008002,0.0,0.0,0.0,0.0,0.0,0.0,-5.5,21.599376251826126,0.0,21.668658809159357,0.0,-5.5,21.74,20.92,22.42,21.44,22.1,-7.16,-5.5,0.0,-1321.74,-1030.76,0.0,234.0,164.0,468.0,0.0,0.0,0.0,0.0,0.0,0.0,0.0,0.0,0.0,0.0,0.0,0.0,0.0,0.0
427.0,4640.0,18215.06274567702,16289.987431948635,-0.0,0.0,0.0,0.0,28804.10279599396,0.0,0.0,0.0,28804.10279599396,0.5807407407407407,0.2962660421569196,0.8,0.0,0.0,0.0,"[1.4784284509003243, 0.7841891444261897, 1.5100945602912645, 0.9760489062531406, 1.9824363900221122, 0.9744758775154416, 1.4745504539485843, 1.5322968462704836, 1.7348185007031205]",20.52,0.0,0.0,0.0,1117.104695823691,166.93421886656665,-1830.7605170484787,1223.027999556839,8179.150383810933,0.0,0.0,0.0,0.0,0.0,0.0,-6.1,21.007074908532335,0.0,21.347219092579596,0.0,-6.1,20.52,20.5,22.19,20.69,21.52,-7.75,-6.1,2093.41,-1291.74,-1007.36,0.0,220.0,132.0,700.0,0.0,0.0,0.0,0.0,0.0,0.0,0.0,0.0,0.0,0.0,0.0,0.0,0.0,0.0
428.0,5197.0,14527.789977121132,11588.170402313937,-0.0,0.0,1890.0193750784122,0.0,20711.254659239083,0.0,0.0,0.0,20711.254659239086,0.5093114370718664,0.2962660421569196,0.8,0.0,0.0,0.0,"[1.4784284509003243, 0.7841891444261897, 1.5100945602912645, 0.9760489062531406, 1.9824363900221122, 0.9744758775154416, 1.4745504539485843, 1.5322968462704836, 1.7348185007031205]",23.48,0.0,0.0,0.0,1700.955595905611,161.27060530001708,-2075.364903705292,-3962.6546994523956,0.0,0.0,0.0,0.0,0.0,0.0,0.0,-6.7,21.974617521217322,0.0,21.515145991280274,0.0,-6.7,23.48,20.6,22.43,22.69,23.37,-8.29,-6.7,0.0,-1464.32,-1141.95,0.0,314.0,48.0,1093.0,0.0,0.0,0.0,0.0,0.0,0.0,0.0,0.0,0.0,0.0,0.0,0.0,0.0,0.0
429.0,4429.0,0.0,7124.380624921587,-0.0,0.0,13476.380624921587,0.0,13004.907560562442,0.0,0.0,0.0,13004.907560562442,0.0,0.2962660421569196,0.8,0.0,0.0,0.0,"[1.4784284509003243, 0.7841891444261897, 1.5100945602912645, 0.9760489062531406, 1.9824363900221122, 0.9744758775154416, 1.4745504539485843, 1.5322968462704836, 1.7348185007031205]",21.21,0.0,0.0,0.0,1320.7686704365617,124.09325367601863,-1953.8882755112727,179.623510280621,0.0,0.0,0.0,0.0,0.0,0.0,0.0,-7.2,21.297804281803714,0.0,21.47727151942302,0.0,-7.2,21.21,20.62,22.34,21.05,21.84,-8.77,-7.2,0.0,-1378.61,-1075.11,0.0,284.0,14.0,830.0,0.0,0.0,0.0,0.0,0.0,0.0,0.0,0.0,0.0,0.0,0.0,0.0,0.0,0.0
430.0,3224.0,20972.811556319015,15413.831390346953,-0.0,0.0,0.0,0.0,28577.378840505487,0.0,0.0,0.0,28577.378840505487,0.0,0.2962660421569196,0.8,0.0,0.0,0.0,"[1.4784284509003243, 0.7841891444261897, 1.5100945602912645, 0.9760489062531406, 1.9824363900221122, 0.9744758775154416, 1.4745504539485843, 1.5322968462704836, 1.7348185007031205]",20.64,0.0,0.0,0.0,708.4303250538849,103.87510245241441,-1955.851540881162,1030.8832177518655,0.0,0.0,0.0,0.0,0.0,0.0,0.0,-7.8,21.053214125633875,0.0,21.35056469746512,0.0,-7.8,20.64,20.58,22.12,20.77,21.52,-9.31,-7.8,0.0,-1380.0,-1076.19,0.0,291.0,0.0,373.0,0.0,0.0,0.0,0.0,0.0,0.0,0.0,0.0,0.0,0.0,0.0,0.0,0.0,0.0
431.0,1608.0,112969.34944704457,79331.34612763558,-0.0,0.0,-16000.0,0.0,32029.616949658375,0.0,-80000.0,0.0,148593.59294965837,0.5807407407407407,0.5866364125272899,0.8,36563.976,9140.994,45704.97,"[1.4784284509003243, 0.7841891444261897, 1.5100945602912645, 0.9760489062531406, 1.9824363900221122, 0.9744758775154416, 1.4745504539485843, 1.5322968462704836, 1.7348185007031205]",20.53,0.0,0.0,0.0,615.5272385133584,152.94920659609235,-1989.7219834065506,1008.9393123376258,6261.041181323676,0.0,0.0,0.0,0.0,0.0,0.0,-8.4,20.937517444246417,0.0,21.216903119343925,0.0,-8.4,20.53,20.54,21.9,20.68,21.35,-9.79,-8.4,0.0,-1403.9,-1094.83,0.0,462.0,0.0,214.0,0.0,0.0,0.0,0.0,0.0,0.0,0.0,0.0,0.0,0.0,0.0,0.0,0.0,0.0
432.0,1521.0,0.0,8091.278012341193,-0.0,0.0,11303.737753042298,0.0,15386.983715746936,0.0,0.0,0.0,15386.983715746937,0.15353976745871883,0.5866364125272899,0.8,0.0,0.0,0.0,"[1.4784284509003243, 0.7841891444261897, 1.5100945602912645, 0.9760489062531406, 1.9824363900221122, 0.9744758775154416, 1.4745504539485843, 1.5322968462704836, 1.7348185007031205]",23.48,0.0,0.0,0.0,471.460133298339,110.96252948541495,-2240.412456694888,-4185.810902402139,4583.542483739582,0.0,0.0,0.0,0.0,0.0,0.0,-9.1,21.890169250714887,0.0,21.368749716797275,0.0,-9.1,23.48,20.62,22.12,22.52,23.02,-10.5,-9.1,0.0,-1580.78,-1232.77,0.0,320.0,7.0,181.0,0.0,0.0,0.0,0.0,0.0,0.0,0.0,0.0,0.0,0.0,0.0,0.0,0.0,0.0
433.0,3680.0,5362.805184502742,6860.590235428228,-0.0,0.0,0.0,0.0,14485.50560910863,0.0,0.0,0.0,14485.505609108634,0.15353976745871883,0.5866364125272899,0.8,0.0,0.0,0.0,"[1.4784284509003243, 0.7841891444261897, 1.5100945602912645, 0.9760489062531406, 1.9824363900221122, 0.9744758775154416, 1.4745504539485843, 1.5322968462704836, 1.7348185007031205]",23.48,0.0,0.0,0.0,520.2856303436653,108.14654285176742,-2295.4283076914203,-3859.9679629829297,0.0,0.0,0.0,0.0,0.0,0.0,0.0,-9.9,22.015726965733407,0.0,21.55828218139124,0.0,-9.9,23.48,20.73,22.39,22.45,23.03,-11.28,-9.9,0.0,-1619.59,-1263.04,0.0,320.0,0.0,218.0,0.0,0.0,0.0,0.0,0.0,0.0,0.0,0.0,0.0,0.0,0.0,0.0,0.0,0.0
434.0,1034.0,27988.146685852906,7379.597457069372,-0.0,0.0,-16000.0,0.0,16284.861319542306,0.0,0.0,0.0,16284.861319542308,0.7342805081994594,0.5866364125272899,0.8,0.0,0.0,0.0,"[1.4784284509003243, 0.7841891444261897, 1.5100945602912645, 0.9760489062531406, 1.9824363900221122, 0.9744758775154416, 1.4745504539485843, 1.5322968462704836, 1.7348185007031205]",22.05,0.0,0.0,0.0,326.40092799821883,103.5903397591242,-2252.333078423703,-1136.631606510525,2160.8292913102396,0.0,0.0,0.0,0.0,0.0,0.0,-10.7,21.63441843056262,0.0,21.602141008596334,0.0,-10.7,22.05,20.78,22.42,21.6,22.34,-12.0,-10.7,0.0,-1589.19,-1239.33,0.0,320.0,0.0,74.0,0.0,0.0,0.0,0.0,0.0,0.0,0.0,0.0,0.0,0.0,0.0,0.0,0.0,0.0
435.0,752.0,2435.5348622472784,0.0,-0.0,0.0,0.0,0.0,22923.994754720927,0.0,22923.994754720927,0.0,0.0,0.7342805081994594,0.5,0.8,0.0,0.0,0.0,"[1.4784284509003243, 0.7841891444261897, 1.5100945602912645, 0.9760489062531406, 1.9824363900221122, 0.9744758775154416, 1.4745504539485843, 1.5322968462704836, 1.7348185007031205]",22.21,0.0,0.0,0.0,273.89048777966036,102.35636808819997,-2297.3099571580983,-1380.6350835011121,0.0,0.0,0.0,0.0,0.0,0.0,0.0,-11.2,21.695113924106636,0.0,21.621662346031314,0.0,-11.2,22.21,20.82,22.42,21.77,22.45,-12.51,-11.2,0.0,-1620.92,-1264.07,0.0,320.0,0.0,35.0,0.0,0.0,0.0,0.0,0.0,0.0,0.0,0.0,0.0,0.0,0.0,0.0,0.0,0.0
436.0,488.0,16784.017078029603,17836.614779774347,-0.0,0.0,4975.517787134893,0.0,38170.498209869125,0.0,0.0,0.0,38170.498209869125,0.5462412872193048,0.5,0.8,0.0,0.0,0.0,"[1.4784284509003243, 0.7841891444261897, 1.5100945602912645, 0.9760489062531406, 1.9824363900221122, 0.9744758775154416, 1.4745504539485843, 1.5322968462704836, 1.7348185007031205]",21.18,0.0,0.0,0.0,276.5833308677916,113.17735043322756,-2254.385643514327,396.30438030917645,5645.010015157496,0.0,0.0,0.0,0.0,0.0,0.0,-11.6,21.352919325007445,0.0,21.546231570211454,0.0,-11.6,21.18,20.81,22.28,21.12,21.81,-12.9,-11.6,0.0,-1590.64,-1240.46,0.0,320.0,19.0,35.0,0.0,0.0,0.0,0.0,0.0,0.0,0.0,0.0,0.0,0.0,0.0,0.0,0.0,0.0
437.0,2800.0,0.0,0.0,-0.0,0.0,5426.0,0.0,0.0,0.0,0.0,0.0,0.0,0.34117703929791393,0.5,0.8,0.0,0.0,0.0,"[1.4784284509003243, 0.7841891444261897, 1.5100945602912645, 0.9760489062531406, 1.9824363900221122, 0.9744758775154416, 1.4745504539485843, 1.5322968462704836, 1.7348185007031205]",23.48,0.0,0.0,0.0,278.2840738708218,120.01165507219244,-2439.8449165573165,-3624.522163984715,0.0,0.0,0.0,0.0,0.0,0.0,0.0,-12.0,22.107228673420515,0.0,21.680411268990646,0.0,-12.0,23.48,20.89,22.47,22.64,23.21,-13.23,-12.0,0.0,-1721.49,-1342.5,0.0,320.0,31.0,35.0,0.0,0.0,0.0,0.0,0.0,0.0,0.0,0.0,0.0,0.0,0.0,0.0,0.0,0.0
438.0,1691.0,25271.097273355972,7453.741786989197,-0.0,0.0,-15999.999999999998,0.0,10266.362373867014,0.0,0.0,0.0,10266.362373867014,0.5807407407407407,0.5,0.7863945578231293,0.0,0.0,0.0,"[1.1797933613357614, 0.834219978609493, 1.1688662915788832, 0.666916836714794, 1.0040395547306424, 0.9474182018046626, 0.6239295507860163, 1.2982853521156947, 1.2354494096434188]",21.74,0.0,0.0,0.0,480.7433555232124,230.21481737550016,-2347.795182897754,-417.6032883585688,5820.097271008002,0.0,0.0,0.0,0.0,0.0,0.0,-12.4,21.599376251826126,0.0,21.668658809159357,0.0,-12.4,21.74,20.92,22.42,21.44,22.1,-13.59,-12.4,0.0,-1656.54,-1291.85,0.0,600.0,69.0,34.0,0.0,0.0,0.0,0.0,0.0,0.0,0.0,0.0,0.0,0.0,0.0,0.0,0.0,0.0
439.0,2782.0,2795.9798994974876,0.0,-0.0,0.0,0.0,0.0,24555.089193661657,0.0,24555.089193661654,0.0,0.0,0.5807407407407407,0.4071992093965924,0.7863945578231293,0.0,0.0,0.0,"[1.1797933613357614, 0.834219978609493, 1.1688662915788832, 0.666916836714794, 1.0040395547306424, 0.9474182018046626, 0.6239295507860163, 1.2982853521156947, 1.2354494096434188]",23.18,0.0,0.0,0.0,1707.829432209525,198.06827333296195,-2467.446706692007,-2871.9846820204025,0.0,0.0,0.0,0.0,0.0,0.0,0.0,-12.7,22.097766000953246,0.0,21.793023163745836,0.0,-12.7,23.18,20.98,22.61,22.6,23.23,-13.88,-12.7,5096.84,-1740.97,-1357.69,0.0,372.0,82.0,1064.0,0.0,0.0,0.0,0.0,0.0,0.0,0.0,0.0,0.0,0.0,0.0,0.0,0.0,0.0
440.0,3939.0,13246.263316582916,0.0,-0.0,0.0,0.0,0.0,41425.302952672864,46205.16,78389.43095267286,0.0,0.0,0.5807407407407407,0.11094285658981662,0.7863945578231293,36964.128000000004,9241.032000000001,46205.16,"[1.1797933613357614, 0.834219978609493, 1.1688662915788832, 0.666916836714794, 1.0040395547306424, 0.9474182018046626, 0.6239295507860163, 1.2982853521156947, 1.2354494096434188]",21.86,0.0,0.0,1.8729671262958423,3357.0540951063003,264.7343838621234,-2376.4150064930895,-466.47494362610786,2684.6613715989556,0.0,0.0,0.0,0.0,0.0,0.0,-12.7,21.69698785177697,0.0,21.763015517782414,0.0,-12.7,21.86,20.98,22.54,21.55,22.23,-13.84,-12.7,0.0,-1676.74,-1307.6,2.96,484.0,72.0,2231.0,0.0,0.0,0.0,0.0,0.0,0.0,0.0,0.0,0.0,0.0,0.0,0.0,0.0,0.0
441.0,1440.0,80979.09593077726,72902.59724926947,-0.0,0.0,-6231.603201853892,0.0,20411.914276869727,0.0,-80000.0,0.0,100411.91427686973,0.8069248569561782,0.40131322696018695,0.7863945578231293,0.0,0.0,0.0,"[1.1797933613357614, 0.834219978609493, 1.1688662915788832, 0.666916836714794, 1.0040395547306424, 0.9474182018046626, 0.6239295507860163, 1.2982853521156947, 1.2354494096434188]",23.18,0.0,0.0,11.225389491630025,301.17324011993696,91.44046484540894,-2446.8157625683075,-2814.910859955474,0.0,0.0,0.0,0.0,0.0,0.0,0.0,-12.4,22.11947329874854,0.0,21.821076481142185,0.0,-12.4,23.18,21.02,22.62,22.38,22.97,-13.51,-12.4,4930.32,-1726.41,-1346.34,17.74,170.0,59.0,128.0,0.0,0.0,0.0,0.0,0.0,0.0,0.0,0.0,0.0,0.0,0.0,0.0,0.0,0.0
442.0,2078.0,0.0,0.0,-0.0,0.9790882088056614,2077.0209117911945,0.0,16001.750396080246,0.0,16001.750396080246,0.0,0.0,0.7284282238574936,0.34083797980946795,0.7863945578231293,0.0,0.0,0.0,"[1.1797933613357614, 0.834219978609493, 1.1688662915788832, 0.666916836714794, 1.0040395547306424, 0.9474182018046626, 0.6239295507860163, 1.2982853521156947, 1.2354494096434188]",21.31,0.0,0.0,16.774868960602337,408.53264218622047,96.66111422239595,-2311.5016408596953,540.3285207638896,0.0,0.0,0.0,0.0,0.0,0.0,0.0,-12.3,21.539094888600143,0.0,21.757479303756675,0.0,-12.3,21.31,21.01,22.51,21.3,22.01,-13.36,-12.3,3674.01,-1630.94,-1271.88,26.51,264.0,14.0,163.0,0.0,0.0,0.0,0.0,0.0,0.0,0.0,0.0,0.0,0.0,0.0,0.0,0.0,0.0
443.0,5404.0,0.0,0.0,-0.0,10.102030207133094,5393.897969792867,0.0,22885.037899175633,0.0,22885.037899175633,0.0,0.0,0.5245772045909454,0.254348796517043,0.7863945578231293,0.0,0.0,0.0,"[1.1797933613357614, 0.834219978609493, 1.1688662915788832, 0.666916836714794, 1.0040395547306424, 0.9474182018046626, 0.6239295507860163, 1.2982853521156947, 1.2354494096434188]",20.83,0.0,0.0,24.22487864250377,1851.1170302148223,70.17818374640729,-2264.603033860208,1208.0716344869777,0.0,0.0,0.0,0.0,0.0,0.0,0.0,-12.1,21.31314108866038,0.0,21.622995068439295,0.0,-12.1,20.83,20.95,22.3,21.05,21.72,-13.13,-12.1,0.0,-1597.84,-1246.08,38.28,89.0,0.0,1328.0,0.0,0.0,0.0,0.0,0.0,0.0,0.0,0.0,0.0,0.0,0.0,0.0,0.0,0.0
444.0,3773.0,0.0,10124.54681064295,-0.0,17.23397716653762,13880.312833476413,0.0,14331.059807308506,0.0,0.0,0.0,14331.059807308506,0.0,0.254348796517043,0.7863945578231293,0.0,0.0,0.0,"[1.1797933613357614, 0.834219978609493, 1.1688662915788832, 0.666916836714794, 1.0040395547306424, 0.9474182018046626, 0.6239295507860163, 1.2982853521156947, 1.2354494096434188]",21.17,0.0,0.0,27.02829264412882,388.2654547334435,47.49208918095461,-2281.1023506864576,380.72215831811724,528.4476497282733,0.0,0.0,0.0,0.0,0.0,0.0,-12.0,21.33552634524684,0.0,21.5054154267686,0.0,-12.0,21.17,20.9,22.12,21.15,21.72,-13.08,-12.0,103.45,-1609.49,-1255.16,42.71,128.0,0.0,221.0,0.0,0.0,0.0,0.0,0.0,0.0,0.0,0.0,0.0,0.0,0.0,0.0,0.0,0.0
445.0,3268.0,30462.70968162403,17133.386660447908,-0.0,6090.990527231999,-16000.0,0.0,26865.31442924458,0.0,0.0,0.0,26865.314429244583,0.5807407407407407,0.254348796517043,0.745578231292517,0.0,0.0,0.0,"[1.1797933613357614, 0.834219978609493, 1.1688662915788832, 0.666916836714794, 1.0040395547306424, 0.9474182018046626, 0.6239295507860163, 1.2982853521156947, 1.2354494096434188]",20.82,0.0,0.0,586.985218649407,2565.145634320348,119.03080579530398,-2147.007795642113,857.8688922326108,4151.763279131331,0.0,0.0,0.0,0.0,0.0,0.0,-10.4,21.167361753411235,0.0,21.403211370499598,0.0,-10.4,20.82,20.84,21.96,21.0,21.56,-10.79,-10.4,620.24,-1514.87,-1181.37,927.59,196.0,0.0,1802.0,0.0,0.0,0.0,0.0,0.0,0.0,0.0,0.0,0.0,0.0,0.0,0.0,0.0,0.0
446.0,3853.0,0.0,10277.076345094,-0.0,121.76183928782768,14008.314505806171,0.0,16800.37582714937,0.0,0.0,0.0,16800.375827149375,0.0513259823958363,0.254348796517043,0.745578231292517,0.0,0.0,0.0,"[1.1797933613357614, 0.834219978609493, 1.1688662915788832, 0.666916836714794, 1.0040395547306424, 0.9474182018046626, 0.6239295507860163, 1.2982853521156947, 1.2354494096434188]",23.18,0.0,0.0,71.00002444704442,1184.2131801515927,56.604495366241046,-2261.137265455012,-3294.9884346675603,0.0,0.0,0.0,0.0,0.0,0.0,0.0,-9.7,21.93387913040224,0.0,21.533375335221415,0.0,-9.7,23.18,20.89,22.17,22.47,22.97,-11.29,-9.7,3661.46,-1595.4,-1244.17,112.2,96.0,0.0,829.0,0.0,0.0,0.0,0.0,0.0,0.0,0.0,0.0,0.0,0.0,0.0,0.0,0.0,0.0
447.0,2431.0,89124.59403013869,70262.37531445084,-0.0,14.4042544628527,-16000.0,0.0,34191.07435797748,0.0,-80000.0,0.0,114191.07435797749,0.6320667231365769,0.5447191668874134,0.745578231292517,0.0,0.0,0.0,"[1.1797933613357614, 0.834219978609493, 1.1688662915788832, 0.666916836714794, 1.0040395547306424, 0.9474182018046626, 0.6239295507860163, 1.2982853521156947, 1.2354494096434188]",21.55,0.0,0.0,38.893299906815734,372.74617483079265,89.85844988268562,-2155.9079346860876,-301.25750200252014,6205.485315303808,0.0,0.0,0.0,0.0,0.0,0.0,-9.8,21.452462427122388,0.0,21.517925712323027,0.0,-9.8,21.55,20.89,22.14,21.32,21.87,-11.45,-9.8,0.0,-1521.15,-1186.27,61.46,246.0,13.0,146.0,0.0,0.0,0.0,0.0,0.0,0.0,0.0,0.0,0.0,0.0,0.0,0.0,0.0,0.0
448.0,1737.0,0.0,3893.885494193825,-0.0,0.0,5630.885494193824,0.0,6068.52815469336,0.0,0.0,0.0,6068.52815469336,0.41925925925925933,0.5447191668874134,0.745578231292517,0.0,0.0,0.0,"[1.1797933613357614, 0.834219978609493, 1.1688662915788832, 0.666916836714794, 1.0040395547306424, 0.9474182018046626, 0.6239295507860163, 1.2982853521156947, 1.2354494096434188]",23.18,0.0,0.0,0.941030930166959,241.57637072208598,91.47210514466342,-2316.153116451544,-3081.0067854616887,0.0,0.0,0.0,0.0,0.0,0.0,0.0,-10.5,22.01663962534512,0.0,21.660261605667117,0.0,-10.5,23.18,20.96,22.36,22.57,23.09,-12.35,-10.5,0.0,-1634.22,-1274.44,1.49,188.0,52.0,75.0,0.0,0.0,0.0,0.0,0.0,0.0,0.0,0.0,0.0,0.0,0.0,0.0,0.0,0.0
449.0,2306.0,26486.095582410904,8047.665104498849,-0.0,0.0,-16000.0,0.0,12235.211678295213,0.0,0.0,0.0,12235.211678295214,1.0,0.5447191668874134,0.745578231292517,0.0,0.0,0.0,"[1.1797933613357614, 0.834219978609493, 1.1688662915788832, 0.666916836714794, 1.0040395547306424, 0.9474182018046626, 0.6239295507860163, 1.2982853521156947, 1.2354494096434188]",21.23,0.0,0.0,0.0,334.5503215544054,141.08409437566735,-2209.7907335132318,443.7867918391935,4623.498044809923,0.0,0.0,0.0,0.0,0.0,0.0,-10.9,21.422595023014424,0.0,21.611963525989744,0.0,-10.9,21.23,20.94,22.28,21.21,21.84,-12.68,-10.9,4793.04,-1559.17,-1215.92,0.0,316.0,68.0,75.0,0.0,0.0,0.0,0.0,0.0,0.0,0.0,0.0,0.0,0.0,0.0,0.0,0.0,0.0
450.0,3036.0,3742.180385093684,9850.869483168213,-0.0,0.0,9163.399999999998,0.0,14507.144106470174,0.0,0.0,0.0,14507.144106470174,0.6536885865457295,0.5447191668874134,0.745578231292517,0.0,0.0,0.0,"[0.5093107384827498, 0.632422449032223, 1.1688662915788832, 0.666916836714794, 1.0040395547306424, 0.9474182018046662, 0.6239295507860163, 1.0739326567933176, 1.2354494096434188]",22.51,0.0,0.0,0.0,1648.6577485624316,165.63696659713352,-2331.936983729336,-1822.850359302417,0.0,0.0,0.0,0.0,0.0,0.0,0.0,-11.4,21.829381191567467,0.0,21.66941602900551,0.0,-11.4,22.51,20.97,22.37,22.17,22.74,-13.19,-11.4,0.0,-1645.35,-1283.13,0.0,310.0,60.0,1055.0,0.0,0.0,0.0,0.0,0.0,0.0,0.0,0.0,0.0,0.0,0.0,0.0,0.0,0.0
451.0,7621.0,7659.29648241206,0.0,-0.0,0.0,0.0,0.0,26409.477831361855,0.0,26409.47783136186,0.0,0.0,0.6536885865457295,0.44491010478854015,0.745578231292517,0.0,0.0,0.0,"[0.5093107384827498, 0.632422449032223, 1.1688662915788832, 0.666916836714794, 1.0040395547306424, 0.9474182018046662, 0.6239295507860163, 1.0739326567933176, 1.2354494096434188]",21.61,0.0,0.0,0.0,3334.306657440771,205.9150675480697,-2297.3366203357164,-228.25550373528705,0.0,0.0,0.0,0.0,0.0,0.0,0.0,-11.8,21.53824244850047,0.0,21.62249001159236,0.0,-11.8,21.61,20.96,22.29,21.4,21.99,-13.52,-11.8,0.0,-1620.94,-1264.09,0.0,384.0,22.0,2272.0,0.0,0.0,0.0,0.0,0.0,0.0,0.0,0.0,0.0,0.0,0.0,0.0,0.0,0.0
452.0,6203.0,0.0,0.0,-0.0,0.0,6203.0,0.0,4099.323567267961,0.0,4099.323567267961,0.0,0.0,0.41925925925925933,0.4294175742999991,0.745578231292517,0.0,0.0,0.0,"[0.5093107384827498, 0.632422449032223, 1.1688662915788832, 0.666916836714794, 1.0040395547306424, 0.9474182018046662, 0.6239295507860163, 1.0739326567933176, 1.2354494096434188]",21.99,0.0,0.0,0.0,957.5891749978139,133.11073896354168,-2358.139339771835,-1018.8204268905575,3646.9987589733205,0.0,0.0,0.0,0.0,0.0,0.0,-12.3,21.619354767144245,0.0,21.57529863027667,0.0,-12.3,21.99,20.94,22.21,21.56,22.08,-14.09,-12.3,1310.09,-1663.84,-1297.55,0.0,267.0,54.0,565.0,0.0,0.0,0.0,0.0,0.0,0.0,0.0,0.0,0.0,0.0,0.0,0.0,0.0,0.0
453.0,4770.0,39697.284550725046,18728.798127971422,-0.0,0.0,-16000.0,0.0,25260.3451505701,0.0,0.0,0.0,25260.345150570105,1.0,0.4294175742999991,0.745578231292517,0.0,0.0,0.0,"[0.5093107384827498, 0.632422449032223, 1.1688662915788832, 0.666916836714794, 1.0040395547306424, 0.9474182018046662, 0.6239295507860163, 1.0739326567933176, 1.2354494096434188]",22.51,0.0,0.0,0.0,1013.4302369306399,183.48209537665278,-2421.3377415987006,-1874.2421142494652,1509.43788299037,0.0,0.0,0.0,0.0,0.0,0.0,-12.7,21.81035476992674,0.0,21.638556494981756,0.0,-12.7,22.51,20.96,22.31,22.08,22.62,-14.45,-12.7,3229.51,-1708.43,-1332.32,0.0,459.0,39.0,507.0,0.0,0.0,0.0,0.0,0.0,0.0,0.0,0.0,0.0,0.0,0.0,0.0,0.0,0.0
454.0,3577.0,18963.452448147138,15291.635185906402,-0.0,0.0,0.0,0.0,19895.59464305684,0.0,0.0,0.0,19895.594643056844,1.0,0.4294175742999991,0.745578231292517,0.0,0.0,0.0,"[0.5093107384827498, 0.632422449032223, 1.1688662915788832, 0.666916836714794, 1.0040395547306424, 0.9474182018046662, 0.6239295507860163, 1.0739326567933176, 1.2354494096434188]",21.89,0.0,0.0,0.0,1030.6502598363209,213.12905577808814,-2413.4205951955164,-733.7686295443854,3520.048273641524,0.0,0.0,0.0,0.0,0.0,0.0,-13.2,21.633090075626814,0.0,21.63962012891559,0.0,-13.2,21.89,20.97,22.31,21.66,22.24,-14.93,-13.2,3523.0,-1702.85,-1327.96,0.0,600.0,16.0,448.0,0.0,0.0,0.0,0.0,0.0,0.0,0.0,0.0,0.0,0.0,0.0,0.0,0.0,0.0
455.0,2647.0,30133.14370035438,27335.477981852608,-0.0,0.0,0.0,0.0,34523.171344938244,0.0,0.0,0.0,34523.171344938244,1.0,0.4294175742999991,0.745578231292517,0.0,0.0,0.0,"[0.5093107384827498, 0.632422449032223, 1.1688662915788832, 0.666916836714794, 1.0040395547306424, 0.9474182018046662, 0.6239295507860163, 1.0739326567933176, 1.2354494096434188]",22.51,0.0,0.0,0.0,2035.5059174600167,190.34804031487204,-2483.230573969799,-1781.6958777400698,2052.2269321780263,0.0,0.0,0.0,0.0,0.0,0.0,-13.6,21.84641626484146,0.0,21.69412309645,0.0,-13.6,22.51,20.99,22.4,22.11,22.68,-15.39,-13.6,0.0,-1752.1,-1366.38,0.0,432.0,23.0,1282.0,0.0,0.0,0.0,0.0,0.0,0.0,0.0,0.0,0.0,0.0,0.0,0.0,0.0,0.0
456.0,1323.0,0.0,14677.000000000002,-0.0,0.0,16000.0,0.0,18256.38487574047,0.0,0.0,0.0,18256.384875740474,0.3953136810279667,0.4294175742999991,0.745578231292517,0.0,0.0,0.0,"[0.5093107384827498, 0.632422449032223, 1.1688662915788832, 0.666916836714794, 1.0040395547306424, 0.9474182018046662, 0.6239295507860163, 1.0739326567933176, 1.2354494096434188]",22.51,0.0,0.0,0.0,428.4455081800328,58.028308832692055,-2496.984536718932,-1720.8052329702616,1082.6316693175215,0.0,0.0,0.0,0.0,0.0,0.0,-13.8,21.869898865744876,0.0,21.729727218396796,0.0,-13.8,22.51,21.01,22.45,22.0,22.57,-15.57,-13.8,1474.92,-1761.81,-1373.94,0.0,160.0,0.0,234.0,0.0,0.0,0.0,0.0,0.0,0.0,0.0,0.0,0.0,0.0,0.0,0.0,0.0,0.0
457.0,943.0,27685.90162157051,26604.472113462656,-0.0,0.0,0.0,0.0,32331.8090586515,0.0,0.0,0.0,32331.8090586515,0.3953136810279667,0.4294175742999991,0.745578231292517,0.0,0.0,0.0,"[0.5093107384827498, 0.632422449032223, 1.1688662915788832, 0.666916836714794, 1.0040395547306424, 0.9474182018046662, 0.6239295507860163, 1.0739326567933176, 1.2354494096434188]",21.49,0.0,0.0,0.0,272.26060906842304,54.3580341191739,-2447.5650715943802,87.90786325196136,4689.489564710444,0.0,0.0,0.0,0.0,0.0,0.0,-14.1,21.545393916208443,0.0,21.68371673839431,0.0,-14.1,21.49,20.99,22.37,21.43,22.07,-15.84,-14.1,4046.74,-1726.94,-1346.75,0.0,160.0,0.0,118.0,0.0,0.0,0.0,0.0,0.0,0.0,0.0,0.0,0.0,0.0,0.0,0.0,0.0,0.0
458.0,741.0,39508.780753540814,22570.23684977311,-0.0,0.0,-16000.0,0.0,26998.756831122664,0.0,0.0,0.0,26998.756831122668,0.9760544217687074,0.4294175742999991,0.745578231292517,0.0,0.0,0.0,"[0.5093107384827498, 0.632422449032223, 1.1688662915788832, 0.666916836714794, 1.0040395547306424, 0.9474182018046662, 0.6239295507860163, 1.0739326567933176, 1.2354494096434188]",22.51,0.0,0.0,0.0,388.0528618580647,57.07909985505804,-2531.3694435917646,-1713.7427668547098,1151.2303681092237,0.0,0.0,0.0,0.0,0.0,0.0,-14.3,21.872880769373406,0.0,21.734473805039897,0.0,-14.3,22.51,21.01,22.46,22.18,22.78,-16.05,-14.3,0.0,-1786.07,-1392.86,0.0,160.0,0.0,204.0,0.0,0.0,0.0,0.0,0.0,0.0,0.0,0.0,0.0,0.0,0.0,0.0,0.0,0.0
459.0,2666.0,0.0,0.0,-0.0,0.0,2666.0,0.0,10377.109880763395,0.0,10377.109880763395,0.0,0.0,0.8752985638699924,0.39019947195395455,0.745578231292517,0.0,0.0,0.0,"[0.5093107384827498, 0.632422449032223, 1.1688662915788832, 0.666916836714794, 1.0040395547306424, 0.9474182018046662, 0.6239295507860163, 1.0739326567933176, 1.2354494096434188]",21.49,0.0,0.0,0.0,1867.7701387861594,91.85178873571704,-2468.1960157180797,95.36456500647868,419.5571518831368,0.0,0.0,0.0,0.0,0.0,0.0,-14.4,21.548444088277883,0.0,21.688681816649108,0.0,-14.4,21.49,20.99,22.38,21.44,22.08,-16.17,-14.4,0.0,-1741.49,-1358.1,0.0,160.0,0.0,1303.0,0.0,0.0,0.0,0.0,0.0,0.0,0.0,0.0,0.0,0.0,0.0,0.0,0.0,0.0
460.0,507.0,0.0,11045.959634601591,-0.0,0.0,11552.959634601591,0.0,13002.685086573036,0.0,0.0,0.0,13002.68508657304,0.4386787742025097,0.39019947195395455,0.745578231292517,0.0,0.0,0.0,"[0.5093107384827498, 0.632422449032223, 1.1688662915788832, 0.666916836714794, 1.0040395547306424, 0.9474182018046662, 0.6239295507860163, 1.0739326567933176, 1.2354494096434188]",21.49,0.0,0.0,0.0,373.5256820405147,81.2839287847251,-2475.072997092646,-46.24010031771685,4724.815261896215,0.0,0.0,0.0,0.0,0.0,0.0,-14.5,21.494154819082606,0.0,21.60503519378875,0.0,-14.5,21.49,20.95,22.26,21.36,21.95,-16.32,-14.5,242.07,-1746.35,-1361.89,0.0,240.0,1.0,151.0,0.0,0.0,0.0,0.0,0.0,0.0,0.0,0.0,0.0,0.0,0.0,0.0,0.0,0.0
461.0,1353.0,35488.76038036953,33958.31657846768,-0.0,0.0,0.0,0.0,39650.09349088448,0.0,0.0,0.0,39650.09349088447,0.4386787742025097,0.39019947195395455,0.745578231292517,0.0,0.0,0.0,"[0.5093107384827498, 0.632422449032223, 1.1688662915788832, 0.666916836714794, 1.0040395547306424, 0.9474182018046662, 0.6239295507860163, 1.0739326567933176, 1.2354494096434188]",22.51,0.0,0.0,0.0,235.34031304430843,85.39716768780582,-2552.000387715464,-1831.3549720798542,1415.8249835167887,0.0,0.0,0.0,0.0,0.0,0.0,-14.6,21.82792316188161,0.0,21.666199313993985,0.0,-14.6,22.51,20.97,22.36,22.16,22.73,-16.41,-14.6,547.05,-1800.63,-1404.22,0.0,240.0,14.0,47.0,0.0,0.0,0.0,0.0,0.0,0.0,0.0,0.0,0.0,0.0,0.0,0.0,0.0,0.0
462.0,660.0,560.8919737748286,6865.561092982354,-0.0,0.0,6967.4735790764,0.0,7950.851032134018,0.0,0.0,0.0,7950.851032134018,0.04191232048374906,0.3727162923398471,0.745578231292517,0.0,0.0,0.0,"[0.5093107384827498, 0.6324224490322194, 1.1688662915788832, 0.666916836714794, 0.9884257737773829, 0.9474182018046662, 0.6239295507860163, 1.0739326567933176, 1.2354494096434188]",21.49,0.0,0.0,0.0,387.76940469089294,156.55620071110152,-2488.8269598417787,0.19127935400237175,1955.1292506886007,0.0,0.0,0.0,0.0,0.0,0.0,-14.7,21.51204936441108,0.0,21.634217055653316,0.0,-14.7,21.49,20.96,22.31,21.45,22.07,-16.44,-14.7,469.61,-1756.05,-1369.46,0.0,456.0,19.0,46.0,0.0,0.0,0.0,0.0,0.0,0.0,0.0,0.0,0.0,0.0,0.0,0.0,0.0,0.0
463.0,1423.0,1430.1507537688442,0.0,-0.0,0.0,0.0,0.0,26235.838630338083,0.0,26235.838630338083,0.0,0.0,0.04191232048374906,0.2735634630490758,0.745578231292517,0.0,0.0,0.0,"[0.5093107384827498, 0.6324224490322194, 1.1688662915788832, 0.666916836714794, 0.9884257737773829, 0.9474182018046662, 0.6239295507860163, 1.0739326567933176, 1.2354494096434188]",21.49,0.0,0.0,0.0,250.50527148799463,93.81348728949396,-2488.8269598417787,-75.53668060363935,4879.22254087931,0.0,0.0,0.0,0.0,0.0,0.0,-14.7,21.483005974232775,0.0,21.59027869600186,0.0,-14.7,21.49,20.93,22.25,21.49,22.1,-16.5,-14.7,634.76,-1756.05,-1369.46,0.0,180.0,60.0,85.0,0.0,0.0,0.0,0.0,0.0,0.0,0.0,0.0,0.0,0.0,0.0,0.0,0.0,0.0
464.0,1109.0,0.0,0.0,-0.0,0.0,1109.0,0.0,23040.044849038517,0.0,23040.04484903852,0.0,0.0,0.0,0.18648846361960292,0.745578231292517,0.0,0.0,0.0,"[0.5093107384827498, 0.6324224490322194, 1.1688662915788832, 0.666916836714794, 0.9884257737773829, 0.9474182018046662, 0.6239295507860163, 1.0739326567933176, 1.2354494096434188]",22.51,0.0,0.0,7.585534001275894,227.4743766552936,121.81515212969701,-2517.6154808426313,-1851.9211971410084,4020.7423159354307,0.0,0.0,0.0,0.0,0.0,0.0,-14.1,21.819692560334406,0.0,21.655933297275695,0.0,-14.1,22.51,20.96,22.36,22.17,22.74,-15.82,-14.1,831.2,-1776.36,-1385.3,11.99,228.0,85.0,40.0,0.0,0.0,0.0,0.0,0.0,0.0,0.0,0.0,0.0,0.0,0.0,0.0,0.0,0.0
465.0,2011.0,17533.250894622863,15485.625712749323,-0.0,51.04107259957639,0.0,0.0,24429.2386992236,0.0,0.0,0.0,24429.2386992236,0.0,0.18648846361960292,0.745578231292517,0.0,0.0,0.0,"[0.5093107384827498, 0.6324224490322194, 1.1688662915788832, 0.666916836714794, 0.9884257737773829, 0.9474182018046662, 0.6239295507860163, 1.0739326567933176, 1.2354494096434188]",22.51,0.0,0.0,55.50545330743572,321.5821561562998,105.74188010842792,-2256.290188609105,-1721.1670697457553,846.9494224308426,0.0,0.0,0.0,0.0,0.0,0.0,-10.3,21.86766884065181,0.0,21.729994740793696,0.0,-10.3,22.51,20.99,22.47,22.14,22.74,-11.84,-10.3,0.0,-1591.98,-1241.5,87.71,252.0,40.0,102.0,0.0,0.0,0.0,0.0,0.0,0.0,0.0,0.0,0.0,0.0,0.0,0.0,0.0,0.0
466.0,1850.0,21468.433490189844,11366.75127294178,-0.0,3406.680358366153,-11551.020408163267,0.0,21615.87038177841,0.0,0.0,0.0,21615.870381778415,0.41925925925925933,0.18648846361960292,0.745578231292517,0.0,0.0,0.0,"[0.5093107384827498, 0.6324224490322194, 1.1688662915788832, 0.666916836714794, 0.9884257737773829, 0.9474182018046662, 0.6239295507860163, 1.0739326567933176, 1.2354494096434188]",21.49,0.0,0.0,76.47943805400021,407.04449205856895,85.93505277513174,-1952.4224126255922,102.52214661890642,1283.288876498921,0.0,0.0,0.0,0.0,0.0,0.0,-6.9,21.546883328928537,0.0,21.688304918308972,0.0,-6.9,21.49,20.98,22.39,21.44,22.09,-8.49,-6.9,0.0,-1377.58,-1074.3,120.86,234.0,11.0,178.0,0.0,0.0,0.0,0.0,0.0,0.0,0.0,0.0,0.0,0.0,0.0,0.0,0.0,0.0
467.0,2299.0,0.0,11513.536701506462,-0.0,13812.536701506462,0.0,0.0,9796.287729346886,0.0,-15062.297005508604,0.0,24858.584734855493,0.41925925925925933,0.2411590231210786,0.745578231292517,0.0,0.0,0.0,"[0.5093107384827498, 0.6324224490322194, 1.1688662915788832, 0.666916836714794, 0.9884257737773829, 0.9474182018046662, 0.6239295507860163, 1.0739326567933176, 1.2354494096434188]",21.49,0.0,0.0,913.6386347298444,498.17597130427225,148.3930035034491,-1766.7439155122966,20.338943458610128,2820.3331122237814,0.0,0.0,0.0,0.0,0.0,0.0,-4.2,21.51292150392109,0.0,21.63389931899664,0.0,-4.2,21.49,20.97,22.3,21.46,22.07,-4.21,-4.2,0.0,-1246.57,-972.14,1443.79,456.0,0.0,130.0,0.0,0.0,0.0,0.0,0.0,0.0,0.0,0.0,0.0,0.0,0.0,0.0,0.0,0.0
468.0,4872.0,12698.688580599184,6857.315411040186,-0.0,15094.120273343999,-16000.0,0.0,15916.79474776002,0.0,0.0,0.0,15916.79474776002,1.0,0.2411590231210786,0.745578231292517,0.0,0.0,0.0,"[0.5093107384827498, 0.6324224490322194, 1.1688662915788832, 0.666916836714794, 0.9884257737773829, 0.9474182018046662, 0.6239295507860163, 1.0739326567933176, 1.2354494096434188]",22.51,0.0,0.0,955.1813722134121,1749.7810929509371,218.5711872498564,-1719.8856413929177,-1699.6342690426359,0.0,0.0,0.0,0.0,0.0,0.0,0.0,-2.5,21.87064191393714,0.0,21.729709761164507,0.0,-2.5,22.51,21.02,22.44,22.23,22.91,-2.41,-2.5,0.0,-1213.51,-946.35,1509.44,592.0,0.0,988.0,0.0,0.0,0.0,0.0,0.0,0.0,0.0,0.0,0.0,0.0,0.0,0.0,0.0,0.0
469.0,6843.0,8276.294348790287,6026.619143732196,-0.0,4634.706266685859,0.0,0.0,14390.806997422365,0.0,0.0,0.0,14390.806997422365,1.0,0.2411590231210786,0.745578231292517,0.0,0.0,0.0,"[0.5093107384827498, 0.6324224490322194, 1.1688662915788832, 0.666916836714794, 0.9884257737773829, 0.9474182018046662, 0.6239295507860163, 1.0739326567933176, 1.2354494096434188]",22.32,0.0,0.0,856.1178003229451,717.5009544033793,129.5670254470414,-1659.0458986560843,-1251.953873127693,1670.6034333786024,0.0,0.0,0.0,0.0,0.0,0.0,-1.8,21.857460558006732,0.0,21.788953810351046,0.0,-1.8,22.32,21.06,22.52,21.97,22.67,-1.87,-1.8,0.0,-1170.58,-912.88,1352.89,376.0,0.0,335.0,0.0,0.0,0.0,0.0,0.0,0.0,0.0,0.0,0.0,0.0,0.0,0.0,0.0,0.0
470.0,1778.0,0.0,3376.347275407146,-0.0,65.78447124982154,5088.5628041573245,0.0,7997.91627267596,0.0,0.0,0.0,7997.91627267596,0.8076884805685063,0.2411590231210786,0.745578231292517,0.0,0.0,0.0,"[0.5093107384827498, 0.6324224490322194, 1.1688662915788832, 0.666916836714794, 0.9884257737773829, 0.9474182018046662, 0.6239295507860163, 1.0739326567933176, 1.2354494096434188]",22.51,0.0,0.0,64.80874454831401,916.2752928825378,186.99416859389856,-1685.5007345200852,-1457.128756858059,0.0,0.0,0.0,0.0,0.0,0.0,0.0,-2.0,21.964459843410054,0.0,21.86838526549738,0.0,-2.0,22.51,21.12,22.62,22.18,22.9,-3.65,-2.0,0.0,-1189.25,-927.43,102.41,552.0,0.0,390.0,0.0,0.0,0.0,0.0,0.0,0.0,0.0,0.0,0.0,0.0,0.0,0.0,0.0,0.0
471.0,1530.0,5288.515687570246,3747.688181105544,-0.0,15.61507197314887,0.0,0.0,8270.17769644421,0.0,0.0,0.0,8270.177696444212,0.8076884805685063,0.2411590231210786,0.745578231292517,0.0,0.0,0.0,"[0.5093107384827498, 0.6324224490322194, 1.1688662915788832, 0.666916836714794, 0.9884257737773829, 0.9474182018046662, 0.6239295507860163, 1.0739326567933176, 1.2354494096434188]",21.75,0.0,0.0,40.042851242521785,851.9305159345607,161.30224559927157,-1749.99666758435,-113.80332939344233,152.03815447181876,0.0,0.0,0.0,0.0,0.0,0.0,-3.7,21.71860558057877,0.0,21.824858056341405,0.0,-3.7,21.75,21.12,22.53,21.58,22.21,-5.24,-3.7,0.0,-1234.75,-962.92,63.28,460.0,6.0,390.0,0.0,0.0,0.0,0.0,0.0,0.0,0.0,0.0,0.0,0.0,0.0,0.0,0.0,0.0
472.0,1690.0,0.0,705.5593005183034,-0.0,0.0,2395.5593005183036,0.0,1409.0078430700526,0.0,0.0,0.0,1409.0078430700523,0.7171533596116543,0.2411590231210786,0.745578231292517,0.0,0.0,0.0,"[0.5093107384827498, 0.6324224490322194, 1.1688662915788832, 0.666916836714794, 0.9884257737773829, 0.9474182018046662, 0.6239295507860163, 1.0739326567933176, 1.2354494096434188]",21.49,0.0,0.0,0.9410851577123307,668.3211358990885,134.43963153222927,-1883.6525988799274,237.5196891190077,851.6797258207176,0.0,0.0,0.0,0.0,0.0,0.0,-5.9,21.598201863121883,0.0,21.750502070504023,0.0,-5.9,21.49,21.1,22.4,21.45,22.05,-7.57,-5.9,1991.91,-1329.06,-1036.46,1.49,279.0,62.0,343.0,0.0,0.0,0.0,0.0,0.0,0.0,0.0,0.0,0.0,0.0,0.0,0.0,0.0,0.0
473.0,2047.0,1129.6797526790667,7090.135102582647,-0.0,0.0,8013.103748666977,0.0,22434.144373057235,0.0,8342.677517837385,0.0,14091.466855219851,0.4143149715290021,0.20962962962962967,0.745578231292517,0.0,0.0,0.0,"[0.5093107384827498, 0.6324224490322194, 1.1688662915788832, 0.666916836714794, 0.9884257737773829, 0.9474182018046662, 0.6239295507860163, 1.0739326567933176, 1.2354494096434188]",21.49,0.0,0.0,0.0,858.2374379041311,130.00998963660393,-1890.5295802544936,129.7618711031123,3247.2513756722997,0.0,0.0,0.0,0.0,0.0,0.0,-6.0,21.556861441432442,0.0,21.68526510691266,0.0,-6.0,21.49,21.08,22.29,21.47,22.03,-7.63,-6.0,0.0,-1333.91,-1040.25,0.0,255.0,59.0,497.0,0.0,0.0,0.0,0.0,0.0,0.0,0.0,0.0,0.0,0.0,0.0,0.0,0.0,0.0
474.0,2784.0,3708.9178942897665,906.3733048183174,-0.0,0.0,0.0,0.0,1801.394359700005,0.0,0.0,0.0,1801.394359700005,0.2748450809462992,0.20962962962962967,0.745578231292517,0.0,0.0,0.0,"[0.4375236336306152, 0.6324224490322194, 1.1688662915788832, 0.6669168367147869, 0.9884257737773829, 0.8062569334895606, 0.6239295507860163, 1.0739326567933176, 1.2354494096434188]",22.44,0.0,0.0,0.0,1652.3426917356637,146.90590943848918,-1955.6432036727233,-1559.9169272959778,0.0,0.0,0.0,0.0,0.0,0.0,0.0,-6.0,21.855367393044745,0.0,21.722039617361844,0.0,-6.0,22.44,21.1,22.34,22.08,22.59,-7.58,-6.0,0.0,-1379.85,-1076.08,0.0,234.0,67.0,1097.0,0.0,0.0,0.0,0.0,0.0,0.0,0.0,0.0,0.0,0.0,0.0,0.0,0.0,0.0
475.0,2581.0,2593.969849246231,0.0,-0.0,0.0,0.0,0.0,27495.71015335237,0.0,27495.710153352375,0.0,0.0,0.2748450809462992,0.10571538112867586,0.745578231292517,0.0,0.0,0.0,"[0.4375236336306152, 0.6324224490322194, 1.1688662915788832, 0.6669168367147869, 0.9884257737773829, 0.8062569334895606, 0.6239295507860163, 1.0739326567933176, 1.2354494096434188]",21.77,0.0,0.0,0.0,890.9058764206702,93.27560220216802,-1916.9289956256002,-389.37776964209803,3055.0351111041264,0.0,0.0,0.0,0.0,0.0,0.0,-6.1,21.641526591430374,0.0,21.686659488845358,0.0,-6.1,21.77,21.1,22.28,21.53,22.04,-7.58,-6.1,0.0,-1352.54,-1054.77,0.0,162.0,42.0,572.0,0.0,0.0,0.0,0.0,0.0,0.0,0.0,0.0,0.0,0.0,0.0,0.0,0.0,0.0
476.0,4029.0,10123.421767210744,12589.18870250032,-0.0,0.0,6545.38404412563,0.0,24900.68226866138,0.0,0.0,0.0,24900.68226866138,0.027476069452511243,0.10571538112867586,0.745578231292517,0.0,0.0,0.0,"[0.4375236336306152, 0.6324224490322194, 1.1688662915788832, 0.6669168367147869, 0.9884257737773829, 0.8062569334895606, 0.6239295507860163, 1.0739326567933176, 1.2354494096434188]",22.44,0.0,0.0,0.0,707.1547678016121,91.15570215211878,-1962.5201850472897,-1548.3818519078982,440.0926432539089,0.0,0.0,0.0,0.0,0.0,0.0,-6.1,21.859800347790188,0.0,21.726549437891354,0.0,-6.1,22.44,21.12,22.34,22.07,22.56,-7.58,-6.1,0.0,-1384.7,-1079.86,0.0,158.0,48.0,437.0,0.0,0.0,0.0,0.0,0.0,0.0,0.0,0.0,0.0,0.0,0.0,0.0,0.0,0.0
477.0,2959.0,9383.403989463604,6377.486969516287,-0.0,0.0,0.0,0.0,12553.49936652003,0.0,0.0,0.0,12553.49936652003,0.027476069452511243,0.10571538112867586,0.745578231292517,0.0,0.0,0.0,"[0.4375236336306152, 0.6324224490322194, 1.1688662915788832, 0.6669168367147869, 0.9884257737773829, 0.8062569334895606, 0.6239295507860163, 1.0739326567933176, 1.2354494096434188]",21.56,0.0,0.0,0.0,790.2785820747146,100.86927402324004,-1909.2203288336484,5.928125424180583,1019.1151500240879,0.0,0.0,0.0,0.0,0.0,0.0,-6.2,21.58115975317085,0.0,21.686366254716575,0.0,-6.2,21.56,21.11,22.27,21.47,21.99,-7.67,-6.2,4.71,-1347.1,-1050.53,0.0,165.0,58.0,494.0,0.0,0.0,0.0,0.0,0.0,0.0,0.0,0.0,0.0,0.0,0.0,0.0,0.0,0.0
478.0,2536.0,18629.145728643216,0.0,-0.0,0.0,-16000.0,0.0,7416.042512189796,0.0,7416.042512189796,0.0,0.0,0.6082168101932519,0.07768800957844987,0.745578231292517,0.0,0.0,0.0,"[0.4375236336306152, 0.6324224490322194, 1.1688662915788832, 0.6669168367147869, 0.9884257737773829, 0.8062569334895606, 0.6239295507860163, 1.0739326567933176, 1.2354494096434188]",21.56,0.0,0.0,0.0,636.8573903430291,78.2464600562963,-1916.0973102082148,-76.78773765639669,1283.1885986911905,0.0,0.0,0.0,0.0,0.0,0.0,-6.3,21.54943218837289,0.0,21.63697060420867,0.0,-6.3,21.56,21.08,22.19,21.5,22.0,-7.74,-6.3,2011.97,-1351.95,-1054.32,0.0,162.0,26.0,385.0,0.0,0.0,0.0,0.0,0.0,0.0,0.0,0.0,0.0,0.0,0.0,0.0,0.0,0.0
479.0,1776.0,0.0,0.0,-0.0,0.0,1776.0,0.0,20556.247334457836,0.0,20556.247334457836,0.0,0.0,0.5410966287873562,0.0,0.6673469387755102,0.0,0.0,0.0,"[0.4375236336306152, 0.6324224490322194, 1.1688662915788832, 0.6669168367147869, 0.9884257737773829, 0.8062569334895606, 0.6239295507860163, 1.0739326567933176, 1.2354494096434188]",21.56,0.0,0.0,0.0,608.3699450422728,85.27060649078793,-1916.0973102082148,-144.11368373729957,3651.2617111804866,0.0,0.0,0.0,0.0,0.0,0.0,-6.3,21.523533061630136,0.0,21.597063331701186,0.0,-6.3,21.56,21.06,22.13,21.5,21.98,-7.65,-6.3,1878.4,-1351.95,-1054.32,0.0,182.0,29.0,353.0,0.0,0.0,0.0,0.0,0.0,0.0,0.0,0.0,0.0,0.0,0.0,0.0,0.0,0.0
480.0,858.0,10163.07178412343,9254.256425202811,-0.0,0.0,0.0,0.0,18039.70939557059,0.0,0.0,0.0,18039.70939557059,0.5410966287873562,0.0,0.6673469387755102,0.0,0.0,0.0,"[0.4375236336306152, 0.6324224490322194, 1.1688662915788832, 0.6669168367147869, 0.9884257737773829, 0.8062569334895606, 0.6239295507860163, 1.0739326567933176, 1.2354494096434188]",22.44,0.0,0.0,0.0,294.8663181503666,122.09991482298726,-1983.1511291709896,-1671.4125385773748,3246.035429651993,0.0,0.0,0.0,0.0,0.0,0.0,-6.4,21.81269298752818,0.0,21.6526663574412,0.0,-6.4,22.44,21.09,22.22,22.09,22.54,-7.83,-6.4,735.83,-1399.26,-1091.21,0.0,320.0,34.0,47.0,0.0,0.0,0.0,0.0,0.0,0.0,0.0,0.0,0.0,0.0,0.0,0.0,0.0,0.0
481.0,1704.0,0.0,12613.416797713444,-0.0,0.0,14317.416797713444,0.0,24587.861310637112,0.0,0.0,0.0,24587.861310637112,0.0,0.0,0.6673469387755102,0.0,0.0,0.0,"[0.4375236336306152, 0.6324224490322194, 1.1688662915788832, 0.6669168367147869, 0.9884257737773829, 0.8062569334895606, 0.6239295507860163, 1.0739326567933176, 1.2354494096434188]",22.44,0.0,0.0,0.0,1145.308683957276,134.7243942255195,-1983.1511291709896,-1553.831837973187,0.0,0.0,0.0,0.0,0.0,0.0,0.0,-6.4,21.857797093229205,0.0,21.721979199389764,0.0,-6.4,22.44,21.12,22.32,22.09,22.57,-7.74,-6.4,1069.55,-1399.26,-1091.21,0.0,320.0,21.0,680.0,0.0,0.0,0.0,0.0,0.0,0.0,0.0,0.0,0.0,0.0,0.0,0.0,0.0,0.0
482.0,3117.0,17850.537717370986,14644.285028784132,-0.0,0.0,0.0,0.0,28546.717757432496,0.0,0.0,0.0,28546.717757432492,0.0,0.0,0.6673469387755102,0.0,0.0,0.0,"[0.4375236336306152, 0.6324224490322194, 1.1688662915788832, 0.6669168367147869, 0.9884257737773829, 0.8062569334895606, 0.6239295507860163, 1.0739326567933176, 1.2354494096434188]",21.57,0.0,0.0,0.0,693.9740095281278,112.2281414555936,-1923.3053890655679,-17.115108697080117,2843.3616893368085,0.0,0.0,0.0,0.0,0.0,0.0,-6.4,21.577152274669015,0.0,21.67665395575652,0.0,-6.4,21.57,21.11,22.25,21.44,21.95,-7.72,-6.4,1224.87,-1357.03,-1058.28,0.0,320.0,0.0,347.0,0.0,0.0,0.0,0.0,0.0,0.0,0.0,0.0,0.0,0.0,0.0,0.0,0.0,0.0
483.0,994.0,38345.48005322377,21159.75265295765,-0.0,0.0,-16000.0,0.0,13413.826939959315,0.0,-28035.486984237174,0.0,41449.31392419649,0.5807407407407407,0.10175843423908307,0.6673469387755102,0.0,0.0,0.0,"[0.4375236336306152, 0.6324224490322194, 1.1688662915788832, 0.6669168367147869, 0.9884257737773829, 0.8062569334895606, 0.6239295507860163, 1.0739326567933176, 1.2354494096434188]",22.22,0.0,0.0,0.0,283.3154385881196,102.57785018298127,-1961.3574021471168,-1189.484113339081,3336.9098727314563,0.0,0.0,0.0,0.0,0.0,0.0,-6.3,21.78062429754897,0.0,21.698543329134942,0.0,-6.3,22.22,21.12,22.28,21.96,22.44,-7.65,-6.3,1221.55,-1383.88,-1079.22,0.0,320.0,0.0,42.0,0.0,0.0,0.0,0.0,0.0,0.0,0.0,0.0,0.0,0.0,0.0,0.0,0.0,0.0
484.0,1178.0,11898.388261693897,10660.896320385427,-0.0,0.0,0.0,0.0,20883.36501585717,0.0,0.0,0.0,20883.365015857173,0.5807407407407407,0.10175843423908307,0.6673469387755102,0.0,0.0,0.0,"[0.4375236336306152, 0.6324224490322194, 1.1688662915788832, 0.6669168367147869, 0.9884257737773829, 0.8062569334895606, 0.6239295507860163, 1.0739326567933176, 1.2354494096434188]",22.44,0.0,0.0,0.0,283.3154385881196,102.57785018298127,-1976.2741477964228,-1490.559243351935,809.2305323873094,0.0,0.0,0.0,0.0,0.0,0.0,-6.3,21.882027672827487,0.0,21.757621139595614,0.0,-6.3,22.44,21.15,22.37,22.11,22.6,-7.63,-6.3,1223.21,-1394.41,-1087.43,0.0,320.0,0.0,42.0,0.0,0.0,0.0,0.0,0.0,0.0,0.0,0.0,0.0,0.0,0.0,0.0,0.0,0.0
485.0,1287.0,0.0,0.0,-0.0,0.0,1287.0,0.0,13782.730016871941,0.0,13782.730016871941,0.0,0.0,0.5321012849584278,0.0496695074935353,0.6673469387755102,0.0,0.0,0.0,"[0.4375236336306152, 0.6324224490322194, 1.1688662915788832, 0.6669168367147869, 0.9884257737773829, 0.8062569334895606, 0.6239295507860163, 1.0739326567933176, 1.2354494096434188]",21.56,0.0,0.0,0.0,276.86678803496324,114.31640120638842,-1916.0973102082148,73.00602542106763,3738.606640628185,0.0,0.0,0.0,0.0,0.0,0.0,-6.3,21.60689061596086,0.0,21.723012612260124,0.0,-6.3,21.56,21.14,22.31,21.52,22.06,-7.63,-6.3,1380.77,-1351.95,-1054.32,0.0,320.0,21.0,35.0,0.0,0.0,0.0,0.0,0.0,0.0,0.0,0.0,0.0,0.0,0.0,0.0,0.0,0.0
486.0,653.0,50790.78476403873,24633.15484021854,-0.0,0.0,-16000.000000000002,0.0,11485.40662416449,46253.38,0.0,0.0,48488.11062416449,0.7113822803381116,0.0496695074935353,0.6673469387755102,37002.704,9250.676,46253.38,"[0.4375236336306152, 0.6324224490322194, 0.9797160826298921, 0.6669168367147869, 0.9884257737773829, 0.7977465214237398, 0.6239295507860163, 0.9075523668537642, 0.9490210735018998]",22.44,0.0,0.0,0.0,416.61117145061405,192.40465976641235,-1969.3971664218564,-1468.999145768266,2842.677046624019,0.0,0.0,0.0,0.0,0.0,0.0,-6.2,21.890240909936864,0.0,21.768966043129808,0.0,-6.2,22.44,21.16,22.38,22.15,22.65,-7.51,-6.2,1675.36,-1389.56,-1083.64,0.0,528.0,43.0,27.0,0.0,0.0,0.0,0.0,0.0,0.0,0.0,0.0,0.0,0.0,0.0,0.0,0.0,0.0
487.0,901.0,0.0,0.0,-0.0,0.0,3206.859483969233,0.0,5573.9770945761375,0.0,3498.7035590038286,0.0,0.0,0.5901857767867422,0.03644689389185794,0.6673469387755102,9223.437935876933,2305.859483969233,11529.297419846165,"[0.4375236336306152, 0.6324224490322194, 0.9797160826298921, 0.6669168367147869, 0.9884257737773829, 0.7977465214237398, 0.6239295507860163, 0.9075523668537642, 0.9490210735018998]",22.44,0.0,0.0,0.0,242.0015564728435,113.43047282726333,-1969.3971664218564,-1376.2131593475399,719.2187218778317,0.0,0.0,0.0,0.0,0.0,0.0,-6.2,21.925870267125823,0.0,21.82289754421366,0.0,-6.2,22.44,21.19,22.45,22.12,22.64,-7.51,-6.2,2539.07,-1389.56,-1083.64,0.0,282.0,41.0,27.0,0.0,0.0,0.0,0.0,0.0,0.0,0.0,0.0,0.0,0.0,0.0,0.0,0.0,0.0
488.0,1018.0,19303.92716881226,2915.8825762378333,-15273.524956730364,0.0,0.0,0.0,5934.2339840045815,0.0,0.0,0.0,5934.233984004582,0.5901857767867422,0.03644689389185794,0.999970371166527,0.0,0.0,0.0,"[0.4375236336306152, 0.6324224490322194, 0.9797160826298921, 0.6669168367147869, 0.9884257737773829, 0.7977465214237398, 0.6239295507860163, 0.9075523668537642, 0.9490210735018998]",21.56,0.0,0.0,7.58097695076661,263.8986226368578,59.99000738646899,-1861.081459211683,176.3283134236165,1357.091720814255,0.0,0.0,0.0,0.0,0.0,0.0,-5.5,21.646073939048325,0.0,21.780766016039905,0.0,-5.5,21.56,21.18,22.38,21.54,22.1,-6.75,-5.5,864.15,-1313.13,-1024.04,11.98,170.0,5.0,106.0,0.0,0.0,0.0,0.0,0.0,0.0,0.0,0.0,0.0,0.0,0.0,0.0,0.0,0.0
489.0,1960.0,0.0,10669.532852112587,-0.0,72.42341298101147,12557.109439131575,0.0,25579.215730747834,0.0,0.0,0.0,25579.215730747834,0.11561625905690187,0.03644689389185794,0.999970371166527,0.0,0.0,0.0,"[0.4375236336306152, 0.6324224490322194, 0.9797160826298921, 0.6669168367147869, 0.9884257737773829, 0.7977465214237398, 0.6239295507860163, 0.9075523668537642, 0.9490210735018998]",21.56,0.0,0.0,59.77025123938049,474.71989072081374,74.06994055470669,-1599.756166978156,95.33748074986354,950.5722243771586,0.0,0.0,0.0,0.0,0.0,0.0,-1.7,21.612714488203366,0.0,21.728478967639152,0.0,-1.7,21.56,21.16,22.3,21.56,22.09,-2.72,-1.7,870.29,-1128.75,-880.25,94.45,208.0,1.0,243.0,0.0,0.0,0.0,0.0,0.0,0.0,0.0,0.0,0.0,0.0,0.0,0.0,0.0,0.0
490.0,2517.0,0.0,3819.6791275219703,-1.3605076594931234,6338.039635181463,0.0,0.0,10541.065133249065,0.0,0.0,0.0,10541.065133249067,0.11561625905690187,0.03644689389185794,1.0,0.0,0.0,0.0,"[0.4375236336306152, 0.6324224490322194, 0.9797160826298921, 0.6669168367147869, 0.9884257737773829, 0.7977465214237398, 0.6239295507860163, 0.9075523668537642, 0.9490210735018998]",21.58,0.0,0.0,90.03811003256004,1947.0672813024448,146.93754973774367,-1339.8055534044822,-9.606381256799763,0.0,0.0,0.0,0.0,0.0,0.0,0.0,2.1,21.59039093308819,0.0,21.683514907616193,0.0,2.1,21.58,21.15,22.22,21.54,22.03,0.89,2.1,1004.86,-945.33,-737.22,142.28,330.0,4.0,1272.0,0.0,0.0,0.0,0.0,0.0,0.0,0.0,0.0,0.0,0.0,0.0,0.0,0.0,0.0
491.0,4071.0,0.0,898.4948155680031,-0.0,13335.169310939076,-8365.674495371073,0.0,2745.0862617929374,0.0,0.0,0.0,2745.0862617929374,0.41925925925925933,0.03644689389185794,1.0,0.0,0.0,0.0,"[0.4375236336306152, 0.6324224490322194, 0.9797160826298921, 0.6669168367147869, 0.9884257737773829, 0.7977465214237398, 0.6239295507860163, 0.9075523668537642, 0.9490210735018998]",21.9,0.0,0.0,898.5711887342046,511.28586528596367,162.15653367914217,-1148.4852324152864,-641.4433171534639,0.0,0.0,0.0,0.0,0.0,0.0,0.0,5.2,21.663424687152148,0.0,21.6515652623689,0.0,5.2,21.9,21.15,22.16,21.62,22.05,5.31,5.2,82.64,-810.34,-631.94,1419.98,465.0,19.0,133.0,0.0,0.0,0.0,0.0,0.0,0.0,0.0,0.0,0.0,0.0,0.0,0.0,0.0,0.0
492.0,4211.0,0.0,11012.765104731077,-0.0,15223.765104731076,0.0,0.0,5108.332356373934,0.0,-30742.677123989724,0.0,35851.00948036366,0.41925925925925933,0.14803142567522803,1.0,0.0,0.0,0.0,"[0.4375236336306152, 0.6324224490322194, 0.9797160826298921, 0.6669168367147869, 0.9884257737773829, 0.7977465214237398, 0.6239295507860163, 0.9075523668537642, 0.9490210735018998]",21.82,0.0,0.0,988.7836663381526,467.2082757907636,130.57951502318434,-998.7678354545591,-431.92971216231166,0.0,0.0,0.0,0.0,0.0,0.0,0.0,7.3,21.665484991813162,0.0,21.68756789633792,0.0,7.3,21.82,21.17,22.2,21.76,22.31,7.57,7.3,0.0,-704.7,-549.56,1562.54,399.0,0.0,137.0,0.0,0.0,0.0,0.0,0.0,0.0,0.0,0.0,0.0,0.0,0.0,0.0,0.0,0.0
493.0,1338.0,14641.044595690233,1733.9404576748082,-0.0,4504.101084963027,-16000.0,0.0,5793.449940149259,0.0,0.0,0.0,5793.4499401492585,1.0,0.14803142567522803,1.0,0.0,0.0,0.0,"[0.4375236336306152, 0.6324224490322194, 0.9797160826298921, 0.6669168367147869, 0.9884257737773829, 0.7977465214237398, 0.6239295507860163, 0.9075523668537642, 0.9490210735018998]",21.89,0.0,0.0,836.3540422279829,472.45223338344005,101.0274755195124,-941.5754655654682,-486.2696873408572,0.0,0.0,0.0,0.0,0.0,0.0,0.0,8.2,21.712652307971336,0.0,21.727564116521926,0.0,8.2,21.89,21.2,22.25,21.81,22.38,8.21,8.2,0.0,-664.35,-518.09,1321.66,300.0,0.0,193.0,0.0,0.0,0.0,0.0,0.0,0.0,0.0,0.0,0.0,0.0,0.0,0.0,0.0,0.0
494.0,2356.0,5668.0601024158495,3369.484443453176,-0.0,85.76464154940552,0.0,0.0,11258.137129711471,0.0,0.0,0.0,11258.137129711471,1.0,0.14803142567522803,1.0,0.0,0.0,0.0,"[0.4375236336306152, 0.6324224490322194, 0.9797160826298921, 0.6669168367147869, 0.9884257737773829, 0.7977465214237398, 0.6239295507860163, 0.9075523668537642, 0.9490210735018998]",21.89,0.0,0.0,69.400458079278,209.33311795630445,33.09575302017223,-941.6155905337412,-438.4707434742381,2487.5903110289532,0.0,0.0,0.0,0.0,0.0,0.0,8.2,21.732455813249246,0.0,21.75496238107909,0.0,8.2,21.89,21.23,22.28,21.79,22.34,6.66,8.2,0.0,-664.38,-518.12,109.67,94.0,0.0,106.0,0.0,0.0,0.0,0.0,0.0,0.0,0.0,0.0,0.0,0.0,0.0,0.0,0.0,0.0
495.0,1296.0,7527.498003105393,6205.668300599744,-0.0,11.807787509878153,0.0,0.0,19846.99974909457,0.0,0.0,0.0,19846.999749094575,1.0,0.14803142567522803,1.0,0.0,0.0,0.0,"[0.4375236336306152, 0.6324224490322194, 0.9797160826298921, 0.6669168367147869, 0.9884257737773829, 0.7977465214237398, 0.6239295507860163, 0.9075523668537642, 0.9490210735018998]",22.44,0.0,0.0,39.36063773457532,133.4374614460803,44.20149805849007,-1082.266569102778,-1364.9073232847607,2231.531121173396,0.0,0.0,0.0,0.0,0.0,0.0,6.7,21.92307951849521,0.0,21.80167561637034,0.0,6.7,22.44,21.28,22.33,22.09,22.52,5.2,6.7,175.85,-763.62,-595.51,62.2,137.0,0.0,27.0,0.0,0.0,0.0,0.0,0.0,0.0,0.0,0.0,0.0,0.0,0.0,0.0,0.0,0.0
496.0,5404.0,0.0,2983.908348471833,-0.0,0.0,8387.908348471832,0.0,8888.88095131373,0.0,0.0,0.0,8888.88095131373,0.6829966610554863,0.14803142567522803,1.0,0.0,0.0,0.0,"[0.4375236336306152, 0.6324224490322194, 0.9797160826298921, 0.6669168367147869, 0.9884257737773829, 0.7977465214237398, 0.6239295507860163, 0.9075523668537642, 0.9490210735018998]",22.44,0.0,0.0,1.887289008368153,2218.6192474529385,85.80849157811384,-1240.4371407178076,-1276.0003788312993,0.0,0.0,0.0,0.0,0.0,0.0,0.0,4.4,21.958545682669474,0.0,21.852795452521562,0.0,4.4,22.44,21.32,22.39,22.1,22.53,2.84,4.4,994.37,-875.22,-682.54,2.98,101.0,6.0,1594.0,0.0,0.0,0.0,0.0,0.0,0.0,0.0,0.0,0.0,0.0,0.0,0.0,0.0,0.0
497.0,4660.0,0.0,0.0,-0.0,0.0,4660.0,0.0,0.0,0.0,0.0,0.0,0.0,0.5068817706548816,0.14803142567522803,1.0,0.0,0.0,0.0,"[0.4375236336306152, 0.6324224490322194, 0.9797160826298921, 0.6669168367147869, 0.9884257737773829, 0.7977465214237398, 0.6239295507860163, 0.9075523668537642, 0.9490210735018998]",22.35,0.0,0.0,0.0,1659.4999852067492,103.2106561680706,-1248.487975790567,-1124.0941897025607,0.0,0.0,0.0,0.0,0.0,0.0,0.0,4.2,21.93399356026409,0.0,21.848421221924895,0.0,4.2,22.35,21.34,22.36,21.89,22.29,2.67,4.2,1099.25,-880.9,-686.97,0.0,167.0,25.0,1142.0,0.0,0.0,0.0,0.0,0.0,0.0,0.0,0.0,0.0,0.0,0.0,0.0,0.0,0.0
498.0,3925.0,50790.78476403873,24633.15484021854,-0.0,0.0,-16000.000000000002,0.0,420.0720824807199,0.0,0.0,0.0,48488.11062416449,0.7113822803381116,0.0496695074935353,0.6673469387755102,37002.704,9250.676,46253.38,"[0.4375236336306152, 0.6324224490322194, 0.9797160826298921, 0.6669168367147869, 0.9884257737773829, 0.7977465214237398, 0.6239295507860163, 0.9075523668537642, 0.9490210735018998]",22.12,0.0,0.0,0.0,232.29314849721263,41.82847561440506,-1252.825527418699,-708.0480519552373,243.81641396774964,0.0,0.0,0.0,0.0,0.0,0.0,3.9,21.856803627328432,0.0,21.832200047865037,0.0,3.9,22.12,21.35,22.32,21.79,22.19,2.47,3.9,0.0,-883.96,-689.36,0.0,110.0,6.0,114.0,0.0,0.0,0.0,0.0,0.0,0.0,0.0,0.0,0.0,0.0,0.0,0.0,0.0,0.0
499.0,6878.0,0.0,0.0,-0.0,0.0,3206.859483969233,0.0,5573.9770945761375,0.0,3498.7035590038286,0.0,0.0,0.5901857767867422,0.03644689389185794,0.6673469387755102,9223.437935876933,2305.859483969233,11529.297419846165,"[0.4375236336306152, 0.6324224490322194, 0.9797160826298921, 0.6669168367147869, 0.9884257737773829, 0.7977465214237398, 0.6239295507860163, 0.9075523668537642, 0.9490210735018998]",22.44,0.0,0.0,0.0,191.19185925731531,4.492922494134279,-1288.5760103397731,-1361.851373115433,719.2187218778317,0.0,0.0,0.0,0.0,0.0,0.0,3.7,21.925870267125823,0.0,21.82289754421366,0.0,3.7,22.44,21.19,22.45,22.12,22.64,2.32,3.7,2539.07,-909.19,-709.03,0.0,0.0,0.0,142.0,0.0,0.0,0.0,0.0,0.0,0.0,0.0,0.0,0.0,0.0,0.0,0.0,0.0,0.0
500.0,3799.0,19303.92716881226,2915.8825762378333,-15273.524956730364,0.0,0.0,0.0,5934.2339840045815,0.0,0.0,0.0,5934.233984004582,0.5901857767867422,0.03644689389185794,0.999970371166527,0.0,0.0,0.0,"[0.4375236336306152, 0.6324224490322194, 0.9797160826298921, 0.6669168367147869, 0.9884257737773829, 0.7977465214237398, 0.6239295507860163, 0.9075523668537642, 0.9490210735018998]",21.56,0.0,0.0,0.0,226.9074623209502,63.2173179104246,-1242.1531355006982,189.2816885655614,1357.091720814255,0.0,0.0,0.0,0.0,0.0,0.0,3.5,21.646073939048325,0.0,21.780766016039905,0.0,3.5,21.56,21.18,22.38,21.54,22.1,2.11,3.5,864.15,-876.43,-683.48,0.0,93.0,53.0,114.0,0.0,0.0,0.0,0.0,0.0,0.0,0.0,0.0,0.0,0.0,0.0,0.0,0.0,0.0
501.0,3599.0,0.0,10669.532852112587,-0.0,0.0,12557.109439131575,0.0,25579.215730747834,0.0,0.0,0.0,25579.215730747834,0.11561625905690187,0.03644689389185794,0.999970371166527,0.0,0.0,0.0,"[0.4375236336306152, 0.6324224490322194, 0.9797160826298921, 0.6669168367147869, 0.9884257737773829, 0.7977465214237398, 0.6239295507860163, 0.9075523668537642, 0.9490210735018998]",21.56,0.0,0.0,0.0,428.162051012861,122.70108050882212,-1262.7840796243977,102.11989854735519,950.5722243771586,0.0,0.0,0.0,0.0,0.0,0.0,3.2,21.612714488203366,0.0,21.728478967639152,0.0,3.2,21.56,21.16,22.3,21.56,22.09,1.92,3.2,870.29,-890.99,-694.84,0.0,270.0,56.0,170.0,0.0,0.0,0.0,0.0,0.0,0.0,0.0,0.0,0.0,0.0,0.0,0.0,0.0,0.0
502.0,2459.0,0.0,3819.6791275219703,-1.3605076594931234,0.0,0.0,0.0,10541.065133249065,0.0,0.0,0.0,10541.065133249067,0.11561625905690187,0.03644689389185794,1.0,0.0,0.0,0.0,"[0.4375236336306152, 0.6324224490322194, 0.9797160826298921, 0.6669168367147869, 0.9884257737773829, 0.7977465214237398, 0.6239295507860163, 0.9075523668537642, 0.9490210735018998]",21.58,0.0,0.0,0.0,386.06866168786274,149.0890900870474,-1277.9127210333836,-8.29304383832612,0.0,0.0,0.0,0.0,0.0,0.0,0.0,3.0,21.59039093308819,0.0,21.683514907616193,0.0,3.0,21.58,21.15,22.22,21.54,22.03,1.79,3.0,1004.86,-901.66,-703.16,0.0,384.0,44.0,80.0,0.0,0.0,0.0,0.0,0.0,0.0,0.0,0.0,0.0,0.0,0.0,0.0,0.0,0.0
503.0,1166.0,0.0,898.4948155680031,-0.0,0.0,-8365.674495371073,0.0,2745.0862617929374,0.0,0.0,0.0,2745.0862617929374,0.41925925925925933,0.03644689389185794,1.0,0.0,0.0,0.0,"[0.4375236336306152, 0.6324224490322194, 0.9797160826298921, 0.6669168367147869, 0.9884257737773829, 0.7977465214237398, 0.6239295507860163, 0.9075523668537642, 0.9490210735018998]",21.9,0.0,0.0,0.0,362.6834453961971,164.5928367217361,-1313.5327854048824,-646.7889865564791,0.0,0.0,0.0,0.0,0.0,0.0,0.0,2.8,21.663424687152148,0.0,21.6515652623689,0.0,2.8,21.9,21.15,22.16,21.62,22.05,1.65,2.8,82.64,-926.79,-722.76,0.0,447.0,39.0,30.0,0.0,0.0,0.0,0.0,0.0,0.0,0.0,0.0,0.0,0.0,0.0,0.0,0.0,0.0
504.0,1227.0,0.0,11012.765104731077,-0.0,0.0,0.0,0.0,5108.332356373934,0.0,-30742.677123989724,0.0,35851.00948036366,0.41925925925925933,0.14803142567522803,1.0,0.0,0.0,0.0,"[0.4375236336306152, 0.6324224490322194, 0.9797160826298921, 0.6669168367147869, 0.9884257737773829, 0.7977465214237398, 0.6239295507860163, 0.9075523668537642, 0.9490210735018998]",21.82,0.0,0.0,0.0,288.701124764382,113.4621131265178,-1342.616904182884,-441.27079218130524,0.0,0.0,0.0,0.0,0.0,0.0,0.0,2.3,21.665484991813162,0.0,21.68756789633792,0.0,2.3,21.82,21.17,22.2,21.76,22.31,1.18,2.3,0.0,-947.32,-738.76,0.0,320.0,19.0,44.0,0.0,0.0,0.0,0.0,0.0,0.0,0.0,0.0,0.0,0.0,0.0,0.0,0.0,0.0
505.0,1739.0,14641.044595690233,1733.9404576748082,-0.0,0.0,-16000.0,0.0,5793.449940149259,0.0,0.0,0.0,5793.4499401492585,1.0,0.14803142567522803,1.0,0.0,0.0,0.0,"[0.4375236336306152, 0.6324224490322194, 0.9797160826298921, 0.6669168367147869, 0.9884257737773829, 0.7977465214237398, 0.6239295507860163, 0.9075523668537642, 0.9490210735018998]",21.89,0.0,0.0,0.0,290.04754630844764,102.73605167925359,-1374.8252921631574,-497.0618775952553,0.0,0.0,0.0,0.0,0.0,0.0,0.0,1.9,21.712652307971336,0.0,21.727564116521926,0.0,1.9,21.89,21.2,22.25,21.81,22.38,0.82,1.9,0.0,-970.04,-756.49,0.0,320.0,0.0,47.0,0.0,0.0,0.0,0.0,0.0,0.0,0.0,0.0,0.0,0.0,0.0,0.0,0.0,0.0
506.0,787.0,5668.0601024158495,3369.484443453176,-0.0,0.0,0.0,0.0,11258.137129711471,0.0,0.0,0.0,11258.137129711471,1.0,0.14803142567522803,1.0,0.0,0.0,0.0,"[0.4375236336306152, 0.6324224490322194, 0.9797160826298921, 0.6669168367147869, 0.9884257737773829, 0.7977465214237398, 0.6239295507860163, 0.9075523668537642, 0.9490210735018998]",21.89,0.0,0.0,0.0,334.47945726261236,103.78018155465098,-1409.2503240042631,-447.70207660199776,2487.5903110289532,0.0,0.0,0.0,0.0,0.0,0.0,1.4,21.732455813249246,0.0,21.75496238107909,0.0,1.4,21.89,21.23,22.28,21.79,22.34,0.35,1.4,0.0,-994.33,-775.43,0.0,320.0,0.0,80.0,0.0,0.0,0.0,0.0,0.0,0.0,0.0,0.0,0.0,0.0,0.0,0.0,0.0,0.0
507.0,1185.0,7527.498003105393,6205.668300599744,-0.0,0.0,0.0,0.0,19846.99974909457,0.0,0.0,0.0,19846.999749094575,1.0,0.14803142567522803,1.0,0.0,0.0,0.0,"[0.4375236336306152, 0.6324224490322194, 0.9797160826298921, 0.6669168367147869, 0.9884257737773829, 0.7977465214237398, 0.6239295507860163, 0.9075523668537642, 0.9490210735018998]",22.44,0.0,0.0,0.0,331.78661417448126,103.71690095614206,-1460.5005447039355,-1372.1557507855575,2231.531121173396,0.0,0.0,0.0,0.0,0.0,0.0,1.2,21.92307951849521,0.0,21.80167561637034,0.0,1.2,22.44,21.28,22.33,22.09,22.52,0.24,1.2,175.85,-1030.49,-803.63,0.0,320.0,0.0,78.0,0.0,0.0,0.0,0.0,0.0,0.0,0.0,0.0,0.0,0.0,0.0,0.0,0.0,0.0
508.0,932.0,0.0,2983.908348471833,-0.0,0.0,8387.908348471832,0.0,8888.88095131373,0.0,0.0,0.0,8888.88095131373,0.6829966610554863,0.14803142567522803,1.0,0.0,0.0,0.0,"[0.4375236336306152, 0.6324224490322194, 0.9797160826298921, 0.6669168367147869, 0.9884257737773829, 0.7977465214237398, 0.6239295507860163, 0.9075523668537642, 0.9490210735018998]",22.44,0.0,0.0,0.0,271.48110185870087,103.43213826285184,-1474.2545074530685,-1280.0575056926887,0.0,0.0,0.0,0.0,0.0,0.0,0.0,1.0,21.958545682669474,0.0,21.852795452521562,0.0,1.0,22.44,21.32,22.39,22.1,22.53,0.06,1.0,994.37,-1040.2,-811.2,0.0,320.0,2.0,33.0,0.0,0.0,0.0,0.0,0.0,0.0,0.0,0.0,0.0,0.0,0.0,0.0,0.0,0.0
509.0,775.0,0.0,0.0,-0.0,0.0,4660.0,0.0,0.0,0.0,0.0,0.0,0.0,0.5068817706548816,0.14803142567522803,1.0,0.0,0.0,0.0,"[0.4375236336306152, 0.6324224490322194, 0.9797160826298921, 0.6669168367147869, 0.9884257737773829, 0.7977465214237398, 0.6239295507860163, 0.9075523668537642, 0.9490210735018998]",22.35,0.0,0.0,0.0,275.44950219910476,119.37884908710309,-1489.1823239003943,-1128.126861942125,0.0,0.0,0.0,0.0,0.0,0.0,0.0,0.7,21.93399356026409,0.0,21.848421221924895,0.0,0.7,22.35,21.34,22.36,21.89,22.29,-0.09,0.7,1099.25,-1050.73,-819.41,0.0,320.0,30.0,33.0,0.0,0.0,0.0,0.0,0.0,0.0,0.0,0.0,0.0,0.0,0.0,0.0,0.0,0.0
510.0,701.0,0.0,160.5366922799032,-0.0,0.0,861.5366922799033,0.0,420.0720824807199,0.0,0.0,0.0,420.0720824807199,0.13694762553856094,0.14803142567522803,0.0,0.0,0.0,0.0,"[0.3865920799129263, 0.5179262785393206, 0.6683319745877156, 0.3721819070878709, 0.5246068884839836, 0.4246433997953325, 0.6580458399602414, 0.7315565373517714, 0.604606144639181]",22.12,0.0,0.0,0.0,475.28680505515706,171.26893986442857,-1479.7659127793934,-711.9605341902264,243.81641396774964,0.0,0.0,0.0,0.0,0.0,0.0,0.6,21.856803627328432,0.0,21.832200047865037,0.0,0.6,22.12,21.35,22.32,21.79,22.19,-0.2,0.6,0.0,-1044.08,-814.23,0.0,468.0,35.0,103.0,0.0,0.0,0.0,0.0,0.0,0.0,0.0,0.0,0.0,0.0,0.0,0.0,0.0,0.0
511.0,1326.0,15983.781120500842,0.0,-0.0,0.0,0.0,0.0,13120.0759934085,0.0,0.0,0.0,0.0,0.13694762553856094,0.14803142567522803,0.0,58311.44885959334,14577.862214898336,72889.31107449168,"[0.3865920799129263, 0.5179262785393206, 0.6683319745877156, 0.3721819070878709, 0.5246068884839836, 0.4246433997953325, 0.6580458399602414, 0.7315565373517714, 0.604606144639181]",21.61,0.0,0.0,0.0,423.2724148791491,190.6960836066712,-1458.8421115752024,156.65440319990157,701.3977004630909,0.0,0.0,0.0,0.0,0.0,0.0,0.4,21.685893537894884,0.0,21.79250227279993,0.0,0.4,21.61,21.33,22.25,21.6,22.03,-0.36,0.4,314.34,-1029.32,-802.72,0.0,450.0,81.0,69.0,0.0,0.0,0.0,0.0,0.0,0.0,0.0,0.0,0.0,0.0,0.0,0.0,0.0,0.0
512.0,990.0,7539.758446201912,6512.059653970902,-0.0,0.0,0.0,0.0,17039.93287287059,0.0,0.0,0.0,17039.93287287059,0.13694762553856094,0.14803142567522803,0.0,0.0,0.0,0.0,"[0.3865920799129263, 0.5179262785393206, 0.6683319745877156, 0.3721819070878709, 0.5246068884839836, 0.4246433997953325, 0.6580458399602414, 0.7315565373517714, 0.604606144639181]",21.61,0.0,0.0,1.872417104049928,365.73060994329296,172.72439363013405,-1445.0881488260693,90.77684846538875,2839.3630534942095,0.0,0.0,0.0,0.0,0.0,0.0,0.6,21.66048911938819,0.0,21.752704759259693,0.0,0.6,21.61,21.32,22.19,21.63,22.03,-0.17,0.6,537.78,-1019.62,-795.15,2.96,336.0,112.0,83.0,0.0,0.0,0.0,0.0,0.0,0.0,0.0,0.0,0.0,0.0,0.0,0.0,0.0,0.0
513.0,2518.0,1694.8486310060403,2812.2855898899156,-0.0,20.277030288583163,3623.6341717503224,0.0,7600.12615654276,0.0,0.0,0.0,7600.126156542761,0.0,0.14803142567522803,0.0,0.0,0.0,0.0,"[0.3865920799129263, 0.5179262785393206, 0.6683319745877156, 0.3721819070878709, 0.5246068884839836, 0.4246433997953325, 0.6580458399602414, 0.7315565373517714, 0.604606144639181]",22.39,0.0,0.0,29.325960222286625,972.1163548153637,200.02997188673888,-1436.3670471172932,-1262.8592961288757,0.0,0.0,0.0,0.0,0.0,0.0,0.0,1.5,21.913698138923497,0.0,21.797721567686253,0.0,1.5,22.39,21.34,22.26,22.15,22.52,0.94,1.5,1755.98,-1013.46,-790.35,46.34,423.0,89.0,490.0,0.0,0.0,0.0,0.0,0.0,0.0,0.0,0.0,0.0,0.0,0.0,0.0,0.0,0.0
514.0,3365.0,14573.700185648733,8146.878523617736,-0.0,958.2844176708923,-3947.237578773645,0.0,23026.38707093154,0.0,0.0,0.0,23026.387070931538,0.1432701047110434,0.14803142567522803,0.0,0.0,0.0,0.0,"[0.3865920799129263, 0.5179262785393206, 0.6683319745877156, 0.3721819070878709, 0.5246068884839836, 0.4246433997953325, 0.6580458399602414, 0.7315565373517714, 0.604606144639181]",21.81,0.0,0.0,73.93726137880789,2814.5879414314486,200.66277787182824,-1307.0839329626262,-214.63633859040334,-46.51884707391809,0.0,0.0,0.0,0.0,0.0,0.0,2.8,21.735144829529133,0.0,21.77995350091357,0.0,2.8,21.81,21.34,22.22,21.68,22.06,2.36,2.8,0.0,-922.24,-719.21,116.84,360.0,47.0,1896.0,0.0,0.0,0.0,0.0,0.0,0.0,0.0,0.0,0.0,0.0,0.0,0.0,0.0,0.0
515.0,3972.0,0.0,1932.2648909874997,-0.0,2113.3379203332915,3790.926970654208,0.0,5645.573996683148,0.0,0.0,0.0,5645.573996683148,0.0,0.14803142567522803,0.0,0.0,0.0,0.0,"[0.3865920799129263, 0.5179262785393206, 0.6683319745877156, 0.3721819070878709, 0.5246068884839836, 0.4246433997953325, 0.6580458399602414, 0.7315565373517714, 0.604606144639181]",22.39,0.0,0.0,90.26239612856695,1876.0612609259326,138.14154654500192,-1278.1964755022636,-1283.5096154080252,462.90032960412486,0.0,0.0,0.0,0.0,0.0,0.0,3.8,21.904418454893595,0.0,21.780296122190407,0.0,3.8,22.39,21.35,22.21,21.94,22.26,3.34,3.8,427.35,-901.86,-703.32,142.64,276.0,20.0,1246.0,0.0,0.0,0.0,0.0,0.0,0.0,0.0,0.0,0.0,0.0,0.0,0.0,0.0,0.0
516.0,2229.0,7370.573284446555,4310.389940739329,-5770.512286547269,4976.181809262276,0.0,0.0,12922.57323935863,0.0,0.0,0.0,12922.573239358628,0.0,0.14803142567522803,0.12566893424036274,0.0,0.0,0.0,"[0.3865920799129263, 0.5179262785393206, 0.6683319745877156, 0.3721819070878709, 0.5246068884839836, 0.4246433997953325, 0.6580458399602414, 0.7315565373517714, 0.604606144639181]",22.39,0.0,0.0,120.12214145170192,1550.7232973046077,139.12239582189036,-1223.1806245057319,-1235.7852071803168,0.0,0.0,0.0,0.0,0.0,0.0,0.0,4.6,21.9222856434874,0.0,21.80601374796613,0.0,4.6,22.39,21.37,22.24,21.98,22.31,4.16,4.6,1535.03,-863.04,-673.04,189.82,318.0,13.0,983.0,0.0,0.0,0.0,0.0,0.0,0.0,0.0,0.0,0.0,0.0,0.0,0.0,0.0,0.0
517.0,3652.0,39138.61798627286,2950.155872050293,-20000.0,3659.2309757087987,-16000.0,0.0,8985.20757202818,0.0,0.0,0.0,8985.20757202818,0.5807407407407407,0.14803142567522803,0.5612244897959183,0.0,0.0,0.0,"[0.3865920799129263, 0.5179262785393206, 0.6683319745877156, 0.3721819070878709, 0.5246068884839836, 0.4246433997953325, 0.6580458399602414, 0.7315565373517714, 0.604606144639181]",22.14,0.0,0.0,117.55520328219812,1008.9657865476854,170.2880905875401,-1171.5358640191641,-759.3087965874362,0.0,0.0,0.0,0.0,0.0,0.0,0.0,5.1,21.85389681213304,0.0,21.81059475682583,0.0,5.1,22.14,21.38,22.24,21.85,22.2,4.57,5.1,27.77,-826.61,-644.63,185.77,489.0,0.0,492.0,0.0,0.0,0.0,0.0,0.0,0.0,0.0,0.0,0.0,0.0,0.0,0.0,0.0,0.0
518.0,2968.0,42993.241536142545,29514.737513055734,-0.0,1255.4825927571687,-11551.020408163267,0.0,10454.960102566054,0.0,-80000.0,0.0,90454.96010256607,1.0,0.43840179604559837,0.5612244897959183,0.0,0.0,0.0,"[0.3865920799129263, 0.5179262785393206, 0.6683319745877156, 0.3721819070878709, 0.5246068884839836, 0.4246433997953325, 0.6580458399602414, 0.7315565373517714, 0.604606144639181]",21.89,0.0,0.0,80.49355269553025,1829.3616926343939,152.0316379177128,-1140.8562220035271,-322.0446354852881,702.6067755792113,0.0,0.0,0.0,0.0,0.0,0.0,5.3,21.77550302623261,0.0,21.797802533402866,0.0,5.3,21.89,21.39,22.21,21.75,22.11,4.65,5.3,348.69,-804.96,-627.75,127.2,360.0,2.0,1169.0,0.0,0.0,0.0,0.0,0.0,0.0,0.0,0.0,0.0,0.0,0.0,0.0,0.0,0.0
519.0,1846.0,2297.1551707762355,3131.499740641787,-0.0,47.22279846542031,2644.6075472540124,0.0,9447.960897682988,0.0,0.0,0.0,9447.960897682986,0.9000526248203321,0.43840179604559837,0.5612244897959183,0.0,0.0,0.0,"[0.3865920799129263, 0.5179262785393206, 0.6683319745877156, 0.3721819070878709, 0.5246068884839836, 0.4246433997953325, 0.6580458399602414, 0.7315565373517714, 0.604606144639181]",22.39,0.0,0.0,36.07255729939731,618.8578602276258,104.00166364943225,-1209.4266617565986,-1211.5921699863195,1099.0711966581543,0.0,0.0,0.0,0.0,0.0,0.0,4.8,21.931696394369208,0.0,21.814995227993766,0.0,4.8,22.39,21.41,22.22,22.01,22.33,3.94,4.8,1754.89,-853.34,-665.48,57.0,255.0,23.0,323.0,0.0,0.0,0.0,0.0,0.0,0.0,0.0,0.0,0.0,0.0,0.0,0.0,0.0,0.0
520.0,1071.0,0.0,2872.2357642747897,-0.0,0.0,3943.2357642747897,0.0,8446.687515050853,0.0,0.0,0.0,8446.687515050853,0.7510263298741949,0.43840179604559837,0.5612244897959183,0.0,0.0,0.0,"[0.3865920799129263, 0.5179262785393206, 0.6683319745877156, 0.3721819070878709, 0.5246068884839836, 0.4246433997953325, 0.6580458399602414, 0.7315565373517714, 0.604606144639181]",22.17,0.0,0.0,0.941166499030389,277.4337023693067,86.85262145351128,-1249.42679420777,-770.1140357356174,215.36760259213432,0.0,0.0,0.0,0.0,0.0,0.0,4.0,21.883281528005757,0.0,21.836443451179115,0.0,4.0,22.17,21.42,22.25,21.94,22.28,3.0,4.0,279.09,-881.56,-687.49,1.49,166.0,54.0,113.0,0.0,0.0,0.0,0.0,0.0,0.0,0.0,0.0,0.0,0.0,0.0,0.0,0.0,0.0
521.0,1203.0,0.0,0.0,-0.0,0.0,3872.156688471198,0.0,2402.241019624077,0.0,0.0,0.0,0.0,0.6046863189720333,0.43840179604559837,0.5612244897959183,10676.626753884791,2669.156688471198,13345.783442355989,"[0.3865920799129263, 0.5179262785393206, 0.6683319745877156, 0.3721819070878709, 0.5246068884839836, 0.4246433997953325, 0.6580458399602414, 0.7315565373517714, 0.604606144639181]",21.61,0.0,0.0,0.0,252.56033594998954,120.10657596995583,-1259.409651712774,196.71986629822413,698.3231141147079,0.0,0.0,0.0,0.0,0.0,0.0,3.3,21.69980221634535,0.0,21.80018895108904,0.0,3.3,21.61,21.41,22.19,21.61,21.97,2.27,3.3,0.0,-888.61,-692.98,0.0,243.0,73.0,52.0,0.0,0.0,0.0,0.0,0.0,0.0,0.0,0.0,0.0,0.0,0.0,0.0,0.0,0.0
522.0,2262.0,0.0,160.5366922799032,-0.0,0.0,861.5366922799033,0.0,1873.6463192225422,0.0,0.0,0.0,420.0720824807199,0.13694762553856094,0.14803142567522803,0.0,0.0,0.0,0.0,"[0.3865920799129263, 0.5179262785393206, 0.6683319745877156, 0.3721819070878709, 0.5246068884839836, 0.4246433997953325, 0.6580458399602414, 0.7315565373517714, 0.604606144639181]",21.61,0.0,0.0,0.0,435.957123110083,164.14987253217353,-1307.5485213347392,132.59154987492266,1008.4481226609273,0.0,0.0,0.0,0.0,0.0,0.0,2.6,21.67553039868599,0.0,21.76252029918512,0.0,2.6,21.61,21.4,22.13,21.64,21.99,1.64,2.6,0.0,-922.57,-719.47,0.0,351.0,86.0,130.0,0.0,0.0,0.0,0.0,0.0,0.0,0.0,0.0,0.0,0.0,0.0,0.0,0.0,0.0
523.0,2537.0,15983.781120500842,0.0,-0.0,0.0,0.0,0.0,13120.0759934085,0.0,0.0,0.0,0.0,0.13694762553856094,0.14803142567522803,0.0,58311.44885959334,14577.862214898336,72889.31107449168,"[0.3865920799129263, 0.5179262785393206, 0.6683319745877156, 0.3721819070878709, 0.5246068884839836, 0.4246433997953325, 0.6580458399602414, 0.7315565373517714, 0.604606144639181]",21.61,0.0,0.0,0.0,942.6368094295065,215.090754331865,-1355.6873909567048,158.4859637237014,701.3977004630909,0.0,0.0,0.0,0.0,0.0,0.0,1.9,21.685893537894884,0.0,21.79250227279993,0.0,1.9,21.61,21.33,22.25,21.6,22.03,0.89,1.9,314.34,-956.54,-745.96,0.0,468.0,93.0,444.0,0.0,0.0,0.0,0.0,0.0,0.0,0.0,0.0,0.0,0.0,0.0,0.0,0.0,0.0
524.0,3497.0,7539.758446201912,6512.059653970902,-0.0,0.0,0.0,0.0,17039.93287287059,0.0,0.0,0.0,17039.93287287059,0.13694762553856094,0.14803142567522803,0.0,0.0,0.0,0.0,"[0.3865920799129263, 0.5179262785393206, 0.6683319745877156, 0.3721819070878709, 0.5246068884839836, 0.4246433997953325, 0.6580458399602414, 0.7315565373517714, 0.604606144639181]",21.61,0.0,0.0,0.0,1147.5054770028564,187.5320536812245,-1396.9492792041037,91.43420254259368,2839.3630534942095,0.0,0.0,0.0,0.0,0.0,0.0,1.3,21.66048911938819,0.0,21.752704759259693,0.0,1.3,21.61,21.32,22.19,21.63,22.03,0.28,1.3,537.78,-985.65,-768.66,0.0,360.0,93.0,653.0,0.0,0.0,0.0,0.0,0.0,0.0,0.0,0.0,0.0,0.0,0.0,0.0,0.0,0.0
525.0,4037.0,1694.8486310060403,2812.2855898899156,-0.0,0.0,3623.6341717503224,0.0,7600.12615654276,0.0,0.0,0.0,7600.126156542761,0.0,0.14803142567522803,0.0,0.0,0.0,0.0,"[0.3865920799129263, 0.5179262785393206, 0.6683319745877156, 0.3721819070878709, 0.5246068884839836, 0.4246433997953325, 0.6580458399602414, 0.7315565373517714, 0.604606144639181]",22.39,0.0,0.0,0.0,1186.33910890538,244.23146994522892,-1498.2598794883916,-1264.8766351295087,0.0,0.0,0.0,0.0,0.0,0.0,0.0,0.6,21.913698138923497,0.0,21.797721567686253,0.0,0.6,22.39,21.34,22.26,22.15,22.52,-0.44,0.6,1755.98,-1057.13,-824.4,0.0,548.0,92.0,583.0,0.0,0.0,0.0,0.0,0.0,0.0,0.0,0.0,0.0,0.0,0.0,0.0,0.0,0.0
526.0,2887.0,14573.700185648733,8146.878523617736,-0.0,0.0,-3947.237578773645,0.0,23026.38707093154,46298.97,0.0,0.0,23026.387070931538,0.1432701047110434,0.14803142567522803,0.0,0.0,0.0,0.0,"[0.3865920799129263, 0.5179262785393206, 0.6683319745877156, 0.3721819070878709, 0.5246068884839836, 0.4246433997953325, 0.6580458399602414, 0.7315565373517714, 0.604606144639181]",21.81,0.0,0.0,0.0,913.4407212108207,224.3297217141694,-1506.5163928250547,-219.83707103733616,-46.51884707391809,0.0,0.0,0.0,0.0,0.0,0.0,-0.1,21.735144829529133,0.0,21.77995350091357,0.0,-0.1,21.81,21.34,22.22,21.68,22.06,-1.2,-0.1,0.0,-1062.96,-828.95,0.0,520.0,83.0,396.0,0.0,0.0,0.0,0.0,0.0,0.0,0.0,0.0,0.0,0.0,0.0,0.0,0.0,0.0
527.0,1441.0,0.0,1932.2648909874997,-0.0,0.0,3790.926970654208,0.0,5645.573996683148,0.0,0.0,0.0,5645.573996683148,0.0,0.14803142567522803,0.0,0.0,0.0,0.0,"[0.3865920799129263, 0.5179262785393206, 0.6683319745877156, 0.3721819070878709, 0.5246068884839836, 0.4246433997953325, 0.6580458399602414, 0.7315565373517714, 0.604606144639181]",22.39,0.0,0.0,0.0,394.5015124112211,182.0266416109473,-1587.660637357756,-1291.0025345853821,462.90032960412486,0.0,0.0,0.0,0.0,0.0,0.0,-0.7,21.904418454893595,0.0,21.780296122190407,0.0,-0.7,22.39,21.35,22.21,21.94,22.26,-1.78,-0.7,427.35,-1120.21,-873.6,0.0,480.0,51.0,35.0,0.0,0.0,0.0,0.0,0.0,0.0,0.0,0.0,0.0,0.0,0.0,0.0,0.0,0.0
528.0,3292.0,7370.573284446555,4310.389940739329,-5770.512286547269,0.0,0.0,0.0,12922.57323935863,0.0,0.0,0.0,12922.573239358628,0.0,0.14803142567522803,0.12566893424036274,0.0,0.0,0.0,"[0.3865920799129263, 0.5179262785393206, 0.6683319745877156, 0.3721819070878709, 0.5246068884839836, 0.4246433997953325, 0.6580458399602414, 0.7315565373517714, 0.604606144639181]",22.39,0.0,0.0,0.0,2328.5297640237673,150.63946475051628,-1642.676488354288,-1245.5601926657407,0.0,0.0,0.0,0.0,0.0,0.0,0.0,-1.5,21.9222856434874,0.0,21.80601374796613,0.0,-1.5,22.39,21.37,22.24,21.98,22.31,-2.53,-1.5,1535.03,-1159.03,-903.87,0.0,320.0,0.0,1561.0,0.0,0.0,0.0,0.0,0.0,0.0,0.0,0.0,0.0,0.0,0.0,0.0,0.0,0.0
529.0,1152.0,39138.61798627286,2950.155872050293,-20000.0,0.0,-16000.0,0.0,8985.20757202818,0.0,0.0,0.0,8985.20757202818,0.5807407407407407,0.14803142567522803,0.5612244897959183,0.0,0.0,0.0,"[0.3865920799129263, 0.5179262785393206, 0.6683319745877156, 0.3721819070878709, 0.5246068884839836, 0.4246433997953325, 0.6580458399602414, 0.7315565373517714, 0.604606144639181]",22.14,0.0,0.0,0.0,564.7175412978302,109.19067272716481,-1673.5555043625186,-770.6818918585371,0.0,0.0,0.0,0.0,0.0,0.0,0.0,-2.2,21.85389681213304,0.0,21.81059475682583,0.0,-2.2,22.14,21.38,22.24,21.85,22.2,-3.21,-2.2,27.77,-1180.82,-920.86,0.0,320.0,0.0,251.0,0.0,0.0,0.0,0.0,0.0,0.0,0.0,0.0,0.0,0.0,0.0,0.0,0.0,0.0
530.0,802.0,42993.241536142545,29514.737513055734,-0.0,0.0,-11551.020408163267,0.0,10454.960102566054,0.0,-80000.0,0.0,90454.96010256607,1.0,0.43840179604559837,0.5612244897959183,0.0,0.0,0.0,"[0.3865920799129263, 0.5179262785393206, 0.6683319745877156, 0.3721819070878709, 0.5246068884839836, 0.4246433997953325, 0.6580458399602414, 0.7315565373517714, 0.604606144639181]",21.89,0.0,0.0,0.0,265.8119585152668,102.16652629267318,-1711.6456760925466,-334.72594577429527,702.6067755792113,0.0,0.0,0.0,0.0,0.0,0.0,-3.0,21.77550302623261,0.0,21.797802533402866,0.0,-3.0,21.89,21.39,22.21,21.75,22.11,-4.03,-3.0,348.69,-1207.69,-941.82,0.0,320.0,0.0,29.0,0.0,0.0,0.0,0.0,0.0,0.0,0.0,0.0,0.0,0.0,0.0,0.0,0.0,0.0
531.0,1071.0,2297.1551707762355,3131.499740641787,-0.0,0.0,2644.6075472540124,0.0,9447.960897682988,0.0,0.0,0.0,9447.960897682986,0.9000526248203321,0.43840179604559837,0.5612244897959183,0.0,0.0,0.0,"[0.3865920799129263, 0.5179262785393206, 0.6683319745877156, 0.3721819070878709, 0.5246068884839836, 0.4246433997953325, 0.6580458399602414, 0.7315565373517714, 0.604606144639181]",22.39,0.0,0.0,0.0,299.4724971169068,102.95753377403486,-1780.216115845618,-1224.0124115229173,1099.0711966581543,0.0,0.0,0.0,0.0,0.0,0.0,-3.5,21.931696394369208,0.0,21.814995227993766,0.0,-3.5,22.39,21.41,22.22,22.01,22.33,-4.55,-3.5,1754.89,-1256.07,-979.55,0.0,320.0,0.0,54.0,0.0,0.0,0.0,0.0,0.0,0.0,0.0,0.0,0.0,0.0,0.0,0.0,0.0,0.0
532.0,1098.0,0.0,2872.2357642747897,-0.0,0.0,3943.2357642747897,0.0,8446.687515050853,0.0,0.0,0.0,8446.687515050853,0.7510263298741949,0.43840179604559837,0.5612244897959183,0.0,0.0,0.0,"[0.3865920799129263, 0.5179262785393206, 0.6683319745877156, 0.3721819070878709, 0.5246068884839836, 0.4246433997953325, 0.6580458399602414, 0.7315565373517714, 0.604606144639181]",22.17,0.0,0.0,0.0,290.04754630844764,102.73605167925359,-1792.708322798523,-781.7927811672226,215.36760259213432,0.0,0.0,0.0,0.0,0.0,0.0,-3.9,21.883281528005757,0.0,21.836443451179115,0.0,-3.9,22.17,21.42,22.25,21.94,22.28,-4.99,-3.9,279.09,-1264.89,-986.42,0.0,320.0,0.0,47.0,0.0,0.0,0.0,0.0,0.0,0.0,0.0,0.0,0.0,0.0,0.0,0.0,0.0,0.0
533.0,707.0,0.0,0.0,-0.0,0.0,3872.156688471198,0.0,2402.241019624077,0.0,0.0,0.0,0.0,0.6046863189720333,0.43840179604559837,0.5612244897959183,10676.626753884791,2669.156688471198,13345.783442355989,"[0.3865920799129263, 0.5179262785393206, 0.6683319745877156, 0.3721819070878709, 0.5246068884839836, 0.4246433997953325, 0.6580458399602414, 0.7315565373517714, 0.604606144639181]",21.61,0.0,0.0,0.0,238.31661329961133,110.01332050778093,-1782.0602361798278,185.46781074018566,698.3231141147079,0.0,0.0,0.0,0.0,0.0,0.0,-4.3,21.69980221634535,0.0,21.80018895108904,0.0,-4.3,21.61,21.41,22.19,21.61,21.97,-5.43,-4.3,0.0,-1257.38,-980.56,0.0,320.0,15.0,7.0,0.0,0.0,0.0,0.0,0.0,0.0,0.0,0.0,0.0,0.0,0.0,0.0,0.0,0.0
