,load_elec,grid,hp_elec,ev,pv,bat_pow,cool,load_th_sh,load_th_dhw,tes_pow,dh,hp_th,bat_soc,tes_soc,ev_soc,eh_th_in,eh_elec_in,eh_th_out,temp_slack,temp_zone_1,temp_zone_2,temp_update,Qsolar_1,QconvInt_1,QradInt_1,Qvent_1,Qconduc_1,Qheating_1,Qsolar_2,QconvInt_2,QradInt_2,Qvent_2,Qconduc_2,Qheating_2,temp_amb,temp_aggregate_1,temp_aggregate_2,temp_wall_1,temp_wall_2,_Tamb,_Tz_1,_TEW_1,_TIW_1,_T1_1,_T2_1,_Taeq_1,_Tvent_1,_Qheating_1,_Qinfvent_1,_Qenvelope_1,_Qsolar_1,_Qint_people_1,_Qint_lighting_1,_Qint_appliances_1,_Tz_2,_TEW_2,_TIW_2,_T1_2,_T2_2,_Taeq_2,_Tvent_2,_Qheating_2,_Qinfvent_2,_Qenvelope_2,_Qsolar_2,_Qint_people_2,_Qint_lighting_2,_Qint_appliances_2
390.0,846.0,66974.00588917396,65793.13585972809,-0.0,0.0,0.0,0.0,49507.76587774157,0.0,-80000.0,0.0,129507.76587774159,0.5,0.8266666666666667,0.8,0.0,0.0,0.0,"[2.0, 2.0, 2.0, 2.0, 2.0, 2.0, 2.0, 2.0]",20.0,0.0,0.0,0.0,222.4833327945158,83.82710322293565,-1356.774792242412,-2093.2163161791,11750.181239464711,0.0,0.0,0.0,0.0,0.0,0.0,-6.2,19.11740921046961,0.0,19.0,0.0,-6.2,20.0,18.0,20.0,20.0,20.0,-7.14,-6.2,10666.65,-931.21,-3361.5,0.0,268.0,16.0,18.0,0.0,0.0,0.0,0.0,0.0,0.0,0.0,0.0,0.0,0.0,0.0,0.0,0.0,0.0
391.0,1235.0,1241.2060301507538,0.0,-0.0,0.0,0.0,0.0,10581.752918457962,0.0,10581.752918457963,0.0,0.0,0.5,0.7816762205847876,0.8,0.0,0.0,0.0,"[2.0, 2.0, 2.0, 2.0, 2.0, 2.0, 2.0, 2.0]",24.0,0.0,0.0,0.0,337.36748990550194,37.30951781087793,-1569.0945116391256,-7762.7780819665595,354.2035991310506,0.0,0.0,0.0,0.0,0.0,0.0,-6.3,20.495294613600255,0.0,19.409191115810543,0.0,-6.3,24.0,18.12,20.7,21.54,22.85,-7.23,-6.3,0.0,-1076.94,-3887.54,0.0,107.0,4.0,187.0,0.0,0.0,0.0,0.0,0.0,0.0,0.0,0.0,0.0,0.0,0.0,0.0,0.0,0.0
392.0,3200.0,31323.357784041724,25666.68374784082,-0.0,0.0,-2300.0572472806975,0.0,50522.51767966028,0.0,0.0,0.0,50522.51767966029,0.5939190042639618,0.7816762205847876,0.8,0.0,0.0,0.0,"[2.0, 2.0, 2.0, 2.0, 2.0, 2.0, 2.0, 2.0]",20.0,0.0,0.0,1.7220382495792645,120.42074299585288,2.4423837844592744,-1356.774792242412,-1637.5768691399712,2869.6414726488915,0.0,0.0,0.0,0.0,0.0,0.0,-6.2,19.329189751729338,0.0,19.372649449077517,0.0,-6.2,20.0,18.04,20.71,19.0,20.26,-7.13,-6.2,10104.54,-931.21,-3361.5,3.07,0.0,0.0,87.0,0.0,0.0,0.0,0.0,0.0,0.0,0.0,0.0,0.0,0.0,0.0,0.0,0.0,0.0
393.0,2689.0,46357.527015156076,0.0,-0.0,9.311245825421599,0.0,0.0,39101.44556331514,0.0,0.0,0.0,0.0,0.5939190042639618,0.7816762205847876,0.8,173784.2025036229,43446.05062590572,217230.2531295286,"[2.0, 2.0, 2.0, 2.0, 2.0, 2.0, 2.0, 2.0]",20.0,0.0,0.0,27.756524806902686,76.12805591691848,1.5440357258075894,-1320.5250840527294,-1785.935112467816,11047.469960655073,0.0,0.0,0.0,0.0,0.0,0.0,-5.5,19.25722781833151,0.0,19.27949113874664,0.0,-5.5,20.0,17.91,20.65,19.15,20.49,-6.23,-5.5,7374.84,-906.33,-3271.69,49.44,0.0,0.0,55.0,0.0,0.0,0.0,0.0,0.0,0.0,0.0,0.0,0.0,0.0,0.0,0.0,0.0,0.0
394.0,4828.0,4806.280920119342,0.0,-0.0,45.75048448125476,0.0,0.0,40878.274765104994,0.0,40878.274765105,0.0,0.0,0.5939190042639618,0.6078740319576404,0.8,0.0,0.0,0.0,"[2.0, 2.0, 2.0, 2.0, 2.0, 2.0, 2.0, 2.0]",23.74,0.0,0.0,39.40765537035021,42.9085406077177,0.8702746818188201,-1488.4235905345427,-7137.660744360924,8134.331309239086,0.0,0.0,0.0,0.0,0.0,0.0,-5.0,20.521784530732923,0.0,19.61453669452232,0.0,-5.0,23.74,18.04,21.19,21.36,22.95,-5.59,-5.0,6829.65,-1021.57,-3687.67,70.19,0.0,0.0,31.0,0.0,0.0,0.0,0.0,0.0,0.0,0.0,0.0,0.0,0.0,0.0,0.0,0.0,0.0
395.0,6903.0,6570.0724143899815,0.0,-0.0,365.7779476819692,0.0,0.0,18406.727102102803,0.0,18406.727102102803,0.0,0.0,0.5939190042639618,0.5296141378160469,0.8,0.0,0.0,0.0,"[2.0, 2.0, 2.0, 2.0, 2.0, 2.0, 2.0, 2.0]",23.55,0.0,0.0,68.8233518989936,120.42074299585288,2.4423837844592744,-1447.6235071540768,-6397.253442436013,0.0,0.0,0.0,0.0,0.0,0.0,0.0,-4.4,20.67522541035069,0.0,19.94140271256269,0.0,-4.4,23.55,18.2,21.68,21.16,22.87,-4.91,-4.4,0.0,-993.57,-3586.59,122.58,0.0,0.0,87.0,0.0,0.0,0.0,0.0,0.0,0.0,0.0,0.0,0.0,0.0,0.0,0.0,0.0,0.0
396.0,6750.0,0.0,0.0,-0.0,562.32622387904,6187.67377612096,0.0,49018.73529076023,0.0,49018.73529076023,0.0,0.0,0.3308376362316081,0.32120114763424323,0.8,0.0,0.0,0.0,"[2.0, 2.0, 2.0, 2.0, 2.0, 2.0, 2.0, 2.0]",20.0,0.0,0.0,77.89455686578323,117.6524500534195,2.3862370307935445,-1242.8471379319806,-1042.0453420135466,10682.245766708917,0.0,0.0,0.0,0.0,0.0,0.0,-4.0,19.597091295254646,0.0,19.830002619589628,0.0,-4.0,20.0,18.13,21.53,19.09,20.73,-4.44,-4.0,2412.23,-853.02,-3079.24,138.73,0.0,0.0,85.0,0.0,0.0,0.0,0.0,0.0,0.0,0.0,0.0,0.0,0.0,0.0,0.0,0.0,0.0
397.0,8125.0,0.0,0.0,-0.0,343.6987958325775,7781.301204167423,0.0,15579.874956187767,0.0,15579.874956187767,0.0,0.0,0.0,0.2549601826844653,0.8,0.0,0.0,0.0,"[2.0, 2.0, 2.0, 2.0, 2.0, 2.0, 2.0, 2.0]",24.0,0.0,0.0,68.49069856068941,316.9695419086243,6.428803294726142,-1439.6312681045442,-6844.293395648075,0.0,0.0,0.0,0.0,0.0,0.0,0.0,-3.8,20.912686385628373,0.0,20.119558599997013,0.0,-3.8,24.0,18.28,21.96,21.62,23.49,-4.35,-3.8,0.0,-988.08,-3566.79,121.99,0.0,0.0,229.0,0.0,0.0,0.0,0.0,0.0,0.0,0.0,0.0,0.0,0.0,0.0,0.0,0.0,0.0
398.0,5283.0,21317.158448112474,0.0,-0.0,72.42734412808923,-16000.0,0.0,34615.28183529405,0.0,34615.28183529405,0.0,0.0,0.6533333333333333,0.1077863653575348,0.8,0.0,0.0,0.0,"[2.0, 2.0, 2.0, 2.0, 2.0, 2.0, 2.0, 2.0]",20.33,0.0,0.0,45.77173403993641,496.7628835382461,54.49042443259147,-1254.9937120670786,-1297.4184466984796,1232.1250132200926,0.0,0.0,0.0,0.0,0.0,0.0,-3.9,19.814715955855153,0.0,20.02213289008608,0.0,-3.9,20.33,18.24,21.81,19.29,21.01,-4.64,-3.9,0.0,-861.36,-3109.33,81.52,167.0,0.0,271.0,0.0,0.0,0.0,0.0,0.0,0.0,0.0,0.0,0.0,0.0,0.0,0.0,0.0,0.0
399.0,3570.0,74269.4947093906,61838.80515291349,-0.0,0.45383543719600605,-8489.795918367347,0.0,53514.59396440571,0.0,-80000.0,0.0,133514.5939644057,1.0,0.4344530320242015,0.8,0.0,0.0,0.0,"[2.0, 2.0, 2.0, 2.0, 2.0, 2.0, 2.0, 2.0]",20.0,0.0,0.0,16.301277515875142,239.31163989193996,44.21556851176278,-1253.2041974147471,-1037.8463916957714,10594.722209226022,0.0,0.0,0.0,0.0,0.0,0.0,-4.2,19.601301645474745,0.0,19.839607520363998,0.0,-4.2,20.0,18.13,21.55,19.22,20.89,-5.12,-4.2,2353.96,-860.13,-3104.9,29.03,148.0,0.0,95.0,0.0,0.0,0.0,0.0,0.0,0.0,0.0,0.0,0.0,0.0,0.0,0.0,0.0,0.0
400.0,2130.0,0.0,8234.158753999216,-0.0,0.0,10364.158753999216,0.0,48034.45501536373,0.0,30648.78574722945,0.0,17385.66926813427,0.559346991751734,0.30414356881319193,0.8,0.0,0.0,0.0,"[2.0, 2.0, 2.0, 2.0, 2.0, 2.0, 2.0, 2.0]",24.0,0.0,0.0,0.0,24.914636481900597,0.5053207829915738,-1486.2380357769935,-6861.106514627569,8321.939229164107,0.0,0.0,0.0,0.0,0.0,0.0,-4.7,20.90968357809149,0.0,20.118445095670765,0.0,-4.7,24.0,18.26,21.97,21.61,23.47,-5.79,-4.7,0.0,-1020.07,-3682.26,0.0,0.0,0.0,18.0,0.0,0.0,0.0,0.0,0.0,0.0,0.0,0.0,0.0,0.0,0.0,0.0,0.0,0.0
401.0,2712.0,8085.13950929606,18488.555057750364,-0.0,0.0,13155.841246000784,0.0,38331.8561312121,0.0,0.0,0.0,38331.8561312121,0.0,0.30414356881319193,0.8,0.0,0.0,0.0,"[2.0, 2.0, 2.0, 2.0, 2.0, 2.0, 2.0, 2.0]",24.0,0.0,0.0,0.0,138.1960976788463,6.8218305703862585,-1506.9521547425265,-6448.418831880111,0.0,0.0,0.0,0.0,0.0,0.0,0.0,-5.1,21.102739144664,0.0,20.41760520652067,0.0,-5.1,24.0,18.43,22.4,21.51,23.45,-6.15,-5.1,8887.24,-1034.29,-3733.58,0.0,0.0,8.0,99.0,0.0,0.0,0.0,0.0,0.0,0.0,0.0,0.0,0.0,0.0,0.0,0.0,0.0,0.0
402.0,3364.0,45595.08606400794,26003.110633687906,-0.0,0.0,-16000.0,0.0,9305.93347639469,0.0,-43614.07917080718,0.0,52920.01264720187,0.943471794208559,0.44266834840183367,0.8,0.0,0.0,0.0,"[2.0, 2.0, 2.0, 2.0, 2.0, 2.0, 2.0, 2.0]",20.37,0.0,0.0,0.0,661.8405626844061,107.09993261738094,-1339.6289540416137,-1024.2779241912497,804.5464384734436,0.0,0.0,0.0,0.0,0.0,0.0,-5.5,19.982480242232533,0.0,20.2707347457846,0.0,-5.5,20.37,18.36,22.18,19.39,21.21,-6.54,-5.5,0.0,-919.45,-3319.02,0.0,220.0,70.0,355.0,0.0,0.0,0.0,0.0,0.0,0.0,0.0,0.0,0.0,0.0,0.0,0.0,0.0,0.0
403.0,4132.0,5544.084646697349,0.0,-0.0,0.0,-1384.3642234638617,0.0,41368.251804459665,0.0,41368.25180445967,0.0,0.0,1.0,0.2667829240631446,0.8,0.0,0.0,0.0,"[2.0, 2.0, 2.0, 2.0, 2.0, 2.0, 2.0, 2.0]",20.0,0.0,0.0,0.0,670.8010898401775,98.59369943702282,-1336.060673276879,-780.4104054453624,7237.80118006306,0.0,0.0,0.0,0.0,0.0,0.0,-5.8,19.726792258896147,0.0,20.03853130958852,0.0,-5.8,20.0,18.22,21.86,19.26,21.02,-6.86,-5.8,0.0,-917.0,-3310.18,0.0,176.0,76.0,384.0,0.0,0.0,0.0,0.0,0.0,0.0,0.0,0.0,0.0,0.0,0.0,0.0,0.0,0.0
404.0,4758.0,0.0,0.0,-0.0,0.0,12108.797999999999,0.0,33344.15173965161,36753.99,62747.3437396516,0.0,0.0,0.4851701530612246,0.0,0.8,29403.192,7350.798,36753.99,"[2.0, 2.0, 2.0, 2.0, 2.0, 2.0, 2.0, 2.0]",22.74,0.0,0.0,0.0,946.246237612301,146.29036667606087,-1498.5239723872126,-4903.158541522458,8029.586412296824,0.0,0.0,0.0,0.0,0.0,0.0,-6.2,20.55780797845466,0.0,20.131983682331235,0.0,-6.2,22.74,18.25,22.01,20.86,22.72,-7.25,-6.2,0.0,-1028.5,-3712.7,0.0,170.0,163.0,577.0,0.0,0.0,0.0,0.0,0.0,0.0,0.0,0.0,0.0,0.0,0.0,0.0,0.0,0.0
405.0,4081.0,37436.15515105797,33167.97437530268,-0.0,0.0,0.0,0.0,44965.210702979944,0.0,-19058.10906755019,0.0,64023.31977053013,0.4851701530612246,0.07782061202582996,0.8,0.0,0.0,0.0,"[2.0, 2.0, 2.0, 2.0, 2.0, 2.0, 2.0, 2.0]",24.0,0.0,0.0,0.0,1008.3871291885031,143.67954263060435,-1584.6301008632752,-6513.3797825415,6950.10472120043,0.0,0.0,0.0,0.0,0.0,0.0,-6.6,21.077563112277502,0.0,20.386697637728098,0.0,-6.6,24.0,18.38,22.39,21.51,23.46,-7.66,-6.6,0.0,-1087.6,-3926.03,0.0,180.0,150.0,618.0,0.0,0.0,0.0,0.0,0.0,0.0,0.0,0.0,0.0,0.0,0.0,0.0,0.0,0.0
406.0,3390.0,73999.6199547169,70239.62185494331,-0.0,0.0,0.0,0.0,52903.33960465137,0.0,-80000.0,0.0,132903.33960465138,0.4851701530612246,0.4044872786924967,0.7464285714285714,0.0,0.0,0.0,"[2.0, 2.0, 2.0, 2.0, 2.0, 2.0, 2.0, 2.0]",24.0,0.0,0.0,0.0,691.4904370941534,129.9235879825004,-1605.3442198288083,-6191.938115365287,6979.631394622538,0.0,0.0,0.0,0.0,0.0,0.0,-7.0,21.228109908055412,0.0,20.619928324145647,0.0,-7.0,24.0,18.52,22.72,21.51,23.54,-7.99,-7.0,0.0,-1101.82,-3977.35,0.0,194.0,128.0,384.0,0.0,0.0,0.0,0.0,0.0,0.0,0.0,0.0,0.0,0.0,0.0,0.0,0.0,0.0
407.0,2223.0,13556.047296008666,11265.267059528624,-0.0,0.0,0.0,0.0,20993.299365392646,0.0,0.0,0.0,20993.299365392646,0.4851701530612246,0.4044872786924967,0.7464285714285714,0.0,0.0,0.0,"[2.0, 2.0, 2.0, 2.0, 2.0, 2.0, 2.0, 2.0]",24.0,0.0,0.0,0.0,425.00581647780143,84.95003829625027,-1620.8798090529579,-5907.328523713973,0.0,0.0,0.0,0.0,0.0,0.0,0.0,-7.3,21.361500778284636,0.0,20.8251989691541,0.0,-7.3,24.0,18.64,23.01,21.6,23.72,-8.31,-7.3,8452.61,-1112.48,-4015.84,0.0,202.0,45.0,196.0,0.0,0.0,0.0,0.0,0.0,0.0,0.0,0.0,0.0,0.0,0.0,0.0,0.0,0.0
408.0,1122.0,9751.067267466311,15999.913931128982,-0.0,0.0,7419.602000000003,0.0,29358.916841706516,0.0,0.0,0.0,29358.916841706512,0.1697108843537415,0.4044872786924967,0.7464285714285714,0.0,0.0,0.0,"[2.0, 2.0, 2.0, 2.0, 2.0, 2.0, 2.0, 2.0]",20.74,0.0,0.0,0.0,241.13288524880406,47.444006847542276,-1467.3932503508636,-1096.0930725552555,692.923933975844,0.0,0.0,0.0,0.0,0.0,0.0,-7.6,20.324156692599487,0.0,20.645680763595,0.0,-7.6,20.74,18.55,22.74,19.7,21.7,-8.53,-7.6,6261.48,-1007.14,-3635.57,0.0,160.0,0.0,90.0,0.0,0.0,0.0,0.0,0.0,0.0,0.0,0.0,0.0,0.0,0.0,0.0,0.0,0.0
409.0,1311.0,24631.407388437354,7197.250351495167,-0.0,0.0,-16000.0,0.0,13069.311009194196,0.0,0.0,0.0,13069.311009194196,0.8230442176870748,0.4044872786924967,0.7464285714285714,0.0,0.0,0.0,"[2.0, 2.0, 2.0, 2.0, 2.0, 2.0, 2.0, 2.0]",20.0,0.0,0.0,0.0,481.97437124050975,52.328774416460845,-1439.631268104544,-353.4007922633674,9864.31716958172,0.0,0.0,0.0,0.0,0.0,0.0,-7.8,19.931566429728605,0.0,20.36219504834506,0.0,-7.8,20.0,18.38,22.34,19.36,21.29,-8.74,-7.8,5742.78,-988.08,-3566.79,0.0,160.0,0.0,264.0,0.0,0.0,0.0,0.0,0.0,0.0,0.0,0.0,0.0,0.0,0.0,0.0,0.0,0.0
410.0,1155.0,0.0,0.0,-0.0,0.0,1155.0,0.0,42213.07368678352,0.0,42213.07368678352,0.0,0.0,0.7739370748299319,0.22500992458202249,0.7464285714285714,0.0,0.0,0.0,"[2.0, 2.0, 2.0, 2.0, 2.0, 2.0, 2.0, 2.0]",24.0,0.0,0.0,0.0,457.05973475860924,51.823453633469256,-1662.308046984024,-6316.303032324821,0.0,0.0,0.0,0.0,0.0,0.0,0.0,-8.1,21.1736783150712,0.0,20.539598499531397,0.0,-8.1,24.0,18.45,22.62,21.7,23.78,-9.01,-8.1,5181.47,-1140.91,-4118.48,0.0,160.0,0.0,246.0,0.0,0.0,0.0,0.0,0.0,0.0,0.0,0.0,0.0,0.0,0.0,0.0,0.0,0.0
411.0,2203.0,0.0,0.0,-0.0,0.0,2203.0,0.0,15406.57447939436,0.0,15406.574479394358,0.0,0.0,0.6802721088435374,0.15950578138731858,0.7464285714285714,0.0,0.0,0.0,"[2.0, 2.0, 2.0, 2.0, 2.0, 2.0, 2.0, 2.0]",20.53,0.0,0.0,0.0,205.14507699716984,46.71409904988778,-1482.4398251101381,-1166.9063229207402,1265.9962744365391,0.0,0.0,0.0,0.0,0.0,0.0,-8.1,20.082681302570304,0.0,20.372400676812354,0.0,-8.1,20.53,18.36,22.39,19.48,21.4,-9.01,-8.1,0.0,-1017.46,-3672.85,0.0,160.0,0.0,64.0,0.0,0.0,0.0,0.0,0.0,0.0,0.0,0.0,0.0,0.0,0.0,0.0,0.0,0.0
412.0,1425.0,0.0,0.0,-0.0,0.0,16000.0,0.0,24147.969388038116,0.0,11030.469388038118,0.0,0.0,0.0,0.11260752718647624,0.7464285714285714,58300.0,14575.0,72875.0,"[2.0, 2.0, 2.0, 2.0, 2.0, 2.0, 2.0, 2.0]",20.0,0.0,0.0,0.0,181.25033791511314,59.290971871011415,-1460.345387070077,-704.2496520533314,1925.7710228711537,0.0,0.0,0.0,0.0,0.0,0.0,-8.2,19.769656817897832,0.0,20.123255625651954,0.0,-8.2,20.0,18.2,22.05,19.29,21.16,-9.1,-8.2,0.0,-1002.3,-3618.11,0.0,160.0,26.0,44.0,0.0,0.0,0.0,0.0,0.0,0.0,0.0,0.0,0.0,0.0,0.0,0.0,0.0,0.0
413.0,2547.0,40172.277749138215,21424.416360392526,-0.0,0.0,-16000.0,0.0,37882.84636602088,0.0,0.0,0.0,37882.84636602088,0.6533333333333333,0.11260752718647624,0.7464285714285714,0.0,0.0,0.0,"[2.0, 2.0, 2.0, 2.0, 2.0, 2.0, 2.0, 2.0]",20.0,0.0,0.0,0.0,2302.272680519019,108.84048198101861,-1465.5239168114604,-1021.5127565585088,8683.148561140191,0.0,0.0,0.0,0.0,0.0,0.0,-8.3,19.62246209635092,0.0,19.902683888682787,0.0,-8.3,20.0,18.04,21.76,19.24,21.06,-9.19,-8.3,5073.49,-1005.85,-3630.94,0.0,160.0,39.0,1575.0,0.0,0.0,0.0,0.0,0.0,0.0,0.0,0.0,0.0,0.0,0.0,0.0,0.0,0.0
414.0,1248.0,0.0,0.0,-0.0,0.0,1248.0,0.0,12426.221404764703,0.0,12426.221404764703,0.0,0.0,0.6002721088435374,0.05977495318662631,0.7464285714285714,0.0,0.0,0.0,"[2.0, 2.0, 2.0, 2.0, 1.921851891179017, 2.0, 2.0, 2.0]",24.0,0.0,0.0,0.0,816.2821689464799,91.37884159097644,-1672.6651064667903,-6961.768072641183,0.0,0.0,0.0,0.0,0.0,0.0,0.0,-8.3,20.874203451712937,0.0,20.097267294534895,0.0,-8.3,24.0,18.12,22.08,21.38,23.31,-9.19,-8.3,0.0,-1148.02,-4144.14,0.0,202.0,42.0,479.0,0.0,0.0,0.0,0.0,0.0,0.0,0.0,0.0,0.0,0.0,0.0,0.0,0.0,0.0
415.0,775.0,16792.301936994245,6144.08595000815,-0.0,0.0,-9789.254477301123,0.0,10864.028227815947,0.0,0.0,0.0,10864.028227815947,1.0,0.05977495318662631,0.7464285714285714,0.0,0.0,0.0,"[2.0, 2.0, 2.0, 2.0, 1.921851891179017, 2.0, 2.0, 2.0]",20.41,0.0,0.0,0.0,326.9499664642394,135.08908931974764,-1486.5810172413733,-1572.7826718662204,1726.5835669499108,0.0,0.0,0.0,0.0,0.0,0.0,-8.3,19.774158388991857,0.0,19.97070759654124,0.0,-8.3,20.41,18.04,21.9,19.23,21.06,-9.19,-8.3,2093.41,-1020.31,-3683.11,0.0,296.0,99.0,70.0,0.0,0.0,0.0,0.0,0.0,0.0,0.0,0.0,0.0,0.0,0.0,0.0,0.0,0.0
416.0,1036.0,37101.87598832683,0.0,-0.0,0.0,0.0,0.0,32292.329947546656,0.0,0.0,0.0,0.0,1.0,0.05977495318662631,0.7464285714285714,143521.46643354077,35880.36660838519,179401.83304192594,"[2.0, 2.0, 2.0, 2.0, 1.921851891179017, 2.0, 2.0, 2.0]",20.0,0.0,0.0,1.7213341008391225,268.08731653039234,105.5558968915734,-1455.166857328694,-1219.574421583593,2302.2383498323065,0.0,0.0,0.0,0.0,0.0,0.0,-8.1,19.529651344199493,0.0,19.77675931592193,0.0,-8.1,20.0,17.9,21.65,19.16,20.99,-8.97,-8.1,0.0,-998.74,-3605.28,3.07,214.0,86.0,72.0,0.0,0.0,0.0,0.0,0.0,0.0,0.0,0.0,0.0,0.0,0.0,0.0,0.0,0.0
417.0,992.0,55406.34312719237,54137.31141155641,-0.0,0.0,0.0,0.0,36918.79257514441,0.0,-61903.935680257055,0.0,98822.72825540148,1.0,0.3125493572143426,0.7464285714285714,0.0,0.0,0.0,"[2.0, 2.0, 2.0, 2.0, 1.921851891179017, 2.0, 2.0, 2.0]",20.0,0.0,0.0,10.373015588966094,229.69546440769759,39.49924120384142,-1434.452738363161,-1466.391305392751,2621.241148230418,0.0,0.0,0.0,0.0,0.0,0.0,-7.7,19.41357474892737,0.0,19.604599711596812,0.0,-7.7,20.0,17.78,21.43,19.12,20.9,-8.57,-7.7,0.0,-984.53,-3553.96,18.47,114.0,9.0,105.0,0.0,0.0,0.0,0.0,0.0,0.0,0.0,0.0,0.0,0.0,0.0,0.0,0.0,0.0
418.0,3117.0,40527.2433505287,0.0,-0.0,0.48067468099075505,0.0,0.0,33487.27902761132,0.0,0.0,0.0,0.0,1.0,0.3125493572143426,0.7464285714285714,148832.35123382817,37208.08780845704,186040.4390422852,"[2.0, 2.0, 2.0, 2.0, 1.921851891179017, 2.0, 2.0, 2.0]",20.0,0.0,0.0,15.451507929101425,92.73781357151888,1.8809162478019708,-1418.9171491390111,-1681.681453098409,11592.898900297227,0.0,0.0,0.0,0.0,0.0,0.0,-7.4,19.312455175235495,0.0,19.45566278921219,0.0,-7.4,20.0,17.66,21.25,19.04,20.8,-8.26,-7.4,0.0,-973.86,-3515.47,27.52,0.0,0.0,67.0,0.0,0.0,0.0,0.0,0.0,0.0,0.0,0.0,0.0,0.0,0.0,0.0,0.0,0.0
419.0,5106.0,45808.17820295835,0.0,-0.0,1.9305567594572244,0.0,0.0,36427.5610818327,0.0,0.0,0.0,0.0,1.0,0.3125493572143426,0.7464285714285714,161900.27147481206,40475.067868703016,202375.33934351505,"[2.0, 2.0, 2.0, 2.0, 1.921851891179017, 2.0, 2.0, 2.0]",24.0,0.0,0.0,18.821801188973993,301.74393072524055,6.119996149564624,-1615.7012793115748,-7455.903410927117,138.8839103457814,0.0,0.0,0.0,0.0,0.0,0.0,-7.2,20.640696878935174,0.0,19.768732399230856,0.0,-7.2,24.0,17.8,21.73,21.41,23.38,-8.05,-7.2,0.0,-1108.93,-4003.01,33.52,0.0,0.0,218.0,0.0,0.0,0.0,0.0,0.0,0.0,0.0,0.0,0.0,0.0,0.0,0.0,0.0,0.0
420.0,5990.0,0.0,0.0,-0.0,4.7144626545153265,5985.285537345485,0.0,38561.51666162411,0.0,38561.516661624126,0.0,0.0,0.745523574092454,0.14859733059179112,0.7464285714285714,0.0,0.0,0.0,"[2.0, 2.0, 2.0, 2.0, 1.921851891179017, 2.0, 2.0, 2.0]",20.0,0.0,0.0,22.346994339810124,769.0026394822887,92.19296951912952,-1393.0245004320948,-1412.3556056652726,10526.039929746792,0.0,0.0,0.0,0.0,0.0,0.0,-6.9,19.435898590997397,0.0,19.655473627613148,0.0,-6.9,20.0,17.74,21.57,18.88,20.7,-7.73,-6.9,0.0,-956.09,-3451.32,39.8,288.0,0.0,404.0,0.0,0.0,0.0,0.0,0.0,0.0,0.0,0.0,0.0,0.0,0.0,0.0,0.0,0.0
421.0,6439.0,5185.734005158512,19817.686645863734,-0.0,5096.881310731014,16000.0,0.0,41843.22357364897,0.0,0.0,0.0,41843.22357364897,0.06525146524891656,0.14859733059179112,0.7464285714285714,0.0,0.0,0.0,"[2.0, 2.0, 2.0, 2.0, 1.921851891179017, 2.0, 2.0, 2.0]",24.0,0.0,0.0,867.461503649891,2026.3175840469737,70.88527650298481,-1486.2380357769935,-7213.609033098708,5638.621187947471,0.0,0.0,0.0,0.0,0.0,0.0,-4.7,20.74103300985645,0.0,19.928330666445902,0.0,-4.7,24.0,17.88,21.98,21.41,23.44,-4.36,-4.7,0.0,-1020.07,-3682.26,1544.99,112.0,0.0,1405.0,0.0,0.0,0.0,0.0,0.0,0.0,0.0,0.0,0.0,0.0,0.0,0.0,0.0,0.0
422.0,1497.0,31021.00833390624,18162.84753477012,-0.0,3855.6742897486147,-15061.730047215204,0.0,40080.702909936765,0.0,0.0,0.0,40080.702909936765,0.6802721088435374,0.14859733059179112,0.7464285714285714,0.0,0.0,0.0,"[2.0, 2.0, 2.0, 2.0, 1.921851891179017, 2.0, 2.0, 2.0]",24.0,0.0,0.0,832.6244006880851,366.58026542960187,41.21171719064619,-1434.452738363161,-6731.06419957253,4509.4130094217735,0.0,0.0,0.0,0.0,0.0,0.0,-3.7,20.96322662016479,0.0,20.269030079956565,0.0,-3.7,24.0,18.08,22.45,21.27,23.61,-3.72,-3.7,0.0,-984.53,-3553.96,1482.94,127.0,0.0,198.0,0.0,0.0,0.0,0.0,0.0,0.0,0.0,0.0,0.0,0.0,0.0,0.0,0.0,0.0
423.0,2089.0,7397.548847560749,21737.207214341837,-0.0,465.64611101889204,16000.0,0.0,48175.61693823528,0.0,0.0,0.0,48175.61693823528,0.0,0.14859733059179112,0.7464285714285714,0.0,0.0,0.0,"[2.0, 2.0, 2.0, 2.0, 1.921851891179017, 2.0, 2.0, 2.0]",22.92,0.0,0.0,471.7404849446303,443.94676818918776,41.71703797363779,-1373.3670972567245,-4753.486986107465,7439.256662671723,0.0,0.0,0.0,0.0,0.0,0.0,-3.6,20.80161487034187,0.0,20.484423874363486,0.0,-3.6,22.92,18.24,22.73,20.86,23.29,-4.39,-3.6,0.0,-942.6,-3402.61,840.19,123.0,0.0,256.0,0.0,0.0,0.0,0.0,0.0,0.0,0.0,0.0,0.0,0.0,0.0,0.0,0.0,0.0
424.0,2008.0,22087.308595813072,19968.872052834005,-0.0,0.0,0.0,0.0,42733.54581891401,0.0,0.0,0.0,42733.54581891402,0.0,0.14859733059179112,0.7464285714285714,0.0,0.0,0.0,"[2.0, 2.0, 2.0, 2.0, 1.921851891179017, 2.0, 2.0, 2.0]",24.0,0.0,0.0,0.8626207022771764,334.01639844887205,56.567854318223496,-1470.7024465528436,-6075.703531611157,0.0,0.0,0.0,0.0,0.0,0.0,0.0,-4.4,21.275976228221374,0.0,20.73704881750413,0.0,-4.4,24.0,18.42,23.06,21.58,23.99,-6.14,-4.4,0.0,-1009.41,-3643.77,1.54,123.0,34.0,173.0,0.0,0.0,0.0,0.0,0.0,0.0,0.0,0.0,0.0,0.0,0.0,0.0,0.0,0.0
425.0,2139.0,24446.20582603399,22184.97479690382,-0.0,0.0,0.0,0.0,46207.04636791708,0.0,0.0,0.0,46207.04636791708,0.0,0.14859733059179112,0.7464285714285714,0.0,0.0,0.0,"[2.0, 2.0, 2.0, 2.0, 1.921851891179017, 2.0, 2.0, 2.0]",20.67,0.0,0.0,0.0,568.4471007844162,104.34874168776015,-1329.4824462809531,-1145.312214564199,8961.520619423656,0.0,0.0,0.0,0.0,0.0,0.0,-5.0,20.231789267344098,0.0,20.56575093842774,0.0,-5.0,20.67,18.37,22.77,19.57,21.67,-6.69,-5.0,0.0,-912.48,-3293.89,0.0,94.0,135.0,347.0,0.0,0.0,0.0,0.0,0.0,0.0,0.0,0.0,0.0,0.0,0.0,0.0,0.0,0.0
426.0,2388.0,0.0,0.0,-0.0,0.0,1248.0,0.0,18656.12488217459,0.0,12426.221404764703,0.0,0.0,0.6002721088435374,0.05977495318662631,0.7464285714285714,0.0,0.0,0.0,"[2.0, 2.0, 2.0, 2.0, 1.921851891179017, 2.0, 2.0, 2.0]",24.0,0.0,0.0,0.0,332.195153092008,168.44026099719156,-1527.6662737080594,-6073.356632695538,7105.266167126541,0.0,0.0,0.0,0.0,0.0,0.0,-5.5,21.280479957296095,0.0,20.727630516960964,0.0,-5.5,24.0,18.47,22.98,21.68,23.9,-7.17,-5.5,0.0,-1048.5,-3784.9,0.0,234.0,198.0,96.0,0.0,0.0,0.0,0.0,0.0,0.0,0.0,0.0,0.0,0.0,0.0,0.0,0.0,0.0
427.0,3590.0,16792.301936994245,6144.08595000815,-0.0,0.0,-9789.254477301123,0.0,10864.028227815947,0.0,0.0,0.0,10864.028227815947,1.0,0.05977495318662631,0.7464285714285714,0.0,0.0,0.0,"[2.0, 2.0, 2.0, 2.0, 1.921851891179017, 2.0, 2.0, 2.0]",20.41,0.0,0.0,0.0,438.41018230432104,167.37347267754268,-1372.653362930942,-1562.553720542216,1726.5835669499108,0.0,0.0,0.0,0.0,0.0,0.0,-6.1,19.774158388991857,0.0,19.97070759654124,0.0,-6.1,20.41,18.04,21.9,19.23,21.06,-7.76,-6.1,2093.41,-942.11,-3400.84,0.0,220.0,199.0,180.0,0.0,0.0,0.0,0.0,0.0,0.0,0.0,0.0,0.0,0.0,0.0,0.0,0.0,0.0
428.0,4267.0,37101.87598832683,0.0,-0.0,0.0,0.0,0.0,32292.329947546656,0.0,0.0,0.0,0.0,1.0,0.05977495318662631,0.7464285714285714,143521.46643354077,35880.36660838519,179401.83304192594,"[2.0, 2.0, 2.0, 2.0, 1.921851891179017, 2.0, 2.0, 2.0]",20.0,0.0,0.0,0.0,763.75745285452,187.4178637362085,-1382.6674409493285,-1214.7889362548713,2302.2383498323065,0.0,0.0,0.0,0.0,0.0,0.0,-6.7,19.529651344199493,0.0,19.77675931592193,0.0,-6.7,20.0,17.9,21.65,19.16,20.99,-8.3,-6.7,0.0,-948.98,-3425.65,0.0,314.0,176.0,368.0,0.0,0.0,0.0,0.0,0.0,0.0,0.0,0.0,0.0,0.0,0.0,0.0,0.0,0.0
429.0,4169.0,55406.34312719237,54137.31141155641,-0.0,0.0,0.0,0.0,36918.79257514441,0.0,-61903.935680257055,0.0,98822.72825540148,1.0,0.3125493572143426,0.7464285714285714,0.0,0.0,0.0,"[2.0, 2.0, 2.0, 2.0, 1.921851891179017, 2.0, 2.0, 2.0]",20.0,0.0,0.0,0.0,969.4853283658864,147.44137512620833,-1408.5600896562446,-1467.8991699465369,2621.241148230418,0.0,0.0,0.0,0.0,0.0,0.0,-7.2,19.41357474892737,0.0,19.604599711596812,0.0,-7.2,20.0,17.78,21.43,19.12,20.9,-8.78,-7.2,0.0,-966.76,-3489.81,0.0,284.0,104.0,540.0,0.0,0.0,0.0,0.0,0.0,0.0,0.0,0.0,0.0,0.0,0.0,0.0,0.0,0.0
430.0,2305.0,40527.2433505287,0.0,-0.0,0.0,0.0,0.0,33487.27902761132,0.0,0.0,0.0,0.0,1.0,0.3125493572143426,0.7464285714285714,148832.35123382817,37208.08780845704,186040.4390422852,"[2.0, 2.0, 2.0, 2.0, 1.921851891179017, 2.0, 2.0, 2.0]",20.0,0.0,0.0,0.0,392.7333487541699,72.12050508363085,-1439.631268104544,-1689.2767269330088,11592.898900297227,0.0,0.0,0.0,0.0,0.0,0.0,-7.8,19.312455175235495,0.0,19.45566278921219,0.0,-7.8,20.0,17.66,21.25,19.04,20.8,-9.32,-7.8,0.0,-988.08,-3566.79,0.0,194.0,25.0,179.0,0.0,0.0,0.0,0.0,0.0,0.0,0.0,0.0,0.0,0.0,0.0,0.0,0.0,0.0
431.0,1695.0,45808.17820295835,0.0,-0.0,0.0,0.0,0.0,36427.5610818327,0.0,0.0,0.0,0.0,1.0,0.3125493572143426,0.7464285714285714,161900.27147481206,40475.067868703016,202375.33934351505,"[2.0, 2.0, 2.0, 2.0, 1.921851891179017, 2.0, 2.0, 2.0]",24.0,0.0,0.0,0.0,373.6466974142345,93.51241823027418,-1677.8436362081736,-7468.437730381925,138.8839103457814,0.0,0.0,0.0,0.0,0.0,0.0,-8.4,20.640696878935174,0.0,19.768732399230856,0.0,-8.4,24.0,17.8,21.73,21.41,23.38,-9.8,-8.4,0.0,-1151.58,-4156.97,0.0,308.0,8.0,107.0,0.0,0.0,0.0,0.0,0.0,0.0,0.0,0.0,0.0,0.0,0.0,0.0,0.0,0.0
432.0,1195.0,0.0,0.0,-0.0,0.0,5985.285537345485,0.0,38561.51666162411,0.0,38561.516661624126,0.0,0.0,0.745523574092454,0.14859733059179112,0.7464285714285714,0.0,0.0,0.0,"[2.0, 2.0, 2.0, 2.0, 1.921851891179017, 2.0, 2.0, 2.0]",20.0,0.0,0.0,0.0,185.76702640013605,46.321071774227676,-1506.9521547425263,-1432.3324486371685,10526.039929746792,0.0,0.0,0.0,0.0,0.0,0.0,-9.1,19.435898590997397,0.0,19.655473627613148,0.0,-9.1,20.0,17.74,21.57,18.88,20.7,-10.51,-9.1,0.0,-1034.29,-3733.58,0.0,160.0,0.0,50.0,0.0,0.0,0.0,0.0,0.0,0.0,0.0,0.0,0.0,0.0,0.0,0.0,0.0,0.0
433.0,745.0,5185.734005158512,19817.686645863734,-0.0,0.0,16000.0,0.0,41843.22357364897,0.0,0.0,0.0,41843.22357364897,0.06525146524891656,0.14859733059179112,0.7464285714285714,0.0,0.0,0.0,"[2.0, 2.0, 2.0, 2.0, 1.921851891179017, 2.0, 2.0, 2.0]",24.0,0.0,0.0,0.0,260.5109358458378,47.83703412320239,-1755.5215823289225,-7263.307348764297,5638.621187947471,0.0,0.0,0.0,0.0,0.0,0.0,-9.9,20.74103300985645,0.0,19.928330666445902,0.0,-9.9,24.0,17.88,21.98,21.41,23.44,-11.29,-9.9,0.0,-1204.89,-4349.43,0.0,160.0,0.0,104.0,0.0,0.0,0.0,0.0,0.0,0.0,0.0,0.0,0.0,0.0,0.0,0.0,0.0,0.0
434.0,802.0,31021.00833390624,18162.84753477012,-0.0,0.0,-15061.730047215204,0.0,40080.702909936765,0.0,0.0,0.0,40080.702909936765,0.6802721088435374,0.14859733059179112,0.7464285714285714,0.0,0.0,0.0,"[2.0, 2.0, 2.0, 2.0, 1.921851891179017, 2.0, 2.0, 2.0]",24.0,0.0,0.0,0.0,271.58410761557144,48.061621137865316,-1796.9498202599884,-6790.521550536242,4509.4130094217735,0.0,0.0,0.0,0.0,0.0,0.0,-10.7,20.96322662016479,0.0,20.269030079956565,0.0,-10.7,24.0,18.08,22.45,21.27,23.61,-12.01,-10.7,0.0,-1233.32,-4452.07,0.0,160.0,0.0,112.0,0.0,0.0,0.0,0.0,0.0,0.0,0.0,0.0,0.0,0.0,0.0,0.0,0.0,0.0
435.0,665.0,7397.548847560749,21737.207214341837,-0.0,0.0,16000.0,0.0,48175.61693823528,0.0,0.0,0.0,48175.61693823528,0.0,0.14859733059179112,0.7464285714285714,0.0,0.0,0.0,"[2.0, 2.0, 2.0, 2.0, 1.921851891179017, 2.0, 2.0, 2.0]",22.92,0.0,0.0,0.0,181.61458698648596,46.236851643729075,-1766.9353576018516,-4811.816157286245,7439.256662671723,0.0,0.0,0.0,0.0,0.0,0.0,-11.2,20.80161487034187,0.0,20.484423874363486,0.0,-11.2,22.92,18.24,22.73,20.86,23.29,-12.51,-11.2,0.0,-1212.72,-4377.71,0.0,160.0,0.0,47.0,0.0,0.0,0.0,0.0,0.0,0.0,0.0,0.0,0.0,0.0,0.0,0.0,0.0,0.0
436.0,845.0,22087.308595813072,19968.872052834005,-0.0,0.0,0.0,0.0,42733.54581891401,0.0,0.0,0.0,42733.54581891402,0.0,0.14859733059179112,0.7464285714285714,0.0,0.0,0.0,"[2.0, 2.0, 2.0, 2.0, 1.921851891179017, 2.0, 2.0, 2.0]",24.0,0.0,0.0,0.0,228.67556700785372,47.191346456046496,-1843.5565879324377,-6124.216560022808,0.0,0.0,0.0,0.0,0.0,0.0,0.0,-11.6,21.275976228221374,0.0,20.73704881750413,0.0,-11.6,24.0,18.42,23.06,21.58,23.99,-12.9,-11.6,0.0,-1265.31,-4567.54,0.0,160.0,0.0,81.0,0.0,0.0,0.0,0.0,0.0,0.0,0.0,0.0,0.0,0.0,0.0,0.0,0.0,0.0
437.0,954.0,24446.20582603399,22184.97479690382,-0.0,0.0,0.0,0.0,46207.04636791708,34248.43,0.0,0.0,46207.04636791708,0.0,0.14859733059179112,0.7464285714285714,0.0,0.0,0.0,"[2.0, 2.0, 2.0, 2.0, 1.921851891179017, 2.0, 2.0, 2.0]",20.67,0.0,0.0,0.0,177.1707483157376,54.68693807042152,-1691.9795281777808,-1192.2795667981513,8961.520619423656,0.0,0.0,0.0,0.0,0.0,0.0,-12.0,20.231789267344098,0.0,20.56575093842774,0.0,-12.0,20.67,18.37,22.77,19.57,21.67,-13.23,-12.0,0.0,-1161.28,-4192.0,0.0,160.0,17.0,42.0,0.0,0.0,0.0,0.0,0.0,0.0,0.0,0.0,0.0,0.0,0.0,0.0,0.0,0.0
438.0,2481.0,4217.095354435179,1715.0098776630027,-0.0,0.0,0.0,0.0,18656.12488217459,0.0,16293.96727301468,0.0,2362.157609159911,0.3466666666666667,0.0,0.023214285714285743,0.0,0.0,0.0,"[2.988061523873654, 2.0, 1.7751729778611995, 1.790786409164113, 1.921851891179017, 2.0, 2.0, 2.0]",24.0,0.0,0.0,0.0,2871.9582281461035,157.12669013354687,-1884.9848258635038,-6119.476994618727,7105.266167126541,0.0,0.0,0.0,0.0,0.0,0.0,-12.4,21.280479957296095,0.0,20.727630516960964,0.0,-12.4,24.0,18.47,22.98,21.68,23.9,-13.59,-12.4,0.0,-1293.75,-4670.18,0.0,300.0,38.0,1913.0,0.0,0.0,0.0,0.0,0.0,0.0,0.0,0.0,0.0,0.0,0.0,0.0,0.0,0.0
439.0,2861.0,8251.240675123767,13502.584471748149,-0.0,0.0,8153.600000000001,0.0,18211.5233369772,0.0,0.0,0.0,18211.523336977203,0.0,0.0,0.023214285714285743,0.0,0.0,0.0,"[2.988061523873654, 2.0, 1.7751729778611995, 1.790786409164113, 1.921851891179017, 2.0, 2.0, 2.0]",24.99,0.0,0.0,0.0,1803.3243025525362,79.89683046633454,-1951.6874749646151,-7366.331961146404,0.0,0.0,0.0,0.0,0.0,0.0,0.0,-12.7,21.693175372154347,0.0,20.93960033125962,0.0,-12.7,24.99,18.57,23.31,21.97,24.22,-13.89,-12.7,5096.84,-1339.53,-4835.44,0.0,93.0,37.0,1250.0,0.0,0.0,0.0,0.0,0.0,0.0,0.0,0.0,0.0,0.0,0.0,0.0,0.0,0.0
440.0,1167.0,56396.97921080623,35487.35291533529,-19460.64139941691,0.0,0.0,0.0,47863.337358666584,0.0,0.0,0.0,47863.33735866659,0.0,0.0,0.5,0.0,0.0,0.0,"[2.988061523873654, 2.0, 1.7751729778611995, 1.790786409164113, 1.921851891179017, 2.0, 2.0, 2.0]",21.53,0.0,0.0,1.7205016334219612,162.7464850893741,63.61427190327267,-1772.6405998656514,-2235.174616603315,7727.210766728635,0.0,0.0,0.0,0.0,0.0,0.0,-12.7,20.609471009482313,0.0,20.77889036293032,0.0,-12.7,21.53,18.47,23.09,19.97,22.14,-13.85,-12.7,0.0,-1216.64,-4391.84,3.06,121.0,56.0,48.0,0.0,0.0,0.0,0.0,0.0,0.0,0.0,0.0,0.0,0.0,0.0,0.0,0.0,0.0
441.0,2006.0,30560.718420415717,28401.91482831364,-0.0,0.0,0.0,0.0,39119.19114881963,0.0,0.0,0.0,39119.19114881963,0.0,0.0,0.5,0.0,0.0,0.0,"[2.988061523873654, 2.0, 1.7751729778611995, 1.790786409164113, 1.921851891179017, 2.0, 2.0, 2.0]",23.36,0.0,0.0,10.366362265562657,176.44225017299198,58.33647705869402,-1852.100012830657,-5013.969167710169,10112.71780689055,0.0,0.0,0.0,0.0,0.0,0.0,-12.4,21.1570187751111,0.0,20.83109031590861,0.0,-12.4,23.36,18.47,23.19,21.34,23.67,-13.51,-12.4,4930.32,-1271.18,-4588.71,18.46,85.0,64.0,76.0,0.0,0.0,0.0,0.0,0.0,0.0,0.0,0.0,0.0,0.0,0.0,0.0,0.0,0.0
442.0,3943.0,15896.37175024514,11874.417680957911,-0.0,0.5277894639969292,0.0,0.0,16468.353796582735,0.0,0.0,0.0,16468.353796582735,0.0,0.0,0.5,0.0,0.0,0.0,"[2.988061523873654, 2.0, 1.7751729778611995, 1.790786409164113, 1.921851891179017, 2.0, 2.0, 2.0]",24.99,0.0,0.0,15.443451120168087,286.51831954185684,43.42951396044255,-1930.9733559990823,-7185.053565864949,8770.137882187233,0.0,0.0,0.0,0.0,0.0,0.0,-12.3,21.77565863797257,0.0,21.082841190508155,0.0,-12.3,24.99,18.59,23.57,22.24,24.69,-13.35,-12.3,3674.01,-1325.31,-4784.12,27.51,132.0,5.0,137.0,0.0,0.0,0.0,0.0,0.0,0.0,0.0,0.0,0.0,0.0,0.0,0.0,0.0,0.0
443.0,1447.0,32005.25763174038,30403.225539122017,-0.0,4.994195540336922,0.0,0.0,42745.213171498544,0.0,0.0,0.0,42745.213171498544,0.0,0.0,0.5,0.0,0.0,0.0,"[2.988061523873654, 2.0, 1.7751729778611995, 1.790786409164113, 1.921851891179017, 2.0, 2.0, 2.0]",24.99,0.0,0.0,22.395011188750654,388.726608969069,31.554475560140542,-1920.6162965163155,-6854.439052122102,0.0,0.0,0.0,0.0,0.0,0.0,0.0,-12.1,21.928582490080355,0.0,21.31985181003149,0.0,-12.1,24.99,18.73,23.91,22.21,24.74,-13.12,-12.1,0.0,-1318.2,-4758.46,39.89,89.0,0.0,234.0,0.0,0.0,0.0,0.0,0.0,0.0,0.0,0.0,0.0,0.0,0.0,0.0,0.0,0.0
444.0,6341.0,98259.63354874586,91435.80423234026,-0.0,8.46885133814486,0.0,0.0,49425.247716327816,0.0,-80000.0,0.0,129425.24771632781,0.0,0.3266666666666667,0.5,0.0,0.0,0.0,"[2.988061523873654, 2.0, 1.7751729778611995, 1.790786409164113, 1.921851891179017, 2.0, 2.0, 2.0]",21.12,0.0,0.0,25.050473178619292,221.9733840945939,38.544746391523994,-1714.876825355003,-1158.8788521506078,0.0,0.0,0.0,0.0,0.0,0.0,0.0,-12.0,20.690402070739633,0.0,21.095652026346357,0.0,-12.0,21.12,18.62,23.58,19.93,22.3,-13.07,-12.0,103.45,-1176.99,-4248.73,44.62,128.0,0.0,93.0,0.0,0.0,0.0,0.0,0.0,0.0,0.0,0.0,0.0,0.0,0.0,0.0,0.0,0.0
445.0,2843.0,61560.232031556865,0.0,-0.0,5762.920019001414,-16000.0,0.0,43355.115801360436,0.0,0.0,0.0,0.0,0.6533333333333333,0.3266666666666667,0.5,192689.403561602,48172.3508904005,240861.7544520025,"[2.988061523873654, 2.0, 1.7751729778611995, 1.790786409164113, 1.921851891179017, 2.0, 2.0, 2.0]",19.91,0.0,0.0,913.0808232954894,105.19513181246919,2.1335766392977575,-1569.751987361885,197.73451750955766,0.0,0.0,0.0,0.0,0.0,0.0,0.0,-10.4,20.104544616879473,0.0,20.716966661430828,0.0,-10.4,19.91,18.39,23.04,19.33,21.59,-10.04,-10.4,620.24,-1077.39,-3889.17,1626.24,0.0,0.0,76.0,0.0,0.0,0.0,0.0,0.0,0.0,0.0,0.0,0.0,0.0,0.0,0.0,0.0,0.0
446.0,1093.0,19086.772066477377,13810.05487158589,-0.0,4401.512583808246,-8489.795918367347,0.0,22575.886783886293,0.0,0.0,0.0,22575.886783886293,1.0,0.3266666666666667,0.5,0.0,0.0,0.0,"[2.988061523873654, 2.0, 1.7751729778611995, 1.790786409164113, 1.921851891179017, 2.0, 2.0, 2.0]",19.8,0.0,0.0,946.8139182965813,78.89634885935189,1.600182479473319,-1527.534886045723,-6.851722365039709,0.0,0.0,0.0,0.0,0.0,0.0,0.0,-9.7,19.89214578256521,0.0,20.445236395793753,0.0,-9.7,19.8,18.21,22.68,19.31,21.78,-9.54,-9.7,3661.46,-1048.41,-3784.57,1686.32,0.0,0.0,57.0,0.0,0.0,0.0,0.0,0.0,0.0,0.0,0.0,0.0,0.0,0.0,0.0,0.0,0.0
447.0,2020.0,27599.71316766928,26261.72911635389,-0.0,820.0145145229535,0.0,0.0,24576.53704901888,0.0,-18104.272543221832,0.0,42680.80959224071,1.0,0.4005924462181559,0.5,0.0,0.0,0.0,"[2.988061523873654, 2.0, 1.7751729778611995, 1.790786409164113, 1.921851891179017, 2.0, 2.0, 2.0]",19.61,0.0,0.0,555.3700224510767,176.80649924436477,36.298876244894785,-1523.0958537218405,-83.95419711606662,0.0,0.0,0.0,0.0,0.0,0.0,0.0,-9.8,19.67316114337644,0.0,20.195328653801965,0.0,-9.8,19.61,18.04,22.35,19.13,21.53,-10.5,-9.8,0.0,-1045.37,-3773.58,989.14,123.0,0.0,63.0,0.0,0.0,0.0,0.0,0.0,0.0,0.0,0.0,0.0,0.0,0.0,0.0,0.0,0.0
448.0,1478.0,4576.57173801509,19075.688879325015,-0.0,0.0,16000.0,0.0,29729.008520401203,0.0,0.0,0.0,29729.008520401203,0.3197278911564626,0.4005924462181559,0.5,0.0,0.0,0.0,"[2.988061523873654, 2.0, 1.7751729778611995, 1.790786409164113, 1.921851891179017, 2.0, 2.0, 2.0]",19.25,0.0,0.0,0.8626142863433254,237.70894397789957,45.39465033874312,-1540.6517204262059,44.352625887827394,11942.960512878,0.0,0.0,0.0,0.0,0.0,0.0,-10.5,19.37681164069118,0.0,19.90294442649947,0.0,-10.5,19.25,17.84,21.97,18.79,20.98,-12.36,-10.5,0.0,-1057.42,-3817.07,1.54,94.0,31.0,119.0,0.0,0.0,0.0,0.0,0.0,0.0,0.0,0.0,0.0,0.0,0.0,0.0,0.0,0.0
449.0,2803.0,10384.733487138421,15049.809819702728,-0.0,0.0,7520.000000000001,0.0,22880.87370325726,0.0,0.0,0.0,22880.87370325726,0.0,0.4005924462181559,0.5,0.0,0.0,0.0,"[2.988061523873654, 2.0, 1.7751729778611995, 1.790786409164113, 1.921851891179017, 2.0, 2.0, 2.0]",24.24,0.0,0.0,0.0,433.82064400502367,104.57332870242308,-1819.6740889240305,-7373.883215730932,0.0,0.0,0.0,0.0,0.0,0.0,0.0,-10.9,20.9339216004433,0.0,20.14026403339851,0.0,-10.9,24.24,17.93,22.35,21.66,23.87,-12.69,-10.9,4793.04,-1248.92,-4508.37,0.0,158.0,107.0,219.0,0.0,0.0,0.0,0.0,0.0,0.0,0.0,0.0,0.0,0.0,0.0,0.0,0.0,0.0
450.0,3636.0,47218.64956388405,0.0,-0.0,0.0,-16000.0,0.0,24611.90068445816,0.0,0.0,0.0,0.0,0.6533333333333333,0.4005924462181559,0.5,109386.22526425852,27346.55631606463,136732.78158032315,"[2.875463595441545, 2.0, 1.775172977861196, 0.32777020122257383, 1.921851891179017, 2.0, 2.0, 2.0]",20.21,0.0,0.0,0.0,534.5719371467445,136.4927581613909,-1637.1226311944793,-1372.7069293573686,0.0,0.0,0.0,0.0,0.0,0.0,0.0,-11.4,19.68696166047871,0.0,19.976256920009753,0.0,-11.4,20.21,17.82,22.13,19.07,21.11,-13.2,-11.4,0.0,-1123.63,-4056.09,0.0,310.0,86.0,214.0,0.0,0.0,0.0,0.0,0.0,0.0,0.0,0.0,0.0,0.0,0.0,0.0,0.0,0.0
451.0,4853.0,108362.78033126584,102967.9664296095,-0.0,0.0,0.0,0.0,67712.00471130034,0.0,-80000.0,0.0,147712.00471130034,0.6533333333333333,0.7272591128848226,0.3622448979591837,0.0,0.0,0.0,"[2.875463595441545, 2.0, 1.775172977861196, 0.32777020122257383, 1.921851891179017, 2.0, 2.0, 2.0]",19.12,0.0,0.0,0.0,694.1858802223123,109.794976793336,-1601.4363150949507,-153.01044958977863,11440.856690117707,0.0,0.0,0.0,0.0,0.0,0.0,-11.8,19.16233610767281,0.0,19.64964029282664,0.0,-11.8,19.12,17.6,21.69,18.53,20.51,-13.53,-11.8,0.0,-1099.14,-3967.67,0.0,256.0,55.0,361.0,0.0,0.0,0.0,0.0,0.0,0.0,0.0,0.0,0.0,0.0,0.0,0.0,0.0,0.0
452.0,5888.0,0.0,0.0,-0.0,0.0,5888.0,0.0,42866.38366800618,0.0,42866.38366800618,0.0,0.0,0.4029931972789116,0.5450040802827555,0.3622448979591837,0.0,0.0,0.0,"[2.875463595441545, 2.0, 1.775172977861196, 0.32777020122257383, 1.921851891179017, 2.0, 2.0, 2.0]",24.0,0.0,0.0,0.0,770.8238848391528,102.15901829479667,-1879.8062961221203,-7412.133631078971,7502.760208851883,0.0,0.0,0.0,0.0,0.0,0.0,-12.3,20.681236373673645,0.0,19.879255364623322,0.0,-12.3,24.0,17.68,22.08,21.39,23.58,-14.1,-12.3,1310.09,-1290.19,-4657.35,0.0,178.0,78.0,455.0,0.0,0.0,0.0,0.0,0.0,0.0,0.0,0.0,0.0,0.0,0.0,0.0,0.0,0.0
453.0,3463.0,3480.402010050251,0.0,-0.0,0.0,0.0,0.0,19088.87812936384,0.0,19088.87812936384,0.0,0.0,0.4029931972789116,0.4638438841545079,0.3622448979591837,0.0,0.0,0.0,"[2.875463595441545, 2.0, 1.775172977861196, 0.32777020122257383, 1.921851891179017, 2.0, 2.0, 2.0]",23.57,0.0,0.0,0.0,1137.841249154402,142.64082768778837,-1878.3919393927404,-6457.7138037514305,9862.048908598637,0.0,0.0,0.0,0.0,0.0,0.0,-12.7,20.69740376987101,0.0,20.09852860824291,0.0,-12.7,23.57,17.78,22.42,20.96,23.2,-14.46,-12.7,3229.51,-1289.22,-4653.85,0.0,306.0,76.0,653.0,0.0,0.0,0.0,0.0,0.0,0.0,0.0,0.0,0.0,0.0,0.0,0.0,0.0,0.0
454.0,2192.0,118359.81529086495,115576.01621441063,-0.0,0.0,0.0,0.0,70373.29501429514,0.0,-80000.0,0.0,150373.29501429514,0.4029931972789116,0.7905105508211746,0.3622448979591837,0.0,0.0,0.0,"[2.875463595441545, 2.0, 1.775172977861196, 0.32777020122257383, 1.921851891179017, 2.0, 2.0, 2.0]",24.88,0.0,0.0,0.0,657.032474942285,120.74359375815347,-1971.749206459493,-8052.321073759715,9249.791408246616,0.0,0.0,0.0,0.0,0.0,0.0,-13.2,21.264800912770664,0.0,20.411705553235098,0.0,-13.2,24.88,17.93,22.89,21.78,24.18,-14.94,-13.2,3523.0,-1353.3,-4885.15,0.0,300.0,55.0,311.0,0.0,0.0,0.0,0.0,0.0,0.0,0.0,0.0,0.0,0.0,0.0,0.0,0.0,0.0
455.0,1575.0,942.9145728643215,0.0,-0.0,0.0,636.8000000000003,0.0,10898.431728939073,0.0,10898.431728939073,0.0,0.0,0.3759183673469388,0.7441736812253452,0.3622448979591837,0.0,0.0,0.0,"[2.875463595441545, 2.0, 1.775172977861196, 0.32777020122257383, 1.921851891179017, 2.0, 2.0, 2.0]",24.88,0.0,0.0,0.0,574.8578844405778,72.12050508363085,-1992.463325425026,-7646.320596309379,0.0,0.0,0.0,0.0,0.0,0.0,0.0,-13.6,21.455062864253758,0.0,20.7082622683589,0.0,-13.6,24.88,18.1,23.32,21.84,24.37,-15.4,-13.6,0.0,-1367.51,-4936.47,0.0,216.0,6.0,301.0,0.0,0.0,0.0,0.0,0.0,0.0,0.0,0.0,0.0,0.0,0.0,0.0,0.0,0.0
456.0,2382.0,40499.22930608908,37914.73315955864,-0.0,0.0,0.0,0.0,47161.27008393418,0.0,0.0,0.0,47161.270083934185,0.3759183673469388,0.7441736812253452,0.3622448979591837,0.0,0.0,0.0,"[2.875463595441545, 2.0, 1.775172977861196, 0.32777020122257383, 1.921851891179017, 2.0, 2.0, 2.0]",20.69,0.0,0.0,0.0,248.05361760488753,47.58437373170661,-1786.2943195019795,-1456.2120482580567,11942.14102020013,0.0,0.0,0.0,0.0,0.0,0.0,-13.8,20.138245465652627,0.0,20.49977088585163,0.0,-13.8,20.69,17.98,23.02,19.39,21.78,-15.58,-13.8,1474.92,-1226.01,-4425.67,0.0,160.0,0.0,95.0,0.0,0.0,0.0,0.0,0.0,0.0,0.0,0.0,0.0,0.0,0.0,0.0,0.0,0.0
457.0,878.0,882.4120603015075,0.0,-0.0,0.0,0.0,0.0,32014.33067510373,0.0,32014.33067510373,0.0,0.0,0.3759183673469388,0.6080583297155504,0.3622448979591837,0.0,0.0,0.0,"[2.875463595441545, 2.0, 1.775172977861196, 0.32777020122257383, 1.921851891179017, 2.0, 2.0, 2.0]",24.88,0.0,0.0,0.0,202.37678405473645,46.65795229622206,-2018.3559741319427,-7639.27780747997,0.0,0.0,0.0,0.0,0.0,0.0,0.0,-14.1,21.459835358036486,0.0,20.72032987900291,0.0,-14.1,24.88,18.08,23.36,22.06,24.67,-15.85,-14.1,4046.74,-1385.29,-5000.62,0.0,160.0,0.0,62.0,0.0,0.0,0.0,0.0,0.0,0.0,0.0,0.0,0.0,0.0,0.0,0.0,0.0,0.0
458.0,688.0,0.0,0.0,-0.0,0.0,688.0,0.0,29485.646606022096,0.0,29485.646606022096,0.0,0.0,0.3466666666666667,0.4826941859824633,0.3622448979591837,0.0,0.0,0.0,"[2.875463595441545, 2.0, 1.775172977861196, 0.32777020122257383, 1.921851891179017, 2.0, 2.0, 2.0]",20.5,0.0,0.0,0.0,202.37678405473645,46.65795229622206,-1802.1705093958703,-1174.1939067850867,0.0,0.0,0.0,0.0,0.0,0.0,0.0,-14.3,20.076890785443588,0.0,20.49467388890426,0.0,-14.3,20.5,17.96,23.03,19.3,21.72,-16.06,-14.3,0.0,-1236.91,-4465.0,0.0,160.0,0.0,62.0,0.0,0.0,0.0,0.0,0.0,0.0,0.0,0.0,0.0,0.0,0.0,0.0,0.0,0.0
459.0,543.0,33155.7741783835,16446.99530749158,-0.0,0.0,-16000.0,0.0,22334.113001730366,0.0,2816.8369359097082,0.0,19517.27606582066,1.0,0.47071783846584037,0.3622448979591837,0.0,0.0,0.0,"[2.875463595441545, 2.0, 1.775172977861196, 0.32777020122257383, 1.921851891179017, 2.0, 2.0, 2.0]",19.23,0.0,0.0,0.0,202.37678405473645,46.65795229622206,-1741.6566317148695,225.35709346790682,1036.8989198178203,0.0,0.0,0.0,0.0,0.0,0.0,-14.4,19.455157755006017,0.0,20.09282847444415,0.0,-14.4,19.23,17.71,22.47,18.66,20.97,-16.18,-14.4,0.0,-1195.37,-4315.08,0.0,160.0,0.0,62.0,0.0,0.0,0.0,0.0,0.0,0.0,0.0,0.0,0.0,0.0,0.0,0.0,0.0,0.0
460.0,956.0,960.8040201005025,0.0,-0.0,0.0,0.0,0.0,44766.602545341004,0.0,44766.602545341004,0.0,0.0,1.0,0.2803836439703429,0.3622448979591837,0.0,0.0,0.0,"[2.875463595441545, 2.0, 1.775172977861196, 0.32777020122257383, 1.921851891179017, 2.0, 2.0, 2.0]",19.12,0.0,0.0,0.0,221.75483465177024,47.05097957188217,-1741.2566181122984,-144.82593332916696,1618.6395137153395,0.0,0.0,0.0,0.0,0.0,0.0,-14.5,19.17549082326786,0.0,19.7166987833516,0.0,-14.5,19.12,17.46,21.97,18.53,20.74,-16.33,-14.5,242.07,-1195.1,-4314.08,0.0,160.0,0.0,76.0,0.0,0.0,0.0,0.0,0.0,0.0,0.0,0.0,0.0,0.0,0.0,0.0,0.0,0.0
461.0,904.0,908.5427135678392,0.0,-0.0,0.0,0.0,0.0,57509.32246479476,0.0,57509.32246479476,0.0,0.0,1.0,0.03587121852478694,0.3622448979591837,0.0,0.0,0.0,"[2.875463595441545, 2.0, 1.775172977861196, 0.32777020122257383, 1.921851891179017, 2.0, 2.0, 2.0]",19.12,0.0,0.0,0.0,202.37678405473645,46.65795229622206,-1746.4351478536814,-615.0795506696326,12601.04205467889,0.0,0.0,0.0,0.0,0.0,0.0,-14.6,18.957171405446278,0.0,19.391362435693935,0.0,-14.6,19.12,17.23,21.56,18.42,20.54,-16.42,-14.6,547.05,-1198.65,-4326.91,0.0,160.0,0.0,62.0,0.0,0.0,0.0,0.0,0.0,0.0,0.0,0.0,0.0,0.0,0.0,0.0,0.0,0.0
462.0,1257.0,98499.39703310998,0.0,-0.0,0.0,0.0,0.0,43975.46302703408,35518.79,-8291.03281611589,0.0,0.0,1.0,0.06972626919059349,0.5,386999.60019177775,96749.90004794444,483749.50023972214,"[2.464341986919411, 2.0, 1.775172977861196, 0.32777020122257383, 1.6545608317369123, 2.0, 2.0, 2.0]",24.0,0.0,0.0,0.0,196.5487989127714,44.412082149592834,-2004.0910099153184,-7838.464183657148,0.0,0.0,0.0,0.0,0.0,0.0,0.0,-14.7,20.490860647855133,0.0,19.646236761526545,0.0,-14.7,24.0,17.31,21.99,21.26,23.6,-16.45,-14.7,469.61,-1375.49,-4965.28,0.0,152.0,0.0,62.0,0.0,0.0,0.0,0.0,0.0,0.0,0.0,0.0,0.0,0.0,0.0,0.0,0.0,0.0
463.0,2286.0,2297.4874371859296,0.0,-0.0,0.0,0.0,0.0,16399.618513627593,0.0,16399.61851362759,0.0,0.0,1.0,0.0,0.5,0.0,0.0,0.0,"[2.464341986919411, 2.0, 1.775172977861196, 0.32777020122257383, 1.6545608317369123, 2.0, 2.0, 2.0]",19.54,0.0,0.0,0.0,85.8170812154354,1.7405493636376435,-1772.9037323656369,-1203.5534077102575,4539.80822748747,0.0,0.0,0.0,0.0,0.0,0.0,-14.7,19.09638486616491,0.0,19.449456316887442,0.0,-14.7,19.54,17.17,21.73,18.4,20.57,-16.51,-14.7,634.76,-1216.82,-4392.49,0.0,0.0,0.0,62.0,0.0,0.0,0.0,0.0,0.0,0.0,0.0,0.0,0.0,0.0,0.0,0.0,0.0,0.0
464.0,832.0,26779.07293101248,25813.17756635742,-0.0,0.0,0.0,0.0,31370.166816811547,0.0,0.0,0.0,31370.16681681155,1.0,0.0,0.5,0.0,0.0,0.0,"[2.464341986919411, 2.0, 1.775172977861196, 0.32777020122257383, 1.6545608317369123, 2.0, 2.0, 2.0]",20.3,0.0,0.0,7.186633468947635,85.8170812154354,1.7405493636376435,-1781.576611019778,-2620.86402714415,13257.760191948788,0.0,0.0,0.0,0.0,0.0,0.0,-14.1,19.205222919336762,0.0,19.293550299048427,0.0,-14.1,20.3,17.03,21.55,18.99,21.21,-15.83,-14.1,831.2,-1222.77,-4413.98,12.8,0.0,0.0,62.0,0.0,0.0,0.0,0.0,0.0,0.0,0.0,0.0,0.0,0.0,0.0,0.0,0.0,0.0
465.0,1305.0,16159.449246694954,31795.668420628397,-0.0,1022.0164201669168,16000.0,0.0,50159.03056531989,0.0,0.0,0.0,50159.03056531989,0.3197278911564626,0.0,0.5,0.0,0.0,0.0,"[2.464341986919411, 2.0, 1.775172977861196, 0.32777020122257383, 1.6545608317369123, 2.0, 2.0, 2.0]",24.46,0.0,0.0,749.6532918651599,85.8170812154354,1.7405493636376435,-1800.2817891888067,-8579.389387613066,2112.809725539008,0.0,0.0,0.0,0.0,0.0,0.0,-10.3,20.59305064484269,0.0,19.630560028818827,0.0,-10.3,24.46,17.18,22.08,21.41,23.85,-10.68,-10.3,0.0,-1235.61,-4460.32,1335.17,0.0,0.0,62.0,0.0,0.0,0.0,0.0,0.0,0.0,0.0,0.0,0.0,0.0,0.0,0.0,0.0,0.0
466.0,4636.0,53495.99709664922,53103.540206165664,-0.0,4511.023094999692,0.0,0.0,20985.691896199827,0.0,-80000.0,0.0,100985.69189619983,0.3197278911564626,0.3266666666666667,0.5,0.0,0.0,0.0,"[2.464341986919411, 2.0, 1.775172977861196, 0.32777020122257383, 1.6545608317369123, 2.0, 2.0, 2.0]",21.05,0.0,0.0,1145.3364136455964,85.8170812154354,1.7405493636376435,-1447.3950331829417,-3172.862285197011,0.0,0.0,0.0,0.0,0.0,0.0,0.0,-6.9,19.666596648644926,0.0,19.688851220026365,0.0,-6.9,21.05,17.23,22.15,19.33,21.92,-6.45,-6.9,0.0,-993.41,-3586.02,2039.9,0.0,0.0,62.0,0.0,0.0,0.0,0.0,0.0,0.0,0.0,0.0,0.0,0.0,0.0,0.0,0.0,0.0
467.0,5646.0,0.0,0.0,-0.0,6187.3987939335375,-541.3987939335375,0.0,25756.75650721396,0.0,25756.756507213955,0.0,0.0,0.3418350085754154,0.21715664750334207,0.5,0.0,0.0,0.0,"[2.464341986919411, 2.0, 1.775172977861196, 0.32777020122257383, 1.6545608317369123, 2.0, 2.0, 2.0]",19.54,0.0,0.0,1400.4572423911136,85.8170812154354,1.7405493636376435,-1229.1581095203953,-960.4407640498913,1541.2358911824633,0.0,0.0,0.0,0.0,0.0,0.0,-4.2,19.16486455920167,0.0,19.568378146224568,0.0,-4.2,19.54,17.19,21.95,18.63,21.29,-3.16,-4.2,0.0,-843.62,-3045.32,2494.28,0.0,0.0,62.0,0.0,0.0,0.0,0.0,0.0,0.0,0.0,0.0,0.0,0.0,0.0,0.0,0.0,0.0
468.0,7129.0,26581.37994110348,10118.558669499502,-0.0,6799.085628101538,-16000.0,0.0,23486.599613938546,0.0,0.0,0.0,23486.599613938546,0.9951683419087487,0.21715664750334207,0.5,0.0,0.0,0.0,"[2.464341986919411, 2.0, 1.775172977861196, 0.32777020122257383, 1.6545608317369123, 2.0, 2.0, 2.0]",20.0,0.0,0.0,1466.1507720090187,85.8170812154354,1.7405493636376435,-1165.169191811232,-1710.7129431982387,10758.430074466965,0.0,0.0,0.0,0.0,0.0,0.0,-2.5,19.275774927429012,0.0,19.52791739745818,0.0,-2.5,20.0,17.2,21.86,18.98,21.69,-1.31,-2.5,0.0,-799.71,-2886.79,2611.28,0.0,0.0,62.0,0.0,0.0,0.0,0.0,0.0,0.0,0.0,0.0,0.0,0.0,0.0,0.0,0.0,0.0
469.0,3096.0,0.0,3073.7956443010453,-0.0,6169.795644301045,0.0,0.0,24444.2552428369,0.0,17104.418626040144,0.0,7339.836616796754,0.9951683419087487,0.14443377919534828,0.5,0.0,0.0,0.0,"[2.464341986919411, 2.0, 1.775172977861196, 0.32777020122257383, 1.6545608317369123, 2.0, 2.0, 2.0]",24.46,0.0,0.0,1324.271971204997,88.5853741578688,1.7966961173033764,-1360.1067611712306,-7949.422229813152,7744.381305428005,0.0,0.0,0.0,0.0,0.0,0.0,-1.8,20.853186118288328,0.0,20.004573120745896,0.0,-1.8,24.46,17.51,22.5,21.67,24.6,-0.87,-1.8,0.0,-933.5,-3369.76,2358.59,0.0,0.0,64.0,0.0,0.0,0.0,0.0,0.0,0.0,0.0,0.0,0.0,0.0,0.0,0.0,0.0,0.0
470.0,1812.0,2810.7969736160944,21624.49022383177,-0.0,4639.747235083754,16000.0,0.0,50258.55840752385,0.0,-965.6931702853616,0.0,51224.251577809206,0.3148962330652113,0.14837702630734684,0.5,0.0,0.0,0.0,"[2.464341986919411, 2.0, 1.775172977861196, 0.32777020122257383, 1.6545608317369123, 2.0, 2.0, 2.0]",24.46,0.0,0.0,1070.1309825427913,287.3925173131517,42.531165901790864,-1370.4638206539971,-7275.594039157812,7125.580593093691,0.0,0.0,0.0,0.0,0.0,0.0,-2.0,21.169017271496866,0.0,20.474403953049066,0.0,-2.0,24.46,17.85,23.1,21.61,24.56,-1.64,-2.0,0.0,-940.61,-3395.42,1905.95,138.0,0.0,135.0,0.0,0.0,0.0,0.0,0.0,0.0,0.0,0.0,0.0,0.0,0.0,0.0,0.0,0.0
471.0,3362.0,77812.78217371156,59112.94003212044,-0.0,1051.2217692774275,-16000.0,0.0,50446.9567904851,0.0,-80000.0,0.0,130446.95679048513,0.9682295663985446,0.47504369297401355,0.5,0.0,0.0,0.0,"[2.464341986919411, 2.0, 1.775172977861196, 0.32777020122257383, 1.6545608317369123, 2.0, 2.0, 2.0]",24.46,0.0,0.0,596.5395264950015,664.1717567411922,45.56309059974031,-1458.4988262575123,-6738.718617125948,6824.447036058134,0.0,0.0,0.0,0.0,0.0,0.0,-3.7,21.427181569493712,0.0,20.85204770257556,0.0,-3.7,24.46,18.15,23.55,21.72,24.67,-4.21,-3.7,0.0,-1001.03,-3613.53,1062.46,115.0,3.0,419.0,0.0,0.0,0.0,0.0,0.0,0.0,0.0,0.0,0.0,0.0,0.0,0.0,0.0,0.0
472.0,3176.0,3191.959798994975,0.0,-0.0,0.0,0.0,0.0,14482.443344827527,0.0,14482.443344827525,0.0,0.0,0.9682295663985446,0.41346867875280807,0.5,0.0,0.0,0.0,"[2.464341986919411, 2.0, 1.775172977861196, 0.32777020122257383, 1.6545608317369123, 2.0, 2.0, 2.0]",24.46,0.0,0.0,0.8626094743929371,459.0266797440224,81.38471943847641,-1572.426480567944,-6361.405092695199,0.0,0.0,0.0,0.0,0.0,0.0,0.0,-5.9,21.61382381536204,0.0,21.11935327194747,0.0,-5.9,24.46,18.39,23.85,21.76,24.58,-7.57,-5.9,1991.91,-1079.22,-3895.8,1.54,186.0,45.0,229.0,0.0,0.0,0.0,0.0,0.0,0.0,0.0,0.0,0.0,0.0,0.0,0.0,0.0,0.0
473.0,6976.0,0.0,5025.968515316439,-0.0,0.0,12001.96851531644,0.0,9988.987194780266,0.0,0.0,0.0,9988.987194780266,0.4579417893867913,0.41346867875280807,0.5,0.0,0.0,0.0,"[2.464341986919411, 2.0, 1.775172977861196, 0.32777020122257383, 1.6545608317369123, 2.0, 2.0, 2.0]",21.03,0.0,0.0,0.0,889.0591334067686,76.80875901471934,-1399.5763952098582,-1282.9981686174253,0.0,0.0,0.0,0.0,0.0,0.0,0.0,-6.0,20.52569333846662,0.0,20.920464807799476,0.0,-6.0,21.03,18.36,23.49,19.76,22.2,-7.64,-6.0,0.0,-960.59,-3467.55,0.0,85.0,72.0,590.0,0.0,0.0,0.0,0.0,0.0,0.0,0.0,0.0,0.0,0.0,0.0,0.0,0.0,0.0
474.0,3728.0,22954.49761417361,3111.725126102745,-0.0,0.0,-16000.0,0.0,6184.476154912665,0.0,0.0,0.0,6184.476154912665,0.9527717213595804,0.3871741372778393,0.5,0.0,0.0,0.0,"[2.1211538353491264, 2.0, 1.7484412930112327, 0.32777020122257383, 1.6545608317369123, 1.791922231504973, 2.0, 2.0]",20.23,0.0,0.0,0.0,992.1416206052756,90.42434677865901,-1358.1934943228005,-471.4901316787533,0.0,0.0,0.0,0.0,0.0,0.0,0.0,-6.0,20.100981569334536,0.0,20.599473389924533,0.0,-6.0,20.23,18.23,22.97,19.35,21.64,-7.59,-6.0,0.0,-932.19,-3365.02,0.0,117.0,78.0,647.0,0.0,0.0,0.0,0.0,0.0,0.0,0.0,0.0,0.0,0.0,0.0,0.0,0.0,0.0
475.0,3494.0,32847.61709671242,29189.379011228855,-0.0,0.0,0.0,0.0,57734.89218044585,0.0,0.0,0.0,57734.892180445866,0.9527717213595804,0.3871741372778393,0.5,0.0,0.0,0.0,"[2.1211538353491264, 2.0, 1.7484412930112327, 0.32777020122257383, 1.6545608317369123, 1.791922231504973, 2.0, 2.0]",19.88,0.0,0.0,0.0,800.9837079488219,80.43022462615897,-1345.3222751046478,-370.12333545302243,9701.037957613402,0.0,0.0,0.0,0.0,0.0,0.0,-6.1,19.79841346927484,0.0,20.275250536358268,0.0,-6.1,19.88,18.07,22.48,19.11,21.23,-7.59,-6.1,0.0,-923.35,-3333.13,0.0,162.0,42.0,489.0,0.0,0.0,0.0,0.0,0.0,0.0,0.0,0.0,0.0,0.0,0.0,0.0,0.0,0.0
476.0,4143.0,18081.37767941281,13847.970791015741,-0.0,0.0,0.0,0.0,27390.479949220353,0.0,0.0,0.0,27390.479949220357,0.9527717213595804,0.3871741372778393,0.5,0.0,0.0,0.0,"[2.1211538353491264, 2.0, 1.7484412930112327, 0.32777020122257383, 1.6545608317369123, 1.791922231504973, 2.0, 2.0]",24.0,0.0,0.0,0.0,823.7128500024853,118.83460413351864,-1558.737452156359,-6508.796464780341,7389.03246705944,0.0,0.0,0.0,0.0,0.0,0.0,-6.1,21.07946912742982,0.0,20.450645376553286,0.0,-6.1,24.0,18.18,22.72,21.55,23.79,-7.59,-6.1,0.0,-1069.83,-3861.88,0.0,316.0,36.0,425.0,0.0,0.0,0.0,0.0,0.0,0.0,0.0,0.0,0.0,0.0,0.0,0.0,0.0,0.0
477.0,3800.0,0.0,5254.71031184258,-0.0,0.0,9054.71031184258,0.0,25827.000954369312,0.0,15483.584670452494,0.0,10343.416283916822,0.5677925414343007,0.3213425698014256,0.5,0.0,0.0,0.0,"[2.1211538353491264, 2.0, 1.7484412930112327, 0.32777020122257383, 1.6545608317369123, 1.791922231504973, 2.0, 2.0]",24.12,0.0,0.0,0.0,702.4179092353379,139.18780233734594,-1570.189969294123,-6366.347496919243,0.0,0.0,0.0,0.0,0.0,0.0,0.0,-6.2,21.267550740934414,0.0,20.681362099168457,0.0,-6.2,24.12,18.34,23.02,21.51,23.77,-7.68,-6.2,4.71,-1077.69,-3890.26,0.0,330.0,74.0,326.0,0.0,0.0,0.0,0.0,0.0,0.0,0.0,0.0,0.0,0.0,0.0,0.0,0.0,0.0
478.0,2733.0,17242.31816681737,11668.504925144836,-0.0,0.0,-2754.6016508384496,0.0,22857.144485607103,0.0,0.0,0.0,22857.144485607103,0.6802721088435374,0.3213425698014256,0.3201530612244898,0.0,0.0,0.0,"[2.1211538353491264, 2.0, 1.7484412930112327, 0.32777020122257383, 1.6545608317369123, 1.791922231504973, 2.0, 2.0]",20.82,0.0,0.0,0.0,414.0783443366169,89.16104482118007,-1404.4624942073256,-1458.162701016467,596.2547051191018,0.0,0.0,0.0,0.0,0.0,0.0,-6.3,20.238264238189124,0.0,20.523842744488647,0.0,-6.3,20.82,18.29,22.76,19.61,21.73,-7.74,-6.3,2011.97,-963.94,-3479.65,0.0,162.0,75.0,206.0,0.0,0.0,0.0,0.0,0.0,0.0,0.0,0.0,0.0,0.0,0.0,0.0,0.0,0.0
479.0,1628.0,15005.01659989525,29301.991516895774,-0.0,0.0,16000.0,0.0,57398.94340486014,0.0,0.0,0.0,57398.94340486015,0.0,0.3213425698014256,0.3201530612244898,0.0,0.0,0.0,"[2.1211538353491264, 2.0, 1.7484412930112327, 0.32777020122257383, 1.6545608317369123, 1.791922231504973, 2.0, 2.0]",20.0,0.0,0.0,0.0,263.4977782310949,61.28418162614485,-1361.9533219837954,-556.0869937829664,10459.71009283658,0.0,0.0,0.0,0.0,0.0,0.0,-6.3,19.833747311272603,0.0,20.252857382804777,0.0,-6.3,20.0,18.15,22.35,19.24,21.27,-7.66,-6.3,1878.4,-934.77,-3374.33,0.0,182.0,15.0,93.0,0.0,0.0,0.0,0.0,0.0,0.0,0.0,0.0,0.0,0.0,0.0,0.0,0.0,0.0
480.0,1466.0,1473.3668341708542,0.0,-0.0,0.0,0.0,0.0,36517.15496372857,0.0,36517.15496372857,0.0,0.0,0.0,0.16608255720053886,0.3201530612244898,0.0,0.0,0.0,"[2.1211538353491264, 2.0, 1.7484412930112327, 0.32777020122257383, 1.6545608317369123, 1.791922231504973, 2.0, 2.0]",24.12,0.0,0.0,0.0,224.88737666557645,53.14290234461393,-1580.5470287768894,-6651.508456038317,7955.564427708255,0.0,0.0,0.0,0.0,0.0,0.0,-6.4,21.13548697859704,0.0,20.46362153326698,0.0,-6.4,24.12,18.27,22.66,21.7,23.89,-7.83,-6.4,735.83,-1084.8,-3915.92,0.0,160.0,12.0,77.0,0.0,0.0,0.0,0.0,0.0,0.0,0.0,0.0,0.0,0.0,0.0,0.0,0.0,0.0
481.0,1131.0,1136.6834170854272,0.0,-0.0,0.0,0.0,0.0,19865.877570798468,0.0,19865.877570798468,0.0,0.0,0.0,0.08161879201857258,0.3201530612244898,0.0,0.0,0.0,"[2.1211538353491264, 2.0, 1.7484412930112327, 0.32777020122257383, 1.6545608317369123, 1.791922231504973, 2.0, 2.0]",24.12,0.0,0.0,0.0,182.99873345770263,46.26492502056194,-1580.5470287768894,-6304.587533851989,0.0,0.0,0.0,0.0,0.0,0.0,0.0,-6.4,21.296492359191284,0.0,20.70848659678869,0.0,-6.4,24.12,18.43,22.99,21.59,23.8,-7.75,-6.4,1069.55,-1084.8,-3915.92,0.0,160.0,0.0,48.0,0.0,0.0,0.0,0.0,0.0,0.0,0.0,0.0,0.0,0.0,0.0,0.0,0.0,0.0
482.0,903.0,74207.1143601575,56933.0787883567,-0.0,0.0,-16000.0,0.0,30982.03347164876,0.0,-80000.0,0.0,110982.03347164876,0.6533333333333333,0.4082854586852393,0.3201530612244898,0.0,0.0,0.0,"[2.1211538353491264, 2.0, 1.7484412930112327, 0.32777020122257383, 1.6545608317369123, 1.791922231504973, 2.0, 2.0]",20.56,0.0,0.0,0.0,306.18776939598894,48.76345555868694,-1396.2013300173012,-1026.885087945928,4857.593969904862,0.0,0.0,0.0,0.0,0.0,0.0,-6.4,20.178301771585836,0.0,20.529134035009932,0.0,-6.4,20.56,18.36,22.7,19.51,21.59,-7.72,-6.4,1224.87,-958.27,-3459.19,0.0,160.0,0.0,137.0,0.0,0.0,0.0,0.0,0.0,0.0,0.0,0.0,0.0,0.0,0.0,0.0,0.0,0.0
483.0,896.0,69992.03966599902,68746.07946766903,-0.0,0.0,0.0,0.0,54664.987613401085,0.0,-80000.0,0.0,134664.98761340108,0.6533333333333333,0.734952125351906,0.3201530612244898,0.0,0.0,0.0,"[2.1211538353491264, 2.0, 1.7484412930112327, 0.32777020122257383, 1.6545608317369123, 1.791922231504973, 2.0, 2.0]",21.86,0.0,0.0,0.0,207.9133699396032,46.770245803553514,-1458.1444151416247,-3128.8634680858836,338.16671341010164,0.0,0.0,0.0,0.0,0.0,0.0,-6.3,20.50136779334007,0.0,20.459742966292254,0.0,-6.3,21.86,18.32,22.6,20.4,22.49,-7.66,-6.3,1221.55,-1000.79,-3612.65,0.0,160.0,0.0,66.0,0.0,0.0,0.0,0.0,0.0,0.0,0.0,0.0,0.0,0.0,0.0,0.0,0.0,0.0
484.0,900.0,0.0,0.0,-7340.691378592254,0.0,8240.691378592255,0.0,28773.14394219026,0.0,28773.143942190265,0.0,0.0,0.3029638019306014,0.6126173296793284,0.5,0.0,0.0,0.0,"[2.1211538353491264, 2.0, 1.7484412930112327, 0.32777020122257383, 1.6545608317369123, 1.791922231504973, 2.0, 2.0]",20.0,0.0,0.0,0.0,207.9133699396032,46.770245803553514,-1361.9533219837954,-578.9603652965733,10552.261429317961,0.0,0.0,0.0,0.0,0.0,0.0,-6.3,19.823021890752475,0.0,20.220611171272854,0.0,-6.3,20.0,18.2,22.24,19.22,21.17,-7.63,-6.3,1223.21,-934.77,-3374.33,0.0,160.0,0.0,66.0,0.0,0.0,0.0,0.0,0.0,0.0,0.0,0.0,0.0,0.0,0.0,0.0,0.0,0.0
485.0,750.0,0.0,0.0,-0.0,0.0,750.0,0.0,21869.704923957637,0.0,21869.704923957637,0.0,0.0,0.27107604682856057,0.5196338903767874,0.5,0.0,0.0,0.0,"[2.1211538353491264, 2.0, 1.7484412930112327, 0.32777020122257383, 1.6545608317369123, 1.791922231504973, 2.0, 2.0]",24.12,0.0,0.0,0.0,184.38287992891935,46.29299839739481,-1575.3684990355064,-6665.074498049539,0.0,0.0,0.0,0.0,0.0,0.0,0.0,-6.3,21.128512022644248,0.0,20.43924604615644,0.0,-6.3,24.12,18.31,22.57,21.72,23.84,-7.63,-6.3,1380.77,-1081.24,-3903.09,0.0,160.0,0.0,49.0,0.0,0.0,0.0,0.0,0.0,0.0,0.0,0.0,0.0,0.0,0.0,0.0,0.0,0.0
486.0,1871.0,0.0,0.0,-0.0,0.0,1871.0,0.0,6606.421291359999,0.0,6606.421291359999,0.0,0.0,0.5088091779024175,0.49154536447814795,0.5,0.0,0.0,0.0,"[2.12115383534913, 2.0, 1.7484412930112327, 0.32777020122257383, 1.6545608317369123, 1.791922231504973, 2.0, 2.0]",20.4,0.0,0.0,0.0,178.19064571558147,44.74896267158723,-1377.3242760350909,-1103.9203311445572,1145.4282297004831,0.0,0.0,0.0,0.0,0.0,0.0,-6.2,19.9767234951327,0.0,20.283324700104345,0.0,-6.2,20.4,18.24,22.33,19.36,21.31,-7.52,-6.2,1675.36,-945.32,-3412.42,0.0,132.0,12.0,58.0,0.0,0.0,0.0,0.0,0.0,0.0,0.0,0.0,0.0,0.0,0.0,0.0,0.0,0.0
487.0,1617.0,17914.286158673247,0.0,-0.0,0.0,0.0,0.0,14586.943255091886,0.0,0.0,0.0,0.0,0.5088091779024175,0.49154536447814795,0.5,64830.85891151952,16207.71472787988,81038.5736393994,"[2.12115383534913, 2.0, 1.7484412930112327, 0.32777020122257383, 1.6545608317369123, 1.791922231504973, 2.0, 2.0]",19.88,0.0,0.0,0.0,284.7699239992674,36.80419702788635,-1350.5008048460309,-646.0821145911766,1676.0747888565024,0.0,0.0,0.0,0.0,0.0,0.0,-6.2,19.6698682224601,0.0,20.03559299237787,0.0,-6.2,19.88,18.1,21.98,19.17,21.06,-7.52,-6.2,2539.07,-926.91,-3345.96,0.0,94.0,12.0,155.0,0.0,0.0,0.0,0.0,0.0,0.0,0.0,0.0,0.0,0.0,0.0,0.0,0.0,0.0
488.0,2865.0,2879.396984924623,0.0,-0.0,0.0,0.0,0.0,52347.468059391846,0.0,52347.468059391846,0.0,0.0,0.5088091779024175,0.2689795989195092,0.5,0.0,0.0,0.0,"[2.12115383534913, 2.0, 1.7484412930112327, 0.32777020122257383, 1.6545608317369123, 1.791922231504973, 2.0, 2.0]",19.88,0.0,0.0,7.166668686786931,310.12165936681527,39.94841523316727,-1314.2510966563482,-954.9139458397256,8946.164407411638,0.0,0.0,0.0,0.0,0.0,0.0,-5.5,19.523744171672288,0.0,19.812546290607553,0.0,-5.5,19.88,17.96,21.67,19.11,20.92,-6.75,-5.5,864.15,-902.03,-3256.15,12.76,85.0,22.0,177.0,0.0,0.0,0.0,0.0,0.0,0.0,0.0,0.0,0.0,0.0,0.0,0.0,0.0,0.0
489.0,2673.0,0.0,0.0,-0.0,676.6072361046338,5668.297334265652,0.0,15980.355746458497,0.0,12675.64163312524,0.0,0.0,0.267810141581599,0.21508656476506513,0.5,14687.618281481142,3671.9045703702855,18359.522851851427,"[2.12115383534913, 2.0, 1.7484412930112327, 0.32777020122257383, 1.6545608317369123, 1.791922231504973, 2.0, 2.0]",23.15,0.0,0.0,594.8875278264217,413.64124545096956,46.09648475956476,-1286.8064396351233,-5755.097946160072,0.0,0.0,0.0,0.0,0.0,0.0,0.0,-1.7,20.556596116074044,0.0,19.983564588385693,0.0,-1.7,23.15,18.03,21.93,21.02,22.96,-1.81,-1.7,870.29,-883.19,-3188.15,1059.52,104.0,20.0,242.0,0.0,0.0,0.0,0.0,0.0,0.0,0.0,0.0,0.0,0.0,0.0,0.0,0.0,0.0
490.0,3725.0,60626.09196355439,44854.7511697784,-0.0,4256.789666041785,-16000.0,0.0,43784.44309877292,0.0,-80000.0,0.0,123784.44309877293,0.9211434749149323,0.5417532314317318,0.5,0.0,0.0,0.0,"[2.12115383534913, 2.0, 1.7484412930112327, 0.32777020122257383, 1.6545608317369123, 1.791922231504973, 2.0, 2.0]",20.4,0.0,0.0,1053.3163558643491,1087.793426747777,51.31813285047769,-947.4758421433172,-1501.1415048422182,8150.306240539556,0.0,0.0,0.0,0.0,0.0,0.0,2.1,19.757207922636212,0.0,19.944360374917892,0.0,2.1,20.4,18.04,21.85,19.32,21.32,2.75,2.1,1004.86,-650.29,-2347.44,1876.01,110.0,0.0,728.0,0.0,0.0,0.0,0.0,0.0,0.0,0.0,0.0,0.0,0.0,0.0,0.0,0.0,0.0
491.0,3795.0,11950.794052453284,14074.510302191939,-0.0,5978.4702200009215,0.0,0.0,43000.52065140277,0.0,0.0,0.0,43000.52065140278,0.9211434749149323,0.5417532314317318,0.5,0.0,0.0,0.0,"[2.12115383534913, 2.0, 1.7484412930112327, 0.32777020122257383, 1.6545608317369123, 1.791922231504973, 2.0, 2.0]",24.12,0.0,0.0,1376.7905675577902,1892.9295741102494,79.61609669800586,-979.8375787764326,-6720.435392265498,4196.726625341243,0.0,0.0,0.0,0.0,0.0,0.0,5.2,21.05614752902788,0.0,20.314234979238474,0.0,5.2,24.12,18.29,22.34,21.67,23.98,6.34,5.2,82.64,-672.51,-2427.62,2452.13,155.0,0.0,1286.0,0.0,0.0,0.0,0.0,0.0,0.0,0.0,0.0,0.0,0.0,0.0,0.0,0.0,0.0
492.0,3165.0,0.0,3686.048067135692,-0.0,6851.048067135692,0.0,0.0,11999.578938007759,0.0,0.0,0.0,11999.578938007759,0.9211434749149323,0.5417532314317318,0.5,0.0,0.0,0.0,"[2.12115383534913, 2.0, 1.7484412930112327, 0.32777020122257383, 1.6545608317369123, 1.791922231504973, 2.0, 2.0]",24.12,0.0,0.0,1518.0651697868457,1313.5550011846483,62.01408942379936,-871.0884542073842,-6122.986458576542,1990.6624433155666,0.0,0.0,0.0,0.0,0.0,0.0,7.3,21.326012836297764,0.0,20.71133683388849,0.0,7.3,24.12,18.6,22.83,21.59,24.02,8.71,7.3,0.0,-597.87,-2158.18,2703.75,133.0,0.0,879.0,0.0,0.0,0.0,0.0,0.0,0.0,0.0,0.0,0.0,0.0,0.0,0.0,0.0,0.0
493.0,3305.0,0.0,2673.799794586892,-0.0,5978.799794586892,0.0,0.0,14884.406348479071,0.0,5950.694010574966,0.0,8933.712337904108,0.9211434749149323,0.516452661658879,0.5,0.0,0.0,0.0,"[2.12115383534913, 2.0, 1.7484412930112327, 0.32777020122257383, 1.6545608317369123, 1.791922231504973, 2.0, 2.0]",23.22,0.0,0.0,1301.377824578149,349.46055907507946,37.702545086538045,-777.8007303797168,-4298.467073364576,0.0,0.0,0.0,0.0,0.0,0.0,0.0,8.2,21.268112770183155,0.0,20.990372056167907,0.0,8.2,23.22,18.86,23.12,21.26,23.75,9.21,8.2,0.0,-533.84,-1927.06,2317.81,100.0,8.0,199.0,0.0,0.0,0.0,0.0,0.0,0.0,0.0,0.0,0.0,0.0,0.0,0.0,0.0,0.0
494.0,2922.0,0.0,0.0,-0.0,4853.180206164923,-1931.1802061649232,0.0,0.0,0.0,0.0,0.0,0.0,1.0,0.516452661658879,0.5,0.0,0.0,0.0,"[2.12115383534913, 2.0, 1.7484412930112327, 0.32777020122257383, 1.6545608317369123, 1.791922231504973, 2.0, 2.0]",21.71,0.0,0.0,1148.1990172000742,160.26959140403892,29.75777944283717,-699.7773443153756,-1827.190062344356,0.0,0.0,0.0,0.0,0.0,0.0,0.0,8.2,20.90655171794761,0.0,21.062659588995952,0.0,8.2,21.71,19.01,23.12,20.57,22.94,8.84,8.2,0.0,-480.29,-1733.75,2045.0,94.0,3.0,66.0,0.0,0.0,0.0,0.0,0.0,0.0,0.0,0.0,0.0,0.0,0.0,0.0,0.0,0.0
495.0,2680.0,851.2573846815926,0.0,-0.0,1832.9989022418154,0.0,0.0,25295.700777943155,0.0,25295.70077794316,0.0,0.0,1.0,0.4089029134533384,0.5,0.0,0.0,0.0,"[2.12115383534913, 2.0, 1.7484412930112327, 0.32777020122257383, 1.6545608317369123, 1.791922231504973, 2.0, 2.0]",21.22,0.0,0.0,732.6143234336159,66.43903061840159,1.347522087977532,-751.9583238894597,-1076.0943548688597,7183.353189093069,0.0,0.0,0.0,0.0,0.0,0.0,6.7,20.769582928824768,0.0,21.041573029953675,0.0,6.7,21.22,19.09,22.99,20.4,22.63,6.48,6.7,175.85,-516.1,-1863.03,1304.82,0.0,0.0,48.0,0.0,0.0,0.0,0.0,0.0,0.0,0.0,0.0,0.0,0.0,0.0,0.0,0.0,0.0
496.0,3045.0,0.0,0.0,-0.0,0.0,3045.0,0.0,14701.782947875448,0.0,14701.782947875448,0.0,0.0,0.8705357142857143,0.34639533289264346,0.4770408163265306,0.0,0.0,0.0,"[2.12115383534913, 2.0, 1.7484412930112327, 0.32777020122257383, 1.6545608317369123, 1.791922231504973, 2.0, 2.0]",24.12,0.0,0.0,1.742673496827392,151.09051480544397,39.47116782700854,-1021.2658167074985,-5218.697128398784,0.0,0.0,0.0,0.0,0.0,0.0,0.0,4.4,21.7660281120441,0.0,21.29516372696984,0.0,4.4,24.12,19.31,23.28,22.15,24.34,2.83,4.4,994.37,-700.94,-2530.26,3.1,101.0,19.0,54.0,0.0,0.0,0.0,0.0,0.0,0.0,0.0,0.0,0.0,0.0,0.0,0.0,0.0,0.0
497.0,4520.0,35941.43510162991,31241.72792612176,-0.0,0.0,0.0,0.0,12471.527782533143,0.0,-80000.0,0.0,92471.52778253314,0.8705357142857143,0.6730619995593101,0.4770408163265306,0.0,0.0,0.0,"[2.12115383534913, 2.0, 1.7484412930112327, 0.32777020122257383, 1.6545608317369123, 1.791922231504973, 2.0, 2.0]",21.31,0.0,0.0,0.0,803.0235027485096,140.2826640338277,-886.0040482756809,-995.575380015589,0.0,0.0,0.0,0.0,0.0,0.0,0.0,4.2,20.90854941664532,0.0,21.17932462814752,0.0,4.2,21.31,19.32,23.04,20.35,22.12,2.66,4.2,1099.25,-608.1,-2195.14,0.0,334.0,70.0,397.0,0.0,0.0,0.0,0.0,0.0,0.0,0.0,0.0,0.0,0.0,0.0,0.0,0.0,0.0
498.0,4483.0,0.0,0.0,-0.0,0.0,1871.0,0.0,497.42965870724134,0.0,6606.421291359999,0.0,0.0,0.5088091779024175,0.49154536447814795,0.5,0.0,0.0,0.0,"[2.12115383534913, 2.0, 1.7484412930112327, 0.32777020122257383, 1.6545608317369123, 1.791922231504973, 2.0, 2.0]",20.87,0.0,0.0,0.0,227.1457209080879,120.77166713498632,-878.8530925904105,-576.1313370746371,0.0,0.0,0.0,0.0,0.0,0.0,0.0,3.9,20.664648647031232,0.0,20.979066124104857,0.0,3.9,20.87,19.27,22.69,20.17,21.81,2.47,3.9,0.0,-603.2,-2177.42,0.0,110.0,173.0,88.0,0.0,0.0,0.0,0.0,0.0,0.0,0.0,0.0,0.0,0.0,0.0,0.0,0.0,0.0
499.0,6953.0,17914.286158673247,0.0,-0.0,0.0,0.0,0.0,14586.943255091886,0.0,0.0,0.0,0.0,0.5088091779024175,0.49154536447814795,0.5,64830.85891151952,16207.71472787988,81038.5736393994,"[2.12115383534913, 2.0, 1.7484412930112327, 0.32777020122257383, 1.6545608317369123, 1.791922231504973, 2.0, 2.0]",19.88,0.0,0.0,0.0,402.3495242384123,130.1762483739962,-837.826360449089,-575.5742287374052,1676.0747888565024,0.0,0.0,0.0,0.0,0.0,0.0,3.7,19.6698682224601,0.0,20.03559299237787,0.0,3.7,19.88,18.1,21.98,19.17,21.06,2.31,3.7,2539.07,-575.04,-2075.77,0.0,200.0,137.0,171.0,0.0,0.0,0.0,0.0,0.0,0.0,0.0,0.0,0.0,0.0,0.0,0.0,0.0,0.0
500.0,5243.0,2879.396984924623,0.0,-0.0,0.0,0.0,0.0,52347.468059391846,0.0,52347.468059391846,0.0,0.0,0.5088091779024175,0.2689795989195092,0.5,0.0,0.0,0.0,"[2.12115383534913, 2.0, 1.7484412930112327, 0.32777020122257383, 1.6545608317369123, 1.791922231504973, 2.0, 2.0]",19.88,0.0,0.0,0.0,769.1483391108379,111.78818654846944,-848.1834199318554,-891.3555694959713,8946.164407411638,0.0,0.0,0.0,0.0,0.0,0.0,3.5,19.523744171672288,0.0,19.812546290607553,0.0,3.5,19.88,17.96,21.67,19.11,20.92,2.11,3.5,864.15,-582.15,-2101.43,0.0,186.0,93.0,448.0,0.0,0.0,0.0,0.0,0.0,0.0,0.0,0.0,0.0,0.0,0.0,0.0,0.0,0.0
501.0,3711.0,0.0,0.0,-0.0,0.0,5668.297334265652,0.0,15980.355746458497,0.0,12675.64163312524,0.0,0.0,0.267810141581599,0.21508656476506513,0.5,14687.618281481142,3671.9045703702855,18359.522851851427,"[2.12115383534913, 2.0, 1.7484412930112327, 0.32777020122257383, 1.6545608317369123, 1.791922231504973, 2.0, 2.0]",23.15,0.0,0.0,0.0,996.3669098332,124.16854573176302,-1033.058482307344,-5728.434574906175,0.0,0.0,0.0,0.0,0.0,0.0,0.0,3.2,20.556596116074044,0.0,19.983564588385693,0.0,3.2,23.15,18.03,21.93,21.02,22.96,1.91,3.2,870.29,-709.03,-2559.47,0.0,270.0,64.0,571.0,0.0,0.0,0.0,0.0,0.0,0.0,0.0,0.0,0.0,0.0,0.0,0.0,0.0,0.0
502.0,2645.0,60626.09196355439,44854.7511697784,-0.0,0.0,-16000.0,0.0,43784.44309877292,0.0,-80000.0,0.0,123784.44309877293,0.9211434749149323,0.5417532314317318,0.5,0.0,0.0,0.0,"[2.12115383534913, 2.0, 1.7484412930112327, 0.32777020122257383, 1.6545608317369123, 1.791922231504973, 2.0, 2.0]",20.4,0.0,0.0,0.0,895.5427668772049,111.3670858959765,-900.869074470868,-1508.1349690525306,8150.306240539556,0.0,0.0,0.0,0.0,0.0,0.0,3.0,19.757207922636212,0.0,19.944360374917892,0.0,3.0,20.4,18.04,21.85,19.32,21.32,1.78,3.0,1004.86,-618.31,-2231.97,0.0,256.0,50.0,507.0,0.0,0.0,0.0,0.0,0.0,0.0,0.0,0.0,0.0,0.0,0.0,0.0,0.0,0.0
503.0,1810.0,11950.794052453284,14074.510302191939,-0.0,0.0,0.0,0.0,43000.52065140277,0.0,0.0,0.0,43000.52065140278,0.9211434749149323,0.5417532314317318,0.5,0.0,0.0,0.0,"[2.12115383534913, 2.0, 1.7484412930112327, 0.32777020122257383, 1.6545608317369123, 1.791922231504973, 2.0, 2.0]",24.12,0.0,0.0,0.0,345.67236873280217,104.85406247075173,-1104.1222925696306,-6754.134084416462,4196.726625341243,0.0,0.0,0.0,0.0,0.0,0.0,2.8,21.05614752902788,0.0,20.314234979238474,0.0,2.8,24.12,18.29,22.34,21.67,23.98,1.65,2.8,82.64,-757.81,-2735.54,0.0,298.0,37.0,89.0,0.0,0.0,0.0,0.0,0.0,0.0,0.0,0.0,0.0,0.0,0.0,0.0,0.0,0.0
504.0,1804.0,0.0,3686.048067135692,-0.0,0.0,0.0,0.0,11999.578938007759,0.0,0.0,0.0,11999.578938007759,0.9211434749149323,0.5417532314317318,0.5,0.0,0.0,0.0,"[2.12115383534913, 2.0, 1.7484412930112327, 0.32777020122257383, 1.6545608317369123, 1.791922231504973, 2.0, 2.0]",24.12,0.0,0.0,0.0,235.5234495496627,51.85152701030213,-1130.0149412765468,-6177.045650635644,1990.6624433155666,0.0,0.0,0.0,0.0,0.0,0.0,2.3,21.326012836297764,0.0,20.71133683388849,0.0,2.3,24.12,18.6,22.83,21.59,24.02,1.17,2.3,0.0,-775.58,-2799.69,0.0,160.0,9.0,85.0,0.0,0.0,0.0,0.0,0.0,0.0,0.0,0.0,0.0,0.0,0.0,0.0,0.0,0.0
505.0,989.0,0.0,2673.799794586892,-0.0,0.0,0.0,0.0,14884.406348479071,0.0,5950.694010574966,0.0,8933.712337904108,0.9211434749149323,0.516452661658879,0.5,0.0,0.0,0.0,"[2.12115383534913, 2.0, 1.7484412930112327, 0.32777020122257383, 1.6545608317369123, 1.791922231504973, 2.0, 2.0]",23.22,0.0,0.0,0.0,195.4560516986529,46.517585412057734,-1104.0481040868615,-4358.702144185467,0.0,0.0,0.0,0.0,0.0,0.0,0.0,1.9,21.268112770183155,0.0,20.990372056167907,0.0,1.9,23.22,18.86,23.12,21.26,23.75,0.82,1.9,0.0,-757.76,-2735.36,0.0,160.0,0.0,57.0,0.0,0.0,0.0,0.0,0.0,0.0,0.0,0.0,0.0,0.0,0.0,0.0,0.0,0.0
506.0,1203.0,0.0,0.0,-0.0,0.0,-1931.1802061649232,0.0,0.0,0.0,0.0,0.0,0.0,1.0,0.516452661658879,0.5,0.0,0.0,0.0,"[2.12115383534913, 2.0, 1.7484412930112327, 0.32777020122257383, 1.6545608317369123, 1.791922231504973, 2.0, 2.0]",21.71,0.0,0.0,0.0,234.21215289272055,47.30363996337797,-1051.9173667294367,-1888.137123730607,0.0,0.0,0.0,0.0,0.0,0.0,0.0,1.4,20.90655171794761,0.0,21.062659588995952,0.0,1.4,21.71,19.01,23.12,20.57,22.94,0.34,1.4,0.0,-721.98,-2606.2,0.0,160.0,0.0,85.0,0.0,0.0,0.0,0.0,0.0,0.0,0.0,0.0,0.0,0.0,0.0,0.0,0.0,0.0
507.0,1164.0,851.2573846815926,0.0,-0.0,0.0,0.0,0.0,25295.700777943155,0.0,25295.70077794316,0.0,0.0,1.0,0.4089029134533384,0.5,0.0,0.0,0.0,"[2.12115383534913, 2.0, 1.7484412930112327, 0.32777020122257383, 1.6545608317369123, 1.791922231504973, 2.0, 2.0]",21.22,0.0,0.0,0.0,209.2975164108199,46.79831918038637,-1036.7774596655386,-1120.9208745086512,7183.353189093069,0.0,0.0,0.0,0.0,0.0,0.0,1.2,20.769582928824768,0.0,21.041573029953675,0.0,1.2,21.22,19.09,22.99,20.4,22.63,0.23,1.2,175.85,-711.59,-2568.69,0.0,160.0,0.0,67.0,0.0,0.0,0.0,0.0,0.0,0.0,0.0,0.0,0.0,0.0,0.0,0.0,0.0,0.0
508.0,931.0,0.0,0.0,-0.0,0.0,3045.0,0.0,14701.782947875448,0.0,14701.782947875448,0.0,0.0,0.8705357142857143,0.34639533289264346,0.4770408163265306,0.0,0.0,0.0,"[2.12115383534913, 2.0, 1.7484412930112327, 0.32777020122257383, 1.6545608317369123, 1.791922231504973, 2.0, 2.0]",24.12,0.0,0.0,0.0,166.3889758031022,45.92804449856756,-1197.335827914529,-5238.597277738176,0.0,0.0,0.0,0.0,0.0,0.0,0.0,1.0,21.7660281120441,0.0,21.29516372696984,0.0,1.0,24.12,19.31,23.28,22.15,24.34,0.06,1.0,994.37,-821.78,-2966.48,0.0,160.0,0.0,36.0,0.0,0.0,0.0,0.0,0.0,0.0,0.0,0.0,0.0,0.0,0.0,0.0,0.0,0.0
509.0,748.0,35941.43510162991,31241.72792612176,-0.0,0.0,0.0,0.0,12471.527782533143,0.0,-80000.0,0.0,92471.52778253314,0.8705357142857143,0.6730619995593101,0.4770408163265306,0.0,0.0,0.0,"[2.12115383534913, 2.0, 1.7484412930112327, 0.32777020122257383, 1.6545608317369123, 1.791922231504973, 2.0, 2.0]",21.31,0.0,0.0,0.0,201.35688665489252,62.2106030616294,-1067.252589224095,-1015.3431177056095,0.0,0.0,0.0,0.0,0.0,0.0,0.0,0.7,20.90854941664532,0.0,21.17932462814752,0.0,0.7,21.31,19.32,23.04,20.35,22.12,-0.09,0.7,1099.25,-732.5,-2644.19,0.0,160.0,31.0,58.0,0.0,0.0,0.0,0.0,0.0,0.0,0.0,0.0,0.0,0.0,0.0,0.0,0.0,0.0
510.0,1843.0,2794.0799373795253,0.0,-937.109537692628,0.0,0.0,0.0,497.42965870724134,0.0,497.42965870724134,0.0,0.0,0.6799319727891157,0.6688321555226839,0.5,0.0,0.0,0.0,"[1.7127377125746897, 1.8228020327084486, 1.2145762790136523, 0.5083188367894351, 1.1352436825850347, 1.791922231504973, 1.430693212945883, 1.5983902522092066]",20.87,0.0,0.0,0.0,296.1344950260992,95.87058188423487,-1049.7445740560577,-595.31394188763,0.0,0.0,0.0,0.0,0.0,0.0,0.0,0.6,20.664648647031232,0.0,20.979066124104857,0.0,0.6,20.87,19.27,22.69,20.17,21.81,-0.21,0.6,0.0,-720.49,-2600.82,0.0,234.0,55.0,85.0,0.0,0.0,0.0,0.0,0.0,0.0,0.0,0.0,0.0,0.0,0.0,0.0,0.0,0.0
511.0,936.0,51420.6474709123,50227.54423355774,-0.0,0.0,0.0,0.0,50471.406648980774,0.0,-80000.0,0.0,130471.40664898077,0.6799319727891157,0.9954988221893507,0.5,0.0,0.0,0.0,"[1.7127377125746897, 1.8228020327084486, 1.2145762790136523, 0.5083188367894351, 1.1352436825850347, 1.791922231504973, 1.430693212945883, 1.5983902522092066]",20.29,0.0,0.0,0.0,318.28083856556646,110.35644432999334,-1029.867792301215,-19.480051265633307,7992.166728990019,0.0,0.0,0.0,0.0,0.0,0.0,0.4,20.34709328888751,0.0,20.73894488866249,0.0,0.4,20.29,19.14,22.33,19.84,21.39,-0.36,0.4,314.34,-706.84,-2551.57,0.0,300.0,48.0,67.0,0.0,0.0,0.0,0.0,0.0,0.0,0.0,0.0,0.0,0.0,0.0,0.0,0.0,0.0
512.0,984.0,18134.033046625093,11725.930803823328,-0.0,0.0,-5333.43207756864,0.0,30682.93049914493,0.0,0.0,0.0,30682.930499144935,0.8977137826231685,0.9954988221893507,0.5,0.0,0.0,0.0,"[1.7127377125746897, 1.8228020327084486, 1.2145762790136523, 0.5083188367894351, 1.1352436825850347, 1.791922231504973, 1.430693212945883, 1.5983902522092066]",23.71,0.0,0.0,1.718323423879563,218.54944282368945,73.55224730210699,-1196.8999964935833,-5102.203898779578,6007.21889421133,0.0,0.0,0.0,0.0,0.0,0.0,0.6,21.420412867271658,0.0,20.900575517973873,0.0,0.6,23.71,19.23,22.57,21.88,23.54,-0.17,0.6,537.78,-821.48,-2965.4,3.06,224.0,19.0,38.0,0.0,0.0,0.0,0.0,0.0,0.0,0.0,0.0,0.0,0.0,0.0,0.0,0.0,0.0
513.0,934.0,0.0,11454.773647697397,-0.0,10.065825861449786,12378.707821835947,0.0,30956.217650907038,0.0,0.0,0.0,30956.217650907038,0.3714081779532728,0.9954988221893507,0.5,0.0,0.0,0.0,"[1.7127377125746897, 1.8228020327084486, 1.2145762790136523, 0.5083188367894351, 1.1352436825850347, 1.791922231504973, 1.430693212945883, 1.5983902522092066]",23.71,0.0,0.0,28.440939738502717,339.84438359083714,82.39536100445953,-1150.293228821134,-4819.308059450072,0.0,0.0,0.0,0.0,0.0,0.0,0.0,1.5,21.54818536801325,0.0,21.09408727686425,0.0,1.5,23.71,19.36,22.83,21.78,23.46,0.95,1.5,1755.98,-789.5,-2849.93,50.65,282.0,1.0,97.0,0.0,0.0,0.0,0.0,0.0,0.0,0.0,0.0,0.0,0.0,0.0,0.0,0.0,0.0
514.0,1688.0,1217.0869452466516,0.0,-0.0,476.9984894795815,0.0,0.0,10943.151791008017,0.0,10943.151791008017,0.0,0.0,0.3714081779532728,0.948971816275201,0.5,0.0,0.0,0.0,"[1.7127377125746897, 1.8228020327084486, 1.2145762790136523, 0.5083188367894351, 1.1352436825850347, 1.791922231504973, 1.430693212945883, 1.5983902522092066]",21.15,0.0,0.0,78.2339742023498,1297.1637929728718,58.22418355136255,-950.1259056735536,-975.4235814154898,6002.794019437783,0.0,0.0,0.0,0.0,0.0,0.0,2.8,20.756413843992735,0.0,20.98322561362769,0.0,2.8,21.15,19.33,22.63,20.29,21.86,2.42,2.8,0.0,-652.11,-2354.0,139.34,120.0,0.0,874.0,0.0,0.0,0.0,0.0,0.0,0.0,0.0,0.0,0.0,0.0,0.0,0.0,0.0,0.0
515.0,4337.0,9944.58870522563,6614.789633857519,-0.0,1056.9238721580182,0.0,0.0,19326.6898987903,0.0,0.0,0.0,19326.6898987903,0.3714081779532728,0.948971816275201,0.5,0.0,0.0,0.0,"[1.7127377125746897, 1.8228020327084486, 1.2145762790136523, 0.5083188367894351, 1.1352436825850347, 1.791922231504973, 1.430693212945883, 1.5983902522092066]",23.71,0.0,0.0,96.56547293440089,1438.7109821083475,53.64822312760551,-1031.1870447693195,-4752.845174642796,0.0,0.0,0.0,0.0,0.0,0.0,0.0,3.8,21.570878984649454,0.0,21.113266345832184,0.0,3.8,23.71,19.43,22.79,21.83,23.48,3.41,3.8,427.35,-707.75,-2554.84,171.99,92.0,0.0,991.0,0.0,0.0,0.0,0.0,0.0,0.0,0.0,0.0,0.0,0.0,0.0,0.0,0.0,0.0
516.0,2759.0,0.0,4635.613922688908,-0.0,2537.031920695212,4857.582001993696,0.0,13897.596562937191,0.0,0.0,0.0,13897.596562937195,0.1648783309297313,0.948971816275201,0.5,0.0,0.0,0.0,"[1.7127377125746897, 1.8228020327084486, 1.2145762790136523, 0.5083188367894351, 1.1352436825850347, 1.791922231504973, 1.430693212945883, 1.5983902522092066]",21.77,0.0,0.0,138.2786002017672,155.02440477627042,3.1442182052809087,-888.989376896441,-1795.927257049106,6558.524370597809,0.0,0.0,0.0,0.0,0.0,0.0,4.6,20.990290470194825,0.0,21.054411011622918,0.0,4.6,21.77,19.45,22.66,20.58,22.11,4.27,4.6,1535.03,-610.15,-2202.53,246.28,0.0,0.0,112.0,0.0,0.0,0.0,0.0,0.0,0.0,0.0,0.0,0.0,0.0,0.0,0.0,0.0,0.0
517.0,3794.0,0.0,0.0,-0.0,2058.1824727951134,1735.8175272048866,0.0,6926.797313291912,0.0,6926.797313291911,0.0,0.0,0.09107656531727865,0.9195211474261707,0.5,0.0,0.0,0.0,"[1.7127377125746897, 1.8228020327084486, 1.2145762790136523, 0.5083188367894351, 1.1352436825850347, 1.791922231504973, 1.430693212945883, 1.5983902522092066]",23.71,0.0,0.0,138.71796811953777,84.43293474421868,1.7124759868047785,-963.8661581313372,-4556.309092625302,0.0,0.0,0.0,0.0,0.0,0.0,0.0,5.1,21.658010820276054,0.0,21.22675074108799,0.0,5.1,23.71,19.58,22.87,21.96,23.62,4.68,5.1,27.77,-661.54,-2388.05,247.06,0.0,0.0,61.0,0.0,0.0,0.0,0.0,0.0,0.0,0.0,0.0,0.0,0.0,0.0,0.0,0.0,0.0
518.0,2937.0,0.0,0.0,-0.0,794.879183737606,2142.120816262394,0.0,20603.97994544144,0.0,20603.97994544144,0.0,0.0,0.0,0.8319191918758245,0.5,0.0,0.0,0.0,"[1.7127377125746897, 1.8228020327084486, 1.2145762790136523, 0.5083188367894351, 1.1352436825850347, 1.791922231504973, 1.430693212945883, 1.5983902522092066]",21.26,0.0,0.0,116.97439863361625,117.6524500534195,2.3862370307935445,-826.4040675086995,-853.9939873053715,0.0,0.0,0.0,0.0,0.0,0.0,0.0,5.3,20.91625196732957,0.0,21.14066559989688,0.0,5.3,21.26,19.58,22.7,20.46,21.99,4.77,5.3,348.69,-567.2,-2047.47,208.34,0.0,0.0,85.0,0.0,0.0,0.0,0.0,0.0,0.0,0.0,0.0,0.0,0.0,0.0,0.0,0.0,0.0
519.0,758.0,54757.96481322166,0.0,-0.0,24.431674052403757,-16000.0,0.0,33975.54599688715,0.0,0.0,0.0,0.0,0.6533333333333333,0.8319191918758245,0.5,151002.42665283184,37750.60666320796,188753.0333160398,"[1.7127377125746897, 1.8228020327084486, 1.2145762790136523, 0.5083188367894351, 1.1352436825850347, 1.791922231504973, 1.430693212945883, 1.5983902522092066]",20.59,0.0,0.0,37.77304544737443,92.73781357151888,1.8809162478019708,-817.8660141857912,-74.58709041509425,5371.975879252456,0.0,0.0,0.0,0.0,0.0,0.0,4.8,20.614185608429633,0.0,20.955081824271048,0.0,4.8,20.59,19.51,22.4,20.16,21.59,3.97,4.8,1754.89,-561.34,-2026.32,67.28,0.0,0.0,67.0,0.0,0.0,0.0,0.0,0.0,0.0,0.0,0.0,0.0,0.0,0.0,0.0,0.0,0.0
520.0,1795.0,0.0,0.0,-0.0,0.0,8857.336,0.0,16393.667986216635,35311.68,44643.01198621664,0.0,0.0,0.27674591836734697,0.6421104674446314,0.5,28249.344,7062.336,35311.68,"[1.7127377125746897, 1.8228020327084486, 1.2145762790136523, 0.5083188367894351, 1.1352436825850347, 1.791922231504973, 1.430693212945883, 1.5983902522092066]",22.74,0.0,0.0,0.8626495739795056,218.2580435665912,26.501267730224807,-970.4271669185597,-3320.3051637911703,0.0,0.0,0.0,0.0,0.0,0.0,0.0,4.0,21.261699446275692,0.0,21.013497651195216,0.0,4.0,22.74,19.56,22.46,21.44,22.89,3.0,4.0,279.09,-666.05,-2404.3,1.54,83.0,0.0,114.0,0.0,0.0,0.0,0.0,0.0,0.0,0.0,0.0,0.0,0.0,0.0,0.0,0.0,0.0
521.0,2413.0,6017.525510368778,3574.437882816934,-0.0,0.0,0.0,0.0,10273.194065574882,0.0,0.0,0.0,10273.194065574882,0.27674591836734697,0.6421104674446314,0.5,0.0,0.0,0.0,"[1.7127377125746897, 1.8228020327084486, 1.2145762790136523, 0.5083188367894351, 1.1352436825850347, 1.791922231504973, 1.430693212945883, 1.5983902522092066]",20.86,0.0,0.0,0.0,662.4233611986027,58.589137450189796,-909.275598389151,-585.9006473535109,0.0,0.0,0.0,0.0,0.0,0.0,0.0,3.3,20.648207074571275,0.0,20.882914046332147,0.0,3.3,20.86,19.51,22.26,20.22,21.54,2.27,3.3,0.0,-624.08,-2252.79,0.0,81.0,47.0,431.0,0.0,0.0,0.0,0.0,0.0,0.0,0.0,0.0,0.0,0.0,0.0,0.0,0.0,0.0
522.0,4192.0,2794.0799373795253,0.0,-937.109537692628,0.0,0.0,0.0,7744.064961509121,0.0,497.42965870724134,0.0,0.0,0.6799319727891157,0.6688321555226839,0.5,0.0,0.0,0.0,"[1.7127377125746897, 1.8228020327084486, 1.2145762790136523, 0.5083188367894351, 1.1352436825850347, 1.791922231504973, 1.430693212945883, 1.5983902522092066]",20.5,0.0,0.0,0.0,2099.8958964642825,123.94395871710014,-926.8466275062697,-299.79863974899075,2287.242492042584,0.0,0.0,0.0,0.0,0.0,0.0,2.6,20.421414622216265,0.0,20.68964782162603,0.0,2.6,20.5,19.4,21.98,20.02,21.26,1.64,2.6,0.0,-636.14,-2296.33,0.0,117.0,100.0,1445.0,0.0,0.0,0.0,0.0,0.0,0.0,0.0,0.0,0.0,0.0,0.0,0.0,0.0,0.0
523.0,4169.0,51420.6474709123,50227.54423355774,-0.0,0.0,0.0,0.0,50471.406648980774,0.0,-80000.0,0.0,130471.40664898077,0.6799319727891157,0.9954988221893507,0.5,0.0,0.0,0.0,"[1.7127377125746897, 1.8228020327084486, 1.2145762790136523, 0.5083188367894351, 1.1352436825850347, 1.791922231504973, 1.430693212945883, 1.5983902522092066]",20.29,0.0,0.0,0.0,773.8107272244094,128.51991914085716,-952.1898461804662,-10.498161857395306,7992.166728990019,0.0,0.0,0.0,0.0,0.0,0.0,1.9,20.34709328888751,0.0,20.73894488866249,0.0,1.9,20.29,19.14,22.33,19.84,21.39,0.89,1.9,314.34,-653.53,-2359.12,0.0,156.0,142.0,462.0,0.0,0.0,0.0,0.0,0.0,0.0,0.0,0.0,0.0,0.0,0.0,0.0,0.0,0.0
524.0,3967.0,18134.033046625093,11725.930803823328,-0.0,0.0,-5333.43207756864,0.0,30682.93049914493,0.0,0.0,0.0,30682.930499144935,0.8977137826231685,0.9954988221893507,0.5,0.0,0.0,0.0,"[1.7127377125746897, 1.8228020327084486, 1.2145762790136523, 0.5083188367894351, 1.1352436825850347, 1.791922231504973, 1.430693212945883, 1.5983902522092066]",23.71,0.0,0.0,0.0,1015.0893121017629,184.89125982125063,-1160.6502883039007,-5098.994343909757,6007.21889421133,0.0,0.0,0.0,0.0,0.0,0.0,1.3,21.420412867271658,0.0,20.900575517973873,0.0,1.3,23.71,19.23,22.57,21.88,23.54,0.28,1.3,537.78,-796.6,-2875.59,0.0,240.0,200.0,586.0,0.0,0.0,0.0,0.0,0.0,0.0,0.0,0.0,0.0,0.0,0.0,0.0,0.0,0.0
525.0,3593.0,0.0,11454.773647697397,-0.0,0.0,12378.707821835947,0.0,30956.217650907038,0.0,0.0,0.0,30956.217650907038,0.3714081779532728,0.9954988221893507,0.5,0.0,0.0,0.0,"[1.7127377125746897, 1.8228020327084486, 1.2145762790136523, 0.5083188367894351, 1.1352436825850347, 1.791922231504973, 1.430693212945883, 1.5983902522092066]",23.71,0.0,0.0,0.0,874.853419623229,161.4499901658081,-1196.8999964935833,-4829.3654591971745,0.0,0.0,0.0,0.0,0.0,0.0,0.0,0.6,21.54818536801325,0.0,21.09408727686425,0.0,0.6,23.71,19.36,22.83,21.78,23.46,-0.45,0.6,1755.98,-821.48,-2965.4,0.0,274.0,141.0,473.0,0.0,0.0,0.0,0.0,0.0,0.0,0.0,0.0,0.0,0.0,0.0,0.0,0.0,0.0
526.0,3160.0,1217.0869452466516,0.0,-0.0,0.0,0.0,0.0,10943.151791008017,0.0,10943.151791008017,0.0,0.0,0.3714081779532728,0.948971816275201,0.5,0.0,0.0,0.0,"[1.7127377125746897, 1.8228020327084486, 1.2145762790136523, 0.5083188367894351, 1.1352436825850347, 1.791922231504973, 1.430693212945883, 1.5983902522092066]",21.15,0.0,0.0,0.0,850.9586805411719,119.56451193117316,-1100.3032681736677,-1001.3975449566565,6002.794019437783,0.0,0.0,0.0,0.0,0.0,0.0,-0.1,20.756413843992735,0.0,20.98322561362769,0.0,-0.1,21.15,19.33,22.63,20.29,21.86,-1.2,-0.1,0.0,-755.19,-2726.08,0.0,260.0,66.0,471.0,0.0,0.0,0.0,0.0,0.0,0.0,0.0,0.0,0.0,0.0,0.0,0.0,0.0,0.0
527.0,1975.0,9944.58870522563,6614.789633857519,-0.0,0.0,0.0,0.0,19326.6898987903,0.0,0.0,0.0,19326.6898987903,0.3714081779532728,0.948971816275201,0.5,0.0,0.0,0.0,"[1.7127377125746897, 1.8228020327084486, 1.2145762790136523, 0.5083188367894351, 1.1352436825850347, 1.791922231504973, 1.430693212945883, 1.5983902522092066]",23.71,0.0,0.0,0.0,465.8745622858314,88.85223767601852,-1264.2208831315656,-4790.174397934272,0.0,0.0,0.0,0.0,0.0,0.0,0.0,-0.7,21.570878984649454,0.0,21.113266345832184,0.0,-0.7,23.71,19.43,22.79,21.83,23.48,-1.79,-0.7,427.35,-867.69,-3132.2,0.0,240.0,31.0,207.0,0.0,0.0,0.0,0.0,0.0,0.0,0.0,0.0,0.0,0.0,0.0,0.0,0.0,0.0
528.0,1733.0,0.0,4635.613922688908,-0.0,0.0,4857.582001993696,0.0,13897.596562937191,0.0,0.0,0.0,13897.596562937195,0.1648783309297313,0.948971816275201,0.5,0.0,0.0,0.0,"[1.7127377125746897, 1.8228020327084486, 1.2145762790136523, 0.5083188367894351, 1.1352436825850347, 1.791922231504973, 1.430693212945883, 1.5983902522092066]",21.77,0.0,0.0,0.0,278.65053960020407,58.252256928195415,-1204.8796911208192,-1844.7211169224684,6558.524370597809,0.0,0.0,0.0,0.0,0.0,0.0,-1.5,20.990290470194825,0.0,21.054411011622918,0.0,-1.5,21.77,19.45,22.66,20.58,22.11,-2.53,-1.5,1535.03,-826.96,-2985.17,0.0,160.0,20.0,115.0,0.0,0.0,0.0,0.0,0.0,0.0,0.0,0.0,0.0,0.0,0.0,0.0,0.0,0.0
529.0,1073.0,0.0,0.0,-0.0,0.0,1735.8175272048866,0.0,6926.797313291912,0.0,6926.797313291911,0.0,0.0,0.09107656531727865,0.9195211474261707,0.5,0.0,0.0,0.0,"[1.7127377125746897, 1.8228020327084486, 1.2145762790136523, 0.5083188367894351, 1.1352436825850347, 1.791922231504973, 1.430693212945883, 1.5983902522092066]",23.71,0.0,0.0,0.0,203.76093052595314,46.68602567305493,-1341.8988292523145,-4612.961569632912,0.0,0.0,0.0,0.0,0.0,0.0,0.0,-2.2,21.658010820276054,0.0,21.22675074108799,0.0,-2.2,23.71,19.58,22.87,21.96,23.62,-3.21,-2.2,27.77,-921.0,-3324.65,0.0,160.0,0.0,63.0,0.0,0.0,0.0,0.0,0.0,0.0,0.0,0.0,0.0,0.0,0.0,0.0,0.0,0.0
530.0,708.0,0.0,0.0,-0.0,0.0,2142.120816262394,0.0,20603.97994544144,0.0,20603.97994544144,0.0,0.0,0.0,0.8319191918758245,0.5,0.0,0.0,0.0,"[1.7127377125746897, 1.8228020327084486, 1.2145762790136523, 0.5083188367894351, 1.1352436825850347, 1.791922231504973, 1.430693212945883, 1.5983902522092066]",21.26,0.0,0.0,0.0,203.76093052595314,46.68602567305493,-1256.2220360435094,-917.1797906877042,0.0,0.0,0.0,0.0,0.0,0.0,0.0,-3.0,20.91625196732957,0.0,21.14066559989688,0.0,-3.0,21.26,19.58,22.7,20.46,21.99,-4.03,-3.0,348.69,-862.2,-3112.38,0.0,160.0,0.0,63.0,0.0,0.0,0.0,0.0,0.0,0.0,0.0,0.0,0.0,0.0,0.0,0.0,0.0,0.0
531.0,706.0,54757.96481322166,0.0,-0.0,0.0,-16000.0,0.0,33975.54599688715,0.0,0.0,0.0,0.0,0.6533333333333333,0.8319191918758245,0.5,151002.42665283184,37750.60666320796,188753.0333160398,"[1.7127377125746897, 1.8228020327084486, 1.2145762790136523, 0.5083188367894351, 1.1352436825850347, 1.791922231504973, 1.430693212945883, 1.5983902522092066]",20.59,0.0,0.0,0.0,189.91946581378613,46.405291904726276,-1247.683982720601,-135.7775947088269,5371.975879252456,0.0,0.0,0.0,0.0,0.0,0.0,-3.5,20.614185608429633,0.0,20.955081824271048,0.0,-3.5,20.59,19.51,22.4,20.16,21.59,-4.56,-3.5,1754.89,-856.34,-3091.22,0.0,160.0,0.0,53.0,0.0,0.0,0.0,0.0,0.0,0.0,0.0,0.0,0.0,0.0,0.0,0.0,0.0,0.0
532.0,600.0,0.0,0.0,-0.0,0.0,8857.336,0.0,16393.667986216635,0.0,44643.01198621664,0.0,0.0,0.27674591836734697,0.6421104674446314,0.5,28249.344,7062.336,35311.68,"[1.7127377125746897, 1.8228020327084486, 1.2145762790136523, 0.5083188367894351, 1.1352436825850347, 1.791922231504973, 1.430693212945883, 1.5983902522092066]",22.74,0.0,0.0,0.0,202.37678405473645,46.65795229622206,-1379.5310164878367,-3377.650851350347,0.0,0.0,0.0,0.0,0.0,0.0,0.0,-3.9,21.261699446275692,0.0,21.013497651195216,0.0,-3.9,22.74,19.56,22.46,21.44,22.89,-5.0,-3.9,279.09,-946.83,-3417.88,0.0,160.0,0.0,62.0,0.0,0.0,0.0,0.0,0.0,0.0,0.0,0.0,0.0,0.0,0.0,0.0,0.0,0.0
533.0,738.0,6017.525510368778,3574.437882816934,-0.0,0.0,0.0,0.0,10273.194065574882,0.0,0.0,0.0,10273.194065574882,0.27674591836734697,0.6421104674446314,0.5,0.0,0.0,0.0,"[1.7127377125746897, 1.8228020327084486, 1.2145762790136523, 0.5083188367894351, 1.1352436825850347, 1.791922231504973, 1.430693212945883, 1.5983902522092066]",20.86,0.0,0.0,0.0,318.6450876369392,49.01611595018274,-1302.8438587342782,-641.1481720396587,0.0,0.0,0.0,0.0,0.0,0.0,0.0,-4.3,20.648207074571275,0.0,20.882914046332147,0.0,-4.3,20.86,19.51,22.26,20.22,21.54,-5.43,-4.3,0.0,-894.2,-3227.89,0.0,160.0,0.0,146.0,0.0,0.0,0.0,0.0,0.0,0.0,0.0,0.0,0.0,0.0,0.0,0.0,0.0,0.0
