Unterhaching
bid;footprint_area;use;free_walls;lat;lon;dist_to_heat_source;year_class;size_class;floors;storey_area;area_corr_factor;heated_area;window_area;dwellings;dwelling_size;occupants;ref_level_roof;ref_level_wall;ref_level_floor;ref_level_window;U;V;C;Tau;Tset;act_start;act_end;hw_demand_day;hw_tank_cap;sh_demand;solar_gains;int_gains;sh_demand_per_h_area;solar_gains_per_h_area;int_gains_per_h_area;hw_demand;hw_demand_m3;total_heat_demand;total_heat_demand_per_h_area;electricity_matlab_demand
0;200.00;3;4;48.220;11.484;0.00;4;2;4;1000.00;1.00;1000.00;0.00;10;100.00;23;1;1;1;1;3160.84;479.40;1057090237.08;290389.99;22;0;23;0.44;0.67;340432125.69;0.00;13417322.00;340432.13;0.00;13417.32;10173090.80;162.02;350605216.49;350605.22;30088732.00
1;300.00;3;4;48.220;11.484;0.00;4;2;4;1500.00;1.00;1500.00;0.00;15;100.00;28;1;1;1;1;4083.55;719.10;1620014942.35;337316.69;22;0;23;0.76;1.14;460317707.18;0.00;16223218.00;306878.47;0.00;10815.48;17402518.27;277.15;477720225.45;318480.15;37285934.00
