Szenario,Parameterkonfiguration,Parameterkonfiguration,Parameterkonfiguration,Parameterkonfiguration,Parameterkonfiguration,Parameterkonfiguration,Parameterkonfiguration,Effizienz,Effizienz,Effizienz,Effizienz,Flexibilitaet,Flexibilitaet,Flexibilitaet,Flexibilitaet,Flexibilitaet,Ranking,Ranking,Ranking
Id,Jahr,Gebaeudemix,Gebaeudemix,Gebaeudemix,Waermesystem,PV-Potential,Steuerung,Unweltfaktoren,Unweltfaktoren,Wirtschaftlichkeit,Wirtschaftlichkeit,Quartiersintern,Quartiersintern,Verteilnetz,Verteilnetz,Verteilnetz,Effizienz,Flexibilitaet,Global
,,Unsaniert,KfW-70,KfW-40,,,,CO2,PED,OPC,EAC,SCR,SSR,FLR,GII,HLR,,,
,[-],%,%,%,[-],[-],[-],[t],[MWh],[k€],[k€],[%],[%],[%],[%],[%],,,
S0,2020,100,0,0,GK,Kein,Konventionell,1275.0,6914.0,491.0,524.0,,0.0,17.07,10.81,0.31,,,
% Variation gegenüber Basisszenario S0,,,,,,,,,,,,,,,,,,,
S115,2030,100,0,0,GK,Kein,Konventionell,-8.4,0.2,8.2,4.6,,0.0,0.79,0.1,-0.09,13,6,11
S117,2030,0,0,100,GK,Kein,Konventionell,-62.2,-54.7,-36.4,33.4,,0.0,0.14,-0.18,-0.22,14,7,13
S120,2030,100,0,0,WP,MAX,Konventionell,-67.2,-45.7,-2.3,17.0,,22.87,53.69,45.34,26.94,12,13,15
S101,2030,100,0,0,WP,MAX,Intelligent,-73.2,-55.7,-19.9,7.2,,27.34,53.07,52.52,19.08,7,10,10
S118,2030,67,0,33,GK,MAX,Konventionell,-51.4,-37.0,-43.0,8.8,,44.23,9.33,21.54,-0.06,10,2,6
S121,2030,33,0,67,WP,MIN,Konventionell,-78.1,-62.2,-32.7,25.1,,26.52,43.57,30.12,14.53,9,12,12
S119,2030,33,0,67,WP,MIN,Intelligent,-83.4,-70.6,-47.9,16.6,,30.37,42.99,34.88,11.67,6,11,8
S116,2045,100,0,0,GK,Kein,Konventionell,-21.0,6.3,28.6,15.9,,0.0,23.74,10.79,6.15,15,8,14
S22,2045,0,100,0,WP,MAX,Konventionell,-91.0,-62.8,-33.2,34.6,,29.62,44.93,33.41,12.92,11,3,9
S36,2045,0,0,100,WP,MAX,Konventionell,-92.9,-68.9,-45.6,40.5,,32.55,39.89,29.77,8.56,8,3,7
S26,2045,0,100,0,WP,MAX,Intelligent,-93.6,-71.6,-49.6,25.5,,37.95,45.97,41.93,10.13,4,4,2
S40,2045,0,0,100,WP,MAX,Intelligent,-95.3,-77.6,-61.2,31.8,,41.75,41.65,34.57,7.32,1,1,1
S122,2045,0,33,67,WP,MAX,Intelligent,-94.7,-75.7,-57.6,29.6,,40.5,43.1,36.78,8.15,3,9,5
S123,2045,0,17,83,WP,MAX,Intelligent,-94.8,-76.0,-58.2,29.9,,40.7,42.87,36.4,7.95,2,9,3
S113,2045,17,0,83,WP,MAX,Intelligent,-93.5,-71.4,-49.1,26.6,,38.05,46.23,40.11,9.97,5,5,4
