Zone-ID,Zone-Volume,Zone-Area
[-],m3,m2
DE.N.AB.05.Gen.ReEx.001_001-Zone_1,242.97,80.99
DE.N.AB.05.Gen.ReEx.001_001-Zone_2,242.97,80.99
DE.N.AB.05.Gen.ReEx.001_001-Zone_3,242.97,80.99
DE.N.AB.05.Gen.ReEx.001_001-Zone_4,242.97,80.99
DE.N.AB.05.Gen.ReEx.001_001-Zone_5,242.97,80.99
DE.N.AB.05.Gen.ReEx.001_001-Zone_6,242.97,80.99
DE.N.AB.05.Gen.ReEx.001_001-Zone_7,242.97,80.99
DE.N.AB.05.Gen.ReEx.001_001-Zone_8,242.97,80.99
DE.N.AB.05.Gen.ReEx.001_001-Zone_9,242.97,80.99
DE.N.AB.05.Gen.ReEx.001_001-Zone_10,242.97,80.99
DE.N.AB.05.Gen.ReEx.001_001-Zone_11,242.97,80.99
DE.N.AB.05.Gen.ReEx.001_001-Zone_12,242.97,80.99
DE.N.AB.05.Gen.ReEx.001_001-Zone_13,242.97,80.99
DE.N.AB.05.Gen.ReEx.001_001-Zone_14,242.97,80.99
DE.N.AB.05.Gen.ReEx.001_001-Zone_15,242.97,80.99
DE.N.AB.05.Gen.ReEx.001_001-Zone_16,242.97,80.99
DE.N.AB.05.Gen.ReEx.001_001-Zone_17,242.97,80.99
DE.N.AB.05.Gen.ReEx.001_001-Zone_18,242.97,80.99
DE.N.AB.05.Gen.ReEx.001_001-Zone_19,242.97,80.99
DE.N.AB.05.Gen.ReEx.001_001-Zone_20,242.97,80.99
DE.N.AB.05.Gen.ReEx.001_001-Zone_21,242.97,80.99
DE.N.AB.05.Gen.ReEx.001_001-Zone_22,242.97,80.99
DE.N.AB.05.Gen.ReEx.001_001-Zone_23,242.97,80.99
DE.N.AB.05.Gen.ReEx.001_001-Zone_24,242.97,80.99
DE.N.AB.05.Gen.ReEx.001_001-Zone_25,242.97,80.99
DE.N.AB.05.Gen.ReEx.001_001-Zone_26,242.97,80.99
DE.N.AB.05.Gen.ReEx.001_001-Zone_27,242.97,80.99
DE.N.AB.05.Gen.ReEx.001_001-Zone_28,242.97,80.99
DE.N.AB.05.Gen.ReEx.001_001-Zone_29,242.97,80.99
DE.N.AB.05.Gen.ReEx.001_001-Zone_30,242.97,80.99
DE.N.AB.05.Gen.ReEx.001_001-Zone_31,242.97,80.99
DE.N.AB.05.Gen.ReEx.001_001-Zone_32,242.97,80.99
DE.N.AB.05.Gen.ReEx.001_001-Zone_33,242.97,80.99
DE.N.AB.05.Gen.ReEx.001_001-Zone_34,242.97,80.99
DE.N.AB.05.Gen.ReEx.001_001-Zone_35,242.97,80.99
DE.N.AB.05.Gen.ReEx.001_001-Zone_36,242.97,80.99
DE.N.AB.05.Gen.ReEx.001_001-Zone_37,242.97,80.99
DE.N.AB.05.Gen.ReEx.001_001-Zone_38,242.97,80.99
DE.N.AB.05.Gen.ReEx.001_001-Zone_39,242.97,80.99
DE.N.AB.05.Gen.ReEx.001_001-Zone_40,242.97,80.99
DE.N.AB.05.Gen.ReEx.001_001-Zone_41,242.97,80.99
DE.N.AB.05.Gen.ReEx.001_001-Zone_42,242.97,80.99
DE.N.AB.05.Gen.ReEx.001_001-Zone_43,242.97,80.99
DE.N.AB.05.Gen.ReEx.001_001-Zone_44,242.97,80.99
DE.N.AB.05.Gen.ReEx.001_001-Zone_45,242.97,80.99
DE.N.AB.05.Gen.ReEx.001_001-Zone_46,242.97,80.99
DE.N.AB.05.Gen.ReEx.001_001-Zone_47,242.97,80.99
DE.N.AB.05.Gen.ReEx.001_001-Zone_48,242.97,80.99
DE.N.AB.05.Gen.ReEx.001_002-Zone_1,242.97,80.99
DE.N.AB.05.Gen.ReEx.001_002-Zone_2,242.97,80.99
DE.N.AB.05.Gen.ReEx.001_002-Zone_3,242.97,80.99
DE.N.AB.05.Gen.ReEx.001_002-Zone_4,242.97,80.99
DE.N.AB.05.Gen.ReEx.001_002-Zone_5,242.97,80.99
DE.N.AB.05.Gen.ReEx.001_002-Zone_6,242.97,80.99
DE.N.AB.05.Gen.ReEx.001_002-Zone_7,242.97,80.99
DE.N.AB.05.Gen.ReEx.001_002-Zone_8,242.97,80.99
DE.N.AB.05.Gen.ReEx.001_002-Zone_9,242.97,80.99
DE.N.AB.05.Gen.ReEx.001_002-Zone_10,242.97,80.99
DE.N.AB.05.Gen.ReEx.001_002-Zone_11,242.97,80.99
DE.N.AB.05.Gen.ReEx.001_002-Zone_12,242.97,80.99
DE.N.AB.05.Gen.ReEx.001_002-Zone_13,242.97,80.99
DE.N.AB.05.Gen.ReEx.001_002-Zone_14,242.97,80.99
DE.N.AB.05.Gen.ReEx.001_002-Zone_15,242.970000000,80.99
DE.N.AB.05.Gen.ReEx.001_002-Zone_16,242.970000000,80.99
DE.N.AB.05.Gen.ReEx.001_002-Zone_17,242.970000000,80.99
DE.N.AB.05.Gen.ReEx.001_002-Zone_18,242.97,80.99
DE.N.AB.05.Gen.ReEx.001_002-Zone_19,242.970000000,80.99
DE.N.AB.05.Gen.ReEx.001_002-Zone_20,242.970000000,80.99
DE.N.AB.05.Gen.ReEx.001_002-Zone_21,242.970000000,80.99
DE.N.AB.05.Gen.ReEx.001_002-Zone_22,242.97,80.99
DE.N.AB.05.Gen.ReEx.001_002-Zone_23,242.97,80.99
DE.N.AB.05.Gen.ReEx.001_002-Zone_24,242.97,80.99
DE.N.AB.05.Gen.ReEx.001_002-Zone_25,242.97,80.99
DE.N.AB.05.Gen.ReEx.001_002-Zone_26,242.97,80.99
DE.N.AB.05.Gen.ReEx.001_002-Zone_27,242.97,80.99
DE.N.AB.05.Gen.ReEx.001_002-Zone_28,242.97,80.99
DE.N.AB.05.Gen.ReEx.001_002-Zone_29,242.97,80.99
DE.N.AB.05.Gen.ReEx.001_002-Zone_30,242.97,80.99
DE.N.AB.05.Gen.ReEx.001_002-Zone_31,242.97,80.99
DE.N.AB.05.Gen.ReEx.001_002-Zone_32,242.97,80.99
DE.N.AB.05.Gen.ReEx.001_002-Zone_33,242.97,80.99
DE.N.AB.05.Gen.ReEx.001_002-Zone_34,242.97,80.99
DE.N.AB.05.Gen.ReEx.001_002-Zone_35,242.97,80.99
DE.N.AB.05.Gen.ReEx.001_002-Zone_36,242.97,80.99
DE.N.AB.05.Gen.ReEx.001_002-Zone_37,242.97,80.99
DE.N.AB.05.Gen.ReEx.001_002-Zone_38,242.97,80.99
DE.N.AB.05.Gen.ReEx.001_002-Zone_39,242.97,80.99
DE.N.AB.05.Gen.ReEx.001_002-Zone_40,242.97,80.99
DE.N.AB.05.Gen.ReEx.001_002-Zone_41,242.97,80.99
DE.N.AB.05.Gen.ReEx.001_002-Zone_42,242.97,80.99
DE.N.AB.05.Gen.ReEx.001_002-Zone_43,242.97,80.99
DE.N.AB.05.Gen.ReEx.001_002-Zone_44,242.97,80.99
DE.N.AB.05.Gen.ReEx.001_002-Zone_45,242.97,80.99
DE.N.AB.05.Gen.ReEx.001_002-Zone_46,242.97,80.99
DE.N.AB.05.Gen.ReEx.001_002-Zone_47,242.97,80.99
DE.N.AB.05.Gen.ReEx.001_002-Zone_48,242.970000000,80.99
DE.N.AB.06.Gen.ReEx.001_001-Zone_1,207.54,69.18
DE.N.AB.06.Gen.ReEx.001_001-Zone_2,207.54,69.18
DE.N.AB.06.Gen.ReEx.001_001-Zone_3,207.54,69.18
DE.N.AB.06.Gen.ReEx.001_001-Zone_4,207.54,69.18
DE.N.AB.06.Gen.ReEx.001_001-Zone_5,207.54,69.18
DE.N.AB.06.Gen.ReEx.001_001-Zone_6,207.54,69.18
DE.N.AB.06.Gen.ReEx.001_001-Zone_7,207.54,69.18
DE.N.AB.06.Gen.ReEx.001_001-Zone_8,207.54,69.18
DE.N.AB.06.Gen.ReEx.001_001-Zone_9,207.54,69.18
DE.N.AB.06.Gen.ReEx.001_001-Zone_10,207.54,69.18
DE.N.AB.06.Gen.ReEx.001_001-Zone_11,207.54,69.18
DE.N.AB.06.Gen.ReEx.001_001-Zone_12,207.54,69.18
DE.N.AB.06.Gen.ReEx.001_001-Zone_13,207.54,69.18
DE.N.AB.06.Gen.ReEx.001_001-Zone_14,207.54,69.18
DE.N.AB.06.Gen.ReEx.001_001-Zone_15,207.54,69.18
DE.N.AB.06.Gen.ReEx.001_001-Zone_16,207.54,69.18
DE.N.AB.06.Gen.ReEx.001_001-Zone_17,207.54,69.18
DE.N.AB.06.Gen.ReEx.001_001-Zone_18,207.54,69.18
DE.N.AB.06.Gen.ReEx.001_001-Zone_19,207.54,69.18
DE.N.AB.06.Gen.ReEx.001_001-Zone_20,207.54,69.18
DE.N.AB.06.Gen.ReEx.001_001-Zone_21,207.54,69.18
DE.N.AB.06.Gen.ReEx.001_001-Zone_22,207.54,69.18
DE.N.AB.06.Gen.ReEx.001_001-Zone_23,207.54,69.18
DE.N.AB.06.Gen.ReEx.001_001-Zone_24,207.54,69.18
DE.N.AB.06.Gen.ReEx.001_001-Zone_25,207.54,69.18
DE.N.AB.06.Gen.ReEx.001_001-Zone_26,207.54,69.18
DE.N.AB.06.Gen.ReEx.001_001-Zone_27,207.54,69.18
DE.N.AB.06.Gen.ReEx.001_001-Zone_28,207.54,69.18
DE.N.AB.06.Gen.ReEx.001_001-Zone_29,207.54,69.18
DE.N.AB.06.Gen.ReEx.001_001-Zone_30,207.54,69.18
DE.N.AB.06.Gen.ReEx.001_001-Zone_31,207.54,69.18
DE.N.AB.06.Gen.ReEx.001_001-Zone_32,207.54,69.18
DE.N.AB.06.Gen.ReEx.001_001-Zone_33,207.54,69.18
DE.N.AB.06.Gen.ReEx.001_001-Zone_34,207.54,69.18
DE.N.AB.06.Gen.ReEx.001_001-Zone_35,207.54,69.18
DE.N.AB.06.Gen.ReEx.001_001-Zone_36,207.54,69.18
DE.N.AB.06.Gen.ReEx.001_001-Zone_37,207.54,69.18
DE.N.AB.06.Gen.ReEx.001_001-Zone_38,207.54,69.18
DE.N.AB.06.Gen.ReEx.001_001-Zone_39,207.54,69.18
DE.N.AB.06.Gen.ReEx.001_001-Zone_40,207.54,69.18
DE.N.AB.06.Gen.ReEx.001_001-Zone_41,207.54,69.18
DE.N.AB.06.Gen.ReEx.001_001-Zone_42,207.54,69.18
DE.N.AB.06.Gen.ReEx.001_001-Zone_43,207.54,69.18
DE.N.AB.06.Gen.ReEx.001_001-Zone_44,207.54,69.18
DE.N.AB.06.Gen.ReEx.001_001-Zone_45,207.54,69.18
DE.N.AB.06.Gen.ReEx.001_001-Zone_46,207.54,69.18
DE.N.AB.06.Gen.ReEx.001_001-Zone_47,207.54,69.18
DE.N.AB.06.Gen.ReEx.001_001-Zone_48,207.54,69.18
DE.N.AB.06.Gen.ReEx.001_002-Zone_1,207.54,69.18
DE.N.AB.06.Gen.ReEx.001_002-Zone_2,207.54,69.18
DE.N.AB.06.Gen.ReEx.001_002-Zone_3,207.54,69.18
DE.N.AB.06.Gen.ReEx.001_002-Zone_4,207.54,69.18
DE.N.AB.06.Gen.ReEx.001_002-Zone_5,207.54,69.18
DE.N.AB.06.Gen.ReEx.001_002-Zone_6,207.54,69.18
DE.N.AB.06.Gen.ReEx.001_002-Zone_7,207.54,69.18
DE.N.AB.06.Gen.ReEx.001_002-Zone_8,207.54,69.18
DE.N.AB.06.Gen.ReEx.001_002-Zone_9,207.54,69.18
DE.N.AB.06.Gen.ReEx.001_002-Zone_10,207.54,69.18
DE.N.AB.06.Gen.ReEx.001_002-Zone_11,207.54,69.18
DE.N.AB.06.Gen.ReEx.001_002-Zone_12,207.54,69.18
DE.N.AB.06.Gen.ReEx.001_002-Zone_13,207.54,69.18
DE.N.AB.06.Gen.ReEx.001_002-Zone_14,207.54,69.18
DE.N.AB.06.Gen.ReEx.001_002-Zone_15,207.54,69.18
DE.N.AB.06.Gen.ReEx.001_002-Zone_16,207.54,69.18
DE.N.AB.06.Gen.ReEx.001_002-Zone_17,207.54,69.18
DE.N.AB.06.Gen.ReEx.001_002-Zone_18,207.54,69.18
DE.N.AB.06.Gen.ReEx.001_002-Zone_19,207.54,69.18
DE.N.AB.06.Gen.ReEx.001_002-Zone_20,207.54,69.18
DE.N.AB.06.Gen.ReEx.001_002-Zone_21,207.54,69.18
DE.N.AB.06.Gen.ReEx.001_002-Zone_22,207.54,69.18
DE.N.AB.06.Gen.ReEx.001_002-Zone_23,207.54,69.18
DE.N.AB.06.Gen.ReEx.001_002-Zone_24,207.54,69.18
DE.N.AB.06.Gen.ReEx.001_002-Zone_25,207.54,69.18
DE.N.AB.06.Gen.ReEx.001_002-Zone_26,207.54,69.18
DE.N.AB.06.Gen.ReEx.001_002-Zone_27,207.54,69.18
DE.N.AB.06.Gen.ReEx.001_002-Zone_28,207.54,69.18
DE.N.AB.06.Gen.ReEx.001_002-Zone_29,207.54,69.18
DE.N.AB.06.Gen.ReEx.001_002-Zone_30,207.54,69.18
DE.N.AB.06.Gen.ReEx.001_002-Zone_31,207.54,69.18
DE.N.AB.06.Gen.ReEx.001_002-Zone_32,207.54,69.18
DE.N.AB.06.Gen.ReEx.001_002-Zone_33,207.54,69.18
DE.N.AB.06.Gen.ReEx.001_002-Zone_34,207.54,69.18
DE.N.AB.06.Gen.ReEx.001_002-Zone_35,207.54,69.18
DE.N.AB.06.Gen.ReEx.001_002-Zone_36,207.54,69.18
DE.N.AB.06.Gen.ReEx.001_002-Zone_37,207.54,69.18
DE.N.AB.06.Gen.ReEx.001_002-Zone_38,207.54,69.18
DE.N.AB.06.Gen.ReEx.001_002-Zone_39,207.54,69.18
DE.N.AB.06.Gen.ReEx.001_002-Zone_40,207.54,69.18
DE.N.AB.06.Gen.ReEx.001_002-Zone_41,207.54,69.18
DE.N.AB.06.Gen.ReEx.001_002-Zone_42,207.54,69.18
DE.N.AB.06.Gen.ReEx.001_002-Zone_43,207.54,69.18
DE.N.AB.06.Gen.ReEx.001_002-Zone_44,207.54,69.18
DE.N.AB.06.Gen.ReEx.001_002-Zone_45,207.54,69.18
DE.N.AB.06.Gen.ReEx.001_002-Zone_46,207.54,69.18
DE.N.AB.06.Gen.ReEx.001_002-Zone_47,207.54,69.18
DE.N.AB.06.Gen.ReEx.001_002-Zone_48,207.54,69.18
DE.N.MFH.06.Gen.ReEx.001_003-Zone_1,175.8,58.6
DE.N.MFH.06.Gen.ReEx.001_003-Zone_2,175.8,58.6
DE.N.MFH.06.Gen.ReEx.001_003-Zone_3,175.8,58.6
DE.N.MFH.06.Gen.ReEx.001_003-Zone_4,175.8,58.6
DE.N.MFH.06.Gen.ReEx.001_003-Zone_5,175.8,58.6
DE.N.MFH.06.Gen.ReEx.001_003-Zone_6,175.8,58.6
DE.N.MFH.06.Gen.ReEx.001_003-Zone_7,175.8,58.6
DE.N.MFH.06.Gen.ReEx.001_003-Zone_8,175.8,58.6
DE.N.MFH.06.Gen.ReEx.001_004-Zone_1,175.8,58.6
DE.N.MFH.06.Gen.ReEx.001_004-Zone_2,175.8,58.6
DE.N.MFH.06.Gen.ReEx.001_004-Zone_3,175.8,58.6
DE.N.MFH.06.Gen.ReEx.001_004-Zone_4,175.8,58.6
DE.N.MFH.06.Gen.ReEx.001_004-Zone_5,175.8,58.6
DE.N.MFH.06.Gen.ReEx.001_004-Zone_6,175.8,58.6
DE.N.MFH.06.Gen.ReEx.001_004-Zone_7,175.8,58.6
DE.N.MFH.06.Gen.ReEx.001_004-Zone_8,175.8,58.6
DE.N.MFH.07.Gen.ReEx.001_001-Zone_1,288.0,72.0
DE.N.MFH.07.Gen.ReEx.001_001-Zone_2,288.0,72.0
DE.N.MFH.07.Gen.ReEx.001_001-Zone_3,288.0,72.0
DE.N.MFH.07.Gen.ReEx.001_001-Zone_4,288.0,72.0
DE.N.MFH.07.Gen.ReEx.001_001-Zone_5,288.0,72.0
DE.N.MFH.07.Gen.ReEx.001_001-Zone_6,288.0,72.0
DE.N.MFH.07.Gen.ReEx.001_001-Zone_7,288.0,72.0
DE.N.MFH.07.Gen.ReEx.001_001-Zone_8,288.0,72.0
DE.N.MFH.07.Gen.ReEx.001_001-Zone_9,288.0,72.0
DE.N.MFH.07.Gen.ReEx.001_002-Zone_1,288.0,72.0
DE.N.MFH.07.Gen.ReEx.001_002-Zone_2,288.0,72.0
DE.N.MFH.07.Gen.ReEx.001_002-Zone_3,288.0,72.0
DE.N.MFH.07.Gen.ReEx.001_002-Zone_4,288.0,72.0
DE.N.MFH.07.Gen.ReEx.001_002-Zone_5,288.0,72.0
DE.N.MFH.07.Gen.ReEx.001_002-Zone_6,288.0,72.0
DE.N.MFH.07.Gen.ReEx.001_002-Zone_7,288.0,72.0
DE.N.MFH.07.Gen.ReEx.001_002-Zone_8,288.0,72.0
DE.N.MFH.07.Gen.ReEx.001_002-Zone_9,288.0,72.0
DE.N.MFH.06.Gen.ReEx.001_005-Zone_1,175.8,58.6
DE.N.MFH.06.Gen.ReEx.001_005-Zone_2,175.8,58.6
DE.N.MFH.06.Gen.ReEx.001_005-Zone_3,175.8,58.6
DE.N.MFH.06.Gen.ReEx.001_005-Zone_4,175.8,58.6
DE.N.MFH.06.Gen.ReEx.001_005-Zone_5,175.8,58.6
DE.N.MFH.06.Gen.ReEx.001_005-Zone_6,175.8,58.6
DE.N.MFH.06.Gen.ReEx.001_005-Zone_7,175.8,58.6
DE.N.MFH.06.Gen.ReEx.001_005-Zone_8,175.8,58.6
DE.N.MFH.06.Gen.ReEx.001_006-Zone_1,175.8,58.6
DE.N.MFH.06.Gen.ReEx.001_006-Zone_2,175.8,58.6
DE.N.MFH.06.Gen.ReEx.001_006-Zone_3,175.8,58.6
DE.N.MFH.06.Gen.ReEx.001_006-Zone_4,175.8,58.6
DE.N.MFH.06.Gen.ReEx.001_006-Zone_5,175.8,58.6
DE.N.MFH.06.Gen.ReEx.001_006-Zone_6,175.8,58.6
DE.N.MFH.06.Gen.ReEx.001_006-Zone_7,175.8,58.6
DE.N.MFH.06.Gen.ReEx.001_006-Zone_8,175.8,58.6
DE.N.MFH.06.Gen.ReEx.001_007-Zone_1,175.8,58.6
DE.N.MFH.06.Gen.ReEx.001_007-Zone_2,175.8,58.6
DE.N.MFH.06.Gen.ReEx.001_007-Zone_3,175.8,58.6
DE.N.MFH.06.Gen.ReEx.001_007-Zone_4,175.8,58.6
DE.N.MFH.06.Gen.ReEx.001_007-Zone_5,175.8,58.6
DE.N.MFH.06.Gen.ReEx.001_007-Zone_6,175.8,58.6
DE.N.MFH.06.Gen.ReEx.001_007-Zone_7,175.8,58.6
DE.N.MFH.06.Gen.ReEx.001_007-Zone_8,175.8,58.6
DE.N.MFH.07.Gen.ReEx.001_003-Zone_1,288.0,72.0
DE.N.MFH.07.Gen.ReEx.001_003-Zone_2,288.0,72.0
DE.N.MFH.07.Gen.ReEx.001_003-Zone_3,288.0,72.0
DE.N.MFH.07.Gen.ReEx.001_003-Zone_4,288.0,72.0
DE.N.MFH.07.Gen.ReEx.001_003-Zone_5,288.0,72.0
DE.N.MFH.07.Gen.ReEx.001_003-Zone_6,288.0,72.0
DE.N.MFH.07.Gen.ReEx.001_003-Zone_7,288.0,72.0
DE.N.MFH.07.Gen.ReEx.001_003-Zone_8,288.0,72.0
DE.N.MFH.07.Gen.ReEx.001_003-Zone_9,288.0,72.0
DE.N.MFH.07.Gen.ReEx.001_004-Zone_1,288.0,72.0
DE.N.MFH.07.Gen.ReEx.001_004-Zone_2,288.0,72.0
DE.N.MFH.07.Gen.ReEx.001_004-Zone_3,288.0,72.0
DE.N.MFH.07.Gen.ReEx.001_004-Zone_4,288.0,72.0
DE.N.MFH.07.Gen.ReEx.001_004-Zone_5,288.0,72.0
DE.N.MFH.07.Gen.ReEx.001_004-Zone_6,288.0,72.0
DE.N.MFH.07.Gen.ReEx.001_004-Zone_7,288.0,72.0
DE.N.MFH.07.Gen.ReEx.001_004-Zone_8,288.0,72.0
DE.N.MFH.07.Gen.ReEx.001_004-Zone_9,288.0,72.0
DE.N.MFH.07.Gen.ReEx.001_005-Zone_1,288.0,72.0
DE.N.MFH.07.Gen.ReEx.001_005-Zone_2,288.0,72.0
DE.N.MFH.07.Gen.ReEx.001_005-Zone_3,288.0,72.0
DE.N.MFH.07.Gen.ReEx.001_005-Zone_4,288.0,72.0
DE.N.MFH.07.Gen.ReEx.001_005-Zone_5,288.0,72.0
DE.N.MFH.07.Gen.ReEx.001_005-Zone_6,288.0,72.0
DE.N.MFH.07.Gen.ReEx.001_005-Zone_7,288.0,72.0
DE.N.MFH.07.Gen.ReEx.001_005-Zone_8,288.0,72.0
DE.N.MFH.07.Gen.ReEx.001_005-Zone_9,288.0,72.0
DE.N.MFH.07.Gen.ReEx.001_006-Zone_1,288.0,72.0
DE.N.MFH.07.Gen.ReEx.001_006-Zone_2,288.0,72.0
DE.N.MFH.07.Gen.ReEx.001_006-Zone_3,288.0,72.0
DE.N.MFH.07.Gen.ReEx.001_006-Zone_4,288.0,72.0
DE.N.MFH.07.Gen.ReEx.001_006-Zone_5,288.0,72.0
DE.N.MFH.07.Gen.ReEx.001_006-Zone_6,288.0,72.0
DE.N.MFH.07.Gen.ReEx.001_006-Zone_7,288.0,72.0
DE.N.MFH.07.Gen.ReEx.001_006-Zone_8,288.0,72.0
DE.N.MFH.07.Gen.ReEx.001_006-Zone_9,288.0,72.0
DE.N.MFH.06.Gen.ReEx.001_008-Zone_1,175.8,58.6
DE.N.MFH.06.Gen.ReEx.001_008-Zone_2,175.8,58.6
DE.N.MFH.06.Gen.ReEx.001_008-Zone_3,175.8,58.6
DE.N.MFH.06.Gen.ReEx.001_008-Zone_4,175.8,58.6
DE.N.MFH.06.Gen.ReEx.001_008-Zone_5,175.8,58.6
DE.N.MFH.06.Gen.ReEx.001_008-Zone_6,175.8,58.6
DE.N.MFH.06.Gen.ReEx.001_008-Zone_7,175.8,58.6
DE.N.MFH.06.Gen.ReEx.001_008-Zone_8,175.8,58.6
DE.N.MFH.06.Gen.ReEx.001_009-Zone_1,175.8,58.6
DE.N.MFH.06.Gen.ReEx.001_009-Zone_2,175.8,58.6
DE.N.MFH.06.Gen.ReEx.001_009-Zone_3,175.8,58.6
DE.N.MFH.06.Gen.ReEx.001_009-Zone_4,175.8,58.6
DE.N.MFH.06.Gen.ReEx.001_009-Zone_5,175.8,58.6
DE.N.MFH.06.Gen.ReEx.001_009-Zone_6,175.8,58.6
DE.N.MFH.06.Gen.ReEx.001_009-Zone_7,175.8,58.6
DE.N.MFH.06.Gen.ReEx.001_009-Zone_8,175.8,58.6
DE.N.MFH.07.Gen.ReEx.001_007-Zone_1,288.0,72.0
DE.N.MFH.07.Gen.ReEx.001_007-Zone_2,288.0,72.0
DE.N.MFH.07.Gen.ReEx.001_007-Zone_3,288.0,72.0
DE.N.MFH.07.Gen.ReEx.001_007-Zone_4,288.0,72.0
DE.N.MFH.07.Gen.ReEx.001_007-Zone_5,288.0,72.0
DE.N.MFH.07.Gen.ReEx.001_007-Zone_6,288.0,72.0
DE.N.MFH.07.Gen.ReEx.001_007-Zone_7,288.0,72.0
DE.N.MFH.07.Gen.ReEx.001_007-Zone_8,288.0,72.0
DE.N.MFH.07.Gen.ReEx.001_007-Zone_9,288.0,72.0
DE.N.MFH.07.Gen.ReEx.001_008-Zone_1,288.0,72.0
DE.N.MFH.07.Gen.ReEx.001_008-Zone_2,288.0,72.0
DE.N.MFH.07.Gen.ReEx.001_008-Zone_3,288.0,72.0
DE.N.MFH.07.Gen.ReEx.001_008-Zone_4,288.0,72.0
DE.N.MFH.07.Gen.ReEx.001_008-Zone_5,288.0,72.0
DE.N.MFH.07.Gen.ReEx.001_008-Zone_6,288.0,72.0
DE.N.MFH.07.Gen.ReEx.001_008-Zone_7,288.0,72.0
DE.N.MFH.07.Gen.ReEx.001_008-Zone_8,288.0,72.0
DE.N.MFH.07.Gen.ReEx.001_008-Zone_9,288.0,72.0
DE.N.MFH.06.Gen.ReEx.001_001-Zone_1,175.8,58.6
DE.N.MFH.06.Gen.ReEx.001_001-Zone_2,175.8,58.6
DE.N.MFH.06.Gen.ReEx.001_001-Zone_3,175.8,58.6
DE.N.MFH.06.Gen.ReEx.001_001-Zone_4,175.8,58.6
DE.N.MFH.06.Gen.ReEx.001_001-Zone_5,175.8,58.6
DE.N.MFH.06.Gen.ReEx.001_001-Zone_6,175.8,58.6
DE.N.MFH.06.Gen.ReEx.001_001-Zone_7,175.8,58.6
DE.N.MFH.06.Gen.ReEx.001_001-Zone_8,175.8,58.6
DE.N.MFH.06.Gen.ReEx.001_002-Zone_1,175.8,58.6
DE.N.MFH.06.Gen.ReEx.001_002-Zone_2,175.8,58.6
DE.N.MFH.06.Gen.ReEx.001_002-Zone_3,175.8,58.6
DE.N.MFH.06.Gen.ReEx.001_002-Zone_4,175.8,58.6
DE.N.MFH.06.Gen.ReEx.001_002-Zone_5,175.8,58.6
DE.N.MFH.06.Gen.ReEx.001_002-Zone_6,175.8,58.6
DE.N.MFH.06.Gen.ReEx.001_002-Zone_7,175.8,58.6
DE.N.MFH.06.Gen.ReEx.001_002-Zone_8,175.8,58.6
