,0
0,ok
1,ok
2,ok
3,ok
4,ok
5,ok
6,ok
7,ok
8,ok
9,ok
10,ok
11,ok
12,ok
13,ok
14,ok
15,ok
16,ok
17,ok
18,ok
19,ok
20,ok
21,ok
22,ok
23,ok
24,ok
25,ok
26,ok
27,ok
28,ok
29,ok
30,ok
31,ok
32,ok
33,ok
34,ok
35,ok
36,ok
37,ok
38,ok
39,ok
40,ok
41,ok
42,ok
43,ok
44,ok
45,ok
46,ok
47,ok
48,ok
49,ok
50,warning
51,warning
52,warning
53,warning
54,warning
55,warning
56,warning
57,warning
58,warning
59,warning
60,ok
61,ok
62,ok
63,ok
64,ok
65,ok
66,ok
67,ok
68,ok
69,ok
70,ok
71,ok
72,ok
73,ok
74,ok
75,ok
76,ok
77,ok
78,ok
79,ok
80,ok
81,ok
82,ok
83,ok
84,ok
85,ok
86,ok
87,ok
88,ok
89,ok
90,ok
91,ok
92,ok
93,ok
94,ok
95,ok
96,ok
97,ok
98,ok
99,ok
100,warning
101,warning
102,warning
103,warning
104,ok
105,ok
106,warning
107,warning
108,ok
109,ok
110,ok
111,ok
112,ok
113,ok
114,ok
115,ok
116,ok
117,ok
118,ok
119,ok
120,ok
121,ok
122,ok
123,ok
124,warning
125,warning
126,ok
127,ok
128,ok
129,ok
130,ok
131,ok
132,ok
133,ok
134,ok
135,ok
136,ok
137,ok
138,ok
139,ok
140,warning
141,warning
142,ok
143,ok
144,ok
145,warning
146,warning
147,warning
148,warning
149,warning
150,ok
151,ok
152,ok
153,ok
154,ok
155,ok
156,ok
157,ok
158,ok
159,ok
160,ok
161,ok
162,ok
163,ok
164,ok
165,ok
166,ok
167,ok
168,ok
169,ok
170,ok
171,ok
172,ok
173,ok
174,ok
175,ok
176,ok
177,ok
178,ok
179,ok
180,ok
181,ok
182,ok
183,ok
184,ok
185,ok
186,ok
187,ok
188,ok
189,ok
190,ok
191,ok
192,ok
193,ok
194,warning
195,warning
196,warning
197,warning
198,ok
199,ok
200,ok
201,ok
202,ok
203,ok
204,ok
205,ok
206,warning
207,warning
208,ok
209,ok
210,ok
211,ok
212,ok
213,ok
214,ok
215,ok
216,ok
217,ok
218,ok
219,ok
220,ok
221,ok
222,ok
223,ok
224,warning
225,warning
226,warning
227,warning
228,ok
229,ok
230,ok
231,ok
232,warning
233,warning
234,ok
235,ok
236,warning
237,warning
238,warning
239,warning
240,warning
241,warning
242,ok
243,ok
244,ok
245,ok
246,ok
247,ok
248,ok
249,ok
250,ok
251,ok
252,ok
253,ok
254,warning
255,warning
256,ok
257,ok
258,ok
259,ok
260,ok
261,ok
262,warning
263,warning
264,ok
265,ok
266,ok
267,ok
268,ok
269,ok
270,warning
271,warning
272,warning
273,warning
274,ok
275,ok
276,ok
277,ok
278,ok
279,ok
280,ok
281,ok
282,ok
283,ok
284,ok
285,ok
286,ok
287,ok
288,ok
289,ok
290,ok
291,ok
292,ok
293,ok
294,ok
295,ok
296,ok
297,ok
298,ok
299,ok
300,ok
301,ok
302,ok
303,ok
304,ok
305,warning
306,warning
307,warning
308,ok
309,ok
310,ok
311,ok
312,ok
313,ok
314,ok
315,ok
316,ok
317,ok
318,ok
319,ok
320,ok
321,ok
322,ok
323,ok
324,ok
325,ok
326,ok
327,ok
328,ok
329,warning
330,warning
331,warning
332,ok
333,ok
334,ok
335,ok
336,ok
337,ok
338,ok
339,ok
340,ok
341,ok
342,ok
343,ok
344,ok
345,ok
346,ok
347,ok
348,ok
349,ok
350,ok
351,ok
352,ok
353,ok
354,ok
355,ok
356,ok
357,ok
358,ok
359,warning
360,warning
361,warning
362,ok
363,ok
364,ok
365,ok
366,ok
367,ok
368,ok
369,ok
370,ok
371,ok
372,ok
373,ok
374,ok
375,ok
376,warning
377,warning
378,ok
379,ok
380,ok
381,ok
382,ok
383,ok
384,ok
385,ok
386,ok
387,ok
388,ok
389,ok
390,ok
391,ok
392,ok
393,ok
394,ok
395,ok
396,ok
397,ok
398,ok
399,ok
400,ok
401,warning
402,warning
403,warning
404,ok
405,ok
406,ok
407,ok
408,warning
409,warning
410,ok
411,ok
412,ok
413,ok
414,ok
415,ok
416,ok
417,ok
418,ok
419,ok
420,ok
421,ok
422,ok
423,ok
424,warning
425,warning
426,warning
427,warning
428,ok
429,ok
430,ok
431,ok
432,ok
433,ok
434,ok
435,ok
436,ok
437,ok
438,ok
439,ok
440,warning
441,warning
442,ok
443,ok
444,ok
445,ok
446,ok
447,ok
448,ok
449,ok
450,ok
451,ok
452,ok
453,ok
454,ok
455,ok
456,ok
457,ok
458,warning
459,warning
460,warning
461,warning
462,ok
463,ok
464,ok
465,ok
466,ok
467,ok
468,ok
469,ok
470,ok
471,ok
472,ok
473,ok
474,ok
475,ok
476,ok
477,ok
478,ok
479,ok
480,warning
481,warning
482,ok
483,ok
484,ok
485,ok
486,ok
487,ok
488,ok
489,ok
490,ok
491,ok
492,ok
493,ok
494,ok
495,ok
496,ok
497,ok
498,ok
499,ok
500,ok
501,ok
502,ok
503,ok
504,ok
505,ok
506,ok
507,ok
508,ok
509,ok
510,ok
511,ok
512,ok
513,ok
514,ok
515,ok
516,ok
517,ok
518,ok
519,ok
520,ok
521,ok
522,ok
523,ok
524,ok
525,ok
526,ok
527,ok
528,ok
529,ok
530,ok
531,ok
532,ok
533,ok
534,ok
535,ok
536,ok
537,ok
538,ok
539,ok
540,ok
541,ok
542,ok
543,ok
544,ok
545,ok
546,ok
547,ok
548,ok
549,ok
550,ok
551,ok
552,ok
553,ok
554,ok
555,ok
556,ok
557,ok
558,ok
559,ok
560,ok
561,ok
562,warning
563,warning
564,ok
565,ok
566,ok
567,ok
568,ok
569,warning
570,warning
571,warning
572,ok
573,ok
574,ok
575,ok
576,ok
577,ok
578,ok
579,ok
580,ok
581,ok
582,ok
583,ok
584,ok
585,ok
586,ok
587,ok
588,ok
589,ok
590,ok
591,ok
592,ok
593,ok
594,ok
595,ok
596,ok
597,ok
598,ok
599,ok
600,ok
601,ok
602,ok
603,ok
604,ok
605,ok
606,ok
607,ok
608,ok
609,warning
610,warning
611,warning
612,ok
613,ok
614,ok
615,ok
616,ok
617,ok
618,ok
619,ok
620,ok
621,ok
622,ok
623,ok
624,ok
625,ok
626,ok
627,ok
628,ok
629,ok
630,ok
631,ok
632,ok
633,ok
634,ok
635,ok
636,ok
637,ok
638,ok
639,ok
640,ok
641,ok
642,ok
643,ok
644,ok
645,ok
646,ok
647,ok
648,ok
649,ok
650,ok
651,ok
652,warning
653,warning
654,warning
655,warning
656,ok
657,ok
658,ok
659,ok
660,ok
661,ok
662,ok
663,ok
664,ok
665,ok
666,warning
667,warning
668,warning
669,warning
670,ok
671,ok
672,ok
673,ok
674,ok
675,ok
676,ok
677,ok
678,ok
679,ok
680,ok
681,ok
682,ok
683,ok
684,ok
685,ok
686,ok
687,ok
688,warning
689,warning
690,ok
691,ok
692,ok
693,ok
694,ok
695,ok
696,ok
697,ok
698,ok
699,ok
700,ok
701,ok
702,warning
703,warning
704,ok
705,ok
706,ok
707,ok
708,ok
709,ok
710,ok
711,warning
712,warning
713,warning
714,warning
715,warning
716,ok
717,ok
718,ok
719,ok
720,ok
721,ok
722,ok
723,ok
724,ok
725,ok
726,ok
727,ok
728,ok
729,ok
730,ok
731,ok
