,COMPONENT,AREA,DIRECTION,ORIENTATION,INCLINATION,LAYER_NR,LAYERS,THICKNESS,CONDUCTIVITY,DENSITY,CAPACITY,HBACK,HFRONT,UVALUE,Glass_SHGC,LW-BACK,LW-FRONT,SW-BACK,SW-FRONT,wid,Frame_fraction,gh_ID,Win_Soffit
units,-,m2,-,DEG,DEG,-,-,m,kJ/hmK,kg/m3,kJ/kgK,W/m2K,W/m2K,W/m2K,%,%,%,%,%,-,-,,
11,MFH_AB1_IF_1,106.354053745,H,0,180.0,1,BODENBELAG_HOLZ,0.005,0.486,500.0,1.6,,5.9,0.98,,,0.9,,0.4,,,MFH2-Zone_7-Face0,
12,MFH_AB1_IF_1,,,,,2,ZEMENTSTRICH,0.05,5.04,2000.0,1.0,,,,,,,,,,,,
13,MFH_AB1_IF_1,,,,,3,TRITTSCHALLDAEMMUNG_1,0.02,0.14400000000000002,35.0,1.45,,,,,,,,,,,,
14,MFH_AB1_IF_1,,,,,4,STAHLBETON_1,0.18,7.2,2400.0,0.95,,,,,,,,,,,,
15,MFH_AB1_IF_1,,,,,5,KALKGIPSPUTZ_1,0.01,2.52,1400.0,1.1,5.9,,,,0.9,,0.4,,,,,
0,MFH_AB1_W_1,1.5303769113920003,S,0,89.0,1,,,,,,17.78,3.06,2.574,0.64,0.86,0.86,,,3416-GU,0.3,,0.1
0,MFH_AB1_EW_1,10.9312636528,S,0,89.0,1,KALKGIPSPUTZ_1,0.01,2.52,1400.0,1.1,,7.7,1.25,,,0.9,,0.7,,,MFH2-Zone_7-Face1,
1,MFH_AB1_EW_1,,,,,2,HOCHLOCHZIEGEL,0.36,2.16,1400.0,1.0,,,,,,,,,,,,
2,MFH_AB1_EW_1,,,,,3,KALKZEMENTPUTZ,0.015,3.1319999999999997,1800.0,1.0,25.0,,,,0.9,,0.3,,,,,
0,MFH_AB1_W_2,3.57601759844,E,270,90.0,1,,,,,,17.78,3.06,2.574,0.64,0.86,0.86,,,3416-GU,0.3,,0.1
0,MFH_AB1_EW_2,25.542982845999997,E,270,90.0,1,KALKGIPSPUTZ_1,0.01,2.52,1400.0,1.1,,7.7,1.25,,,0.9,,0.7,,,MFH2-Zone_7-Face2,
1,MFH_AB1_EW_2,,,,,2,HOCHLOCHZIEGEL,0.36,2.16,1400.0,1.0,,,,,,,,,,,,
2,MFH_AB1_EW_2,,,,,3,KALKZEMENTPUTZ,0.015,3.1319999999999997,1800.0,1.0,25.0,,,,0.9,,0.3,,,,,
0,MFH_AB1_W_3,5.24629830928,N,180,90.0,1,,,,,,17.78,3.06,2.574,0.64,0.86,0.86,,,3416-GU,0.3,,0.1
0,MFH_AB1_EW_3,37.473559351999995,N,180,90.0,1,KALKGIPSPUTZ_1,0.01,2.52,1400.0,1.1,,7.7,1.25,,,0.9,,0.7,,,MFH2-Zone_7-Face3,
1,MFH_AB1_EW_3,,,,,2,HOCHLOCHZIEGEL,0.36,2.16,1400.0,1.0,,,,,,,,,,,,
2,MFH_AB1_EW_3,,,,,3,KALKZEMENTPUTZ,0.015,3.1319999999999997,1800.0,1.0,25.0,,,,0.9,,0.3,,,,,
0,MFH_AB1_W_4,3.57601759844,W,90,90.0,1,,,,,,17.78,3.06,2.574,0.64,0.86,0.86,,,3416-GU,0.3,,0.1
0,MFH_AB1_EW_4,25.542982845999997,W,90,90.0,1,KALKGIPSPUTZ_1,0.01,2.52,1400.0,1.1,,7.7,1.25,,,0.9,,0.7,,,MFH2-Zone_7-Face4,
1,MFH_AB1_EW_4,,,,,2,HOCHLOCHZIEGEL,0.36,2.16,1400.0,1.0,,,,,,,,,,,,
2,MFH_AB1_EW_4,,,,,3,KALKZEMENTPUTZ,0.015,3.1319999999999997,1800.0,1.0,25.0,,,,0.9,,0.3,,,,,
16,MFH_AB1_ER_1,106.354053745,H,0,0.0,1,GIPSKARTONPLATTE,0.015,2.52,1400.0,1.1,,10.0,0.8,,,0.9,,0.6,,,MFH2-Zone_7-Face5,
17,MFH_AB1_ER_1,,,,,2,DAEMMUNG_HOLZSPARREN_2,0.05,0.215,20.0,0.83,,,,,,,,,,,,
18,MFH_AB1_ER_1,,,,,3,LUFTSCHICHT_HOLZSPARREN,0.09,2.045,0.0001,0.0001,,,,,,,,,,,,
19,MFH_AB1_ER_1,,,,,4,HOLZLATTUNG,0.01,0.46799999999999997,500.0,1.6,,,,,,,,,,,,
20,MFH_AB1_ER_1,,,,,5,ZIEGEL_AUF_GLATTUNG,0.01,3.6,2000.0,0.8,25.0,,,,0.9,,0.6,,,,,
3,MFH_AB1_IW_1,26.5422956992,S,0,89.0,1,KALKGIPSPUTZ_1,0.01,2.52,1400.0,1.1,,7.7,1.61,,,0.9,,0.4,,,MFH2-Zone_7-Face6,
4,MFH_AB1_IW_1,,,,,2,HOCHLOCHZIEGEL,0.2,2.16,1400.0,1.0,,,,,,,,,,,,
5,MFH_AB1_IW_1,,,,,3,KALKGIPSPUTZ_1,0.01,2.52,1400.0,1.1,7.7,,,,0.9,,0.4,,,,,
