,COMPONENT,AREA,DIRECTION,ORIENTATION,INCLINATION,LAYER_NR,LAYERS,THICKNESS,CONDUCTIVITY,DENSITY,CAPACITY,HBACK,HFRONT,UVALUE,Glass_SHGC,LW-BACK,LW-FRONT,SW-BACK,SW-FRONT,wid,Frame_fraction,gh_ID,Win_Soffit
units,-,m2,-,DEG,DEG,-,-,m,kJ/hmK,kg/m3,kJ/kgK,W/m2K,W/m2K,W/m2K,%,%,%,%,%,-,-,,
26,MFH_AB1_GF_1,95.8497783364,H,0,180.0,1,PARKETTBELAG,0.02,0.486,500.0,1.6,,5.9,1.61,,,0.9,,0.4,,,MFH2-Zone_1-Face0,
27,MFH_AB1_GF_1,,,,,2,ZEMENTSTRICH,0.04,5.04,2000.0,1.0,,,,,,,,,,,,
28,MFH_AB1_GF_1,,,,,3,TRITTSCHALLDAEMMUNG_1,0.008,0.14400000000000002,35.0,1.45,,,,,,,,,,,,
29,MFH_AB1_GF_1,,,,,4,STAHLBETON_1,0.15,7.2,2400.0,0.95,1000000.0,,,,1e-06,,1e-06,,,,,
0,MFH_AB1_W_1,4.390039514392001,S,0,90.0,1,,,,,,17.78,3.06,2.574,0.64,0.86,0.86,,,3416-GU,0.3,,0.1
0,MFH_AB1_EW_1,31.3574251028,S,0,90.0,1,KALKGIPSPUTZ_1,0.01,2.52,1400.0,1.1,,7.7,1.25,,,0.9,,0.7,,,MFH2-Zone_1-Face1,
1,MFH_AB1_EW_1,,,,,2,HOCHLOCHZIEGEL,0.36,2.16,1400.0,1.0,,,,,,,,,,,,
2,MFH_AB1_EW_1,,,,,3,KALKZEMENTPUTZ,0.015,3.1319999999999997,1800.0,1.0,25.0,,,,0.9,,0.3,,,,,
0,MFH_AB1_W_2,3.851423396786,E,270,90.0,1,,,,,,17.78,3.06,2.574,0.64,0.86,0.86,,,3416-GU,0.3,,0.1
0,MFH_AB1_EW_2,27.510167119899997,E,270,90.0,1,KALKGIPSPUTZ_1,0.01,2.52,1400.0,1.1,,7.7,1.25,,,0.9,,0.7,,,MFH2-Zone_1-Face2,
1,MFH_AB1_EW_2,,,,,2,HOCHLOCHZIEGEL,0.36,2.16,1400.0,1.0,,,,,,,,,,,,
2,MFH_AB1_EW_2,,,,,3,KALKZEMENTPUTZ,0.015,3.1319999999999997,1800.0,1.0,25.0,,,,0.9,,0.3,,,,,
0,MFH_AB1_W_3,4.390039514392001,N,180,90.0,1,,,,,,17.78,3.06,2.574,0.64,0.86,0.86,,,3416-GU,0.3,,0.1
0,MFH_AB1_EW_3,31.3574251028,N,180,90.0,1,KALKGIPSPUTZ_1,0.01,2.52,1400.0,1.1,,7.7,1.25,,,0.9,,0.7,,,MFH2-Zone_1-Face3,
1,MFH_AB1_EW_3,,,,,2,HOCHLOCHZIEGEL,0.36,2.16,1400.0,1.0,,,,,,,,,,,,
2,MFH_AB1_EW_3,,,,,3,KALKZEMENTPUTZ,0.015,3.1319999999999997,1800.0,1.0,25.0,,,,0.9,,0.3,,,,,
3,MFH_AB1_IW_1,15.160670913399999,W,90,90.0,1,KALKGIPSPUTZ_1,0.01,2.52,1400.0,1.1,,7.7,1.61,,,0.9,,0.4,,,MFH2-Zone_1-Face4,
4,MFH_AB1_IW_1,,,,,2,HOCHLOCHZIEGEL,0.2,2.16,1400.0,1.0,,,,,,,,,,,,
5,MFH_AB1_IW_1,,,,,3,KALKGIPSPUTZ_1,0.01,2.52,1400.0,1.1,7.7,,,,0.9,,0.4,,,,,
6,MFH_AB1_IC_1,95.8497783364,H,0,0.0,1,KALKGIPSPUTZ_1,0.01,2.52,1400.0,1.1,,10.0,1.14,,,0.9,,0.4,,,MFH2-Zone_1-Face5,
7,MFH_AB1_IC_1,,,,,2,STAHLBETON_1,0.18,7.2,2400.0,0.95,,,,,,,,,,,,
8,MFH_AB1_IC_1,,,,,3,TRITTSCHALLDAEMMUNG_1,0.02,0.14400000000000002,35.0,1.45,,,,,,,,,,,,
9,MFH_AB1_IC_1,,,,,4,ZEMENTSTRICH,0.05,5.04,2000.0,1.0,,,,,,,,,,,,
10,MFH_AB1_IC_1,,,,,5,BODENBELAG_HOLZ,0.005,0.486,500.0,1.6,10.0,,,,0.9,,0.4,,,,,
3,MFH_AB1_IW_2,12.349496206500001,W,90,90.0,1,KALKGIPSPUTZ_1,0.01,2.52,1400.0,1.1,,7.7,1.61,,,0.9,,0.4,,,MFH2-Zone_1-Face6,
4,MFH_AB1_IW_2,,,,,2,HOCHLOCHZIEGEL,0.2,2.16,1400.0,1.0,,,,,,,,,,,,
5,MFH_AB1_IW_2,,,,,3,KALKGIPSPUTZ_1,0.01,2.52,1400.0,1.1,7.7,,,,0.9,,0.4,,,,,
